{
    "goal": {
        "global_pose": {
            "orientation": {
                "w": 0.7047431468963623,
                "x": -0.7094548344612122,
                "y": 0.0024358443915843964,
                "z": -0.0022348060738295317
            },
            "position": {
                "x": 0.6094750761985779,
                "y": 0.3671506643295288,
                "z": 0.19426114857196808
            }
        },
        "name": "move_to_magneteinheit_A"
    },
    "id": "RRTConnect_move_to_magneteinheit_A_1",
    "joint_names": [
        "shoulder_pan_joint",
        "shoulder_lift_joint",
        "elbow_joint",
        "wrist_1_joint",
        "wrist_2_joint",
        "wrist_3_joint"
    ],
    "metrics": {
        "cart_traj_len": 3.5843508653652583,
        "distance_elbow_joint": 3.8800991182398645,
        "distance_shoulder_lift_joint": 0.4280466617186074,
        "distance_shoulder_pan_joint": 3.3364076408097887,
        "distance_wrist_1_joint": 0.8217753473258969,
        "distance_wrist_2_joint": 1.7039731085551497,
        "distance_wrist_3_joint": 3.6867297136535964,
        "smoothness": 0.08783361455057657,
        "time": 0.064466733,
        "traj_len": 3.7225034036657245,
        "weighted_distance": 4.874037286838412
    },
    "planner": "RRTConnect",
    "start": {
        "state": {
            "elbow_joint": -1.919618573717145,
            "shoulder_lift_joint": -1.2443395971678275,
            "shoulder_pan_joint": 2.6996025300909787,
            "wrist_1_joint": -1.548550951253194,
            "wrist_2_joint": -1.5709469090946802,
            "wrist_3_joint": 0.4420197732051276
        }
    },
    "waypoints": [
        {
            "positions": [
                2.6996025300909787,
                -1.2443395971678275,
                -1.919618573717145,
                -1.548550951253194,
                -1.5709469090946802,
                0.4420197732051276
            ]
        },
        {
            "positions": [
                2.5652092874408905,
                -1.2320636221287447,
                -1.861954289858943,
                -1.527073025933229,
                -1.5027817781058095,
                0.350224291825848
            ]
        },
        {
            "positions": [
                2.4308160447908023,
                -1.2197876470896618,
                -1.8042900060007407,
                -1.505595100613264,
                -1.434616647116939,
                0.2584288104465684
            ]
        },
        {
            "positions": [
                2.296422802140714,
                -1.207511672050579,
                -1.7466257221425388,
                -1.4841171752932991,
                -1.3664515161280684,
                0.1666333290672889
            ]
        },
        {
            "positions": [
                2.162029559490626,
                -1.1952356970114961,
                -1.6889614382843368,
                -1.462639249973334,
                -1.298286385139198,
                0.07483784768800927
            ]
        },
        {
            "positions": [
                2.027636316840538,
                -1.1829597219724133,
                -1.6312971544261348,
                -1.441161324653369,
                -1.2301212541503272,
                -0.01695763369127029
            ]
        },
        {
            "positions": [
                1.8932430741904498,
                -1.1706837469333304,
                -1.5736328705679328,
                -1.419683399333404,
                -1.1619561231614566,
                -0.1087531150705498
            ]
        },
        {
            "positions": [
                1.7588498315403616,
                -1.1584077718942476,
                -1.5159685867097306,
                -1.3982054740134389,
                -1.0937909921725861,
                -0.20054859644982942
            ]
        },
        {
            "positions": [
                1.6244565888902731,
                -1.1461317968551648,
                -1.4583043028515286,
                -1.3767275486934738,
                -1.0256258611837155,
                -0.29234407782910904
            ]
        },
        {
            "positions": [
                1.4900633462401849,
                -1.133855821816082,
                -1.4006400189933266,
                -1.355249623373509,
                -0.9574607301948448,
                -0.38413955920838866
            ]
        },
        {
            "positions": [
                1.3556701035900969,
                -1.121579846776999,
                -1.3429757351351244,
                -1.333771698053544,
                -0.8892955992059742,
                -0.47593504058766817
            ]
        },
        {
            "positions": [
                1.2212768609400086,
                -1.1093038717379162,
                -1.2853114512769224,
                -1.3122937727335788,
                -0.8211304682171037,
                -0.5677305219669477
            ]
        },
        {
            "positions": [
                1.0868836182899206,
                -1.0970278966988334,
                -1.2276471674187204,
                -1.2908158474136138,
                -0.7529653372282331,
                -0.6595260033462271
            ]
        },
        {
            "positions": [
                0.9524903756398322,
                -1.0847519216597505,
                -1.1699828835605182,
                -1.2693379220936487,
                -0.6848002062393624,
                -0.751321484725507
            ]
        },
        {
            "positions": [
                0.8180971329897442,
                -1.0724759466206677,
                -1.1123185997023162,
                -1.2478599967736836,
                -0.6166350752504919,
                -0.8431169661047864
            ]
        },
        {
            "positions": [
                0.6837038903396562,
                -1.0601999715815849,
                -1.0546543158441142,
                -1.2263820714537188,
                -0.5484699442616214,
                -0.934912447484066
            ]
        },
        {
            "positions": [
                0.5493106476895675,
                -1.047923996542502,
                -0.9969900319859121,
                -1.2049041461337537,
                -0.48030481327275076,
                -1.0267079288633456
            ]
        },
        {
            "positions": [
                0.4149174050394797,
                -1.0356480215034192,
                -0.9393257481277101,
                -1.1834262208137887,
                -0.4121396822838801,
                -1.1185034102426252
            ]
        },
        {
            "positions": [
                0.28052416238939104,
                -1.0233720464643363,
                -0.881661464269508,
                -1.1619482954938236,
                -0.3439745512950094,
                -1.2102988916219048
            ]
        },
        {
            "positions": [
                0.14613091973930326,
                -1.0110960714252535,
                -0.823997180411306,
                -1.1404703701738588,
                -0.275809420306139,
                -1.3020943730011845
            ]
        },
        {
            "positions": [
                0.011737677089215026,
                -0.9988200963861706,
                -0.766332896553104,
                -1.1189924448538937,
                -0.2076442893172683,
                -1.3938898543804639
            ]
        },
        {
            "positions": [
                -0.1226555655608732,
                -0.9865441213470878,
                -0.7086686126949018,
                -1.0975145195339286,
                -0.13947915832839763,
                -1.4856853357597437
            ]
        },
        {
            "positions": [
                -0.2570488082109612,
                -0.974268146308005,
                -0.6510043288366999,
                -1.0760365942139636,
                -0.07131402733952709,
                -1.577480817139023
            ]
        },
        {
            "positions": [
                -0.22992335803182898,
                -0.9855520899407753,
                -0.4644696950253128,
                -1.051089380622059,
                -0.056718296853812966,
                -1.6965686116611265
            ]
        },
        {
            "positions": [
                -0.20279790785269675,
                -0.9968360335735457,
                -0.27793506121392575,
                -1.026142167030154,
                -0.04212256636809885,
                -1.8156564061832297
            ]
        },
        {
            "positions": [
                -0.17567245767356454,
                -1.008119977206316,
                -0.09140042740253862,
                -1.0011949534382494,
                -0.027526835882384727,
                -1.934744200705333
            ]
        },
        {
            "positions": [
                -0.1485470074944323,
                -1.0194039208390864,
                0.0951342064088484,
                -0.9762477398463446,
                -0.012931105396670611,
                -2.053831995227436
            ]
        },
        {
            "positions": [
                -0.12142155731530008,
                -1.0306878644718567,
                0.28166884022023564,
                -0.9513005262544398,
                0.0016646250890435116,
                -2.17291978974954
            ]
        },
        {
            "positions": [
                -0.09429610713616784,
                -1.041971808104627,
                0.46820347403162266,
                -0.9263533126625352,
                0.016260355574757634,
                -2.2920075842716425
            ]
        },
        {
            "positions": [
                -0.06717065695703561,
                -1.0532557517373973,
                0.6547381078430098,
                -0.9014060990706304,
                0.030856086060471757,
                -2.411095378793746
            ]
        },
        {
            "positions": [
                -0.04004520677790341,
                -1.0645396953701678,
                0.8412727416543967,
                -0.8764588854787256,
                0.045451816546185866,
                -2.5301831733158493
            ]
        },
        {
            "positions": [
                -0.012919756598771148,
                -1.075823639002938,
                1.027807375465784,
                -0.851511671886821,
                0.0600475470319,
                -2.649270967837953
            ]
        },
        {
            "positions": [
                0.014205693580361056,
                -1.0871075826357084,
                1.2143420092771713,
                -0.8265644582949162,
                0.07464327751761411,
                -2.768358762360056
            ]
        },
        {
            "positions": [
                0.041331143759493316,
                -1.0983915262684787,
                1.4008766430885582,
                -0.8016172447030114,
                0.08923900800332825,
                -2.8874465568821592
            ]
        },
        {
            "positions": [
                0.06845659393862552,
                -1.1096754699012492,
                1.587411276899945,
                -0.7766700311111068,
                0.10383473848904236,
                -3.0065343514042624
            ]
        },
        {
            "positions": [
                0.09558204411775778,
                -1.1209594135340195,
                1.7739459107113325,
                -0.7517228175192019,
                0.1184304689747565,
                -3.125622145926366
            ]
        },
        {
            "positions": [
                0.12270749429688996,
                -1.1322433571667898,
                1.9604805445227196,
                -0.7267756039272972,
                0.13302619946047062,
                -3.244709940448469
            ]
        }
    ]
}{
    "goal": {
        "global_pose": {
            "orientation": {
                "w": 0.7047431468963623,
                "x": -0.7094548344612122,
                "y": 0.0024358443915843964,
                "z": -0.0022348060738295317
            },
            "position": {
                "x": 0.6094750761985779,
                "y": 0.3671506643295288,
                "z": 0.19426114857196808
            }
        },
        "name": "move_to_magneteinheit_A"
    },
    "id": "RRTConnect_move_to_magneteinheit_A_1",
    "joint_names": [
        "shoulder_pan_joint",
        "shoulder_lift_joint",
        "elbow_joint",
        "wrist_1_joint",
        "wrist_2_joint",
        "wrist_3_joint"
    ],
    "metrics": {
        "cart_traj_len": 1.2784269314903471,
        "distance_elbow_joint": 0.48178854486527456,
        "distance_shoulder_lift_joint": 0.9467751682732619,
        "distance_shoulder_pan_joint": 1.2425213724744668,
        "distance_wrist_1_joint": 1.513369778719968,
        "distance_wrist_2_joint": 1.9550296613532239,
        "distance_wrist_3_joint": 4.366641177702032,
        "smoothness": 0.417375863362084,
        "time": 0.098806896,
        "traj_len": 3.241315427937897,
        "weighted_distance": 4.765270978534746
    },
    "planner": "RRTConnect",
    "start": {
        "state": {
            "elbow_joint": 1.919643534880228,
            "shoulder_lift_joint": -1.8972525353963687,
            "shoulder_pan_joint": -1.1188672234189438,
            "wrist_1_joint": -1.5931878212786155,
            "wrist_2_joint": 1.5706036197970081,
            "wrist_3_joint": 1.118896926603594
        }
    },
    "waypoints": [
        {
            "positions": [
                -1.1188672234189438,
                -1.8972525353963687,
                1.919643534880228,
                -1.5931878212786155,
                1.5706036197970081,
                1.118896926603594
            ]
        },
        {
            "positions": [
                -1.0664808227296119,
                -1.85828837936859,
                1.909510004484645,
                -1.5387094565678237,
                1.4934076526398643,
                0.9632897772010055
            ]
        },
        {
            "positions": [
                -1.0140944220402799,
                -1.8193242233408116,
                1.899376474089062,
                -1.4842310918570316,
                1.4162116854827203,
                0.807682627798417
            ]
        },
        {
            "positions": [
                -0.961708021350948,
                -1.7803600673130329,
                1.8892429436934788,
                -1.4297527271462398,
                1.3390157183255764,
                0.6520754783958287
            ]
        },
        {
            "positions": [
                -0.909321620661616,
                -1.7413959112852542,
                1.8791094132978956,
                -1.375274362435448,
                1.2618197511684324,
                0.4964683289932402
            ]
        },
        {
            "positions": [
                -0.8569352199722842,
                -1.7024317552574757,
                1.8689758829023126,
                -1.3207959977246562,
                1.1846237840112885,
                0.3408611795906519
            ]
        },
        {
            "positions": [
                -0.8045488192829522,
                -1.663467599229697,
                1.8588423525067295,
                -1.2663176330138644,
                1.1074278168541447,
                0.1852540301880634
            ]
        },
        {
            "positions": [
                -0.7521624185936202,
                -1.6245034432019183,
                1.8487088221111463,
                -1.2118392683030723,
                1.0302318496970007,
                0.02964688078547506
            ]
        },
        {
            "positions": [
                -0.6997760179042882,
                -1.5855392871741398,
                1.8385752917155633,
                -1.1573609035922805,
                0.9530358825398567,
                -0.1259602686171135
            ]
        },
        {
            "positions": [
                -0.6473896172149562,
                -1.5465751311463611,
                1.8284417613199802,
                -1.1028825388814885,
                0.8758399153827127,
                -0.2815674180197021
            ]
        },
        {
            "positions": [
                -0.5950032165256244,
                -1.5076109751185824,
                1.818308230924397,
                -1.0484041741706966,
                0.7986439482255688,
                -0.4371745674222902
            ]
        },
        {
            "positions": [
                -0.5426168158362924,
                -1.4686468190908037,
                1.8081747005288138,
                -0.9939258094599048,
                0.7214479810684249,
                -0.5927817168248788
            ]
        },
        {
            "positions": [
                -0.49023041514696053,
                -1.4296826630630253,
                1.7980411701332308,
                -0.939447444749113,
                0.6442520139112811,
                -0.7483888662274671
            ]
        },
        {
            "positions": [
                -0.43784401445762844,
                -1.3907185070352466,
                1.7879076397376477,
                -0.8849690800383211,
                0.567056046754137,
                -0.9039960156300559
            ]
        },
        {
            "positions": [
                -0.38545761376829657,
                -1.351754351007468,
                1.7777741093420647,
                -0.8304907153275292,
                0.4898600795969932,
                -1.0596031650326438
            ]
        },
        {
            "positions": [
                -0.3330712130789647,
                -1.3127901949796894,
                1.7676405789464815,
                -0.7760123506167373,
                0.41266411243984935,
                -1.2152103144352322
            ]
        },
        {
            "positions": [
                -0.2806848123896326,
                -1.2738260389519107,
                1.7575070485508983,
                -0.7215339859059454,
                0.3354681452827053,
                -1.370817463837821
            ]
        },
        {
            "positions": [
                -0.22829841170030074,
                -1.234861882924132,
                1.7473735181553152,
                -0.6670556211951536,
                0.25827217812556125,
                -1.5264246132404093
            ]
        },
        {
            "positions": [
                -0.17591201101096865,
                -1.1958977268963533,
                1.7372399877597322,
                -0.6125772564843617,
                0.1810762109684172,
                -1.6820317626429981
            ]
        },
        {
            "positions": [
                -0.12352561032163678,
                -1.1569335708685748,
                1.727106457364149,
                -0.5580988917735699,
                0.10388024381127337,
                -1.8376389120455865
            ]
        },
        {
            "positions": [
                -0.07113920963230491,
                -1.1179694148407964,
                1.7169729269685658,
                -0.503620527062778,
                0.026684276654129535,
                -1.9932460614481744
            ]
        },
        {
            "positions": [
                -0.01875280894297293,
                -1.0790052588130177,
                1.706839396572983,
                -0.449142162351986,
                -0.05051169050301452,
                -2.1488532108507634
            ]
        },
        {
            "positions": [
                0.03363359174635906,
                -1.040041102785239,
                1.6967058661773997,
                -0.3946637976411941,
                -0.12770765766015835,
                -2.3044603602533513
            ]
        },
        {
            "positions": [
                0.051637703208191776,
                -1.0579538499176655,
                1.748476041409889,
                -0.4576329486577034,
                -0.07636398088094684,
                -2.4931171384223685
            ]
        },
        {
            "positions": [
                0.06964181467002448,
                -1.0758665970500918,
                1.8002462166423783,
                -0.5206020996742127,
                -0.025020304101735336,
                -2.681773916591386
            ]
        },
        {
            "positions": [
                0.0876459261318572,
                -1.0937793441825183,
                1.8520163918748673,
                -0.5835712506907219,
                0.026323372677476142,
                -2.8704306947604032
            ]
        },
        {
            "positions": [
                0.1056500375936899,
                -1.1116920913149446,
                1.9037865671073566,
                -0.6465404017072311,
                0.07766704945668768,
                -3.059087472929421
            ]
        },
        {
            "positions": [
                0.12365414905552262,
                -1.1296048384473711,
                1.9555567423398459,
                -0.7095095527237405,
                0.12901072623589913,
                -3.247744251098438
            ]
        }
    ]
}