{
    "goal": {
        "global_pose": {
            "orientation": {
                "w": 0.7047431468963623,
                "x": -0.7094548344612122,
                "y": 0.0024358443915843964,
                "z": -0.0022348060738295317
            },
            "position": {
                "x": 0.6094750761985779,
                "y": 0.3671506643295288,
                "z": 0.19426114857196808
            }
        },
        "name": "move_to_magneteinheit_A"
    },
    "id": "RRTConnect_move_to_magneteinheit_A_25",
    "joint_names": [
        "shoulder_pan_joint",
        "shoulder_lift_joint",
        "elbow_joint",
        "wrist_1_joint",
        "wrist_2_joint",
        "wrist_3_joint"
    ],
    "metrics": {
        "cart_traj_len": 3.137993376865813,
        "distance_elbow_joint": 3.9033964583538667,
        "distance_shoulder_lift_joint": 0.09895576349261304,
        "distance_shoulder_pan_joint": 2.7238609563221603,
        "distance_wrist_1_joint": 1.2278120835684545,
        "distance_wrist_2_joint": 1.6957539104987456,
        "distance_wrist_3_joint": 3.854038393830558,
        "smoothness": 0.047399943224288484,
        "time": 0.098432225,
        "traj_len": 3.674754082393324,
        "weighted_distance": 4.912785396065526
    },
    "planner": "RRTConnect",
    "start": {
        "state": {
            "elbow_joint": -1.919618573717145,
            "shoulder_lift_joint": -1.2443395971678275,
            "shoulder_pan_joint": 2.6996025300909787,
            "wrist_1_joint": -1.548550951253194,
            "wrist_2_joint": -1.5709469090946802,
            "wrist_3_joint": 0.4420197732051276
        }
    },
    "waypoints": [
        {
            "positions": [
                2.6996025300909787,
                -1.2443395971678275,
                -1.919618573717145,
                -1.548550951253194,
                -1.5709469090946802,
                0.4420197732051276
            ]
        },
        {
            "positions": [
                2.55921274341019,
                -1.2422009054704242,
                -1.757080717550036,
                -1.491503793996147,
                -1.5592426019877468,
                0.4497397370479523
            ]
        },
        {
            "positions": [
                2.418822956729401,
                -1.240062213773021,
                -1.5945428613829271,
                -1.4344566367390998,
                -1.5475382948808134,
                0.4574597008907769
            ]
        },
        {
            "positions": [
                2.2784331700486122,
                -1.2379235220756177,
                -1.4320050052158182,
                -1.3774094794820528,
                -1.5358339877738802,
                0.4651796647336016
            ]
        },
        {
            "positions": [
                2.1380433833678234,
                -1.2357848303782146,
                -1.2694671490487095,
                -1.3203623222250056,
                -1.5241296806669469,
                0.47289962857642626
            ]
        },
        {
            "positions": [
                1.9976535966870346,
                -1.2336461386808113,
                -1.1069292928816006,
                -1.2633151649679586,
                -1.5124253735600135,
                0.48061959241925095
            ]
        },
        {
            "positions": [
                1.8572638100062457,
                -1.231507446983408,
                -0.9443914367144917,
                -1.2062680077109116,
                -1.5007210664530801,
                0.48833955626207565
            ]
        },
        {
            "positions": [
                1.716874023325457,
                -1.2293687552860049,
                -0.7818535805473827,
                -1.1492208504538644,
                -1.4890167593461467,
                0.4960595201049003
            ]
        },
        {
            "positions": [
                1.576484236644668,
                -1.2272300635886015,
                -0.6193157243802738,
                -1.0921736931968173,
                -1.4773124522392134,
                0.503779483947725
            ]
        },
        {
            "positions": [
                1.4360944499638792,
                -1.2250913718911984,
                -0.45677786821316513,
                -1.0351265359397703,
                -1.4656081451322802,
                0.5114994477905497
            ]
        },
        {
            "positions": [
                1.2957046632830904,
                -1.222952680193795,
                -0.2942400120460562,
                -0.9780793786827231,
                -1.4539038380253468,
                0.5192194116333744
            ]
        },
        {
            "positions": [
                1.1553148766023016,
                -1.220813988496392,
                -0.1317021558789473,
                -0.921032221425676,
                -1.4421995309184135,
                0.526939375476199
            ]
        },
        {
            "positions": [
                1.0149250899215128,
                -1.2186752967989887,
                0.030835700288161627,
                -0.8639850641686289,
                -1.43049522381148,
                0.5346593393190237
            ]
        },
        {
            "positions": [
                0.8745353032407241,
                -1.2165366051015853,
                0.19337355645527032,
                -0.8069379069115818,
                -1.4187909167045467,
                0.5423793031618483
            ]
        },
        {
            "positions": [
                0.7341455165599351,
                -1.2143979134041822,
                0.35591141262237946,
                -0.7498907496545347,
                -1.4070866095976133,
                0.550099267004673
            ]
        },
        {
            "positions": [
                0.5937557298791463,
                -1.212259221706779,
                0.5184492687894882,
                -0.6928435923974876,
                -1.3953823024906802,
                0.5578192308474976
            ]
        },
        {
            "positions": [
                0.45336594319835744,
                -1.2101205300093758,
                0.6809871249565973,
                -0.6357964351404405,
                -1.3836779953837468,
                0.5655391946903223
            ]
        },
        {
            "positions": [
                0.3129761565175685,
                -1.2079818383119725,
                0.8435249811237061,
                -0.5787492778833934,
                -1.3719736882768134,
                0.573259158533147
            ]
        },
        {
            "positions": [
                0.28736524798301716,
                -1.2066812914140401,
                0.9235275273348622,
                -0.5898121002693175,
                -1.3016813629510524,
                0.37437501998665995
            ]
        },
        {
            "positions": [
                0.2617543394484658,
                -1.2053807445161078,
                1.0035300735460182,
                -0.6008749226552416,
                -1.2313890376252914,
                0.17549088144017289
            ]
        },
        {
            "positions": [
                0.2361434309139145,
                -1.2040801976181752,
                1.0835326197571742,
                -0.6119377450411656,
                -1.1610967122995304,
                -0.023393257106314125
            ]
        },
        {
            "positions": [
                0.21053252237936315,
                -1.2027796507202428,
                1.1635351659683302,
                -0.6230005674270898,
                -1.0908043869737694,
                -0.22227739565280125
            ]
        },
        {
            "positions": [
                0.18492161384481182,
                -1.2014791038223105,
                1.2435377121794864,
                -0.6340633898130139,
                -1.0205120616480081,
                -0.42116153419928826
            ]
        },
        {
            "positions": [
                0.15931070531026048,
                -1.2001785569243781,
                1.3235402583906424,
                -0.645126212198938,
                -0.9502197363222472,
                -0.6200456727457753
            ]
        },
        {
            "positions": [
                0.13369979677570915,
                -1.1988780100264458,
                1.4035428046017984,
                -0.656189034584862,
                -0.8799274109964862,
                -0.8189298112922623
            ]
        },
        {
            "positions": [
                0.10808888824115781,
                -1.1975774631285132,
                1.4835453508129546,
                -0.6672518569707862,
                -0.8096350856707251,
                -1.0178139498387495
            ]
        },
        {
            "positions": [
                0.08247797970660647,
                -1.1962769162305809,
                1.5635478970241106,
                -0.6783146793567103,
                -0.739342760344964,
                -1.2166980883852365
            ]
        },
        {
            "positions": [
                0.056867071172055125,
                -1.1949763693326485,
                1.6435504432352666,
                -0.6893775017426343,
                -0.669050435019203,
                -1.4155822269317235
            ]
        },
        {
            "positions": [
                0.054985128965935166,
                -1.1913482969013685,
                1.6874423518952444,
                -0.7025847597940389,
                -0.5968465459710467,
                -1.5862585707908727
            ]
        },
        {
            "positions": [
                0.05310318675981521,
                -1.1877202244700884,
                1.7313342605552222,
                -0.7157920178454436,
                -0.5246426569228904,
                -1.7569349146500222
            ]
        },
        {
            "positions": [
                0.05122124455369525,
                -1.1840921520388084,
                1.7752261692152,
                -0.7289992758968482,
                -0.45243876787473414,
                -1.9276112585091714
            ]
        },
        {
            "positions": [
                0.04933930234757529,
                -1.1804640796075283,
                1.8191180778751779,
                -0.7422065339482528,
                -0.3802348788265778,
                -2.0982876023683206
            ]
        },
        {
            "positions": [
                0.06405884806332632,
                -1.1734480304210655,
                1.8520500392274866,
                -0.7611171647750115,
                -0.27922650278044914,
                -2.308538051888535
            ]
        },
        {
            "positions": [
                0.07877839377907733,
                -1.1664319812346027,
                1.8849820005797955,
                -0.7800277956017703,
                -0.17821812673432047,
                -2.518788501408749
            ]
        },
        {
            "positions": [
                0.09349793949482835,
                -1.15941593204814,
                1.9179139619321042,
                -0.798938426428529,
                -0.0772097506881918,
                -2.7290389509289628
            ]
        },
        {
            "positions": [
                0.10821748521057938,
                -1.1523998828616773,
                1.950845923284413,
                -0.8178490572552878,
                0.023798625357936865,
                -2.939289400449177
            ]
        },
        {
            "positions": [
                0.12293703092633039,
                -1.1453838336752145,
                1.9837778846367218,
                -0.8367596880820465,
                0.12480700140406555,
                -3.149539849969391
            ]
        }
    ]
}{
    "goal": {
        "global_pose": {
            "orientation": {
                "w": 0.7047431468963623,
                "x": -0.7094548344612122,
                "y": 0.0024358443915843964,
                "z": -0.0022348060738295317
            },
            "position": {
                "x": 0.6094750761985779,
                "y": 0.3671506643295288,
                "z": 0.19426114857196808
            }
        },
        "name": "move_to_magneteinheit_A"
    },
    "id": "RRTConnect_move_to_magneteinheit_A_25",
    "joint_names": [
        "shoulder_pan_joint",
        "shoulder_lift_joint",
        "elbow_joint",
        "wrist_1_joint",
        "wrist_2_joint",
        "wrist_3_joint"
    ],
    "metrics": {
        "cart_traj_len": 1.4157016292212699,
        "distance_elbow_joint": 0.28650168317728375,
        "distance_shoulder_lift_joint": 1.1540051108195666,
        "distance_shoulder_pan_joint": 1.2406308796082222,
        "distance_wrist_1_joint": 0.7345603020862552,
        "distance_wrist_2_joint": 1.4348509710856405,
        "distance_wrist_3_joint": 4.245429626297531,
        "smoothness": 0.1736055375900772,
        "time": 0.078070058,
        "traj_len": 3.015954007121876,
        "weighted_distance": 4.44480023160113
    },
    "planner": "RRTConnect",
    "start": {
        "state": {
            "elbow_joint": 1.919643534880228,
            "shoulder_lift_joint": -1.8972525353963687,
            "shoulder_pan_joint": -1.1188672234189438,
            "wrist_1_joint": -1.5931878212786155,
            "wrist_2_joint": 1.5706036197970081,
            "wrist_3_joint": 1.118896926603594
        }
    },
    "waypoints": [
        {
            "positions": [
                -1.1188672234189438,
                -1.8972525353963687,
                1.919643534880228,
                -1.5931878212786155,
                1.5706036197970081,
                1.118896926603594
            ]
        },
        {
            "positions": [
                -1.0641994490357836,
                -1.8540210845403062,
                1.9147365186886354,
                -1.5599786699197136,
                1.5133905396178027,
                0.9301295843517037
            ]
        },
        {
            "positions": [
                -1.0095316746526233,
                -1.810789633684244,
                1.9098295024970426,
                -1.5267695185608117,
                1.456177459438597,
                0.7413622420998134
            ]
        },
        {
            "positions": [
                -0.9548639002694631,
                -1.7675581828281817,
                1.9049224863054501,
                -1.4935603672019095,
                1.3989643792593915,
                0.5525948998479231
            ]
        },
        {
            "positions": [
                -0.9001961258863028,
                -1.7243267319721192,
                1.9000154701138574,
                -1.4603512158430076,
                1.3417512990801859,
                0.3638275575960328
            ]
        },
        {
            "positions": [
                -0.8455283515031425,
                -1.6810952811160567,
                1.8951084539222647,
                -1.4271420644841057,
                1.2845382189009804,
                0.1750602153441425
            ]
        },
        {
            "positions": [
                -0.7908605771199824,
                -1.6378638302599944,
                1.890201437730672,
                -1.3939329131252038,
                1.227325138721775,
                -0.01370712690774778
            ]
        },
        {
            "positions": [
                -0.7361928027368221,
                -1.5946323794039319,
                1.8852944215390792,
                -1.3607237617663017,
                1.1701120585425693,
                -0.20247446915963807
            ]
        },
        {
            "positions": [
                -0.6815250283536618,
                -1.5514009285478696,
                1.8803874053474865,
                -1.3275146104073998,
                1.1128989783633638,
                -0.39124181141152836
            ]
        },
        {
            "positions": [
                -0.6268572539705015,
                -1.508169477691807,
                1.875480389155894,
                -1.294305459048498,
                1.0556858981841581,
                -0.5800091536634187
            ]
        },
        {
            "positions": [
                -0.5721894795873412,
                -1.4649380268357448,
                1.8705733729643013,
                -1.261096307689596,
                0.9984728180049527,
                -0.7687764959153089
            ]
        },
        {
            "positions": [
                -0.517521705204181,
                -1.4217065759796823,
                1.8656663567727085,
                -1.2278871563306941,
                0.9412597378257471,
                -0.9575438381671992
            ]
        },
        {
            "positions": [
                -0.4628539308210208,
                -1.37847512512362,
                1.8607593405811158,
                -1.194678004971792,
                0.8840466576465417,
                -1.1463111804190895
            ]
        },
        {
            "positions": [
                -0.4081861564378604,
                -1.3352436742675575,
                1.855852324389523,
                -1.16146885361289,
                0.826833577467336,
                -1.3350785226709798
            ]
        },
        {
            "positions": [
                -0.3535183820547002,
                -1.2920122234114952,
                1.8509453081979306,
                -1.1282597022539882,
                0.7696204972881305,
                -1.52384586492287
            ]
        },
        {
            "positions": [
                -0.2988506076715399,
                -1.248780772555433,
                1.8460382920063378,
                -1.0950505508950863,
                0.712407417108925,
                -1.7126132071747604
            ]
        },
        {
            "positions": [
                -0.24418283328837964,
                -1.2055493216993702,
                1.8411312758147451,
                -1.0618413995361844,
                0.6551943369297194,
                -1.9013805494266507
            ]
        },
        {
            "positions": [
                -0.18951505890521936,
                -1.162317870843308,
                1.8362242596231524,
                -1.0286322481772823,
                0.5979812567505138,
                -2.0901478916785408
            ]
        },
        {
            "positions": [
                -0.13484728452205907,
                -1.1190864199872457,
                1.8313172434315597,
                -0.9954230968183803,
                0.5407681765713082,
                -2.278915233930431
            ]
        },
        {
            "positions": [
                -0.0801795101388989,
                -1.0758549691311832,
                1.826410227239967,
                -0.9622139454594784,
                0.4835550963921027,
                -2.4676825761823213
            ]
        },
        {
            "positions": [
                -0.025511735755738618,
                -1.0326235182751207,
                1.8215032110483744,
                -0.9290047941005765,
                0.42634201621289725,
                -2.6564499184342116
            ]
        },
        {
            "positions": [
                0.029156038627421665,
                -0.9893920674190584,
                1.8165961948567817,
                -0.8957956427416744,
                0.36912893603369157,
                -2.845217260686102
            ]
        },
        {
            "positions": [
                0.08382381301058198,
                -0.946160616562996,
                1.811689178665189,
                -0.8625864913827725,
                0.31191585585448617,
                -3.0339846029379927
            ]
        },
        {
            "positions": [
                0.10279373459993027,
                -1.047617212556093,
                1.9009628421463112,
                -0.8606070052875664,
                0.22383425228292697,
                -3.0802586513159653
            ]
        },
        {
            "positions": [
                0.12176365618927856,
                -1.1490738085491898,
                1.9902365056274336,
                -0.8586275191923602,
                0.13575264871136777,
                -3.126532699693938
            ]
        }
    ]
}