{
    "goal": {
        "global_pose": {
            "orientation": {
                "w": 0.7047431468963623,
                "x": -0.7094548344612122,
                "y": 0.0024358443915843964,
                "z": -0.0022348060738295317
            },
            "position": {
                "x": 0.6094750761985779,
                "y": 0.3671506643295288,
                "z": 0.19426114857196808
            }
        },
        "name": "move_to_magneteinheit_A"
    },
    "id": "RRTConnect_move_to_magneteinheit_A_63",
    "joint_names": [
        "shoulder_pan_joint",
        "shoulder_lift_joint",
        "elbow_joint",
        "wrist_1_joint",
        "wrist_2_joint",
        "wrist_3_joint"
    ],
    "metrics": {
        "cart_traj_len": 2.8234065340611068,
        "distance_elbow_joint": 5.213312743959516,
        "distance_shoulder_lift_joint": 1.1420665308129683,
        "distance_shoulder_pan_joint": 2.8916423410867713,
        "distance_wrist_1_joint": 3.950288396257741,
        "distance_wrist_2_joint": 1.4317661094523206,
        "distance_wrist_3_joint": 0.4578122016246914,
        "smoothness": 0.3172135960788345,
        "time": 0.059207345999999994,
        "traj_len": 3.884184383264267,
        "weighted_distance": 4.62434505980614
    },
    "planner": "RRTConnect",
    "start": {
        "state": {
            "elbow_joint": -1.919618573717145,
            "shoulder_lift_joint": -1.2443395971678275,
            "shoulder_pan_joint": 2.6996025300909787,
            "wrist_1_joint": -1.548550951253194,
            "wrist_2_joint": -1.5709469090946802,
            "wrist_3_joint": 0.4420197732051276
        }
    },
    "waypoints": [
        {
            "positions": [
                2.6996025300909787,
                -1.2443395971678275,
                -1.919618573717145,
                -1.548550951253194,
                -1.5709469090946802,
                0.4420197732051276
            ]
        },
        {
            "positions": [
                2.611408236406842,
                -1.2552503454192117,
                -1.7723687437462226,
                -1.4286883868174087,
                -1.5494629386280823,
                0.4384400656602249
            ]
        },
        {
            "positions": [
                2.523213942722706,
                -1.266161093670596,
                -1.6251189137753,
                -1.3088258223816234,
                -1.5279789681614842,
                0.4348603581153222
            ]
        },
        {
            "positions": [
                2.435019649038569,
                -1.2770718419219802,
                -1.4778690838043778,
                -1.188963257945838,
                -1.5064949976948863,
                0.43128065057041953
            ]
        },
        {
            "positions": [
                2.3468253553544325,
                -1.2879825901733644,
                -1.3306192538334551,
                -1.0691006935100527,
                -1.4850110272282884,
                0.42770094302551687
            ]
        },
        {
            "positions": [
                2.258631061670296,
                -1.2988933384247487,
                -1.1833694238625327,
                -0.9492381290742673,
                -1.4635270567616903,
                0.42412123548061414
            ]
        },
        {
            "positions": [
                2.1704367679861596,
                -1.309804086676133,
                -1.0361195938916103,
                -0.8293755646384819,
                -1.4420430862950924,
                0.4205415279357115
            ]
        },
        {
            "positions": [
                2.082242474302023,
                -1.320714834927517,
                -0.888869763920688,
                -0.7095130002026966,
                -1.4205591158284943,
                0.41696182039080876
            ]
        },
        {
            "positions": [
                1.9940481806178862,
                -1.3316255831789015,
                -0.7416199339497653,
                -0.5896504357669112,
                -1.3990751453618964,
                0.4133821128459061
            ]
        },
        {
            "positions": [
                1.9058538869337498,
                -1.3425363314302856,
                -0.5943701039788429,
                -0.46978787133112565,
                -1.3775911748952985,
                0.4098024053010034
            ]
        },
        {
            "positions": [
                1.8176595932496133,
                -1.35344707968167,
                -0.44712027400792054,
                -0.3499253068953405,
                -1.3561072044287004,
                0.40622269775610076
            ]
        },
        {
            "positions": [
                1.7294652995654767,
                -1.3643578279330542,
                -0.2998704440369979,
                -0.23006274245955494,
                -1.3346232339621025,
                0.40264299021119804
            ]
        },
        {
            "positions": [
                1.6412710058813402,
                -1.3752685761844383,
                -0.15262061406607574,
                -0.1102001780237698,
                -1.3131392634955046,
                0.39906328266629537
            ]
        },
        {
            "positions": [
                1.5530767121972036,
                -1.3861793244358227,
                -0.005370784095153125,
                0.009662386412015778,
                -1.2916552930289065,
                0.39548357512139265
            ]
        },
        {
            "positions": [
                1.464882418513067,
                -1.3970900726872069,
                0.14187904587576905,
                0.1295249508478009,
                -1.2701713225623086,
                0.39190386757649
            ]
        },
        {
            "positions": [
                1.3766881248289307,
                -1.408000820938591,
                0.28912887584669167,
                0.2493875152835865,
                -1.2486873520957107,
                0.3883241600315873
            ]
        },
        {
            "positions": [
                1.288493831144794,
                -1.4189115691899754,
                0.4363787058176143,
                0.3692500797193716,
                -1.2272033816291126,
                0.3847444524866846
            ]
        },
        {
            "positions": [
                1.2002995374606575,
                -1.4298223174413596,
                0.5836285357885365,
                0.48911264415515676,
                -1.2057194111625147,
                0.38116474494178193
            ]
        },
        {
            "positions": [
                1.1121052437765209,
                -1.440733065692744,
                0.7308783657594591,
                0.6089752085909428,
                -1.1842354406959168,
                0.3775850373968792
            ]
        },
        {
            "positions": [
                1.0239109500923844,
                -1.4516438139441281,
                0.8781281957303817,
                0.7288377730267279,
                -1.1627514702293187,
                0.37400532985197654
            ]
        },
        {
            "positions": [
                0.935716656408248,
                -1.4625545621955123,
                1.0253780257013039,
                0.848700337462513,
                -1.1412674997627208,
                0.3704256223070739
            ]
        },
        {
            "positions": [
                0.8475223627241115,
                -1.4734653104468964,
                1.172627855672226,
                0.9685629018982982,
                -1.119783529296123,
                0.3668459147621712
            ]
        },
        {
            "positions": [
                0.7593280690399746,
                -1.4843760586982808,
                1.3198776856431491,
                1.0884254663340842,
                -1.0982995588295248,
                0.3632662072172685
            ]
        },
        {
            "positions": [
                0.6711337753558384,
                -1.495286806949665,
                1.4671275156140713,
                1.2082880307698693,
                -1.076815588362927,
                0.3596864996723658
            ]
        },
        {
            "positions": [
                0.5829394816717017,
                -1.5061975552010494,
                1.6143773455849935,
                1.3281505952056545,
                -1.055331617896329,
                0.3561067921274631
            ]
        },
        {
            "positions": [
                0.4947451879875655,
                -1.5171083034524335,
                1.761627175555916,
                1.4480131596414396,
                -1.033847647429731,
                0.35252708458256043
            ]
        },
        {
            "positions": [
                0.4065508943034284,
                -1.5280190517038177,
                1.9088770055268387,
                1.5678757240772256,
                -1.0123636769631328,
                0.34894737703765777
            ]
        },
        {
            "positions": [
                0.31835660061929216,
                -1.538929799955202,
                2.0561268354977615,
                1.6877382885130108,
                -0.990879706496535,
                0.3453676694927551
            ]
        },
        {
            "positions": [
                0.2301623069351555,
                -1.5498405482065862,
                2.2033766654686833,
                1.807600852948796,
                -0.969395736029937,
                0.3417879619478524
            ]
        },
        {
            "positions": [
                0.14196801325101926,
                -1.5607512964579704,
                2.350626495439606,
                1.9274634173845815,
                -0.9479117655633391,
                0.3382082544029497
            ]
        },
        {
            "positions": [
                0.053773719566882594,
                -1.5716620447093548,
                2.4978763254105285,
                2.047325981820367,
                -0.9264277950967411,
                0.334628546858047
            ]
        },
        {
            "positions": [
                -0.03442057411725408,
                -1.582572792960739,
                2.645126155381451,
                2.167188546256152,
                -0.9049438246301431,
                0.3310488393131443
            ]
        },
        {
            "positions": [
                -0.014718169507436887,
                -1.4820936260832318,
                2.564055153523836,
                2.1378699339126026,
                -0.8092234465066701,
                0.28769368084655583
            ]
        },
        {
            "positions": [
                0.004984235102380302,
                -1.3816144592057247,
                2.4829841516662206,
                2.1085513215690534,
                -0.7135030683831972,
                0.24433852237996728
            ]
        },
        {
            "positions": [
                0.024686639712197492,
                -1.2811352923282175,
                2.4019131498086055,
                2.079232709225504,
                -0.6177826902597243,
                0.2009833639133788
            ]
        },
        {
            "positions": [
                0.04438904432201468,
                -1.1806561254507104,
                2.32084214795099,
                2.0499140968819547,
                -0.5220623121362513,
                0.15762820544679026
            ]
        },
        {
            "positions": [
                0.06409144893183187,
                -1.0801769585732033,
                2.239771146093375,
                2.020595484538405,
                -0.42634193401277837,
                0.11427304698020174
            ]
        },
        {
            "positions": [
                0.08379385354164906,
                -0.9796977916956963,
                2.15870014423576,
                1.9912768721948557,
                -0.3306215558893054,
                0.07091788851361325
            ]
        },
        {
            "positions": [
                0.10349625815146624,
                -0.8792186248181891,
                2.0776291423781448,
                1.9619582598513063,
                -0.23490117776583253,
                0.027562730047024697
            ]
        },
        {
            "positions": [
                0.12319866276128343,
                -0.778739457940682,
                1.9965581405205293,
                1.932639647507757,
                -0.1391807996423595,
                -0.015792428419563787
            ]
        }
    ]
}{
    "goal": {
        "global_pose": {
            "orientation": {
                "w": 0.7047431468963623,
                "x": -0.7094548344612122,
                "y": 0.0024358443915843964,
                "z": -0.0022348060738295317
            },
            "position": {
                "x": 0.6094750761985779,
                "y": 0.3671506643295288,
                "z": 0.19426114857196808
            }
        },
        "name": "move_to_magneteinheit_A"
    },
    "id": "RRTConnect_move_to_magneteinheit_A_63",
    "joint_names": [
        "shoulder_pan_joint",
        "shoulder_lift_joint",
        "elbow_joint",
        "wrist_1_joint",
        "wrist_2_joint",
        "wrist_3_joint"
    ],
    "metrics": {
        "cart_traj_len": 1.2501567746417612,
        "distance_elbow_joint": 0.07351291498131296,
        "distance_shoulder_lift_joint": 1.1207711839387242,
        "distance_shoulder_pan_joint": 1.2407469335157832,
        "distance_wrist_1_joint": 3.517939181689191,
        "distance_wrist_2_joint": 1.6928346418790388,
        "distance_wrist_3_joint": 1.1200743852219874,
        "smoothness": 6.291263808898894e-16,
        "time": 0.059033875,
        "traj_len": 2.9607227565623293,
        "weighted_distance": 4.027009043351931
    },
    "planner": "RRTConnect",
    "start": {
        "state": {
            "elbow_joint": 1.919643534880228,
            "shoulder_lift_joint": -1.8972525353963687,
            "shoulder_pan_joint": -1.1188672234189438,
            "wrist_1_joint": -1.5931878212786155,
            "wrist_2_joint": 1.5706036197970081,
            "wrist_3_joint": 1.118896926603594
        }
    },
    "waypoints": [
        {
            "positions": [
                -1.1188672234189438,
                -1.8972525353963687,
                1.919643534880228,
                -1.5931878212786155,
                1.5706036197970081,
                1.118896926603594
            ]
        },
        {
            "positions": [
                -1.0649217045704316,
                -1.8485233534859895,
                1.922839748575068,
                -1.440233943813868,
                1.4970021136283542,
                1.0701980402895945
            ]
        },
        {
            "positions": [
                -1.0109761857219193,
                -1.79979417157561,
                1.9260359622699075,
                -1.2872800663491206,
                1.4234006074597003,
                1.021499153975595
            ]
        },
        {
            "positions": [
                -0.9570306668734069,
                -1.7510649896652308,
                1.9292321759647473,
                -1.1343261888843732,
                1.3497991012910466,
                0.9728002676615957
            ]
        },
        {
            "positions": [
                -0.9030851480248946,
                -1.7023358077548516,
                1.9324283896595869,
                -0.9813723114196258,
                1.2761975951223927,
                0.9241013813475961
            ]
        },
        {
            "positions": [
                -0.8491396291763823,
                -1.6536066258444722,
                1.9356246033544267,
                -0.8284184339548784,
                1.2025960889537388,
                0.8754024950335967
            ]
        },
        {
            "positions": [
                -0.7951941103278699,
                -1.604877443934093,
                1.9388208170492662,
                -0.6754645564901309,
                1.128994582785085,
                0.8267036087195972
            ]
        },
        {
            "positions": [
                -0.7412485914793576,
                -1.5561482620237135,
                1.942017030744106,
                -0.5225106790253833,
                1.055393076616431,
                0.7780047224055977
            ]
        },
        {
            "positions": [
                -0.6873030726308453,
                -1.5074190801133343,
                1.9452132444389456,
                -0.3695568015606361,
                0.9817915704477773,
                0.7293058360915983
            ]
        },
        {
            "positions": [
                -0.633357553782333,
                -1.4586898982029548,
                1.9484094581337854,
                -0.21660292409588844,
                0.9081900642791234,
                0.6806069497775988
            ]
        },
        {
            "positions": [
                -0.5794120349338208,
                -1.4099607162925756,
                1.951605671828625,
                -0.06364904663114124,
                0.8345885581104696,
                0.6319080634635994
            ]
        },
        {
            "positions": [
                -0.5254665160853084,
                -1.3612315343821964,
                1.9548018855234648,
                0.08930483083360641,
                0.7609870519418157,
                0.5832091771496
            ]
        },
        {
            "positions": [
                -0.4715209972367961,
                -1.312502352471817,
                1.9579980992183044,
                0.2422587082983536,
                0.6873855457731618,
                0.5345102908356005
            ]
        },
        {
            "positions": [
                -0.4175754783882838,
                -1.2637731705614377,
                1.9611943129131442,
                0.39521258576310103,
                0.613784039604508,
                0.4858114045216011
            ]
        },
        {
            "positions": [
                -0.3636299595397714,
                -1.2150439886510584,
                1.9643905266079837,
                0.5481664632278489,
                0.5401825334358541,
                0.43711251820760155
            ]
        },
        {
            "positions": [
                -0.3096844406912591,
                -1.166314806740679,
                1.9675867403028235,
                0.7011203406925961,
                0.4665810272672002,
                0.3884136318936021
            ]
        },
        {
            "positions": [
                -0.2557389218427468,
                -1.1175856248302998,
                1.9707829539976631,
                0.8540742181573433,
                0.3929795210985465,
                0.3397147455796027
            ]
        },
        {
            "positions": [
                -0.20179340299423454,
                -1.0688564429199205,
                1.973979167692503,
                1.0070280956220905,
                0.3193780149298926,
                0.29101585926560336
            ]
        },
        {
            "positions": [
                -0.14784788414572214,
                -1.020127261009541,
                1.9771753813873425,
                1.1599819730868386,
                0.2457765087612387,
                0.24231697295160382
            ]
        },
        {
            "positions": [
                -0.09390236529720974,
                -0.9713980790991618,
                1.9803715950821823,
                1.3129358505515858,
                0.17217500259258478,
                0.19361808663760438
            ]
        },
        {
            "positions": [
                -0.03995684644869768,
                -0.9226688971887825,
                1.9835678087770219,
                1.465889728016333,
                0.0985734964239311,
                0.14491920032360495
            ]
        },
        {
            "positions": [
                0.013988672399814606,
                -0.8739397152784032,
                1.9867640224718617,
                1.6188436054810806,
                0.024971990255277188,
                0.0962203140096054
            ]
        },
        {
            "positions": [
                0.06793419124832711,
                -0.8252105333680237,
                1.9899602361667013,
                1.7717974829458283,
                -0.04862951591337672,
                0.04752142769560597
            ]
        },
        {
            "positions": [
                0.12187971009683934,
                -0.7764813514576446,
                1.993156449861541,
                1.9247513604105753,
                -0.12223102208203067,
                -0.0011774586183934995
            ]
        }
    ]
}