{
    "goal": {
        "global_pose": {
            "orientation": {
                "w": 0.7047431468963623,
                "x": -0.7094548344612122,
                "y": 0.0024358443915843964,
                "z": -0.0022348060738295317
            },
            "position": {
                "x": 0.6094750761985779,
                "y": 0.3671506643295288,
                "z": 0.19426114857196808
            }
        },
        "name": "move_to_magneteinheit_A"
    },
    "id": "RRTConnect_move_to_magneteinheit_A_92",
    "joint_names": [
        "shoulder_pan_joint",
        "shoulder_lift_joint",
        "elbow_joint",
        "wrist_1_joint",
        "wrist_2_joint",
        "wrist_3_joint"
    ],
    "metrics": {
        "cart_traj_len": 3.449295060386672,
        "distance_elbow_joint": 3.897815130923936,
        "distance_shoulder_lift_joint": 1.842280670589884,
        "distance_shoulder_pan_joint": 4.211576654964207,
        "distance_wrist_1_joint": 0.8497179792069124,
        "distance_wrist_2_joint": 1.7075773131264824,
        "distance_wrist_3_joint": 4.147923908827856,
        "smoothness": 0.2541334184908284,
        "time": 0.11971902100000001,
        "traj_len": 4.081285539831694,
        "weighted_distance": 5.245000931137037
    },
    "planner": "RRTConnect",
    "start": {
        "state": {
            "elbow_joint": -1.919618573717145,
            "shoulder_lift_joint": -1.2443395971678275,
            "shoulder_pan_joint": 2.6996025300909787,
            "wrist_1_joint": -1.548550951253194,
            "wrist_2_joint": -1.5709469090946802,
            "wrist_3_joint": 0.4420197732051276
        }
    },
    "waypoints": [
        {
            "positions": [
                2.6996025300909787,
                -1.2443395971678275,
                -1.919618573717145,
                -1.548550951253194,
                -1.5709469090946802,
                0.4420197732051276
            ]
        },
        {
            "positions": [
                2.593555267667461,
                -1.2715446163559483,
                -1.8218768636728253,
                -1.5503080265597757,
                -1.5381275847188753,
                0.32082413289663203
            ]
        },
        {
            "positions": [
                2.487508005243943,
                -1.298749635544069,
                -1.7241351536285057,
                -1.5520651018663574,
                -1.5053082603430703,
                0.19962849258813642
            ]
        },
        {
            "positions": [
                2.3814607428204253,
                -1.32595465473219,
                -1.626393443584186,
                -1.553822177172939,
                -1.4724889359672655,
                0.07843285227964086
            ]
        },
        {
            "positions": [
                2.2754134803969075,
                -1.353159673920311,
                -1.5286517335398662,
                -1.5555792524795207,
                -1.4396696115914607,
                -0.04276278802885475
            ]
        },
        {
            "positions": [
                2.1693662179733897,
                -1.3803646931084317,
                -1.4309100234955467,
                -1.5573363277861023,
                -1.4068502872156556,
                -0.16395842833735036
            ]
        },
        {
            "positions": [
                2.063318955549872,
                -1.4075697122965525,
                -1.3331683134512269,
                -1.559093403092684,
                -1.3740309628398508,
                -0.28515406864584586
            ]
        },
        {
            "positions": [
                1.957271693126354,
                -1.4347747314846733,
                -1.2354266034069072,
                -1.5608504783992656,
                -1.341211638464046,
                -0.40634970895434147
            ]
        },
        {
            "positions": [
                1.8512244307028363,
                -1.4619797506727943,
                -1.1376848933625876,
                -1.5626075537058473,
                -1.3083923140882412,
                -0.527545349262837
            ]
        },
        {
            "positions": [
                1.7451771682793185,
                -1.489184769860915,
                -1.039943183318268,
                -1.5643646290124287,
                -1.2755729897124362,
                -0.6487409895713325
            ]
        },
        {
            "positions": [
                1.6391299058558007,
                -1.5163897890490359,
                -0.9422014732739483,
                -1.5661217043190103,
                -1.2427536653366313,
                -0.7699366298798282
            ]
        },
        {
            "positions": [
                1.5330826434322828,
                -1.543594808237157,
                -0.8444597632296287,
                -1.567878779625592,
                -1.2099343409608263,
                -0.8911322701883237
            ]
        },
        {
            "positions": [
                1.427035381008765,
                -1.5707998274252777,
                -0.7467180531853088,
                -1.5696358549321736,
                -1.1771150165850215,
                -1.0123279104968192
            ]
        },
        {
            "positions": [
                1.3209881185852472,
                -1.5980048466133985,
                -0.6489763431409892,
                -1.5713929302387553,
                -1.1442956922092167,
                -1.133523550805315
            ]
        },
        {
            "positions": [
                1.2149408561617294,
                -1.6252098658015193,
                -0.5512346330966695,
                -1.573150005545337,
                -1.1114763678334119,
                -1.2547191911138105
            ]
        },
        {
            "positions": [
                1.1088935937382116,
                -1.65241488498964,
                -0.4534929230523499,
                -1.5749070808519186,
                -1.0786570434576068,
                -1.3759148314223062
            ]
        },
        {
            "positions": [
                1.0028463313146938,
                -1.6796199041777609,
                -0.35575121300803025,
                -1.5766641561585002,
                -1.045837719081802,
                -1.4971104717308017
            ]
        },
        {
            "positions": [
                0.896799068891176,
                -1.7068249233658819,
                -0.2580095029637106,
                -1.5784212314650818,
                -1.013018394705997,
                -1.6183061120392974
            ]
        },
        {
            "positions": [
                0.7907518064676582,
                -1.7340299425540027,
                -0.16026779291939097,
                -1.5801783067716635,
                -0.9801990703301923,
                -1.7395017523477927
            ]
        },
        {
            "positions": [
                0.6847045440441404,
                -1.7612349617421235,
                -0.06252608287507133,
                -1.5819353820782451,
                -0.9473797459543873,
                -1.8606973926562884
            ]
        },
        {
            "positions": [
                0.5786572816206226,
                -1.7884399809302445,
                0.03521562716924831,
                -1.5836924573848268,
                -0.9145604215785825,
                -1.9818930329647841
            ]
        },
        {
            "positions": [
                0.47261001919710477,
                -1.8156450001183653,
                0.13295733721356817,
                -1.5854495326914084,
                -0.8817410972027776,
                -2.1030886732732794
            ]
        },
        {
            "positions": [
                0.36656275677358696,
                -1.842850019306486,
                0.2306990472578876,
                -1.58720660799799,
                -0.8489217728269727,
                -2.224284313581775
            ]
        },
        {
            "positions": [
                0.26051549435006915,
                -1.8700550384946069,
                0.32844075730220745,
                -1.5889636833045717,
                -0.8161024484511679,
                -2.345479953890271
            ]
        },
        {
            "positions": [
                0.15446823192655135,
                -1.8972600576827277,
                0.4261824673465273,
                -1.5907207586111531,
                -0.7832831240753629,
                -2.466675594198766
            ]
        },
        {
            "positions": [
                0.04842096950303354,
                -1.9244650768708484,
                0.5239241773908467,
                -1.5924778339177348,
                -0.750463799699558,
                -2.587871234507262
            ]
        },
        {
            "positions": [
                -0.05762629292048427,
                -1.9516700960589692,
                0.6216658874351666,
                -1.5942349092243164,
                -0.7176444753237532,
                -2.7090668748157576
            ]
        },
        {
            "positions": [
                -0.16367355534400208,
                -1.9788751152470903,
                0.719407597479486,
                -1.595991984530898,
                -0.6848251509479483,
                -2.8302625151242533
            ]
        },
        {
            "positions": [
                -0.2697208177675199,
                -2.0060801344352113,
                0.8171493075238059,
                -1.5977490598374797,
                -0.6520058265721433,
                -2.9514581554327486
            ]
        },
        {
            "positions": [
                -0.3757680801910377,
                -2.033285153623332,
                0.9148910175681253,
                -1.5995061351440614,
                -0.6191865021963385,
                -3.0726537957412443
            ]
        },
        {
            "positions": [
                -0.4818153426145555,
                -2.060490172811453,
                1.0126327276124452,
                -1.601263210450643,
                -0.5863671778205336,
                -3.19384943604974
            ]
        },
        {
            "positions": [
                -0.5878626050380733,
                -2.0876951919995737,
                1.1103744376567646,
                -1.6030202857572247,
                -0.5535478534447287,
                -3.3150450763582353
            ]
        },
        {
            "positions": [
                -0.6939098674615913,
                -2.1149002111876944,
                1.2081161477010847,
                -1.6047773610638063,
                -0.5207285290689239,
                -3.436240716666731
            ]
        },
        {
            "positions": [
                -0.6195403895150791,
                -2.026562024226784,
                1.2781234576561489,
                -1.5326417638459608,
                -0.4609686260597669,
                -3.4117258603980036
            ]
        },
        {
            "positions": [
                -0.5451709115685667,
                -1.938223837265873,
                1.3481307676112133,
                -1.4605061666281154,
                -0.40120872305060995,
                -3.3872110041292767
            ]
        },
        {
            "positions": [
                -0.4708014336220544,
                -1.8498856503049625,
                1.4181380775662775,
                -1.38837056941027,
                -0.34144882004145294,
                -3.3626961478605493
            ]
        },
        {
            "positions": [
                -0.39643195567554207,
                -1.7615474633440518,
                1.488145387521342,
                -1.3162349721924245,
                -0.281688917032296,
                -3.3381812915918223
            ]
        },
        {
            "positions": [
                -0.3220624777290298,
                -1.6732092763831412,
                1.5581526974764062,
                -1.244099374974579,
                -0.22192901402313903,
                -3.313666435323095
            ]
        },
        {
            "positions": [
                -0.24769299978251746,
                -1.5848710894222307,
                1.6281600074314704,
                -1.1719637777567335,
                -0.16216911101398207,
                -3.289151579054368
            ]
        },
        {
            "positions": [
                -0.1733235218360052,
                -1.49653290246132,
                1.6981673173865346,
                -1.0998281805388879,
                -0.10240920800482506,
                -3.2646367227856405
            ]
        },
        {
            "positions": [
                -0.0989540438894928,
                -1.4081947155004093,
                1.768174627341599,
                -1.0276925833210426,
                -0.0426493049956681,
                -3.2401218665169136
            ]
        },
        {
            "positions": [
                -0.02458456594298042,
                -1.3198565285394985,
                1.8381819372966635,
                -0.9555569861031971,
                0.01711059801348891,
                -3.215607010248186
            ]
        },
        {
            "positions": [
                0.049784912003531745,
                -1.231518341578588,
                1.9081892472517277,
                -0.8834213888853516,
                0.07687050102264581,
                -3.1910921539794592
            ]
        },
        {
            "positions": [
                0.12415438995004419,
                -1.1431801546176774,
                1.9781965572067919,
                -0.8112857916675061,
                0.13663040403180285,
                -3.166577297710732
            ]
        }
    ]
}{
    "goal": {
        "global_pose": {
            "orientation": {
                "w": 0.7047431468963623,
                "x": -0.7094548344612122,
                "y": 0.0024358443915843964,
                "z": -0.0022348060738295317
            },
            "position": {
                "x": 0.6094750761985779,
                "y": 0.3671506643295288,
                "z": 0.19426114857196808
            }
        },
        "name": "move_to_magneteinheit_A"
    },
    "id": "RRTConnect_move_to_magneteinheit_A_92",
    "joint_names": [
        "shoulder_pan_joint",
        "shoulder_lift_joint",
        "elbow_joint",
        "wrist_1_joint",
        "wrist_2_joint",
        "wrist_3_joint"
    ],
    "metrics": {
        "cart_traj_len": 1.6240214675679394,
        "distance_elbow_joint": 0.7522203510316792,
        "distance_shoulder_lift_joint": 0.7482739759337038,
        "distance_shoulder_pan_joint": 1.6221479954546558,
        "distance_wrist_1_joint": 0.8428805261016287,
        "distance_wrist_2_joint": 1.4436162888393649,
        "distance_wrist_3_joint": 4.23809951335165,
        "smoothness": 0.2694336982720367,
        "time": 0.074460184,
        "traj_len": 3.106000426708387,
        "weighted_distance": 4.51773554918357
    },
    "planner": "RRTConnect",
    "start": {
        "state": {
            "elbow_joint": 1.919643534880228,
            "shoulder_lift_joint": -1.8972525353963687,
            "shoulder_pan_joint": -1.1188672234189438,
            "wrist_1_joint": -1.5931878212786155,
            "wrist_2_joint": 1.5706036197970081,
            "wrist_3_joint": 1.118896926603594
        }
    },
    "waypoints": [
        {
            "positions": [
                -1.1188672234189438,
                -1.8972525353963687,
                1.919643534880228,
                -1.5931878212786155,
                1.5706036197970081,
                1.118896926603594
            ]
        },
        {
            "positions": [
                -1.1663980512452314,
                -1.8825869372874309,
                1.8342824244217917,
                -1.6073531788153352,
                1.462438185764304,
                1.0050198535906034
            ]
        },
        {
            "positions": [
                -1.2139288790715193,
                -1.8679213391784932,
                1.7489213139633555,
                -1.6215185363520552,
                1.3542727517316,
                0.8911427805776131
            ]
        },
        {
            "positions": [
                -1.2614597068978068,
                -1.8532557410695554,
                1.663560203504919,
                -1.635683893888775,
                1.246107317698896,
                0.7772657075646227
            ]
        },
        {
            "positions": [
                -1.3089905347240944,
                -1.8385901429606175,
                1.5781990930464826,
                -1.6498492514254948,
                1.1379418836661919,
                0.6633886345516322
            ]
        },
        {
            "positions": [
                -1.2407988830979275,
                -1.8057514961273817,
                1.5977598506273367,
                -1.612410246856221,
                1.0898011906800704,
                0.4832652430611709
            ]
        },
        {
            "positions": [
                -1.1726072314717606,
                -1.772912849294146,
                1.6173206082081906,
                -1.5749712422869473,
                1.0416604976939492,
                0.30314185157070955
            ]
        },
        {
            "positions": [
                -1.1044155798455937,
                -1.74007420246091,
                1.6368813657890446,
                -1.5375322377176734,
                0.9935198047078279,
                0.1230184600802483
            ]
        },
        {
            "positions": [
                -1.0362239282194268,
                -1.7072355556276742,
                1.6564421233698985,
                -1.5000932331483996,
                0.9453791117217065,
                -0.05710493141021311
            ]
        },
        {
            "positions": [
                -0.9680322765932599,
                -1.6743969087944384,
                1.6760028809507526,
                -1.462654228579126,
                0.8972384187355851,
                -0.23722832290067442
            ]
        },
        {
            "positions": [
                -0.8998406249670929,
                -1.6415582619612026,
                1.6955636385316066,
                -1.4252152240098521,
                0.8490977257494638,
                -0.4173517143911356
            ]
        },
        {
            "positions": [
                -0.831648973340926,
                -1.6087196151279666,
                1.7151243961124605,
                -1.3877762194405783,
                0.8009570327633424,
                -0.597475105881597
            ]
        },
        {
            "positions": [
                -0.7634573217147591,
                -1.5758809682947308,
                1.7346851536933146,
                -1.3503372148713044,
                0.7528163397772211,
                -0.7775984973720584
            ]
        },
        {
            "positions": [
                -0.6952656700885922,
                -1.543042321461495,
                1.7542459112741686,
                -1.3128982103020308,
                0.7046756467910997,
                -0.9577218888625196
            ]
        },
        {
            "positions": [
                -0.6270740184624253,
                -1.5102036746282592,
                1.7738066688550225,
                -1.275459205732757,
                0.6565349538049784,
                -1.137845280352981
            ]
        },
        {
            "positions": [
                -0.5588823668362584,
                -1.4773650277950232,
                1.7933674264358765,
                -1.238020201163483,
                0.608394260818857,
                -1.3179686718434425
            ]
        },
        {
            "positions": [
                -0.49069071521009144,
                -1.4445263809617874,
                1.8129281840167304,
                -1.2005811965942095,
                0.5602535678327357,
                -1.4980920633339034
            ]
        },
        {
            "positions": [
                -0.42249906358392453,
                -1.4116877341285516,
                1.8324889415975845,
                -1.1631421920249356,
                0.5121128748466143,
                -1.6782154548243653
            ]
        },
        {
            "positions": [
                -0.3543074119577576,
                -1.3788490872953159,
                1.8520496991784383,
                -1.1257031874556618,
                0.46397218186049294,
                -1.8583388463148263
            ]
        },
        {
            "positions": [
                -0.2861157603315907,
                -1.3460104404620798,
                1.8716104567592924,
                -1.088264182886388,
                0.4158314888743716,
                -2.0384622378052875
            ]
        },
        {
            "positions": [
                -0.21792410870542378,
                -1.313171793628844,
                1.8911712143401465,
                -1.0508251783171143,
                0.36769079588825027,
                -2.218585629295749
            ]
        },
        {
            "positions": [
                -0.14973245707925686,
                -1.2803331467956083,
                1.9107319719210003,
                -1.0133861737478405,
                0.3195501029021288,
                -2.3987090207862103
            ]
        },
        {
            "positions": [
                -0.08154080545308995,
                -1.2474944999623725,
                1.9302927295018544,
                -0.9759471691785667,
                0.2714094099160076,
                -2.5788324122766717
            ]
        },
        {
            "positions": [
                -0.013349153826923033,
                -1.2146558531291367,
                1.9498534870827084,
                -0.938508164609293,
                0.22326871692988615,
                -2.758955803767133
            ]
        },
        {
            "positions": [
                0.05484249779924388,
                -1.181817206295901,
                1.9694142446635623,
                -0.9010691600400192,
                0.17512802394376492,
                -2.9390791952575945
            ]
        },
        {
            "positions": [
                0.12303414942541084,
                -1.148978559462665,
                1.9889750022444164,
                -0.8636301554707454,
                0.1269873309576434,
                -3.119202586748056
            ]
        }
    ]
}