{
    "goal": {
        "global_pose": {
            "orientation": {
                "w": 0.5084816217422485,
                "x": -0.49083608388900757,
                "y": 0.5182115435600281,
                "z": -0.4816462993621826
            },
            "position": {
                "x": 0.5540239810943604,
                "y": 0.030875300988554955,
                "z": 0.16403168439865112
            }
        },
        "name": "move_to_storage_A"
    },
    "id": "RRTConnect_move_to_storage_A_47",
    "joint_names": [
        "shoulder_pan_joint",
        "shoulder_lift_joint",
        "elbow_joint",
        "wrist_1_joint",
        "wrist_2_joint",
        "wrist_3_joint"
    ],
    "metrics": {
        "cart_traj_len": 0.35327322489270085,
        "distance_elbow_joint": 0.44857062728954356,
        "distance_shoulder_lift_joint": 0.23507612118493326,
        "distance_shoulder_pan_joint": 0.46354638501112627,
        "distance_wrist_1_joint": 0.23840290547711074,
        "distance_wrist_2_joint": 1.092234625114651,
        "distance_wrist_3_joint": 0.10250703231885305,
        "smoothness": 1.8873791356367994e-15,
        "time": 0.052853343,
        "traj_len": 1.6063429572778716,
        "weighted_distance": 2.0287901053646937
    },
    "planner": "RRTConnect",
    "start": {
        "state": {
            "elbow_joint": 1.9715477243005601,
            "shoulder_lift_joint": -1.1394853015351272,
            "shoulder_pan_joint": 0.12281154014795169,
            "wrist_1_joint": -0.7804696478968182,
            "wrist_2_joint": 0.12958648046900423,
            "wrist_3_joint": -3.192491284697111
        }
    },
    "waypoints": [
        {
            "positions": [
                0.12281154014795169,
                -1.1394853015351272,
                1.9715477243005601,
                -0.7804696478968182,
                0.12958648046900423,
                -3.192491284697111
            ]
        },
        {
            "positions": [
                0.05659062800350509,
                -1.1730676045615462,
                2.035629242484781,
                -0.8145272058221197,
                0.2856199983425258,
                -3.177847422937275
            ]
        },
        {
            "positions": [
                -0.009630284140941511,
                -1.2066499075879653,
                2.099710760669001,
                -0.8485847637474212,
                0.44165351621604737,
                -3.163203561177439
            ]
        },
        {
            "positions": [
                -0.07585119628538813,
                -1.2402322106143844,
                2.163792278853222,
                -0.8826423216727227,
                0.597687034089569,
                -3.1485596994176026
            ]
        },
        {
            "positions": [
                -0.1420721084298347,
                -1.2738145136408032,
                2.227873797037442,
                -0.9166998795980243,
                0.7537205519630905,
                -3.1339158376577667
            ]
        },
        {
            "positions": [
                -0.20829302057428134,
                -1.3073968166672223,
                2.2919553152216627,
                -0.9507574375233259,
                0.9097540698366121,
                -3.1192719758979304
            ]
        },
        {
            "positions": [
                -0.2745139327187279,
                -1.3409791196936414,
                2.356036833405883,
                -0.9848149954486274,
                1.0657875877101337,
                -3.1046281141380945
            ]
        },
        {
            "positions": [
                -0.34073484486317457,
                -1.3745614227200604,
                2.4201183515901037,
                -1.018872553373929,
                1.2218211055836552,
                -3.089984252378258
            ]
        }
    ]
}