{
    "goal": {
        "global_pose": {
            "orientation": {
                "w": 0.5084816217422485,
                "x": -0.49083608388900757,
                "y": 0.5182115435600281,
                "z": -0.4816462993621826
            },
            "position": {
                "x": 0.5540239810943604,
                "y": 0.030875300988554955,
                "z": 0.16403168439865112
            }
        },
        "name": "move_to_storage_A"
    },
    "id": "RRTConnect_move_to_storage_A_26",
    "joint_names": [
        "shoulder_pan_joint",
        "shoulder_lift_joint",
        "elbow_joint",
        "wrist_1_joint",
        "wrist_2_joint",
        "wrist_3_joint"
    ],
    "metrics": {
        "cart_traj_len": 0.35280048880323056,
        "distance_elbow_joint": 0.4499643821850148,
        "distance_shoulder_lift_joint": 0.23518274670551564,
        "distance_shoulder_pan_joint": 0.45982327997119654,
        "distance_wrist_1_joint": 0.24198179371806983,
        "distance_wrist_2_joint": 1.1051848395256032,
        "distance_wrist_3_joint": 0.09984343915055183,
        "smoothness": 4.440892098500626e-16,
        "time": 0.050362226,
        "traj_len": 1.609962881949752,
        "weighted_distance": 2.0344124441225597
    },
    "planner": "RRTConnect",
    "start": {
        "state": {
            "elbow_joint": 1.9715477243005601,
            "shoulder_lift_joint": -1.1394853015351272,
            "shoulder_pan_joint": 0.12281154014795169,
            "wrist_1_joint": -0.7804696478968182,
            "wrist_2_joint": 0.12958648046900423,
            "wrist_3_joint": -3.192491284697111
        }
    },
    "waypoints": [
        {
            "positions": [
                0.12281154014795169,
                -1.1394853015351272,
                1.9715477243005601,
                -0.7804696478968182,
                0.12958648046900423,
                -3.192491284697111
            ]
        },
        {
            "positions": [
                0.05712250015206648,
                -1.1730828367787722,
                2.035828350326991,
                -0.8150384755708281,
                0.28747002897266183,
                -3.1782279362470325
            ]
        },
        {
            "positions": [
                -0.008566539843818735,
                -1.2066803720224173,
                2.1001089763534213,
                -0.8496073032448381,
                0.44535357747631943,
                -3.1639645877969533
            ]
        },
        {
            "positions": [
                -0.07425557983970395,
                -1.2402779072660624,
                2.164389602379852,
                -0.8841761309188481,
                0.603237125979977,
                -3.1497012393468746
            ]
        },
        {
            "positions": [
                -0.13994461983558915,
                -1.2738754425097074,
                2.228670228406283,
                -0.9187449585928581,
                0.7611206744836346,
                -3.135437890896796
            ]
        },
        {
            "positions": [
                -0.2056336598314744,
                -1.3074729777533527,
                2.2929508544327137,
                -0.953313786266868,
                0.9190042229872922,
                -3.121174542446717
            ]
        },
        {
            "positions": [
                -0.27132269982735957,
                -1.3410705129969978,
                2.357231480459144,
                -0.9878826139408781,
                1.07688777149095,
                -3.106911193996638
            ]
        },
        {
            "positions": [
                -0.33701173982324484,
                -1.3746680482406428,
                2.421512106485575,
                -1.022451441614888,
                1.2347713199946073,
                -3.0926478455465594
            ]
        }
    ]
}