{
    "goal": {
        "global_pose": {
            "orientation": {
                "w": 0.5084816217422485,
                "x": -0.49083608388900757,
                "y": 0.5182115435600281,
                "z": -0.4816462993621826
            },
            "position": {
                "x": 0.5540239810943604,
                "y": 0.030875300988554955,
                "z": 0.16403168439865112
            }
        },
        "name": "move_to_storage_A"
    },
    "id": "RRTConnect_move_to_storage_A_146",
    "joint_names": [
        "shoulder_pan_joint",
        "shoulder_lift_joint",
        "elbow_joint",
        "wrist_1_joint",
        "wrist_2_joint",
        "wrist_3_joint"
    ],
    "metrics": {
        "cart_traj_len": 0.35259323266256154,
        "distance_elbow_joint": 0.4541182874941776,
        "distance_shoulder_lift_joint": 0.2338326921594489,
        "distance_shoulder_pan_joint": 0.46005728279738534,
        "distance_wrist_1_joint": 0.26091949981129836,
        "distance_wrist_2_joint": 1.10242969324033,
        "distance_wrist_3_joint": 0.1092726420432868,
        "smoothness": 0.0,
        "time": 0.056087675000000004,
        "traj_len": 1.6188360317048565,
        "weighted_distance": 2.050005993816635
    },
    "planner": "RRTConnect",
    "start": {
        "state": {
            "elbow_joint": 1.9715477243005601,
            "shoulder_lift_joint": -1.1394853015351272,
            "shoulder_pan_joint": 0.12281154014795169,
            "wrist_1_joint": -0.7804696478968182,
            "wrist_2_joint": 0.12958648046900423,
            "wrist_3_joint": -3.192491284697111
        }
    },
    "waypoints": [
        {
            "positions": [
                0.12281154014795169,
                -1.1394853015351272,
                1.9715477243005601,
                -0.7804696478968182,
                0.12958648046900423,
                -3.192491284697111
            ]
        },
        {
            "positions": [
                0.05708907117689664,
                -1.1728899718436199,
                2.036421765371157,
                -0.817743862155575,
                0.2870764366461942,
                -3.176880907262356
            ]
        },
        {
            "positions": [
                -0.008633397794158407,
                -1.2062946421521126,
                2.1012958064417537,
                -0.855018076414332,
                0.44456639282338417,
                -3.1612705298276005
            ]
        },
        {
            "positions": [
                -0.07435586676521345,
                -1.2396993124606053,
                2.1661698475123505,
                -0.8922922906730889,
                0.6020563490005741,
                -3.1456601523928454
            ]
        },
        {
            "positions": [
                -0.1400783357362685,
                -1.273103982769098,
                2.2310438885829473,
                -0.9295665049318458,
                0.7595463051777641,
                -3.1300497749580902
            ]
        },
        {
            "positions": [
                -0.20580080470732354,
                -1.3065086530775907,
                2.295917929653544,
                -0.9668407191906028,
                0.9170362613549542,
                -3.114439397523335
            ]
        },
        {
            "positions": [
                -0.2715232736783786,
                -1.3399133233860834,
                2.360791970724141,
                -1.0041149334493595,
                1.074526217532144,
                -3.0988290200885795
            ]
        },
        {
            "positions": [
                -0.33724574264943363,
                -1.373317993694576,
                2.4256660117947377,
                -1.0413891477081165,
                1.232016173709334,
                -3.0832186426538244
            ]
        }
    ]
}