{
    "goal": {
        "global_pose": {
            "orientation": {
                "w": 0.5084816217422485,
                "x": -0.49083608388900757,
                "y": 0.5182115435600281,
                "z": -0.4816462993621826
            },
            "position": {
                "x": 0.5540239810943604,
                "y": 0.030875300988554955,
                "z": 0.16403168439865112
            }
        },
        "name": "move_to_storage_A"
    },
    "id": "RRTConnect_move_to_storage_A_27",
    "joint_names": [
        "shoulder_pan_joint",
        "shoulder_lift_joint",
        "elbow_joint",
        "wrist_1_joint",
        "wrist_2_joint",
        "wrist_3_joint"
    ],
    "metrics": {
        "cart_traj_len": 0.3525681809994281,
        "distance_elbow_joint": 0.4484174263267815,
        "distance_shoulder_lift_joint": 0.23536676276296697,
        "distance_shoulder_pan_joint": 0.46122458412797596,
        "distance_wrist_1_joint": 0.2356060096756688,
        "distance_wrist_2_joint": 1.0972748839306061,
        "distance_wrist_3_joint": 0.09164076973747415,
        "smoothness": 0.0,
        "time": 0.044142798999999996,
        "traj_len": 1.6029754946852661,
        "weighted_distance": 2.021309691670897
    },
    "planner": "RRTConnect",
    "start": {
        "state": {
            "elbow_joint": 1.9715477243005601,
            "shoulder_lift_joint": -1.1394853015351272,
            "shoulder_pan_joint": 0.12281154014795169,
            "wrist_1_joint": -0.7804696478968182,
            "wrist_2_joint": 0.12958648046900423,
            "wrist_3_joint": -3.192491284697111
        }
    },
    "waypoints": [
        {
            "positions": [
                0.12281154014795169,
                -1.1394853015351272,
                1.9715477243005601,
                -0.7804696478968182,
                0.12958648046900423,
                -3.192491284697111
            ]
        },
        {
            "positions": [
                0.05692231384395513,
                -1.1731091247869796,
                2.0356073566329576,
                -0.8141276492790566,
                0.28634003531623364,
                -3.1793997461631864
            ]
        },
        {
            "positions": [
                -0.008966912460041429,
                -1.206732948038832,
                2.099666988965355,
                -0.847785650661295,
                0.4430935901634631,
                -3.1663082076292612
            ]
        },
        {
            "positions": [
                -0.074856138764038,
                -1.2403567712906844,
                2.1637266212977524,
                -0.8814436520435334,
                0.5998471450106926,
                -3.1532166690953365
            ]
        },
        {
            "positions": [
                -0.14074536506803453,
                -1.2739805945425369,
                2.2277862536301494,
                -0.9151016534257718,
                0.756600699857922,
                -3.1401251305614117
            ]
        },
        {
            "positions": [
                -0.2066345913720311,
                -1.3076044177943893,
                2.291845885962547,
                -0.9487596548080102,
                0.9133542547051515,
                -3.127033592027487
            ]
        },
        {
            "positions": [
                -0.2725238176760277,
                -1.3412282410462417,
                2.355905518294944,
                -0.9824176561902486,
                1.0701078095523808,
                -3.113942053493562
            ]
        },
        {
            "positions": [
                -0.33841304398002425,
                -1.3748520642980941,
                2.4199651506273416,
                -1.016075657572487,
                1.2268613643996102,
                -3.100850514959637
            ]
        }
    ]
}