{
    "goal": {
        "global_pose": {
            "orientation": {
                "w": 0.7047431468963623,
                "x": -0.7094548344612122,
                "y": 0.0024358443915843964,
                "z": -0.0022348060738295317
            },
            "position": {
                "x": 0.6094750761985779,
                "y": 0.3671506643295288,
                "z": 0.19426114857196808
            }
        },
        "name": "move_to_magneteinheit_A"
    },
    "id": "RRTConnect_move_to_magneteinheit_A_46",
    "joint_names": [
        "shoulder_pan_joint",
        "shoulder_lift_joint",
        "elbow_joint",
        "wrist_1_joint",
        "wrist_2_joint",
        "wrist_3_joint"
    ],
    "metrics": {
        "cart_traj_len": 3.2737845552364555,
        "distance_elbow_joint": 4.101385027313564,
        "distance_shoulder_lift_joint": 0.4589910841655366,
        "distance_shoulder_pan_joint": 2.8011830129620887,
        "distance_wrist_1_joint": 3.529405330016658,
        "distance_wrist_2_joint": 1.562359324136679,
        "distance_wrist_3_joint": 0.9174484693576657,
        "smoothness": 0.24828675812822934,
        "time": 0.130163579,
        "traj_len": 3.6566066575381324,
        "weighted_distance": 4.505267343989794
    },
    "planner": "RRTConnect",
    "start": {
        "state": {
            "elbow_joint": -1.919618573717145,
            "shoulder_lift_joint": -1.2443395971678275,
            "shoulder_pan_joint": 2.6996025300909787,
            "wrist_1_joint": -1.548550951253194,
            "wrist_2_joint": -1.5709469090946802,
            "wrist_3_joint": 0.4420197732051276
        }
    },
    "waypoints": [
        {
            "positions": [
                2.6996025300909787,
                -1.2443395971678275,
                -1.919618573717145,
                -1.548550951253194,
                -1.5709469090946802,
                0.4420197732051276
            ]
        },
        {
            "positions": [
                2.5310026429401193,
                -1.232761429006437,
                -1.773932250315102,
                -1.511432362223666,
                -1.5750089489545058,
                0.45364894765945546
            ]
        },
        {
            "positions": [
                2.3624027557892595,
                -1.2211832608450468,
                -1.6282459269130594,
                -1.4743137731941383,
                -1.5790709888143315,
                0.4652781221137833
            ]
        },
        {
            "positions": [
                2.1938028686384,
                -1.2096050926836563,
                -1.4825596035110165,
                -1.4371951841646102,
                -1.5831330286741572,
                0.47690729656811115
            ]
        },
        {
            "positions": [
                2.0252029814875407,
                -1.1980269245222661,
                -1.3368732801089735,
                -1.4000765951350824,
                -1.5871950685339828,
                0.48853647102243897
            ]
        },
        {
            "positions": [
                1.8566030943366811,
                -1.1864487563608757,
                -1.1911869567069306,
                -1.3629580061055544,
                -1.5912571083938085,
                0.5001656454767668
            ]
        },
        {
            "positions": [
                1.6880032071858215,
                -1.1748705881994852,
                -1.0455006333048877,
                -1.3258394170760264,
                -1.5953191482536342,
                0.5117948199310947
            ]
        },
        {
            "positions": [
                1.519403320034962,
                -1.163292420038095,
                -0.899814309902845,
                -1.2887208280464986,
                -1.5993811881134599,
                0.5234239943854225
            ]
        },
        {
            "positions": [
                1.3508034328841025,
                -1.1517142518767045,
                -0.7541279865008021,
                -1.2516022390169705,
                -1.6034432279732858,
                0.5350531688397504
            ]
        },
        {
            "positions": [
                1.182203545733243,
                -1.1401360837153143,
                -0.6084416630987595,
                -1.2144836499874427,
                -1.6075052678331114,
                0.5466823432940782
            ]
        },
        {
            "positions": [
                1.0136036585823835,
                -1.1285579155539238,
                -0.46275533969671656,
                -1.1773650609579147,
                -1.611567307692937,
                0.558311517748406
            ]
        },
        {
            "positions": [
                0.8450037714315239,
                -1.1169797473925334,
                -0.31706901629467366,
                -1.140246471928387,
                -1.6156293475527628,
                0.5699406922027339
            ]
        },
        {
            "positions": [
                0.6764038842806643,
                -1.1054015792311431,
                -0.17138269289263075,
                -1.1031278828988589,
                -1.6196913874125884,
                0.5815698666570618
            ]
        },
        {
            "positions": [
                0.5078039971298045,
                -1.0938234110697527,
                -0.025696369490587845,
                -1.0660092938693309,
                -1.6237534272724141,
                0.5931990411113897
            ]
        },
        {
            "positions": [
                0.3392041099789451,
                -1.0822452429083624,
                0.11998995391145484,
                -1.028890704839803,
                -1.6278154671322398,
                0.6048282155657174
            ]
        },
        {
            "positions": [
                0.17060422282808574,
                -1.070667074746972,
                0.26567627731349786,
                -0.991772115810275,
                -1.6318775069920655,
                0.6164573900200453
            ]
        },
        {
            "positions": [
                0.1621799950492418,
                -1.0613090886959737,
                0.3620134356367848,
                -0.8399307650049557,
                -1.5545518795737492,
                0.5789584087809029
            ]
        },
        {
            "positions": [
                0.15375576727039786,
                -1.0519511026449753,
                0.45835059396007166,
                -0.6880894141996362,
                -1.477226252155433,
                0.5414594275417606
            ]
        },
        {
            "positions": [
                0.1453315394915539,
                -1.042593116593977,
                0.5546877522833585,
                -0.5362480633943167,
                -1.3999006247371166,
                0.5039604463026182
            ]
        },
        {
            "positions": [
                0.13690731171270995,
                -1.0332351305429788,
                0.6510249106066455,
                -0.3844067125889974,
                -1.3225749973188003,
                0.46646146506347586
            ]
        },
        {
            "positions": [
                0.128483083933866,
                -1.0238771444919803,
                0.7473620689299323,
                -0.23256536178367804,
                -1.245249369900484,
                0.42896248382433344
            ]
        },
        {
            "positions": [
                0.12005885615502207,
                -1.014519158440982,
                0.8436992272532192,
                -0.08072401097835857,
                -1.1679237424821678,
                0.39146350258519114
            ]
        },
        {
            "positions": [
                0.11163462837617813,
                -1.0051611723899836,
                0.9400363855765062,
                0.07111733982696089,
                -1.0905981150638515,
                0.3539645213460487
            ]
        },
        {
            "positions": [
                0.10321040059733418,
                -0.9958031863389853,
                1.036373543899793,
                0.22295869063228024,
                -1.0132724876455352,
                0.31646554010690636
            ]
        },
        {
            "positions": [
                0.09478617281849024,
                -0.986445200287987,
                1.13271070222308,
                0.3748000414375996,
                -0.9359468602272188,
                0.278966558867764
            ]
        },
        {
            "positions": [
                0.08636194503964628,
                -0.9770872142369887,
                1.2290478605463668,
                0.526641392242919,
                -0.8586212328089026,
                0.24146757762862164
            ]
        },
        {
            "positions": [
                0.07793771726080233,
                -0.9677292281859904,
                1.3253850188696537,
                0.6784827430482385,
                -0.7812956053905863,
                0.20396859638947923
            ]
        },
        {
            "positions": [
                0.06951348948195839,
                -0.958371242134992,
                1.4217221771929407,
                0.8303240938535579,
                -0.70396997797227,
                0.16646961515033692
            ]
        },
        {
            "positions": [
                0.061089261703114434,
                -0.9490132560839937,
                1.5180593355162277,
                0.9821654446588775,
                -0.6266443505539536,
                0.1289706339111945
            ]
        },
        {
            "positions": [
                0.05266503392427051,
                -0.9396552700329954,
                1.6143964938395143,
                1.1340067954641968,
                -0.5493187231356376,
                0.09147165267205215
            ]
        },
        {
            "positions": [
                0.04424080614542655,
                -0.9302972839819971,
                1.7107336521628014,
                1.2858481462695164,
                -0.47199309571732107,
                0.053972671432909736
            ]
        },
        {
            "positions": [
                0.03581657836658261,
                -0.9209392979309987,
                1.8070708104860884,
                1.4376894970748355,
                -0.3946674682990048,
                0.016473690193767432
            ]
        },
        {
            "positions": [
                0.027392350587738645,
                -0.9115813118800005,
                1.903407968809375,
                1.589530847880155,
                -0.3173418408806885,
                -0.021025291045374983
            ]
        },
        {
            "positions": [
                0.018968122808894733,
                -0.9022233258290021,
                1.999745127132662,
                1.7413721986854742,
                -0.24001621346237223,
                -0.05852427228451729
            ]
        },
        {
            "positions": [
                0.010543895030050751,
                -0.8928653397780038,
                2.096082285455949,
                1.893213549490794,
                -0.16269058604405592,
                -0.09602325352365973
            ]
        },
        {
            "positions": [
                0.06660608398063064,
                -0.8391069263901474,
                2.053240201385714,
                1.9370339641271288,
                -0.14656968339841386,
                -0.08075814902413826
            ]
        },
        {
            "positions": [
                0.12266827293121052,
                -0.7853485130022909,
                2.0103981173154795,
                1.9808543787634634,
                -0.13044878075277178,
                -0.0654930445246168
            ]
        }
    ]
}{
    "goal": {
        "global_pose": {
            "orientation": {
                "w": 0.7047431468963623,
                "x": -0.7094548344612122,
                "y": 0.0024358443915843964,
                "z": -0.0022348060738295317
            },
            "position": {
                "x": 0.6094750761985779,
                "y": 0.3671506643295288,
                "z": 0.19426114857196808
            }
        },
        "name": "move_to_magneteinheit_A"
    },
    "id": "RRTConnect_move_to_magneteinheit_A_46",
    "joint_names": [
        "shoulder_pan_joint",
        "shoulder_lift_joint",
        "elbow_joint",
        "wrist_1_joint",
        "wrist_2_joint",
        "wrist_3_joint"
    ],
    "metrics": {
        "cart_traj_len": 1.9951458013523418,
        "distance_elbow_joint": 0.7092146948829994,
        "distance_shoulder_lift_joint": 0.8755374454332032,
        "distance_shoulder_pan_joint": 3.0052728149484524,
        "distance_wrist_1_joint": 2.780412072256973,
        "distance_wrist_2_joint": 2.504923038951976,
        "distance_wrist_3_joint": 4.329974361544046,
        "smoothness": 0.35626755786629666,
        "time": 0.077537762,
        "traj_len": 3.7689964749277296,
        "weighted_distance": 5.30571562207349
    },
    "planner": "RRTConnect",
    "start": {
        "state": {
            "elbow_joint": 1.919643534880228,
            "shoulder_lift_joint": -1.8972525353963687,
            "shoulder_pan_joint": -1.1188672234189438,
            "wrist_1_joint": -1.5931878212786155,
            "wrist_2_joint": 1.5706036197970081,
            "wrist_3_joint": 1.118896926603594
        }
    },
    "waypoints": [
        {
            "positions": [
                -1.1188672234189438,
                -1.8972525353963687,
                1.919643534880228,
                -1.5931878212786155,
                1.5706036197970081,
                1.118896926603594
            ]
        },
        {
            "positions": [
                -1.165288115083143,
                -1.854160469384526,
                1.939426177810943,
                -1.497752163094232,
                1.4665811854731041,
                1.0380926154553975
            ]
        },
        {
            "positions": [
                -1.2117090067473417,
                -1.8110684033726834,
                1.959208820741658,
                -1.4023165049098487,
                1.3625587511492,
                0.9572883043072014
            ]
        },
        {
            "positions": [
                -1.2581298984115408,
                -1.7679763373608406,
                1.9789914636723729,
                -1.3068808467254653,
                1.258536316825296,
                0.876483993159005
            ]
        },
        {
            "positions": [
                -1.3045507900757396,
                -1.7248842713489978,
                1.998774106603088,
                -1.2114451885410817,
                1.1545138825013923,
                0.7956796820108087
            ]
        },
        {
            "positions": [
                -1.3509716817399386,
                -1.681792205337155,
                2.018556749533803,
                -1.1160095303566984,
                1.0504914481774883,
                0.7148753708626123
            ]
        },
        {
            "positions": [
                -1.3973925734041375,
                -1.6387001393253124,
                2.038339392464518,
                -1.020573872172315,
                0.9464690138535843,
                0.6340710597144161
            ]
        },
        {
            "positions": [
                -1.4438134650683365,
                -1.5956080733134697,
                2.0581220353952325,
                -0.9251382139879316,
                0.8424465795296804,
                0.5532667485662197
            ]
        },
        {
            "positions": [
                -1.4902343567325356,
                -1.5525160073016269,
                2.0779046783259476,
                -0.8297025558035482,
                0.7384241452057764,
                0.4724624374180234
            ]
        },
        {
            "positions": [
                -1.5366552483967344,
                -1.5094239412897843,
                2.0976873212566627,
                -0.7342668976191649,
                0.6344017108818724,
                0.3916581262698271
            ]
        },
        {
            "positions": [
                -1.5830761400609334,
                -1.4663318752779415,
                2.1174699641873778,
                -0.6388312394347814,
                0.5303792765579685,
                0.3108538151216308
            ]
        },
        {
            "positions": [
                -1.6294970317251325,
                -1.4232398092660987,
                2.1372526071180924,
                -0.5433955812503979,
                0.42635684223406445,
                0.23004950397343438
            ]
        },
        {
            "positions": [
                -1.6759179233893313,
                -1.380147743254256,
                2.1570352500488075,
                -0.4479599230660145,
                0.32233440791016044,
                0.14924519282523818
            ]
        },
        {
            "positions": [
                -1.7223388150535301,
                -1.3370556772424131,
                2.1768178929795226,
                -0.35252426488163113,
                0.21831197358625642,
                0.06844088167704165
            ]
        },
        {
            "positions": [
                -1.7687597067177292,
                -1.2939636112305706,
                2.196600535910237,
                -0.25708860669724776,
                0.11428953926235264,
                -0.012363429471154541
            ]
        },
        {
            "positions": [
                -1.8151805983819282,
                -1.2508715452187278,
                2.2163831788409523,
                -0.16165294851286438,
                0.010267104938448401,
                -0.09316774061935096
            ]
        },
        {
            "positions": [
                -1.861601490046127,
                -1.2077794792068852,
                2.2361658217716673,
                -0.066217290328481,
                -0.09375532938545539,
                -0.17397205176754715
            ]
        },
        {
            "positions": [
                -1.9080223817103261,
                -1.1646874131950424,
                2.2559484647023824,
                0.029218367855902594,
                -0.1977777637093594,
                -0.25477636291574357
            ]
        },
        {
            "positions": [
                -1.954443273374525,
                -1.1215953471831996,
                2.275731107633097,
                0.12465402604028575,
                -0.3018001980332634,
                -0.33558067406393977
            ]
        },
        {
            "positions": [
                -2.000864165038724,
                -1.0785032811713569,
                2.295513750563812,
                0.22008968422466926,
                -0.4058226323571675,
                -0.4163849852121361
            ]
        },
        {
            "positions": [
                -1.8829043942982422,
                -1.081658180682923,
                2.2769946128305114,
                0.1663599860716865,
                -0.3764616997572897,
                -0.5716456768637093
            ]
        },
        {
            "positions": [
                -1.7649446235577604,
                -1.0848130801944893,
                2.2584754750972102,
                0.11263028791870376,
                -0.3471007671574119,
                -0.7269063685152823
            ]
        },
        {
            "positions": [
                -1.6469848528172788,
                -1.0879679797060553,
                2.2399563373639095,
                0.05890058976572102,
                -0.31773983455753413,
                -0.8821670601668554
            ]
        },
        {
            "positions": [
                -1.529025082076797,
                -1.0911228792176215,
                2.221437199630609,
                0.00517089161273826,
                -0.2883789019576563,
                -1.0374277518184285
            ]
        },
        {
            "positions": [
                -1.4110653113363152,
                -1.0942777787291877,
                2.2029180618973077,
                -0.0485588065402445,
                -0.25901796935777854,
                -1.1926884434700016
            ]
        },
        {
            "positions": [
                -1.2931055405958336,
                -1.097432678240754,
                2.184398924164007,
                -0.10228850469322723,
                -0.22965703675790075,
                -1.3479491351215747
            ]
        },
        {
            "positions": [
                -1.1751457698553516,
                -1.1005875777523202,
                2.1658797864307062,
                -0.15601820284621,
                -0.20029610415802296,
                -1.5032098267731477
            ]
        },
        {
            "positions": [
                -1.05718599911487,
                -1.1037424772638864,
                2.1473606486974055,
                -0.20974790099919274,
                -0.17093517155814517,
                -1.6584705184247208
            ]
        },
        {
            "positions": [
                -0.9392262283743882,
                -1.1068973767754526,
                2.1288415109641043,
                -0.2634775991521755,
                -0.14157423895826737,
                -1.813731210076294
            ]
        },
        {
            "positions": [
                -0.8212664576339064,
                -1.1100522762870186,
                2.1103223732308036,
                -0.3172072973051583,
                -0.11221330635838955,
                -1.968991901727867
            ]
        },
        {
            "positions": [
                -0.7033066868934246,
                -1.1132071757985849,
                2.091803235497503,
                -0.37093699545814107,
                -0.08285237375851179,
                -2.12425259337944
            ]
        },
        {
            "positions": [
                -0.585346916152943,
                -1.116362075310151,
                2.0732840977642017,
                -0.42466669361112375,
                -0.05349144115863402,
                -2.279513285031013
            ]
        },
        {
            "positions": [
                -0.4673871454124612,
                -1.1195169748217173,
                2.054764960030901,
                -0.47839639176410653,
                -0.024130508558756203,
                -2.434773976682586
            ]
        },
        {
            "positions": [
                -0.3494273746719794,
                -1.1226718743332835,
                2.0362458222976003,
                -0.5321260899170893,
                0.005230424041121562,
                -2.5900346683341593
            ]
        },
        {
            "positions": [
                -0.23146760393149757,
                -1.1258267738448495,
                2.017726684564299,
                -0.5858557880700721,
                0.03459135664099938,
                -2.7452953599857324
            ]
        },
        {
            "positions": [
                -0.11350783319101598,
                -1.1289816733564157,
                1.9992075468309984,
                -0.6395854862230548,
                0.06395228924087715,
                -2.9005560516373055
            ]
        },
        {
            "positions": [
                0.004451937549465601,
                -1.132136572867982,
                1.9806884090976977,
                -0.6933151843760376,
                0.09331322184075491,
                -3.0558167432888785
            ]
        },
        {
            "positions": [
                0.12241170828994771,
                -1.1352914723795482,
                1.9621692713643968,
                -0.7470448825290203,
                0.12267415444063277,
                -3.2110774349404516
            ]
        }
    ]
}