{
    "goal": {
        "global_pose": {
            "orientation": {
                "w": 0.5084816217422485,
                "x": -0.49083608388900757,
                "y": 0.5182115435600281,
                "z": -0.4816462993621826
            },
            "position": {
                "x": 0.5540239810943604,
                "y": 0.030875300988554955,
                "z": 0.16403168439865112
            }
        },
        "name": "move_to_storage_A"
    },
    "id": "RRTConnect_move_to_storage_A_21",
    "joint_names": [
        "shoulder_pan_joint",
        "shoulder_lift_joint",
        "elbow_joint",
        "wrist_1_joint",
        "wrist_2_joint",
        "wrist_3_joint"
    ],
    "metrics": {
        "cart_traj_len": 0.35358923324641467,
        "distance_elbow_joint": 0.45087160415203664,
        "distance_shoulder_lift_joint": 0.23411015285921977,
        "distance_shoulder_pan_joint": 0.4595598903816004,
        "distance_wrist_1_joint": 0.2508945909399988,
        "distance_wrist_2_joint": 1.1114639174809433,
        "distance_wrist_3_joint": 0.1079195404031763,
        "smoothness": 8.881784197001252e-16,
        "time": 0.054204178,
        "traj_len": 1.6170404126727862,
        "weighted_distance": 2.0476858366078208
    },
    "planner": "RRTConnect",
    "start": {
        "state": {
            "elbow_joint": 1.9715477243005601,
            "shoulder_lift_joint": -1.1394853015351272,
            "shoulder_pan_joint": 0.12281154014795169,
            "wrist_1_joint": -0.7804696478968182,
            "wrist_2_joint": 0.12958648046900423,
            "wrist_3_joint": -3.192491284697111
        }
    },
    "waypoints": [
        {
            "positions": [
                0.12281154014795169,
                -1.1394853015351272,
                1.9715477243005601,
                -0.7804696478968182,
                0.12958648046900423,
                -3.192491284697111
            ]
        },
        {
            "positions": [
                0.05716012723629449,
                -1.1729296090864443,
                2.035957953465137,
                -0.816311732316818,
                0.28836704010913894,
                -3.1770742074966574
            ]
        },
        {
            "positions": [
                -0.008491285675362711,
                -1.2063739166377614,
                2.1003681826297136,
                -0.8521538167368178,
                0.4471475997492737,
                -3.1616571302962035
            ]
        },
        {
            "positions": [
                -0.0741426985870199,
                -1.2398182241890785,
                2.1647784117942903,
                -0.8879959011568176,
                0.6059281593894085,
                -3.1462400530957497
            ]
        },
        {
            "positions": [
                -0.1397941114986771,
                -1.2732625317403956,
                2.2291886409588666,
                -0.9238379855768175,
                0.7647087190295432,
                -3.1308229758952963
            ]
        },
        {
            "positions": [
                -0.2054455244103343,
                -1.3067068392917127,
                2.2935988701234433,
                -0.9596800699968173,
                0.923489278669678,
                -3.1154058986948425
            ]
        },
        {
            "positions": [
                -0.27109693732199147,
                -1.3401511468430298,
                2.35800909928802,
                -0.9955221544168171,
                1.0822698383098128,
                -3.0999888214943887
            ]
        },
        {
            "positions": [
                -0.3367483502336487,
                -1.373595454394347,
                2.4224193284525968,
                -1.031364238836817,
                1.2410503979499474,
                -3.084571744293935
            ]
        }
    ]
}