{
    "goal": {
        "global_pose": {
            "orientation": {
                "w": 0.7047431468963623,
                "x": -0.7094548344612122,
                "y": 0.0024358443915843964,
                "z": -0.0022348060738295317
            },
            "position": {
                "x": 0.6094750761985779,
                "y": 0.3671506643295288,
                "z": 0.19426114857196808
            }
        },
        "name": "move_to_magneteinheit_A"
    },
    "id": "RRTConnect_move_to_magneteinheit_A_24",
    "joint_names": [
        "shoulder_pan_joint",
        "shoulder_lift_joint",
        "elbow_joint",
        "wrist_1_joint",
        "wrist_2_joint",
        "wrist_3_joint"
    ],
    "metrics": {
        "cart_traj_len": 3.0522168758230293,
        "distance_elbow_joint": 3.9539125814537734,
        "distance_shoulder_lift_joint": 0.7454055557195776,
        "distance_shoulder_pan_joint": 3.0145176900296575,
        "distance_wrist_1_joint": 4.0334493545707115,
        "distance_wrist_2_joint": 2.2686419742483452,
        "distance_wrist_3_joint": 3.7146949691350506,
        "smoothness": 0.2692220725165938,
        "time": 0.09126741,
        "traj_len": 4.210774527941044,
        "weighted_distance": 5.609108965980806
    },
    "planner": "RRTConnect",
    "start": {
        "state": {
            "elbow_joint": -1.919618573717145,
            "shoulder_lift_joint": -1.2443395971678275,
            "shoulder_pan_joint": 2.6996025300909787,
            "wrist_1_joint": -1.548550951253194,
            "wrist_2_joint": -1.5709469090946802,
            "wrist_3_joint": 0.4420197732051276
        }
    },
    "waypoints": [
        {
            "positions": [
                2.6996025300909787,
                -1.2443395971678275,
                -1.919618573717145,
                -1.548550951253194,
                -1.5709469090946802,
                0.4420197732051276
            ]
        },
        {
            "positions": [
                2.627088343571062,
                -1.253221367159301,
                -1.8223214148235127,
                -1.4816841349429695,
                -1.5157498990521425,
                0.35166992777439593
            ]
        },
        {
            "positions": [
                2.554574157051145,
                -1.2621031371507745,
                -1.7250242559298805,
                -1.4148173186327448,
                -1.4605528890096047,
                0.2613200823436642
            ]
        },
        {
            "positions": [
                2.4820599705312283,
                -1.270984907142248,
                -1.6277270970362483,
                -1.3479505023225202,
                -1.405355878967067,
                0.17097023691293256
            ]
        },
        {
            "positions": [
                2.409545784011311,
                -1.2798666771337217,
                -1.530429938142616,
                -1.2810836860122956,
                -1.3501588689245292,
                0.0806203914822009
            ]
        },
        {
            "positions": [
                2.337031597491394,
                -1.288748447125195,
                -1.4331327792489836,
                -1.214216869702071,
                -1.2949618588819916,
                -0.009729453948530864
            ]
        },
        {
            "positions": [
                2.2645174109714774,
                -1.2976302171166687,
                -1.3358356203553516,
                -1.1473500533918464,
                -1.2397648488394537,
                -0.10007929937926247
            ]
        },
        {
            "positions": [
                2.1920032244515606,
                -1.306511987108142,
                -1.2385384614617192,
                -1.0804832370816218,
                -1.184567838796916,
                -0.19042914480999423
            ]
        },
        {
            "positions": [
                2.119489037931644,
                -1.3153937570996157,
                -1.1412413025680872,
                -1.0136164207713971,
                -1.1293708287543782,
                -0.2807789902407258
            ]
        },
        {
            "positions": [
                2.0469748514117265,
                -1.3242755270910893,
                -1.0439441436744548,
                -0.9467496044611725,
                -1.0741738187118406,
                -0.37112883567145755
            ]
        },
        {
            "positions": [
                1.9744606648918097,
                -1.3331572970825627,
                -0.9466469847808225,
                -0.8798827881509479,
                -1.0189768086693027,
                -0.4614786811021893
            ]
        },
        {
            "positions": [
                1.901946478371893,
                -1.3420390670740363,
                -0.8493498258871903,
                -0.8130159718407232,
                -0.963779798626765,
                -0.551828526532921
            ]
        },
        {
            "positions": [
                1.829432291851976,
                -1.35092083706551,
                -0.7520526669935583,
                -0.7461491555304987,
                -0.9085827885842274,
                -0.6421783719636525
            ]
        },
        {
            "positions": [
                1.7569181053320593,
                -1.3598026070569833,
                -0.6547555080999259,
                -0.679282339220274,
                -0.8533857785416896,
                -0.7325282173943841
            ]
        },
        {
            "positions": [
                1.6844039188121422,
                -1.368684377048457,
                -0.5574583492062937,
                -0.6124155229100494,
                -0.7981887684991519,
                -0.822878062825116
            ]
        },
        {
            "positions": [
                1.6118897322922254,
                -1.3775661470399305,
                -0.46016119031266145,
                -0.5455487065998248,
                -0.7429917584566141,
                -0.9132279082558477
            ]
        },
        {
            "positions": [
                1.5393755457723086,
                -1.386447917031404,
                -0.36286403141902945,
                -0.4786818902896002,
                -0.6877947484140764,
                -1.003577753686579
            ]
        },
        {
            "positions": [
                1.4668613592523916,
                -1.3953296870228775,
                -0.265566872525397,
                -0.41181507397937556,
                -0.6325977383715387,
                -1.093927599117311
            ]
        },
        {
            "positions": [
                1.3943471727324748,
                -1.404211457014351,
                -0.1682697136317648,
                -0.34494825766915094,
                -0.5774007283290009,
                -1.1842774445480426
            ]
        },
        {
            "positions": [
                1.321832986212558,
                -1.4130932270058245,
                -0.07097255473813258,
                -0.2780814413589263,
                -0.5222037182864632,
                -1.2746272899787743
            ]
        },
        {
            "positions": [
                1.249318799692641,
                -1.4219749969972981,
                0.026324604155499864,
                -0.2112146250487017,
                -0.4670067082439253,
                -1.3649771354095062
            ]
        },
        {
            "positions": [
                1.1768046131727241,
                -1.4308567669887715,
                0.12362176304913208,
                -0.14434780873847708,
                -0.4118096982013877,
                -1.4553269808402378
            ]
        },
        {
            "positions": [
                1.104290426652807,
                -1.4397385369802451,
                0.2209189219427643,
                -0.07748099242825224,
                -0.35661268815884983,
                -1.5456768262709695
            ]
        },
        {
            "positions": [
                1.0317762401328905,
                -1.4486203069717187,
                0.3182160808363961,
                -0.010614176118028062,
                -0.3014156781163124,
                -1.6360266717017007
            ]
        },
        {
            "positions": [
                0.9592620536129735,
                -1.4575020769631921,
                0.4155132397300283,
                0.05625264019219678,
                -0.24621866807377457,
                -1.7263765171324326
            ]
        },
        {
            "positions": [
                0.8867478670930566,
                -1.4663838469546657,
                0.5128103986236605,
                0.1231194565024214,
                -0.19102165803123672,
                -1.8167263625631644
            ]
        },
        {
            "positions": [
                0.8142336805731396,
                -1.4752656169461393,
                0.6101075575172932,
                0.18998627281264602,
                -0.1358246479886991,
                -1.9070762079938959
            ]
        },
        {
            "positions": [
                0.7417194940532228,
                -1.4841473869376127,
                0.7074047164109254,
                0.25685308912287064,
                -0.08062763794616123,
                -1.9974260534246278
            ]
        },
        {
            "positions": [
                0.6692053075333058,
                -1.4930291569290863,
                0.8047018753045576,
                0.32371990543309526,
                -0.025430627903623604,
                -2.0877758988553596
            ]
        },
        {
            "positions": [
                0.596691121013389,
                -1.50191092692056,
                0.9019990341981898,
                0.3905867217433199,
                0.02976638213891425,
                -2.178125744286091
            ]
        },
        {
            "positions": [
                0.5241769344934721,
                -1.5107926969120333,
                0.999296193091822,
                0.4574535380535445,
                0.08496339218145188,
                -2.268475589716823
            ]
        },
        {
            "positions": [
                0.4516627479735553,
                -1.519674466903507,
                1.0965933519854543,
                0.5243203543637693,
                0.14016040222398973,
                -2.358825435147555
            ]
        },
        {
            "positions": [
                0.3791485614536385,
                -1.5285562368949803,
                1.193890510879086,
                0.5911871706739937,
                0.19535741226652736,
                -2.449175280578286
            ]
        },
        {
            "positions": [
                0.3066343749337217,
                -1.537438006886454,
                1.2911876697727187,
                0.6580539869842181,
                0.250554422309065,
                -2.5395251260090177
            ]
        },
        {
            "positions": [
                0.23412018841380444,
                -1.5463197768779275,
                1.388484828666351,
                0.724920803294443,
                0.30575143235160285,
                -2.6298749714397496
            ]
        },
        {
            "positions": [
                0.16160600189388763,
                -1.555201546869401,
                1.4857819875599831,
                0.7917876196046674,
                0.3609484423941405,
                -2.720224816870481
            ]
        },
        {
            "positions": [
                0.08909181537397062,
                -1.5640833168608745,
                1.5830791464536154,
                0.8586544359148922,
                0.41614545243667833,
                -2.810574662301213
            ]
        },
        {
            "positions": [
                0.05193336145451286,
                -1.52274866824161,
                1.6668991931957144,
                0.7435268400420902,
                0.39878896264109215,
                -2.895554455050175
            ]
        },
        {
            "positions": [
                0.014774907535055101,
                -1.4814140196223453,
                1.7507192399378135,
                0.6283992441692883,
                0.38143247284550597,
                -2.9805342477991372
            ]
        },
        {
            "positions": [
                -0.02238354638440264,
                -1.4400793710030808,
                1.8345392866799126,
                0.5132716482964863,
                0.3640759830499198,
                -3.0655140405480994
            ]
        },
        {
            "positions": [
                -0.05954200030386042,
                -1.398744722383816,
                1.9183593334220117,
                0.39814405242368434,
                0.3467194932543336,
                -3.1504938332970616
            ]
        },
        {
            "positions": [
                -0.09670045422331816,
                -1.3574100737645516,
                2.002179380164111,
                0.2830164565508823,
                0.3293630034587474,
                -3.2354736260460237
            ]
        },
        {
            "positions": [
                -0.053057513080246206,
                -1.3136123551785102,
                1.9957564546496074,
                0.07289525894315924,
                0.2904095707109362,
                -3.2280333120692437
            ]
        },
        {
            "positions": [
                -0.009414571937174251,
                -1.2698146365924685,
                1.9893335291351038,
                -0.13722593866456384,
                0.25145613796312494,
                -3.220592998092464
            ]
        },
        {
            "positions": [
                0.034228369205897696,
                -1.226016918006427,
                1.9829106036206003,
                -0.3473471362722869,
                0.21250270521531373,
                -3.213152684115684
            ]
        },
        {
            "positions": [
                0.07787131034896966,
                -1.1822191994203854,
                1.9764876781060967,
                -0.5574683338800099,
                0.17354927246750249,
                -3.2057123701389045
            ]
        },
        {
            "positions": [
                0.12151425149204159,
                -1.138421480834344,
                1.9700647525915933,
                -0.767589531487733,
                0.13459583971969127,
                -3.1982720561621245
            ]
        }
    ]
}{
    "goal": {
        "global_pose": {
            "orientation": {
                "w": 0.7047431468963623,
                "x": -0.7094548344612122,
                "y": 0.0024358443915843964,
                "z": -0.0022348060738295317
            },
            "position": {
                "x": 0.6094750761985779,
                "y": 0.3671506643295288,
                "z": 0.19426114857196808
            }
        },
        "name": "move_to_magneteinheit_A"
    },
    "id": "RRTConnect_move_to_magneteinheit_A_24",
    "joint_names": [
        "shoulder_pan_joint",
        "shoulder_lift_joint",
        "elbow_joint",
        "wrist_1_joint",
        "wrist_2_joint",
        "wrist_3_joint"
    ],
    "metrics": {
        "cart_traj_len": 1.2761787895116095,
        "distance_elbow_joint": 0.6270666893685901,
        "distance_shoulder_lift_joint": 0.7482832501697696,
        "distance_shoulder_pan_joint": 1.2426153956814463,
        "distance_wrist_1_joint": 1.5220153052206804,
        "distance_wrist_2_joint": 1.4317788420719229,
        "distance_wrist_3_joint": 4.2421117935419055,
        "smoothness": 0.225744998456549,
        "time": 0.076454437,
        "traj_len": 3.1327098933757522,
        "weighted_distance": 4.60997711604198
    },
    "planner": "RRTConnect",
    "start": {
        "state": {
            "elbow_joint": 1.919643534880228,
            "shoulder_lift_joint": -1.8972525353963687,
            "shoulder_pan_joint": -1.1188672234189438,
            "wrist_1_joint": -1.5931878212786155,
            "wrist_2_joint": 1.5706036197970081,
            "wrist_3_joint": 1.118896926603594
        }
    },
    "waypoints": [
        {
            "positions": [
                -1.1188672234189438,
                -1.8972525353963687,
                1.919643534880228,
                -1.5931878212786155,
                1.5706036197970081,
                1.118896926603594
            ]
        },
        {
            "positions": [
                -1.075273475404888,
                -1.866258188896553,
                1.906359281517212,
                -1.5392417118125956,
                1.5076579639478525,
                0.9387512295988774
            ]
        },
        {
            "positions": [
                -1.0316797273908322,
                -1.8352638423967376,
                1.8930750281541957,
                -1.485295602346576,
                1.444712308098697,
                0.7586055325941607
            ]
        },
        {
            "positions": [
                -0.9880859793767763,
                -1.8042694958969219,
                1.8797907747911795,
                -1.4313494928805561,
                1.3817666522495413,
                0.5784598355894441
            ]
        },
        {
            "positions": [
                -0.9444922313627205,
                -1.7732751493971062,
                1.866506521428163,
                -1.3774033834145363,
                1.3188209964003859,
                0.39831413858472753
            ]
        },
        {
            "positions": [
                -0.9008984833486647,
                -1.7422808028972905,
                1.853222268065147,
                -1.3234572739485166,
                1.2558753405512302,
                0.21816844158001092
            ]
        },
        {
            "positions": [
                -0.8573047353346088,
                -1.7112864563974748,
                1.8399380147021307,
                -1.2695111644824968,
                1.1929296847020745,
                0.03802274457529431
            ]
        },
        {
            "positions": [
                -0.813710987320553,
                -1.6802921098976593,
                1.8266537613391145,
                -1.215565055016477,
                1.129984028852919,
                -0.1421229524294223
            ]
        },
        {
            "positions": [
                -0.7701172393064972,
                -1.6492977633978436,
                1.8133695079760983,
                -1.1616189455504573,
                1.0670383730037634,
                -0.3222686494341389
            ]
        },
        {
            "positions": [
                -0.7265234912924414,
                -1.618303416898028,
                1.800085254613082,
                -1.1076728360844375,
                1.0040927171546077,
                -0.5024143464388555
            ]
        },
        {
            "positions": [
                -0.6829297432783856,
                -1.5873090703982125,
                1.786801001250066,
                -1.0537267266184176,
                0.9411470613054521,
                -0.6825600434435721
            ]
        },
        {
            "positions": [
                -0.6393359952643296,
                -1.5563147238983968,
                1.7735167478870495,
                -0.9997806171523979,
                0.8782014054562964,
                -0.8627057404482887
            ]
        },
        {
            "positions": [
                -0.5957422472502739,
                -1.525320377398581,
                1.7602324945240333,
                -0.9458345076863781,
                0.8152557496071409,
                -1.0428514374530053
            ]
        },
        {
            "positions": [
                -0.552148499236218,
                -1.4943260308987654,
                1.746948241161017,
                -0.8918883982203583,
                0.7523100937579852,
                -1.222997134457722
            ]
        },
        {
            "positions": [
                -0.5085547512221622,
                -1.4633316843989497,
                1.733663987798001,
                -0.8379422887543386,
                0.6893644379088297,
                -1.4031428314624386
            ]
        },
        {
            "positions": [
                -0.4649610032081064,
                -1.432337337899134,
                1.7203797344349847,
                -0.7839961792883188,
                0.626418782059674,
                -1.5832885284671552
            ]
        },
        {
            "positions": [
                -0.4213672551940506,
                -1.4013429913993185,
                1.7070954810719685,
                -0.730050069822299,
                0.5634731262105186,
                -1.7634342254718718
            ]
        },
        {
            "positions": [
                -0.3777735071799947,
                -1.3703486448995028,
                1.6938112277089523,
                -0.6761039603562792,
                0.5005274703613629,
                -1.9435799224765884
            ]
        },
        {
            "positions": [
                -0.3341797591659389,
                -1.3393542983996873,
                1.680526974345936,
                -0.6221578508902594,
                0.43758181451220723,
                -2.123725619481305
            ]
        },
        {
            "positions": [
                -0.2905860111518831,
                -1.3083599518998716,
                1.6672427209829197,
                -0.5682117414242396,
                0.37463615866305155,
                -2.3038713164860214
            ]
        },
        {
            "positions": [
                -0.2469922631378273,
                -1.277365605400056,
                1.6539584676199035,
                -0.51426563195822,
                0.3116905028138961,
                -2.484017013490738
            ]
        },
        {
            "positions": [
                -0.20339851512377133,
                -1.2463712589002403,
                1.6406742142568873,
                -0.4603195224922002,
                0.24874484696474045,
                -2.6641627104954546
            ]
        },
        {
            "positions": [
                -0.13796917764651653,
                -1.226890864165512,
                1.7102936880059372,
                -0.5381489237790533,
                0.2267608331168095,
                -2.755973141784026
            ]
        },
        {
            "positions": [
                -0.07253984016926174,
                -1.207410469430784,
                1.779913161754987,
                -0.6159783250659063,
                0.20477681926887853,
                -2.8477835730725976
            ]
        },
        {
            "positions": [
                -0.00711050269200697,
                -1.1879300746960555,
                1.849532635504037,
                -0.6938077263527593,
                0.18279280542094758,
                -2.939594004361169
            ]
        },
        {
            "positions": [
                0.05831883478524785,
                -1.1684496799613273,
                1.9191521092530868,
                -0.7716371276396125,
                0.1608087915730166,
                -3.0314044356497405
            ]
        },
        {
            "positions": [
                0.1237481722625026,
                -1.1489692852265991,
                1.9887715830021366,
                -0.8494665289264655,
                0.13882477772508567,
                -3.1232148669383117
            ]
        }
    ]
}