{
    "goal": {
        "global_pose": {
            "orientation": {
                "w": 0.5084816217422485,
                "x": -0.49083608388900757,
                "y": 0.5182115435600281,
                "z": -0.4816462993621826
            },
            "position": {
                "x": 0.5540239810943604,
                "y": 0.030875300988554955,
                "z": 0.16403168439865112
            }
        },
        "name": "move_to_storage_A"
    },
    "id": "RRTConnect_move_to_storage_A_120",
    "joint_names": [
        "shoulder_pan_joint",
        "shoulder_lift_joint",
        "elbow_joint",
        "wrist_1_joint",
        "wrist_2_joint",
        "wrist_3_joint"
    ],
    "metrics": {
        "cart_traj_len": 0.3530103214844041,
        "distance_elbow_joint": 0.449277629941335,
        "distance_shoulder_lift_joint": 0.23416774059576473,
        "distance_shoulder_pan_joint": 0.46295087714608496,
        "distance_wrist_1_joint": 0.23971289048842392,
        "distance_wrist_2_joint": 1.0927660442974378,
        "distance_wrist_3_joint": 0.10267932849207995,
        "smoothness": 0.0,
        "time": 0.044468945999999995,
        "traj_len": 1.606721665678635,
        "weighted_distance": 2.029628562750127
    },
    "planner": "RRTConnect",
    "start": {
        "state": {
            "elbow_joint": 1.9715477243005601,
            "shoulder_lift_joint": -1.1394853015351272,
            "shoulder_pan_joint": 0.12281154014795169,
            "wrist_1_joint": -0.7804696478968182,
            "wrist_2_joint": 0.12958648046900423,
            "wrist_3_joint": -3.192491284697111
        }
    },
    "waypoints": [
        {
            "positions": [
                0.12281154014795169,
                -1.1394853015351272,
                1.9715477243005601,
                -0.7804696478968182,
                0.12958648046900423,
                -3.192491284697111
            ]
        },
        {
            "positions": [
                0.05667570055565384,
                -1.1729378359059508,
                2.035730242863608,
                -0.8147143465380215,
                0.2856959153686382,
                -3.1778228091982426
            ]
        },
        {
            "positions": [
                -0.009460139036644014,
                -1.2063903702767742,
                2.0999127614266557,
                -0.848959045179225,
                0.44180535026827217,
                -3.163154333699374
            ]
        },
        {
            "positions": [
                -0.07559597862894187,
                -1.2398429046475978,
                2.1640952799897035,
                -0.8832037438204284,
                0.5979147851679061,
                -3.1484858582005053
            ]
        },
        {
            "positions": [
                -0.1417318182212397,
                -1.2732954390184212,
                2.2282777985527513,
                -0.9174484424616318,
                0.7540242200675401,
                -3.133817382701637
            ]
        },
        {
            "positions": [
                -0.20786765781353755,
                -1.3067479733892449,
                2.2924603171157996,
                -0.9516931411028353,
                0.9101336549671741,
                -3.1191489072027685
            ]
        },
        {
            "positions": [
                -0.2740034974058354,
                -1.3402005077600683,
                2.3566428356788474,
                -0.9859378397440386,
                1.066243089866808,
                -3.1044804317039
            ]
        },
        {
            "positions": [
                -0.34013933699813326,
                -1.373653042130892,
                2.420825354241895,
                -1.020182538385242,
                1.2223525247664422,
                -3.0898119562050312
            ]
        }
    ]
}