{
    "goal": {
        "global_pose": {
            "orientation": {
                "w": 0.5084816217422485,
                "x": -0.49083608388900757,
                "y": 0.5182115435600281,
                "z": -0.4816462993621826
            },
            "position": {
                "x": 0.5540239810943604,
                "y": 0.030875300988554955,
                "z": 0.16403168439865112
            }
        },
        "name": "move_to_storage_A"
    },
    "id": "RRTConnect_move_to_storage_A_139",
    "joint_names": [
        "shoulder_pan_joint",
        "shoulder_lift_joint",
        "elbow_joint",
        "wrist_1_joint",
        "wrist_2_joint",
        "wrist_3_joint"
    ],
    "metrics": {
        "cart_traj_len": 0.3530842485724484,
        "distance_elbow_joint": 0.45105250089547466,
        "distance_shoulder_lift_joint": 0.23346337524664684,
        "distance_shoulder_pan_joint": 0.4629199300234181,
        "distance_wrist_1_joint": 0.24915653040518781,
        "distance_wrist_2_joint": 1.0931983659599962,
        "distance_wrist_3_joint": 0.0980539143174175,
        "smoothness": 0.0,
        "time": 0.042957339,
        "traj_len": 1.6086779096040762,
        "weighted_distance": 2.0313314209769313
    },
    "planner": "RRTConnect",
    "start": {
        "state": {
            "elbow_joint": 1.9715477243005601,
            "shoulder_lift_joint": -1.1394853015351272,
            "shoulder_pan_joint": 0.12281154014795169,
            "wrist_1_joint": -0.7804696478968182,
            "wrist_2_joint": 0.12958648046900423,
            "wrist_3_joint": -3.192491284697111
        }
    },
    "waypoints": [
        {
            "positions": [
                0.12281154014795169,
                -1.1394853015351272,
                1.9715477243005601,
                -0.7804696478968182,
                0.12958648046900423,
                -3.192491284697111
            ]
        },
        {
            "positions": [
                0.056680121573177686,
                -1.1728372122846482,
                2.0359837958570566,
                -0.8160634379547022,
                0.2857576756061465,
                -3.178483582651766
            ]
        },
        {
            "positions": [
                -0.009451297001596318,
                -1.206189123034169,
                2.100419867413553,
                -0.8516572280125861,
                0.44192887074328885,
                -3.1644758806064206
            ]
        },
        {
            "positions": [
                -0.07558271557637032,
                -1.23954103378369,
                2.1648559389700495,
                -0.88725101807047,
                0.5981000658804312,
                -3.1504681785610753
            ]
        },
        {
            "positions": [
                -0.1417141341511443,
                -1.2728929445332111,
                2.2292920105265455,
                -0.922844808128354,
                0.7542712610175735,
                -3.1364604765157296
            ]
        },
        {
            "positions": [
                -0.20784555272591837,
                -1.3062448552827322,
                2.293728082083042,
                -0.958438598186238,
                0.9104424561547159,
                -3.1224527744703843
            ]
        },
        {
            "positions": [
                -0.2739769713006923,
                -1.339596766032253,
                2.3581641536395384,
                -0.994032388244122,
                1.066613651291858,
                -3.108445072425039
            ]
        },
        {
            "positions": [
                -0.3401083898754664,
                -1.372948676781774,
                2.422600225196035,
                -1.029626178302006,
                1.2227848464290003,
                -3.0944373703796937
            ]
        }
    ]
}