{
    "goal": {
        "global_pose": {
            "orientation": {
                "w": 0.7047431468963623,
                "x": -0.7094548344612122,
                "y": 0.0024358443915843964,
                "z": -0.0022348060738295317
            },
            "position": {
                "x": 0.6094750761985779,
                "y": 0.3671506643295288,
                "z": 0.19426114857196808
            }
        },
        "name": "move_to_magneteinheit_A"
    },
    "id": "RRTConnect_move_to_magneteinheit_A_45",
    "joint_names": [
        "shoulder_pan_joint",
        "shoulder_lift_joint",
        "elbow_joint",
        "wrist_1_joint",
        "wrist_2_joint",
        "wrist_3_joint"
    ],
    "metrics": {
        "cart_traj_len": 3.8935082760609934,
        "distance_elbow_joint": 4.484658230507612,
        "distance_shoulder_lift_joint": 0.5716523889490397,
        "distance_shoulder_pan_joint": 2.920811581194709,
        "distance_wrist_1_joint": 1.2182972887596404,
        "distance_wrist_2_joint": 4.625504767541007,
        "distance_wrist_3_joint": 3.0836473213855613,
        "smoothness": 1.2086700802791708,
        "time": 0.15587289000000001,
        "traj_len": 4.111516943700654,
        "weighted_distance": 5.377329102575862
    },
    "planner": "RRTConnect",
    "start": {
        "state": {
            "elbow_joint": -1.919618573717145,
            "shoulder_lift_joint": -1.2443395971678275,
            "shoulder_pan_joint": 2.6996025300909787,
            "wrist_1_joint": -1.548550951253194,
            "wrist_2_joint": -1.5709469090946802,
            "wrist_3_joint": 0.4420197732051276
        }
    },
    "waypoints": [
        {
            "positions": [
                2.6996025300909787,
                -1.2443395971678275,
                -1.919618573717145,
                -1.548550951253194,
                -1.5709469090946802,
                0.4420197732051276
            ]
        },
        {
            "positions": [
                2.574402092422755,
                -1.2564262667924093,
                -1.8458394940913125,
                -1.5271844151268608,
                -1.4229975526429894,
                0.44480667108306976
            ]
        },
        {
            "positions": [
                2.449201654754531,
                -1.2685129364169911,
                -1.7720604144654801,
                -1.5058178790005274,
                -1.2750481961912987,
                0.44759356896101193
            ]
        },
        {
            "positions": [
                2.3240012170863067,
                -1.280599606041573,
                -1.6982813348396477,
                -1.484451342874194,
                -1.127098839739608,
                0.45038046683895405
            ]
        },
        {
            "positions": [
                2.198800779418083,
                -1.2926862756661548,
                -1.6245022552138153,
                -1.4630848067478606,
                -0.9791494832879174,
                0.4531673647168962
            ]
        },
        {
            "positions": [
                2.073600341749859,
                -1.3047729452907364,
                -1.550723175587983,
                -1.4417182706215272,
                -0.8312001268362267,
                0.4559542625948384
            ]
        },
        {
            "positions": [
                1.9483999040816349,
                -1.3168596149153182,
                -1.4769440959621503,
                -1.420351734495194,
                -0.683250770384536,
                0.4587411604727806
            ]
        },
        {
            "positions": [
                1.8231994664134108,
                -1.3289462845399,
                -1.403165016336318,
                -1.3989851983688606,
                -0.5353014139328454,
                0.46152805835072275
            ]
        },
        {
            "positions": [
                1.697999028745187,
                -1.3410329541644819,
                -1.3293859367104854,
                -1.377618662242527,
                -0.38735205748115464,
                0.46431495622866487
            ]
        },
        {
            "positions": [
                1.572798591076963,
                -1.3531196237890637,
                -1.255606857084653,
                -1.3562521261161937,
                -0.23940270102946393,
                0.46710185410660704
            ]
        },
        {
            "positions": [
                1.447598153408739,
                -1.3652062934136455,
                -1.1818277774588206,
                -1.3348855899898604,
                -0.09145334457777321,
                0.4698887519845492
            ]
        },
        {
            "positions": [
                1.322397715740515,
                -1.3772929630382273,
                -1.108048697832988,
                -1.313519053863527,
                0.05649601187391773,
                0.4726756498624914
            ]
        },
        {
            "positions": [
                1.197197278072291,
                -1.3893796326628092,
                -1.0342696182071558,
                -1.2921525177371938,
                0.20444536832560822,
                0.4754625477404335
            ]
        },
        {
            "positions": [
                1.071996840404067,
                -1.401466302287391,
                -0.9604905385813233,
                -1.2707859816108602,
                0.35239472477729916,
                0.4782494456183757
            ]
        },
        {
            "positions": [
                0.9467964027358431,
                -1.4135529719119728,
                -0.886711458955491,
                -1.2494194454845269,
                0.5003440812289894,
                0.48103634349631785
            ]
        },
        {
            "positions": [
                0.821595965067619,
                -1.4256396415365544,
                -0.8129323793296583,
                -1.2280529093581936,
                0.6482934376806804,
                0.48382324137426
            ]
        },
        {
            "positions": [
                0.6963955273993951,
                -1.4377263111611363,
                -0.7391532997038261,
                -1.2066863732318602,
                0.7962427941323709,
                0.4866101392522022
            ]
        },
        {
            "positions": [
                0.5711950897311708,
                -1.449812980785718,
                -0.6653742200779935,
                -1.185319837105527,
                0.9441921505840618,
                0.4893970371301443
            ]
        },
        {
            "positions": [
                0.4459946520629474,
                -1.4618996504103,
                -0.5915951404521611,
                -1.1639533009791934,
                1.0921415070357523,
                0.4921839350080865
            ]
        },
        {
            "positions": [
                0.3207942143947231,
                -1.4739863200348817,
                -0.5178160608263287,
                -1.14258676485286,
                1.240090863487443,
                0.49497083288602867
            ]
        },
        {
            "positions": [
                0.30319083540465963,
                -1.4703590672221332,
                -0.38667461797172326,
                -1.1133836748558088,
                1.1713499715701627,
                0.6267396864246124
            ]
        },
        {
            "positions": [
                0.2855874564145962,
                -1.4667318144093844,
                -0.2555331751171178,
                -1.0841805848587578,
                1.1026090796528825,
                0.7585085399631961
            ]
        },
        {
            "positions": [
                0.2679840774245328,
                -1.4631045615966358,
                -0.12439173226251238,
                -1.0549774948617066,
                1.0338681877356022,
                0.8902773935017798
            ]
        },
        {
            "positions": [
                0.2503806984344693,
                -1.459477308783887,
                0.006749710592093061,
                -1.0257744048646553,
                0.9651272958183219,
                1.0220462470403635
            ]
        },
        {
            "positions": [
                0.23277731944440586,
                -1.4558500559711385,
                0.13789115344669856,
                -0.9965713148676043,
                0.8963864039010416,
                1.1538151005789472
            ]
        },
        {
            "positions": [
                0.2151739404543424,
                -1.4522228031583897,
                0.26903259630130394,
                -0.9673682248705531,
                0.8276455119837614,
                1.285583954117531
            ]
        },
        {
            "positions": [
                0.19757056146427895,
                -1.4485955503456411,
                0.40017403915590943,
                -0.938165134873502,
                0.7589046200664811,
                1.4173528076561146
            ]
        },
        {
            "positions": [
                0.1799671824742155,
                -1.4449682975328924,
                0.5313154820105148,
                -0.9089620448764508,
                0.6901637281492008,
                1.5491216611946983
            ]
        },
        {
            "positions": [
                0.16236380348415205,
                -1.4413410447201438,
                0.6624569248651202,
                -0.8797589548793996,
                0.6214228362319204,
                1.680890514733282
            ]
        },
        {
            "positions": [
                0.1447604244940886,
                -1.437713791907395,
                0.7935983677197258,
                -0.8505558648823485,
                0.5526819443146401,
                1.8126593682718657
            ]
        },
        {
            "positions": [
                0.12715704550402512,
                -1.4340865390946465,
                0.9247398105743312,
                -0.8213527748852972,
                0.48394105239735985,
                1.9444282218104496
            ]
        },
        {
            "positions": [
                0.1095536665139617,
                -1.4304592862818977,
                1.0558812534289366,
                -0.7921496848882461,
                0.41520016048007957,
                2.076197075349033
            ]
        },
        {
            "positions": [
                0.09195028752389822,
                -1.426832033469149,
                1.1870226962835422,
                -0.7629465948911949,
                0.3464592685627992,
                2.207965928887617
            ]
        },
        {
            "positions": [
                0.0743469085338348,
                -1.4232047806564003,
                1.3181641391381476,
                -0.7337435048941439,
                0.277718376645519,
                2.3397347824262003
            ]
        },
        {
            "positions": [
                0.05674352954377132,
                -1.4195775278436518,
                1.449305581992753,
                -0.7045404148970926,
                0.20897748472823863,
                2.471503635964784
            ]
        },
        {
            "positions": [
                0.0391401505537079,
                -1.415950275030903,
                1.5804470248473583,
                -0.6753373249000415,
                0.14023659281095857,
                2.6032724895033676
            ]
        },
        {
            "positions": [
                0.02153677156364442,
                -1.4123230222181544,
                1.7115884677019637,
                -0.6461342349029904,
                0.07149570089367807,
                2.7350413430419516
            ]
        },
        {
            "positions": [
                0.003933392573580996,
                -1.4086957694054056,
                1.842729910556569,
                -0.6169311449059391,
                0.0027548089763977934,
                2.866810196580535
            ]
        },
        {
            "positions": [
                -0.013669986416482482,
                -1.405068516592657,
                1.973871353411175,
                -0.587728054908888,
                -0.06598608294088248,
                2.998579050119119
            ]
        },
        {
            "positions": [
                -0.031273365406545905,
                -1.4014412637799083,
                2.1050127962657803,
                -0.5585249649118369,
                -0.13472697485816276,
                3.1303479036577024
            ]
        },
        {
            "positions": [
                -0.048876744396609384,
                -1.3978140109671597,
                2.2361542391203857,
                -0.5293218749147857,
                -0.20346786677544304,
                3.2621167571962864
            ]
        },
        {
            "positions": [
                -0.007200185820285573,
                -1.3322632662233451,
                2.160137714581416,
                -0.5779826957502152,
                -0.11584203771437002,
                3.201362444981778
            ]
        },
        {
            "positions": [
                0.03447637275603824,
                -1.2667125214795303,
                2.084121190042446,
                -0.6266435165856447,
                -0.028216208653296992,
                3.1406081327672695
            ]
        },
        {
            "positions": [
                0.07615293133236206,
                -1.2011617767357157,
                2.0081046655034758,
                -0.6753043374210741,
                0.05940962040777603,
                3.079853820552761
            ]
        },
        {
            "positions": [
                0.11782948990868584,
                -1.135611031991901,
                1.932088140964506,
                -0.7239651582565036,
                0.14703544946884903,
                3.0190995083382526
            ]
        },
        {
            "positions": [
                0.12345556231050903,
                -1.1319806539528963,
                1.956907460478708,
                -0.7195402291769895,
                0.126630501017148,
                3.0396325968746214
            ]
        }
    ]
}{
    "goal": {
        "global_pose": {
            "orientation": {
                "w": 0.7047431468963623,
                "x": -0.7094548344612122,
                "y": 0.0024358443915843964,
                "z": -0.0022348060738295317
            },
            "position": {
                "x": 0.6094750761985779,
                "y": 0.3671506643295288,
                "z": 0.19426114857196808
            }
        },
        "name": "move_to_magneteinheit_A"
    },
    "id": "RRTConnect_move_to_magneteinheit_A_45",
    "joint_names": [
        "shoulder_pan_joint",
        "shoulder_lift_joint",
        "elbow_joint",
        "wrist_1_joint",
        "wrist_2_joint",
        "wrist_3_joint"
    ],
    "metrics": {
        "cart_traj_len": 1.20486034281458,
        "distance_elbow_joint": 0.03867311964294551,
        "distance_shoulder_lift_joint": 0.7656016790980016,
        "distance_shoulder_pan_joint": 1.2425672527708331,
        "distance_wrist_1_joint": 0.8675218046346317,
        "distance_wrist_2_joint": 1.4403325879432611,
        "distance_wrist_3_joint": 1.9137521543245655,
        "smoothness": 0.0,
        "time": 0.050989698,
        "traj_len": 2.5036870008877385,
        "weighted_distance": 3.5219039310636036
    },
    "planner": "RRTConnect",
    "start": {
        "state": {
            "elbow_joint": 1.919643534880228,
            "shoulder_lift_joint": -1.8972525353963687,
            "shoulder_pan_joint": -1.1188672234189438,
            "wrist_1_joint": -1.5931878212786155,
            "wrist_2_joint": 1.5706036197970081,
            "wrist_3_joint": 1.118896926603594
        }
    },
    "waypoints": [
        {
            "positions": [
                -1.1188672234189438,
                -1.8972525353963687,
                1.919643534880228,
                -1.5931878212786155,
                1.5706036197970081,
                1.118896926603594
            ]
        },
        {
            "positions": [
                -1.0412067701207668,
                -1.8494024304527437,
                1.9220606048579123,
                -1.538967708488951,
                1.4805828330505544,
                1.2385064362488793
            ]
        },
        {
            "positions": [
                -0.9635463168225897,
                -1.8015523255091186,
                1.9244776748355963,
                -1.4847475956992866,
                1.3905620463041004,
                1.3581159458941647
            ]
        },
        {
            "positions": [
                -0.8858858635244127,
                -1.7537022205654935,
                1.9268947448132803,
                -1.430527482909622,
                1.3005412595576467,
                1.4777254555394501
            ]
        },
        {
            "positions": [
                -0.8082254102262356,
                -1.7058521156218682,
                1.9293118147909645,
                -1.3763073701199575,
                1.210520472811193,
                1.5973349651847353
            ]
        },
        {
            "positions": [
                -0.7305649569280586,
                -1.6580020106782432,
                1.9317288847686487,
                -1.322087257330293,
                1.120499686064739,
                1.7169444748300207
            ]
        },
        {
            "positions": [
                -0.6529045036298814,
                -1.610151905734618,
                1.9341459547463327,
                -1.2678671445406287,
                1.0304788993182852,
                1.836553984475306
            ]
        },
        {
            "positions": [
                -0.5752440503317043,
                -1.562301800790993,
                1.9365630247240166,
                -1.213647031750964,
                0.9404581125718314,
                1.9561634941205912
            ]
        },
        {
            "positions": [
                -0.4975835970335273,
                -1.514451695847368,
                1.9389800947017009,
                -1.1594269189612996,
                0.8504373258253776,
                2.075773003765877
            ]
        },
        {
            "positions": [
                -0.4199231437353502,
                -1.4666015909037429,
                1.941397164679385,
                -1.1052068061716351,
                0.7604165390789237,
                2.195382513411162
            ]
        },
        {
            "positions": [
                -0.34226269043717317,
                -1.4187514859601178,
                1.943814234657069,
                -1.0509866933819707,
                0.67039575233247,
                2.3149920230564476
            ]
        },
        {
            "positions": [
                -0.2646022371389961,
                -1.3709013810164925,
                1.946231304634753,
                -0.9967665805923062,
                0.5803749655860161,
                2.4346015327017327
            ]
        },
        {
            "positions": [
                -0.18694178384081894,
                -1.3230512760728677,
                1.9486483746124372,
                -0.9425464678026417,
                0.4903541788395622,
                2.554211042347018
            ]
        },
        {
            "positions": [
                -0.10928133054264189,
                -1.2752011711292424,
                1.9510654445901214,
                -0.8883263550129772,
                0.4003333920931085,
                2.6738205519923035
            ]
        },
        {
            "positions": [
                -0.03162087724446483,
                -1.2273510661856173,
                1.9534825145678054,
                -0.8341062422233128,
                0.3103126053466547,
                2.7934300616375887
            ]
        },
        {
            "positions": [
                0.04603957605371223,
                -1.1795009612419922,
                1.9558995845454894,
                -0.7798861294336482,
                0.22029181860020075,
                2.913039571282874
            ]
        },
        {
            "positions": [
                0.12370002935188935,
                -1.1316508562983671,
                1.9583166545231736,
                -0.7256660166439838,
                0.13027103185374692,
                3.0326490809281594
            ]
        }
    ]
}