{
    "goal": {
        "global_pose": {
            "orientation": {
                "w": 0.7047431468963623,
                "x": -0.7094548344612122,
                "y": 0.0024358443915843964,
                "z": -0.0022348060738295317
            },
            "position": {
                "x": 0.6094750761985779,
                "y": 0.3671506643295288,
                "z": 0.19426114857196808
            }
        },
        "name": "move_to_magneteinheit_A"
    },
    "id": "RRTConnect_move_to_magneteinheit_A_65",
    "joint_names": [
        "shoulder_pan_joint",
        "shoulder_lift_joint",
        "elbow_joint",
        "wrist_1_joint",
        "wrist_2_joint",
        "wrist_3_joint"
    ],
    "metrics": {
        "cart_traj_len": 3.2756817386849644,
        "distance_elbow_joint": 3.885365851823532,
        "distance_shoulder_lift_joint": 0.8687875190084162,
        "distance_shoulder_pan_joint": 2.988121526678146,
        "distance_wrist_1_joint": 1.134468148698888,
        "distance_wrist_2_joint": 2.1815307245767266,
        "distance_wrist_3_joint": 2.755475663544389,
        "smoothness": 0.4310127952722153,
        "time": 0.100018785,
        "traj_len": 3.7166852751248793,
        "weighted_distance": 4.758224420379359
    },
    "planner": "RRTConnect",
    "start": {
        "state": {
            "elbow_joint": -1.919618573717145,
            "shoulder_lift_joint": -1.2443395971678275,
            "shoulder_pan_joint": 2.6996025300909787,
            "wrist_1_joint": -1.548550951253194,
            "wrist_2_joint": -1.5709469090946802,
            "wrist_3_joint": 0.4420197732051276
        }
    },
    "waypoints": [
        {
            "positions": [
                2.6996025300909787,
                -1.2443395971678275,
                -1.919618573717145,
                -1.548550951253194,
                -1.5709469090946802,
                0.4420197732051276
            ]
        },
        {
            "positions": [
                2.6126681990670284,
                -1.2562110990823883,
                -1.8060034218391199,
                -1.5183944940911949,
                -1.5102713332568296,
                0.5231492770930773
            ]
        },
        {
            "positions": [
                2.5257338680430776,
                -1.2680826009969488,
                -1.6923882699610948,
                -1.4882380369291957,
                -1.4495957574189788,
                0.604278780981027
            ]
        },
        {
            "positions": [
                2.4387995370191273,
                -1.2799541029115096,
                -1.5787731180830697,
                -1.4580815797671964,
                -1.3889201815811283,
                0.6854082848689768
            ]
        },
        {
            "positions": [
                2.3518652059951766,
                -1.2918256048260701,
                -1.4651579662050447,
                -1.427925122605197,
                -1.3282446057432775,
                0.7665377887569265
            ]
        },
        {
            "positions": [
                2.2649308749712262,
                -1.3036971067406309,
                -1.3515428143270198,
                -1.3977686654431978,
                -1.267569029905427,
                0.8476672926448762
            ]
        },
        {
            "positions": [
                2.177996543947276,
                -1.3155686086551917,
                -1.2379276624489948,
                -1.3676122082811986,
                -1.2068934540675762,
                0.9287967965328259
            ]
        },
        {
            "positions": [
                2.091062212923325,
                -1.3274401105697522,
                -1.1243125105709697,
                -1.3374557511191993,
                -1.1462178782297257,
                1.0099263004207757
            ]
        },
        {
            "positions": [
                2.004127881899375,
                -1.339311612484313,
                -1.0106973586929446,
                -1.3072992939572001,
                -1.0855423023918749,
                1.0910558043087253
            ]
        },
        {
            "positions": [
                1.917193550875424,
                -1.3511831143988735,
                -0.8970822068149196,
                -1.2771428367952007,
                -1.0248667265540243,
                1.172185308196675
            ]
        },
        {
            "positions": [
                1.8302592198514738,
                -1.3630546163134343,
                -0.7834670549368945,
                -1.2469863796332015,
                -0.9641911507161737,
                1.2533148120846247
            ]
        },
        {
            "positions": [
                1.7433248888275232,
                -1.3749261182279948,
                -0.6698519030588694,
                -1.2168299224712023,
                -0.903515574878323,
                1.3344443159725745
            ]
        },
        {
            "positions": [
                1.6563905578035727,
                -1.3867976201425556,
                -0.5562367511808444,
                -1.186673465309203,
                -0.8428399990404724,
                1.4155738198605243
            ]
        },
        {
            "positions": [
                1.5694562267796222,
                -1.3986691220571164,
                -0.4426215993028193,
                -1.1565170081472038,
                -0.7821644232026217,
                1.496703323748474
            ]
        },
        {
            "positions": [
                1.4825218957556718,
                -1.410540623971677,
                -0.32900644742479423,
                -1.1263605509852046,
                -0.721488847364771,
                1.5778328276364237
            ]
        },
        {
            "positions": [
                1.3955875647317213,
                -1.4224121258862377,
                -0.21539129554676917,
                -1.0962040938232054,
                -0.6608132715269204,
                1.6589623315243733
            ]
        },
        {
            "positions": [
                1.3086532337077708,
                -1.4342836278007982,
                -0.1017761436687441,
                -1.066047636661206,
                -0.6001376956890697,
                1.7400918354123232
            ]
        },
        {
            "positions": [
                1.2217189026838202,
                -1.446155129715359,
                0.011839008209280966,
                -1.0358911794992067,
                -0.5394621198512191,
                1.821221339300273
            ]
        },
        {
            "positions": [
                1.1347845716598697,
                -1.4580266316299197,
                0.1254541600873058,
                -1.0057347223372075,
                -0.4787865440133685,
                1.9023508431882226
            ]
        },
        {
            "positions": [
                1.0478502406359194,
                -1.4698981335444803,
                0.23906931196533088,
                -0.9755782651752082,
                -0.41811096817551774,
                1.9834803470761724
            ]
        },
        {
            "positions": [
                0.9609159096119688,
                -1.481769635459041,
                0.35268446384335594,
                -0.945421808013209,
                -0.3574353923376672,
                2.0646098509641218
            ]
        },
        {
            "positions": [
                0.8739815785880183,
                -1.4936411373736016,
                0.466299615721381,
                -0.9152653508512097,
                -0.2967598164998164,
                2.1457393548520716
            ]
        },
        {
            "positions": [
                0.7870472475640677,
                -1.5055126392881624,
                0.5799147675994061,
                -0.8851088936892104,
                -0.23608424066196587,
                2.2268688587400214
            ]
        },
        {
            "positions": [
                0.7001129165401172,
                -1.5173841412027231,
                0.6935299194774311,
                -0.8549524365272112,
                -0.1754086648241151,
                2.307998362627971
            ]
        },
        {
            "positions": [
                0.6131785855161667,
                -1.5292556431172837,
                0.8071450713554562,
                -0.824795979365212,
                -0.11473308898626455,
                2.389127866515921
            ]
        },
        {
            "positions": [
                0.5262442544922163,
                -1.5411271450318444,
                0.9207602232334813,
                -0.7946395222032127,
                -0.05405751314841378,
                2.470257370403871
            ]
        },
        {
            "positions": [
                0.4393099234682656,
                -1.552998646946405,
                1.0343753751115063,
                -0.7644830650412134,
                0.0066180626894367656,
                2.55138687429182
            ]
        },
        {
            "positions": [
                0.35237559244431527,
                -1.5648701488609658,
                1.1479905269895314,
                -0.7343266078792142,
                0.06729363852728754,
                2.63251637817977
            ]
        },
        {
            "positions": [
                0.26544126142036495,
                -1.5767416507755265,
                1.2616056788675565,
                -0.7041701507172149,
                0.12796921436513808,
                2.71364588206772
            ]
        },
        {
            "positions": [
                0.1785069303964142,
                -1.588613152690087,
                1.3752208307455815,
                -0.6740136935552157,
                0.18864479020298885,
                2.7947753859556697
            ]
        },
        {
            "positions": [
                0.09157259937246387,
                -1.6004846546046478,
                1.4888359826236066,
                -0.6438572363932165,
                0.2493203660408394,
                2.875904889843619
            ]
        },
        {
            "positions": [
                0.004638268348513108,
                -1.6123561565192084,
                1.6024511345016317,
                -0.6137007792312171,
                0.3099959418786902,
                2.957034393731569
            ]
        },
        {
            "positions": [
                -0.08229606267543738,
                -1.6242276584337692,
                1.7160662863796567,
                -0.5835443220692179,
                0.37067151771654067,
                3.0381638976195187
            ]
        },
        {
            "positions": [
                -0.04856373877256467,
                -1.5211238972676866,
                1.7913582070332368,
                -0.6396835133402186,
                0.3069925453586521,
                3.0699670264143233
            ]
        },
        {
            "positions": [
                -0.014831414869691958,
                -1.418020136101604,
                1.8666501276868168,
                -0.6958227046112193,
                0.24331357300076353,
                3.1017701552091284
            ]
        },
        {
            "positions": [
                0.018900909033180764,
                -1.3149163749355215,
                1.9419420483403969,
                -0.75196189588222,
                0.17963460064287495,
                3.133573284003933
            ]
        },
        {
            "positions": [
                0.0714138901347369,
                -1.225122287813408,
                1.953844663223392,
                -0.7524838687331747,
                0.15519691029695507,
                3.101612207631141
            ]
        },
        {
            "positions": [
                0.12392687123629305,
                -1.1353282006912946,
                1.9657472781063872,
                -0.7530058415841295,
                0.13075921995103518,
                3.0696511312583494
            ]
        }
    ]
}{
    "goal": {
        "global_pose": {
            "orientation": {
                "w": 0.7047431468963623,
                "x": -0.7094548344612122,
                "y": 0.0024358443915843964,
                "z": -0.0022348060738295317
            },
            "position": {
                "x": 0.6094750761985779,
                "y": 0.3671506643295288,
                "z": 0.19426114857196808
            }
        },
        "name": "move_to_magneteinheit_A"
    },
    "id": "RRTConnect_move_to_magneteinheit_A_65",
    "joint_names": [
        "shoulder_pan_joint",
        "shoulder_lift_joint",
        "elbow_joint",
        "wrist_1_joint",
        "wrist_2_joint",
        "wrist_3_joint"
    ],
    "metrics": {
        "cart_traj_len": 3.7916021168653,
        "distance_elbow_joint": 6.225532499158109,
        "distance_shoulder_lift_joint": 0.7681970974193959,
        "distance_shoulder_pan_joint": 1.2420901281780523,
        "distance_wrist_1_joint": 2.2205131969010403,
        "distance_wrist_2_joint": 2.227884922239591,
        "distance_wrist_3_joint": 4.3770033940523785,
        "smoothness": 0.32468971290000276,
        "time": 0.091760939,
        "traj_len": 4.130523119164033,
        "weighted_distance": 5.501238601005592
    },
    "planner": "RRTConnect",
    "start": {
        "state": {
            "elbow_joint": 1.919643534880228,
            "shoulder_lift_joint": -1.8972525353963687,
            "shoulder_pan_joint": -1.1188672234189438,
            "wrist_1_joint": -1.5931878212786155,
            "wrist_2_joint": 1.5706036197970081,
            "wrist_3_joint": 1.118896926603594
        }
    },
    "waypoints": [
        {
            "positions": [
                -1.1188672234189438,
                -1.8972525353963687,
                1.919643534880228,
                -1.5931878212786155,
                1.5706036197970081,
                1.118896926603594
            ]
        },
        {
            "positions": [
                -1.0978724901098826,
                -1.862306590974457,
                1.7375599490579199,
                -1.501820112121279,
                1.5938209434847062,
                1.0852124742848668
            ]
        },
        {
            "positions": [
                -1.0768777568008212,
                -1.8273606465525452,
                1.555476363235612,
                -1.410452402963943,
                1.6170382671724042,
                1.0515280219661394
            ]
        },
        {
            "positions": [
                -1.05588302349176,
                -1.7924147021306334,
                1.3733927774133035,
                -1.3190846938066065,
                1.6402555908601022,
                1.017843569647412
            ]
        },
        {
            "positions": [
                -1.0348882901826986,
                -1.7574687577087216,
                1.1913091915909955,
                -1.2277169846492701,
                1.6634729145478002,
                0.9841591173286848
            ]
        },
        {
            "positions": [
                -1.0138935568736374,
                -1.7225228132868098,
                1.0092256057686875,
                -1.136349275491934,
                1.686690238235498,
                0.9504746650099575
            ]
        },
        {
            "positions": [
                -0.992898823564576,
                -1.687576868864898,
                0.827142019946379,
                -1.0449815663345976,
                1.709907561923196,
                0.9167902126912302
            ]
        },
        {
            "positions": [
                -0.9719040902555147,
                -1.6526309244429862,
                0.645058434124071,
                -0.9536138571772613,
                1.733124885610894,
                0.8831057603725029
            ]
        },
        {
            "positions": [
                -0.9509093569464534,
                -1.6176849800210744,
                0.46297484830176283,
                -0.862246148019925,
                1.756342209298592,
                0.8494213080537756
            ]
        },
        {
            "positions": [
                -0.9299146236373921,
                -1.5827390355991626,
                0.28089126247945484,
                -0.7708784388625887,
                1.77955953298629,
                0.8157368557350483
            ]
        },
        {
            "positions": [
                -0.9089198903283308,
                -1.5477930911772508,
                0.09880767665714663,
                -0.6795107297052524,
                1.8027768566739881,
                0.782052403416321
            ]
        },
        {
            "positions": [
                -0.8879251570192694,
                -1.512847146755339,
                -0.08327590916516159,
                -0.5881430205479161,
                1.8259941803616861,
                0.7483679510975937
            ]
        },
        {
            "positions": [
                -0.8669304237102082,
                -1.4779012023334273,
                -0.26535949498747,
                -0.49677531139057973,
                1.8492115040493842,
                0.7146834987788664
            ]
        },
        {
            "positions": [
                -0.8459356904011468,
                -1.4429552579115155,
                -0.44744308080977757,
                -0.40540760223324357,
                1.8724288277370822,
                0.6809990464601392
            ]
        },
        {
            "positions": [
                -0.8249409570920856,
                -1.4080093134896037,
                -0.629526666632086,
                -0.3140398930759072,
                1.89564615142478,
                0.6473145941414118
            ]
        },
        {
            "positions": [
                -0.8039462237830243,
                -1.3730633690676919,
                -0.811610252454394,
                -0.2226721839185708,
                1.918863475112478,
                0.6136301418226845
            ]
        },
        {
            "positions": [
                -0.782951490473963,
                -1.33811742464578,
                -0.9936938382767024,
                -0.13130447476123464,
                1.942080798800176,
                0.5799456895039572
            ]
        },
        {
            "positions": [
                -0.7619567571649016,
                -1.3031714802238683,
                -1.1757774240990104,
                -0.03993676560389814,
                1.965298122487874,
                0.5462612371852299
            ]
        },
        {
            "positions": [
                -0.7291723252417901,
                -1.2967227379184276,
                -1.0598473670553485,
                -0.06465017824191013,
                1.8974021810231065,
                0.40535872960619235
            ]
        },
        {
            "positions": [
                -0.6963878933186787,
                -1.2902739956129872,
                -0.9439173100116866,
                -0.08936359087992211,
                1.8295062395583388,
                0.26445622202715474
            ]
        },
        {
            "positions": [
                -0.6636034613955671,
                -1.2838252533075465,
                -0.8279872529680246,
                -0.1140770035179341,
                1.7616102980935713,
                0.12355371444811719
            ]
        },
        {
            "positions": [
                -0.6308190294724556,
                -1.277376511002106,
                -0.7120571959243627,
                -0.1387904161559461,
                1.6937143566288038,
                -0.017348793130920415
            ]
        },
        {
            "positions": [
                -0.5980345975493442,
                -1.2709277686966653,
                -0.5961271388807007,
                -0.16350382879395808,
                1.6258184151640362,
                -0.15825130070995796
            ]
        },
        {
            "positions": [
                -0.5652501656262326,
                -1.264479026391225,
                -0.4801970818370388,
                -0.18821724143197005,
                1.5579224736992685,
                -0.2991538082889955
            ]
        },
        {
            "positions": [
                -0.5324657337031212,
                -1.2580302840857842,
                -0.3642670247933768,
                -0.21293065406998204,
                1.490026532234501,
                -0.4400563158680332
            ]
        },
        {
            "positions": [
                -0.4996813017800097,
                -1.2515815417803438,
                -0.24833696774971492,
                -0.23764406670799404,
                1.4221305907697335,
                -0.5809588234470707
            ]
        },
        {
            "positions": [
                -0.4668968698568982,
                -1.245132799474903,
                -0.13240691070605304,
                -0.262357479346006,
                1.3542346493049657,
                -0.7218613310261083
            ]
        },
        {
            "positions": [
                -0.43411243793378673,
                -1.2386840571694626,
                -0.016476853662390933,
                -0.28707089198401803,
                1.2863387078401982,
                -0.8627638386051458
            ]
        },
        {
            "positions": [
                -0.40132800601067525,
                -1.232235314864022,
                0.09945320338127095,
                -0.31178430462203,
                1.2184427663754307,
                -1.0036663461841835
            ]
        },
        {
            "positions": [
                -0.3685435740875637,
                -1.2257865725585815,
                0.21538326042493283,
                -0.33649771726004196,
                1.1505468249106632,
                -1.144568853763221
            ]
        },
        {
            "positions": [
                -0.33575914216445224,
                -1.2193378302531408,
                0.3313133174685947,
                -0.36121112989805393,
                1.0826508834458957,
                -1.2854713613422586
            ]
        },
        {
            "positions": [
                -0.30297471024134076,
                -1.2128890879477003,
                0.4472433745122568,
                -0.38592454253606595,
                1.014754941981128,
                -1.4263738689212961
            ]
        },
        {
            "positions": [
                -0.2701902783182292,
                -1.2064403456422597,
                0.5631734315559189,
                -0.410637955174078,
                0.9468590005163602,
                -1.5672763765003337
            ]
        },
        {
            "positions": [
                -0.23740584639511775,
                -1.1999916033368192,
                0.6791034885995806,
                -0.43535136781208994,
                0.8789630590515929,
                -1.7081788840793712
            ]
        },
        {
            "positions": [
                -0.2046214144720062,
                -1.1935428610313785,
                0.7950335456432427,
                -0.46006478045010196,
                0.8110671175868251,
                -1.8490813916584088
            ]
        },
        {
            "positions": [
                -0.1718369825488948,
                -1.187094118725938,
                0.9109636026869044,
                -0.4847781930881139,
                0.7431711761220576,
                -1.9899838992374463
            ]
        },
        {
            "positions": [
                -0.13905255062578326,
                -1.1806453764204974,
                1.0268936597305667,
                -0.5094916057261258,
                0.6752752346572899,
                -2.1308864068164843
            ]
        },
        {
            "positions": [
                -0.10626811870267183,
                -1.174196634115057,
                1.1428237167742286,
                -0.5342050183641378,
                0.6073792931925224,
                -2.2717889143955214
            ]
        },
        {
            "positions": [
                -0.0734836867795603,
                -1.1677478918096162,
                1.2587537738178904,
                -0.5589184310021499,
                0.5394833517277549,
                -2.4126914219745594
            ]
        },
        {
            "positions": [
                -0.040699254856448874,
                -1.1612991495041758,
                1.3746838308615523,
                -0.5836318436401619,
                0.47158741026298734,
                -2.5535939295535965
            ]
        },
        {
            "positions": [
                -0.007914822933337229,
                -1.154850407198735,
                1.4906138879052142,
                -0.6083452562781738,
                0.4036914687982196,
                -2.6944964371326345
            ]
        },
        {
            "positions": [
                0.024869608989774195,
                -1.1484016648932946,
                1.606543944948876,
                -0.6330586689161858,
                0.3357955273334521,
                -2.8353989447116716
            ]
        },
        {
            "positions": [
                0.05765404091288573,
                -1.141952922587854,
                1.7224740019925384,
                -0.6577720815541979,
                0.26789958586868456,
                -2.9763014522907096
            ]
        },
        {
            "positions": [
                0.09043847283599715,
                -1.1355041802824135,
                1.8384040590361999,
                -0.6824854941922097,
                0.20000364440391705,
                -3.1172039598697467
            ]
        },
        {
            "positions": [
                0.12322290475910867,
                -1.1290554379769728,
                1.954334116079862,
                -0.7071989068302218,
                0.1321077029391492,
                -3.2581064674487847
            ]
        }
    ]
}