{
    "goal": {
        "global_pose": {
            "orientation": {
                "w": 0.7047431468963623,
                "x": -0.7094548344612122,
                "y": 0.0024358443915843964,
                "z": -0.0022348060738295317
            },
            "position": {
                "x": 0.6094750761985779,
                "y": 0.3671506643295288,
                "z": 0.19426114857196808
            }
        },
        "name": "move_to_magneteinheit_A"
    },
    "id": "RRTConnect_move_to_magneteinheit_A_77",
    "joint_names": [
        "shoulder_pan_joint",
        "shoulder_lift_joint",
        "elbow_joint",
        "wrist_1_joint",
        "wrist_2_joint",
        "wrist_3_joint"
    ],
    "metrics": {
        "cart_traj_len": 4.287023451970529,
        "distance_elbow_joint": 4.226115167530674,
        "distance_shoulder_lift_joint": 0.5615202064039244,
        "distance_shoulder_pan_joint": 5.038969074948304,
        "distance_wrist_1_joint": 8.701978217748765,
        "distance_wrist_2_joint": 1.8652329627761577,
        "distance_wrist_3_joint": 12.655111874600586,
        "smoothness": 0.46038806363496226,
        "time": 0.08939187200000001,
        "traj_len": 5.748819661809578,
        "weighted_distance": 8.3021902190768
    },
    "planner": "RRTConnect",
    "start": {
        "state": {
            "elbow_joint": -1.919618573717145,
            "shoulder_lift_joint": -1.2443395971678275,
            "shoulder_pan_joint": 2.6996025300909787,
            "wrist_1_joint": -1.548550951253194,
            "wrist_2_joint": -1.5709469090946802,
            "wrist_3_joint": 0.4420197732051276
        }
    },
    "waypoints": [
        {
            "positions": [
                2.6996025300909787,
                -1.2443395971678275,
                -1.919618573717145,
                -1.548550951253194,
                -1.5709469090946802,
                0.4420197732051276
            ]
        },
        {
            "positions": [
                2.5689497461669504,
                -1.2350703897181807,
                -1.8527662152368667,
                -1.5000218407339485,
                -1.5578179673465062,
                0.3318271308076056
            ]
        },
        {
            "positions": [
                2.4382969622429225,
                -1.2258011822685337,
                -1.7859138567565882,
                -1.451492730214703,
                -1.544689025598332,
                0.2216344884100836
            ]
        },
        {
            "positions": [
                2.3076441783188946,
                -1.216531974818887,
                -1.71906149827631,
                -1.4029636196954574,
                -1.5315600838501582,
                0.11144184601256163
            ]
        },
        {
            "positions": [
                2.176991394394866,
                -1.2072627673692402,
                -1.6522091397960315,
                -1.3544345091762118,
                -1.5184311421019843,
                0.0012492036150396069
            ]
        },
        {
            "positions": [
                2.046338610470838,
                -1.1979935599195934,
                -1.5853567813157532,
                -1.3059053986569662,
                -1.5053022003538103,
                -0.10894343878248242
            ]
        },
        {
            "positions": [
                1.91568582654681,
                -1.1887243524699465,
                -1.5185044228354747,
                -1.2573762881377208,
                -1.4921732586056362,
                -0.21913608118000433
            ]
        },
        {
            "positions": [
                1.7850330426227818,
                -1.1794551450202997,
                -1.4516520643551964,
                -1.2088471776184753,
                -1.4790443168574623,
                -0.32932872357752635
            ]
        },
        {
            "positions": [
                1.6543802586987537,
                -1.170185937570653,
                -1.3847997058749182,
                -1.1603180670992297,
                -1.4659153751092884,
                -0.4395213659750484
            ]
        },
        {
            "positions": [
                1.5237274747747256,
                -1.160916730121006,
                -1.31794734739464,
                -1.1117889565799841,
                -1.4527864333611142,
                -0.5497140083725702
            ]
        },
        {
            "positions": [
                1.3930746908506975,
                -1.1516475226713592,
                -1.2510949889143614,
                -1.0632598460607385,
                -1.4396574916129403,
                -0.6599066507700924
            ]
        },
        {
            "positions": [
                1.2624219069266691,
                -1.1423783152217124,
                -1.184242630434083,
                -1.014730735541493,
                -1.4265285498647664,
                -0.7700992931676143
            ]
        },
        {
            "positions": [
                1.1317691230026412,
                -1.1331091077720656,
                -1.1173902719538047,
                -0.9662016250222475,
                -1.4133996081165925,
                -0.8802919355651362
            ]
        },
        {
            "positions": [
                1.0011163390786129,
                -1.1238399003224187,
                -1.0505379134735264,
                -0.9176725145030018,
                -1.4002706663684183,
                -0.9904845779626583
            ]
        },
        {
            "positions": [
                0.870463555154585,
                -1.1145706928727719,
                -0.983685554993248,
                -0.8691434039837563,
                -1.3871417246202444,
                -1.1006772203601802
            ]
        },
        {
            "positions": [
                0.7398107712305566,
                -1.1053014854231251,
                -0.9168331965129695,
                -0.8206142934645108,
                -1.3740127828720705,
                -1.2108698627577024
            ]
        },
        {
            "positions": [
                0.6091579873065287,
                -1.0960322779734781,
                -0.8499808380326912,
                -0.7720851829452652,
                -1.3608838411238966,
                -1.3210625051552243
            ]
        },
        {
            "positions": [
                0.47850520338250035,
                -1.0867630705238314,
                -0.7831284795524129,
                -0.7235560724260196,
                -1.3477548993757225,
                -1.4312551475527464
            ]
        },
        {
            "positions": [
                0.34785241945847245,
                -1.0774938630741846,
                -0.7162761210721347,
                -0.6750269619067741,
                -1.3346259576275485,
                -1.541447789950268
            ]
        },
        {
            "positions": [
                0.2171996355344441,
                -1.0682246556245378,
                -0.6494237625918562,
                -0.6264978513875286,
                -1.3214970158793746,
                -1.6516404323477905
            ]
        },
        {
            "positions": [
                0.0865468516104162,
                -1.0589554481748908,
                -0.5825714041115779,
                -0.577968740868283,
                -1.3083680741312005,
                -1.7618330747453124
            ]
        },
        {
            "positions": [
                -0.04410593231361226,
                -1.049686240725244,
                -0.5157190456312994,
                -0.5294396303490374,
                -1.2952391323830266,
                -1.8720257171428343
            ]
        },
        {
            "positions": [
                -0.0866845433385588,
                -1.058583129871355,
                -0.5228576743606937,
                -0.37900173958863226,
                -1.2987190529228727,
                -1.6933263812191313
            ]
        },
        {
            "positions": [
                -0.12926315436350533,
                -1.0674800190174658,
                -0.5299963030900879,
                -0.22856384882822717,
                -1.3021989734627188,
                -1.514627045295428
            ]
        },
        {
            "positions": [
                -0.17184176538845183,
                -1.0763769081635768,
                -0.5371349318194822,
                -0.07812595806782208,
                -1.305678894002565,
                -1.335927709371725
            ]
        },
        {
            "positions": [
                -0.21442037641339837,
                -1.0852737973096878,
                -0.5442735605488765,
                0.07231193269258307,
                -1.3091588145424113,
                -1.1572283734480218
            ]
        },
        {
            "positions": [
                -0.25699898743834493,
                -1.0941706864557985,
                -0.5514121892782707,
                0.22274982345298822,
                -1.3126387350822575,
                -0.9785290375243187
            ]
        },
        {
            "positions": [
                -0.2995775984632914,
                -1.1030675756019095,
                -0.558550818007665,
                0.37318771421339325,
                -1.3161186556221036,
                -0.7998297016006157
            ]
        },
        {
            "positions": [
                -0.342156209488238,
                -1.1119644647480205,
                -0.5656894467370592,
                0.5236256049737984,
                -1.3195985761619498,
                -0.6211303656769125
            ]
        },
        {
            "positions": [
                -0.38473482051318447,
                -1.1208613538941312,
                -0.5728280754664535,
                0.6740634957342035,
                -1.323078496701796,
                -0.44243102975320947
            ]
        },
        {
            "positions": [
                -0.427313431538131,
                -1.1297582430402422,
                -0.5799667041958478,
                0.8245013864946085,
                -1.326558417241642,
                -0.26373169382950645
            ]
        },
        {
            "positions": [
                -0.4698920425630776,
                -1.138655132186353,
                -0.587105332925242,
                0.9749392772550138,
                -1.3300383377814884,
                -0.08503235790580321
            ]
        },
        {
            "positions": [
                -0.5124706535880241,
                -1.147552021332464,
                -0.5942439616546363,
                1.1253771680154188,
                -1.3335182583213345,
                0.0936669780178998
            ]
        },
        {
            "positions": [
                -0.5550492646129705,
                -1.156448910478575,
                -0.6013825903840306,
                1.275815058775824,
                -1.3369981788611807,
                0.2723663139416028
            ]
        },
        {
            "positions": [
                -0.5976278756379172,
                -1.1653457996246857,
                -0.6085212191134248,
                1.426252949536229,
                -1.3404780994010268,
                0.45106564986530584
            ]
        },
        {
            "positions": [
                -0.6402064866628637,
                -1.1742426887707966,
                -0.6156598478428191,
                1.5766908402966342,
                -1.343958019940873,
                0.6297649857890093
            ]
        },
        {
            "positions": [
                -0.6827850976878101,
                -1.1831395779169076,
                -0.6227984765722134,
                1.7271287310570393,
                -1.347437940480719,
                0.8084643217127119
            ]
        },
        {
            "positions": [
                -0.7253637087127567,
                -1.1920364670630184,
                -0.6299371053016076,
                1.8775666218174445,
                -1.3509178610205654,
                0.9871636576364153
            ]
        },
        {
            "positions": [
                -0.7679423197377033,
                -1.2009333562091293,
                -0.6370757340310019,
                2.0280045125778496,
                -1.3543977815604116,
                1.1658629935601184
            ]
        },
        {
            "positions": [
                -0.8105209307626497,
                -1.2098302453552403,
                -0.6442143627603962,
                2.1784424033382543,
                -1.3578777021002577,
                1.3445623294838214
            ]
        },
        {
            "positions": [
                -0.8530995417875963,
                -1.218727134501351,
                -0.6513529914897904,
                2.32888029409866,
                -1.3613576226401038,
                1.5232616654075244
            ]
        },
        {
            "positions": [
                -0.8956781528125429,
                -1.227624023647462,
                -0.6584916202191847,
                2.479318184859065,
                -1.36483754317995,
                1.7019610013312279
            ]
        },
        {
            "positions": [
                -0.9382567638374893,
                -1.2365209127935728,
                -0.665630248948579,
                2.62975607561947,
                -1.3683174637197961,
                1.8806603372549304
            ]
        },
        {
            "positions": [
                -0.9808353748624359,
                -1.2454178019396838,
                -0.6727688776779732,
                2.780193966379875,
                -1.3717973842596423,
                2.059359673178634
            ]
        },
        {
            "positions": [
                -1.0234139858873825,
                -1.2543146910857947,
                -0.6799075064073675,
                2.93063185714028,
                -1.3752773047994886,
                2.238059009102337
            ]
        },
        {
            "positions": [
                -1.065992596912329,
                -1.2632115802319055,
                -0.6870461351367617,
                3.081069747900685,
                -1.3787572253393348,
                2.41675834502604
            ]
        },
        {
            "positions": [
                -1.1085712079372754,
                -1.2721084693780165,
                -0.694184763866156,
                3.2315076386610904,
                -1.382237145879181,
                2.595457680949743
            ]
        },
        {
            "positions": [
                -1.0770123531444538,
                -1.2684047611393352,
                -0.6263963043479516,
                3.1309455969217446,
                -1.343710808121018,
                2.444852988996921
            ]
        },
        {
            "positions": [
                -1.0454534983516321,
                -1.264701052900654,
                -0.5586078448297471,
                3.030383555182399,
                -1.3051844703628552,
                2.294248297044099
            ]
        },
        {
            "positions": [
                -1.0138946435588105,
                -1.2609973446619727,
                -0.4908193853115427,
                2.9298215134430534,
                -1.2666581326046924,
                2.143643605091277
            ]
        },
        {
            "positions": [
                -0.9823357887659889,
                -1.2572936364232914,
                -0.4230309257933383,
                2.829259471703708,
                -1.2281317948465296,
                1.993038913138455
            ]
        },
        {
            "positions": [
                -0.9507769339731673,
                -1.2535899281846103,
                -0.3552424662751339,
                2.7286974299643623,
                -1.189605457088367,
                1.8424342211856328
            ]
        },
        {
            "positions": [
                -0.9192180791803457,
                -1.249886219945929,
                -0.2874540067569294,
                2.628135388225017,
                -1.1510791193302041,
                1.6918295292328107
            ]
        },
        {
            "positions": [
                -0.8876592243875241,
                -1.2461825117072478,
                -0.219665547238725,
                2.5275733464856716,
                -1.1125527815720413,
                1.5412248372799888
            ]
        },
        {
            "positions": [
                -0.8561003695947025,
                -1.2424788034685665,
                -0.15187708772052055,
                2.4270113047463258,
                -1.0740264438138785,
                1.390620145327167
            ]
        },
        {
            "positions": [
                -0.8245415148018809,
                -1.2387750952298853,
                -0.0840886282023161,
                2.32644926300698,
                -1.0355001060557156,
                1.2400154533743448
            ]
        },
        {
            "positions": [
                -0.7929826600090593,
                -1.235071386991204,
                -0.01630016868411177,
                2.2258872212676346,
                -0.9969737682975528,
                1.089410761421523
            ]
        },
        {
            "positions": [
                -0.7614238052162376,
                -1.2313676787525227,
                0.05148829083409279,
                2.1253251795282893,
                -0.95844743053939,
                0.9388060694687008
            ]
        },
        {
            "positions": [
                -0.729864950423416,
                -1.2276639705138415,
                0.11927675035229723,
                2.024763137788943,
                -0.9199210927812271,
                0.7882013775158787
            ]
        },
        {
            "positions": [
                -0.6983060956305944,
                -1.2239602622751602,
                0.18706520987050157,
                1.9242010960495979,
                -0.8813947550230644,
                0.6375966855630568
            ]
        },
        {
            "positions": [
                -0.6667472408377728,
                -1.220256554036479,
                0.254853669388706,
                1.8236390543102523,
                -0.8428684172649016,
                0.4869919936102347
            ]
        },
        {
            "positions": [
                -0.6351883860449512,
                -1.2165528457977979,
                0.3226421289069106,
                1.7230770125709065,
                -0.8043420795067387,
                0.3363873016574126
            ]
        },
        {
            "positions": [
                -0.6036295312521296,
                -1.2128491375591166,
                0.3904305884251149,
                1.6225149708315612,
                -0.7658157417485759,
                0.18578260970459093
            ]
        },
        {
            "positions": [
                -0.572070676459308,
                -1.2091454293204353,
                0.45821904794331925,
                1.5219529290922154,
                -0.7272894039904131,
                0.03517791775176882
            ]
        },
        {
            "positions": [
                -0.5405118216664864,
                -1.205441721081754,
                0.5260075074615238,
                1.4213908873528698,
                -0.6887630662322503,
                -0.1154267742010533
            ]
        },
        {
            "positions": [
                -0.5089529668736648,
                -1.2017380128430728,
                0.5937959669797281,
                1.3208288456135244,
                -0.6502367284740875,
                -0.26603146615387496
            ]
        },
        {
            "positions": [
                -0.47739411208084326,
                -1.1980343046043915,
                0.6615844264979325,
                1.2202668038741789,
                -0.6117103907159248,
                -0.4166361581066971
            ]
        },
        {
            "positions": [
                -0.44583525728802154,
                -1.1943305963657103,
                0.729372886016137,
                1.119704762134833,
                -0.573184052957762,
                -0.5672408500595192
            ]
        },
        {
            "positions": [
                -0.4142764024951999,
                -1.190626888127029,
                0.7971613455343416,
                1.0191427203954877,
                -0.5346577151995991,
                -0.7178455420123413
            ]
        },
        {
            "positions": [
                -0.3827175477023783,
                -1.1869231798883477,
                0.8649498050525459,
                0.9185806786561419,
                -0.4961313774414363,
                -0.8684502339651634
            ]
        },
        {
            "positions": [
                -0.3511586929095567,
                -1.1832194716496665,
                0.9327382645707505,
                0.8180186369167961,
                -0.4576050396832734,
                -1.0190549259179855
            ]
        },
        {
            "positions": [
                -0.319599838116735,
                -1.1795157634109854,
                1.000526724088955,
                0.7174565951774508,
                -0.41907870192511054,
                -1.1696596178708076
            ]
        },
        {
            "positions": [
                -0.2880409833239135,
                -1.1758120551723041,
                1.0683151836071592,
                0.6168945534381054,
                -0.38055236416694793,
                -1.3202643098236293
            ]
        },
        {
            "positions": [
                -0.25648212853109187,
                -1.1721083469336229,
                1.1361036431253637,
                0.5163325116987596,
                -0.3420260264087851,
                -1.470869001776451
            ]
        },
        {
            "positions": [
                -0.22492327373827026,
                -1.1684046386949416,
                1.203892102643568,
                0.41577046995941425,
                -0.30349968865062227,
                -1.6214736937292735
            ]
        },
        {
            "positions": [
                -0.19336441894544865,
                -1.1647009304562603,
                1.2716805621617726,
                0.31520842822006845,
                -0.26497335089245944,
                -1.7720783856820952
            ]
        },
        {
            "positions": [
                -0.16180556415262703,
                -1.160997222217579,
                1.3394690216799772,
                0.21464638648072265,
                -0.2264470131342966,
                -1.9226830776349177
            ]
        },
        {
            "positions": [
                -0.13024670935980553,
                -1.1572935139788978,
                1.4072574811981813,
                0.11408434474137774,
                -0.187920675376134,
                -2.0732877695877394
            ]
        },
        {
            "positions": [
                -0.09868785456698381,
                -1.1535898057402165,
                1.4750459407163858,
                0.013522303002031943,
                -0.14939433761797094,
                -2.223892461540561
            ]
        },
        {
            "positions": [
                -0.0671289997741622,
                -1.1498860975015353,
                1.5428344002345904,
                -0.08703973873731385,
                -0.11086799985980811,
                -2.3744971534933836
            ]
        },
        {
            "positions": [
                -0.03557014498134059,
                -1.146182389262854,
                1.6106228597527945,
                -0.18760178047665965,
                -0.07234166210164528,
                -2.5251018454462053
            ]
        },
        {
            "positions": [
                -0.004011290188518979,
                -1.142478681024173,
                1.678411319270999,
                -0.288163822216005,
                -0.033815324343482445,
                -2.675706537399028
            ]
        },
        {
            "positions": [
                0.027547564604302632,
                -1.1387749727854917,
                1.7461997787892036,
                -0.3887258639553508,
                0.004711013414680387,
                -2.8263112293518495
            ]
        },
        {
            "positions": [
                0.059106419397124244,
                -1.1350712645468104,
                1.8139882383074077,
                -0.48928790569469616,
                0.043237351172843,
                -2.976915921304671
            ]
        },
        {
            "positions": [
                0.09066527418994585,
                -1.1313675563081291,
                1.8817766978256123,
                -0.5898499474340415,
                0.08176368893100583,
                -3.127520613257493
            ]
        },
        {
            "positions": [
                0.12222412898276751,
                -1.1276638480694479,
                1.9495651573438169,
                -0.6904119891733873,
                0.12029002668916874,
                -3.2781253052103154
            ]
        }
    ]
}{
    "goal": {
        "global_pose": {
            "orientation": {
                "w": 0.7047431468963623,
                "x": -0.7094548344612122,
                "y": 0.0024358443915843964,
                "z": -0.0022348060738295317
            },
            "position": {
                "x": 0.6094750761985779,
                "y": 0.3671506643295288,
                "z": 0.19426114857196808
            }
        },
        "name": "move_to_magneteinheit_A"
    },
    "id": "RRTConnect_move_to_magneteinheit_A_77",
    "joint_names": [
        "shoulder_pan_joint",
        "shoulder_lift_joint",
        "elbow_joint",
        "wrist_1_joint",
        "wrist_2_joint",
        "wrist_3_joint"
    ],
    "metrics": {
        "cart_traj_len": 1.23371332185972,
        "distance_elbow_joint": 0.04217382555054727,
        "distance_shoulder_lift_joint": 0.8147303416441329,
        "distance_shoulder_pan_joint": 1.2429419588956097,
        "distance_wrist_1_joint": 1.6924897391970326,
        "distance_wrist_2_joint": 1.4324070599257959,
        "distance_wrist_3_joint": 4.355753278406292,
        "smoothness": 0.2268698602010161,
        "time": 0.082642642,
        "traj_len": 3.095237665126769,
        "weighted_distance": 4.627839621200677
    },
    "planner": "RRTConnect",
    "start": {
        "state": {
            "elbow_joint": 1.919643534880228,
            "shoulder_lift_joint": -1.8972525353963687,
            "shoulder_pan_joint": -1.1188672234189438,
            "wrist_1_joint": -1.5931878212786155,
            "wrist_2_joint": 1.5706036197970081,
            "wrist_3_joint": 1.118896926603594
        }
    },
    "waypoints": [
        {
            "positions": [
                -1.1188672234189438,
                -1.8972525353963687,
                1.919643534880228,
                -1.5931878212786155,
                1.5706036197970081,
                1.118896926603594
            ]
        },
        {
            "positions": [
                -1.06654527015889,
                -1.85969290878965,
                1.9206011742907902,
                -1.5322861907621024,
                1.5039710618129396,
                0.9512602406190314
            ]
        },
        {
            "positions": [
                -1.0142233168988364,
                -1.8221332821829317,
                1.9215588137013526,
                -1.4713845602455895,
                1.4373385038288713,
                0.7836235546344688
            ]
        },
        {
            "positions": [
                -0.9619013636387825,
                -1.784573655576213,
                1.9225164531119148,
                -1.4104829297290764,
                1.3707059458448028,
                0.6159868686499063
            ]
        },
        {
            "positions": [
                -0.9095794103787287,
                -1.7470140289694944,
                1.923474092522477,
                -1.3495812992125633,
                1.3040733878607345,
                0.44835018266534366
            ]
        },
        {
            "positions": [
                -0.8572574571186748,
                -1.709454402362776,
                1.924431731933039,
                -1.2886796686960502,
                1.237440829876666,
                0.28071349668078105
            ]
        },
        {
            "positions": [
                -0.8049355038586211,
                -1.6718947757560574,
                1.9253893713436014,
                -1.2277780381795373,
                1.1708082718925974,
                0.11307681069621855
            ]
        },
        {
            "positions": [
                -0.7526135505985674,
                -1.634335149149339,
                1.9263470107541636,
                -1.1668764076630243,
                1.104175713908529,
                -0.05455987528834405
            ]
        },
        {
            "positions": [
                -0.7002915973385135,
                -1.5967755225426203,
                1.9273046501647257,
                -1.1059747771465114,
                1.0375431559244606,
                -0.22219656127290666
            ]
        },
        {
            "positions": [
                -0.6479696440784597,
                -1.559215895935902,
                1.9282622895752881,
                -1.0450731466299983,
                0.9709105979403921,
                -0.38983324725746926
            ]
        },
        {
            "positions": [
                -0.595647690818406,
                -1.5216562693291833,
                1.9292199289858503,
                -0.9841715161134852,
                0.9042780399563237,
                -0.5574699332420319
            ]
        },
        {
            "positions": [
                -0.5433257375583521,
                -1.4840966427224647,
                1.9301775683964124,
                -0.9232698855969721,
                0.8376454819722552,
                -0.7251066192265947
            ]
        },
        {
            "positions": [
                -0.4910037842982984,
                -1.4465370161157463,
                1.9311352078069746,
                -0.8623682550804591,
                0.7710129239881869,
                -0.8927433052111569
            ]
        },
        {
            "positions": [
                -0.43868183103824454,
                -1.4089773895090276,
                1.932092847217537,
                -0.801466624563946,
                0.7043803660041184,
                -1.0603799911957197
            ]
        },
        {
            "positions": [
                -0.3863598777781908,
                -1.371417762902309,
                1.933050486628099,
                -0.740564994047433,
                0.6377478080200499,
                -1.228016677180282
            ]
        },
        {
            "positions": [
                -0.33403792451813696,
                -1.3338581362955906,
                1.9340081260386612,
                -0.6796633635309199,
                0.5711152500359814,
                -1.395653363164845
            ]
        },
        {
            "positions": [
                -0.28171597125808323,
                -1.296298509688872,
                1.9349657654492236,
                -0.6187617330144071,
                0.504482692051913,
                -1.5632900491494073
            ]
        },
        {
            "positions": [
                -0.2293940179980294,
                -1.2587388830821533,
                1.9359234048597858,
                -0.557860102497894,
                0.43785013406784445,
                -1.73092673513397
            ]
        },
        {
            "positions": [
                -0.17707206473797565,
                -1.221179256475435,
                1.936881044270348,
                -0.4969584719813809,
                0.37121757608377615,
                -1.8985634211185325
            ]
        },
        {
            "positions": [
                -0.12475011147792181,
                -1.1836196298687163,
                1.93783868368091,
                -0.4360568414648678,
                0.3045850180997076,
                -2.0662001071030955
            ]
        },
        {
            "positions": [
                -0.07242815821786808,
                -1.1460600032619979,
                1.9387963230914724,
                -0.3751552109483549,
                0.2379524601156393,
                -2.233836793087658
            ]
        },
        {
            "positions": [
                -0.020106204957814136,
                -1.1085003766552792,
                1.9397539625020346,
                -0.31425358043184193,
                0.17131990213157072,
                -2.4014734790722203
            ]
        },
        {
            "positions": [
                0.01593903015080582,
                -1.11499492238104,
                1.9452698119842198,
                -0.41764245501940667,
                0.16303906656648107,
                -2.6103191972548396
            ]
        },
        {
            "positions": [
                0.051984265259425774,
                -1.1214894681068008,
                1.950785661466405,
                -0.5210313296069713,
                0.1547582310013914,
                -2.819164915437459
            ]
        },
        {
            "positions": [
                0.08802950036804573,
                -1.1279840138325619,
                1.9563015109485902,
                -0.624420204194536,
                0.14647739543630173,
                -3.0280106336200783
            ]
        },
        {
            "positions": [
                0.12407473547666568,
                -1.1344785595583227,
                1.9618173604307754,
                -0.7278090787821008,
                0.13819655987121207,
                -3.2368563518026976
            ]
        }
    ]
}