{
    "goal": {
        "global_pose": {
            "orientation": {
                "w": 0.7047431468963623,
                "x": -0.7094548344612122,
                "y": 0.0024358443915843964,
                "z": -0.0022348060738295317
            },
            "position": {
                "x": 0.6094750761985779,
                "y": 0.3671506643295288,
                "z": 0.19426114857196808
            }
        },
        "name": "move_to_magneteinheit_A"
    },
    "id": "RRTstar_move_to_magneteinheit_A_107",
    "joint_names": [
        "shoulder_pan_joint",
        "shoulder_lift_joint",
        "elbow_joint",
        "wrist_1_joint",
        "wrist_2_joint",
        "wrist_3_joint"
    ],
    "metrics": {
        "cart_traj_len": 4.11986833206366,
        "distance_elbow_joint": 3.8792451897596782,
        "distance_shoulder_lift_joint": 1.1560337210849085,
        "distance_shoulder_pan_joint": 2.9164243378630275,
        "distance_wrist_1_joint": 0.8075388845787508,
        "distance_wrist_2_joint": 1.692139737047059,
        "distance_wrist_3_joint": 2.6077147975513624,
        "smoothness": 0.10877885425161389,
        "time": 5.013491108,
        "traj_len": 3.613737216218798,
        "weighted_distance": 4.557872846472719
    },
    "planner": "RRTstar",
    "start": {
        "state": {
            "elbow_joint": -1.919618573717145,
            "shoulder_lift_joint": -1.2443395971678275,
            "shoulder_pan_joint": 2.6996025300909787,
            "wrist_1_joint": -1.548550951253194,
            "wrist_2_joint": -1.5709469090946802,
            "wrist_3_joint": 0.4420197732051276
        }
    },
    "waypoints": [
        {
            "positions": [
                2.6996025300909787,
                -1.2443395971678275,
                -1.919618573717145,
                -1.548550951253194,
                -1.5709469090946802,
                0.4420197732051276
            ]
        },
        {
            "positions": [
                2.5897448150340256,
                -1.2189811395193215,
                -1.8157863728662333,
                -1.5432256043939927,
                -1.5251042888186148,
                0.5409470167023575
            ]
        },
        {
            "positions": [
                2.479887099977072,
                -1.1936226818708158,
                -1.711954172015322,
                -1.537900257534791,
                -1.4792616685425495,
                0.6398742601995874
            ]
        },
        {
            "positions": [
                2.370029384920119,
                -1.1682642242223098,
                -1.6081219711644104,
                -1.5325749106755897,
                -1.4334190482664841,
                0.7388015036968172
            ]
        },
        {
            "positions": [
                2.2601716698631655,
                -1.142905766573804,
                -1.5042897703134988,
                -1.527249563816388,
                -1.3875764279904188,
                0.8377287471940471
            ]
        },
        {
            "positions": [
                2.1503139548062125,
                -1.117547308925298,
                -1.4004575694625871,
                -1.5219242169571867,
                -1.3417338077143535,
                0.936655990691277
            ]
        },
        {
            "positions": [
                2.0404562397492594,
                -1.0921888512767923,
                -1.2966253686116758,
                -1.516598870097985,
                -1.2958911874382881,
                1.035583234188507
            ]
        },
        {
            "positions": [
                1.9305985246923059,
                -1.0668303936282864,
                -1.1927931677607642,
                -1.5112735232387837,
                -1.250048567162223,
                1.1345104776857369
            ]
        },
        {
            "positions": [
                1.8207408096353528,
                -1.0414719359797804,
                -1.0889609669098528,
                -1.5059481763795821,
                -1.2042059468861575,
                1.2334377211829668
            ]
        },
        {
            "positions": [
                1.7108830945783995,
                -1.0161134783312746,
                -0.9851287660589412,
                -1.5006228295203807,
                -1.1583633266100923,
                1.3323649646801967
            ]
        },
        {
            "positions": [
                1.6010253795214462,
                -0.9907550206827687,
                -0.8812965652080296,
                -1.4952974826611791,
                -1.112520706334027,
                1.4312922081774266
            ]
        },
        {
            "positions": [
                1.491167664464493,
                -0.9653965630342629,
                -0.777464364357118,
                -1.4899721358019777,
                -1.0666780860579617,
                1.5302194516746566
            ]
        },
        {
            "positions": [
                1.3813099494075398,
                -0.9400381053857569,
                -0.6736321635062066,
                -1.4846467889427761,
                -1.0208354657818963,
                1.6291466951718863
            ]
        },
        {
            "positions": [
                1.2714522343505863,
                -0.9146796477372512,
                -0.569799962655295,
                -1.4793214420835747,
                -0.974992845505831,
                1.7280739386691164
            ]
        },
        {
            "positions": [
                1.161594519293633,
                -0.8893211900887452,
                -0.4659677618043834,
                -1.4739960952243731,
                -0.9291502252297656,
                1.8270011821663463
            ]
        },
        {
            "positions": [
                1.05173680423668,
                -0.8639627324402395,
                -0.362135560953472,
                -1.4686707483651718,
                -0.8833076049537004,
                1.925928425663576
            ]
        },
        {
            "positions": [
                0.9418790891797266,
                -0.8386042747917335,
                -0.2583033601025604,
                -1.4633454015059701,
                -0.837464984677635,
                2.024855669160806
            ]
        },
        {
            "positions": [
                0.8320213741227733,
                -0.8132458171432275,
                -0.15447115925164878,
                -1.4580200546467688,
                -0.7916223644015696,
                2.123782912658036
            ]
        },
        {
            "positions": [
                0.7221636590658203,
                -0.7878873594947218,
                -0.0506389584007374,
                -1.4526947077875672,
                -0.7457797441255044,
                2.222710156155266
            ]
        },
        {
            "positions": [
                0.6123059440088667,
                -0.7625289018462158,
                0.053193242450174205,
                -1.4473693609283658,
                -0.6999371238494391,
                2.3216373996524955
            ]
        },
        {
            "positions": [
                0.5024482289519137,
                -0.7371704441977099,
                0.1570254433010858,
                -1.4420440140691642,
                -0.6540945035733737,
                2.4205646431497256
            ]
        },
        {
            "positions": [
                0.3925905138949606,
                -0.7118119865492042,
                0.26085764415199697,
                -1.4367186672099628,
                -0.6082518832973085,
                2.5194918866469553
            ]
        },
        {
            "positions": [
                0.28273279883800706,
                -0.6864535289006982,
                0.364689845002909,
                -1.4313933203507612,
                -0.5624092630212432,
                2.6184191301441855
            ]
        },
        {
            "positions": [
                0.17287508378105398,
                -0.6610950712521924,
                0.4685220458538206,
                -1.4260679734915598,
                -0.5165666427451778,
                2.717346373641415
            ]
        },
        {
            "positions": [
                0.06301736872410091,
                -0.6357366136036865,
                0.5723542467047318,
                -1.4207426266323582,
                -0.4707240224691125,
                2.816273617138645
            ]
        },
        {
            "positions": [
                -0.04684034633285253,
                -0.6103781559551806,
                0.6761864475556432,
                -1.4154172797731568,
                -0.42488140219304715,
                2.915200860635875
            ]
        },
        {
            "positions": [
                -0.02795351728405279,
                -0.6683861870520986,
                0.8187909107208531,
                -1.340483367206633,
                -0.3642064877324443,
                2.930149050649277
            ]
        },
        {
            "positions": [
                -0.00906668823525305,
                -0.7263942181490166,
                0.9613953738860631,
                -1.2655494546401094,
                -0.30353157327184144,
                2.9450972406626783
            ]
        },
        {
            "positions": [
                0.009820140813546686,
                -0.7844022492459345,
                1.1039998370512731,
                -1.1906155420735856,
                -0.24285665881123858,
                2.96004543067608
            ]
        },
        {
            "positions": [
                0.02870696986234643,
                -0.8424102803428525,
                1.246604300216483,
                -1.115681629507062,
                -0.18218174435063572,
                2.9749936206894816
            ]
        },
        {
            "positions": [
                0.047593798911146165,
                -0.9004183114397705,
                1.3892087633816932,
                -1.0407477169405381,
                -0.12150682989003281,
                2.9899418107028835
            ]
        },
        {
            "positions": [
                0.0664806279599459,
                -0.9584263425366883,
                1.531813226546903,
                -0.9658138043740145,
                -0.060831915429430006,
                3.004890000716285
            ]
        },
        {
            "positions": [
                0.08536745700874565,
                -1.0164343736336063,
                1.6744176897121132,
                -0.8908798918074907,
                -0.00015700096882709236,
                3.0198381907296867
            ]
        },
        {
            "positions": [
                0.10425428605754539,
                -1.0744424047305243,
                1.817022152877323,
                -0.815945979240967,
                0.06051791349177571,
                3.034786380743088
            ]
        },
        {
            "positions": [
                0.12314111510634512,
                -1.1324504358274423,
                1.959626616042533,
                -0.7410120666744433,
                0.1211928279523786,
                3.04973457075649
            ]
        }
    ]
}{
    "goal": {
        "global_pose": {
            "orientation": {
                "w": 0.7047431468963623,
                "x": -0.7094548344612122,
                "y": 0.0024358443915843964,
                "z": -0.0022348060738295317
            },
            "position": {
                "x": 0.6094750761985779,
                "y": 0.3671506643295288,
                "z": 0.19426114857196808
            }
        },
        "name": "move_to_magneteinheit_A"
    },
    "id": "RRTstar_move_to_magneteinheit_A_107",
    "joint_names": [
        "shoulder_pan_joint",
        "shoulder_lift_joint",
        "elbow_joint",
        "wrist_1_joint",
        "wrist_2_joint",
        "wrist_3_joint"
    ],
    "metrics": {
        "cart_traj_len": 1.1130940741015318,
        "distance_elbow_joint": 0.31747641594079634,
        "distance_shoulder_lift_joint": 0.7493449047424252,
        "distance_shoulder_pan_joint": 1.2415463851721704,
        "distance_wrist_1_joint": 0.7443281920698862,
        "distance_wrist_2_joint": 1.4337807707661843,
        "distance_wrist_3_joint": 4.254297266087669,
        "smoothness": 0.025929319405168145,
        "time": 5.019719819,
        "traj_len": 2.956479990593397,
        "weighted_distance": 4.407661219943128
    },
    "planner": "RRTstar",
    "start": {
        "state": {
            "elbow_joint": 1.919643534880228,
            "shoulder_lift_joint": -1.8972525353963687,
            "shoulder_pan_joint": -1.1188672234189438,
            "wrist_1_joint": -1.5931878212786155,
            "wrist_2_joint": 1.5706036197970081,
            "wrist_3_joint": 1.118896926603594
        }
    },
    "waypoints": [
        {
            "positions": [
                -1.1188672234189438,
                -1.8972525353963687,
                1.919643534880228,
                -1.5931878212786155,
                1.5706036197970081,
                1.118896926603594
            ]
        },
        {
            "positions": [
                -1.0258859491903591,
                -1.8755542892035915,
                1.951864132901694,
                -1.5160757343261007,
                1.4999618852988874,
                1.0432783913886046
            ]
        },
        {
            "positions": [
                -0.9329046749617746,
                -1.853856043010814,
                1.9840847309231597,
                -1.4389636473735856,
                1.429320150800767,
                0.967659856173615
            ]
        },
        {
            "positions": [
                -0.8399234007331899,
                -1.8321577968180365,
                2.0163053289446253,
                -1.3618515604210708,
                1.3586784163026462,
                0.8920413209586255
            ]
        },
        {
            "positions": [
                -0.7469421265046053,
                -1.8104595506252592,
                2.048525926966091,
                -1.284739473468556,
                1.2880366818045257,
                0.8164227857436361
            ]
        },
        {
            "positions": [
                -0.6539608522760206,
                -1.788761304432482,
                2.080746524987557,
                -1.207627386516041,
                1.217394947306405,
                0.7408042505286465
            ]
        },
        {
            "positions": [
                -0.560979578047436,
                -1.7670630582397044,
                2.112967123009023,
                -1.1305152995635261,
                1.1467532128082842,
                0.6651857153136571
            ]
        },
        {
            "positions": [
                -0.5207643580591618,
                -1.7306421507346597,
                2.1056640154906696,
                -1.1139473189544205,
                1.0873455443507865,
                0.44162182973731995
            ]
        },
        {
            "positions": [
                -0.48054913807088745,
                -1.6942212432296149,
                2.098360907972317,
                -1.0973793383453148,
                1.0279378758932889,
                0.2180579441609828
            ]
        },
        {
            "positions": [
                -0.4403339180826132,
                -1.65780033572457,
                2.0910578004539637,
                -1.080811357736209,
                0.9685302074357912,
                -0.005505941415354432
            ]
        },
        {
            "positions": [
                -0.40011869809433886,
                -1.6213794282195253,
                2.0837546929356106,
                -1.0642433771271034,
                0.9091225389782935,
                -0.22906982699169154
            ]
        },
        {
            "positions": [
                -0.3599034781060646,
                -1.5849585207144807,
                2.0764515854172574,
                -1.0476753965179977,
                0.8497148705207958,
                -0.45263371256802865
            ]
        },
        {
            "positions": [
                -0.31968825811779034,
                -1.548537613209436,
                2.0691484778989047,
                -1.031107415908892,
                0.7903072020632982,
                -0.676197598144366
            ]
        },
        {
            "positions": [
                -0.27947303812951607,
                -1.5121167057043912,
                2.0618453703805515,
                -1.0145394352997863,
                0.7308995336058005,
                -0.8997614837207029
            ]
        },
        {
            "positions": [
                -0.23925781814124175,
                -1.4756957981993464,
                2.0545422628621983,
                -0.9979714546906806,
                0.6714918651483028,
                -1.1233253692970402
            ]
        },
        {
            "positions": [
                -0.1990425981529675,
                -1.4392748906943016,
                2.0472391553438456,
                -0.9814034740815749,
                0.612084196690805,
                -1.3468892548733773
            ]
        },
        {
            "positions": [
                -0.15882737816469317,
                -1.4028539831892568,
                2.0399360478254924,
                -0.9648354934724691,
                0.5526765282333074,
                -1.5704531404497144
            ]
        },
        {
            "positions": [
                -0.1186121581764189,
                -1.366433075684212,
                2.0326329403071393,
                -0.9482675128633634,
                0.4932688597758097,
                -1.794017026026052
            ]
        },
        {
            "positions": [
                -0.07839693818814458,
                -1.3300121681791672,
                2.0253298327887865,
                -0.9316995322542577,
                0.433861191318312,
                -2.017580911602389
            ]
        },
        {
            "positions": [
                -0.038181718199870374,
                -1.2935912606741227,
                2.0180267252704334,
                -0.915131551645152,
                0.37445352286081446,
                -2.241144797178726
            ]
        },
        {
            "positions": [
                0.002033501788403891,
                -1.2571703531690779,
                2.01072361775208,
                -0.8985635710360463,
                0.3150458544033168,
                -2.464708682755063
            ]
        },
        {
            "positions": [
                0.042248721776678155,
                -1.220749445664033,
                2.003420510233727,
                -0.8819955904269406,
                0.255638185945819,
                -2.6882725683314
            ]
        },
        {
            "positions": [
                0.08246394176495253,
                -1.1843285381589883,
                1.996117402715374,
                -0.865427609817835,
                0.19623051748832132,
                -2.9118364539077373
            ]
        },
        {
            "positions": [
                0.12267916175322674,
                -1.1479076306539435,
                1.9888142951970211,
                -0.8488596292087293,
                0.13682284903082373,
                -3.135400339484075
            ]
        }
    ]
}