{
    "goal": {
        "global_pose": {
            "orientation": {
                "w": 0.5084816217422485,
                "x": -0.49083608388900757,
                "y": 0.5182115435600281,
                "z": -0.4816462993621826
            },
            "position": {
                "x": 0.5540239810943604,
                "y": 0.030875300988554955,
                "z": 0.16403168439865112
            }
        },
        "name": "move_to_storage_A"
    },
    "id": "RRTstar_move_to_storage_A_99",
    "joint_names": [
        "shoulder_pan_joint",
        "shoulder_lift_joint",
        "elbow_joint",
        "wrist_1_joint",
        "wrist_2_joint",
        "wrist_3_joint"
    ],
    "metrics": {
        "cart_traj_len": 0.3529150651899767,
        "distance_elbow_joint": 0.44999625347576133,
        "distance_shoulder_lift_joint": 0.23427181909076977,
        "distance_shoulder_pan_joint": 0.461901298355414,
        "distance_wrist_1_joint": 0.23851413629157003,
        "distance_wrist_2_joint": 1.0971189135080253,
        "distance_wrist_3_joint": 0.08653080526290946,
        "smoothness": 1.1102230244806396e-15,
        "time": 5.0000744720000005,
        "traj_len": 1.60260201734069,
        "weighted_distance": 2.019165145873379
    },
    "planner": "RRTstar",
    "start": {
        "state": {
            "elbow_joint": 1.9715477243005601,
            "shoulder_lift_joint": -1.1394853015351272,
            "shoulder_pan_joint": 0.12281154014795169,
            "wrist_1_joint": -0.7804696478968182,
            "wrist_2_joint": 0.12958648046900423,
            "wrist_3_joint": -3.192491284697111
        }
    },
    "waypoints": [
        {
            "positions": [
                0.12281154014795169,
                -1.1394853015351272,
                1.9715477243005601,
                -0.7804696478968182,
                0.12958648046900423,
                -3.192491284697111
            ]
        },
        {
            "positions": [
                0.05682564038289255,
                -1.17295270426238,
                2.035832903368526,
                -0.8145430959384711,
                0.2863177538272935,
                -3.180129741088124
            ]
        },
        {
            "positions": [
                -0.009160259382166594,
                -1.2064201069896328,
                2.100118082436492,
                -0.8486165439801239,
                0.44304902718558287,
                -3.167768197479137
            ]
        },
        {
            "positions": [
                -0.07514615914722574,
                -1.2398875097168855,
                2.1644032615044577,
                -0.8826899920217768,
                0.5997803005438722,
                -3.15540665387015
            ]
        },
        {
            "positions": [
                -0.14113205891228486,
                -1.2733549124441383,
                2.228688440572424,
                -0.9167634400634296,
                0.7565115739021615,
                -3.1430451102611627
            ]
        },
        {
            "positions": [
                -0.207117958677344,
                -1.3068223151713914,
                2.2929736196403896,
                -0.9508368881050825,
                0.9132428472604509,
                -3.1306835666521757
            ]
        },
        {
            "positions": [
                -0.27310385844240315,
                -1.3402897178986442,
                2.3572587987083553,
                -0.9849103361467353,
                1.06997412061874,
                -3.1183220230431887
            ]
        },
        {
            "positions": [
                -0.3390897582074623,
                -1.373757120625897,
                2.4215439777763215,
                -1.0189837841883882,
                1.2267053939770294,
                -3.1059604794342017
            ]
        }
    ]
}