{
    "goal": {
        "global_pose": {
            "orientation": {
                "w": 0.7047431468963623,
                "x": -0.7094548344612122,
                "y": 0.0024358443915843964,
                "z": -0.0022348060738295317
            },
            "position": {
                "x": 0.6094750761985779,
                "y": 0.3671506643295288,
                "z": 0.19426114857196808
            }
        },
        "name": "move_to_magneteinheit_A"
    },
    "id": "RRTstar_move_to_magneteinheit_A_10",
    "joint_names": [
        "shoulder_pan_joint",
        "shoulder_lift_joint",
        "elbow_joint",
        "wrist_1_joint",
        "wrist_2_joint",
        "wrist_3_joint"
    ],
    "metrics": {
        "cart_traj_len": 3.709657463169516,
        "distance_elbow_joint": 3.8877843338687956,
        "distance_shoulder_lift_joint": 0.4498362397439688,
        "distance_shoulder_pan_joint": 3.006593624487739,
        "distance_wrist_1_joint": 0.9422271658883501,
        "distance_wrist_2_joint": 1.9225396270451862,
        "distance_wrist_3_joint": 2.640586012158289,
        "smoothness": 0.4343111774829552,
        "time": 5.026472154,
        "traj_len": 3.5846292699793003,
        "weighted_distance": 4.582085313527286
    },
    "planner": "RRTstar",
    "start": {
        "state": {
            "elbow_joint": -1.919618573717145,
            "shoulder_lift_joint": -1.2443395971678275,
            "shoulder_pan_joint": 2.6996025300909787,
            "wrist_1_joint": -1.548550951253194,
            "wrist_2_joint": -1.5709469090946802,
            "wrist_3_joint": 0.4420197732051276
        }
    },
    "waypoints": [
        {
            "positions": [
                2.6996025300909787,
                -1.2443395971678275,
                -1.919618573717145,
                -1.548550951253194,
                -1.5709469090946802,
                0.4420197732051276
            ]
        },
        {
            "positions": [
                2.599441691369677,
                -1.2424976227683635,
                -1.8010216706101396,
                -1.5191663640600361,
                -1.5150987642377038,
                0.5277326114940644
            ]
        },
        {
            "positions": [
                2.4992808526483756,
                -1.2406556483688995,
                -1.6824247675031343,
                -1.4897817768668784,
                -1.4592506193807273,
                0.6134454497830011
            ]
        },
        {
            "positions": [
                2.3991200139270745,
                -1.2388136739694355,
                -1.563827864396129,
                -1.4603971896737207,
                -1.403402474523751,
                0.6991582880719378
            ]
        },
        {
            "positions": [
                2.298959175205773,
                -1.2369716995699718,
                -1.4452309612891237,
                -1.4310126024805627,
                -1.3475543296667747,
                0.7848711263608745
            ]
        },
        {
            "positions": [
                2.1987983364844714,
                -1.2351297251705078,
                -1.3266340581821185,
                -1.4016280152874048,
                -1.2917061848097982,
                0.8705839646498112
            ]
        },
        {
            "positions": [
                2.09863749776317,
                -1.2332877507710438,
                -1.2080371550751132,
                -1.372243428094247,
                -1.2358580399528218,
                0.956296802938748
            ]
        },
        {
            "positions": [
                1.9984766590418683,
                -1.2314457763715798,
                -1.0894402519681077,
                -1.342858840901089,
                -1.1800098950958455,
                1.0420096412276847
            ]
        },
        {
            "positions": [
                1.8983158203205668,
                -1.2296038019721158,
                -0.9708433488611025,
                -1.3134742537079314,
                -1.1241617502388692,
                1.1277224795166214
            ]
        },
        {
            "positions": [
                1.7981549815992655,
                -1.2277618275726518,
                -0.8522464457540972,
                -1.2840896665147734,
                -1.068313605381893,
                1.2134353178055581
            ]
        },
        {
            "positions": [
                1.697994142877964,
                -1.225919853173188,
                -0.7336495426470919,
                -1.2547050793216157,
                -1.0124654605249164,
                1.2991481560944949
            ]
        },
        {
            "positions": [
                1.5978333041566624,
                -1.224077878773724,
                -0.6150526395400866,
                -1.225320492128458,
                -0.9566173156679401,
                1.3848609943834316
            ]
        },
        {
            "positions": [
                1.497672465435361,
                -1.22223590437426,
                -0.4964557364330813,
                -1.1959359049353,
                -0.9007691708109637,
                1.4705738326723683
            ]
        },
        {
            "positions": [
                1.3975116267140595,
                -1.2203939299747961,
                -0.37785883332607595,
                -1.166551317742142,
                -0.8449210259539872,
                1.5562866709613052
            ]
        },
        {
            "positions": [
                1.297350787992758,
                -1.2185519555753321,
                -0.2592619302190704,
                -1.1371667305489843,
                -0.7890728810970108,
                1.641999509250242
            ]
        },
        {
            "positions": [
                1.1971899492714566,
                -1.2167099811758681,
                -0.1406650271120653,
                -1.1077821433558266,
                -0.7332247362400346,
                1.7277123475391785
            ]
        },
        {
            "positions": [
                1.097029110550155,
                -1.2148680067764044,
                -0.022068124005059975,
                -1.0783975561626686,
                -0.6773765913830582,
                1.8134251858281154
            ]
        },
        {
            "positions": [
                0.9968682718288535,
                -1.2130260323769404,
                0.09652877910194557,
                -1.0490129689695107,
                -0.6215284465260817,
                1.8991380241170521
            ]
        },
        {
            "positions": [
                0.8967074331075522,
                -1.2111840579774764,
                0.21512568220895045,
                -1.019628381776353,
                -0.5656803016691054,
                1.9848508624059886
            ]
        },
        {
            "positions": [
                0.7965465943862506,
                -1.2093420835780124,
                0.3337225853159558,
                -0.9902437945831951,
                -0.5098321568121291,
                2.0705637006949256
            ]
        },
        {
            "positions": [
                0.6963857556649491,
                -1.2075001091785484,
                0.4523194884229611,
                -0.9608592073900373,
                -0.4539840119551526,
                2.156276538983862
            ]
        },
        {
            "positions": [
                0.596224916943648,
                -1.2056581347790845,
                0.5709163915299664,
                -0.9314746201968794,
                -0.3981358670981763,
                2.241989377272799
            ]
        },
        {
            "positions": [
                0.496064078222346,
                -1.2038161603796207,
                0.6895132946369718,
                -0.9020900330037216,
                -0.34228772224119997,
                2.3277022155617355
            ]
        },
        {
            "positions": [
                0.39590323950104445,
                -1.2019741859801567,
                0.8081101977439771,
                -0.8727054458105638,
                -0.28643957738422343,
                2.4134150538506725
            ]
        },
        {
            "positions": [
                0.29574240077974334,
                -1.2001322115806927,
                0.9267071008509824,
                -0.8433208586174059,
                -0.23059143252724734,
                2.499127892139609
            ]
        },
        {
            "positions": [
                0.19558156205844168,
                -1.1982902371812287,
                1.0453040039579877,
                -0.8139362714242481,
                -0.17474328767027084,
                2.584840730428546
            ]
        },
        {
            "positions": [
                0.14752243705761992,
                -1.1595765545279821,
                1.187081102998294,
                -0.7928558449155463,
                -0.10575965832331999,
                2.647218507927338
            ]
        },
        {
            "positions": [
                0.09946331205679818,
                -1.1208628718747353,
                1.3288582020386002,
                -0.7717754184068445,
                -0.03677602897636914,
                2.70959628542613
            ]
        },
        {
            "positions": [
                0.05140418705597641,
                -1.0821491892214887,
                1.4706353010789064,
                -0.7506949918981427,
                0.03220760037058171,
                2.7719740629249223
            ]
        },
        {
            "positions": [
                0.0033450620551546684,
                -1.0434355065682421,
                1.6124124001192128,
                -0.7296145653894409,
                0.10119122971753255,
                2.834351840423715
            ]
        },
        {
            "positions": [
                -0.04471406294566713,
                -1.0047218239149955,
                1.754189499159519,
                -0.7085341388807391,
                0.1701748590644834,
                2.896729617922507
            ]
        },
        {
            "positions": [
                -0.09277318794648885,
                -0.9660081412617488,
                1.8959665981998253,
                -0.6874537123720373,
                0.23915848841143422,
                2.959107395421299
            ]
        },
        {
            "positions": [
                0.014335765278646898,
                -1.0517605331806938,
                1.9320661791757383,
                -0.728018675875634,
                0.1829413736418981,
                3.020856590392358
            ]
        },
        {
            "positions": [
                0.12144471850378263,
                -1.137512925099639,
                1.9681657601516513,
                -0.7685836393792307,
                0.12672425887236202,
                3.0826057853634166
            ]
        }
    ]
}{
    "goal": {
        "global_pose": {
            "orientation": {
                "w": 0.7047431468963623,
                "x": -0.7094548344612122,
                "y": 0.0024358443915843964,
                "z": -0.0022348060738295317
            },
            "position": {
                "x": 0.6094750761985779,
                "y": 0.3671506643295288,
                "z": 0.19426114857196808
            }
        },
        "name": "move_to_magneteinheit_A"
    },
    "id": "RRTstar_move_to_magneteinheit_A_10",
    "joint_names": [
        "shoulder_pan_joint",
        "shoulder_lift_joint",
        "elbow_joint",
        "wrist_1_joint",
        "wrist_2_joint",
        "wrist_3_joint"
    ],
    "metrics": {
        "cart_traj_len": 1.2513015668431453,
        "distance_elbow_joint": 0.08734726990559749,
        "distance_shoulder_lift_joint": 1.1148234095526894,
        "distance_shoulder_pan_joint": 1.2424705534006009,
        "distance_wrist_1_joint": 3.5589270414824568,
        "distance_wrist_2_joint": 1.7044538436302847,
        "distance_wrist_3_joint": 1.1753785833306314,
        "smoothness": 2.2204460668324854e-16,
        "time": 5.021519908,
        "traj_len": 2.980503430848933,
        "weighted_distance": 4.061716232465811
    },
    "planner": "RRTstar",
    "start": {
        "state": {
            "elbow_joint": 1.919643534880228,
            "shoulder_lift_joint": -1.8972525353963687,
            "shoulder_pan_joint": -1.1188672234189438,
            "wrist_1_joint": -1.5931878212786155,
            "wrist_2_joint": 1.5706036197970081,
            "wrist_3_joint": 1.118896926603594
        }
    },
    "waypoints": [
        {
            "positions": [
                -1.1188672234189438,
                -1.8972525353963687,
                1.919643534880228,
                -1.5931878212786155,
                1.5706036197970081,
                1.118896926603594
            ]
        },
        {
            "positions": [
                -1.0648467645754394,
                -1.8487819523723388,
                1.923441242267428,
                -1.4384518629532912,
                1.4964969309435174,
                1.0677935099370448
            ]
        },
        {
            "positions": [
                -1.010826305731935,
                -1.8003113693483088,
                1.9272389496546278,
                -1.2837159046279671,
                1.4223902420900267,
                1.0166900932704956
            ]
        },
        {
            "positions": [
                -0.9568058468884307,
                -1.7518407863242789,
                1.9310366570418278,
                -1.1289799463026429,
                1.3482835532365363,
                0.9655866766039464
            ]
        },
        {
            "positions": [
                -0.9027853880449264,
                -1.703370203300249,
                1.9348343644290276,
                -0.9742439879773187,
                1.2741768643830456,
                0.9144832599373972
            ]
        },
        {
            "positions": [
                -0.8487649292014219,
                -1.654899620276219,
                1.9386320718162275,
                -0.8195080296519944,
                1.2000701755295549,
                0.863379843270848
            ]
        },
        {
            "positions": [
                -0.7947444703579176,
                -1.6064290372521888,
                1.9424297792034275,
                -0.6647720713266703,
                1.1259634866760644,
                0.8122764266042988
            ]
        },
        {
            "positions": [
                -0.7407240115144131,
                -1.5579584542281588,
                1.9462274865906273,
                -0.510036113001346,
                1.0518567978225737,
                0.7611730099377496
            ]
        },
        {
            "positions": [
                -0.6867035526709088,
                -1.5094878712041289,
                1.9500251939778273,
                -0.35530015467602194,
                0.977750108969083,
                0.7100695932712004
            ]
        },
        {
            "positions": [
                -0.6326830938274044,
                -1.461017288180099,
                1.9538229013650272,
                -0.20056419635069744,
                0.9036434201155923,
                0.6589661766046513
            ]
        },
        {
            "positions": [
                -0.5786626349839,
                -1.412546705156069,
                1.957620608752227,
                -0.04582823802537339,
                0.8295367312621017,
                0.6078627599381021
            ]
        },
        {
            "positions": [
                -0.5246421761403955,
                -1.364076122132039,
                1.961418316139427,
                0.10890772029995088,
                0.7554300424086111,
                0.5567593432715529
            ]
        },
        {
            "positions": [
                -0.4706217172968913,
                -1.315605539108009,
                1.9652160235266267,
                0.26364367862527494,
                0.6813233535551204,
                0.5056559266050037
            ]
        },
        {
            "positions": [
                -0.4166012584533869,
                -1.267134956083979,
                1.9690137309138267,
                0.418379636950599,
                0.6072166647016298,
                0.45455250993845453
            ]
        },
        {
            "positions": [
                -0.36258079960988243,
                -1.2186643730599491,
                1.9728114383010267,
                0.5731155952759235,
                0.533109975848139,
                0.40344909327190526
            ]
        },
        {
            "positions": [
                -0.30856034076637806,
                -1.1701937900359192,
                1.9766091456882264,
                0.7278515536012475,
                0.45900328699464854,
                0.3523456766053561
            ]
        },
        {
            "positions": [
                -0.2545398819228737,
                -1.1217232070118892,
                1.9804068530754264,
                0.8825875119265716,
                0.38489659814115784,
                0.30124225993880693
            ]
        },
        {
            "positions": [
                -0.20051942307936932,
                -1.0732526239878593,
                1.9842045604626262,
                1.037323470251896,
                0.31078990928766737,
                0.25013884327225777
            ]
        },
        {
            "positions": [
                -0.14649896423586484,
                -1.0247820409638293,
                1.9880022678498261,
                1.1920594285772206,
                0.23668322043417644,
                0.1990354266057085
            ]
        },
        {
            "positions": [
                -0.09247850539236047,
                -0.9763114579397992,
                1.9917999752370261,
                1.3467953869025446,
                0.16257653158068597,
                0.14793200993915934
            ]
        },
        {
            "positions": [
                -0.038458046548856206,
                -0.9278408749157693,
                1.9955976826242259,
                1.5015313452278687,
                0.08846984272719527,
                0.09682859327261029
            ]
        },
        {
            "positions": [
                0.015562412294648276,
                -0.8793702918917392,
                1.9993953900114259,
                1.6562673035531927,
                0.014363153873704793,
                0.045725176606061124
            ]
        },
        {
            "positions": [
                0.06958287113815276,
                -0.8308997088677093,
                2.0031930973986256,
                1.8110032618785172,
                -0.059743534979785906,
                -0.00537824006048826
            ]
        },
        {
            "positions": [
                0.12360332998165703,
                -0.7824291258436793,
                2.0069908047858256,
                1.9657392202038413,
                -0.13385022383327666,
                -0.05648165672703737
            ]
        }
    ]
}