{
    "goal": {
        "global_pose": {
            "orientation": {
                "w": 0.7047431468963623,
                "x": -0.7094548344612122,
                "y": 0.0024358443915843964,
                "z": -0.0022348060738295317
            },
            "position": {
                "x": 0.6094750761985779,
                "y": 0.3671506643295288,
                "z": 0.19426114857196808
            }
        },
        "name": "move_to_magneteinheit_A"
    },
    "id": "RRTstar_move_to_magneteinheit_A_141",
    "joint_names": [
        "shoulder_pan_joint",
        "shoulder_lift_joint",
        "elbow_joint",
        "wrist_1_joint",
        "wrist_2_joint",
        "wrist_3_joint"
    ],
    "metrics": {
        "cart_traj_len": 3.2122686010288786,
        "distance_elbow_joint": 3.894447951478081,
        "distance_shoulder_lift_joint": 0.2986537527557138,
        "distance_shoulder_pan_joint": 3.0268984695013144,
        "distance_wrist_1_joint": 0.8593266748265712,
        "distance_wrist_2_joint": 1.7604246529963345,
        "distance_wrist_3_joint": 3.613993902120316,
        "smoothness": 0.040457022022573355,
        "time": 5.023484504,
        "traj_len": 3.6679347600084617,
        "weighted_distance": 4.827161125935395
    },
    "planner": "RRTstar",
    "start": {
        "state": {
            "elbow_joint": -1.919618573717145,
            "shoulder_lift_joint": -1.2443395971678275,
            "shoulder_pan_joint": 2.6996025300909787,
            "wrist_1_joint": -1.548550951253194,
            "wrist_2_joint": -1.5709469090946802,
            "wrist_3_joint": 0.4420197732051276
        }
    },
    "waypoints": [
        {
            "positions": [
                2.6996025300909787,
                -1.2443395971678275,
                -1.919618573717145,
                -1.548550951253194,
                -1.5709469090946802,
                0.4420197732051276
            ]
        },
        {
            "positions": [
                2.524439821966311,
                -1.2317888303954507,
                -1.8377145434232738,
                -1.4984316910937605,
                -1.5730991861410133,
                0.38569325275424293
            ]
        },
        {
            "positions": [
                2.349277113841644,
                -1.219238063623074,
                -1.7558105131294026,
                -1.448312430934327,
                -1.5752514631873467,
                0.3293667323033582
            ]
        },
        {
            "positions": [
                2.174114405716977,
                -1.2066872968506972,
                -1.6739064828355315,
                -1.3981931707748936,
                -1.5774037402336798,
                0.2730402118524735
            ]
        },
        {
            "positions": [
                1.9989516975923092,
                -1.1941365300783204,
                -1.5920024525416603,
                -1.34807391061546,
                -1.579556017280013,
                0.21671369140158886
            ]
        },
        {
            "positions": [
                1.8237889894676418,
                -1.1815857633059437,
                -1.5100984222477891,
                -1.2979546504560264,
                -1.5817082943263463,
                0.16038717095070415
            ]
        },
        {
            "positions": [
                1.6486262813429744,
                -1.169034996533567,
                -1.4281943919539182,
                -1.247835390296593,
                -1.5838605713726794,
                0.1040606504998195
            ]
        },
        {
            "positions": [
                1.473463573218307,
                -1.1564842297611901,
                -1.346290361660047,
                -1.1977161301371595,
                -1.5860128484190126,
                0.04773413004893484
            ]
        },
        {
            "positions": [
                1.2983008650936396,
                -1.1439334629888132,
                -1.2643863313661758,
                -1.147596869977726,
                -1.5881651254653457,
                -0.008592390401949868
            ]
        },
        {
            "positions": [
                1.1231381569689722,
                -1.1313826962164364,
                -1.1824823010723047,
                -1.0974776098182923,
                -1.590317402511679,
                -0.06491891085283458
            ]
        },
        {
            "positions": [
                0.9479754488443048,
                -1.1188319294440596,
                -1.1005782707784335,
                -1.0473583496588588,
                -1.5924696795580122,
                -0.12124543130371929
            ]
        },
        {
            "positions": [
                0.7728127407196375,
                -1.1062811626716829,
                -1.0186742404845623,
                -0.9972390894994254,
                -1.5946219566043454,
                -0.17757195175460389
            ]
        },
        {
            "positions": [
                0.5976500325949701,
                -1.093730395899306,
                -0.9367702101906912,
                -0.9471198293399918,
                -1.5967742336506787,
                -0.2338984722054886
            ]
        },
        {
            "positions": [
                0.42248732447030246,
                -1.0811796291269293,
                -0.85486617989682,
                -0.8970005691805583,
                -1.5989265106970119,
                -0.2902249926563733
            ]
        },
        {
            "positions": [
                0.2473246163456353,
                -1.0686288623545526,
                -0.7729621496029488,
                -0.8468813090211248,
                -1.601078787743345,
                -0.3465515131072579
            ]
        },
        {
            "positions": [
                0.07216190822096813,
                -1.0560780955821758,
                -0.6910581193090777,
                -0.7967620488616913,
                -1.6032310647896784,
                -0.4028780335581426
            ]
        },
        {
            "positions": [
                -0.10300079990369945,
                -1.043527328809799,
                -0.6091540890152065,
                -0.7466427887022578,
                -1.6053833418360115,
                -0.45920455400902727
            ]
        },
        {
            "positions": [
                -0.09561236824824984,
                -1.0480279962380408,
                -0.4507144061149753,
                -0.7499599211092904,
                -1.540238618327769,
                -0.5902661039231698
            ]
        },
        {
            "positions": [
                -0.08822393659280023,
                -1.0525286636662827,
                -0.2922747232147441,
                -0.753277053516323,
                -1.4750938948195262,
                -0.7213276538373123
            ]
        },
        {
            "positions": [
                -0.08083550493735063,
                -1.0570293310945245,
                -0.13383504031451288,
                -0.7565941859233557,
                -1.4099491713112837,
                -0.8523892037514549
            ]
        },
        {
            "positions": [
                -0.07344707328190102,
                -1.0615299985227664,
                0.02460464258571826,
                -0.7599113183303883,
                -1.3448044478030412,
                -0.9834507536655973
            ]
        },
        {
            "positions": [
                -0.06605864162645142,
                -1.0660306659510081,
                0.1830443254859495,
                -0.763228450737421,
                -1.2796597242947985,
                -1.1145123035797397
            ]
        },
        {
            "positions": [
                -0.0586702099710018,
                -1.0705313333792499,
                0.34148400838618076,
                -0.7665455831444536,
                -1.214515000786556,
                -1.2455738534938825
            ]
        },
        {
            "positions": [
                -0.051281778315552196,
                -1.0750320008074918,
                0.499923691286412,
                -0.7698627155514862,
                -1.1493702772783134,
                -1.3766354034080248
            ]
        },
        {
            "positions": [
                -0.04389334666010258,
                -1.0795326682357336,
                0.658363374186643,
                -0.7731798479585189,
                -1.0842255537700707,
                -1.5076969533221674
            ]
        },
        {
            "positions": [
                -0.036504915004652985,
                -1.0840333356639755,
                0.8168030570868743,
                -0.7764969803655515,
                -1.0190808302618284,
                -1.63875850323631
            ]
        },
        {
            "positions": [
                -0.029116483349203373,
                -1.0885340030922173,
                0.9752427399871055,
                -0.7798141127725842,
                -0.9539361067535856,
                -1.7698200531504522
            ]
        },
        {
            "positions": [
                -0.02172805169375376,
                -1.093034670520459,
                1.1336824228873366,
                -0.7831312451796169,
                -0.8887913832453431,
                -1.9008816030645947
            ]
        },
        {
            "positions": [
                -0.014339620038304149,
                -1.097535337948701,
                1.292122105787568,
                -0.7864483775866494,
                -0.8236466597371004,
                -2.0319431529787373
            ]
        },
        {
            "positions": [
                -0.006951188382854537,
                -1.1020360053769427,
                1.450561788687799,
                -0.7897655099936821,
                -0.7585019362288579,
                -2.16300470289288
            ]
        },
        {
            "positions": [
                0.00043724327259506146,
                -1.1065366728051846,
                1.6090014715880305,
                -0.7930826424007147,
                -0.6933572127206152,
                -2.2940662528070224
            ]
        },
        {
            "positions": [
                0.007825674928044674,
                -1.1110373402334264,
                1.7674411544882616,
                -0.7963997748077474,
                -0.6282124892123727,
                -2.425127802721165
            ]
        },
        {
            "positions": [
                0.03051940786302271,
                -1.117103634828238,
                1.8089187991427966,
                -0.7979320800417764,
                -0.47844901568609977,
                -2.5744970679599697
            ]
        },
        {
            "positions": [
                0.05321314079800075,
                -1.1231699294230495,
                1.8503964437973317,
                -0.7994643852758054,
                -0.32868554215982687,
                -2.7238663331987745
            ]
        },
        {
            "positions": [
                0.07590687373297877,
                -1.1292362240178613,
                1.8918740884518668,
                -0.8009966905098346,
                -0.17892206863355403,
                -2.873235598437579
            ]
        },
        {
            "positions": [
                0.09860060666795682,
                -1.1353025186126728,
                1.9333517331064018,
                -0.8025289957438636,
                -0.029158595107281027,
                -3.0226048636763836
            ]
        },
        {
            "positions": [
                0.12129433960293486,
                -1.1413688132074844,
                1.974829377760937,
                -0.8040613009778926,
                0.12060487841899176,
                -3.1719741289151884
            ]
        }
    ]
}{
    "goal": {
        "global_pose": {
            "orientation": {
                "w": 0.7047431468963623,
                "x": -0.7094548344612122,
                "y": 0.0024358443915843964,
                "z": -0.0022348060738295317
            },
            "position": {
                "x": 0.6094750761985779,
                "y": 0.3671506643295288,
                "z": 0.19426114857196808
            }
        },
        "name": "move_to_magneteinheit_A"
    },
    "id": "RRTstar_move_to_magneteinheit_A_141",
    "joint_names": [
        "shoulder_pan_joint",
        "shoulder_lift_joint",
        "elbow_joint",
        "wrist_1_joint",
        "wrist_2_joint",
        "wrist_3_joint"
    ],
    "metrics": {
        "cart_traj_len": 1.2750697045140567,
        "distance_elbow_joint": 0.29810160805741304,
        "distance_shoulder_lift_joint": 0.8629089602324735,
        "distance_shoulder_pan_joint": 1.252533393960636,
        "distance_wrist_1_joint": 0.732342478995244,
        "distance_wrist_2_joint": 1.4490755186157784,
        "distance_wrist_3_joint": 4.241483177492888,
        "smoothness": 0.07427296034189917,
        "time": 5.027358463,
        "traj_len": 2.97261587450421,
        "weighted_distance": 4.415974353407323
    },
    "planner": "RRTstar",
    "start": {
        "state": {
            "elbow_joint": 1.919643534880228,
            "shoulder_lift_joint": -1.8972525353963687,
            "shoulder_pan_joint": -1.1188672234189438,
            "wrist_1_joint": -1.5931878212786155,
            "wrist_2_joint": 1.5706036197970081,
            "wrist_3_joint": 1.118896926603594
        }
    },
    "waypoints": [
        {
            "positions": [
                -1.1188672234189438,
                -1.8972525353963687,
                1.919643534880228,
                -1.5931878212786155,
                1.5706036197970081,
                1.118896926603594
            ]
        },
        {
            "positions": [
                -1.1198096470142733,
                -1.9066941824174444,
                1.9005256451944068,
                -1.5473433560521404,
                1.511045783803194,
                0.8713578421308819
            ]
        },
        {
            "positions": [
                -1.1207520706096028,
                -1.9161358294385202,
                1.8814077555085853,
                -1.501498890825665,
                1.4514879478093798,
                0.6238187576581697
            ]
        },
        {
            "positions": [
                -1.1216944942049323,
                -1.9255774764595959,
                1.8622898658227638,
                -1.4556544255991897,
                1.3919301118155658,
                0.37627967318545763
            ]
        },
        {
            "positions": [
                -1.1226369178002615,
                -1.9350191234806715,
                1.8431719761369425,
                -1.4098099603727146,
                1.3323722758217518,
                0.12874058871274552
            ]
        },
        {
            "positions": [
                -1.123579341395591,
                -1.9444607705017474,
                1.8240540864511212,
                -1.3639654951462394,
                1.2728144398279375,
                -0.1187984957599666
            ]
        },
        {
            "positions": [
                -1.1245217649909205,
                -1.953902417522823,
                1.8049361967652997,
                -1.318121029919764,
                1.2132566038341235,
                -0.36633758023267865
            ]
        },
        {
            "positions": [
                -1.0511759501445288,
                -1.9064754129283512,
                1.8157240949972107,
                -1.2912224600587998,
                1.149037280148659,
                -0.5284698549771853
            ]
        },
        {
            "positions": [
                -0.977830135298137,
                -1.8590484083338796,
                1.8265119932291214,
                -1.2643238901978355,
                1.0848179564631948,
                -0.690602129721692
            ]
        },
        {
            "positions": [
                -0.9044843204517453,
                -1.8116214037394078,
                1.8372998914610323,
                -1.2374253203368712,
                1.0205986327777303,
                -0.8527344044661989
            ]
        },
        {
            "positions": [
                -0.8311385056053535,
                -1.764194399144936,
                1.848087789692943,
                -1.210526750475907,
                0.9563793090922661,
                -1.0148666792107055
            ]
        },
        {
            "positions": [
                -0.7577926907589618,
                -1.7167673945504645,
                1.858875687924854,
                -1.1836281806149427,
                0.8921599854068016,
                -1.1769989539552121
            ]
        },
        {
            "positions": [
                -0.6844468759125701,
                -1.6693403899559927,
                1.869663586156765,
                -1.1567296107539784,
                0.8279406617213372,
                -1.339131228699719
            ]
        },
        {
            "positions": [
                -0.6111010610661785,
                -1.621913385361521,
                1.8804514843886757,
                -1.1298310408930141,
                0.7637213380358729,
                -1.5012635034442257
            ]
        },
        {
            "positions": [
                -0.5377552462197867,
                -1.5744863807670493,
                1.8912393826205867,
                -1.1029324710320498,
                0.6995020143504086,
                -1.6633957781887323
            ]
        },
        {
            "positions": [
                -0.46440943137339497,
                -1.5270593761725775,
                1.9020272808524974,
                -1.0760339011710855,
                0.6352826906649441,
                -1.8255280529332392
            ]
        },
        {
            "positions": [
                -0.39106361652700317,
                -1.4796323715781057,
                1.9128151790844083,
                -1.0491353313101213,
                0.5710633669794798,
                -1.9876603276777458
            ]
        },
        {
            "positions": [
                -0.3177178016806115,
                -1.432205366983634,
                1.923603077316319,
                -1.022236761449157,
                0.5068440432940154,
                -2.1497926024222527
            ]
        },
        {
            "positions": [
                -0.24437198683421968,
                -1.3847783623891623,
                1.93439097554823,
                -0.9953381915881928,
                0.442624719608551,
                -2.311924877166759
            ]
        },
        {
            "positions": [
                -0.1710261719878281,
                -1.3373513577946907,
                1.945178873780141,
                -0.9684396217272286,
                0.37840539592308675,
                -2.4740571519112655
            ]
        },
        {
            "positions": [
                -0.09768035714143641,
                -1.289924353200219,
                1.9559667720120517,
                -0.9415410518662644,
                0.3141860722376224,
                -2.6361894266557724
            ]
        },
        {
            "positions": [
                -0.024334542295044503,
                -1.2424973486057471,
                1.9667546702439627,
                -0.9146424820053001,
                0.24996674855215806,
                -2.7983217014002792
            ]
        },
        {
            "positions": [
                0.049011272551347185,
                -1.1950703440112753,
                1.9775425684758734,
                -0.8877439121443358,
                0.1857474248666937,
                -2.9604539761447857
            ]
        },
        {
            "positions": [
                0.1223570873977388,
                -1.1476433394168037,
                1.9883304667077843,
                -0.8608453422833715,
                0.12152810118122936,
                -3.1225862508892925
            ]
        }
    ]
}