{
    "goal": {
        "global_pose": {
            "orientation": {
                "w": 0.5084816217422485,
                "x": -0.49083608388900757,
                "y": 0.5182115435600281,
                "z": -0.4816462993621826
            },
            "position": {
                "x": 0.5540239810943604,
                "y": 0.030875300988554955,
                "z": 0.16403168439865112
            }
        },
        "name": "move_to_storage_A"
    },
    "id": "RRTstar_move_to_storage_A_43",
    "joint_names": [
        "shoulder_pan_joint",
        "shoulder_lift_joint",
        "elbow_joint",
        "wrist_1_joint",
        "wrist_2_joint",
        "wrist_3_joint"
    ],
    "metrics": {
        "cart_traj_len": 0.3532165092293843,
        "distance_elbow_joint": 0.4504288362710507,
        "distance_shoulder_lift_joint": 0.2355595929057388,
        "distance_shoulder_pan_joint": 0.46226769040042853,
        "distance_wrist_1_joint": 0.23976056886346242,
        "distance_wrist_2_joint": 1.098351997033781,
        "distance_wrist_3_joint": 0.0890016985397235,
        "smoothness": 1.7763568394002505e-15,
        "time": 5.023975945999999,
        "traj_len": 1.6047960568290867,
        "weighted_distance": 2.022742283878714
    },
    "planner": "RRTstar",
    "start": {
        "state": {
            "elbow_joint": 1.9715477243005601,
            "shoulder_lift_joint": -1.1394853015351272,
            "shoulder_pan_joint": 0.12281154014795169,
            "wrist_1_joint": -0.7804696478968182,
            "wrist_2_joint": 0.12958648046900423,
            "wrist_3_joint": -3.192491284697111
        }
    },
    "waypoints": [
        {
            "positions": [
                0.12281154014795169,
                -1.1394853015351272,
                1.9715477243005601,
                -0.7804696478968182,
                0.12958648046900423,
                -3.192491284697111
            ]
        },
        {
            "positions": [
                0.05677329866217619,
                -1.1731366719502327,
                2.0358947009107102,
                -0.8147211577344556,
                0.2864939086166872,
                -3.1797767563342934
            ]
        },
        {
            "positions": [
                -0.009264942823599312,
                -1.2067880423653383,
                2.1002416775208603,
                -0.8489726675720931,
                0.4434013367643702,
                -3.167062227971476
            ]
        },
        {
            "positions": [
                -0.07530318430937481,
                -1.240439412780444,
                2.1645886541310104,
                -0.8832241774097306,
                0.6003087649120532,
                -3.154347699608658
            ]
        },
        {
            "positions": [
                -0.1413414257951503,
                -1.2740907831955492,
                2.2289356307411605,
                -0.9174756872473682,
                0.7572161930597362,
                -3.1416331712458407
            ]
        },
        {
            "positions": [
                -0.20737966728092583,
                -1.3077421536106548,
                2.2932826073513106,
                -0.9517271970850056,
                0.9141236212074192,
                -3.128918642883023
            ]
        },
        {
            "positions": [
                -0.2734179087667013,
                -1.3413935240257604,
                2.3576295839614607,
                -0.9859787069226431,
                1.0710310493551023,
                -3.1162041145202055
            ]
        },
        {
            "positions": [
                -0.33945615025247683,
                -1.375044894440866,
                2.421976560571611,
                -1.0202302167602806,
                1.227938477502785,
                -3.1034895861573877
            ]
        }
    ]
}