{
    "goal": {
        "global_pose": {
            "orientation": {
                "w": 0.5084816217422485,
                "x": -0.49083608388900757,
                "y": 0.5182115435600281,
                "z": -0.4816462993621826
            },
            "position": {
                "x": 0.5540239810943604,
                "y": 0.030875300988554955,
                "z": 0.16403168439865112
            }
        },
        "name": "move_to_storage_A"
    },
    "id": "RRTstar_move_to_storage_A_58",
    "joint_names": [
        "shoulder_pan_joint",
        "shoulder_lift_joint",
        "elbow_joint",
        "wrist_1_joint",
        "wrist_2_joint",
        "wrist_3_joint"
    ],
    "metrics": {
        "cart_traj_len": 0.35251653370254377,
        "distance_elbow_joint": 0.4490214707012017,
        "distance_shoulder_lift_joint": 0.2330688082623309,
        "distance_shoulder_pan_joint": 0.46193482885714043,
        "distance_wrist_1_joint": 0.24219963256795796,
        "distance_wrist_2_joint": 1.092674409308081,
        "distance_wrist_3_joint": 0.09271262849071471,
        "smoothness": 4.440892098500626e-16,
        "time": 5.000454293000001,
        "traj_len": 1.603624575200638,
        "weighted_distance": 2.0228472698265914
    },
    "planner": "RRTstar",
    "start": {
        "state": {
            "elbow_joint": 1.9715477243005601,
            "shoulder_lift_joint": -1.1394853015351272,
            "shoulder_pan_joint": 0.12281154014795169,
            "wrist_1_joint": -0.7804696478968182,
            "wrist_2_joint": 0.12958648046900423,
            "wrist_3_joint": -3.192491284697111
        }
    },
    "waypoints": [
        {
            "positions": [
                0.12281154014795169,
                -1.1394853015351272,
                1.9715477243005601,
                -0.7804696478968182,
                0.12958648046900423,
                -3.192491284697111
            ]
        },
        {
            "positions": [
                0.05682085031121735,
                -1.172780845572603,
                2.035693648686446,
                -0.8150695954065265,
                0.2856828246558729,
                -3.179246623484152
            ]
        },
        {
            "positions": [
                -0.00916983952551699,
                -1.2060763896100788,
                2.099839573072332,
                -0.8496695429162348,
                0.4417791688427416,
                -3.1660019622711926
            ]
        },
        {
            "positions": [
                -0.07516052936225133,
                -1.2393719336475546,
                2.163985497458218,
                -0.8842694904259429,
                0.5978755130296103,
                -3.1527573010582333
            ]
        },
        {
            "positions": [
                -0.14115121919898566,
                -1.2726674776850304,
                2.228131421844104,
                -0.9188694379356512,
                0.753971857216479,
                -3.1395126398452744
            ]
        },
        {
            "positions": [
                -0.20714190903572005,
                -1.3059630217225064,
                2.29227734622999,
                -0.9534693854453595,
                0.9100682014033478,
                -3.126267978632315
            ]
        },
        {
            "positions": [
                -0.27313259887245434,
                -1.3392585657599823,
                2.356423270615876,
                -0.9880693329550678,
                1.0661645455902162,
                -3.113023317419356
            ]
        },
        {
            "positions": [
                -0.33912328870918873,
                -1.372554109797458,
                2.420569195001762,
                -1.0226692804647761,
                1.222260889777085,
                -3.0997786562063965
            ]
        }
    ]
}