{
    "goal": {
        "global_pose": {
            "orientation": {
                "w": 0.5084816217422485,
                "x": -0.49083608388900757,
                "y": 0.5182115435600281,
                "z": -0.4816462993621826
            },
            "position": {
                "x": 0.5540239810943604,
                "y": 0.030875300988554955,
                "z": 0.16403168439865112
            }
        },
        "name": "move_to_storage_A"
    },
    "id": "RRTstar_move_to_storage_A_45",
    "joint_names": [
        "shoulder_pan_joint",
        "shoulder_lift_joint",
        "elbow_joint",
        "wrist_1_joint",
        "wrist_2_joint",
        "wrist_3_joint"
    ],
    "metrics": {
        "cart_traj_len": 0.3525884370861825,
        "distance_elbow_joint": 0.44837257769634586,
        "distance_shoulder_lift_joint": 0.23643271771410834,
        "distance_shoulder_pan_joint": 0.461385509735748,
        "distance_wrist_1_joint": 0.23391840296632382,
        "distance_wrist_2_joint": 1.097237196461362,
        "distance_wrist_3_joint": 0.09618675975541935,
        "smoothness": 0.0,
        "time": 5.000930931999999,
        "traj_len": 1.6042235393888558,
        "weighted_distance": 2.024120125701
    },
    "planner": "RRTstar",
    "start": {
        "state": {
            "elbow_joint": 1.9715477243005601,
            "shoulder_lift_joint": -1.1394853015351272,
            "shoulder_pan_joint": 0.12281154014795169,
            "wrist_1_joint": -0.7804696478968182,
            "wrist_2_joint": 0.12958648046900423,
            "wrist_3_joint": -3.192491284697111
        }
    },
    "waypoints": [
        {
            "positions": [
                0.12281154014795169,
                -1.1394853015351272,
                1.9715477243005601,
                -0.7804696478968182,
                0.12958648046900423,
                -3.192491284697111
            ]
        },
        {
            "positions": [
                0.05689932447141627,
                -1.173261404065714,
                2.0356009496857523,
                -0.813886562606293,
                0.28633465139205594,
                -3.1787503190177655
            ]
        },
        {
            "positions": [
                -0.009012891205119153,
                -1.207037506596301,
                2.0996541750709445,
                -0.8473034773157678,
                0.44308282231510765,
                -3.16500935333842
            ]
        },
        {
            "positions": [
                -0.07492510688165459,
                -1.240813609126888,
                2.1637074004561367,
                -0.8807203920252427,
                0.5998309932381594,
                -3.151268387659074
            ]
        },
        {
            "positions": [
                -0.14083732255818998,
                -1.2745897116574747,
                2.227760625841329,
                -0.9141373067347175,
                0.7565791641612111,
                -3.137527421979729
            ]
        },
        {
            "positions": [
                -0.20674953823472542,
                -1.3083658141880616,
                2.2918138512265216,
                -0.9475542214441923,
                0.9133273350842629,
                -3.123786456300383
            ]
        },
        {
            "positions": [
                -0.27266175391126085,
                -1.3421419167186486,
                2.355867076611714,
                -0.9809711361536672,
                1.0700755060073144,
                -3.1100454906210375
            ]
        },
        {
            "positions": [
                -0.3385739695877963,
                -1.3759180192492355,
                2.419920301996906,
                -1.014388050863142,
                1.2268236769303662,
                -3.096304524941692
            ]
        }
    ]
}