{
    "goal": {
        "global_pose": {
            "orientation": {
                "w": 0.5084816217422485,
                "x": -0.49083608388900757,
                "y": 0.5182115435600281,
                "z": -0.4816462993621826
            },
            "position": {
                "x": 0.5540239810943604,
                "y": 0.030875300988554955,
                "z": 0.16403168439865112
            }
        },
        "name": "move_to_storage_A"
    },
    "id": "RRTstar_move_to_storage_A_59",
    "joint_names": [
        "shoulder_pan_joint",
        "shoulder_lift_joint",
        "elbow_joint",
        "wrist_1_joint",
        "wrist_2_joint",
        "wrist_3_joint"
    ],
    "metrics": {
        "cart_traj_len": 0.3524366965449369,
        "distance_elbow_joint": 0.4480071351778685,
        "distance_shoulder_lift_joint": 0.2349269723225278,
        "distance_shoulder_pan_joint": 0.45864527494117013,
        "distance_wrist_1_joint": 0.2347266275400154,
        "distance_wrist_2_joint": 1.107154349035207,
        "distance_wrist_3_joint": 0.09807666025334694,
        "smoothness": 4.440892098500626e-16,
        "time": 5.000791776000001,
        "traj_len": 1.6067162223834475,
        "weighted_distance": 2.0296727116340834
    },
    "planner": "RRTstar",
    "start": {
        "state": {
            "elbow_joint": 1.9715477243005601,
            "shoulder_lift_joint": -1.1394853015351272,
            "shoulder_pan_joint": 0.12281154014795169,
            "wrist_1_joint": -0.7804696478968182,
            "wrist_2_joint": 0.12958648046900423,
            "wrist_3_joint": -3.192491284697111
        }
    },
    "waypoints": [
        {
            "positions": [
                0.12281154014795169,
                -1.1394853015351272,
                1.9715477243005601,
                -0.7804696478968182,
                0.12958648046900423,
                -3.192491284697111
            ]
        },
        {
            "positions": [
                0.057290786584927395,
                -1.1730462975812026,
                2.035548743611684,
                -0.8140020232596775,
                0.2877513874740338,
                -3.1784803332323475
            ]
        },
        {
            "positions": [
                -0.0082299669780969,
                -1.206607293627278,
                2.099549762922808,
                -0.8475343986225369,
                0.44591629447906334,
                -3.1644693817675833
            ]
        },
        {
            "positions": [
                -0.07375072054112121,
                -1.2401682896733535,
                2.163550782233932,
                -0.8810667739853961,
                0.6040812014840928,
                -3.1504584303028196
            ]
        },
        {
            "positions": [
                -0.13927147410414548,
                -1.2737292857194287,
                2.227551801545056,
                -0.9145991493482555,
                0.7622461084891224,
                -3.136447478838056
            ]
        },
        {
            "positions": [
                -0.2047922276671698,
                -1.307290281765504,
                2.2915528208561806,
                -0.9481315247111148,
                0.920411015494152,
                -3.122436527373292
            ]
        },
        {
            "positions": [
                -0.2703129812301941,
                -1.3408512778115795,
                2.3555538401673046,
                -0.9816639000739742,
                1.0785759224991815,
                -3.108425575908528
            ]
        },
        {
            "positions": [
                -0.33583373479321843,
                -1.374412273857655,
                2.4195548594784286,
                -1.0151962754368336,
                1.2367408295042113,
                -3.0944146244437643
            ]
        }
    ]
}