{
    "goal": {
        "global_pose": {
            "orientation": {
                "w": 0.5084816217422485,
                "x": -0.49083608388900757,
                "y": 0.5182115435600281,
                "z": -0.4816462993621826
            },
            "position": {
                "x": 0.5540239810943604,
                "y": 0.030875300988554955,
                "z": 0.16403168439865112
            }
        },
        "name": "move_to_storage_A"
    },
    "id": "RRTstar_move_to_storage_A_17",
    "joint_names": [
        "shoulder_pan_joint",
        "shoulder_lift_joint",
        "elbow_joint",
        "wrist_1_joint",
        "wrist_2_joint",
        "wrist_3_joint"
    ],
    "metrics": {
        "cart_traj_len": 0.3527008652002096,
        "distance_elbow_joint": 0.45020800503001945,
        "distance_shoulder_lift_joint": 0.23595159535744892,
        "distance_shoulder_pan_joint": 0.4612282488697857,
        "distance_wrist_1_joint": 0.2372717908469163,
        "distance_wrist_2_joint": 1.0992210183031892,
        "distance_wrist_3_joint": 0.09127136804902669,
        "smoothness": 2.2204460668324854e-16,
        "time": 5.001213925,
        "traj_len": 1.6047280225808942,
        "weighted_distance": 2.023409887221209
    },
    "planner": "RRTstar",
    "start": {
        "state": {
            "elbow_joint": 1.9715477243005601,
            "shoulder_lift_joint": -1.1394853015351272,
            "shoulder_pan_joint": 0.12281154014795169,
            "wrist_1_joint": -0.7804696478968182,
            "wrist_2_joint": 0.12958648046900423,
            "wrist_3_joint": -3.192491284697111
        }
    },
    "waypoints": [
        {
            "positions": [
                0.12281154014795169,
                -1.1394853015351272,
                1.9715477243005601,
                -0.7804696478968182,
                0.12958648046900423,
                -3.192491284697111
            ]
        },
        {
            "positions": [
                0.056921790309410886,
                -1.173192672300477,
                2.035863153590563,
                -0.8143656180178062,
                0.2866180545123169,
                -3.1794525178329645
            ]
        },
        {
            "positions": [
                -0.008967959529129918,
                -1.2069000430658268,
                2.1001785828805657,
                -0.8482615881387943,
                0.44364962855562967,
                -3.1664137509688177
            ]
        },
        {
            "positions": [
                -0.07485770936767074,
                -1.2406074138311767,
                2.1644940121705685,
                -0.8821575582597823,
                0.6006812025989424,
                -3.153374984104671
            ]
        },
        {
            "positions": [
                -0.1407474592062115,
                -1.2743147845965266,
                2.2288094414605713,
                -0.9160535283807704,
                0.7577127766422551,
                -3.1403362172405247
            ]
        },
        {
            "positions": [
                -0.20663720904475236,
                -1.3080221553618765,
                2.293124870750574,
                -0.9499494985017584,
                0.9147443506855679,
                -3.127297450376378
            ]
        },
        {
            "positions": [
                -0.27252695888329315,
                -1.3417295261272262,
                2.357440300040577,
                -0.9838454686227465,
                1.0717759247288807,
                -3.1142586835122312
            ]
        },
        {
            "positions": [
                -0.338416708721834,
                -1.375436896892576,
                2.4217557293305796,
                -1.0177414387437345,
                1.2288074987721935,
                -3.1012199166480845
            ]
        }
    ]
}