{
    "goal": {
        "global_pose": {
            "orientation": {
                "w": 0.5084816217422485,
                "x": -0.49083608388900757,
                "y": 0.5182115435600281,
                "z": -0.4816462993621826
            },
            "position": {
                "x": 0.5540239810943604,
                "y": 0.030875300988554955,
                "z": 0.16403168439865112
            }
        },
        "name": "move_to_storage_A"
    },
    "id": "RRTstar_move_to_storage_A_16",
    "joint_names": [
        "shoulder_pan_joint",
        "shoulder_lift_joint",
        "elbow_joint",
        "wrist_1_joint",
        "wrist_2_joint",
        "wrist_3_joint"
    ],
    "metrics": {
        "cart_traj_len": 0.3529603572094465,
        "distance_elbow_joint": 0.44938786896030525,
        "distance_shoulder_lift_joint": 0.2368230810684866,
        "distance_shoulder_pan_joint": 0.4624619465161071,
        "distance_wrist_1_joint": 0.23594107763768302,
        "distance_wrist_2_joint": 1.095846594145093,
        "distance_wrist_3_joint": 0.09581628685396737,
        "smoothness": 4.440892098500626e-16,
        "time": 5.0457465809999995,
        "traj_len": 1.6050784576405113,
        "weighted_distance": 2.0247708760924907
    },
    "planner": "RRTstar",
    "start": {
        "state": {
            "elbow_joint": 1.9715477243005601,
            "shoulder_lift_joint": -1.1394853015351272,
            "shoulder_pan_joint": 0.12281154014795169,
            "wrist_1_joint": -0.7804696478968182,
            "wrist_2_joint": 0.12958648046900423,
            "wrist_3_joint": -3.192491284697111
        }
    },
    "waypoints": [
        {
            "positions": [
                0.12281154014795169,
                -1.1394853015351272,
                1.9715477243005601,
                -0.7804696478968182,
                0.12958648046900423,
                -3.192491284697111
            ]
        },
        {
            "positions": [
                0.05674554778850782,
                -1.1733171702591967,
                2.0357459912948896,
                -0.8141755161307729,
                0.28613599391830324,
                -3.178803243717973
            ]
        },
        {
            "positions": [
                -0.009320444570936046,
                -1.2071490389832662,
                2.0999442582892187,
                -0.8478813843647276,
                0.4426855073676022,
                -3.1651152027388347
            ]
        },
        {
            "positions": [
                -0.07538643693037993,
                -1.2409809077073357,
                2.1641425252835482,
                -0.8815872525986823,
                0.5992350208169013,
                -3.1514271617596967
            ]
        },
        {
            "positions": [
                -0.14145242928982377,
                -1.2748127764314052,
                2.2283407922778773,
                -0.915293120832637,
                0.7557845342662002,
                -3.1377391207805583
            ]
        },
        {
            "positions": [
                -0.20751842164926765,
                -1.3086446451554747,
                2.292539059272207,
                -0.9489989890665917,
                0.9123340477154992,
                -3.1240510798014203
            ]
        },
        {
            "positions": [
                -0.27358441400871153,
                -1.3424765138795443,
                2.356737326266536,
                -0.9827048573005465,
                1.0688835611647982,
                -3.110363038822282
            ]
        },
        {
            "positions": [
                -0.3396504063681554,
                -1.3763083826036138,
                2.4209355932608654,
                -1.0164107255345012,
                1.2254330746140971,
                -3.096674997843144
            ]
        }
    ]
}