{
    "goal": {
        "global_pose": {
            "orientation": {
                "w": 0.5084816217422485,
                "x": -0.49083608388900757,
                "y": 0.5182115435600281,
                "z": -0.4816462993621826
            },
            "position": {
                "x": 0.5540239810943604,
                "y": 0.030875300988554955,
                "z": 0.16403168439865112
            }
        },
        "name": "move_to_storage_A"
    },
    "id": "RRTstar_move_to_storage_A_143",
    "joint_names": [
        "shoulder_pan_joint",
        "shoulder_lift_joint",
        "elbow_joint",
        "wrist_1_joint",
        "wrist_2_joint",
        "wrist_3_joint"
    ],
    "metrics": {
        "cart_traj_len": 0.35362370817581645,
        "distance_elbow_joint": 0.4489679320325841,
        "distance_shoulder_lift_joint": 0.23487146800323222,
        "distance_shoulder_pan_joint": 0.4624812395687944,
        "distance_wrist_1_joint": 0.23981876505335886,
        "distance_wrist_2_joint": 1.0994839680906545,
        "distance_wrist_3_joint": 0.09358328168347363,
        "smoothness": 1.1102230263833737e-15,
        "time": 5.001214362,
        "traj_len": 1.6059908637449023,
        "weighted_distance": 2.0262467645731252
    },
    "planner": "RRTstar",
    "start": {
        "state": {
            "elbow_joint": 1.9715477243005601,
            "shoulder_lift_joint": -1.1394853015351272,
            "shoulder_pan_joint": 0.12281154014795169,
            "wrist_1_joint": -0.7804696478968182,
            "wrist_2_joint": 0.12958648046900423,
            "wrist_3_joint": -3.192491284697111
        }
    },
    "waypoints": [
        {
            "positions": [
                0.12281154014795169,
                -1.1394853015351272,
                1.9715477243005601,
                -0.7804696478968182,
                0.12958648046900423,
                -3.192491284697111
            ]
        },
        {
            "positions": [
                0.05674279163812393,
                -1.1730383683927317,
                2.035686000305215,
                -0.8147294714758694,
                0.28665561876766915,
                -3.179122244456615
            ]
        },
        {
            "positions": [
                -0.00932595687170383,
                -1.2065914352503364,
                2.09982427630987,
                -0.8489892950549207,
                0.4437247570663341,
                -3.1657532042161187
            ]
        },
        {
            "positions": [
                -0.0753947053815316,
                -1.240144502107941,
                2.163962552314525,
                -0.8832491186339719,
                0.6007938953649989,
                -3.1523841639756225
            ]
        },
        {
            "positions": [
                -0.14146345389135934,
                -1.2736975689655456,
                2.2281008283191794,
                -0.9175089422130233,
                0.7578630336636639,
                -3.1390151237351263
            ]
        },
        {
            "positions": [
                -0.20753220240118714,
                -1.3072506358231502,
                2.2922391043238344,
                -0.9517687657920745,
                0.9149321719623289,
                -3.12564608349463
            ]
        },
        {
            "positions": [
                -0.2736009509110149,
                -1.3408037026807547,
                2.3563773803284893,
                -0.9860285893711258,
                1.0720013102609938,
                -3.112277043254134
            ]
        },
        {
            "positions": [
                -0.3396696994208427,
                -1.3743567695383594,
                2.4205156563331442,
                -1.020288412950177,
                1.2290704485596589,
                -3.0989080030136376
            ]
        }
    ]
}