{
    "goal": {
        "global_pose": {
            "orientation": {
                "w": 0.5084816217422485,
                "x": -0.49083608388900757,
                "y": 0.5182115435600281,
                "z": -0.4816462993621826
            },
            "position": {
                "x": 0.5540239810943604,
                "y": 0.030875300988554955,
                "z": 0.16403168439865112
            }
        },
        "name": "move_to_storage_A"
    },
    "id": "RRTstar_move_to_storage_A_5",
    "joint_names": [
        "shoulder_pan_joint",
        "shoulder_lift_joint",
        "elbow_joint",
        "wrist_1_joint",
        "wrist_2_joint",
        "wrist_3_joint"
    ],
    "metrics": {
        "cart_traj_len": 0.3527602414495885,
        "distance_elbow_joint": 0.4489109848411048,
        "distance_shoulder_lift_joint": 0.2359817772808368,
        "distance_shoulder_pan_joint": 0.4612545987502502,
        "distance_wrist_1_joint": 0.23962783627787865,
        "distance_wrist_2_joint": 1.0986511645686226,
        "distance_wrist_3_joint": 0.09823312762508873,
        "smoothness": 2.2204460668324854e-16,
        "time": 5.0007078279999995,
        "traj_len": 1.6070654900606203,
        "weighted_distance": 2.0291389172356977
    },
    "planner": "RRTstar",
    "start": {
        "state": {
            "elbow_joint": 1.9715477243005601,
            "shoulder_lift_joint": -1.1394853015351272,
            "shoulder_pan_joint": 0.12281154014795169,
            "wrist_1_joint": -0.7804696478968182,
            "wrist_2_joint": 0.12958648046900423,
            "wrist_3_joint": -3.192491284697111
        }
    },
    "waypoints": [
        {
            "positions": [
                0.12281154014795169,
                -1.1394853015351272,
                1.9715477243005601,
                -0.7804696478968182,
                0.12958648046900423,
                -3.192491284697111
            ]
        },
        {
            "positions": [
                0.05691802604077309,
                -1.173196984003818,
                2.0356778649921465,
                -0.8147021959365152,
                0.28653664683595026,
                -3.17845798075067
            ]
        },
        {
            "positions": [
                -0.00897548806640551,
                -1.206908666472509,
                2.099808005683733,
                -0.848934743976212,
                0.44348681320289635,
                -3.1644246768042286
            ]
        },
        {
            "positions": [
                -0.0748690021735841,
                -1.2406203489412,
                2.1639381463753193,
                -0.883167292015909,
                0.6004369795698424,
                -3.1503913728577873
            ]
        },
        {
            "positions": [
                -0.1407625162807627,
                -1.274332031409891,
                2.2280682870669057,
                -0.9173998400556059,
                0.7573871459367885,
                -3.1363580689113464
            ]
        },
        {
            "positions": [
                -0.20665603038794134,
                -1.308043713878582,
                2.292198427758492,
                -0.9516323880953029,
                0.9143373123037346,
                -3.122324764964905
            ]
        },
        {
            "positions": [
                -0.27254954449511987,
                -1.341755396347273,
                2.3563285684500785,
                -0.9858649361349998,
                1.0712874786706807,
                -3.1082914610184638
            ]
        },
        {
            "positions": [
                -0.3384430586022985,
                -1.375467078815964,
                2.420458709141665,
                -1.0200974841746968,
                1.2282376450376267,
                -3.0942581570720225
            ]
        }
    ]
}