{
    "goal": {
        "global_pose": {
            "orientation": {
                "w": 0.5084816217422485,
                "x": -0.49083608388900757,
                "y": 0.5182115435600281,
                "z": -0.4816462993621826
            },
            "position": {
                "x": 0.5540239810943604,
                "y": 0.030875300988554955,
                "z": 0.16403168439865112
            }
        },
        "name": "move_to_storage_A"
    },
    "id": "RRTstar_move_to_storage_A_107",
    "joint_names": [
        "shoulder_pan_joint",
        "shoulder_lift_joint",
        "elbow_joint",
        "wrist_1_joint",
        "wrist_2_joint",
        "wrist_3_joint"
    ],
    "metrics": {
        "cart_traj_len": 0.35281358015229053,
        "distance_elbow_joint": 0.44766047726958247,
        "distance_shoulder_lift_joint": 0.2334518462419144,
        "distance_shoulder_pan_joint": 0.46151180723783786,
        "distance_wrist_1_joint": 0.23611033583367835,
        "distance_wrist_2_joint": 1.0967756769486625,
        "distance_wrist_3_joint": 0.096784439371699,
        "smoothness": 6.661338165333112e-16,
        "time": 5.000390859,
        "traj_len": 1.6038374552626506,
        "weighted_distance": 2.0245368543025126
    },
    "planner": "RRTstar",
    "start": {
        "state": {
            "elbow_joint": 1.9715477243005601,
            "shoulder_lift_joint": -1.1394853015351272,
            "shoulder_pan_joint": 0.12281154014795169,
            "wrist_1_joint": -0.7804696478968182,
            "wrist_2_joint": 0.12958648046900423,
            "wrist_3_joint": -3.192491284697111
        }
    },
    "waypoints": [
        {
            "positions": [
                0.12281154014795169,
                -1.1394853015351272,
                1.9715477243005601,
                -0.7804696478968182,
                0.12958648046900423,
                -3.192491284697111
            ]
        },
        {
            "positions": [
                0.05688128197111772,
                -1.1728355652839721,
                2.0354992210533576,
                -0.814199695873058,
                0.2862687200330989,
                -3.1786649362154398
            ]
        },
        {
            "positions": [
                -0.00904897620571625,
                -1.206185829032817,
                2.099450717806155,
                -0.8479297438492976,
                0.4429509595971935,
                -3.164838587733769
            ]
        },
        {
            "positions": [
                -0.07497923438255023,
                -1.2395360927816619,
                2.1634022145589524,
                -0.8816597918255374,
                0.5996331991612882,
                -3.1510122392520974
            ]
        },
        {
            "positions": [
                -0.14090949255938418,
                -1.2728863565305069,
                2.22735371131175,
                -0.9153898398017772,
                0.7563154387253828,
                -3.137185890770426
            ]
        },
        {
            "positions": [
                -0.2068397507362182,
                -1.3062366202793518,
                2.2913052080645477,
                -0.9491198877780169,
                0.9129976782894774,
                -3.1233595422887546
            ]
        },
        {
            "positions": [
                -0.27277000891305214,
                -1.3395868840281966,
                2.355256704817345,
                -0.9828499357542567,
                1.069679917853572,
                -3.1095331938070836
            ]
        },
        {
            "positions": [
                -0.33870026708988615,
                -1.3729371477770416,
                2.4192082015701426,
                -1.0165799837304965,
                1.2263621574176666,
                -3.095706845325412
            ]
        }
    ]
}