{
    "goal": {
        "global_pose": {
            "orientation": {
                "w": 0.7047431468963623,
                "x": -0.7094548344612122,
                "y": 0.0024358443915843964,
                "z": -0.0022348060738295317
            },
            "position": {
                "x": 0.6094750761985779,
                "y": 0.3671506643295288,
                "z": 0.19426114857196808
            }
        },
        "name": "move_to_magneteinheit_A"
    },
    "id": "RRTstar_move_to_magneteinheit_A_106",
    "joint_names": [
        "shoulder_pan_joint",
        "shoulder_lift_joint",
        "elbow_joint",
        "wrist_1_joint",
        "wrist_2_joint",
        "wrist_3_joint"
    ],
    "metrics": {
        "cart_traj_len": 3.333373263295471,
        "distance_elbow_joint": 3.9077738159634983,
        "distance_shoulder_lift_joint": 0.42925290585150533,
        "distance_shoulder_pan_joint": 2.98945364524459,
        "distance_wrist_1_joint": 0.8135146624221128,
        "distance_wrist_2_joint": 1.6972289842045651,
        "distance_wrist_3_joint": 3.550549475788237,
        "smoothness": 0.12084457023894132,
        "time": 5.014734078,
        "traj_len": 3.6589306483554056,
        "weighted_distance": 4.795791497519222
    },
    "planner": "RRTstar",
    "start": {
        "state": {
            "elbow_joint": -1.919618573717145,
            "shoulder_lift_joint": -1.2443395971678275,
            "shoulder_pan_joint": 2.6996025300909787,
            "wrist_1_joint": -1.548550951253194,
            "wrist_2_joint": -1.5709469090946802,
            "wrist_3_joint": 0.4420197732051276
        }
    },
    "waypoints": [
        {
            "positions": [
                2.6996025300909787,
                -1.2443395971678275,
                -1.919618573717145,
                -1.548550951253194,
                -1.5709469090946802,
                0.4420197732051276
            ]
        },
        {
            "positions": [
                2.6036298160869995,
                -1.2500906594226313,
                -1.8035241697033992,
                -1.522701985851085,
                -1.5316912569971775,
                0.34219985735789576
            ]
        },
        {
            "positions": [
                2.5076571020830203,
                -1.2558417216774351,
                -1.6874297656896537,
                -1.496853020448976,
                -1.4924356048996748,
                0.24237994151066397
            ]
        },
        {
            "positions": [
                2.411684388079041,
                -1.261592783932239,
                -1.571335361675908,
                -1.4710040550468668,
                -1.4531799528021723,
                0.14256002566343218
            ]
        },
        {
            "positions": [
                2.315711674075062,
                -1.267343846187043,
                -1.4552409576621623,
                -1.4451550896447578,
                -1.4139243007046696,
                0.042740109816200356
            ]
        },
        {
            "positions": [
                2.219738960071082,
                -1.2730949084418468,
                -1.3391465536484166,
                -1.4193061242426488,
                -1.3746686486071669,
                -0.05707980603103152
            ]
        },
        {
            "positions": [
                2.1237662460671034,
                -1.2788459706966506,
                -1.223052149634671,
                -1.3934571588405398,
                -1.3354129965096642,
                -0.15689972187826323
            ]
        },
        {
            "positions": [
                2.0277935320631237,
                -1.2845970329514544,
                -1.1069577456209254,
                -1.3676081934384305,
                -1.2961573444121615,
                -0.25671963772549516
            ]
        },
        {
            "positions": [
                1.9318208180591445,
                -1.2903480952062583,
                -0.9908633416071797,
                -1.3417592280363215,
                -1.256901692314659,
                -0.3565395535727269
            ]
        },
        {
            "positions": [
                1.8358481040551653,
                -1.296099157461062,
                -0.874768937593434,
                -1.3159102626342125,
                -1.217646040217156,
                -0.4563594694199587
            ]
        },
        {
            "positions": [
                1.739875390051186,
                -1.301850219715866,
                -0.7586745335796883,
                -1.2900612972321035,
                -1.1783903881196536,
                -0.5561793852671906
            ]
        },
        {
            "positions": [
                1.6439026760472069,
                -1.30760128197067,
                -0.6425801295659428,
                -1.2642123318299943,
                -1.1391347360221509,
                -0.6559993011144223
            ]
        },
        {
            "positions": [
                1.5479299620432276,
                -1.3133523442254738,
                -0.5264857255521971,
                -1.2383633664278852,
                -1.0998790839246482,
                -0.755819216961654
            ]
        },
        {
            "positions": [
                1.4519572480392482,
                -1.3191034064802776,
                -0.41039132153845137,
                -1.2125144010257762,
                -1.0606234318271455,
                -0.8556391328088859
            ]
        },
        {
            "positions": [
                1.355984534035269,
                -1.3248544687350814,
                -0.29429691752470566,
                -1.1866654356236672,
                -1.0213677797296428,
                -0.9554590486561179
            ]
        },
        {
            "positions": [
                1.2600118200312895,
                -1.3306055309898852,
                -0.17820251351095995,
                -1.1608164702215582,
                -0.9821121276321402,
                -1.0552789645033496
            ]
        },
        {
            "positions": [
                1.1640391060273105,
                -1.336356593244689,
                -0.06210810949721446,
                -1.134967504819449,
                -0.9428564755346376,
                -1.1550988803505813
            ]
        },
        {
            "positions": [
                1.0680663920233313,
                -1.3421076554994928,
                0.05398629451653103,
                -1.10911853941734,
                -0.9036008234371349,
                -1.254918796197813
            ]
        },
        {
            "positions": [
                0.9720936780193519,
                -1.3478587177542969,
                0.17008069853027696,
                -1.083269574015231,
                -0.8643451713396322,
                -1.354738712045045
            ]
        },
        {
            "positions": [
                0.8761209640153726,
                -1.3536097800091007,
                0.28617510254402245,
                -1.057420608613122,
                -0.8250895192421296,
                -1.4545586278922766
            ]
        },
        {
            "positions": [
                0.7801482500113932,
                -1.3593608422639045,
                0.4022695065577684,
                -1.031571643211013,
                -0.7858338671446268,
                -1.5543785437395088
            ]
        },
        {
            "positions": [
                0.6841755360074142,
                -1.3651119045187083,
                0.5183639105715139,
                -1.0057226778089037,
                -0.7465782150471242,
                -1.6541984595867403
            ]
        },
        {
            "positions": [
                0.588202822003435,
                -1.3708629667735122,
                0.6344583145852594,
                -0.9798737124067947,
                -0.7073225629496216,
                -1.7540183754339722
            ]
        },
        {
            "positions": [
                0.4922301079994553,
                -1.376614029028316,
                0.7505527185990053,
                -0.9540247470046855,
                -0.6680669108521189,
                -1.8538382912812041
            ]
        },
        {
            "positions": [
                0.39625739399547655,
                -1.3823650912831198,
                0.8666471226127508,
                -0.9281757816025765,
                -0.6288112587546162,
                -1.9536582071284356
            ]
        },
        {
            "positions": [
                0.3002846799914973,
                -1.3881161535379236,
                0.9827415266264963,
                -0.9023268162004675,
                -0.5895556066571136,
                -2.0534781229756676
            ]
        },
        {
            "positions": [
                0.20431196598751766,
                -1.3938672157927277,
                1.0988359306402422,
                -0.8764778507983584,
                -0.5502999545596108,
                -2.1532980388228995
            ]
        },
        {
            "positions": [
                0.10833925198353844,
                -1.3996182780475315,
                1.2149303346539877,
                -0.8506288853962494,
                -0.5110443024621083,
                -2.253117954670131
            ]
        },
        {
            "positions": [
                0.012366537979559222,
                -1.4053693403023353,
                1.3310247386677336,
                -0.8247799199941402,
                -0.4717886503646056,
                -2.3529378705173634
            ]
        },
        {
            "positions": [
                -0.08360617602442003,
                -1.411120402557139,
                1.4471191426814791,
                -0.7989309545920312,
                -0.432532998267103,
                -2.452757786364595
            ]
        },
        {
            "positions": [
                -0.04923201950288832,
                -1.367375052480107,
                1.5372918259422914,
                -0.8095800655521895,
                -0.33939715270427173,
                -2.562053105734347
            ]
        },
        {
            "positions": [
                -0.01485786298135662,
                -1.3236297024030745,
                1.6274645092031037,
                -0.8202291765123478,
                -0.2462613071414404,
                -2.6713484251040995
            ]
        },
        {
            "positions": [
                0.01951629354017509,
                -1.2798843523260421,
                1.7176371924639162,
                -0.8308782874725062,
                -0.15312546157860907,
                -2.780643744473852
            ]
        },
        {
            "positions": [
                0.053890450061706785,
                -1.23613900224901,
                1.8078098757247285,
                -0.8415273984326646,
                -0.05998961601577779,
                -2.8899390638436047
            ]
        },
        {
            "positions": [
                0.08826460658323851,
                -1.1923936521719778,
                1.8979825589855408,
                -0.8521765093928229,
                0.033146229547053596,
                -2.999234383213357
            ]
        },
        {
            "positions": [
                0.12263876310477022,
                -1.1486483020949454,
                1.988155242246353,
                -0.8628256203529812,
                0.12628207510988493,
                -3.1085297025831093
            ]
        }
    ]
}{
    "goal": {
        "global_pose": {
            "orientation": {
                "w": 0.7047431468963623,
                "x": -0.7094548344612122,
                "y": 0.0024358443915843964,
                "z": -0.0022348060738295317
            },
            "position": {
                "x": 0.6094750761985779,
                "y": 0.3671506643295288,
                "z": 0.19426114857196808
            }
        },
        "name": "move_to_magneteinheit_A"
    },
    "id": "RRTstar_move_to_magneteinheit_A_106",
    "joint_names": [
        "shoulder_pan_joint",
        "shoulder_lift_joint",
        "elbow_joint",
        "wrist_1_joint",
        "wrist_2_joint",
        "wrist_3_joint"
    ],
    "metrics": {
        "cart_traj_len": 1.1909168143820434,
        "distance_elbow_joint": 0.0737402073466229,
        "distance_shoulder_lift_joint": 0.7492304694853336,
        "distance_shoulder_pan_joint": 1.2427912346946315,
        "distance_wrist_1_joint": 0.737360991507077,
        "distance_wrist_2_joint": 1.4542383006081645,
        "distance_wrist_3_joint": 4.238867955308779,
        "smoothness": 0.031003351744537472,
        "time": 5.028353148,
        "traj_len": 2.9148291817790297,
        "weighted_distance": 4.377849284943854
    },
    "planner": "RRTstar",
    "start": {
        "state": {
            "elbow_joint": 1.919643534880228,
            "shoulder_lift_joint": -1.8972525353963687,
            "shoulder_pan_joint": -1.1188672234189438,
            "wrist_1_joint": -1.5931878212786155,
            "wrist_2_joint": 1.5706036197970081,
            "wrist_3_joint": 1.118896926603594
        }
    },
    "waypoints": [
        {
            "positions": [
                -1.1188672234189438,
                -1.8972525353963687,
                1.919643534880228,
                -1.5931878212786155,
                1.5706036197970081,
                1.118896926603594
            ]
        },
        {
            "positions": [
                -1.0615244892034335,
                -1.8637200597841637,
                1.92300944542293,
                -1.5588506005714868,
                1.5015488707490152,
                0.9249631504769458
            ]
        },
        {
            "positions": [
                -1.004181754987923,
                -1.8301875841719586,
                1.9263753559656318,
                -1.5245133798643582,
                1.4324941217010223,
                0.7310293743502975
            ]
        },
        {
            "positions": [
                -0.9468390207724126,
                -1.7966551085597535,
                1.9297412665083338,
                -1.4901761591572296,
                1.3634393726530292,
                0.5370955982236493
            ]
        },
        {
            "positions": [
                -0.8894962865569022,
                -1.7631226329475485,
                1.9331071770510357,
                -1.455838938450101,
                1.2943846236050363,
                0.34316182209700097
            ]
        },
        {
            "positions": [
                -0.8321535523413917,
                -1.7295901573353434,
                1.9364730875937375,
                -1.4215017177429723,
                1.2253298745570433,
                0.14922804597035277
            ]
        },
        {
            "positions": [
                -0.7748108181258813,
                -1.6960576817231383,
                1.9398389981364395,
                -1.3871644970358437,
                1.1562751255090502,
                -0.04470573015629542
            ]
        },
        {
            "positions": [
                -0.7174680839103709,
                -1.6625252061109332,
                1.9432049086791414,
                -1.352827276328715,
                1.0872203764610573,
                -0.23863950628294384
            ]
        },
        {
            "positions": [
                -0.6601253496948605,
                -1.6289927304987282,
                1.9465708192218432,
                -1.3184900556215866,
                1.0181656274130644,
                -0.43257328240959203
            ]
        },
        {
            "positions": [
                -0.6027826154793501,
                -1.595460254886523,
                1.9499367297645451,
                -1.2841528349144578,
                0.9491108783650714,
                -0.6265070585362402
            ]
        },
        {
            "positions": [
                -0.5454398812638396,
                -1.561927779274318,
                1.953302640307247,
                -1.2498156142073293,
                0.8800561293170784,
                -0.8204408346628884
            ]
        },
        {
            "positions": [
                -0.4880971470483292,
                -1.528395303662113,
                1.9566685508499488,
                -1.2154783935002005,
                0.8110013802690853,
                -1.014374610789537
            ]
        },
        {
            "positions": [
                -0.4307544128328188,
                -1.4948628280499079,
                1.9600344613926508,
                -1.181141172793072,
                0.7419466312210925,
                -1.2083083869161848
            ]
        },
        {
            "positions": [
                -0.3734116786173083,
                -1.4613303524377028,
                1.9634003719353528,
                -1.1468039520859432,
                0.6728918821730994,
                -1.4022421630428334
            ]
        },
        {
            "positions": [
                -0.3160689444017979,
                -1.4277978768254977,
                1.9667662824780545,
                -1.1124667313788148,
                0.6038371331251065,
                -1.5961759391694816
            ]
        },
        {
            "positions": [
                -0.2587262101862875,
                -1.3942654012132927,
                1.9701321930207565,
                -1.078129510671686,
                0.5347823840771135,
                -1.7901097152961298
            ]
        },
        {
            "positions": [
                -0.2013834759707771,
                -1.3607329256010876,
                1.9734981035634585,
                -1.0437922899645575,
                0.4657276350291206,
                -1.984043491422778
            ]
        },
        {
            "positions": [
                -0.1440407417552666,
                -1.3272004499888825,
                1.9768640141061602,
                -1.009455069257429,
                0.3966728859811275,
                -2.1779772675494264
            ]
        },
        {
            "positions": [
                -0.08669800753975632,
                -1.2936679743766775,
                1.9802299246488622,
                -0.9751178485503003,
                0.3276181369331346,
                -2.371911043676074
            ]
        },
        {
            "positions": [
                -0.0293552733242457,
                -1.2601354987644724,
                1.9835958351915641,
                -0.9407806278431716,
                0.25856338788514166,
                -2.565844819802723
            ]
        },
        {
            "positions": [
                0.027987460891264693,
                -1.2266030231522673,
                1.9869617457342659,
                -0.906443407136043,
                0.18950863883714875,
                -2.7597785959293706
            ]
        },
        {
            "positions": [
                0.08533019510677502,
                -1.1930705475400623,
                1.9903276562769678,
                -0.8721061864289144,
                0.1204538897891555,
                -2.953712372056019
            ]
        },
        {
            "positions": [
                0.12392401127568753,
                -1.1480220659110352,
                1.9872715703270847,
                -0.8558268297715385,
                0.12454246038946738,
                -3.119971028705185
            ]
        }
    ]
}