{
    "goal": {
        "global_pose": {
            "orientation": {
                "w": 0.5084816217422485,
                "x": -0.49083608388900757,
                "y": 0.5182115435600281,
                "z": -0.4816462993621826
            },
            "position": {
                "x": 0.5540239810943604,
                "y": 0.030875300988554955,
                "z": 0.16403168439865112
            }
        },
        "name": "move_to_storage_A"
    },
    "id": "RRTstar_move_to_storage_A_109",
    "joint_names": [
        "shoulder_pan_joint",
        "shoulder_lift_joint",
        "elbow_joint",
        "wrist_1_joint",
        "wrist_2_joint",
        "wrist_3_joint"
    ],
    "metrics": {
        "cart_traj_len": 0.3527798117909165,
        "distance_elbow_joint": 0.45104353633124505,
        "distance_shoulder_lift_joint": 0.23533423984247182,
        "distance_shoulder_pan_joint": 0.4631167421642709,
        "distance_wrist_1_joint": 0.24365818903324776,
        "distance_wrist_2_joint": 1.0912419562724245,
        "distance_wrist_3_joint": 0.08845164602392241,
        "smoothness": 8.881784197001252e-16,
        "time": 5.058619104,
        "traj_len": 1.6040094481229163,
        "weighted_distance": 2.021051643828306
    },
    "planner": "RRTstar",
    "start": {
        "state": {
            "elbow_joint": 1.9715477243005601,
            "shoulder_lift_joint": -1.1394853015351272,
            "shoulder_pan_joint": 0.12281154014795169,
            "wrist_1_joint": -0.7804696478968182,
            "wrist_2_joint": 0.12958648046900423,
            "wrist_3_joint": -3.192491284697111
        }
    },
    "waypoints": [
        {
            "positions": [
                0.12281154014795169,
                -1.1394853015351272,
                1.9715477243005601,
                -0.7804696478968182,
                0.12958648046900423,
                -3.192491284697111
            ]
        },
        {
            "positions": [
                0.056652005553055856,
                -1.1731044786554803,
                2.0359825152050237,
                -0.8152779606158536,
                0.285478188507922,
                -3.179855335265122
            ]
        },
        {
            "positions": [
                -0.009507529041839977,
                -1.2067236557758334,
                2.1004173061094873,
                -0.850086273334889,
                0.4413698965468398,
                -3.1672193858331332
            ]
        },
        {
            "positions": [
                -0.07566706363673582,
                -1.2403428328961865,
                2.164852097013951,
                -0.8848945860539243,
                0.5972616045857575,
                -3.1545834364011442
            ]
        },
        {
            "positions": [
                -0.14182659823163163,
                -1.2739620100165396,
                2.2292868879184145,
                -0.9197028987729597,
                0.7531533126246753,
                -3.1419474869691557
            ]
        },
        {
            "positions": [
                -0.2079861328265275,
                -1.3075811871368928,
                2.293721678822878,
                -0.9545112114919951,
                0.9090450206635932,
                -3.1293115375371667
            ]
        },
        {
            "positions": [
                -0.2741456674214233,
                -1.3412003642572459,
                2.3581564697273416,
                -0.9893195242110305,
                1.0649367287025109,
                -3.1166755881051778
            ]
        },
        {
            "positions": [
                -0.3403052020163192,
                -1.374819541377599,
                2.422591260631805,
                -1.024127836930066,
                1.2208284367414286,
                -3.1040396386731888
            ]
        }
    ]
}