{
    "goal": {
        "global_pose": {
            "orientation": {
                "w": 0.5084816217422485,
                "x": -0.49083608388900757,
                "y": 0.5182115435600281,
                "z": -0.4816462993621826
            },
            "position": {
                "x": 0.5540239810943604,
                "y": 0.030875300988554955,
                "z": 0.16403168439865112
            }
        },
        "name": "move_to_storage_A"
    },
    "id": "RRTstar_move_to_storage_A_50",
    "joint_names": [
        "shoulder_pan_joint",
        "shoulder_lift_joint",
        "elbow_joint",
        "wrist_1_joint",
        "wrist_2_joint",
        "wrist_3_joint"
    ],
    "metrics": {
        "cart_traj_len": 0.35373488790297214,
        "distance_elbow_joint": 0.4503163072565042,
        "distance_shoulder_lift_joint": 0.23618893108238947,
        "distance_shoulder_pan_joint": 0.4647533143763981,
        "distance_wrist_1_joint": 0.23817895731419247,
        "distance_wrist_2_joint": 1.0918297141541466,
        "distance_wrist_3_joint": 0.08625027285712772,
        "smoothness": 2.2204460668324854e-16,
        "time": 5.000653789,
        "traj_len": 1.6023474957201882,
        "weighted_distance": 2.0174307210467854
    },
    "planner": "RRTstar",
    "start": {
        "state": {
            "elbow_joint": 1.9715477243005601,
            "shoulder_lift_joint": -1.1394853015351272,
            "shoulder_pan_joint": 0.12281154014795169,
            "wrist_1_joint": -0.7804696478968182,
            "wrist_2_joint": 0.12958648046900423,
            "wrist_3_joint": -3.192491284697111
        }
    },
    "waypoints": [
        {
            "positions": [
                0.12281154014795169,
                -1.1394853015351272,
                1.9715477243005601,
                -0.7804696478968182,
                0.12958648046900423,
                -3.192491284697111
            ]
        },
        {
            "positions": [
                0.056418209522751964,
                -1.17322657740404,
                2.0358786253372037,
                -0.8144952132274171,
                0.2855621539195966,
                -3.180169817146093
            ]
        },
        {
            "positions": [
                -0.009975121102447762,
                -1.2069678532729526,
                2.100209526373847,
                -0.848520778558016,
                0.441537827370189,
                -3.167848349595075
            ]
        },
        {
            "positions": [
                -0.07636845172764749,
                -1.2407091291418655,
                2.1645404274104907,
                -0.882546343888615,
                0.5975135008207814,
                -3.1555268820440565
            ]
        },
        {
            "positions": [
                -0.1427617823528472,
                -1.2744504050107783,
                2.2288713284471338,
                -0.9165719092192138,
                0.7534891742713737,
                -3.143205414493038
            ]
        },
        {
            "positions": [
                -0.20915511297804695,
                -1.3081916808796912,
                2.2932022294837773,
                -0.9505974745498128,
                0.9094648477219661,
                -3.1308839469420198
            ]
        },
        {
            "positions": [
                -0.27554844360324665,
                -1.3419329567486038,
                2.357533130520421,
                -0.9846230398804117,
                1.0654405211725586,
                -3.118562479391002
            ]
        },
        {
            "positions": [
                -0.3419417742284464,
                -1.3756742326175166,
                2.4218640315570643,
                -1.0186486052110106,
                1.2214161946231508,
                -3.1062410118399835
            ]
        }
    ]
}