{
    "goal": {
        "global_pose": {
            "orientation": {
                "w": 0.5084816217422485,
                "x": -0.49083608388900757,
                "y": 0.5182115435600281,
                "z": -0.4816462993621826
            },
            "position": {
                "x": 0.5540239810943604,
                "y": 0.030875300988554955,
                "z": 0.16403168439865112
            }
        },
        "name": "move_to_storage_A"
    },
    "id": "RRTstar_move_to_storage_A_128",
    "joint_names": [
        "shoulder_pan_joint",
        "shoulder_lift_joint",
        "elbow_joint",
        "wrist_1_joint",
        "wrist_2_joint",
        "wrist_3_joint"
    ],
    "metrics": {
        "cart_traj_len": 0.35266620762528705,
        "distance_elbow_joint": 0.44941267049186795,
        "distance_shoulder_lift_joint": 0.23288800974168367,
        "distance_shoulder_pan_joint": 0.4618494530076671,
        "distance_wrist_1_joint": 0.24153121066236893,
        "distance_wrist_2_joint": 1.094382684442639,
        "distance_wrist_3_joint": 0.09669988161337528,
        "smoothness": 1.1102230279970742e-15,
        "time": 5.001050238,
        "traj_len": 1.6052301735139425,
        "weighted_distance": 2.0263458659102005
    },
    "planner": "RRTstar",
    "start": {
        "state": {
            "elbow_joint": 1.9715477243005601,
            "shoulder_lift_joint": -1.1394853015351272,
            "shoulder_pan_joint": 0.12281154014795169,
            "wrist_1_joint": -0.7804696478968182,
            "wrist_2_joint": 0.12958648046900423,
            "wrist_3_joint": -3.192491284697111
        }
    },
    "waypoints": [
        {
            "positions": [
                0.12281154014795169,
                -1.1394853015351272,
                1.9715477243005601,
                -0.7804696478968182,
                0.12958648046900423,
                -3.192491284697111
            ]
        },
        {
            "positions": [
                0.0568330468611421,
                -1.1727550172125105,
                2.035749534370827,
                -0.8149741065628708,
                0.2859268639608098,
                -3.1786770158952002
            ]
        },
        {
            "positions": [
                -0.009145446425667489,
                -1.2060247328898939,
                2.0999513444410938,
                -0.8494785652289236,
                0.44226724745261536,
                -3.1648627470932897
            ]
        },
        {
            "positions": [
                -0.07512393971247706,
                -1.2392944485672772,
                2.164153154511361,
                -0.8839830238949763,
                0.5986076309444209,
                -3.151048478291379
            ]
        },
        {
            "positions": [
                -0.14110243299928665,
                -1.2725641642446606,
                2.2283549645816274,
                -0.918487482561029,
                0.7549480144362265,
                -3.1372342094894683
            ]
        },
        {
            "positions": [
                -0.20708092628609626,
                -1.3058338799220441,
                2.2925567746518944,
                -0.9529919412270818,
                0.9112883979280321,
                -3.1234199406875574
            ]
        },
        {
            "positions": [
                -0.2730594195729058,
                -1.3391035955994275,
                2.356758584722161,
                -0.9874963998931343,
                1.0676287814198377,
                -3.109605671885647
            ]
        },
        {
            "positions": [
                -0.3390379128597154,
                -1.3723733112768108,
                2.420960394792428,
                -1.022000858559187,
                1.2239691649116433,
                -3.095791403083736
            ]
        }
    ]
}