{
    "goal": {
        "global_pose": {
            "orientation": {
                "w": 0.7047431468963623,
                "x": -0.7094548344612122,
                "y": 0.0024358443915843964,
                "z": -0.0022348060738295317
            },
            "position": {
                "x": 0.6094750761985779,
                "y": 0.3671506643295288,
                "z": 0.19426114857196808
            }
        },
        "name": "move_to_magneteinheit_A"
    },
    "id": "RRTstar_move_to_magneteinheit_A_63",
    "joint_names": [
        "shoulder_pan_joint",
        "shoulder_lift_joint",
        "elbow_joint",
        "wrist_1_joint",
        "wrist_2_joint",
        "wrist_3_joint"
    ],
    "metrics": {
        "cart_traj_len": 3.598688750392538,
        "distance_elbow_joint": 3.9111427336895197,
        "distance_shoulder_lift_joint": 0.6895312850088585,
        "distance_shoulder_pan_joint": 3.459854520174146,
        "distance_wrist_1_joint": 3.4583299836662404,
        "distance_wrist_2_joint": 1.668358307330434,
        "distance_wrist_3_joint": 0.43406509357577194,
        "smoothness": 0.2664857050389246,
        "time": 5.020189814999999,
        "traj_len": 3.6907020908554746,
        "weighted_distance": 4.429006705977447
    },
    "planner": "RRTstar",
    "start": {
        "state": {
            "elbow_joint": -1.919618573717145,
            "shoulder_lift_joint": -1.2443395971678275,
            "shoulder_pan_joint": 2.6996025300909787,
            "wrist_1_joint": -1.548550951253194,
            "wrist_2_joint": -1.5709469090946802,
            "wrist_3_joint": 0.4420197732051276
        }
    },
    "waypoints": [
        {
            "positions": [
                2.6996025300909787,
                -1.2443395971678275,
                -1.919618573717145,
                -1.548550951253194,
                -1.5709469090946802,
                0.4420197732051276
            ]
        },
        {
            "positions": [
                2.609371889246217,
                -1.250149707251517,
                -1.8682986539140611,
                -1.3924404856301154,
                -1.4905519288723408,
                0.44165693693035696
            ]
        },
        {
            "positions": [
                2.519141248401455,
                -1.2559598173352065,
                -1.8169787341109775,
                -1.2363300200070364,
                -1.4101569486500012,
                0.4412941006555863
            ]
        },
        {
            "positions": [
                2.428910607556693,
                -1.261769927418896,
                -1.7656588143078937,
                -1.0802195543839577,
                -1.3297619684276618,
                0.44093126438081565
            ]
        },
        {
            "positions": [
                2.338679966711931,
                -1.2675800375025854,
                -1.7143388945048101,
                -0.9241090887608788,
                -1.2493669882053224,
                0.44056842810604496
            ]
        },
        {
            "positions": [
                2.248449325867169,
                -1.273390147586275,
                -1.6630189747017263,
                -0.7679986231378,
                -1.1689720079829828,
                0.44020559183127433
            ]
        },
        {
            "positions": [
                2.1582186850224074,
                -1.2792002576699644,
                -1.6116990548986427,
                -0.6118881575147211,
                -1.0885770277606435,
                0.43984275555650365
            ]
        },
        {
            "positions": [
                2.0679880441776453,
                -1.285010367753654,
                -1.560379135095559,
                -0.4557776918916423,
                -1.008182047538304,
                0.439479919281733
            ]
        },
        {
            "positions": [
                1.9777574033328835,
                -1.2908204778373435,
                -1.509059215292475,
                -0.29966722626856357,
                -0.9277870673159646,
                0.4391170830069624
            ]
        },
        {
            "positions": [
                1.8875267624881213,
                -1.296630587921033,
                -1.4577392954893915,
                -0.14355676064548462,
                -0.8473920870936251,
                0.4387542467321917
            ]
        },
        {
            "positions": [
                1.7972961216433596,
                -1.3024406980047225,
                -1.4064193756863077,
                0.012553704977594116,
                -0.7669971068712856,
                0.4383914104574211
            ]
        },
        {
            "positions": [
                1.7070654807985977,
                -1.3082508080884119,
                -1.3550994558832241,
                0.16866417060067285,
                -0.6866021266489463,
                0.4380285741826504
            ]
        },
        {
            "positions": [
                1.6168348399538357,
                -1.3140609181721015,
                -1.3037795360801403,
                0.32477463622375186,
                -0.6062071464266068,
                0.43766573790787977
            ]
        },
        {
            "positions": [
                1.5092816490915477,
                -1.2819109718769206,
                -1.161080617857663,
                0.3800756468911146,
                -0.5736588297729918,
                0.4181297472876207
            ]
        },
        {
            "positions": [
                1.4017284582292595,
                -1.2497610255817397,
                -1.0183816996351855,
                0.43537665755847743,
                -0.5411105131193767,
                0.39859375666736163
            ]
        },
        {
            "positions": [
                1.2941752673669715,
                -1.217611079286559,
                -0.8756827814127082,
                0.4906776682258402,
                -0.5085621964657616,
                0.37905776604710256
            ]
        },
        {
            "positions": [
                1.1866220765046833,
                -1.1854611329913782,
                -0.7329838631902307,
                0.545978678893203,
                -0.47601387981214666,
                0.3595217754268435
            ]
        },
        {
            "positions": [
                1.0790688856423953,
                -1.1533111866961974,
                -0.5902849449677533,
                0.6012796895605658,
                -0.4434655631585316,
                0.3399857848065845
            ]
        },
        {
            "positions": [
                0.9715156947801074,
                -1.1211612404010165,
                -0.4475860267452759,
                0.6565807002279285,
                -0.41091724650491657,
                0.3204497941863254
            ]
        },
        {
            "positions": [
                0.8639625039178191,
                -1.0890112941058356,
                -0.30488710852279843,
                0.7118817108952913,
                -0.37836892985130155,
                0.30091380356606634
            ]
        },
        {
            "positions": [
                0.7564093130555312,
                -1.056861347810655,
                -0.16218819030032106,
                0.7671827215626541,
                -0.34582061319768653,
                0.28137781294580727
            ]
        },
        {
            "positions": [
                0.6488561221932431,
                -1.0247114015154741,
                -0.019489272077843678,
                0.8224837322300169,
                -0.31327229654407146,
                0.2618418223255482
            ]
        },
        {
            "positions": [
                0.541302931330955,
                -0.9925614552202933,
                0.1232096461446337,
                0.8777847428973797,
                -0.2807239798904564,
                0.24230583170528913
            ]
        },
        {
            "positions": [
                0.43374974046866677,
                -0.9604115089251124,
                0.2659085643671113,
                0.9330857535647425,
                -0.24817566323684137,
                0.22276984108503006
            ]
        },
        {
            "positions": [
                0.326196549606379,
                -0.9282615626299316,
                0.40860748258958846,
                0.9883867642321051,
                -0.21562734658322635,
                0.20323385046477102
            ]
        },
        {
            "positions": [
                0.2186433587440908,
                -0.8961116163347508,
                0.5513064008120658,
                1.043687774899468,
                -0.18307902992961134,
                0.18369785984451198
            ]
        },
        {
            "positions": [
                0.11109016788180259,
                -0.86396167003957,
                0.6940053190345434,
                1.0989887855668308,
                -0.15053071327599626,
                0.16416186922425285
            ]
        },
        {
            "positions": [
                0.003536977019514609,
                -0.8318117237443892,
                0.8367042372570208,
                1.1542897962341936,
                -0.11798239662238125,
                0.14462587860399378
            ]
        },
        {
            "positions": [
                -0.10401621384277338,
                -0.7996617774492083,
                0.9794031554794982,
                1.2095908069015562,
                -0.08543407996876629,
                0.12508988798373477
            ]
        },
        {
            "positions": [
                -0.21156940470506136,
                -0.7675118311540275,
                1.1221020737019756,
                1.264891817568919,
                -0.05288576331515116,
                0.1055538973634757
            ]
        },
        {
            "positions": [
                -0.3191225955673495,
                -0.7353618848588467,
                1.264800991924453,
                1.3201928282362818,
                -0.02033744666153614,
                0.08601790674321663
            ]
        },
        {
            "positions": [
                -0.24560102981471307,
                -0.7422137066407349,
                1.3859215199324402,
                1.418457195599076,
                -0.039962254144417626,
                0.07300736889090645
            ]
        },
        {
            "positions": [
                -0.17207946406207664,
                -0.7490655284226233,
                1.5070420479404274,
                1.5167215629618698,
                -0.05958706162729911,
                0.05999683103859628
            ]
        },
        {
            "positions": [
                -0.09855789830944017,
                -0.7559173502045116,
                1.6281625759484144,
                1.6149859303246639,
                -0.0792118691101806,
                0.046986293186286096
            ]
        },
        {
            "positions": [
                -0.025036332556803764,
                -0.7627691719863998,
                1.7492831039564016,
                1.7132502976874577,
                -0.09883667659306208,
                0.03397575533397592
            ]
        },
        {
            "positions": [
                0.048485233195832755,
                -0.7696209937682882,
                1.8704036319643889,
                1.811514665050252,
                -0.11846148407594359,
                0.02096521748166573
            ]
        },
        {
            "positions": [
                0.12200679894846916,
                -0.7764728155501764,
                1.991524159972376,
                1.909779032413046,
                -0.13808629155882507,
                0.007954679629355556
            ]
        }
    ]
}{
    "goal": {
        "global_pose": {
            "orientation": {
                "w": 0.7047431468963623,
                "x": -0.7094548344612122,
                "y": 0.0024358443915843964,
                "z": -0.0022348060738295317
            },
            "position": {
                "x": 0.6094750761985779,
                "y": 0.3671506643295288,
                "z": 0.19426114857196808
            }
        },
        "name": "move_to_magneteinheit_A"
    },
    "id": "RRTstar_move_to_magneteinheit_A_63",
    "joint_names": [
        "shoulder_pan_joint",
        "shoulder_lift_joint",
        "elbow_joint",
        "wrist_1_joint",
        "wrist_2_joint",
        "wrist_3_joint"
    ],
    "metrics": {
        "cart_traj_len": 1.1949263437519035,
        "distance_elbow_joint": 0.1452912980029446,
        "distance_shoulder_lift_joint": 0.7509000148619112,
        "distance_shoulder_pan_joint": 1.2406455503221412,
        "distance_wrist_1_joint": 0.7378569973672406,
        "distance_wrist_2_joint": 1.4516354135556746,
        "distance_wrist_3_joint": 4.234366804104251,
        "smoothness": 0.021674979800616306,
        "time": 5.0361695410000005,
        "traj_len": 2.925866722565155,
        "weighted_distance": 4.3839391073948075
    },
    "planner": "RRTstar",
    "start": {
        "state": {
            "elbow_joint": 1.919643534880228,
            "shoulder_lift_joint": -1.8972525353963687,
            "shoulder_pan_joint": -1.1188672234189438,
            "wrist_1_joint": -1.5931878212786155,
            "wrist_2_joint": 1.5706036197970081,
            "wrist_3_joint": 1.118896926603594
        }
    },
    "waypoints": [
        {
            "positions": [
                -1.1188672234189438,
                -1.8972525353963687,
                1.919643534880228,
                -1.5931878212786155,
                1.5706036197970081,
                1.118896926603594
            ]
        },
        {
            "positions": [
                -1.0616672104188223,
                -1.8613019394343513,
                1.9254902515181547,
                -1.5679496894960927,
                1.4986152844795517,
                0.9191908152270989
            ]
        },
        {
            "positions": [
                -1.0044671974187007,
                -1.8253513434723339,
                1.9313369681560815,
                -1.5427115577135702,
                1.4266269491620955,
                0.7194847038506038
            ]
        },
        {
            "positions": [
                -0.9472671844185793,
                -1.7894007475103164,
                1.937183684794008,
                -1.5174734259310474,
                1.3546386138446391,
                0.5197785924741087
            ]
        },
        {
            "positions": [
                -0.8900671714184578,
                -1.7534501515482992,
                1.9430304014319346,
                -1.4922352941485246,
                1.2826502785271827,
                0.32007248109761366
            ]
        },
        {
            "positions": [
                -0.8328671584183363,
                -1.7174995555862818,
                1.9488771180698612,
                -1.4669971623660019,
                1.2106619432097263,
                0.12036636972111858
            ]
        },
        {
            "positions": [
                -0.7756671454182147,
                -1.6815489596242643,
                1.954723834707788,
                -1.4417590305834793,
                1.1386736078922701,
                -0.0793397416553765
            ]
        },
        {
            "positions": [
                -0.7184671324180931,
                -1.6455983636622469,
                1.9605705513457146,
                -1.4165208988009566,
                1.0666852725748137,
                -0.27904585303187157
            ]
        },
        {
            "positions": [
                -0.6612671194179717,
                -1.6096477677002294,
                1.9664172679836411,
                -1.3912827670184338,
                0.9946969372573574,
                -0.47875196440836665
            ]
        },
        {
            "positions": [
                -0.6040671064178501,
                -1.5736971717382122,
                1.9722639846215677,
                -1.366044635235911,
                0.922708601939901,
                -0.6784580757848617
            ]
        },
        {
            "positions": [
                -0.5468670934177285,
                -1.5377465757761946,
                1.9781107012594945,
                -1.3408065034533885,
                0.8507202666224446,
                -0.8781641871613568
            ]
        },
        {
            "positions": [
                -0.489667080417607,
                -1.5017959798141773,
                1.983957417897421,
                -1.3155683716708657,
                0.7787319313049883,
                -1.0778702985378519
            ]
        },
        {
            "positions": [
                -0.43246706741748553,
                -1.46584538385216,
                1.9898041345353477,
                -1.290330239888343,
                0.706743595987532,
                -1.277576409914347
            ]
        },
        {
            "positions": [
                -0.37526705441736397,
                -1.4298947878901425,
                1.9956508511732745,
                -1.2650921081058204,
                0.6347552606700756,
                -1.477282521290842
            ]
        },
        {
            "positions": [
                -0.3180670414172425,
                -1.3939441919281252,
                2.001497567811201,
                -1.2398539763232976,
                0.5627669253526193,
                -1.676988632667337
            ]
        },
        {
            "positions": [
                -0.26086702841712095,
                -1.3579935959661076,
                2.0073442844491276,
                -1.2146158445407749,
                0.4907785900351629,
                -1.8766947440438322
            ]
        },
        {
            "positions": [
                -0.2036670154169995,
                -1.3220430000040904,
                2.0131910010870544,
                -1.1893777127582523,
                0.4187902547177067,
                -2.076400855420327
            ]
        },
        {
            "positions": [
                -0.14646700241687793,
                -1.286092404042073,
                2.0190377177249808,
                -1.1641395809757296,
                0.3468019194002503,
                -2.2761069667968226
            ]
        },
        {
            "positions": [
                -0.08926698941675643,
                -1.2501418080800555,
                2.0248844343629075,
                -1.1389014491932068,
                0.2748135840827939,
                -2.475813078173317
            ]
        },
        {
            "positions": [
                -0.03650566033676799,
                -1.224194486193656,
                2.0148718347328414,
                -1.0680087928727489,
                0.23585223962242885,
                -2.6357272780051524
            ]
        },
        {
            "positions": [
                0.016255668743220444,
                -1.1982471643072565,
                2.004859235102775,
                -0.9971161365522908,
                0.19689089516206382,
                -2.7956414778369876
            ]
        },
        {
            "positions": [
                0.06901699782320889,
                -1.172299842420857,
                1.9948466354727086,
                -0.9262234802318328,
                0.15792955070169878,
                -2.9555556776688223
            ]
        },
        {
            "positions": [
                0.12177832690319731,
                -1.1463525205344576,
                1.9848340358426424,
                -0.8553308239113748,
                0.11896820624133375,
                -3.1154698775006575
            ]
        }
    ]
}