{
    "goal": {
        "global_pose": {
            "orientation": {
                "w": 0.7047431468963623,
                "x": -0.7094548344612122,
                "y": 0.0024358443915843964,
                "z": -0.0022348060738295317
            },
            "position": {
                "x": 0.6094750761985779,
                "y": 0.3671506643295288,
                "z": 0.19426114857196808
            }
        },
        "name": "move_to_magneteinheit_A"
    },
    "id": "RRTstar_move_to_magneteinheit_A_68",
    "joint_names": [
        "shoulder_pan_joint",
        "shoulder_lift_joint",
        "elbow_joint",
        "wrist_1_joint",
        "wrist_2_joint",
        "wrist_3_joint"
    ],
    "metrics": {
        "cart_traj_len": 1.223613876955029,
        "distance_elbow_joint": 0.040497537315545395,
        "distance_shoulder_lift_joint": 0.7635740090508316,
        "distance_shoulder_pan_joint": 1.2409943827653689,
        "distance_wrist_1_joint": 0.8649316872232485,
        "distance_wrist_2_joint": 1.4444222625445824,
        "distance_wrist_3_joint": 4.349262793795612,
        "smoothness": 2.2204460487685902e-16,
        "time": 5.0191649400000005,
        "traj_len": 2.95020044618924,
        "weighted_distance": 4.439770513219601
    },
    "planner": "RRTstar",
    "start": {
        "state": {
            "elbow_joint": 1.919643534880228,
            "shoulder_lift_joint": -1.8972525353963687,
            "shoulder_pan_joint": -1.1188672234189438,
            "wrist_1_joint": -1.5931878212786155,
            "wrist_2_joint": 1.5706036197970081,
            "wrist_3_joint": 1.118896926603594
        }
    },
    "waypoints": [
        {
            "positions": [
                -1.1188672234189438,
                -1.8972525353963687,
                1.919643534880228,
                -1.5931878212786155,
                1.5706036197970081,
                1.118896926603594
            ]
        },
        {
            "positions": [
                -1.0619990476925731,
                -1.8603514162842716,
                1.9207823911349757,
                -1.5550019601945881,
                1.504551275432055,
                0.922506242312096
            ]
        },
        {
            "positions": [
                -1.0051308719662022,
                -1.8234502971721747,
                1.9219212473897234,
                -1.5168160991105608,
                1.438498931067102,
                0.7261155580205979
            ]
        },
        {
            "positions": [
                -0.9482626962398315,
                -1.7865491780600775,
                1.923060103644471,
                -1.4786302380265335,
                1.3724465867021487,
                0.5297248737290999
            ]
        },
        {
            "positions": [
                -0.8913945205134608,
                -1.7496480589479804,
                1.9241989598992186,
                -1.440444376942506,
                1.3063942423371955,
                0.33333418943760185
            ]
        },
        {
            "positions": [
                -0.8345263447870901,
                -1.7127469398358834,
                1.9253378161539663,
                -1.4022585158584788,
                1.2403418979722425,
                0.13694350514610387
            ]
        },
        {
            "positions": [
                -0.7776581690607193,
                -1.6758458207237863,
                1.926476672408714,
                -1.3640726547744513,
                1.1742895536072893,
                -0.0594471791453941
            ]
        },
        {
            "positions": [
                -0.7207899933343485,
                -1.6389447016116891,
                1.9276155286634615,
                -1.3258867936904242,
                1.1082372092423363,
                -0.2558378634368921
            ]
        },
        {
            "positions": [
                -0.6639218176079777,
                -1.602043582499592,
                1.9287543849182092,
                -1.2877009326063966,
                1.0421848648773828,
                -0.4522285477283903
            ]
        },
        {
            "positions": [
                -0.6070536418816069,
                -1.565142463387495,
                1.9298932411729568,
                -1.2495150715223693,
                0.9761325205124298,
                -0.6486192320198882
            ]
        },
        {
            "positions": [
                -0.5501854661552362,
                -1.528241344275398,
                1.9310320974277044,
                -1.211329210438342,
                0.9100801761474767,
                -0.8450099163113862
            ]
        },
        {
            "positions": [
                -0.4933172904288654,
                -1.4913402251633008,
                1.932170953682452,
                -1.1731433493543146,
                0.8440278317825235,
                -1.0414006006028844
            ]
        },
        {
            "positions": [
                -0.4364491147024947,
                -1.4544391060512039,
                1.9333098099371997,
                -1.1349574882702873,
                0.7779754874175705,
                -1.2377912848943822
            ]
        },
        {
            "positions": [
                -0.3795809389761239,
                -1.4175379869391067,
                1.9344486661919473,
                -1.0967716271862598,
                0.7119231430526173,
                -1.4341819691858804
            ]
        },
        {
            "positions": [
                -0.3227127632497532,
                -1.3806368678270098,
                1.935587522446695,
                -1.0585857661022327,
                0.6458707986876642,
                -1.6305726534773781
            ]
        },
        {
            "positions": [
                -0.26584458752338236,
                -1.3437357487149124,
                1.9367263787014426,
                -1.020399905018205,
                0.579818454322711,
                -1.8269633377688763
            ]
        },
        {
            "positions": [
                -0.20897641179701165,
                -1.3068346296028155,
                1.9378652349561902,
                -0.9822140439341778,
                0.5137661099577577,
                -2.0233540220603743
            ]
        },
        {
            "positions": [
                -0.15210823607064095,
                -1.2699335104907183,
                1.9390040912109379,
                -0.9440281828501506,
                0.44771376559280474,
                -2.2197447063518725
            ]
        },
        {
            "positions": [
                -0.09524006034427002,
                -1.2330323913786212,
                1.9401429474656855,
                -0.9058423217661231,
                0.3816614212278515,
                -2.4161353906433707
            ]
        },
        {
            "positions": [
                -0.03837188461789931,
                -1.1961312722665243,
                1.9412818037204331,
                -0.8676564606820959,
                0.3156090768628985,
                -2.612526074934868
            ]
        },
        {
            "positions": [
                0.018496291108471383,
                -1.1592301531544271,
                1.9424206599751808,
                -0.8294705995980685,
                0.2495567324979453,
                -2.808916759226366
            ]
        },
        {
            "positions": [
                0.05303991385445596,
                -1.1507129442181305,
                1.9483274640487116,
                -0.795732444417168,
                0.2084316074161054,
                -2.949399795214917
            ]
        },
        {
            "positions": [
                0.08758353660044053,
                -1.1421957352818337,
                1.9542342681222427,
                -0.7619942892362674,
                0.16730648233426548,
                -3.089882831203468
            ]
        },
        {
            "positions": [
                0.12212715934642512,
                -1.1336785263455371,
                1.9601410721957735,
                -0.7282561340553669,
                0.12618135725242555,
                -3.230365867192019
            ]
        }
    ]
}