{
    "goal": {
        "global_pose": {
            "orientation": {
                "w": 0.5084816217422485,
                "x": -0.49083608388900757,
                "y": 0.5182115435600281,
                "z": -0.4816462993621826
            },
            "position": {
                "x": 0.5540239810943604,
                "y": 0.030875300988554955,
                "z": 0.16403168439865112
            }
        },
        "name": "move_to_storage_A"
    },
    "id": "RRTstar_move_to_storage_A_131",
    "joint_names": [
        "shoulder_pan_joint",
        "shoulder_lift_joint",
        "elbow_joint",
        "wrist_1_joint",
        "wrist_2_joint",
        "wrist_3_joint"
    ],
    "metrics": {
        "cart_traj_len": 0.35349483505166085,
        "distance_elbow_joint": 0.4506465039436982,
        "distance_shoulder_lift_joint": 0.23432875460697544,
        "distance_shoulder_pan_joint": 0.46466150720398924,
        "distance_wrist_1_joint": 0.24146325678074343,
        "distance_wrist_2_joint": 1.0896198327229119,
        "distance_wrist_3_joint": 0.09313944051375644,
        "smoothness": 4.440892098500626e-16,
        "time": 5.000941478,
        "traj_len": 1.6043251839237813,
        "weighted_distance": 2.0226767577404066
    },
    "planner": "RRTstar",
    "start": {
        "state": {
            "elbow_joint": 1.9715477243005601,
            "shoulder_lift_joint": -1.1394853015351272,
            "shoulder_pan_joint": 0.12281154014795169,
            "wrist_1_joint": -0.7804696478968182,
            "wrist_2_joint": 0.12958648046900423,
            "wrist_3_joint": -3.192491284697111
        }
    },
    "waypoints": [
        {
            "positions": [
                0.12281154014795169,
                -1.1394853015351272,
                1.9715477243005601,
                -0.7804696478968182,
                0.12958648046900423,
                -3.192491284697111
            ]
        },
        {
            "positions": [
                0.05643132483309608,
                -1.1729608379075522,
                2.035925796292517,
                -0.8149643988654958,
                0.2852464565722773,
                -3.179185650338003
            ]
        },
        {
            "positions": [
                -0.009948890481759523,
                -1.2064363742799773,
                2.100303868284474,
                -0.8494591498341735,
                0.44090643267555046,
                -3.165880015978895
            ]
        },
        {
            "positions": [
                -0.07632910579661513,
                -1.2399119106524024,
                2.164681940276431,
                -0.8839539008028511,
                0.5965664087788236,
                -3.152574381619787
            ]
        },
        {
            "positions": [
                -0.14270932111147072,
                -1.2733874470248274,
                2.2290600122683877,
                -0.9184486517715287,
                0.7522263848820967,
                -3.139268747260679
            ]
        },
        {
            "positions": [
                -0.20908953642632633,
                -1.3068629833972525,
                2.2934380842603446,
                -0.9529434027402064,
                0.9078863609853699,
                -3.125963112901571
            ]
        },
        {
            "positions": [
                -0.27546975174118193,
                -1.3403385197696775,
                2.3578161562523015,
                -0.9874381537088839,
                1.0635463370886429,
                -3.112657478542463
            ]
        },
        {
            "positions": [
                -0.34184996705603754,
                -1.3738140561421026,
                2.4221942282442583,
                -1.0219329046775616,
                1.2192063131919162,
                -3.0993518441833547
            ]
        }
    ]
}