{
    "goal": {
        "global_pose": {
            "orientation": {
                "w": 0.7047431468963623,
                "x": -0.7094548344612122,
                "y": 0.0024358443915843964,
                "z": -0.0022348060738295317
            },
            "position": {
                "x": 0.6094750761985779,
                "y": 0.3671506643295288,
                "z": 0.19426114857196808
            }
        },
        "name": "move_to_magneteinheit_A"
    },
    "id": "RRTstar_move_to_magneteinheit_A_119",
    "joint_names": [
        "shoulder_pan_joint",
        "shoulder_lift_joint",
        "elbow_joint",
        "wrist_1_joint",
        "wrist_2_joint",
        "wrist_3_joint"
    ],
    "metrics": {
        "cart_traj_len": 3.733733258475436,
        "distance_elbow_joint": 4.755465056701,
        "distance_shoulder_lift_joint": 1.468647649537206,
        "distance_shoulder_pan_joint": 3.302677522082855,
        "distance_wrist_1_joint": 1.4878563281874797,
        "distance_wrist_2_joint": 2.1848024327896667,
        "distance_wrist_3_joint": 3.8699252160056425,
        "smoothness": 0.5836472049253884,
        "time": 5.018886247,
        "traj_len": 4.131509918335408,
        "weighted_distance": 5.336842081071192
    },
    "planner": "RRTstar",
    "start": {
        "state": {
            "elbow_joint": -1.919618573717145,
            "shoulder_lift_joint": -1.2443395971678275,
            "shoulder_pan_joint": 2.6996025300909787,
            "wrist_1_joint": -1.548550951253194,
            "wrist_2_joint": -1.5709469090946802,
            "wrist_3_joint": 0.4420197732051276
        }
    },
    "waypoints": [
        {
            "positions": [
                2.6996025300909787,
                -1.2443395971678275,
                -1.919618573717145,
                -1.548550951253194,
                -1.5709469090946802,
                0.4420197732051276
            ]
        },
        {
            "positions": [
                2.5840287105313084,
                -1.2395307792096808,
                -1.8136547693119258,
                -1.5456789016472934,
                -1.5120015305619823,
                0.3345366137139533
            ]
        },
        {
            "positions": [
                2.468454890971638,
                -1.2347219612515343,
                -1.707690964906707,
                -1.5428068520413927,
                -1.4530561520292844,
                0.2270534542227791
            ]
        },
        {
            "positions": [
                2.352881071411968,
                -1.2299131432933876,
                -1.6017271605014878,
                -1.5399348024354917,
                -1.3941107734965865,
                0.11957029473160491
            ]
        },
        {
            "positions": [
                2.2373072518522976,
                -1.225104325335241,
                -1.4957633560962686,
                -1.537062752829591,
                -1.3351653949638886,
                0.012087135240430591
            ]
        },
        {
            "positions": [
                2.1217334322926273,
                -1.2202955073770945,
                -1.3897995516910497,
                -1.5341907032236903,
                -1.2762200164311908,
                -0.09539602425074362
            ]
        },
        {
            "positions": [
                2.006159612732957,
                -1.2154866894189478,
                -1.2838357472858308,
                -1.5313186536177896,
                -1.2172746378984929,
                -0.20287918374191777
            ]
        },
        {
            "positions": [
                1.8905857931732868,
                -1.210677871460801,
                -1.1778719428806115,
                -1.528446604011889,
                -1.158329259365795,
                -0.31036234323309214
            ]
        },
        {
            "positions": [
                1.7750119736136163,
                -1.2058690535026546,
                -1.0719081384753926,
                -1.5255745544059882,
                -1.0993838808330971,
                -0.4178455027242664
            ]
        },
        {
            "positions": [
                1.659438154053946,
                -1.201060235544508,
                -0.9659443340701734,
                -1.5227025048000873,
                -1.0404385023003995,
                -0.5253286622154407
            ]
        },
        {
            "positions": [
                1.5438643344942757,
                -1.1962514175863612,
                -0.8599805296649545,
                -1.5198304551941866,
                -0.9814931237677015,
                -0.6328118217066148
            ]
        },
        {
            "positions": [
                1.4282905149346055,
                -1.1914425996282145,
                -0.7540167252597354,
                -1.5169584055882859,
                -0.9225477452350036,
                -0.740294981197789
            ]
        },
        {
            "positions": [
                1.3127166953749352,
                -1.186633781670068,
                -0.6480529208545165,
                -1.5140863559823852,
                -0.8636023667023058,
                -0.8477781406889631
            ]
        },
        {
            "positions": [
                1.1971428758152647,
                -1.1818249637119214,
                -0.5420891164492971,
                -1.5112143063764845,
                -0.8046569881696078,
                -0.9552613001801376
            ]
        },
        {
            "positions": [
                1.0815690562555946,
                -1.1770161457537747,
                -0.43612531204407823,
                -1.5083422567705835,
                -0.74571160963691,
                -1.0627444596713118
            ]
        },
        {
            "positions": [
                0.9659952366959244,
                -1.1722073277956282,
                -0.3301615076388593,
                -1.5054702071646828,
                -0.6867662311042122,
                -1.1702276191624859
            ]
        },
        {
            "positions": [
                0.8504214171362539,
                -1.1673985098374815,
                -0.2241977032336402,
                -1.5025981575587821,
                -0.6278208525715142,
                -1.2777107786536603
            ]
        },
        {
            "positions": [
                0.7348475975765838,
                -1.1625896918793348,
                -0.11823389882842106,
                -1.4997261079528814,
                -0.5688754740388164,
                -1.3851939381448344
            ]
        },
        {
            "positions": [
                0.6192737780169133,
                -1.1577808739211883,
                -0.012270094423201927,
                -1.4968540583469807,
                -0.5099300955061186,
                -1.4926770976360089
            ]
        },
        {
            "positions": [
                0.503699958457243,
                -1.1529720559630416,
                0.09369370998201698,
                -1.49398200874108,
                -0.4509847169734207,
                -1.600160257127183
            ]
        },
        {
            "positions": [
                0.38812613889757275,
                -1.148163238004895,
                0.1996575143872359,
                -1.491109959135179,
                -0.3920393384407228,
                -1.7076434166183572
            ]
        },
        {
            "positions": [
                0.27255231933790247,
                -1.1433544200467485,
                0.30562131879245524,
                -1.4882379095292784,
                -0.33309395990802493,
                -1.8151265761095314
            ]
        },
        {
            "positions": [
                0.1569784997782322,
                -1.1385456020886018,
                0.41158512319767415,
                -1.4853658599233777,
                -0.27414858137532705,
                -1.9226097356007057
            ]
        },
        {
            "positions": [
                0.1321506334544823,
                -1.1813195008105304,
                0.5363840084124459,
                -1.4202896254670652,
                -0.23371516541003656,
                -2.0079566431165192
            ]
        },
        {
            "positions": [
                0.10732276713073238,
                -1.2240933995324592,
                0.6611828936272176,
                -1.3552133910107529,
                -0.19328174944474608,
                -2.0933035506323328
            ]
        },
        {
            "positions": [
                0.08249490080698248,
                -1.2668672982543878,
                0.7859817788419894,
                -1.2901371565544404,
                -0.15284833347945562,
                -2.1786504581481463
            ]
        },
        {
            "positions": [
                0.05766703448323257,
                -1.3096411969763166,
                0.9107806640567611,
                -1.225060922098128,
                -0.11241491751416513,
                -2.2639973656639594
            ]
        },
        {
            "positions": [
                0.032839168159482665,
                -1.3524150956982453,
                1.035579549271533,
                -1.1599846876418156,
                -0.07198150154887464,
                -2.349344273179773
            ]
        },
        {
            "positions": [
                0.00801130183573276,
                -1.3951889944201739,
                1.1603784344863046,
                -1.0949084531855031,
                -0.031548085583584184,
                -2.4346911806955864
            ]
        },
        {
            "positions": [
                -0.01681656448801716,
                -1.4379628931421027,
                1.2851773197010763,
                -1.0298322187291906,
                0.008885330381706302,
                -2.5200380882114
            ]
        },
        {
            "positions": [
                -0.04164443081176705,
                -1.4807367918640313,
                1.4099762049158482,
                -0.9647559842728782,
                0.04931874634699679,
                -2.6053849957272135
            ]
        },
        {
            "positions": [
                -0.06647229713551694,
                -1.52351069058596,
                1.5347750901306199,
                -0.8996797498165658,
                0.08975216231228728,
                -2.6907319032430266
            ]
        },
        {
            "positions": [
                -0.09130016345926686,
                -1.5662845893078887,
                1.6595739753453915,
                -0.8346035153602533,
                0.13018557827757776,
                -2.77607881075884
            ]
        },
        {
            "positions": [
                -0.11612802978301678,
                -1.6090584880298173,
                1.7843728605601632,
                -0.769527280903941,
                0.17061899424286825,
                -2.8614257182746536
            ]
        },
        {
            "positions": [
                -0.14095589610676668,
                -1.651832386751746,
                1.909171745774935,
                -0.7044510464476286,
                0.21105241020815868,
                -2.946772625790467
            ]
        },
        {
            "positions": [
                -0.16578376243051657,
                -1.6946062854736748,
                2.0339706309897068,
                -0.6393748119913161,
                0.25148582617344917,
                -3.0321195333062807
            ]
        },
        {
            "positions": [
                -0.19061162875426652,
                -1.7373801841956034,
                2.1587695162044787,
                -0.5742985775350037,
                0.29191924213873965,
                -3.117466440822094
            ]
        },
        {
            "positions": [
                -0.2154394950780164,
                -1.780154082917532,
                2.2835684014192505,
                -0.5092223430786912,
                0.33235265810403014,
                -3.2028133483379073
            ]
        },
        {
            "positions": [
                -0.2402673614017663,
                -1.8229279816394608,
                2.408367286634022,
                -0.4441461086223788,
                0.3727860740693206,
                -3.288160255853721
            ]
        },
        {
            "positions": [
                -0.17979942297008086,
                -1.7098494358216072,
                2.33712075390905,
                -0.5080546895484895,
                0.33260783246504283,
                -3.2648693913625886
            ]
        },
        {
            "positions": [
                -0.11933148453839543,
                -1.5967708900037536,
                2.2658742211840783,
                -0.5719632704746002,
                0.29242959086076503,
                -3.2415785268714563
            ]
        },
        {
            "positions": [
                -0.05886354610670999,
                -1.4836923441859002,
                2.1946276884591063,
                -0.6358718514007109,
                0.25225134925648723,
                -3.218287662380324
            ]
        },
        {
            "positions": [
                0.0016043923249754455,
                -1.3706137983680466,
                2.1233811557341347,
                -0.6997804323268215,
                0.21207310765220944,
                -3.1949967978891913
            ]
        },
        {
            "positions": [
                0.06207233075666091,
                -1.257535252550193,
                2.0521346230091626,
                -0.7636890132529324,
                0.17189486604793164,
                -3.171705933398059
            ]
        },
        {
            "positions": [
                0.12254026918834633,
                -1.1444567067323395,
                1.9808880902841908,
                -0.827597594179043,
                0.13171662444365384,
                -3.148415068906927
            ]
        }
    ]
}{
    "goal": {
        "global_pose": {
            "orientation": {
                "w": 0.7047431468963623,
                "x": -0.7094548344612122,
                "y": 0.0024358443915843964,
                "z": -0.0022348060738295317
            },
            "position": {
                "x": 0.6094750761985779,
                "y": 0.3671506643295288,
                "z": 0.19426114857196808
            }
        },
        "name": "move_to_magneteinheit_A"
    },
    "id": "RRTstar_move_to_magneteinheit_A_119",
    "joint_names": [
        "shoulder_pan_joint",
        "shoulder_lift_joint",
        "elbow_joint",
        "wrist_1_joint",
        "wrist_2_joint",
        "wrist_3_joint"
    ],
    "metrics": {
        "cart_traj_len": 1.2381212478162824,
        "distance_elbow_joint": 0.16547383959722906,
        "distance_shoulder_lift_joint": 0.7496712168097166,
        "distance_shoulder_pan_joint": 1.2406184902678514,
        "distance_wrist_1_joint": 0.7402148859970006,
        "distance_wrist_2_joint": 1.446949869238721,
        "distance_wrist_3_joint": 4.238908087771605,
        "smoothness": 0.022016534439092395,
        "time": 5.015456873,
        "traj_len": 2.929477152954452,
        "weighted_distance": 4.387119478708216
    },
    "planner": "RRTstar",
    "start": {
        "state": {
            "elbow_joint": 1.919643534880228,
            "shoulder_lift_joint": -1.8972525353963687,
            "shoulder_pan_joint": -1.1188672234189438,
            "wrist_1_joint": -1.5931878212786155,
            "wrist_2_joint": 1.5706036197970081,
            "wrist_3_joint": 1.118896926603594
        }
    },
    "waypoints": [
        {
            "positions": [
                -1.1188672234189438,
                -1.8972525353963687,
                1.919643534880228,
                -1.5931878212786155,
                1.5706036197970081,
                1.118896926603594
            ]
        },
        {
            "positions": [
                -1.118520043877639,
                -1.88208214003789,
                1.9135338021969321,
                -1.5787531850656624,
                1.4733469389277432,
                0.8875764599584566
            ]
        },
        {
            "positions": [
                -1.118172864336334,
                -1.8669117446794112,
                1.907424069513636,
                -1.5643185488527096,
                1.3760902580584782,
                0.6562559933133193
            ]
        },
        {
            "positions": [
                -1.117825684795029,
                -1.8517413493209325,
                1.9013143368303398,
                -1.5498839126397566,
                1.2788335771892132,
                0.424935526668182
            ]
        },
        {
            "positions": [
                -1.1174785052537242,
                -1.8365709539624535,
                1.8952046041470438,
                -1.5354492764268035,
                1.1815768963199482,
                0.19361506002304463
            ]
        },
        {
            "positions": [
                -1.1171313257124194,
                -1.8214005586039748,
                1.8890948714637479,
                -1.5210146402138505,
                1.0843202154506832,
                -0.03770540662209276
            ]
        },
        {
            "positions": [
                -1.1167841461711143,
                -1.806230163245496,
                1.8829851387804517,
                -1.5065800040008974,
                0.9870635345814183,
                -0.26902587326722993
            ]
        },
        {
            "positions": [
                -1.1164369666298093,
                -1.7910597678870173,
                1.8768754060971555,
                -1.4921453677879446,
                0.8898068537121533,
                -0.5003463399123673
            ]
        },
        {
            "positions": [
                -1.1160897870885045,
                -1.7758893725285385,
                1.8707656734138596,
                -1.4777107315749916,
                0.7925501728428883,
                -0.7316668065575046
            ]
        },
        {
            "positions": [
                -1.0335670501593437,
                -1.7340021689324128,
                1.8785387386225836,
                -1.436061545155433,
                0.747957078023915,
                -0.8908897635315384
            ]
        },
        {
            "positions": [
                -0.9510443132301829,
                -1.692114965336287,
                1.8863118038313076,
                -1.3944123587358748,
                0.7033639832049415,
                -1.050112720505572
            ]
        },
        {
            "positions": [
                -0.8685215763010221,
                -1.6502277617401613,
                1.8940848690400316,
                -1.3527631723163163,
                0.6587708883859682,
                -1.209335677479606
            ]
        },
        {
            "positions": [
                -0.7859988393718613,
                -1.6083405581440355,
                1.9018579342487558,
                -1.3111139858967578,
                0.6141777935669948,
                -1.3685586344536396
            ]
        },
        {
            "positions": [
                -0.7034761024427005,
                -1.5664533545479098,
                1.9096309994574798,
                -1.2694647994771993,
                0.5695846987480214,
                -1.5277815914276736
            ]
        },
        {
            "positions": [
                -0.6209533655135396,
                -1.524566150951784,
                1.9174040646662038,
                -1.2278156130576408,
                0.524991603929048,
                -1.6870045484017073
            ]
        },
        {
            "positions": [
                -0.5384306285843788,
                -1.4826789473556583,
                1.9251771298749278,
                -1.1861664266380825,
                0.4803985091100746,
                -1.846227505375741
            ]
        },
        {
            "positions": [
                -0.45590789165521806,
                -1.4407917437595326,
                1.9329501950836518,
                -1.144517240218524,
                0.43580541429110126,
                -2.0054504623497746
            ]
        },
        {
            "positions": [
                -0.37338515472605727,
                -1.3989045401634068,
                1.9407232602923759,
                -1.1028680537989657,
                0.39121231947212787,
                -2.1646734193238086
            ]
        },
        {
            "positions": [
                -0.2908624177968965,
                -1.357017336567281,
                1.9484963255010999,
                -1.0612188673794072,
                0.3466192246531545,
                -2.323896376297842
            ]
        },
        {
            "positions": [
                -0.2083396808677357,
                -1.3151301329711553,
                1.9562693907098239,
                -1.0195696809598487,
                0.3020261298341811,
                -2.483119333271876
            ]
        },
        {
            "positions": [
                -0.1258169439385748,
                -1.2732429293750294,
                1.964042455918548,
                -0.9779204945402902,
                0.25743303501520765,
                -2.64234229024591
            ]
        },
        {
            "positions": [
                -0.043294207009414,
                -1.2313557257789036,
                1.971815521127272,
                -0.9362713081207318,
                0.2128399401962343,
                -2.8015652472199437
            ]
        },
        {
            "positions": [
                0.03922852991974679,
                -1.1894685221827779,
                1.979588586335996,
                -0.8946221217011733,
                0.16824684537726087,
                -2.9607882041939777
            ]
        },
        {
            "positions": [
                0.12175126684890768,
                -1.1475813185866521,
                1.98736165154472,
                -0.8529729352816149,
                0.1236537505582875,
                -3.1200111611680112
            ]
        }
    ]
}