{
    "goal": {
        "global_pose": {
            "orientation": {
                "w": 0.7047431468963623,
                "x": -0.7094548344612122,
                "y": 0.0024358443915843964,
                "z": -0.0022348060738295317
            },
            "position": {
                "x": 0.6094750761985779,
                "y": 0.3671506643295288,
                "z": 0.19426114857196808
            }
        },
        "name": "move_to_magneteinheit_A"
    },
    "id": "RRTstar_move_to_magneteinheit_A_98",
    "joint_names": [
        "shoulder_pan_joint",
        "shoulder_lift_joint",
        "elbow_joint",
        "wrist_1_joint",
        "wrist_2_joint",
        "wrist_3_joint"
    ],
    "metrics": {
        "cart_traj_len": 3.834902009283621,
        "distance_elbow_joint": 3.9095887929042563,
        "distance_shoulder_lift_joint": 0.5267092997095523,
        "distance_shoulder_pan_joint": 2.6928367173816516,
        "distance_wrist_1_joint": 3.4600754745805276,
        "distance_wrist_2_joint": 1.847516067183749,
        "distance_wrist_3_joint": 0.42012697590440173,
        "smoothness": 0.053599680275965636,
        "time": 5.014702402,
        "traj_len": 3.585645454818998,
        "weighted_distance": 4.359437901982001
    },
    "planner": "RRTstar",
    "start": {
        "state": {
            "elbow_joint": -1.919618573717145,
            "shoulder_lift_joint": -1.2443395971678275,
            "shoulder_pan_joint": 2.6996025300909787,
            "wrist_1_joint": -1.548550951253194,
            "wrist_2_joint": -1.5709469090946802,
            "wrist_3_joint": 0.4420197732051276
        }
    },
    "waypoints": [
        {
            "positions": [
                2.6996025300909787,
                -1.2443395971678275,
                -1.919618573717145,
                -1.548550951253194,
                -1.5709469090946802,
                0.4420197732051276
            ]
        },
        {
            "positions": [
                2.576331999916572,
                -1.2236144523788874,
                -1.8058206304569895,
                -1.5060297796947626,
                -1.4924805221961503,
                0.4394658666962265
            ]
        },
        {
            "positions": [
                2.453061469742165,
                -1.2028893075899474,
                -1.692022687196834,
                -1.4635086081363309,
                -1.4140141352976205,
                0.4369119601873254
            ]
        },
        {
            "positions": [
                2.3297909395677587,
                -1.1821641628010073,
                -1.5782247439366783,
                -1.4209874365778994,
                -1.3355477483990905,
                0.43435805367842434
            ]
        },
        {
            "positions": [
                2.206520409393352,
                -1.1614390180120675,
                -1.4644268006765229,
                -1.378466265019468,
                -1.2570813615005607,
                0.4318041471695232
            ]
        },
        {
            "positions": [
                2.083249879218945,
                -1.1407138732231275,
                -1.3506288574163674,
                -1.3359450934610364,
                -1.178614974602031,
                0.4292502406606221
            ]
        },
        {
            "positions": [
                1.9599793490445385,
                -1.1199887284341874,
                -1.236830914156212,
                -1.2934239219026047,
                -1.100148587703501,
                0.42669633415172104
            ]
        },
        {
            "positions": [
                1.836708818870132,
                -1.0992635836452473,
                -1.1230329708960562,
                -1.2509027503441732,
                -1.021682200804971,
                0.42414242764281995
            ]
        },
        {
            "positions": [
                1.7134382886957251,
                -1.0785384388563073,
                -1.009235027635901,
                -1.2083815787857417,
                -0.9432158139064414,
                0.42158852113391887
            ]
        },
        {
            "positions": [
                1.5901677585213185,
                -1.0578132940673672,
                -0.8954370843757453,
                -1.16586040722731,
                -0.8647494270079115,
                0.4190346146250178
            ]
        },
        {
            "positions": [
                1.4668972283469117,
                -1.0370881492784272,
                -0.7816391411155899,
                -1.1233392356688785,
                -0.7862830401093817,
                0.4164807081161167
            ]
        },
        {
            "positions": [
                1.343626698172505,
                -1.0163630044894871,
                -0.6678411978554342,
                -1.080818064110447,
                -0.7078166532108516,
                0.41392680160721557
            ]
        },
        {
            "positions": [
                1.2203561679980983,
                -0.9956378597005472,
                -0.5540432545952787,
                -1.0382968925520153,
                -0.6293502663123219,
                0.4113728950983145
            ]
        },
        {
            "positions": [
                1.0970856378236915,
                -0.9749127149116071,
                -0.44024531133512323,
                -0.9957757209935838,
                -0.550883879413792,
                0.4088189885894134
            ]
        },
        {
            "positions": [
                0.9738151076492849,
                -0.9541875701226672,
                -0.32644736807496777,
                -0.9532545494351523,
                -0.4724174925152622,
                0.4062650820805123
            ]
        },
        {
            "positions": [
                0.8505445774748781,
                -0.9334624253337271,
                -0.21264942481481208,
                -0.9107333778767207,
                -0.3939511056167322,
                0.40371117557161124
            ]
        },
        {
            "positions": [
                0.7272740473004715,
                -0.9127372805447871,
                -0.09885148155465684,
                -0.8682122063182892,
                -0.3154847187182026,
                0.40115726906271015
            ]
        },
        {
            "positions": [
                0.6040035171260647,
                -0.892012135755847,
                0.014946461705498848,
                -0.8256910347598576,
                -0.23701833181967258,
                0.398603362553809
            ]
        },
        {
            "positions": [
                0.48073298695165834,
                -0.871286990966907,
                0.1287444049656543,
                -0.7831698632014261,
                -0.15855194492114277,
                0.39604945604490793
            ]
        },
        {
            "positions": [
                0.3574624567772511,
                -0.8505618461779669,
                0.24254234822581,
                -0.7406486916429945,
                -0.08008555802261275,
                0.39349554953600685
            ]
        },
        {
            "positions": [
                0.2341919266028447,
                -0.829836701389027,
                0.35634029148596524,
                -0.698127520084563,
                -0.001619171124083163,
                0.39094164302710577
            ]
        },
        {
            "positions": [
                0.11092139642843783,
                -0.8091115566000869,
                0.47013823474612104,
                -0.6556063485261314,
                0.07684721577444689,
                0.3883877365182047
            ]
        },
        {
            "positions": [
                0.1015842154759472,
                -0.7967474857973382,
                0.6436083113977776,
                -0.4915921748654196,
                0.06544188699041081,
                0.3639833341181897
            ]
        },
        {
            "positions": [
                0.09224703452345659,
                -0.7843834149945896,
                0.8170783880494343,
                -0.32757800120470787,
                0.05403655820637473,
                0.3395789317181748
            ]
        },
        {
            "positions": [
                0.08290985357096596,
                -0.7720193441918409,
                0.9905484647010908,
                -0.16356382754399618,
                0.04263122942233865,
                0.31517452931815987
            ]
        },
        {
            "positions": [
                0.07357267261847533,
                -0.7596552733890923,
                1.1640185413527475,
                0.00045034611671568303,
                0.031225900638302564,
                0.29077012691814497
            ]
        },
        {
            "positions": [
                0.06423549166598472,
                -0.7472912025863436,
                1.337488618004404,
                0.16446451977742738,
                0.019820571854266483,
                0.26636572451813
            ]
        },
        {
            "positions": [
                0.07141920153556695,
                -0.7509988157273522,
                1.4190488181522427,
                0.3828470202211657,
                0.001983659554961277,
                0.23580660861595448
            ]
        },
        {
            "positions": [
                0.07860291140514919,
                -0.7547064288683607,
                1.5006090183000813,
                0.601229520664904,
                -0.01585325274434393,
                0.20524749271377896
            ]
        },
        {
            "positions": [
                0.08578662127473144,
                -0.7584140420093692,
                1.58216921844792,
                0.8196120211086423,
                -0.033690165043649134,
                0.17468837681160343
            ]
        },
        {
            "positions": [
                0.09297033114431368,
                -0.7621216551503778,
                1.6637294185957585,
                1.0379945215523807,
                -0.051527077342954336,
                0.1441292609094279
            ]
        },
        {
            "positions": [
                0.10015404101389591,
                -0.7658292682913864,
                1.7452896187435971,
                1.2563770219961188,
                -0.06936398964225954,
                0.1135701450072524
            ]
        },
        {
            "positions": [
                0.10733775088347816,
                -0.769536881432395,
                1.8268498188914357,
                1.4747595224398573,
                -0.08720090194156475,
                0.08301102910507688
            ]
        },
        {
            "positions": [
                0.1145214607530604,
                -0.7732444945734035,
                1.9084100190392743,
                1.6931420228835954,
                -0.10503781424086996,
                0.05245191320290135
            ]
        },
        {
            "positions": [
                0.12170517062264263,
                -0.776952107714412,
                1.989970219187113,
                1.9115245233273337,
                -0.12287472654017516,
                0.02189279730072583
            ]
        }
    ]
}{
    "goal": {
        "global_pose": {
            "orientation": {
                "w": 0.7047431468963623,
                "x": -0.7094548344612122,
                "y": 0.0024358443915843964,
                "z": -0.0022348060738295317
            },
            "position": {
                "x": 0.6094750761985779,
                "y": 0.3671506643295288,
                "z": 0.19426114857196808
            }
        },
        "name": "move_to_magneteinheit_A"
    },
    "id": "RRTstar_move_to_magneteinheit_A_98",
    "joint_names": [
        "shoulder_pan_joint",
        "shoulder_lift_joint",
        "elbow_joint",
        "wrist_1_joint",
        "wrist_2_joint",
        "wrist_3_joint"
    ],
    "metrics": {
        "cart_traj_len": 1.2427158349000842,
        "distance_elbow_joint": 0.06489373500643114,
        "distance_shoulder_lift_joint": 0.751534260216332,
        "distance_shoulder_pan_joint": 1.2425822754793576,
        "distance_wrist_1_joint": 0.7720446386487028,
        "distance_wrist_2_joint": 1.4482482929586677,
        "distance_wrist_3_joint": 4.256755086010385,
        "smoothness": 0.006260212228591824,
        "time": 5.037864701,
        "traj_len": 2.9216533484176175,
        "weighted_distance": 4.389745025846947
    },
    "planner": "RRTstar",
    "start": {
        "state": {
            "elbow_joint": 1.919643534880228,
            "shoulder_lift_joint": -1.8972525353963687,
            "shoulder_pan_joint": -1.1188672234189438,
            "wrist_1_joint": -1.5931878212786155,
            "wrist_2_joint": 1.5706036197970081,
            "wrist_3_joint": 1.118896926603594
        }
    },
    "waypoints": [
        {
            "positions": [
                -1.1188672234189438,
                -1.8972525353963687,
                1.919643534880228,
                -1.5931878212786155,
                1.5706036197970081,
                1.118896926603594
            ]
        },
        {
            "positions": [
                -1.0965478857437152,
                -1.8683516300950938,
                1.9250782346279474,
                -1.5949195848183482,
                1.5009859770716152,
                0.8859313805553319
            ]
        },
        {
            "positions": [
                -1.0742285480684868,
                -1.839450724793819,
                1.9305129343756664,
                -1.596651348358081,
                1.4313683343462225,
                0.6529658345070698
            ]
        },
        {
            "positions": [
                -1.0519092103932581,
                -1.810549819492544,
                1.9359476341233857,
                -1.5983831118978138,
                1.3617506916208295,
                0.42000028845880766
            ]
        },
        {
            "positions": [
                -1.0295898727180295,
                -1.781648914191269,
                1.9413823338711047,
                -1.6001148754375467,
                1.2921330488954368,
                0.18703474241054563
            ]
        },
        {
            "positions": [
                -1.007270535042801,
                -1.7527480088899943,
                1.946817033618824,
                -1.6018466389772794,
                1.2225154061700438,
                -0.04593080363771662
            ]
        },
        {
            "positions": [
                -0.9849511973675724,
                -1.7238471035887193,
                1.952251733366543,
                -1.6035784025170123,
                1.152897763444651,
                -0.27889634968597865
            ]
        },
        {
            "positions": [
                -0.9626318596923439,
                -1.6949461982874443,
                1.9576864331142623,
                -1.605310166056745,
                1.083280120719258,
                -0.5118618957342407
            ]
        },
        {
            "positions": [
                -0.9403125220171153,
                -1.6660452929861695,
                1.9631211328619813,
                -1.607041929596478,
                1.0136624779938652,
                -0.7448274417825027
            ]
        },
        {
            "positions": [
                -0.9179931843418867,
                -1.6371443876848946,
                1.9685558326097006,
                -1.6087736931362107,
                0.9440448352684723,
                -0.9777929878307652
            ]
        },
        {
            "positions": [
                -0.8435854531702938,
                -1.6020425225059762,
                1.9696973638437691,
                -1.554740924079703,
                0.8853527275234628,
                -1.1320833572290527
            ]
        },
        {
            "positions": [
                -0.7691777219987009,
                -1.5669406573270577,
                1.9708388950778375,
                -1.5007081550231953,
                0.8266606197784535,
                -1.2863737266273403
            ]
        },
        {
            "positions": [
                -0.6947699908271081,
                -1.5318387921481393,
                1.971980426311906,
                -1.4466753859666877,
                0.7679685120334441,
                -1.440664096025628
            ]
        },
        {
            "positions": [
                -0.6203622596555152,
                -1.496736926969221,
                1.9731219575459744,
                -1.39264261691018,
                0.7092764042884347,
                -1.5949544654239156
            ]
        },
        {
            "positions": [
                -0.5459545284839222,
                -1.4616350617903024,
                1.974263488780043,
                -1.338609847853672,
                0.6505842965434252,
                -1.7492448348222034
            ]
        },
        {
            "positions": [
                -0.4715467973123294,
                -1.4265331966113841,
                1.9754050200141113,
                -1.2845770787971647,
                0.5918921887984159,
                -1.903535204220491
            ]
        },
        {
            "positions": [
                -0.39713906614073646,
                -1.3914313314324658,
                1.97654655124818,
                -1.2305443097406568,
                0.5332000810534065,
                -2.0578255736187785
            ]
        },
        {
            "positions": [
                -0.32273133496914364,
                -1.3563294662535472,
                1.9776880824822485,
                -1.176511540684149,
                0.4745079733083971,
                -2.212115943017066
            ]
        },
        {
            "positions": [
                -0.24832360379755058,
                -1.3212276010746289,
                1.9788296137163168,
                -1.1224787716276414,
                0.4158158655633877,
                -2.3664063124153536
            ]
        },
        {
            "positions": [
                -0.17391587262595776,
                -1.2861257358957103,
                1.9799711449503854,
                -1.0684460025711338,
                0.35712375781837824,
                -2.520696681813641
            ]
        },
        {
            "positions": [
                -0.09950814145436493,
                -1.251023870716792,
                1.9811126761844537,
                -1.014413233514626,
                0.2984316500733689,
                -2.6749870512119287
            ]
        },
        {
            "positions": [
                -0.0251004102827721,
                -1.2159220055378737,
                1.9822542074185223,
                -0.9603804644581185,
                0.2397395423283596,
                -2.8292774206102163
            ]
        },
        {
            "positions": [
                0.04930732088882095,
                -1.180820140358955,
                1.9833957386525907,
                -0.9063476954016108,
                0.18104743458335004,
                -2.9835677900085043
            ]
        },
        {
            "positions": [
                0.12371505206041387,
                -1.1457182751800368,
                1.9845372698866592,
                -0.8523149263451031,
                0.12235532683834073,
                -3.137858159406792
            ]
        }
    ]
}