{
    "goal": {
        "global_pose": {
            "orientation": {
                "w": 0.7047431468963623,
                "x": -0.7094548344612122,
                "y": 0.0024358443915843964,
                "z": -0.0022348060738295317
            },
            "position": {
                "x": 0.6094750761985779,
                "y": 0.3671506643295288,
                "z": 0.19426114857196808
            }
        },
        "name": "move_to_magneteinheit_A"
    },
    "id": "RRTstar_move_to_magneteinheit_A_34",
    "joint_names": [
        "shoulder_pan_joint",
        "shoulder_lift_joint",
        "elbow_joint",
        "wrist_1_joint",
        "wrist_2_joint",
        "wrist_3_joint"
    ],
    "metrics": {
        "cart_traj_len": 3.778447263150224,
        "distance_elbow_joint": 5.393548569819584,
        "distance_shoulder_lift_joint": 1.5305752620460074,
        "distance_shoulder_pan_joint": 6.2749590810354885,
        "distance_wrist_1_joint": 5.097589080968475,
        "distance_wrist_2_joint": 1.7218303288228998,
        "distance_wrist_3_joint": 3.5254189037732386,
        "smoothness": 0.397187080508109,
        "time": 5.03241785,
        "traj_len": 4.852207871316489,
        "weighted_distance": 6.116713042460269
    },
    "planner": "RRTstar",
    "start": {
        "state": {
            "elbow_joint": -1.919618573717145,
            "shoulder_lift_joint": -1.2443395971678275,
            "shoulder_pan_joint": 2.6996025300909787,
            "wrist_1_joint": -1.548550951253194,
            "wrist_2_joint": -1.5709469090946802,
            "wrist_3_joint": 0.4420197732051276
        }
    },
    "waypoints": [
        {
            "positions": [
                2.6996025300909787,
                -1.2443395971678275,
                -1.919618573717145,
                -1.548550951253194,
                -1.5709469090946802,
                0.4420197732051276
            ]
        },
        {
            "positions": [
                2.6012407186488447,
                -1.256256709407909,
                -1.8159844833997028,
                -1.4524989225754403,
                -1.535757861077297,
                0.39700324152037025
            ]
        },
        {
            "positions": [
                2.5028789072067106,
                -1.2681738216479905,
                -1.7123503930822603,
                -1.3564468938976868,
                -1.500568813059914,
                0.351986709835613
            ]
        },
        {
            "positions": [
                2.404517095764577,
                -1.280090933888072,
                -1.6087163027648181,
                -1.2603948652199333,
                -1.4653797650425309,
                0.3069701781508557
            ]
        },
        {
            "positions": [
                2.306155284322443,
                -1.2920080461281536,
                -1.505082212447376,
                -1.1643428365421795,
                -1.4301907170251478,
                0.26195364646609837
            ]
        },
        {
            "positions": [
                2.207793472880309,
                -1.303925158368235,
                -1.4014481221299337,
                -1.068290807864426,
                -1.3950016690077647,
                0.2169371147813411
            ]
        },
        {
            "positions": [
                2.1094316614381747,
                -1.3158422706083166,
                -1.2978140318124916,
                -0.9722387791866722,
                -1.3598126209903816,
                0.17192058309658376
            ]
        },
        {
            "positions": [
                2.0110698499960407,
                -1.327759382848398,
                -1.1941799414950491,
                -0.8761867505089186,
                -1.3246235729729985,
                0.12690405141182648
            ]
        },
        {
            "positions": [
                1.9127080385539066,
                -1.3396764950884796,
                -1.090545851177607,
                -0.780134721831165,
                -1.2894345249556154,
                0.08188751972706915
            ]
        },
        {
            "positions": [
                1.8143462271117725,
                -1.351593607328561,
                -0.9869117608601646,
                -0.6840826931534113,
                -1.2542454769382323,
                0.03687098804231187
            ]
        },
        {
            "positions": [
                1.7159844156696389,
                -1.3635107195686427,
                -0.8832776705427225,
                -0.5880306644756578,
                -1.2190564289208492,
                -0.008145543642445408
            ]
        },
        {
            "positions": [
                1.6176226042275048,
                -1.375427831808724,
                -0.7796435802252801,
                -0.49197863579790413,
                -1.183867380903466,
                -0.05316207532720274
            ]
        },
        {
            "positions": [
                1.5192607927853707,
                -1.3873449440488057,
                -0.6760094899078379,
                -0.3959266071201504,
                -1.148678332886083,
                -0.09817860701196007
            ]
        },
        {
            "positions": [
                1.4208989813432369,
                -1.3992620562888871,
                -0.5723753995903957,
                -0.29987457844239684,
                -1.1134892848687,
                -0.14319513869671724
            ]
        },
        {
            "positions": [
                1.3225371699011026,
                -1.4111791685289687,
                -0.4687413092729533,
                -0.2038225497646431,
                -1.0783002368513168,
                -0.18821167038147463
            ]
        },
        {
            "positions": [
                1.2241753584589687,
                -1.4230962807690501,
                -0.36510721895551135,
                -0.10777052108688956,
                -1.0431111888339337,
                -0.2332282020662319
            ]
        },
        {
            "positions": [
                1.1258135470168347,
                -1.4350133930091318,
                -0.26147312863806893,
                -0.011718492409135806,
                -1.0079221408165506,
                -0.2782447337509893
            ]
        },
        {
            "positions": [
                1.0274517355747006,
                -1.4469305052492132,
                -0.15783903832062673,
                0.08433353626861773,
                -0.9727330927991674,
                -0.32326126543574657
            ]
        },
        {
            "positions": [
                0.9290899241325665,
                -1.4588476174892948,
                -0.05420494800318432,
                0.18038556494637148,
                -0.9375440447817843,
                -0.36827779712050385
            ]
        },
        {
            "positions": [
                0.8307281126904327,
                -1.4707647297293762,
                0.04942914231425788,
                0.276437593624125,
                -0.9023549967644012,
                -0.4132943288052611
            ]
        },
        {
            "positions": [
                0.7323663012482988,
                -1.4826818419694578,
                0.15306323263169985,
                0.37248962230187854,
                -0.8671659487470181,
                -0.4583108604900184
            ]
        },
        {
            "positions": [
                0.6340044898061645,
                -1.4945989542095393,
                0.25669732294914227,
                0.4685416509796321,
                -0.831976900729635,
                -0.5033273921747758
            ]
        },
        {
            "positions": [
                0.5356426783640309,
                -1.5065160664496209,
                0.3603314132665847,
                0.5645936796573858,
                -0.7967878527122519,
                -0.5483439238595331
            ]
        },
        {
            "positions": [
                0.4372808669218968,
                -1.5184331786897023,
                0.46396550358402666,
                0.6606457083351391,
                -0.761598804694869,
                -0.5933604555442902
            ]
        },
        {
            "positions": [
                0.33891905547976275,
                -1.530350290929784,
                0.5675995939014691,
                0.7566977370128933,
                -0.7264097566774858,
                -0.6383769872290477
            ]
        },
        {
            "positions": [
                0.24055724403762868,
                -1.5422674031698653,
                0.6712336842189115,
                0.8527497656906471,
                -0.6912207086601027,
                -0.683393518913805
            ]
        },
        {
            "positions": [
                0.14219543259549505,
                -1.554184515409947,
                0.7748677745363535,
                0.9488017943684004,
                -0.6560316606427197,
                -0.728410050598562
            ]
        },
        {
            "positions": [
                0.043833621153360536,
                -1.5661016276500284,
                0.8785018648537959,
                1.0448538230461542,
                -0.6208426126253365,
                -0.7734265822833195
            ]
        },
        {
            "positions": [
                -0.05452819028877354,
                -1.57801873989011,
                0.9821359551712383,
                1.140905851723908,
                -0.5856535646079534,
                -0.8184431139680768
            ]
        },
        {
            "positions": [
                -0.1528900017309076,
                -1.5899358521301914,
                1.0857700454886803,
                1.2369578804016617,
                -0.5504645165905702,
                -0.8634596456528343
            ]
        },
        {
            "positions": [
                -0.25125181317304124,
                -1.601852964370273,
                1.1894041358061223,
                1.333009909079415,
                -0.5152754685731873,
                -0.9084761773375913
            ]
        },
        {
            "positions": [
                -0.3496136246151753,
                -1.6137700766103544,
                1.2930382261235647,
                1.4290619377571687,
                -0.48008642055580397,
                -0.9534927090223486
            ]
        },
        {
            "positions": [
                -0.4479754360573094,
                -1.625687188850436,
                1.396672316441007,
                1.5251139664349225,
                -0.4448973725384209,
                -0.9985092407071061
            ]
        },
        {
            "positions": [
                -0.546337247499443,
                -1.6376043010905175,
                1.500306406758449,
                1.6211659951126758,
                -0.409708324521038,
                -1.0435257723918632
            ]
        },
        {
            "positions": [
                -0.6446990589415775,
                -1.649521413330599,
                1.6039404970758915,
                1.7172180237904295,
                -0.3745192765036547,
                -1.0885423040766207
            ]
        },
        {
            "positions": [
                -0.7430608703837116,
                -1.6614385255706805,
                1.707574587393334,
                1.8132700524681833,
                -0.3393302284862716,
                -1.133558835761378
            ]
        },
        {
            "positions": [
                -0.8414226818258457,
                -1.6733556378107621,
                1.8112086777107763,
                1.909322081145937,
                -0.3041411804688885,
                -1.1785753674461352
            ]
        },
        {
            "positions": [
                -0.9397844932679793,
                -1.6852727500508435,
                1.9148427680282183,
                2.0053741098236904,
                -0.2689521324515054,
                -1.2235918991308925
            ]
        },
        {
            "positions": [
                -1.0381463047101134,
                -1.6971898622909252,
                2.018476858345661,
                2.101426138501444,
                -0.2337630844341223,
                -1.2686084308156498
            ]
        },
        {
            "positions": [
                -1.1365081161522474,
                -1.7091069745310066,
                2.122110948663103,
                2.197478167179198,
                -0.1985740364167392,
                -1.3136249625004073
            ]
        },
        {
            "positions": [
                -1.234869927594381,
                -1.721024086771088,
                2.225745038980545,
                2.293530195856951,
                -0.1633849883993561,
                -1.3586414941851643
            ]
        },
        {
            "positions": [
                -1.3332317390365152,
                -1.7329411990111696,
                2.3293791292979877,
                2.389582224534705,
                -0.12819594038197302,
                -1.4036580258699216
            ]
        },
        {
            "positions": [
                -1.4315935504786497,
                -1.7448583112512512,
                2.4330132196154297,
                2.4856342532124582,
                -0.09300689236458992,
                -1.448674557554679
            ]
        },
        {
            "positions": [
                -1.5299553619207833,
                -1.7567754234913326,
                2.5366473099328726,
                2.581686281890212,
                -0.057817844347206826,
                -1.4936910892394364
            ]
        },
        {
            "positions": [
                -1.628317173362917,
                -1.768692535731414,
                2.6402814002503145,
                2.6777383105679657,
                -0.02262879632982373,
                -1.5387076209241937
            ]
        },
        {
            "positions": [
                -1.7266789848050512,
                -1.7806096479714957,
                2.7439154905677565,
                2.773790339245719,
                0.012560251687559365,
                -1.583724152608951
            ]
        },
        {
            "positions": [
                -1.6111366369213347,
                -1.7184655722688496,
                2.698289583971839,
                2.7253373523413718,
                0.00391505368501812,
                -1.4899944664865035
            ]
        },
        {
            "positions": [
                -1.4955942890376184,
                -1.6563214965662032,
                2.6526636773759207,
                2.6768843654370245,
                -0.0047301443175231245,
                -1.396264780364056
            ]
        },
        {
            "positions": [
                -1.3800519411539018,
                -1.594177420863557,
                2.607037770780003,
                2.628431378532677,
                -0.01337534232006437,
                -1.3025350942416083
            ]
        },
        {
            "positions": [
                -1.2645095932701853,
                -1.532033345160911,
                2.561411864184085,
                2.57997839162833,
                -0.022020540322605614,
                -1.2088054081191608
            ]
        },
        {
            "positions": [
                -1.1489672453864688,
                -1.4698892694582648,
                2.515785957588167,
                2.5315254047239826,
                -0.03066573832514686,
                -1.1150757219967133
            ]
        },
        {
            "positions": [
                -1.0334248975027522,
                -1.4077451937556185,
                2.470160050992249,
                2.4830724178196357,
                -0.039310936327688104,
                -1.0213460358742656
            ]
        },
        {
            "positions": [
                -0.9178825496190359,
                -1.3456011180529723,
                2.4245341443963313,
                2.4346194309152884,
                -0.04795613433022935,
                -0.9276163497518182
            ]
        },
        {
            "positions": [
                -0.8023402017353194,
                -1.2834570423503262,
                2.378908237800413,
                2.386166444010941,
                -0.05660133233277059,
                -0.8338866636293707
            ]
        },
        {
            "positions": [
                -0.6867978538516029,
                -1.2213129666476799,
                2.3332823312044955,
                2.337713457106594,
                -0.06524653033531183,
                -0.7401569775069232
            ]
        },
        {
            "positions": [
                -0.5712555059678863,
                -1.1591688909450337,
                2.2876564246085778,
                2.2892604702022465,
                -0.07389172833785308,
                -0.6464272913844756
            ]
        },
        {
            "positions": [
                -0.45571315808417,
                -1.0970248152423876,
                2.2420305180126596,
                2.2408074832978992,
                -0.08253692634039433,
                -0.552697605262028
            ]
        },
        {
            "positions": [
                -0.3401708102004535,
                -1.0348807395397412,
                2.196404611416742,
                2.192354496393552,
                -0.09118212434293557,
                -0.45896791913958057
            ]
        },
        {
            "positions": [
                -0.22462846231673694,
                -0.9727366638370952,
                2.150778704820824,
                2.1439015094892047,
                -0.09982732234547681,
                -0.3652382330171331
            ]
        },
        {
            "positions": [
                -0.10908611443302063,
                -0.910592588134449,
                2.105152798224906,
                2.0954485225848574,
                -0.10847252034801806,
                -0.2715085468946854
            ]
        },
        {
            "positions": [
                0.006456233450695903,
                -0.8484485124318029,
                2.0595268916289884,
                2.0469955356805105,
                -0.11711771835055931,
                -0.17777886077223792
            ]
        },
        {
            "positions": [
                0.12199858133441241,
                -0.7863044367291566,
                2.0139009850330702,
                1.998542548776163,
                -0.12576291635310055,
                -0.0840491746497905
            ]
        }
    ]
}{
    "goal": {
        "global_pose": {
            "orientation": {
                "w": 0.7047431468963623,
                "x": -0.7094548344612122,
                "y": 0.0024358443915843964,
                "z": -0.0022348060738295317
            },
            "position": {
                "x": 0.6094750761985779,
                "y": 0.3671506643295288,
                "z": 0.19426114857196808
            }
        },
        "name": "move_to_magneteinheit_A"
    },
    "id": "RRTstar_move_to_magneteinheit_A_34",
    "joint_names": [
        "shoulder_pan_joint",
        "shoulder_lift_joint",
        "elbow_joint",
        "wrist_1_joint",
        "wrist_2_joint",
        "wrist_3_joint"
    ],
    "metrics": {
        "cart_traj_len": 1.2079997312761164,
        "distance_elbow_joint": 0.37052985109592806,
        "distance_shoulder_lift_joint": 0.7491506137943638,
        "distance_shoulder_pan_joint": 1.2432720566086104,
        "distance_wrist_1_joint": 0.7401173614234847,
        "distance_wrist_2_joint": 1.4330079202598938,
        "distance_wrist_3_joint": 4.2430584009684615,
        "smoothness": 0.04493736586212804,
        "time": 5.016470855,
        "traj_len": 2.962960715931067,
        "weighted_distance": 4.408897627272723
    },
    "planner": "RRTstar",
    "start": {
        "state": {
            "elbow_joint": 1.919643534880228,
            "shoulder_lift_joint": -1.8972525353963687,
            "shoulder_pan_joint": -1.1188672234189438,
            "wrist_1_joint": -1.5931878212786155,
            "wrist_2_joint": 1.5706036197970081,
            "wrist_3_joint": 1.118896926603594
        }
    },
    "waypoints": [
        {
            "positions": [
                -1.1188672234189438,
                -1.8972525353963687,
                1.919643534880228,
                -1.5931878212786155,
                1.5706036197970081,
                1.118896926603594
            ]
        },
        {
            "positions": [
                -1.0735226294737632,
                -1.8646298335988354,
                1.9325720179115087,
                -1.5842632250868955,
                1.5243420351196002,
                0.8879362712763742
            ]
        },
        {
            "positions": [
                -1.0281780355285826,
                -1.832007131801302,
                1.945500500942789,
                -1.5753386288951756,
                1.478080450442192,
                0.6569756159491544
            ]
        },
        {
            "positions": [
                -0.9828334415834019,
                -1.7993844300037685,
                1.9584289839740696,
                -1.566414032703456,
                1.4318188657647841,
                0.42601496062193467
            ]
        },
        {
            "positions": [
                -0.9374888476382213,
                -1.7667617282062351,
                1.9713574670053502,
                -1.557489436511736,
                1.385557281087376,
                0.1950543052947149
            ]
        },
        {
            "positions": [
                -0.8921442536930406,
                -1.7341390264087018,
                1.9842859500366306,
                -1.548564840320016,
                1.339295696409968,
                -0.035906350032504974
            ]
        },
        {
            "positions": [
                -0.84679965974786,
                -1.7015163246111684,
                1.9972144330679111,
                -1.5396402441282961,
                1.2930341117325599,
                -0.26686700535972463
            ]
        },
        {
            "positions": [
                -0.8014550658026793,
                -1.6688936228136348,
                2.0101429160991917,
                -1.5307156479365762,
                1.246772527055152,
                -0.4978276606869443
            ]
        },
        {
            "positions": [
                -0.7561104718574987,
                -1.6362709210161015,
                2.023071399130472,
                -1.5217910517448563,
                1.2005109423777438,
                -0.7287883160141642
            ]
        },
        {
            "positions": [
                -0.710765877912318,
                -1.6036482192185681,
                2.0359998821617524,
                -1.5128664555531366,
                1.1542493577003359,
                -0.9597489713413838
            ]
        },
        {
            "positions": [
                -0.6654212839671374,
                -1.5710255174210346,
                2.0489283651930332,
                -1.5039418593614167,
                1.1079877730229277,
                -1.190709626668604
            ]
        },
        {
            "positions": [
                -0.6200766900219568,
                -1.5384028156235012,
                2.0618568482243136,
                -1.4950172631696967,
                1.0617261883455198,
                -1.4216702819958236
            ]
        },
        {
            "positions": [
                -0.5747320960767761,
                -1.5057801138259679,
                2.074785331255594,
                -1.4860926669779768,
                1.0154646036681116,
                -1.6526309373230432
            ]
        },
        {
            "positions": [
                -0.5293875021315955,
                -1.4731574120284345,
                2.0877138142868747,
                -1.477168070786257,
                0.9692030189907037,
                -1.8835915926502629
            ]
        },
        {
            "positions": [
                -0.4840429081864148,
                -1.4405347102309012,
                2.100642297318155,
                -1.4682434745945372,
                0.9229414343132957,
                -2.1145522479774828
            ]
        },
        {
            "positions": [
                -0.4386983142412342,
                -1.4079120084333678,
                2.1135707803494355,
                -1.4593188784028173,
                0.8766798496358876,
                -2.3455129033047024
            ]
        },
        {
            "positions": [
                -0.39335372029605353,
                -1.3752893066358345,
                2.1264992633807163,
                -1.4503942822110973,
                0.8304182649584796,
                -2.576473558631922
            ]
        },
        {
            "positions": [
                -0.3480091263508729,
                -1.342666604838301,
                2.1394277464119966,
                -1.4414696860193774,
                0.7841566802810715,
                -2.8074342139591417
            ]
        },
        {
            "positions": [
                -0.2692734664274497,
                -1.3102391576322516,
                2.1143034731513035,
                -1.3434031483253364,
                0.6763965168237454,
                -2.8602220906934295
            ]
        },
        {
            "positions": [
                -0.19053780650402652,
                -1.2778117104262023,
                2.08917919989061,
                -1.2453366106312953,
                0.5686363533664192,
                -2.9130099674277172
            ]
        },
        {
            "positions": [
                -0.11180214658060333,
                -1.2453842632201528,
                2.064054926629917,
                -1.147270072937254,
                0.460876189909093,
                -2.965797844162005
            ]
        },
        {
            "positions": [
                -0.03306648665718015,
                -1.2129568160141035,
                2.0389306533692237,
                -1.049203535243213,
                0.3531160264517669,
                -3.0185857208962927
            ]
        },
        {
            "positions": [
                0.045669173266243035,
                -1.1805293688080543,
                2.01380638010853,
                -0.9511369975491719,
                0.24535586299444068,
                -3.0713735976305805
            ]
        },
        {
            "positions": [
                0.12440483318966625,
                -1.148101921602005,
                1.988682106847837,
                -0.8530704598551307,
                0.13759569953711448,
                -3.1241614743648682
            ]
        }
    ]
}