{
    "goal": {
        "global_pose": {
            "orientation": {
                "w": 0.5084816217422485,
                "x": -0.49083608388900757,
                "y": 0.5182115435600281,
                "z": -0.4816462993621826
            },
            "position": {
                "x": 0.5540239810943604,
                "y": 0.030875300988554955,
                "z": 0.16403168439865112
            }
        },
        "name": "move_to_storage_A"
    },
    "id": "RRTstar_move_to_storage_A_83",
    "joint_names": [
        "shoulder_pan_joint",
        "shoulder_lift_joint",
        "elbow_joint",
        "wrist_1_joint",
        "wrist_2_joint",
        "wrist_3_joint"
    ],
    "metrics": {
        "cart_traj_len": 0.3531541055709413,
        "distance_elbow_joint": 0.45038708750232104,
        "distance_shoulder_lift_joint": 0.23458963498599883,
        "distance_shoulder_pan_joint": 0.46250789077181453,
        "distance_wrist_1_joint": 0.24211993484419458,
        "distance_wrist_2_joint": 1.0962543746807398,
        "distance_wrist_3_joint": 0.087843585936076,
        "smoothness": 2.2204460668324854e-16,
        "time": 5.00382339,
        "traj_len": 1.6042763193169514,
        "weighted_distance": 2.02182194817403
    },
    "planner": "RRTstar",
    "start": {
        "state": {
            "elbow_joint": 1.9715477243005601,
            "shoulder_lift_joint": -1.1394853015351272,
            "shoulder_pan_joint": 0.12281154014795169,
            "wrist_1_joint": -0.7804696478968182,
            "wrist_2_joint": 0.12958648046900423,
            "wrist_3_joint": -3.192491284697111
        }
    },
    "waypoints": [
        {
            "positions": [
                0.12281154014795169,
                -1.1394853015351272,
                1.9715477243005601,
                -0.7804696478968182,
                0.12958648046900423,
                -3.192491284697111
            ]
        },
        {
            "positions": [
                0.056738984323406766,
                -1.172998106533127,
                2.0358887368008918,
                -0.8150582100174174,
                0.2861942482805385,
                -3.1799422009919573
            ]
        },
        {
            "positions": [
                -0.009333571501138158,
                -1.2065109115311268,
                2.1002297493012234,
                -0.8496467721380166,
                0.44280201609207276,
                -3.167393117286804
            ]
        },
        {
            "positions": [
                -0.0754061273256831,
                -1.2400237165291266,
                2.164570761801555,
                -0.8842353342586158,
                0.599409783903607,
                -3.15484403358165
            ]
        },
        {
            "positions": [
                -0.141478683150228,
                -1.2735365215271264,
                2.2289117743018863,
                -0.918823896379215,
                0.7560175517151413,
                -3.1422949498764963
            ]
        },
        {
            "positions": [
                -0.20755123897477296,
                -1.3070493265251264,
                2.293252786802218,
                -0.9534124584998143,
                0.9126253195266756,
                -3.1297458661713424
            ]
        },
        {
            "positions": [
                -0.27362379479931787,
                -1.3405621315231262,
                2.3575937993025495,
                -0.9880010206204135,
                1.0692330873382097,
                -3.117196782466189
            ]
        },
        {
            "positions": [
                -0.33969635062386283,
                -1.374074936521126,
                2.421934811802881,
                -1.0225895827410127,
                1.225840855149744,
                -3.104647698761035
            ]
        }
    ]
}