{
    "goal": {
        "global_pose": {
            "orientation": {
                "w": 0.5084816217422485,
                "x": -0.49083608388900757,
                "y": 0.5182115435600281,
                "z": -0.4816462993621826
            },
            "position": {
                "x": 0.5540239810943604,
                "y": 0.030875300988554955,
                "z": 0.16403168439865112
            }
        },
        "name": "move_to_storage_A"
    },
    "id": "RRTstar_move_to_storage_A_135",
    "joint_names": [
        "shoulder_pan_joint",
        "shoulder_lift_joint",
        "elbow_joint",
        "wrist_1_joint",
        "wrist_2_joint",
        "wrist_3_joint"
    ],
    "metrics": {
        "cart_traj_len": 0.35257779938699757,
        "distance_elbow_joint": 0.4483323656310847,
        "distance_shoulder_lift_joint": 0.232554009082782,
        "distance_shoulder_pan_joint": 0.46051795958894104,
        "distance_wrist_1_joint": 0.24176608233774377,
        "distance_wrist_2_joint": 1.0987747709394728,
        "distance_wrist_3_joint": 0.0876853326025877,
        "smoothness": 6.661338165333112e-16,
        "time": 5.000081263,
        "traj_len": 1.6030067124571288,
        "weighted_distance": 2.021272381116658
    },
    "planner": "RRTstar",
    "start": {
        "state": {
            "elbow_joint": 1.9715477243005601,
            "shoulder_lift_joint": -1.1394853015351272,
            "shoulder_pan_joint": 0.12281154014795169,
            "wrist_1_joint": -0.7804696478968182,
            "wrist_2_joint": 0.12958648046900423,
            "wrist_3_joint": -3.192491284697111
        }
    },
    "waypoints": [
        {
            "positions": [
                0.12281154014795169,
                -1.1394853015351272,
                1.9715477243005601,
                -0.7804696478968182,
                0.12958648046900423,
                -3.192491284697111
            ]
        },
        {
            "positions": [
                0.057023260206674406,
                -1.1727073028326676,
                2.035595205105001,
                -0.815007659659353,
                0.2865543048889289,
                -3.179964808611027
            ]
        },
        {
            "positions": [
                -0.008765019734602877,
                -1.2059293041302077,
                2.0996426859094415,
                -0.8495456714218879,
                0.4435221293088536,
                -3.1674383325249433
            ]
        },
        {
            "positions": [
                -0.07455329967588016,
                -1.239151305427748,
                2.163690166713882,
                -0.8840836831844227,
                0.6004899537287782,
                -3.154911856438859
            ]
        },
        {
            "positions": [
                -0.14034157961715743,
                -1.2723733067252883,
                2.227737647518323,
                -0.9186216949469574,
                0.757457778148703,
                -3.1423853803527755
            ]
        },
        {
            "positions": [
                -0.20612985955843477,
                -1.3055953080228286,
                2.2917851283227635,
                -0.9531597067094923,
                0.9144256025686277,
                -3.1298589042666913
            ]
        },
        {
            "positions": [
                -0.271918139499712,
                -1.3388173093203688,
                2.355832609127204,
                -0.987697718472027,
                1.0713934269885523,
                -3.1173324281806076
            ]
        },
        {
            "positions": [
                -0.33770641944098934,
                -1.3720393106179092,
                2.419880089931645,
                -1.022235730234562,
                1.228361251408477,
                -3.1048059520945235
            ]
        }
    ]
}