{
    "goal": {
        "global_pose": {
            "orientation": {
                "w": 0.5084816217422485,
                "x": -0.49083608388900757,
                "y": 0.5182115435600281,
                "z": -0.4816462993621826
            },
            "position": {
                "x": 0.5540239810943604,
                "y": 0.030875300988554955,
                "z": 0.16403168439865112
            }
        },
        "name": "move_to_storage_A"
    },
    "id": "RRTstar_move_to_storage_A_94",
    "joint_names": [
        "shoulder_pan_joint",
        "shoulder_lift_joint",
        "elbow_joint",
        "wrist_1_joint",
        "wrist_2_joint",
        "wrist_3_joint"
    ],
    "metrics": {
        "cart_traj_len": 0.3526609764112819,
        "distance_elbow_joint": 0.4508377095358487,
        "distance_shoulder_lift_joint": 0.23503176203044318,
        "distance_shoulder_pan_joint": 0.4616192769892875,
        "distance_wrist_1_joint": 0.2470637293322252,
        "distance_wrist_2_joint": 1.096271220726707,
        "distance_wrist_3_joint": 0.08960601676671365,
        "smoothness": 0.0,
        "time": 5.002261417000001,
        "traj_len": 1.6063715994069445,
        "weighted_distance": 2.0255805831843827
    },
    "planner": "RRTstar",
    "start": {
        "state": {
            "elbow_joint": 1.9715477243005601,
            "shoulder_lift_joint": -1.1394853015351272,
            "shoulder_pan_joint": 0.12281154014795169,
            "wrist_1_joint": -0.7804696478968182,
            "wrist_2_joint": 0.12958648046900423,
            "wrist_3_joint": -3.192491284697111
        }
    },
    "waypoints": [
        {
            "positions": [
                0.12281154014795169,
                -1.1394853015351272,
                1.9715477243005601,
                -0.7804696478968182,
                0.12958648046900423,
                -3.192491284697111
            ]
        },
        {
            "positions": [
                0.05686592914948205,
                -1.1730612675394763,
                2.03595311137711,
                -0.8157644663728504,
                0.28619665485853374,
                -3.1796904251590092
            ]
        },
        {
            "positions": [
                -0.009079681848987595,
                -1.2066372335438251,
                2.1003584984536596,
                -0.8510592848488825,
                0.4428068292480633,
                -3.1668895656209073
            ]
        },
        {
            "positions": [
                -0.07502529284745722,
                -1.2402131995481742,
                2.1647638855302094,
                -0.8863541033249147,
                0.5994170036375929,
                -3.1540887060828053
            ]
        },
        {
            "positions": [
                -0.14097090384592686,
                -1.2737891655525233,
                2.229169272606759,
                -0.9216489218009468,
                0.7560271780271224,
                -3.1412878465447034
            ]
        },
        {
            "positions": [
                -0.20691651484439655,
                -1.3073651315568724,
                2.2935746596833093,
                -0.956943740276979,
                0.912637352416652,
                -3.1284869870066014
            ]
        },
        {
            "positions": [
                -0.2728621258428661,
                -1.3409410975612213,
                2.357980046759859,
                -0.9922385587530111,
                1.0692475268061816,
                -3.1156861274684995
            ]
        },
        {
            "positions": [
                -0.3388077368413358,
                -1.3745170635655704,
                2.422385433836409,
                -1.0275333772290434,
                1.225857701195711,
                -3.1028852679303975
            ]
        }
    ]
}