{
    "goal": {
        "global_pose": {
            "orientation": {
                "w": 0.7047431468963623,
                "x": -0.7094548344612122,
                "y": 0.0024358443915843964,
                "z": -0.0022348060738295317
            },
            "position": {
                "x": 0.6094750761985779,
                "y": 0.3671506643295288,
                "z": 0.19426114857196808
            }
        },
        "name": "move_to_magneteinheit_A"
    },
    "id": "RRTstar_move_to_magneteinheit_A_32",
    "joint_names": [
        "shoulder_pan_joint",
        "shoulder_lift_joint",
        "elbow_joint",
        "wrist_1_joint",
        "wrist_2_joint",
        "wrist_3_joint"
    ],
    "metrics": {
        "cart_traj_len": 3.360792766350605,
        "distance_elbow_joint": 3.9093288029501156,
        "distance_shoulder_lift_joint": 0.4770103236168096,
        "distance_shoulder_pan_joint": 2.9474345234137536,
        "distance_wrist_1_joint": 3.4604006176336135,
        "distance_wrist_2_joint": 1.456253765386218,
        "distance_wrist_3_joint": 0.4234510895168321,
        "smoothness": 0.08985638954248275,
        "time": 5.0323313160000005,
        "traj_len": 3.5600392023849037,
        "weighted_distance": 4.293883520144769
    },
    "planner": "RRTstar",
    "start": {
        "state": {
            "elbow_joint": -1.919618573717145,
            "shoulder_lift_joint": -1.2443395971678275,
            "shoulder_pan_joint": 2.6996025300909787,
            "wrist_1_joint": -1.548550951253194,
            "wrist_2_joint": -1.5709469090946802,
            "wrist_3_joint": 0.4420197732051276
        }
    },
    "waypoints": [
        {
            "positions": [
                2.6996025300909787,
                -1.2443395971678275,
                -1.919618573717145,
                -1.548550951253194,
                -1.5709469090946802,
                0.4420197732051276
            ]
        },
        {
            "positions": [
                2.5891084058078815,
                -1.2262389552916944,
                -1.82681080168582,
                -1.4459980603357923,
                -1.5208464485778157,
                0.4343364208564872
            ]
        },
        {
            "positions": [
                2.4786142815247842,
                -1.2081383134155612,
                -1.7340030296544948,
                -1.3434451694183904,
                -1.4707459880609515,
                0.42665306850784684
            ]
        },
        {
            "positions": [
                2.368120157241687,
                -1.1900376715394279,
                -1.6411952576231699,
                -1.2408922785009888,
                -1.420645527544087,
                0.41896971615920653
            ]
        },
        {
            "positions": [
                2.2576260329585898,
                -1.1719370296632947,
                -1.5483874855918447,
                -1.138339387583587,
                -1.3705450670272226,
                0.41128636381056616
            ]
        },
        {
            "positions": [
                2.1471319086754925,
                -1.1538363877871616,
                -1.4555797135605197,
                -1.0357864966661852,
                -1.320444606510358,
                0.4036030114619258
            ]
        },
        {
            "positions": [
                2.0366377843923953,
                -1.1357357459110284,
                -1.3627719415291946,
                -0.9332336057487834,
                -1.2703441459934939,
                0.3959196591132854
            ]
        },
        {
            "positions": [
                1.9261436601092978,
                -1.117635104034895,
                -1.2699641694978694,
                -0.8306807148313816,
                -1.2202436854766294,
                0.38823630676464504
            ]
        },
        {
            "positions": [
                1.8156495358262008,
                -1.099534462158762,
                -1.1771563974665447,
                -0.7281278239139799,
                -1.170143224959765,
                0.3805529544160047
            ]
        },
        {
            "positions": [
                1.7051554115431036,
                -1.0814338202826288,
                -1.0843486254352195,
                -0.6255749329965782,
                -1.1200427644429007,
                0.3728696020673643
            ]
        },
        {
            "positions": [
                1.594661287260006,
                -1.0633331784064957,
                -0.9915408534038944,
                -0.5230220420791762,
                -1.0699423039260363,
                0.36518624971872393
            ]
        },
        {
            "positions": [
                1.4841671629769089,
                -1.0452325365303625,
                -0.8987330813725694,
                -0.42046915116177463,
                -1.0198418434091718,
                0.3575028973700836
            ]
        },
        {
            "positions": [
                1.3736730386938116,
                -1.0271318946542292,
                -0.8059253093412444,
                -0.3179162602443728,
                -0.9697413828923076,
                0.34981954502144325
            ]
        },
        {
            "positions": [
                1.2631789144107144,
                -1.009031252778096,
                -0.7131175373099192,
                -0.21536336932697098,
                -0.9196409223754431,
                0.3421361926728029
            ]
        },
        {
            "positions": [
                1.152684790127617,
                -0.9909306109019629,
                -0.620309765278594,
                -0.11281047840956915,
                -0.8695404618585787,
                0.3344528403241625
            ]
        },
        {
            "positions": [
                1.04219066584452,
                -0.9728299690258297,
                -0.5275019932472693,
                -0.010257587492167541,
                -0.8194400013417145,
                0.3267694879755222
            ]
        },
        {
            "positions": [
                0.9316965415614227,
                -0.9547293271496965,
                -0.43469422121594414,
                0.09229530342523429,
                -0.76933954082485,
                0.3190861356268818
            ]
        },
        {
            "positions": [
                0.8212024172783252,
                -0.9366286852735632,
                -0.34188644918461897,
                0.19484819434263612,
                -0.7192390803079856,
                0.31140278327824145
            ]
        },
        {
            "positions": [
                0.7107082929952282,
                -0.9185280433974301,
                -0.24907867715329401,
                0.2974010852600377,
                -0.6691386197911213,
                0.3037194309296011
            ]
        },
        {
            "positions": [
                0.6002141687121307,
                -0.900427401521297,
                -0.15627090512196906,
                0.3999539761774398,
                -0.6190381592742569,
                0.2960360785809607
            ]
        },
        {
            "positions": [
                0.4897200444290335,
                -0.8823267596451637,
                -0.06346313309064389,
                0.5025068670948416,
                -0.5689376987573924,
                0.28835272623232033
            ]
        },
        {
            "positions": [
                0.37922592014593626,
                -0.8642261177690306,
                0.029344638940681067,
                0.605059758012243,
                -0.5188372382405282,
                0.28066937388367996
            ]
        },
        {
            "positions": [
                0.268731795862839,
                -0.8461254758928973,
                0.12215241097200624,
                0.7076126489296448,
                -0.46873677772366373,
                0.2729860215350396
            ]
        },
        {
            "positions": [
                0.15823767157974178,
                -0.8280248340167642,
                0.21496018300333142,
                0.8101655398470466,
                -0.4186363172067993,
                0.2653026691863992
            ]
        },
        {
            "positions": [
                0.04774354729664454,
                -0.809924192140631,
                0.30776795503465615,
                0.9127184307644485,
                -0.36853585668993505,
                0.2576193168377589
            ]
        },
        {
            "positions": [
                -0.06275057698645276,
                -0.7918235502644978,
                0.40057572706598127,
                1.0152713216818503,
                -0.31843539617307065,
                0.24993596448911853
            ]
        },
        {
            "positions": [
                -0.0415640274364305,
                -0.7892409748659133,
                0.5941629312849207,
                1.124182208452695,
                -0.29344220322313985,
                0.22195995397337223
            ]
        },
        {
            "positions": [
                -0.020377477886408243,
                -0.7866583994673287,
                0.7877501355038601,
                1.2330930952235395,
                -0.26844901027320905,
                0.19398394345762593
            ]
        },
        {
            "positions": [
                0.0008090716636140194,
                -0.7840758240687442,
                0.9813373397227996,
                1.3420039819943839,
                -0.24345581732327826,
                0.16600793294187963
            ]
        },
        {
            "positions": [
                0.02199562121363627,
                -0.7814932486701598,
                1.1749245439417388,
                1.4509148687652285,
                -0.21846262437334746,
                0.13803192242613332
            ]
        },
        {
            "positions": [
                0.04318217076365852,
                -0.7789106732715753,
                1.3685117481606783,
                1.559825755536073,
                -0.19346943142341666,
                0.11005591191038702
            ]
        },
        {
            "positions": [
                0.0643687203136808,
                -0.7763280978729907,
                1.5620989523796178,
                1.6687366423069174,
                -0.16847623847348586,
                0.08207990139464072
            ]
        },
        {
            "positions": [
                0.08555526986370304,
                -0.7737455224744062,
                1.755686156598557,
                1.777647529077762,
                -0.14348304552355506,
                0.05410389087889442
            ]
        },
        {
            "positions": [
                0.10674181941372529,
                -0.7711629470758217,
                1.9492733608174966,
                1.8865584158486066,
                -0.11848985257362427,
                0.02612788036314813
            ]
        },
        {
            "positions": [
                0.12233083934987062,
                -0.7749966206006255,
                1.98971022923297,
                1.9118496663804196,
                -0.12228656143878672,
                0.01856868368829538
            ]
        }
    ]
}{
    "goal": {
        "global_pose": {
            "orientation": {
                "w": 0.7047431468963623,
                "x": -0.7094548344612122,
                "y": 0.0024358443915843964,
                "z": -0.0022348060738295317
            },
            "position": {
                "x": 0.6094750761985779,
                "y": 0.3671506643295288,
                "z": 0.19426114857196808
            }
        },
        "name": "move_to_magneteinheit_A"
    },
    "id": "RRTstar_move_to_magneteinheit_A_32",
    "joint_names": [
        "shoulder_pan_joint",
        "shoulder_lift_joint",
        "elbow_joint",
        "wrist_1_joint",
        "wrist_2_joint",
        "wrist_3_joint"
    ],
    "metrics": {
        "cart_traj_len": 1.2642267246652288,
        "distance_elbow_joint": 0.0702265278504326,
        "distance_shoulder_lift_joint": 0.7484858667040852,
        "distance_shoulder_pan_joint": 1.2477651893412303,
        "distance_wrist_1_joint": 0.7528363602644245,
        "distance_wrist_2_joint": 1.435955971880303,
        "distance_wrist_3_joint": 4.244714768514065,
        "smoothness": 0.025817553395931156,
        "time": 5.017967581000001,
        "traj_len": 2.9154733208442396,
        "weighted_distance": 4.379292928513391
    },
    "planner": "RRTstar",
    "start": {
        "state": {
            "elbow_joint": 1.919643534880228,
            "shoulder_lift_joint": -1.8972525353963687,
            "shoulder_pan_joint": -1.1188672234189438,
            "wrist_1_joint": -1.5931878212786155,
            "wrist_2_joint": 1.5706036197970081,
            "wrist_3_joint": 1.118896926603594
        }
    },
    "waypoints": [
        {
            "positions": [
                -1.1188672234189438,
                -1.8972525353963687,
                1.919643534880228,
                -1.5931878212786155,
                1.5706036197970081,
                1.118896926603594
            ]
        },
        {
            "positions": [
                -1.1204480694488144,
                -1.8496686622937974,
                1.9193631305385765,
                -1.598184034239752,
                1.5320619679640943,
                0.8583687608547566
            ]
        },
        {
            "positions": [
                -1.122028915478685,
                -1.8020847891912264,
                1.9190827261969248,
                -1.6031802472008885,
                1.4935203161311805,
                0.5978405951059192
            ]
        },
        {
            "positions": [
                -1.0597987406146108,
                -1.7694188831662792,
                1.9225660121552812,
                -1.566038050483781,
                1.4255766827204568,
                0.4116576732550998
            ]
        },
        {
            "positions": [
                -0.9975685657505362,
                -1.7367529771413321,
                1.9260492981136377,
                -1.5288958537666733,
                1.357633049309733,
                0.2254747514042803
            ]
        },
        {
            "positions": [
                -0.9353383908864618,
                -1.704087071116385,
                1.9295325840719941,
                -1.4917536570495658,
                1.2896894158990093,
                0.03929182955346089
            ]
        },
        {
            "positions": [
                -0.8731082160223873,
                -1.671421165091438,
                1.9330158700303506,
                -1.4546114603324583,
                1.2217457824882854,
                -0.14689109229735864
            ]
        },
        {
            "positions": [
                -0.8108780411583129,
                -1.6387552590664907,
                1.936499155988707,
                -1.4174692636153505,
                1.1538021490775616,
                -0.33307401414817805
            ]
        },
        {
            "positions": [
                -0.7486478662942384,
                -1.6060893530415434,
                1.9399824419470635,
                -1.380327066898243,
                1.0858585156668379,
                -0.5192569359989975
            ]
        },
        {
            "positions": [
                -0.686417691430164,
                -1.5734234470165964,
                1.94346572790542,
                -1.3431848701811355,
                1.0179148822561142,
                -0.705439857849817
            ]
        },
        {
            "positions": [
                -0.6241875165660895,
                -1.5407575409916492,
                1.9469490138637764,
                -1.3060426734640278,
                0.9499712488453903,
                -0.8916227797006365
            ]
        },
        {
            "positions": [
                -0.5619573417020151,
                -1.5080916349667022,
                1.9504322998221328,
                -1.2689004767469203,
                0.8820276154346666,
                -1.0778057015514557
            ]
        },
        {
            "positions": [
                -0.4997271668379406,
                -1.475425728941755,
                1.9539155857804893,
                -1.2317582800298128,
                0.8140839820239428,
                -1.2639886234022755
            ]
        },
        {
            "positions": [
                -0.43749699197386616,
                -1.4427598229168077,
                1.957398871738846,
                -1.194616083312705,
                0.746140348613219,
                -1.4501715452530948
            ]
        },
        {
            "positions": [
                -0.3752668171097917,
                -1.4100939168918607,
                1.9608821576972024,
                -1.1574738865955976,
                0.6781967152024954,
                -1.636354467103914
            ]
        },
        {
            "positions": [
                -0.31303664224571726,
                -1.3774280108669135,
                1.9643654436555589,
                -1.12033168987849,
                0.6102530817917715,
                -1.8225373889547338
            ]
        },
        {
            "positions": [
                -0.2508064673816428,
                -1.3447621048419665,
                1.9678487296139153,
                -1.0831894931613824,
                0.5423094483810478,
                -2.008720310805553
            ]
        },
        {
            "positions": [
                -0.18857629251756836,
                -1.3120961988170192,
                1.9713320155722718,
                -1.0460472964442749,
                0.47436581497032404,
                -2.1949032326563724
            ]
        },
        {
            "positions": [
                -0.1263461176534939,
                -1.279430292792072,
                1.9748153015306282,
                -1.0089050997271674,
                0.4064221815596001,
                -2.381086154507192
            ]
        },
        {
            "positions": [
                -0.06411594278941957,
                -1.246764386767125,
                1.9782985874889847,
                -0.9717629030100597,
                0.33847854814887657,
                -2.5672690763580115
            ]
        },
        {
            "positions": [
                -0.0018857679253450055,
                -1.2140984807421777,
                1.9817818734473411,
                -0.9346207062929521,
                0.2705349147381526,
                -2.753451998208831
            ]
        },
        {
            "positions": [
                0.060344406938729334,
                -1.1814325747172307,
                1.9852651594056976,
                -0.8974785095758446,
                0.20259128132742887,
                -2.93963492005965
            ]
        },
        {
            "positions": [
                0.12257458180280391,
                -1.1487666686922835,
                1.988748445364054,
                -0.860336312858737,
                0.1346476479167052,
                -3.12581784191047
            ]
        }
    ]
}