{
    "goal": {
        "global_pose": {
            "orientation": {
                "w": 0.7047431468963623,
                "x": -0.7094548344612122,
                "y": 0.0024358443915843964,
                "z": -0.0022348060738295317
            },
            "position": {
                "x": 0.6094750761985779,
                "y": 0.3671506643295288,
                "z": 0.19426114857196808
            }
        },
        "name": "move_to_magneteinheit_A"
    },
    "id": "RRTstar_move_to_magneteinheit_A_53",
    "joint_names": [
        "shoulder_pan_joint",
        "shoulder_lift_joint",
        "elbow_joint",
        "wrist_1_joint",
        "wrist_2_joint",
        "wrist_3_joint"
    ],
    "metrics": {
        "cart_traj_len": 4.304684663421387,
        "distance_elbow_joint": 3.886747893529221,
        "distance_shoulder_lift_joint": 0.7316738925173694,
        "distance_shoulder_pan_joint": 4.702569233585414,
        "distance_wrist_1_joint": 1.7178340028090213,
        "distance_wrist_2_joint": 1.7099285248722795,
        "distance_wrist_3_joint": 8.283124473326545,
        "smoothness": 0.28016414428170067,
        "time": 5.040922548,
        "traj_len": 4.586052553192109,
        "weighted_distance": 6.405145548305225
    },
    "planner": "RRTstar",
    "start": {
        "state": {
            "elbow_joint": -1.919618573717145,
            "shoulder_lift_joint": -1.2443395971678275,
            "shoulder_pan_joint": 2.6996025300909787,
            "wrist_1_joint": -1.548550951253194,
            "wrist_2_joint": -1.5709469090946802,
            "wrist_3_joint": 0.4420197732051276
        }
    },
    "waypoints": [
        {
            "positions": [
                2.6996025300909787,
                -1.2443395971678275,
                -1.919618573717145,
                -1.548550951253194,
                -1.5709469090946802,
                0.4420197732051276
            ]
        },
        {
            "positions": [
                2.564800987394484,
                -1.2288129510627144,
                -1.8584518562368626,
                -1.56565534894592,
                -1.5169077534400541,
                0.3371000410110875
            ]
        },
        {
            "positions": [
                2.429999444697989,
                -1.2132863049576013,
                -1.7972851387565802,
                -1.5827597466386458,
                -1.462868597785428,
                0.23218030881704735
            ]
        },
        {
            "positions": [
                2.2951979020014943,
                -1.1977596588524881,
                -1.7361184212762981,
                -1.599864144331372,
                -1.408829442130802,
                0.12726057662300722
            ]
        },
        {
            "positions": [
                2.1603963593049995,
                -1.1822330127473752,
                -1.6749517037960158,
                -1.6169685420240978,
                -1.354790286476176,
                0.02234084442896711
            ]
        },
        {
            "positions": [
                2.025594816608505,
                -1.1667063666422621,
                -1.6137849863157334,
                -1.6340729397168237,
                -1.30075113082155,
                -0.082578887765073
            ]
        },
        {
            "positions": [
                1.8907932739120101,
                -1.151179720537149,
                -1.552618268835451,
                -1.6511773374095495,
                -1.246711975166924,
                -0.18749861995911316
            ]
        },
        {
            "positions": [
                1.7559917312155155,
                -1.135653074432036,
                -1.4914515513551687,
                -1.6682817351022754,
                -1.192672819512298,
                -0.2924183521531532
            ]
        },
        {
            "positions": [
                1.6211901885190205,
                -1.1201264283269228,
                -1.4302848338748864,
                -1.6853861327950015,
                -1.138633663857672,
                -0.39733808434719337
            ]
        },
        {
            "positions": [
                1.486388645822526,
                -1.1045997822218097,
                -1.3691181163946042,
                -1.7024905304877274,
                -1.084594508203046,
                -0.5022578165412335
            ]
        },
        {
            "positions": [
                1.3515871031260311,
                -1.0890731361166965,
                -1.3079513989143219,
                -1.7195949281804532,
                -1.03055535254842,
                -0.6071775487352735
            ]
        },
        {
            "positions": [
                1.2167855604295363,
                -1.0735464900115836,
                -1.2467846814340395,
                -1.736699325873179,
                -0.9765161968937938,
                -0.7120972809293136
            ]
        },
        {
            "positions": [
                1.0819840177330415,
                -1.0580198439064705,
                -1.1856179639537574,
                -1.753803723565905,
                -0.9224770412391677,
                -0.8170170131233538
            ]
        },
        {
            "positions": [
                0.9471824750365467,
                -1.0424931978013574,
                -1.124451246473475,
                -1.7709081212586308,
                -0.8684378855845416,
                -0.9219367453173939
            ]
        },
        {
            "positions": [
                0.8123809323400522,
                -1.0269665516962443,
                -1.0632845289931927,
                -1.7880125189513567,
                -0.8143987299299156,
                -1.026856477511434
            ]
        },
        {
            "positions": [
                0.6775793896435571,
                -1.0114399055911312,
                -1.0021178115129104,
                -1.8051169166440828,
                -0.7603595742752894,
                -1.1317762097054742
            ]
        },
        {
            "positions": [
                0.5427778469470623,
                -0.9959132594860182,
                -0.940951094032628,
                -1.8222213143368087,
                -0.7063204186206635,
                -1.2366959418995143
            ]
        },
        {
            "positions": [
                0.4079763042505675,
                -0.980386613380905,
                -0.8797843765523456,
                -1.8393257120295345,
                -0.6522812629660374,
                -1.3416156740935545
            ]
        },
        {
            "positions": [
                0.27317476155407316,
                -0.964859967275792,
                -0.8186176590720635,
                -1.8564301097222604,
                -0.5982421073114115,
                -1.4465354062875946
            ]
        },
        {
            "positions": [
                0.13837321885757792,
                -0.9493333211706789,
                -0.757450941591781,
                -1.8735345074149863,
                -0.5442029516567852,
                -1.5514551384816349
            ]
        },
        {
            "positions": [
                0.003571676161083559,
                -0.9338066750655658,
                -0.6962842241114988,
                -1.8906389051077124,
                -0.4901637960021594,
                -1.6563748706756747
            ]
        },
        {
            "positions": [
                -0.1312298665354117,
                -0.9182800289604527,
                -0.6351175066312165,
                -1.9077433028004382,
                -0.4361246403475332,
                -1.761294602869715
            ]
        },
        {
            "positions": [
                -0.26603140923190605,
                -0.9027533828553396,
                -0.5739507891509341,
                -1.9248477004931641,
                -0.3820854846929074,
                -1.8662143350637548
            ]
        },
        {
            "positions": [
                -0.40083295192840085,
                -0.8872267367502266,
                -0.5127840716706518,
                -1.94195209818589,
                -0.3280463290382811,
                -1.971134067257795
            ]
        },
        {
            "positions": [
                -0.5356344946248957,
                -0.8717000906451136,
                -0.45161735419036964,
                -1.9590564958786159,
                -0.2740071733836553,
                -2.0760537994518353
            ]
        },
        {
            "positions": [
                -0.6704360373213905,
                -0.8561734445400004,
                -0.3904506367100873,
                -1.976160893571342,
                -0.21996801772902908,
                -2.1809735316458756
            ]
        },
        {
            "positions": [
                -0.8052375800178853,
                -0.8406467984348873,
                -0.32928391922980493,
                -1.9932652912640678,
                -0.16592886207440305,
                -2.2858932638399154
            ]
        },
        {
            "positions": [
                -0.9400391227143801,
                -0.8251201523297742,
                -0.2681172017495226,
                -2.0103696889567937,
                -0.11188970641977702,
                -2.3908129960339557
            ]
        },
        {
            "positions": [
                -0.9006714345373411,
                -0.83669253928086,
                -0.18533029354353742,
                -1.9638506050640003,
                -0.10259817596802243,
                -2.188950340327013
            ]
        },
        {
            "positions": [
                -0.8613037463603023,
                -0.8482649262319457,
                -0.10254338533755228,
                -1.917331521171207,
                -0.09330664551626783,
                -1.9870876846200698
            ]
        },
        {
            "positions": [
                -0.8219360581832633,
                -0.8598373131830316,
                -0.019756477131567113,
                -1.8708124372784134,
                -0.08401511506451323,
                -1.785225028913127
            ]
        },
        {
            "positions": [
                -0.7825683700062245,
                -0.8714097001341173,
                0.06303043107441803,
                -1.82429335338562,
                -0.07472358461275863,
                -1.5833623732061841
            ]
        },
        {
            "positions": [
                -0.7432006818291855,
                -0.8829820870852031,
                0.1458173392804032,
                -1.7777742694928267,
                -0.06543205416100403,
                -1.3814997174992412
            ]
        },
        {
            "positions": [
                -0.7038329936521466,
                -0.8945544740362888,
                0.22860424748638836,
                -1.7312551856000333,
                -0.056140523709249435,
                -1.1796370617922982
            ]
        },
        {
            "positions": [
                -0.6644653054751077,
                -0.9061268609873747,
                0.3113911556923735,
                -1.68473610170724,
                -0.046848993257494836,
                -0.9777744060853555
            ]
        },
        {
            "positions": [
                -0.6250976172980689,
                -0.9176992479384605,
                0.39417806389835863,
                -1.6382170178144464,
                -0.03755746280574024,
                -0.7759117503784125
            ]
        },
        {
            "positions": [
                -0.58572992912103,
                -0.9292716348895462,
                0.47696497210434385,
                -1.5916979339216533,
                -0.02826593235398564,
                -0.5740490946714696
            ]
        },
        {
            "positions": [
                -0.546362240943991,
                -0.940844021840632,
                0.559751880310329,
                -1.5451788500288597,
                -0.01897440190223104,
                -0.37218643896452663
            ]
        },
        {
            "positions": [
                -0.5069945527669522,
                -0.9524164087917177,
                0.6425387885163141,
                -1.4986597661360663,
                -0.009682871450476443,
                -0.1703237832575839
            ]
        },
        {
            "positions": [
                -0.4676268645899132,
                -0.9639887957428035,
                0.7253256967222993,
                -1.452140682243273,
                -0.00039134099872184525,
                0.03153887244935927
            ]
        },
        {
            "positions": [
                -0.42825917641287436,
                -0.9755611826938894,
                0.8081126049282845,
                -1.4056215983504794,
                0.008900189453032753,
                0.233401528156302
            ]
        },
        {
            "positions": [
                -0.3888914882358354,
                -0.9871335696449751,
                0.8908995131342696,
                -1.3591025144576863,
                0.01819171990478735,
                0.4352641838632447
            ]
        },
        {
            "positions": [
                -0.34952380005879646,
                -0.998705956596061,
                0.973686421340255,
                -1.3125834305648927,
                0.027483250356541977,
                0.6371268395701879
            ]
        },
        {
            "positions": [
                -0.3101561118817576,
                -1.0102783435471467,
                1.0564733295462398,
                -1.2660643466720993,
                0.03677478080829655,
                0.8389894952771306
            ]
        },
        {
            "positions": [
                -0.2707884237047187,
                -1.0218507304982325,
                1.1392602377522252,
                -1.219545262779306,
                0.046066311260051174,
                1.0408521509840738
            ]
        },
        {
            "positions": [
                -0.23142073552767983,
                -1.0334231174493183,
                1.2220471459582103,
                -1.1730261788865126,
                0.055357841711805744,
                1.2427148066910165
            ]
        },
        {
            "positions": [
                -0.19205304735064088,
                -1.044995504400404,
                1.3048340541641954,
                -1.1265070949937193,
                0.06464937216356037,
                1.4445774623979597
            ]
        },
        {
            "positions": [
                -0.15268535917360204,
                -1.0565678913514898,
                1.3876209623701805,
                -1.0799880111009257,
                0.07394090261531494,
                1.6464401181049024
            ]
        },
        {
            "positions": [
                -0.11331767099656298,
                -1.0681402783025755,
                1.4704078705761658,
                -1.0334689272081323,
                0.08323243306706957,
                1.8483027738118456
            ]
        },
        {
            "positions": [
                -0.07394998281952414,
                -1.0797126652536613,
                1.5531947787821507,
                -0.986949843315339,
                0.09252396351882414,
                2.050165429518788
            ]
        },
        {
            "positions": [
                -0.03458229464248519,
                -1.0912850522047473,
                1.635981686988136,
                -0.9404307594225456,
                0.10181549397057876,
                2.252028085225731
            ]
        },
        {
            "positions": [
                0.00478539353455365,
                -1.1028574391558328,
                1.7187685951941212,
                -0.8939116755297523,
                0.11110702442233333,
                2.4538907409326742
            ]
        },
        {
            "positions": [
                0.0441530817115926,
                -1.1144298261069188,
                1.8015555034001065,
                -0.8473925916369587,
                0.12039855487408796,
                2.6557533966396174
            ]
        },
        {
            "positions": [
                0.08352076988863133,
                -1.1260022130580045,
                1.8843424116060916,
                -0.8008735077441653,
                0.12969008532584253,
                2.8576160523465597
            ]
        },
        {
            "positions": [
                0.12288845806567038,
                -1.1375746000090903,
                1.9671293198120765,
                -0.754354423851372,
                0.13898161577759713,
                3.0594787080535033
            ]
        }
    ]
}{
    "goal": {
        "global_pose": {
            "orientation": {
                "w": 0.7047431468963623,
                "x": -0.7094548344612122,
                "y": 0.0024358443915843964,
                "z": -0.0022348060738295317
            },
            "position": {
                "x": 0.6094750761985779,
                "y": 0.3671506643295288,
                "z": 0.19426114857196808
            }
        },
        "name": "move_to_magneteinheit_A"
    },
    "id": "RRTstar_move_to_magneteinheit_A_53",
    "joint_names": [
        "shoulder_pan_joint",
        "shoulder_lift_joint",
        "elbow_joint",
        "wrist_1_joint",
        "wrist_2_joint",
        "wrist_3_joint"
    ],
    "metrics": {
        "cart_traj_len": 1.2093960706019369,
        "distance_elbow_joint": 0.22297745116844658,
        "distance_shoulder_lift_joint": 0.7492126115034434,
        "distance_shoulder_pan_joint": 1.241709922887712,
        "distance_wrist_1_joint": 0.7387566404653781,
        "distance_wrist_2_joint": 1.4366891044164152,
        "distance_wrist_3_joint": 4.240898227782322,
        "smoothness": 0.024847346608750813,
        "time": 5.0336888,
        "traj_len": 2.9377276861928023,
        "weighted_distance": 4.39175206024545
    },
    "planner": "RRTstar",
    "start": {
        "state": {
            "elbow_joint": 1.919643534880228,
            "shoulder_lift_joint": -1.8972525353963687,
            "shoulder_pan_joint": -1.1188672234189438,
            "wrist_1_joint": -1.5931878212786155,
            "wrist_2_joint": 1.5706036197970081,
            "wrist_3_joint": 1.118896926603594
        }
    },
    "waypoints": [
        {
            "positions": [
                -1.1188672234189438,
                -1.8972525353963687,
                1.919643534880228,
                -1.5931878212786155,
                1.5706036197970081,
                1.118896926603594
            ]
        },
        {
            "positions": [
                -1.0814936890645355,
                -1.8745700064945923,
                1.912658729497939,
                -1.5777052539747507,
                1.4921461161715612,
                0.8895498276192131
            ]
        },
        {
            "positions": [
                -1.0441201547101269,
                -1.8518874775928158,
                1.9056739241156495,
                -1.5622226866708857,
                1.4136886125461143,
                0.6602027286348322
            ]
        },
        {
            "positions": [
                -1.0067466203557185,
                -1.8292049486910396,
                1.8986891187333603,
                -1.546740119367021,
                1.3352311089206674,
                0.43085562965045154
            ]
        },
        {
            "positions": [
                -0.9693730860013101,
                -1.806522419789263,
                1.891704313351071,
                -1.531257552063156,
                1.2567736052952203,
                0.20150853066607055
            ]
        },
        {
            "positions": [
                -0.9319995516469016,
                -1.7838398908874866,
                1.8847195079687817,
                -1.5157749847592912,
                1.1783161016697734,
                -0.02783856831831022
            ]
        },
        {
            "positions": [
                -0.8946260172924932,
                -1.7611573619857102,
                1.8777347025864923,
                -1.5002924174554262,
                1.0998585980443265,
                -0.2571856673026909
            ]
        },
        {
            "positions": [
                -0.8572524829380848,
                -1.7384748330839337,
                1.8707498972042031,
                -1.4848098501515614,
                1.0214010944188796,
                -0.486532766287072
            ]
        },
        {
            "positions": [
                -0.8198789485836764,
                -1.7157923041821572,
                1.8637650918219137,
                -1.4693272828476964,
                0.9429435907934326,
                -0.7158798652714529
            ]
        },
        {
            "positions": [
                -0.7825054142292679,
                -1.693109775280381,
                1.8567802864396246,
                -1.4538447155438317,
                0.8644860871679856,
                -0.9452269642558335
            ]
        },
        {
            "positions": [
                -0.7451318798748594,
                -1.6704272463786045,
                1.8497954810573352,
                -1.4383621482399667,
                0.7860285835425388,
                -1.1745740632402144
            ]
        },
        {
            "positions": [
                -0.707758345520451,
                -1.647744717476828,
                1.842810675675046,
                -1.422879580936102,
                0.7075710799170918,
                -1.4039211622245955
            ]
        },
        {
            "positions": [
                -0.6322491596123402,
                -1.6023170089692005,
                1.8560965476717064,
                -1.3712024536522052,
                0.6554204831410465,
                -1.5601102657658803
            ]
        },
        {
            "positions": [
                -0.5567399737042293,
                -1.556889300461573,
                1.8693824196683668,
                -1.3195253263683084,
                0.6032698863650011,
                -1.716299369307165
            ]
        },
        {
            "positions": [
                -0.4812307877961186,
                -1.5114615919539456,
                1.8826682916650272,
                -1.2678481990844115,
                0.5511192895889558,
                -1.8724884728484499
            ]
        },
        {
            "positions": [
                -0.40572160188800777,
                -1.466033883446318,
                1.8959541636616877,
                -1.2161710718005148,
                0.49896869281291045,
                -2.028677576389735
            ]
        },
        {
            "positions": [
                -0.330212415979897,
                -1.4206061749386905,
                1.909240035658348,
                -1.164493944516618,
                0.4468180960368652,
                -2.1848666799310195
            ]
        },
        {
            "positions": [
                -0.2547032300717862,
                -1.375178466431063,
                1.9225259076550083,
                -1.1128168172327213,
                0.39466749926081984,
                -2.3410557834723047
            ]
        },
        {
            "positions": [
                -0.17919404416367535,
                -1.3297507579234353,
                1.9358117796516687,
                -1.0611396899488246,
                0.3425169024847745,
                -2.497244887013589
            ]
        },
        {
            "positions": [
                -0.1036848582555645,
                -1.284323049415808,
                1.9490976516483292,
                -1.0094625626649276,
                0.2903663057087292,
                -2.6534339905548743
            ]
        },
        {
            "positions": [
                -0.028175672347453662,
                -1.2388953409081802,
                1.9623835236449896,
                -0.9577854353810309,
                0.2382157089326838,
                -2.809623094096159
            ]
        },
        {
            "positions": [
                0.04733351356065707,
                -1.1934676324005529,
                1.97566939564165,
                -0.9061083080971342,
                0.18606511215663857,
                -2.965812197637444
            ]
        },
        {
            "positions": [
                0.12284269946876795,
                -1.1480399238929253,
                1.9889552676383104,
                -0.8544311808132373,
                0.13391451538059312,
                -3.1220013011787286
            ]
        }
    ]
}