{
    "goal": {
        "global_pose": {
            "orientation": {
                "w": 0.7047431468963623,
                "x": -0.7094548344612122,
                "y": 0.0024358443915843964,
                "z": -0.0022348060738295317
            },
            "position": {
                "x": 0.6094750761985779,
                "y": 0.3671506643295288,
                "z": 0.19426114857196808
            }
        },
        "name": "move_to_magneteinheit_A"
    },
    "id": "RRTstar_move_to_magneteinheit_A_77",
    "joint_names": [
        "shoulder_pan_joint",
        "shoulder_lift_joint",
        "elbow_joint",
        "wrist_1_joint",
        "wrist_2_joint",
        "wrist_3_joint"
    ],
    "metrics": {
        "cart_traj_len": 3.3502666517820896,
        "distance_elbow_joint": 3.9102672484236205,
        "distance_shoulder_lift_joint": 0.46781914659539214,
        "distance_shoulder_pan_joint": 3.8024837236237388,
        "distance_wrist_1_joint": 3.461602829992807,
        "distance_wrist_2_joint": 1.4381824604561966,
        "distance_wrist_3_joint": 0.4299111460356841,
        "smoothness": 0.12054709583469604,
        "time": 5.018495935,
        "traj_len": 3.675631449850139,
        "weighted_distance": 4.389746477605263
    },
    "planner": "RRTstar",
    "start": {
        "state": {
            "elbow_joint": -1.919618573717145,
            "shoulder_lift_joint": -1.2443395971678275,
            "shoulder_pan_joint": 2.6996025300909787,
            "wrist_1_joint": -1.548550951253194,
            "wrist_2_joint": -1.5709469090946802,
            "wrist_3_joint": 0.4420197732051276
        }
    },
    "waypoints": [
        {
            "positions": [
                2.6996025300909787,
                -1.2443395971678275,
                -1.919618573717145,
                -1.548550951253194,
                -1.5709469090946802,
                0.4420197732051276
            ]
        },
        {
            "positions": [
                2.560952930080544,
                -1.2299632732914276,
                -1.8461491575264624,
                -1.44160283770451,
                -1.527366660804474,
                0.4322624889769152
            ]
        },
        {
            "positions": [
                2.422303330070109,
                -1.215586949415028,
                -1.7726797413357798,
                -1.334654724155826,
                -1.483786412514268,
                0.42250520474870285
            ]
        },
        {
            "positions": [
                2.283653730059674,
                -1.2012106255386281,
                -1.6992103251450972,
                -1.227706610607142,
                -1.440206164224062,
                0.41274792052049053
            ]
        },
        {
            "positions": [
                2.1450041300492395,
                -1.1868343016622285,
                -1.6257409089544148,
                -1.1207584970584579,
                -1.3966259159338559,
                0.40299063629227816
            ]
        },
        {
            "positions": [
                2.006354530038805,
                -1.1724579777858286,
                -1.5522714927637322,
                -1.013810383509774,
                -1.3530456676436498,
                0.3932333520640658
            ]
        },
        {
            "positions": [
                1.8677049300283697,
                -1.1580816539094287,
                -1.4788020765730496,
                -0.9068622699610899,
                -1.3094654193534436,
                0.3834760678358534
            ]
        },
        {
            "positions": [
                1.729055330017935,
                -1.143705330033029,
                -1.405332660382367,
                -0.7999141564124057,
                -1.2658851710632377,
                0.37371878360764105
            ]
        },
        {
            "positions": [
                1.5904057300075,
                -1.1293290061566292,
                -1.3318632441916844,
                -0.6929660428637218,
                -1.2223049227730316,
                0.3639614993794287
            ]
        },
        {
            "positions": [
                1.4517561299970652,
                -1.1149526822802294,
                -1.2583938280010019,
                -0.5860179293150376,
                -1.1787246744828255,
                0.35420421515121636
            ]
        },
        {
            "positions": [
                1.3131065299866305,
                -1.1005763584038297,
                -1.1849244118103193,
                -0.47906981576635377,
                -1.1351444261926193,
                0.344446930923004
            ]
        },
        {
            "positions": [
                1.1744569299761956,
                -1.0862000345274299,
                -1.1114549956196367,
                -0.3721217022176695,
                -1.0915641779024132,
                0.3346896466947916
            ]
        },
        {
            "positions": [
                1.0358073299657609,
                -1.0718237106510302,
                -1.037985579428954,
                -0.26517358866898566,
                -1.047983929612207,
                0.32493236246657925
            ]
        },
        {
            "positions": [
                0.8971577299553262,
                -1.0574473867746303,
                -0.9645161632382717,
                -0.1582254751203016,
                -1.0044036813220012,
                0.3151750782383669
            ]
        },
        {
            "positions": [
                0.758508129944891,
                -1.0430710628982305,
                -0.8910467470475891,
                -0.05127736157161733,
                -0.9608234330317951,
                0.30541779401015456
            ]
        },
        {
            "positions": [
                0.6198585299344561,
                -1.0286947390218308,
                -0.8175773308569065,
                0.0556707519770665,
                -0.917243184741589,
                0.29566050978194214
            ]
        },
        {
            "positions": [
                0.4812089299240214,
                -1.014318415145431,
                -0.744107914666224,
                0.16261886552575056,
                -0.8736629364513829,
                0.2859032255537298
            ]
        },
        {
            "positions": [
                0.34255932991358673,
                -0.9999420912690313,
                -0.6706384984755416,
                0.2695669790744346,
                -0.8300826881611769,
                0.27614594132551745
            ]
        },
        {
            "positions": [
                0.2039097299031516,
                -0.9855657673926315,
                -0.5971690822848588,
                0.3765150926231189,
                -0.7865024398709708,
                0.2663886570973051
            ]
        },
        {
            "positions": [
                0.0652601298927169,
                -0.9711894435162317,
                -0.5236996660941762,
                0.4834632061718027,
                -0.7429221915807647,
                0.25663137286909277
            ]
        },
        {
            "positions": [
                -0.07338947011771779,
                -0.956813119639832,
                -0.4502302499034938,
                0.5904113197204865,
                -0.6993419432905587,
                0.24687408864088037
            ]
        },
        {
            "positions": [
                -0.21203907012815248,
                -0.9424367957634321,
                -0.3767608337128112,
                0.6973594332691708,
                -0.6557616950003526,
                0.23711680441266803
            ]
        },
        {
            "positions": [
                -0.3506886701385876,
                -0.9280604718870323,
                -0.3032914175221286,
                0.8043075468178551,
                -0.6121814467101464,
                0.22735952018445563
            ]
        },
        {
            "positions": [
                -0.4893382701490221,
                -0.9136841480106326,
                -0.22982200133144604,
                0.9112556603665388,
                -0.5686011984199404,
                0.21760223595624328
            ]
        },
        {
            "positions": [
                -0.43820969320037717,
                -0.9022538398907828,
                -0.04478277832828592,
                0.994738678564295,
                -0.5322814692714856,
                0.2004777685573433
            ]
        },
        {
            "positions": [
                -0.3870811162517323,
                -0.890823531770933,
                0.1402564446748742,
                1.0782216967620513,
                -0.49596174012303085,
                0.18335330115844334
            ]
        },
        {
            "positions": [
                -0.3359525393030874,
                -0.8793932236510833,
                0.3252956676780343,
                1.1617047149598072,
                -0.459642010974576,
                0.16622883375954334
            ]
        },
        {
            "positions": [
                -0.2848239623544425,
                -0.8679629155312335,
                0.5103348906811944,
                1.2451877331575636,
                -0.4233222818261213,
                0.1491043663606434
            ]
        },
        {
            "positions": [
                -0.23369538540579754,
                -0.8565326074113837,
                0.6953741136843545,
                1.3286707513553195,
                -0.3870025526776665,
                0.1319798989617434
            ]
        },
        {
            "positions": [
                -0.18256680845715267,
                -0.845102299291534,
                0.8804133366875146,
                1.412153769553076,
                -0.3506828235292117,
                0.11485543156284342
            ]
        },
        {
            "positions": [
                -0.13143823150850775,
                -0.8336719911716842,
                1.0654525596906748,
                1.4956367877508319,
                -0.31436309438075694,
                0.09773096416394343
            ]
        },
        {
            "positions": [
                -0.08030965455986289,
                -0.8222416830518344,
                1.2504917826938349,
                1.5791198059485883,
                -0.27804336523230216,
                0.08060649676504347
            ]
        },
        {
            "positions": [
                -0.029181077611217965,
                -0.8108113749319846,
                1.435531005696995,
                1.6626028241463442,
                -0.2417236360838474,
                0.0634820293661435
            ]
        },
        {
            "positions": [
                0.021947499337427012,
                -0.7993810668121348,
                1.620570228700155,
                1.7460858423441006,
                -0.20540390693539257,
                0.0463575619672435
            ]
        },
        {
            "positions": [
                0.07307607628607182,
                -0.7879507586922851,
                1.8056094517033152,
                1.8295688605418565,
                -0.1690841777869378,
                0.029233094568343526
            ]
        },
        {
            "positions": [
                0.12420465323471669,
                -0.7765204505724354,
                1.9906486747064753,
                1.9130518787396127,
                -0.13276444863848302,
                0.012108627169443541
            ]
        }
    ]
}{
    "goal": {
        "global_pose": {
            "orientation": {
                "w": 0.7047431468963623,
                "x": -0.7094548344612122,
                "y": 0.0024358443915843964,
                "z": -0.0022348060738295317
            },
            "position": {
                "x": 0.6094750761985779,
                "y": 0.3671506643295288,
                "z": 0.19426114857196808
            }
        },
        "name": "move_to_magneteinheit_A"
    },
    "id": "RRTstar_move_to_magneteinheit_A_77",
    "joint_names": [
        "shoulder_pan_joint",
        "shoulder_lift_joint",
        "elbow_joint",
        "wrist_1_joint",
        "wrist_2_joint",
        "wrist_3_joint"
    ],
    "metrics": {
        "cart_traj_len": 1.1572333863330293,
        "distance_elbow_joint": 0.12381088012223351,
        "distance_shoulder_lift_joint": 0.750568128909261,
        "distance_shoulder_pan_joint": 1.2418330908169484,
        "distance_wrist_1_joint": 0.851973769529183,
        "distance_wrist_2_joint": 1.4413964076499164,
        "distance_wrist_3_joint": 4.2498597178065785,
        "smoothness": 0.02564023182991533,
        "time": 5.019134809,
        "traj_len": 2.942692983448005,
        "weighted_distance": 4.410502421224409
    },
    "planner": "RRTstar",
    "start": {
        "state": {
            "elbow_joint": 1.919643534880228,
            "shoulder_lift_joint": -1.8972525353963687,
            "shoulder_pan_joint": -1.1188672234189438,
            "wrist_1_joint": -1.5931878212786155,
            "wrist_2_joint": 1.5706036197970081,
            "wrist_3_joint": 1.118896926603594
        }
    },
    "waypoints": [
        {
            "positions": [
                -1.1188672234189438,
                -1.8972525353963687,
                1.919643534880228,
                -1.5931878212786155,
                1.5706036197970081,
                1.118896926603594
            ]
        },
        {
            "positions": [
                -1.0971334563789945,
                -1.8967233716944158,
                1.9283383502890528,
                -1.5980375768433686,
                1.5528253965124148,
                0.8097033734187361
            ]
        },
        {
            "positions": [
                -1.075399689339045,
                -1.8961942079924632,
                1.9370331656978776,
                -1.6028873324081216,
                1.5350471732278217,
                0.5005098202338782
            ]
        },
        {
            "positions": [
                -1.0536659222990956,
                -1.8956650442905103,
                1.9457279811067023,
                -1.6077370879728747,
                1.5172689499432284,
                0.1913162670490205
            ]
        },
        {
            "positions": [
                -1.031932155259146,
                -1.8951358805885574,
                1.9544227965155272,
                -1.6125868435376278,
                1.499490726658635,
                -0.11787728613583748
            ]
        },
        {
            "positions": [
                -1.0101983882191967,
                -1.8946067168866048,
                1.9631176119243519,
                -1.617436599102381,
                1.481712503374042,
                -0.42707083932069523
            ]
        },
        {
            "positions": [
                -0.9884646211792473,
                -1.8940775531846519,
                1.9718124273331767,
                -1.6222863546671338,
                1.4639342800894486,
                -0.736264392505553
            ]
        },
        {
            "positions": [
                -0.9667308541392978,
                -1.8935483894826992,
                1.9805072427420014,
                -1.6271361102318869,
                1.4461560568048555,
                -1.045457945690411
            ]
        },
        {
            "positions": [
                -0.9449970870993484,
                -1.8930192257807463,
                1.9892020581508263,
                -1.63198586579664,
                1.4283778335202622,
                -1.354651498875269
            ]
        },
        {
            "positions": [
                -0.9232633200593989,
                -1.8924900620787934,
                1.997896873559651,
                -1.636835621361393,
                1.4105996102356688,
                -1.663845052060127
            ]
        },
        {
            "positions": [
                -0.9015295530194495,
                -1.8919608983768408,
                2.006591688968476,
                -1.6416853769261461,
                1.3928213869510757,
                -1.9730386052449844
            ]
        },
        {
            "positions": [
                -0.8797957859795,
                -1.891431734674888,
                2.0152865043773005,
                -1.6465351324908992,
                1.3750431636664824,
                -2.282232158429842
            ]
        },
        {
            "positions": [
                -0.796232314864708,
                -1.8293694573259063,
                2.0129391784918704,
                -1.5799829276311577,
                1.2712235010398665,
                -2.3529597111609375
            ]
        },
        {
            "positions": [
                -0.712668843749916,
                -1.7673071799769247,
                2.0105918526064404,
                -1.513430722771416,
                1.1674038384132506,
                -2.4236872638920324
            ]
        },
        {
            "positions": [
                -0.6291053726351239,
                -1.7052449026279428,
                2.0082445267210103,
                -1.4468785179116743,
                1.0635841757866347,
                -2.4944148166231277
            ]
        },
        {
            "positions": [
                -0.5455419015203319,
                -1.6431826252789612,
                2.00589720083558,
                -1.3803263130519328,
                0.9597645131600189,
                -2.5651423693542226
            ]
        },
        {
            "positions": [
                -0.46197843040553976,
                -1.5811203479299796,
                2.00354987495015,
                -1.3137741081921912,
                0.855944850533403,
                -2.635869922085318
            ]
        },
        {
            "positions": [
                -0.37841495929074775,
                -1.5190580705809977,
                2.00120254906472,
                -1.2472219033324496,
                0.7521251879067871,
                -2.706597474816413
            ]
        },
        {
            "positions": [
                -0.29485148817595563,
                -1.4569957932320161,
                1.9988552231792898,
                -1.180669698472708,
                0.6483055252801712,
                -2.777325027547508
            ]
        },
        {
            "positions": [
                -0.21128801706116374,
                -1.3949335158830345,
                1.9965078972938597,
                -1.1141174936129663,
                0.5444858626535554,
                -2.848052580278603
            ]
        },
        {
            "positions": [
                -0.12772454594637161,
                -1.3328712385340529,
                1.9941605714084296,
                -1.0475652887532247,
                0.44066620002693946,
                -2.9187801330096983
            ]
        },
        {
            "positions": [
                -0.044161074831579494,
                -1.2708089611850713,
                1.9918132455229995,
                -0.9810130838934832,
                0.33684653740032355,
                -2.9895076857407936
            ]
        },
        {
            "positions": [
                0.039402396283212404,
                -1.2087466838360896,
                1.9894659196375695,
                -0.9144608790337416,
                0.23302687477370765,
                -3.0602352384718885
            ]
        },
        {
            "positions": [
                0.12296586739800464,
                -1.1466844064871078,
                1.9871185937521394,
                -0.847908674174,
                0.12920721214709166,
                -3.130962791202984
            ]
        }
    ]
}