{
    "goal": {
        "global_pose": {
            "orientation": {
                "w": 0.5084816217422485,
                "x": -0.49083608388900757,
                "y": 0.5182115435600281,
                "z": -0.4816462993621826
            },
            "position": {
                "x": 0.5540239810943604,
                "y": 0.030875300988554955,
                "z": 0.16403168439865112
            }
        },
        "name": "move_to_storage_A"
    },
    "id": "RRTstar_move_to_storage_A_56",
    "joint_names": [
        "shoulder_pan_joint",
        "shoulder_lift_joint",
        "elbow_joint",
        "wrist_1_joint",
        "wrist_2_joint",
        "wrist_3_joint"
    ],
    "metrics": {
        "cart_traj_len": 0.35275989312751554,
        "distance_elbow_joint": 0.45091200642544704,
        "distance_shoulder_lift_joint": 0.23489655498930673,
        "distance_shoulder_pan_joint": 0.4628678331627684,
        "distance_wrist_1_joint": 0.24174485658849754,
        "distance_wrist_2_joint": 1.0921407783919665,
        "distance_wrist_3_joint": 0.09096883668486333,
        "smoothness": 2.2204460668324854e-16,
        "time": 5.004459033000001,
        "traj_len": 1.6042228231274014,
        "weighted_distance": 2.0222151652564175
    },
    "planner": "RRTstar",
    "start": {
        "state": {
            "elbow_joint": 1.9715477243005601,
            "shoulder_lift_joint": -1.1394853015351272,
            "shoulder_pan_joint": 0.12281154014795169,
            "wrist_1_joint": -0.7804696478968182,
            "wrist_2_joint": 0.12958648046900423,
            "wrist_3_joint": -3.192491284697111
        }
    },
    "waypoints": [
        {
            "positions": [
                0.12281154014795169,
                -1.1394853015351272,
                1.9715477243005601,
                -0.7804696478968182,
                0.12958648046900423,
                -3.192491284697111
            ]
        },
        {
            "positions": [
                0.056687563981841924,
                -1.1730419522478852,
                2.035963725218481,
                -0.8150046274094607,
                0.2856065916678566,
                -3.1794957365992738
            ]
        },
        {
            "positions": [
                -0.009436412184267842,
                -1.2065986029606435,
                2.1003797261364023,
                -0.8495396069221032,
                0.44162670286670896,
                -3.166500188501436
            ]
        },
        {
            "positions": [
                -0.07556038835037761,
                -1.2401552536734015,
                2.164795727054323,
                -0.8840745864347457,
                0.5976468140655613,
                -3.1535046404035985
            ]
        },
        {
            "positions": [
                -0.14168436451648736,
                -1.2737119043861596,
                2.229211727972244,
                -0.9186095659473882,
                0.7536669252644137,
                -3.1405090923057606
            ]
        },
        {
            "positions": [
                -0.20780834068259718,
                -1.3072685550989176,
                2.293627728890165,
                -0.9531445454600307,
                0.9096870364632661,
                -3.127513544207923
            ]
        },
        {
            "positions": [
                -0.2739323168487069,
                -1.3408252058116759,
                2.3580437298080863,
                -0.9876795249726732,
                1.0657071476621183,
                -3.1145179961100853
            ]
        },
        {
            "positions": [
                -0.3400562930148167,
                -1.374381856524434,
                2.422459730726007,
                -1.0222145044853157,
                1.2217272588609709,
                -3.101522448012248
            ]
        }
    ]
}