{
    "goal": {
        "global_pose": {
            "orientation": {
                "w": 0.5084816217422485,
                "x": -0.49083608388900757,
                "y": 0.5182115435600281,
                "z": -0.4816462993621826
            },
            "position": {
                "x": 0.5540239810943604,
                "y": 0.030875300988554955,
                "z": 0.16403168439865112
            }
        },
        "name": "move_to_storage_A"
    },
    "id": "RRTstar_move_to_storage_A_35",
    "joint_names": [
        "shoulder_pan_joint",
        "shoulder_lift_joint",
        "elbow_joint",
        "wrist_1_joint",
        "wrist_2_joint",
        "wrist_3_joint"
    ],
    "metrics": {
        "cart_traj_len": 0.3534798793498079,
        "distance_elbow_joint": 0.4494454729367652,
        "distance_shoulder_lift_joint": 0.23516147011759747,
        "distance_shoulder_pan_joint": 0.4620225735955038,
        "distance_wrist_1_joint": 0.2402240310123892,
        "distance_wrist_2_joint": 1.1006953874233467,
        "distance_wrist_3_joint": 0.09084142994678057,
        "smoothness": 8.881784197001252e-16,
        "time": 5.000955587000001,
        "traj_len": 1.6057367047658788,
        "weighted_distance": 2.0250907741041337
    },
    "planner": "RRTstar",
    "start": {
        "state": {
            "elbow_joint": 1.9715477243005601,
            "shoulder_lift_joint": -1.1394853015351272,
            "shoulder_pan_joint": 0.12281154014795169,
            "wrist_1_joint": -0.7804696478968182,
            "wrist_2_joint": 0.12958648046900423,
            "wrist_3_joint": -3.192491284697111
        }
    },
    "waypoints": [
        {
            "positions": [
                0.12281154014795169,
                -1.1394853015351272,
                1.9715477243005601,
                -0.7804696478968182,
                0.12958648046900423,
                -3.192491284697111
            ]
        },
        {
            "positions": [
                0.05680831534859401,
                -1.1730797972662126,
                2.035754220434384,
                -0.8147873666128738,
                0.28682867867233947,
                -3.1795139375618566
            ]
        },
        {
            "positions": [
                -0.009194909450763664,
                -1.2066742929972978,
                2.0999607165682073,
                -0.8491050853289294,
                0.4440708768756747,
                -3.1665365904266025
            ]
        },
        {
            "positions": [
                -0.07519813425012135,
                -1.2402687887283832,
                2.164167212702031,
                -0.883422804044985,
                0.6013130750790099,
                -3.153559243291348
            ]
        },
        {
            "positions": [
                -0.141201359049479,
                -1.2738632844594686,
                2.2283737088358544,
                -0.9177405227610406,
                0.7585552732823452,
                -3.140581896156094
            ]
        },
        {
            "positions": [
                -0.20720458384883672,
                -1.307457780190554,
                2.292580204969678,
                -0.9520582414770962,
                0.9157974714856805,
                -3.1276045490208393
            ]
        },
        {
            "positions": [
                -0.2732078086481944,
                -1.3410522759216392,
                2.3567867011035015,
                -0.9863759601931518,
                1.0730396696890157,
                -3.114627201885585
            ]
        },
        {
            "positions": [
                -0.3392110334475521,
                -1.3746467716527246,
                2.4209931972373253,
                -1.0206936789092074,
                1.230281867892351,
                -3.1016498547503306
            ]
        }
    ]
}