{
    "goal": {
        "global_pose": {
            "orientation": {
                "w": 0.7047431468963623,
                "x": -0.7094548344612122,
                "y": 0.0024358443915843964,
                "z": -0.0022348060738295317
            },
            "position": {
                "x": 0.6094750761985779,
                "y": 0.3671506643295288,
                "z": 0.19426114857196808
            }
        },
        "name": "move_to_magneteinheit_A"
    },
    "id": "RRTstar_move_to_magneteinheit_A_88",
    "joint_names": [
        "shoulder_pan_joint",
        "shoulder_lift_joint",
        "elbow_joint",
        "wrist_1_joint",
        "wrist_2_joint",
        "wrist_3_joint"
    ],
    "metrics": {
        "cart_traj_len": 3.117276862631622,
        "distance_elbow_joint": 3.9219998573559076,
        "distance_shoulder_lift_joint": 0.5655613504453149,
        "distance_shoulder_pan_joint": 2.740812476532871,
        "distance_wrist_1_joint": 3.5008965574872493,
        "distance_wrist_2_joint": 1.435805425846798,
        "distance_wrist_3_joint": 0.5649349871185398,
        "smoothness": 0.06257595777997019,
        "time": 5.033104663,
        "traj_len": 3.5679140481220513,
        "weighted_distance": 4.335502578981797
    },
    "planner": "RRTstar",
    "start": {
        "state": {
            "elbow_joint": -1.919618573717145,
            "shoulder_lift_joint": -1.2443395971678275,
            "shoulder_pan_joint": 2.6996025300909787,
            "wrist_1_joint": -1.548550951253194,
            "wrist_2_joint": -1.5709469090946802,
            "wrist_3_joint": 0.4420197732051276
        }
    },
    "waypoints": [
        {
            "positions": [
                2.6996025300909787,
                -1.2443395971678275,
                -1.919618573717145,
                -1.548550951253194,
                -1.5709469090946802,
                0.4420197732051276
            ]
        },
        {
            "positions": [
                2.602704174755017,
                -1.2209758853137886,
                -1.8461700368401721,
                -1.3975510246052965,
                -1.5474468054794903,
                0.41835525956501207
            ]
        },
        {
            "positions": [
                2.5058058194190553,
                -1.19761217345975,
                -1.7727214999631993,
                -1.246551097957399,
                -1.5239467018643007,
                0.3946907459248965
            ]
        },
        {
            "positions": [
                2.408907464083094,
                -1.1742484616057112,
                -1.6992729630862264,
                -1.0955511713095016,
                -1.5004465982491109,
                0.371026232284781
            ]
        },
        {
            "positions": [
                2.312009108747132,
                -1.1508847497516723,
                -1.6258244262092536,
                -0.944551244661604,
                -1.4769464946339212,
                0.3473617186446655
            ]
        },
        {
            "positions": [
                2.21511075341117,
                -1.1275210378976335,
                -1.5523758893322808,
                -0.7935513180137066,
                -1.4534463910187314,
                0.3236972050045499
            ]
        },
        {
            "positions": [
                2.1182123980752086,
                -1.1041573260435948,
                -1.4789273524553082,
                -0.6425513913658091,
                -1.4299462874035418,
                0.3000326913644344
            ]
        },
        {
            "positions": [
                2.021314042739247,
                -1.080793614189556,
                -1.405478815578335,
                -0.49155146471791156,
                -1.406446183788352,
                0.2763681777243189
            ]
        },
        {
            "positions": [
                1.9244156874032852,
                -1.0574299023355171,
                -1.3320302787013625,
                -0.3405515380700139,
                -1.3829460801731623,
                0.2527036640842033
            ]
        },
        {
            "positions": [
                1.8275173320673235,
                -1.0340661904814783,
                -1.2585817418243894,
                -0.18955161142211652,
                -1.3594459765579725,
                0.22903915044408776
            ]
        },
        {
            "positions": [
                1.7306189767313618,
                -1.0107024786274397,
                -1.1851332049474168,
                -0.03855168477421911,
                -1.3359458729427829,
                0.20537463680397225
            ]
        },
        {
            "positions": [
                1.6337206213954,
                -0.9873387667734008,
                -1.1116846680704437,
                0.11244824187367852,
                -1.312445769327593,
                0.1817101231638567
            ]
        },
        {
            "positions": [
                1.5368222660594384,
                -0.963975054919362,
                -1.0382361311934711,
                0.26344816852157593,
                -1.2889456657124034,
                0.1580456095237412
            ]
        },
        {
            "positions": [
                1.4399239107234767,
                -0.9406113430653232,
                -0.9647875943164982,
                0.41444809516947356,
                -1.2654455620972136,
                0.13438109588362562
            ]
        },
        {
            "positions": [
                1.343025555387515,
                -0.9172476312112845,
                -0.8913390574395255,
                0.565448021817371,
                -1.2419454584820238,
                0.11071658224351011
            ]
        },
        {
            "positions": [
                1.2461272000515533,
                -0.8938839193572456,
                -0.8178905205625526,
                0.7164479484652686,
                -1.2184453548668341,
                0.0870520686033946
            ]
        },
        {
            "positions": [
                1.1492288447155916,
                -0.8705202075032068,
                -0.7444419836855798,
                0.8674478751131662,
                -1.1949452512516443,
                0.06338755496327902
            ]
        },
        {
            "positions": [
                1.05233048937963,
                -0.8471564956491682,
                -0.670993446808607,
                1.0184478017610634,
                -1.1714451476364547,
                0.03972304132316351
            ]
        },
        {
            "positions": [
                0.9554321340436682,
                -0.8237927837951293,
                -0.5975449099316339,
                1.169447728408961,
                -1.1479450440212648,
                0.01605852768304794
            ]
        },
        {
            "positions": [
                0.8585337787077065,
                -0.8004290719410905,
                -0.5240963730546613,
                1.3204476550568587,
                -1.1244449404060752,
                -0.007605985957067574
            ]
        },
        {
            "positions": [
                0.7616354233717448,
                -0.7770653600870517,
                -0.45064783617768844,
                1.4714475817047559,
                -1.1009448367908854,
                -0.03127049959718309
            ]
        },
        {
            "positions": [
                0.6647370680357829,
                -0.753701648233013,
                -0.3771992993007156,
                1.622447508352654,
                -1.0774447331756956,
                -0.05493501323729866
            ]
        },
        {
            "positions": [
                0.5678387126998214,
                -0.7303379363789742,
                -0.30375076242374277,
                1.7734474350005511,
                -1.053944629560506,
                -0.07859952687741417
            ]
        },
        {
            "positions": [
                0.49257072479257247,
                -0.7333994897755015,
                -0.11255469897369094,
                1.7910433891101973,
                -0.9774646974821868,
                -0.07736015327401481
            ]
        },
        {
            "positions": [
                0.4173027368853235,
                -0.7364610431720289,
                0.07864136447636089,
                1.8086393432198438,
                -0.9009847654038677,
                -0.07612077967061544
            ]
        },
        {
            "positions": [
                0.3420347489780745,
                -0.7395225965685562,
                0.26983742792641274,
                1.82623529732949,
                -0.8245048333255486,
                -0.07488140606721608
            ]
        },
        {
            "positions": [
                0.2667667610708255,
                -0.7425841499650836,
                0.46103349137646454,
                1.8438312514391362,
                -0.7480249012472295,
                -0.0736420324638167
            ]
        },
        {
            "positions": [
                0.19149877316357644,
                -0.745645703361611,
                0.6522295548265165,
                1.8614272055487824,
                -0.6715449691689104,
                -0.07240265886041734
            ]
        },
        {
            "positions": [
                0.11623078525632752,
                -0.7487072567581383,
                0.8434256182765683,
                1.8790231596584288,
                -0.5950650370905912,
                -0.07116328525701797
            ]
        },
        {
            "positions": [
                0.0409627973490785,
                -0.7517688101546657,
                1.03462168172662,
                1.896619113768075,
                -0.5185851050122721,
                -0.06992391165361861
            ]
        },
        {
            "positions": [
                0.061505983296821026,
                -0.7593010141248582,
                1.2765615822046559,
                1.9105507368845698,
                -0.4227241995711745,
                -0.06101389370056795
            ]
        },
        {
            "positions": [
                0.08204916924456356,
                -0.7668332180950507,
                1.5185014826826917,
                1.9244823600010645,
                -0.326863294130077,
                -0.05210387574751729
            ]
        },
        {
            "positions": [
                0.10259235519230608,
                -0.7743654220652432,
                1.7604413831607275,
                1.9384139831175593,
                -0.2310023886889795,
                -0.043193857794466634
            ]
        },
        {
            "positions": [
                0.12313554114004861,
                -0.7818976260354357,
                2.0023812836387633,
                1.952345606234054,
                -0.13514148324788194,
                -0.034283839841415975
            ]
        }
    ]
}{
    "goal": {
        "global_pose": {
            "orientation": {
                "w": 0.7047431468963623,
                "x": -0.7094548344612122,
                "y": 0.0024358443915843964,
                "z": -0.0022348060738295317
            },
            "position": {
                "x": 0.6094750761985779,
                "y": 0.3671506643295288,
                "z": 0.19426114857196808
            }
        },
        "name": "move_to_magneteinheit_A"
    },
    "id": "RRTstar_move_to_magneteinheit_A_88",
    "joint_names": [
        "shoulder_pan_joint",
        "shoulder_lift_joint",
        "elbow_joint",
        "wrist_1_joint",
        "wrist_2_joint",
        "wrist_3_joint"
    ],
    "metrics": {
        "cart_traj_len": 1.2391138057645747,
        "distance_elbow_joint": 0.1190292775142856,
        "distance_shoulder_lift_joint": 0.7507223521639834,
        "distance_shoulder_pan_joint": 1.240637760991028,
        "distance_wrist_1_joint": 0.7456201549603075,
        "distance_wrist_2_joint": 1.4457757885794011,
        "distance_wrist_3_joint": 4.256719189776804,
        "smoothness": 0.019140278210074725,
        "time": 5.019620217,
        "traj_len": 2.92549218491279,
        "weighted_distance": 4.389002033159603
    },
    "planner": "RRTstar",
    "start": {
        "state": {
            "elbow_joint": 1.919643534880228,
            "shoulder_lift_joint": -1.8972525353963687,
            "shoulder_pan_joint": -1.1188672234189438,
            "wrist_1_joint": -1.5931878212786155,
            "wrist_2_joint": 1.5706036197970081,
            "wrist_3_joint": 1.118896926603594
        }
    },
    "waypoints": [
        {
            "positions": [
                -1.1188672234189438,
                -1.8972525353963687,
                1.919643534880228,
                -1.5931878212786155,
                1.5706036197970081,
                1.118896926603594
            ]
        },
        {
            "positions": [
                -1.0588685665288424,
                -1.8573000095087024,
                1.924777448742454,
                -1.5695894847028882,
                1.5167523208039948,
                0.919866207367563
            ]
        },
        {
            "positions": [
                -0.998869909638741,
                -1.817347483621036,
                1.9299113626046802,
                -1.5459911481271607,
                1.4629010218109815,
                0.720835488131532
            ]
        },
        {
            "positions": [
                -0.9388712527486396,
                -1.7773949577333696,
                1.9350452764669062,
                -1.5223928115514334,
                1.4090497228179681,
                0.521804768895501
            ]
        },
        {
            "positions": [
                -0.878872595858538,
                -1.7374424318457031,
                1.940179190329132,
                -1.4987944749757058,
                1.3551984238249548,
                0.32277404965947
            ]
        },
        {
            "positions": [
                -0.8188739389684366,
                -1.6974899059580368,
                1.945313104191358,
                -1.4751961383999785,
                1.3013471248319415,
                0.12374333042343877
            ]
        },
        {
            "positions": [
                -0.7588752820783352,
                -1.6575373800703703,
                1.9504470180535842,
                -1.451597801824251,
                1.2474958258389282,
                -0.075287388812592
            ]
        },
        {
            "positions": [
                -0.6988766251882337,
                -1.617584854182704,
                1.9555809319158102,
                -1.4279994652485237,
                1.1936445268459148,
                -0.2743181080486232
            ]
        },
        {
            "positions": [
                -0.6388779682981323,
                -1.5776323282950377,
                1.9607148457780361,
                -1.4044011286727964,
                1.1397932278529015,
                -0.473348827284654
            ]
        },
        {
            "positions": [
                -0.5788793114080308,
                -1.5376798024073712,
                1.965848759640262,
                -1.380802792097069,
                1.0859419288598882,
                -0.6723795465206852
            ]
        },
        {
            "positions": [
                -0.5188806545179294,
                -1.4977272765197047,
                1.9709826735024882,
                -1.3572044555213414,
                1.0320906298668748,
                -0.8714102657567164
            ]
        },
        {
            "positions": [
                -0.4588819976278279,
                -1.4577747506320384,
                1.9761165873647142,
                -1.333606118945614,
                0.9782393308738614,
                -1.0704409849927476
            ]
        },
        {
            "positions": [
                -0.3988833407377266,
                -1.4178222247443721,
                1.9812505012269401,
                -1.3100077823698868,
                0.9243880318808482,
                -1.269471704228778
            ]
        },
        {
            "positions": [
                -0.33888468384762505,
                -1.3778696988567058,
                1.9863844150891663,
                -1.2864094457941593,
                0.8705367328878347,
                -1.4685024234648092
            ]
        },
        {
            "positions": [
                -0.2788860269575236,
                -1.3379171729690391,
                1.9915183289513922,
                -1.262811109218432,
                0.8166854338948214,
                -1.6675331427008404
            ]
        },
        {
            "positions": [
                -0.2188873700674221,
                -1.2979646470813728,
                1.9966522428136182,
                -1.2392127726427045,
                0.7628341349018081,
                -1.8665638619368716
            ]
        },
        {
            "positions": [
                -0.15888871317732078,
                -1.2580121211937065,
                2.0017861566758444,
                -1.2156144360669772,
                0.7089828359087949,
                -2.0655945811729017
            ]
        },
        {
            "positions": [
                -0.09889005628721925,
                -1.2180595953060402,
                2.00692007053807,
                -1.1920160994912496,
                0.6551315369157814,
                -2.264625300408933
            ]
        },
        {
            "positions": [
                -0.03889139939711783,
                -1.1781070694183737,
                2.0120539844002963,
                -1.1684177629155224,
                0.6012802379227681,
                -2.4636560196449646
            ]
        },
        {
            "positions": [
                -0.006759012003277484,
                -1.171791692181176,
                2.0067302188014526,
                -1.1042477435960794,
                0.505989756581736,
                -2.598489268350614
            ]
        },
        {
            "positions": [
                0.025373375390562863,
                -1.1654763149439784,
                2.0014064532026095,
                -1.0400777242766366,
                0.4106992752407037,
                -2.733322517056263
            ]
        },
        {
            "positions": [
                0.0575057627844032,
                -1.1591609377067806,
                1.9960826876037658,
                -0.9759077049571937,
                0.3154087938996716,
                -2.8681557657619123
            ]
        },
        {
            "positions": [
                0.08963815017824356,
                -1.152845560469583,
                1.9907589220049222,
                -0.9117376856377508,
                0.22011831255863934,
                -3.0029890144675617
            ]
        },
        {
            "positions": [
                0.1217705375720839,
                -1.1465301832323853,
                1.9854351564060788,
                -0.8475676663183079,
                0.1248278312176072,
                -3.1378222631732107
            ]
        }
    ]
}