{
    "goal": {
        "global_pose": {
            "orientation": {
                "w": 0.7047431468963623,
                "x": -0.7094548344612122,
                "y": 0.0024358443915843964,
                "z": -0.0022348060738295317
            },
            "position": {
                "x": 0.6094750761985779,
                "y": 0.3671506643295288,
                "z": 0.19426114857196808
            }
        },
        "name": "move_to_magneteinheit_A"
    },
    "id": "RRTstar_move_to_magneteinheit_A_25",
    "joint_names": [
        "shoulder_pan_joint",
        "shoulder_lift_joint",
        "elbow_joint",
        "wrist_1_joint",
        "wrist_2_joint",
        "wrist_3_joint"
    ],
    "metrics": {
        "cart_traj_len": 3.5310688057944555,
        "distance_elbow_joint": 3.912472663711876,
        "distance_shoulder_lift_joint": 0.46721805325954435,
        "distance_shoulder_pan_joint": 2.731550869516745,
        "distance_wrist_1_joint": 3.4715482431509974,
        "distance_wrist_2_joint": 1.4443289432498778,
        "distance_wrist_3_joint": 0.44166458853715007,
        "smoothness": 0.008008076845469706,
        "time": 5.040068175,
        "traj_len": 3.5311164468799654,
        "weighted_distance": 4.274106892077147
    },
    "planner": "RRTstar",
    "start": {
        "state": {
            "elbow_joint": -1.919618573717145,
            "shoulder_lift_joint": -1.2443395971678275,
            "shoulder_pan_joint": 2.6996025300909787,
            "wrist_1_joint": -1.548550951253194,
            "wrist_2_joint": -1.5709469090946802,
            "wrist_3_joint": 0.4420197732051276
        }
    },
    "waypoints": [
        {
            "positions": [
                2.6996025300909787,
                -1.2443395971678275,
                -1.919618573717145,
                -1.548550951253194,
                -1.5709469090946802,
                0.4420197732051276
            ]
        },
        {
            "positions": [
                2.5612981856056147,
                -1.23557036748194,
                -1.7638210581621483,
                -1.5183292994317497,
                -1.5207115845633037,
                0.43402378007499154
            ]
        },
        {
            "positions": [
                2.4229938411202507,
                -1.2268011377960528,
                -1.6080235426071516,
                -1.4881076476103052,
                -1.470476260031927,
                0.4260277869448555
            ]
        },
        {
            "positions": [
                2.2846894966348867,
                -1.2180319081101654,
                -1.452226027052155,
                -1.4578859957888606,
                -1.4202409355005505,
                0.4180317938147195
            ]
        },
        {
            "positions": [
                2.1463851521495227,
                -1.209262678424278,
                -1.2964285114971583,
                -1.4276643439674161,
                -1.3700056109691738,
                0.41003580068458345
            ]
        },
        {
            "positions": [
                2.008080807664159,
                -1.2004934487383907,
                -1.1406309959421617,
                -1.3974426921459717,
                -1.3197702864377974,
                0.4020398075544474
            ]
        },
        {
            "positions": [
                1.8697764631787952,
                -1.1917242190525033,
                -0.984833480387165,
                -1.3672210403245273,
                -1.269534961906421,
                0.39404381442431136
            ]
        },
        {
            "positions": [
                1.7314721186934312,
                -1.1829549893666158,
                -0.8290359648321683,
                -1.3369993885030829,
                -1.2192996373750442,
                0.38604782129417536
            ]
        },
        {
            "positions": [
                1.5931677742080672,
                -1.1741857596807286,
                -0.6732384492771717,
                -1.3067777366816382,
                -1.1690643128436677,
                0.3780518281640393
            ]
        },
        {
            "positions": [
                1.4548634297227032,
                -1.1654165299948411,
                -0.517440933722175,
                -1.2765560848601938,
                -1.118828988312291,
                0.37005583503390327
            ]
        },
        {
            "positions": [
                1.3165590852373392,
                -1.1566473003089537,
                -0.3616434181671784,
                -1.2463344330387494,
                -1.0685936637809146,
                0.3620598419037672
            ]
        },
        {
            "positions": [
                1.1782547407519752,
                -1.1478780706230662,
                -0.20584590261218172,
                -1.216112781217305,
                -1.018358339249538,
                0.3540638487736312
            ]
        },
        {
            "positions": [
                1.0399503962666115,
                -1.139108840937179,
                -0.05004838705718506,
                -1.1858911293958605,
                -0.9681230147181614,
                0.3460678556434952
            ]
        },
        {
            "positions": [
                0.9016460517812475,
                -1.1303396112512916,
                0.1057491284978116,
                -1.1556694775744158,
                -0.9178876901867848,
                0.33807186251335913
            ]
        },
        {
            "positions": [
                0.7633417072958835,
                -1.1215703815654041,
                0.26154664405280825,
                -1.1254478257529714,
                -0.8676523656554084,
                0.3300758693832231
            ]
        },
        {
            "positions": [
                0.6250373628105197,
                -1.112801151879517,
                0.4173441596078049,
                -1.095226173931527,
                -0.8174170411240317,
                0.32207987625308704
            ]
        },
        {
            "positions": [
                0.4867330183251557,
                -1.1040319221936294,
                0.5731416751628016,
                -1.0650045221100826,
                -0.7671817165926552,
                0.314083883122951
            ]
        },
        {
            "positions": [
                0.3484286738397917,
                -1.095262692507742,
                0.7289391907177982,
                -1.034782870288638,
                -0.7169463920612786,
                0.306087889992815
            ]
        },
        {
            "positions": [
                0.2101243293544277,
                -1.0864934628218548,
                0.8847367062727949,
                -1.0045612184671935,
                -0.6667110675299021,
                0.29809189686267895
            ]
        },
        {
            "positions": [
                0.07181998486906367,
                -1.0777242331359673,
                1.0405342218277918,
                -0.9743395666457491,
                -0.6164757429985255,
                0.2900959037325429
            ]
        },
        {
            "positions": [
                0.06911268487142433,
                -1.0554546159114189,
                1.116932580700101,
                -0.7621757731024968,
                -0.5785436247008537,
                0.2686518220012118
            ]
        },
        {
            "positions": [
                0.06640538487378497,
                -1.0331849986868706,
                1.19333093957241,
                -0.5500119795592446,
                -0.540611506403182,
                0.2472077402698807
            ]
        },
        {
            "positions": [
                0.06369808487614563,
                -1.0109153814623222,
                1.2697292984447193,
                -0.3378481860159924,
                -0.5026793881055103,
                0.22576365853854963
            ]
        },
        {
            "positions": [
                0.06099078487850628,
                -0.9886457642377738,
                1.3461276573170284,
                -0.1256843924727401,
                -0.4647472698078384,
                0.20431957680721852
            ]
        },
        {
            "positions": [
                0.05828348488086693,
                -0.9663761470132255,
                1.4225260161893376,
                0.08647940107051211,
                -0.4268151515101667,
                0.18287549507588743
            ]
        },
        {
            "positions": [
                0.05557618488322759,
                -0.9441065297886772,
                1.4989243750616468,
                0.2986431946137642,
                -0.38888303321249496,
                0.16143141334455635
            ]
        },
        {
            "positions": [
                0.05286888488558823,
                -0.9218369125641288,
                1.575322733933956,
                0.5108069881570165,
                -0.3509509149148232,
                0.13998733161322527
            ]
        },
        {
            "positions": [
                0.05016158488794889,
                -0.8995672953395804,
                1.6517210928062651,
                0.7229707817002688,
                -0.31301879661715143,
                0.11854324988189413
            ]
        },
        {
            "positions": [
                0.047454284890309534,
                -0.877297678115032,
                1.7281194516785743,
                0.9351345752435212,
                -0.2750866783194797,
                0.09709916815056305
            ]
        },
        {
            "positions": [
                0.04474698489267019,
                -0.8550280608904837,
                1.8045178105508834,
                1.1472983687867735,
                -0.23715456002180796,
                0.07565508641923195
            ]
        },
        {
            "positions": [
                0.05711837231684805,
                -0.8383608703918475,
                1.8485078632765284,
                1.3116816715560669,
                -0.21246828389976596,
                0.05955873290280887
            ]
        },
        {
            "positions": [
                0.07855968461493469,
                -0.8179477615639927,
                1.8966232721825964,
                1.5154535450033124,
                -0.18385151121477813,
                0.03982421682453174
            ]
        },
        {
            "positions": [
                0.10000099691302133,
                -0.7975346527361379,
                1.9447386810886647,
                1.7192254184505578,
                -0.1552347385297903,
                0.020089700746254602
            ]
        },
        {
            "positions": [
                0.12144230921110798,
                -0.7771215439082831,
                1.9928540899947327,
                1.9229972918978033,
                -0.12661796584480245,
                0.00035518466797745805
            ]
        }
    ]
}{
    "goal": {
        "global_pose": {
            "orientation": {
                "w": 0.7047431468963623,
                "x": -0.7094548344612122,
                "y": 0.0024358443915843964,
                "z": -0.0022348060738295317
            },
            "position": {
                "x": 0.6094750761985779,
                "y": 0.3671506643295288,
                "z": 0.19426114857196808
            }
        },
        "name": "move_to_magneteinheit_A"
    },
    "id": "RRTstar_move_to_magneteinheit_A_25",
    "joint_names": [
        "shoulder_pan_joint",
        "shoulder_lift_joint",
        "elbow_joint",
        "wrist_1_joint",
        "wrist_2_joint",
        "wrist_3_joint"
    ],
    "metrics": {
        "cart_traj_len": 1.2037752393878567,
        "distance_elbow_joint": 0.04007541385826641,
        "distance_shoulder_lift_joint": 0.764453344903524,
        "distance_shoulder_pan_joint": 1.24095758297548,
        "distance_wrist_1_joint": 0.8806553358043978,
        "distance_wrist_2_joint": 1.4313267881491625,
        "distance_wrist_3_joint": 1.904286747704581,
        "smoothness": 0.0,
        "time": 5.00297272,
        "traj_len": 2.502349938237139,
        "weighted_distance": 3.518850782962832
    },
    "planner": "RRTstar",
    "start": {
        "state": {
            "elbow_joint": 1.919643534880228,
            "shoulder_lift_joint": -1.8972525353963687,
            "shoulder_pan_joint": -1.1188672234189438,
            "wrist_1_joint": -1.5931878212786155,
            "wrist_2_joint": 1.5706036197970081,
            "wrist_3_joint": 1.118896926603594
        }
    },
    "waypoints": [
        {
            "positions": [
                -1.1188672234189438,
                -1.8972525353963687,
                1.919643534880228,
                -1.5931878212786155,
                1.5706036197970081,
                1.118896926603594
            ]
        },
        {
            "positions": [
                -1.0413073744829764,
                -1.8494742013398984,
                1.9221482482463697,
                -1.5381468627908406,
                1.4811456955376854,
                1.2379148483351303
            ]
        },
        {
            "positions": [
                -0.9637475255470088,
                -1.8016958672834282,
                1.9246529616125114,
                -1.4831059043030657,
                1.3916877712783629,
                1.3569327700666667
            ]
        },
        {
            "positions": [
                -0.8861876766110414,
                -1.753917533226958,
                1.927157674978653,
                -1.428064945815291,
                1.30222984701904,
                1.4759506917982028
            ]
        },
        {
            "positions": [
                -0.8086278276750738,
                -1.7061391991704877,
                1.9296623883447948,
                -1.373023987327516,
                1.2127719227597176,
                1.5949686135297392
            ]
        },
        {
            "positions": [
                -0.7310679787391063,
                -1.6583608651140174,
                1.9321671017109363,
                -1.3179830288397412,
                1.1233139985003948,
                1.7139865352612755
            ]
        },
        {
            "positions": [
                -0.6535081298031389,
                -1.6105825310575472,
                1.934671815077078,
                -1.2629420703519663,
                1.033856074241072,
                1.833004456992812
            ]
        },
        {
            "positions": [
                -0.5759482808671713,
                -1.562804197001077,
                1.9371765284432196,
                -1.2079011118641914,
                0.9443981499817495,
                1.9520223787243483
            ]
        },
        {
            "positions": [
                -0.49838843193120386,
                -1.5150258629446067,
                1.9396812418093612,
                -1.1528601533764165,
                0.8549402257224269,
                2.0710403004558846
            ]
        },
        {
            "positions": [
                -0.4208285829952364,
                -1.4672475288881364,
                1.942185955175503,
                -1.0978191948886418,
                0.7654823014631043,
                2.190058222187421
            ]
        },
        {
            "positions": [
                -0.34326873405926883,
                -1.4194691948316662,
                1.9446906685416445,
                -1.0427782364008669,
                0.6760243772037816,
                2.309076143918957
            ]
        },
        {
            "positions": [
                -0.2657088851233014,
                -1.371690860775196,
                1.9471953819077863,
                -0.987737277913092,
                0.586566452944459,
                2.4280940656504937
            ]
        },
        {
            "positions": [
                -0.18814903618733392,
                -1.3239125267187257,
                1.9497000952739278,
                -0.932696319425317,
                0.4971085286851362,
                2.5471119873820296
            ]
        },
        {
            "positions": [
                -0.11058918725136646,
                -1.2761341926622554,
                1.9522048086400696,
                -0.8776553609375423,
                0.4076506044258137,
                2.6661299091135664
            ]
        },
        {
            "positions": [
                -0.03302933831539878,
                -1.2283558586057852,
                1.9547095220062112,
                -0.8226144024497674,
                0.31819268016649094,
                2.7851478308451023
            ]
        },
        {
            "positions": [
                0.044530510620568675,
                -1.180577524549315,
                1.957214235372353,
                -0.7675734439619926,
                0.2287347559071684,
                2.9041657525766387
            ]
        },
        {
            "positions": [
                0.12209035955653608,
                -1.1327991904928447,
                1.9597189487384945,
                -0.7125324854742177,
                0.13927683164784568,
                3.023183674308175
            ]
        }
    ]
}