{
    "goal": {
        "global_pose": {
            "orientation": {
                "w": 0.5084816217422485,
                "x": -0.49083608388900757,
                "y": 0.5182115435600281,
                "z": -0.4816462993621826
            },
            "position": {
                "x": 0.5540239810943604,
                "y": 0.030875300988554955,
                "z": 0.16403168439865112
            }
        },
        "name": "move_to_storage_A"
    },
    "id": "RRTstar_move_to_storage_A_141",
    "joint_names": [
        "shoulder_pan_joint",
        "shoulder_lift_joint",
        "elbow_joint",
        "wrist_1_joint",
        "wrist_2_joint",
        "wrist_3_joint"
    ],
    "metrics": {
        "cart_traj_len": 0.3536297116205718,
        "distance_elbow_joint": 0.4498254509899473,
        "distance_shoulder_lift_joint": 0.2339023775065021,
        "distance_shoulder_pan_joint": 0.4645997994408557,
        "distance_wrist_1_joint": 0.24352015240723224,
        "distance_wrist_2_joint": 1.09010727714969,
        "distance_wrist_3_joint": 0.09080876132239313,
        "smoothness": 4.440892098500626e-16,
        "time": 5.000619003,
        "traj_len": 1.6039837339626049,
        "weighted_distance": 2.021882481999963
    },
    "planner": "RRTstar",
    "start": {
        "state": {
            "elbow_joint": 1.9715477243005601,
            "shoulder_lift_joint": -1.1394853015351272,
            "shoulder_pan_joint": 0.12281154014795169,
            "wrist_1_joint": -0.7804696478968182,
            "wrist_2_joint": 0.12958648046900423,
            "wrist_3_joint": -3.192491284697111
        }
    },
    "waypoints": [
        {
            "positions": [
                0.12281154014795169,
                -1.1394853015351272,
                1.9715477243005601,
                -0.7804696478968182,
                0.12958648046900423,
                -3.192491284697111
            ]
        },
        {
            "positions": [
                0.05644014022782945,
                -1.172899926893199,
                2.03580850301341,
                -0.8152582410978514,
                0.2853160914903885,
                -3.179518604508198
            ]
        },
        {
            "positions": [
                -0.00993125969229279,
                -1.2063145522512706,
                2.100069281726259,
                -0.8500468342988845,
                0.4410457025117728,
                -3.1665459243192844
            ]
        },
        {
            "positions": [
                -0.07630265961241504,
                -1.2397291776093424,
                2.164330060439109,
                -0.8848354274999177,
                0.596775313533157,
                -3.153573244130371
            ]
        },
        {
            "positions": [
                -0.14267405953253726,
                -1.273143802967414,
                2.2285908391519587,
                -0.9196240207009508,
                0.7525049245545413,
                -3.140600563941458
            ]
        },
        {
            "positions": [
                -0.2090454594526595,
                -1.3065584283254859,
                2.2928516178648084,
                -0.9544126139019841,
                0.9082345355759257,
                -3.127627883752545
            ]
        },
        {
            "positions": [
                -0.27541685937278176,
                -1.3399730536835575,
                2.3571123965776577,
                -0.9892012071030172,
                1.0639641465973098,
                -3.1146552035636312
            ]
        },
        {
            "positions": [
                -0.341788259292904,
                -1.3733876790416293,
                2.4213731752905074,
                -1.0239898003040504,
                1.2196937576186941,
                -3.101682523374718
            ]
        }
    ]
}