{
    "goal": {
        "global_pose": {
            "orientation": {
                "w": 0.5084816217422485,
                "x": -0.49083608388900757,
                "y": 0.5182115435600281,
                "z": -0.4816462993621826
            },
            "position": {
                "x": 0.5540239810943604,
                "y": 0.030875300988554955,
                "z": 0.16403168439865112
            }
        },
        "name": "move_to_storage_A"
    },
    "id": "RRTstar_move_to_storage_A_130",
    "joint_names": [
        "shoulder_pan_joint",
        "shoulder_lift_joint",
        "elbow_joint",
        "wrist_1_joint",
        "wrist_2_joint",
        "wrist_3_joint"
    ],
    "metrics": {
        "cart_traj_len": 0.35247871226883365,
        "distance_elbow_joint": 0.45217258623634526,
        "distance_shoulder_lift_joint": 0.23399655564495703,
        "distance_shoulder_pan_joint": 0.460301255376866,
        "distance_wrist_1_joint": 0.2503589218077501,
        "distance_wrist_2_joint": 1.1006050347376308,
        "distance_wrist_3_joint": 0.09259161496136326,
        "smoothness": 8.881784197001252e-16,
        "time": 5.000844324,
        "traj_len": 1.609355762025573,
        "weighted_distance": 2.0312983914809317
    },
    "planner": "RRTstar",
    "start": {
        "state": {
            "elbow_joint": 1.9715477243005601,
            "shoulder_lift_joint": -1.1394853015351272,
            "shoulder_pan_joint": 0.12281154014795169,
            "wrist_1_joint": -0.7804696478968182,
            "wrist_2_joint": 0.12958648046900423,
            "wrist_3_joint": -3.192491284697111
        }
    },
    "waypoints": [
        {
            "positions": [
                0.12281154014795169,
                -1.1394853015351272,
                1.9715477243005601,
                -0.7804696478968182,
                0.12958648046900423,
                -3.192491284697111
            ]
        },
        {
            "positions": [
                0.05705421795125655,
                -1.1729133809129781,
                2.0361438080486094,
                -0.8162352081550682,
                0.2868157711458086,
                -3.179263911131202
            ]
        },
        {
            "positions": [
                -0.00870310424543859,
                -1.2063414602908291,
                2.1007398917966587,
                -0.8520007684133182,
                0.444045061822613,
                -3.1660365375652932
            ]
        },
        {
            "positions": [
                -0.07446042644213373,
                -1.23976953966868,
                2.165335975544708,
                -0.8877663286715682,
                0.6012743524994174,
                -3.1528091639993843
            ]
        },
        {
            "positions": [
                -0.14021774863882885,
                -1.273197619046531,
                2.229932059292757,
                -0.9235318889298182,
                0.7585036431762218,
                -3.139581790433475
            ]
        },
        {
            "positions": [
                -0.20597507083552402,
                -1.3066256984243823,
                2.294528143040807,
                -0.9592974491880683,
                0.9157329338530262,
                -3.126354416867566
            ]
        },
        {
            "positions": [
                -0.27173239303221913,
                -1.3400537778022332,
                2.359124226788856,
                -0.9950630094463182,
                1.0729622245298307,
                -3.113127043301657
            ]
        },
        {
            "positions": [
                -0.3374897152289143,
                -1.3734818571800842,
                2.4237203105369054,
                -1.0308285697045683,
                1.2301915152066352,
                -3.099899669735748
            ]
        }
    ]
}