{
    "goal": {
        "global_pose": {
            "orientation": {
                "w": 0.7047431468963623,
                "x": -0.7094548344612122,
                "y": 0.0024358443915843964,
                "z": -0.0022348060738295317
            },
            "position": {
                "x": 0.6094750761985779,
                "y": 0.3671506643295288,
                "z": 0.19426114857196808
            }
        },
        "name": "move_to_magneteinheit_A"
    },
    "id": "RRTstar_move_to_magneteinheit_A_18",
    "joint_names": [
        "shoulder_pan_joint",
        "shoulder_lift_joint",
        "elbow_joint",
        "wrist_1_joint",
        "wrist_2_joint",
        "wrist_3_joint"
    ],
    "metrics": {
        "cart_traj_len": 3.5228999990995975,
        "distance_elbow_joint": 3.8738377854597505,
        "distance_shoulder_lift_joint": 0.31358440627022555,
        "distance_shoulder_pan_joint": 2.733979807143451,
        "distance_wrist_1_joint": 0.8382286895606186,
        "distance_wrist_2_joint": 1.6938849001184169,
        "distance_wrist_3_joint": 2.5776797533585185,
        "smoothness": 0.04756653549263834,
        "time": 5.024014810000001,
        "traj_len": 3.4686013524057464,
        "weighted_distance": 4.440570733397571
    },
    "planner": "RRTstar",
    "start": {
        "state": {
            "elbow_joint": -1.919618573717145,
            "shoulder_lift_joint": -1.2443395971678275,
            "shoulder_pan_joint": 2.6996025300909787,
            "wrist_1_joint": -1.548550951253194,
            "wrist_2_joint": -1.5709469090946802,
            "wrist_3_joint": 0.4420197732051276
        }
    },
    "waypoints": [
        {
            "positions": [
                2.6996025300909787,
                -1.2443395971678275,
                -1.919618573717145,
                -1.548550951253194,
                -1.5709469090946802,
                0.4420197732051276
            ]
        },
        {
            "positions": [
                2.5841535334203325,
                -1.235039682329517,
                -1.8451073242217193,
                -1.527668598913992,
                -1.50129559880978,
                0.5344548067383522
            ]
        },
        {
            "positions": [
                2.4687045367496863,
                -1.225739767491207,
                -1.7705960747262937,
                -1.50678624657479,
                -1.4316442885248797,
                0.6268898402715769
            ]
        },
        {
            "positions": [
                2.35325554007904,
                -1.2164398526528966,
                -1.696084825230868,
                -1.485903894235588,
                -1.3619929782399796,
                0.7193248738048016
            ]
        },
        {
            "positions": [
                2.237806543408394,
                -1.2071399378145864,
                -1.6215735757354424,
                -1.4650215418963861,
                -1.2923416679550794,
                0.8117599073380262
            ]
        },
        {
            "positions": [
                2.1223575467377476,
                -1.197840022976276,
                -1.5470623262400167,
                -1.444139189557184,
                -1.2226903576701793,
                0.9041949408712509
            ]
        },
        {
            "positions": [
                2.0069085500671013,
                -1.1885401081379658,
                -1.472551076744591,
                -1.423256837217982,
                -1.153039047385279,
                0.9966299744044755
            ]
        },
        {
            "positions": [
                1.891459553396455,
                -1.1792401932996555,
                -1.3980398272491654,
                -1.40237448487878,
                -1.0833877371003788,
                1.0890650079377002
            ]
        },
        {
            "positions": [
                1.7760105567258089,
                -1.1699402784613453,
                -1.3235285777537398,
                -1.381492132539578,
                -1.0137364268154787,
                1.181500041470925
            ]
        },
        {
            "positions": [
                1.6605615600551626,
                -1.160640363623035,
                -1.2490173282583141,
                -1.360609780200376,
                -0.9440851165305784,
                1.2739350750041496
            ]
        },
        {
            "positions": [
                1.5451125633845164,
                -1.1513404487847247,
                -1.1745060787628885,
                -1.339727427861174,
                -0.8744338062456782,
                1.3663701085373743
            ]
        },
        {
            "positions": [
                1.4296635667138702,
                -1.1420405339464144,
                -1.0999948292674628,
                -1.3188450755219718,
                -0.804782495960778,
                1.458805142070599
            ]
        },
        {
            "positions": [
                1.314214570043224,
                -1.1327406191081042,
                -1.0254835797720372,
                -1.29796272318277,
                -0.7351311856758779,
                1.5512401756038237
            ]
        },
        {
            "positions": [
                1.198765573372578,
                -1.1234407042697938,
                -0.9509723302766117,
                -1.2770803708435678,
                -0.6654798753909777,
                1.6436752091370481
            ]
        },
        {
            "positions": [
                1.0833165767019315,
                -1.1141407894314836,
                -0.8764610807811859,
                -1.256198018504366,
                -0.5958285651060774,
                1.736110242670273
            ]
        },
        {
            "positions": [
                0.9678675800312853,
                -1.1048408745931733,
                -0.8019498312857603,
                -1.2353156661651639,
                -0.5261772548211772,
                1.8285452762034977
            ]
        },
        {
            "positions": [
                0.852418583360639,
                -1.095540959754863,
                -0.7274385817903346,
                -1.2144333138259618,
                -0.45652594453627704,
                1.9209803097367222
            ]
        },
        {
            "positions": [
                0.736969586689993,
                -1.0862410449165527,
                -0.652927332294909,
                -1.1935509614867599,
                -0.3868746342513769,
                2.013415343269947
            ]
        },
        {
            "positions": [
                0.6215205900193466,
                -1.0769411300782425,
                -0.5784160827994833,
                -1.1726686091475578,
                -0.31722332396647657,
                2.1058503768031716
            ]
        },
        {
            "positions": [
                0.5060715933487003,
                -1.0676412152399322,
                -0.5039048333040577,
                -1.151786256808356,
                -0.24757201368157644,
                2.1982854103363962
            ]
        },
        {
            "positions": [
                0.3906225966780541,
                -1.058341300401622,
                -0.429393583808632,
                -1.1309039044691538,
                -0.17792070339667632,
                2.290720443869621
            ]
        },
        {
            "positions": [
                0.27517360000740787,
                -1.0490413855633116,
                -0.35488233431320637,
                -1.1100215521299517,
                -0.10826939311177619,
                2.3831554774028456
            ]
        },
        {
            "positions": [
                0.15972460333676164,
                -1.0397414707250014,
                -0.2803710848177807,
                -1.0891391997907496,
                -0.038618082826875844,
                2.4755905109360703
            ]
        },
        {
            "positions": [
                0.04427560666611555,
                -1.030441555886691,
                -0.20585983532235513,
                -1.0682568474515477,
                0.03103322745802428,
                2.568025544469295
            ]
        },
        {
            "positions": [
                0.053014815968180626,
                -1.0415178186632565,
                0.03414894768486279,
                -1.028486337922773,
                0.04124486785421445,
                2.6182115424797785
            ]
        },
        {
            "positions": [
                0.061754025270245705,
                -1.052594081439822,
                0.2741577306920807,
                -0.9887158283939983,
                0.05145650825040461,
                2.668397540490262
            ]
        },
        {
            "positions": [
                0.07049323457231078,
                -1.0636703442163875,
                0.5141665136992986,
                -0.9489453188652236,
                0.061668148646594784,
                2.7185835385007455
            ]
        },
        {
            "positions": [
                0.07923244387437586,
                -1.074746606992953,
                0.7541752967065165,
                -0.9091748093364489,
                0.07187978904278494,
                2.768769536511229
            ]
        },
        {
            "positions": [
                0.08797165317644094,
                -1.0858228697695183,
                0.9941840797137347,
                -0.8694042998076743,
                0.08209142943897513,
                2.818955534521712
            ]
        },
        {
            "positions": [
                0.09671086247850602,
                -1.0968991325460837,
                1.2341928627209524,
                -0.8296337902788996,
                0.09230306983516529,
                2.8691415325321956
            ]
        },
        {
            "positions": [
                0.1054500717805711,
                -1.1079753953226492,
                1.4742016457281704,
                -0.7898632807501249,
                0.10251471023135546,
                2.919327530542679
            ]
        },
        {
            "positions": [
                0.11418928108263618,
                -1.1190516580992147,
                1.7142104287353883,
                -0.7500927712213502,
                0.11272635062754562,
                2.9695135285531626
            ]
        },
        {
            "positions": [
                0.12292849038470126,
                -1.1301279208757802,
                1.954219211742606,
                -0.7103222616925755,
                0.12293799102373579,
                3.019699526563646
            ]
        }
    ]
}{
    "goal": {
        "global_pose": {
            "orientation": {
                "w": 0.7047431468963623,
                "x": -0.7094548344612122,
                "y": 0.0024358443915843964,
                "z": -0.0022348060738295317
            },
            "position": {
                "x": 0.6094750761985779,
                "y": 0.3671506643295288,
                "z": 0.19426114857196808
            }
        },
        "name": "move_to_magneteinheit_A"
    },
    "id": "RRTstar_move_to_magneteinheit_A_18",
    "joint_names": [
        "shoulder_pan_joint",
        "shoulder_lift_joint",
        "elbow_joint",
        "wrist_1_joint",
        "wrist_2_joint",
        "wrist_3_joint"
    ],
    "metrics": {
        "cart_traj_len": 1.1576969234413015,
        "distance_elbow_joint": 0.09163822126419063,
        "distance_shoulder_lift_joint": 0.7939821545015455,
        "distance_shoulder_pan_joint": 1.2411011234784046,
        "distance_wrist_1_joint": 0.7440868647206244,
        "distance_wrist_2_joint": 1.4384143716824818,
        "distance_wrist_3_joint": 4.2502534014665905,
        "smoothness": 0.012358479611880482,
        "time": 5.046750178,
        "traj_len": 2.92565823997162,
        "weighted_distance": 4.386625602493348
    },
    "planner": "RRTstar",
    "start": {
        "state": {
            "elbow_joint": 1.919643534880228,
            "shoulder_lift_joint": -1.8972525353963687,
            "shoulder_pan_joint": -1.1188672234189438,
            "wrist_1_joint": -1.5931878212786155,
            "wrist_2_joint": 1.5706036197970081,
            "wrist_3_joint": 1.118896926603594
        }
    },
    "waypoints": [
        {
            "positions": [
                -1.1188672234189438,
                -1.8972525353963687,
                1.919643534880228,
                -1.5931878212786155,
                1.5706036197970081,
                1.118896926603594
            ]
        },
        {
            "positions": [
                -1.0751618495933823,
                -1.899548602026481,
                1.9184937565777598,
                -1.55020437410132,
                1.4998721123217602,
                0.905917138404451
            ]
        },
        {
            "positions": [
                -1.0314564757678208,
                -1.9018446686565929,
                1.9173439782752915,
                -1.5072209269240247,
                1.4291406048465123,
                0.692937350205308
            ]
        },
        {
            "positions": [
                -0.9877511019422595,
                -1.9041407352867048,
                1.9161941999728231,
                -1.4642374797467292,
                1.3584090973712644,
                0.479957562006165
            ]
        },
        {
            "positions": [
                -0.944045728116698,
                -1.906436801916817,
                1.9150444216703548,
                -1.4212540325694336,
                1.2876775898960164,
                0.2669777738070219
            ]
        },
        {
            "positions": [
                -0.9003403542911365,
                -1.9087328685469291,
                1.9138946433678865,
                -1.3782705853921384,
                1.2169460824207685,
                0.05399798560787894
            ]
        },
        {
            "positions": [
                -0.8566349804655751,
                -1.911028935177041,
                1.912744865065418,
                -1.3352871382148428,
                1.1462145749455206,
                -0.15898180259126393
            ]
        },
        {
            "positions": [
                -0.8129296066400136,
                -1.913325001807153,
                1.9115950867629496,
                -1.2923036910375476,
                1.0754830674702727,
                -0.371961590790407
            ]
        },
        {
            "positions": [
                -0.7692242328144521,
                -1.9156210684372652,
                1.9104453084604813,
                -1.249320243860252,
                1.0047515599950247,
                -0.5849413789895501
            ]
        },
        {
            "positions": [
                -0.7255188589888906,
                -1.9179171350673774,
                1.909295530158013,
                -1.2063367966829566,
                0.9340200525197769,
                -0.7979211671886932
            ]
        },
        {
            "positions": [
                -0.6818134851633291,
                -1.9202132016974893,
                1.9081457518555447,
                -1.1633533495056612,
                0.863288545044529,
                -1.0109009553878363
            ]
        },
        {
            "positions": [
                -0.6199636863000375,
                -1.8609038564513027,
                1.9143104009508913,
                -1.1391800885096866,
                0.807050137588375,
                -1.1740129184243873
            ]
        },
        {
            "positions": [
                -0.5581138874367461,
                -1.8015945112051162,
                1.9204750500462382,
                -1.115006827513712,
                0.7508117301322209,
                -1.337124881460938
            ]
        },
        {
            "positions": [
                -0.4962640885734545,
                -1.7422851659589298,
                1.9266396991415848,
                -1.0908335665177373,
                0.6945733226760669,
                -1.500236844497489
            ]
        },
        {
            "positions": [
                -0.434414289710163,
                -1.6829758207127432,
                1.9328043482369315,
                -1.0666603055217627,
                0.6383349152199128,
                -1.6633488075340397
            ]
        },
        {
            "positions": [
                -0.3725644908468715,
                -1.6236664754665566,
                1.9389689973322783,
                -1.042487044525788,
                0.5820965077637588,
                -1.8264607705705909
            ]
        },
        {
            "positions": [
                -0.3107146919835799,
                -1.56435713022037,
                1.945133646427625,
                -1.0183137835298135,
                0.5258581003076048,
                -1.9895727336071416
            ]
        },
        {
            "positions": [
                -0.24886489312028848,
                -1.5050477849741837,
                1.9512982955229716,
                -0.9941405225338389,
                0.4696196928514507,
                -2.1526846966436923
            ]
        },
        {
            "positions": [
                -0.18701509425699692,
                -1.445738439727997,
                1.9574629446183183,
                -0.9699672615378642,
                0.41338128539529667,
                -2.3157966596802435
            ]
        },
        {
            "positions": [
                -0.12516529539370547,
                -1.3864290944818105,
                1.9636275937136651,
                -0.9457940005418896,
                0.3571428779391427,
                -2.4789086227167942
            ]
        },
        {
            "positions": [
                -0.0633154965304139,
                -1.327119749235624,
                1.9697922428090118,
                -0.921620739545915,
                0.3009044704829885,
                -2.642020585753345
            ]
        },
        {
            "positions": [
                -0.0014656976671223454,
                -1.2678104039894373,
                1.9759568919043584,
                -0.8974474785499403,
                0.24466606302683458,
                -2.8051325487898957
            ]
        },
        {
            "positions": [
                0.060384101196169215,
                -1.2085010587432508,
                1.9821215409997053,
                -0.8732742175539657,
                0.18842765557068053,
                -2.968244511826447
            ]
        },
        {
            "positions": [
                0.1222339000594607,
                -1.1491917134970644,
                1.988286190095052,
                -0.8491009565579911,
                0.13218924811452654,
                -3.1313564748629976
            ]
        }
    ]
}