{
    "goal": {
        "global_pose": {
            "orientation": {
                "w": 0.5084816217422485,
                "x": -0.49083608388900757,
                "y": 0.5182115435600281,
                "z": -0.4816462993621826
            },
            "position": {
                "x": 0.5540239810943604,
                "y": 0.030875300988554955,
                "z": 0.16403168439865112
            }
        },
        "name": "move_to_storage_A"
    },
    "id": "RRTstar_move_to_storage_A_122",
    "joint_names": [
        "shoulder_pan_joint",
        "shoulder_lift_joint",
        "elbow_joint",
        "wrist_1_joint",
        "wrist_2_joint",
        "wrist_3_joint"
    ],
    "metrics": {
        "cart_traj_len": 0.3534467691985691,
        "distance_elbow_joint": 0.4480796130326201,
        "distance_shoulder_lift_joint": 0.2337998077892811,
        "distance_shoulder_pan_joint": 0.464225110810937,
        "distance_wrist_1_joint": 0.23830250140375442,
        "distance_wrist_2_joint": 1.0899108028259126,
        "distance_wrist_3_joint": 0.09012540582050965,
        "smoothness": 1.5543122343307022e-15,
        "time": 5.004223491,
        "traj_len": 1.6013879110580966,
        "weighted_distance": 2.018144533365661
    },
    "planner": "RRTstar",
    "start": {
        "state": {
            "elbow_joint": 1.9715477243005601,
            "shoulder_lift_joint": -1.1394853015351272,
            "shoulder_pan_joint": 0.12281154014795169,
            "wrist_1_joint": -0.7804696478968182,
            "wrist_2_joint": 0.12958648046900423,
            "wrist_3_joint": -3.192491284697111
        }
    },
    "waypoints": [
        {
            "positions": [
                0.12281154014795169,
                -1.1394853015351272,
                1.9715477243005601,
                -0.7804696478968182,
                0.12958648046900423,
                -3.192491284697111
            ]
        },
        {
            "positions": [
                0.056493667174960696,
                -1.172885274076453,
                2.0355590975909346,
                -0.8145128623830687,
                0.28528802372984885,
                -3.179616226722753
            ]
        },
        {
            "positions": [
                -0.009824205798030297,
                -1.206285246617779,
                2.0995704708813085,
                -0.8485560768693194,
                0.4409895669906935,
                -3.166741168748394
            ]
        },
        {
            "positions": [
                -0.07614207877102129,
                -1.2396852191591048,
                2.163581844171683,
                -0.88259929135557,
                0.5966911102515382,
                -3.1538661107740356
            ]
        },
        {
            "positions": [
                -0.14245995174401227,
                -1.2730851917004307,
                2.2275932174620574,
                -0.9166425058418207,
                0.7523926535123828,
                -3.140991052799677
            ]
        },
        {
            "positions": [
                -0.2087778247170033,
                -1.3064851642417565,
                2.291604590752432,
                -0.9506857203280713,
                0.9080941967732276,
                -3.1281159948253188
            ]
        },
        {
            "positions": [
                -0.27509569768999426,
                -1.3398851367830824,
                2.355615964042806,
                -0.984728934814322,
                1.063795740034072,
                -3.11524093685096
            ]
        },
        {
            "positions": [
                -0.3414135706629853,
                -1.3732851093244083,
                2.4196273373331803,
                -1.0187721493005726,
                1.2194972832949167,
                -3.1023658788766015
            ]
        }
    ]
}