{
    "goal": {
        "global_pose": {
            "orientation": {
                "w": 0.5084816217422485,
                "x": -0.49083608388900757,
                "y": 0.5182115435600281,
                "z": -0.4816462993621826
            },
            "position": {
                "x": 0.5540239810943604,
                "y": 0.030875300988554955,
                "z": 0.16403168439865112
            }
        },
        "name": "move_to_storage_A"
    },
    "id": "RRTstar_move_to_storage_A_116",
    "joint_names": [
        "shoulder_pan_joint",
        "shoulder_lift_joint",
        "elbow_joint",
        "wrist_1_joint",
        "wrist_2_joint",
        "wrist_3_joint"
    ],
    "metrics": {
        "cart_traj_len": 0.35222491612064005,
        "distance_elbow_joint": 0.4493218096535294,
        "distance_shoulder_lift_joint": 0.23514268736687316,
        "distance_shoulder_pan_joint": 0.46068715214750516,
        "distance_wrist_1_joint": 0.2420832862019765,
        "distance_wrist_2_joint": 1.0967597363392874,
        "distance_wrist_3_joint": 0.08892962126925141,
        "smoothness": 0.0,
        "time": 5.0019728290000005,
        "traj_len": 1.6040337568076375,
        "weighted_distance": 2.022282511930069
    },
    "planner": "RRTstar",
    "start": {
        "state": {
            "elbow_joint": 1.9715477243005601,
            "shoulder_lift_joint": -1.1394853015351272,
            "shoulder_pan_joint": 0.12281154014795169,
            "wrist_1_joint": -0.7804696478968182,
            "wrist_2_joint": 0.12958648046900423,
            "wrist_3_joint": -3.192491284697111
        }
    },
    "waypoints": [
        {
            "positions": [
                0.12281154014795169,
                -1.1394853015351272,
                1.9715477243005601,
                -0.7804696478968182,
                0.12958648046900423,
                -3.192491284697111
            ]
        },
        {
            "positions": [
                0.05699908984116524,
                -1.1730771140161091,
                2.035736554251064,
                -0.8150529744971006,
                0.28626644280318814,
                -3.1797870530872183
            ]
        },
        {
            "positions": [
                -0.008813360465621214,
                -1.206668926497091,
                2.0999253842015686,
                -0.8496363010973829,
                0.44294640513737205,
                -3.167082821477325
            ]
        },
        {
            "positions": [
                -0.07462581077240767,
                -1.2402607389780729,
                2.1641142141520726,
                -0.8842196276976653,
                0.599626367471556,
                -3.154378589867432
            ]
        },
        {
            "positions": [
                -0.1404382610791941,
                -1.2738525514590546,
                2.228303044102577,
                -0.9188029542979476,
                0.7563063298057399,
                -3.141674358257539
            ]
        },
        {
            "positions": [
                -0.20625071138598056,
                -1.3074443639400366,
                2.292491874053081,
                -0.95338628089823,
                0.9129862921399238,
                -3.128970126647646
            ]
        },
        {
            "positions": [
                -0.272063161692767,
                -1.3410361764210184,
                2.356680704003585,
                -0.9879696074985123,
                1.0696662544741078,
                -3.1162658950377526
            ]
        },
        {
            "positions": [
                -0.33787561199955346,
                -1.3746279889020003,
                2.4208695339540895,
                -1.0225529340987947,
                1.2263462168082917,
                -3.1035616634278598
            ]
        }
    ]
}