{
    "goal": {
        "global_pose": {
            "orientation": {
                "w": 0.7047431468963623,
                "x": -0.7094548344612122,
                "y": 0.0024358443915843964,
                "z": -0.0022348060738295317
            },
            "position": {
                "x": 0.6094750761985779,
                "y": 0.3671506643295288,
                "z": 0.19426114857196808
            }
        },
        "name": "move_to_magneteinheit_A"
    },
    "id": "RRTstar_move_to_magneteinheit_A_52",
    "joint_names": [
        "shoulder_pan_joint",
        "shoulder_lift_joint",
        "elbow_joint",
        "wrist_1_joint",
        "wrist_2_joint",
        "wrist_3_joint"
    ],
    "metrics": {
        "cart_traj_len": 3.9069590550774915,
        "distance_elbow_joint": 4.560202599024942,
        "distance_shoulder_lift_joint": 1.544890336807947,
        "distance_shoulder_pan_joint": 2.9477064636288075,
        "distance_wrist_1_joint": 3.4642550234835565,
        "distance_wrist_2_joint": 2.149214520011162,
        "distance_wrist_3_joint": 0.9693474789076201,
        "smoothness": 0.43504048686384406,
        "time": 5.021525928,
        "traj_len": 3.9541897301298063,
        "weighted_distance": 4.8153692405851904
    },
    "planner": "RRTstar",
    "start": {
        "state": {
            "elbow_joint": -1.919618573717145,
            "shoulder_lift_joint": -1.2443395971678275,
            "shoulder_pan_joint": 2.6996025300909787,
            "wrist_1_joint": -1.548550951253194,
            "wrist_2_joint": -1.5709469090946802,
            "wrist_3_joint": 0.4420197732051276
        }
    },
    "waypoints": [
        {
            "positions": [
                2.6996025300909787,
                -1.2443395971678275,
                -1.919618573717145,
                -1.548550951253194,
                -1.5709469090946802,
                0.4420197732051276
            ]
        },
        {
            "positions": [
                2.5704924660258825,
                -1.21723461756051,
                -1.8111358699924878,
                -1.4905429632811287,
                -1.5199080377711487,
                0.43383139945879096
            ]
        },
        {
            "positions": [
                2.441382401960786,
                -1.1901296379531927,
                -1.7026531662678308,
                -1.4325349753090635,
                -1.4688691664476172,
                0.4256430257124544
            ]
        },
        {
            "positions": [
                2.3122723378956898,
                -1.1630246583458752,
                -1.5941704625431736,
                -1.3745269873369983,
                -1.4178302951240858,
                0.41745465196611775
            ]
        },
        {
            "positions": [
                2.183162273830593,
                -1.1359196787385577,
                -1.4856877588185167,
                -1.3165189993649329,
                -1.3667914238005543,
                0.4092662782197811
            ]
        },
        {
            "positions": [
                2.054052209765497,
                -1.1088146991312404,
                -1.3772050550938595,
                -1.2585110113928675,
                -1.3157525524770228,
                0.40107790447344455
            ]
        },
        {
            "positions": [
                1.9249421457004006,
                -1.081709719523923,
                -1.2687223513692025,
                -1.2005030234208023,
                -1.2647136811534914,
                0.3928895307271079
            ]
        },
        {
            "positions": [
                1.7958320816353042,
                -1.0546047399166056,
                -1.1602396476445453,
                -1.142495035448737,
                -1.21367480982996,
                0.38470115698077134
            ]
        },
        {
            "positions": [
                1.666722017570208,
                -1.0274997603092881,
                -1.0517569439198882,
                -1.0844870474766717,
                -1.1626359385064284,
                0.3765127832344347
            ]
        },
        {
            "positions": [
                1.5376119535051116,
                -1.0003947807019706,
                -0.9432742401952312,
                -1.0264790595046063,
                -1.111597067182897,
                0.3683244094880981
            ]
        },
        {
            "positions": [
                1.4085018894400152,
                -0.9732898010946534,
                -0.834791536470574,
                -0.9684710715325411,
                -1.0605581958593655,
                0.3601360357417615
            ]
        },
        {
            "positions": [
                1.2793918253749186,
                -0.9461848214873358,
                -0.7263088327459168,
                -0.9104630835604757,
                -1.0095193245358338,
                0.3519476619954249
            ]
        },
        {
            "positions": [
                1.1502817613098224,
                -0.9190798418800185,
                -0.6178261290212599,
                -0.8524550955884105,
                -0.9584804532123025,
                0.3437592882490883
            ]
        },
        {
            "positions": [
                1.021171697244726,
                -0.8919748622727011,
                -0.5093434252966027,
                -0.7944471076163451,
                -0.9074415818887709,
                0.33557091450275167
            ]
        },
        {
            "positions": [
                0.8920616331796298,
                -0.8648698826653836,
                -0.40086072157194574,
                -0.7364391196442799,
                -0.8564027105652395,
                0.32738254075641504
            ]
        },
        {
            "positions": [
                0.7629515691145332,
                -0.8377649030580662,
                -0.29237801784728856,
                -0.6784311316722145,
                -0.805363839241708,
                0.3191941670100784
            ]
        },
        {
            "positions": [
                0.6338415050494373,
                -0.8106599234507488,
                -0.1838953141226316,
                -0.6204231437001493,
                -0.7543249679181766,
                0.31100579326374184
            ]
        },
        {
            "positions": [
                0.5047314409843406,
                -0.7835549438434313,
                -0.07541261039797442,
                -0.5624151557280839,
                -0.703286096594645,
                0.3028174195174052
            ]
        },
        {
            "positions": [
                0.37562137691924447,
                -0.756449964236114,
                0.03307009332668254,
                -0.5044071677560187,
                -0.6522472252711137,
                0.29462904577106863
            ]
        },
        {
            "positions": [
                0.24651131285414765,
                -0.7293449846287965,
                0.14155279705133955,
                -0.44639917978395327,
                -0.6012083539475821,
                0.286440672024732
            ]
        },
        {
            "positions": [
                0.19247825585730277,
                -0.721157954961532,
                0.26147765170240456,
                -0.32382357983935267,
                -0.562172062840836,
                0.2714349204442439
            ]
        },
        {
            "positions": [
                0.13844519886045786,
                -0.7129709252942675,
                0.3814025063534695,
                -0.20124797989475207,
                -0.5231357717340898,
                0.2564291688637557
            ]
        },
        {
            "positions": [
                0.12170841325406756,
                -0.7578919355968504,
                0.5427228574272984,
                -0.11471627647901414,
                -0.5529678130935786,
                0.2133759704772331
            ]
        },
        {
            "positions": [
                0.10497162764767727,
                -0.8028129458994334,
                0.7040432085011273,
                -0.028184573063276208,
                -0.5827998544530675,
                0.17032277209071053
            ]
        },
        {
            "positions": [
                0.08823484204128697,
                -0.8477339562020163,
                0.8653635595749563,
                0.05834713035246175,
                -0.6126318958125563,
                0.12726957370418793
            ]
        },
        {
            "positions": [
                0.07149805643489668,
                -0.8926549665045992,
                1.026683910648785,
                0.14487883376819966,
                -0.6424639371720452,
                0.08421637531766535
            ]
        },
        {
            "positions": [
                0.05476127082850636,
                -0.9375759768071822,
                1.188004261722614,
                0.23141053718393767,
                -0.672295978531534,
                0.041163176931142714
            ]
        },
        {
            "positions": [
                0.03802448522211607,
                -0.9824969871097651,
                1.3493246127964431,
                0.3179422405996756,
                -0.7021280198910229,
                -0.0018900214553798644
            ]
        },
        {
            "positions": [
                0.02128769961572577,
                -1.027417997412348,
                1.5106449638702721,
                0.4044739440154136,
                -0.7319600612505117,
                -0.04494321984190247
            ]
        },
        {
            "positions": [
                0.004550914009335494,
                -1.0723390077149308,
                1.6719653149441007,
                0.4910056474311514,
                -0.7617921026100005,
                -0.08799641822842502
            ]
        },
        {
            "positions": [
                -0.01218587159705481,
                -1.1172600180175138,
                1.8332856660179297,
                0.5775373508468894,
                -0.7916241439694894,
                -0.13104961661494768
            ]
        },
        {
            "positions": [
                -0.02892265720344514,
                -1.1621810283200968,
                1.9946060170917588,
                0.6640690542626274,
                -0.8214561853289783,
                -0.1741028150014703
            ]
        },
        {
            "positions": [
                -0.045659442809835415,
                -1.2071020386226796,
                2.1559263681655874,
                0.7506007576783652,
                -0.8512882266884672,
                -0.21715601338799284
            ]
        },
        {
            "positions": [
                -0.06239622841622572,
                -1.2520230489252626,
                2.3172467192394164,
                0.8371324610941031,
                -0.881120268047956,
                -0.26020921177451545
            ]
        },
        {
            "positions": [
                -0.039182765276025565,
                -1.1927143562623386,
                2.276829555980869,
                0.9719539124861354,
                -0.7881929072558678,
                -0.2268194000335183
            ]
        },
        {
            "positions": [
                -0.01596930213582541,
                -1.1334056635994147,
                2.236412392722322,
                1.1067753638781679,
                -0.6952655464637796,
                -0.19342958829252116
            ]
        },
        {
            "positions": [
                0.0072441610043747495,
                -1.0740969709364907,
                2.1959952294637746,
                1.2415968152702002,
                -0.6023381856716915,
                -0.16003977655152404
            ]
        },
        {
            "positions": [
                0.030457624144574896,
                -1.0147882782735667,
                2.1555780662052273,
                1.3764182666622324,
                -0.5094108248796033,
                -0.1266499648105269
            ]
        },
        {
            "positions": [
                0.05367108728477504,
                -0.9554795856106427,
                2.1151609029466805,
                1.5112397180542647,
                -0.41648346408751513,
                -0.09326015306952976
            ]
        },
        {
            "positions": [
                0.07688455042497522,
                -0.8961708929477188,
                2.074743739688133,
                1.646061169446297,
                -0.32355610329542706,
                -0.05987034132853264
            ]
        },
        {
            "positions": [
                0.10009801356517536,
                -0.8368622002847947,
                2.034326576429586,
                1.7808826208383295,
                -0.23062874250333887,
                -0.026480529587535495
            ]
        },
        {
            "positions": [
                0.1233114767053755,
                -0.7775535076218708,
                1.9939094131710386,
                1.9157040722303618,
                -0.13770138171125074,
                0.006909282153461623
            ]
        }
    ]
}