{
    "goal": {
        "global_pose": {
            "orientation": {
                "w": 0.7047431468963623,
                "x": -0.7094548344612122,
                "y": 0.0024358443915843964,
                "z": -0.0022348060738295317
            },
            "position": {
                "x": 0.6094750761985779,
                "y": 0.3671506643295288,
                "z": 0.19426114857196808
            }
        },
        "name": "move_to_magneteinheit_A"
    },
    "id": "RRTstar_move_to_magneteinheit_A_83",
    "joint_names": [
        "shoulder_pan_joint",
        "shoulder_lift_joint",
        "elbow_joint",
        "wrist_1_joint",
        "wrist_2_joint",
        "wrist_3_joint"
    ],
    "metrics": {
        "cart_traj_len": 3.100920818406153,
        "distance_elbow_joint": 3.9789493374882925,
        "distance_shoulder_lift_joint": 0.4694036953888965,
        "distance_shoulder_pan_joint": 2.8839867129337726,
        "distance_wrist_1_joint": 3.7640163278635166,
        "distance_wrist_2_joint": 1.5409599329713757,
        "distance_wrist_3_joint": 0.41360354209603095,
        "smoothness": 0.38200255805780164,
        "time": 5.029599785,
        "traj_len": 3.6126056453399227,
        "weighted_distance": 4.379851926009468
    },
    "planner": "RRTstar",
    "start": {
        "state": {
            "elbow_joint": -1.919618573717145,
            "shoulder_lift_joint": -1.2443395971678275,
            "shoulder_pan_joint": 2.6996025300909787,
            "wrist_1_joint": -1.548550951253194,
            "wrist_2_joint": -1.5709469090946802,
            "wrist_3_joint": 0.4420197732051276
        }
    },
    "waypoints": [
        {
            "positions": [
                2.6996025300909787,
                -1.2443395971678275,
                -1.919618573717145,
                -1.548550951253194,
                -1.5709469090946802,
                0.4420197732051276
            ]
        },
        {
            "positions": [
                2.5982313451189123,
                -1.237726577084496,
                -1.8071729236481189,
                -1.431126518723224,
                -1.535236121320248,
                0.4300528211891952
            ]
        },
        {
            "positions": [
                2.496860160146846,
                -1.2311135570011644,
                -1.6947272735790926,
                -1.313702086193254,
                -1.4995253335458156,
                0.41808586917326274
            ]
        },
        {
            "positions": [
                2.395488975174779,
                -1.224500536917833,
                -1.5822816235100663,
                -1.1962776536632842,
                -1.4638145457713834,
                0.40611891715733034
            ]
        },
        {
            "positions": [
                2.2941177902027126,
                -1.2178875168345016,
                -1.4698359734410402,
                -1.0788532211333142,
                -1.428103757996951,
                0.3941519651413979
            ]
        },
        {
            "positions": [
                2.192746605230646,
                -1.21127449675117,
                -1.3573903233720142,
                -0.9614287886033442,
                -1.3923929702225188,
                0.3821850131254655
            ]
        },
        {
            "positions": [
                2.0913754202585793,
                -1.2046614766678385,
                -1.2449446733029879,
                -0.8440043560733742,
                -1.3566821824480866,
                0.37021806110953304
            ]
        },
        {
            "positions": [
                1.990004235286513,
                -1.198048456584507,
                -1.1324990232339618,
                -0.7265799235434044,
                -1.3209713946736543,
                0.3582511090936007
            ]
        },
        {
            "positions": [
                1.8886330503144464,
                -1.1914354365011754,
                -1.0200533731649355,
                -0.6091554910134342,
                -1.285260606899222,
                0.34628415707766824
            ]
        },
        {
            "positions": [
                1.78726186534238,
                -1.184822416417844,
                -0.9076077230959094,
                -0.49173105848346443,
                -1.2495498191247898,
                0.3343172050617358
            ]
        },
        {
            "positions": [
                1.6858906803703133,
                -1.1782093963345126,
                -0.7951620730268831,
                -0.3743066259534944,
                -1.2138390313503575,
                0.3223502530458034
            ]
        },
        {
            "positions": [
                1.5845194953982469,
                -1.171596376251181,
                -0.6827164229578571,
                -0.25688219342352436,
                -1.1781282435759255,
                0.310383301029871
            ]
        },
        {
            "positions": [
                1.4831483104261802,
                -1.1649833561678495,
                -0.5702707728888308,
                -0.13945776089355433,
                -1.142417455801493,
                0.29841634901393854
            ]
        },
        {
            "positions": [
                1.3817771254541138,
                -1.1583703360845181,
                -0.4578251228198047,
                -0.022033328363584515,
                -1.106706668027061,
                0.28644939699800614
            ]
        },
        {
            "positions": [
                1.2804059404820474,
                -1.1517573160011865,
                -0.3453794727507786,
                0.0953911041663853,
                -1.0709958802526287,
                0.27448244498207375
            ]
        },
        {
            "positions": [
                1.179034755509981,
                -1.145144295917855,
                -0.23293382268175256,
                0.21281553669635533,
                -1.0352850924781964,
                0.2625154929661413
            ]
        },
        {
            "positions": [
                1.077663570537914,
                -1.1385312758345234,
                -0.12048817261272604,
                0.3302399692263256,
                -0.9995743047037642,
                0.25054854095020884
            ]
        },
        {
            "positions": [
                0.9762923855658476,
                -1.131918255751192,
                -0.00804252254369997,
                0.4476644017562954,
                -0.9638635169293319,
                0.23858158893427647
            ]
        },
        {
            "positions": [
                0.8749212005937812,
                -1.1253052356678606,
                0.1044031275253261,
                0.5650888342862652,
                -0.9281527291548997,
                0.22661463691834405
            ]
        },
        {
            "positions": [
                0.7735500156217148,
                -1.1186922155845291,
                0.2168487775943524,
                0.682513266816235,
                -0.8924419413804675,
                0.21464768490241165
            ]
        },
        {
            "positions": [
                0.6721788306496479,
                -1.1120791955011975,
                0.3292944276633787,
                0.7999376993462053,
                -0.8567311536060351,
                0.2026807328864792
            ]
        },
        {
            "positions": [
                0.5708076456775815,
                -1.105466175417866,
                0.44174007773240453,
                0.9173621318761751,
                -0.8210203658316029,
                0.1907137808705468
            ]
        },
        {
            "positions": [
                0.46943646070551504,
                -1.0988531553345344,
                0.5541857278014308,
                1.0347865644061454,
                -0.7853095780571707,
                0.1787468288546144
            ]
        },
        {
            "positions": [
                0.3680652757334486,
                -1.092240135251203,
                0.6666313778704571,
                1.1522109969361152,
                -0.7495987902827385,
                0.16677987683868195
            ]
        },
        {
            "positions": [
                0.26669409076138173,
                -1.0856271151678716,
                0.7790770279394834,
                1.2696354294660854,
                -0.7138880025083061,
                0.1548129248227495
            ]
        },
        {
            "positions": [
                0.1653229057893153,
                -1.07901409508454,
                0.8915226780085093,
                1.3870598619960552,
                -0.6781772147338739,
                0.1428459728068171
            ]
        },
        {
            "positions": [
                0.06395172081724901,
                -1.0724010750012085,
                1.0039683280775356,
                1.504484294526025,
                -0.6424664269594417,
                0.13087902079088468
            ]
        },
        {
            "positions": [
                0.05038826459034799,
                -1.064033887789206,
                1.1496634153640781,
                1.5838779388381297,
                -0.561620725940289,
                0.1181376878706206
            ]
        },
        {
            "positions": [
                0.03682480836344697,
                -1.0556667005772036,
                1.295358502650621,
                1.6632715831502343,
                -0.48077502492113644,
                0.10539635495035651
            ]
        },
        {
            "positions": [
                0.023261352136545954,
                -1.047299513365201,
                1.4410535899371635,
                1.742665227462339,
                -0.3999293239019838,
                0.09265502203009243
            ]
        },
        {
            "positions": [
                0.009697895909644934,
                -1.0389323261531986,
                1.586748677223706,
                1.8220588717744437,
                -0.3190836228828312,
                0.07991368910982835
            ]
        },
        {
            "positions": [
                -0.0038655603172560865,
                -1.030565138941196,
                1.7324437645102488,
                1.9014525160865485,
                -0.23823792186367854,
                0.06717235618956427
            ]
        },
        {
            "positions": [
                -0.0174290165441571,
                -1.0221979517291937,
                1.8781388517967912,
                1.9808461603986531,
                -0.15739222084452598,
                0.05443102326930019
            ]
        },
        {
            "positions": [
                -0.030992472771058127,
                -1.0138307645171911,
                2.023833939083334,
                2.0602398047107577,
                -0.07654651982537336,
                0.04168969034903611
            ]
        },
        {
            "positions": [
                0.045703382264809134,
                -0.8943833331480611,
                2.0060855267394273,
                1.9826270187609754,
                -0.0998262916764078,
                0.03505296072906637
            ]
        },
        {
            "positions": [
                0.12239923730067638,
                -0.774935901778931,
                1.9883371143955204,
                1.9050142328111928,
                -0.12310606352744223,
                0.028416231109096628
            ]
        }
    ]
}{
    "goal": {
        "global_pose": {
            "orientation": {
                "w": 0.7047431468963623,
                "x": -0.7094548344612122,
                "y": 0.0024358443915843964,
                "z": -0.0022348060738295317
            },
            "position": {
                "x": 0.6094750761985779,
                "y": 0.3671506643295288,
                "z": 0.19426114857196808
            }
        },
        "name": "move_to_magneteinheit_A"
    },
    "id": "RRTstar_move_to_magneteinheit_A_83",
    "joint_names": [
        "shoulder_pan_joint",
        "shoulder_lift_joint",
        "elbow_joint",
        "wrist_1_joint",
        "wrist_2_joint",
        "wrist_3_joint"
    ],
    "metrics": {
        "cart_traj_len": 1.1116151445318831,
        "distance_elbow_joint": 0.2587770460595282,
        "distance_shoulder_lift_joint": 0.7471527641502131,
        "distance_shoulder_pan_joint": 1.2411551262317586,
        "distance_wrist_1_joint": 0.7284779539994041,
        "distance_wrist_2_joint": 1.435459641325726,
        "distance_wrist_3_joint": 4.242829969014346,
        "smoothness": 0.025763417783373276,
        "time": 5.015707527,
        "traj_len": 2.941743105844046,
        "weighted_distance": 4.393569168015317
    },
    "planner": "RRTstar",
    "start": {
        "state": {
            "elbow_joint": 1.919643534880228,
            "shoulder_lift_joint": -1.8972525353963687,
            "shoulder_pan_joint": -1.1188672234189438,
            "wrist_1_joint": -1.5931878212786155,
            "wrist_2_joint": 1.5706036197970081,
            "wrist_3_joint": 1.118896926603594
        }
    },
    "waypoints": [
        {
            "positions": [
                -1.1188672234189438,
                -1.8972525353963687,
                1.919643534880228,
                -1.5931878212786155,
                1.5706036197970081,
                1.118896926603594
            ]
        },
        {
            "positions": [
                -1.0747577835637774,
                -1.8948940197432416,
                1.9361684940525916,
                -1.5693852165495923,
                1.523097754008234,
                0.8947311229980597
            ]
        },
        {
            "positions": [
                -1.0306483437086107,
                -1.8925355040901144,
                1.952693453224955,
                -1.545582611820569,
                1.47559188821946,
                0.6705653193925254
            ]
        },
        {
            "positions": [
                -0.9865389038534442,
                -1.8901769884369872,
                1.9692184123973182,
                -1.5217800070915457,
                1.428086022430686,
                0.4463995157869911
            ]
        },
        {
            "positions": [
                -0.9424294639982777,
                -1.88781847278386,
                1.9857433715696817,
                -1.4979774023625225,
                1.3805801566419118,
                0.22223371218145682
            ]
        },
        {
            "positions": [
                -0.8983200241431111,
                -1.8854599571307329,
                2.0022683307420452,
                -1.4741747976334993,
                1.3330742908531379,
                -0.0019320914240774645
            ]
        },
        {
            "positions": [
                -0.8542105842879446,
                -1.8831014414776055,
                2.0187932899144085,
                -1.4503721929044762,
                1.2855684250643638,
                -0.22609789502961175
            ]
        },
        {
            "positions": [
                -0.8101011444327781,
                -1.8807429258244783,
                2.035318249086772,
                -1.426569588175453,
                1.2380625592755896,
                -0.45026369863514604
            ]
        },
        {
            "positions": [
                -0.7659917045776115,
                -1.8783844101713512,
                2.051843208259135,
                -1.4027669834464296,
                1.1905566934868155,
                -0.6744295022406803
            ]
        },
        {
            "positions": [
                -0.721882264722445,
                -1.876025894518224,
                2.068368167431499,
                -1.3789643787174064,
                1.1430508276980416,
                -0.8985953058462146
            ]
        },
        {
            "positions": [
                -0.6777728248672784,
                -1.8736673788650968,
                2.084893126603862,
                -1.3551617739883832,
                1.0955449619092674,
                -1.1227611094517491
            ]
        },
        {
            "positions": [
                -0.6162296919688097,
                -1.8180083321251783,
                2.0776987070395627,
                -1.3174347042415238,
                1.0216679631832686,
                -1.276697411987057
            ]
        },
        {
            "positions": [
                -0.554686559070341,
                -1.7623492853852598,
                2.0705042874752633,
                -1.2797076344946645,
                0.9477909644572696,
                -1.430633714522365
            ]
        },
        {
            "positions": [
                -0.4931434261718723,
                -1.706690238645341,
                2.0633098679109634,
                -1.241980564747805,
                0.8739139657312708,
                -1.584570017057673
            ]
        },
        {
            "positions": [
                -0.43160029327340355,
                -1.6510311919054226,
                2.056115448346664,
                -1.2042534950009458,
                0.8000369670052718,
                -1.738506319592981
            ]
        },
        {
            "positions": [
                -0.37005716037493486,
                -1.595372145165504,
                2.0489210287823645,
                -1.1665264252540863,
                0.726159968279273,
                -1.8924426221282893
            ]
        },
        {
            "positions": [
                -0.30851402747646617,
                -1.5397130984255853,
                2.041726609218065,
                -1.128799355507227,
                0.6522829695532741,
                -2.046378924663597
            ]
        },
        {
            "positions": [
                -0.24697089457799748,
                -1.4840540516856668,
                2.034532189653765,
                -1.0910722857603676,
                0.5784059708272753,
                -2.200315227198905
            ]
        },
        {
            "positions": [
                -0.18542776167952874,
                -1.4283950049457483,
                2.0273377700894657,
                -1.0533452160135082,
                0.5045289721012763,
                -2.3542515297342135
            ]
        },
        {
            "positions": [
                -0.1238846287810601,
                -1.3727359582058298,
                2.0201433505251662,
                -1.015618146266649,
                0.4306519733752775,
                -2.5081878322695212
            ]
        },
        {
            "positions": [
                -0.0623414958825913,
                -1.3170769114659113,
                2.012948930960867,
                -0.9778910765197895,
                0.35677497464927865,
                -2.662124134804829
            ]
        },
        {
            "positions": [
                -0.0007983629841226136,
                -1.2614178647259928,
                2.005754511396567,
                -0.9401640067729302,
                0.2828979759232798,
                -2.8160604373401372
            ]
        },
        {
            "positions": [
                0.060744769914346075,
                -1.205758817986074,
                1.9985600918322675,
                -0.9024369370260708,
                0.20902097719728086,
                -2.9699967398754454
            ]
        },
        {
            "positions": [
                0.12228790281281478,
                -1.1500997712461556,
                1.991365672267968,
                -0.8647098672792114,
                0.13514397847128204,
                -3.123933042410753
            ]
        }
    ]
}