{
    "goal": {
        "global_pose": {
            "orientation": {
                "w": 0.5084816217422485,
                "x": -0.49083608388900757,
                "y": 0.5182115435600281,
                "z": -0.4816462993621826
            },
            "position": {
                "x": 0.5540239810943604,
                "y": 0.030875300988554955,
                "z": 0.16403168439865112
            }
        },
        "name": "move_to_storage_A"
    },
    "id": "RRTstar_move_to_storage_A_62",
    "joint_names": [
        "shoulder_pan_joint",
        "shoulder_lift_joint",
        "elbow_joint",
        "wrist_1_joint",
        "wrist_2_joint",
        "wrist_3_joint"
    ],
    "metrics": {
        "cart_traj_len": 0.35346201282930934,
        "distance_elbow_joint": 0.44723998393667896,
        "distance_shoulder_lift_joint": 0.233544780432835,
        "distance_shoulder_pan_joint": 0.4598810715232091,
        "distance_wrist_1_joint": 0.234548460753769,
        "distance_wrist_2_joint": 1.1086688098498736,
        "distance_wrist_3_joint": 0.08653758294350267,
        "smoothness": 8.881784197001252e-16,
        "time": 5.000116568,
        "traj_len": 1.6032531582503957,
        "weighted_distance": 2.0215620509720984
    },
    "planner": "RRTstar",
    "start": {
        "state": {
            "elbow_joint": 1.9715477243005601,
            "shoulder_lift_joint": -1.1394853015351272,
            "shoulder_pan_joint": 0.12281154014795169,
            "wrist_1_joint": -0.7804696478968182,
            "wrist_2_joint": 0.12958648046900423,
            "wrist_3_joint": -3.192491284697111
        }
    },
    "waypoints": [
        {
            "positions": [
                0.12281154014795169,
                -1.1394853015351272,
                1.9715477243005601,
                -0.7804696478968182,
                0.12958648046900423,
                -3.192491284697111
            ]
        },
        {
            "positions": [
                0.057114244216064675,
                -1.1728488415969607,
                2.0354391505772287,
                -0.8139765708616423,
                0.2879677390189862,
                -3.180128772848039
            ]
        },
        {
            "positions": [
                -0.00858305171582234,
                -1.2062123816587944,
                2.099330576853897,
                -0.8474834938264665,
                0.4463489975689681,
                -3.1677662609989676
            ]
        },
        {
            "positions": [
                -0.07428034764770934,
                -1.239575921720628,
                2.1632220031305653,
                -0.8809904167912905,
                0.60473025611895,
                -3.1554037491498956
            ]
        },
        {
            "positions": [
                -0.13997764357959636,
                -1.2729394617824614,
                2.227113429407234,
                -0.9144973397561147,
                0.763111514668932,
                -3.143041237300824
            ]
        },
        {
            "positions": [
                -0.2056749395114834,
                -1.3063030018442952,
                2.2910048556839024,
                -0.9480042627209389,
                0.921492773218914,
                -3.130678725451752
            ]
        },
        {
            "positions": [
                -0.27137223544337036,
                -1.3396665419061287,
                2.3548962819605705,
                -0.981511185685763,
                1.0798740317688957,
                -3.1183162136026805
            ]
        },
        {
            "positions": [
                -0.3370695313752574,
                -1.3730300819679622,
                2.418787708237239,
                -1.0150181086505872,
                1.238255290318878,
                -3.1059537017536085
            ]
        }
    ]
}