{
    "goal": {
        "global_pose": {
            "orientation": {
                "w": 0.7047431468963623,
                "x": -0.7094548344612122,
                "y": 0.0024358443915843964,
                "z": -0.0022348060738295317
            },
            "position": {
                "x": 0.6094750761985779,
                "y": 0.3671506643295288,
                "z": 0.19426114857196808
            }
        },
        "name": "move_to_magneteinheit_A"
    },
    "id": "RRTstar_move_to_magneteinheit_A_111",
    "joint_names": [
        "shoulder_pan_joint",
        "shoulder_lift_joint",
        "elbow_joint",
        "wrist_1_joint",
        "wrist_2_joint",
        "wrist_3_joint"
    ],
    "metrics": {
        "cart_traj_len": 3.6244154392104293,
        "distance_elbow_joint": 3.9107353419277207,
        "distance_shoulder_lift_joint": 0.68126611565464,
        "distance_shoulder_pan_joint": 3.4104759907435973,
        "distance_wrist_1_joint": 3.4570260804265773,
        "distance_wrist_2_joint": 1.4355401094985623,
        "distance_wrist_3_joint": 1.6674582613086995,
        "smoothness": 0.2528776149583878,
        "time": 5.021802228,
        "traj_len": 3.816084629507029,
        "weighted_distance": 4.773885693237988
    },
    "planner": "RRTstar",
    "start": {
        "state": {
            "elbow_joint": -1.919618573717145,
            "shoulder_lift_joint": -1.2443395971678275,
            "shoulder_pan_joint": 2.6996025300909787,
            "wrist_1_joint": -1.548550951253194,
            "wrist_2_joint": -1.5709469090946802,
            "wrist_3_joint": 0.4420197732051276
        }
    },
    "waypoints": [
        {
            "positions": [
                2.6996025300909787,
                -1.2443395971678275,
                -1.919618573717145,
                -1.548550951253194,
                -1.5709469090946802,
                0.4420197732051276
            ]
        },
        {
            "positions": [
                2.5570253304039903,
                -1.2169682976376301,
                -1.827683682047133,
                -1.4642700452874975,
                -1.5289838105575368,
                0.43440909000516775
            ]
        },
        {
            "positions": [
                2.4144481307170014,
                -1.1895969981074328,
                -1.735748790377121,
                -1.3799891393218011,
                -1.4870207120203935,
                0.4267984068052079
            ]
        },
        {
            "positions": [
                2.271870931030013,
                -1.1622256985772355,
                -1.643813898707109,
                -1.2957082333561045,
                -1.44505761348325,
                0.4191877236052481
            ]
        },
        {
            "positions": [
                2.129293731343024,
                -1.1348543990470383,
                -1.5518790070370967,
                -1.2114273273904081,
                -1.4030945149461067,
                0.4115770404052882
            ]
        },
        {
            "positions": [
                1.9867165316560356,
                -1.107483099516841,
                -1.459944115367085,
                -1.1271464214247116,
                -1.3611314164089634,
                0.40396635720532836
            ]
        },
        {
            "positions": [
                1.8441393319690471,
                -1.0801117999866436,
                -1.3680092236970727,
                -1.042865515459015,
                -1.31916831787182,
                0.39635567400536853
            ]
        },
        {
            "positions": [
                1.7015621322820584,
                -1.0527405004564463,
                -1.2760743320270607,
                -0.9585846094933186,
                -1.2772052193346766,
                0.3887449908054087
            ]
        },
        {
            "positions": [
                1.5589849325950698,
                -1.025369200926249,
                -1.1841394403570487,
                -0.8743037035276221,
                -1.2352421207975333,
                0.38113430760544886
            ]
        },
        {
            "positions": [
                1.416407732908081,
                -0.9979979013960517,
                -1.0922045486870366,
                -0.7900227975619256,
                -1.19327902226039,
                0.37352362440548903
            ]
        },
        {
            "positions": [
                1.2738305332210926,
                -0.9706266018658544,
                -1.0002696570170246,
                -0.7057418915962291,
                -1.1513159237232466,
                0.3659129412055292
            ]
        },
        {
            "positions": [
                1.1312533335341037,
                -0.943255302335657,
                -0.9083347653470124,
                -0.6214609856305325,
                -1.1093528251861033,
                0.3583022580055693
            ]
        },
        {
            "positions": [
                0.9886761338471153,
                -0.9158840028054598,
                -0.8163998736770006,
                -0.537180079664836,
                -1.06738972664896,
                0.35069157480560953
            ]
        },
        {
            "positions": [
                0.8460989341601266,
                -0.8885127032752624,
                -0.7244649820069884,
                -0.45289917369913946,
                -1.0254266281118165,
                0.34308089160564964
            ]
        },
        {
            "positions": [
                0.7035217344731381,
                -0.8611414037450651,
                -0.6325300903369764,
                -0.3686182677334431,
                -0.9834635295746732,
                0.3354702084056898
            ]
        },
        {
            "positions": [
                0.5609445347861493,
                -0.8337701042148677,
                -0.5405951986669644,
                -0.2843373617677465,
                -0.9415004310375298,
                0.32785952520573
            ]
        },
        {
            "positions": [
                0.4183673350991608,
                -0.8063988046846705,
                -0.44866030699695236,
                -0.20005645580205011,
                -0.8995373325003865,
                0.32024884200577014
            ]
        },
        {
            "positions": [
                0.2757901354121719,
                -0.7790275051544732,
                -0.35672541532694013,
                -0.11577554983635352,
                -0.8575742339632432,
                0.31263815880581025
            ]
        },
        {
            "positions": [
                0.13321293572518345,
                -0.7516562056242759,
                -0.26479052365692834,
                -0.031494643870657146,
                -0.8156111354260999,
                0.3050274756058504
            ]
        },
        {
            "positions": [
                -0.009364263961805008,
                -0.7242849060940785,
                -0.17285563198691611,
                0.05278626209503945,
                -0.7736480368889564,
                0.2974167924058906
            ]
        },
        {
            "positions": [
                -0.15194146364879346,
                -0.6969136065638812,
                -0.08092074031690433,
                0.13706716806073582,
                -0.7316849383518131,
                0.28980610920593075
            ]
        },
        {
            "positions": [
                -0.2945186633357822,
                -0.6695423070336839,
                0.011014151353108015,
                0.22134807402643242,
                -0.6897218398146697,
                0.2821954260059709
            ]
        },
        {
            "positions": [
                -0.26899666969002645,
                -0.6746896228017715,
                0.14908563970895236,
                0.33983573332900063,
                -0.6875636792028951,
                0.2020416264073413
            ]
        },
        {
            "positions": [
                -0.24347467604427073,
                -0.6798369385698592,
                0.2871571280647967,
                0.45832339263156885,
                -0.6854055185911204,
                0.12188782680871169
            ]
        },
        {
            "positions": [
                -0.217952682398515,
                -0.6849842543379467,
                0.425228616420641,
                0.5768110519341371,
                -0.6832473579793458,
                0.0417340272100821
            ]
        },
        {
            "positions": [
                -0.19243068875275926,
                -0.6901315701060343,
                0.5633001047764854,
                0.6952987112367053,
                -0.6810891973675711,
                -0.038419772388547546
            ]
        },
        {
            "positions": [
                -0.1669086951070035,
                -0.695278885874122,
                0.7013715931323297,
                0.8137863705392735,
                -0.6789310367557965,
                -0.1185735719871771
            ]
        },
        {
            "positions": [
                -0.1413867014612478,
                -0.7004262016422096,
                0.839443081488174,
                0.9322740298418417,
                -0.6767728761440217,
                -0.19872737158580672
            ]
        },
        {
            "positions": [
                -0.11586470781549205,
                -0.7055735174102973,
                0.9775145698440184,
                1.05076168914441,
                -0.6746147155322471,
                -0.27888117118443634
            ]
        },
        {
            "positions": [
                -0.0903427141697363,
                -0.7107208331783849,
                1.1155860581998627,
                1.1692493484469781,
                -0.6724565549204724,
                -0.359034970783066
            ]
        },
        {
            "positions": [
                -0.06482072052398055,
                -0.7158681489464724,
                1.2536575465557074,
                1.2877370077495465,
                -0.6702983943086978,
                -0.43918877038169557
            ]
        },
        {
            "positions": [
                -0.03929872687822483,
                -0.7210154647145601,
                1.3917290349115512,
                1.4062246670521146,
                -0.6681402336969231,
                -0.5193425699803251
            ]
        },
        {
            "positions": [
                -0.013776733232469085,
                -0.7261627804826477,
                1.5298005232673957,
                1.524712326354683,
                -0.6659820730851485,
                -0.5994963695789548
            ]
        },
        {
            "positions": [
                0.008825411303118182,
                -0.7344708391612365,
                1.6066865640912593,
                1.588672793491133,
                -0.5775528608369767,
                -0.4951726831581854
            ]
        },
        {
            "positions": [
                0.03142755583870545,
                -0.7427788978398252,
                1.6835726049151227,
                1.6526332606275833,
                -0.48912364858880497,
                -0.390848996737416
            ]
        },
        {
            "positions": [
                0.05402970037429272,
                -0.751086956518414,
                1.7604586457389864,
                1.7165937277640335,
                -0.40069443634063323,
                -0.2865253103166466
            ]
        },
        {
            "positions": [
                0.07663184490987998,
                -0.7593950151970028,
                1.83734468656285,
                1.7805541949004837,
                -0.3122652240924615,
                -0.18220162389587718
            ]
        },
        {
            "positions": [
                0.09923398944546727,
                -0.7677030738755916,
                1.9142307273867134,
                1.844514662036934,
                -0.22383601184428975,
                -0.07787793747510774
            ]
        },
        {
            "positions": [
                0.12183613398105453,
                -0.7760111325541803,
                1.991116768210577,
                1.9084751291733841,
                -0.13540679959611798,
                0.0264457489456617
            ]
        }
    ]
}{
    "goal": {
        "global_pose": {
            "orientation": {
                "w": 0.7047431468963623,
                "x": -0.7094548344612122,
                "y": 0.0024358443915843964,
                "z": -0.0022348060738295317
            },
            "position": {
                "x": 0.6094750761985779,
                "y": 0.3671506643295288,
                "z": 0.19426114857196808
            }
        },
        "name": "move_to_magneteinheit_A"
    },
    "id": "RRTstar_move_to_magneteinheit_A_111",
    "joint_names": [
        "shoulder_pan_joint",
        "shoulder_lift_joint",
        "elbow_joint",
        "wrist_1_joint",
        "wrist_2_joint",
        "wrist_3_joint"
    ],
    "metrics": {
        "cart_traj_len": 1.3048980197407791,
        "distance_elbow_joint": 0.19097952042710276,
        "distance_shoulder_lift_joint": 0.7548631291921704,
        "distance_shoulder_pan_joint": 1.2885180100547982,
        "distance_wrist_1_joint": 0.7896874324184584,
        "distance_wrist_2_joint": 1.4398222369243006,
        "distance_wrist_3_joint": 4.289505164430384,
        "smoothness": 0.02819681847792696,
        "time": 5.016577366,
        "traj_len": 2.95861039906359,
        "weighted_distance": 4.422883165046386
    },
    "planner": "RRTstar",
    "start": {
        "state": {
            "elbow_joint": 1.919643534880228,
            "shoulder_lift_joint": -1.8972525353963687,
            "shoulder_pan_joint": -1.1188672234189438,
            "wrist_1_joint": -1.5931878212786155,
            "wrist_2_joint": 1.5706036197970081,
            "wrist_3_joint": 1.118896926603594
        }
    },
    "waypoints": [
        {
            "positions": [
                -1.1188672234189438,
                -1.8972525353963687,
                1.919643534880228,
                -1.5931878212786155,
                1.5706036197970081,
                1.118896926603594
            ]
        },
        {
            "positions": [
                -1.1228573088696652,
                -1.8660409047821342,
                1.940370640315134,
                -1.5480291449996977,
                1.4518139560203742,
                0.9736174288861531
            ]
        },
        {
            "positions": [
                -1.1268473943203865,
                -1.8348292741678995,
                1.96109774575004,
                -1.5028704687207797,
                1.3330242922437405,
                0.8283379311687122
            ]
        },
        {
            "positions": [
                -1.1308374797711078,
                -1.803617643553665,
                1.9818248511849461,
                -1.4577117924418617,
                1.2142346284671066,
                0.6830584334512713
            ]
        },
        {
            "positions": [
                -1.134827565221829,
                -1.7724060129394306,
                2.002551956619852,
                -1.4125531161629439,
                1.095444964690473,
                0.5377789357338305
            ]
        },
        {
            "positions": [
                -1.1388176506725503,
                -1.7411943823251959,
                2.023279062054758,
                -1.367394439884026,
                0.9766553009138389,
                0.39249943801638953
            ]
        },
        {
            "positions": [
                -1.1428077361232716,
                -1.7099827517109614,
                2.044006167489664,
                -1.322235763605108,
                0.8578656371372051,
                0.24721994029894867
            ]
        },
        {
            "positions": [
                -1.0684208245144204,
                -1.6765949078576223,
                2.0400875270298013,
                -1.2917219180318757,
                0.8150959751216464,
                0.04617122393861106
            ]
        },
        {
            "positions": [
                -0.9940339129055692,
                -1.6432070640042833,
                2.0361688865699383,
                -1.2612080724586432,
                0.7723263131060878,
                -0.15487749242172655
            ]
        },
        {
            "positions": [
                -0.919647001296718,
                -1.6098192201509445,
                2.0322502461100758,
                -1.2306942268854109,
                0.729556651090529,
                -0.35592620878206427
            ]
        },
        {
            "positions": [
                -0.8452600896878668,
                -1.5764313762976054,
                2.0283316056502128,
                -1.2001803813121785,
                0.6867869890749704,
                -0.5569749251424018
            ]
        },
        {
            "positions": [
                -0.7708731780790157,
                -1.5430435324442664,
                2.02441296519035,
                -1.169666535738946,
                0.6440173270594117,
                -0.7580236415027394
            ]
        },
        {
            "positions": [
                -0.6964862664701644,
                -1.5096556885909274,
                2.020494324730487,
                -1.1391526901657136,
                0.601247665043853,
                -0.9590723578630772
            ]
        },
        {
            "positions": [
                -0.6220993548613133,
                -1.4762678447375883,
                2.0165756842706246,
                -1.1086388445924813,
                0.5584780030282943,
                -1.1601210742234147
            ]
        },
        {
            "positions": [
                -0.547712443252462,
                -1.4428800008842493,
                2.0126570438107616,
                -1.0781249990192487,
                0.5157083410127357,
                -1.361169790583752
            ]
        },
        {
            "positions": [
                -0.4733255316436109,
                -1.4094921570309102,
                2.008738403350899,
                -1.0476111534460164,
                0.472938678997177,
                -1.56221850694409
            ]
        },
        {
            "positions": [
                -0.39893862003475966,
                -1.3761043131775714,
                2.0048197628910365,
                -1.0170973078727839,
                0.4301690169816183,
                -1.7632672233044273
            ]
        },
        {
            "positions": [
                -0.3245517084259084,
                -1.3427164693242324,
                2.0009011224311735,
                -0.9865834622995515,
                0.3873993549660596,
                -1.9643159396647651
            ]
        },
        {
            "positions": [
                -0.2501647968170573,
                -1.3093286254708933,
                1.9969824819713107,
                -0.9560696167263192,
                0.34462969295050094,
                -2.165364656025103
            ]
        },
        {
            "positions": [
                -0.17577788520820614,
                -1.2759407816175545,
                1.993063841511448,
                -0.9255557711530867,
                0.3018600309349423,
                -2.36641337238544
            ]
        },
        {
            "positions": [
                -0.101390973599355,
                -1.2425529377642155,
                1.9891452010515853,
                -0.8950419255798543,
                0.25909036891938364,
                -2.5674620887457777
            ]
        },
        {
            "positions": [
                -0.02700406199050387,
                -1.2091650939108765,
                1.9852265605917225,
                -0.864528080006622,
                0.216320706903825,
                -2.7685108051061156
            ]
        },
        {
            "positions": [
                0.04738284961834749,
                -1.1757772500575374,
                1.9813079201318597,
                -0.8340142344333895,
                0.17355104488826623,
                -2.969559521466453
            ]
        },
        {
            "positions": [
                0.12176976122719874,
                -1.1423894062041984,
                1.977389279671997,
                -0.8035003888601571,
                0.13078138287270755,
                -3.170608237826791
            ]
        }
    ]
}