{
    "goal": {
        "global_pose": {
            "orientation": {
                "w": 0.5084816217422485,
                "x": -0.49083608388900757,
                "y": 0.5182115435600281,
                "z": -0.4816462993621826
            },
            "position": {
                "x": 0.5540239810943604,
                "y": 0.030875300988554955,
                "z": 0.16403168439865112
            }
        },
        "name": "move_to_storage_A"
    },
    "id": "RRTstar_move_to_storage_A_10",
    "joint_names": [
        "shoulder_pan_joint",
        "shoulder_lift_joint",
        "elbow_joint",
        "wrist_1_joint",
        "wrist_2_joint",
        "wrist_3_joint"
    ],
    "metrics": {
        "cart_traj_len": 0.3523209943502978,
        "distance_elbow_joint": 0.448154097211916,
        "distance_shoulder_lift_joint": 0.23309029768429634,
        "distance_shoulder_pan_joint": 0.46061349415591685,
        "distance_wrist_1_joint": 0.23901786806495295,
        "distance_wrist_2_joint": 1.0967947745309128,
        "distance_wrist_3_joint": 0.09494663503650447,
        "smoothness": 2.2204460668324854e-16,
        "time": 5.0136463220000005,
        "traj_len": 1.6039380183425105,
        "weighted_distance": 2.0244315447437025
    },
    "planner": "RRTstar",
    "start": {
        "state": {
            "elbow_joint": 1.9715477243005601,
            "shoulder_lift_joint": -1.1394853015351272,
            "shoulder_pan_joint": 0.12281154014795169,
            "wrist_1_joint": -0.7804696478968182,
            "wrist_2_joint": 0.12958648046900423,
            "wrist_3_joint": -3.192491284697111
        }
    },
    "waypoints": [
        {
            "positions": [
                0.12281154014795169,
                -1.1394853015351272,
                1.9715477243005601,
                -0.7804696478968182,
                0.12958648046900423,
                -3.192491284697111
            ]
        },
        {
            "positions": [
                0.057009612411392144,
                -1.1727839154900266,
                2.0355697381879767,
                -0.8146150576203829,
                0.28627144825913464,
                -3.1789274796918963
            ]
        },
        {
            "positions": [
                -0.008792315325167402,
                -1.2060825294449262,
                2.0995917520753933,
                -0.8487604673439476,
                0.442956416049265,
                -3.1653636746866813
            ]
        },
        {
            "positions": [
                -0.07459424306172695,
                -1.2393811433998256,
                2.16361376596281,
                -0.8829058770675122,
                0.5996413838393955,
                -3.1517998696814664
            ]
        },
        {
            "positions": [
                -0.14039617079828648,
                -1.272679757354725,
                2.2276357798502264,
                -0.917051286791077,
                0.7563263516295258,
                -3.1382360646762515
            ]
        },
        {
            "positions": [
                -0.20619809853484605,
                -1.3059783713096245,
                2.291657793737643,
                -0.9511966965146417,
                0.9130113194196562,
                -3.1246722596710366
            ]
        },
        {
            "positions": [
                -0.27200002627140557,
                -1.339276985264524,
                2.3556798076250596,
                -0.9853421062382064,
                1.0696962872097866,
                -3.1111084546658216
            ]
        },
        {
            "positions": [
                -0.33780195400796514,
                -1.3725755992194235,
                2.419701821512476,
                -1.0194875159617711,
                1.226381254999917,
                -3.0975446496606067
            ]
        }
    ]
}