{
    "goal": {
        "global_pose": {
            "orientation": {
                "w": 0.7047431468963623,
                "x": -0.7094548344612122,
                "y": 0.0024358443915843964,
                "z": -0.0022348060738295317
            },
            "position": {
                "x": 0.6094750761985779,
                "y": 0.3671506643295288,
                "z": 0.19426114857196808
            }
        },
        "name": "move_to_magneteinheit_A"
    },
    "id": "RRTstar_move_to_magneteinheit_A_129",
    "joint_names": [
        "shoulder_pan_joint",
        "shoulder_lift_joint",
        "elbow_joint",
        "wrist_1_joint",
        "wrist_2_joint",
        "wrist_3_joint"
    ],
    "metrics": {
        "cart_traj_len": 3.48466874311007,
        "distance_elbow_joint": 3.9106052892142342,
        "distance_shoulder_lift_joint": 0.6553916608811465,
        "distance_shoulder_pan_joint": 2.577959861089158,
        "distance_wrist_1_joint": 0.680560368369323,
        "distance_wrist_2_joint": 2.082732231145077,
        "distance_wrist_3_joint": 3.564565264979612,
        "smoothness": 0.07655828001814466,
        "time": 5.014912441,
        "traj_len": 3.6703970732985485,
        "weighted_distance": 4.833656773618931
    },
    "planner": "RRTstar",
    "start": {
        "state": {
            "elbow_joint": -1.919618573717145,
            "shoulder_lift_joint": -1.2443395971678275,
            "shoulder_pan_joint": 2.6996025300909787,
            "wrist_1_joint": -1.548550951253194,
            "wrist_2_joint": -1.5709469090946802,
            "wrist_3_joint": 0.4420197732051276
        }
    },
    "waypoints": [
        {
            "positions": [
                2.6996025300909787,
                -1.2443395971678275,
                -1.919618573717145,
                -1.548550951253194,
                -1.5709469090946802,
                0.4420197732051276
            ]
        },
        {
            "positions": [
                2.595308384586524,
                -1.2280242057773552,
                -1.8893736336315712,
                -1.5307626172492534,
                -1.4888123174063905,
                0.30244290460749385
            ]
        },
        {
            "positions": [
                2.491014239082069,
                -1.2117088143868826,
                -1.8591286935459974,
                -1.5129742832453126,
                -1.4066777257181007,
                0.1628660360098601
            ]
        },
        {
            "positions": [
                2.3867200935776145,
                -1.1953934229964103,
                -1.8288837534604236,
                -1.495185949241372,
                -1.324543134029811,
                0.023289167412226364
            ]
        },
        {
            "positions": [
                2.28242594807316,
                -1.179078031605938,
                -1.7986388133748497,
                -1.4773976152374313,
                -1.2424085423415212,
                -0.11628770118540738
            ]
        },
        {
            "positions": [
                2.1781318025687053,
                -1.1627626402154656,
                -1.7683938732892759,
                -1.4596092812334907,
                -1.1602739506532316,
                -0.2558645697830411
            ]
        },
        {
            "positions": [
                2.0738376570642503,
                -1.146447248824993,
                -1.7381489332037021,
                -1.4418209472295498,
                -1.0781393589649417,
                -0.39544143838067486
            ]
        },
        {
            "positions": [
                1.9695435115597957,
                -1.1301318574345207,
                -1.7079039931181283,
                -1.4240326132256091,
                -0.996004767276652,
                -0.5350183069783088
            ]
        },
        {
            "positions": [
                1.8652493660553409,
                -1.1138164660440484,
                -1.6776590530325546,
                -1.4062442792216685,
                -0.9138701755883624,
                -0.6745951755759423
            ]
        },
        {
            "positions": [
                1.760955220550886,
                -1.097501074653576,
                -1.6474141129469806,
                -1.3884559452177276,
                -0.8317355839000725,
                -0.814172044173576
            ]
        },
        {
            "positions": [
                1.6566610750464315,
                -1.0811856832631035,
                -1.6171691728614068,
                -1.370667611213787,
                -0.7496009922117829,
                -0.9537489127712098
            ]
        },
        {
            "positions": [
                1.5523669295419766,
                -1.0648702918726312,
                -1.586924232775833,
                -1.3528792772098464,
                -0.667466400523493,
                -1.0933257813688435
            ]
        },
        {
            "positions": [
                1.448072784037522,
                -1.0485549004821588,
                -1.5566792926902593,
                -1.3350909432059055,
                -0.5853318088352034,
                -1.2329026499664772
            ]
        },
        {
            "positions": [
                1.3437786385330674,
                -1.0322395090916865,
                -1.5264343526046855,
                -1.3173026092019648,
                -0.5031972171469137,
                -1.3724795185641108
            ]
        },
        {
            "positions": [
                1.2394844930286124,
                -1.015924117701214,
                -1.4961894125191115,
                -1.2995142751980242,
                -0.42106262545862383,
                -1.512056387161745
            ]
        },
        {
            "positions": [
                1.1351903475241578,
                -0.9996087263107416,
                -1.4659444724335378,
                -1.2817259411940833,
                -0.3389280337703342,
                -1.6516332557593785
            ]
        },
        {
            "positions": [
                1.030896202019703,
                -0.9832933349202693,
                -1.435699532347964,
                -1.2639376071901427,
                -0.2567934420820446,
                -1.7912101243570122
            ]
        },
        {
            "positions": [
                0.9266020565152484,
                -0.9669779435297969,
                -1.4054545922623902,
                -1.246149273186202,
                -0.17465885039375473,
                -1.930786992954646
            ]
        },
        {
            "positions": [
                0.8223079110107936,
                -0.9506625521393244,
                -1.3752096521768165,
                -1.2283609391822612,
                -0.09252425870546488,
                -2.0703638615522797
            ]
        },
        {
            "positions": [
                0.7180137655063388,
                -0.934347160748852,
                -1.3449647120912425,
                -1.2105726051783205,
                -0.010389667017175253,
                -2.2099407301499134
            ]
        },
        {
            "positions": [
                0.6137196200018842,
                -0.9180317693583797,
                -1.314719772005669,
                -1.19278427117438,
                0.07174492467111437,
                -2.349517598747547
            ]
        },
        {
            "positions": [
                0.5094254744974296,
                -0.9017163779679073,
                -1.284474831920095,
                -1.1749959371704393,
                0.15387951635940422,
                -2.489094467345181
            ]
        },
        {
            "positions": [
                0.40513132899297455,
                -0.8854009865774348,
                -1.2542298918345212,
                -1.1572076031664984,
                0.23601410804769407,
                -2.6286713359428147
            ]
        },
        {
            "positions": [
                0.3008371834885198,
                -0.8690855951869625,
                -1.2239849517489474,
                -1.1394192691625578,
                0.3181486997359836,
                -2.7682482045404484
            ]
        },
        {
            "positions": [
                0.2859043072812949,
                -0.8924304000953193,
                -0.956070646145111,
                -1.1168002119726672,
                0.30201231454311595,
                -2.797772978476618
            ]
        },
        {
            "positions": [
                0.27097143107407,
                -0.915775205003676,
                -0.6881563405412745,
                -1.0941811547827767,
                0.2858759293502483,
                -2.827297752412788
            ]
        },
        {
            "positions": [
                0.2560385548668451,
                -0.9391200099120329,
                -0.42024203493743806,
                -1.0715620975928861,
                0.2697395441573806,
                -2.8568225263489575
            ]
        },
        {
            "positions": [
                0.24110567865962024,
                -0.9624648148203897,
                -0.1523277293336016,
                -1.0489430404029956,
                0.25360315896451296,
                -2.886347300285127
            ]
        },
        {
            "positions": [
                0.22617280245239535,
                -0.9858096197287465,
                0.11558657627023483,
                -1.026323983213105,
                0.2374667737716453,
                -2.915872074221297
            ]
        },
        {
            "positions": [
                0.21123992624517046,
                -1.0091544246371034,
                0.3835008818740713,
                -1.0037049260232145,
                0.22133038857877763,
                -2.9453968481574666
            ]
        },
        {
            "positions": [
                0.19630705003794557,
                -1.03249922954546,
                0.6514151874779079,
                -0.9810858688333238,
                0.20519400338590998,
                -2.974921622093636
            ]
        },
        {
            "positions": [
                0.1813741738307207,
                -1.055844034453817,
                0.9193294930817442,
                -0.9584668116434334,
                0.18905761819304234,
                -3.0044463960298056
            ]
        },
        {
            "positions": [
                0.1664412976234958,
                -1.0791888393621736,
                1.1872437986855808,
                -0.9358477544535427,
                0.17292123300017467,
                -3.0339711699659753
            ]
        },
        {
            "positions": [
                0.1515084214162709,
                -1.1025336442705305,
                1.455158104289417,
                -0.9132286972636522,
                0.156784847807307,
                -3.063495943902145
            ]
        },
        {
            "positions": [
                0.13657554520904602,
                -1.1258784491788871,
                1.7230724098932533,
                -0.8906096400737616,
                0.14064846261443936,
                -3.0930207178383147
            ]
        },
        {
            "positions": [
                0.12164266900182114,
                -1.149223254087244,
                1.9909867154970897,
                -0.8679905828838711,
                0.12451207742157169,
                -3.1225454917744844
            ]
        }
    ]
}{
    "goal": {
        "global_pose": {
            "orientation": {
                "w": 0.7047431468963623,
                "x": -0.7094548344612122,
                "y": 0.0024358443915843964,
                "z": -0.0022348060738295317
            },
            "position": {
                "x": 0.6094750761985779,
                "y": 0.3671506643295288,
                "z": 0.19426114857196808
            }
        },
        "name": "move_to_magneteinheit_A"
    },
    "id": "RRTstar_move_to_magneteinheit_A_129",
    "joint_names": [
        "shoulder_pan_joint",
        "shoulder_lift_joint",
        "elbow_joint",
        "wrist_1_joint",
        "wrist_2_joint",
        "wrist_3_joint"
    ],
    "metrics": {
        "cart_traj_len": 1.1909376135200374,
        "distance_elbow_joint": 0.536070197229721,
        "distance_shoulder_lift_joint": 0.7491381004779047,
        "distance_shoulder_pan_joint": 1.2423127544260464,
        "distance_wrist_1_joint": 0.7370350537091577,
        "distance_wrist_2_joint": 1.443779715850916,
        "distance_wrist_3_joint": 4.237511695017313,
        "smoothness": 0.05568274406555905,
        "time": 5.017262765,
        "traj_len": 2.990960968770916,
        "weighted_distance": 4.427379097875599
    },
    "planner": "RRTstar",
    "start": {
        "state": {
            "elbow_joint": 1.919643534880228,
            "shoulder_lift_joint": -1.8972525353963687,
            "shoulder_pan_joint": -1.1188672234189438,
            "wrist_1_joint": -1.5931878212786155,
            "wrist_2_joint": 1.5706036197970081,
            "wrist_3_joint": 1.118896926603594
        }
    },
    "waypoints": [
        {
            "positions": [
                -1.1188672234189438,
                -1.8972525353963687,
                1.919643534880228,
                -1.5931878212786155,
                1.5706036197970081,
                1.118896926603594
            ]
        },
        {
            "positions": [
                -1.0794676920371036,
                -1.8700264480016833,
                1.9355422436138028,
                -1.565692922491969,
                1.498189499738882,
                0.9254072750835304
            ]
        },
        {
            "positions": [
                -1.0400681606552635,
                -1.8428003606069978,
                1.9514409523473775,
                -1.5381980237053223,
                1.425775379680756,
                0.7319176235634668
            ]
        },
        {
            "positions": [
                -1.0006686292734233,
                -1.8155742732123124,
                1.9673396610809522,
                -1.5107031249186758,
                1.3533612596226299,
                0.5384279720434032
            ]
        },
        {
            "positions": [
                -0.961269097891583,
                -1.788348185817627,
                1.9832383698145268,
                -1.4832082261320292,
                1.2809471395645038,
                0.3449383205233397
            ]
        },
        {
            "positions": [
                -0.9218695665097428,
                -1.7611220984229414,
                1.9991370785481013,
                -1.4557133273453826,
                1.2085330195063777,
                0.15144866900327614
            ]
        },
        {
            "positions": [
                -0.8824700351279026,
                -1.733896011028256,
                2.015035787281676,
                -1.4282184285587358,
                1.1361188994482516,
                -0.04204098251678756
            ]
        },
        {
            "positions": [
                -0.8430705037460624,
                -1.7066699236335705,
                2.030934496015251,
                -1.4007235297720892,
                1.0637047793901255,
                -0.23553063403685104
            ]
        },
        {
            "positions": [
                -0.8036709723642221,
                -1.679443836238885,
                2.0468332047488254,
                -1.3732286309854427,
                0.9912906593319994,
                -0.4290202855569145
            ]
        },
        {
            "positions": [
                -0.764271440982382,
                -1.6522177488441996,
                2.0627319134824003,
                -1.345733732198796,
                0.9188765392738734,
                -0.6225099370769782
            ]
        },
        {
            "positions": [
                -0.7248719096005418,
                -1.6249916614495141,
                2.0786306222159747,
                -1.3182388334121495,
                0.8464624192157473,
                -0.8159995885970417
            ]
        },
        {
            "positions": [
                -0.6854723782187016,
                -1.5977655740548287,
                2.094529330949549,
                -1.290743934625503,
                0.7740482991576212,
                -1.0094892401171054
            ]
        },
        {
            "positions": [
                -0.6460728468368613,
                -1.5705394866601432,
                2.110428039683124,
                -1.2632490358388564,
                0.7016341790994951,
                -1.202978891637169
            ]
        },
        {
            "positions": [
                -0.6066733154550211,
                -1.5433133992654577,
                2.1263267484166986,
                -1.2357541370522096,
                0.629220059041369,
                -1.3964685431572328
            ]
        },
        {
            "positions": [
                -0.567273784073181,
                -1.5160873118707723,
                2.1422254571502735,
                -1.2082592382655633,
                0.5568059389832429,
                -1.589958194677296
            ]
        },
        {
            "positions": [
                -0.5278742526913407,
                -1.4888612244760868,
                2.158124165883848,
                -1.1807643394789165,
                0.48439181892511685,
                -1.7834478461973597
            ]
        },
        {
            "positions": [
                -0.48847472130950054,
                -1.4616351370814014,
                2.174022874617423,
                -1.15326944069227,
                0.41197769886699076,
                -1.976937497717423
            ]
        },
        {
            "positions": [
                -0.44907518992766027,
                -1.434409049686716,
                2.1899215833509973,
                -1.1257745419056233,
                0.3395635788088647,
                -2.1704271492374874
            ]
        },
        {
            "positions": [
                -0.4096756585458201,
                -1.4071829622920304,
                2.2058202920845718,
                -1.0982796431189767,
                0.2671494587507386,
                -2.3639168007575506
            ]
        },
        {
            "positions": [
                -0.3702761271639798,
                -1.379956874897345,
                2.2217190008181467,
                -1.0707847443323302,
                0.19473533869261242,
                -2.557406452277614
            ]
        },
        {
            "positions": [
                -0.2715317955297633,
                -1.3335883869015688,
                2.174920054559786,
                -1.0278583489797557,
                0.1811530517433084,
                -2.6696481155048346
            ]
        },
        {
            "positions": [
                -0.17278746389554686,
                -1.2872198989057926,
                2.1281211083014258,
                -0.9849319536271812,
                0.1675707647940044,
                -2.7818897787320553
            ]
        },
        {
            "positions": [
                -0.07404313226133041,
                -1.2408514109100164,
                2.0813221620430653,
                -0.9420055582746067,
                0.15398847784470038,
                -2.8941314419592765
            ]
        },
        {
            "positions": [
                0.024701199372886062,
                -1.1944829229142402,
                2.034523215784705,
                -0.8990791629220323,
                0.14040619089539635,
                -3.0063731051864973
            ]
        },
        {
            "positions": [
                0.12344553100710248,
                -1.148114434918464,
                1.9877242695263442,
                -0.8561527675694578,
                0.12682390394609236,
                -3.118614768413718
            ]
        }
    ]
}