{
    "goal": {
        "global_pose": {
            "orientation": {
                "w": 0.7047431468963623,
                "x": -0.7094548344612122,
                "y": 0.0024358443915843964,
                "z": -0.0022348060738295317
            },
            "position": {
                "x": 0.6094750761985779,
                "y": 0.3671506643295288,
                "z": 0.19426114857196808
            }
        },
        "name": "move_to_magneteinheit_A"
    },
    "id": "RRTstar_move_to_magneteinheit_A_61",
    "joint_names": [
        "shoulder_pan_joint",
        "shoulder_lift_joint",
        "elbow_joint",
        "wrist_1_joint",
        "wrist_2_joint",
        "wrist_3_joint"
    ],
    "metrics": {
        "cart_traj_len": 3.4682101394184,
        "distance_elbow_joint": 3.9073603524602354,
        "distance_shoulder_lift_joint": 1.4351773294688113,
        "distance_shoulder_pan_joint": 2.577596094500957,
        "distance_wrist_1_joint": 3.4554517593518277,
        "distance_wrist_2_joint": 1.4430897570535877,
        "distance_wrist_3_joint": 0.42837992567401373,
        "smoothness": 0.07181371447850751,
        "time": 5.018030567,
        "traj_len": 3.6396504253168906,
        "weighted_distance": 4.3591692541426825
    },
    "planner": "RRTstar",
    "start": {
        "state": {
            "elbow_joint": -1.919618573717145,
            "shoulder_lift_joint": -1.2443395971678275,
            "shoulder_pan_joint": 2.6996025300909787,
            "wrist_1_joint": -1.548550951253194,
            "wrist_2_joint": -1.5709469090946802,
            "wrist_3_joint": 0.4420197732051276
        }
    },
    "waypoints": [
        {
            "positions": [
                2.6996025300909787,
                -1.2443395971678275,
                -1.919618573717145,
                -1.548550951253194,
                -1.5709469090946802,
                0.4420197732051276
            ]
        },
        {
            "positions": [
                2.5588433001575073,
                -1.1914529398679412,
                -1.8490262681882004,
                -1.4884763680790123,
                -1.510633329662963,
                0.4363272699338538
            ]
        },
        {
            "positions": [
                2.4180840702240363,
                -1.138566282568055,
                -1.7784339626592556,
                -1.4284017849048303,
                -1.450319750231246,
                0.43063476666258005
            ]
        },
        {
            "positions": [
                2.277324840290565,
                -1.0856796252681684,
                -1.707841657130311,
                -1.3683272017306485,
                -1.3900061707995288,
                0.42494226339130625
            ]
        },
        {
            "positions": [
                2.136565610357094,
                -1.0327929679682821,
                -1.6372493516013662,
                -1.3082526185564665,
                -1.3296925913678117,
                0.41924976012003246
            ]
        },
        {
            "positions": [
                1.9958063804236221,
                -0.9799063106683958,
                -1.5666570460724216,
                -1.2481780353822847,
                -1.2693790119360946,
                0.4135572568487587
            ]
        },
        {
            "positions": [
                1.855047150490151,
                -0.9270196533685096,
                -1.4960647405434768,
                -1.1881034522081029,
                -1.2090654325043775,
                0.4078647535774849
            ]
        },
        {
            "positions": [
                1.7142879205566794,
                -0.8741329960686232,
                -1.4254724350145322,
                -1.1280288690339209,
                -1.1487518530726604,
                0.4021722503062111
            ]
        },
        {
            "positions": [
                1.5735286906232084,
                -0.8212463387687368,
                -1.3548801294855877,
                -1.0679542858597388,
                -1.0884382736409433,
                0.3964797470349374
            ]
        },
        {
            "positions": [
                1.432769460689737,
                -0.7683596814688505,
                -1.2842878239566429,
                -1.007879702685557,
                -1.0281246942092261,
                0.3907872437636636
            ]
        },
        {
            "positions": [
                1.2920102307562655,
                -0.7154730241689641,
                -1.213695518427698,
                -0.9478051195113751,
                -0.9678111147775089,
                0.3850947404923898
            ]
        },
        {
            "positions": [
                1.1512510008227943,
                -0.6625863668690778,
                -1.1431032128987535,
                -0.8877305363371932,
                -0.9074975353457917,
                0.379402237221116
            ]
        },
        {
            "positions": [
                1.010491770889323,
                -0.6096997095691915,
                -1.072510907369809,
                -0.8276559531630114,
                -0.8471839559140747,
                0.37370973394984225
            ]
        },
        {
            "positions": [
                0.8697325409558518,
                -0.5568130522693051,
                -1.0019186018408641,
                -0.7675813699888295,
                -0.7868703764823576,
                0.36801723067856845
            ]
        },
        {
            "positions": [
                0.7289733110223804,
                -0.5039263949694188,
                -0.9313262963119194,
                -0.7075067868146475,
                -0.7265567970506404,
                0.3623247274072947
            ]
        },
        {
            "positions": [
                0.5882140810889092,
                -0.4510397376695324,
                -0.8607339907829747,
                -0.6474322036404656,
                -0.6662432176189232,
                0.3566322241360209
            ]
        },
        {
            "positions": [
                0.44745485115543815,
                -0.39815308036964614,
                -0.7901416852540302,
                -0.5873576204662838,
                -0.6059296381872062,
                0.3509397208647471
            ]
        },
        {
            "positions": [
                0.3066956212219667,
                -0.34526642306975985,
                -0.7195493797250856,
                -0.527283037292102,
                -0.545616058755489,
                0.3452472175934734
            ]
        },
        {
            "positions": [
                0.16593639128849513,
                -0.29237976576987346,
                -0.6489570741961408,
                -0.46720845411791995,
                -0.4853024793237719,
                0.3395547143221996
            ]
        },
        {
            "positions": [
                0.16319076905734065,
                -0.322580859399302,
                -0.4841633958874389,
                -0.3188266252293853,
                -0.4629621463686044,
                0.31918503514775676
            ]
        },
        {
            "positions": [
                0.16044514682618613,
                -0.3527819530287305,
                -0.319369717578737,
                -0.1704447963408507,
                -0.44062181341343687,
                0.2988153559733139
            ]
        },
        {
            "positions": [
                0.15769952459503164,
                -0.38298304665815897,
                -0.1545760392700351,
                -0.022062967452316062,
                -0.41828148045826935,
                0.278445676798871
            ]
        },
        {
            "positions": [
                0.15495390236387713,
                -0.4131841402875875,
                0.010217639038666793,
                0.12631886143621857,
                -0.39594114750310183,
                0.2580759976244282
            ]
        },
        {
            "positions": [
                0.15220828013272264,
                -0.443385233917016,
                0.17501131734736863,
                0.27470069032475314,
                -0.3736008145479343,
                0.23770631844998533
            ]
        },
        {
            "positions": [
                0.14946265790156812,
                -0.4735863275464445,
                0.3398049956560706,
                0.4230825192132878,
                -0.3512604815927668,
                0.21733663927554248
            ]
        },
        {
            "positions": [
                0.14671703567041364,
                -0.503787421175873,
                0.5045986739647725,
                0.5714643481018225,
                -0.3289201486375992,
                0.19696696010109963
            ]
        },
        {
            "positions": [
                0.14397141343925912,
                -0.5339885148053015,
                0.6693923522734744,
                0.719846176990357,
                -0.30657981568243176,
                0.17659728092665677
            ]
        },
        {
            "positions": [
                0.14122579120810463,
                -0.56418960843473,
                0.8341860305821762,
                0.8682280058788916,
                -0.2842394827272642,
                0.15622760175221392
            ]
        },
        {
            "positions": [
                0.13848016897695015,
                -0.5943907020641586,
                0.9989797088908781,
                1.0166098347674262,
                -0.2618991497720967,
                0.13585792257777107
            ]
        },
        {
            "positions": [
                0.13573454674579563,
                -0.624591795693587,
                1.1637733871995801,
                1.164991663655961,
                -0.23955881681692917,
                0.11548824340332822
            ]
        },
        {
            "positions": [
                0.13298892451464114,
                -0.6547928893230155,
                1.328567065508282,
                1.3133734925444955,
                -0.21721848386176162,
                0.09511856422888537
            ]
        },
        {
            "positions": [
                0.13024330228348663,
                -0.6849939829524441,
                1.4933607438169838,
                1.46175532143303,
                -0.1948781509065941,
                0.0747488850544425
            ]
        },
        {
            "positions": [
                0.12749768005233214,
                -0.7151950765818725,
                1.6581544221256859,
                1.610137150321565,
                -0.1725378179514266,
                0.05437920587999967
            ]
        },
        {
            "positions": [
                0.12475205782117764,
                -0.745396170211301,
                1.8229481004343875,
                1.7585189792100993,
                -0.15019748499625907,
                0.03400952670555685
            ]
        },
        {
            "positions": [
                0.12200643559002314,
                -0.7755972638407296,
                1.9877417787430895,
                1.906900808098634,
                -0.12785715204109155,
                0.013639847531113997
            ]
        }
    ]
}{
    "goal": {
        "global_pose": {
            "orientation": {
                "w": 0.7047431468963623,
                "x": -0.7094548344612122,
                "y": 0.0024358443915843964,
                "z": -0.0022348060738295317
            },
            "position": {
                "x": 0.6094750761985779,
                "y": 0.3671506643295288,
                "z": 0.19426114857196808
            }
        },
        "name": "move_to_magneteinheit_A"
    },
    "id": "RRTstar_move_to_magneteinheit_A_61",
    "joint_names": [
        "shoulder_pan_joint",
        "shoulder_lift_joint",
        "elbow_joint",
        "wrist_1_joint",
        "wrist_2_joint",
        "wrist_3_joint"
    ],
    "metrics": {
        "cart_traj_len": 1.2017190661711201,
        "distance_elbow_joint": 0.06278822937327644,
        "distance_shoulder_lift_joint": 0.7523955696651727,
        "distance_shoulder_pan_joint": 1.2415248331048856,
        "distance_wrist_1_joint": 0.7570935114845119,
        "distance_wrist_2_joint": 1.4452781628787763,
        "distance_wrist_3_joint": 4.268116160584825,
        "smoothness": 3.4754807972017733e-16,
        "time": 5.041201271,
        "traj_len": 2.920136378166514,
        "weighted_distance": 4.389282454185922
    },
    "planner": "RRTstar",
    "start": {
        "state": {
            "elbow_joint": 1.919643534880228,
            "shoulder_lift_joint": -1.8972525353963687,
            "shoulder_pan_joint": -1.1188672234189438,
            "wrist_1_joint": -1.5931878212786155,
            "wrist_2_joint": 1.5706036197970081,
            "wrist_3_joint": 1.118896926603594
        }
    },
    "waypoints": [
        {
            "positions": [
                -1.1188672234189438,
                -1.8972525353963687,
                1.919643534880228,
                -1.5931878212786155,
                1.5706036197970081,
                1.118896926603594
            ]
        },
        {
            "positions": [
                -1.062629532803585,
                -1.8628944861816763,
                1.9221651293308137,
                -1.558906414412929,
                1.5040290238275291,
                0.9216893688562856
            ]
        },
        {
            "positions": [
                -1.006391842188226,
                -1.828536436966984,
                1.9246867237813994,
                -1.5246250075472425,
                1.43745442785805,
                0.7244818111089772
            ]
        },
        {
            "positions": [
                -0.9501541515728672,
                -1.7941783877522917,
                1.927208318231985,
                -1.490343600681556,
                1.3708798318885709,
                0.5272742533616689
            ]
        },
        {
            "positions": [
                -0.8939164609575083,
                -1.7598203385375992,
                1.9297299126825707,
                -1.4560621938158693,
                1.3043052359190919,
                0.3300666956143604
            ]
        },
        {
            "positions": [
                -0.8376787703421494,
                -1.7254622893229068,
                1.9322515071331563,
                -1.4217807869501828,
                1.2377306399496129,
                0.13285913786705206
            ]
        },
        {
            "positions": [
                -0.7814410797267906,
                -1.6911042401082146,
                1.9347731015837422,
                -1.3874993800844964,
                1.1711560439801338,
                -0.06434841988025619
            ]
        },
        {
            "positions": [
                -0.7252033891114317,
                -1.6567461908935222,
                1.9372946960343278,
                -1.3532179732188099,
                1.1045814480106548,
                -0.26155597762756466
            ]
        },
        {
            "positions": [
                -0.6689656984960728,
                -1.6223881416788297,
                1.9398162904849134,
                -1.3189365663531234,
                1.0380068520411756,
                -0.45876353537487313
            ]
        },
        {
            "positions": [
                -0.6127280078807139,
                -1.5880300924641375,
                1.942337884935499,
                -1.284655159487437,
                0.9714322560716966,
                -0.6559710931221814
            ]
        },
        {
            "positions": [
                -0.556490317265355,
                -1.553672043249445,
                1.9448594793860847,
                -1.2503737526217504,
                0.9048576601022176,
                -0.8531786508694899
            ]
        },
        {
            "positions": [
                -0.500252626649996,
                -1.5193139940347526,
                1.9473810738366704,
                -1.216092345756064,
                0.8382830641327383,
                -1.0503862086167983
            ]
        },
        {
            "positions": [
                -0.44401493603463726,
                -1.4849559448200602,
                1.949902668287256,
                -1.1818109388903775,
                0.7717084681632594,
                -1.2475937663641063
            ]
        },
        {
            "positions": [
                -0.38777724541927827,
                -1.450597895605368,
                1.9524242627378416,
                -1.147529532024691,
                0.7051338721937803,
                -1.4448013241114153
            ]
        },
        {
            "positions": [
                -0.3315395548039195,
                -1.4162398463906756,
                1.9549458571884273,
                -1.1132481251590045,
                0.6385592762243013,
                -1.6420088818587233
            ]
        },
        {
            "positions": [
                -0.2753018641885605,
                -1.3818817971759831,
                1.957467451639013,
                -1.0789667182933178,
                0.5719846802548222,
                -1.8392164396060318
            ]
        },
        {
            "positions": [
                -0.21906417357320174,
                -1.347523747961291,
                1.9599890460895986,
                -1.0446853114276313,
                0.5054100842853431,
                -2.0364239973533405
            ]
        },
        {
            "positions": [
                -0.16282648295784274,
                -1.3131656987465985,
                1.9625106405401844,
                -1.0104039045619448,
                0.43883548831586405,
                -2.233631555100649
            ]
        },
        {
            "positions": [
                -0.10658879234248397,
                -1.278807649531906,
                1.96503223499077,
                -0.9761224976962584,
                0.37226089234638504,
                -2.4308391128479565
            ]
        },
        {
            "positions": [
                -0.05035110172712498,
                -1.2444496003172136,
                1.9675538294413557,
                -0.9418410908305718,
                0.3056862963769058,
                -2.628046670595265
            ]
        },
        {
            "positions": [
                0.00588658888823379,
                -1.2100915511025214,
                1.9700754238919413,
                -0.9075596839648854,
                0.23911170040742702,
                -2.8252542283425734
            ]
        },
        {
            "positions": [
                0.0621242795035928,
                -1.175733501887829,
                1.972597018342527,
                -0.8732782770991988,
                0.17253710443794779,
                -3.022461786089882
            ]
        },
        {
            "positions": [
                0.12265760968594167,
                -1.144856965731196,
                1.9824317642535045,
                -0.8360943097941036,
                0.12532545691823185,
                -3.1492192339812304
            ]
        }
    ]
}