{
    "goal": {
        "global_pose": {
            "orientation": {
                "w": 0.7047431468963623,
                "x": -0.7094548344612122,
                "y": 0.0024358443915843964,
                "z": -0.0022348060738295317
            },
            "position": {
                "x": 0.6094750761985779,
                "y": 0.3671506643295288,
                "z": 0.19426114857196808
            }
        },
        "name": "move_to_magneteinheit_A"
    },
    "id": "RRTstar_move_to_magneteinheit_A_96",
    "joint_names": [
        "shoulder_pan_joint",
        "shoulder_lift_joint",
        "elbow_joint",
        "wrist_1_joint",
        "wrist_2_joint",
        "wrist_3_joint"
    ],
    "metrics": {
        "cart_traj_len": 3.5408525675868203,
        "distance_elbow_joint": 3.913545752235057,
        "distance_shoulder_lift_joint": 0.4676196089126673,
        "distance_shoulder_pan_joint": 2.7361904576154195,
        "distance_wrist_1_joint": 3.4598627153941717,
        "distance_wrist_2_joint": 1.4348018463630632,
        "distance_wrist_3_joint": 1.7286696473036642,
        "smoothness": 0.07861248254067428,
        "time": 5.029162497,
        "traj_len": 3.706843674586783,
        "weighted_distance": 4.7002865746876115
    },
    "planner": "RRTstar",
    "start": {
        "state": {
            "elbow_joint": -1.919618573717145,
            "shoulder_lift_joint": -1.2443395971678275,
            "shoulder_pan_joint": 2.6996025300909787,
            "wrist_1_joint": -1.548550951253194,
            "wrist_2_joint": -1.5709469090946802,
            "wrist_3_joint": 0.4420197732051276
        }
    },
    "waypoints": [
        {
            "positions": [
                2.6996025300909787,
                -1.2443395971678275,
                -1.919618573717145,
                -1.548550951253194,
                -1.5709469090946802,
                0.4420197732051276
            ]
        },
        {
            "positions": [
                2.5766453110020193,
                -1.2202695488015,
                -1.8063376284508637,
                -1.5102036434347115,
                -1.516957949890742,
                0.47794033354389875
            ]
        },
        {
            "positions": [
                2.45368809191306,
                -1.1961995004351726,
                -1.6930566831845824,
                -1.4718563356162289,
                -1.4629689906868037,
                0.5138608938826699
            ]
        },
        {
            "positions": [
                2.3307308728241005,
                -1.1721294520688452,
                -1.579775737918301,
                -1.433509027797746,
                -1.4089800314828653,
                0.549781454221441
            ]
        },
        {
            "positions": [
                2.207773653735141,
                -1.1480594037025178,
                -1.4664947926520198,
                -1.3951617199792634,
                -1.3549910722789271,
                0.5857020145602121
            ]
        },
        {
            "positions": [
                2.084816434646182,
                -1.1239893553361904,
                -1.3532138473857385,
                -1.3568144121607808,
                -1.301002113074989,
                0.6216225748989833
            ]
        },
        {
            "positions": [
                1.9618592155572228,
                -1.099919306969863,
                -1.2399329021194572,
                -1.3184671043422982,
                -1.2470131538710507,
                0.6575431352377544
            ]
        },
        {
            "positions": [
                1.8389019964682634,
                -1.0758492586035355,
                -1.1266519568531759,
                -1.2801197965238156,
                -1.1930241946671125,
                0.6934636955765255
            ]
        },
        {
            "positions": [
                1.715944777379304,
                -1.051779210237208,
                -1.0133710115868946,
                -1.2417724887053327,
                -1.139035235463174,
                0.7293842559152968
            ]
        },
        {
            "positions": [
                1.5929875582903446,
                -1.0277091618708807,
                -0.9000900663206133,
                -1.2034251808868501,
                -1.0850462762592359,
                0.7653048162540679
            ]
        },
        {
            "positions": [
                1.4700303392013852,
                -1.0036391135045533,
                -0.786809121054332,
                -1.1650778730683675,
                -1.0310573170552977,
                0.801225376592839
            ]
        },
        {
            "positions": [
                1.3489782927507412,
                -0.9920939894924352,
                -0.6433687625822284,
                -1.130805439756533,
                -0.9805546013914643,
                0.829831960685359
            ]
        },
        {
            "positions": [
                1.227926246300097,
                -0.9805488654803173,
                -0.4999284041101249,
                -1.0965330064446985,
                -0.9300518857276311,
                0.8584385447778791
            ]
        },
        {
            "positions": [
                1.1068741998494531,
                -0.9690037414681993,
                -0.35648804563802144,
                -1.062260573132864,
                -0.8795491700637977,
                0.8870451288703992
            ]
        },
        {
            "positions": [
                0.985822153398809,
                -0.9574586174560813,
                -0.21304768716591782,
                -1.0279881398210295,
                -0.8290464543999645,
                0.9156517129629193
            ]
        },
        {
            "positions": [
                0.864770106948165,
                -0.9459134934439632,
                -0.06960732869381436,
                -0.9937157065091949,
                -0.7785437387361311,
                0.9442582970554393
            ]
        },
        {
            "positions": [
                0.743718060497521,
                -0.9343683694318453,
                0.0738330297782891,
                -0.9594432731973604,
                -0.7280410230722978,
                0.9728648811479593
            ]
        },
        {
            "positions": [
                0.622666014046877,
                -0.9228232454197274,
                0.21727338825039255,
                -0.925170839885526,
                -0.6775383074084645,
                1.0014714652404795
            ]
        },
        {
            "positions": [
                0.5016139675962329,
                -0.9112781214076093,
                0.36071374672249634,
                -0.8908984065736913,
                -0.6270355917446312,
                1.0300780493329995
            ]
        },
        {
            "positions": [
                0.38056192114558884,
                -0.8997329973954913,
                0.5041541051945997,
                -0.8566259732618569,
                -0.576532876080798,
                1.0586846334255196
            ]
        },
        {
            "positions": [
                0.2595098746949449,
                -0.8881878733833733,
                0.6475944636667033,
                -0.8223535399500224,
                -0.5260301604169646,
                1.0872912175180396
            ]
        },
        {
            "positions": [
                0.2354369616988035,
                -0.8841527976625583,
                0.753992529394371,
                -0.6625982524663462,
                -0.4978183427158893,
                1.0270322817959565
            ]
        },
        {
            "positions": [
                0.21136404870266207,
                -0.8801177219417432,
                0.8603905951220387,
                -0.50284296498267,
                -0.4696065250148141,
                0.9667733460738736
            ]
        },
        {
            "positions": [
                0.18729113570652062,
                -0.8760826462209281,
                0.9667886608497065,
                -0.3430876774989937,
                -0.44139470731373887,
                0.9065144103517906
            ]
        },
        {
            "positions": [
                0.1632182227103792,
                -0.8720475705001131,
                1.0731867265773742,
                -0.18333239001531754,
                -0.4131828896126636,
                0.8462554746297076
            ]
        },
        {
            "positions": [
                0.13914530971423775,
                -0.8680124947792981,
                1.1795847923050422,
                -0.023577102531641247,
                -0.3849710719115883,
                0.7859965389076246
            ]
        },
        {
            "positions": [
                0.11507239671809633,
                -0.863977419058483,
                1.28598285803271,
                0.13617818495203493,
                -0.3567592542105131,
                0.7257376031855416
            ]
        },
        {
            "positions": [
                0.0909994837219549,
                -0.859942343337668,
                1.3923809237603777,
                0.2959334724357112,
                -0.3285474365094378,
                0.6654786674634585
            ]
        },
        {
            "positions": [
                0.06692657072581348,
                -0.8559072676168529,
                1.4987789894880454,
                0.4556887599193873,
                -0.30033561880836257,
                0.6052197317413757
            ]
        },
        {
            "positions": [
                0.042853657729672034,
                -0.8518721918960378,
                1.6051770552157132,
                0.6154440474030635,
                -0.2721238011072873,
                0.5449607960192926
            ]
        },
        {
            "positions": [
                0.04870543067842707,
                -0.842118368516004,
                1.6690885788886716,
                0.7978201594927204,
                -0.25118532807436234,
                0.4698266491123332
            ]
        },
        {
            "positions": [
                0.05455720362718212,
                -0.8323645451359702,
                1.7330001025616297,
                0.9801962715823775,
                -0.23024685504143735,
                0.3946925022053737
            ]
        },
        {
            "positions": [
                0.06040897657593716,
                -0.8226107217559364,
                1.7969116262345879,
                1.1625723836720345,
                -0.20930838200851237,
                0.31955835529841425
            ]
        },
        {
            "positions": [
                0.0662607495246922,
                -0.8128568983759026,
                1.8608231499075463,
                1.3449484957616915,
                -0.18836990897558742,
                0.24442420839145482
            ]
        },
        {
            "positions": [
                0.0849389140110573,
                -0.8008112616689884,
                1.9051911594443345,
                1.5337362518881201,
                -0.17096162689426403,
                0.16424714377006583
            ]
        },
        {
            "positions": [
                0.10361707849742238,
                -0.7887656249620744,
                1.949559168981123,
                1.7225240080145487,
                -0.15355334481294064,
                0.08407007914867684
            ]
        },
        {
            "positions": [
                0.12229524298378748,
                -0.7767199882551602,
                1.9939271785179111,
                1.9113117641409774,
                -0.13614506273161722,
                0.0038930145272878494
            ]
        }
    ]
}{
    "goal": {
        "global_pose": {
            "orientation": {
                "w": 0.7047431468963623,
                "x": -0.7094548344612122,
                "y": 0.0024358443915843964,
                "z": -0.0022348060738295317
            },
            "position": {
                "x": 0.6094750761985779,
                "y": 0.3671506643295288,
                "z": 0.19426114857196808
            }
        },
        "name": "move_to_magneteinheit_A"
    },
    "id": "RRTstar_move_to_magneteinheit_A_96",
    "joint_names": [
        "shoulder_pan_joint",
        "shoulder_lift_joint",
        "elbow_joint",
        "wrist_1_joint",
        "wrist_2_joint",
        "wrist_3_joint"
    ],
    "metrics": {
        "cart_traj_len": 1.3531840484814686,
        "distance_elbow_joint": 0.08705967600409625,
        "distance_shoulder_lift_joint": 0.7482251214958391,
        "distance_shoulder_pan_joint": 1.242487463508403,
        "distance_wrist_1_joint": 0.7315173612820615,
        "distance_wrist_2_joint": 1.444914177826365,
        "distance_wrist_3_joint": 4.232461036157672,
        "smoothness": 0.00832663969046336,
        "time": 5.016888950999999,
        "traj_len": 2.91318808803593,
        "weighted_distance": 4.373559013857959
    },
    "planner": "RRTstar",
    "start": {
        "state": {
            "elbow_joint": 1.919643534880228,
            "shoulder_lift_joint": -1.8972525353963687,
            "shoulder_pan_joint": -1.1188672234189438,
            "wrist_1_joint": -1.5931878212786155,
            "wrist_2_joint": 1.5706036197970081,
            "wrist_3_joint": 1.118896926603594
        }
    },
    "waypoints": [
        {
            "positions": [
                -1.1188672234189438,
                -1.8972525353963687,
                1.919643534880228,
                -1.5931878212786155,
                1.5706036197970081,
                1.118896926603594
            ]
        },
        {
            "positions": [
                -1.0860926106146431,
                -1.8566615593439948,
                1.9239665880667098,
                -1.57027771824614,
                1.4911409227739643,
                0.9136630677570949
            ]
        },
        {
            "positions": [
                -1.0533179978103424,
                -1.8160705832916209,
                1.9282896412531916,
                -1.5473676152136646,
                1.4116782257509202,
                0.7084292089105959
            ]
        },
        {
            "positions": [
                -1.0205433850060417,
                -1.775479607239247,
                1.9326126944396733,
                -1.5244575121811892,
                1.3322155287278763,
                0.5031953500640969
            ]
        },
        {
            "positions": [
                -0.9877687722017412,
                -1.734888631186873,
                1.936935747626155,
                -1.5015474091487138,
                1.2527528317048324,
                0.29796149121759785
            ]
        },
        {
            "positions": [
                -0.9549941593974405,
                -1.694297655134499,
                1.9412588008126366,
                -1.4786373061162383,
                1.1732901346817883,
                0.09272763237109882
            ]
        },
        {
            "positions": [
                -0.9222195465931398,
                -1.653706679082125,
                1.9455818539991183,
                -1.455727203083763,
                1.0938274376587445,
                -0.1125062264754002
            ]
        },
        {
            "positions": [
                -0.889444933788839,
                -1.6131157030297512,
                1.9499049071856,
                -1.4328171000512875,
                1.0143647406357004,
                -0.31774008532189923
            ]
        },
        {
            "positions": [
                -0.8566703209845384,
                -1.5725247269773774,
                1.9542279603720818,
                -1.4099069970188123,
                0.9349020436126566,
                -0.5229739441683983
            ]
        },
        {
            "positions": [
                -0.8238957081802377,
                -1.5319337509250035,
                1.9585510135585635,
                -1.3869968939863369,
                0.8554393465896126,
                -0.7282078030148973
            ]
        },
        {
            "positions": [
                -0.791121095375937,
                -1.4913427748726296,
                1.9628740667450453,
                -1.3640867909538614,
                0.7759766495665686,
                -0.9334416618613963
            ]
        },
        {
            "positions": [
                -0.7583464825716364,
                -1.4507517988202556,
                1.967197119931527,
                -1.341176687921386,
                0.6965139525435247,
                -1.1386755207078954
            ]
        },
        {
            "positions": [
                -0.7255718697673357,
                -1.4101608227678817,
                1.9715201731180088,
                -1.3182665848889106,
                0.6170512555204808,
                -1.3439093795543944
            ]
        },
        {
            "positions": [
                -0.692797256963035,
                -1.3695698467155077,
                1.9758432263044905,
                -1.2953564818564351,
                0.5375885584974369,
                -1.5491432384008934
            ]
        },
        {
            "positions": [
                -0.6600226441587342,
                -1.3289788706631338,
                1.980166279490972,
                -1.2724463788239597,
                0.4581258614743928,
                -1.7543770972473924
            ]
        },
        {
            "positions": [
                -0.6272480313544336,
                -1.2883878946107599,
                1.9844893326774538,
                -1.2495362757914843,
                0.37866316445134895,
                -1.9596109560938915
            ]
        },
        {
            "positions": [
                -0.594473418550133,
                -1.247796918558386,
                1.9888123858639355,
                -1.2266261727590089,
                0.2992004674283051,
                -2.1648448149403903
            ]
        },
        {
            "positions": [
                -0.5616988057458323,
                -1.207205942506012,
                1.9931354390504172,
                -1.2037160697265334,
                0.219737770405261,
                -2.3700786737868897
            ]
        },
        {
            "positions": [
                -0.5289241929415316,
                -1.166614966453638,
                1.997458492236899,
                -1.180805966694058,
                0.1402750733822171,
                -2.5753125326333883
            ]
        },
        {
            "positions": [
                -0.3657880846837839,
                -1.162218078315361,
                1.9951473125750425,
                -1.101022090019682,
                0.13662866552932368,
                -2.7098754268635608
            ]
        },
        {
            "positions": [
                -0.20265197642603622,
                -1.1578211901770838,
                1.9928361329131863,
                -1.021238213345306,
                0.13298225767643024,
                -2.844438321093733
            ]
        },
        {
            "positions": [
                -0.03951586816828856,
                -1.1534243020388066,
                1.99052495325133,
                -0.94145433667093,
                0.12933584982353682,
                -2.9790012153239056
            ]
        },
        {
            "positions": [
                0.12362024008945917,
                -1.1490274139005296,
                1.9882137735894736,
                -0.861670459996554,
                0.1256894419706434,
                -3.113564109554078
            ]
        }
    ]
}