{
    "goal": {
        "global_pose": {
            "orientation": {
                "w": 0.7047431468963623,
                "x": -0.7094548344612122,
                "y": 0.0024358443915843964,
                "z": -0.0022348060738295317
            },
            "position": {
                "x": 0.6094750761985779,
                "y": 0.3671506643295288,
                "z": 0.19426114857196808
            }
        },
        "name": "move_to_magneteinheit_A"
    },
    "id": "RRTstar_move_to_magneteinheit_A_123",
    "joint_names": [
        "shoulder_pan_joint",
        "shoulder_lift_joint",
        "elbow_joint",
        "wrist_1_joint",
        "wrist_2_joint",
        "wrist_3_joint"
    ],
    "metrics": {
        "cart_traj_len": 3.6198743046509567,
        "distance_elbow_joint": 3.874193131702807,
        "distance_shoulder_lift_joint": 0.23596322370509526,
        "distance_shoulder_pan_joint": 2.7676050738657003,
        "distance_wrist_1_joint": 0.8476716137272388,
        "distance_wrist_2_joint": 1.874047684308029,
        "distance_wrist_3_joint": 2.6196857660959134,
        "smoothness": 0.18747253501076394,
        "time": 5.025884490999999,
        "traj_len": 3.495592438114716,
        "weighted_distance": 4.492244130012514
    },
    "planner": "RRTstar",
    "start": {
        "state": {
            "elbow_joint": -1.919618573717145,
            "shoulder_lift_joint": -1.2443395971678275,
            "shoulder_pan_joint": 2.6996025300909787,
            "wrist_1_joint": -1.548550951253194,
            "wrist_2_joint": -1.5709469090946802,
            "wrist_3_joint": 0.4420197732051276
        }
    },
    "waypoints": [
        {
            "positions": [
                2.6996025300909787,
                -1.2443395971678275,
                -1.919618573717145,
                -1.548550951253194,
                -1.5709469090946802,
                0.4420197732051276
            ]
        },
        {
            "positions": [
                2.5947592303401965,
                -1.2394153835125947,
                -1.8117285807760823,
                -1.537386742212674,
                -1.5083676425724624,
                0.5316202677419161
            ]
        },
        {
            "positions": [
                2.4899159305894143,
                -1.2344911698573617,
                -1.7038385878350197,
                -1.5262225331721535,
                -1.4457883760502444,
                0.6212207622787045
            ]
        },
        {
            "positions": [
                2.385072630838632,
                -1.229566956202129,
                -1.5959485948939571,
                -1.5150583241316333,
                -1.3832091095280266,
                0.7108212568154929
            ]
        },
        {
            "positions": [
                2.28022933108785,
                -1.224642742546896,
                -1.4880586019528943,
                -1.503894115091113,
                -1.3206298430058085,
                0.8004217513522813
            ]
        },
        {
            "positions": [
                2.1753860313370676,
                -1.2197185288916632,
                -1.380168609011832,
                -1.4927299060505927,
                -1.2580505764835908,
                0.8900222458890699
            ]
        },
        {
            "positions": [
                2.0705427315862854,
                -1.2147943152364304,
                -1.272278616070769,
                -1.4815656970100723,
                -1.195471309961373,
                0.9796227404258582
            ]
        },
        {
            "positions": [
                1.965699431835503,
                -1.2098701015811975,
                -1.1643886231297065,
                -1.4704014879695522,
                -1.132892043439155,
                1.0692232349626467
            ]
        },
        {
            "positions": [
                1.860856132084721,
                -1.2049458879259647,
                -1.0564986301886439,
                -1.4592372789290318,
                -1.070312776916937,
                1.158823729499435
            ]
        },
        {
            "positions": [
                1.7560128323339388,
                -1.2000216742707317,
                -0.9486086372475813,
                -1.4480730698885116,
                -1.0077335103947191,
                1.2484242240362236
            ]
        },
        {
            "positions": [
                1.6511695325831564,
                -1.195097460615499,
                -0.8407186443065187,
                -1.4369088608479914,
                -0.9451542438725012,
                1.338024718573012
            ]
        },
        {
            "positions": [
                1.5463262328323741,
                -1.1901732469602662,
                -0.732828651365456,
                -1.425744651807471,
                -0.8825749773502833,
                1.4276252131098004
            ]
        },
        {
            "positions": [
                1.441482933081592,
                -1.1852490333050332,
                -0.6249386584243934,
                -1.4145804427669508,
                -0.8199957108280655,
                1.517225707646589
            ]
        },
        {
            "positions": [
                1.3366396333308097,
                -1.1803248196498004,
                -0.5170486654833306,
                -1.4034162337264304,
                -0.7574164443058475,
                1.6068262021833772
            ]
        },
        {
            "positions": [
                1.2317963335800273,
                -1.1754006059945674,
                -0.409158672542268,
                -1.3922520246859102,
                -0.6948371777836296,
                1.6964266967201658
            ]
        },
        {
            "positions": [
                1.1269530338292453,
                -1.1704763923393346,
                -0.3012686796012054,
                -1.3810878156453898,
                -0.6322579112614118,
                1.786027191256954
            ]
        },
        {
            "positions": [
                1.022109734078463,
                -1.1655521786841019,
                -0.1933786866601428,
                -1.3699236066048697,
                -0.5696786447391939,
                1.8756276857937426
            ]
        },
        {
            "positions": [
                0.9172664343276806,
                -1.160627965028869,
                -0.08548869371907997,
                -1.3587593975643495,
                -0.5070993782169759,
                1.9652281803305311
            ]
        },
        {
            "positions": [
                0.8124231345768986,
                -1.1557037513736361,
                0.022401299221982418,
                -1.347595188523829,
                -0.44452011169475814,
                2.0548286748673195
            ]
        },
        {
            "positions": [
                0.7075798348261162,
                -1.1507795377184031,
                0.13029129216304525,
                -1.336430979483309,
                -0.38194084517254034,
                2.1444291694041078
            ]
        },
        {
            "positions": [
                0.602736535075334,
                -1.1458553240631704,
                0.23818128510410763,
                -1.3252667704427885,
                -0.31936157865032233,
                2.2340296639408965
            ]
        },
        {
            "positions": [
                0.49789323532455176,
                -1.1409311104079376,
                0.34607127804517046,
                -1.3141025614022683,
                -0.25678231212810454,
                2.3236301584776844
            ]
        },
        {
            "positions": [
                0.39304993557376955,
                -1.1360068967527046,
                0.45396127098623285,
                -1.302938352361748,
                -0.19420304560588653,
                2.413230653014473
            ]
        },
        {
            "positions": [
                0.28820663582298733,
                -1.1310826830974718,
                0.5618512639272957,
                -1.2917741433212278,
                -0.13162377908366873,
                2.502831147551262
            ]
        },
        {
            "positions": [
                0.18336333607220512,
                -1.1261584694422389,
                0.6697412568683581,
                -1.2806099342807076,
                -0.06904451256145094,
                2.59243164208805
            ]
        },
        {
            "positions": [
                0.07852003632142274,
                -1.121234255787006,
                0.7776312498094209,
                -1.2694457252401872,
                -0.006465246039232958,
                2.6820321366248385
            ]
        },
        {
            "positions": [
                0.06839833693250277,
                -1.1333497362044873,
                0.9824158208522751,
                -1.1985032454599054,
                -0.02386281430537505,
                2.753640974910878
            ]
        },
        {
            "positions": [
                0.058276637543582824,
                -1.1454652166219685,
                1.1872003918951293,
                -1.1275607656796234,
                -0.041260382571517144,
                2.8252498131969177
            ]
        },
        {
            "positions": [
                0.04815493815466286,
                -1.1575806970394495,
                1.3919849629379835,
                -1.0566182858993416,
                -0.05865795083765924,
                2.8968586514829577
            ]
        },
        {
            "positions": [
                0.038033238765742904,
                -1.1696961774569308,
                1.5967695339808377,
                -0.9856758061190598,
                -0.07605551910380133,
                2.9684674897689973
            ]
        },
        {
            "positions": [
                0.027911539376822947,
                -1.181811657874412,
                1.8015541050236918,
                -0.9147333263387779,
                -0.09345308736994343,
                3.040076328055037
            ]
        },
        {
            "positions": [
                0.07586858095259527,
                -1.1556714177559781,
                1.8780643315046772,
                -0.8078063319323666,
                0.01783600259099237,
                3.029261722432035
            ]
        },
        {
            "positions": [
                0.12382562252836761,
                -1.129531177637544,
                1.9545745579856628,
                -0.7008793375259553,
                0.12912509255192817,
                3.0184471168090328
            ]
        }
    ]
}