{
    "goal": {
        "global_pose": {
            "orientation": {
                "w": 0.7047431468963623,
                "x": -0.7094548344612122,
                "y": 0.0024358443915843964,
                "z": -0.0022348060738295317
            },
            "position": {
                "x": 0.6094750761985779,
                "y": 0.3671506643295288,
                "z": 0.19426114857196808
            }
        },
        "name": "move_to_magneteinheit_A"
    },
    "id": "RRTstar_move_to_magneteinheit_A_26",
    "joint_names": [
        "shoulder_pan_joint",
        "shoulder_lift_joint",
        "elbow_joint",
        "wrist_1_joint",
        "wrist_2_joint",
        "wrist_3_joint"
    ],
    "metrics": {
        "cart_traj_len": 3.5258649336461168,
        "distance_elbow_joint": 3.8990229883319025,
        "distance_shoulder_lift_joint": 0.29937589711517054,
        "distance_shoulder_pan_joint": 3.415639295558248,
        "distance_wrist_1_joint": 0.7231911853175341,
        "distance_wrist_2_joint": 1.6911465269156714,
        "distance_wrist_3_joint": 3.58602828101989,
        "smoothness": 0.08635295247901341,
        "time": 5.015085858000001,
        "traj_len": 3.689770206158971,
        "weighted_distance": 4.816720715230582
    },
    "planner": "RRTstar",
    "start": {
        "state": {
            "elbow_joint": -1.919618573717145,
            "shoulder_lift_joint": -1.2443395971678275,
            "shoulder_pan_joint": 2.6996025300909787,
            "wrist_1_joint": -1.548550951253194,
            "wrist_2_joint": -1.5709469090946802,
            "wrist_3_joint": 0.4420197732051276
        }
    },
    "waypoints": [
        {
            "positions": [
                2.6996025300909787,
                -1.2443395971678275,
                -1.919618573717145,
                -1.548550951253194,
                -1.5709469090946802,
                0.4420197732051276
            ]
        },
        {
            "positions": [
                2.5569271408316308,
                -1.2347974943691795,
                -1.8561072706155044,
                -1.5162722962556907,
                -1.511374476877449,
                0.3549417421590243
            ]
        },
        {
            "positions": [
                2.4142517515722832,
                -1.2252553915705318,
                -1.7925959675138639,
                -1.4839936412581873,
                -1.451802044660218,
                0.26786371111292095
            ]
        },
        {
            "positions": [
                2.2715763623129352,
                -1.2157132887718838,
                -1.7290846644122233,
                -1.451714986260684,
                -1.392229612442987,
                0.18078568006681767
            ]
        },
        {
            "positions": [
                2.1289009730535877,
                -1.206171185973236,
                -1.6655733613105828,
                -1.4194363312631806,
                -1.332657180225756,
                0.09370764902071438
            ]
        },
        {
            "positions": [
                1.9862255837942397,
                -1.196629083174588,
                -1.6020620582089422,
                -1.387157676265677,
                -1.273084748008525,
                0.006629617974611091
            ]
        },
        {
            "positions": [
                1.8435501945348922,
                -1.1870869803759403,
                -1.5385507551073019,
                -1.3548790212681736,
                -1.213512315791294,
                -0.08044841307149225
            ]
        },
        {
            "positions": [
                1.7008748052755442,
                -1.1775448775772923,
                -1.4750394520056611,
                -1.3226003662706702,
                -1.1539398835740629,
                -0.16752644411759549
            ]
        },
        {
            "positions": [
                1.5581994160161965,
                -1.1680027747786443,
                -1.4115281489040208,
                -1.2903217112731669,
                -1.0943674513568318,
                -0.25460447516369883
            ]
        },
        {
            "positions": [
                1.4155240267568487,
                -1.1584606719799966,
                -1.34801684580238,
                -1.2580430562756635,
                -1.034795019139601,
                -0.3416825062098022
            ]
        },
        {
            "positions": [
                1.272848637497501,
                -1.1489185691813486,
                -1.2845055427007397,
                -1.22576440127816,
                -0.9752225869223697,
                -0.4287605372559054
            ]
        },
        {
            "positions": [
                1.130173248238153,
                -1.1393764663827008,
                -1.220994239599099,
                -1.1934857462806567,
                -0.9156501547051387,
                -0.5158385683020088
            ]
        },
        {
            "positions": [
                0.9874978589788055,
                -1.1298343635840529,
                -1.1574829364974586,
                -1.1612070912831534,
                -0.8560777224879077,
                -0.602916599348112
            ]
        },
        {
            "positions": [
                0.8448224697194575,
                -1.1202922607854051,
                -1.0939716333958178,
                -1.12892843628565,
                -0.7965052902706765,
                -0.6899946303942155
            ]
        },
        {
            "positions": [
                0.7021470804601098,
                -1.1107501579867571,
                -1.0304603302941775,
                -1.0966497812881464,
                -0.7369328580534455,
                -0.7770726614403185
            ]
        },
        {
            "positions": [
                0.5594716912007618,
                -1.1012080551881092,
                -0.9669490271925368,
                -1.064371126290643,
                -0.6773604258362145,
                -0.864150692486422
            ]
        },
        {
            "positions": [
                0.41679630194141426,
                -1.0916659523894614,
                -0.9034377240908964,
                -1.0320924712931396,
                -0.6177879936189835,
                -0.9512287235325252
            ]
        },
        {
            "positions": [
                0.2741209126820663,
                -1.0821238495908134,
                -0.8399264209892559,
                -0.9998138162956363,
                -0.5582155614017523,
                -1.0383067545786286
            ]
        },
        {
            "positions": [
                0.13144552342271876,
                -1.0725817467921657,
                -0.7764151178876153,
                -0.9675351612981329,
                -0.49864312918452147,
                -1.1253847856247319
            ]
        },
        {
            "positions": [
                -0.011229865836629216,
                -1.0630396439935177,
                -0.7129038147859748,
                -0.9352565063006294,
                -0.4390706969672904,
                -1.212462816670835
            ]
        },
        {
            "positions": [
                -0.15390525509597675,
                -1.05349754119487,
                -0.6493925116843342,
                -0.9029778513031261,
                -0.3794982647500593,
                -1.2995408477169383
            ]
        },
        {
            "positions": [
                -0.29658064435532455,
                -1.043955438396222,
                -0.5858812085826938,
                -0.8706991963056226,
                -0.3199258325328282,
                -1.3866188787630418
            ]
        },
        {
            "positions": [
                -0.26661949284732844,
                -1.0510262768493337,
                -0.4026465212114473,
                -0.8674606655649111,
                -0.2884883003646982,
                -1.5121467094095933
            ]
        },
        {
            "positions": [
                -0.23665834133933228,
                -1.0580971153024454,
                -0.2194118338402008,
                -0.8642221348241994,
                -0.25705076819656814,
                -1.6376745400561448
            ]
        },
        {
            "positions": [
                -0.20669718983133617,
                -1.0651679537555574,
                -0.03617714646895431,
                -0.8609836040834877,
                -0.22561323602843814,
                -1.7632023707026963
            ]
        },
        {
            "positions": [
                -0.17673603832334003,
                -1.0722387922086691,
                0.14705754090229217,
                -0.8577450733427762,
                -0.1941757038603081,
                -1.8887302013492477
            ]
        },
        {
            "positions": [
                -0.1467748868153439,
                -1.0793096306617809,
                0.33029222827353866,
                -0.8545065426020646,
                -0.16273817169217808,
                -2.0142580319957992
            ]
        },
        {
            "positions": [
                -0.11681373530734776,
                -1.0863804691148926,
                0.5135269156447851,
                -0.8512680118613529,
                -0.13130063952404805,
                -2.1397858626423503
            ]
        },
        {
            "positions": [
                -0.08685258379935162,
                -1.0934513075680043,
                0.6967616030160316,
                -0.8480294811206412,
                -0.09986310735591802,
                -2.2653136932889018
            ]
        },
        {
            "positions": [
                -0.056891432291355515,
                -1.1005221460211163,
                0.8799962903872781,
                -0.8447909503799297,
                -0.06842557518778802,
                -2.3908415239354532
            ]
        },
        {
            "positions": [
                -0.02693028078335935,
                -1.107592984474228,
                1.0632309777585247,
                -0.841552419639218,
                -0.03698804301965797,
                -2.5163693545820047
            ]
        },
        {
            "positions": [
                0.0030308707246367583,
                -1.1146638229273398,
                1.246465665129771,
                -0.8383138888985064,
                -0.005550510851527968,
                -2.641897185228556
            ]
        },
        {
            "positions": [
                0.03299202223263292,
                -1.1217346613804515,
                1.4297003525010172,
                -0.8350753581577948,
                0.025887021316602088,
                -2.7674250158751077
            ]
        },
        {
            "positions": [
                0.06295317374062903,
                -1.1288054998335635,
                1.612935039872264,
                -0.8318368274170832,
                0.05732455348473209,
                -2.892952846521659
            ]
        },
        {
            "positions": [
                0.0929143252486252,
                -1.1358763382866752,
                1.7961697272435106,
                -0.8285982966763716,
                0.08876208565286214,
                -3.0184806771682107
            ]
        },
        {
            "positions": [
                0.12287547675662133,
                -1.142947176739787,
                1.979404414614757,
                -0.82535976593566,
                0.12019961782099217,
                -3.144008507814762
            ]
        }
    ]
}{
    "goal": {
        "global_pose": {
            "orientation": {
                "w": 0.7047431468963623,
                "x": -0.7094548344612122,
                "y": 0.0024358443915843964,
                "z": -0.0022348060738295317
            },
            "position": {
                "x": 0.6094750761985779,
                "y": 0.3671506643295288,
                "z": 0.19426114857196808
            }
        },
        "name": "move_to_magneteinheit_A"
    },
    "id": "RRTstar_move_to_magneteinheit_A_26",
    "joint_names": [
        "shoulder_pan_joint",
        "shoulder_lift_joint",
        "elbow_joint",
        "wrist_1_joint",
        "wrist_2_joint",
        "wrist_3_joint"
    ],
    "metrics": {
        "cart_traj_len": 1.249853787901583,
        "distance_elbow_joint": 0.06649116131442079,
        "distance_shoulder_lift_joint": 1.1229038855314901,
        "distance_shoulder_pan_joint": 1.2407387667958436,
        "distance_wrist_1_joint": 3.501021041324015,
        "distance_wrist_2_joint": 1.6917713195231108,
        "distance_wrist_3_joint": 1.095067434977163,
        "smoothness": 1.4802973778883236e-16,
        "time": 5.006561394999999,
        "traj_len": 2.952624867717882,
        "weighted_distance": 4.0125952749146645
    },
    "planner": "RRTstar",
    "start": {
        "state": {
            "elbow_joint": 1.919643534880228,
            "shoulder_lift_joint": -1.8972525353963687,
            "shoulder_pan_joint": -1.1188672234189438,
            "wrist_1_joint": -1.5931878212786155,
            "wrist_2_joint": 1.5706036197970081,
            "wrist_3_joint": 1.118896926603594
        }
    },
    "waypoints": [
        {
            "positions": [
                -1.1188672234189438,
                -1.8972525353963687,
                1.919643534880228,
                -1.5931878212786155,
                1.5706036197970081,
                1.118896926603594
            ]
        },
        {
            "positions": [
                -1.0649220596452116,
                -1.8484306273297821,
                1.9225344549373768,
                -1.440969515134093,
                1.4970483450351337,
                1.0712852989958912
            ]
        },
        {
            "positions": [
                -1.010976895871479,
                -1.7996087192631958,
                1.9254253749945256,
                -1.2887512089895707,
                1.4234930702732593,
                1.0236736713881884
            ]
        },
        {
            "positions": [
                -0.9570317320977468,
                -1.7507868111966092,
                1.9283162950516743,
                -1.1365329028450484,
                1.349937795511385,
                0.9760620437804858
            ]
        },
        {
            "positions": [
                -0.9030865683240146,
                -1.7019649031300226,
                1.931207215108823,
                -0.9843145967005259,
                1.2763825207495105,
                0.928450416172783
            ]
        },
        {
            "positions": [
                -0.8491414045502822,
                -1.653142995063436,
                1.9340981351659718,
                -0.8320962905560035,
                1.2028272459876361,
                0.8808387885650802
            ]
        },
        {
            "positions": [
                -0.7951962407765498,
                -1.6043210869968496,
                1.9369890552231204,
                -0.6798779844114812,
                1.1292719712257617,
                0.8332271609573776
            ]
        },
        {
            "positions": [
                -0.7412510770028176,
                -1.555499178930263,
                1.9398799752802691,
                -0.5276596782669587,
                1.0557166964638873,
                0.7856155333496748
            ]
        },
        {
            "positions": [
                -0.6873059132290852,
                -1.5066772708636766,
                1.9427708953374179,
                -0.37544137212243633,
                0.9821614217020131,
                0.738003905741972
            ]
        },
        {
            "positions": [
                -0.6333607494553528,
                -1.45785536279709,
                1.9456618153945666,
                -0.22322306597791397,
                0.9086061469401386,
                0.6903922781342693
            ]
        },
        {
            "positions": [
                -0.5794155856816205,
                -1.4090334547305035,
                1.9485527354517154,
                -0.0710047598333916,
                0.8350508721782643,
                0.6427806505265665
            ]
        },
        {
            "positions": [
                -0.5254704219078882,
                -1.3602115466639169,
                1.9514436555088641,
                0.08121354631113098,
                0.76149559741639,
                0.5951690229188639
            ]
        },
        {
            "positions": [
                -0.4715252581341559,
                -1.3113896385973303,
                1.9543345755660129,
                0.23343185245565312,
                0.6879403226545155,
                0.5475573953111611
            ]
        },
        {
            "positions": [
                -0.41758009436042365,
                -1.262567730530744,
                1.9572254956231616,
                0.3856501586001755,
                0.6143850478926413,
                0.49994576770345844
            ]
        },
        {
            "positions": [
                -0.36363493058669116,
                -1.2137458224641573,
                1.9601164156803104,
                0.5378684647446981,
                0.5408297731307667,
                0.45233414009575557
            ]
        },
        {
            "positions": [
                -0.3096897668129589,
                -1.164923914397571,
                1.9630073357374591,
                0.6900867708892207,
                0.46727449836889234,
                0.4047225124880529
            ]
        },
        {
            "positions": [
                -0.2557446030392265,
                -1.1161020063309843,
                1.9658982557946079,
                0.8423050770337428,
                0.39371922360701817,
                0.35711088488035014
            ]
        },
        {
            "positions": [
                -0.20179943926549426,
                -1.0672800982643977,
                1.9687891758517564,
                0.9945233831782649,
                0.32016394884514376,
                0.3094992572726475
            ]
        },
        {
            "positions": [
                -0.1478542754917619,
                -1.0184581901978111,
                1.9716800959089051,
                1.1467416893227875,
                0.24660867408326914,
                0.2618876296649446
            ]
        },
        {
            "positions": [
                -0.09390911171802951,
                -0.9696362821312248,
                1.9745710159660539,
                1.2989599954673101,
                0.17305339932139496,
                0.21427600205724195
            ]
        },
        {
            "positions": [
                -0.03996394794429725,
                -0.9208143740646382,
                1.9774619360232026,
                1.4511783016118323,
                0.09949812455952056,
                0.1666643744495392
            ]
        },
        {
            "positions": [
                0.013981215829435012,
                -0.8719924659980518,
                1.9803528560803514,
                1.6033966077563544,
                0.02594284979764616,
                0.11905274684183653
            ]
        },
        {
            "positions": [
                0.0679263796031675,
                -0.8231705579314652,
                1.9832437761375001,
                1.7556149139008774,
                -0.04761242496422824,
                0.07144111923413377
            ]
        },
        {
            "positions": [
                0.12187154337689976,
                -0.7743486498648786,
                1.9861346961946489,
                1.9078332200453993,
                -0.12116769972610274,
                0.02382949162643111
            ]
        }
    ]
}