{
    "goal": {
        "global_pose": {
            "orientation": {
                "w": 0.5084816217422485,
                "x": -0.49083608388900757,
                "y": 0.5182115435600281,
                "z": -0.4816462993621826
            },
            "position": {
                "x": 0.5540239810943604,
                "y": 0.030875300988554955,
                "z": 0.16403168439865112
            }
        },
        "name": "move_to_storage_A"
    },
    "id": "RRTstar_move_to_storage_A_64",
    "joint_names": [
        "shoulder_pan_joint",
        "shoulder_lift_joint",
        "elbow_joint",
        "wrist_1_joint",
        "wrist_2_joint",
        "wrist_3_joint"
    ],
    "metrics": {
        "cart_traj_len": 0.3532851133328822,
        "distance_elbow_joint": 0.44808381036939693,
        "distance_shoulder_lift_joint": 0.23599276827431637,
        "distance_shoulder_pan_joint": 0.45996398675535477,
        "distance_wrist_1_joint": 0.23343655822143827,
        "distance_wrist_2_joint": 1.1083662951900295,
        "distance_wrist_3_joint": 0.08540671130026034,
        "smoothness": 6.661338146305771e-16,
        "time": 5.006956761,
        "traj_len": 1.6035118116530345,
        "weighted_distance": 2.0208578391670167
    },
    "planner": "RRTstar",
    "start": {
        "state": {
            "elbow_joint": 1.9715477243005601,
            "shoulder_lift_joint": -1.1394853015351272,
            "shoulder_pan_joint": 0.12281154014795169,
            "wrist_1_joint": -0.7804696478968182,
            "wrist_2_joint": 0.12958648046900423,
            "wrist_3_joint": -3.192491284697111
        }
    },
    "waypoints": [
        {
            "positions": [
                0.12281154014795169,
                -1.1394853015351272,
                1.9715477243005601,
                -0.7804696478968182,
                0.12958648046900423,
                -3.192491284697111
            ]
        },
        {
            "positions": [
                0.05710239918290101,
                -1.1731985541457437,
                2.035559697210474,
                -0.813817727642738,
                0.2879245226390085,
                -3.1802903259399313
            ]
        },
        {
            "positions": [
                -0.008606741782149666,
                -1.2069118067563605,
                2.0995716701203877,
                -0.8471658073886577,
                0.44626256480901266,
                -3.168089367182751
            ]
        },
        {
            "positions": [
                -0.07431588274720034,
                -1.240625059366977,
                2.1635836430303015,
                -0.8805138871345775,
                0.6046006069790169,
                -3.155888408425571
            ]
        },
        {
            "positions": [
                -0.140025023712251,
                -1.2743383119775937,
                2.2275956159402153,
                -0.9138619668804971,
                0.7629386491490211,
                -3.143687449668391
            ]
        },
        {
            "positions": [
                -0.2057341646773017,
                -1.3080515645882103,
                2.2916075888501295,
                -0.947210046626417,
                0.9212766913190253,
                -3.131486490911211
            ]
        },
        {
            "positions": [
                -0.27144330564235236,
                -1.3417648171988268,
                2.3556195617600433,
                -0.9805581263723366,
                1.0796147334890294,
                -3.1192855321540307
            ]
        },
        {
            "positions": [
                -0.33715244660740307,
                -1.3754780698094435,
                2.419631534669957,
                -1.0139062061182564,
                1.2379527756590336,
                -3.107084573396851
            ]
        }
    ]
}