{
    "goal": {
        "global_pose": {
            "orientation": {
                "w": 0.5084816217422485,
                "x": -0.49083608388900757,
                "y": 0.5182115435600281,
                "z": -0.4816462993621826
            },
            "position": {
                "x": 0.5540239810943604,
                "y": 0.030875300988554955,
                "z": 0.16403168439865112
            }
        },
        "name": "move_to_storage_A"
    },
    "id": "RRTstar_move_to_storage_A_103",
    "joint_names": [
        "shoulder_pan_joint",
        "shoulder_lift_joint",
        "elbow_joint",
        "wrist_1_joint",
        "wrist_2_joint",
        "wrist_3_joint"
    ],
    "metrics": {
        "cart_traj_len": 0.3536792489470476,
        "distance_elbow_joint": 0.4487459372332503,
        "distance_shoulder_lift_joint": 0.23356414106595058,
        "distance_shoulder_pan_joint": 0.463134058346512,
        "distance_wrist_1_joint": 0.24168403703679975,
        "distance_wrist_2_joint": 1.0963205781473913,
        "distance_wrist_3_joint": 0.0903686938698125,
        "smoothness": 1.1102230263833737e-15,
        "time": 5.006619873,
        "traj_len": 1.6043121409812109,
        "weighted_distance": 2.0230075255973547
    },
    "planner": "RRTstar",
    "start": {
        "state": {
            "elbow_joint": 1.9715477243005601,
            "shoulder_lift_joint": -1.1394853015351272,
            "shoulder_pan_joint": 0.12281154014795169,
            "wrist_1_joint": -0.7804696478968182,
            "wrist_2_joint": 0.12958648046900423,
            "wrist_3_joint": -3.192491284697111
        }
    },
    "waypoints": [
        {
            "positions": [
                0.12281154014795169,
                -1.1394853015351272,
                1.9715477243005601,
                -0.7804696478968182,
                0.12958648046900423,
                -3.192491284697111
            ]
        },
        {
            "positions": [
                0.05664953181273569,
                -1.1728516074016915,
                2.035654286762453,
                -0.8149959389020752,
                0.28620370591863153,
                -3.179581471287138
            ]
        },
        {
            "positions": [
                -0.009512476522480315,
                -1.206217913268256,
                2.099760849224346,
                -0.8495222299073324,
                0.44282093136825884,
                -3.1666716578771648
            ]
        },
        {
            "positions": [
                -0.0756744848576963,
                -1.2395842191348203,
                2.1638674116862386,
                -0.8840485209125895,
                0.5994381568178861,
                -3.1537618444671915
            ]
        },
        {
            "positions": [
                -0.1418364931929123,
                -1.2729505250013846,
                2.2279739741481315,
                -0.9185748119178466,
                0.7560553822675135,
                -3.1408520310572183
            ]
        },
        {
            "positions": [
                -0.20799850152812832,
                -1.306316830867949,
                2.2920805366100248,
                -0.9531011029231037,
                0.9126726077171409,
                -3.127942217647245
            ]
        },
        {
            "positions": [
                -0.2741605098633443,
                -1.3396831367345134,
                2.3561870990719176,
                -0.9876273939283609,
                1.069289833166768,
                -3.115032404237272
            ]
        },
        {
            "positions": [
                -0.3403225181985603,
                -1.3730494426010778,
                2.4202936615338104,
                -1.022153684933618,
                1.2259070586163956,
                -3.1021225908272987
            ]
        }
    ]
}