{
    "goal": {
        "global_pose": {
            "orientation": {
                "w": 0.7047431468963623,
                "x": -0.7094548344612122,
                "y": 0.0024358443915843964,
                "z": -0.0022348060738295317
            },
            "position": {
                "x": 0.6094750761985779,
                "y": 0.3671506643295288,
                "z": 0.19426114857196808
            }
        },
        "name": "move_to_magneteinheit_A"
    },
    "id": "SBL_move_to_magneteinheit_A_149",
    "joint_names": [
        "shoulder_pan_joint",
        "shoulder_lift_joint",
        "elbow_joint",
        "wrist_1_joint",
        "wrist_2_joint",
        "wrist_3_joint"
    ],
    "metrics": {
        "cart_traj_len": 1.2116189745089014,
        "distance_elbow_joint": 0.08017998238385249,
        "distance_shoulder_lift_joint": 0.7494235167235981,
        "distance_shoulder_pan_joint": 1.2404579138310923,
        "distance_wrist_1_joint": 0.7286448196179213,
        "distance_wrist_2_joint": 1.4623970178181702,
        "distance_wrist_3_joint": 4.2437745811375525,
        "smoothness": 0.012004132583525175,
        "time": 0.227214058,
        "traj_len": 2.9163123686450647,
        "weighted_distance": 4.379893700904553
    },
    "planner": "SBL",
    "start": {
        "state": {
            "elbow_joint": 1.919643534880228,
            "shoulder_lift_joint": -1.8972525353963687,
            "shoulder_pan_joint": -1.1188672234189438,
            "wrist_1_joint": -1.5931878212786155,
            "wrist_2_joint": 1.5706036197970081,
            "wrist_3_joint": 1.118896926603594
        }
    },
    "waypoints": [
        {
            "positions": [
                -1.1188672234189438,
                -1.8972525353963687,
                1.919643534880228,
                -1.5931878212786155,
                1.5706036197970081,
                1.118896926603594
            ]
        },
        {
            "positions": [
                -1.0636190974832471,
                -1.862587287110456,
                1.9193337395123957,
                -1.5580449494246167,
                1.497764033672055,
                0.9253792276506225
            ]
        },
        {
            "positions": [
                -1.0083709715475506,
                -1.8279220388245434,
                1.9190239441445633,
                -1.522902077570618,
                1.4249244475471021,
                0.7318615286976511
            ]
        },
        {
            "positions": [
                -0.9531228456118539,
                -1.7932567905386307,
                1.9187141487767307,
                -1.4877592057166191,
                1.352084861422149,
                0.5383438297446798
            ]
        },
        {
            "positions": [
                -0.8978747196761573,
                -1.758591542252718,
                1.9184043534088984,
                -1.4526163338626203,
                1.279245275297196,
                0.3448261307917083
            ]
        },
        {
            "positions": [
                -0.8426265937404607,
                -1.7239262939668054,
                1.918094558041066,
                -1.4174734620086213,
                1.206405689172243,
                0.151308431838737
            ]
        },
        {
            "positions": [
                -0.7873784678047641,
                -1.6892610456808927,
                1.9177847626732336,
                -1.3823305901546226,
                1.1335661030472899,
                -0.04220926711423445
            ]
        },
        {
            "positions": [
                -0.7321303418690674,
                -1.65459579739498,
                1.9174749673054012,
                -1.3471877183006238,
                1.0607265169223368,
                -0.23572696606720567
            ]
        },
        {
            "positions": [
                -0.6768822159333707,
                -1.6199305491090674,
                1.9171651719375686,
                -1.312044846446625,
                0.9878869307973838,
                -0.42924466502017733
            ]
        },
        {
            "positions": [
                -0.6216340899976741,
                -1.5852653008231548,
                1.9168553765697363,
                -1.2769019745926262,
                0.9150473446724307,
                -0.6227623639731485
            ]
        },
        {
            "positions": [
                -0.5663859640619775,
                -1.550600052537242,
                1.9165455812019039,
                -1.2417591027386274,
                0.8422077585474776,
                -0.81628006292612
            ]
        },
        {
            "positions": [
                -0.5111378381262808,
                -1.5159348042513294,
                1.9162357858340715,
                -1.2066162308846287,
                0.7693681724225245,
                -1.0097977618790914
            ]
        },
        {
            "positions": [
                -0.4558897121905843,
                -1.4812695559654168,
                1.9159259904662391,
                -1.1714733590306299,
                0.6965285862975715,
                -1.2033154608320629
            ]
        },
        {
            "positions": [
                -0.40064158625488755,
                -1.446604307679504,
                1.9156161950984065,
                -1.136330487176631,
                0.6236890001726185,
                -1.3968331597850343
            ]
        },
        {
            "positions": [
                -0.34539346031919105,
                -1.4119390593935914,
                1.9153063997305741,
                -1.1011876153226323,
                0.5508494140476654,
                -1.5903508587380053
            ]
        },
        {
            "positions": [
                -0.2901453343834943,
                -1.3772738111076788,
                1.9149966043627418,
                -1.0660447434686335,
                0.4780098279227123,
                -1.7838685576909772
            ]
        },
        {
            "positions": [
                -0.2348972084477976,
                -1.342608562821766,
                1.9146868089949094,
                -1.0309018716146348,
                0.4051702417977594,
                -1.9773862566439486
            ]
        },
        {
            "positions": [
                -0.1796490825121011,
                -1.3079433145358534,
                1.914377013627077,
                -0.9957589997606359,
                0.3323306556728063,
                -2.17090395559692
            ]
        },
        {
            "positions": [
                -0.12440095657640438,
                -1.2732780662499408,
                1.9140672182592444,
                -0.960616127906637,
                0.25949106954785317,
                -2.364421654549891
            ]
        },
        {
            "positions": [
                -0.06915283064070787,
                -1.2386128179640281,
                1.913757422891412,
                -0.9254732560526382,
                0.18665148342290028,
                -2.5579393535028627
            ]
        },
        {
            "positions": [
                -0.013904704705011178,
                -1.2039475696781154,
                1.9134476275235797,
                -0.8903303841986394,
                0.11381189729794723,
                -2.751457052455834
            ]
        },
        {
            "positions": [
                0.05384299285356865,
                -1.1758882941754432,
                1.9504396650371816,
                -0.8774366929296669,
                0.11661454495750181,
                -2.9381673534948964
            ]
        },
        {
            "positions": [
                0.12159069041214848,
                -1.1478290186727707,
                1.9874317025507837,
                -0.8645430016606942,
                0.11941719261705638,
                -3.1248776545339587
            ]
        }
    ]
}