{
    "goal": {
        "global_pose": {
            "orientation": {
                "w": 0.7047431468963623,
                "x": -0.7094548344612122,
                "y": 0.0024358443915843964,
                "z": -0.0022348060738295317
            },
            "position": {
                "x": 0.6094750761985779,
                "y": 0.3671506643295288,
                "z": 0.19426114857196808
            }
        },
        "name": "move_to_magneteinheit_A"
    },
    "id": "SBL_move_to_magneteinheit_A_99",
    "joint_names": [
        "shoulder_pan_joint",
        "shoulder_lift_joint",
        "elbow_joint",
        "wrist_1_joint",
        "wrist_2_joint",
        "wrist_3_joint"
    ],
    "metrics": {
        "cart_traj_len": 1.2203802877497014,
        "distance_elbow_joint": 0.34605150387088646,
        "distance_shoulder_lift_joint": 0.7640333300551565,
        "distance_shoulder_pan_joint": 1.2417161054284747,
        "distance_wrist_1_joint": 1.6008541294832428,
        "distance_wrist_2_joint": 1.4334071918631595,
        "distance_wrist_3_joint": 4.365871846520085,
        "smoothness": 0.22037990894210907,
        "time": 0.175719004,
        "traj_len": 3.1228086888602395,
        "weighted_distance": 4.63874326963754
    },
    "planner": "SBL",
    "start": {
        "state": {
            "elbow_joint": 1.919643534880228,
            "shoulder_lift_joint": -1.8972525353963687,
            "shoulder_pan_joint": -1.1188672234189438,
            "wrist_1_joint": -1.5931878212786155,
            "wrist_2_joint": 1.5706036197970081,
            "wrist_3_joint": 1.118896926603594
        }
    },
    "waypoints": [
        {
            "positions": [
                -1.1188672234189438,
                -1.8972525353963687,
                1.919643534880228,
                -1.5931878212786155,
                1.5706036197970081,
                1.118896926603594
            ]
        },
        {
            "positions": [
                -1.0675234394246,
                -1.8697720597333272,
                1.9123098706568407,
                -1.5340564767468667,
                1.504207017860971,
                0.9517250272804137
            ]
        },
        {
            "positions": [
                -1.016179655430256,
                -1.8422915840702856,
                1.9049762064334532,
                -1.474925132215118,
                1.4378104159249339,
                0.7845531279572335
            ]
        },
        {
            "positions": [
                -0.9648358714359122,
                -1.814811108407244,
                1.8976425422100658,
                -1.415793787683369,
                1.371413813988897,
                0.6173812286340534
            ]
        },
        {
            "positions": [
                -0.9134920874415683,
                -1.7873306327442025,
                1.8903088779866783,
                -1.3566624431516203,
                1.3050172120528598,
                0.4502093293108732
            ]
        },
        {
            "positions": [
                -0.8621483034472244,
                -1.7598501570811609,
                1.882975213763291,
                -1.2975310986198716,
                1.2386206101168227,
                0.2830374299876931
            ]
        },
        {
            "positions": [
                -0.8108045194528805,
                -1.7323696814181193,
                1.8756415495399035,
                -1.2383997540881229,
                1.1722240081807858,
                0.11586553066451288
            ]
        },
        {
            "positions": [
                -0.7594607354585365,
                -1.7048892057550777,
                1.868307885316516,
                -1.1792684095563741,
                1.1058274062447486,
                -0.05130636865866722
            ]
        },
        {
            "positions": [
                -0.7081169514641927,
                -1.6774087300920362,
                1.8609742210931286,
                -1.1201370650246252,
                1.0394308043087115,
                -0.21847826798184755
            ]
        },
        {
            "positions": [
                -0.6567731674698487,
                -1.6499282544289946,
                1.8536405568697412,
                -1.0610057204928764,
                0.9730342023726745,
                -0.38565016730502766
            ]
        },
        {
            "positions": [
                -0.6054293834755049,
                -1.6224477787659528,
                1.846306892646354,
                -1.0018743759611277,
                0.9066376004366373,
                -0.5528220666282078
            ]
        },
        {
            "positions": [
                -0.5540855994811609,
                -1.5949673031029112,
                1.8389732284229665,
                -0.9427430314293788,
                0.8402409985006002,
                -0.7199939659513883
            ]
        },
        {
            "positions": [
                -0.5027418154868171,
                -1.5674868274398697,
                1.831639564199579,
                -0.8836116868976301,
                0.7738443965645632,
                -0.8871658652745682
            ]
        },
        {
            "positions": [
                -0.45139803149247315,
                -1.540006351776828,
                1.8243058999761916,
                -0.8244803423658813,
                0.707447794628526,
                -1.0543377645977488
            ]
        },
        {
            "positions": [
                -0.40005424749812923,
                -1.5125258761137865,
                1.8169722357528042,
                -0.7653489978341326,
                0.641051192692489,
                -1.2215096639209284
            ]
        },
        {
            "positions": [
                -0.3487104635037853,
                -1.485045400450745,
                1.8096385715294168,
                -0.7062176533023837,
                0.5746545907564519,
                -1.388681563244109
            ]
        },
        {
            "positions": [
                -0.2973666795094415,
                -1.4575649247877034,
                1.8023049073060293,
                -0.647086308770635,
                0.5082579888204148,
                -1.555853462567289
            ]
        },
        {
            "positions": [
                -0.24602289551509748,
                -1.4300844491246618,
                1.7949712430826419,
                -0.5879549642388862,
                0.4418613868843777,
                -1.7230253618904692
            ]
        },
        {
            "positions": [
                -0.19467911152075368,
                -1.4026039734616202,
                1.7876375788592545,
                -0.5288236197071374,
                0.3754647849483408,
                -1.8901972612136493
            ]
        },
        {
            "positions": [
                -0.14333532752640976,
                -1.3751234977985787,
                1.780303914635867,
                -0.4696922751753885,
                0.30906818301230343,
                -2.0573691605368296
            ]
        },
        {
            "positions": [
                -0.09199154353206596,
                -1.347643022135537,
                1.7729702504124796,
                -0.41056093064363997,
                0.24267158107626652,
                -2.2245410598600097
            ]
        },
        {
            "positions": [
                -0.0406477595377219,
                -1.3201625464724955,
                1.7656365861890921,
                -0.35142958611189107,
                0.17627497914022933,
                -2.39171295918319
            ]
        },
        {
            "positions": [
                -0.007948431228271276,
                -1.2827738782462388,
                1.8040454972250421,
                -0.42324876497519476,
                0.16845926889895316,
                -2.5627653513298503
            ]
        },
        {
            "positions": [
                0.02475089708117935,
                -1.2453852100199823,
                1.8424544082609924,
                -0.4950679438384984,
                0.160643558657677,
                -2.7338177434765103
            ]
        },
        {
            "positions": [
                0.05745022539062998,
                -1.2079965417937255,
                1.8808633192969424,
                -0.5668871227018021,
                0.15282784841640085,
                -2.9048701356231708
            ]
        },
        {
            "positions": [
                0.0901495537000806,
                -1.170607873567469,
                1.9192722303328926,
                -0.6387063015651058,
                0.14501213817512468,
                -3.0759225277698308
            ]
        },
        {
            "positions": [
                0.12284888200953123,
                -1.1332192053412122,
                1.9576811413688426,
                -0.7105254804284095,
                0.1371964279338485,
                -3.2469749199164912
            ]
        }
    ]
}