{
    "goal": {
        "global_pose": {
            "orientation": {
                "w": 0.7047431468963623,
                "x": -0.7094548344612122,
                "y": 0.0024358443915843964,
                "z": -0.0022348060738295317
            },
            "position": {
                "x": 0.6094750761985779,
                "y": 0.3671506643295288,
                "z": 0.19426114857196808
            }
        },
        "name": "move_to_magneteinheit_A"
    },
    "id": "SBL_move_to_magneteinheit_A_46",
    "joint_names": [
        "shoulder_pan_joint",
        "shoulder_lift_joint",
        "elbow_joint",
        "wrist_1_joint",
        "wrist_2_joint",
        "wrist_3_joint"
    ],
    "metrics": {
        "cart_traj_len": 1.220528147117481,
        "distance_elbow_joint": 0.07884019107612272,
        "distance_shoulder_lift_joint": 0.7703741149813406,
        "distance_shoulder_pan_joint": 1.2400924101664055,
        "distance_wrist_1_joint": 1.00514057350646,
        "distance_wrist_2_joint": 1.4902733146328715,
        "distance_wrist_3_joint": 4.397173549669239,
        "smoothness": 0.31521288887718035,
        "time": 0.2130361,
        "traj_len": 2.9969808397840048,
        "weighted_distance": 4.502405483906381
    },
    "planner": "SBL",
    "start": {
        "state": {
            "elbow_joint": 1.919643534880228,
            "shoulder_lift_joint": -1.8972525353963687,
            "shoulder_pan_joint": -1.1188672234189438,
            "wrist_1_joint": -1.5931878212786155,
            "wrist_2_joint": 1.5706036197970081,
            "wrist_3_joint": 1.118896926603594
        }
    },
    "waypoints": [
        {
            "positions": [
                -1.1188672234189438,
                -1.8972525353963687,
                1.919643534880228,
                -1.5931878212786155,
                1.5706036197970081,
                1.118896926603594
            ]
        },
        {
            "positions": [
                -1.0658834153384762,
                -1.8638595202262802,
                1.9185942608719886,
                -1.5516778609681157,
                1.5066695473268061,
                0.9302001511167625
            ]
        },
        {
            "positions": [
                -1.0128996072580085,
                -1.8304665050561917,
                1.917544986863749,
                -1.510167900657616,
                1.4427354748566044,
                0.741503375629931
            ]
        },
        {
            "positions": [
                -0.9599157991775408,
                -1.7970734898861032,
                1.9164957128555096,
                -1.4686579403471163,
                1.3788014023864024,
                0.5528066001430996
            ]
        },
        {
            "positions": [
                -0.906931991097073,
                -1.7636804747160146,
                1.9154464388472698,
                -1.4271479800366167,
                1.3148673299162004,
                0.36410982465626807
            ]
        },
        {
            "positions": [
                -0.8539481830166054,
                -1.7302874595459263,
                1.9143971648390303,
                -1.3856380197261169,
                1.2509332574459986,
                0.17541304916943667
            ]
        },
        {
            "positions": [
                -0.8009643749361377,
                -1.6968944443758378,
                1.9133478908307908,
                -1.344128059415617,
                1.1869991849757966,
                -0.013283726317394828
            ]
        },
        {
            "positions": [
                -0.7479805668556698,
                -1.6635014292057493,
                1.9122986168225513,
                -1.3026180991051175,
                1.1230651125055946,
                -0.20198050180422644
            ]
        },
        {
            "positions": [
                -0.6949967587752022,
                -1.6301084140356608,
                1.9112493428143118,
                -1.2611081387946177,
                1.0591310400353926,
                -0.39067727729105783
            ]
        },
        {
            "positions": [
                -0.6420129506947345,
                -1.5967153988655722,
                1.9102000688060723,
                -1.2195981784841181,
                0.9951969675651907,
                -0.5793740527778892
            ]
        },
        {
            "positions": [
                -0.5890291426142669,
                -1.5633223836954837,
                1.9091507947978328,
                -1.1780882181736183,
                0.9312628950949888,
                -0.7680708282647206
            ]
        },
        {
            "positions": [
                -0.5360453345337991,
                -1.5299293685253952,
                1.9081015207895933,
                -1.1365782578631185,
                0.8673288226247869,
                -0.9567676037515522
            ]
        },
        {
            "positions": [
                -0.48306152645333145,
                -1.4965363533553067,
                1.9070522467813535,
                -1.095068297552619,
                0.803394750154585,
                -1.1454643792383836
            ]
        },
        {
            "positions": [
                -0.4300777183728638,
                -1.4631433381852181,
                1.906002972773114,
                -1.0535583372421193,
                0.7394606776843831,
                -1.334161154725215
            ]
        },
        {
            "positions": [
                -0.3770939102923959,
                -1.4297503230151296,
                1.9049536987648745,
                -1.0120483769316193,
                0.6755266052141811,
                -1.5228579302120469
            ]
        },
        {
            "positions": [
                -0.32411010221192826,
                -1.396357307845041,
                1.903904424756635,
                -0.9705384166211197,
                0.6115925327439792,
                -1.7115547056988782
            ]
        },
        {
            "positions": [
                -0.2711262941314606,
                -1.3629642926749526,
                1.9028551507483955,
                -0.92902845631062,
                0.5476584602737773,
                -1.9002514811857096
            ]
        },
        {
            "positions": [
                -0.21814248605099296,
                -1.329571277504864,
                1.901805876740156,
                -0.8875184960001203,
                0.4837243878035753,
                -2.0889482566725404
            ]
        },
        {
            "positions": [
                -0.1651586779705252,
                -1.2961782623347755,
                1.9007566027319165,
                -0.8460085356896205,
                0.4197903153333733,
                -2.2776450321593726
            ]
        },
        {
            "positions": [
                -0.11217486989005754,
                -1.262785247164687,
                1.899707328723677,
                -0.8044985753791208,
                0.3558562428631715,
                -2.466341807646204
            ]
        },
        {
            "positions": [
                -0.059191061809589884,
                -1.2293922319945987,
                1.8986580547154372,
                -0.7629886150686211,
                0.2919221703929695,
                -2.6550385831330354
            ]
        },
        {
            "positions": [
                -0.006207253729122231,
                -1.1959992168245102,
                1.8976087807071977,
                -0.7214786547581215,
                0.22798809792276775,
                -2.843735358619867
            ]
        },
        {
            "positions": [
                0.046776554351345645,
                -1.1626062016544216,
                1.8965595066989582,
                -0.6799686944476216,
                0.16405402545256575,
                -3.032432134106698
            ]
        },
        {
            "positions": [
                0.09976036243181334,
                -1.129213186484333,
                1.8955102326907187,
                -0.638458734137122,
                0.10011995298236379,
                -3.2211289095935296
            ]
        },
        {
            "positions": [
                0.1212251867474616,
                -1.1268784204150282,
                1.950217121577332,
                -0.6888702205020885,
                0.11990960080059093,
                -3.278276623065644
            ]
        }
    ]
}