{
    "goal": {
        "global_pose": {
            "orientation": {
                "w": 0.7047431468963623,
                "x": -0.7094548344612122,
                "y": 0.0024358443915843964,
                "z": -0.0022348060738295317
            },
            "position": {
                "x": 0.6094750761985779,
                "y": 0.3671506643295288,
                "z": 0.19426114857196808
            }
        },
        "name": "move_to_magneteinheit_A"
    },
    "id": "SBL_move_to_magneteinheit_A_106",
    "joint_names": [
        "shoulder_pan_joint",
        "shoulder_lift_joint",
        "elbow_joint",
        "wrist_1_joint",
        "wrist_2_joint",
        "wrist_3_joint"
    ],
    "metrics": {
        "cart_traj_len": 2.903519070240479,
        "distance_elbow_joint": 2.468388636009194,
        "distance_shoulder_lift_joint": 1.4858612455781057,
        "distance_shoulder_pan_joint": 2.069044275904658,
        "distance_wrist_1_joint": 1.5579985160184127,
        "distance_wrist_2_joint": 4.750521635033623,
        "distance_wrist_3_joint": 4.2301925512173915,
        "smoothness": 0.38837763319105234,
        "time": 0.266458084,
        "traj_len": 4.069644561845837,
        "weighted_distance": 5.597402264733902
    },
    "planner": "SBL",
    "start": {
        "state": {
            "elbow_joint": 1.919643534880228,
            "shoulder_lift_joint": -1.8972525353963687,
            "shoulder_pan_joint": -1.1188672234189438,
            "wrist_1_joint": -1.5931878212786155,
            "wrist_2_joint": 1.5706036197970081,
            "wrist_3_joint": 1.118896926603594
        }
    },
    "waypoints": [
        {
            "positions": [
                -1.1188672234189438,
                -1.8972525353963687,
                1.919643534880228,
                -1.5931878212786155,
                1.5706036197970081,
                1.118896926603594
            ]
        },
        {
            "positions": [
                -1.1353854059286734,
                -1.9120143610942157,
                1.8717089446250257,
                -1.6097814035787845,
                1.446963485318369,
                0.9530388754147687
            ]
        },
        {
            "positions": [
                -1.151903588438403,
                -1.9267761867920625,
                1.8237743543698235,
                -1.6263749858789538,
                1.3233233508397297,
                0.7871808242259435
            ]
        },
        {
            "positions": [
                -1.1684217709481324,
                -1.9415380124899095,
                1.775839764114621,
                -1.6429685681791228,
                1.1996832163610907,
                0.6213227730371182
            ]
        },
        {
            "positions": [
                -1.184939953457862,
                -1.9562998381877563,
                1.7279051738594189,
                -1.6595621504792921,
                1.0760430818824513,
                0.4554647218482929
            ]
        },
        {
            "positions": [
                -1.2014581359675915,
                -1.9710616638856033,
                1.6799705836042165,
                -1.6761557327794612,
                0.9524029474038122,
                0.28960667065946766
            ]
        },
        {
            "positions": [
                -1.2179763184773211,
                -1.9858234895834501,
                1.6320359933490143,
                -1.6927493150796304,
                0.8287628129251731,
                0.12374861947064242
            ]
        },
        {
            "positions": [
                -1.2344945009870507,
                -2.000585315281297,
                1.5841014030938119,
                -1.7093428973797995,
                0.7051226784465338,
                -0.04210943171818293
            ]
        },
        {
            "positions": [
                -1.25101268349678,
                -2.015347140979144,
                1.5361668128386095,
                -1.7259364796799688,
                0.5814825439678947,
                -0.20796748290700817
            ]
        },
        {
            "positions": [
                -1.2675308660065097,
                -2.030108966676991,
                1.4882322225834073,
                -1.7425300619801378,
                0.4578424094892555,
                -0.3738255340958332
            ]
        },
        {
            "positions": [
                -1.2840490485162392,
                -2.0448707923748377,
                1.4402976323282048,
                -1.759123644280307,
                0.33420227501061617,
                -0.5396835852846587
            ]
        },
        {
            "positions": [
                -1.3005672310259688,
                -2.0596326180726847,
                1.3923630420730024,
                -1.7757172265804761,
                0.21056214053197708,
                -0.7055416364734839
            ]
        },
        {
            "positions": [
                -1.3170854135356984,
                -2.0743944437705317,
                1.3444284518178002,
                -1.7923108088806454,
                0.086922006053338,
                -0.8713996876623091
            ]
        },
        {
            "positions": [
                -1.3336035960454278,
                -2.0891562694683787,
                1.2964938615625978,
                -1.8089043911808145,
                -0.03671812842530131,
                -1.0372577388511346
            ]
        },
        {
            "positions": [
                -1.3501217785551574,
                -2.1039180951662253,
                1.2485592713073954,
                -1.8254979734809837,
                -0.16035826290394062,
                -1.2031157900399598
            ]
        },
        {
            "positions": [
                -1.366639961064887,
                -2.1186799208640723,
                1.2006246810521932,
                -1.8420915557811528,
                -0.2839983973825795,
                -1.3689738412287846
            ]
        },
        {
            "positions": [
                -1.3831581435746165,
                -2.1334417465619193,
                1.152690090796991,
                -1.858685138081322,
                -0.4076385318612188,
                -1.5348318924176103
            ]
        },
        {
            "positions": [
                -1.3996763260843461,
                -2.1482035722597663,
                1.1047555005417884,
                -1.8752787203814911,
                -0.5312786663398583,
                -1.7006899436064356
            ]
        },
        {
            "positions": [
                -1.4161945085940755,
                -2.1629653979576133,
                1.0568209102865862,
                -1.8918723026816604,
                -0.6549188008184972,
                -1.8665479947952603
            ]
        },
        {
            "positions": [
                -1.432712691103805,
                -2.17772722365546,
                1.008886320031384,
                -1.9084658849818295,
                -0.7785589352971365,
                -2.032406045984086
            ]
        },
        {
            "positions": [
                -1.4492308736135346,
                -2.192489049353307,
                0.9609517297761816,
                -1.9250594672819987,
                -0.9021990697757758,
                -2.1982640971729115
            ]
        },
        {
            "positions": [
                -1.4657490561232642,
                -2.207250875051154,
                0.9130171395209794,
                -1.9416530495821678,
                -1.0258392042544147,
                -2.3641221483617363
            ]
        },
        {
            "positions": [
                -1.4822672386329936,
                -2.222012700749001,
                0.865082549265777,
                -1.958246631882337,
                -1.149479338733054,
                -2.529980199550562
            ]
        },
        {
            "positions": [
                -1.4987854211427232,
                -2.2367745264468475,
                0.8171479590105746,
                -1.974840214182506,
                -1.2731194732116933,
                -2.6958382507393868
            ]
        },
        {
            "positions": [
                -1.5153036036524528,
                -2.2515363521446945,
                0.7692133687553724,
                -1.9914337964826752,
                -1.3967596076903321,
                -2.8616963019282124
            ]
        },
        {
            "positions": [
                -1.5318217861621823,
                -2.2662981778425415,
                0.72127877850017,
                -2.0080273787828444,
                -1.5203997421689712,
                -3.0275543531170377
            ]
        },
        {
            "positions": [
                -1.439816802097659,
                -2.204252866557434,
                0.7918356607017886,
                -1.9445185477542786,
                -1.428204282554102,
                -3.032206645977969
            ]
        },
        {
            "positions": [
                -1.3478118180331358,
                -2.1422075552723268,
                0.8623925429034072,
                -1.881009716725713,
                -1.3360088229392328,
                -3.0368589388389
            ]
        },
        {
            "positions": [
                -1.2558068339686124,
                -2.0801622439872194,
                0.9329494251050259,
                -1.817500885697147,
                -1.2438133633243635,
                -3.041511231699831
            ]
        },
        {
            "positions": [
                -1.1638018499040892,
                -2.018116932702112,
                1.0035063073066444,
                -1.7539920546685814,
                -1.1516179037094942,
                -3.0461635245607623
            ]
        },
        {
            "positions": [
                -1.0717968658395658,
                -1.9560716214170046,
                1.074063189508263,
                -1.6904832236400156,
                -1.059422444094625,
                -3.0508158174216935
            ]
        },
        {
            "positions": [
                -0.9797918817750424,
                -1.8940263101318973,
                1.1446200717098818,
                -1.62697439261145,
                -0.9672269844797557,
                -3.0554681102826247
            ]
        },
        {
            "positions": [
                -0.8877868977105191,
                -1.8319809988467899,
                1.2151769539115003,
                -1.563465561582884,
                -0.8750315248648864,
                -3.060120403143556
            ]
        },
        {
            "positions": [
                -0.7957819136459958,
                -1.7699356875616825,
                1.2857338361131188,
                -1.4999567305543184,
                -0.7828360652500173,
                -3.064772696004487
            ]
        },
        {
            "positions": [
                -0.7037769295814724,
                -1.7078903762765751,
                1.3562907183147375,
                -1.4364478995257526,
                -0.690640605635148,
                -3.0694249888654177
            ]
        },
        {
            "positions": [
                -0.611771945516949,
                -1.6458450649914678,
                1.4268476005163562,
                -1.3729390684971867,
                -0.5984451460202787,
                -3.074077281726349
            ]
        },
        {
            "positions": [
                -0.5197669614524256,
                -1.5837997537063602,
                1.4974044827179749,
                -1.309430237468621,
                -0.5062496864054093,
                -3.07872957458728
            ]
        },
        {
            "positions": [
                -0.42776197738790245,
                -1.521754442421253,
                1.5679613649195934,
                -1.2459214064400554,
                -0.41405422679054027,
                -3.083381867448211
            ]
        },
        {
            "positions": [
                -0.33575699332337905,
                -1.4597091311361456,
                1.638518247121212,
                -1.1824125754114896,
                -0.32185876717567097,
                -3.0880341603091424
            ]
        },
        {
            "positions": [
                -0.24375200925885587,
                -1.397663819851038,
                1.7090751293228306,
                -1.1189037443829237,
                -0.22966330756080167,
                -3.0926864531700735
            ]
        },
        {
            "positions": [
                -0.15174702519433247,
                -1.3356185085659307,
                1.7796320115244493,
                -1.055394913354358,
                -0.13746784794593236,
                -3.0973387460310047
            ]
        },
        {
            "positions": [
                -0.0597420411298093,
                -1.2735731972808235,
                1.8501888937260678,
                -0.9918860823257922,
                -0.045272388331063285,
                -3.101991038891936
            ]
        },
        {
            "positions": [
                0.0322629429347141,
                -1.211527885995716,
                1.9207457759276865,
                -0.9283772512972266,
                0.04692307128380602,
                -3.106643331752867
            ]
        },
        {
            "positions": [
                0.12426792699923744,
                -1.1494825747106086,
                1.9913026581293052,
                -0.8648684202686607,
                0.1391185308986752,
                -3.111295624613798
            ]
        }
    ]
}