{
    "goal": {
        "global_pose": {
            "orientation": {
                "w": 0.7047431468963623,
                "x": -0.7094548344612122,
                "y": 0.0024358443915843964,
                "z": -0.0022348060738295317
            },
            "position": {
                "x": 0.6094750761985779,
                "y": 0.3671506643295288,
                "z": 0.19426114857196808
            }
        },
        "name": "move_to_magneteinheit_A"
    },
    "id": "SBL_move_to_magneteinheit_A_16",
    "joint_names": [
        "shoulder_pan_joint",
        "shoulder_lift_joint",
        "elbow_joint",
        "wrist_1_joint",
        "wrist_2_joint",
        "wrist_3_joint"
    ],
    "metrics": {
        "cart_traj_len": 1.19023768090357,
        "distance_elbow_joint": 0.039796135880300065,
        "distance_shoulder_lift_joint": 0.7654051036838212,
        "distance_shoulder_pan_joint": 1.2419711270367002,
        "distance_wrist_1_joint": 1.2574775197691133,
        "distance_wrist_2_joint": 1.4367124126461306,
        "distance_wrist_3_joint": 4.361714293192257,
        "smoothness": 0.17460685385583638,
        "time": 0.203780036,
        "traj_len": 3.0171305228989223,
        "weighted_distance": 4.529977385264531
    },
    "planner": "SBL",
    "start": {
        "state": {
            "elbow_joint": 1.919643534880228,
            "shoulder_lift_joint": -1.8972525353963687,
            "shoulder_pan_joint": -1.1188672234189438,
            "wrist_1_joint": -1.5931878212786155,
            "wrist_2_joint": 1.5706036197970081,
            "wrist_3_joint": 1.118896926603594
        }
    },
    "waypoints": [
        {
            "positions": [
                -1.1188672234189438,
                -1.8972525353963687,
                1.919643534880228,
                -1.5931878212786155,
                1.5706036197970081,
                1.118896926603594
            ]
        },
        {
            "positions": [
                -1.0686610993676597,
                -1.867185972596907,
                1.9212327051608027,
                -1.5448321816079933,
                1.512736217192634,
                0.924566321605746
            ]
        },
        {
            "positions": [
                -1.0184549753163759,
                -1.8371194097974455,
                1.922821875441377,
                -1.4964765419373711,
                1.4548688145882598,
                0.7302357166078982
            ]
        },
        {
            "positions": [
                -0.9682488512650917,
                -1.807052846997984,
                1.9244110457219517,
                -1.4481209022667492,
                1.3970014119838858,
                0.5359051116100504
            ]
        },
        {
            "positions": [
                -0.9180427272138078,
                -1.7769862841985224,
                1.926000216002526,
                -1.399765262596127,
                1.3391340093795117,
                0.34157450661220246
            ]
        },
        {
            "positions": [
                -0.8678366031625238,
                -1.7469197213990608,
                1.9275893862831006,
                -1.3514096229255048,
                1.2812666067751375,
                0.14724390161435463
            ]
        },
        {
            "positions": [
                -0.8176304791112396,
                -1.7168531585995992,
                1.929178556563675,
                -1.3030539832548826,
                1.2233992041707633,
                -0.04708670338349319
            ]
        },
        {
            "positions": [
                -0.7674243550599557,
                -1.6867865958001378,
                1.9307677268442496,
                -1.2546983435842605,
                1.1655318015663891,
                -0.24141730838134112
            ]
        },
        {
            "positions": [
                -0.7172182310086717,
                -1.6567200330006762,
                1.932356897124824,
                -1.2063427039136385,
                1.1076643989620152,
                -0.43574791337918906
            ]
        },
        {
            "positions": [
                -0.6670121069573876,
                -1.6266534702012145,
                1.9339460674053985,
                -1.1579870642430163,
                1.049796996357641,
                -0.630078518377037
            ]
        },
        {
            "positions": [
                -0.6168059829061036,
                -1.596586907401753,
                1.935535237685973,
                -1.1096314245723942,
                0.9919295937532668,
                -0.8244091233748847
            ]
        },
        {
            "positions": [
                -0.5665998588548196,
                -1.5665203446022913,
                1.9371244079665475,
                -1.0612757849017722,
                0.9340621911488927,
                -1.0187397283727326
            ]
        },
        {
            "positions": [
                -0.5163937348035356,
                -1.5364537818028299,
                1.938713578247122,
                -1.01292014523115,
                0.8761947885445186,
                -1.2130703333705803
            ]
        },
        {
            "positions": [
                -0.46618761075225146,
                -1.5063872190033682,
                1.9403027485276965,
                -0.9645645055605279,
                0.8183273859401443,
                -1.4074009383684285
            ]
        },
        {
            "positions": [
                -0.41598148670096746,
                -1.4763206562039066,
                1.941891918808271,
                -0.9162088658899057,
                0.7604599833357703,
                -1.6017315433662762
            ]
        },
        {
            "positions": [
                -0.36577536264968347,
                -1.4462540934044452,
                1.9434810890888454,
                -0.8678532262192836,
                0.7025925807313962,
                -1.796062148364124
            ]
        },
        {
            "positions": [
                -0.31556923859839936,
                -1.4161875306049834,
                1.94507025936942,
                -0.8194975865486614,
                0.644725178127022,
                -1.990392753361972
            ]
        },
        {
            "positions": [
                -0.2653631145471155,
                -1.386120967805522,
                1.9466594296499944,
                -0.7711419468780394,
                0.5868577755226478,
                -2.18472335835982
            ]
        },
        {
            "positions": [
                -0.21515699049583137,
                -1.3560544050060603,
                1.948248599930569,
                -0.7227863072074172,
                0.5289903729182737,
                -2.379053963357668
            ]
        },
        {
            "positions": [
                -0.16495086644454737,
                -1.3259878422065987,
                1.9498377702111434,
                -0.6744306675367951,
                0.4711229703138995,
                -2.5733845683555154
            ]
        },
        {
            "positions": [
                -0.11474474239326327,
                -1.2959212794071373,
                1.951426940491718,
                -0.626075027866173,
                0.41325556770952554,
                -2.7677151733533636
            ]
        },
        {
            "positions": [
                -0.06453861834197916,
                -1.2658547166076755,
                1.9530161107722923,
                -0.5777193881955509,
                0.35538816510515137,
                -2.9620457783512117
            ]
        },
        {
            "positions": [
                -0.014332494290695219,
                -1.235788153808214,
                1.954605281052867,
                -0.5293637485249287,
                0.2975207625007773,
                -3.156376383349059
            ]
        },
        {
            "positions": [
                0.054385704663530626,
                -1.1838177927603808,
                1.9570224759066974,
                -0.626190472032642,
                0.21570598482582748,
                -3.199596874968861
            ]
        },
        {
            "positions": [
                0.12310390361775647,
                -1.1318474317125475,
                1.9594396707605282,
                -0.7230171955403553,
                0.13389120715087766,
                -3.242817366588663
            ]
        }
    ]
}