{
    "goal": {
        "global_pose": {
            "orientation": {
                "w": 0.7047431468963623,
                "x": -0.7094548344612122,
                "y": 0.0024358443915843964,
                "z": -0.0022348060738295317
            },
            "position": {
                "x": 0.6094750761985779,
                "y": 0.3671506643295288,
                "z": 0.19426114857196808
            }
        },
        "name": "move_to_magneteinheit_A"
    },
    "id": "SBL_move_to_magneteinheit_A_6",
    "joint_names": [
        "shoulder_pan_joint",
        "shoulder_lift_joint",
        "elbow_joint",
        "wrist_1_joint",
        "wrist_2_joint",
        "wrist_3_joint"
    ],
    "metrics": {
        "cart_traj_len": 1.2498934046423127,
        "distance_elbow_joint": 0.07424470799358818,
        "distance_shoulder_lift_joint": 1.1204715764678137,
        "distance_shoulder_pan_joint": 1.240446532765337,
        "distance_wrist_1_joint": 3.516061802992707,
        "distance_wrist_2_joint": 1.697069649776049,
        "distance_wrist_3_joint": 1.1261079609751994,
        "smoothness": 1.4802973778883236e-16,
        "time": 0.195737505,
        "traj_len": 2.9621617496299377,
        "weighted_distance": 4.029857268649828
    },
    "planner": "SBL",
    "start": {
        "state": {
            "elbow_joint": 1.919643534880228,
            "shoulder_lift_joint": -1.8972525353963687,
            "shoulder_pan_joint": -1.1188672234189438,
            "wrist_1_joint": -1.5931878212786155,
            "wrist_2_joint": 1.5706036197970081,
            "wrist_3_joint": 1.118896926603594
        }
    },
    "waypoints": [
        {
            "positions": [
                -1.1188672234189438,
                -1.8972525353963687,
                1.919643534880228,
                -1.5931878212786155,
                1.5706036197970081,
                1.118896926603594
            ]
        },
        {
            "positions": [
                -1.0649347654726249,
                -1.848536379897768,
                1.9228715656625581,
                -1.4403155689745848,
                1.4968179828502235,
                1.0699357109090202
            ]
        },
        {
            "positions": [
                -1.011002307526306,
                -1.7998202243991674,
                1.926099596444888,
                -1.287443316670554,
                1.4230323459034386,
                1.0209744952144462
            ]
        },
        {
            "positions": [
                -0.9570698495799869,
                -1.751104068900567,
                1.929327627227218,
                -1.1345710643665232,
                1.349246708956654,
                0.9720132795198724
            ]
        },
        {
            "positions": [
                -0.9031373916336679,
                -1.7023879134019664,
                1.9325556580095478,
                -0.9816988120624925,
                1.2754610720098691,
                0.9230520638252984
            ]
        },
        {
            "positions": [
                -0.8492049336873488,
                -1.6536717579033657,
                1.9357836887918778,
                -0.8288265597584618,
                1.2016754350630845,
                0.8740908481307246
            ]
        },
        {
            "positions": [
                -0.7952724757410299,
                -1.604955602404765,
                1.9390117195742076,
                -0.6759543074544311,
                1.1278897981162999,
                0.8251296324361507
            ]
        },
        {
            "positions": [
                -0.7413400177947109,
                -1.5562394469061647,
                1.9422397503565376,
                -0.5230820551504003,
                1.054104161169515,
                0.7761684167415768
            ]
        },
        {
            "positions": [
                -0.687407559848392,
                -1.507523291407564,
                1.9454677811388674,
                -0.3702098028463696,
                0.9803185242227302,
                0.7272072010470029
            ]
        },
        {
            "positions": [
                -0.6334751019020728,
                -1.4588071359089634,
                1.9486958119211975,
                -0.21733755054233872,
                0.9065328872759455,
                0.678245985352429
            ]
        },
        {
            "positions": [
                -0.5795426439557539,
                -1.4100909804103627,
                1.9519238427035273,
                -0.06446529823830804,
                0.8327472503291607,
                0.6292847696578552
            ]
        },
        {
            "positions": [
                -0.5256101860094349,
                -1.361374824911762,
                1.9551518734858573,
                0.08840695406572285,
                0.758961613382376,
                0.5803235539632812
            ]
        },
        {
            "positions": [
                -0.4716777280631159,
                -1.3126586694131617,
                1.958379904268187,
                0.2412792063697533,
                0.6851759764355914,
                0.5313623382687074
            ]
        },
        {
            "positions": [
                -0.41774527011679696,
                -1.263942513914561,
                1.9616079350505171,
                0.394151458673784,
                0.6113903394888066,
                0.4824011225741335
            ]
        },
        {
            "positions": [
                -0.3638128121704779,
                -1.2152263584159604,
                1.964835965832847,
                0.5470237109778149,
                0.5376047025420219,
                0.43343990687955947
            ]
        },
        {
            "positions": [
                -0.30988035422415894,
                -1.1665102029173597,
                1.968063996615177,
                0.6998959632818458,
                0.463819065595237,
                0.3844786911849857
            ]
        },
        {
            "positions": [
                -0.25594789627784,
                -1.117794047418759,
                1.9712920273975068,
                0.8527682155858762,
                0.39003342864845236,
                0.3355174754904118
            ]
        },
        {
            "positions": [
                -0.20201543833152102,
                -1.0690778919201587,
                1.9745200581798368,
                1.0056404678899071,
                0.3162477917016677,
                0.286556259795838
            ]
        },
        {
            "positions": [
                -0.14808298038520185,
                -1.0203617364215578,
                1.9777480889621666,
                1.158512720193938,
                0.24246215475488286,
                0.23759504410126397
            ]
        },
        {
            "positions": [
                -0.094150522438883,
                -0.9716455809229574,
                1.9809761197444966,
                1.3113849724979685,
                0.16867651780809823,
                0.18863382840669007
            ]
        },
        {
            "positions": [
                -0.04021806449256404,
                -0.9229294254243569,
                1.9842041505268264,
                1.4642572248019994,
                0.09489088086131336,
                0.13967261271211628
            ]
        },
        {
            "positions": [
                0.013714393453754914,
                -0.8742132699257563,
                1.9874321813091564,
                1.6171294771060298,
                0.021105243914528726,
                0.09071139701754238
            ]
        },
        {
            "positions": [
                0.06764685140007409,
                -0.8254971144271557,
                1.9906602120914862,
                1.7700017294100612,
                -0.052680393032256134,
                0.04175018132296837
            ]
        },
        {
            "positions": [
                0.12157930934639305,
                -0.7767809589285549,
                1.9938882428738163,
                1.9228739817140916,
                -0.1264660299790408,
                -0.007211034371605497
            ]
        }
    ]
}