{
    "goal": {
        "global_pose": {
            "orientation": {
                "w": 0.7047431468963623,
                "x": -0.7094548344612122,
                "y": 0.0024358443915843964,
                "z": -0.0022348060738295317
            },
            "position": {
                "x": 0.6094750761985779,
                "y": 0.3671506643295288,
                "z": 0.19426114857196808
            }
        },
        "name": "move_to_magneteinheit_A"
    },
    "id": "SBL_move_to_magneteinheit_A_130",
    "joint_names": [
        "shoulder_pan_joint",
        "shoulder_lift_joint",
        "elbow_joint",
        "wrist_1_joint",
        "wrist_2_joint",
        "wrist_3_joint"
    ],
    "metrics": {
        "cart_traj_len": 1.2456125795493134,
        "distance_elbow_joint": 0.166836153057631,
        "distance_shoulder_lift_joint": 0.8197287777657418,
        "distance_shoulder_pan_joint": 1.2422204240132015,
        "distance_wrist_1_joint": 0.7978823102638016,
        "distance_wrist_2_joint": 1.672205940697988,
        "distance_wrist_3_joint": 4.289378640953963,
        "smoothness": 0.3531344470137939,
        "time": 0.289418524,
        "traj_len": 2.9980414017742194,
        "weighted_distance": 4.476281691272572
    },
    "planner": "SBL",
    "start": {
        "state": {
            "elbow_joint": 1.919643534880228,
            "shoulder_lift_joint": -1.8972525353963687,
            "shoulder_pan_joint": -1.1188672234189438,
            "wrist_1_joint": -1.5931878212786155,
            "wrist_2_joint": 1.5706036197970081,
            "wrist_3_joint": 1.118896926603594
        }
    },
    "waypoints": [
        {
            "positions": [
                -1.1188672234189438,
                -1.8972525353963687,
                1.919643534880228,
                -1.5931878212786155,
                1.5706036197970081,
                1.118896926603594
            ]
        },
        {
            "positions": [
                -1.0637710151211976,
                -1.8613987755178278,
                1.917069970233943,
                -1.557153428231011,
                1.4996378092918783,
                0.9310721497382911
            ]
        },
        {
            "positions": [
                -1.0086748068234515,
                -1.825545015639287,
                1.914496405587658,
                -1.5211190351834067,
                1.4286719987867484,
                0.7432473728729883
            ]
        },
        {
            "positions": [
                -0.9535785985257054,
                -1.789691255760746,
                1.911922840941373,
                -1.4850846421358024,
                1.3577061882816186,
                0.5554225960076854
            ]
        },
        {
            "positions": [
                -0.8984823902279593,
                -1.7538374958822052,
                1.9093492762950883,
                -1.449050249088198,
                1.2867403777764885,
                0.36759781914238243
            ]
        },
        {
            "positions": [
                -0.8433861819302131,
                -1.7179837360036645,
                1.9067757116488033,
                -1.4130158560405937,
                1.2157745672713587,
                0.1797730422770797
            ]
        },
        {
            "positions": [
                -0.7882899736324669,
                -1.6821299761251236,
                1.9042021470025183,
                -1.3769814629929893,
                1.1448087567662288,
                -0.00805173458822317
            ]
        },
        {
            "positions": [
                -0.7331937653347207,
                -1.6462762162465827,
                1.9016285823562333,
                -1.340947069945385,
                1.073842946261099,
                -0.19587651145352614
            ]
        },
        {
            "positions": [
                -0.6780975570369746,
                -1.6104224563680418,
                1.8990550177099483,
                -1.3049126768977803,
                1.002877135755969,
                -0.3837012883188291
            ]
        },
        {
            "positions": [
                -0.6230013487392284,
                -1.574568696489501,
                1.8964814530636633,
                -1.2688782838501762,
                0.9319113252508391,
                -0.5715260651841318
            ]
        },
        {
            "positions": [
                -0.5679051404414823,
                -1.53871493661096,
                1.8939078884173783,
                -1.2328438908025716,
                0.8609455147457094,
                -0.7593508420494346
            ]
        },
        {
            "positions": [
                -0.5128089321437361,
                -1.5028611767324191,
                1.8913343237710936,
                -1.1968094977549675,
                0.7899797042405794,
                -0.9471756189147376
            ]
        },
        {
            "positions": [
                -0.45771272384599004,
                -1.4670074168538783,
                1.8887607591248086,
                -1.160775104707363,
                0.7190138937354495,
                -1.1350003957800403
            ]
        },
        {
            "positions": [
                -0.40261651554824374,
                -1.4311536569753374,
                1.8861871944785236,
                -1.1247407116597585,
                0.6480480832303196,
                -1.3228251726453435
            ]
        },
        {
            "positions": [
                -0.34752030725049765,
                -1.3952998970967965,
                1.8836136298322386,
                -1.0887063186121542,
                0.5770822727251897,
                -1.5106499495106462
            ]
        },
        {
            "positions": [
                -0.29242409895275157,
                -1.3594461372182556,
                1.8810400651859536,
                -1.05267192556455,
                0.50611646222006,
                -1.698474726375949
            ]
        },
        {
            "positions": [
                -0.23732789065500537,
                -1.3235923773397147,
                1.8784665005396686,
                -1.0166375325169454,
                0.43515065171492995,
                -1.8862995032412522
            ]
        },
        {
            "positions": [
                -0.18223168235725917,
                -1.2877386174611738,
                1.8758929358933836,
                -0.9806031394693412,
                0.3641848412098001,
                -2.0741242801065543
            ]
        },
        {
            "positions": [
                -0.12713547405951298,
                -1.251884857582633,
                1.8733193712470986,
                -0.9445687464217367,
                0.29321903070467004,
                -2.261949056971858
            ]
        },
        {
            "positions": [
                -0.07203926576176678,
                -1.216031097704092,
                1.8707458066008138,
                -0.9085343533741324,
                0.2222532201995402,
                -2.4497738338371606
            ]
        },
        {
            "positions": [
                -0.016943057464020805,
                -1.1801773378255513,
                1.8681722419545288,
                -0.872499960326528,
                0.15128740969441057,
                -2.6375986107024634
            ]
        },
        {
            "positions": [
                0.03815315083372539,
                -1.1443235779470105,
                1.8655986773082438,
                -0.8364655672789236,
                0.0803215991892805,
                -2.825423387567766
            ]
        },
        {
            "positions": [
                0.09324935913147153,
                -1.1084698180684696,
                1.8630251126619588,
                -0.8004311742313193,
                0.009355788684150712,
                -3.013248164433069
            ]
        },
        {
            "positions": [
                0.10830127986286453,
                -1.123942848287391,
                1.9181339780816398,
                -0.7978683426230666,
                0.06483484347671598,
                -3.091864939391719
            ]
        },
        {
            "positions": [
                0.12335320059425754,
                -1.1394158785063122,
                1.9732428435013205,
                -0.7953055110148138,
                0.12031389826928125,
                -3.1704817143503687
            ]
        }
    ]
}