{
    "goal": {
        "global_pose": {
            "orientation": {
                "w": 0.7047431468963623,
                "x": -0.7094548344612122,
                "y": 0.0024358443915843964,
                "z": -0.0022348060738295317
            },
            "position": {
                "x": 0.6094750761985779,
                "y": 0.3671506643295288,
                "z": 0.19426114857196808
            }
        },
        "name": "move_to_magneteinheit_A"
    },
    "id": "SBL_move_to_magneteinheit_A_87",
    "joint_names": [
        "shoulder_pan_joint",
        "shoulder_lift_joint",
        "elbow_joint",
        "wrist_1_joint",
        "wrist_2_joint",
        "wrist_3_joint"
    ],
    "metrics": {
        "cart_traj_len": 1.247250619788089,
        "distance_elbow_joint": 0.25992733999491424,
        "distance_shoulder_lift_joint": 0.749880455818045,
        "distance_shoulder_pan_joint": 1.241627641479599,
        "distance_wrist_1_joint": 0.734691280249598,
        "distance_wrist_2_joint": 1.6829697581294571,
        "distance_wrist_3_joint": 4.242331680127181,
        "smoothness": 0.23161547599577104,
        "time": 0.269467946,
        "traj_len": 2.9852015268317804,
        "weighted_distance": 4.45126415239898
    },
    "planner": "SBL",
    "start": {
        "state": {
            "elbow_joint": 1.919643534880228,
            "shoulder_lift_joint": -1.8972525353963687,
            "shoulder_pan_joint": -1.1188672234189438,
            "wrist_1_joint": -1.5931878212786155,
            "wrist_2_joint": 1.5706036197970081,
            "wrist_3_joint": 1.118896926603594
        }
    },
    "waypoints": [
        {
            "positions": [
                -1.1188672234189438,
                -1.8972525353963687,
                1.919643534880228,
                -1.5931878212786155,
                1.5706036197970081,
                1.118896926603594
            ]
        },
        {
            "positions": [
                -1.0655801517145242,
                -1.864031964144942,
                1.9150770795067664,
                -1.56783741855841,
                1.49629788178456,
                0.9227570088635499
            ]
        },
        {
            "positions": [
                -1.0122930800101049,
                -1.8308113928935155,
                1.9105106241333047,
                -1.5424870158382047,
                1.421992143772112,
                0.7266170911235058
            ]
        },
        {
            "positions": [
                -0.9590060083056853,
                -1.797590821642089,
                1.905944168759843,
                -1.517136613117999,
                1.3476864057596638,
                0.5304771733834618
            ]
        },
        {
            "positions": [
                -0.9057189366012657,
                -1.7643702503906624,
                1.9013777133863814,
                -1.4917862103977937,
                1.2733806677472157,
                0.33433725564341765
            ]
        },
        {
            "positions": [
                -0.8524318648968461,
                -1.7311496791392358,
                1.8968112580129197,
                -1.4664358076775883,
                1.1990749297347678,
                0.13819733790337363
            ]
        },
        {
            "positions": [
                -0.7991447931924266,
                -1.6979291078878092,
                1.892244802639458,
                -1.441085404957383,
                1.1247691917223197,
                -0.057942579836670394
            ]
        },
        {
            "positions": [
                -0.7458577214880071,
                -1.6647085366363825,
                1.8876783472659964,
                -1.4157350022371775,
                1.0504634537098716,
                -0.25408249757671464
            ]
        },
        {
            "positions": [
                -0.6925706497835875,
                -1.6314879653849559,
                1.8831118918925347,
                -1.3903845995169721,
                0.9761577156974235,
                -0.45022241531675866
            ]
        },
        {
            "positions": [
                -0.6392835780791679,
                -1.5982673941335295,
                1.878545436519073,
                -1.3650341967967665,
                0.9018519776849754,
                -0.6463623330568027
            ]
        },
        {
            "positions": [
                -0.5859965063747484,
                -1.5650468228821028,
                1.8739789811456113,
                -1.3396837940765611,
                0.8275462396725273,
                -0.8425022507968467
            ]
        },
        {
            "positions": [
                -0.5327094346703288,
                -1.5318262516306762,
                1.8694125257721494,
                -1.3143333913563557,
                0.7532405016600792,
                -1.0386421685368912
            ]
        },
        {
            "positions": [
                -0.47942236296590934,
                -1.4986056803792498,
                1.8648460703986878,
                -1.2889829886361504,
                0.6789347636476312,
                -1.2347820862769348
            ]
        },
        {
            "positions": [
                -0.42613529126148975,
                -1.4653851091278232,
                1.860279615025226,
                -1.263632585915945,
                0.604629025635183,
                -1.4309220040169792
            ]
        },
        {
            "positions": [
                -0.37284821955707026,
                -1.4321645378763965,
                1.8557131596517644,
                -1.2382821831957393,
                0.5303232876227351,
                -1.6270619217570232
            ]
        },
        {
            "positions": [
                -0.31956114785265066,
                -1.39894396662497,
                1.8511467042783027,
                -1.212931780475534,
                0.45601754961028673,
                -1.8232018394970673
            ]
        },
        {
            "positions": [
                -0.2662740761482312,
                -1.3657233953735433,
                1.846580248904841,
                -1.1875813777553286,
                0.38171181159783885,
                -2.019341757237111
            ]
        },
        {
            "positions": [
                -0.21298700444381158,
                -1.3325028241221166,
                1.8420137935313794,
                -1.1622309750351232,
                0.30740607358539074,
                -2.2154816749771555
            ]
        },
        {
            "positions": [
                -0.1596999327393921,
                -1.29928225287069,
                1.8374473381579177,
                -1.1368805723149178,
                0.23310033557294263,
                -2.411621592717199
            ]
        },
        {
            "positions": [
                -0.10641286103497238,
                -1.2660616816192634,
                1.832880882784456,
                -1.1115301695947122,
                0.15879459756049452,
                -2.6077615104572436
            ]
        },
        {
            "positions": [
                -0.05312578933055301,
                -1.232841110367837,
                1.8283144274109944,
                -1.086179766874507,
                0.08448885954804641,
                -2.803901428197287
            ]
        },
        {
            "positions": [
                0.00016128237386648855,
                -1.1996205391164103,
                1.8237479720375327,
                -1.0608293641543014,
                0.010183121535598257,
                -3.0000413459373316
            ]
        },
        {
            "positions": [
                0.061460850217260804,
                -1.173496309347367,
                1.905763860613642,
                -0.9596629525916595,
                0.07145775146962186,
                -3.061738049730459
            ]
        },
        {
            "positions": [
                0.12276041806065512,
                -1.1473720795783238,
                1.9877797491897515,
                -0.8584965410290175,
                0.13273238140364546,
                -3.1234347535235867
            ]
        }
    ]
}