{
    "goal": {
        "global_pose": {
            "orientation": {
                "w": 0.7047431468963623,
                "x": -0.7094548344612122,
                "y": 0.0024358443915843964,
                "z": -0.0022348060738295317
            },
            "position": {
                "x": 0.6094750761985779,
                "y": 0.3671506643295288,
                "z": 0.19426114857196808
            }
        },
        "name": "move_to_magneteinheit_A"
    },
    "id": "SBL_move_to_magneteinheit_A_129",
    "joint_names": [
        "shoulder_pan_joint",
        "shoulder_lift_joint",
        "elbow_joint",
        "wrist_1_joint",
        "wrist_2_joint",
        "wrist_3_joint"
    ],
    "metrics": {
        "cart_traj_len": 1.2212069636915244,
        "distance_elbow_joint": 0.05083162234538574,
        "distance_shoulder_lift_joint": 0.7757216284744048,
        "distance_shoulder_pan_joint": 1.241821601863505,
        "distance_wrist_1_joint": 0.9533913304792929,
        "distance_wrist_2_joint": 1.4483154296595242,
        "distance_wrist_3_joint": 4.397027018370865,
        "smoothness": 0.21160217913992402,
        "time": 0.19498743000000002,
        "traj_len": 2.9777690694869166,
        "weighted_distance": 4.479159455531085
    },
    "planner": "SBL",
    "start": {
        "state": {
            "elbow_joint": 1.919643534880228,
            "shoulder_lift_joint": -1.8972525353963687,
            "shoulder_pan_joint": -1.1188672234189438,
            "wrist_1_joint": -1.5931878212786155,
            "wrist_2_joint": 1.5706036197970081,
            "wrist_3_joint": 1.118896926603594
        }
    },
    "waypoints": [
        {
            "positions": [
                -1.1188672234189438,
                -1.8972525353963687,
                1.919643534880228,
                -1.5931878212786155,
                1.5706036197970081,
                1.118896926603594
            ]
        },
        {
            "positions": [
                -1.0656796794680137,
                -1.8636093189660952,
                1.919188297316122,
                -1.552831183581783,
                1.5076871967700034,
                0.9289088201188198
            ]
        },
        {
            "positions": [
                -1.0124921355170833,
                -1.8299661025358216,
                1.9187330597520162,
                -1.5124745458849504,
                1.4447707737429984,
                0.7389207136340455
            ]
        },
        {
            "positions": [
                -0.9593045915661531,
                -1.7963228861055482,
                1.9182778221879102,
                -1.472117908188118,
                1.3818543507159937,
                0.5489326071492713
            ]
        },
        {
            "positions": [
                -0.9061170476152228,
                -1.7626796696752747,
                1.9178225846238042,
                -1.4317612704912852,
                1.3189379276889888,
                0.3589445006644971
            ]
        },
        {
            "positions": [
                -0.8529295036642925,
                -1.729036453245001,
                1.9173673470596984,
                -1.3914046327944527,
                1.256021504661984,
                0.16895639417972286
            ]
        },
        {
            "positions": [
                -0.7997419597133624,
                -1.6953932368147275,
                1.9169121094955923,
                -1.3510479950976202,
                1.1931050816349793,
                -0.02103171230505141
            ]
        },
        {
            "positions": [
                -0.7465544157624321,
                -1.661750020384454,
                1.9164568719314863,
                -1.3106913574007877,
                1.1301886586079744,
                -0.21101981878982579
            ]
        },
        {
            "positions": [
                -0.6933668718115018,
                -1.6281068039541804,
                1.9160016343673805,
                -1.2703347197039552,
                1.0672722355809694,
                -0.4010079252745997
            ]
        },
        {
            "positions": [
                -0.6401793278605716,
                -1.594463587523907,
                1.9155463968032744,
                -1.2299780820071227,
                1.0043558125539647,
                -0.5909960317593741
            ]
        },
        {
            "positions": [
                -0.5869917839096414,
                -1.5608203710936335,
                1.9150911592391684,
                -1.1896214443102902,
                0.9414393895269598,
                -0.7809841382441483
            ]
        },
        {
            "positions": [
                -0.5338042399587111,
                -1.52717715466336,
                1.9146359216750626,
                -1.1492648066134574,
                0.878522966499955,
                -0.9709722447289224
            ]
        },
        {
            "positions": [
                -0.4806166960077809,
                -1.4935339382330863,
                1.9141806841109565,
                -1.1089081689166251,
                0.8156065434729503,
                -1.1609603512136968
            ]
        },
        {
            "positions": [
                -0.4274291520568506,
                -1.4598907218028128,
                1.9137254465468507,
                -1.0685515312197924,
                0.7526901204459454,
                -1.3509484576984707
            ]
        },
        {
            "positions": [
                -0.37424160810592033,
                -1.4262475053725392,
                1.9132702089827447,
                -1.02819489352296,
                0.6897736974189405,
                -1.5409365641832455
            ]
        },
        {
            "positions": [
                -0.32105406415499005,
                -1.3926042889422656,
                1.9128149714186387,
                -0.9878382558261274,
                0.6268572743919357,
                -1.7309246706680195
            ]
        },
        {
            "positions": [
                -0.2678665202040599,
                -1.3589610725119923,
                1.9123597338545328,
                -0.9474816181292949,
                0.5639408513649309,
                -1.9209127771527934
            ]
        },
        {
            "positions": [
                -0.2146789762531297,
                -1.3253178560817187,
                1.9119044962904268,
                -0.9071249804324624,
                0.5010244283379262,
                -2.1109008836375676
            ]
        },
        {
            "positions": [
                -0.1614914323021993,
                -1.2916746396514451,
                1.9114492587263208,
                -0.8667683427356297,
                0.4381080053109212,
                -2.300888990122342
            ]
        },
        {
            "positions": [
                -0.10830388835126903,
                -1.2580314232211718,
                1.910994021162215,
                -0.8264117050387972,
                0.37519158228391647,
                -2.4908770966071163
            ]
        },
        {
            "positions": [
                -0.05511634440033886,
                -1.224388206790898,
                1.910538783598109,
                -0.7860550673419647,
                0.3122751592569115,
                -2.6808652030918907
            ]
        },
        {
            "positions": [
                -0.0019288004494086852,
                -1.1907449903606246,
                1.9100835460340029,
                -0.7456984296451322,
                0.24935873622990679,
                -2.870853309576664
            ]
        },
        {
            "positions": [
                0.05125874350152171,
                -1.1571017739303509,
                1.909628308469897,
                -0.7053417919482996,
                0.18644231320290183,
                -3.0608414160614386
            ]
        },
        {
            "positions": [
                0.1044462874524518,
                -1.1234585575000775,
                1.909173070905791,
                -0.6649851542514671,
                0.12352589017589719,
                -3.250829522546213
            ]
        },
        {
            "positions": [
                0.1229543784445612,
                -1.1253862080781911,
                1.9495342292767397,
                -0.6901738177036116,
                0.12228819013748393,
                -3.2781300917672707
            ]
        }
    ]
}