{
    "goal": {
        "global_pose": {
            "orientation": {
                "w": 0.7047431468963623,
                "x": -0.7094548344612122,
                "y": 0.0024358443915843964,
                "z": -0.0022348060738295317
            },
            "position": {
                "x": 0.6094750761985779,
                "y": 0.3671506643295288,
                "z": 0.19426114857196808
            }
        },
        "name": "move_to_magneteinheit_A"
    },
    "id": "SBL_move_to_magneteinheit_A_45",
    "joint_names": [
        "shoulder_pan_joint",
        "shoulder_lift_joint",
        "elbow_joint",
        "wrist_1_joint",
        "wrist_2_joint",
        "wrist_3_joint"
    ],
    "metrics": {
        "cart_traj_len": 2.894007597681656,
        "distance_elbow_joint": 4.811890185377557,
        "distance_shoulder_lift_joint": 0.7528220910084857,
        "distance_shoulder_pan_joint": 1.2417821385473016,
        "distance_wrist_1_joint": 1.0285992802540669,
        "distance_wrist_2_joint": 1.7400634964983386,
        "distance_wrist_3_joint": 4.277376519842765,
        "smoothness": 0.31413139838213433,
        "time": 0.2224342,
        "traj_len": 3.7218992075993294,
        "weighted_distance": 5.017564103025137
    },
    "planner": "SBL",
    "start": {
        "state": {
            "elbow_joint": 1.919643534880228,
            "shoulder_lift_joint": -1.8972525353963687,
            "shoulder_pan_joint": -1.1188672234189438,
            "wrist_1_joint": -1.5931878212786155,
            "wrist_2_joint": 1.5706036197970081,
            "wrist_3_joint": 1.118896926603594
        }
    },
    "waypoints": [
        {
            "positions": [
                -1.1188672234189438,
                -1.8972525353963687,
                1.919643534880228,
                -1.5931878212786155,
                1.5706036197970081,
                1.118896926603594
            ]
        },
        {
            "positions": [
                -1.0893863086910023,
                -1.8727882919799288,
                1.8064758278327941,
                -1.5500339239877616,
                1.494912505762219,
                1.018082438583094
            ]
        },
        {
            "positions": [
                -1.059905393963061,
                -1.8483240485634886,
                1.69330812078536,
                -1.5068800266969078,
                1.41922139172743,
                0.9172679505625941
            ]
        },
        {
            "positions": [
                -1.0304244792351194,
                -1.8238598051470487,
                1.5801404137379258,
                -1.4637261294060537,
                1.343530277692641,
                0.8164534625420942
            ]
        },
        {
            "positions": [
                -1.0009435645071778,
                -1.7993955617306088,
                1.4669727066904918,
                -1.4205722321152,
                1.2678391636578519,
                0.7156389745215943
            ]
        },
        {
            "positions": [
                -0.9714626497792365,
                -1.7749313183141686,
                1.353804999643058,
                -1.377418334824346,
                1.1921480496230628,
                0.6148244865010943
            ]
        },
        {
            "positions": [
                -0.9419817350512949,
                -1.7504670748977287,
                1.2406372925956237,
                -1.3342644375334922,
                1.1164569355882736,
                0.5140099984805944
            ]
        },
        {
            "positions": [
                -0.9125008203233534,
                -1.7260028314812887,
                1.1274695855481895,
                -1.2911105402426384,
                1.0407658215534847,
                0.4131955104600944
            ]
        },
        {
            "positions": [
                -0.883019905595412,
                -1.7015385880648486,
                1.0143018785007556,
                -1.2479566429517845,
                0.9650747075186955,
                0.31238102243959454
            ]
        },
        {
            "positions": [
                -0.8535389908674704,
                -1.6770743446484087,
                0.9011341714533216,
                -1.2048027456609307,
                0.8893835934839065,
                0.21156653441909457
            ]
        },
        {
            "positions": [
                -0.8240580761395291,
                -1.6526101012319687,
                0.7879664644058875,
                -1.1616488483700769,
                0.8136924794491174,
                0.1107520463985947
            ]
        },
        {
            "positions": [
                -0.7945771614115875,
                -1.6281458578155286,
                0.6747987573584533,
                -1.1184949510792228,
                0.7380013654143283,
                0.009937558378094513
            ]
        },
        {
            "positions": [
                -0.765096246683646,
                -1.6036816143990886,
                0.5616310503110193,
                -1.075341053788369,
                0.6623102513795392,
                -0.09087692964240524
            ]
        },
        {
            "positions": [
                -0.7356153319557045,
                -1.5792173709826485,
                0.44846334326358517,
                -1.032187156497515,
                0.5866191373447501,
                -0.1916914176629052
            ]
        },
        {
            "positions": [
                -0.706134417227763,
                -1.5547531275662085,
                0.3352956362161512,
                -0.9890332592066613,
                0.5109280233099611,
                -0.2925059056834052
            ]
        },
        {
            "positions": [
                -0.6766535024998215,
                -1.5302888841497686,
                0.22212792916871704,
                -0.9458793619158073,
                0.435236909275172,
                -0.39332039370390515
            ]
        },
        {
            "positions": [
                -0.6471725877718801,
                -1.5058246407333287,
                0.10896022212128309,
                -0.9027254646249535,
                0.3595457952403829,
                -0.4941348817244049
            ]
        },
        {
            "positions": [
                -0.6176916730439386,
                -1.4813603973168885,
                -0.004207484926151084,
                -0.8595715673340996,
                0.28385468120559376,
                -0.5949493697449051
            ]
        },
        {
            "positions": [
                -0.5882107583159971,
                -1.4568961539004486,
                -0.11737519197358481,
                -0.8164176700432457,
                0.20816356717080486,
                -0.6957638577654048
            ]
        },
        {
            "positions": [
                -0.5587298435880557,
                -1.4324319104840086,
                -0.23054289902101943,
                -0.7732637727523919,
                0.13247245313601574,
                -0.7965783457859048
            ]
        },
        {
            "positions": [
                -0.5292489288601142,
                -1.4079676670675685,
                -0.34371060606845316,
                -0.730109875461538,
                0.056781339101226624,
                -0.8973928338064046
            ]
        },
        {
            "positions": [
                -0.49976801413217264,
                -1.3835034236511285,
                -0.45687831311588745,
                -0.6869559781706841,
                -0.0189097749335626,
                -0.9982073218269045
            ]
        },
        {
            "positions": [
                -0.4582558188481373,
                -1.3675652250335788,
                -0.29452042395712463,
                -0.6951138073137598,
                -0.008873101482378172,
                -1.1422254732543888
            ]
        },
        {
            "positions": [
                -0.41674362356410194,
                -1.351627026416029,
                -0.13216253479836176,
                -0.7032716364568355,
                0.001163571968806256,
                -1.2862436246818734
            ]
        },
        {
            "positions": [
                -0.3752314282800666,
                -1.3356888277984795,
                0.030195354360401105,
                -0.7114294655999112,
                0.011200245419990686,
                -1.4302617761093577
            ]
        },
        {
            "positions": [
                -0.33371923299603123,
                -1.3197506291809298,
                0.19255324351916392,
                -0.7195872947429869,
                0.02123691887117511,
                -1.5742799275368422
            ]
        },
        {
            "positions": [
                -0.29220703771199596,
                -1.30381243056338,
                0.35491113267792673,
                -0.7277451238860626,
                0.03127359232235954,
                -1.7182980789643265
            ]
        },
        {
            "positions": [
                -0.2506948424279606,
                -1.2878742319458303,
                0.5172690218366897,
                -0.7359029530291383,
                0.04131026577354397,
                -1.8623162303918108
            ]
        },
        {
            "positions": [
                -0.20918264714392526,
                -1.2719360333282805,
                0.6796269109954526,
                -0.744060782172214,
                0.051346939224728404,
                -2.006334381819295
            ]
        },
        {
            "positions": [
                -0.16767045185988988,
                -1.255997834710731,
                0.8419848001542153,
                -0.7522186113152897,
                0.06138361267591282,
                -2.15035253324678
            ]
        },
        {
            "positions": [
                -0.12615825657585455,
                -1.2400596360931813,
                1.004342689312978,
                -0.7603764404583654,
                0.07142028612709725,
                -2.2943706846742637
            ]
        },
        {
            "positions": [
                -0.08464606129181923,
                -1.2241214374756315,
                1.1667005784717408,
                -0.7685342696014411,
                0.08145695957828167,
                -2.4383888361017485
            ]
        },
        {
            "positions": [
                -0.043133866007783905,
                -1.2081832388580818,
                1.329058467630504,
                -0.7766920987445168,
                0.09149363302946611,
                -2.582406987529233
            ]
        },
        {
            "positions": [
                -0.001621670723748525,
                -1.192245040240532,
                1.4914163567892667,
                -0.7848499278875926,
                0.10153030648065053,
                -2.726425138956717
            ]
        },
        {
            "positions": [
                0.039890524560286855,
                -1.1763068416229825,
                1.6537742459480294,
                -0.7930077570306682,
                0.11156697993183495,
                -2.870443290384202
            ]
        },
        {
            "positions": [
                0.08140271984432212,
                -1.1603686430054327,
                1.8161321351067925,
                -0.8011655861737439,
                0.1216036533830194,
                -3.014461441811686
            ]
        },
        {
            "positions": [
                0.12291491512835752,
                -1.144430444387883,
                1.9784900242655554,
                -0.8093234153168196,
                0.13164032683420382,
                -3.1584795932391705
            ]
        }
    ]
}