{
    "goal": {
        "global_pose": {
            "orientation": {
                "w": 0.7047431468963623,
                "x": -0.7094548344612122,
                "y": 0.0024358443915843964,
                "z": -0.0022348060738295317
            },
            "position": {
                "x": 0.6094750761985779,
                "y": 0.3671506643295288,
                "z": 0.19426114857196808
            }
        },
        "name": "move_to_magneteinheit_A"
    },
    "id": "SBL_move_to_magneteinheit_A_11",
    "joint_names": [
        "shoulder_pan_joint",
        "shoulder_lift_joint",
        "elbow_joint",
        "wrist_1_joint",
        "wrist_2_joint",
        "wrist_3_joint"
    ],
    "metrics": {
        "cart_traj_len": 1.2217528342295003,
        "distance_elbow_joint": 0.35103386822700755,
        "distance_shoulder_lift_joint": 0.7600057232233994,
        "distance_shoulder_pan_joint": 1.2421116018549123,
        "distance_wrist_1_joint": 0.9772988093154569,
        "distance_wrist_2_joint": 1.4361083444419944,
        "distance_wrist_3_joint": 4.332829584967564,
        "smoothness": 0.07277842112407124,
        "time": 0.263806436,
        "traj_len": 3.016519174815624,
        "weighted_distance": 4.4920434387617965
    },
    "planner": "SBL",
    "start": {
        "state": {
            "elbow_joint": 1.919643534880228,
            "shoulder_lift_joint": -1.8972525353963687,
            "shoulder_pan_joint": -1.1188672234189438,
            "wrist_1_joint": -1.5931878212786155,
            "wrist_2_joint": 1.5706036197970081,
            "wrist_3_joint": 1.118896926603594
        }
    },
    "waypoints": [
        {
            "positions": [
                -1.1188672234189438,
                -1.8972525353963687,
                1.919643534880228,
                -1.5931878212786155,
                1.5706036197970081,
                1.118896926603594
            ]
        },
        {
            "positions": [
                -1.0738514344701786,
                -1.8685466206416828,
                1.9116355964961713,
                -1.545287234643847,
                1.4994831265134727,
                0.9416851739426448
            ]
        },
        {
            "positions": [
                -1.0288356455214132,
                -1.8398407058869968,
                1.9036276581121145,
                -1.4973866480090787,
                1.4283626332299375,
                0.7644734212816958
            ]
        },
        {
            "positions": [
                -0.9838198565726478,
                -1.8111347911323106,
                1.8956197197280578,
                -1.4494860613743104,
                1.357242139946402,
                0.5872616686207468
            ]
        },
        {
            "positions": [
                -0.9388040676238825,
                -1.7824288763776246,
                1.887611781344001,
                -1.401585474739542,
                1.2861216466628669,
                0.4100499159597977
            ]
        },
        {
            "positions": [
                -0.8937882786751172,
                -1.7537229616229386,
                1.8796038429599442,
                -1.3536848881047736,
                1.2150011533793315,
                0.23283816329884865
            ]
        },
        {
            "positions": [
                -0.8487724897263518,
                -1.7250170468682526,
                1.8715959045758874,
                -1.305784301470005,
                1.1438806600957963,
                0.05562641063789964
            ]
        },
        {
            "positions": [
                -0.8037567007775865,
                -1.6963111321135667,
                1.8635879661918306,
                -1.2578837148352366,
                1.0727601668122608,
                -0.12158534202304949
            ]
        },
        {
            "positions": [
                -0.7587409118288211,
                -1.6676052173588805,
                1.8555800278077739,
                -1.2099831282004683,
                1.0016396735287256,
                -0.2987970946839986
            ]
        },
        {
            "positions": [
                -0.7137251228800559,
                -1.6388993026041945,
                1.847572089423717,
                -1.1620825415657,
                0.9305191802451902,
                -0.4760088473449475
            ]
        },
        {
            "positions": [
                -0.6687093339312905,
                -1.6101933878495085,
                1.83956415103966,
                -1.1141819549309315,
                0.8593986869616549,
                -0.6532206000058967
            ]
        },
        {
            "positions": [
                -0.6236935449825252,
                -1.5814874730948225,
                1.8315562126556033,
                -1.066281368296163,
                0.7882781936781195,
                -0.8304323526668458
            ]
        },
        {
            "positions": [
                -0.5786777560337598,
                -1.5527815583401363,
                1.8235482742715465,
                -1.0183807816613948,
                0.7171577003945843,
                -1.0076441053277947
            ]
        },
        {
            "positions": [
                -0.5336619670849945,
                -1.5240756435854503,
                1.8155403358874898,
                -0.9704801950266263,
                0.6460372071110488,
                -1.184855857988744
            ]
        },
        {
            "positions": [
                -0.4886461781362291,
                -1.4953697288307644,
                1.807532397503433,
                -0.9225796083918579,
                0.5749167138275135,
                -1.362067610649693
            ]
        },
        {
            "positions": [
                -0.4436303891874638,
                -1.4666638140760784,
                1.7995244591193762,
                -0.8746790217570896,
                0.5037962205439781,
                -1.5392793633106423
            ]
        },
        {
            "positions": [
                -0.39861460023869844,
                -1.4379578993213924,
                1.7915165207353194,
                -0.8267784351223212,
                0.4326757272604429,
                -1.7164911159715912
            ]
        },
        {
            "positions": [
                -0.3535988112899331,
                -1.4092519845667062,
                1.7835085823512626,
                -0.7788778484875527,
                0.3615552339769075,
                -1.8937028686325401
            ]
        },
        {
            "positions": [
                -0.30858302234116775,
                -1.3805460698120204,
                1.7755006439672059,
                -0.7309772618527844,
                0.2904347406933723,
                -2.070914621293489
            ]
        },
        {
            "positions": [
                -0.26356723339240246,
                -1.3518401550573342,
                1.767492705583149,
                -0.683076675218016,
                0.2193142474098369,
                -2.248126373954438
            ]
        },
        {
            "positions": [
                -0.18620491102672826,
                -1.3089214864804612,
                1.8072693133691349,
                -0.6965142078689874,
                0.20235045299887236,
                -2.4412876308363445
            ]
        },
        {
            "positions": [
                -0.10884258866105406,
                -1.2660028179035883,
                1.8470459211551205,
                -0.7099517405199589,
                0.18538665858790784,
                -2.634448887718251
            ]
        },
        {
            "positions": [
                -0.03148026629537992,
                -1.2230841493267153,
                1.8868225289411062,
                -0.7233892731709304,
                0.1684228641769433,
                -2.827610144600157
            ]
        },
        {
            "positions": [
                0.04588205607029433,
                -1.1801654807498423,
                1.9265991367270918,
                -0.7368268058219019,
                0.15145906976597878,
                -3.0207714014820635
            ]
        },
        {
            "positions": [
                0.12324437843596849,
                -1.1372468121729693,
                1.9663757445130776,
                -0.7502643384728733,
                0.13449527535501424,
                -3.21393265836397
            ]
        }
    ]
}