{
    "goal": {
        "global_pose": {
            "orientation": {
                "w": 0.7047431468963623,
                "x": -0.7094548344612122,
                "y": 0.0024358443915843964,
                "z": -0.0022348060738295317
            },
            "position": {
                "x": 0.6094750761985779,
                "y": 0.3671506643295288,
                "z": 0.19426114857196808
            }
        },
        "name": "move_to_magneteinheit_A"
    },
    "id": "SBL_move_to_magneteinheit_A_77",
    "joint_names": [
        "shoulder_pan_joint",
        "shoulder_lift_joint",
        "elbow_joint",
        "wrist_1_joint",
        "wrist_2_joint",
        "wrist_3_joint"
    ],
    "metrics": {
        "cart_traj_len": 1.2317373805830885,
        "distance_elbow_joint": 0.3754533260855455,
        "distance_shoulder_lift_joint": 0.7490577499393045,
        "distance_shoulder_pan_joint": 1.2416914465589746,
        "distance_wrist_1_joint": 0.739000019453767,
        "distance_wrist_2_joint": 3.220207515344998,
        "distance_wrist_3_joint": 4.244657312070057,
        "smoothness": 0.29889858128640556,
        "time": 0.09723908,
        "traj_len": 3.2511640022386823,
        "weighted_distance": 4.797769224169866
    },
    "planner": "SBL",
    "start": {
        "state": {
            "elbow_joint": 1.919643534880228,
            "shoulder_lift_joint": -1.8972525353963687,
            "shoulder_pan_joint": -1.1188672234189438,
            "wrist_1_joint": -1.5931878212786155,
            "wrist_2_joint": 1.5706036197970081,
            "wrist_3_joint": 1.118896926603594
        }
    },
    "waypoints": [
        {
            "positions": [
                -1.1188672234189438,
                -1.8972525353963687,
                1.919643534880228,
                -1.5931878212786155,
                1.5706036197970081,
                1.118896926603594
            ]
        },
        {
            "positions": [
                -1.080228672588933,
                -1.8636548246287863,
                1.9105633944487046,
                -1.5681957951420842,
                1.4332578335819213,
                0.9669052566174766
            ]
        },
        {
            "positions": [
                -1.0415901217589223,
                -1.8300571138612038,
                1.901483254017181,
                -1.543203769005553,
                1.2959120473668344,
                0.8149135866313593
            ]
        },
        {
            "positions": [
                -1.0029515709289114,
                -1.7964594030936214,
                1.8924031135856576,
                -1.5182117428690214,
                1.1585662611517473,
                0.662921916645242
            ]
        },
        {
            "positions": [
                -0.9643130200989007,
                -1.762861692326039,
                1.883322973154134,
                -1.49321971673249,
                1.0212204749366607,
                0.5109302466591247
            ]
        },
        {
            "positions": [
                -0.92567446926889,
                -1.7292639815584565,
                1.8742428327226106,
                -1.4682276905959588,
                0.8838746887215736,
                0.3589385766730073
            ]
        },
        {
            "positions": [
                -0.8870359184388792,
                -1.695666270790874,
                1.865162692291087,
                -1.4432356644594275,
                0.7465289025064866,
                0.20694690668688998
            ]
        },
        {
            "positions": [
                -0.8483973676088683,
                -1.6620685600232918,
                1.8560825518595636,
                -1.418243638322896,
                0.6091831162913999,
                0.054955236700772625
            ]
        },
        {
            "positions": [
                -0.8097588167788576,
                -1.6284708492557094,
                1.8470024114280401,
                -1.3932516121863647,
                0.471837330076313,
                -0.09703643328534461
            ]
        },
        {
            "positions": [
                -0.7711202659488468,
                -1.594873138488127,
                1.8379222709965166,
                -1.3682595860498334,
                0.3344915438612259,
                -0.24902810327146208
            ]
        },
        {
            "positions": [
                -0.7324817151188361,
                -1.5612754277205445,
                1.8288421305649931,
                -1.3432675599133022,
                0.19714575764613906,
                -0.4010197732575793
            ]
        },
        {
            "positions": [
                -0.6938431642888252,
                -1.527677716952962,
                1.8197619901334696,
                -1.3182755337767706,
                0.0597999714310522,
                -0.5530114432436968
            ]
        },
        {
            "positions": [
                -0.6552046134588144,
                -1.4940800061853796,
                1.8106818497019461,
                -1.2932835076402394,
                -0.07754581478403488,
                -0.705003113229814
            ]
        },
        {
            "positions": [
                -0.6165660626288038,
                -1.4604822954177972,
                1.8016017092704226,
                -1.268291481503708,
                -0.21489160099912152,
                -0.8569947832159313
            ]
        },
        {
            "positions": [
                -0.5779275117987929,
                -1.4268845846502147,
                1.7925215688388991,
                -1.2432994553671768,
                -0.3522373872142084,
                -1.0089864532020487
            ]
        },
        {
            "positions": [
                -0.5392889609687821,
                -1.3932868738826323,
                1.7834414284073756,
                -1.2183074292306455,
                -0.48958317342929547,
                -1.1609781231881657
            ]
        },
        {
            "positions": [
                -0.5006504101387713,
                -1.3596891631150498,
                1.7743612879758521,
                -1.193315403094114,
                -0.6269289596443821,
                -1.3129697931742832
            ]
        },
        {
            "positions": [
                -0.46201185930876054,
                -1.3260914523474674,
                1.7652811475443286,
                -1.1683233769575827,
                -0.7642747458594694,
                -1.4649614631604009
            ]
        },
        {
            "positions": [
                -0.40352825106388146,
                -1.3083017856584271,
                1.7873902414192933,
                -1.1369098194443092,
                -0.6757418308906172,
                -1.631041355391007
            ]
        },
        {
            "positions": [
                -0.3450446428190023,
                -1.2905121189693867,
                1.8094993352942579,
                -1.1054962619310358,
                -0.587208915921765,
                -1.7971212476216134
            ]
        },
        {
            "positions": [
                -0.28656103457412324,
                -1.2727224522803464,
                1.8316084291692225,
                -1.0740827044177623,
                -0.4986760009529129,
                -1.9632011398522196
            ]
        },
        {
            "positions": [
                -0.2280774263292441,
                -1.2549327855913062,
                1.8537175230441871,
                -1.042669146904489,
                -0.41014308598406074,
                -2.129281032082826
            ]
        },
        {
            "positions": [
                -0.16959381808436502,
                -1.237143118902266,
                1.8758266169191518,
                -1.0112555893912156,
                -0.3216101710152086,
                -2.295360924313432
            ]
        },
        {
            "positions": [
                -0.11111020983948594,
                -1.2193534522132254,
                1.8979357107941162,
                -0.9798420318779422,
                -0.23307725604635643,
                -2.4614408165440382
            ]
        },
        {
            "positions": [
                -0.05262660159460686,
                -1.2015637855241852,
                1.9200448046690808,
                -0.9484284743646687,
                -0.14454434107750436,
                -2.6275207087746444
            ]
        },
        {
            "positions": [
                0.005857006650272334,
                -1.183774118835145,
                1.9421538985440454,
                -0.9170149168513952,
                -0.05601142610865206,
                -2.793600601005251
            ]
        },
        {
            "positions": [
                0.06434061489515142,
                -1.1659844521461045,
                1.96426299241901,
                -0.8856013593381218,
                0.03252148886020001,
                -2.959680493235857
            ]
        },
        {
            "positions": [
                0.12282422314003054,
                -1.1481947854570642,
                1.9863720862939747,
                -0.8541878018248484,
                0.12105440382905218,
                -3.1257603854664633
            ]
        }
    ]
}