{
    "goal": {
        "global_pose": {
            "orientation": {
                "w": 0.7047431468963623,
                "x": -0.7094548344612122,
                "y": 0.0024358443915843964,
                "z": -0.0022348060738295317
            },
            "position": {
                "x": 0.6094750761985779,
                "y": 0.3671506643295288,
                "z": 0.19426114857196808
            }
        },
        "name": "move_to_magneteinheit_A"
    },
    "id": "SBL_move_to_magneteinheit_A_141",
    "joint_names": [
        "shoulder_pan_joint",
        "shoulder_lift_joint",
        "elbow_joint",
        "wrist_1_joint",
        "wrist_2_joint",
        "wrist_3_joint"
    ],
    "metrics": {
        "cart_traj_len": 1.1929779004588013,
        "distance_elbow_joint": 0.18762005004261906,
        "distance_shoulder_lift_joint": 0.7648488336348094,
        "distance_shoulder_pan_joint": 1.2406712794444226,
        "distance_wrist_1_joint": 1.1827750111739332,
        "distance_wrist_2_joint": 1.4406877270900433,
        "distance_wrist_3_joint": 4.359546994608715,
        "smoothness": 0.11837248796816546,
        "time": 0.196610642,
        "traj_len": 3.0292160530398857,
        "weighted_distance": 4.529757898991507
    },
    "planner": "SBL",
    "start": {
        "state": {
            "elbow_joint": 1.919643534880228,
            "shoulder_lift_joint": -1.8972525353963687,
            "shoulder_pan_joint": -1.1188672234189438,
            "wrist_1_joint": -1.5931878212786155,
            "wrist_2_joint": 1.5706036197970081,
            "wrist_3_joint": 1.118896926603594
        }
    },
    "waypoints": [
        {
            "positions": [
                -1.1188672234189438,
                -1.8972525353963687,
                1.919643534880228,
                -1.5931878212786155,
                1.5706036197970081,
                1.118896926603594
            ]
        },
        {
            "positions": [
                -1.064409553857276,
                -1.8747374432965895,
                1.9157163428592099,
                -1.5390185063433848,
                1.5057053588911982,
                0.9351518990311214
            ]
        },
        {
            "positions": [
                -1.0099518842956081,
                -1.8522223511968101,
                1.9117891508381917,
                -1.4848491914081543,
                1.4408070979853882,
                0.7514068714586488
            ]
        },
        {
            "positions": [
                -0.9554942147339403,
                -1.829707259097031,
                1.9078619588171735,
                -1.4306798764729236,
                1.375908837079578,
                0.5676618438861762
            ]
        },
        {
            "positions": [
                -0.9010365451722724,
                -1.8071921669972517,
                1.9039347667961553,
                -1.3765105615376931,
                1.311010576173768,
                0.38391681631370367
            ]
        },
        {
            "positions": [
                -0.8465788756106045,
                -1.7846770748974725,
                1.900007574775137,
                -1.3223412466024624,
                1.246112315267958,
                0.2001717887412311
            ]
        },
        {
            "positions": [
                -0.7921212060489367,
                -1.7621619827976933,
                1.8960803827541188,
                -1.268171931667232,
                1.1812140543621479,
                0.01642676116875852
            ]
        },
        {
            "positions": [
                -0.7376635364872688,
                -1.739646890697914,
                1.8921531907331006,
                -1.2140026167320013,
                1.116315793456338,
                -0.16731826640371406
            ]
        },
        {
            "positions": [
                -0.6832058669256009,
                -1.7171317985981347,
                1.8882259987120824,
                -1.1598333017967706,
                1.051417532550528,
                -0.35106329397618663
            ]
        },
        {
            "positions": [
                -0.6287481973639331,
                -1.6946167064983555,
                1.8842988066910642,
                -1.10566398686154,
                0.986519271644718,
                -0.5348083215486592
            ]
        },
        {
            "positions": [
                -0.5742905278022651,
                -1.672101614398576,
                1.8803716146700458,
                -1.0514946719263096,
                0.9216210107389079,
                -0.7185533491211318
            ]
        },
        {
            "positions": [
                -0.5198328582405972,
                -1.6495865222987969,
                1.8764444226490276,
                -0.9973253569910788,
                0.8567227498330978,
                -0.9022983766936046
            ]
        },
        {
            "positions": [
                -0.46537518867892935,
                -1.6270714301990177,
                1.8725172306280093,
                -0.9431560420558482,
                0.7918244889272879,
                -1.086043404266077
            ]
        },
        {
            "positions": [
                -0.4109175191172614,
                -1.6045563380992385,
                1.8685900386069911,
                -0.8889867271206177,
                0.7269262280214778,
                -1.2697884318385497
            ]
        },
        {
            "positions": [
                -0.3564598495555936,
                -1.5820412459994593,
                1.864662846585973,
                -0.8348174121853871,
                0.6620279671156678,
                -1.453533459411022
            ]
        },
        {
            "positions": [
                -0.30200217999392565,
                -1.5595261538996799,
                1.8607356545649547,
                -0.7806480972501565,
                0.5971297062098577,
                -1.6372784869834949
            ]
        },
        {
            "positions": [
                -0.2475445104322579,
                -1.5370110617999007,
                1.8568084625439365,
                -0.7264787823149259,
                0.5322314453040478,
                -1.8210235145559672
            ]
        },
        {
            "positions": [
                -0.19308684087058992,
                -1.5144959697001212,
                1.8528812705229183,
                -0.6723094673796952,
                0.46733318439823757,
                -2.0047685421284402
            ]
        },
        {
            "positions": [
                -0.13862917130892216,
                -1.491980877600342,
                1.8489540785019,
                -0.6181401524444647,
                0.4024349234924278,
                -2.1885135697009126
            ]
        },
        {
            "positions": [
                -0.08417150174725427,
                -1.4694657855005628,
                1.8450268864808819,
                -0.5639708375092342,
                0.3375366625866175,
                -2.3722585972733854
            ]
        },
        {
            "positions": [
                -0.04297639019270775,
                -1.402053368752762,
                1.8676275668095363,
                -0.5946824429901445,
                0.296012508610687,
                -2.545936891419733
            ]
        },
        {
            "positions": [
                -0.0017812786381612294,
                -1.3346409520049614,
                1.890228247138191,
                -0.6253940484710548,
                0.2544883546347565,
                -2.71961518556608
            ]
        },
        {
            "positions": [
                0.03941383291638527,
                -1.2672285352571608,
                1.9128289274668455,
                -0.6561056539519651,
                0.21296420065882604,
                -2.8932934797124275
            ]
        },
        {
            "positions": [
                0.08060894447093181,
                -1.19981611850936,
                1.9354296077955002,
                -0.6868172594328754,
                0.1714400466828955,
                -3.066971773858775
            ]
        },
        {
            "positions": [
                0.12180405602547832,
                -1.1324037017615594,
                1.9580302881241547,
                -0.7175288649137858,
                0.12991589270696502,
                -3.240650068005122
            ]
        }
    ]
}