{
    "goal": {
        "global_pose": {
            "orientation": {
                "w": 0.7047431468963623,
                "x": -0.7094548344612122,
                "y": 0.0024358443915843964,
                "z": -0.0022348060738295317
            },
            "position": {
                "x": 0.6094750761985779,
                "y": 0.3671506643295288,
                "z": 0.19426114857196808
            }
        },
        "name": "move_to_magneteinheit_A"
    },
    "id": "SBL_move_to_magneteinheit_A_118",
    "joint_names": [
        "shoulder_pan_joint",
        "shoulder_lift_joint",
        "elbow_joint",
        "wrist_1_joint",
        "wrist_2_joint",
        "wrist_3_joint"
    ],
    "metrics": {
        "cart_traj_len": 1.7449270700491253,
        "distance_elbow_joint": 1.5365517897515486,
        "distance_shoulder_lift_joint": 0.7492554841765895,
        "distance_shoulder_pan_joint": 1.4281671243800311,
        "distance_wrist_1_joint": 0.7324110140604893,
        "distance_wrist_2_joint": 3.3238417380132828,
        "distance_wrist_3_joint": 4.234424503525458,
        "smoothness": 0.3217257374714505,
        "time": 0.185483381,
        "traj_len": 3.4647729584934415,
        "weighted_distance": 4.952752104944491
    },
    "planner": "SBL",
    "start": {
        "state": {
            "elbow_joint": 1.919643534880228,
            "shoulder_lift_joint": -1.8972525353963687,
            "shoulder_pan_joint": -1.1188672234189438,
            "wrist_1_joint": -1.5931878212786155,
            "wrist_2_joint": 1.5706036197970081,
            "wrist_3_joint": 1.118896926603594
        }
    },
    "waypoints": [
        {
            "positions": [
                -1.1188672234189438,
                -1.8972525353963687,
                1.919643534880228,
                -1.5931878212786155,
                1.5706036197970081,
                1.118896926603594
            ]
        },
        {
            "positions": [
                -1.1240421698312606,
                -1.8659813288281457,
                1.8788560950411486,
                -1.576020546688531,
                1.4381308808813031,
                0.9616566979791559
            ]
        },
        {
            "positions": [
                -1.1292171162435771,
                -1.8347101222599227,
                1.8380686552020689,
                -1.558853272098447,
                1.3056581419655982,
                0.8044164693547178
            ]
        },
        {
            "positions": [
                -1.1343920626558939,
                -1.8034389156916997,
                1.7972812153629891,
                -1.5416859975083628,
                1.173185403049893,
                0.6471762407302797
            ]
        },
        {
            "positions": [
                -1.1395670090682104,
                -1.7721677091234769,
                1.7564937755239096,
                -1.5245187229182784,
                1.040712664134188,
                0.4899360121058415
            ]
        },
        {
            "positions": [
                -1.1447419554805272,
                -1.7408965025552539,
                1.71570633568483,
                -1.507351448328194,
                0.9082399252184827,
                0.3326957834814034
            ]
        },
        {
            "positions": [
                -1.149916901892844,
                -1.7096252959870308,
                1.6749188958457504,
                -1.4901841737381099,
                0.7757671863027777,
                0.1754555548569653
            ]
        },
        {
            "positions": [
                -1.1550918483051604,
                -1.6783540894188078,
                1.6341314560066706,
                -1.4730168991480257,
                0.6432944473870726,
                0.018215326232527085
            ]
        },
        {
            "positions": [
                -1.1602667947174772,
                -1.6470828828505848,
                1.5933440161675911,
                -1.4558496245579413,
                0.5108217084713678,
                -0.139024902391911
            ]
        },
        {
            "positions": [
                -1.165441741129794,
                -1.615811676282362,
                1.5525565763285116,
                -1.438682349967857,
                0.37834896955566255,
                -0.2962651310163491
            ]
        },
        {
            "positions": [
                -1.1706166875421105,
                -1.5845404697141388,
                1.511769136489432,
                -1.4215150753777728,
                0.24587623063995734,
                -0.4535053596407872
            ]
        },
        {
            "positions": [
                -1.1757916339544272,
                -1.553269263145916,
                1.4709816966503522,
                -1.4043478007876884,
                0.11340349172425235,
                -0.6107455882652255
            ]
        },
        {
            "positions": [
                -1.1809665803667437,
                -1.521998056577693,
                1.4301942568112727,
                -1.3871805261976042,
                -0.019069247191452643,
                -0.7679858168896634
            ]
        },
        {
            "positions": [
                -1.1861415267790605,
                -1.49072685000947,
                1.3894068169721931,
                -1.3700132516075199,
                -0.15154198610715763,
                -0.9252260455141015
            ]
        },
        {
            "positions": [
                -1.1913164731913772,
                -1.459455643441247,
                1.3486193771331134,
                -1.3528459770174357,
                -0.28401472502286285,
                -1.0824662741385398
            ]
        },
        {
            "positions": [
                -1.1964914196036938,
                -1.4281844368730239,
                1.3078319372940337,
                -1.3356787024273515,
                -0.41648746393856784,
                -1.2397065027629781
            ]
        },
        {
            "positions": [
                -1.2016663660160105,
                -1.396913230304801,
                1.2670444974549542,
                -1.3185114278372672,
                -0.5489602028542726,
                -1.396946731387416
            ]
        },
        {
            "positions": [
                -1.206841312428327,
                -1.365642023736578,
                1.2262570576158747,
                -1.3013441532471828,
                -0.681432941769978,
                -1.5541869600118539
            ]
        },
        {
            "positions": [
                -1.2120162588406438,
                -1.334370817168355,
                1.185469617776795,
                -1.2841768786570986,
                -0.8139056806856831,
                -1.7114271886362924
            ]
        },
        {
            "positions": [
                -1.109322559690003,
                -1.3200343736338491,
                1.2471909925958808,
                -1.2516076423925622,
                -0.7416493393371762,
                -1.8194349108121057
            ]
        },
        {
            "positions": [
                -1.006628860539362,
                -1.3056979300993434,
                1.3089123674149665,
                -1.219038406128026,
                -0.6693929979886694,
                -1.9274426329879188
            ]
        },
        {
            "positions": [
                -0.9039351613887212,
                -1.2913614865648375,
                1.3706337422340524,
                -1.1864691698634897,
                -0.5971366566401625,
                -2.035450355163732
            ]
        },
        {
            "positions": [
                -0.8012414622380803,
                -1.2770250430303318,
                1.4323551170531381,
                -1.1538999335989533,
                -0.5248803152916556,
                -2.1434580773395453
            ]
        },
        {
            "positions": [
                -0.6985477630874395,
                -1.262688599495826,
                1.494076491872224,
                -1.1213306973344168,
                -0.4526239739431487,
                -2.2514657995153584
            ]
        },
        {
            "positions": [
                -0.5958540639367986,
                -1.24835215596132,
                1.5557978666913097,
                -1.0887614610698806,
                -0.3803676325946418,
                -2.359473521691172
            ]
        },
        {
            "positions": [
                -0.49316036478615777,
                -1.2340157124268143,
                1.6175192415103956,
                -1.0561922248053444,
                -0.3081112912461349,
                -2.467481243866985
            ]
        },
        {
            "positions": [
                -0.3904666656355169,
                -1.2196792688923084,
                1.6792406163294813,
                -1.023622988540808,
                -0.235854949897628,
                -2.5754889660427986
            ]
        },
        {
            "positions": [
                -0.28777296648487605,
                -1.2053428253578025,
                1.7409619911485672,
                -0.9910537522762716,
                -0.16359860854912112,
                -2.6834966882186118
            ]
        },
        {
            "positions": [
                -0.1850792673342352,
                -1.1910063818232968,
                1.802683365967653,
                -0.9584845160117352,
                -0.09134226720061422,
                -2.791504410394425
            ]
        },
        {
            "positions": [
                -0.08238556818359433,
                -1.1766699382887909,
                1.8644047407867388,
                -0.9259152797471989,
                -0.019085925852107333,
                -2.899512132570238
            ]
        },
        {
            "positions": [
                0.020308130967046534,
                -1.1623334947542852,
                1.9261261156058245,
                -0.8933460434826626,
                0.05317041549639956,
                -3.0075198547460515
            ]
        },
        {
            "positions": [
                0.12300183011768738,
                -1.1479970512197792,
                1.9878474904249104,
                -0.8607768072181262,
                0.12542675684490642,
                -3.1155275769218647
            ]
        }
    ]
}