{
    "goal": {
        "global_pose": {
            "orientation": {
                "w": 0.7047431468963623,
                "x": -0.7094548344612122,
                "y": 0.0024358443915843964,
                "z": -0.0022348060738295317
            },
            "position": {
                "x": 0.6094750761985779,
                "y": 0.3671506643295288,
                "z": 0.19426114857196808
            }
        },
        "name": "move_to_magneteinheit_A"
    },
    "id": "SBL_move_to_magneteinheit_A_127",
    "joint_names": [
        "shoulder_pan_joint",
        "shoulder_lift_joint",
        "elbow_joint",
        "wrist_1_joint",
        "wrist_2_joint",
        "wrist_3_joint"
    ],
    "metrics": {
        "cart_traj_len": 1.2172023714537594,
        "distance_elbow_joint": 0.0419573117366796,
        "distance_shoulder_lift_joint": 0.7714873617504316,
        "distance_shoulder_pan_joint": 1.2412759815094452,
        "distance_wrist_1_joint": 0.9020875242211497,
        "distance_wrist_2_joint": 1.4424418602956233,
        "distance_wrist_3_joint": 4.354396941860628,
        "smoothness": 0.21304899233611965,
        "time": 0.360003027,
        "traj_len": 2.9586562796942055,
        "weighted_distance": 4.450502246894387
    },
    "planner": "SBL",
    "start": {
        "state": {
            "elbow_joint": 1.919643534880228,
            "shoulder_lift_joint": -1.8972525353963687,
            "shoulder_pan_joint": -1.1188672234189438,
            "wrist_1_joint": -1.5931878212786155,
            "wrist_2_joint": 1.5706036197970081,
            "wrist_3_joint": 1.118896926603594
        }
    },
    "waypoints": [
        {
            "positions": [
                -1.1188672234189438,
                -1.8972525353963687,
                1.919643534880228,
                -1.5931878212786155,
                1.5706036197970081,
                1.118896926603594
            ]
        },
        {
            "positions": [
                -1.0630258734410254,
                -1.8623722412569639,
                1.919970870092485,
                -1.5530746179519195,
                1.5052737991729432,
                0.9219654937666378
            ]
        },
        {
            "positions": [
                -1.007184523463107,
                -1.8274919471175592,
                1.9202982053047417,
                -1.5129614146252235,
                1.4399439785488783,
                0.7250340609296817
            ]
        },
        {
            "positions": [
                -0.9513431734851887,
                -1.7926116529781546,
                1.9206255405169985,
                -1.4728482112985275,
                1.3746141579248135,
                0.5281026280927257
            ]
        },
        {
            "positions": [
                -0.8955018235072703,
                -1.7577313588387498,
                1.9209528757292553,
                -1.4327350079718315,
                1.3092843373007486,
                0.33117119525576943
            ]
        },
        {
            "positions": [
                -0.8396604735293518,
                -1.722851064699345,
                1.9212802109415121,
                -1.3926218046451355,
                1.2439545166766839,
                0.1342397624188134
            ]
        },
        {
            "positions": [
                -0.7838191235514335,
                -1.6879707705599403,
                1.921607546153769,
                -1.3525086013184395,
                1.178624696052619,
                -0.06269167041814261
            ]
        },
        {
            "positions": [
                -0.727977773573515,
                -1.6530904764205356,
                1.9219348813660257,
                -1.3123953979917435,
                1.113294875428554,
                -0.25962310325509885
            ]
        },
        {
            "positions": [
                -0.6721364235955967,
                -1.6182101822811308,
                1.9222622165782826,
                -1.2722821946650475,
                1.0479650548044892,
                -0.4565545360920551
            ]
        },
        {
            "positions": [
                -0.6162950736176782,
                -1.583329888141726,
                1.9225895517905394,
                -1.2321689913383516,
                0.9826352341804243,
                -0.6534859689290113
            ]
        },
        {
            "positions": [
                -0.5604537236397599,
                -1.5484495940023213,
                1.9229168870027962,
                -1.1920557880116556,
                0.9173054135563595,
                -0.8504174017659671
            ]
        },
        {
            "positions": [
                -0.5046123736618414,
                -1.5135692998629167,
                1.923244222215053,
                -1.1519425846849596,
                0.8519755929322946,
                -1.0473488346029234
            ]
        },
        {
            "positions": [
                -0.4487710236839231,
                -1.4786890057235118,
                1.9235715574273096,
                -1.1118293813582636,
                0.7866457723082299,
                -1.2442802674398792
            ]
        },
        {
            "positions": [
                -0.3929296737060046,
                -1.443808711584107,
                1.9238988926395664,
                -1.0717161780315676,
                0.7213159516841648,
                -1.4412117002768359
            ]
        },
        {
            "positions": [
                -0.33708832372808617,
                -1.4089284174447023,
                1.9242262278518232,
                -1.0316029747048716,
                0.6559861310601001,
                -1.6381431331137917
            ]
        },
        {
            "positions": [
                -0.28124697375016783,
                -1.3740481233052977,
                1.92455356306408,
                -0.9914897713781756,
                0.5906563104360353,
                -1.8350745659507475
            ]
        },
        {
            "positions": [
                -0.22540562377224937,
                -1.3391678291658928,
                1.9248808982763368,
                -0.9513765680514796,
                0.5253264898119703,
                -2.032005998787704
            ]
        },
        {
            "positions": [
                -0.16956427379433103,
                -1.304287535026488,
                1.9252082334885936,
                -0.9112633647247836,
                0.4599966691879054,
                -2.2289374316246597
            ]
        },
        {
            "positions": [
                -0.11372292381641258,
                -1.2694072408870833,
                1.9255355687008504,
                -0.8711501613980877,
                0.3946668485638405,
                -2.4258688644616164
            ]
        },
        {
            "positions": [
                -0.05788157383849413,
                -1.2345269467476787,
                1.9258629039131072,
                -0.8310369580713917,
                0.3293370279397758,
                -2.6228002972985722
            ]
        },
        {
            "positions": [
                -0.002040223860575896,
                -1.1996466526082739,
                1.926190239125364,
                -0.7909237547446957,
                0.2640072073157109,
                -2.819731730135528
            ]
        },
        {
            "positions": [
                0.05380112611734256,
                -1.164766358468869,
                1.9265175743376208,
                -0.7508105514179997,
                0.19867738669164603,
                -3.0166631629724847
            ]
        },
        {
            "positions": [
                0.1096424760952611,
                -1.1298860643294644,
                1.9268449095498776,
                -0.7106973480913037,
                0.13334756606758114,
                -3.2135945958094405
            ]
        },
        {
            "positions": [
                0.12240875809050149,
                -1.1340069550129916,
                1.9616008466169077,
                -0.7302943991251416,
                0.1281617595013849,
                -3.2355000152570335
            ]
        }
    ]
}