{
    "goal": {
        "global_pose": {
            "orientation": {
                "w": 0.7047431468963623,
                "x": -0.7094548344612122,
                "y": 0.0024358443915843964,
                "z": -0.0022348060738295317
            },
            "position": {
                "x": 0.6094750761985779,
                "y": 0.3671506643295288,
                "z": 0.19426114857196808
            }
        },
        "name": "move_to_magneteinheit_A"
    },
    "id": "SBL_move_to_magneteinheit_A_131",
    "joint_names": [
        "shoulder_pan_joint",
        "shoulder_lift_joint",
        "elbow_joint",
        "wrist_1_joint",
        "wrist_2_joint",
        "wrist_3_joint"
    ],
    "metrics": {
        "cart_traj_len": 1.2510555105432413,
        "distance_elbow_joint": 0.07911113262669844,
        "distance_shoulder_lift_joint": 1.1180661785802481,
        "distance_shoulder_pan_joint": 1.2433228677885957,
        "distance_wrist_1_joint": 3.5275559911486485,
        "distance_wrist_2_joint": 1.7107264252934589,
        "distance_wrist_3_joint": 1.1380756026161392,
        "smoothness": 1.4802973778883236e-16,
        "time": 0.383622719,
        "traj_len": 2.9693194839986132,
        "weighted_distance": 4.04119930462829
    },
    "planner": "SBL",
    "start": {
        "state": {
            "elbow_joint": 1.919643534880228,
            "shoulder_lift_joint": -1.8972525353963687,
            "shoulder_pan_joint": -1.1188672234189438,
            "wrist_1_joint": -1.5931878212786155,
            "wrist_2_joint": 1.5706036197970081,
            "wrist_3_joint": 1.118896926603594
        }
    },
    "waypoints": [
        {
            "positions": [
                -1.1188672234189438,
                -1.8972525353963687,
                1.919643534880228,
                -1.5931878212786155,
                1.5706036197970081,
                1.118896926603594
            ]
        },
        {
            "positions": [
                -1.0648097074281353,
                -1.8486409624146187,
                1.9230831493422584,
                -1.439815821663457,
                1.4962242100016403,
                1.069415378663762
            ]
        },
        {
            "positions": [
                -1.0107521914373268,
                -1.800029389432869,
                1.9265227638042888,
                -1.286443822048298,
                1.4218448002062725,
                1.0199338307239296
            ]
        },
        {
            "positions": [
                -0.9566946754465183,
                -1.751417816451119,
                1.9299623782663191,
                -1.1330718224331395,
                1.3474653904109049,
                0.9704522827840976
            ]
        },
        {
            "positions": [
                -0.9026371594557099,
                -1.7028062434693692,
                1.9334019927283497,
                -0.979699822817981,
                1.273085980615537,
                0.9209707348442654
            ]
        },
        {
            "positions": [
                -0.8485796434649013,
                -1.6541946704876191,
                1.93684160719038,
                -0.8263278232028224,
                1.1987065708201692,
                0.8714891869044332
            ]
        },
        {
            "positions": [
                -0.7945221274740928,
                -1.6055830975058694,
                1.9402812216524103,
                -0.6729558235876637,
                1.1243271610248016,
                0.8220076389646012
            ]
        },
        {
            "positions": [
                -0.7404646114832842,
                -1.5569715245241194,
                1.9437208361144407,
                -0.519583823972505,
                1.0499477512294337,
                0.772526091024769
            ]
        },
        {
            "positions": [
                -0.6864070954924758,
                -1.5083599515423693,
                1.947160450576471,
                -0.36621182435734645,
                0.9755683414340659,
                0.7230445430849368
            ]
        },
        {
            "positions": [
                -0.6323495795016673,
                -1.4597483785606196,
                1.9506000650385014,
                -0.21283982474218766,
                0.9011889316386981,
                0.6735629951451048
            ]
        },
        {
            "positions": [
                -0.5782920635108588,
                -1.4111368055788696,
                1.9540396795005317,
                -0.059467825127029306,
                0.8268095218433303,
                0.6240814472052726
            ]
        },
        {
            "positions": [
                -0.5242345475200503,
                -1.3625252325971196,
                1.957479293962562,
                0.09390417448812949,
                0.7524301120479626,
                0.5745998992654404
            ]
        },
        {
            "positions": [
                -0.47017703152924173,
                -1.3139136596153698,
                1.9609189084245926,
                0.24727617410328806,
                0.6780507022525948,
                0.5251183513256084
            ]
        },
        {
            "positions": [
                -0.4161195155384333,
                -1.26530208663362,
                1.964358522886623,
                0.40064817371844663,
                0.6036712924572271,
                0.4756368033857762
            ]
        },
        {
            "positions": [
                -0.36206199954762464,
                -1.2166905136518698,
                1.9677981373486533,
                0.5540201733336054,
                0.5292918826618591,
                0.426155255445944
            ]
        },
        {
            "positions": [
                -0.3080044835568162,
                -1.16807894067012,
                1.9712377518106836,
                0.707392172948764,
                0.4549124728664915,
                0.37667370750611184
            ]
        },
        {
            "positions": [
                -0.25394696756600776,
                -1.1194673676883702,
                1.974677366272714,
                0.8607641725639226,
                0.38053306307112367,
                0.3271921595662798
            ]
        },
        {
            "positions": [
                -0.19988945157519922,
                -1.0708557947066202,
                1.9781169807347443,
                1.0141361721790811,
                0.30615365327575605,
                0.2777106116264477
            ]
        },
        {
            "positions": [
                -0.14583193558439067,
                -1.0222442217248702,
                1.9815565951967746,
                1.1675081717942402,
                0.231774243480388,
                0.22822906368661544
            ]
        },
        {
            "positions": [
                -0.09177441959358212,
                -0.9736326487431203,
                1.9849962096588052,
                1.3208801714093987,
                0.15739483368502039,
                0.17874751574678338
            ]
        },
        {
            "positions": [
                -0.0377169036027738,
                -0.9250210757613704,
                1.9884358241208355,
                1.4742521710245569,
                0.08301542388965255,
                0.1292659678069512
            ]
        },
        {
            "positions": [
                0.016340612388034748,
                -0.8764095027796204,
                1.9918754385828659,
                1.6276241706397154,
                0.008636014094284938,
                0.07978441986711915
            ]
        },
        {
            "positions": [
                0.0703981283788433,
                -0.8277979297978704,
                1.9953150530448962,
                1.7809961702548744,
                -0.0657433957010829,
                0.030302871927286867
            ]
        },
        {
            "positions": [
                0.12445564436965192,
                -0.7791863568161205,
                1.9987546675069265,
                1.934368169870033,
                -0.1401228054964507,
                -0.01917867601254521
            ]
        }
    ]
}