{
    "goal": {
        "global_pose": {
            "orientation": {
                "w": 0.7047431468963623,
                "x": -0.7094548344612122,
                "y": 0.0024358443915843964,
                "z": -0.0022348060738295317
            },
            "position": {
                "x": 0.6094750761985779,
                "y": 0.3671506643295288,
                "z": 0.19426114857196808
            }
        },
        "name": "move_to_magneteinheit_A"
    },
    "id": "SBL_move_to_magneteinheit_A_133",
    "joint_names": [
        "shoulder_pan_joint",
        "shoulder_lift_joint",
        "elbow_joint",
        "wrist_1_joint",
        "wrist_2_joint",
        "wrist_3_joint"
    ],
    "metrics": {
        "cart_traj_len": 1.378918588971134,
        "distance_elbow_joint": 0.41773940002237664,
        "distance_shoulder_lift_joint": 1.0874361224940468,
        "distance_shoulder_pan_joint": 1.2406195224947665,
        "distance_wrist_1_joint": 1.0956799468510496,
        "distance_wrist_2_joint": 1.4374174574884953,
        "distance_wrist_3_joint": 4.257624410462007,
        "smoothness": 0.3188921912186583,
        "time": 0.233838084,
        "traj_len": 3.0881251366828937,
        "weighted_distance": 4.537054450309837
    },
    "planner": "SBL",
    "start": {
        "state": {
            "elbow_joint": 1.919643534880228,
            "shoulder_lift_joint": -1.8972525353963687,
            "shoulder_pan_joint": -1.1188672234189438,
            "wrist_1_joint": -1.5931878212786155,
            "wrist_2_joint": 1.5706036197970081,
            "wrist_3_joint": 1.118896926603594
        }
    },
    "waypoints": [
        {
            "positions": [
                -1.1188672234189438,
                -1.8972525353963687,
                1.919643534880228,
                -1.5931878212786155,
                1.5706036197970081,
                1.118896926603594
            ]
        },
        {
            "positions": [
                -1.0714752025108143,
                -1.8554767536342673,
                1.9116275220309924,
                -1.551013440079094,
                1.5093161674902096,
                0.9348558517712027
            ]
        },
        {
            "positions": [
                -1.024083181602685,
                -1.813700971872166,
                1.9036115091817567,
                -1.5088390588795724,
                1.448028715183411,
                0.7508147769388113
            ]
        },
        {
            "positions": [
                -0.9766911606945555,
                -1.7719251901100648,
                1.895595496332521,
                -1.466664677680051,
                1.3867412628766127,
                0.56677370210642
            ]
        },
        {
            "positions": [
                -0.9292991397864261,
                -1.7301494083479634,
                1.8875794834832853,
                -1.4244902964805293,
                1.3254538105698142,
                0.38273262727402857
            ]
        },
        {
            "positions": [
                -0.8819071188782965,
                -1.688373626585862,
                1.8795634706340496,
                -1.3823159152810078,
                1.2641663582630156,
                0.19869155244163728
            ]
        },
        {
            "positions": [
                -0.8345150979701672,
                -1.6465978448237606,
                1.871547457784814,
                -1.3401415340814862,
                1.202878905956217,
                0.014650477609245982
            ]
        },
        {
            "positions": [
                -0.7871230770620377,
                -1.6048220630616594,
                1.8635314449355782,
                -1.2979671528819647,
                1.1415914536494185,
                -0.16939059722314553
            ]
        },
        {
            "positions": [
                -0.7397310561539082,
                -1.563046281299558,
                1.8555154320863425,
                -1.2557927716824433,
                1.0803040013426202,
                -0.3534316720555368
            ]
        },
        {
            "positions": [
                -0.6923390352457788,
                -1.5212704995374566,
                1.8474994192371068,
                -1.2136183904829216,
                1.0190165490358214,
                -0.5374727468879283
            ]
        },
        {
            "positions": [
                -0.6449470143376493,
                -1.4794947177753552,
                1.8394834063878711,
                -1.1714440092834002,
                0.9577290967290231,
                -0.7215138217203194
            ]
        },
        {
            "positions": [
                -0.5975549934295199,
                -1.4377189360132538,
                1.8314673935386354,
                -1.1292696280838785,
                0.8964416444222245,
                -0.9055548965527109
            ]
        },
        {
            "positions": [
                -0.5501629725213905,
                -1.3959431542511527,
                1.8234513806894,
                -1.087095246884357,
                0.8351541921154261,
                -1.089595971385102
            ]
        },
        {
            "positions": [
                -0.502770951613261,
                -1.3541673724890513,
                1.8154353678401642,
                -1.0449208656848357,
                0.7738667398086274,
                -1.273637046217494
            ]
        },
        {
            "positions": [
                -0.4553789307051316,
                -1.3123915907269499,
                1.8074193549909285,
                -1.002746484485314,
                0.712579287501829,
                -1.457678121049885
            ]
        },
        {
            "positions": [
                -0.40798690979700214,
                -1.2706158089648487,
                1.7994033421416928,
                -0.9605721032857925,
                0.6512918351950305,
                -1.641719195882276
            ]
        },
        {
            "positions": [
                -0.3605948888888726,
                -1.228840027202747,
                1.7913873292924571,
                -0.9183977220862709,
                0.590004382888232,
                -1.8257602707146676
            ]
        },
        {
            "positions": [
                -0.31320286798074326,
                -1.187064245440646,
                1.7833713164432214,
                -0.8762233408867494,
                0.5287169305814334,
                -2.009801345547059
            ]
        },
        {
            "positions": [
                -0.2658108470726137,
                -1.1452884636785445,
                1.7753553035939857,
                -0.8340489596872278,
                0.4674294782746349,
                -2.1938424203794504
            ]
        },
        {
            "positions": [
                -0.21841882616448427,
                -1.1035126819164431,
                1.76733929074475,
                -0.7918745784877064,
                0.40614202596783633,
                -2.377883495211842
            ]
        },
        {
            "positions": [
                -0.17102680525635483,
                -1.061736900154342,
                1.7593232778955143,
                -0.7497001972881848,
                0.344854573661038,
                -2.5619245700442326
            ]
        },
        {
            "positions": [
                -0.12363478434822539,
                -1.0199611183922404,
                1.7513072650462786,
                -0.7075258160886633,
                0.28356712135423945,
                -2.745965644876625
            ]
        },
        {
            "positions": [
                -0.07624276344009605,
                -0.9781853366301392,
                1.743291252197043,
                -0.6653514348891417,
                0.22227966904744081,
                -2.9300067197090156
            ]
        },
        {
            "positions": [
                -0.010244409268123117,
                -1.0343083112060782,
                1.82375362464344,
                -0.7212992883763336,
                0.1925818334677982,
                -2.9995803077588143
            ]
        },
        {
            "positions": [
                0.055753944903849814,
                -1.0904312857820173,
                1.9042159970898374,
                -0.7772471418635256,
                0.1628839978881556,
                -3.069153895808613
            ]
        },
        {
            "positions": [
                0.12175229907582275,
                -1.1465542603579564,
                1.9846783695362344,
                -0.8331949953507175,
                0.133186162308513,
                -3.138727483858412
            ]
        }
    ]
}