{
    "goal": {
        "global_pose": {
            "orientation": {
                "w": 0.7047431468963623,
                "x": -0.7094548344612122,
                "y": 0.0024358443915843964,
                "z": -0.0022348060738295317
            },
            "position": {
                "x": 0.6094750761985779,
                "y": 0.3671506643295288,
                "z": 0.19426114857196808
            }
        },
        "name": "move_to_magneteinheit_A"
    },
    "id": "SBL_move_to_magneteinheit_A_10",
    "joint_names": [
        "shoulder_pan_joint",
        "shoulder_lift_joint",
        "elbow_joint",
        "wrist_1_joint",
        "wrist_2_joint",
        "wrist_3_joint"
    ],
    "metrics": {
        "cart_traj_len": 1.5553146306283452,
        "distance_elbow_joint": 1.53444332146811,
        "distance_shoulder_lift_joint": 0.7613034332746176,
        "distance_shoulder_pan_joint": 1.241824532563391,
        "distance_wrist_1_joint": 0.8640526055197774,
        "distance_wrist_2_joint": 1.4712255326372627,
        "distance_wrist_3_joint": 4.360071091637375,
        "smoothness": 0.12142404045195779,
        "time": 0.218521905,
        "traj_len": 3.198893639541729,
        "weighted_distance": 4.613929002328961
    },
    "planner": "SBL",
    "start": {
        "state": {
            "elbow_joint": 1.919643534880228,
            "shoulder_lift_joint": -1.8972525353963687,
            "shoulder_pan_joint": -1.1188672234189438,
            "wrist_1_joint": -1.5931878212786155,
            "wrist_2_joint": 1.5706036197970081,
            "wrist_3_joint": 1.118896926603594
        }
    },
    "waypoints": [
        {
            "positions": [
                -1.1188672234189438,
                -1.8972525353963687,
                1.919643534880228,
                -1.5931878212786155,
                1.5706036197970081,
                1.118896926603594
            ]
        },
        {
            "positions": [
                -1.0805125097982737,
                -1.8822439674232645,
                1.8841475951238775,
                -1.5676302979546917,
                1.5014738111732693,
                0.9176077620092793
            ]
        },
        {
            "positions": [
                -1.0421577961776036,
                -1.8672353994501603,
                1.8486516553675267,
                -1.5420727746307679,
                1.4323440025495302,
                0.7163185974149646
            ]
        },
        {
            "positions": [
                -1.0038030825569335,
                -1.852226831477056,
                1.8131557156111762,
                -1.516515251306844,
                1.3632141939257914,
                0.51502943282065
            ]
        },
        {
            "positions": [
                -0.9654483689362635,
                -1.8372182635039518,
                1.7776597758548256,
                -1.4909577279829203,
                1.2940843853020523,
                0.3137402682263353
            ]
        },
        {
            "positions": [
                -0.9270936553155935,
                -1.8222096955308476,
                1.7421638360984748,
                -1.4654002046589965,
                1.2249545766783134,
                0.1124511036320206
            ]
        },
        {
            "positions": [
                -0.8887389416949234,
                -1.8072011275577435,
                1.7066678963421242,
                -1.4398426813350726,
                1.1558247680545746,
                -0.08883806096229407
            ]
        },
        {
            "positions": [
                -0.8503842280742533,
                -1.7921925595846393,
                1.6711719565857734,
                -1.4142851580111488,
                1.0866949594308357,
                -0.29012722555660875
            ]
        },
        {
            "positions": [
                -0.8120295144535832,
                -1.777183991611535,
                1.6356760168294229,
                -1.388727634687225,
                1.0175651508070966,
                -0.4914163901509234
            ]
        },
        {
            "positions": [
                -0.7736748008329131,
                -1.7621754236384308,
                1.6001800770730723,
                -1.3631701113633012,
                0.9484353421833577,
                -0.6927055547452381
            ]
        },
        {
            "positions": [
                -0.7353200872122431,
                -1.7471668556653266,
                1.5646841373167215,
                -1.3376125880393772,
                0.8793055335596188,
                -0.8939947193395528
            ]
        },
        {
            "positions": [
                -0.696965373591573,
                -1.7321582876922224,
                1.529188197560371,
                -1.3120550647154534,
                0.8101757249358797,
                -1.0952838839338679
            ]
        },
        {
            "positions": [
                -0.658610659970903,
                -1.7171497197191181,
                1.4936922578040202,
                -1.2864975413915296,
                0.7410459163121409,
                -1.2965730485281821
            ]
        },
        {
            "positions": [
                -0.6202559463502328,
                -1.7021411517460139,
                1.4581963180476696,
                -1.2609400180676058,
                0.6719161076884019,
                -1.4978622131224972
            ]
        },
        {
            "positions": [
                -0.5819012327295627,
                -1.6871325837729096,
                1.422700378291319,
                -1.235382494743682,
                0.6027862990646631,
                -1.6991513777168115
            ]
        },
        {
            "positions": [
                -0.5435465191088926,
                -1.6721240157998054,
                1.3872044385349682,
                -1.2098249714197582,
                0.533656490440924,
                -1.9004405423111266
            ]
        },
        {
            "positions": [
                -0.5051918054882226,
                -1.6571154478267014,
                1.3517084987786177,
                -1.1842674480958344,
                0.46452668181718515,
                -2.1017297069054406
            ]
        },
        {
            "positions": [
                -0.4668370918675525,
                -1.6421068798535972,
                1.3162125590222669,
                -1.1587099247719106,
                0.3953968731934461,
                -2.3030188714997557
            ]
        },
        {
            "positions": [
                -0.4284823782468824,
                -1.627098311880493,
                1.2807166192659163,
                -1.1331524014479868,
                0.3262670645697072,
                -2.50430803609407
            ]
        },
        {
            "positions": [
                -0.3901276646262123,
                -1.6120897439073887,
                1.2452206795095657,
                -1.107594878124063,
                0.25713725594596837,
                -2.705597200688385
            ]
        },
        {
            "positions": [
                -0.3517729510055423,
                -1.5970811759342844,
                1.2097247397532152,
                -1.0820373548001392,
                0.18800744732222952,
                -2.9068863652826993
            ]
        },
        {
            "positions": [
                -0.3134182373848722,
                -1.5820726079611802,
                1.1742287999968644,
                -1.0564798314762154,
                0.11887763869849055,
                -3.108175529877015
            ]
        },
        {
            "positions": [
                -0.24068897962998567,
                -1.5077186903212754,
                1.3057335644276553,
                -1.0019223955233192,
                0.12212756395494813,
                -3.130341969069809
            ]
        },
        {
            "positions": [
                -0.16795972187509917,
                -1.4333647726813705,
                1.4372383288584465,
                -0.947364959570423,
                0.1253774892114057,
                -3.152508408262603
            ]
        },
        {
            "positions": [
                -0.09523046412021266,
                -1.3590108550414657,
                1.5687430932892374,
                -0.8928075236175268,
                0.12862741446786327,
                -3.174674847455397
            ]
        },
        {
            "positions": [
                -0.022501206365326154,
                -1.2846569374015608,
                1.7002478577200284,
                -0.8382500876646306,
                0.13187733972432084,
                -3.1968412866481906
            ]
        },
        {
            "positions": [
                0.05022805138956038,
                -1.210303019761656,
                1.8317526221508196,
                -0.7836926517117343,
                0.13512726498077843,
                -3.2190077258409846
            ]
        },
        {
            "positions": [
                0.12295730914444686,
                -1.1359491021217512,
                1.9632573865816105,
                -0.7291352157588381,
                0.138377190237236,
                -3.2411741650337786
            ]
        }
    ]
}