{
    "goal": {
        "global_pose": {
            "orientation": {
                "w": 0.7047431468963623,
                "x": -0.7094548344612122,
                "y": 0.0024358443915843964,
                "z": -0.0022348060738295317
            },
            "position": {
                "x": 0.6094750761985779,
                "y": 0.3671506643295288,
                "z": 0.19426114857196808
            }
        },
        "name": "move_to_magneteinheit_A"
    },
    "id": "SBL_move_to_magneteinheit_A_67",
    "joint_names": [
        "shoulder_pan_joint",
        "shoulder_lift_joint",
        "elbow_joint",
        "wrist_1_joint",
        "wrist_2_joint",
        "wrist_3_joint"
    ],
    "metrics": {
        "cart_traj_len": 1.3410679051349852,
        "distance_elbow_joint": 1.7180021616218548,
        "distance_shoulder_lift_joint": 2.363574985678894,
        "distance_shoulder_pan_joint": 2.4137665886717077,
        "distance_wrist_1_joint": 3.3961696038696276,
        "distance_wrist_2_joint": 2.570906206910545,
        "distance_wrist_3_joint": 7.085928050401662,
        "smoothness": 0.4833801016139679,
        "time": 0.262099593,
        "traj_len": 4.421351331567566,
        "weighted_distance": 6.299784084295093
    },
    "planner": "SBL",
    "start": {
        "state": {
            "elbow_joint": 1.919643534880228,
            "shoulder_lift_joint": -1.8972525353963687,
            "shoulder_pan_joint": -1.1188672234189438,
            "wrist_1_joint": -1.5931878212786155,
            "wrist_2_joint": 1.5706036197970081,
            "wrist_3_joint": 1.118896926603594
        }
    },
    "waypoints": [
        {
            "positions": [
                -1.1188672234189438,
                -1.8972525353963687,
                1.919643534880228,
                -1.5931878212786155,
                1.5706036197970081,
                1.118896926603594
            ]
        },
        {
            "positions": [
                -1.1514559749241693,
                -1.9419716301547791,
                1.9690011471459619,
                -1.666023536880303,
                1.458934526700148,
                1.197209030790694
            ]
        },
        {
            "positions": [
                -1.1840447264293945,
                -1.9866907249131898,
                2.018358759411696,
                -1.7388592524819901,
                1.3472654336032877,
                1.2755211349777942
            ]
        },
        {
            "positions": [
                -1.21663347793462,
                -2.0314098196716,
                2.0677163716774296,
                -1.8116949680836776,
                1.2355963405064274,
                1.3538332391648944
            ]
        },
        {
            "positions": [
                -1.2492222294398454,
                -2.0761289144300106,
                2.1170739839431634,
                -1.8845306836853648,
                1.1239272474095672,
                1.4321453433519944
            ]
        },
        {
            "positions": [
                -1.2818109809450706,
                -2.120848009188421,
                2.1664315962088976,
                -1.9573663992870522,
                1.0122581543127067,
                1.5104574475390944
            ]
        },
        {
            "positions": [
                -1.314399732450296,
                -2.1655671039468314,
                2.2157892084746313,
                -2.0302021148887395,
                0.9005890612158466,
                1.5887695517261946
            ]
        },
        {
            "positions": [
                -1.3469884839555215,
                -2.210286198705242,
                2.265146820740365,
                -2.103037830490427,
                0.7889199681189862,
                1.6670816559132948
            ]
        },
        {
            "positions": [
                -1.3795772354607467,
                -2.2550052934636526,
                2.314504433006099,
                -2.1758735460921144,
                0.6772508750221261,
                1.7453937601003948
            ]
        },
        {
            "positions": [
                -1.4121659869659722,
                -2.299724388222063,
                2.3638620452718326,
                -2.2487092616938016,
                0.5655817819252658,
                1.8237058642874948
            ]
        },
        {
            "positions": [
                -1.4447547384711976,
                -2.3444434829804734,
                2.4132196575375664,
                -2.3215449772954893,
                0.4539126888284055,
                1.902017968474595
            ]
        },
        {
            "positions": [
                -1.4773434899764228,
                -2.389162577738884,
                2.4625772698033006,
                -2.3943806928971765,
                0.34224359573154506,
                1.9803300726616953
            ]
        },
        {
            "positions": [
                -1.5099322414816483,
                -2.4338816724972943,
                2.5119348820690344,
                -2.4672164084988637,
                0.23057450263468504,
                2.058642176848795
            ]
        },
        {
            "positions": [
                -1.5425209929868737,
                -2.478600767255705,
                2.561292494334768,
                -2.5400521241005514,
                0.1189054095378248,
                2.1369542810358952
            ]
        },
        {
            "positions": [
                -1.575109744492099,
                -2.523319862014115,
                2.610650106600502,
                -2.6128878397022386,
                0.007236316440964341,
                2.2152663852229955
            ]
        },
        {
            "positions": [
                -1.6076984959973244,
                -2.5680389567725257,
                2.660007718866236,
                -2.685723555303926,
                -0.1044327766558959,
                2.2935784894100957
            ]
        },
        {
            "positions": [
                -1.6402872475025498,
                -2.6127580515309363,
                2.70936533113197,
                -2.758559270905613,
                -0.21610186975275592,
                2.371890593597196
            ]
        },
        {
            "positions": [
                -1.672875999007775,
                -2.6574771462893465,
                2.7587229433977036,
                -2.8313949865073003,
                -0.3277709628496164,
                2.4502026977842957
            ]
        },
        {
            "positions": [
                -1.7054647505130005,
                -2.702196241047757,
                2.8080805556634374,
                -2.904230702108988,
                -0.4394400559464766,
                2.528514801971396
            ]
        },
        {
            "positions": [
                -1.648365717338699,
                -2.6534890135468974,
                2.78215664501223,
                -2.8390704920140113,
                -0.4219131018475062,
                2.3511301090015877
            ]
        },
        {
            "positions": [
                -1.5912666841643972,
                -2.604781786046038,
                2.756232734361022,
                -2.773910281919034,
                -0.4043861477485357,
                2.1737454160317795
            ]
        },
        {
            "positions": [
                -1.5341676509900957,
                -2.5560745585451783,
                2.7303088237098145,
                -2.7087500718240576,
                -0.3868591936495653,
                1.996360723061971
            ]
        },
        {
            "positions": [
                -1.4770686178157941,
                -2.507367331044319,
                2.7043849130586066,
                -2.643589861729081,
                -0.3693322395505948,
                1.818976030092163
            ]
        },
        {
            "positions": [
                -1.4199695846414924,
                -2.458660103543459,
                2.678461002407399,
                -2.578429651634104,
                -0.35180528545162437,
                1.6415913371223547
            ]
        },
        {
            "positions": [
                -1.3628705514671908,
                -2.4099528760426,
                2.6525370917561912,
                -2.5132694415391272,
                -0.33427833135265395,
                1.4642066441525463
            ]
        },
        {
            "positions": [
                -1.305771518292889,
                -2.36124564854174,
                2.6266131811049838,
                -2.4481092314441506,
                -0.3167513772536835,
                1.2868219511827381
            ]
        },
        {
            "positions": [
                -1.2486724851185875,
                -2.3125384210408804,
                2.600689270453776,
                -2.3829490213491735,
                -0.29922442315471304,
                1.10943725821293
            ]
        },
        {
            "positions": [
                -1.191573451944286,
                -2.263831193540021,
                2.5747653598025684,
                -2.317788811254197,
                -0.28169746905574256,
                0.9320525652431217
            ]
        },
        {
            "positions": [
                -1.1344744187699842,
                -2.2151239660391613,
                2.548841449151361,
                -2.25262860115922,
                -0.26417051495677213,
                0.7546678722733136
            ]
        },
        {
            "positions": [
                -1.0773753855956827,
                -2.1664167385383015,
                2.522917538500153,
                -2.187468391064243,
                -0.2466435608578017,
                0.5772831793035051
            ]
        },
        {
            "positions": [
                -1.020276352421381,
                -2.117709511037442,
                2.496993627848945,
                -2.1223081809692665,
                -0.22911660675883125,
                0.39989848633369673
            ]
        },
        {
            "positions": [
                -0.9631773192470794,
                -2.0690022835365824,
                2.4710697171977376,
                -2.05714797087429,
                -0.2115896526598608,
                0.22251379336388855
            ]
        },
        {
            "positions": [
                -0.9060782860727778,
                -2.020295056035723,
                2.44514580654653,
                -1.9919877607793128,
                -0.19406269856089037,
                0.04512910039408036
            ]
        },
        {
            "positions": [
                -0.8489792528984762,
                -1.9715878285348634,
                2.419221895895322,
                -1.9268275506843362,
                -0.17653574446191989,
                -0.13225559257572783
            ]
        },
        {
            "positions": [
                -0.7918802197241745,
                -1.9228806010340038,
                2.3932979852441147,
                -1.8616673405893593,
                -0.15900879036294946,
                -0.309640285545536
            ]
        },
        {
            "positions": [
                -0.7347811865498729,
                -1.8741733735331443,
                2.367374074592907,
                -1.7965071304943825,
                -0.14148183626397903,
                -0.4870249785153442
            ]
        },
        {
            "positions": [
                -0.6776821533755713,
                -1.8254661460322845,
                2.3414501639416994,
                -1.7313469203994059,
                -0.12395488216500855,
                -0.6644096714851524
            ]
        },
        {
            "positions": [
                -0.6205831202012697,
                -1.7767589185314252,
                2.3155262532904914,
                -1.666186710304429,
                -0.10642792806603812,
                -0.8417943644549606
            ]
        },
        {
            "positions": [
                -0.563484087026968,
                -1.7280516910305654,
                2.289602342639284,
                -1.6010265002094521,
                -0.08890097396706764,
                -1.0191790574247688
            ]
        },
        {
            "positions": [
                -0.5063850538526664,
                -1.679344463529706,
                2.263678431988076,
                -1.5358662901144755,
                -0.07137401986809722,
                -1.1965637503945774
            ]
        },
        {
            "positions": [
                -0.4492860206783649,
                -1.6306372360288464,
                2.2377545213368686,
                -1.4707060800194987,
                -0.05384706576912679,
                -1.3739484433643856
            ]
        },
        {
            "positions": [
                -0.3921869875040631,
                -1.5819300085279868,
                2.211830610685661,
                -1.4055458699245218,
                -0.03632011167015631,
                -1.5513331363341938
            ]
        },
        {
            "positions": [
                -0.3350879543297616,
                -1.5332227810271273,
                2.185906700034453,
                -1.3403856598295452,
                -0.01879315757118588,
                -1.7287178293040024
            ]
        },
        {
            "positions": [
                -0.27798892115546003,
                -1.4845155535262675,
                2.1599827893832457,
                -1.2752254497345683,
                -0.0012662034722154547,
                -1.9061025222738102
            ]
        },
        {
            "positions": [
                -0.22088988798115827,
                -1.435808326025408,
                2.134058878732038,
                -1.2100652396395915,
                0.016260750626755027,
                -2.083487215243619
            ]
        },
        {
            "positions": [
                -0.16379085480685673,
                -1.3871010985245484,
                2.1081349680808303,
                -1.1449050295446146,
                0.033787704725725454,
                -2.2608719082134265
            ]
        },
        {
            "positions": [
                -0.1066918216325552,
                -1.338393871023689,
                2.0822110574296224,
                -1.079744819449638,
                0.05131465882469588,
                -2.438256601183235
            ]
        },
        {
            "positions": [
                -0.049592788458253434,
                -1.2896866435228294,
                2.056287146778415,
                -1.014584609354661,
                0.0688416129236663,
                -2.615641294153043
            ]
        },
        {
            "positions": [
                0.007506244716048105,
                -1.2409794160219696,
                2.030363236127207,
                -0.9494243992596842,
                0.08636856702263684,
                -2.7930259871228516
            ]
        },
        {
            "positions": [
                0.06460527789034987,
                -1.19227218852111,
                2.0044393254759996,
                -0.8842641891647074,
                0.10389552112160727,
                -2.9704106800926593
            ]
        },
        {
            "positions": [
                0.12170431106465149,
                -1.1435649610202505,
                1.9785154148247919,
                -0.8191039790697306,
                0.12142247522057768,
                -3.1477953730624675
            ]
        }
    ]
}