{
    "goal": {
        "global_pose": {
            "orientation": {
                "w": 0.7047431468963623,
                "x": -0.7094548344612122,
                "y": 0.0024358443915843964,
                "z": -0.0022348060738295317
            },
            "position": {
                "x": 0.6094750761985779,
                "y": 0.3671506643295288,
                "z": 0.19426114857196808
            }
        },
        "name": "move_to_magneteinheit_A"
    },
    "id": "SBL_move_to_magneteinheit_A_140",
    "joint_names": [
        "shoulder_pan_joint",
        "shoulder_lift_joint",
        "elbow_joint",
        "wrist_1_joint",
        "wrist_2_joint",
        "wrist_3_joint"
    ],
    "metrics": {
        "cart_traj_len": 1.2501092577839776,
        "distance_elbow_joint": 0.07266113063546498,
        "distance_shoulder_lift_joint": 1.1198999156683087,
        "distance_shoulder_pan_joint": 1.2415168918282953,
        "distance_wrist_1_joint": 3.518498375106043,
        "distance_wrist_2_joint": 1.6902209840746851,
        "distance_wrist_3_joint": 1.1210943585017639,
        "smoothness": 1.4802973778883236e-16,
        "time": 0.210185317,
        "traj_len": 2.96038707871362,
        "weighted_distance": 4.026760451280759
    },
    "planner": "SBL",
    "start": {
        "state": {
            "elbow_joint": 1.919643534880228,
            "shoulder_lift_joint": -1.8972525353963687,
            "shoulder_pan_joint": -1.1188672234189438,
            "wrist_1_joint": -1.5931878212786155,
            "wrist_2_joint": 1.5706036197970081,
            "wrist_3_joint": 1.118896926603594
        }
    },
    "waypoints": [
        {
            "positions": [
                -1.1188672234189438,
                -1.8972525353963687,
                1.919643534880228,
                -1.5931878212786155,
                1.5706036197970081,
                1.118896926603594
            ]
        },
        {
            "positions": [
                -1.0648882281220615,
                -1.848561234715138,
                1.9228027144730744,
                -1.4402096310566137,
                1.4971157509241957,
                1.0701536936252565
            ]
        },
        {
            "positions": [
                -1.010909232825179,
                -1.799869934033907,
                1.9259618940659207,
                -1.2872314408346117,
                1.4236278820513832,
                1.0214104606469188
            ]
        },
        {
            "positions": [
                -0.9569302375282966,
                -1.7511786333526762,
                1.929121073658767,
                -1.13425325061261,
                1.350140013178571,
                0.9726672276685813
            ]
        },
        {
            "positions": [
                -0.9029512422314142,
                -1.7024873326714456,
                1.9322802532516132,
                -0.9812750603906081,
                1.2766521443057586,
                0.9239239946902438
            ]
        },
        {
            "positions": [
                -0.8489722469345318,
                -1.6537960319902147,
                1.9354394328444595,
                -0.8282968701686062,
                1.2031642754329461,
                0.8751807617119062
            ]
        },
        {
            "positions": [
                -0.7949932516376494,
                -1.605104731308984,
                1.938598612437306,
                -0.6753186799466043,
                1.1296764065601337,
                0.8264375287335686
            ]
        },
        {
            "positions": [
                -0.741014256340767,
                -1.556413430627753,
                1.9417577920301523,
                -0.5223404897246025,
                1.0561885376873215,
                0.7776942957552311
            ]
        },
        {
            "positions": [
                -0.6870352610438846,
                -1.5077221299465222,
                1.9449169716229986,
                -0.3693622995026007,
                0.982700668814509,
                0.7289510627768935
            ]
        },
        {
            "positions": [
                -0.6330562657470022,
                -1.4590308292652914,
                1.9480761512158449,
                -0.2163841092805987,
                0.9092127999416966,
                0.6802078297985559
            ]
        },
        {
            "positions": [
                -0.5790772704501198,
                -1.4103395285840605,
                1.9512353308086912,
                -0.06340591905859694,
                0.8357249310688842,
                0.6314645968202184
            ]
        },
        {
            "positions": [
                -0.5250982751532374,
                -1.3616482279028297,
                1.9543945104015374,
                0.08957227116340505,
                0.7622370621960718,
                0.5827213638418808
            ]
        },
        {
            "positions": [
                -0.47111927985635504,
                -1.3129569272215988,
                1.9575536899943837,
                0.2425504613854068,
                0.6887491933232593,
                0.5339781308635433
            ]
        },
        {
            "positions": [
                -0.4171402845594726,
                -1.2642656265403682,
                1.96071286958723,
                0.3955286516074086,
                0.615261324450447,
                0.4852348978852058
            ]
        },
        {
            "positions": [
                -0.36316128926259017,
                -1.2155743258591372,
                1.9638720491800763,
                0.5485068418294106,
                0.5417734555776346,
                0.4364916649068681
            ]
        },
        {
            "positions": [
                -0.30918229396570773,
                -1.1668830251779065,
                1.9670312287729226,
                0.7014850320514123,
                0.4682855867048221,
                0.3877484319285306
            ]
        },
        {
            "positions": [
                -0.2552032986688254,
                -1.1181917244966757,
                1.9701904083657689,
                0.8544632222734141,
                0.3947977178320099,
                0.339005198950193
            ]
        },
        {
            "positions": [
                -0.20122430337194308,
                -1.069500423815445,
                1.9733495879586151,
                1.0074414124954159,
                0.32130984895919745,
                0.2902619659718555
            ]
        },
        {
            "positions": [
                -0.14724530807506053,
                -1.020809123134214,
                1.9765087675514617,
                1.160419602717418,
                0.247821980086385,
                0.2415187329935179
            ]
        },
        {
            "positions": [
                -0.0932663127781781,
                -0.9721178224529833,
                1.979667947144308,
                1.3133977929394198,
                0.17433411121357256,
                0.1927755000151803
            ]
        },
        {
            "positions": [
                -0.03928731748129577,
                -0.9234265217717524,
                1.9828271267371542,
                1.4663759831614216,
                0.10084624234076034,
                0.1440322670368428
            ]
        },
        {
            "positions": [
                0.014691677815586557,
                -0.8747352210905217,
                1.9859863063300005,
                1.6193541733834234,
                0.027358373467947894,
                0.0952890340585053
            ]
        },
        {
            "positions": [
                0.0686706731124691,
                -0.8260439204092909,
                1.9891454859228468,
                1.7723323636054256,
                -0.04612949540486455,
                0.04654580108016759
            ]
        },
        {
            "positions": [
                0.12264966840935139,
                -0.77735261972806,
                1.992304665515693,
                1.9253105538274273,
                -0.11961736427767694,
                -0.0021974318981698316
            ]
        }
    ]
}