{
    "goal": {
        "global_pose": {
            "orientation": {
                "w": 0.7047431468963623,
                "x": -0.7094548344612122,
                "y": 0.0024358443915843964,
                "z": -0.0022348060738295317
            },
            "position": {
                "x": 0.6094750761985779,
                "y": 0.3671506643295288,
                "z": 0.19426114857196808
            }
        },
        "name": "move_to_magneteinheit_A"
    },
    "id": "SBL_move_to_magneteinheit_A_42",
    "joint_names": [
        "shoulder_pan_joint",
        "shoulder_lift_joint",
        "elbow_joint",
        "wrist_1_joint",
        "wrist_2_joint",
        "wrist_3_joint"
    ],
    "metrics": {
        "cart_traj_len": 1.2617137904665727,
        "distance_elbow_joint": 0.4829076510058914,
        "distance_shoulder_lift_joint": 0.7500918157517948,
        "distance_shoulder_pan_joint": 1.241979019938838,
        "distance_wrist_1_joint": 0.7275405436778185,
        "distance_wrist_2_joint": 1.6641740783743724,
        "distance_wrist_3_joint": 4.233836006804786,
        "smoothness": 0.10427664214498987,
        "time": 0.202367845,
        "traj_len": 3.016708324573906,
        "weighted_distance": 4.46765215199385
    },
    "planner": "SBL",
    "start": {
        "state": {
            "elbow_joint": 1.919643534880228,
            "shoulder_lift_joint": -1.8972525353963687,
            "shoulder_pan_joint": -1.1188672234189438,
            "wrist_1_joint": -1.5931878212786155,
            "wrist_2_joint": 1.5706036197970081,
            "wrist_3_joint": 1.118896926603594
        }
    },
    "waypoints": [
        {
            "positions": [
                -1.1188672234189438,
                -1.8972525353963687,
                1.919643534880228,
                -1.5931878212786155,
                1.5706036197970081,
                1.118896926603594
            ]
        },
        {
            "positions": [
                -1.060449296567514,
                -1.865738117777206,
                1.9080870048234082,
                -1.5614828317820688,
                1.4840979127487326,
                0.9476403596193437
            ]
        },
        {
            "positions": [
                -1.0020313697160843,
                -1.8342237001580435,
                1.8965304747665885,
                -1.5297778422855224,
                1.397592205700457,
                0.7763837926350934
            ]
        },
        {
            "positions": [
                -0.9436134428646547,
                -1.8027092825388809,
                1.8849739447097686,
                -1.4980728527889757,
                1.3110864986521815,
                0.6051272256508432
            ]
        },
        {
            "positions": [
                -0.885195516013225,
                -1.7711948649197182,
                1.8734174146529488,
                -1.4663678632924293,
                1.224580791603906,
                0.4338706586665929
            ]
        },
        {
            "positions": [
                -0.8267775891617952,
                -1.7396804473005556,
                1.8618608845961289,
                -1.4346628737958826,
                1.1380750845556302,
                0.2626140916823426
            ]
        },
        {
            "positions": [
                -0.7683596623103655,
                -1.708166029681393,
                1.8503043545393092,
                -1.402957884299336,
                1.051569377507355,
                0.09135752469809244
            ]
        },
        {
            "positions": [
                -0.7099417354589357,
                -1.6766516120622303,
                1.8387478244824893,
                -1.3712528948027896,
                0.9650636704590791,
                -0.07989904228615785
            ]
        },
        {
            "positions": [
                -0.651523808607506,
                -1.6451371944430675,
                1.8271912944256694,
                -1.339547905306243,
                0.8785579634108037,
                -0.25115560927040814
            ]
        },
        {
            "positions": [
                -0.5931058817560763,
                -1.613622776823905,
                1.8156347643688497,
                -1.3078429158096965,
                0.7920522563625281,
                -0.42241217625465843
            ]
        },
        {
            "positions": [
                -0.5346879549046465,
                -1.5821083592047422,
                1.8040782343120298,
                -1.2761379263131498,
                0.7055465493142524,
                -0.5936687432389087
            ]
        },
        {
            "positions": [
                -0.4762700280532167,
                -1.5505939415855796,
                1.79252170425521,
                -1.2444329368166032,
                0.6190408422659769,
                -0.764925310223159
            ]
        },
        {
            "positions": [
                -0.41785210120178706,
                -1.519079523966417,
                1.78096517419839,
                -1.2127279473200567,
                0.5325351352177015,
                -0.9361818772074091
            ]
        },
        {
            "positions": [
                -0.3594341743503573,
                -1.4875651063472544,
                1.7694086441415704,
                -1.18102295782351,
                0.4460294281694259,
                -1.1074384441916594
            ]
        },
        {
            "positions": [
                -0.30101624749892764,
                -1.4560506887280917,
                1.7578521140847505,
                -1.1493179683269634,
                0.35952372112115016,
                -1.2786950111759097
            ]
        },
        {
            "positions": [
                -0.24259832064749787,
                -1.424536271108929,
                1.7462955840279306,
                -1.117612978830417,
                0.2730180140728746,
                -1.44995157816016
            ]
        },
        {
            "positions": [
                -0.1841803937960682,
                -1.3930218534897665,
                1.734739053971111,
                -1.0859079893338706,
                0.1865123070245993,
                -1.6212081451444103
            ]
        },
        {
            "positions": [
                -0.12576246694463844,
                -1.3615074358706039,
                1.723182523914291,
                -1.0542029998373237,
                0.10000659997632355,
                -1.7924647121286605
            ]
        },
        {
            "positions": [
                -0.06734454009320859,
                -1.3299930182514412,
                1.7116259938574712,
                -1.0224980103407773,
                0.013500892928047983,
                -1.9637212791129108
            ]
        },
        {
            "positions": [
                -0.03560181732435802,
                -1.29952096848363,
                1.7574410121879935,
                -0.9963562215507805,
                0.03134611817895004,
                -2.1555909126276247
            ]
        },
        {
            "positions": [
                -0.003859094555507453,
                -1.2690489187158187,
                1.803256030518516,
                -0.9702144327607838,
                0.04919134342985211,
                -2.3474605461423383
            ]
        },
        {
            "positions": [
                0.027883628213343115,
                -1.2385768689480074,
                1.8490710488490385,
                -0.9440726439707872,
                0.06703656868075418,
                -2.539330179657052
            ]
        },
        {
            "positions": [
                0.05962635098219368,
                -1.2081048191801964,
                1.8948860671795609,
                -0.9179308551807904,
                0.08488179393165624,
                -2.7311998131717656
            ]
        },
        {
            "positions": [
                0.09136907375104425,
                -1.1776327694123851,
                1.9407010855100832,
                -0.8917890663907937,
                0.10272701918255832,
                -2.9230694466864797
            ]
        },
        {
            "positions": [
                0.12311179651989482,
                -1.147160719644574,
                1.9865161038406056,
                -0.865647277600797,
                0.12057224443346037,
                -3.1149390802011934
            ]
        }
    ]
}