{
    "goal": {
        "global_pose": {
            "orientation": {
                "w": 0.7047431468963623,
                "x": -0.7094548344612122,
                "y": 0.0024358443915843964,
                "z": -0.0022348060738295317
            },
            "position": {
                "x": 0.6094750761985779,
                "y": 0.3671506643295288,
                "z": 0.19426114857196808
            }
        },
        "name": "move_to_magneteinheit_A"
    },
    "id": "SBL_move_to_magneteinheit_A_72",
    "joint_names": [
        "shoulder_pan_joint",
        "shoulder_lift_joint",
        "elbow_joint",
        "wrist_1_joint",
        "wrist_2_joint",
        "wrist_3_joint"
    ],
    "metrics": {
        "cart_traj_len": 1.2311908639134392,
        "distance_elbow_joint": 0.20073987281648087,
        "distance_shoulder_lift_joint": 0.7657086539548352,
        "distance_shoulder_pan_joint": 1.242480943840738,
        "distance_wrist_1_joint": 1.1393776379947265,
        "distance_wrist_2_joint": 1.5092673339965543,
        "distance_wrist_3_joint": 4.3513596915076675,
        "smoothness": 0.22872751142502348,
        "time": 0.280300362,
        "traj_len": 3.0346225686419395,
        "weighted_distance": 4.534346533858834
    },
    "planner": "SBL",
    "start": {
        "state": {
            "elbow_joint": 1.919643534880228,
            "shoulder_lift_joint": -1.8972525353963687,
            "shoulder_pan_joint": -1.1188672234189438,
            "wrist_1_joint": -1.5931878212786155,
            "wrist_2_joint": 1.5706036197970081,
            "wrist_3_joint": 1.118896926603594
        }
    },
    "waypoints": [
        {
            "positions": [
                -1.1188672234189438,
                -1.8972525353963687,
                1.919643534880228,
                -1.5931878212786155,
                1.5706036197970081,
                1.118896926603594
            ]
        },
        {
            "positions": [
                -1.0652245721536515,
                -1.8636124251330253,
                1.9159667849626478,
                -1.5476590558578667,
                1.5034369544713262,
                0.9371306038248368
            ]
        },
        {
            "positions": [
                -1.011581920888359,
                -1.8299723148696818,
                1.9122900350450676,
                -1.5021302904371179,
                1.4362702891456443,
                0.7553642810460797
            ]
        },
        {
            "positions": [
                -0.9579392696230666,
                -1.7963322046063384,
                1.9086132851274873,
                -1.456601525016369,
                1.3691036238199623,
                0.5735979582673225
            ]
        },
        {
            "positions": [
                -0.9042966183577743,
                -1.762692094342995,
                1.904936535209907,
                -1.4110727595956203,
                1.3019369584942804,
                0.39183163548856537
            ]
        },
        {
            "positions": [
                -0.850653967092482,
                -1.7290519840796514,
                1.9012597852923268,
                -1.3655439941748715,
                1.2347702931685984,
                0.21006531270980822
            ]
        },
        {
            "positions": [
                -0.7970113158271895,
                -1.695411873816308,
                1.8975830353747465,
                -1.3200152287541227,
                1.1676036278429165,
                0.028298989931051066
            ]
        },
        {
            "positions": [
                -0.7433686645618971,
                -1.6617717635529645,
                1.8939062854571662,
                -1.274486463333374,
                1.1004369625172346,
                -0.15346733284770608
            ]
        },
        {
            "positions": [
                -0.6897260132966048,
                -1.628131653289621,
                1.890229535539586,
                -1.228957697912625,
                1.0332702971915524,
                -0.33523365562646323
            ]
        },
        {
            "positions": [
                -0.6360833620313123,
                -1.5944915430262776,
                1.8865527856220057,
                -1.1834289324918763,
                0.9661036318658704,
                -0.5169999784052204
            ]
        },
        {
            "positions": [
                -0.58244071076602,
                -1.5608514327629341,
                1.8828760357044254,
                -1.1379001670711277,
                0.8989369665401885,
                -0.6987663011839775
            ]
        },
        {
            "positions": [
                -0.5287980595007276,
                -1.5272113224995907,
                1.8791992857868451,
                -1.0923714016503787,
                0.8317703012145066,
                -0.8805326239627347
            ]
        },
        {
            "positions": [
                -0.47515540823543523,
                -1.4935712122362472,
                1.8755225358692647,
                -1.0468426362296301,
                0.7646036358888246,
                -1.0622989467414918
            ]
        },
        {
            "positions": [
                -0.4215127569701428,
                -1.4599311019729038,
                1.8718457859516844,
                -1.0013138708088811,
                0.6974369705631426,
                -1.244065269520249
            ]
        },
        {
            "positions": [
                -0.36787010570485035,
                -1.4262909917095603,
                1.8681690360341041,
                -0.9557851053881324,
                0.6302703052374607,
                -1.4258315922990061
            ]
        },
        {
            "positions": [
                -0.314227454439558,
                -1.3926508814462168,
                1.8644922861165238,
                -0.9102563399673838,
                0.5631036399117788,
                -1.6075979150777633
            ]
        },
        {
            "positions": [
                -0.2605848031742656,
                -1.3590107711828734,
                1.8608155361989436,
                -0.8647275745466348,
                0.49593697458609665,
                -1.7893642378565204
            ]
        },
        {
            "positions": [
                -0.20694215190897325,
                -1.32537066091953,
                1.8571387862813633,
                -0.8191988091258862,
                0.42877030926041493,
                -1.9711305606352776
            ]
        },
        {
            "positions": [
                -0.1532995006436808,
                -1.2917305506561865,
                1.853462036363783,
                -0.7736700437051373,
                0.36160364393473277,
                -2.1528968834140345
            ]
        },
        {
            "positions": [
                -0.09965684937838848,
                -1.258090440392843,
                1.8497852864462028,
                -0.7281412782843886,
                0.2944369786090508,
                -2.3346632061927917
            ]
        },
        {
            "positions": [
                -0.04601419811309615,
                -1.2244503301294996,
                1.8461085365286225,
                -0.6826125128636398,
                0.22727031328336889,
                -2.516429528971549
            ]
        },
        {
            "positions": [
                0.007628453152196402,
                -1.190810219866156,
                1.8424317866110422,
                -0.637083747442891,
                0.16010364795768695,
                -2.698195851750306
            ]
        },
        {
            "positions": [
                0.06127110441748881,
                -1.1571701096028126,
                1.838755036693462,
                -0.5915549820221422,
                0.092936982632005,
                -2.8799621745290636
            ]
        },
        {
            "positions": [
                0.09244241241964153,
                -1.144356995522173,
                1.8986807240083192,
                -0.6604273813912688,
                0.10873733104778063,
                -3.0562124697165682
            ]
        },
        {
            "positions": [
                0.12361372042179425,
                -1.1315438814415335,
                1.9586064113231767,
                -0.7292997807603954,
                0.12453767946355625,
                -3.232462764904073
            ]
        }
    ]
}