{
    "goal": {
        "global_pose": {
            "orientation": {
                "w": 0.7047431468963623,
                "x": -0.7094548344612122,
                "y": 0.0024358443915843964,
                "z": -0.0022348060738295317
            },
            "position": {
                "x": 0.6094750761985779,
                "y": 0.3671506643295288,
                "z": 0.19426114857196808
            }
        },
        "name": "move_to_magneteinheit_A"
    },
    "id": "SBL_move_to_magneteinheit_A_123",
    "joint_names": [
        "shoulder_pan_joint",
        "shoulder_lift_joint",
        "elbow_joint",
        "wrist_1_joint",
        "wrist_2_joint",
        "wrist_3_joint"
    ],
    "metrics": {
        "cart_traj_len": 1.2502100879294584,
        "distance_elbow_joint": 0.0707124607852303,
        "distance_shoulder_lift_joint": 1.1207182379549192,
        "distance_shoulder_pan_joint": 1.242573939925937,
        "distance_wrist_1_joint": 3.5035362375836225,
        "distance_wrist_2_joint": 1.7079197134386408,
        "distance_wrist_3_joint": 1.0934286659300714,
        "smoothness": 1.4802973778883236e-16,
        "time": 0.223753114,
        "traj_len": 2.9561612364041348,
        "weighted_distance": 4.017113707439812
    },
    "planner": "SBL",
    "start": {
        "state": {
            "elbow_joint": 1.919643534880228,
            "shoulder_lift_joint": -1.8972525353963687,
            "shoulder_pan_joint": -1.1188672234189438,
            "wrist_1_joint": -1.5931878212786155,
            "wrist_2_joint": 1.5706036197970081,
            "wrist_3_joint": 1.118896926603594
        }
    },
    "waypoints": [
        {
            "positions": [
                -1.1188672234189438,
                -1.8972525353963687,
                1.919643534880228,
                -1.5931878212786155,
                1.5706036197970081,
                1.118896926603594
            ]
        },
        {
            "positions": [
                -1.0648422695091204,
                -1.8485256554852854,
                1.9227179896969773,
                -1.4408601587749796,
                1.4963462409518498,
                1.0713565498240256
            ]
        },
        {
            "positions": [
                -1.0108173155992972,
                -1.7997987755742018,
                1.9257924445137264,
                -1.288532496271344,
                1.4220888621066916,
                1.0238161730444573
            ]
        },
        {
            "positions": [
                -0.9567923616894738,
                -1.7510718956631184,
                1.9288668993304756,
                -1.1362048337677082,
                1.3478314832615332,
                0.976275796264889
            ]
        },
        {
            "positions": [
                -0.9027674077796505,
                -1.702345015752035,
                1.9319413541472246,
                -0.9838771712640725,
                1.273574104416375,
                0.9287354194853207
            ]
        },
        {
            "positions": [
                -0.8487424538698272,
                -1.6536181358409516,
                1.9350158089639737,
                -0.8315495087604367,
                1.1993167255712167,
                0.8811950427057523
            ]
        },
        {
            "positions": [
                -0.7947174999600037,
                -1.604891255929868,
                1.938090263780723,
                -0.6792218462568009,
                1.1250593467260583,
                0.8336546659261841
            ]
        },
        {
            "positions": [
                -0.7406925460501803,
                -1.5561643760187847,
                1.941164718597472,
                -0.5268941837531651,
                1.0508019678809002,
                0.7861142891466157
            ]
        },
        {
            "positions": [
                -0.6866675921403571,
                -1.507437496107701,
                1.9442391734142213,
                -0.3745665212495295,
                0.9765445890357418,
                0.7385739123670474
            ]
        },
        {
            "positions": [
                -0.6326426382305337,
                -1.4587106161966177,
                1.9473136282309704,
                -0.22223885874589344,
                0.9022872101905834,
                0.691033535587479
            ]
        },
        {
            "positions": [
                -0.5786176843207104,
                -1.4099837362855343,
                1.9503880830477196,
                -0.06991119624225783,
                0.8280298313454252,
                0.6434931588079107
            ]
        },
        {
            "positions": [
                -0.5245927304108869,
                -1.361256856374451,
                1.9534625378644688,
                0.082416466261378,
                0.7537724525002668,
                0.5959527820283425
            ]
        },
        {
            "positions": [
                -0.47056777650106374,
                -1.3125299764633676,
                1.9565369926812177,
                0.2347441287650136,
                0.6795150736551087,
                0.5484124052487741
            ]
        },
        {
            "positions": [
                -0.4165428225912404,
                -1.2638030965522842,
                1.959611447497967,
                0.3870717912686492,
                0.6052576948099504,
                0.5008720284692059
            ]
        },
        {
            "positions": [
                -0.3625178686814169,
                -1.2150762166412004,
                1.962685902314716,
                0.5393994537722853,
                0.531000315964792,
                0.4533316516896374
            ]
        },
        {
            "positions": [
                -0.3084929147715936,
                -1.166349336730117,
                1.9657603571314652,
                0.6917271162759209,
                0.45674293711963365,
                0.40579127491006917
            ]
        },
        {
            "positions": [
                -0.25446796086177026,
                -1.1176224568190336,
                1.9688348119482144,
                0.8440547787795565,
                0.3824855582744755,
                0.3582508981305008
            ]
        },
        {
            "positions": [
                -0.20044300695194694,
                -1.0688955769079502,
                1.9719092667649636,
                0.9963824412831925,
                0.30822817942931713,
                0.3107105213509326
            ]
        },
        {
            "positions": [
                -0.14641805304212352,
                -1.0201686969968669,
                1.9749837215817128,
                1.1487101037868286,
                0.23397080058415876,
                0.2631701445713641
            ]
        },
        {
            "positions": [
                -0.09239309913230032,
                -0.9714418170857833,
                1.978058176398462,
                1.3010377662904642,
                0.1597134217390006,
                0.21562976779179588
            ]
        },
        {
            "positions": [
                -0.03836814522247689,
                -0.9227149371746999,
                1.9811326312152109,
                1.4533654287940998,
                0.08545604289384223,
                0.16808939101222753
            ]
        },
        {
            "positions": [
                0.015656808687346313,
                -0.8739880572636165,
                1.98420708603196,
                1.6056930912977354,
                0.011198664048684082,
                0.12054901423265929
            ]
        },
        {
            "positions": [
                0.06968176259716996,
                -0.8252611773525329,
                1.9872815408487092,
                1.7580207538013715,
                -0.06305871479647451,
                0.07300863745309094
            ]
        },
        {
            "positions": [
                0.12370671650699312,
                -0.7765342974414495,
                1.9903559956654584,
                1.9103484163050073,
                -0.13731609364163258,
                0.02546826067352268
            ]
        }
    ]
}