{
    "goal": {
        "global_pose": {
            "orientation": {
                "w": 0.7047431468963623,
                "x": -0.7094548344612122,
                "y": 0.0024358443915843964,
                "z": -0.0022348060738295317
            },
            "position": {
                "x": 0.6094750761985779,
                "y": 0.3671506643295288,
                "z": 0.19426114857196808
            }
        },
        "name": "move_to_magneteinheit_A"
    },
    "id": "SBL_move_to_magneteinheit_A_55",
    "joint_names": [
        "shoulder_pan_joint",
        "shoulder_lift_joint",
        "elbow_joint",
        "wrist_1_joint",
        "wrist_2_joint",
        "wrist_3_joint"
    ],
    "metrics": {
        "cart_traj_len": 1.1169701949811963,
        "distance_elbow_joint": 0.06295790960265535,
        "distance_shoulder_lift_joint": 0.7508785744960214,
        "distance_shoulder_pan_joint": 1.2414645825391077,
        "distance_wrist_1_joint": 2.0307326628447866,
        "distance_wrist_2_joint": 1.4315247599056702,
        "distance_wrist_3_joint": 4.268866581623367,
        "smoothness": 0.24861389502879583,
        "time": 0.340265384,
        "traj_len": 3.1283262411410377,
        "weighted_distance": 4.667592061974654
    },
    "planner": "SBL",
    "start": {
        "state": {
            "elbow_joint": 1.919643534880228,
            "shoulder_lift_joint": -1.8972525353963687,
            "shoulder_pan_joint": -1.1188672234189438,
            "wrist_1_joint": -1.5931878212786155,
            "wrist_2_joint": 1.5706036197970081,
            "wrist_3_joint": 1.118896926603594
        }
    },
    "waypoints": [
        {
            "positions": [
                -1.1188672234189438,
                -1.8972525353963687,
                1.919643534880228,
                -1.5931878212786155,
                1.5706036197970081,
                1.118896926603594
            ]
        },
        {
            "positions": [
                -1.0867261702109152,
                -1.88808093767947,
                1.9219052861309287,
                -1.5193520736232768,
                1.512081798881929,
                0.9064000700484964
            ]
        },
        {
            "positions": [
                -1.0545851170028866,
                -1.8789093399625714,
                1.9241670373816293,
                -1.4455163259679384,
                1.45355997796685,
                0.6939032134933989
            ]
        },
        {
            "positions": [
                -1.022444063794858,
                -1.8697377422456727,
                1.92642878863233,
                -1.3716805783125998,
                1.395038157051771,
                0.48140635693830147
            ]
        },
        {
            "positions": [
                -0.9903030105868293,
                -1.860566144528774,
                1.9286905398830305,
                -1.2978448306572614,
                1.3365163361366919,
                0.26890950038320394
            ]
        },
        {
            "positions": [
                -0.9581619573788007,
                -1.8513945468118755,
                1.9309522911337311,
                -1.2240090830019228,
                1.2779945152216128,
                0.05641264382810651
            ]
        },
        {
            "positions": [
                -0.9260209041707722,
                -1.8422229490949769,
                1.9332140423844317,
                -1.1501733353465844,
                1.2194726943065337,
                -0.15608421272699102
            ]
        },
        {
            "positions": [
                -0.8938798509627436,
                -1.8330513513780782,
                1.9354757936351323,
                -1.0763375876912458,
                1.1609508733914546,
                -0.36858106928208856
            ]
        },
        {
            "positions": [
                -0.861738797754715,
                -1.8238797536611795,
                1.937737544885833,
                -1.0025018400359071,
                1.1024290524763756,
                -0.5810779258371861
            ]
        },
        {
            "positions": [
                -0.8295977445466863,
                -1.8147081559442808,
                1.9399992961365335,
                -0.9286660923805687,
                1.0439072315612963,
                -0.7935747823922836
            ]
        },
        {
            "positions": [
                -0.7974566913386577,
                -1.8055365582273821,
                1.9422610473872344,
                -0.8548303447252302,
                0.9853854106462173,
                -1.006071638947381
            ]
        },
        {
            "positions": [
                -0.7653156381306291,
                -1.7963649605104834,
                1.944522798637935,
                -0.7809945970698916,
                0.9268635897311382,
                -1.2185684955024787
            ]
        },
        {
            "positions": [
                -0.7331745849226006,
                -1.7871933627935848,
                1.9467845498886356,
                -0.7071588494145532,
                0.8683417688160592,
                -1.431065352057576
            ]
        },
        {
            "positions": [
                -0.701033531714572,
                -1.778021765076686,
                1.9490463011393362,
                -0.6333231017592146,
                0.80981994790098,
                -1.6435622086126738
            ]
        },
        {
            "positions": [
                -0.6688924785065433,
                -1.7688501673597874,
                1.9513080523900368,
                -0.5594873541038761,
                0.751298126985901,
                -1.856059065167771
            ]
        },
        {
            "positions": [
                -0.6367514252985147,
                -1.759678569642889,
                1.9535698036407374,
                -0.48565160644853744,
                0.6927763060708219,
                -2.0685559217228686
            ]
        },
        {
            "positions": [
                -0.6046103720904861,
                -1.7505069719259903,
                1.955831554891438,
                -0.41181585879319904,
                0.6342544851557429,
                -2.2810527782779664
            ]
        },
        {
            "positions": [
                -0.5724693188824574,
                -1.7413353742090916,
                1.9580933061421386,
                -0.3379801111378604,
                0.5757326642406637,
                -2.493549634833064
            ]
        },
        {
            "positions": [
                -0.5403282656744288,
                -1.7321637764921929,
                1.9603550573928392,
                -0.264144363482522,
                0.5172108433255846,
                -2.706046491388161
            ]
        },
        {
            "positions": [
                -0.5081872124664002,
                -1.7229921787752942,
                1.9626168086435398,
                -0.1903086158271834,
                0.45868902241050546,
                -2.918543347943259
            ]
        },
        {
            "positions": [
                -0.4180751308111768,
                -1.640618147650302,
                1.9654717566205888,
                -0.2800019668833769,
                0.41303042776491017,
                -2.95160424895419
            ]
        },
        {
            "positions": [
                -0.3279630491559534,
                -1.5582441165253094,
                1.968326704597638,
                -0.36969531793957044,
                0.36737183311931487,
                -2.984665149965121
            ]
        },
        {
            "positions": [
                -0.23785096750072998,
                -1.475870085400317,
                1.971181652574687,
                -0.45938866899576397,
                0.3217132384737196,
                -3.0177260509760515
            ]
        },
        {
            "positions": [
                -0.1477388858455066,
                -1.3934960542753245,
                1.9740366005517362,
                -0.5490820200519575,
                0.2760546438281242,
                -3.050786951986982
            ]
        },
        {
            "positions": [
                -0.057626804190283154,
                -1.3111220231503322,
                1.9768915485287852,
                -0.6387753711081511,
                0.2303960491825289,
                -3.0838478529979128
            ]
        },
        {
            "positions": [
                0.03248527746494023,
                -1.22874799202534,
                1.9797464965058345,
                -0.7284687221643446,
                0.18473745453693363,
                -3.116908754008844
            ]
        },
        {
            "positions": [
                0.12259735912016366,
                -1.1463739609003474,
                1.9826014444828834,
                -0.8181620732205381,
                0.1390788598913383,
                -3.1499696550197744
            ]
        }
    ]
}