{
    "goal": {
        "global_pose": {
            "orientation": {
                "w": 0.7047431468963623,
                "x": -0.7094548344612122,
                "y": 0.0024358443915843964,
                "z": -0.0022348060738295317
            },
            "position": {
                "x": 0.6094750761985779,
                "y": 0.3671506643295288,
                "z": 0.19426114857196808
            }
        },
        "name": "move_to_magneteinheit_A"
    },
    "id": "SBL_move_to_magneteinheit_A_96",
    "joint_names": [
        "shoulder_pan_joint",
        "shoulder_lift_joint",
        "elbow_joint",
        "wrist_1_joint",
        "wrist_2_joint",
        "wrist_3_joint"
    ],
    "metrics": {
        "cart_traj_len": 1.181418340908216,
        "distance_elbow_joint": 0.05758229530487924,
        "distance_shoulder_lift_joint": 0.7545830943761409,
        "distance_shoulder_pan_joint": 1.2419955602964174,
        "distance_wrist_1_joint": 1.0201591850949614,
        "distance_wrist_2_joint": 1.4348462841175582,
        "distance_wrist_3_joint": 4.292701975217769,
        "smoothness": 0.10622657191618391,
        "time": 0.218331283,
        "traj_len": 2.966794295937574,
        "weighted_distance": 4.454467175101392
    },
    "planner": "SBL",
    "start": {
        "state": {
            "elbow_joint": 1.919643534880228,
            "shoulder_lift_joint": -1.8972525353963687,
            "shoulder_pan_joint": -1.1188672234189438,
            "wrist_1_joint": -1.5931878212786155,
            "wrist_2_joint": 1.5706036197970081,
            "wrist_3_joint": 1.118896926603594
        }
    },
    "waypoints": [
        {
            "positions": [
                -1.1188672234189438,
                -1.8972525353963687,
                1.919643534880228,
                -1.5931878212786155,
                1.5706036197970081,
                1.118896926603594
            ]
        },
        {
            "positions": [
                -1.0624338425073714,
                -1.8666701077932375,
                1.9208142304185887,
                -1.545495043189616,
                1.5028542630917974,
                0.9302313591679906
            ]
        },
        {
            "positions": [
                -1.0060004615957987,
                -1.8360876801901063,
                1.9219849259569493,
                -1.4978022651006166,
                1.4351049063865868,
                0.7415657917323872
            ]
        },
        {
            "positions": [
                -0.9495670806842262,
                -1.8055052525869753,
                1.9231556214953098,
                -1.4501094870116171,
                1.367355549681376,
                0.5529002242967839
            ]
        },
        {
            "positions": [
                -0.8931336997726538,
                -1.774922824983844,
                1.9243263170336704,
                -1.4024167089226176,
                1.2996061929761653,
                0.3642346568611805
            ]
        },
        {
            "positions": [
                -0.8367003188610812,
                -1.7443403973807128,
                1.925497012572031,
                -1.354723930833618,
                1.2318568362709548,
                0.17556908942557714
            ]
        },
        {
            "positions": [
                -0.7802669379495086,
                -1.7137579697775815,
                1.9266677081103916,
                -1.3070311527446186,
                1.164107479565744,
                -0.013096478010026225
            ]
        },
        {
            "positions": [
                -0.7238335570379362,
                -1.6831755421744505,
                1.9278384036487521,
                -1.2593383746556193,
                1.0963581228605332,
                -0.20176204544562948
            ]
        },
        {
            "positions": [
                -0.6674001761263636,
                -1.6525931145713193,
                1.9290090991871127,
                -1.2116455965666197,
                1.0286087661553225,
                -0.39042761288123295
            ]
        },
        {
            "positions": [
                -0.6109667952147911,
                -1.622010686968188,
                1.9301797947254733,
                -1.1639528184776202,
                0.960859409450112,
                -0.5790931803168362
            ]
        },
        {
            "positions": [
                -0.5545334143032186,
                -1.5914282593650568,
                1.931350490263834,
                -1.116260040388621,
                0.8931100527449013,
                -0.7677587477524397
            ]
        },
        {
            "positions": [
                -0.498100033391646,
                -1.5608458317619256,
                1.9325211858021947,
                -1.0685672622996214,
                0.8253606960396905,
                -0.9564243151880432
            ]
        },
        {
            "positions": [
                -0.44166665248007353,
                -1.5302634041587946,
                1.9336918813405553,
                -1.0208744842106219,
                0.7576113393344799,
                -1.1450898826236464
            ]
        },
        {
            "positions": [
                -0.38523327156850096,
                -1.4996809765556633,
                1.9348625768789158,
                -0.9731817061216224,
                0.6898619826292691,
                -1.3337554500592501
            ]
        },
        {
            "positions": [
                -0.3287998906569285,
                -1.4690985489525321,
                1.9360332724172764,
                -0.925488928032623,
                0.6221126259240585,
                -1.522421017494853
            ]
        },
        {
            "positions": [
                -0.2723665097453558,
                -1.4385161213494009,
                1.937203967955637,
                -0.8777961499436234,
                0.5543632692188478,
                -1.7110865849304566
            ]
        },
        {
            "positions": [
                -0.21593312883378335,
                -1.4079336937462696,
                1.9383746634939976,
                -0.830103371854624,
                0.48661391251363706,
                -1.8997521523660599
            ]
        },
        {
            "positions": [
                -0.15949974792221078,
                -1.3773512661431386,
                1.9395453590323581,
                -0.7824105937656245,
                0.4188645558084263,
                -2.0884177198016634
            ]
        },
        {
            "positions": [
                -0.10306636701063843,
                -1.3467688385400074,
                1.9407160545707187,
                -0.7347178156766251,
                0.35111519910321576,
                -2.277083287237266
            ]
        },
        {
            "positions": [
                -0.04663298609906569,
                -1.3161864109368762,
                1.9418867501090793,
                -0.6870250375876256,
                0.283365842398005,
                -2.46574885467287
            ]
        },
        {
            "positions": [
                -0.00419265535493081,
                -1.272807168457714,
                1.9507215201280863,
                -0.7155241379386185,
                0.24646371571836623,
                -2.642762903158196
            ]
        },
        {
            "positions": [
                0.03824767538920407,
                -1.2294279259785519,
                1.9595562901470933,
                -0.7440232382896113,
                0.20956158903872743,
                -2.8197769516435223
            ]
        },
        {
            "positions": [
                0.08068800613333893,
                -1.18604868349939,
                1.9683910601661003,
                -0.7725223386406042,
                0.17265946235908863,
                -2.996791000128848
            ]
        },
        {
            "positions": [
                0.12312833687747383,
                -1.1426694410202278,
                1.9772258301851073,
                -0.8010214389915971,
                0.13575733567944986,
                -3.1738050486141742
            ]
        }
    ]
}