{
    "goal": {
        "global_pose": {
            "orientation": {
                "w": 0.7047431468963623,
                "x": -0.7094548344612122,
                "y": 0.0024358443915843964,
                "z": -0.0022348060738295317
            },
            "position": {
                "x": 0.6094750761985779,
                "y": 0.3671506643295288,
                "z": 0.19426114857196808
            }
        },
        "name": "move_to_magneteinheit_A"
    },
    "id": "SBL_move_to_magneteinheit_A_110",
    "joint_names": [
        "shoulder_pan_joint",
        "shoulder_lift_joint",
        "elbow_joint",
        "wrist_1_joint",
        "wrist_2_joint",
        "wrist_3_joint"
    ],
    "metrics": {
        "cart_traj_len": 2.1883201638920737,
        "distance_elbow_joint": 1.4019345307981665,
        "distance_shoulder_lift_joint": 1.5158098126464778,
        "distance_shoulder_pan_joint": 2.627626782686793,
        "distance_wrist_1_joint": 1.6770091867262453,
        "distance_wrist_2_joint": 2.8344759116024765,
        "distance_wrist_3_joint": 7.205238308376595,
        "smoothness": 0.4905838030134466,
        "time": 0.297219813,
        "traj_len": 4.154767686987654,
        "weighted_distance": 6.0153184660430625
    },
    "planner": "SBL",
    "start": {
        "state": {
            "elbow_joint": 1.919643534880228,
            "shoulder_lift_joint": -1.8972525353963687,
            "shoulder_pan_joint": -1.1188672234189438,
            "wrist_1_joint": -1.5931878212786155,
            "wrist_2_joint": 1.5706036197970081,
            "wrist_3_joint": 1.118896926603594
        }
    },
    "waypoints": [
        {
            "positions": [
                -1.1188672234189438,
                -1.8972525353963687,
                1.919643534880228,
                -1.5931878212786155,
                1.5706036197970081,
                1.118896926603594
            ]
        },
        {
            "positions": [
                -1.1650771891627694,
                -1.9222824467489648,
                1.8741429177051847,
                -1.6196265046426228,
                1.4282572068291326,
                1.2135572244157087
            ]
        },
        {
            "positions": [
                -1.2112871549065949,
                -1.947312358101561,
                1.8286423005301415,
                -1.6460651880066302,
                1.285910793861257,
                1.3082175222278232
            ]
        },
        {
            "positions": [
                -1.2574971206504204,
                -1.972342269454157,
                1.7831416833550982,
                -1.6725038713706375,
                1.1435643808933815,
                1.4028778200399379
            ]
        },
        {
            "positions": [
                -1.3037070863942457,
                -1.997372180806753,
                1.737641066180055,
                -1.6989425547346448,
                1.001217967925506,
                1.4975381178520526
            ]
        },
        {
            "positions": [
                -1.3499170521380712,
                -2.022402092159349,
                1.6921404490050116,
                -1.7253812380986522,
                0.8588715549576305,
                1.592198415664167
            ]
        },
        {
            "positions": [
                -1.3961270178818967,
                -2.047432003511945,
                1.6466398318299682,
                -1.7518199214626597,
                0.7165251419897548,
                1.6868587134762818
            ]
        },
        {
            "positions": [
                -1.4423369836257223,
                -2.0724619148645416,
                1.601139214654925,
                -1.778258604826667,
                0.5741787290218793,
                1.7815190112883963
            ]
        },
        {
            "positions": [
                -1.4885469493695478,
                -2.0974918262171376,
                1.5556385974798816,
                -1.8046972881906744,
                0.43183231605400385,
                1.876179309100511
            ]
        },
        {
            "positions": [
                -1.5347569151133733,
                -2.1225217375697336,
                1.5101379803048385,
                -1.8311359715546818,
                0.2894859030861283,
                1.9708396069126257
            ]
        },
        {
            "positions": [
                -1.5809668808571988,
                -2.1475516489223296,
                1.464637363129795,
                -1.8575746549186891,
                0.14713949011825278,
                2.0654999047247404
            ]
        },
        {
            "positions": [
                -1.6271768466010244,
                -2.1725815602749257,
                1.4191367459547517,
                -1.8840133382826965,
                0.004793077150377245,
                2.160160202536855
            ]
        },
        {
            "positions": [
                -1.6733868123448499,
                -2.197611471627522,
                1.3736361287797085,
                -1.9104520216467038,
                -0.1375533358174985,
                2.25482050034897
            ]
        },
        {
            "positions": [
                -1.7195967780886754,
                -2.222641382980118,
                1.3281355116046651,
                -1.9368907050107111,
                -0.27989974878537405,
                2.3494807981610846
            ]
        },
        {
            "positions": [
                -1.7658067438325007,
                -2.247671294332714,
                1.2826348944296218,
                -1.9633293883747185,
                -0.4222461617532496,
                2.444141095973199
            ]
        },
        {
            "positions": [
                -1.8120167095763262,
                -2.27270120568531,
                1.2371342772545786,
                -1.9897680717387258,
                -0.5645925747211251,
                2.5388013937853136
            ]
        },
        {
            "positions": [
                -1.7475341330253458,
                -2.2346891676067258,
                1.2611151196936625,
                -1.9470871071965212,
                -0.5412832508183139,
                2.345956932412151
            ]
        },
        {
            "positions": [
                -1.6830515564743656,
                -2.1966771295281413,
                1.2850959621327465,
                -1.9044061426543168,
                -0.5179739269155026,
                2.153112471038989
            ]
        },
        {
            "positions": [
                -1.618568979923385,
                -2.1586650914495564,
                1.3090768045718302,
                -1.8617251781121122,
                -0.49466460301269133,
                1.960268009665826
            ]
        },
        {
            "positions": [
                -1.5540864033724047,
                -2.120653053370972,
                1.3330576470109141,
                -1.8190442135699079,
                -0.47135527910988007,
                1.7674235482926637
            ]
        },
        {
            "positions": [
                -1.4896038268214244,
                -2.0826410152923875,
                1.357038489449998,
                -1.7763632490277033,
                -0.4480459552070688,
                1.5745790869195013
            ]
        },
        {
            "positions": [
                -1.4251212502704438,
                -2.044628977213803,
                1.381019331889082,
                -1.7336822844854989,
                -0.42473663130425754,
                1.3817346255463387
            ]
        },
        {
            "positions": [
                -1.3606386737194636,
                -2.006616939135218,
                1.405000174328166,
                -1.6910013199432943,
                -0.4014273074014463,
                1.1888901641731764
            ]
        },
        {
            "positions": [
                -1.2961560971684831,
                -1.9686049010566338,
                1.4289810167672499,
                -1.64832035540109,
                -0.378117983498635,
                0.996045702800014
            ]
        },
        {
            "positions": [
                -1.2316735206175027,
                -1.9305928629780493,
                1.4529618592063338,
                -1.6056393908588853,
                -0.35480865959582375,
                0.8032012414268517
            ]
        },
        {
            "positions": [
                -1.1671909440665225,
                -1.8925808248994649,
                1.4769427016454175,
                -1.562958426316681,
                -0.3314993356930125,
                0.6103567800536891
            ]
        },
        {
            "positions": [
                -1.102708367515542,
                -1.8545687868208802,
                1.5009235440845015,
                -1.5202774617744763,
                -0.3081900117902012,
                0.41751231868052674
            ]
        },
        {
            "positions": [
                -1.0382257909645616,
                -1.8165567487422956,
                1.5249043865235854,
                -1.477596497232272,
                -0.28488068788738996,
                0.22466785730736394
            ]
        },
        {
            "positions": [
                -0.9737432144135812,
                -1.7785447106637111,
                1.5488852289626693,
                -1.4349155326900673,
                -0.2615713639845787,
                0.03182339593420158
            ]
        },
        {
            "positions": [
                -0.9092606378626008,
                -1.7405326725851267,
                1.5728660714017533,
                -1.3922345681478627,
                -0.23826204008176743,
                -0.16102106543896078
            ]
        },
        {
            "positions": [
                -0.8447780613116205,
                -1.702520634506542,
                1.596846913840837,
                -1.3495536036056583,
                -0.21495271617895617,
                -0.35386552681212313
            ]
        },
        {
            "positions": [
                -0.78029548476064,
                -1.6645085964279573,
                1.620827756279921,
                -1.306872639063454,
                -0.1916433922761449,
                -0.5467099881852855
            ]
        },
        {
            "positions": [
                -0.7158129082096598,
                -1.626496558349373,
                1.6448085987190049,
                -1.2641916745212494,
                -0.16833406837333365,
                -0.7395544495584478
            ]
        },
        {
            "positions": [
                -0.6513303316586794,
                -1.5884845202707885,
                1.6687894411580888,
                -1.2215107099790448,
                -0.14502474447052238,
                -0.9323989109316102
            ]
        },
        {
            "positions": [
                -0.5868477551076989,
                -1.550472482192204,
                1.6927702835971727,
                -1.1788297454368404,
                -0.12171542056771112,
                -1.1252433723047726
            ]
        },
        {
            "positions": [
                -0.5223651785567187,
                -1.5124604441136194,
                1.7167511260362565,
                -1.136148780894636,
                -0.09840609666489986,
                -1.3180878336779354
            ]
        },
        {
            "positions": [
                -0.45788260200573827,
                -1.4744484060350347,
                1.7407319684753406,
                -1.0934678163524314,
                -0.07509677276208865,
                -1.5109322950510973
            ]
        },
        {
            "positions": [
                -0.39340002545475783,
                -1.4364363679564502,
                1.7647128109144243,
                -1.0507868518102268,
                -0.05178744885927733,
                -1.70377675642426
            ]
        },
        {
            "positions": [
                -0.3289174489037774,
                -1.3984243298778656,
                1.7886936533535085,
                -1.0081058872680222,
                -0.028478124956466067,
                -1.8966212177974229
            ]
        },
        {
            "positions": [
                -0.26443487235279695,
                -1.360412291799281,
                1.8126744957925922,
                -0.9654249227258178,
                -0.0051688010536548035,
                -2.0894656791705857
            ]
        },
        {
            "positions": [
                -0.1999522958018165,
                -1.3224002537206965,
                1.8366553382316761,
                -0.9227439581836132,
                0.01814052284915646,
                -2.2823101405437476
            ]
        },
        {
            "positions": [
                -0.13546971925083628,
                -1.284388215642112,
                1.86063618067076,
                -0.8800629936414088,
                0.04144984675196772,
                -2.4751546019169104
            ]
        },
        {
            "positions": [
                -0.07098714269985584,
                -1.2463761775635274,
                1.8846170231098438,
                -0.8373820290992042,
                0.06475917065477899,
                -2.6679990632900723
            ]
        },
        {
            "positions": [
                -0.006504566148875401,
                -1.208364139484943,
                1.908597865548928,
                -0.7947010645569998,
                0.08806849455759025,
                -2.860843524663235
            ]
        },
        {
            "positions": [
                0.05797801040210482,
                -1.1703521014063583,
                1.9325787079880117,
                -0.7520201000147952,
                0.11137781846040151,
                -3.053687986036397
            ]
        },
        {
            "positions": [
                0.12246058695308525,
                -1.1323400633277738,
                1.9565595504270956,
                -0.7093391354725909,
                0.1346871423632128,
                -3.24653244740956
            ]
        }
    ]
}