{
    "goal": {
        "global_pose": {
            "orientation": {
                "w": 0.7047431468963623,
                "x": -0.7094548344612122,
                "y": 0.0024358443915843964,
                "z": -0.0022348060738295317
            },
            "position": {
                "x": 0.6094750761985779,
                "y": 0.3671506643295288,
                "z": 0.19426114857196808
            }
        },
        "name": "move_to_magneteinheit_A"
    },
    "id": "SBL_move_to_magneteinheit_A_62",
    "joint_names": [
        "shoulder_pan_joint",
        "shoulder_lift_joint",
        "elbow_joint",
        "wrist_1_joint",
        "wrist_2_joint",
        "wrist_3_joint"
    ],
    "metrics": {
        "cart_traj_len": 1.21584610095861,
        "distance_elbow_joint": 0.13348090749727914,
        "distance_shoulder_lift_joint": 0.7650085630552352,
        "distance_shoulder_pan_joint": 1.2420367143487558,
        "distance_wrist_1_joint": 1.139217914591013,
        "distance_wrist_2_joint": 1.4345967118385805,
        "distance_wrist_3_joint": 4.361731024952241,
        "smoothness": 0.22020649959215072,
        "time": 0.26661106599999995,
        "traj_len": 3.0126519606956106,
        "weighted_distance": 4.513684582756883
    },
    "planner": "SBL",
    "start": {
        "state": {
            "elbow_joint": 1.919643534880228,
            "shoulder_lift_joint": -1.8972525353963687,
            "shoulder_pan_joint": -1.1188672234189438,
            "wrist_1_joint": -1.5931878212786155,
            "wrist_2_joint": 1.5706036197970081,
            "wrist_3_joint": 1.118896926603594
        }
    },
    "waypoints": [
        {
            "positions": [
                -1.1188672234189438,
                -1.8972525353963687,
                1.919643534880228,
                -1.5931878212786155,
                1.5706036197970081,
                1.118896926603594
            ]
        },
        {
            "positions": [
                -1.0662799209381932,
                -1.864725657522282,
                1.9175295518231228,
                -1.5474381329189013,
                1.5054516724318512,
                0.9252126648816674
            ]
        },
        {
            "positions": [
                -1.0136926184574426,
                -1.8321987796481953,
                1.9154155687660173,
                -1.5016884445591872,
                1.4402997250666942,
                0.7315284031597409
            ]
        },
        {
            "positions": [
                -0.961105315976692,
                -1.7996719017741085,
                1.913301585708912,
                -1.455938756199473,
                1.3751477777015373,
                0.5378441414378144
            ]
        },
        {
            "positions": [
                -0.9085180134959413,
                -1.7671450239000217,
                1.9111876026518066,
                -1.4101890678397586,
                1.3099958303363803,
                0.3441598797158879
            ]
        },
        {
            "positions": [
                -0.8559307110151907,
                -1.7346181460259351,
                1.9090736195947011,
                -1.3644393794800445,
                1.2448438829712232,
                0.15047561799396147
            ]
        },
        {
            "positions": [
                -0.8033434085344401,
                -1.7020912681518483,
                1.9069596365375958,
                -1.3186896911203303,
                1.1796919356060662,
                -0.04320864372796507
            ]
        },
        {
            "positions": [
                -0.7507561060536895,
                -1.6695643902777615,
                1.9048456534804905,
                -1.2729400027606161,
                1.1145399882409093,
                -0.2368929054498916
            ]
        },
        {
            "positions": [
                -0.6981688035729388,
                -1.637037512403675,
                1.902731670423385,
                -1.227190314400902,
                1.0493880408757523,
                -0.43057716717181815
            ]
        },
        {
            "positions": [
                -0.6455815010921881,
                -1.604510634529588,
                1.9006176873662797,
                -1.1814406260411878,
                0.9842360935105953,
                -0.6242614288937447
            ]
        },
        {
            "positions": [
                -0.5929941986114375,
                -1.5719837566555013,
                1.8985037043091744,
                -1.1356909376814737,
                0.9190841461454383,
                -0.817945690615671
            ]
        },
        {
            "positions": [
                -0.5404068961306869,
                -1.5394568787814147,
                1.8963897212520688,
                -1.0899412493217593,
                0.8539321987802814,
                -1.0116299523375976
            ]
        },
        {
            "positions": [
                -0.4878195936499363,
                -1.5069300009073279,
                1.8942757381949635,
                -1.0441915609620454,
                0.7887802514151244,
                -1.205314214059524
            ]
        },
        {
            "positions": [
                -0.4352322911691856,
                -1.474403123033241,
                1.8921617551378582,
                -0.998441872602331,
                0.7236283040499674,
                -1.3989984757814506
            ]
        },
        {
            "positions": [
                -0.3826449886884351,
                -1.4418762451591545,
                1.890047772080753,
                -0.9526921842426168,
                0.6584763566848104,
                -1.5926827375033772
            ]
        },
        {
            "positions": [
                -0.3300576862076845,
                -1.4093493672850677,
                1.8879337890236474,
                -0.9069424958829027,
                0.5933244093196536,
                -1.7863669992253033
            ]
        },
        {
            "positions": [
                -0.2774703837269338,
                -1.3768224894109808,
                1.885819805966542,
                -0.8611928075231884,
                0.5281724619544965,
                -1.9800512609472303
            ]
        },
        {
            "positions": [
                -0.22488308124618317,
                -1.3442956115368943,
                1.8837058229094368,
                -0.8154431191634743,
                0.46302051458933957,
                -2.1737355226691566
            ]
        },
        {
            "positions": [
                -0.17229577876543245,
                -1.3117687336628072,
                1.8815918398523312,
                -0.7696934308037601,
                0.3978685672241824,
                -2.3674197843910836
            ]
        },
        {
            "positions": [
                -0.11970847628468184,
                -1.2792418557887206,
                1.879477856795226,
                -0.7239437424440459,
                0.33271661985902545,
                -2.5611040461130097
            ]
        },
        {
            "positions": [
                -0.06712117380393123,
                -1.246714977914634,
                1.8773638737381206,
                -0.6781940540843318,
                0.2675646724938685,
                -2.754788307834936
            ]
        },
        {
            "positions": [
                -0.014533871323180625,
                -1.214188100040547,
                1.875249890681015,
                -0.6324443657246175,
                0.20241272512871156,
                -2.9484725695568628
            ]
        },
        {
            "positions": [
                0.03805343115756994,
                -1.1816612221664604,
                1.8731359076239098,
                -0.5866946773649033,
                0.13726077776355453,
                -3.1421568312787893
            ]
        },
        {
            "positions": [
                0.08061146104369105,
                -1.156952597253797,
                1.9166225477443901,
                -0.6530570627035539,
                0.136633842860991,
                -3.1924954648137183
            ]
        },
        {
            "positions": [
                0.12316949092981216,
                -1.1322439723411335,
                1.9601091878648707,
                -0.7194194480422044,
                0.13600690795842751,
                -3.2428340983486468
            ]
        }
    ]
}