{
    "goal": {
        "global_pose": {
            "orientation": {
                "w": 0.7047431468963623,
                "x": -0.7094548344612122,
                "y": 0.0024358443915843964,
                "z": -0.0022348060738295317
            },
            "position": {
                "x": 0.6094750761985779,
                "y": 0.3671506643295288,
                "z": 0.19426114857196808
            }
        },
        "name": "move_to_magneteinheit_A"
    },
    "id": "SPARS_move_to_magneteinheit_A_141",
    "joint_names": [
        "shoulder_pan_joint",
        "shoulder_lift_joint",
        "elbow_joint",
        "wrist_1_joint",
        "wrist_2_joint",
        "wrist_3_joint"
    ],
    "metrics": {
        "cart_traj_len": 3.834533351734818,
        "distance_elbow_joint": 3.8698579535668496,
        "distance_shoulder_lift_joint": 0.9347199389240168,
        "distance_shoulder_pan_joint": 3.0382993007332146,
        "distance_wrist_1_joint": 1.8096949227910244,
        "distance_wrist_2_joint": 4.93376607325045,
        "distance_wrist_3_joint": 2.5701903288503174,
        "smoothness": 0.3548519826785229,
        "time": 5.030563046,
        "traj_len": 4.14204400243598,
        "weighted_distance": 5.38891177992904
    },
    "planner": "SPARS",
    "start": {
        "state": {
            "elbow_joint": -1.919618573717145,
            "shoulder_lift_joint": -1.2443395971678275,
            "shoulder_pan_joint": 2.6996025300909787,
            "wrist_1_joint": -1.548550951253194,
            "wrist_2_joint": -1.5709469090946802,
            "wrist_3_joint": 0.4420197732051276
        }
    },
    "waypoints": [
        {
            "positions": [
                2.6996025300909787,
                -1.2443395971678275,
                -1.919618573717145,
                -1.548550951253194,
                -1.5709469090946802,
                0.4420197732051276
            ]
        },
        {
            "positions": [
                2.6060280715644715,
                -1.2268074869777439,
                -1.873605916007561,
                -1.504120073178412,
                -1.4604405594250185,
                0.5210935521369615
            ]
        },
        {
            "positions": [
                2.5124536130379647,
                -1.2092753767876603,
                -1.8275932582979773,
                -1.4596891951036295,
                -1.3499342097553568,
                0.6001673310687955
            ]
        },
        {
            "positions": [
                2.4188791545114574,
                -1.1917432665975767,
                -1.7815806005883932,
                -1.4152583170288473,
                -1.2394278600856952,
                0.6792411100006295
            ]
        },
        {
            "positions": [
                2.3253046959849506,
                -1.174211156407493,
                -1.7355679428788093,
                -1.3708274389540651,
                -1.1289215104160335,
                0.7583148889324633
            ]
        },
        {
            "positions": [
                2.2317302374584433,
                -1.1566790462174095,
                -1.6895552851692255,
                -1.326396560879283,
                -1.018415160746372,
                0.8373886678642974
            ]
        },
        {
            "positions": [
                2.138155778931936,
                -1.1391469360273256,
                -1.6435426274596416,
                -1.2819656828045005,
                -0.9079088110767103,
                0.9164624467961313
            ]
        },
        {
            "positions": [
                2.0445813204054293,
                -1.121614825837242,
                -1.5975299697500578,
                -1.2375348047297183,
                -0.7974024614070487,
                0.9955362257279654
            ]
        },
        {
            "positions": [
                1.9510068618789222,
                -1.1040827156471584,
                -1.551517312040474,
                -1.1931039266549361,
                -0.6868961117373871,
                1.0746100046597993
            ]
        },
        {
            "positions": [
                1.8574324033524152,
                -1.0865506054570748,
                -1.50550465433089,
                -1.1486730485801537,
                -0.5763897620677255,
                1.1536837835916331
            ]
        },
        {
            "positions": [
                1.7638579448259082,
                -1.0690184952669912,
                -1.4594919966213062,
                -1.1042421705053715,
                -0.46588341239806397,
                1.2327575625234672
            ]
        },
        {
            "positions": [
                1.6702834862994012,
                -1.0514863850769076,
                -1.4134793389117224,
                -1.0598112924305894,
                -0.3553770627284023,
                1.3118313414553011
            ]
        },
        {
            "positions": [
                1.576709027772894,
                -1.033954274886824,
                -1.3674666812021383,
                -1.015380414355807,
                -0.24487071305874042,
                1.3909051203871352
            ]
        },
        {
            "positions": [
                1.4831345692463869,
                -1.0164221646967404,
                -1.3214540234925543,
                -0.9709495362810248,
                -0.13436436338907898,
                1.469978899318969
            ]
        },
        {
            "positions": [
                1.3895601107198798,
                -0.9988900545066568,
                -1.2754413657829704,
                -0.9265186582062426,
                -0.023858013719417315,
                1.5490526782508032
            ]
        },
        {
            "positions": [
                1.2959856521933728,
                -0.9813579443165732,
                -1.2294287080733866,
                -0.8820877801314603,
                0.08664833595024435,
                1.628126457182637
            ]
        },
        {
            "positions": [
                1.2024111936668658,
                -0.9638258341264896,
                -1.1834160503638027,
                -0.837656902056678,
                0.197154685619906,
                1.707200236114471
            ]
        },
        {
            "positions": [
                1.1088367351403587,
                -0.9462937239364059,
                -1.1374033926542189,
                -0.7932260239818958,
                0.3076610352895677,
                1.786274015046305
            ]
        },
        {
            "positions": [
                1.0152622766138517,
                -0.9287616137463223,
                -1.091390734944635,
                -0.7487951459071135,
                0.4181673849592291,
                1.8653477939781389
            ]
        },
        {
            "positions": [
                0.9216878180873447,
                -0.9112295035562387,
                -1.0453780772350512,
                -0.7043642678323313,
                0.528673734628891,
                1.9444215729099728
            ]
        },
        {
            "positions": [
                0.8281133595608376,
                -0.8936973933661551,
                -0.9993654195254673,
                -0.659933389757549,
                0.6391800842985522,
                2.023495351841807
            ]
        },
        {
            "positions": [
                0.7345389010343306,
                -0.8761652831760713,
                -0.9533527618158835,
                -0.6155025116827668,
                0.7496864339682139,
                2.1025691307736407
            ]
        },
        {
            "positions": [
                0.6409644425078236,
                -0.8586331729859877,
                -0.9073401041062996,
                -0.5710716336079845,
                0.8601927836378755,
                2.1816429097054746
            ]
        },
        {
            "positions": [
                0.5473899839813163,
                -0.8411010627959041,
                -0.8613274463967155,
                -0.5266407555332022,
                0.9706991333075377,
                2.260716688637309
            ]
        },
        {
            "positions": [
                0.4538155254548091,
                -0.8235689526058205,
                -0.8153147886871317,
                -0.48220987745842003,
                1.0812054829771993,
                2.3397904675691428
            ]
        },
        {
            "positions": [
                0.36024106692830227,
                -0.8060368424157369,
                -0.7693021309775478,
                -0.4377789993836376,
                1.191711832646861,
                2.4188642465009766
            ]
        },
        {
            "positions": [
                0.266666608401795,
                -0.7885047322256533,
                -0.7232894732679638,
                -0.39334812130885544,
                1.3022181823165222,
                2.4979380254328105
            ]
        },
        {
            "positions": [
                0.1730921498752882,
                -0.7709726220355697,
                -0.6772768155583799,
                -0.34891724323407325,
                1.4127245319861839,
                2.577011804364645
            ]
        },
        {
            "positions": [
                0.07951769134878095,
                -0.7534405118454861,
                -0.6312641578487961,
                -0.30448636515929106,
                1.5232308816558455,
                2.6560855832964787
            ]
        },
        {
            "positions": [
                -0.01405676717772586,
                -0.7359084016554024,
                -0.5852515001392122,
                -0.26005548708450865,
                1.6337372313255072,
                2.7351593622283126
            ]
        },
        {
            "positions": [
                -0.1076312257042329,
                -0.7183762914653188,
                -0.5392388424296284,
                -0.21562460900972646,
                1.7442435809951686,
                2.8142331411601464
            ]
        },
        {
            "positions": [
                -0.09112654392294717,
                -0.7475731938382837,
                -0.361418969409676,
                -0.24967950762026622,
                1.62863103934084,
                2.8283743526526677
            ]
        },
        {
            "positions": [
                -0.07462186214166142,
                -0.7767700962112485,
                -0.1835990963897236,
                -0.283734406230806,
                1.5130184976865115,
                2.842515564145189
            ]
        },
        {
            "positions": [
                -0.05811718036037568,
                -0.8059669985842134,
                -0.005779223369771214,
                -0.3177893048413457,
                1.397405956032183,
                2.8566567756377106
            ]
        },
        {
            "positions": [
                -0.04161249857908994,
                -0.8351639009571783,
                0.17204064965018118,
                -0.3518442034518855,
                1.2817934143778542,
                2.870797987130232
            ]
        },
        {
            "positions": [
                -0.02510781679780419,
                -0.8643608033301431,
                0.3498605226701337,
                -0.3858991020624253,
                1.1661808727235257,
                2.884939198622753
            ]
        },
        {
            "positions": [
                -0.008603135016518451,
                -0.893557705703108,
                0.527680395690086,
                -0.419954000672965,
                1.0505683310691971,
                2.8990804101152743
            ]
        },
        {
            "positions": [
                0.0079015467647673,
                -0.9227546080760729,
                0.7055002687100385,
                -0.4540088992835048,
                0.9349557894148686,
                2.9132216216077955
            ]
        },
        {
            "positions": [
                0.024406228546053024,
                -0.9519515104490377,
                0.8833201417299907,
                -0.4880637978940445,
                0.81934324776054,
                2.927362833100317
            ]
        },
        {
            "positions": [
                0.040910910327338804,
                -0.9811484128220026,
                1.0611400147499435,
                -0.5221186965045843,
                0.7037307061062112,
                2.9415040445928384
            ]
        },
        {
            "positions": [
                0.05741559210862453,
                -1.0103453151949675,
                1.2389598877698957,
                -0.5561735951151241,
                0.5881181644518827,
                2.9556452560853597
            ]
        },
        {
            "positions": [
                0.07392027388991028,
                -1.0395422175679323,
                1.416779760789848,
                -0.5902284937256639,
                0.47250562279755437,
                2.969786467577881
            ]
        },
        {
            "positions": [
                0.090424955671196,
                -1.068739119940897,
                1.5945996338098003,
                -0.6242833923362036,
                0.3568930811432258,
                2.9839276790704026
            ]
        },
        {
            "positions": [
                0.10692963745248178,
                -1.0979360223138621,
                1.772419506829753,
                -0.6583382909467435,
                0.24128053948889705,
                2.998068890562924
            ]
        },
        {
            "positions": [
                0.1234343192337675,
                -1.127132924686827,
                1.9502393798497053,
                -0.6923931895572831,
                0.1256679978345685,
                3.012210102055445
            ]
        }
    ]
}{
    "goal": {
        "global_pose": {
            "orientation": {
                "w": 0.7047431468963623,
                "x": -0.7094548344612122,
                "y": 0.0024358443915843964,
                "z": -0.0022348060738295317
            },
            "position": {
                "x": 0.6094750761985779,
                "y": 0.3671506643295288,
                "z": 0.19426114857196808
            }
        },
        "name": "move_to_magneteinheit_A"
    },
    "id": "SPARS_move_to_magneteinheit_A_141",
    "joint_names": [
        "shoulder_pan_joint",
        "shoulder_lift_joint",
        "elbow_joint",
        "wrist_1_joint",
        "wrist_2_joint",
        "wrist_3_joint"
    ],
    "metrics": {
        "cart_traj_len": 1.2500116607901555,
        "distance_elbow_joint": 0.0713951700605755,
        "distance_shoulder_lift_joint": 1.1213256898325734,
        "distance_shoulder_pan_joint": 1.2413698217597642,
        "distance_wrist_1_joint": 3.504698428590381,
        "distance_wrist_2_joint": 1.7042984194755777,
        "distance_wrist_3_joint": 1.0978070471462817,
        "smoothness": 7.401486889441618e-17,
        "time": 5.081622781,
        "traj_len": 2.9565003935168273,
        "weighted_distance": 4.018147025585758
    },
    "planner": "SPARS",
    "start": {
        "state": {
            "elbow_joint": 1.919643534880228,
            "shoulder_lift_joint": -1.8972525353963687,
            "shoulder_pan_joint": -1.1188672234189438,
            "wrist_1_joint": -1.5931878212786155,
            "wrist_2_joint": 1.5706036197970081,
            "wrist_3_joint": 1.118896926603594
        }
    },
    "waypoints": [
        {
            "positions": [
                -1.1188672234189438,
                -1.8972525353963687,
                1.919643534880228,
                -1.5931878212786155,
                1.5706036197970081,
                1.118896926603594
            ]
        },
        {
            "positions": [
                -1.0648946224728673,
                -1.8484992445340829,
                1.9227476727089488,
                -1.4408096287312075,
                1.4965036885154612,
                1.0711661854233208
            ]
        },
        {
            "positions": [
                -1.0109220215267904,
                -1.7997459536717972,
                1.9258518105376694,
                -1.2884314361837998,
                1.4224037572339143,
                1.0234354442430478
            ]
        },
        {
            "positions": [
                -0.9569494205807137,
                -1.7509926628095114,
                1.92895594836639,
                -1.136053243636392,
                1.3483038259523676,
                0.9757047030627746
            ]
        },
        {
            "positions": [
                -0.902976819634637,
                -1.7022393719472255,
                1.9320600861951107,
                -0.983675051088984,
                1.2742038946708207,
                0.9279739618825015
            ]
        },
        {
            "positions": [
                -0.8490042186885604,
                -1.6534860810849397,
                1.9351642240238314,
                -0.8312968585415762,
                1.2001039633892738,
                0.8802432207022284
            ]
        },
        {
            "positions": [
                -0.7950316177424837,
                -1.6047327902226538,
                1.9382683618525522,
                -0.6789186659941683,
                1.126004032107727,
                0.8325124795219553
            ]
        },
        {
            "positions": [
                -0.7410590167964068,
                -1.5559794993603682,
                1.941372499681273,
                -0.5265404734467605,
                1.0519041008261802,
                0.7847817383416822
            ]
        },
        {
            "positions": [
                -0.6870864158503303,
                -1.5072262084980823,
                1.9444766375099936,
                -0.37416228089935255,
                0.9778041695446333,
                0.737050997161409
            ]
        },
        {
            "positions": [
                -0.6331138149042534,
                -1.4584729176357965,
                1.9475807753387142,
                -0.22178408835194463,
                0.9037042382630864,
                0.6893202559811359
            ]
        },
        {
            "positions": [
                -0.5791412139581769,
                -1.4097196267735108,
                1.9506849131674349,
                -0.06940589580453693,
                0.8296043069815396,
                0.6415895148008628
            ]
        },
        {
            "positions": [
                -0.5251686130121,
                -1.360966335911225,
                1.9537890509961555,
                0.08297229674287099,
                0.7555043756999927,
                0.5938587736205896
            ]
        },
        {
            "positions": [
                -0.47119601206602346,
                -1.312213045048939,
                1.9568931888248762,
                0.2353504892902789,
                0.6814044444184458,
                0.5461280324403166
            ]
        },
        {
            "positions": [
                -0.41722341111994676,
                -1.2634597541866532,
                1.9599973266535968,
                0.3877286818376866,
                0.607304513136899,
                0.4983972912600435
            ]
        },
        {
            "positions": [
                -0.36325081017386995,
                -1.2147064633243674,
                1.9631014644823175,
                0.5401068743850945,
                0.5332045818553521,
                0.4506665500797703
            ]
        },
        {
            "positions": [
                -0.30927820922779325,
                -1.1659531724620817,
                1.9662056023110381,
                0.6924850669325024,
                0.45910465057380523,
                0.4029358088994972
            ]
        },
        {
            "positions": [
                -0.25530560828171667,
                -1.117199881599796,
                1.9693097401397588,
                0.8448632594799104,
                0.38500471929225855,
                0.3552050677192241
            ]
        },
        {
            "positions": [
                -0.20133300733563997,
                -1.0684465907375102,
                1.9724138779684794,
                0.9972414520273178,
                0.31090478801071164,
                0.307474326538951
            ]
        },
        {
            "positions": [
                -0.14736040638956316,
                -1.0196932998752244,
                1.9755180157972003,
                1.1496196445747262,
                0.23680485672916474,
                0.2597435853586778
            ]
        },
        {
            "positions": [
                -0.09338780544348646,
                -0.9709400090129385,
                1.978622153625921,
                1.3019978371221341,
                0.16270492544761783,
                0.2120128441784047
            ]
        },
        {
            "positions": [
                -0.03941520449740987,
                -0.9221867181506528,
                1.9817262914546416,
                1.4543760296695416,
                0.08860499416607115,
                0.16428210299813162
            ]
        },
        {
            "positions": [
                0.014557396448666937,
                -0.873433427288367,
                1.9848304292833623,
                1.6067542222169495,
                0.014505062884524245,
                0.11655136181785841
            ]
        },
        {
            "positions": [
                0.06852999739474375,
                -0.8246801364260812,
                1.987934567112083,
                1.7591324147643574,
                -0.05959486839702266,
                0.0688206206375852
            ]
        },
        {
            "positions": [
                0.12250259834082025,
                -0.7759268455637953,
                1.9910387049408036,
                1.9115106073117654,
                -0.13369479967856948,
                0.021089879457312288
            ]
        }
    ]
}