{
    "goal": {
        "global_pose": {
            "orientation": {
                "w": 0.5084816217422485,
                "x": -0.49083608388900757,
                "y": 0.5182115435600281,
                "z": -0.4816462993621826
            },
            "position": {
                "x": 0.5540239810943604,
                "y": 0.030875300988554955,
                "z": 0.16403168439865112
            }
        },
        "name": "move_to_storage_A"
    },
    "id": "SPARS_move_to_storage_A_6",
    "joint_names": [
        "shoulder_pan_joint",
        "shoulder_lift_joint",
        "elbow_joint",
        "wrist_1_joint",
        "wrist_2_joint",
        "wrist_3_joint"
    ],
    "metrics": {
        "cart_traj_len": 0.3530154980826915,
        "distance_elbow_joint": 0.44794676357523056,
        "distance_shoulder_lift_joint": 0.23654938182695062,
        "distance_shoulder_pan_joint": 0.4637733238883614,
        "distance_wrist_1_joint": 0.23280704318683132,
        "distance_wrist_2_joint": 1.0900453011381575,
        "distance_wrist_3_joint": 0.09293110563923301,
        "smoothness": 1.5543122343307022e-15,
        "time": 5.0690470990000005,
        "traj_len": 1.60126603637708,
        "weighted_distance": 2.018109876805081
    },
    "planner": "SPARS",
    "start": {
        "state": {
            "elbow_joint": 1.9715477243005601,
            "shoulder_lift_joint": -1.1394853015351272,
            "shoulder_pan_joint": 0.12281154014795169,
            "wrist_1_joint": -0.7804696478968182,
            "wrist_2_joint": 0.12958648046900423,
            "wrist_3_joint": -3.192491284697111
        }
    },
    "waypoints": [
        {
            "positions": [
                0.12281154014795169,
                -1.1394853015351272,
                1.9715477243005601,
                -0.7804696478968182,
                0.12958648046900423,
                -3.192491284697111
            ]
        },
        {
            "positions": [
                0.05655820816390006,
                -1.1732780703675487,
                2.0355401190970217,
                -0.8137277969235084,
                0.2853072377744553,
                -3.179215412462935
            ]
        },
        {
            "positions": [
                -0.009695123820151572,
                -1.2070708391999703,
                2.0995325138934833,
                -0.8469859459501985,
                0.44102799507990637,
                -3.165939540228759
            ]
        },
        {
            "positions": [
                -0.07594845580420319,
                -1.2408636080323918,
                2.163524908689945,
                -0.8802440949768887,
                0.5967487523853574,
                -3.1526636679945828
            ]
        },
        {
            "positions": [
                -0.14220178778825482,
                -1.2746563768648131,
                2.227517303486406,
                -0.9135022440035789,
                0.7524695096908085,
                -3.1393877957604066
            ]
        },
        {
            "positions": [
                -0.20845511977230646,
                -1.3084491456972347,
                2.2915096982828675,
                -0.946760393030269,
                0.9081902669962596,
                -3.1261119235262305
            ]
        },
        {
            "positions": [
                -0.27470845175635805,
                -1.3422419145296562,
                2.355502093079329,
                -0.9800185420569593,
                1.0639110243017105,
                -3.1128360512920543
            ]
        },
        {
            "positions": [
                -0.3409617837404097,
                -1.3760346833620778,
                2.4194944878757907,
                -1.0132766910836495,
                1.2196317816071618,
                -3.099560179057878
            ]
        }
    ]
}