{
    "goal": {
        "global_pose": {
            "orientation": {
                "w": 0.5084816217422485,
                "x": -0.49083608388900757,
                "y": 0.5182115435600281,
                "z": -0.4816462993621826
            },
            "position": {
                "x": 0.5540239810943604,
                "y": 0.030875300988554955,
                "z": 0.16403168439865112
            }
        },
        "name": "move_to_storage_A"
    },
    "id": "SPARS_move_to_storage_A_101",
    "joint_names": [
        "shoulder_pan_joint",
        "shoulder_lift_joint",
        "elbow_joint",
        "wrist_1_joint",
        "wrist_2_joint",
        "wrist_3_joint"
    ],
    "metrics": {
        "cart_traj_len": 0.35286960780510296,
        "distance_elbow_joint": 0.4491472094775091,
        "distance_shoulder_lift_joint": 0.2342587834409049,
        "distance_shoulder_pan_joint": 0.46086538160827517,
        "distance_wrist_1_joint": 0.23918866837026165,
        "distance_wrist_2_joint": 1.100742643732481,
        "distance_wrist_3_joint": 0.10135926393669248,
        "smoothness": 4.440892133664971e-16,
        "time": 5.018648287,
        "traj_len": 1.6079682678977605,
        "weighted_distance": 2.0318001354814044
    },
    "planner": "SPARS",
    "start": {
        "state": {
            "elbow_joint": 1.9715477243005601,
            "shoulder_lift_joint": -1.1394853015351272,
            "shoulder_pan_joint": 0.12281154014795169,
            "wrist_1_joint": -0.7804696478968182,
            "wrist_2_joint": 0.12958648046900423,
            "wrist_3_joint": -3.192491284697111
        }
    },
    "waypoints": [
        {
            "positions": [
                0.12281154014795169,
                -1.1394853015351272,
                1.9715477243005601,
                -0.7804696478968182,
                0.12958648046900423,
                -3.192491284697111
            ]
        },
        {
            "positions": [
                0.05697362848962667,
                -1.172950842026685,
                2.0357116113687757,
                -0.8146394576639984,
                0.2868354295736444,
                -3.1780113898490123
            ]
        },
        {
            "positions": [
                -0.008864283168698348,
                -1.2064163825182428,
                2.099875498436991,
                -0.8488092674311787,
                0.4440843786782845,
                -3.1635314950009135
            ]
        },
        {
            "positions": [
                -0.07470219482702338,
                -1.2398819230098006,
                2.1640393855052067,
                -0.8829790771983589,
                0.6013333277829247,
                -3.1490516001528146
            ]
        },
        {
            "positions": [
                -0.14054010648534837,
                -1.2733474635013584,
                2.228203272573422,
                -0.9171488869655391,
                0.7585822768875647,
                -3.1345717053047153
            ]
        },
        {
            "positions": [
                -0.2063780181436734,
                -1.3068130039929164,
                2.292367159641638,
                -0.9513186967327194,
                0.9158312259922049,
                -3.1200918104566164
            ]
        },
        {
            "positions": [
                -0.27221592980199844,
                -1.3402785444844743,
                2.3565310467098537,
                -0.9854885064998995,
                1.073080175096845,
                -3.1056119156085176
            ]
        },
        {
            "positions": [
                -0.33805384146032347,
                -1.373744084976032,
                2.420694933778069,
                -1.0196583162670798,
                1.230329124201485,
                -3.0911320207604187
            ]
        }
    ]
}