{
    "goal": {
        "global_pose": {
            "orientation": {
                "w": 0.7047431468963623,
                "x": -0.7094548344612122,
                "y": 0.0024358443915843964,
                "z": -0.0022348060738295317
            },
            "position": {
                "x": 0.6094750761985779,
                "y": 0.3671506643295288,
                "z": 0.19426114857196808
            }
        },
        "name": "move_to_magneteinheit_A"
    },
    "id": "SPARS_move_to_magneteinheit_A_19",
    "joint_names": [
        "shoulder_pan_joint",
        "shoulder_lift_joint",
        "elbow_joint",
        "wrist_1_joint",
        "wrist_2_joint",
        "wrist_3_joint"
    ],
    "metrics": {
        "cart_traj_len": 3.7509279073554893,
        "distance_elbow_joint": 3.887852748294822,
        "distance_shoulder_lift_joint": 0.10793489309808901,
        "distance_shoulder_pan_joint": 4.0017142097705785,
        "distance_wrist_1_joint": 2.7859357982114026,
        "distance_wrist_2_joint": 1.6902532245512625,
        "distance_wrist_3_joint": 3.642376229352588,
        "smoothness": 0.25066904734175594,
        "time": 5.059949774,
        "traj_len": 4.014482171249331,
        "weighted_distance": 5.279868235547796
    },
    "planner": "SPARS",
    "start": {
        "state": {
            "elbow_joint": -1.919618573717145,
            "shoulder_lift_joint": -1.2443395971678275,
            "shoulder_pan_joint": 2.6996025300909787,
            "wrist_1_joint": -1.548550951253194,
            "wrist_2_joint": -1.5709469090946802,
            "wrist_3_joint": 0.4420197732051276
        }
    },
    "waypoints": [
        {
            "positions": [
                2.6996025300909787,
                -1.2443395971678275,
                -1.919618573717145,
                -1.548550951253194,
                -1.5709469090946802,
                0.4420197732051276
            ]
        },
        {
            "positions": [
                2.593489412100206,
                -1.2428470973355914,
                -1.819721258956163,
                -1.4910606408193823,
                -1.5287331481162054,
                0.365795011273945
            ]
        },
        {
            "positions": [
                2.487376294109433,
                -1.2413545975033555,
                -1.7198239441951815,
                -1.4335703303855702,
                -1.4865193871377307,
                0.2895702493427623
            ]
        },
        {
            "positions": [
                2.3812631761186607,
                -1.2398620976711194,
                -1.6199266294341998,
                -1.3760800199517584,
                -1.444305626159256,
                0.2133454874115797
            ]
        },
        {
            "positions": [
                2.275150058127888,
                -1.2383695978388836,
                -1.520029314673218,
                -1.3185897095179464,
                -1.4020918651807812,
                0.13712072548039705
            ]
        },
        {
            "positions": [
                2.169036940137115,
                -1.2368770980066475,
                -1.4201319999122362,
                -1.2610993990841346,
                -1.3598781042023065,
                0.060895963549214394
            ]
        },
        {
            "positions": [
                2.062923822146342,
                -1.2353845981744116,
                -1.3202346851512545,
                -1.2036090886503228,
                -1.3176643432238317,
                -0.015328798381968212
            ]
        },
        {
            "positions": [
                1.9568107041555693,
                -1.2338920983421755,
                -1.220337370390273,
                -1.1461187782165108,
                -1.275450582245357,
                -0.09155356031315093
            ]
        },
        {
            "positions": [
                1.8506975861647965,
                -1.2323995985099396,
                -1.120440055629291,
                -1.088628467782699,
                -1.2332368212668823,
                -0.16777832224433348
            ]
        },
        {
            "positions": [
                1.7445844681740237,
                -1.2309070986777035,
                -1.0205427408683092,
                -1.031138157348887,
                -1.1910230602884075,
                -0.24400308417551625
            ]
        },
        {
            "positions": [
                1.638471350183251,
                -1.2294145988454677,
                -0.9206454261073276,
                -0.9736478469150751,
                -1.148809299309933,
                -0.3202278461066988
            ]
        },
        {
            "positions": [
                1.5323582321924782,
                -1.2279220990132316,
                -0.8207481113463457,
                -0.9161575364812631,
                -1.106595538331458,
                -0.39645260803788146
            ]
        },
        {
            "positions": [
                1.4262451142017056,
                -1.2264295991809955,
                -0.7208507965853641,
                -0.8586672260474513,
                -1.0643817773529836,
                -0.472677369969064
            ]
        },
        {
            "positions": [
                1.3201319962109328,
                -1.2249370993487596,
                -0.6209534818243823,
                -0.8011769156136394,
                -1.0221680163745086,
                -0.5489021319002467
            ]
        },
        {
            "positions": [
                1.2140188782201602,
                -1.2234445995165235,
                -0.5210561670634006,
                -0.7436866051798274,
                -0.9799542553960341,
                -0.6251268938314294
            ]
        },
        {
            "positions": [
                1.1079057602293874,
                -1.2219520996842876,
                -0.4211588523024188,
                -0.6861962947460155,
                -0.9377404944175594,
                -0.701351655762612
            ]
        },
        {
            "positions": [
                1.0017926422386145,
                -1.2204595998520515,
                -0.32126153754143716,
                -0.6287059843122037,
                -0.8955267334390846,
                -0.7775764176937945
            ]
        },
        {
            "positions": [
                0.8956795242478419,
                -1.2189671000198157,
                -0.22136422278045553,
                -0.5712156738783918,
                -0.85331297246061,
                -0.8538011796249771
            ]
        },
        {
            "positions": [
                0.7895664062570689,
                -1.2174746001875796,
                -0.12146690801947346,
                -0.5137253634445798,
                -0.8110992114821352,
                -0.93002594155616
            ]
        },
        {
            "positions": [
                0.6834532882662963,
                -1.2159821003553437,
                -0.021569593258491837,
                -0.45623505301076794,
                -0.7688854505036604,
                -1.0062507034873425
            ]
        },
        {
            "positions": [
                0.5773401702755234,
                -1.2144896005231076,
                0.07832772150248979,
                -0.39874474257695613,
                -0.7266716895251858,
                -1.0824754654185251
            ]
        },
        {
            "positions": [
                0.47122705228475104,
                -1.2129971006908717,
                0.17822503626347141,
                -0.3412544321431443,
                -0.6844579285467111,
                -1.1587002273497076
            ]
        },
        {
            "positions": [
                0.36511393429397776,
                -1.2115046008586356,
                0.2781223510244535,
                -0.2837641217093321,
                -0.6422441675682362,
                -1.2349249892808905
            ]
        },
        {
            "positions": [
                0.2590008163032054,
                -1.2100121010263996,
                0.3780196657854351,
                -0.22627381127552026,
                -0.6000304065897616,
                -1.3111497512120731
            ]
        },
        {
            "positions": [
                0.15288769831243254,
                -1.2085196011941637,
                0.47791698054641674,
                -0.16878350084170846,
                -0.557816645611287,
                -1.3873745131432555
            ]
        },
        {
            "positions": [
                0.04677458032165971,
                -1.2070271013619276,
                0.5778142953073984,
                -0.11129319040789665,
                -0.5156028846328122,
                -1.4635992750744382
            ]
        },
        {
            "positions": [
                -0.05933853766911312,
                -1.2055346015296917,
                0.6777116100683804,
                -0.053802879974084616,
                -0.4733891236543373,
                -1.539824037005621
            ]
        },
        {
            "positions": [
                -0.16545165565988595,
                -1.2040421016974556,
                0.7776089248293621,
                0.0036874304597271923,
                -0.43117536267586276,
                -1.6160487989368035
            ]
        },
        {
            "positions": [
                -0.27156477365065834,
                -1.2025496018652198,
                0.8775062395903437,
                0.06117774089353922,
                -0.388961601697388,
                -1.6922735608679864
            ]
        },
        {
            "positions": [
                -0.3776778916414312,
                -1.2010571020329837,
                0.9774035543513253,
                0.11866805132735103,
                -0.3467478407189133,
                -1.7684983227991689
            ]
        },
        {
            "positions": [
                -0.483791009632204,
                -1.1995646022007478,
                1.0773008691123074,
                0.17615836176116306,
                -0.30453407974043856,
                -1.8447230847303517
            ]
        },
        {
            "positions": [
                -0.5899041276229767,
                -1.1980721023685117,
                1.177198183873289,
                0.2336486721949748,
                -0.26232031876196377,
                -1.9209478466615342
            ]
        },
        {
            "positions": [
                -0.52515798652692,
                -1.1924659752504414,
                1.249110546664597,
                0.14239992903468085,
                -0.22762698837845952,
                -2.037257720251164
            ]
        },
        {
            "positions": [
                -0.46041184543086333,
                -1.186859848132371,
                1.321022909455905,
                0.05115118587438694,
                -0.19293365799495524,
                -2.1535675938407937
            ]
        },
        {
            "positions": [
                -0.39566570433480663,
                -1.1812537210143008,
                1.392935272247213,
                -0.04009755728590694,
                -0.158240327611451,
                -2.269877467430423
            ]
        },
        {
            "positions": [
                -0.3309195632387499,
                -1.1756475938962305,
                1.4648476350385211,
                -0.1313463004462009,
                -0.12354699722794671,
                -2.3861873410200527
            ]
        },
        {
            "positions": [
                -0.2661734221426932,
                -1.1700414667781602,
                1.536759997829829,
                -0.22259504360649482,
                -0.08885366684444246,
                -2.5024972146096824
            ]
        },
        {
            "positions": [
                -0.20142728104663649,
                -1.16443533966009,
                1.608672360621137,
                -0.3138437867667887,
                -0.05416033646093821,
                -2.618807088199312
            ]
        },
        {
            "positions": [
                -0.1366811399505798,
                -1.1588292125420196,
                1.6805847234124451,
                -0.40509252992708267,
                -0.019467006077433957,
                -2.735116961788942
            ]
        },
        {
            "positions": [
                -0.07193499885452304,
                -1.1532230854239494,
                1.7524970862037532,
                -0.49634127308737663,
                0.015226324306070349,
                -2.8514268353785717
            ]
        },
        {
            "positions": [
                -0.007188857758466338,
                -1.147616958305879,
                1.8244094489950613,
                -0.5875900162476706,
                0.0499196546895746,
                -2.967736708968201
            ]
        },
        {
            "positions": [
                0.05755728333759036,
                -1.1420108311878088,
                1.8963218117863692,
                -0.6788387594079645,
                0.08461298507307885,
                -3.0840465825578307
            ]
        },
        {
            "positions": [
                0.122303424433647,
                -1.1364047040697385,
                1.9682341745776772,
                -0.7700875025682583,
                0.11930631545658311,
                -3.2003564561474604
            ]
        }
    ]
}{
    "goal": {
        "global_pose": {
            "orientation": {
                "w": 0.7047431468963623,
                "x": -0.7094548344612122,
                "y": 0.0024358443915843964,
                "z": -0.0022348060738295317
            },
            "position": {
                "x": 0.6094750761985779,
                "y": 0.3671506643295288,
                "z": 0.19426114857196808
            }
        },
        "name": "move_to_magneteinheit_A"
    },
    "id": "SPARS_move_to_magneteinheit_A_19",
    "joint_names": [
        "shoulder_pan_joint",
        "shoulder_lift_joint",
        "elbow_joint",
        "wrist_1_joint",
        "wrist_2_joint",
        "wrist_3_joint"
    ],
    "metrics": {
        "cart_traj_len": 1.2259833162836746,
        "distance_elbow_joint": 0.1620469981295789,
        "distance_shoulder_lift_joint": 0.7489608548210556,
        "distance_shoulder_pan_joint": 1.2420163119952754,
        "distance_wrist_1_joint": 0.7427574382864517,
        "distance_wrist_2_joint": 2.497522137119315,
        "distance_wrist_3_joint": 4.251328360332323,
        "smoothness": 0.3199392702784213,
        "time": 5.038101253,
        "traj_len": 3.1055807992522104,
        "weighted_distance": 4.624669544600393
    },
    "planner": "SPARS",
    "start": {
        "state": {
            "elbow_joint": 1.919643534880228,
            "shoulder_lift_joint": -1.8972525353963687,
            "shoulder_pan_joint": -1.1188672234189438,
            "wrist_1_joint": -1.5931878212786155,
            "wrist_2_joint": 1.5706036197970081,
            "wrist_3_joint": 1.118896926603594
        }
    },
    "waypoints": [
        {
            "positions": [
                -1.1188672234189438,
                -1.8972525353963687,
                1.919643534880228,
                -1.5931878212786155,
                1.5706036197970081,
                1.118896926603594
            ]
        },
        {
            "positions": [
                -1.0703730950673764,
                -1.8605461000511907,
                1.925717126694331,
                -1.5609368952889828,
                1.4671747733257339,
                0.9557930123476077
            ]
        },
        {
            "positions": [
                -1.021878966715809,
                -1.8238396647060127,
                1.9317907185084338,
                -1.5286859692993504,
                1.3637459268544596,
                0.7926890980916215
            ]
        },
        {
            "positions": [
                -0.9733848383642417,
                -1.7871332293608344,
                1.9378643103225366,
                -1.4964350433097178,
                1.2603170803831851,
                0.6295851838356352
            ]
        },
        {
            "positions": [
                -0.9248907100126743,
                -1.7504267940156564,
                1.9439379021366392,
                -1.4641841173200851,
                1.156888233911911,
                0.46648126957964897
            ]
        },
        {
            "positions": [
                -0.8763965816611069,
                -1.7137203586704783,
                1.950011493950742,
                -1.4319331913304527,
                1.0534593874406366,
                0.3033773553236627
            ]
        },
        {
            "positions": [
                -0.8279024533095396,
                -1.6770139233253003,
                1.9560850857648449,
                -1.39968226534082,
                0.9500305409693623,
                0.14027344106767647
            ]
        },
        {
            "positions": [
                -0.7794083249579722,
                -1.640307487980122,
                1.9621586775789477,
                -1.3674313393511877,
                0.8466016944980881,
                -0.022830473188309774
            ]
        },
        {
            "positions": [
                -0.7309141966064048,
                -1.6036010526349442,
                1.9682322693930505,
                -1.335180413361555,
                0.7431728480268138,
                -0.18593438744429602
            ]
        },
        {
            "positions": [
                -0.6824200682548374,
                -1.566894617289766,
                1.9743058612071533,
                -1.3029294873719226,
                0.6397440015555396,
                -0.34903830170028227
            ]
        },
        {
            "positions": [
                -0.63392593990327,
                -1.530188181944588,
                1.980379453021256,
                -1.27067856138229,
                0.5363151550842653,
                -0.5121422159562685
            ]
        },
        {
            "positions": [
                -0.5854318115517025,
                -1.49348174659941,
                1.9864530448353588,
                -1.2384276353926573,
                0.4328863086129908,
                -0.675246130212255
            ]
        },
        {
            "positions": [
                -0.5369376832001352,
                -1.4567753112542317,
                1.9925266366494616,
                -1.206176709403025,
                0.32945746214171656,
                -0.838350044468241
            ]
        },
        {
            "positions": [
                -0.48844355484856783,
                -1.4200688759090536,
                1.9986002284635644,
                -1.1739257834133923,
                0.2260286156704423,
                -1.0014539587242275
            ]
        },
        {
            "positions": [
                -0.4399494264970004,
                -1.3833624405638756,
                2.004673820277667,
                -1.1416748574237596,
                0.12259976919916804,
                -1.1645578729802135
            ]
        },
        {
            "positions": [
                -0.391455298145433,
                -1.3466560052186975,
                2.01074741209177,
                -1.1094239314341272,
                0.01917092272789378,
                -1.3276617872362
            ]
        },
        {
            "positions": [
                -0.3429611697938657,
                -1.3099495698735195,
                2.0168210039058727,
                -1.0771730054444946,
                -0.08425792374338048,
                -1.490765701492186
            ]
        },
        {
            "positions": [
                -0.2944670414422983,
                -1.2732431345283413,
                2.0228945957199755,
                -1.044922079454862,
                -0.18768677021465496,
                -1.6538696157481725
            ]
        },
        {
            "positions": [
                -0.24597291309073088,
                -1.2365366991831634,
                2.0289681875340784,
                -1.0126711534652295,
                -0.291115616685929,
                -1.8169735300041585
            ]
        },
        {
            "positions": [
                -0.19747878473916353,
                -1.1998302638379852,
                2.035041779348181,
                -0.9804202274755969,
                -0.3945444631572036,
                -1.980077444260145
            ]
        },
        {
            "positions": [
                -0.14404080585324774,
                -1.1912404999608732,
                2.0272669870712434,
                -0.9587552533950247,
                -0.30581545412968647,
                -2.172136442504909
            ]
        },
        {
            "positions": [
                -0.09060282696733193,
                -1.1826507360837613,
                2.019492194794306,
                -0.9370902793144525,
                -0.2170864451021694,
                -2.364195440749673
            ]
        },
        {
            "positions": [
                -0.037164848081416124,
                -1.1740609722066493,
                2.0117174025173683,
                -0.9154253052338803,
                -0.12835743607465228,
                -2.556254438994437
            ]
        },
        {
            "positions": [
                0.016273130804499658,
                -1.165471208329537,
                2.0039426102404305,
                -0.8937603311533081,
                -0.039628427047135206,
                -2.748313437239201
            ]
        },
        {
            "positions": [
                0.0697111096904155,
                -1.1568814444524251,
                1.996167817963493,
                -0.872095357072736,
                0.049100581980381974,
                -2.9403724354839644
            ]
        },
        {
            "positions": [
                0.12314908857633126,
                -1.1482916805753132,
                1.9883930256865554,
                -0.8504303829921638,
                0.13782959100789904,
                -3.1324314337287285
            ]
        }
    ]
}