{
    "goal": {
        "global_pose": {
            "orientation": {
                "w": 0.7047431468963623,
                "x": -0.7094548344612122,
                "y": 0.0024358443915843964,
                "z": -0.0022348060738295317
            },
            "position": {
                "x": 0.6094750761985779,
                "y": 0.3671506643295288,
                "z": 0.19426114857196808
            }
        },
        "name": "move_to_magneteinheit_A"
    },
    "id": "SPARS_move_to_magneteinheit_A_37",
    "joint_names": [
        "shoulder_pan_joint",
        "shoulder_lift_joint",
        "elbow_joint",
        "wrist_1_joint",
        "wrist_2_joint",
        "wrist_3_joint"
    ],
    "metrics": {
        "cart_traj_len": 3.8209928519764187,
        "distance_elbow_joint": 3.915040042915118,
        "distance_shoulder_lift_joint": 0.811339541971635,
        "distance_shoulder_pan_joint": 3.9276074200714977,
        "distance_wrist_1_joint": 3.483491284835078,
        "distance_wrist_2_joint": 2.7630493621518646,
        "distance_wrist_3_joint": 0.49423625624685413,
        "smoothness": 0.2210450647761587,
        "time": 5.029508286,
        "traj_len": 3.9236161774811813,
        "weighted_distance": 4.75707652531181
    },
    "planner": "SPARS",
    "start": {
        "state": {
            "elbow_joint": -1.919618573717145,
            "shoulder_lift_joint": -1.2443395971678275,
            "shoulder_pan_joint": 2.6996025300909787,
            "wrist_1_joint": -1.548550951253194,
            "wrist_2_joint": -1.5709469090946802,
            "wrist_3_joint": 0.4420197732051276
        }
    },
    "waypoints": [
        {
            "positions": [
                2.6996025300909787,
                -1.2443395971678275,
                -1.919618573717145,
                -1.548550951253194,
                -1.5709469090946802,
                0.4420197732051276
            ]
        },
        {
            "positions": [
                2.574534255649934,
                -1.2509689659360963,
                -1.8049223115378825,
                -1.504191952599548,
                -1.4901090248087359,
                0.42364665537655366
            ]
        },
        {
            "positions": [
                2.4494659812088893,
                -1.2575983347043649,
                -1.69022604935862,
                -1.4598329539459016,
                -1.4092711405227916,
                0.4052735375479798
            ]
        },
        {
            "positions": [
                2.3243977067678445,
                -1.2642277034726337,
                -1.5755297871793577,
                -1.4154739552922555,
                -1.3284332562368473,
                0.38690041971940586
            ]
        },
        {
            "positions": [
                2.1993294323268,
                -1.2708570722409025,
                -1.4608335250000952,
                -1.3711149566386092,
                -1.247595371950903,
                0.36852730189083194
            ]
        },
        {
            "positions": [
                2.074261157885755,
                -1.277486441009171,
                -1.3461372628208328,
                -1.326755957984963,
                -1.166757487664959,
                0.350154184062258
            ]
        },
        {
            "positions": [
                1.9491928834447103,
                -1.2841158097774399,
                -1.2314410006415706,
                -1.282396959331317,
                -1.0859196033790146,
                0.3317810662336841
            ]
        },
        {
            "positions": [
                1.824124609003666,
                -1.2907451785457087,
                -1.116744738462308,
                -1.2380379606776706,
                -1.0050817190930703,
                0.3134079484051102
            ]
        },
        {
            "positions": [
                1.699056334562621,
                -1.2973745473139773,
                -1.0020484762830457,
                -1.1936789620240245,
                -0.924243834807126,
                0.2950348305765363
            ]
        },
        {
            "positions": [
                1.5739880601215765,
                -1.304003916082246,
                -0.8873522141037833,
                -1.1493199633703783,
                -0.8434059505211818,
                0.27666171274796236
            ]
        },
        {
            "positions": [
                1.4489197856805316,
                -1.310633284850515,
                -0.7726559519245206,
                -1.104960964716732,
                -0.7625680662352375,
                0.2582885949193885
            ]
        },
        {
            "positions": [
                1.323851511239487,
                -1.3172626536187835,
                -0.6579596897452584,
                -1.0606019660630859,
                -0.6817301819492932,
                0.23991547709081457
            ]
        },
        {
            "positions": [
                1.1987832367984421,
                -1.3238920223870523,
                -0.543263427565996,
                -1.0162429674094398,
                -0.600892297663349,
                0.22154235926224064
            ]
        },
        {
            "positions": [
                1.0737149623573976,
                -1.330521391155321,
                -0.42856716538673356,
                -0.9718839687557934,
                -0.5200544133774048,
                0.20316924143366674
            ]
        },
        {
            "positions": [
                0.9486466879163531,
                -1.3371507599235897,
                -0.31387090320747113,
                -0.9275249701021472,
                -0.4392165290914605,
                0.18479612360509284
            ]
        },
        {
            "positions": [
                0.8235784134753084,
                -1.3437801286918585,
                -0.19917464102820892,
                -0.8831659714485011,
                -0.3583786448055164,
                0.16642300577651892
            ]
        },
        {
            "positions": [
                0.6985101390342634,
                -1.3504094974601273,
                -0.08447837884894627,
                -0.8388069727948547,
                -0.2775407605195719,
                0.148049887947945
            ]
        },
        {
            "positions": [
                0.5734418645932187,
                -1.3570388662283959,
                0.030217883330316164,
                -0.7944479741412086,
                -0.1967028762336278,
                0.12967677011937112
            ]
        },
        {
            "positions": [
                0.4483735901521744,
                -1.3636682349966647,
                0.14491414550957837,
                -0.7500889754875624,
                -0.11586499194768352,
                0.1113036522907972
            ]
        },
        {
            "positions": [
                0.32330531571112964,
                -1.3702976037649333,
                0.2596104076888406,
                -0.7057299768339163,
                -0.03502710766173922,
                0.09293053446222327
            ]
        },
        {
            "positions": [
                0.19823704127008446,
                -1.376926972533202,
                0.3743066698681037,
                -0.6613709781802699,
                0.045810776624205074,
                0.07455741663364934
            ]
        },
        {
            "positions": [
                0.07316876682903972,
                -1.3835563413014709,
                0.4890029320473659,
                -0.6170119795266238,
                0.12664866091014937,
                0.05618429880507547
            ]
        },
        {
            "positions": [
                -0.05189950761200457,
                -1.3901857100697395,
                0.6036991942266281,
                -0.5726529808729776,
                0.20748654519609366,
                0.037811180976501546
            ]
        },
        {
            "positions": [
                -0.1769677820530493,
                -1.3968150788380083,
                0.7183954564058903,
                -0.5282939822193313,
                0.28832442948203774,
                0.01943806314792762
            ]
        },
        {
            "positions": [
                -0.3020360564940945,
                -1.403444447606277,
                0.833091718585153,
                -0.4839349835656852,
                0.36916231376798225,
                0.001064945319353694
            ]
        },
        {
            "positions": [
                -0.4271043309351388,
                -1.4100738163745457,
                0.9477879807644156,
                -0.43957598491203886,
                0.4500001980539263,
                -0.017308172509220177
            ]
        },
        {
            "positions": [
                -0.5521726053761837,
                -1.4167031851428145,
                1.062484242943678,
                -0.39521698625839274,
                0.5308380823398704,
                -0.0356812903377941
            ]
        },
        {
            "positions": [
                -0.5038988707615883,
                -1.3710620455716254,
                1.1291226162475563,
                -0.22877717769837302,
                0.4836049130029195,
                -0.03450020514465607
            ]
        },
        {
            "positions": [
                -0.45562513614699296,
                -1.3254209060004363,
                1.1957609895514345,
                -0.062337369138353305,
                0.4363717436659687,
                -0.03331911995151804
            ]
        },
        {
            "positions": [
                -0.4073514015323976,
                -1.279779766429247,
                1.2623993628553127,
                0.10410243942166642,
                0.3891385743290179,
                -0.03213803475838001
            ]
        },
        {
            "positions": [
                -0.3590776669178022,
                -1.2341386268580579,
                1.3290377361591907,
                0.27054224798168613,
                0.341905404992067,
                -0.03095694956524198
            ]
        },
        {
            "positions": [
                -0.31080393230320674,
                -1.1884974872868688,
                1.395676109463069,
                0.43698205654170597,
                0.29467223565511613,
                -0.029775864372103947
            ]
        },
        {
            "positions": [
                -0.26253019768861136,
                -1.1428563477156795,
                1.4623144827669472,
                0.6034218651017256,
                0.2474390663181653,
                -0.02859477917896592
            ]
        },
        {
            "positions": [
                -0.21425646307401597,
                -1.0972152081444904,
                1.5289528560708254,
                0.7698616736617454,
                0.20020589698121444,
                -0.027413693985827887
            ]
        },
        {
            "positions": [
                -0.16598272845942058,
                -1.0515740685733013,
                1.5955912293747034,
                0.936301482221765,
                0.15297272764426362,
                -0.026232608792689856
            ]
        },
        {
            "positions": [
                -0.11770899384482514,
                -1.0059329290021122,
                1.6622296026785819,
                1.102741290781785,
                0.10573955830731269,
                -0.025051523599551824
            ]
        },
        {
            "positions": [
                -0.06943525923022975,
                -0.960291789430923,
                1.72886797598246,
                1.2691810993418047,
                0.05850638897036187,
                -0.023870438406413792
            ]
        },
        {
            "positions": [
                -0.021161524615634364,
                -0.9146506498597339,
                1.7955063492863381,
                1.4356209079018243,
                0.011273219633410991,
                -0.02268935321327576
            ]
        },
        {
            "positions": [
                0.027112209998961023,
                -0.8690095102885447,
                1.8621447225902164,
                1.602060716461844,
                -0.03595994970353977,
                -0.021508268020137732
            ]
        },
        {
            "positions": [
                0.07538594461355641,
                -0.8233683707173555,
                1.9287830958940946,
                1.7685005250218637,
                -0.08319311904049065,
                -0.020327182826999697
            ]
        },
        {
            "positions": [
                0.12365967922815183,
                -0.7777272311461664,
                1.9954214691979728,
                1.9349403335818836,
                -0.1304262883774415,
                -0.01914609763386167
            ]
        }
    ]
}{
    "goal": {
        "global_pose": {
            "orientation": {
                "w": 0.7047431468963623,
                "x": -0.7094548344612122,
                "y": 0.0024358443915843964,
                "z": -0.0022348060738295317
            },
            "position": {
                "x": 0.6094750761985779,
                "y": 0.3671506643295288,
                "z": 0.19426114857196808
            }
        },
        "name": "move_to_magneteinheit_A"
    },
    "id": "SPARS_move_to_magneteinheit_A_37",
    "joint_names": [
        "shoulder_pan_joint",
        "shoulder_lift_joint",
        "elbow_joint",
        "wrist_1_joint",
        "wrist_2_joint",
        "wrist_3_joint"
    ],
    "metrics": {
        "cart_traj_len": 1.5825298462927433,
        "distance_elbow_joint": 1.4309853706791393,
        "distance_shoulder_lift_joint": 0.9224172991145332,
        "distance_shoulder_pan_joint": 1.2412274565082257,
        "distance_wrist_1_joint": 0.73344858987921,
        "distance_wrist_2_joint": 1.4316646874335082,
        "distance_wrist_3_joint": 4.246659373700115,
        "smoothness": 0.1568062109232501,
        "time": 5.076251159,
        "traj_len": 3.163289866154338,
        "weighted_distance": 4.545859082948754
    },
    "planner": "SPARS",
    "start": {
        "state": {
            "elbow_joint": 1.919643534880228,
            "shoulder_lift_joint": -1.8972525353963687,
            "shoulder_pan_joint": -1.1188672234189438,
            "wrist_1_joint": -1.5931878212786155,
            "wrist_2_joint": 1.5706036197970081,
            "wrist_3_joint": 1.118896926603594
        }
    },
    "waypoints": [
        {
            "positions": [
                -1.1188672234189438,
                -1.8972525353963687,
                1.919643534880228,
                -1.5931878212786155,
                1.5706036197970081,
                1.118896926603594
            ]
        },
        {
            "positions": [
                -1.0693438875686307,
                -1.8574757397478965,
                1.8872769107419778,
                -1.5827913099639632,
                1.5084628474794957,
                0.9281490371996809
            ]
        },
        {
            "positions": [
                -1.0198205517183176,
                -1.817698944099424,
                1.8549102866037273,
                -1.5723947986493112,
                1.4463220751619834,
                0.7374011477957678
            ]
        },
        {
            "positions": [
                -0.9702972158680044,
                -1.7779221484509518,
                1.822543662465477,
                -1.561998287334659,
                1.384181302844471,
                0.5466532583918547
            ]
        },
        {
            "positions": [
                -0.9207738800176912,
                -1.7381453528024795,
                1.7901770383272266,
                -1.5516017760200067,
                1.3220405305269587,
                0.35590536898794156
            ]
        },
        {
            "positions": [
                -0.8712505441673781,
                -1.698368557154007,
                1.757810414188976,
                -1.5412052647053545,
                1.2598997582094462,
                0.1651574795840285
            ]
        },
        {
            "positions": [
                -0.821727208317065,
                -1.6585917615055348,
                1.7254437900507258,
                -1.5308087533907024,
                1.197758985891934,
                -0.025590409819884474
            ]
        },
        {
            "positions": [
                -0.7722038724667518,
                -1.6188149658570623,
                1.6930771659124753,
                -1.5204122420760502,
                1.1356182135744215,
                -0.21633829922379766
            ]
        },
        {
            "positions": [
                -0.7226805366164386,
                -1.57903817020859,
                1.660710541774225,
                -1.510015730761398,
                1.0734774412569092,
                -0.40708618862771084
            ]
        },
        {
            "positions": [
                -0.6731572007661255,
                -1.5392613745601178,
                1.6283439176359746,
                -1.499619219446746,
                1.0113366689393968,
                -0.5978340780316238
            ]
        },
        {
            "positions": [
                -0.6236338649158124,
                -1.4994845789116453,
                1.595977293497724,
                -1.4892227081320937,
                0.9491958966218844,
                -0.788581967435537
            ]
        },
        {
            "positions": [
                -0.5741105290654992,
                -1.459707783263173,
                1.5636106693594738,
                -1.4788261968174414,
                0.887055124304372,
                -0.9793298568394502
            ]
        },
        {
            "positions": [
                -0.5245871932151861,
                -1.4199309876147006,
                1.5312440452212233,
                -1.4684296855027892,
                0.8249143519868597,
                -1.170077746243363
            ]
        },
        {
            "positions": [
                -0.4750638573648729,
                -1.3801541919662283,
                1.498877421082973,
                -1.4580331741881372,
                0.7627735796693472,
                -1.3608256356472765
            ]
        },
        {
            "positions": [
                -0.4255405215145598,
                -1.340377396317756,
                1.4665107969447226,
                -1.447636662873485,
                0.7006328073518349,
                -1.5515735250511893
            ]
        },
        {
            "positions": [
                -0.3760171856642466,
                -1.3006006006692836,
                1.434144172806472,
                -1.4372401515588327,
                0.6384920350343225,
                -1.7423214144551025
            ]
        },
        {
            "positions": [
                -0.3264938498139335,
                -1.2608238050208114,
                1.4017775486682218,
                -1.4268436402441806,
                0.5763512627168101,
                -1.9330693038590157
            ]
        },
        {
            "positions": [
                -0.27697051396362027,
                -1.221047009372339,
                1.3694109245299715,
                -1.4164471289295284,
                0.5142104903992977,
                -2.123817193262929
            ]
        },
        {
            "positions": [
                -0.22744717811330717,
                -1.1812702137238666,
                1.337044300391721,
                -1.4060506176148762,
                0.4520697180817854,
                -2.3145650826668414
            ]
        },
        {
            "positions": [
                -0.17792384226299396,
                -1.1414934180753944,
                1.3046776762534704,
                -1.395654106300224,
                0.38992894576427295,
                -2.5053129720707545
            ]
        },
        {
            "positions": [
                -0.12840050641268086,
                -1.1017166224269221,
                1.2723110521152203,
                -1.3852575949855719,
                0.3277881734467607,
                -2.6960608614746677
            ]
        },
        {
            "positions": [
                -0.0788771705623676,
                -1.0619398267784497,
                1.2399444279769698,
                -1.3748610836709196,
                0.2656474011292483,
                -2.886808750878581
            ]
        },
        {
            "positions": [
                -0.038629689832037746,
                -1.0793607448777724,
                1.390201680732146,
                -1.2718367132166168,
                0.2403057073760986,
                -2.934999490122169
            ]
        },
        {
            "positions": [
                0.0016177908982921013,
                -1.0967816629770952,
                1.5404589334873222,
                -1.168812342762314,
                0.21496401362294895,
                -2.9831902293657566
            ]
        },
        {
            "positions": [
                0.04186527162862193,
                -1.1142025810764182,
                1.6907161862424984,
                -1.0657879723080113,
                0.18962231986979927,
                -3.0313809686093447
            ]
        },
        {
            "positions": [
                0.0821127523589518,
                -1.131623499175741,
                1.8409734389976746,
                -0.9627636018537082,
                0.16428062611664962,
                -3.0795717078529323
            ]
        },
        {
            "positions": [
                0.12236023308928161,
                -1.1490444172750638,
                1.9912306917528508,
                -0.8597392313994054,
                0.13893893236349994,
                -3.1277624470965204
            ]
        }
    ]
}