{
    "goal": {
        "global_pose": {
            "orientation": {
                "w": 0.7047431468963623,
                "x": -0.7094548344612122,
                "y": 0.0024358443915843964,
                "z": -0.0022348060738295317
            },
            "position": {
                "x": 0.6094750761985779,
                "y": 0.3671506643295288,
                "z": 0.19426114857196808
            }
        },
        "name": "move_to_magneteinheit_A"
    },
    "id": "SPARS_move_to_magneteinheit_A_56",
    "joint_names": [
        "shoulder_pan_joint",
        "shoulder_lift_joint",
        "elbow_joint",
        "wrist_1_joint",
        "wrist_2_joint",
        "wrist_3_joint"
    ],
    "metrics": {
        "cart_traj_len": 2.9633258986786046,
        "distance_elbow_joint": 3.942514280046745,
        "distance_shoulder_lift_joint": 0.4533540632809966,
        "distance_shoulder_pan_joint": 2.74083296154352,
        "distance_wrist_1_joint": 3.5679372838947634,
        "distance_wrist_2_joint": 1.4336195423689566,
        "distance_wrist_3_joint": 2.032910478500804,
        "smoothness": 0.09219918174597443,
        "time": 5.047937618,
        "traj_len": 3.7644612641964836,
        "weighted_distance": 4.8206375504595975
    },
    "planner": "SPARS",
    "start": {
        "state": {
            "elbow_joint": -1.919618573717145,
            "shoulder_lift_joint": -1.2443395971678275,
            "shoulder_pan_joint": 2.6996025300909787,
            "wrist_1_joint": -1.548550951253194,
            "wrist_2_joint": -1.5709469090946802,
            "wrist_3_joint": 0.4420197732051276
        }
    },
    "waypoints": [
        {
            "positions": [
                2.6996025300909787,
                -1.2443395971678275,
                -1.919618573717145,
                -1.548550951253194,
                -1.5709469090946802,
                0.4420197732051276
            ]
        },
        {
            "positions": [
                2.601960380262267,
                -1.2394880246707582,
                -1.8291568533746105,
                -1.44627609787084,
                -1.5378004938048562,
                0.3833133049821308
            ]
        },
        {
            "positions": [
                2.5043182304335554,
                -1.2346364521736888,
                -1.738695133032076,
                -1.3440012444884861,
                -1.5046540785150322,
                0.32460683675913404
            ]
        },
        {
            "positions": [
                2.4066760806048437,
                -1.2297848796766195,
                -1.6482334126895415,
                -1.241726391106132,
                -1.4715076632252084,
                0.26590036853613724
            ]
        },
        {
            "positions": [
                2.3090339307761316,
                -1.22493330717955,
                -1.557771692347007,
                -1.1394515377237782,
                -1.4383612479353844,
                0.20719390031314044
            ]
        },
        {
            "positions": [
                2.21139178094742,
                -1.2200817346824808,
                -1.4673099720044727,
                -1.037176684341424,
                -1.4052148326455605,
                0.1484874320901437
            ]
        },
        {
            "positions": [
                2.1137496311187083,
                -1.2152301621854116,
                -1.3768482516619382,
                -0.9349018309590701,
                -1.3720684173557365,
                0.0897809638671469
            ]
        },
        {
            "positions": [
                2.0161074812899966,
                -1.210378589688342,
                -1.2863865313194036,
                -0.832626977576716,
                -1.3389220020659127,
                0.031074495644150102
            ]
        },
        {
            "positions": [
                1.918465331461285,
                -1.2055270171912729,
                -1.195924810976869,
                -0.730352124194362,
                -1.3057755867760887,
                -0.027631972578846697
            ]
        },
        {
            "positions": [
                1.8208231816325733,
                -1.2006754446942034,
                -1.1054630906343346,
                -0.6280772708120079,
                -1.2726291714862648,
                -0.08633844080184355
            ]
        },
        {
            "positions": [
                1.7231810318038616,
                -1.1958238721971342,
                -1.0150013702918002,
                -0.5258024174296541,
                -1.2394827561964408,
                -0.14504490902484019
            ]
        },
        {
            "positions": [
                1.6255388819751497,
                -1.1909722997000647,
                -0.9245396499492656,
                -0.42352756404729996,
                -1.206336340906617,
                -0.20375137724783704
            ]
        },
        {
            "positions": [
                1.527896732146438,
                -1.1861207272029954,
                -0.8340779296067313,
                -0.3212527106649461,
                -1.173189925616793,
                -0.2624578454708338
            ]
        },
        {
            "positions": [
                1.4302545823177262,
                -1.1812691547059262,
                -0.7436162092641967,
                -0.21897785728259178,
                -1.140043510326969,
                -0.32116431369383064
            ]
        },
        {
            "positions": [
                1.3326124324890145,
                -1.1764175822088567,
                -0.6531544889216623,
                -0.11670300390023791,
                -1.106897095037145,
                -0.3798707819168274
            ]
        },
        {
            "positions": [
                1.2349702826603028,
                -1.1715660097117875,
                -0.5626927685791279,
                -0.014428150517884042,
                -1.073750679747321,
                -0.4385772501398241
            ]
        },
        {
            "positions": [
                1.137328132831591,
                -1.166714437214718,
                -0.47223104823659323,
                0.08784670286447005,
                -1.0406042644574973,
                -0.497283718362821
            ]
        },
        {
            "positions": [
                1.0396859830028795,
                -1.1618628647176488,
                -0.3817693278940588,
                0.19012155624682414,
                -1.0074578491676733,
                -0.5559901865858177
            ]
        },
        {
            "positions": [
                0.9420438331741676,
                -1.1570112922205795,
                -0.2913076075515242,
                0.29239640962917823,
                -0.9743114338778494,
                -0.6146966548088146
            ]
        },
        {
            "positions": [
                0.844401683345456,
                -1.15215971972351,
                -0.20084588720898977,
                0.3946712630115321,
                -0.9411650185880255,
                -0.6734031230318114
            ]
        },
        {
            "positions": [
                0.7467595335167443,
                -1.1473081472264408,
                -0.11038416686645536,
                0.496946116393886,
                -0.9080186032982015,
                -0.7321095912548079
            ]
        },
        {
            "positions": [
                0.6491173836880324,
                -1.1424565747293713,
                -0.019922446523920723,
                0.5992209697762401,
                -0.8748721880083775,
                -0.7908160594778049
            ]
        },
        {
            "positions": [
                0.5514752338593207,
                -1.137605002232302,
                0.07053927381861369,
                0.7014958231585942,
                -0.8417257727185536,
                -0.8495225277008016
            ]
        },
        {
            "positions": [
                0.4979413179572707,
                -1.1181775752833607,
                0.20709287419087535,
                0.7857122250385591,
                -0.7948076556774288,
                -0.8226490959519513
            ]
        },
        {
            "positions": [
                0.44440740205522067,
                -1.0987501483344193,
                0.343646474563137,
                0.8699286269185239,
                -0.7478895386363041,
                -0.7957756642031011
            ]
        },
        {
            "positions": [
                0.39087348615317064,
                -1.0793227213854777,
                0.4802000749353987,
                0.9541450287984887,
                -0.7009714215951794,
                -0.7689022324542508
            ]
        },
        {
            "positions": [
                0.3373395702511206,
                -1.0598952944365363,
                0.6167536753076603,
                1.0383614306784537,
                -0.6540533045540546,
                -0.7420288007054006
            ]
        },
        {
            "positions": [
                0.28380565434907057,
                -1.040467867487595,
                0.753307275679922,
                1.1225778325584186,
                -0.6071351875129298,
                -0.7151553689565503
            ]
        },
        {
            "positions": [
                0.23027173844702054,
                -1.0210404405386535,
                0.8898608760521837,
                1.2067942344383833,
                -0.5602170704718051,
                -0.6882819372077
            ]
        },
        {
            "positions": [
                0.1767378225449705,
                -1.001613013589712,
                1.0264144764244454,
                1.2910106363183482,
                -0.5132989534306804,
                -0.6614085054588498
            ]
        },
        {
            "positions": [
                0.1232039066429205,
                -0.9821855866407706,
                1.162968076796707,
                1.3752270381983132,
                -0.46638083638955563,
                -0.6345350737099995
            ]
        },
        {
            "positions": [
                0.11142067900814384,
                -0.9575871286157571,
                1.285473231716096,
                1.459520262614775,
                -0.42110296749724613,
                -0.5714211969480417
            ]
        },
        {
            "positions": [
                0.0996374513733672,
                -0.9329886705907438,
                1.4079783866354847,
                1.5438134870312368,
                -0.3758250986049366,
                -0.5083073201860839
            ]
        },
        {
            "positions": [
                0.08785422373859055,
                -0.9083902125657303,
                1.5304835415548736,
                1.6281067114476984,
                -0.33054722971262707,
                -0.4451934434241262
            ]
        },
        {
            "positions": [
                0.0760709961038139,
                -0.8837917545407169,
                1.6529886964742624,
                1.7123999358641602,
                -0.28526936082031756,
                -0.3820795666621684
            ]
        },
        {
            "positions": [
                0.06428776846903725,
                -0.8591932965157034,
                1.7754938513936513,
                1.796693160280622,
                -0.23999149192800803,
                -0.3189656899002106
            ]
        },
        {
            "positions": [
                0.052504540834260593,
                -0.83459483849069,
                1.89799900631304,
                1.8809863846970838,
                -0.19471362303569856,
                -0.2558518131382529
            ]
        },
        {
            "positions": [
                0.04072131319948393,
                -0.8099963804656766,
                2.020504161232429,
                1.9652796091135456,
                -0.149435754143389,
                -0.1927379363762951
            ]
        },
        {
            "positions": [
                0.1226730578515089,
                -0.7909855338868309,
                2.0228957063296003,
                2.019386332641568,
                -0.13732736672572315,
                -0.10815435010592518
            ]
        }
    ]
}{
    "goal": {
        "global_pose": {
            "orientation": {
                "w": 0.7047431468963623,
                "x": -0.7094548344612122,
                "y": 0.0024358443915843964,
                "z": -0.0022348060738295317
            },
            "position": {
                "x": 0.6094750761985779,
                "y": 0.3671506643295288,
                "z": 0.19426114857196808
            }
        },
        "name": "move_to_magneteinheit_A"
    },
    "id": "SPARS_move_to_magneteinheit_A_56",
    "joint_names": [
        "shoulder_pan_joint",
        "shoulder_lift_joint",
        "elbow_joint",
        "wrist_1_joint",
        "wrist_2_joint",
        "wrist_3_joint"
    ],
    "metrics": {
        "cart_traj_len": 1.9880736937500407,
        "distance_elbow_joint": 2.7908117808370108,
        "distance_shoulder_lift_joint": 0.7633877996198761,
        "distance_shoulder_pan_joint": 1.2409717187108962,
        "distance_wrist_1_joint": 1.5469802583618404,
        "distance_wrist_2_joint": 1.432302438355202,
        "distance_wrist_3_joint": 4.356261345402804,
        "smoothness": 0.2652790106433124,
        "time": 5.033608649,
        "traj_len": 3.4829176477900874,
        "weighted_distance": 4.88083197096666
    },
    "planner": "SPARS",
    "start": {
        "state": {
            "elbow_joint": 1.919643534880228,
            "shoulder_lift_joint": -1.8972525353963687,
            "shoulder_pan_joint": -1.1188672234189438,
            "wrist_1_joint": -1.5931878212786155,
            "wrist_2_joint": 1.5706036197970081,
            "wrist_3_joint": 1.118896926603594
        }
    },
    "waypoints": [
        {
            "positions": [
                -1.1188672234189438,
                -1.8972525353963687,
                1.919643534880228,
                -1.5931878212786155,
                1.5706036197970081,
                1.118896926603594
            ]
        },
        {
            "positions": [
                -1.0860538201863472,
                -1.8785828990513673,
                1.8508865397558436,
                -1.5327810124227665,
                1.5105940899938624,
                0.9708739343547274
            ]
        },
        {
            "positions": [
                -1.0532404169537506,
                -1.8599132627063657,
                1.7821295446314593,
                -1.4723742035669176,
                1.4505845601907164,
                0.8228509421058607
            ]
        },
        {
            "positions": [
                -1.0204270137211537,
                -1.841243626361364,
                1.7133725495070748,
                -1.411967394711069,
                1.3905750303875706,
                0.6748279498569942
            ]
        },
        {
            "positions": [
                -0.9876136104885571,
                -1.8225739900163627,
                1.6446155543826904,
                -1.35156058585522,
                1.3305655005844246,
                0.5268049576081276
            ]
        },
        {
            "positions": [
                -0.9548002072559605,
                -1.8039043536713613,
                1.575858559258306,
                -1.291153776999371,
                1.2705559707812788,
                0.378781965359261
            ]
        },
        {
            "positions": [
                -0.9219868040233639,
                -1.7852347173263596,
                1.5071015641339218,
                -1.2307469681435221,
                1.2105464409781328,
                0.2307589731103944
            ]
        },
        {
            "positions": [
                -0.8891734007907671,
                -1.766565080981358,
                1.4383445690095373,
                -1.1703401592876732,
                1.150536911174987,
                0.08273598086152778
            ]
        },
        {
            "positions": [
                -0.8563599975581704,
                -1.7478954446363566,
                1.3695875738851528,
                -1.1099333504318243,
                1.090527381371841,
                -0.06528701138733872
            ]
        },
        {
            "positions": [
                -0.8235465943255738,
                -1.7292258082913552,
                1.3008305787607686,
                -1.0495265415759754,
                1.0305178515686952,
                -0.21331000363620545
            ]
        },
        {
            "positions": [
                -0.7907331910929771,
                -1.7105561719463536,
                1.232073583636384,
                -0.9891197327201267,
                0.9705083217655494,
                -0.36133299588507195
            ]
        },
        {
            "positions": [
                -0.7579197878603805,
                -1.691886535601352,
                1.1633165885119996,
                -0.9287129238642777,
                0.9104987919624035,
                -0.5093559881339387
            ]
        },
        {
            "positions": [
                -0.7251063846277839,
                -1.6732168992563505,
                1.0945595933876153,
                -0.8683061150084289,
                0.8504892621592576,
                -0.6573789803828052
            ]
        },
        {
            "positions": [
                -0.692292981395187,
                -1.6545472629113491,
                1.0258025982632308,
                -0.80789930615258,
                0.7904797323561117,
                -0.8054019726316717
            ]
        },
        {
            "positions": [
                -0.6594795781625904,
                -1.6358776265663475,
                0.9570456031388466,
                -0.7474924972967312,
                0.7304702025529659,
                -0.9534249648805384
            ]
        },
        {
            "positions": [
                -0.6266661749299938,
                -1.6172079902213459,
                0.8882886080144621,
                -0.6870856884408822,
                0.6704606727498199,
                -1.1014479571294047
            ]
        },
        {
            "positions": [
                -0.593852771697397,
                -1.5985383538763445,
                0.8195316128900776,
                -0.6266788795850333,
                0.610451142946674,
                -1.2494709493782714
            ]
        },
        {
            "positions": [
                -0.5610393684648004,
                -1.579868717531343,
                0.7507746177656933,
                -0.5662720707291846,
                0.5504416131435281,
                -1.3974939416271381
            ]
        },
        {
            "positions": [
                -0.5282259652322038,
                -1.5611990811863414,
                0.6820176226413088,
                -0.5058652618733355,
                0.49043208334038235,
                -1.5455169338760049
            ]
        },
        {
            "positions": [
                -0.49541256199960715,
                -1.5425294448413398,
                0.6132606275169246,
                -0.44545845301748677,
                0.4304225535372366,
                -1.6935399261248711
            ]
        },
        {
            "positions": [
                -0.46259915876701047,
                -1.5238598084963384,
                0.54450363239254,
                -0.38505164416163795,
                0.3704130237340906,
                -1.8415629183737379
            ]
        },
        {
            "positions": [
                -0.40944428112528664,
                -1.4884057109763524,
                0.673201075878842,
                -0.4158556515475346,
                0.3493119471620647,
                -1.9684539638669627
            ]
        },
        {
            "positions": [
                -0.35628940348356275,
                -1.4529516134563665,
                0.8018985193651441,
                -0.4466596589334313,
                0.32821087059003884,
                -2.0953450093601873
            ]
        },
        {
            "positions": [
                -0.3031345258418389,
                -1.4174975159363805,
                0.9305959628514462,
                -0.4774636663193279,
                0.307109794018013,
                -2.222236054853412
            ]
        },
        {
            "positions": [
                -0.24997964820011503,
                -1.3820434184163946,
                1.0592934063377482,
                -0.5082676737052246,
                0.28600871744598716,
                -2.349127100346637
            ]
        },
        {
            "positions": [
                -0.1968247705583912,
                -1.3465893208964086,
                1.1879908498240503,
                -0.5390716810911212,
                0.2649076408739613,
                -2.476018145839862
            ]
        },
        {
            "positions": [
                -0.14366989291666737,
                -1.3111352233764224,
                1.3166882933103523,
                -0.569875688477018,
                0.24380656430193545,
                -2.6029091913330866
            ]
        },
        {
            "positions": [
                -0.09051501527494349,
                -1.2756811258564364,
                1.4453857367966543,
                -0.6006796958629146,
                0.22270548772990958,
                -2.7298002368263115
            ]
        },
        {
            "positions": [
                -0.0373601376332196,
                -1.2402270283364505,
                1.5740831802829565,
                -0.6314837032488113,
                0.20160441115788372,
                -2.8566912823195363
            ]
        },
        {
            "positions": [
                0.015794740008504282,
                -1.2047729308164645,
                1.7027806237692586,
                -0.6622877106347079,
                0.18050333458585788,
                -2.983582327812761
            ]
        },
        {
            "positions": [
                0.06894961765022806,
                -1.1693188332964786,
                1.8314780672555604,
                -0.6930917180206047,
                0.15940225801383204,
                -3.1104733733059855
            ]
        },
        {
            "positions": [
                0.1221044952919519,
                -1.1338647357764926,
                1.9601755107418628,
                -0.7238957254065013,
                0.13830118144180617,
                -3.2373644187992103
            ]
        }
    ]
}