{
    "goal": {
        "global_pose": {
            "orientation": {
                "w": 0.7047431468963623,
                "x": -0.7094548344612122,
                "y": 0.0024358443915843964,
                "z": -0.0022348060738295317
            },
            "position": {
                "x": 0.6094750761985779,
                "y": 0.3671506643295288,
                "z": 0.19426114857196808
            }
        },
        "name": "move_to_magneteinheit_A"
    },
    "id": "SPARS_move_to_magneteinheit_A_90",
    "joint_names": [
        "shoulder_pan_joint",
        "shoulder_lift_joint",
        "elbow_joint",
        "wrist_1_joint",
        "wrist_2_joint",
        "wrist_3_joint"
    ],
    "metrics": {
        "cart_traj_len": 3.538765395629917,
        "distance_elbow_joint": 3.900734712713396,
        "distance_shoulder_lift_joint": 0.7497028261595282,
        "distance_shoulder_pan_joint": 2.788391564176973,
        "distance_wrist_1_joint": 2.3894805683576723,
        "distance_wrist_2_joint": 1.6914075584933315,
        "distance_wrist_3_joint": 3.554388921246452,
        "smoothness": 0.21289081437523763,
        "time": 5.057528565999999,
        "traj_len": 3.882538621977553,
        "weighted_distance": 5.124819228079295
    },
    "planner": "SPARS",
    "start": {
        "state": {
            "elbow_joint": -1.919618573717145,
            "shoulder_lift_joint": -1.2443395971678275,
            "shoulder_pan_joint": 2.6996025300909787,
            "wrist_1_joint": -1.548550951253194,
            "wrist_2_joint": -1.5709469090946802,
            "wrist_3_joint": 0.4420197732051276
        }
    },
    "waypoints": [
        {
            "positions": [
                2.6996025300909787,
                -1.2443395971678275,
                -1.919618573717145,
                -1.548550951253194,
                -1.5709469090946802,
                0.4420197732051276
            ]
        },
        {
            "positions": [
                2.6004882421155493,
                -1.2675571469791036,
                -1.7994723295135384,
                -1.6080731133454549,
                -1.5080749719705224,
                0.4109191086724053
            ]
        },
        {
            "positions": [
                2.50137395414012,
                -1.29077469679038,
                -1.6793260853099319,
                -1.6675952754377157,
                -1.4452030348463645,
                0.3798184441396829
            ]
        },
        {
            "positions": [
                2.4022596661646904,
                -1.3139922466016563,
                -1.5591798411063253,
                -1.7271174375299765,
                -1.3823310977222065,
                0.3487177796069606
            ]
        },
        {
            "positions": [
                2.303145378189261,
                -1.3372097964129324,
                -1.439033596902719,
                -1.7866395996222373,
                -1.3194591605980488,
                0.3176171150742383
            ]
        },
        {
            "positions": [
                2.204031090213831,
                -1.3604273462242085,
                -1.3188873526991123,
                -1.846161761714498,
                -1.2565872234738908,
                0.286516450541516
            ]
        },
        {
            "positions": [
                2.1049168022384017,
                -1.3836448960354848,
                -1.198741108495506,
                -1.9056839238067589,
                -1.1937152863497331,
                0.25541578600879367
            ]
        },
        {
            "positions": [
                2.0058025142629723,
                -1.4068624458467611,
                -1.0785948642918992,
                -1.9652060858990197,
                -1.1308433492255752,
                0.2243151214760713
            ]
        },
        {
            "positions": [
                1.9066882262875429,
                -1.4300799956580372,
                -0.9584486200882929,
                -2.0247282479912805,
                -1.0679714121014174,
                0.193214456943349
            ]
        },
        {
            "positions": [
                1.8075739383121132,
                -1.4532975454693136,
                -0.8383023758846861,
                -2.0842504100835413,
                -1.0050994749772595,
                0.16211379241062662
            ]
        },
        {
            "positions": [
                1.7084596503366838,
                -1.4765150952805897,
                -0.7181561316810798,
                -2.143772572175802,
                -0.9422275378531016,
                0.1310131278779043
            ]
        },
        {
            "positions": [
                1.6093453623612544,
                -1.499732645091866,
                -0.5980098874774733,
                -2.203294734268063,
                -0.8793556007289438,
                0.099912463345182
            ]
        },
        {
            "positions": [
                1.510231074385825,
                -1.522950194903142,
                -0.47786364327386677,
                -2.2628168963603237,
                -0.8164836636047861,
                0.06881179881245969
            ]
        },
        {
            "positions": [
                1.4111167864103953,
                -1.5461677447144182,
                -0.35771739907026023,
                -2.3223390584525845,
                -0.7536117264806281,
                0.037711134279737324
            ]
        },
        {
            "positions": [
                1.3120024984349659,
                -1.5693852945256945,
                -0.23757115486665364,
                -2.3818612205448453,
                -0.6907397893564703,
                0.006610469747014992
            ]
        },
        {
            "positions": [
                1.2438428063672669,
                -1.559083557013342,
                -0.1429009474379747,
                -2.324360593318117,
                -0.6640537193618313,
                0.1387399524282038
            ]
        },
        {
            "positions": [
                1.1756831142995678,
                -1.548781819500989,
                -0.04823074000929578,
                -2.266859966091389,
                -0.6373676493671925,
                0.27086943510939265
            ]
        },
        {
            "positions": [
                1.1075234222318686,
                -1.5384800819886364,
                0.04643946741938315,
                -2.2093593388646604,
                -0.6106815793725535,
                0.4029989177905815
            ]
        },
        {
            "positions": [
                1.0393637301641696,
                -1.5281783444762835,
                0.14110967484806208,
                -2.151858711637932,
                -0.5839955093779146,
                0.5351284004717702
            ]
        },
        {
            "positions": [
                0.9712040380964706,
                -1.517876606963931,
                0.23577988227674107,
                -2.0943580844112035,
                -0.5573094393832757,
                0.6672578831529591
            ]
        },
        {
            "positions": [
                0.9030443460287715,
                -1.5075748694515783,
                0.33045008970541995,
                -2.0368574571844755,
                -0.5306233693886367,
                0.7993873658341479
            ]
        },
        {
            "positions": [
                0.8348846539610724,
                -1.4972731319392254,
                0.4251202971340989,
                -1.979356829957747,
                -0.5039372993939979,
                0.9315168485153367
            ]
        },
        {
            "positions": [
                0.7667249618933734,
                -1.4869713944268728,
                0.5197905045627778,
                -1.9218562027310186,
                -0.47725122939935893,
                1.0636463311965256
            ]
        },
        {
            "positions": [
                0.6985652698256744,
                -1.47666965691452,
                0.6144607119914569,
                -1.8643555755042904,
                -0.45056515940472003,
                1.1957758138777144
            ]
        },
        {
            "positions": [
                0.6304055777579752,
                -1.4663679194021673,
                0.7091309194201358,
                -1.8068549482775622,
                -0.4238790894100811,
                1.3279052965589033
            ]
        },
        {
            "positions": [
                0.5622458856902761,
                -1.4560661818898144,
                0.8038011268488148,
                -1.7493543210508338,
                -0.39719301941544216,
                1.4600347792400923
            ]
        },
        {
            "positions": [
                0.4940861936225771,
                -1.4457644443774618,
                0.8984713342774935,
                -1.6918536938241053,
                -0.37050694942080326,
                1.592164261921281
            ]
        },
        {
            "positions": [
                0.425926501554878,
                -1.435462706865109,
                0.9931415417061726,
                -1.6343530665973771,
                -0.3438208794261643,
                1.72429374460247
            ]
        },
        {
            "positions": [
                0.357766809487179,
                -1.4251609693527563,
                1.0878117491348513,
                -1.576852439370649,
                -0.31713480943152544,
                1.8564232272836585
            ]
        },
        {
            "positions": [
                0.28960711741947986,
                -1.4148592318404036,
                1.1824819565635305,
                -1.5193518121439205,
                -0.2904487394368865,
                1.9885527099648475
            ]
        },
        {
            "positions": [
                0.22144742535178086,
                -1.4045574943280508,
                1.2771521639922092,
                -1.461851184917192,
                -0.2637626694422476,
                2.120682192646036
            ]
        },
        {
            "positions": [
                0.15328773328408163,
                -1.3942557568156981,
                1.3718223714208884,
                -1.4043505576904638,
                -0.23707659944760862,
                2.252811675327225
            ]
        },
        {
            "positions": [
                0.08512804121638284,
                -1.3839540193033453,
                1.4664925788495673,
                -1.3468499304637356,
                -0.21039052945296977,
                2.3849411580084134
            ]
        },
        {
            "positions": [
                0.01696834914868362,
                -1.3736522817909926,
                1.5611627862782462,
                -1.2893493032370071,
                -0.18370445945833078,
                2.5170706406896026
            ]
        },
        {
            "positions": [
                0.0180654028180582,
                -1.33770656702078,
                1.641208017441742,
                -1.2071386930388879,
                -0.1353922647992933,
                2.637632985651456
            ]
        },
        {
            "positions": [
                0.019162456487432776,
                -1.3017608522505673,
                1.7212532486052379,
                -1.1249280828407684,
                -0.08708007014025584,
                2.75819533061331
            ]
        },
        {
            "positions": [
                0.020259510156807353,
                -1.2658151374803546,
                1.8012984797687337,
                -1.0427174726426491,
                -0.03876787548121838,
                2.878757675575163
            ]
        },
        {
            "positions": [
                0.05441491756565875,
                -1.2254528135615808,
                1.8612376995112396,
                -0.9703752889213741,
                0.014308299478738004,
                2.9610351462285602
            ]
        },
        {
            "positions": [
                0.08857032497451015,
                -1.1850904896428072,
                1.9211769192537456,
                -0.8980331052000993,
                0.06738447443869439,
                3.0433126168819573
            ]
        },
        {
            "positions": [
                0.12272573238336154,
                -1.1447281657240334,
                1.9811161389962515,
                -0.8256909214788243,
                0.12046064939865077,
                3.1255900875353544
            ]
        }
    ]
}{
    "goal": {
        "global_pose": {
            "orientation": {
                "w": 0.7047431468963623,
                "x": -0.7094548344612122,
                "y": 0.0024358443915843964,
                "z": -0.0022348060738295317
            },
            "position": {
                "x": 0.6094750761985779,
                "y": 0.3671506643295288,
                "z": 0.19426114857196808
            }
        },
        "name": "move_to_magneteinheit_A"
    },
    "id": "SPARS_move_to_magneteinheit_A_90",
    "joint_names": [
        "shoulder_pan_joint",
        "shoulder_lift_joint",
        "elbow_joint",
        "wrist_1_joint",
        "wrist_2_joint",
        "wrist_3_joint"
    ],
    "metrics": {
        "cart_traj_len": 1.3629685059016325,
        "distance_elbow_joint": 0.35315234566456466,
        "distance_shoulder_lift_joint": 0.7486822003806561,
        "distance_shoulder_pan_joint": 1.3397128714754485,
        "distance_wrist_1_joint": 0.7514770014757897,
        "distance_wrist_2_joint": 1.43707520654289,
        "distance_wrist_3_joint": 4.262410857695567,
        "smoothness": 0.1377196880836269,
        "time": 5.026969492,
        "traj_len": 2.9820312679841092,
        "weighted_distance": 4.427853250351092
    },
    "planner": "SPARS",
    "start": {
        "state": {
            "elbow_joint": 1.919643534880228,
            "shoulder_lift_joint": -1.8972525353963687,
            "shoulder_pan_joint": -1.1188672234189438,
            "wrist_1_joint": -1.5931878212786155,
            "wrist_2_joint": 1.5706036197970081,
            "wrist_3_joint": 1.118896926603594
        }
    },
    "waypoints": [
        {
            "positions": [
                -1.1188672234189438,
                -1.8972525353963687,
                1.919643534880228,
                -1.5931878212786155,
                1.5706036197970081,
                1.118896926603594
            ]
        },
        {
            "positions": [
                -1.1433709672945875,
                -1.8809974811302965,
                1.8482617192393347,
                -1.5856515160737374,
                1.502682586562169,
                1.0074042662324945
            ]
        },
        {
            "positions": [
                -1.167874711170231,
                -1.8647424268642243,
                1.7768799035984413,
                -1.5781152108688596,
                1.4347615533273297,
                0.8959116058613952
            ]
        },
        {
            "positions": [
                -1.106412550040509,
                -1.830638993919057,
                1.786898413807145,
                -1.5430483351038105,
                1.3727980704667007,
                0.7035580088636157
            ]
        },
        {
            "positions": [
                -1.0449503889107872,
                -1.7965355609738898,
                1.7969169240158487,
                -1.5079814593387613,
                1.3108345876060714,
                0.5112044118658363
            ]
        },
        {
            "positions": [
                -0.9834882277810651,
                -1.7624321280287227,
                1.8069354342245525,
                -1.4729145835737119,
                1.2488711047454424,
                0.318850814868057
            ]
        },
        {
            "positions": [
                -0.9220260666513431,
                -1.7283286950835555,
                1.816953944433256,
                -1.4378477078086627,
                1.1869076218848131,
                0.12649721787027757
            ]
        },
        {
            "positions": [
                -0.8605639055216212,
                -1.6942252621383882,
                1.82697245464196,
                -1.4027808320436135,
                1.124944139024184,
                -0.06585637912750186
            ]
        },
        {
            "positions": [
                -0.7991017443918993,
                -1.660121829193221,
                1.8369909648506635,
                -1.3677139562785643,
                1.062980656163555,
                -0.2582099761252812
            ]
        },
        {
            "positions": [
                -0.7376395832621773,
                -1.6260183962480537,
                1.8470094750593673,
                -1.332647080513515,
                1.0010171733029258,
                -0.4505635731230606
            ]
        },
        {
            "positions": [
                -0.6761774221324552,
                -1.5919149633028864,
                1.857027985268071,
                -1.2975802047484657,
                0.9390536904422968,
                -0.64291717012084
            ]
        },
        {
            "positions": [
                -0.6147152610027333,
                -1.5578115303577194,
                1.8670464954767747,
                -1.2625133289834165,
                0.8770902075816677,
                -0.8352707671186195
            ]
        },
        {
            "positions": [
                -0.5532530998730114,
                -1.523708097412552,
                1.8770650056854783,
                -1.2274464532183673,
                0.8151267247210385,
                -1.027624364116399
            ]
        },
        {
            "positions": [
                -0.4917909387432893,
                -1.4896046644673848,
                1.887083515894182,
                -1.1923795774533181,
                0.7531632418604093,
                -1.2199779611141786
            ]
        },
        {
            "positions": [
                -0.43032877761356747,
                -1.4555012315222178,
                1.8971020261028857,
                -1.157312701688269,
                0.6911997589997803,
                -1.4123315581119575
            ]
        },
        {
            "positions": [
                -0.36886661648384544,
                -1.4213977985770505,
                1.9071205363115895,
                -1.1222458259232195,
                0.6292362761391511,
                -1.6046851551097374
            ]
        },
        {
            "positions": [
                -0.30740445535412353,
                -1.3872943656318832,
                1.917139046520293,
                -1.0871789501581706,
                0.567272793278522,
                -1.7970387521075164
            ]
        },
        {
            "positions": [
                -0.2459422942244015,
                -1.353190932686716,
                1.927157556728997,
                -1.0521120743931212,
                0.5053093104178928,
                -1.9893923491052958
            ]
        },
        {
            "positions": [
                -0.1844801330946796,
                -1.3190874997415487,
                1.9371760669377005,
                -1.017045198628072,
                0.4433458275572638,
                -2.1817459461030753
            ]
        },
        {
            "positions": [
                -0.12301797196495756,
                -1.2849840667963814,
                1.9471945771464043,
                -0.9819783228630227,
                0.3813823446966347,
                -2.3740995431008547
            ]
        },
        {
            "positions": [
                -0.06155581083523565,
                -1.2508806338512142,
                1.957213087355108,
                -0.9469114470979735,
                0.31941886183600565,
                -2.566453140098634
            ]
        },
        {
            "positions": [
                -9.364970551350993e-05,
                -1.216777200906047,
                1.9672315975638117,
                -0.9118445713329243,
                0.2574553789753764,
                -2.7588067370964136
            ]
        },
        {
            "positions": [
                0.06136851142420818,
                -1.1826737679608799,
                1.9772501077725153,
                -0.8767776955678751,
                0.19549189611474738,
                -2.951160334094193
            ]
        },
        {
            "positions": [
                0.12283067255393028,
                -1.1485703350157126,
                1.9872686179812191,
                -0.8417108198028258,
                0.13352841325411802,
                -3.1435139310919724
            ]
        }
    ]
}