{
    "goal": {
        "global_pose": {
            "orientation": {
                "w": 0.7047431468963623,
                "x": -0.7094548344612122,
                "y": 0.0024358443915843964,
                "z": -0.0022348060738295317
            },
            "position": {
                "x": 0.6094750761985779,
                "y": 0.3671506643295288,
                "z": 0.19426114857196808
            }
        },
        "name": "move_to_magneteinheit_A"
    },
    "id": "SPARStwo_move_to_magneteinheit_A_29",
    "joint_names": [
        "shoulder_pan_joint",
        "shoulder_lift_joint",
        "elbow_joint",
        "wrist_1_joint",
        "wrist_2_joint",
        "wrist_3_joint"
    ],
    "metrics": {
        "cart_traj_len": 1.2507372112086206,
        "distance_elbow_joint": 0.04804346928827119,
        "distance_shoulder_lift_joint": 0.7602830104045881,
        "distance_shoulder_pan_joint": 1.2424072188136681,
        "distance_wrist_1_joint": 2.8235363317404985,
        "distance_wrist_2_joint": 1.4334332280006485,
        "distance_wrist_3_joint": 4.326021494624826,
        "smoothness": 0.2918983295053907,
        "time": 5.042184233,
        "traj_len": 3.2609392439713596,
        "weighted_distance": 4.852085871237575
    },
    "planner": "SPARStwo",
    "start": {
        "state": {
            "elbow_joint": 1.919643534880228,
            "shoulder_lift_joint": -1.8972525353963687,
            "shoulder_pan_joint": -1.1188672234189438,
            "wrist_1_joint": -1.5931878212786155,
            "wrist_2_joint": 1.5706036197970081,
            "wrist_3_joint": 1.118896926603594
        }
    },
    "waypoints": [
        {
            "positions": [
                -1.1188672234189438,
                -1.8972525353963687,
                1.919643534880228,
                -1.5931878212786155,
                1.5706036197970081,
                1.118896926603594
            ]
        },
        {
            "positions": [
                -1.1000630777097062,
                -1.8720866552622986,
                1.919945581301534,
                -1.4970536721862981,
                1.5145128788503326,
                0.9201063254396493
            ]
        },
        {
            "positions": [
                -1.0812589320004686,
                -1.8469207751282282,
                1.9202476277228397,
                -1.400919523093981,
                1.458422137903657,
                0.7213157242757047
            ]
        },
        {
            "positions": [
                -1.062454786291231,
                -1.821754894994158,
                1.9205496741441457,
                -1.3047853740016637,
                1.4023313969569815,
                0.5225251231117601
            ]
        },
        {
            "positions": [
                -1.0436506405819934,
                -1.7965890148600876,
                1.9208517205654516,
                -1.2086512249093464,
                1.3462406560103057,
                0.3237345219478155
            ]
        },
        {
            "positions": [
                -1.0248464948727558,
                -1.7714231347260174,
                1.9211537669867573,
                -1.112517075817029,
                1.2901499150636302,
                0.12494392078387095
            ]
        },
        {
            "positions": [
                -1.0060423491635184,
                -1.746257254591947,
                1.9214558134080633,
                -1.0163829267247118,
                1.2340591741169546,
                -0.07384668038007369
            ]
        },
        {
            "positions": [
                -0.9872382034542807,
                -1.7210913744578769,
                1.921757859829369,
                -0.9202487776323947,
                1.177968433170279,
                -0.27263728154401834
            ]
        },
        {
            "positions": [
                -0.9684340577450431,
                -1.6959254943238067,
                1.922059906250675,
                -0.8241146285400774,
                1.1218776922236036,
                -0.471427882707963
            ]
        },
        {
            "positions": [
                -0.9496299120358056,
                -1.6707596141897363,
                1.9223619526719808,
                -0.7279804794477601,
                1.065786951276928,
                -0.6702184838719076
            ]
        },
        {
            "positions": [
                -0.930825766326568,
                -1.6455937340556661,
                1.9226639990932866,
                -0.6318463303554429,
                1.0096962103302523,
                -0.8690090850358521
            ]
        },
        {
            "positions": [
                -0.9120216206173304,
                -1.6204278539215957,
                1.9229660455145925,
                -0.5357121812631256,
                0.9536054693835767,
                -1.0677996861997971
            ]
        },
        {
            "positions": [
                -0.8932174749080928,
                -1.5952619737875255,
                1.9232680919358984,
                -0.43957803217080826,
                0.8975147284369013,
                -1.2665902873637414
            ]
        },
        {
            "positions": [
                -0.8744133291988552,
                -1.5700960936534551,
                1.9235701383572041,
                -0.34344388307849094,
                0.8414239874902256,
                -1.465380888527686
            ]
        },
        {
            "positions": [
                -0.8556091834896176,
                -1.544930213519385,
                1.92387218477851,
                -0.24730973398617384,
                0.7853332465435501,
                -1.6641714896916306
            ]
        },
        {
            "positions": [
                -0.83680503778038,
                -1.5197643333853148,
                1.9241742311998158,
                -0.15117558489385652,
                0.7292425055968744,
                -1.8629620908555753
            ]
        },
        {
            "positions": [
                -0.8180008920711423,
                -1.4945984532512444,
                1.9244762776211217,
                -0.05504143580153942,
                0.6731517646501989,
                -2.06175269201952
            ]
        },
        {
            "positions": [
                -0.7991967463619047,
                -1.4694325731171742,
                1.9247783240424277,
                0.04109271329077813,
                0.6170610237035233,
                -2.2605432931834644
            ]
        },
        {
            "positions": [
                -0.7803926006526672,
                -1.444266692983104,
                1.9250803704637334,
                0.13722686238309523,
                0.5609702827568477,
                -2.4593338943474095
            ]
        },
        {
            "positions": [
                -0.7615884549434296,
                -1.4191008128490337,
                1.9253824168850393,
                0.23336101147541255,
                0.504879541810172,
                -2.6581244955113537
            ]
        },
        {
            "positions": [
                -0.6509473986511604,
                -1.3838344018668771,
                1.9306704902954719,
                0.10873757410210383,
                0.4589158980584455,
                -2.7267495045750882
            ]
        },
        {
            "positions": [
                -0.5403063423588912,
                -1.3485679908847203,
                1.9359585637059042,
                -0.015885863271204892,
                0.412952254306719,
                -2.7953745136388233
            ]
        },
        {
            "positions": [
                -0.4296652860666219,
                -1.3133015799025638,
                1.9412466371163368,
                -0.1405093006445136,
                0.36698861055499243,
                -2.8639995227025583
            ]
        },
        {
            "positions": [
                -0.31902422977435263,
                -1.278035168920407,
                1.9465347105267692,
                -0.26513273801782233,
                0.3210249668032659,
                -2.932624531766293
            ]
        },
        {
            "positions": [
                -0.20838317348208335,
                -1.2427687579382505,
                1.9518227839372018,
                -0.38975617539113105,
                0.2750613230515394,
                -3.0012495408300275
            ]
        },
        {
            "positions": [
                -0.09774211718981418,
                -1.207502346956094,
                1.9571108573476343,
                -0.5143796127644398,
                0.22909767929981284,
                -3.0698745498937625
            ]
        },
        {
            "positions": [
                0.012898939102455098,
                -1.1722359359739372,
                1.9623989307580667,
                -0.6390030501377485,
                0.18313403554808633,
                -3.1384995589574975
            ]
        },
        {
            "positions": [
                0.12353999539472435,
                -1.1369695249917806,
                1.9676870041684993,
                -0.7636264875110572,
                0.13717039179635981,
                -3.207124568021232
            ]
        }
    ]
}