{
    "goal": {
        "global_pose": {
            "orientation": {
                "w": 0.7047431468963623,
                "x": -0.7094548344612122,
                "y": 0.0024358443915843964,
                "z": -0.0022348060738295317
            },
            "position": {
                "x": 0.6094750761985779,
                "y": 0.3671506643295288,
                "z": 0.19426114857196808
            }
        },
        "name": "move_to_magneteinheit_A"
    },
    "id": "SPARStwo_move_to_magneteinheit_A_6",
    "joint_names": [
        "shoulder_pan_joint",
        "shoulder_lift_joint",
        "elbow_joint",
        "wrist_1_joint",
        "wrist_2_joint",
        "wrist_3_joint"
    ],
    "metrics": {
        "cart_traj_len": 3.4533543742098414,
        "distance_elbow_joint": 3.9075913373525353,
        "distance_shoulder_lift_joint": 0.46813599594684296,
        "distance_shoulder_pan_joint": 3.197880453023368,
        "distance_wrist_1_joint": 3.4644322401278025,
        "distance_wrist_2_joint": 1.4490645121061965,
        "distance_wrist_3_joint": 0.42895608826876336,
        "smoothness": 0.1637782869708045,
        "time": 5.029121334,
        "traj_len": 3.5938921278782856,
        "weighted_distance": 4.322900595155646
    },
    "planner": "SPARStwo",
    "start": {
        "state": {
            "elbow_joint": -1.919618573717145,
            "shoulder_lift_joint": -1.2443395971678275,
            "shoulder_pan_joint": 2.6996025300909787,
            "wrist_1_joint": -1.548550951253194,
            "wrist_2_joint": -1.5709469090946802,
            "wrist_3_joint": 0.4420197732051276
        }
    },
    "waypoints": [
        {
            "positions": [
                2.6996025300909787,
                -1.2443395971678275,
                -1.919618573717145,
                -1.548550951253194,
                -1.5709469090946802,
                0.4420197732051276
            ]
        },
        {
            "positions": [
                2.5918660959723034,
                -1.2271345606757686,
                -1.8173685775382276,
                -1.4447875922837783,
                -1.5192346252431634,
                0.43120751643061883
            ]
        },
        {
            "positions": [
                2.484129661853628,
                -1.20992952418371,
                -1.7151185813593104,
                -1.3410242333143623,
                -1.4675223413916467,
                0.4203952596561101
            ]
        },
        {
            "positions": [
                2.376393227734953,
                -1.1927244876916512,
                -1.612868585180393,
                -1.2372608743449465,
                -1.41581005754013,
                0.4095830028816013
            ]
        },
        {
            "positions": [
                2.2686567936162776,
                -1.1755194511995923,
                -1.5106185890014756,
                -1.1334975153755305,
                -1.3640977736886133,
                0.3987707461070926
            ]
        },
        {
            "positions": [
                2.160920359497602,
                -1.1583144147075335,
                -1.4083685928225584,
                -1.0297341564061147,
                -1.3123854898370964,
                0.38795848933258387
            ]
        },
        {
            "positions": [
                2.0531839253789266,
                -1.1411093782154749,
                -1.306118596643641,
                -0.9259707974366987,
                -1.2606732059855796,
                0.3771462325580751
            ]
        },
        {
            "positions": [
                1.9454474912602513,
                -1.123904341723416,
                -1.2038686004647237,
                -0.8222074384672828,
                -1.208960922134063,
                0.36633397578356636
            ]
        },
        {
            "positions": [
                1.837711057141576,
                -1.1066993052313572,
                -1.1016186042858065,
                -0.718444079497867,
                -1.1572486382825462,
                0.3555217190090576
            ]
        },
        {
            "positions": [
                1.7299746230229007,
                -1.0894942687392986,
                -0.9993686081068891,
                -0.614680720528451,
                -1.1055363544310295,
                0.3447094622345489
            ]
        },
        {
            "positions": [
                1.6222381889042252,
                -1.0722892322472397,
                -0.8971186119279717,
                -0.5109173615590352,
                -1.0538240705795126,
                0.3338972054600401
            ]
        },
        {
            "positions": [
                1.51450175478555,
                -1.0550841957551809,
                -0.7948686157490545,
                -0.4071540025896194,
                -1.0021117867279958,
                0.3230849486855314
            ]
        },
        {
            "positions": [
                1.4067653206668747,
                -1.037879159263122,
                -0.6926186195701372,
                -0.3033906436202034,
                -0.9503995028764792,
                0.31227269191102264
            ]
        },
        {
            "positions": [
                1.2990288865481994,
                -1.0206741227710634,
                -0.59036862339122,
                -0.1996272846507876,
                -0.8986872190249625,
                0.3014604351365139
            ]
        },
        {
            "positions": [
                1.1912924524295239,
                -1.0034690862790046,
                -0.48811862721230237,
                -0.09586392568137159,
                -0.8469749351734457,
                0.2906481783620051
            ]
        },
        {
            "positions": [
                1.0835560183108486,
                -0.9862640497869458,
                -0.3858686310333852,
                0.00789943328804421,
                -0.795262651321929,
                0.2798359215874964
            ]
        },
        {
            "positions": [
                0.9758195841921733,
                -0.9690590132948871,
                -0.28361863485446803,
                0.11166279225746001,
                -0.7435503674704123,
                0.2690236648129877
            ]
        },
        {
            "positions": [
                0.8680831500734978,
                -0.9518539768028282,
                -0.18136863867555042,
                0.21542615122687603,
                -0.6918380836188954,
                0.25821140803847886
            ]
        },
        {
            "positions": [
                0.7603467159548227,
                -0.9346489403107694,
                -0.07911864249663325,
                0.31918951019629205,
                -0.6401257997673788,
                0.24739915126397016
            ]
        },
        {
            "positions": [
                0.6526102818361474,
                -0.9174439038187107,
                0.023131353682283917,
                0.42295286916570785,
                -0.5884135159158621,
                0.23658689448946144
            ]
        },
        {
            "positions": [
                0.5448738477174717,
                -0.9002388673266519,
                0.12538134986120153,
                0.5267162281351236,
                -0.5367012320643452,
                0.22577463771495265
            ]
        },
        {
            "positions": [
                0.43713741359879643,
                -0.8830338308345931,
                0.2276313460401187,
                0.6304795871045394,
                -0.48498894821282845,
                0.21496238094044393
            ]
        },
        {
            "positions": [
                0.32940097948012115,
                -0.8658287943425343,
                0.32988134221903587,
                0.7342429460739552,
                -0.43327666436131174,
                0.2041501241659352
            ]
        },
        {
            "positions": [
                0.22166454536144586,
                -0.8486237578504756,
                0.4321313383979535,
                0.8380063050433715,
                -0.381564380509795,
                0.19333786739142642
            ]
        },
        {
            "positions": [
                0.11392811124277058,
                -0.8314187213584168,
                0.5343813345768709,
                0.9417696640127874,
                -0.3298520966582783,
                0.18252561061691766
            ]
        },
        {
            "positions": [
                0.05360877326128923,
                -0.8309094972730701,
                0.6849972800025467,
                1.022343935459543,
                -0.2985489551623056,
                0.1490559073170509
            ]
        },
        {
            "positions": [
                -0.0067105647201921165,
                -0.8304002731877234,
                0.8356132254282225,
                1.1029182069062984,
                -0.267245813666333,
                0.11558620401718415
            ]
        },
        {
            "positions": [
                -0.06702990270167344,
                -0.8298910491023765,
                0.9862291708538982,
                1.1834924783530538,
                -0.2359426721703603,
                0.08211650071731742
            ]
        },
        {
            "positions": [
                -0.1273492406831548,
                -0.8293818250170298,
                1.136845116279574,
                1.2640667497998095,
                -0.20463953067438764,
                0.04864679741745065
            ]
        },
        {
            "positions": [
                -0.18766857866463615,
                -0.8288726009316831,
                1.2874610617052498,
                1.344641021246565,
                -0.17333638917841498,
                0.01517709411758393
            ]
        },
        {
            "positions": [
                -0.12554670981108523,
                -0.8183388009895434,
                1.427563402091278,
                1.4588890747721737,
                -0.16304559074042874,
                0.014754412281339994
            ]
        },
        {
            "positions": [
                -0.06342484095753428,
                -0.8078050010474037,
                1.5676657424773062,
                1.5731371282977826,
                -0.15275479230244252,
                0.014331730445096058
            ]
        },
        {
            "positions": [
                -0.001302972103983363,
                -0.797271201105264,
                1.7077680828633341,
                1.6873851818233914,
                -0.1424639938644563,
                0.01390904860885212
            ]
        },
        {
            "positions": [
                0.060818896749567586,
                -0.7867374011631243,
                1.8478704232493626,
                1.801633235349,
                -0.13217319542647005,
                0.013486366772608184
            ]
        },
        {
            "positions": [
                0.12294076560311848,
                -0.7762036012209845,
                1.9879727636353905,
                1.9158812888746088,
                -0.12188239698848381,
                0.013063684936364247
            ]
        }
    ]
}{
    "goal": {
        "global_pose": {
            "orientation": {
                "w": 0.7047431468963623,
                "x": -0.7094548344612122,
                "y": 0.0024358443915843964,
                "z": -0.0022348060738295317
            },
            "position": {
                "x": 0.6094750761985779,
                "y": 0.3671506643295288,
                "z": 0.19426114857196808
            }
        },
        "name": "move_to_magneteinheit_A"
    },
    "id": "SPARStwo_move_to_magneteinheit_A_6",
    "joint_names": [
        "shoulder_pan_joint",
        "shoulder_lift_joint",
        "elbow_joint",
        "wrist_1_joint",
        "wrist_2_joint",
        "wrist_3_joint"
    ],
    "metrics": {
        "cart_traj_len": 1.1411864950814203,
        "distance_elbow_joint": 0.41792392438207293,
        "distance_shoulder_lift_joint": 0.7484541590534168,
        "distance_shoulder_pan_joint": 1.2421866250348175,
        "distance_wrist_1_joint": 0.7326091761704762,
        "distance_wrist_2_joint": 1.4350479777185936,
        "distance_wrist_3_joint": 4.240036404546565,
        "smoothness": 0.05030146958107836,
        "time": 5.032601647,
        "traj_len": 2.9692184606232566,
        "weighted_distance": 4.411801018845722
    },
    "planner": "SPARStwo",
    "start": {
        "state": {
            "elbow_joint": 1.919643534880228,
            "shoulder_lift_joint": -1.8972525353963687,
            "shoulder_pan_joint": -1.1188672234189438,
            "wrist_1_joint": -1.5931878212786155,
            "wrist_2_joint": 1.5706036197970081,
            "wrist_3_joint": 1.118896926603594
        }
    },
    "waypoints": [
        {
            "positions": [
                -1.1188672234189438,
                -1.8972525353963687,
                1.919643534880228,
                -1.5931878212786155,
                1.5706036197970081,
                1.118896926603594
            ]
        },
        {
            "positions": [
                -1.0698153443346956,
                -1.8726584427953425,
                1.933982477242259,
                -1.5665037222136196,
                1.5211163693379073,
                0.8988337231933773
            ]
        },
        {
            "positions": [
                -1.0207634652504474,
                -1.8480643501943161,
                1.94832141960429,
                -1.5398196231486236,
                1.4716291188788062,
                0.6787705197831606
            ]
        },
        {
            "positions": [
                -0.9717115861661992,
                -1.82347025759329,
                1.9626603619663208,
                -1.5131355240836277,
                1.4221418684197054,
                0.4587073163729438
            ]
        },
        {
            "positions": [
                -0.9226597070819511,
                -1.7988761649922635,
                1.9769993043283516,
                -1.486451425018632,
                1.3726546179606045,
                0.23864411296272714
            ]
        },
        {
            "positions": [
                -0.8736078279977029,
                -1.7742820723912374,
                1.9913382466903826,
                -1.4597673259536361,
                1.3231673675015034,
                0.01858090955251046
            ]
        },
        {
            "positions": [
                -0.8245559489134546,
                -1.749687979790211,
                2.0056771890524137,
                -1.4330832268886402,
                1.2736801170424026,
                -0.20148229385770633
            ]
        },
        {
            "positions": [
                -0.7755040698292065,
                -1.7250938871891848,
                2.0200161314144442,
                -1.4063991278236443,
                1.2241928665833015,
                -0.4215454972679229
            ]
        },
        {
            "positions": [
                -0.7264521907449584,
                -1.7004997945881586,
                2.0343550737764753,
                -1.3797150287586484,
                1.1747056161242007,
                -0.6416087006781397
            ]
        },
        {
            "positions": [
                -0.6774003116607101,
                -1.6759057019871322,
                2.0486940161385063,
                -1.3530309296936525,
                1.1252183656650998,
                -0.8616719040883565
            ]
        },
        {
            "positions": [
                -0.6283484325764619,
                -1.651311609386106,
                2.063032958500537,
                -1.3263468306286565,
                1.0757311152059987,
                -1.081735107498573
            ]
        },
        {
            "positions": [
                -0.5792965534922137,
                -1.6267175167850798,
                2.077371900862568,
                -1.2996627315636606,
                1.0262438647468979,
                -1.3017983109087898
            ]
        },
        {
            "positions": [
                -0.5302446744079655,
                -1.6021234241840534,
                2.091710843224599,
                -1.2729786324986647,
                0.9767566142877969,
                -1.5218615143190066
            ]
        },
        {
            "positions": [
                -0.4811927953237174,
                -1.5775293315830272,
                2.1060497855866296,
                -1.246294533433669,
                0.9272693638286961,
                -1.741924717729223
            ]
        },
        {
            "positions": [
                -0.43214091623946915,
                -1.5529352389820008,
                2.1203887279486606,
                -1.2196104343686731,
                0.8777821133695951,
                -1.9619879211394398
            ]
        },
        {
            "positions": [
                -0.3830890371552209,
                -1.5283411463809746,
                2.1347276703106917,
                -1.1929263353036772,
                0.8282948629104943,
                -2.1820511245496563
            ]
        },
        {
            "positions": [
                -0.3340371580709728,
                -1.5037470537799482,
                2.1490666126727223,
                -1.1662422362386813,
                0.7788076124513933,
                -2.4021143279598736
            ]
        },
        {
            "positions": [
                -0.28498527898672454,
                -1.479152961178922,
                2.1634055550347533,
                -1.1395581371736854,
                0.7293203619922923,
                -2.6221775313700904
            ]
        },
        {
            "positions": [
                -0.21693449888629157,
                -1.4240938637062603,
                2.134378570996829,
                -1.093061555162761,
                0.6303595753399794,
                -2.705337855798904
            ]
        },
        {
            "positions": [
                -0.1488837187858586,
                -1.3690347662335987,
                2.105351586958904,
                -1.0465649731518367,
                0.5313987886876665,
                -2.7884981802277173
            ]
        },
        {
            "positions": [
                -0.08083293868542563,
                -1.313975668760937,
                2.0763246029209794,
                -1.0000683911409123,
                0.43243800203535354,
                -2.871658504656531
            ]
        },
        {
            "positions": [
                -0.012782158584992653,
                -1.2589165712882753,
                2.047297618883055,
                -0.9535718091299881,
                0.33347721538304065,
                -2.954818829085344
            ]
        },
        {
            "positions": [
                0.05526862151544032,
                -1.2038574738156136,
                2.01827063484513,
                -0.9070752271190636,
                0.23451642873072764,
                -3.0379791535141574
            ]
        },
        {
            "positions": [
                0.12331940161587329,
                -1.148798376342952,
                1.9892436508072056,
                -0.8605786451081393,
                0.1355556420784147,
                -3.121139477942971
            ]
        }
    ]
}