{
    "goal": {
        "global_pose": {
            "orientation": {
                "w": 0.7047431468963623,
                "x": -0.7094548344612122,
                "y": 0.0024358443915843964,
                "z": -0.0022348060738295317
            },
            "position": {
                "x": 0.6094750761985779,
                "y": 0.3671506643295288,
                "z": 0.19426114857196808
            }
        },
        "name": "move_to_magneteinheit_A"
    },
    "id": "SPARStwo_move_to_magneteinheit_A_77",
    "joint_names": [
        "shoulder_pan_joint",
        "shoulder_lift_joint",
        "elbow_joint",
        "wrist_1_joint",
        "wrist_2_joint",
        "wrist_3_joint"
    ],
    "metrics": {
        "cart_traj_len": 1.174092783977903,
        "distance_elbow_joint": 0.03590282831362246,
        "distance_shoulder_lift_joint": 0.7662006657971474,
        "distance_shoulder_pan_joint": 1.2420282203620832,
        "distance_wrist_1_joint": 0.9272631900566092,
        "distance_wrist_2_joint": 1.8998854585639429,
        "distance_wrist_3_joint": 4.36611064864142,
        "smoothness": 0.31880511226886554,
        "time": 5.0265601019999995,
        "traj_len": 3.0393076533537737,
        "weighted_distance": 4.560346583061229
    },
    "planner": "SPARStwo",
    "start": {
        "state": {
            "elbow_joint": 1.919643534880228,
            "shoulder_lift_joint": -1.8972525353963687,
            "shoulder_pan_joint": -1.1188672234189438,
            "wrist_1_joint": -1.5931878212786155,
            "wrist_2_joint": 1.5706036197970081,
            "wrist_3_joint": 1.118896926603594
        }
    },
    "waypoints": [
        {
            "positions": [
                -1.1188672234189438,
                -1.8972525353963687,
                1.919643534880228,
                -1.5931878212786155,
                1.5706036197970081,
                1.118896926603594
            ]
        },
        {
            "positions": [
                -1.067765295359474,
                -1.868960384640517,
                1.921038596524182,
                -1.550290302775503,
                1.4908614339668966,
                0.9278113511684122
            ]
        },
        {
            "positions": [
                -1.016663367300004,
                -1.8406682338846652,
                1.9224336581681363,
                -1.5073927842723904,
                1.4111192481367854,
                0.7367257757332304
            ]
        },
        {
            "positions": [
                -0.9655614392405343,
                -1.8123760831288134,
                1.9238287198120902,
                -1.464495265769278,
                1.3313770623066739,
                0.5456402002980485
            ]
        },
        {
            "positions": [
                -0.9144595111810645,
                -1.7840839323729616,
                1.9252237814560444,
                -1.4215977472661656,
                1.2516348764765624,
                0.3545546248628667
            ]
        },
        {
            "positions": [
                -0.8633575831215946,
                -1.7557917816171098,
                1.9266188430999984,
                -1.3787002287630532,
                1.1718926906464509,
                0.1634690494276848
            ]
        },
        {
            "positions": [
                -0.8122556550621247,
                -1.727499630861258,
                1.9280139047439526,
                -1.3358027102599408,
                1.0921505048163396,
                -0.027616526007496978
            ]
        },
        {
            "positions": [
                -0.7611537270026549,
                -1.6992074801054062,
                1.9294089663879066,
                -1.2929051917568282,
                1.012408318986228,
                -0.21870210144267888
            ]
        },
        {
            "positions": [
                -0.710051798943185,
                -1.6709153293495544,
                1.9308040280318608,
                -1.2500076732537158,
                0.9326661331561167,
                -0.40978767687786055
            ]
        },
        {
            "positions": [
                -0.6589498708837151,
                -1.6426231785937027,
                1.9321990896758148,
                -1.2071101547506033,
                0.8529239473260053,
                -0.6008732523130424
            ]
        },
        {
            "positions": [
                -0.6078479428242454,
                -1.6143310278378507,
                1.933594151319769,
                -1.1642126362474907,
                0.7731817614958938,
                -0.7919588277482243
            ]
        },
        {
            "positions": [
                -0.5567460147647754,
                -1.5860388770819989,
                1.934989212963723,
                -1.1213151177443783,
                0.6934395756657823,
                -0.9830444031834065
            ]
        },
        {
            "positions": [
                -0.5056440867053056,
                -1.557746726326147,
                1.9363842746076771,
                -1.078417599241266,
                0.6136973898356709,
                -1.174129978618588
            ]
        },
        {
            "positions": [
                -0.4545421586458357,
                -1.5294545755702953,
                1.9377793362516311,
                -1.0355200807381535,
                0.5339552040055595,
                -1.3652155540537698
            ]
        },
        {
            "positions": [
                -0.4034402305863659,
                -1.5011624248144435,
                1.9391743978955853,
                -0.992622562235041,
                0.454213018175448,
                -1.5563011294889517
            ]
        },
        {
            "positions": [
                -0.352338302526896,
                -1.4728702740585917,
                1.9405694595395393,
                -0.9497250437319285,
                0.3744708323453365,
                -1.7473867049241336
            ]
        },
        {
            "positions": [
                -0.30123637446742624,
                -1.44457812330274,
                1.9419645211834935,
                -0.906827525228816,
                0.29472864651522523,
                -1.938472280359315
            ]
        },
        {
            "positions": [
                -0.25013444640795635,
                -1.4162859725468881,
                1.9433595828274475,
                -0.8639300067257035,
                0.21498646068511373,
                -2.1295578557944976
            ]
        },
        {
            "positions": [
                -0.19903251834848645,
                -1.3879938217910364,
                1.9447546444714017,
                -0.8210324882225911,
                0.13524427485500246,
                -2.320643431229679
            ]
        },
        {
            "positions": [
                -0.14793059028901656,
                -1.3597016710351846,
                1.9461497061153556,
                -0.7781349697194786,
                0.05550208902489073,
                -2.5117290066648605
            ]
        },
        {
            "positions": [
                -0.09682866222954689,
                -1.3314095202793328,
                1.9475447677593098,
                -0.7352374512163662,
                -0.024240096805220546,
                -2.702814582100043
            ]
        },
        {
            "positions": [
                -0.04572673417007686,
                -1.303117369523481,
                1.9489398294032638,
                -0.6923399327132537,
                -0.10398228263533207,
                -2.8939001575352243
            ]
        },
        {
            "positions": [
                0.010569176200995137,
                -1.2457622028820612,
                1.9511420073334593,
                -0.7011450332103362,
                -0.028882430591464475,
                -3.0116713457027577
            ]
        },
        {
            "positions": [
                0.06686508657206713,
                -1.1884070362406411,
                1.953344185263655,
                -0.7099501337074186,
                0.046217421452403123,
                -3.1294425338702916
            ]
        },
        {
            "positions": [
                0.12316099694313914,
                -1.1310518695992213,
                1.9555463631938506,
                -0.718755234204501,
                0.12131727349627071,
                -3.247213722037825
            ]
        }
    ]
}