{
    "goal": {
        "global_pose": {
            "orientation": {
                "w": 0.5084816217422485,
                "x": -0.49083608388900757,
                "y": 0.5182115435600281,
                "z": -0.4816462993621826
            },
            "position": {
                "x": 0.5540239810943604,
                "y": 0.030875300988554955,
                "z": 0.16403168439865112
            }
        },
        "name": "move_to_storage_A"
    },
    "id": "SPARS_move_to_storage_A_126",
    "joint_names": [
        "shoulder_pan_joint",
        "shoulder_lift_joint",
        "elbow_joint",
        "wrist_1_joint",
        "wrist_2_joint",
        "wrist_3_joint"
    ],
    "metrics": {
        "cart_traj_len": 0.35281625825331653,
        "distance_elbow_joint": 0.45031602399535364,
        "distance_shoulder_lift_joint": 0.23433072749946593,
        "distance_shoulder_pan_joint": 0.4620087861538777,
        "distance_wrist_1_joint": 0.24369268391070043,
        "distance_wrist_2_joint": 1.095582371090471,
        "distance_wrist_3_joint": 0.10042113291966626,
        "smoothness": 0.0,
        "time": 5.014364676,
        "traj_len": 1.6082138307978622,
        "weighted_distance": 2.031371223191379
    },
    "planner": "SPARS",
    "start": {
        "state": {
            "elbow_joint": 1.9715477243005601,
            "shoulder_lift_joint": -1.1394853015351272,
            "shoulder_pan_joint": 0.12281154014795169,
            "wrist_1_joint": -0.7804696478968182,
            "wrist_2_joint": 0.12958648046900423,
            "wrist_3_joint": -3.192491284697111
        }
    },
    "waypoints": [
        {
            "positions": [
                0.12281154014795169,
                -1.1394853015351272,
                1.9715477243005601,
                -0.7804696478968182,
                0.12958648046900423,
                -3.192491284697111
            ]
        },
        {
            "positions": [
                0.056810284983112025,
                -1.1729611197493366,
                2.035878584871325,
                -0.8152828884554897,
                0.2860982477676429,
                -3.1781454085657304
            ]
        },
        {
            "positions": [
                -0.00919097018172764,
                -1.206436937963546,
                2.10020944544209,
                -0.8500961290141611,
                0.44261001506628167,
                -3.1637995324343495
            ]
        },
        {
            "positions": [
                -0.07519222534656732,
                -1.2399127561777554,
                2.1645403060128547,
                -0.8849093695728326,
                0.5991217823649204,
                -3.1494536563029687
            ]
        },
        {
            "positions": [
                -0.14119348051140695,
                -1.2733885743919648,
                2.228871166583619,
                -0.9197226101315041,
                0.7556335496635591,
                -3.1351077801715874
            ]
        },
        {
            "positions": [
                -0.20719473567624663,
                -1.3068643926061743,
                2.293202027154384,
                -0.9545358506901755,
                0.9121453169621979,
                -3.1207619040402066
            ]
        },
        {
            "positions": [
                -0.2731959908410863,
                -1.3403402108203837,
                2.357532887725149,
                -0.9893490912488471,
                1.0686570842608365,
                -3.1064160279088258
            ]
        },
        {
            "positions": [
                -0.339197246005926,
                -1.373816029034593,
                2.4218637482959138,
                -1.0241623318075186,
                1.2251688515594754,
                -3.092070151777445
            ]
        }
    ]
}