{
    "goal": {
        "global_pose": {
            "orientation": {
                "w": 0.7047431468963623,
                "x": -0.7094548344612122,
                "y": 0.0024358443915843964,
                "z": -0.0022348060738295317
            },
            "position": {
                "x": 0.6094750761985779,
                "y": 0.3671506643295288,
                "z": 0.19426114857196808
            }
        },
        "name": "move_to_magneteinheit_A"
    },
    "id": "SPARStwo_move_to_magneteinheit_A_116",
    "joint_names": [
        "shoulder_pan_joint",
        "shoulder_lift_joint",
        "elbow_joint",
        "wrist_1_joint",
        "wrist_2_joint",
        "wrist_3_joint"
    ],
    "metrics": {
        "cart_traj_len": 1.2510134499424923,
        "distance_elbow_joint": 0.035358242870401124,
        "distance_shoulder_lift_joint": 0.7686935545440263,
        "distance_shoulder_pan_joint": 1.2415992821563449,
        "distance_wrist_1_joint": 2.7449859661590943,
        "distance_wrist_2_joint": 1.6587648840047982,
        "distance_wrist_3_joint": 4.36900841050568,
        "smoothness": 0.3101375420324778,
        "time": 5.071752522,
        "traj_len": 3.289135196406548,
        "weighted_distance": 4.8949134835475485
    },
    "planner": "SPARStwo",
    "start": {
        "state": {
            "elbow_joint": 1.919643534880228,
            "shoulder_lift_joint": -1.8972525353963687,
            "shoulder_pan_joint": -1.1188672234189438,
            "wrist_1_joint": -1.5931878212786155,
            "wrist_2_joint": 1.5706036197970081,
            "wrist_3_joint": 1.118896926603594
        }
    },
    "waypoints": [
        {
            "positions": [
                -1.1188672234189438,
                -1.8972525353963687,
                1.919643534880228,
                -1.5931878212786155,
                1.5706036197970081,
                1.118896926603594
            ]
        },
        {
            "positions": [
                -1.082848074325855,
                -1.8606702182642234,
                1.9208888662177566,
                -1.5068490940119295,
                1.496644713230494,
                0.9594601083432645
            ]
        },
        {
            "positions": [
                -1.0468289252327663,
                -1.8240879011320783,
                1.922134197555285,
                -1.4205103667452437,
                1.42268580666398,
                0.8000232900829349
            ]
        },
        {
            "positions": [
                -1.0108097761396775,
                -1.787505583999933,
                1.9233795288928137,
                -1.3341716394785577,
                1.3487269000974662,
                0.6405864718226054
            ]
        },
        {
            "positions": [
                -0.9747906270465888,
                -1.7509232668677877,
                1.9246248602303422,
                -1.2478329122118716,
                1.2747679935309522,
                0.4811496535622759
            ]
        },
        {
            "positions": [
                -0.9387714779535,
                -1.7143409497356425,
                1.9258701915678706,
                -1.1614941849451859,
                1.200809086964438,
                0.3217128353019464
            ]
        },
        {
            "positions": [
                -0.9027523288604113,
                -1.6777586326034972,
                1.9271155229053991,
                -1.0751554576785,
                1.126850180397924,
                0.16227601704161687
            ]
        },
        {
            "positions": [
                -0.8667331797673226,
                -1.641176315471352,
                1.9283608542429278,
                -0.9888167304118141,
                1.0528912738314102,
                0.0028391987812874664
            ]
        },
        {
            "positions": [
                -0.8307140306742338,
                -1.6045939983392066,
                1.9296061855804563,
                -0.902478003145128,
                0.9789323672648961,
                -0.15659761947904216
            ]
        },
        {
            "positions": [
                -0.794694881581145,
                -1.5680116812070615,
                1.9308515169179847,
                -0.8161392758784421,
                0.9049734606983821,
                -0.31603443773937157
            ]
        },
        {
            "positions": [
                -0.7586757324880562,
                -1.5314293640749161,
                1.9320968482555132,
                -0.7298005486117563,
                0.8310145541318681,
                -0.4754712559997012
            ]
        },
        {
            "positions": [
                -0.7226565833949674,
                -1.4948470469427708,
                1.9333421795930419,
                -0.6434618213450702,
                0.757055647565354,
                -0.6349080742600308
            ]
        },
        {
            "positions": [
                -0.6866374343018787,
                -1.4582647298106255,
                1.9345875109305704,
                -0.5571230940783845,
                0.6830967409988401,
                -0.7943448925203602
            ]
        },
        {
            "positions": [
                -0.65061828520879,
                -1.4216824126784804,
                1.9358328422680988,
                -0.47078436681169844,
                0.609137834432326,
                -0.9537817107806899
            ]
        },
        {
            "positions": [
                -0.6145991361157013,
                -1.385100095546335,
                1.9370781736056273,
                -0.38444563954501265,
                0.5351789278658121,
                -1.113218529041019
            ]
        },
        {
            "positions": [
                -0.5785799870226124,
                -1.3485177784141897,
                1.938323504943156,
                -0.29810691227832664,
                0.46122002129929807,
                -1.272655347301349
            ]
        },
        {
            "positions": [
                -0.5425608379295237,
                -1.3119354612820446,
                1.9395688362806844,
                -0.21176818501164063,
                0.387261114732784,
                -1.4320921655616783
            ]
        },
        {
            "positions": [
                -0.5065416888364349,
                -1.2753531441498993,
                1.940814167618213,
                -0.12542945774495462,
                0.31330220816626997,
                -1.591528983822008
            ]
        },
        {
            "positions": [
                -0.47052253974334624,
                -1.238770827017754,
                1.9420594989557414,
                -0.03909073047826883,
                0.23934330159975614,
                -1.750965802082337
            ]
        },
        {
            "positions": [
                -0.43450339065025734,
                -1.2021885098856089,
                1.94330483029327,
                0.04724799678841718,
                0.1653843950332421,
                -1.9104026203426672
            ]
        },
        {
            "positions": [
                -0.39848424155716866,
                -1.1656061927534636,
                1.9445501616307985,
                0.13358672405510297,
                0.09142548846672804,
                -2.0698394386029966
            ]
        },
        {
            "positions": [
                -0.3624650924640799,
                -1.1290238756213182,
                1.945795492968327,
                0.219925451321789,
                0.01746658190021405,
                -2.2292762568633258
            ]
        },
        {
            "positions": [
                -0.29315121372101116,
                -1.1290902891597434,
                1.9471106765086559,
                0.08680078081340481,
                0.03255627420135754,
                -2.3751098607260057
            ]
        },
        {
            "positions": [
                -0.22383733497794245,
                -1.1291567026981684,
                1.9484258600489848,
                -0.04632388969497939,
                0.047645966502501025,
                -2.5209434645886857
            ]
        },
        {
            "positions": [
                -0.15452345623487374,
                -1.1292231162365935,
                1.9497410435893137,
                -0.17944856020336356,
                0.06273565880364451,
                -2.666777068451365
            ]
        },
        {
            "positions": [
                -0.08520957749180502,
                -1.1292895297750187,
                1.9510562271296426,
                -0.3125732307117478,
                0.077825351104788,
                -2.812610672314045
            ]
        },
        {
            "positions": [
                -0.01589569874873631,
                -1.129355943313444,
                1.9523714106699714,
                -0.4456979012201321,
                0.0929150434059315,
                -2.958444276176725
            ]
        },
        {
            "positions": [
                0.053418179994332404,
                -1.1294223568518689,
                1.9536865942103003,
                -0.5788225717285161,
                0.10800473570707497,
                -3.104277880039405
            ]
        },
        {
            "positions": [
                0.12273205873740112,
                -1.129488770390294,
                1.9550017777506292,
                -0.7119472422369004,
                0.12309442800821847,
                -3.250111483902085
            ]
        }
    ]
}