{
    "goal": {
        "global_pose": {
            "orientation": {
                "w": 0.5084816217422485,
                "x": -0.49083608388900757,
                "y": 0.5182115435600281,
                "z": -0.4816462993621826
            },
            "position": {
                "x": 0.5540239810943604,
                "y": 0.030875300988554955,
                "z": 0.16403168439865112
            }
        },
        "name": "move_to_storage_A"
    },
    "id": "SPARS_move_to_storage_A_15",
    "joint_names": [
        "shoulder_pan_joint",
        "shoulder_lift_joint",
        "elbow_joint",
        "wrist_1_joint",
        "wrist_2_joint",
        "wrist_3_joint"
    ],
    "metrics": {
        "cart_traj_len": 0.35335319915143193,
        "distance_elbow_joint": 0.45155935314137885,
        "distance_shoulder_lift_joint": 0.2346911775172129,
        "distance_shoulder_pan_joint": 0.4630509890908908,
        "distance_wrist_1_joint": 0.24515163942315665,
        "distance_wrist_2_joint": 1.095752503857177,
        "distance_wrist_3_joint": 0.1062645185113662,
        "smoothness": 1.1102230263833737e-15,
        "time": 5.02788738,
        "traj_len": 1.6113566276715974,
        "weighted_distance": 2.037131159705788
    },
    "planner": "SPARS",
    "start": {
        "state": {
            "elbow_joint": 1.9715477243005601,
            "shoulder_lift_joint": -1.1394853015351272,
            "shoulder_pan_joint": 0.12281154014795169,
            "wrist_1_joint": -0.7804696478968182,
            "wrist_2_joint": 0.12958648046900423,
            "wrist_3_joint": -3.192491284697111
        }
    },
    "waypoints": [
        {
            "positions": [
                0.12281154014795169,
                -1.1394853015351272,
                1.9715477243005601,
                -0.7804696478968182,
                0.12958648046900423,
                -3.192491284697111
            ]
        },
        {
            "positions": [
                0.056661398849253,
                -1.1730126126090148,
                2.036056203320757,
                -0.8154913106715548,
                0.28612255244860096,
                -3.1773106391954875
            ]
        },
        {
            "positions": [
                -0.009488742449445683,
                -1.2065399236829022,
                2.1005646823409543,
                -0.8505129734462915,
                0.44265862442819764,
                -3.162129993693864
            ]
        },
        {
            "positions": [
                -0.07563888374814436,
                -1.2400672347567898,
                2.165073161361151,
                -0.8855346362210281,
                0.5991946964077943,
                -3.14694934819224
            ]
        },
        {
            "positions": [
                -0.14178902504684304,
                -1.2735945458306774,
                2.229581640381348,
                -0.9205562989957649,
                0.7557307683873911,
                -3.131768702690616
            ]
        },
        {
            "positions": [
                -0.20793916634554177,
                -1.307121856904565,
                2.2940901194015453,
                -0.9555779617705015,
                0.9122668403669878,
                -3.1165880571889923
            ]
        },
        {
            "positions": [
                -0.2740893076442404,
                -1.3406491679784525,
                2.358598598421742,
                -0.9905996245452382,
                1.0688029123465843,
                -3.1014074116873687
            ]
        },
        {
            "positions": [
                -0.3402394489429391,
                -1.37417647905234,
                2.423107077441939,
                -1.0256212873199748,
                1.2253389843261813,
                -3.086226766185745
            ]
        }
    ]
}