{
    "goal": {
        "global_pose": {
            "orientation": {
                "w": 0.7047431468963623,
                "x": -0.7094548344612122,
                "y": 0.0024358443915843964,
                "z": -0.0022348060738295317
            },
            "position": {
                "x": 0.6094750761985779,
                "y": 0.3671506643295288,
                "z": 0.19426114857196808
            }
        },
        "name": "move_to_magneteinheit_A"
    },
    "id": "SPARStwo_move_to_magneteinheit_A_119",
    "joint_names": [
        "shoulder_pan_joint",
        "shoulder_lift_joint",
        "elbow_joint",
        "wrist_1_joint",
        "wrist_2_joint",
        "wrist_3_joint"
    ],
    "metrics": {
        "cart_traj_len": 4.500975773217785,
        "distance_elbow_joint": 4.091172046212141,
        "distance_shoulder_lift_joint": 1.4898749254894268,
        "distance_shoulder_pan_joint": 1.2416894579302413,
        "distance_wrist_1_joint": 0.8684330730452015,
        "distance_wrist_2_joint": 1.4312986429621497,
        "distance_wrist_3_joint": 4.35820054732895,
        "smoothness": 0.3259630545118395,
        "time": 5.024499694999999,
        "traj_len": 3.6716030140754743,
        "weighted_distance": 4.949424360835648
    },
    "planner": "SPARStwo",
    "start": {
        "state": {
            "elbow_joint": 1.919643534880228,
            "shoulder_lift_joint": -1.8972525353963687,
            "shoulder_pan_joint": -1.1188672234189438,
            "wrist_1_joint": -1.5931878212786155,
            "wrist_2_joint": 1.5706036197970081,
            "wrist_3_joint": 1.118896926603594
        }
    },
    "waypoints": [
        {
            "positions": [
                -1.1188672234189438,
                -1.8972525353963687,
                1.919643534880228,
                -1.5931878212786155,
                1.5706036197970081,
                1.118896926603594
            ]
        },
        {
            "positions": [
                -1.0888406427264814,
                -1.917476999210559,
                1.807170373668575,
                -1.5588507864537753,
                1.5426656108462518,
                0.9520879737761847
            ]
        },
        {
            "positions": [
                -1.058814062034019,
                -1.937701463024749,
                1.6946972124569217,
                -1.524513751628935,
                1.5147276018954952,
                0.7852790209487754
            ]
        },
        {
            "positions": [
                -1.0287874813415565,
                -1.9579259268389393,
                1.5822240512452685,
                -1.490176716804095,
                1.4867895929447388,
                0.6184700681213662
            ]
        },
        {
            "positions": [
                -0.9987609006490941,
                -1.9781503906531297,
                1.4697508900336156,
                -1.4558396819792547,
                1.4588515839939824,
                0.4516611152939568
            ]
        },
        {
            "positions": [
                -0.9687343199566316,
                -1.9983748544673199,
                1.3572777288219622,
                -1.4215026471544145,
                1.430913575043226,
                0.28485216246654754
            ]
        },
        {
            "positions": [
                -0.9387077392641692,
                -2.01859931828151,
                1.2448045676103092,
                -1.3871656123295744,
                1.4029755660924694,
                0.11804320963913839
            ]
        },
        {
            "positions": [
                -0.9086811585717066,
                -2.0388237820957005,
                1.1323314063986558,
                -1.3528285775047342,
                1.375037557141713,
                -0.04876574318827109
            ]
        },
        {
            "positions": [
                -0.8786545778792442,
                -2.0590482459098904,
                1.0198582451870029,
                -1.318491542679894,
                1.3470995481909567,
                -0.21557469601568036
            ]
        },
        {
            "positions": [
                -0.8486279971867817,
                -2.079272709724081,
                0.9073850839753497,
                -1.2841545078550538,
                1.3191615392402003,
                -0.3823836488430896
            ]
        },
        {
            "positions": [
                -0.8186014164943193,
                -2.099497173538271,
                0.7949119227636965,
                -1.2498174730302136,
                1.2912235302894437,
                -0.5491926016704989
            ]
        },
        {
            "positions": [
                -0.7885748358018567,
                -2.119721637352461,
                0.6824387615520433,
                -1.2154804382053732,
                1.2632855213386873,
                -0.7160015544979084
            ]
        },
        {
            "positions": [
                -0.7585482551093944,
                -2.139946101166651,
                0.5699656003403903,
                -1.1811434033805333,
                1.235347512387931,
                -0.8828105073253172
            ]
        },
        {
            "positions": [
                -0.7285216744169318,
                -2.1601705649808416,
                0.45749243912873716,
                -1.146806368555693,
                1.2074095034371743,
                -1.0496194601527267
            ]
        },
        {
            "positions": [
                -0.6984950937244694,
                -2.180395028795032,
                0.34501927791708376,
                -1.1124693337308527,
                1.179471494486418,
                -1.2164284129801362
            ]
        },
        {
            "positions": [
                -0.6684685130320069,
                -2.200619492609222,
                0.23254611670543057,
                -1.0781322989060125,
                1.1515334855356616,
                -1.3832373658075456
            ]
        },
        {
            "positions": [
                -0.6384419323395445,
                -2.2208439564234124,
                0.12007295549377761,
                -1.0437952640811723,
                1.1235954765849052,
                -1.5500463186349547
            ]
        },
        {
            "positions": [
                -0.608415351647082,
                -2.2410684202376023,
                0.007599794282124428,
                -1.009458229256332,
                1.0956574676341486,
                -1.7168552714623637
            ]
        },
        {
            "positions": [
                -0.5783887709546196,
                -2.2612928840517927,
                -0.10487336692952878,
                -0.975121194431492,
                1.0677194586833922,
                -1.8836642242897734
            ]
        },
        {
            "positions": [
                -0.5371410647507421,
                -2.195067320708616,
                0.016694582741199615,
                -0.9603937564198404,
                1.0131068421040668,
                -1.9634077181977487
            ]
        },
        {
            "positions": [
                -0.4958933585468646,
                -2.1288417573654397,
                0.138262532411928,
                -0.9456663184081887,
                0.9584942255247412,
                -2.043151212105724
            ]
        },
        {
            "positions": [
                -0.4546456523429871,
                -2.062616194022263,
                0.25983048208265647,
                -0.930938880396537,
                0.9038816089454156,
                -2.1228947060136996
            ]
        },
        {
            "positions": [
                -0.41339794613910963,
                -1.9963906306790862,
                0.38139843175338484,
                -0.9162114423848855,
                0.8492689923660901,
                -2.202638199921675
            ]
        },
        {
            "positions": [
                -0.3721502399352321,
                -1.9301650673359094,
                0.5029663814241133,
                -0.9014840043732338,
                0.7946563757867646,
                -2.2823816938296506
            ]
        },
        {
            "positions": [
                -0.3309025337313546,
                -1.863939503992733,
                0.6245343310948417,
                -0.8867565663615822,
                0.740043759207439,
                -2.3621251877376257
            ]
        },
        {
            "positions": [
                -0.2896548275274772,
                -1.7977139406495564,
                0.7461022807655701,
                -0.8720291283499305,
                0.6854311426281136,
                -2.4418686816456012
            ]
        },
        {
            "positions": [
                -0.24840712132359966,
                -1.7314883773063796,
                0.8676702304362984,
                -0.8573016903382789,
                0.630818526048788,
                -2.5216121755535768
            ]
        },
        {
            "positions": [
                -0.20715941511972213,
                -1.6652628139632029,
                0.9892381801070269,
                -0.8425742523266272,
                0.5762059094694625,
                -2.601355669461552
            ]
        },
        {
            "positions": [
                -0.1659117089158446,
                -1.5990372506200263,
                1.1108061297777554,
                -0.8278468143149755,
                0.5215932928901369,
                -2.6810991633695274
            ]
        },
        {
            "positions": [
                -0.12466400271196715,
                -1.5328116872768498,
                1.2323740794484837,
                -0.8131193763033239,
                0.4669806763108114,
                -2.760842657277503
            ]
        },
        {
            "positions": [
                -0.08341629650808963,
                -1.466586123933673,
                1.3539420291192121,
                -0.7983919382916722,
                0.4123680597314858,
                -2.8405861511854784
            ]
        },
        {
            "positions": [
                -0.04216859030421216,
                -1.4003605605904965,
                1.4755099787899404,
                -0.7836645002800207,
                0.35775544315216035,
                -2.9203296450934535
            ]
        },
        {
            "positions": [
                -0.0009208841003347512,
                -1.33413499724732,
                1.5970779284606689,
                -0.768937062268369,
                0.30314282657283487,
                -3.000073139001429
            ]
        },
        {
            "positions": [
                0.04032682210354277,
                -1.2679094339041432,
                1.7186458781313971,
                -0.7542096242567173,
                0.24853020999350928,
                -3.079816632909404
            ]
        },
        {
            "positions": [
                0.08157452830742029,
                -1.2016838705609667,
                1.8402138278021256,
                -0.7394821862450657,
                0.1939175934141838,
                -3.1595601268173796
            ]
        },
        {
            "positions": [
                0.1228222345112978,
                -1.13545830721779,
                1.961781777472854,
                -0.724754748233414,
                0.1393049768348582,
                -3.239303620725355
            ]
        }
    ]
}