{
    "goal": {
        "global_pose": {
            "orientation": {
                "w": 0.5084816217422485,
                "x": -0.49083608388900757,
                "y": 0.5182115435600281,
                "z": -0.4816462993621826
            },
            "position": {
                "x": 0.5540239810943604,
                "y": 0.030875300988554955,
                "z": 0.16403168439865112
            }
        },
        "name": "move_to_storage_A"
    },
    "id": "SPARStwo_move_to_storage_A_26",
    "joint_names": [
        "shoulder_pan_joint",
        "shoulder_lift_joint",
        "elbow_joint",
        "wrist_1_joint",
        "wrist_2_joint",
        "wrist_3_joint"
    ],
    "metrics": {
        "cart_traj_len": 0.3533141469952861,
        "distance_elbow_joint": 0.4539651432584151,
        "distance_shoulder_lift_joint": 0.23343894962100387,
        "distance_shoulder_pan_joint": 0.4620448306352542,
        "distance_wrist_1_joint": 0.26001372024447955,
        "distance_wrist_2_joint": 1.0991491932520243,
        "distance_wrist_3_joint": 0.10801328057509352,
        "smoothness": 2.2204460668324854e-16,
        "time": 5.000698042,
        "traj_len": 1.6175985650297389,
        "weighted_distance": 2.047392144224687
    },
    "planner": "SPARStwo",
    "start": {
        "state": {
            "elbow_joint": 1.9715477243005601,
            "shoulder_lift_joint": -1.1394853015351272,
            "shoulder_pan_joint": 0.12281154014795169,
            "wrist_1_joint": -0.7804696478968182,
            "wrist_2_joint": 0.12958648046900423,
            "wrist_3_joint": -3.192491284697111
        }
    },
    "waypoints": [
        {
            "positions": [
                0.12281154014795169,
                -1.1394853015351272,
                1.9715477243005601,
                -0.7804696478968182,
                0.12958648046900423,
                -3.192491284697111
            ]
        },
        {
            "positions": [
                0.05680513577148681,
                -1.1728337229095562,
                2.036399887623191,
                -0.817614465074601,
                0.286607793790722,
                -3.1770608160435265
            ]
        },
        {
            "positions": [
                -0.009201268604978066,
                -1.2061821442839855,
                2.1012520509458215,
                -0.8547592822523837,
                0.44362910711243975,
                -3.1616303473899414
            ]
        },
        {
            "positions": [
                -0.07520767298144294,
                -1.2395305656584146,
                2.166104214268452,
                -0.8919040994301666,
                0.6006504204341575,
                -3.1461998787363568
            ]
        },
        {
            "positions": [
                -0.1412140773579078,
                -1.2728789870328436,
                2.230956377591083,
                -0.9290489166079493,
                0.7576717337558753,
                -3.130769410082772
            ]
        },
        {
            "positions": [
                -0.20722048173437274,
                -1.3062274084072727,
                2.295808540913714,
                -0.9661937337857321,
                0.914693047077593,
                -3.1153389414291874
            ]
        },
        {
            "positions": [
                -0.27322688611083756,
                -1.339575829781702,
                2.3606607042363446,
                -1.0033385509635149,
                1.071714360399311,
                -3.0999084727756023
            ]
        },
        {
            "positions": [
                -0.3392332904873025,
                -1.372924251156131,
                2.425512867558975,
                -1.0404833681412977,
                1.2287356737210287,
                -3.0844780041220177
            ]
        }
    ]
}