{
    "goal": {
        "global_pose": {
            "orientation": {
                "w": 0.7047431468963623,
                "x": -0.7094548344612122,
                "y": 0.0024358443915843964,
                "z": -0.0022348060738295317
            },
            "position": {
                "x": 0.6094750761985779,
                "y": 0.3671506643295288,
                "z": 0.19426114857196808
            }
        },
        "name": "move_to_magneteinheit_A"
    },
    "id": "SPARStwo_move_to_magneteinheit_A_145",
    "joint_names": [
        "shoulder_pan_joint",
        "shoulder_lift_joint",
        "elbow_joint",
        "wrist_1_joint",
        "wrist_2_joint",
        "wrist_3_joint"
    ],
    "metrics": {
        "cart_traj_len": 1.6182131686760295,
        "distance_elbow_joint": 1.9160774269103866,
        "distance_shoulder_lift_joint": 0.7480034544757284,
        "distance_shoulder_pan_joint": 1.2410329880717414,
        "distance_wrist_1_joint": 0.7253726172975136,
        "distance_wrist_2_joint": 1.4436862623954472,
        "distance_wrist_3_joint": 4.232278979168408,
        "smoothness": 0.1411317393331787,
        "time": 5.0192643530000005,
        "traj_len": 3.21036629192359,
        "weighted_distance": 4.576031967365284
    },
    "planner": "SPARStwo",
    "start": {
        "state": {
            "elbow_joint": 1.919643534880228,
            "shoulder_lift_joint": -1.8972525353963687,
            "shoulder_pan_joint": -1.1188672234189438,
            "wrist_1_joint": -1.5931878212786155,
            "wrist_2_joint": 1.5706036197970081,
            "wrist_3_joint": 1.118896926603594
        }
    },
    "waypoints": [
        {
            "positions": [
                -1.1188672234189438,
                -1.8972525353963687,
                1.919643534880228,
                -1.5931878212786155,
                1.5706036197970081,
                1.118896926603594
            ]
        },
        {
            "positions": [
                -1.092903763936845,
                -1.8632816714418436,
                1.8735219841711945,
                -1.56386966509781,
                1.5092520580208058,
                0.9334154183076411
            ]
        },
        {
            "positions": [
                -1.0669403044547463,
                -1.8293108074873186,
                1.827400433462161,
                -1.5345515089170045,
                1.4479004962446032,
                0.7479339100116881
            ]
        },
        {
            "positions": [
                -1.0409768449726475,
                -1.7953399435327935,
                1.7812788827531274,
                -1.505233352736199,
                1.3865489344684008,
                0.5624524017157352
            ]
        },
        {
            "positions": [
                -1.0150133854905488,
                -1.7613690795782682,
                1.7351573320440938,
                -1.4759151965553934,
                1.3251973726921984,
                0.3769708934197822
            ]
        },
        {
            "positions": [
                -0.98904992600845,
                -1.727398215623743,
                1.6890357813350603,
                -1.446597040374588,
                1.263845810915996,
                0.1914893851238293
            ]
        },
        {
            "positions": [
                -0.9630864665263512,
                -1.693427351669218,
                1.6429142306260267,
                -1.4172788841937825,
                1.2024942491397934,
                0.006007876827876402
            ]
        },
        {
            "positions": [
                -0.9371230070442524,
                -1.659456487714693,
                1.5967926799169931,
                -1.387960728012977,
                1.141142687363591,
                -0.1794736314680765
            ]
        },
        {
            "positions": [
                -0.9111595475621536,
                -1.6254856237601678,
                1.5506711292079596,
                -1.3586425718321715,
                1.0797911255873887,
                -0.3649551397640296
            ]
        },
        {
            "positions": [
                -0.8851960880800548,
                -1.5915147598056425,
                1.504549578498926,
                -1.329324415651366,
                1.018439563811186,
                -0.5504366480599825
            ]
        },
        {
            "positions": [
                -0.859232628597956,
                -1.5575438958511176,
                1.4584280277898924,
                -1.3000062594705604,
                0.9570880020349837,
                -0.7359181563559354
            ]
        },
        {
            "positions": [
                -0.8332691691158571,
                -1.5235730318965923,
                1.4123064770808589,
                -1.270688103289755,
                0.8957364402587812,
                -0.9213996646518885
            ]
        },
        {
            "positions": [
                -0.8073057096337585,
                -1.4896021679420672,
                1.3661849263718253,
                -1.2413699471089494,
                0.8343848784825788,
                -1.1068811729478412
            ]
        },
        {
            "positions": [
                -0.7813422501516596,
                -1.4556313039875421,
                1.3200633756627917,
                -1.212051790928144,
                0.7730333167063763,
                -1.2923626812437943
            ]
        },
        {
            "positions": [
                -0.7553787906695609,
                -1.421660440033017,
                1.2739418249537582,
                -1.1827336347473385,
                0.7116817549301739,
                -1.477844189539747
            ]
        },
        {
            "positions": [
                -0.729415331187462,
                -1.387689576078492,
                1.2278202742447246,
                -1.153415478566533,
                0.6503301931539714,
                -1.6633256978357
            ]
        },
        {
            "positions": [
                -0.7034518717053633,
                -1.3537187121239667,
                1.1816987235356908,
                -1.1240973223857273,
                0.588978631377769,
                -1.8488072061316532
            ]
        },
        {
            "positions": [
                -0.6774884122232645,
                -1.3197478481694418,
                1.1355771728266575,
                -1.094779166204922,
                0.5276270696015666,
                -2.034288714427606
            ]
        },
        {
            "positions": [
                -0.6515249527411657,
                -1.2857769842149165,
                1.0894556221176237,
                -1.0654610100241164,
                0.466275507825364,
                -2.219770222723559
            ]
        },
        {
            "positions": [
                -0.625561493259067,
                -1.2518061202603916,
                1.0433340714085904,
                -1.036142853843311,
                0.4049239460491618,
                -2.4052517310195114
            ]
        },
        {
            "positions": [
                -0.5995980337769682,
                -1.2178352563058663,
                0.9972125206995567,
                -1.0068246976625055,
                0.34357238427295933,
                -2.5907332393154645
            ]
        },
        {
            "positions": [
                -0.4964889197155731,
                -1.208037231250834,
                1.1391620082323732,
                -0.9869661985651621,
                0.31262166614847386,
                -2.6653973554939427
            ]
        },
        {
            "positions": [
                -0.393379805654178,
                -1.1982392061958018,
                1.2811114957651895,
                -0.9671076994678187,
                0.28167094802398834,
                -2.740061471672421
            ]
        },
        {
            "positions": [
                -0.2902706915927829,
                -1.1884411811407696,
                1.4230609832980061,
                -0.9472492003704753,
                0.2507202298995029,
                -2.814725587850899
            ]
        },
        {
            "positions": [
                -0.18716157753138785,
                -1.178643156085737,
                1.5650104708308223,
                -0.9273907012731321,
                0.21976951177501738,
                -2.889389704029377
            ]
        },
        {
            "positions": [
                -0.08405246346999273,
                -1.1688451310307049,
                1.706959958363639,
                -0.9075322021757887,
                0.1888187936505319,
                -2.9640538202078552
            ]
        },
        {
            "positions": [
                0.01905665059140238,
                -1.1590471059756726,
                1.8489094458964552,
                -0.8876737030784453,
                0.1578680755260464,
                -3.0387179363863335
            ]
        },
        {
            "positions": [
                0.12216576465279753,
                -1.1492490809206404,
                1.990858933429272,
                -0.8678152039811019,
                0.1269173574015609,
                -3.1133820525648117
            ]
        }
    ]
}