{
    "goal": {
        "global_pose": {
            "orientation": {
                "w": 0.7047431468963623,
                "x": -0.7094548344612122,
                "y": 0.0024358443915843964,
                "z": -0.0022348060738295317
            },
            "position": {
                "x": 0.6094750761985779,
                "y": 0.3671506643295288,
                "z": 0.19426114857196808
            }
        },
        "name": "move_to_magneteinheit_A"
    },
    "id": "SPARS_move_to_magneteinheit_A_96",
    "joint_names": [
        "shoulder_pan_joint",
        "shoulder_lift_joint",
        "elbow_joint",
        "wrist_1_joint",
        "wrist_2_joint",
        "wrist_3_joint"
    ],
    "metrics": {
        "cart_traj_len": 3.7118300302322047,
        "distance_elbow_joint": 3.8874823760987107,
        "distance_shoulder_lift_joint": 0.9243411098462466,
        "distance_shoulder_pan_joint": 3.400109616758129,
        "distance_wrist_1_joint": 1.6881435545032877,
        "distance_wrist_2_joint": 3.658467893178052,
        "distance_wrist_3_joint": 2.626424982338308,
        "smoothness": 0.2672478863453941,
        "time": 5.023549399999999,
        "traj_len": 4.0230547513951045,
        "weighted_distance": 5.175367711098477
    },
    "planner": "SPARS",
    "start": {
        "state": {
            "elbow_joint": -1.919618573717145,
            "shoulder_lift_joint": -1.2443395971678275,
            "shoulder_pan_joint": 2.6996025300909787,
            "wrist_1_joint": -1.548550951253194,
            "wrist_2_joint": -1.5709469090946802,
            "wrist_3_joint": 0.4420197732051276
        }
    },
    "waypoints": [
        {
            "positions": [
                2.6996025300909787,
                -1.2443395971678275,
                -1.919618573717145,
                -1.548550951253194,
                -1.5709469090946802,
                0.4420197732051276
            ]
        },
        {
            "positions": [
                2.5928867562600524,
                -1.2589623914055115,
                -1.8388750847282591,
                -1.564618324570835,
                -1.4750809136339793,
                0.5166836358009868
            ]
        },
        {
            "positions": [
                2.486170982429126,
                -1.2735851856431954,
                -1.7581315957393733,
                -1.5806856978884758,
                -1.3792149181732785,
                0.5913474983968459
            ]
        },
        {
            "positions": [
                2.3794552085981993,
                -1.2882079798808792,
                -1.6773881067504874,
                -1.5967530712061166,
                -1.2833489227125776,
                0.666011360992705
            ]
        },
        {
            "positions": [
                2.272739434767273,
                -1.3028307741185632,
                -1.5966446177616014,
                -1.6128204445237575,
                -1.1874829272518768,
                0.7406752235885641
            ]
        },
        {
            "positions": [
                2.1660236609363466,
                -1.3174535683562472,
                -1.5159011287727155,
                -1.6288878178413984,
                -1.091616931791176,
                0.8153390861844232
            ]
        },
        {
            "positions": [
                2.0593078871054202,
                -1.3320763625939311,
                -1.4351576397838297,
                -1.6449551911590392,
                -0.995750936330475,
                0.8900029487802823
            ]
        },
        {
            "positions": [
                1.952592113274494,
                -1.346699156831615,
                -1.3544141507949439,
                -1.66102256447668,
                -0.8998849408697741,
                0.9646668113761414
            ]
        },
        {
            "positions": [
                1.8458763394435675,
                -1.3613219510692989,
                -1.273670661806058,
                -1.677089937794321,
                -0.8040189454090733,
                1.0393306739720005
            ]
        },
        {
            "positions": [
                1.7391605656126408,
                -1.3759447453069829,
                -1.1929271728171722,
                -1.6931573111119618,
                -0.7081529499483723,
                1.1139945365678598
            ]
        },
        {
            "positions": [
                1.6324447917817144,
                -1.3905675395446668,
                -1.1121836838282864,
                -1.7092246844296026,
                -0.6122869544876715,
                1.188658399163719
            ]
        },
        {
            "positions": [
                1.525729017950788,
                -1.4051903337823508,
                -1.0314401948394005,
                -1.7252920577472435,
                -0.5164209590269706,
                1.2633222617595778
            ]
        },
        {
            "positions": [
                1.4190132441198617,
                -1.4198131280200346,
                -0.9506967058505146,
                -1.7413594310648843,
                -0.42055496356626976,
                1.337986124355437
            ]
        },
        {
            "positions": [
                1.3122974702889352,
                -1.4344359222577185,
                -0.8699532168616286,
                -1.7574268043825252,
                -0.3246889681055689,
                1.4126499869512963
            ]
        },
        {
            "positions": [
                1.2055816964580088,
                -1.4490587164954025,
                -0.7892097278727428,
                -1.773494177700166,
                -0.22882297264486806,
                1.4873138495471554
            ]
        },
        {
            "positions": [
                1.0988659226270825,
                -1.4636815107330865,
                -0.708466238883857,
                -1.7895615510178067,
                -0.1329569771841672,
                1.5619777121430145
            ]
        },
        {
            "positions": [
                0.9921501487961562,
                -1.4783043049707705,
                -0.6277227498949711,
                -1.8056289243354475,
                -0.037090981723466365,
                1.6366415747388736
            ]
        },
        {
            "positions": [
                0.8854343749652298,
                -1.4929270992084542,
                -0.5469792609060853,
                -1.8216962976530884,
                0.05877501373723448,
                1.7113054373347327
            ]
        },
        {
            "positions": [
                0.778718601134303,
                -1.5075498934461382,
                -0.4662357719171992,
                -1.8377636709707295,
                0.15464100919793555,
                1.785969299930592
            ]
        },
        {
            "positions": [
                0.6720028273033765,
                -1.5221726876838222,
                -0.3854922829283134,
                -1.8538310442883703,
                0.2505070046586364,
                1.8606331625264512
            ]
        },
        {
            "positions": [
                0.5652870534724501,
                -1.5367954819215062,
                -0.30474879393942755,
                -1.869898417606011,
                0.34637300011933725,
                1.9352970251223103
            ]
        },
        {
            "positions": [
                0.4585712796415238,
                -1.5514182761591901,
                -0.22400530495054172,
                -1.8859657909236518,
                0.4422389955800381,
                2.009960887718169
            ]
        },
        {
            "positions": [
                0.35185550581059744,
                -1.566041070396874,
                -0.14326181596165588,
                -1.9020331642412927,
                0.538104991040739,
                2.084624750314028
            ]
        },
        {
            "positions": [
                0.2451397319796711,
                -1.5806638646345579,
                -0.06251832697277004,
                -1.9181005375589335,
                0.6339709865014398,
                2.1592886129098874
            ]
        },
        {
            "positions": [
                0.13842395814874475,
                -1.5952866588722419,
                0.018225162016115792,
                -1.9341679108765744,
                0.7298369819621406,
                2.2339524755057463
            ]
        },
        {
            "positions": [
                0.03170818431781797,
                -1.6099094531099258,
                0.09896865100500185,
                -1.9502352841942152,
                0.8257029774228415,
                2.3086163381016056
            ]
        },
        {
            "positions": [
                -0.07500758951310837,
                -1.6245322473476098,
                0.1797121399938877,
                -1.966302657511856,
                0.9215689728835423,
                2.383280200697465
            ]
        },
        {
            "positions": [
                -0.18172336334403472,
                -1.6391550415852936,
                0.2604556289827735,
                -1.982370030829497,
                1.0174349683442432,
                2.4579440632933243
            ]
        },
        {
            "positions": [
                -0.28843913717496117,
                -1.6537778358229775,
                0.3411991179716596,
                -1.9984374041471378,
                1.113300963804944,
                2.532607925889183
            ]
        },
        {
            "positions": [
                -0.25900571221123336,
                -1.6169990593093277,
                0.45738945257236713,
                -1.909990468317899,
                1.0437138194993423,
                2.5708819851502014
            ]
        },
        {
            "positions": [
                -0.22957228724750559,
                -1.580220282795678,
                0.5735797871730747,
                -1.82154353248866,
                0.9741266751937403,
                2.609156044411219
            ]
        },
        {
            "positions": [
                -0.2001388622837778,
                -1.5434415062820284,
                0.6897701217737822,
                -1.7330965966594212,
                0.9045395308881385,
                2.6474301036722374
            ]
        },
        {
            "positions": [
                -0.17070543732005,
                -1.5066627297683786,
                0.8059604563744898,
                -1.6446496608301824,
                0.8349523865825366,
                2.685704162933255
            ]
        },
        {
            "positions": [
                -0.1412720123563222,
                -1.4698839532547288,
                0.9221507909751973,
                -1.5562027250009436,
                0.7653652422769348,
                2.7239782221942734
            ]
        },
        {
            "positions": [
                -0.11183858739259442,
                -1.433105176741079,
                1.0383411255759047,
                -1.4677557891717048,
                0.6957780979713329,
                2.7622522814552912
            ]
        },
        {
            "positions": [
                -0.08240516242886661,
                -1.3963264002274292,
                1.1545314601766123,
                -1.3793088533424658,
                0.6261909536657311,
                2.8005263407163095
            ]
        },
        {
            "positions": [
                -0.052971737465138835,
                -1.3595476237137796,
                1.27072179477732,
                -1.290861917513227,
                0.5566038093601292,
                2.8388003999773277
            ]
        },
        {
            "positions": [
                -0.02353831250141103,
                -1.3227688472001298,
                1.3869121293780275,
                -1.202414981683988,
                0.48701666505452734,
                2.8770744592383455
            ]
        },
        {
            "positions": [
                0.005895112462316776,
                -1.28599007068648,
                1.503102463978735,
                -1.1139680458547492,
                0.4174295207489255,
                2.9153485184993637
            ]
        },
        {
            "positions": [
                0.03532853742604458,
                -1.2492112941728304,
                1.6192927985794425,
                -1.0255211100255104,
                0.3478423764433237,
                2.9536225777603815
            ]
        },
        {
            "positions": [
                0.06476196238977233,
                -1.2124325176591806,
                1.73548313318015,
                -0.9370741741962716,
                0.27825523213772185,
                2.9918966370213997
            ]
        },
        {
            "positions": [
                0.09419538735350014,
                -1.1756537411455308,
                1.8516734677808577,
                -0.8486272383670326,
                0.20866808783211999,
                3.0301706962824175
            ]
        },
        {
            "positions": [
                0.12362881231722794,
                -1.138874964631881,
                1.967863802381565,
                -0.7601803025377938,
                0.13908094352651815,
                3.0684447555434358
            ]
        }
    ]
}{
    "goal": {
        "global_pose": {
            "orientation": {
                "w": 0.7047431468963623,
                "x": -0.7094548344612122,
                "y": 0.0024358443915843964,
                "z": -0.0022348060738295317
            },
            "position": {
                "x": 0.6094750761985779,
                "y": 0.3671506643295288,
                "z": 0.19426114857196808
            }
        },
        "name": "move_to_magneteinheit_A"
    },
    "id": "SPARS_move_to_magneteinheit_A_96",
    "joint_names": [
        "shoulder_pan_joint",
        "shoulder_lift_joint",
        "elbow_joint",
        "wrist_1_joint",
        "wrist_2_joint",
        "wrist_3_joint"
    ],
    "metrics": {
        "cart_traj_len": 1.2021555334605474,
        "distance_elbow_joint": 0.07857046739911677,
        "distance_shoulder_lift_joint": 0.8685216315893929,
        "distance_shoulder_pan_joint": 1.281613025196914,
        "distance_wrist_1_joint": 1.1060260996054192,
        "distance_wrist_2_joint": 1.4360113328687998,
        "distance_wrist_3_joint": 4.227940193907353,
        "smoothness": 0.26082952415089583,
        "time": 5.0273528370000005,
        "traj_len": 2.9997804503941614,
        "weighted_distance": 4.471755871115497
    },
    "planner": "SPARS",
    "start": {
        "state": {
            "elbow_joint": 1.919643534880228,
            "shoulder_lift_joint": -1.8972525353963687,
            "shoulder_pan_joint": -1.1188672234189438,
            "wrist_1_joint": -1.5931878212786155,
            "wrist_2_joint": 1.5706036197970081,
            "wrist_3_joint": 1.118896926603594
        }
    },
    "waypoints": [
        {
            "positions": [
                -1.1188672234189438,
                -1.8972525353963687,
                1.919643534880228,
                -1.5931878212786155,
                1.5706036197970081,
                1.118896926603594
            ]
        },
        {
            "positions": [
                -1.125347125715702,
                -1.9174114630595065,
                1.9445178452332097,
                -1.6560582367467125,
                1.4678371637008885,
                0.9611773422455301
            ]
        },
        {
            "positions": [
                -1.13182702801246,
                -1.937570390722644,
                1.9693921555861915,
                -1.7189286522148093,
                1.3650707076047686,
                0.8034577578874663
            ]
        },
        {
            "positions": [
                -1.1383069303092181,
                -1.9577293183857818,
                1.9942664659391731,
                -1.7817990676829063,
                1.2623042515086489,
                0.6457381735294024
            ]
        },
        {
            "positions": [
                -1.0751982643938862,
                -1.9173270759557828,
                1.9940690891221646,
                -1.7359283250228499,
                1.2059186532796269,
                0.45799910148774436
            ]
        },
        {
            "positions": [
                -1.0120895984785543,
                -1.8769248335257838,
                1.993871712305156,
                -1.6900575823627935,
                1.1495330550506049,
                0.2702600294460863
            ]
        },
        {
            "positions": [
                -0.9489809325632221,
                -1.8365225910957848,
                1.9936743354881474,
                -1.644186839702737,
                1.0931474568215827,
                0.08252095740442833
            ]
        },
        {
            "positions": [
                -0.8858722666478902,
                -1.7961203486657857,
                1.9934769586711387,
                -1.5983160970426806,
                1.0367618585925606,
                -0.10521811463722985
            ]
        },
        {
            "positions": [
                -0.8227636007325583,
                -1.7557181062357867,
                1.9932795818541302,
                -1.5524453543826242,
                0.9803762603635386,
                -0.2929571866788878
            ]
        },
        {
            "positions": [
                -0.7596549348172262,
                -1.715315863805788,
                1.9930822050371215,
                -1.5065746117225678,
                0.9239906621345166,
                -0.4806962587205458
            ]
        },
        {
            "positions": [
                -0.6965462689018943,
                -1.674913621375789,
                1.992884828220113,
                -1.4607038690625114,
                0.8676050639054946,
                -0.6684353307622038
            ]
        },
        {
            "positions": [
                -0.6334376029865623,
                -1.63451137894579,
                1.9926874514031043,
                -1.414833126402455,
                0.8112194656764724,
                -0.8561744028038621
            ]
        },
        {
            "positions": [
                -0.5703289370712302,
                -1.594109136515791,
                1.9924900745860958,
                -1.3689623837423985,
                0.7548338674474504,
                -1.04391347484552
            ]
        },
        {
            "positions": [
                -0.5072202711558983,
                -1.5537068940857919,
                1.9922926977690874,
                -1.3230916410823421,
                0.6984482692184284,
                -1.2316525468871782
            ]
        },
        {
            "positions": [
                -0.44411160524056625,
                -1.5133046516557929,
                1.9920953209520786,
                -1.2772208984222857,
                0.6420626709894063,
                -1.4193916189288363
            ]
        },
        {
            "positions": [
                -0.3810029393252343,
                -1.4729024092257939,
                1.9918979441350702,
                -1.2313501557622293,
                0.5856770727603843,
                -1.6071306909704939
            ]
        },
        {
            "positions": [
                -0.3178942734099023,
                -1.4325001667957948,
                1.9917005673180614,
                -1.1854794131021729,
                0.5292914745313623,
                -1.7948697630121524
            ]
        },
        {
            "positions": [
                -0.25478560749457047,
                -1.392097924365796,
                1.991503190501053,
                -1.1396086704421164,
                0.47290587630234027,
                -1.98260883505381
            ]
        },
        {
            "positions": [
                -0.1916769415792383,
                -1.351695681935797,
                1.9913058136840442,
                -1.09373792778206,
                0.41652027807331815,
                -2.170347907095468
            ]
        },
        {
            "positions": [
                -0.12856827566390638,
                -1.311293439505798,
                1.9911084368670358,
                -1.0478671851220036,
                0.36013467984429604,
                -2.3580869791371266
            ]
        },
        {
            "positions": [
                -0.06545960974857445,
                -1.270891197075799,
                1.990911060050027,
                -1.0019964424619472,
                0.30374908161527403,
                -2.5458260511787842
            ]
        },
        {
            "positions": [
                -0.0023509438332423027,
                -1.2304889546458,
                1.9907136832330186,
                -0.9561256998018908,
                0.24736348338625191,
                -2.7335651232204423
            ]
        },
        {
            "positions": [
                0.060757722082089405,
                -1.190086712215801,
                1.9905163064160099,
                -0.9102549571418344,
                0.1909778851572299,
                -2.9213041952621004
            ]
        },
        {
            "positions": [
                0.12386638799742165,
                -1.149684469785802,
                1.9903189295990014,
                -0.8643842144817779,
                0.13459228692820796,
                -3.1090432673037585
            ]
        }
    ]
}