{
    "goal": {
        "global_pose": {
            "orientation": {
                "w": 0.5084816217422485,
                "x": -0.49083608388900757,
                "y": 0.5182115435600281,
                "z": -0.4816462993621826
            },
            "position": {
                "x": 0.5540239810943604,
                "y": 0.030875300988554955,
                "z": 0.16403168439865112
            }
        },
        "name": "move_to_storage_A"
    },
    "id": "SPARS_move_to_storage_A_57",
    "joint_names": [
        "shoulder_pan_joint",
        "shoulder_lift_joint",
        "elbow_joint",
        "wrist_1_joint",
        "wrist_2_joint",
        "wrist_3_joint"
    ],
    "metrics": {
        "cart_traj_len": 0.35287952425832947,
        "distance_elbow_joint": 0.4500488917299106,
        "distance_shoulder_lift_joint": 0.23462143446528705,
        "distance_shoulder_pan_joint": 0.461812596435564,
        "distance_wrist_1_joint": 0.23770268429565233,
        "distance_wrist_2_joint": 1.0974623233629162,
        "distance_wrist_3_joint": 0.10297424143688838,
        "smoothness": 6.661338165333112e-16,
        "time": 5.045269469,
        "traj_len": 1.6076760157837209,
        "weighted_distance": 2.0311907006134513
    },
    "planner": "SPARS",
    "start": {
        "state": {
            "elbow_joint": 1.9715477243005601,
            "shoulder_lift_joint": -1.1394853015351272,
            "shoulder_pan_joint": 0.12281154014795169,
            "wrist_1_joint": -0.7804696478968182,
            "wrist_2_joint": 0.12958648046900423,
            "wrist_3_joint": -3.192491284697111
        }
    },
    "waypoints": [
        {
            "positions": [
                0.12281154014795169,
                -1.1394853015351272,
                1.9715477243005601,
                -0.7804696478968182,
                0.12958648046900423,
                -3.192491284697111
            ]
        },
        {
            "positions": [
                0.05683831208572826,
                -1.1730026493158825,
                2.0358404231191187,
                -0.8144271742247685,
                0.2863668123779922,
                -3.1777806787775558
            ]
        },
        {
            "positions": [
                -0.00913491597649517,
                -1.2065199970966378,
                2.1001331219376773,
                -0.8483847005527189,
                0.44314714428698027,
                -3.1630700728580003
            ]
        },
        {
            "positions": [
                -0.07510814403871859,
                -1.2400373448773931,
                2.164425820756236,
                -0.8823422268806691,
                0.5999274761959683,
                -3.148359466938445
            ]
        },
        {
            "positions": [
                -0.14108137210094202,
                -1.2735546926581482,
                2.2287185195747945,
                -0.9162997532086194,
                0.7567078081049563,
                -3.133648861018889
            ]
        },
        {
            "positions": [
                -0.20705460016316546,
                -1.3070720404389036,
                2.2930112183933535,
                -0.9502572795365698,
                0.9134881400139444,
                -3.1189382550993336
            ]
        },
        {
            "positions": [
                -0.27302782822538885,
                -1.340589388219659,
                2.357303917211912,
                -0.9842148058645201,
                1.0702684719229323,
                -3.1042276491797782
            ]
        },
        {
            "positions": [
                -0.3390010562876123,
                -1.3741067360004142,
                2.4215966160304707,
                -1.0181723321924705,
                1.2270488038319203,
                -3.089517043260223
            ]
        }
    ]
}