{
    "goal": {
        "global_pose": {
            "orientation": {
                "w": 0.7047431468963623,
                "x": -0.7094548344612122,
                "y": 0.0024358443915843964,
                "z": -0.0022348060738295317
            },
            "position": {
                "x": 0.6094750761985779,
                "y": 0.3671506643295288,
                "z": 0.19426114857196808
            }
        },
        "name": "move_to_magneteinheit_A"
    },
    "id": "SPARS_move_to_magneteinheit_A_33",
    "joint_names": [
        "shoulder_pan_joint",
        "shoulder_lift_joint",
        "elbow_joint",
        "wrist_1_joint",
        "wrist_2_joint",
        "wrist_3_joint"
    ],
    "metrics": {
        "cart_traj_len": 3.0031472152226835,
        "distance_elbow_joint": 3.9093348244647546,
        "distance_shoulder_lift_joint": 0.9022215464454624,
        "distance_shoulder_pan_joint": 2.8661579213138304,
        "distance_wrist_1_joint": 3.4602892096686793,
        "distance_wrist_2_joint": 1.449912798638608,
        "distance_wrist_3_joint": 0.8935334316338641,
        "smoothness": 0.11569196143436039,
        "time": 5.058167705,
        "traj_len": 3.6717093746871083,
        "weighted_distance": 4.4920728626927025
    },
    "planner": "SPARS",
    "start": {
        "state": {
            "elbow_joint": -1.919618573717145,
            "shoulder_lift_joint": -1.2443395971678275,
            "shoulder_pan_joint": 2.6996025300909787,
            "wrist_1_joint": -1.548550951253194,
            "wrist_2_joint": -1.5709469090946802,
            "wrist_3_joint": 0.4420197732051276
        }
    },
    "waypoints": [
        {
            "positions": [
                2.6996025300909787,
                -1.2443395971678275,
                -1.919618573717145,
                -1.548550951253194,
                -1.5709469090946802,
                0.4420197732051276
            ]
        },
        {
            "positions": [
                2.58673039944901,
                -1.2533678209276775,
                -1.7728398151854523,
                -1.4722924730203153,
                -1.5296674194928102,
                0.4516610578186564
            ]
        },
        {
            "positions": [
                2.4738582688070414,
                -1.2623960446875278,
                -1.6260610566537599,
                -1.3960339947874365,
                -1.48838792989094,
                0.4613023424321852
            ]
        },
        {
            "positions": [
                2.360986138165073,
                -1.2714242684473778,
                -1.4792822981220672,
                -1.319775516554558,
                -1.44710844028907,
                0.470943627045714
            ]
        },
        {
            "positions": [
                2.2481140075231045,
                -1.2804524922072278,
                -1.3325035395903746,
                -1.2435170383216791,
                -1.4058289506871997,
                0.4805849116592428
            ]
        },
        {
            "positions": [
                2.135241876881136,
                -1.2894807159670778,
                -1.1857247810586822,
                -1.1672585600888004,
                -1.3645494610853297,
                0.4902261962727716
            ]
        },
        {
            "positions": [
                2.0223697462391677,
                -1.298508939726928,
                -1.0389460225269895,
                -1.0910000818559216,
                -1.3232699714834597,
                0.4998674808863004
            ]
        },
        {
            "positions": [
                1.909497615597199,
                -1.307537163486778,
                -0.8921672639952969,
                -1.014741603623043,
                -1.2819904818815895,
                0.5095087654998293
            ]
        },
        {
            "positions": [
                1.7966254849552303,
                -1.316565387246628,
                -0.7453885054636045,
                -0.9384831253901642,
                -1.2407109922797195,
                0.519150050113358
            ]
        },
        {
            "positions": [
                1.6837533543132617,
                -1.3255936110064783,
                -0.5986097469319118,
                -0.8622246471572854,
                -1.1994315026778493,
                0.5287913347268869
            ]
        },
        {
            "positions": [
                1.5708812236712932,
                -1.3346218347663283,
                -0.4518309884002192,
                -0.7859661689244066,
                -1.1581520130759793,
                0.5384326193404156
            ]
        },
        {
            "positions": [
                1.4580090930293248,
                -1.3436500585261784,
                -0.30505222986852676,
                -0.709707690691528,
                -1.1168725234741093,
                0.5480739039539444
            ]
        },
        {
            "positions": [
                1.3451369623873561,
                -1.3526782822860284,
                -0.15827347133683412,
                -0.6334492124586492,
                -1.075593033872239,
                0.5577151885674733
            ]
        },
        {
            "positions": [
                1.2322648317453877,
                -1.3617065060458786,
                -0.011494712805141694,
                -0.5571907342257705,
                -1.0343135442703688,
                0.567356473181002
            ]
        },
        {
            "positions": [
                1.119392701103419,
                -1.3707347298057286,
                0.13528404572655117,
                -0.4809322559928917,
                -0.9930340546684988,
                0.5769977577945309
            ]
        },
        {
            "positions": [
                1.0065205704614506,
                -1.3797629535655787,
                0.2820628042582436,
                -0.4046737777600129,
                -0.9517545650666288,
                0.5866390424080596
            ]
        },
        {
            "positions": [
                0.8936484398194819,
                -1.388791177325429,
                0.428841562789936,
                -0.32841529952713433,
                -0.9104750754647587,
                0.5962803270215884
            ]
        },
        {
            "positions": [
                0.7807763091775133,
                -1.397819401085279,
                0.5756203213216289,
                -0.2521568212942553,
                -0.8691955858628886,
                0.6059216116351173
            ]
        },
        {
            "positions": [
                0.6679041785355446,
                -1.406847624845129,
                0.7223990798533213,
                -0.17589834306137675,
                -0.8279160962610185,
                0.6155628962486461
            ]
        },
        {
            "positions": [
                0.5550320478935764,
                -1.415875848604979,
                0.8691778383850137,
                -0.09963986482849796,
                -0.7866366066591484,
                0.6252041808621749
            ]
        },
        {
            "positions": [
                0.44215991725160775,
                -1.4249040723648292,
                1.0159565969167066,
                -0.02338138659561917,
                -0.7453571170572783,
                0.6348454654757036
            ]
        },
        {
            "positions": [
                0.3292877866096391,
                -1.4339322961246792,
                1.162735355448399,
                0.05287709163725962,
                -0.7040776274554081,
                0.6444867500892325
            ]
        },
        {
            "positions": [
                0.21641565596767087,
                -1.4429605198845292,
                1.3095141139800914,
                0.1291355698701382,
                -0.6627981378535381,
                0.6541280347027613
            ]
        },
        {
            "positions": [
                0.10354352532570221,
                -1.4519887436443795,
                1.4562928725117843,
                0.2053940481030172,
                -0.621518648251668,
                0.6637693193162901
            ]
        },
        {
            "positions": [
                -0.009328605316266322,
                -1.4610169674042295,
                1.603071631043477,
                0.2816525263358957,
                -0.5802391586497979,
                0.6734106039298189
            ]
        },
        {
            "positions": [
                -0.012452623969778694,
                -1.4101894691252943,
                1.6507546927132644,
                0.42240220290957625,
                -0.5359657809527241,
                0.6244694326674619
            ]
        },
        {
            "positions": [
                -0.015576642623291066,
                -1.3593619708463591,
                1.6984377543830518,
                0.5631518794832568,
                -0.49169240325565033,
                0.5755282614051049
            ]
        },
        {
            "positions": [
                -0.018700661276803438,
                -1.308534472567424,
                1.7461208160528392,
                0.7039015560569373,
                -0.4474190255585765,
                0.5265870901427481
            ]
        },
        {
            "positions": [
                -0.02182467993031581,
                -1.2577069742884888,
                1.7938038777226266,
                0.8446512326306179,
                -0.4031456478615027,
                0.47764591888039104
            ]
        },
        {
            "positions": [
                -0.002028217984473158,
                -1.1911362120571405,
                1.8216177031650636,
                0.9953963758474934,
                -0.3638631689525027,
                0.4132825375382465
            ]
        },
        {
            "positions": [
                0.017768243961369494,
                -1.124565449825792,
                1.8494315286075007,
                1.146141519064369,
                -0.32458069004350276,
                0.3489191561961019
            ]
        },
        {
            "positions": [
                0.03756470590721215,
                -1.0579946875944435,
                1.8772453540499376,
                1.2968866622812445,
                -0.28529821113450277,
                0.28455577485395733
            ]
        },
        {
            "positions": [
                0.0573611678530548,
                -0.9914239253630952,
                1.9050591794923748,
                1.44763180549812,
                -0.2460157322255028,
                0.2201923935118128
            ]
        },
        {
            "positions": [
                0.07715762979889745,
                -0.9248531631317468,
                1.9328730049348117,
                1.5983769487149955,
                -0.2067332533165028,
                0.1558290121696682
            ]
        },
        {
            "positions": [
                0.09695409174474011,
                -0.8582824009003984,
                1.9606868303772487,
                1.749122091931871,
                -0.16745077440750283,
                0.09146563082752368
            ]
        },
        {
            "positions": [
                0.11675055369058278,
                -0.79171163866905,
                1.9885006558196858,
                1.8998672351487467,
                -0.12816829549850284,
                0.02710224948537907
            ]
        },
        {
            "positions": [
                0.12290603136221956,
                -0.7754727911951691,
                1.989716250747608,
                1.9117382584154858,
                -0.1353024805409329,
                0.011268003020646242
            ]
        }
    ]
}{
    "goal": {
        "global_pose": {
            "orientation": {
                "w": 0.7047431468963623,
                "x": -0.7094548344612122,
                "y": 0.0024358443915843964,
                "z": -0.0022348060738295317
            },
            "position": {
                "x": 0.6094750761985779,
                "y": 0.3671506643295288,
                "z": 0.19426114857196808
            }
        },
        "name": "move_to_magneteinheit_A"
    },
    "id": "SPARS_move_to_magneteinheit_A_33",
    "joint_names": [
        "shoulder_pan_joint",
        "shoulder_lift_joint",
        "elbow_joint",
        "wrist_1_joint",
        "wrist_2_joint",
        "wrist_3_joint"
    ],
    "metrics": {
        "cart_traj_len": 1.147348347189622,
        "distance_elbow_joint": 0.24405045820091886,
        "distance_shoulder_lift_joint": 0.7480339909457632,
        "distance_shoulder_pan_joint": 1.2418618841493574,
        "distance_wrist_1_joint": 0.7333908543801703,
        "distance_wrist_2_joint": 1.4310846287823535,
        "distance_wrist_3_joint": 4.24493939593756,
        "smoothness": 0.018250459583645785,
        "time": 5.038156545,
        "traj_len": 2.939959389582809,
        "weighted_distance": 4.392916512686506
    },
    "planner": "SPARS",
    "start": {
        "state": {
            "elbow_joint": 1.919643534880228,
            "shoulder_lift_joint": -1.8972525353963687,
            "shoulder_pan_joint": -1.1188672234189438,
            "wrist_1_joint": -1.5931878212786155,
            "wrist_2_joint": 1.5706036197970081,
            "wrist_3_joint": 1.118896926603594
        }
    },
    "waypoints": [
        {
            "positions": [
                -1.1188672234189438,
                -1.8972525353963687,
                1.919643534880228,
                -1.5931878212786155,
                1.5706036197970081,
                1.118896926603594
            ]
        },
        {
            "positions": [
                -1.0901537296883315,
                -1.8951313945080777,
                1.9459536999317761,
                -1.5450430402875093,
                1.5136257463696854,
                0.9187514669038966
            ]
        },
        {
            "positions": [
                -1.0614402359577189,
                -1.8930102536197868,
                1.9722638649833242,
                -1.496898259296403,
                1.4566478729423629,
                0.7186060072041993
            ]
        },
        {
            "positions": [
                -1.0327267422271065,
                -1.8908891127314957,
                1.9985740300348724,
                -1.4487534783052967,
                1.3996699995150401,
                0.5184605475045019
            ]
        },
        {
            "positions": [
                -1.004013248496494,
                -1.8887679718432047,
                2.0248841950864205,
                -1.4006086973141905,
                1.3426921260877174,
                0.31831508780480455
            ]
        },
        {
            "positions": [
                -0.9752997547658817,
                -1.8866468309549138,
                2.0511943601379685,
                -1.3524639163230843,
                1.2857142526603949,
                0.118169628105107
            ]
        },
        {
            "positions": [
                -0.9465862610352692,
                -1.8845256900666227,
                2.0775045251895166,
                -1.304319135331978,
                1.228736379233072,
                -0.08197583159459021
            ]
        },
        {
            "positions": [
                -0.8836697362255231,
                -1.8412723285597983,
                2.072434556490009,
                -1.2781707724829467,
                1.1646647681614004,
                -0.2610385749910241
            ]
        },
        {
            "positions": [
                -0.8207532114157772,
                -1.7980189670529736,
                2.067364587790501,
                -1.2520224096339154,
                1.100593157089729,
                -0.440101318387458
            ]
        },
        {
            "positions": [
                -0.7578366866060311,
                -1.7547656055461491,
                2.0622946190909937,
                -1.225874046784884,
                1.0365215460180572,
                -0.6191640617838918
            ]
        },
        {
            "positions": [
                -0.694920161796285,
                -1.7115122440393247,
                2.0572246503914857,
                -1.1997256839358528,
                0.9724499349463857,
                -0.7982268051803257
            ]
        },
        {
            "positions": [
                -0.6320036369865389,
                -1.6682588825325,
                2.0521546816919782,
                -1.1735773210868214,
                0.9083783238747141,
                -0.9772895485767596
            ]
        },
        {
            "positions": [
                -0.569087112176793,
                -1.6250055210256755,
                2.0470847129924707,
                -1.14742895823779,
                0.8443067128030424,
                -1.1563522919731934
            ]
        },
        {
            "positions": [
                -0.506170587367047,
                -1.5817521595188508,
                2.042014744292963,
                -1.1212805953887586,
                0.7802351017313708,
                -1.3354150353696272
            ]
        },
        {
            "positions": [
                -0.44325406255730093,
                -1.5384987980120264,
                2.0369447755934553,
                -1.0951322325397272,
                0.7161634906596992,
                -1.5144777787660613
            ]
        },
        {
            "positions": [
                -0.38033753774755485,
                -1.495245436505202,
                2.0318748068939474,
                -1.068983869690696,
                0.6520918795880275,
                -1.693540522162495
            ]
        },
        {
            "positions": [
                -0.3174210129378088,
                -1.4519920749983775,
                2.02680483819444,
                -1.0428355068416646,
                0.5880202685163559,
                -1.872603265558929
            ]
        },
        {
            "positions": [
                -0.2545044881280628,
                -1.4087387134915528,
                2.021734869494932,
                -1.0166871439926333,
                0.5239486574446842,
                -2.0516660089553627
            ]
        },
        {
            "positions": [
                -0.19158796331831673,
                -1.365485351984728,
                2.0166649007954245,
                -0.9905387811436019,
                0.45987704637301263,
                -2.230728752351797
            ]
        },
        {
            "positions": [
                -0.12867143850857077,
                -1.3222319904779036,
                2.011594932095917,
                -0.9643904182945706,
                0.39580543530134116,
                -2.4097914957482303
            ]
        },
        {
            "positions": [
                -0.06575491369882469,
                -1.2789786289710792,
                2.006524963396409,
                -0.9382420554455393,
                0.33173382422966946,
                -2.5888542391446645
            ]
        },
        {
            "positions": [
                -0.0028383888890787246,
                -1.2357252674642547,
                2.0014549946969016,
                -0.912093692596508,
                0.2676622131579979,
                -2.767916982541098
            ]
        },
        {
            "positions": [
                0.06007813592066735,
                -1.1924719059574302,
                1.9963850259973939,
                -0.8859453297474765,
                0.2035906020863263,
                -2.946979725937532
            ]
        },
        {
            "positions": [
                0.12299466073041346,
                -1.1492185444506056,
                1.9913150572978862,
                -0.8597969668984452,
                0.13951899101465465,
                -3.1260424693339663
            ]
        }
    ]
}