{
    "goal": {
        "global_pose": {
            "orientation": {
                "w": 0.5084816217422485,
                "x": -0.49083608388900757,
                "y": 0.5182115435600281,
                "z": -0.4816462993621826
            },
            "position": {
                "x": 0.5540239810943604,
                "y": 0.030875300988554955,
                "z": 0.16403168439865112
            }
        },
        "name": "move_to_storage_A"
    },
    "id": "SPARS_move_to_storage_A_30",
    "joint_names": [
        "shoulder_pan_joint",
        "shoulder_lift_joint",
        "elbow_joint",
        "wrist_1_joint",
        "wrist_2_joint",
        "wrist_3_joint"
    ],
    "metrics": {
        "cart_traj_len": 0.35325146184018064,
        "distance_elbow_joint": 0.449833463259671,
        "distance_shoulder_lift_joint": 0.23410493434869561,
        "distance_shoulder_pan_joint": 0.46284374578390775,
        "distance_wrist_1_joint": 0.23830667401830963,
        "distance_wrist_2_joint": 1.095459645920466,
        "distance_wrist_3_joint": 0.08560987993014857,
        "smoothness": 8.881784232165597e-16,
        "time": 5.053942211,
        "traj_len": 1.601923326274138,
        "weighted_distance": 2.0177077149726794
    },
    "planner": "SPARS",
    "start": {
        "state": {
            "elbow_joint": 1.9715477243005601,
            "shoulder_lift_joint": -1.1394853015351272,
            "shoulder_pan_joint": 0.12281154014795169,
            "wrist_1_joint": -0.7804696478968182,
            "wrist_2_joint": 0.12958648046900423,
            "wrist_3_joint": -3.192491284697111
        }
    },
    "waypoints": [
        {
            "positions": [
                0.12281154014795169,
                -1.1394853015351272,
                1.9715477243005601,
                -0.7804696478968182,
                0.12958648046900423,
                -3.192491284697111
            ]
        },
        {
            "positions": [
                0.05669100503596487,
                -1.1729288635849409,
                2.0358096476233705,
                -0.8145134584708624,
                0.28608071560049936,
                -3.180261301849947
            ]
        },
        {
            "positions": [
                -0.009429530076021944,
                -1.2063724256347546,
                2.1000715709461804,
                -0.8485572690449066,
                0.4425749507319945,
                -3.168031319002783
            ]
        },
        {
            "positions": [
                -0.07555006518800876,
                -1.2398159876845682,
                2.1643334942689907,
                -0.8826010796189508,
                0.5990691858634896,
                -3.1558013361556188
            ]
        },
        {
            "positions": [
                -0.14167060029999556,
                -1.2732595497343817,
                2.2285954175918006,
                -0.9166448901929951,
                0.7555634209949847,
                -3.143571353308455
            ]
        },
        {
            "positions": [
                -0.2077911354119824,
                -1.3067031117841954,
                2.292857340914611,
                -0.9506887007670393,
                0.9120576561264799,
                -3.131341370461291
            ]
        },
        {
            "positions": [
                -0.2739116705239692,
                -1.340146673834009,
                2.357119264237421,
                -0.9847325113410835,
                1.068551891257975,
                -3.1191113876141268
            ]
        },
        {
            "positions": [
                -0.34003220563595604,
                -1.3735902358838228,
                2.421381187560231,
                -1.0187763219151278,
                1.22504612638947,
                -3.1068814047669626
            ]
        }
    ]
}