{
    "goal": {
        "global_pose": {
            "orientation": {
                "w": 0.7047431468963623,
                "x": -0.7094548344612122,
                "y": 0.0024358443915843964,
                "z": -0.0022348060738295317
            },
            "position": {
                "x": 0.6094750761985779,
                "y": 0.3671506643295288,
                "z": 0.19426114857196808
            }
        },
        "name": "move_to_magneteinheit_A"
    },
    "id": "SPARS_move_to_magneteinheit_A_8",
    "joint_names": [
        "shoulder_pan_joint",
        "shoulder_lift_joint",
        "elbow_joint",
        "wrist_1_joint",
        "wrist_2_joint",
        "wrist_3_joint"
    ],
    "metrics": {
        "cart_traj_len": 4.559013930296843,
        "distance_elbow_joint": 3.8842232676436605,
        "distance_shoulder_lift_joint": 0.4623412017197208,
        "distance_shoulder_pan_joint": 6.427079577344006,
        "distance_wrist_1_joint": 2.5398179358372373,
        "distance_wrist_2_joint": 1.6999548113617398,
        "distance_wrist_3_joint": 3.659790981879103,
        "smoothness": 0.2756110021194827,
        "time": 5.034766094,
        "traj_len": 4.3212507189221805,
        "weighted_distance": 5.498414543006253
    },
    "planner": "SPARS",
    "start": {
        "state": {
            "elbow_joint": -1.919618573717145,
            "shoulder_lift_joint": -1.2443395971678275,
            "shoulder_pan_joint": 2.6996025300909787,
            "wrist_1_joint": -1.548550951253194,
            "wrist_2_joint": -1.5709469090946802,
            "wrist_3_joint": 0.4420197732051276
        }
    },
    "waypoints": [
        {
            "positions": [
                2.6996025300909787,
                -1.2443395971678275,
                -1.919618573717145,
                -1.548550951253194,
                -1.5709469090946802,
                0.4420197732051276
            ]
        },
        {
            "positions": [
                2.5443584503066003,
                -1.2504329742823823,
                -1.8923140683847046,
                -1.4908757294997732,
                -1.5159624406329455,
                0.3552959279154037
            ]
        },
        {
            "positions": [
                2.3891143705222224,
                -1.2565263513969371,
                -1.8650095630522645,
                -1.4332005077463523,
                -1.4609779721712108,
                0.26857208262567983
            ]
        },
        {
            "positions": [
                2.233870290737844,
                -1.262619728511492,
                -1.8377050577198242,
                -1.3755252859929317,
                -1.4059935037094764,
                0.18184823733595595
            ]
        },
        {
            "positions": [
                2.0786262109534657,
                -1.2687131056260468,
                -1.810400552387384,
                -1.3178500642395108,
                -1.3510090352477417,
                0.09512439204623208
            ]
        },
        {
            "positions": [
                1.9233821311690875,
                -1.2748064827406016,
                -1.7830960470549437,
                -1.26017484248609,
                -1.296024566786007,
                0.008400546756508143
            ]
        },
        {
            "positions": [
                1.7681380513847094,
                -1.2808998598551564,
                -1.7557915417225036,
                -1.202499620732669,
                -1.2410400983242724,
                -0.07832329853321568
            ]
        },
        {
            "positions": [
                1.612893971600331,
                -1.2869932369697112,
                -1.7284870363900633,
                -1.1448243989792481,
                -1.1860556298625378,
                -0.16504714382293967
            ]
        },
        {
            "positions": [
                1.4576498918159528,
                -1.293086614084266,
                -1.7011825310576232,
                -1.0871491772258275,
                -1.1310711614008033,
                -0.25177098911266343
            ]
        },
        {
            "positions": [
                1.3024058120315745,
                -1.2991799911988209,
                -1.6738780257251828,
                -1.0294739554724066,
                -1.0760866929390687,
                -0.3384948344023874
            ]
        },
        {
            "positions": [
                1.1471617322471963,
                -1.3052733683133757,
                -1.6465735203927427,
                -0.9717987337189857,
                -1.021102224477334,
                -0.4252186796921113
            ]
        },
        {
            "positions": [
                0.9919176524628182,
                -1.3113667454279305,
                -1.6192690150603024,
                -0.914123511965565,
                -0.9661177560155995,
                -0.511942524981835
            ]
        },
        {
            "positions": [
                0.83667357267844,
                -1.3174601225424853,
                -1.591964509727862,
                -0.8564482902121441,
                -0.9111332875538648,
                -0.5986663702715589
            ]
        },
        {
            "positions": [
                0.6814294928940616,
                -1.3235534996570402,
                -1.564660004395422,
                -0.7987730684587232,
                -0.8561488190921301,
                -0.685390215561283
            ]
        },
        {
            "positions": [
                0.5261854131096833,
                -1.3296468767715952,
                -1.5373554990629816,
                -0.7410978467053023,
                -0.8011643506303955,
                -0.7721140608510069
            ]
        },
        {
            "positions": [
                0.3709413333253049,
                -1.33574025388615,
                -1.5100509937305415,
                -0.6834226249518816,
                -0.7461798821686609,
                -0.8588379061407307
            ]
        },
        {
            "positions": [
                0.21569725354092695,
                -1.3418336310007049,
                -1.4827464883981012,
                -0.6257474031984608,
                -0.6911954137069264,
                -0.9455617514304544
            ]
        },
        {
            "positions": [
                0.06045317375654902,
                -1.3479270081152597,
                -1.455441983065661,
                -0.56807218144504,
                -0.6362109452451918,
                -1.0322855967201783
            ]
        },
        {
            "positions": [
                -0.0947909060278298,
                -1.3540203852298145,
                -1.4281374777332208,
                -0.5103969596916191,
                -0.5812264767834571,
                -1.1190094420099024
            ]
        },
        {
            "positions": [
                -0.25003498581220773,
                -1.3601137623443693,
                -1.4008329724007806,
                -0.45272173793819825,
                -0.5262420083217225,
                -1.205733287299626
            ]
        },
        {
            "positions": [
                -0.4052790655965861,
                -1.3662071394589241,
                -1.3735284670683403,
                -0.3950465161847774,
                -0.47125753985998786,
                -1.2924571325893501
            ]
        },
        {
            "positions": [
                -0.5605231453809645,
                -1.372300516573479,
                -1.3462239617359,
                -0.3373712944313565,
                -0.4162730713982532,
                -1.379180977879074
            ]
        },
        {
            "positions": [
                -0.7157672251653424,
                -1.3783938936880338,
                -1.3189194564034599,
                -0.27969607267793584,
                -0.36128860293651877,
                -1.4659048231687977
            ]
        },
        {
            "positions": [
                -0.8710113049497208,
                -1.3844872708025886,
                -1.2916149510710195,
                -0.22202085092451496,
                -0.3063041344747841,
                -1.5526286684585218
            ]
        },
        {
            "positions": [
                -1.0262553847340987,
                -1.3905806479171434,
                -1.2643104457385794,
                -0.16434562917109408,
                -0.25131966601304945,
                -1.6393525137482454
            ]
        },
        {
            "positions": [
                -1.181499464518477,
                -1.3966740250316982,
                -1.237005940406139,
                -0.10667040741767342,
                -0.196335197551315,
                -1.7260763590379695
            ]
        },
        {
            "positions": [
                -1.3367435443028555,
                -1.402767402146253,
                -1.2097014350736988,
                -0.048995185664252316,
                -0.14135072908958013,
                -1.8128002043276936
            ]
        },
        {
            "positions": [
                -1.4919876240872334,
                -1.4088607792608079,
                -1.1823969297412587,
                0.008680036089168341,
                -0.08636626062784569,
                -1.8995240496174173
            ]
        },
        {
            "positions": [
                -1.6472317038716122,
                -1.4149541563753627,
                -1.1550924244088185,
                0.06635525784258944,
                -0.03138179216611081,
                -1.9862478949071414
            ]
        },
        {
            "positions": [
                -1.8024757836559906,
                -1.4210475334899175,
                -1.1277879190763782,
                0.12403047959601016,
                0.0236026762956236,
                -2.072971740196865
            ]
        },
        {
            "positions": [
                -1.7011599276771994,
                -1.4060142037321475,
                -0.9650304131288575,
                0.07838645301769269,
                0.029150319767804484,
                -2.1332243438009235
            ]
        },
        {
            "positions": [
                -1.5998440716984081,
                -1.3909808739743774,
                -0.8022729071813368,
                0.03274242643937522,
                0.03469796323998536,
                -2.193476947404982
            ]
        },
        {
            "positions": [
                -1.4985282157196167,
                -1.3759475442166074,
                -0.6395154012338162,
                -0.01290160013894226,
                0.040245606712166246,
                -2.2537295510090405
            ]
        },
        {
            "positions": [
                -1.3972123597408255,
                -1.3609142144588373,
                -0.47675789528629553,
                -0.05854562671725971,
                0.04579325018434713,
                -2.313982154613099
            ]
        },
        {
            "positions": [
                -1.2958965037620342,
                -1.3458808847010673,
                -0.31400038933877483,
                -0.1041896532955772,
                0.05134089365652801,
                -2.374234758217157
            ]
        },
        {
            "positions": [
                -1.194580647783243,
                -1.3308475549432972,
                -0.15124288339125413,
                -0.14983367987389468,
                0.056888537128708894,
                -2.4344873618212155
            ]
        },
        {
            "positions": [
                -1.0932647918044518,
                -1.3158142251855272,
                0.011514622556266563,
                -0.19547770645221213,
                0.062436180600889776,
                -2.494739965425274
            ]
        },
        {
            "positions": [
                -0.9919489358256605,
                -1.300780895427757,
                0.17427212850378715,
                -0.24112173303052958,
                0.06798382407307066,
                -2.5549925690293325
            ]
        },
        {
            "positions": [
                -0.8906330798468692,
                -1.285747565669987,
                0.33702963445130796,
                -0.28676575960884704,
                0.07353146754525154,
                -2.615245172633391
            ]
        },
        {
            "positions": [
                -0.7893172238680779,
                -1.2707142359122172,
                0.49978714039882854,
                -0.33240978618716455,
                0.07907911101743242,
                -2.6754977762374494
            ]
        },
        {
            "positions": [
                -0.6880013678892865,
                -1.255680906154447,
                0.6625446463463496,
                -0.37805381276548206,
                0.0846267544896133,
                -2.735750379841508
            ]
        },
        {
            "positions": [
                -0.5866855119104954,
                -1.240647576396677,
                0.8253021522938699,
                -0.4236978393437995,
                0.09017439796179418,
                -2.7960029834455664
            ]
        },
        {
            "positions": [
                -0.485369655931704,
                -1.225614246638907,
                0.988059658241391,
                -0.46934186592211696,
                0.09572204143397506,
                -2.856255587049625
            ]
        },
        {
            "positions": [
                -0.3840537999529128,
                -1.210580916881137,
                1.1508171641889113,
                -0.5149858925004345,
                0.10126968490615594,
                -2.9165081906536834
            ]
        },
        {
            "positions": [
                -0.28273794397412155,
                -1.195547587123367,
                1.3135746701364321,
                -0.5606299190787518,
                0.10681732837833682,
                -2.976760794257742
            ]
        },
        {
            "positions": [
                -0.18142208799533033,
                -1.180514257365597,
                1.4763321760839525,
                -0.6062739456570694,
                0.1123649718505177,
                -3.0370133978618
            ]
        },
        {
            "positions": [
                -0.08010623201653888,
                -1.1654809276078268,
                1.6390896820314738,
                -0.6519179722353869,
                0.11791261532269859,
                -3.0972660014658584
            ]
        },
        {
            "positions": [
                0.021209623962252122,
                -1.1504475978500568,
                1.8018471879789941,
                -0.6975619988137043,
                0.12346025879487947,
                -3.157518605069917
            ]
        },
        {
            "positions": [
                0.12252547994104364,
                -1.1354142680922867,
                1.9646046939265152,
                -0.7432060253920217,
                0.12900790226706035,
                -3.2177712086739754
            ]
        }
    ]
}{
    "goal": {
        "global_pose": {
            "orientation": {
                "w": 0.7047431468963623,
                "x": -0.7094548344612122,
                "y": 0.0024358443915843964,
                "z": -0.0022348060738295317
            },
            "position": {
                "x": 0.6094750761985779,
                "y": 0.3671506643295288,
                "z": 0.19426114857196808
            }
        },
        "name": "move_to_magneteinheit_A"
    },
    "id": "SPARS_move_to_magneteinheit_A_8",
    "joint_names": [
        "shoulder_pan_joint",
        "shoulder_lift_joint",
        "elbow_joint",
        "wrist_1_joint",
        "wrist_2_joint",
        "wrist_3_joint"
    ],
    "metrics": {
        "cart_traj_len": 1.233727419332196,
        "distance_elbow_joint": 0.43932822779260583,
        "distance_shoulder_lift_joint": 0.7652949241215183,
        "distance_shoulder_pan_joint": 1.2417741531263178,
        "distance_wrist_1_joint": 1.145154866410242,
        "distance_wrist_2_joint": 2.195683842561439,
        "distance_wrist_3_joint": 4.350842034404535,
        "smoothness": 0.4154023753537671,
        "time": 5.026007396,
        "traj_len": 3.18403486922123,
        "weighted_distance": 4.709628523163734
    },
    "planner": "SPARS",
    "start": {
        "state": {
            "elbow_joint": 1.919643534880228,
            "shoulder_lift_joint": -1.8972525353963687,
            "shoulder_pan_joint": -1.1188672234189438,
            "wrist_1_joint": -1.5931878212786155,
            "wrist_2_joint": 1.5706036197970081,
            "wrist_3_joint": 1.118896926603594
        }
    },
    "waypoints": [
        {
            "positions": [
                -1.1188672234189438,
                -1.8972525353963687,
                1.919643534880228,
                -1.5931878212786155,
                1.5706036197970081,
                1.118896926603594
            ]
        },
        {
            "positions": [
                -1.0842520867375935,
                -1.8689654504356636,
                1.910930212210494,
                -1.5495721523214825,
                1.491418769296955,
                0.9321871590530504
            ]
        },
        {
            "positions": [
                -1.0496369500562435,
                -1.8406783654749583,
                1.9022168895407598,
                -1.5059564833643493,
                1.4122339187969017,
                0.7454773915025068
            ]
        },
        {
            "positions": [
                -1.0150218133748932,
                -1.8123912805142532,
                1.8935035668710258,
                -1.4623408144072163,
                1.3330490682968485,
                0.5587676239519632
            ]
        },
        {
            "positions": [
                -0.9804066766935431,
                -1.7841041955535482,
                1.8847902442012918,
                -1.4187251454500833,
                1.2538642177967954,
                0.37205785640141964
            ]
        },
        {
            "positions": [
                -0.9457915400121928,
                -1.755817110592843,
                1.8760769215315576,
                -1.3751094764929501,
                1.1746793672967422,
                0.18534808885087606
            ]
        },
        {
            "positions": [
                -0.9111764033308426,
                -1.727530025632138,
                1.8673635988618236,
                -1.3314938075358171,
                1.095494516796689,
                -0.0013616786996675234
            ]
        },
        {
            "positions": [
                -0.8765612666494924,
                -1.6992429406714327,
                1.8586502761920896,
                -1.2878781385786842,
                1.0163096662966358,
                -0.1880714462502111
            ]
        },
        {
            "positions": [
                -0.8419461299681422,
                -1.6709558557107276,
                1.8499369535223555,
                -1.244262469621551,
                0.9371248157965827,
                -0.3747812138007547
            ]
        },
        {
            "positions": [
                -0.807330993286792,
                -1.6426687707500225,
                1.8412236308526213,
                -1.200646800664418,
                0.8579399652965295,
                -0.5614909813512983
            ]
        },
        {
            "positions": [
                -0.7727158566054418,
                -1.6143816857893172,
                1.8325103081828873,
                -1.157031131707285,
                0.7787551147964763,
                -0.7482007489018419
            ]
        },
        {
            "positions": [
                -0.7381007199240917,
                -1.586094600828612,
                1.8237969855131533,
                -1.1134154627501518,
                0.6995702642964231,
                -0.9349105164523854
            ]
        },
        {
            "positions": [
                -0.7034855832427414,
                -1.557807515867907,
                1.815083662843419,
                -1.069799793793019,
                0.6203854137963699,
                -1.121620284002929
            ]
        },
        {
            "positions": [
                -0.6688704465613913,
                -1.529520430907202,
                1.806370340173685,
                -1.0261841248358858,
                0.5412005632963168,
                -1.3083300515534726
            ]
        },
        {
            "positions": [
                -0.634255309880041,
                -1.5012333459464966,
                1.797657017503951,
                -0.9825684558787527,
                0.4620157127962634,
                -1.4950398191040162
            ]
        },
        {
            "positions": [
                -0.5996401731986908,
                -1.4729462609857915,
                1.7889436948342168,
                -0.9389527869216198,
                0.38283086229621044,
                -1.6817495866545598
            ]
        },
        {
            "positions": [
                -0.5650250365173406,
                -1.4446591760250864,
                1.7802303721644828,
                -0.8953371179644867,
                0.30364601179615724,
                -1.8684593542051033
            ]
        },
        {
            "positions": [
                -0.5304098998359904,
                -1.4163720910643813,
                1.7715170494947488,
                -0.8517214490073537,
                0.22446116129610405,
                -2.0551691217556467
            ]
        },
        {
            "positions": [
                -0.4957947631546401,
                -1.388085006103676,
                1.7628037268250147,
                -0.8081057800502206,
                0.14527631079605086,
                -2.2418788893061903
            ]
        },
        {
            "positions": [
                -0.4611796264732899,
                -1.359797921142971,
                1.7540904041552805,
                -0.7644901110930875,
                0.06609146029599766,
                -2.428588656856734
            ]
        },
        {
            "positions": [
                -0.42656448979193984,
                -1.3315108361822658,
                1.7453770814855465,
                -0.7208744421359545,
                -0.013093390204055533,
                -2.6152984244072774
            ]
        },
        {
            "positions": [
                -0.39194935311058965,
                -1.3032237512215605,
                1.7366637588158125,
                -0.6772587731788215,
                -0.09227824070410873,
                -2.802008191957821
            ]
        },
        {
            "positions": [
                -0.35733421642923935,
                -1.2749366662608554,
                1.7279504361460782,
                -0.6336431042216883,
                -0.17146309120416192,
                -2.9887179595083646
            ]
        },
        {
            "positions": [
                -0.3227190797478892,
                -1.2466495813001504,
                1.7192371134763442,
                -0.5900274352645555,
                -0.2506479417042151,
                -3.175427727058908
            ]
        },
        {
            "positions": [
                -0.2113125773840735,
                -1.2179765887938254,
                1.7789675650735246,
                -0.6255260553636008,
                -0.15703987143916104,
                -3.1895570722444164
            ]
        },
        {
            "positions": [
                -0.09990607502025775,
                -1.1893035962875005,
                1.8386980166707052,
                -0.6610246754626463,
                -0.06343180117410693,
                -3.2036864174299247
            ]
        },
        {
            "positions": [
                0.011500427343557995,
                -1.1606306037811753,
                1.8984284682678858,
                -0.6965232955616918,
                0.030176269090947172,
                -3.217815762615433
            ]
        },
        {
            "positions": [
                0.12290692970737371,
                -1.1319576112748504,
                1.9581589198650662,
                -0.7320219156607372,
                0.12378433935600124,
                -3.231945107800941
            ]
        }
    ]
}