{
    "goal": {
        "global_pose": {
            "orientation": {
                "w": 0.7047431468963623,
                "x": -0.7094548344612122,
                "y": 0.0024358443915843964,
                "z": -0.0022348060738295317
            },
            "position": {
                "x": 0.6094750761985779,
                "y": 0.3671506643295288,
                "z": 0.19426114857196808
            }
        },
        "name": "move_to_magneteinheit_A"
    },
    "id": "SPARS_move_to_magneteinheit_A_125",
    "joint_names": [
        "shoulder_pan_joint",
        "shoulder_lift_joint",
        "elbow_joint",
        "wrist_1_joint",
        "wrist_2_joint",
        "wrist_3_joint"
    ],
    "metrics": {
        "cart_traj_len": 3.36701710969645,
        "distance_elbow_joint": 3.921288454007427,
        "distance_shoulder_lift_joint": 0.8044783749580128,
        "distance_shoulder_pan_joint": 3.964686118479153,
        "distance_wrist_1_joint": 3.8192210941394054,
        "distance_wrist_2_joint": 3.2633965780550076,
        "distance_wrist_3_joint": 0.4834427200751076,
        "smoothness": 0.3686749251626827,
        "time": 5.047508239,
        "traj_len": 4.031936673574389,
        "weighted_distance": 4.930113229131632
    },
    "planner": "SPARS",
    "start": {
        "state": {
            "elbow_joint": -1.919618573717145,
            "shoulder_lift_joint": -1.2443395971678275,
            "shoulder_pan_joint": 2.6996025300909787,
            "wrist_1_joint": -1.548550951253194,
            "wrist_2_joint": -1.5709469090946802,
            "wrist_3_joint": 0.4420197732051276
        }
    },
    "waypoints": [
        {
            "positions": [
                2.6996025300909787,
                -1.2443395971678275,
                -1.919618573717145,
                -1.548550951253194,
                -1.5709469090946802,
                0.4420197732051276
            ]
        },
        {
            "positions": [
                2.600495618890923,
                -1.2494923909197064,
                -1.8213815511249345,
                -1.4375858847361844,
                -1.4996875069194897,
                0.43175174962895274
            ]
        },
        {
            "positions": [
                2.5013887076908676,
                -1.2546451846715851,
                -1.7231445285327243,
                -1.326620818219175,
                -1.4284281047442995,
                0.4214837260527779
            ]
        },
        {
            "positions": [
                2.402281796490812,
                -1.259797978423464,
                -1.6249075059405138,
                -1.2156557517021653,
                -1.357168702569109,
                0.41121570247660305
            ]
        },
        {
            "positions": [
                2.3031748852907565,
                -1.264950772175343,
                -1.5266704833483034,
                -1.104690685185156,
                -1.2859093003939188,
                0.4009476789004282
            ]
        },
        {
            "positions": [
                2.2040679740907008,
                -1.270103565927222,
                -1.428433460756093,
                -0.9937256186681462,
                -1.2146498982187284,
                0.39067965532425336
            ]
        },
        {
            "positions": [
                2.1049610628906454,
                -1.2752563596791007,
                -1.3301964381638824,
                -0.8827605521511367,
                -1.143390496043538,
                0.3804116317480785
            ]
        },
        {
            "positions": [
                2.0058541516905897,
                -1.2804091534309796,
                -1.2319594155716722,
                -0.7717954856341271,
                -1.0721310938683475,
                0.37014360817190367
            ]
        },
        {
            "positions": [
                1.9067472404905343,
                -1.2855619471828585,
                -1.133722392979462,
                -0.6608304191171176,
                -1.0008716916931573,
                0.3598755845957288
            ]
        },
        {
            "positions": [
                1.8076403292904788,
                -1.2907147409347375,
                -1.0354853703872515,
                -0.5498653526001082,
                -0.9296122895179669,
                0.349607561019554
            ]
        },
        {
            "positions": [
                1.7085334180904233,
                -1.2958675346866162,
                -0.9372483477950411,
                -0.4389002860830984,
                -0.8583528873427765,
                0.33933953744337914
            ]
        },
        {
            "positions": [
                1.6094265068903677,
                -1.3010203284384951,
                -0.8390113252028308,
                -0.32793521956608895,
                -0.7870934851675861,
                0.3290715138672043
            ]
        },
        {
            "positions": [
                1.510319595690312,
                -1.306173122190374,
                -0.7407743026106202,
                -0.2169701530490793,
                -0.7158340829923958,
                0.3188034902910294
            ]
        },
        {
            "positions": [
                1.4112126844902566,
                -1.3113259159422528,
                -0.6425372800184099,
                -0.10600508653206986,
                -0.6445746808172055,
                0.30853546671485454
            ]
        },
        {
            "positions": [
                1.3121057732902008,
                -1.3164787096941317,
                -0.5443002574261995,
                0.0049599799849398,
                -0.573315278642015,
                0.2982674431386797
            ]
        },
        {
            "positions": [
                1.2129988620901455,
                -1.3216315034460107,
                -0.44606323483398924,
                0.11592504650194924,
                -0.5020558764668248,
                0.28799941956250485
            ]
        },
        {
            "positions": [
                1.1138919508900897,
                -1.3267842971978896,
                -0.3478262122417788,
                0.2268901130189589,
                -0.43079647429163437,
                0.27773139598633
            ]
        },
        {
            "positions": [
                1.0147850396900344,
                -1.3319370909497683,
                -0.24958918964956833,
                0.33785517953596833,
                -0.3595370721164439,
                0.26746337241015516
            ]
        },
        {
            "positions": [
                0.9156781284899789,
                -1.3370898847016472,
                -0.1513521670573581,
                0.44882024605297777,
                -0.2882776699412537,
                0.2571953488339803
            ]
        },
        {
            "positions": [
                0.8165712172899231,
                -1.3422426784535262,
                -0.053115144465147424,
                0.5597853125699879,
                -0.21701826776606303,
                0.24692732525780547
            ]
        },
        {
            "positions": [
                0.7174643060898676,
                -1.3473954722054051,
                0.04512187812706281,
                0.6707503790869973,
                -0.1457588655908728,
                0.23665930168163066
            ]
        },
        {
            "positions": [
                0.618357394889812,
                -1.3525482659572838,
                0.14335890071927326,
                0.7817154456040067,
                -0.07449946341568259,
                0.2263912781054558
            ]
        },
        {
            "positions": [
                0.5192504836897567,
                -1.3577010597091628,
                0.24159592331148327,
                0.8926805121210162,
                -0.0032400612404921425,
                0.21612325452928097
            ]
        },
        {
            "positions": [
                0.4201435724897009,
                -1.3628538534610417,
                0.3398329459036942,
                1.003645578638026,
                0.0680193409346983,
                0.2058552309531061
            ]
        },
        {
            "positions": [
                0.32103666128964514,
                -1.3680066472129204,
                0.4380699684959046,
                1.1146106451550355,
                0.13927874310988853,
                0.19558720737693125
            ]
        },
        {
            "positions": [
                0.22192975008958982,
                -1.3731594409647994,
                0.5363069910881146,
                1.225575711672045,
                0.21053814528507897,
                0.1853191838007564
            ]
        },
        {
            "positions": [
                0.12282283888953449,
                -1.3783122347166783,
                0.6345440136803251,
                1.3365407781890544,
                0.2817975474602692,
                0.17505116022458156
            ]
        },
        {
            "positions": [
                0.023715927689478722,
                -1.3834650284685572,
                0.7327810362725355,
                1.4475058447060642,
                0.35305694963545986,
                0.16478313664840671
            ]
        },
        {
            "positions": [
                -0.07539098351057705,
                -1.388617822220436,
                0.831018058864746,
                1.5584709112230737,
                0.4243163518106501,
                0.15451511307223187
            ]
        },
        {
            "positions": [
                -0.17449789471063237,
                -1.3937706159723149,
                0.9292550814569565,
                1.6694359777400831,
                0.49557575398584053,
                0.14424708949605702
            ]
        },
        {
            "positions": [
                -0.2736048059106877,
                -1.3989234097241938,
                1.0274921040491665,
                1.7804010442570926,
                0.5668351561610305,
                0.13397906591988218
            ]
        },
        {
            "positions": [
                -0.37271171711074347,
                -1.4040762034760728,
                1.1257291266413774,
                1.8913661107741024,
                0.6380945583362214,
                0.12371104234370733
            ]
        },
        {
            "positions": [
                -0.47181862831079924,
                -1.4092289972279515,
                1.2239661492335874,
                2.002331177291112,
                0.7093539605114114,
                0.11344301876753249
            ]
        },
        {
            "positions": [
                -0.5709255395108548,
                -1.4143817909798304,
                1.3222031718257976,
                2.1132962438081213,
                0.7806133626866021,
                0.10317499519135764
            ]
        },
        {
            "positions": [
                -0.4937968674133747,
                -1.343888881963607,
                1.397699472766296,
                2.0958102550216666,
                0.6792982175450772,
                0.08710855718454233
            ]
        },
        {
            "positions": [
                -0.41666819531589466,
                -1.2733959729473838,
                1.473195773706794,
                2.0783242662352124,
                0.5779830724035523,
                0.07104211917772701
            ]
        },
        {
            "positions": [
                -0.33953952321841463,
                -1.2029030639311604,
                1.5486920746472923,
                2.0608382774487577,
                0.4766679272620274,
                0.0549756811709117
            ]
        },
        {
            "positions": [
                -0.26241085112093454,
                -1.1324101549149372,
                1.6241883755877904,
                2.0433522886623035,
                0.3753527821205025,
                0.038909243164096385
            ]
        },
        {
            "positions": [
                -0.18528217902345445,
                -1.0619172458987138,
                1.699684676528289,
                2.0258662998758488,
                0.27403763697897754,
                0.02284280515728107
            ]
        },
        {
            "positions": [
                -0.10815350692597442,
                -0.9914243368824905,
                1.775180977468787,
                2.0083803110893945,
                0.1727224918374527,
                0.006776367150465756
            ]
        },
        {
            "positions": [
                -0.031024834828494274,
                -0.9209314278662672,
                1.850677278409285,
                1.9908943223029398,
                0.07140734669592774,
                -0.009290070856349558
            ]
        },
        {
            "positions": [
                0.0461038372689857,
                -0.850438518850044,
                1.9261735793497834,
                1.9734083335164854,
                -0.0299077984455971,
                -0.025356508863164873
            ]
        },
        {
            "positions": [
                0.12323250936646578,
                -0.7799456098338206,
                2.0016698802902817,
                1.955922344730031,
                -0.13122294358712203,
                -0.04142294686998018
            ]
        }
    ]
}{
    "goal": {
        "global_pose": {
            "orientation": {
                "w": 0.7047431468963623,
                "x": -0.7094548344612122,
                "y": 0.0024358443915843964,
                "z": -0.0022348060738295317
            },
            "position": {
                "x": 0.6094750761985779,
                "y": 0.3671506643295288,
                "z": 0.19426114857196808
            }
        },
        "name": "move_to_magneteinheit_A"
    },
    "id": "SPARS_move_to_magneteinheit_A_125",
    "joint_names": [
        "shoulder_pan_joint",
        "shoulder_lift_joint",
        "elbow_joint",
        "wrist_1_joint",
        "wrist_2_joint",
        "wrist_3_joint"
    ],
    "metrics": {
        "cart_traj_len": 1.9179106921330984,
        "distance_elbow_joint": 1.5574807489566393,
        "distance_shoulder_lift_joint": 1.7732246000404506,
        "distance_shoulder_pan_joint": 1.4634921926950497,
        "distance_wrist_1_joint": 0.7426672819854725,
        "distance_wrist_2_joint": 1.4396742547331456,
        "distance_wrist_3_joint": 4.25132004154406,
        "smoothness": 0.3184921465990057,
        "time": 5.046429507999999,
        "traj_len": 3.350799773181742,
        "weighted_distance": 4.681115330747744
    },
    "planner": "SPARS",
    "start": {
        "state": {
            "elbow_joint": 1.919643534880228,
            "shoulder_lift_joint": -1.8972525353963687,
            "shoulder_pan_joint": -1.1188672234189438,
            "wrist_1_joint": -1.5931878212786155,
            "wrist_2_joint": 1.5706036197970081,
            "wrist_3_joint": 1.118896926603594
        }
    },
    "waypoints": [
        {
            "positions": [
                -1.1188672234189438,
                -1.8972525353963687,
                1.919643534880228,
                -1.5931878212786155,
                1.5706036197970081,
                1.118896926603594
            ]
        },
        {
            "positions": [
                -1.0574032068876964,
                -1.839908387587007,
                1.8858052492832131,
                -1.5814672480809744,
                1.5129148918603603,
                0.9452374783902603
            ]
        },
        {
            "positions": [
                -0.9959391903564491,
                -1.782564239777645,
                1.8519669636861982,
                -1.569746674883333,
                1.4552261639237123,
                0.7715780301769266
            ]
        },
        {
            "positions": [
                -0.9344751738252017,
                -1.7252200919682834,
                1.8181286780891832,
                -1.558026101685692,
                1.3975374359870645,
                0.597918581963593
            ]
        },
        {
            "positions": [
                -0.8730111572939543,
                -1.6678759441589217,
                1.7842903924921683,
                -1.546305528488051,
                1.3398487080504167,
                0.42425913375025925
            ]
        },
        {
            "positions": [
                -0.8115471407627071,
                -1.61053179634956,
                1.7504521068951533,
                -1.5345849552904096,
                1.2821599801137689,
                0.2505996855369257
            ]
        },
        {
            "positions": [
                -0.7500831242314596,
                -1.5531876485401983,
                1.7166138212981383,
                -1.5228643820927685,
                1.2244712521771208,
                0.07694023732359212
            ]
        },
        {
            "positions": [
                -0.6886191077002122,
                -1.4958435007308366,
                1.6827755357011234,
                -1.5111438088951272,
                1.166782524240473,
                -0.09671921088974167
            ]
        },
        {
            "positions": [
                -0.6271550911689648,
                -1.4384993529214747,
                1.6489372501041082,
                -1.4994232356974861,
                1.1090937963038252,
                -0.27037865910307546
            ]
        },
        {
            "positions": [
                -0.5656910746377174,
                -1.381155205112113,
                1.6150989645070934,
                -1.487702662499845,
                1.0514050683671772,
                -0.44403810731640925
            ]
        },
        {
            "positions": [
                -0.5042270581064702,
                -1.3238110573027513,
                1.5812606789100783,
                -1.4759820893022038,
                0.9937163404305295,
                -0.6176975555297426
            ]
        },
        {
            "positions": [
                -0.4427630415752227,
                -1.2664669094933894,
                1.5474223933130635,
                -1.4642615161045627,
                0.9360276124938816,
                -0.7913570037430764
            ]
        },
        {
            "positions": [
                -0.3812990250439754,
                -1.2091227616840277,
                1.5135841077160483,
                -1.4525409429069216,
                0.8783388845572337,
                -0.9650164519564097
            ]
        },
        {
            "positions": [
                -0.31983500851272795,
                -1.151778613874666,
                1.4797458221190334,
                -1.4408203697092803,
                0.8206501566205858,
                -1.138675900169744
            ]
        },
        {
            "positions": [
                -0.2583709919814806,
                -1.0944344660653043,
                1.4459075365220184,
                -1.4290997965116392,
                0.7629614286839379,
                -1.3123353483830773
            ]
        },
        {
            "positions": [
                -0.19690697545023328,
                -1.0370903182559426,
                1.4120692509250037,
                -1.4173792233139981,
                0.7052727007472901,
                -1.4859947965964106
            ]
        },
        {
            "positions": [
                -0.13544295891898583,
                -0.9797461704465806,
                1.3782309653279885,
                -1.4056586501163568,
                0.6475839728106422,
                -1.6596542448097449
            ]
        },
        {
            "positions": [
                -0.07397894238773861,
                -0.922402022637219,
                1.3443926797309738,
                -1.3939380769187157,
                0.5898952448739944,
                -1.8333136930230782
            ]
        },
        {
            "positions": [
                -0.012514925856490944,
                -0.8650578748278572,
                1.3105543941339586,
                -1.3822175037210744,
                0.5322065169373464,
                -2.0069731412364122
            ]
        },
        {
            "positions": [
                0.04894909067475628,
                -0.8077137270184955,
                1.2767161085369436,
                -1.3704969305234334,
                0.47451778900069863,
                -2.180632589449746
            ]
        },
        {
            "positions": [
                0.1104131072060035,
                -0.7503695792091338,
                1.2428778229399287,
                -1.3587763573257923,
                0.4168290610640508,
                -2.354292037663079
            ]
        },
        {
            "positions": [
                0.17187712373725117,
                -0.6930254313997719,
                1.2090395373429137,
                -1.347055784128151,
                0.3591403331274028,
                -2.5279514858764136
            ]
        },
        {
            "positions": [
                0.2333411402684984,
                -0.6356812835904102,
                1.1752012517458987,
                -1.3353352109305099,
                0.30145160519075487,
                -2.7016109340897465
            ]
        },
        {
            "positions": [
                0.2174434504102688,
                -0.7087746190524805,
                1.2913496040062287,
                -1.2660759721251718,
                0.2770912851726273,
                -2.7631555313541347
            ]
        },
        {
            "positions": [
                0.2015457605520392,
                -0.7818679545145508,
                1.4074979562665586,
                -1.1968167333198336,
                0.25273096515449983,
                -2.8247001286185234
            ]
        },
        {
            "positions": [
                0.1856480706938096,
                -0.854961289976621,
                1.5236463085268888,
                -1.1275574945144955,
                0.22837064513637229,
                -2.8862447258829116
            ]
        },
        {
            "positions": [
                0.16975038083558,
                -0.9280546254386914,
                1.6397946607872187,
                -1.0582982557091574,
                0.20401032511824477,
                -2.9477893231473002
            ]
        },
        {
            "positions": [
                0.15385269097735038,
                -1.0011479609007616,
                1.7559430130475486,
                -0.9890390169038192,
                0.17965000510011725,
                -3.0093339204116885
            ]
        },
        {
            "positions": [
                0.1379550011191208,
                -1.0742412963628318,
                1.8720913653078788,
                -0.9197797780984811,
                0.15528968508198973,
                -3.0708785176760767
            ]
        },
        {
            "positions": [
                0.1220573112608912,
                -1.1473346318249023,
                1.9882397175682087,
                -0.850520539293143,
                0.13092936506386219,
                -3.1324231149404653
            ]
        }
    ]
}