{
    "goal": {
        "global_pose": {
            "orientation": {
                "w": 0.5084816217422485,
                "x": -0.49083608388900757,
                "y": 0.5182115435600281,
                "z": -0.4816462993621826
            },
            "position": {
                "x": 0.5540239810943604,
                "y": 0.030875300988554955,
                "z": 0.16403168439865112
            }
        },
        "name": "move_to_storage_A"
    },
    "id": "SPARStwo_move_to_storage_A_68",
    "joint_names": [
        "shoulder_pan_joint",
        "shoulder_lift_joint",
        "elbow_joint",
        "wrist_1_joint",
        "wrist_2_joint",
        "wrist_3_joint"
    ],
    "metrics": {
        "cart_traj_len": 0.35307733159113575,
        "distance_elbow_joint": 0.4492911426230428,
        "distance_shoulder_lift_joint": 0.23489106288595574,
        "distance_shoulder_pan_joint": 0.4638385307427019,
        "distance_wrist_1_joint": 0.23654440016987544,
        "distance_wrist_2_joint": 1.090005086284449,
        "distance_wrist_3_joint": 0.08715302387379342,
        "smoothness": 2.2204460668324854e-16,
        "time": 5.008038911,
        "traj_len": 1.6005384239623297,
        "weighted_distance": 2.0155839800865976
    },
    "planner": "SPARStwo",
    "start": {
        "state": {
            "elbow_joint": 1.9715477243005601,
            "shoulder_lift_joint": -1.1394853015351272,
            "shoulder_pan_joint": 0.12281154014795169,
            "wrist_1_joint": -0.7804696478968182,
            "wrist_2_joint": 0.12958648046900423,
            "wrist_3_joint": -3.192491284697111
        }
    },
    "waypoints": [
        {
            "positions": [
                0.12281154014795169,
                -1.1394853015351272,
                1.9715477243005601,
                -0.7804696478968182,
                0.12958648046900423,
                -3.192491284697111
            ]
        },
        {
            "positions": [
                0.05654889289899427,
                -1.1730411676616923,
                2.0357321732467093,
                -0.8142617050639432,
                0.2853014927953541,
                -3.1800408527151407
            ]
        },
        {
            "positions": [
                -0.009713754349963147,
                -1.2065970337882574,
                2.099916622192858,
                -0.8480537622310683,
                0.44101650512170393,
                -3.16759042073317
            ]
        },
        {
            "positions": [
                -0.07597640159892056,
                -1.2401528999148226,
                2.164101071139007,
                -0.8818458193981933,
                0.5967315174480539,
                -3.1551399887511997
            ]
        },
        {
            "positions": [
                -0.14223904884787797,
                -1.2737087660413875,
                2.228285520085156,
                -0.9156378765653184,
                0.7524465297744036,
                -3.1426895567692292
            ]
        },
        {
            "positions": [
                -0.2085016960968354,
                -1.3072646321679526,
                2.292469969031305,
                -0.9494299337324434,
                0.9081615421007535,
                -3.1302391247872587
            ]
        },
        {
            "positions": [
                -0.2747643433457928,
                -1.3408204982945178,
                2.356654417977454,
                -0.9832219908995685,
                1.0638765544271034,
                -3.1177886928052883
            ]
        },
        {
            "positions": [
                -0.3410269905947502,
                -1.374376364421083,
                2.420838866923603,
                -1.0170140480666936,
                1.2195915667534531,
                -3.1053382608233178
            ]
        }
    ]
}