{
    "goal": {
        "global_pose": {
            "orientation": {
                "w": 0.7047431468963623,
                "x": -0.7094548344612122,
                "y": 0.0024358443915843964,
                "z": -0.0022348060738295317
            },
            "position": {
                "x": 0.6094750761985779,
                "y": 0.3671506643295288,
                "z": 0.19426114857196808
            }
        },
        "name": "move_to_magneteinheit_A"
    },
    "id": "SPARS_move_to_magneteinheit_A_138",
    "joint_names": [
        "shoulder_pan_joint",
        "shoulder_lift_joint",
        "elbow_joint",
        "wrist_1_joint",
        "wrist_2_joint",
        "wrist_3_joint"
    ],
    "metrics": {
        "cart_traj_len": 3.0607005650160954,
        "distance_elbow_joint": 3.94528725029038,
        "distance_shoulder_lift_joint": 1.6670880120020064,
        "distance_shoulder_pan_joint": 2.919412462483807,
        "distance_wrist_1_joint": 3.589476546903182,
        "distance_wrist_2_joint": 2.9806346935117802,
        "distance_wrist_3_joint": 0.9099590497924608,
        "smoothness": 0.14396913079004364,
        "time": 5.031922922,
        "traj_len": 4.001481977340848,
        "weighted_distance": 4.939826652321264
    },
    "planner": "SPARS",
    "start": {
        "state": {
            "elbow_joint": -1.919618573717145,
            "shoulder_lift_joint": -1.2443395971678275,
            "shoulder_pan_joint": 2.6996025300909787,
            "wrist_1_joint": -1.548550951253194,
            "wrist_2_joint": -1.5709469090946802,
            "wrist_3_joint": 0.4420197732051276
        }
    },
    "waypoints": [
        {
            "positions": [
                2.6996025300909787,
                -1.2443395971678275,
                -1.919618573717145,
                -1.548550951253194,
                -1.5709469090946802,
                0.4420197732051276
            ]
        },
        {
            "positions": [
                2.613841689452104,
                -1.265268767162824,
                -1.7958154789294738,
                -1.4846156309225145,
                -1.4945878679238083,
                0.41960911743279466
            ]
        },
        {
            "positions": [
                2.52808084881323,
                -1.2861979371578205,
                -1.6720123841418026,
                -1.4206803105918349,
                -1.4182288267529364,
                0.39719846166046174
            ]
        },
        {
            "positions": [
                2.4423200081743555,
                -1.307127107152817,
                -1.5482092893541315,
                -1.3567449902611552,
                -1.3418697855820645,
                0.3747878058881288
            ]
        },
        {
            "positions": [
                2.3565591675354813,
                -1.3280562771478137,
                -1.4244061945664603,
                -1.2928096699304756,
                -1.2655107444111926,
                0.3523771501157959
            ]
        },
        {
            "positions": [
                2.2707983268966068,
                -1.3489854471428102,
                -1.3006030997787892,
                -1.228874349599796,
                -1.189151703240321,
                0.3299664943434629
            ]
        },
        {
            "positions": [
                2.185037486257732,
                -1.3699146171378067,
                -1.1768000049911183,
                -1.1649390292691166,
                -1.112792662069449,
                0.30755583857113
            ]
        },
        {
            "positions": [
                2.0992766456188576,
                -1.3908437871328032,
                -1.052996910203447,
                -1.101003708938437,
                -1.0364336208985772,
                0.2851451827987971
            ]
        },
        {
            "positions": [
                2.0135158049799835,
                -1.4117729571277997,
                -0.9291938154157758,
                -1.0370683886077574,
                -0.9600745797277053,
                0.26273452702646416
            ]
        },
        {
            "positions": [
                1.927754964341109,
                -1.4327021271227962,
                -0.8053907206281046,
                -0.9731330682770778,
                -0.8837155385568334,
                0.24032387125413127
            ]
        },
        {
            "positions": [
                1.8419941237022348,
                -1.4536312971177927,
                -0.6815876258404334,
                -0.9091977479463982,
                -0.8073564973859615,
                0.21791321548179832
            ]
        },
        {
            "positions": [
                1.7562332830633602,
                -1.4745604671127892,
                -0.5577845310527625,
                -0.8452624276157187,
                -0.7309974562150897,
                0.19550255970946542
            ]
        },
        {
            "positions": [
                1.670472442424486,
                -1.495489637107786,
                -0.43398143626509134,
                -0.7813271072850391,
                -0.6546384150442178,
                0.17309190393713247
            ]
        },
        {
            "positions": [
                1.5847116017856115,
                -1.5164188071027824,
                -0.3101783414774202,
                -0.7173917869543595,
                -0.5782793738733459,
                0.15068124816479955
            ]
        },
        {
            "positions": [
                1.498950761146737,
                -1.537347977097779,
                -0.18637524668974903,
                -0.65345646662368,
                -0.5019203327024739,
                0.12827059239246663
            ]
        },
        {
            "positions": [
                1.4131899205078626,
                -1.5582771470927754,
                -0.06257215190207766,
                -0.5895211462930003,
                -0.42556129153160205,
                0.10585993662013371
            ]
        },
        {
            "positions": [
                1.3274290798689883,
                -1.579206317087772,
                0.061230942885593276,
                -0.5255858259623207,
                -0.3492022503607304,
                0.08344928084780079
            ]
        },
        {
            "positions": [
                1.241668239230114,
                -1.6001354870827684,
                0.1850340376732642,
                -0.46165050563164134,
                -0.2728432091898585,
                0.06103862507546787
            ]
        },
        {
            "positions": [
                1.1559073985912394,
                -1.6210646570777651,
                0.3088371324609358,
                -0.3977151853009615,
                -0.1964841680189866,
                0.038627969303134946
            ]
        },
        {
            "positions": [
                1.0701465579523652,
                -1.6419938270727616,
                0.4326402272486065,
                -0.3337798649702821,
                -0.12012512684811472,
                0.016217313530802024
            ]
        },
        {
            "positions": [
                0.9843857173134907,
                -1.6629229970677581,
                0.5564433220362781,
                -0.2698445446396023,
                -0.04376608567724283,
                -0.0061933422415309525
            ]
        },
        {
            "positions": [
                0.8986248766746163,
                -1.6838521670627546,
                0.6802464168239488,
                -0.2059092243089229,
                0.03259295549362906,
                -0.02860399801386382
            ]
        },
        {
            "positions": [
                0.812864036035742,
                -1.7047813370577511,
                0.80404951161162,
                -0.14197390397824328,
                0.10895199666450073,
                -0.05101465378619674
            ]
        },
        {
            "positions": [
                0.7271031953968674,
                -1.7257105070527476,
                0.9278526063992911,
                -0.07803858364756366,
                0.18531103783537284,
                -0.07342530955852972
            ]
        },
        {
            "positions": [
                0.6413423547579931,
                -1.7466396770477441,
                1.0516557011869623,
                -0.014103263316884052,
                0.2616700790062445,
                -0.09583596533086264
            ]
        },
        {
            "positions": [
                0.5555815141191189,
                -1.7675688470427406,
                1.1754587959746334,
                0.04983205701379534,
                0.3380291201771164,
                -0.11824662110319556
            ]
        },
        {
            "positions": [
                0.46982067348024437,
                -1.7884980170377371,
                1.2992618907623046,
                0.11376737734447517,
                0.4143881613479883,
                -0.14065727687552848
            ]
        },
        {
            "positions": [
                0.3840598328413698,
                -1.8094271870327336,
                1.4230649855499757,
                0.17770269767515456,
                0.49074720251886017,
                -0.1630679326478614
            ]
        },
        {
            "positions": [
                0.29829899220249523,
                -1.8303563570277304,
                1.5468680803376469,
                0.24163801800583418,
                0.5671062436897323,
                -0.18547858842019432
            ]
        },
        {
            "positions": [
                0.21253815156362113,
                -1.8512855270227269,
                1.670671175125318,
                0.3055733383365139,
                0.6434652848606042,
                -0.20788924419252722
            ]
        },
        {
            "positions": [
                0.1342879985070489,
                -1.7772984172988,
                1.6762217671501807,
                0.45504905302022736,
                0.6023345728066315,
                -0.23957098015544775
            ]
        },
        {
            "positions": [
                0.05603784545047666,
                -1.7033113075748731,
                1.6817723591750433,
                0.6045247677039409,
                0.5612038607526589,
                -0.2712527161183683
            ]
        },
        {
            "positions": [
                -0.022212307606095605,
                -1.6293241978509463,
                1.687322951199906,
                0.7540004823876544,
                0.5200731486986863,
                -0.30293445208128883
            ]
        },
        {
            "positions": [
                -0.026650578011092198,
                -1.5344686702698787,
                1.7036150649101773,
                0.9010390428426304,
                0.4459607773240756,
                -0.29732184636993275
            ]
        },
        {
            "positions": [
                -0.031088848416088794,
                -1.4396131426888112,
                1.7199071786204485,
                1.0480776032976062,
                0.3718484059494649,
                -0.2917092406585767
            ]
        },
        {
            "positions": [
                -0.03552711882108539,
                -1.3447576151077436,
                1.7361992923307197,
                1.1951161637525822,
                0.2977360345748542,
                -0.2860966349472206
            ]
        },
        {
            "positions": [
                -0.039965389226081983,
                -1.2499020875266762,
                1.752491406040991,
                1.3421547242075582,
                0.22362366320024357,
                -0.2804840292358646
            ]
        },
        {
            "positions": [
                -0.04440365963107858,
                -1.1550465599456086,
                1.7687835197512625,
                1.4891932846625342,
                0.14951129182563289,
                -0.2748714235245085
            ]
        },
        {
            "positions": [
                -0.048841930036075176,
                -1.060191032364541,
                1.7850756334615336,
                1.6362318451175102,
                0.0753989204510222,
                -0.2692588178131524
            ]
        },
        {
            "positions": [
                -0.006099929446887031,
                -0.9929291354923107,
                1.8452238942394592,
                1.7374052827506299,
                0.02585988666429359,
                -0.23642652025367547
            ]
        },
        {
            "positions": [
                0.036642071142301114,
                -0.9256672386200804,
                1.9053721550173846,
                1.8385787203837494,
                -0.023679147122435018,
                -0.20359422269419852
            ]
        },
        {
            "positions": [
                0.07938407173148926,
                -0.8584053417478502,
                1.9655204157953101,
                1.9397521580168688,
                -0.07321818090916363,
                -0.17076192513472158
            ]
        },
        {
            "positions": [
                0.12212607232067739,
                -0.7911434448756199,
                2.0256686765732357,
                2.0409255956499885,
                -0.12275721469589224,
                -0.13792962757524463
            ]
        }
    ]
}{
    "goal": {
        "global_pose": {
            "orientation": {
                "w": 0.7047431468963623,
                "x": -0.7094548344612122,
                "y": 0.0024358443915843964,
                "z": -0.0022348060738295317
            },
            "position": {
                "x": 0.6094750761985779,
                "y": 0.3671506643295288,
                "z": 0.19426114857196808
            }
        },
        "name": "move_to_magneteinheit_A"
    },
    "id": "SPARS_move_to_magneteinheit_A_138",
    "joint_names": [
        "shoulder_pan_joint",
        "shoulder_lift_joint",
        "elbow_joint",
        "wrist_1_joint",
        "wrist_2_joint",
        "wrist_3_joint"
    ],
    "metrics": {
        "cart_traj_len": 1.1587013666765327,
        "distance_elbow_joint": 0.23494718310481555,
        "distance_shoulder_lift_joint": 0.7626713615508036,
        "distance_shoulder_pan_joint": 1.2412695730292345,
        "distance_wrist_1_joint": 1.1710285917147534,
        "distance_wrist_2_joint": 1.9181824580660667,
        "distance_wrist_3_joint": 4.3452378440700725,
        "smoothness": 0.1491814882034665,
        "time": 5.0502843230000005,
        "traj_len": 3.1101988700942815,
        "weighted_distance": 4.631740898350933
    },
    "planner": "SPARS",
    "start": {
        "state": {
            "elbow_joint": 1.919643534880228,
            "shoulder_lift_joint": -1.8972525353963687,
            "shoulder_pan_joint": -1.1188672234189438,
            "wrist_1_joint": -1.5931878212786155,
            "wrist_2_joint": 1.5706036197970081,
            "wrist_3_joint": 1.118896926603594
        }
    },
    "waypoints": [
        {
            "positions": [
                -1.1188672234189438,
                -1.8972525353963687,
                1.919643534880228,
                -1.5931878212786155,
                1.5706036197970081,
                1.118896926603594
            ]
        },
        {
            "positions": [
                -1.0914656982025837,
                -1.87783251933274,
                1.913204973832072,
                -1.5257226435632005,
                1.4583326721698509,
                0.9587318346696385
            ]
        },
        {
            "positions": [
                -1.0640641729862235,
                -1.8584125032691114,
                1.9067664127839161,
                -1.4582574658477854,
                1.3460617245426936,
                0.798566742735683
            ]
        },
        {
            "positions": [
                -1.0366626477698633,
                -1.8389924872054828,
                1.90032785173576,
                -1.3907922881323704,
                1.2337907769155363,
                0.6384016508017274
            ]
        },
        {
            "positions": [
                -1.0092611225535033,
                -1.8195724711418542,
                1.893889290687604,
                -1.3233271104169555,
                1.121519829288379,
                0.47823655886777194
            ]
        },
        {
            "positions": [
                -0.9818595973371431,
                -1.8001524550782255,
                1.8874507296394478,
                -1.2558619327015403,
                1.0092488816612217,
                0.3180714669338165
            ]
        },
        {
            "positions": [
                -0.9544580721207829,
                -1.7807324390145969,
                1.881012168591292,
                -1.1883967549861252,
                0.8969779340340645,
                0.15790637499986093
            ]
        },
        {
            "positions": [
                -0.9270565469044227,
                -1.7613124229509682,
                1.8745736075431358,
                -1.1209315772707102,
                0.7847069864069072,
                -0.002258716934094407
            ]
        },
        {
            "positions": [
                -0.8996550216880626,
                -1.7418924068873396,
                1.8681350464949797,
                -1.0534663995552953,
                0.6724360387797499,
                -0.16242380886805008
            ]
        },
        {
            "positions": [
                -0.8722534964717024,
                -1.722472390823711,
                1.8616964854468236,
                -0.9860012218398803,
                0.5601650911525926,
                -0.32258890080200553
            ]
        },
        {
            "positions": [
                -0.8448519712553423,
                -1.7030523747600823,
                1.8552579243986678,
                -0.9185360441244652,
                0.44789414352543533,
                -0.482753992735961
            ]
        },
        {
            "positions": [
                -0.8174504460389821,
                -1.6836323586964537,
                1.8488193633505117,
                -0.8510708664090503,
                0.33562319589827805,
                -0.6429190846699164
            ]
        },
        {
            "positions": [
                -0.7900489208226219,
                -1.664212342632825,
                1.8423808023023556,
                -0.7836056886936351,
                0.22335224827112077,
                -0.8030841766038721
            ]
        },
        {
            "positions": [
                -0.7626473956062618,
                -1.6447923265691964,
                1.8359422412541995,
                -0.7161405109782201,
                0.11108130064396349,
                -0.9632492685378276
            ]
        },
        {
            "positions": [
                -0.7352458703899016,
                -1.6253723105055677,
                1.8295036802060436,
                -0.6486753332628051,
                -0.0011896469831937928,
                -1.1234143604717828
            ]
        },
        {
            "positions": [
                -0.7078443451735414,
                -1.605952294441939,
                1.8230651191578875,
                -0.5812101555473901,
                -0.11346059461035098,
                -1.2835794524057385
            ]
        },
        {
            "positions": [
                -0.6248196756951583,
                -1.5588151823823018,
                1.836901995896135,
                -0.5971152481457428,
                -0.09004877024448021,
                -1.4778555989118125
            ]
        },
        {
            "positions": [
                -0.541795006216775,
                -1.5116780703226642,
                1.8507388726343825,
                -0.6130203407440956,
                -0.06663694587860945,
                -1.6721317454178863
            ]
        },
        {
            "positions": [
                -0.45877033673839185,
                -1.4645409582630269,
                1.86457574937263,
                -0.6289254333424483,
                -0.043225121512738704,
                -1.8664078919239604
            ]
        },
        {
            "positions": [
                -0.3757456672600086,
                -1.4174038462033896,
                1.8784126261108776,
                -0.6448305259408011,
                -0.019813297146867928,
                -2.0606840384300344
            ]
        },
        {
            "positions": [
                -0.2927209977816254,
                -1.370266734143752,
                1.892249502849125,
                -0.6607356185391539,
                0.00359852721900282,
                -2.2549601849361083
            ]
        },
        {
            "positions": [
                -0.20969632830324225,
                -1.3231296220841147,
                1.9060863795873724,
                -0.6766407111375066,
                0.027010351584873568,
                -2.449236331442182
            ]
        },
        {
            "positions": [
                -0.1266716588248591,
                -1.2759925100244773,
                1.9199232563256199,
                -0.6925458037358594,
                0.050422175950744316,
                -2.6435124779482564
            ]
        },
        {
            "positions": [
                -0.043646989346475706,
                -1.22885539796484,
                1.9337601330638674,
                -0.7084508963342121,
                0.07383400031661512,
                -2.8377886244543307
            ]
        },
        {
            "positions": [
                0.039377680131907455,
                -1.1817182859052024,
                1.947597009802115,
                -0.7243559889325649,
                0.09724582468248587,
                -3.032064770960404
            ]
        },
        {
            "positions": [
                0.12240234961029067,
                -1.1345811738455651,
                1.9614338865403624,
                -0.7402610815309176,
                0.12065764904835662,
                -3.2263409174664783
            ]
        }
    ]
}