{
    "goal": {
        "global_pose": {
            "orientation": {
                "w": 0.5084816217422485,
                "x": -0.49083608388900757,
                "y": 0.5182115435600281,
                "z": -0.4816462993621826
            },
            "position": {
                "x": 0.5540239810943604,
                "y": 0.030875300988554955,
                "z": 0.16403168439865112
            }
        },
        "name": "move_to_storage_A"
    },
    "id": "SPARS_move_to_storage_A_72",
    "joint_names": [
        "shoulder_pan_joint",
        "shoulder_lift_joint",
        "elbow_joint",
        "wrist_1_joint",
        "wrist_2_joint",
        "wrist_3_joint"
    ],
    "metrics": {
        "cart_traj_len": 0.3529117744089455,
        "distance_elbow_joint": 0.4513371759881881,
        "distance_shoulder_lift_joint": 0.23199281399288973,
        "distance_shoulder_pan_joint": 0.4628475310948357,
        "distance_wrist_1_joint": 0.25115729064137005,
        "distance_wrist_2_joint": 1.0916454265489404,
        "distance_wrist_3_joint": 0.1077274629677798,
        "smoothness": 9.992007236661072e-16,
        "time": 5.028352277,
        "traj_len": 1.6114303277628865,
        "weighted_distance": 2.0383732102732988
    },
    "planner": "SPARS",
    "start": {
        "state": {
            "elbow_joint": 1.9715477243005601,
            "shoulder_lift_joint": -1.1394853015351272,
            "shoulder_pan_joint": 0.12281154014795169,
            "wrist_1_joint": -0.7804696478968182,
            "wrist_2_joint": 0.12958648046900423,
            "wrist_3_joint": -3.192491284697111
        }
    },
    "waypoints": [
        {
            "positions": [
                0.12281154014795169,
                -1.1394853015351272,
                1.9715477243005601,
                -0.7804696478968182,
                0.12958648046900423,
                -3.192491284697111
            ]
        },
        {
            "positions": [
                0.05669046427726088,
                -1.17262713210554,
                2.0360244637274443,
                -0.8163492608455853,
                0.28553582711885284,
                -3.1771016471302853
            ]
        },
        {
            "positions": [
                -0.009430611593429936,
                -1.205768962675953,
                2.100501203154328,
                -0.8522288737943524,
                0.44148517376870144,
                -3.16171200956346
            ]
        },
        {
            "positions": [
                -0.07555168746412073,
                -1.2389107932463657,
                2.164977942581212,
                -0.8881084867431196,
                0.59743452041855,
                -3.146322371996634
            ]
        },
        {
            "positions": [
                -0.14167276333481155,
                -1.2720526238167784,
                2.2294546820080963,
                -0.9239880996918868,
                0.7533838670683987,
                -3.1309327344298086
            ]
        },
        {
            "positions": [
                -0.20779383920550237,
                -1.3051944543871912,
                2.2939314214349804,
                -0.9598677126406538,
                0.9093332137182474,
                -3.1155430968629827
            ]
        },
        {
            "positions": [
                -0.27391491507619314,
                -1.3383362849576041,
                2.358408160861864,
                -0.995747325589421,
                1.0652825603680958,
                -3.1001534592961573
            ]
        },
        {
            "positions": [
                -0.34003599094688397,
                -1.371478115528017,
                2.4228849002887483,
                -1.0316269385381882,
                1.2212319070179445,
                -3.0847638217293314
            ]
        }
    ]
}