{
    "goal": {
        "global_pose": {
            "orientation": {
                "w": 0.7047431468963623,
                "x": -0.7094548344612122,
                "y": 0.0024358443915843964,
                "z": -0.0022348060738295317
            },
            "position": {
                "x": 0.6094750761985779,
                "y": 0.3671506643295288,
                "z": 0.19426114857196808
            }
        },
        "name": "move_to_magneteinheit_A"
    },
    "id": "SPARStwo_move_to_magneteinheit_A_121",
    "joint_names": [
        "shoulder_pan_joint",
        "shoulder_lift_joint",
        "elbow_joint",
        "wrist_1_joint",
        "wrist_2_joint",
        "wrist_3_joint"
    ],
    "metrics": {
        "cart_traj_len": 2.259993389340033,
        "distance_elbow_joint": 2.2061072868121774,
        "distance_shoulder_lift_joint": 0.7675446351107083,
        "distance_shoulder_pan_joint": 1.9619473700468986,
        "distance_wrist_1_joint": 0.8908334798397779,
        "distance_wrist_2_joint": 1.4432967234815295,
        "distance_wrist_3_joint": 4.381066028498886,
        "smoothness": 0.24778487399931007,
        "time": 5.055638459,
        "traj_len": 3.4133261672143167,
        "weighted_distance": 4.769387569081491
    },
    "planner": "SPARStwo",
    "start": {
        "state": {
            "elbow_joint": 1.919643534880228,
            "shoulder_lift_joint": -1.8972525353963687,
            "shoulder_pan_joint": -1.1188672234189438,
            "wrist_1_joint": -1.5931878212786155,
            "wrist_2_joint": 1.5706036197970081,
            "wrist_3_joint": 1.118896926603594
        }
    },
    "waypoints": [
        {
            "positions": [
                -1.1188672234189438,
                -1.8972525353963687,
                1.919643534880228,
                -1.5931878212786155,
                1.5706036197970081,
                1.118896926603594
            ]
        },
        {
            "positions": [
                -1.1489156697356826,
                -1.852092433226987,
                1.8291204049313303,
                -1.575050925243767,
                1.498703296976254,
                1.0063314243912231
            ]
        },
        {
            "positions": [
                -1.1789641160524216,
                -1.806932331057605,
                1.7385972749824323,
                -1.5569140292089185,
                1.4268029741554997,
                0.8937659221788524
            ]
        },
        {
            "positions": [
                -1.2090125623691603,
                -1.7617722288882234,
                1.6480741450335346,
                -1.53877713317407,
                1.3549026513347455,
                0.7812004199664817
            ]
        },
        {
            "positions": [
                -1.2390610086858993,
                -1.7166121267188414,
                1.5575510150846368,
                -1.5206402371392216,
                1.2830023285139913,
                0.6686349177541109
            ]
        },
        {
            "positions": [
                -1.269109455002638,
                -1.6714520245494597,
                1.4670278851357388,
                -1.5025033411043731,
                1.2111020056932371,
                0.55606941554174
            ]
        },
        {
            "positions": [
                -1.299157901319377,
                -1.6262919223800778,
                1.376504755186841,
                -1.4843664450695249,
                1.139201682872483,
                0.44350391332936934
            ]
        },
        {
            "positions": [
                -1.3292063476361158,
                -1.581131820210696,
                1.2859816252379432,
                -1.4662295490346762,
                1.067301360051729,
                0.3309384111169985
            ]
        },
        {
            "positions": [
                -1.3592547939528545,
                -1.5359717180413144,
                1.1954584952890452,
                -1.448092652999828,
                0.9954010372309747,
                0.2183729089046278
            ]
        },
        {
            "positions": [
                -1.3893032402695935,
                -1.4908116158719324,
                1.1049353653401475,
                -1.4299557569649795,
                0.9235007144102205,
                0.10580740669225697
            ]
        },
        {
            "positions": [
                -1.4193516865863323,
                -1.4456515137025507,
                1.0144122353912497,
                -1.411818860930131,
                0.8516003915894662,
                -0.00675809552011386
            ]
        },
        {
            "positions": [
                -1.449400132903071,
                -1.400491411533169,
                0.9238891054423518,
                -1.3936819648952825,
                0.7797000687687121,
                -0.11932359773248447
            ]
        },
        {
            "positions": [
                -1.47944857921981,
                -1.355331309363787,
                0.8333659754934539,
                -1.375545068860434,
                0.7077997459479579,
                -0.23188909994485532
            ]
        },
        {
            "positions": [
                -1.3951661574173873,
                -1.3434563930965173,
                0.892304382200054,
                -1.3401139779435078,
                0.6772474907041431,
                -0.39137752110014135
            ]
        },
        {
            "positions": [
                -1.3108837356149645,
                -1.3315814768292475,
                0.9512427889066543,
                -1.3046828870265819,
                0.6466952354603284,
                -0.5508659422554274
            ]
        },
        {
            "positions": [
                -1.2266013138125418,
                -1.3197065605619775,
                1.0101811956132545,
                -1.2692517961096557,
                0.6161429802165136,
                -0.7103543634107135
            ]
        },
        {
            "positions": [
                -1.142318892010119,
                -1.3078316442947078,
                1.0691196023198546,
                -1.2338207051927295,
                0.5855907249726988,
                -0.8698427845659995
            ]
        },
        {
            "positions": [
                -1.0580364702076963,
                -1.295956728027438,
                1.1280580090264547,
                -1.1983896142758035,
                0.555038469728884,
                -1.0293312057212856
            ]
        },
        {
            "positions": [
                -0.9737540484052736,
                -1.2840818117601682,
                1.1869964157330548,
                -1.1629585233588773,
                0.5244862144850693,
                -1.1888196268765716
            ]
        },
        {
            "positions": [
                -0.8894716266028508,
                -1.2722068954928984,
                1.2459348224396551,
                -1.127527432441951,
                0.4939339592412545,
                -1.3483080480318577
            ]
        },
        {
            "positions": [
                -0.805189204800428,
                -1.2603319792256285,
                1.3048732291462553,
                -1.0920963415250249,
                0.4633817039974397,
                -1.5077964691871437
            ]
        },
        {
            "positions": [
                -0.7209067829980053,
                -1.2484570629583587,
                1.3638116358528554,
                -1.056665250608099,
                0.43282944875362495,
                -1.6672848903424298
            ]
        },
        {
            "positions": [
                -0.6366243611955825,
                -1.236582146691089,
                1.4227500425594557,
                -1.0212341596911727,
                0.40227719350981017,
                -1.8267733114977158
            ]
        },
        {
            "positions": [
                -0.5523419393931598,
                -1.2247072304238191,
                1.4816884492660558,
                -0.9858030687742466,
                0.3717249382659954,
                -1.986261732653002
            ]
        },
        {
            "positions": [
                -0.46805951759073716,
                -1.2128323141565494,
                1.540626855972656,
                -0.9503719778573205,
                0.3411726830221806,
                -2.145750153808288
            ]
        },
        {
            "positions": [
                -0.3837770957883142,
                -1.2009573978892794,
                1.5995652626792563,
                -0.9149408869403943,
                0.31062042777836585,
                -2.305238574963574
            ]
        },
        {
            "positions": [
                -0.2994946739858917,
                -1.1890824816220096,
                1.6585036693858561,
                -0.8795097960234682,
                0.2800681725345511,
                -2.46472699611886
            ]
        },
        {
            "positions": [
                -0.21521225218346873,
                -1.1772075653547398,
                1.7174420760924565,
                -0.844078705106542,
                0.2495159172907363,
                -2.6242154172741463
            ]
        },
        {
            "positions": [
                -0.130929830381046,
                -1.16533264908747,
                1.7763804827990566,
                -0.808647614189616,
                0.21896366204692153,
                -2.783703838429432
            ]
        },
        {
            "positions": [
                -0.04664740857862326,
                -1.1534577328202,
                1.835318889505657,
                -0.7732165232726899,
                0.18841140680310675,
                -2.9431922595847184
            ]
        },
        {
            "positions": [
                0.037635013223799474,
                -1.1415828165529303,
                1.8942572962122568,
                -0.7377854323557638,
                0.15785915155929198,
                -3.1026806807400042
            ]
        },
        {
            "positions": [
                0.12191743502622211,
                -1.1297079002856605,
                1.9531957029188571,
                -0.7023543414388376,
                0.12730689631547723,
                -3.2621691018952905
            ]
        }
    ]
}