{
    "goal": {
        "global_pose": {
            "orientation": {
                "w": 0.7047431468963623,
                "x": -0.7094548344612122,
                "y": 0.0024358443915843964,
                "z": -0.0022348060738295317
            },
            "position": {
                "x": 0.6094750761985779,
                "y": 0.3671506643295288,
                "z": 0.19426114857196808
            }
        },
        "name": "move_to_magneteinheit_A"
    },
    "id": "SPARS_move_to_magneteinheit_A_93",
    "joint_names": [
        "shoulder_pan_joint",
        "shoulder_lift_joint",
        "elbow_joint",
        "wrist_1_joint",
        "wrist_2_joint",
        "wrist_3_joint"
    ],
    "metrics": {
        "cart_traj_len": 3.9129243991071094,
        "distance_elbow_joint": 3.907954648979974,
        "distance_shoulder_lift_joint": 0.4694869570723934,
        "distance_shoulder_pan_joint": 4.717794109737397,
        "distance_wrist_1_joint": 3.461167042470405,
        "distance_wrist_2_joint": 2.147739348417415,
        "distance_wrist_3_joint": 1.2151181295946396,
        "smoothness": 0.38181903116117344,
        "time": 5.059394582,
        "traj_len": 3.9898947650623846,
        "weighted_distance": 4.894732156752741
    },
    "planner": "SPARS",
    "start": {
        "state": {
            "elbow_joint": -1.919618573717145,
            "shoulder_lift_joint": -1.2443395971678275,
            "shoulder_pan_joint": 2.6996025300909787,
            "wrist_1_joint": -1.548550951253194,
            "wrist_2_joint": -1.5709469090946802,
            "wrist_3_joint": 0.4420197732051276
        }
    },
    "waypoints": [
        {
            "positions": [
                2.6996025300909787,
                -1.2443395971678275,
                -1.919618573717145,
                -1.548550951253194,
                -1.5709469090946802,
                0.4420197732051276
            ]
        },
        {
            "positions": [
                2.585612018478901,
                -1.241049816788024,
                -1.8333896157584677,
                -1.4452598067648532,
                -1.5147400953631547,
                0.41624306863440014
            ]
        },
        {
            "positions": [
                2.4716215068668226,
                -1.2377600364082204,
                -1.7471606577997907,
                -1.3419686622765121,
                -1.4585332816316292,
                0.3904663640636727
            ]
        },
        {
            "positions": [
                2.3576309952547447,
                -1.2344702560284169,
                -1.6609316998411134,
                -1.238677517788171,
                -1.4023264679001035,
                0.36468965949294524
            ]
        },
        {
            "positions": [
                2.2436404836426664,
                -1.231180475648613,
                -1.5747027418824364,
                -1.1353863732998302,
                -1.346119654168578,
                0.3389129549222178
            ]
        },
        {
            "positions": [
                2.1296499720305886,
                -1.2278906952688096,
                -1.4884737839237592,
                -1.0320952288114893,
                -1.2899128404370526,
                0.3131362503514903
            ]
        },
        {
            "positions": [
                2.0156594604185107,
                -1.224600914889006,
                -1.4022448259650822,
                -0.9288040843231482,
                -1.233706026705527,
                0.28735954578076284
            ]
        },
        {
            "positions": [
                1.9016689488064324,
                -1.2213111345092025,
                -1.316015868006405,
                -0.8255129398348072,
                -1.1774992129740016,
                0.2615828412100354
            ]
        },
        {
            "positions": [
                1.7876784371943544,
                -1.218021354129399,
                -1.2297869100477277,
                -0.7222217953464662,
                -1.1212923992424761,
                0.23580613663930797
            ]
        },
        {
            "positions": [
                1.6736879255822763,
                -1.2147315737495954,
                -1.1435579520890506,
                -0.6189306508581253,
                -1.0650855855109507,
                0.21002943206858052
            ]
        },
        {
            "positions": [
                1.5596974139701982,
                -1.2114417933697919,
                -1.0573289941303736,
                -0.5156395063697843,
                -1.008878771779425,
                0.18425272749785304
            ]
        },
        {
            "positions": [
                1.4457069023581202,
                -1.2081520129899883,
                -0.9711000361716964,
                -0.4123483618814432,
                -0.9526719580478996,
                0.1584760229271256
            ]
        },
        {
            "positions": [
                1.3317163907460423,
                -1.2048622326101848,
                -0.8848710782130191,
                -0.3090572173931023,
                -0.896465144316374,
                0.13269931835639814
            ]
        },
        {
            "positions": [
                1.2177258791339642,
                -1.201572452230381,
                -0.7986421202543421,
                -0.20576607290476145,
                -0.8402583305848486,
                0.1069226137856707
            ]
        },
        {
            "positions": [
                1.1037353675218862,
                -1.1982826718505775,
                -0.7124131622956649,
                -0.10247492841642036,
                -0.7840515168533231,
                0.08114590921494325
            ]
        },
        {
            "positions": [
                0.9897448559098081,
                -1.194992891470774,
                -0.6261842043369878,
                0.0008162160719207279,
                -0.7278447031217975,
                0.0553692046442158
            ]
        },
        {
            "positions": [
                0.87575434429773,
                -1.1917031110909704,
                -0.5399552463783106,
                0.1041073605602616,
                -0.671637889390272,
                0.029592500073488348
            ]
        },
        {
            "positions": [
                0.761763832685652,
                -1.1884133307111668,
                -0.45372628841963336,
                0.20739850504860247,
                -0.6154310756587466,
                0.003815795502760899
            ]
        },
        {
            "positions": [
                0.6477733210735739,
                -1.1851235503313633,
                -0.36749733046095634,
                0.31068964953694356,
                -0.559224261927221,
                -0.02196090906796655
            ]
        },
        {
            "positions": [
                0.533782809461496,
                -1.1818337699515598,
                -0.2812683725022791,
                0.41398079402528465,
                -0.5030174481956955,
                -0.047737613638694
            ]
        },
        {
            "positions": [
                0.41979229784941774,
                -1.178543989571756,
                -0.19503941454360207,
                0.5172719385136255,
                -0.44681063446417,
                -0.0735143182094215
            ]
        },
        {
            "positions": [
                0.3058017862373399,
                -1.1752542091919524,
                -0.10881045658492483,
                0.6205630830019664,
                -0.39060382073264455,
                -0.09929102278014895
            ]
        },
        {
            "positions": [
                0.1918112746252616,
                -1.171964428812149,
                -0.02258149862624781,
                0.7238542274903077,
                -0.3343970070011191,
                -0.1250677273508764
            ]
        },
        {
            "positions": [
                0.07782076301318375,
                -1.1686746484323454,
                0.06364745933242943,
                0.8271453719786486,
                -0.2781901932695934,
                -0.15084443192160385
            ]
        },
        {
            "positions": [
                -0.0361697485988941,
                -1.1653848680525418,
                0.14987641729110668,
                0.9304365164669894,
                -0.2219833795380679,
                -0.1766211364923313
            ]
        },
        {
            "positions": [
                -0.1501602602109724,
                -1.1620950876727383,
                0.2361053752497837,
                1.0337276609553303,
                -0.16577656580654243,
                -0.20239784106305875
            ]
        },
        {
            "positions": [
                -0.26415077182305025,
                -1.1588053072929347,
                0.3223343332084607,
                1.1370188054436712,
                -0.10956975207501696,
                -0.2281745456337862
            ]
        },
        {
            "positions": [
                -0.37814128343512854,
                -1.1555155269131312,
                0.4085632911671382,
                1.2403099499320125,
                -0.053362938343491484,
                -0.25395125020451365
            ]
        },
        {
            "positions": [
                -0.4921317950472064,
                -1.1522257465333277,
                0.4947922491258152,
                1.3436010944203534,
                0.0028438753880339895,
                -0.2797279547752411
            ]
        },
        {
            "positions": [
                -0.6061223066592847,
                -1.148935966153524,
                0.5810212070844922,
                1.4468922389086942,
                0.059050689119559685,
                -0.30550465934596854
            ]
        },
        {
            "positions": [
                -0.7201128182713625,
                -1.1456461857737203,
                0.6672501650431693,
                1.5501833833970355,
                0.11525750285108516,
                -0.331281363916696
            ]
        },
        {
            "positions": [
                -0.8341033298834408,
                -1.1423564053939168,
                0.7534791230018467,
                1.6534745278853764,
                0.17146431658261063,
                -0.35705806848742344
            ]
        },
        {
            "positions": [
                -0.9480938414955188,
                -1.1390666250141133,
                0.8397080809605239,
                1.7567656723737173,
                0.2276711303141361,
                -0.3828347730581509
            ]
        },
        {
            "positions": [
                -0.8291940928120857,
                -1.0985984044675934,
                0.96733341366078,
                1.77408238557855,
                0.1888798737576251,
                -0.33947215268799963
            ]
        },
        {
            "positions": [
                -0.7102943441286524,
                -1.0581301839210735,
                1.0949587463610362,
                1.7913990987833828,
                0.1500886172011141,
                -0.29610953231784837
            ]
        },
        {
            "positions": [
                -0.5913945954452193,
                -1.0176619633745536,
                1.2225840790612923,
                1.8087158119882154,
                0.11129736064460308,
                -0.2527469119476971
            ]
        },
        {
            "positions": [
                -0.47249484676178616,
                -0.9771937428280336,
                1.3502094117615484,
                1.8260325251930483,
                0.07250610408809208,
                -0.20938429157754582
            ]
        },
        {
            "positions": [
                -0.353595098078353,
                -0.9367255222815137,
                1.4778347444618045,
                1.843349238397881,
                0.03371484753158102,
                -0.16602167120739456
            ]
        },
        {
            "positions": [
                -0.23469534939491987,
                -0.8962573017349938,
                1.6054600771620606,
                1.8606659516027138,
                -0.005076409024929951,
                -0.12265905083724332
            ]
        },
        {
            "positions": [
                -0.11579560071148665,
                -0.8557890811884739,
                1.733085409862317,
                1.8779826648075464,
                -0.04386766558144101,
                -0.079296430467092
            ]
        },
        {
            "positions": [
                0.0031041479719464693,
                -0.815320860641954,
                1.8607107425625729,
                1.8952993780123792,
                -0.08265892213795195,
                -0.035933810096940744
            ]
        },
        {
            "positions": [
                0.12200389665537968,
                -0.7748526400954341,
                1.988336075262829,
                1.9126160912172119,
                -0.121450178694463,
                0.007428810273210499
            ]
        }
    ]
}{
    "goal": {
        "global_pose": {
            "orientation": {
                "w": 0.7047431468963623,
                "x": -0.7094548344612122,
                "y": 0.0024358443915843964,
                "z": -0.0022348060738295317
            },
            "position": {
                "x": 0.6094750761985779,
                "y": 0.3671506643295288,
                "z": 0.19426114857196808
            }
        },
        "name": "move_to_magneteinheit_A"
    },
    "id": "SPARS_move_to_magneteinheit_A_93",
    "joint_names": [
        "shoulder_pan_joint",
        "shoulder_lift_joint",
        "elbow_joint",
        "wrist_1_joint",
        "wrist_2_joint",
        "wrist_3_joint"
    ],
    "metrics": {
        "cart_traj_len": 1.5761923932482278,
        "distance_elbow_joint": 0.07173032929167511,
        "distance_shoulder_lift_joint": 1.7173692133807854,
        "distance_shoulder_pan_joint": 2.9477409297269563,
        "distance_wrist_1_joint": 0.9229591523163025,
        "distance_wrist_2_joint": 1.4331751658093523,
        "distance_wrist_3_joint": 4.246300070599701,
        "smoothness": 0.3432627748845747,
        "time": 5.059465779,
        "traj_len": 3.3673839788662017,
        "weighted_distance": 4.710414983889405
    },
    "planner": "SPARS",
    "start": {
        "state": {
            "elbow_joint": 1.919643534880228,
            "shoulder_lift_joint": -1.8972525353963687,
            "shoulder_pan_joint": -1.1188672234189438,
            "wrist_1_joint": -1.5931878212786155,
            "wrist_2_joint": 1.5706036197970081,
            "wrist_3_joint": 1.118896926603594
        }
    },
    "waypoints": [
        {
            "positions": [
                -1.1188672234189438,
                -1.8972525353963687,
                1.919643534880228,
                -1.5931878212786155,
                1.5706036197970081,
                1.118896926603594
            ]
        },
        {
            "positions": [
                -1.1899867553621022,
                -1.9376433148151695,
                1.923971395207603,
                -1.6010796319512497,
                1.4700145610900495,
                0.9479703221987386
            ]
        },
        {
            "positions": [
                -1.2611062873052603,
                -1.97803409423397,
                1.9282992555349776,
                -1.6089714426238841,
                1.369425502383091,
                0.777043717793883
            ]
        },
        {
            "positions": [
                -1.3322258192484187,
                -2.018424873652771,
                1.9326271158623525,
                -1.6168632532965184,
                1.2688364436761324,
                0.6061171133890275
            ]
        },
        {
            "positions": [
                -1.403345351191577,
                -2.0588156530715715,
                1.9369549761897273,
                -1.6247550639691526,
                1.168247384969174,
                0.4351905089841721
            ]
        },
        {
            "positions": [
                -1.4744648831347353,
                -2.099206432490372,
                1.9412828365171022,
                -1.632646874641787,
                1.0676583262622152,
                0.2642639045793165
            ]
        },
        {
            "positions": [
                -1.5455844150778937,
                -2.139597211909173,
                1.945610696844477,
                -1.6405386853144213,
                0.9670692675552567,
                0.09333730017446107
            ]
        },
        {
            "positions": [
                -1.616703947021052,
                -2.1799879913279736,
                1.9499385571718517,
                -1.6484304959870555,
                0.866480208848298,
                -0.07758930423039456
            ]
        },
        {
            "positions": [
                -1.6878234789642101,
                -2.220378770746774,
                1.9542664174992266,
                -1.65632230665969,
                0.7658911501413396,
                -0.24851590863524975
            ]
        },
        {
            "positions": [
                -1.7589430109073685,
                -2.260769550165575,
                1.9585942778266014,
                -1.6642141173323242,
                0.665302091434381,
                -0.4194425130401054
            ]
        },
        {
            "positions": [
                -1.8300625428505266,
                -2.3011603295843757,
                1.962922138153976,
                -1.6721059280049584,
                0.5647130327274223,
                -0.590369117444961
            ]
        },
        {
            "positions": [
                -1.901182074793685,
                -2.3415511090031766,
                1.967249998481351,
                -1.6799977386775928,
                0.4641239740204639,
                -0.7612957218498162
            ]
        },
        {
            "positions": [
                -1.9723016067368433,
                -2.381941888421977,
                1.9715778588087258,
                -1.687889549350227,
                0.3635349153135052,
                -0.9322223262546718
            ]
        },
        {
            "positions": [
                -1.849107104006899,
                -2.3094313084010842,
                1.9727423297124422,
                -1.639168524394657,
                0.3502345352355141,
                -1.0613506096512269
            ]
        },
        {
            "positions": [
                -1.7259126012769543,
                -2.2369207283801917,
                1.9739068006161584,
                -1.590447499439087,
                0.336934155157523,
                -1.1904788930477819
            ]
        },
        {
            "positions": [
                -1.60271809854701,
                -2.164410148359299,
                1.9750712715198748,
                -1.5417264744835169,
                0.32363377507953195,
                -1.3196071764443371
            ]
        },
        {
            "positions": [
                -1.4795235958170654,
                -2.0918995683384063,
                1.976235742423591,
                -1.4930054495279468,
                0.31033339500154083,
                -1.4487354598408921
            ]
        },
        {
            "positions": [
                -1.356329093087121,
                -2.0193889883175133,
                1.9774002133273074,
                -1.4442844245723767,
                0.2970330149235498,
                -1.5778637432374472
            ]
        },
        {
            "positions": [
                -1.2331345903571767,
                -1.9468784082966206,
                1.9785646842310238,
                -1.3955633996168066,
                0.28373263484555866,
                -1.7069920266340022
            ]
        },
        {
            "positions": [
                -1.109940087627232,
                -1.874367828275728,
                1.97972915513474,
                -1.3468423746612368,
                0.2704322547675676,
                -1.8361203100305572
            ]
        },
        {
            "positions": [
                -0.9867455848972877,
                -1.801857248254835,
                1.9808936260384564,
                -1.2981213497056667,
                0.25713187468957655,
                -1.9652485934271122
            ]
        },
        {
            "positions": [
                -0.8635510821673431,
                -1.7293466682339425,
                1.9820580969421726,
                -1.2494003247500967,
                0.24383149461158543,
                -2.0943768768236675
            ]
        },
        {
            "positions": [
                -0.7403565794373987,
                -1.6568360882130495,
                1.983222567845889,
                -1.2006792997945266,
                0.23053111453359437,
                -2.2235051602202223
            ]
        },
        {
            "positions": [
                -0.6171620767074542,
                -1.5843255081921568,
                1.9843870387496052,
                -1.1519582748389565,
                0.21723073445560329,
                -2.3526334436167775
            ]
        },
        {
            "positions": [
                -0.4939675739775098,
                -1.511814928171264,
                1.9855515096533216,
                -1.1032372498833865,
                0.2039303543776122,
                -2.4817617270133328
            ]
        },
        {
            "positions": [
                -0.3707730712475654,
                -1.4393043481503713,
                1.986715980557038,
                -1.0545162249278164,
                0.19062997429962114,
                -2.6108900104098876
            ]
        },
        {
            "positions": [
                -0.24757856851762106,
                -1.3667937681294786,
                1.9878804514607542,
                -1.0057951999722463,
                0.17732959422163005,
                -2.7400182938064424
            ]
        },
        {
            "positions": [
                -0.12438406578767647,
                -1.2942831881085857,
                1.9890449223644706,
                -0.9570741750166762,
                0.16402921414363897,
                -2.8691465772029976
            ]
        },
        {
            "positions": [
                -0.0011895630577321015,
                -1.221772608087693,
                1.9902093932681868,
                -0.9083531500611062,
                0.15072883406564788,
                -2.998274860599553
            ]
        },
        {
            "positions": [
                0.12200493967221247,
                -1.1492620280668002,
                1.9913738641719032,
                -0.8596321251055361,
                0.1374284539876568,
                -3.1274031439961076
            ]
        }
    ]
}