{
    "goal": {
        "global_pose": {
            "orientation": {
                "w": 0.5084816217422485,
                "x": -0.49083608388900757,
                "y": 0.5182115435600281,
                "z": -0.4816462993621826
            },
            "position": {
                "x": 0.5540239810943604,
                "y": 0.030875300988554955,
                "z": 0.16403168439865112
            }
        },
        "name": "move_to_storage_A"
    },
    "id": "SPARStwo_move_to_storage_A_34",
    "joint_names": [
        "shoulder_pan_joint",
        "shoulder_lift_joint",
        "elbow_joint",
        "wrist_1_joint",
        "wrist_2_joint",
        "wrist_3_joint"
    ],
    "metrics": {
        "cart_traj_len": 0.35238249125623755,
        "distance_elbow_joint": 0.4526803489699329,
        "distance_shoulder_lift_joint": 0.2341230849741165,
        "distance_shoulder_pan_joint": 0.460376097076955,
        "distance_wrist_1_joint": 0.25523805751070305,
        "distance_wrist_2_joint": 1.0993838589733165,
        "distance_wrist_3_joint": 0.10899604553292974,
        "smoothness": 4.440892098500626e-16,
        "time": 5.01404365,
        "traj_len": 1.6157962411882119,
        "weighted_distance": 2.045338969605731
    },
    "planner": "SPARStwo",
    "start": {
        "state": {
            "elbow_joint": 1.9715477243005601,
            "shoulder_lift_joint": -1.1394853015351272,
            "shoulder_pan_joint": 0.12281154014795169,
            "wrist_1_joint": -0.7804696478968182,
            "wrist_2_joint": 0.12958648046900423,
            "wrist_3_joint": -3.192491284697111
        }
    },
    "waypoints": [
        {
            "positions": [
                0.12281154014795169,
                -1.1394853015351272,
                1.9715477243005601,
                -0.7804696478968182,
                0.12958648046900423,
                -3.192491284697111
            ]
        },
        {
            "positions": [
                0.057043526279815265,
                -1.1729314565314295,
                2.036216345581979,
                -0.8169322275412043,
                0.2866413174651923,
                -3.17692042104955
            ]
        },
        {
            "positions": [
                -0.008724487588321159,
                -1.2063776115277318,
                2.100884966863398,
                -0.8533948071855905,
                0.44369615446138033,
                -3.1613495574019885
            ]
        },
        {
            "positions": [
                -0.07449250145645757,
                -1.2398237665240341,
                2.165553588144817,
                -0.8898573868299766,
                0.6007509914575684,
                -3.145778693754427
            ]
        },
        {
            "positions": [
                -0.140260515324594,
                -1.2732699215203365,
                2.230222209426236,
                -0.9263199664743628,
                0.7578058284537564,
                -3.1302078301068654
            ]
        },
        {
            "positions": [
                -0.20602852919273046,
                -1.306716076516639,
                2.294890830707655,
                -0.9627825461187489,
                0.9148606654499446,
                -3.114636966459304
            ]
        },
        {
            "positions": [
                -0.2717965430608668,
                -1.3401622315129413,
                2.359559451989074,
                -0.9992451257631351,
                1.0719155024461324,
                -3.0990661028117428
            ]
        },
        {
            "positions": [
                -0.3375645569290033,
                -1.3736083865092437,
                2.424228073270493,
                -1.0357077054075212,
                1.2289703394423206,
                -3.0834952391641814
            ]
        }
    ]
}