{
    "goal": {
        "global_pose": {
            "orientation": {
                "w": 0.5084816217422485,
                "x": -0.49083608388900757,
                "y": 0.5182115435600281,
                "z": -0.4816462993621826
            },
            "position": {
                "x": 0.5540239810943604,
                "y": 0.030875300988554955,
                "z": 0.16403168439865112
            }
        },
        "name": "move_to_storage_A"
    },
    "id": "SPARStwo_move_to_storage_A_27",
    "joint_names": [
        "shoulder_pan_joint",
        "shoulder_lift_joint",
        "elbow_joint",
        "wrist_1_joint",
        "wrist_2_joint",
        "wrist_3_joint"
    ],
    "metrics": {
        "cart_traj_len": 0.35277658746927526,
        "distance_elbow_joint": 0.4489410157221432,
        "distance_shoulder_lift_joint": 0.2337415064222763,
        "distance_shoulder_pan_joint": 0.45753117201601123,
        "distance_wrist_1_joint": 0.23876798898108864,
        "distance_wrist_2_joint": 1.114182502131774,
        "distance_wrist_3_joint": 0.08883733676342676,
        "smoothness": 6.661338165333112e-16,
        "time": 5.004553329999999,
        "traj_len": 1.6068607662260972,
        "weighted_distance": 2.027961214292925
    },
    "planner": "SPARStwo",
    "start": {
        "state": {
            "elbow_joint": 1.9715477243005601,
            "shoulder_lift_joint": -1.1394853015351272,
            "shoulder_pan_joint": 0.12281154014795169,
            "wrist_1_joint": -0.7804696478968182,
            "wrist_2_joint": 0.12958648046900423,
            "wrist_3_joint": -3.192491284697111
        }
    },
    "waypoints": [
        {
            "positions": [
                0.12281154014795169,
                -1.1394853015351272,
                1.9715477243005601,
                -0.7804696478968182,
                0.12958648046900423,
                -3.192491284697111
            ]
        },
        {
            "positions": [
                0.05744994414566437,
                -1.172876945309738,
                2.035682155118009,
                -0.8145793606084023,
                0.2887554093449719,
                -3.1798002365880502
            ]
        },
        {
            "positions": [
                -0.007911651856622945,
                -1.206268589084349,
                2.099816585935458,
                -0.8486890733199863,
                0.44792433822093963,
                -3.1671091884789893
            ]
        },
        {
            "positions": [
                -0.07327324785891025,
                -1.2396602328589599,
                2.163951016752907,
                -0.8827987860315705,
                0.6070932670969074,
                -3.1544181403699283
            ]
        },
        {
            "positions": [
                -0.13863484386119757,
                -1.2730518766335708,
                2.228085447570356,
                -0.9169084987431545,
                0.766262195972875,
                -3.1417270922608673
            ]
        },
        {
            "positions": [
                -0.20399643986348492,
                -1.3064435204081817,
                2.2922198783878054,
                -0.9510182114547386,
                0.9254311248488428,
                -3.1290360441518064
            ]
        },
        {
            "positions": [
                -0.26935803586577217,
                -1.3398351641827926,
                2.3563543092052543,
                -0.9851279241663227,
                1.0846000537248104,
                -3.1163449960427454
            ]
        },
        {
            "positions": [
                -0.33471963186805953,
                -1.3732268079574035,
                2.4204887400227033,
                -1.0192376368779068,
                1.243768982600778,
                -3.1036539479336844
            ]
        }
    ]
}