{
    "goal": {
        "global_pose": {
            "orientation": {
                "w": 0.5084816217422485,
                "x": -0.49083608388900757,
                "y": 0.5182115435600281,
                "z": -0.4816462993621826
            },
            "position": {
                "x": 0.5540239810943604,
                "y": 0.030875300988554955,
                "z": 0.16403168439865112
            }
        },
        "name": "move_to_storage_A"
    },
    "id": "SPARS_move_to_storage_A_40",
    "joint_names": [
        "shoulder_pan_joint",
        "shoulder_lift_joint",
        "elbow_joint",
        "wrist_1_joint",
        "wrist_2_joint",
        "wrist_3_joint"
    ],
    "metrics": {
        "cart_traj_len": 0.35394141950707825,
        "distance_elbow_joint": 0.4511380398346443,
        "distance_shoulder_lift_joint": 0.2342926181311451,
        "distance_shoulder_pan_joint": 0.4611033906078695,
        "distance_wrist_1_joint": 0.24478743418779525,
        "distance_wrist_2_joint": 1.1082610537415176,
        "distance_wrist_3_joint": 0.10718933642941897,
        "smoothness": 1.8873791433662325e-15,
        "time": 5.01351898,
        "traj_len": 1.6145500527801517,
        "weighted_distance": 2.043085664802272
    },
    "planner": "SPARS",
    "start": {
        "state": {
            "elbow_joint": 1.9715477243005601,
            "shoulder_lift_joint": -1.1394853015351272,
            "shoulder_pan_joint": 0.12281154014795169,
            "wrist_1_joint": -0.7804696478968182,
            "wrist_2_joint": 0.12958648046900423,
            "wrist_3_joint": -3.192491284697111
        }
    },
    "waypoints": [
        {
            "positions": [
                0.12281154014795169,
                -1.1394853015351272,
                1.9715477243005601,
                -0.7804696478968182,
                0.12958648046900423,
                -3.192491284697111
            ]
        },
        {
            "positions": [
                0.05693962720397033,
                -1.1729556755538622,
                2.0359960157055093,
                -0.8154392813522174,
                0.28790948814636386,
                -3.1771785223500513
            ]
        },
        {
            "positions": [
                -0.008932285740011023,
                -1.2064260495725971,
                2.1004443071104584,
                -0.8504089148076168,
                0.44623249582372354,
                -3.1618657600029914
            ]
        },
        {
            "positions": [
                -0.07480419868399237,
                -1.2398964235913321,
                2.1648925985154075,
                -0.8853785482630161,
                0.6045555035010832,
                -3.1465529976559314
            ]
        },
        {
            "positions": [
                -0.14067611162797372,
                -1.273366797610067,
                2.2293408899203566,
                -0.9203481817184155,
                0.7628785111784429,
                -3.131240235308872
            ]
        },
        {
            "positions": [
                -0.2065480245719551,
                -1.3068371716288023,
                2.293789181325306,
                -0.9553178151738148,
                0.9212015188558026,
                -3.115927472961812
            ]
        },
        {
            "positions": [
                -0.2724199375159364,
                -1.3403075456475373,
                2.3582374727302553,
                -0.9902874486292141,
                1.079524526533162,
                -3.100614710614752
            ]
        },
        {
            "positions": [
                -0.3382918504599178,
                -1.3737779196662723,
                2.4226857641352044,
                -1.0252570820846134,
                1.237847534210522,
                -3.085301948267692
            ]
        }
    ]
}