{
    "goal": {
        "global_pose": {
            "orientation": {
                "w": 0.7047431468963623,
                "x": -0.7094548344612122,
                "y": 0.0024358443915843964,
                "z": -0.0022348060738295317
            },
            "position": {
                "x": 0.6094750761985779,
                "y": 0.3671506643295288,
                "z": 0.19426114857196808
            }
        },
        "name": "move_to_magneteinheit_A"
    },
    "id": "SPARStwo_move_to_magneteinheit_A_50",
    "joint_names": [
        "shoulder_pan_joint",
        "shoulder_lift_joint",
        "elbow_joint",
        "wrist_1_joint",
        "wrist_2_joint",
        "wrist_3_joint"
    ],
    "metrics": {
        "cart_traj_len": 1.5089821775816399,
        "distance_elbow_joint": 0.41549335440912305,
        "distance_shoulder_lift_joint": 0.7829907917808818,
        "distance_shoulder_pan_joint": 1.4794477270292747,
        "distance_wrist_1_joint": 1.0242333757968782,
        "distance_wrist_2_joint": 1.447209129122876,
        "distance_wrist_3_joint": 4.238556979504715,
        "smoothness": 0.3766683265733946,
        "time": 5.02897522,
        "traj_len": 3.063973132656967,
        "weighted_distance": 4.5095995189787015
    },
    "planner": "SPARStwo",
    "start": {
        "state": {
            "elbow_joint": 1.919643534880228,
            "shoulder_lift_joint": -1.8972525353963687,
            "shoulder_pan_joint": -1.1188672234189438,
            "wrist_1_joint": -1.5931878212786155,
            "wrist_2_joint": 1.5706036197970081,
            "wrist_3_joint": 1.118896926603594
        }
    },
    "waypoints": [
        {
            "positions": [
                -1.1188672234189438,
                -1.8972525353963687,
                1.919643534880228,
                -1.5931878212786155,
                1.5706036197970081,
                1.118896926603594
            ]
        },
        {
            "positions": [
                -1.1585059208304205,
                -1.9026478267707452,
                1.861654075800152,
                -1.641144481725423,
                1.5439060772683155,
                1.0064912786709321
            ]
        },
        {
            "positions": [
                -1.1981446182418969,
                -1.9080431181451216,
                1.803664616720076,
                -1.6891011421722304,
                1.5172085347396227,
                0.8940856307382705
            ]
        },
        {
            "positions": [
                -1.2377833156533735,
                -1.913438409519498,
                1.74567515764,
                -1.737057802619038,
                1.49051099221093,
                0.7816799828056087
            ]
        },
        {
            "positions": [
                -1.1759409686172442,
                -1.8785836405350547,
                1.7566535656931317,
                -1.6970412846891991,
                1.4283693330501666,
                0.6043463448189392
            ]
        },
        {
            "positions": [
                -1.1140986215811148,
                -1.8437288715506115,
                1.7676319737462631,
                -1.6570247667593603,
                1.366227673889403,
                0.4270127068322697
            ]
        },
        {
            "positions": [
                -1.0522562745449857,
                -1.808874102566168,
                1.7786103817993948,
                -1.6170082488295212,
                1.3040860147286395,
                0.24967906884560032
            ]
        },
        {
            "positions": [
                -0.9904139275088563,
                -1.774019333581725,
                1.7895887898525265,
                -1.5769917308996824,
                1.241944355567876,
                0.07234543085893075
            ]
        },
        {
            "positions": [
                -0.928571580472727,
                -1.7391645645972815,
                1.800567197905658,
                -1.5369752129698435,
                1.1798026964071124,
                -0.10498820712773871
            ]
        },
        {
            "positions": [
                -0.8667292334365977,
                -1.7043097956128384,
                1.8115456059587896,
                -1.4969586950400047,
                1.1176610372463487,
                -0.28232184511440805
            ]
        },
        {
            "positions": [
                -0.8048868864004683,
                -1.669455026628395,
                1.8225240140119212,
                -1.4569421771101656,
                1.0555193780855854,
                -0.45965548310107773
            ]
        },
        {
            "positions": [
                -0.743044539364339,
                -1.6346002576439518,
                1.8335024220650527,
                -1.4169256591803268,
                0.9933777189248216,
                -0.6369891210877472
            ]
        },
        {
            "positions": [
                -0.6812021923282097,
                -1.5997454886595084,
                1.8444808301181843,
                -1.376909141250488,
                0.9312360597640581,
                -0.8143227590744166
            ]
        },
        {
            "positions": [
                -0.6193598452920804,
                -1.564890719675065,
                1.855459238171316,
                -1.336892623320649,
                0.8690944006032946,
                -0.9916563970610861
            ]
        },
        {
            "positions": [
                -0.5575174982559511,
                -1.5300359506906218,
                1.8664376462244476,
                -1.29687610539081,
                0.806952741442531,
                -1.1689900350477556
            ]
        },
        {
            "positions": [
                -0.49567515121982186,
                -1.4951811817061786,
                1.877416054277579,
                -1.2568595874609712,
                0.7448110822817675,
                -1.3463236730344248
            ]
        },
        {
            "positions": [
                -0.4338328041836924,
                -1.4603264127217352,
                1.8883944623307107,
                -1.2168430695311323,
                0.6826694231210039,
                -1.5236573110210945
            ]
        },
        {
            "positions": [
                -0.3719904571475632,
                -1.4254716437372918,
                1.8993728703838424,
                -1.1768265516012932,
                0.6205277639602405,
                -1.7009909490077642
            ]
        },
        {
            "positions": [
                -0.31014811011143395,
                -1.3906168747528487,
                1.9103512784369738,
                -1.1368100336714546,
                0.5583861047994769,
                -1.8783245869944334
            ]
        },
        {
            "positions": [
                -0.2483057630753045,
                -1.3557621057684053,
                1.9213296864901055,
                -1.0967935157416155,
                0.4962444456387133,
                -2.0556582249811033
            ]
        },
        {
            "positions": [
                -0.18646341603917516,
                -1.320907336783962,
                1.9323080945432372,
                -1.0567769978117767,
                0.43410278647794986,
                -2.232991862967772
            ]
        },
        {
            "positions": [
                -0.12462106900304581,
                -1.2860525677995187,
                1.9432865025963686,
                -1.0167604798819379,
                0.3719611273171861,
                -2.4103255009544418
            ]
        },
        {
            "positions": [
                -0.0627787219669167,
                -1.2511977988150753,
                1.9542649106495003,
                -0.9767439619520988,
                0.3098194681564226,
                -2.5876591389411114
            ]
        },
        {
            "positions": [
                -0.0009363749307873537,
                -1.2163430298306321,
                1.965243318702632,
                -0.9367274440222599,
                0.24767780899565905,
                -2.764992776927781
            ]
        },
        {
            "positions": [
                0.06090597210534199,
                -1.181488260846189,
                1.9762217267557634,
                -0.896710926092421,
                0.18553614983489553,
                -2.942326414914451
            ]
        },
        {
            "positions": [
                0.12274831914147134,
                -1.1466334918617456,
                1.987200134808895,
                -0.8566944081625821,
                0.12339449067413202,
                -3.11966005290112
            ]
        }
    ]
}