{
    "goal": {
        "global_pose": {
            "orientation": {
                "w": 0.7047431468963623,
                "x": -0.7094548344612122,
                "y": 0.0024358443915843964,
                "z": -0.0022348060738295317
            },
            "position": {
                "x": 0.6094750761985779,
                "y": 0.3671506643295288,
                "z": 0.19426114857196808
            }
        },
        "name": "move_to_magneteinheit_A"
    },
    "id": "SPARStwo_move_to_magneteinheit_A_7",
    "joint_names": [
        "shoulder_pan_joint",
        "shoulder_lift_joint",
        "elbow_joint",
        "wrist_1_joint",
        "wrist_2_joint",
        "wrist_3_joint"
    ],
    "metrics": {
        "cart_traj_len": 3.3685565426413824,
        "distance_elbow_joint": 3.8728003582515793,
        "distance_shoulder_lift_joint": 1.246134483694848,
        "distance_shoulder_pan_joint": 2.699824098245116,
        "distance_wrist_1_joint": 0.8716496087567139,
        "distance_wrist_2_joint": 2.746036098636256,
        "distance_wrist_3_joint": 2.596529047961532,
        "smoothness": 0.18786687692611312,
        "time": 5.036427685,
        "traj_len": 3.7460610907386496,
        "weighted_distance": 4.779510173528463
    },
    "planner": "SPARStwo",
    "start": {
        "state": {
            "elbow_joint": -1.919618573717145,
            "shoulder_lift_joint": -1.2443395971678275,
            "shoulder_pan_joint": 2.6996025300909787,
            "wrist_1_joint": -1.548550951253194,
            "wrist_2_joint": -1.5709469090946802,
            "wrist_3_joint": 0.4420197732051276
        }
    },
    "waypoints": [
        {
            "positions": [
                2.6996025300909787,
                -1.2443395971678275,
                -1.919618573717145,
                -1.548550951253194,
                -1.5709469090946802,
                0.4420197732051276
            ]
        },
        {
            "positions": [
                2.5775237667352533,
                -1.2712445670948058,
                -1.781311059031565,
                -1.5466212541218343,
                -1.4652785443396896,
                0.44152600812026666
            ]
        },
        {
            "positions": [
                2.4554450033795283,
                -1.2981495370217842,
                -1.6430035443459852,
                -1.5446915569904747,
                -1.359610179584699,
                0.44103224303540567
            ]
        },
        {
            "positions": [
                2.333366240023803,
                -1.3250545069487625,
                -1.5046960296604053,
                -1.5427618598591148,
                -1.2539418148297083,
                0.44053847795054474
            ]
        },
        {
            "positions": [
                2.2112874766680775,
                -1.3519594768757408,
                -1.3663885149748252,
                -1.540832162727755,
                -1.1482734500747178,
                0.44004471286568375
            ]
        },
        {
            "positions": [
                2.0892087133123525,
                -1.3788644468027191,
                -1.2280810002892455,
                -1.5389024655963952,
                -1.0426050853197273,
                0.4395509477808228
            ]
        },
        {
            "positions": [
                1.967129949956627,
                -1.4057694167296975,
                -1.0897734856036654,
                -1.5369727684650356,
                -0.9369367205647366,
                0.4390571826959619
            ]
        },
        {
            "positions": [
                1.8450511866009018,
                -1.4326743866566758,
                -0.9514659709180855,
                -1.5350430713336758,
                -0.8312683558097461,
                0.4385634176111009
            ]
        },
        {
            "positions": [
                1.7229724232451766,
                -1.4595793565836541,
                -0.8131584562325056,
                -1.533113374202316,
                -0.7255999910547556,
                0.43806965252623997
            ]
        },
        {
            "positions": [
                1.6008936598894512,
                -1.4864843265106324,
                -0.6748509415469257,
                -1.5311836770709564,
                -0.619931626299765,
                0.43757588744137904
            ]
        },
        {
            "positions": [
                1.478814896533726,
                -1.5133892964376108,
                -0.5365434268613458,
                -1.5292539799395966,
                -0.5142632615447744,
                0.43708212235651805
            ]
        },
        {
            "positions": [
                1.3567361331780006,
                -1.540294266364589,
                -0.3982359121757657,
                -1.5273242828082367,
                -0.40859489678978367,
                0.4365883572716571
            ]
        },
        {
            "positions": [
                1.2346573698222754,
                -1.5671992362915674,
                -0.25992839749018604,
                -1.525394585676877,
                -0.30292653203479314,
                0.43609459218679614
            ]
        },
        {
            "positions": [
                1.11257860646655,
                -1.5941042062185458,
                -0.12162088280460592,
                -1.5234648885455173,
                -0.1972581672798026,
                0.4356008271019352
            ]
        },
        {
            "positions": [
                0.990499843110825,
                -1.621009176145524,
                0.016686631880973968,
                -1.5215351914141575,
                -0.09158980252481208,
                0.4351070620170743
            ]
        },
        {
            "positions": [
                0.8684210797550995,
                -1.6479141460725024,
                0.15499414656655408,
                -1.5196054942827977,
                0.01407856223017867,
                0.4346132969322133
            ]
        },
        {
            "positions": [
                0.7463423163993743,
                -1.6748191159994807,
                0.29330166125213375,
                -1.517675797151438,
                0.11974692698516898,
                0.43411953184735236
            ]
        },
        {
            "positions": [
                0.6242635530436491,
                -1.701724085926459,
                0.43160917593771386,
                -1.5157461000200783,
                0.22541529174015973,
                0.4336257667624914
            ]
        },
        {
            "positions": [
                0.5021847896879237,
                -1.7286290558534374,
                0.5699166906232935,
                -1.5138164028887184,
                0.33108365649515026,
                0.43313200167763044
            ]
        },
        {
            "positions": [
                0.38010602633219825,
                -1.7555340257804157,
                0.7082242053088736,
                -1.5118867057573586,
                0.436752021250141,
                0.4326382365927695
            ]
        },
        {
            "positions": [
                0.25802726297647327,
                -1.782438995707394,
                0.8465317199944533,
                -1.509957008625999,
                0.5424203860051313,
                0.4321444715079085
            ]
        },
        {
            "positions": [
                0.1359484996207477,
                -1.8093439656343724,
                0.9848392346800335,
                -1.5080273114946392,
                0.648088750760122,
                0.4316507064230476
            ]
        },
        {
            "positions": [
                0.13062312858206535,
                -1.7635833499452025,
                1.0496651497460558,
                -1.4494778882246313,
                0.6109532477233311,
                0.6053689648612562
            ]
        },
        {
            "positions": [
                0.125297757543383,
                -1.7178227342560326,
                1.1144910648120783,
                -1.3909284649546234,
                0.5738177446865405,
                0.7790872232994649
            ]
        },
        {
            "positions": [
                0.11997238650470064,
                -1.6720621185668625,
                1.1793169798781007,
                -1.3323790416846157,
                0.5366822416497496,
                0.9528054817376735
            ]
        },
        {
            "positions": [
                0.1146470154660183,
                -1.6263015028776926,
                1.2441428949441231,
                -1.2738296184146078,
                0.49954673861295884,
                1.126523740175882
            ]
        },
        {
            "positions": [
                0.10932164442733594,
                -1.5805408871885227,
                1.3089688100101455,
                -1.2152801951446,
                0.46241123557616803,
                1.3002419986140907
            ]
        },
        {
            "positions": [
                0.10399627338865358,
                -1.5347802714993528,
                1.373794725076168,
                -1.156730771874592,
                0.4252757325393773,
                1.4739602570522994
            ]
        },
        {
            "positions": [
                0.09867090234997124,
                -1.489019655810183,
                1.4386206401421904,
                -1.0981813486045842,
                0.3881402295025865,
                1.647678515490508
            ]
        },
        {
            "positions": [
                0.09334553131128889,
                -1.443259040121013,
                1.5034465552082128,
                -1.0396319253345763,
                0.3510047264657957,
                1.8213967739287167
            ]
        },
        {
            "positions": [
                0.08802016027260653,
                -1.397498424431843,
                1.5682724702742354,
                -0.9810825020645684,
                0.31386922342900486,
                1.9951150323669258
            ]
        },
        {
            "positions": [
                0.08269478923392418,
                -1.351737808742673,
                1.6330983853402576,
                -0.9225330787945606,
                0.2767337203922141,
                2.168833290805134
            ]
        },
        {
            "positions": [
                0.07736941819524183,
                -1.305977193053503,
                1.69792430040628,
                -0.8639836555245527,
                0.23959821735542336,
                2.3425515492433426
            ]
        },
        {
            "positions": [
                0.07204404715655947,
                -1.260216577364333,
                1.7627502154723025,
                -0.8054342322545449,
                0.2024627143186326,
                2.5162698076815513
            ]
        },
        {
            "positions": [
                0.06671867611787712,
                -1.2144559616751631,
                1.827576130538325,
                -0.7468848089845369,
                0.16532721128184175,
                2.68998806611976
            ]
        },
        {
            "positions": [
                0.06139330507919477,
                -1.1686953459859932,
                1.8924020456043473,
                -0.6883353857145291,
                0.128191708245051,
                2.8637063245579686
            ]
        },
        {
            "positions": [
                0.12300817831252532,
                -1.1282138504060693,
                1.9531817845344341,
                -0.6997694289325781,
                0.12108831197866696,
                3.0178106876024997
            ]
        }
    ]
}{
    "goal": {
        "global_pose": {
            "orientation": {
                "w": 0.7047431468963623,
                "x": -0.7094548344612122,
                "y": 0.0024358443915843964,
                "z": -0.0022348060738295317
            },
            "position": {
                "x": 0.6094750761985779,
                "y": 0.3671506643295288,
                "z": 0.19426114857196808
            }
        },
        "name": "move_to_magneteinheit_A"
    },
    "id": "SPARStwo_move_to_magneteinheit_A_7",
    "joint_names": [
        "shoulder_pan_joint",
        "shoulder_lift_joint",
        "elbow_joint",
        "wrist_1_joint",
        "wrist_2_joint",
        "wrist_3_joint"
    ],
    "metrics": {
        "cart_traj_len": 1.2159162701152273,
        "distance_elbow_joint": 0.03352885628508484,
        "distance_shoulder_lift_joint": 0.7716890503485081,
        "distance_shoulder_pan_joint": 1.2423410010672753,
        "distance_wrist_1_joint": 0.9254619594470107,
        "distance_wrist_2_joint": 1.4482838047324653,
        "distance_wrist_3_joint": 4.380119277689946,
        "smoothness": 0.16708086646736497,
        "time": 5.042745863,
        "traj_len": 2.9667193917811456,
        "weighted_distance": 4.464908539839272
    },
    "planner": "SPARStwo",
    "start": {
        "state": {
            "elbow_joint": 1.919643534880228,
            "shoulder_lift_joint": -1.8972525353963687,
            "shoulder_pan_joint": -1.1188672234189438,
            "wrist_1_joint": -1.5931878212786155,
            "wrist_2_joint": 1.5706036197970081,
            "wrist_3_joint": 1.118896926603594
        }
    },
    "waypoints": [
        {
            "positions": [
                -1.1188672234189438,
                -1.8972525353963687,
                1.919643534880228,
                -1.5931878212786155,
                1.5706036197970081,
                1.118896926603594
            ]
        },
        {
            "positions": [
                -1.0631061190166544,
                -1.8622410988322122,
                1.9200432028490604,
                -1.5519274358630022,
                1.5054863648424288,
                0.9209404266068449
            ]
        },
        {
            "positions": [
                -1.007345014614365,
                -1.8272296622680557,
                1.9204428708178929,
                -1.5106670504473891,
                1.4403691098878493,
                0.7229839266100959
            ]
        },
        {
            "positions": [
                -0.9515839102120756,
                -1.792218225703899,
                1.9208425387867252,
                -1.469406665031776,
                1.37525185493327,
                0.5250274266133469
            ]
        },
        {
            "positions": [
                -0.8958228058097861,
                -1.7572067891397425,
                1.9212422067555577,
                -1.4281462796161628,
                1.3101345999786904,
                0.32707092661659776
            ]
        },
        {
            "positions": [
                -0.8400617014074967,
                -1.722195352575586,
                1.92164187472439,
                -1.3868858942005495,
                1.245017345024111,
                0.12911442661984884
            ]
        },
        {
            "positions": [
                -0.7843005970052073,
                -1.6871839160114295,
                1.9220415426932222,
                -1.3456255087849365,
                1.1799000900695318,
                -0.06884207337690018
            ]
        },
        {
            "positions": [
                -0.7285394926029178,
                -1.6521724794472727,
                1.9224412106620548,
                -1.3043651233693234,
                1.1147828351149522,
                -0.2667985733736493
            ]
        },
        {
            "positions": [
                -0.6727783882006283,
                -1.6171610428831162,
                1.922840878630887,
                -1.2631047379537101,
                1.049665580160373,
                -0.46475507337039845
            ]
        },
        {
            "positions": [
                -0.6170172837983389,
                -1.5821496063189597,
                1.9232405465997195,
                -1.2218443525380969,
                0.9845483252057935,
                -0.6627115733671474
            ]
        },
        {
            "positions": [
                -0.5612561793960494,
                -1.5471381697548032,
                1.9236402145685518,
                -1.1805839671224838,
                0.9194310702512142,
                -0.8606680733638963
            ]
        },
        {
            "positions": [
                -0.50549507499376,
                -1.5121267331906467,
                1.9240398825373841,
                -1.1393235817068708,
                0.8543138152966347,
                -1.0586245733606454
            ]
        },
        {
            "positions": [
                -0.4497339705914706,
                -1.47711529662649,
                1.9244395505062166,
                -1.0980631962912575,
                0.7891965603420554,
                -1.2565810733573943
            ]
        },
        {
            "positions": [
                -0.39397286618918104,
                -1.4421038600623335,
                1.924839218475049,
                -1.0568028108756442,
                0.7240793053874759,
                -1.4545375733541437
            ]
        },
        {
            "positions": [
                -0.3382117617868917,
                -1.407092423498177,
                1.9252388864438814,
                -1.0155424254600312,
                0.6589620504328966,
                -1.6524940733508926
            ]
        },
        {
            "positions": [
                -0.2824506573846023,
                -1.3720809869340205,
                1.9256385544127137,
                -0.974282040044418,
                0.5938447954783173,
                -1.8504505733476415
            ]
        },
        {
            "positions": [
                -0.22668955298231275,
                -1.337069550369864,
                1.9260382223815462,
                -0.9330216546288048,
                0.5287275405237377,
                -2.048407073344391
            ]
        },
        {
            "positions": [
                -0.17092844858002343,
                -1.3020581138057072,
                1.9264378903503785,
                -0.8917612692131917,
                0.4636102855691584,
                -2.2463635733411396
            ]
        },
        {
            "positions": [
                -0.11516734417773389,
                -1.2670466772415505,
                1.9268375583192108,
                -0.8505008837975785,
                0.39849303061457886,
                -2.444320073337889
            ]
        },
        {
            "positions": [
                -0.05940623977544446,
                -1.2320352406773942,
                1.9272372262880433,
                -0.8092404983819653,
                0.33337577565999954,
                -2.6422765733346374
            ]
        },
        {
            "positions": [
                -0.0036451353731550284,
                -1.1970238041132375,
                1.9276368942568756,
                -0.7679801129663522,
                0.2682585207054202,
                -2.8402330733313867
            ]
        },
        {
            "positions": [
                0.0521159690291344,
                -1.162012367549081,
                1.928036562225708,
                -0.726719727550739,
                0.20314126575084068,
                -3.038189573328136
            ]
        },
        {
            "positions": [
                0.10787707343142386,
                -1.1270009309849245,
                1.9284362301945404,
                -0.6854593421351258,
                0.13802401079626148,
                -3.2361460733248846
            ]
        },
        {
            "positions": [
                0.12347377764833144,
                -1.1284383769219883,
                1.953172391165313,
                -0.7031928224386469,
                0.1223198150645429,
                -3.2612223510863525
            ]
        }
    ]
}