{
    "goal": {
        "global_pose": {
            "orientation": {
                "w": 0.7047431468963623,
                "x": -0.7094548344612122,
                "y": 0.0024358443915843964,
                "z": -0.0022348060738295317
            },
            "position": {
                "x": 0.6094750761985779,
                "y": 0.3671506643295288,
                "z": 0.19426114857196808
            }
        },
        "name": "move_to_magneteinheit_A"
    },
    "id": "SPARStwo_move_to_magneteinheit_A_109",
    "joint_names": [
        "shoulder_pan_joint",
        "shoulder_lift_joint",
        "elbow_joint",
        "wrist_1_joint",
        "wrist_2_joint",
        "wrist_3_joint"
    ],
    "metrics": {
        "cart_traj_len": 1.242361477294711,
        "distance_elbow_joint": 0.0684548003722305,
        "distance_shoulder_lift_joint": 0.8139791136250878,
        "distance_shoulder_pan_joint": 1.240911245206696,
        "distance_wrist_1_joint": 0.762131669085309,
        "distance_wrist_2_joint": 1.4420114679684148,
        "distance_wrist_3_joint": 4.260470525736691,
        "smoothness": 0.1417381181968831,
        "time": 5.033986935,
        "traj_len": 2.930521936787785,
        "weighted_distance": 4.394660738956027
    },
    "planner": "SPARStwo",
    "start": {
        "state": {
            "elbow_joint": 1.919643534880228,
            "shoulder_lift_joint": -1.8972525353963687,
            "shoulder_pan_joint": -1.1188672234189438,
            "wrist_1_joint": -1.5931878212786155,
            "wrist_2_joint": 1.5706036197970081,
            "wrist_3_joint": 1.118896926603594
        }
    },
    "waypoints": [
        {
            "positions": [
                -1.1188672234189438,
                -1.8972525353963687,
                1.919643534880228,
                -1.5931878212786155,
                1.5706036197970081,
                1.118896926603594
            ]
        },
        {
            "positions": [
                -1.0634901203148153,
                -1.8616386471599562,
                1.9194907329515072,
                -1.5612123574261318,
                1.5052786163683498,
                0.9278943473231409
            ]
        },
        {
            "positions": [
                -1.0081130172106867,
                -1.8260247589235434,
                1.919337931022786,
                -1.5292368935736484,
                1.4399536129396915,
                0.7368917680426877
            ]
        },
        {
            "positions": [
                -0.9527359141065581,
                -1.790410870687131,
                1.9191851290940651,
                -1.4972614297211648,
                1.374628609511033,
                0.5458891887622347
            ]
        },
        {
            "positions": [
                -0.8973588110024294,
                -1.7547969824507181,
                1.919032327165344,
                -1.4652859658686814,
                1.3093036060823746,
                0.3548866094817815
            ]
        },
        {
            "positions": [
                -0.8419817078983008,
                -1.7191830942143056,
                1.918879525236623,
                -1.4333105020161978,
                1.2439786026537163,
                0.16388403020132847
            ]
        },
        {
            "positions": [
                -0.7866046047941723,
                -1.683569205977893,
                1.918726723307902,
                -1.4013350381637144,
                1.178653599225058,
                -0.027118549079124588
            ]
        },
        {
            "positions": [
                -0.7312275016900437,
                -1.6479553177414803,
                1.918573921379181,
                -1.3693595743112308,
                1.1133285957963994,
                -0.21812112835957764
            ]
        },
        {
            "positions": [
                -0.675850398585915,
                -1.6123414295050678,
                1.91842111945046,
                -1.3373841104587474,
                1.048003592367741,
                -0.4091237076400309
            ]
        },
        {
            "positions": [
                -0.6204732954817864,
                -1.576727541268655,
                1.918268317521739,
                -1.3054086466062638,
                0.9826785889390828,
                -0.600126286920484
            ]
        },
        {
            "positions": [
                -0.5650961923776578,
                -1.5411136530322425,
                1.9181155155930179,
                -1.2734331827537804,
                0.9173535855104245,
                -0.791128866200937
            ]
        },
        {
            "positions": [
                -0.5097190892735293,
                -1.5054997647958297,
                1.917962713664297,
                -1.2414577189012967,
                0.852028582081766,
                -0.9821314454813901
            ]
        },
        {
            "positions": [
                -0.4543419861694007,
                -1.4698858765594172,
                1.917809911735576,
                -1.2094822550488133,
                0.7867035786531077,
                -1.1731340247618431
            ]
        },
        {
            "positions": [
                -0.398964883065272,
                -1.4342719883230046,
                1.9176571098068549,
                -1.1775067911963297,
                0.7213785752244493,
                -1.3641366040422962
            ]
        },
        {
            "positions": [
                -0.34358777996114354,
                -1.3986581000865919,
                1.917504307878134,
                -1.1455313273438463,
                0.6560535717957909,
                -1.5551391833227493
            ]
        },
        {
            "positions": [
                -0.28821067685701496,
                -1.3630442118501793,
                1.9173515059494128,
                -1.1135558634913627,
                0.5907285683671326,
                -1.7461417626032023
            ]
        },
        {
            "positions": [
                -0.23283357375288627,
                -1.3274303236137666,
                1.917198704020692,
                -1.081580399638879,
                0.5254035649384741,
                -1.9371443418836558
            ]
        },
        {
            "positions": [
                -0.1774564706487577,
                -1.291816435377354,
                1.9170459020919708,
                -1.0496049357863957,
                0.46007856150981574,
                -2.1281469211641086
            ]
        },
        {
            "positions": [
                -0.122079367544629,
                -1.2562025471409415,
                1.9168931001632499,
                -1.0176294719339123,
                0.3947535580811574,
                -2.3191495004445617
            ]
        },
        {
            "positions": [
                -0.06670226444050043,
                -1.2205886589045287,
                1.9167402982345287,
                -0.9856540080814287,
                0.3294285546524991,
                -2.5101520797250148
            ]
        },
        {
            "positions": [
                -0.011325161336371847,
                -1.1849747706681162,
                1.9165874963058078,
                -0.9536785442289452,
                0.26410355122384077,
                -2.701154659005468
            ]
        },
        {
            "positions": [
                0.04405194176775673,
                -1.1493608824317034,
                1.9164346943770867,
                -0.9217030803764616,
                0.19877854779518223,
                -2.892157238285921
            ]
        },
        {
            "positions": [
                0.09942904487188538,
                -1.1137469941952909,
                1.9162818924483658,
                -0.8897276165239781,
                0.1334535443665239,
                -3.083159817566374
            ]
        },
        {
            "positions": [
                0.12204402178775217,
                -1.1442205666193008,
                1.981375050388734,
                -0.8310561521933064,
                0.12859215182859324,
                -3.1415735991330966
            ]
        }
    ]
}