{
    "goal": {
        "global_pose": {
            "orientation": {
                "w": 0.7047431468963623,
                "x": -0.7094548344612122,
                "y": 0.0024358443915843964,
                "z": -0.0022348060738295317
            },
            "position": {
                "x": 0.6094750761985779,
                "y": 0.3671506643295288,
                "z": 0.19426114857196808
            }
        },
        "name": "move_to_magneteinheit_A"
    },
    "id": "SPARStwo_move_to_magneteinheit_A_36",
    "joint_names": [
        "shoulder_pan_joint",
        "shoulder_lift_joint",
        "elbow_joint",
        "wrist_1_joint",
        "wrist_2_joint",
        "wrist_3_joint"
    ],
    "metrics": {
        "cart_traj_len": 1.1457269410232742,
        "distance_elbow_joint": 0.43056295854069093,
        "distance_shoulder_lift_joint": 0.7497110798417463,
        "distance_shoulder_pan_joint": 1.2413062160950208,
        "distance_wrist_1_joint": 0.7467314602422099,
        "distance_wrist_2_joint": 1.4388602556031826,
        "distance_wrist_3_joint": 4.2475910779985,
        "smoothness": 0.050687423337764,
        "time": 5.039897900000001,
        "traj_len": 2.9756953890345277,
        "weighted_distance": 4.419902365456022
    },
    "planner": "SPARStwo",
    "start": {
        "state": {
            "elbow_joint": 1.919643534880228,
            "shoulder_lift_joint": -1.8972525353963687,
            "shoulder_pan_joint": -1.1188672234189438,
            "wrist_1_joint": -1.5931878212786155,
            "wrist_2_joint": 1.5706036197970081,
            "wrist_3_joint": 1.118896926603594
        }
    },
    "waypoints": [
        {
            "positions": [
                -1.1188672234189438,
                -1.8972525353963687,
                1.919643534880228,
                -1.5931878212786155,
                1.5706036197970081,
                1.118896926603594
            ]
        },
        {
            "positions": [
                -1.0671411232660895,
                -1.8685947793028548,
                1.9342676275673787,
                -1.5776470245879437,
                1.5000418342686765,
                0.9174173197637645
            ]
        },
        {
            "positions": [
                -1.0154150231132348,
                -1.8399370232093406,
                1.9488917202545293,
                -1.5621062278972717,
                1.429480048740345,
                0.715937712923935
            ]
        },
        {
            "positions": [
                -0.9636889229603803,
                -1.8112792671158267,
                1.9635158129416799,
                -1.5465654312066,
                1.3589182632120134,
                0.5144581060841056
            ]
        },
        {
            "positions": [
                -0.9119628228075258,
                -1.7826215110223127,
                1.9781399056288305,
                -1.531024634515928,
                1.2883564776836818,
                0.31297849924427623
            ]
        },
        {
            "positions": [
                -0.8602367226546713,
                -1.7539637549287987,
                1.9927639983159813,
                -1.5154838378252562,
                1.2177946921553502,
                0.11149889240444666
            ]
        },
        {
            "positions": [
                -0.8085106225018168,
                -1.7253059988352846,
                2.007388091003132,
                -1.4999430411345842,
                1.1472329066270186,
                -0.0899807144353828
            ]
        },
        {
            "positions": [
                -0.7567845223489624,
                -1.6966482427417706,
                2.0220121836902822,
                -1.4844022444439124,
                1.0766711210986872,
                -0.29146032127521204
            ]
        },
        {
            "positions": [
                -0.7050584221961078,
                -1.6679904866482567,
                2.036636276377433,
                -1.4688614477532407,
                1.0061093355703554,
                -0.4929399281150415
            ]
        },
        {
            "positions": [
                -0.6533323220432534,
                -1.6393327305547425,
                2.051260369064584,
                -1.4533206510625687,
                0.935547550042024,
                -0.694419534954871
            ]
        },
        {
            "positions": [
                -0.6016062218903988,
                -1.6106749744612285,
                2.0658844617517342,
                -1.437779854371897,
                0.8649857645136924,
                -0.8958991417947006
            ]
        },
        {
            "positions": [
                -0.5498801217375443,
                -1.5820172183677146,
                2.080508554438885,
                -1.422239057681225,
                0.7944239789853608,
                -1.09737874863453
            ]
        },
        {
            "positions": [
                -0.4981540215846898,
                -1.5533594622742004,
                2.0951326471260354,
                -1.4066982609905532,
                0.7238621934570292,
                -1.2988583554743596
            ]
        },
        {
            "positions": [
                -0.4464279214318354,
                -1.5247017061806865,
                2.1097567398131862,
                -1.3911574642998814,
                0.6533004079286977,
                -1.5003379623141886
            ]
        },
        {
            "positions": [
                -0.3947018212789809,
                -1.4960439500871725,
                2.1243808325003366,
                -1.3756166676092094,
                0.5827386224003661,
                -1.701817569154018
            ]
        },
        {
            "positions": [
                -0.3429757211261264,
                -1.4673861939936585,
                2.1390049251874874,
                -1.3600758709185377,
                0.5121768368720345,
                -1.9032971759938475
            ]
        },
        {
            "positions": [
                -0.2912496209732719,
                -1.4387284379001444,
                2.153629017874638,
                -1.3445350742278657,
                0.44161505134370294,
                -2.104776782833677
            ]
        },
        {
            "positions": [
                -0.2395235208204174,
                -1.4100706818066304,
                2.1682531105617886,
                -1.328994277537194,
                0.37105326581537135,
                -2.306256389673506
            ]
        },
        {
            "positions": [
                -0.17919643523766834,
                -1.3663158107646292,
                2.1379275467519334,
                -1.2485712914537292,
                0.3311682822117804,
                -2.443329349960406
            ]
        },
        {
            "positions": [
                -0.1188693496549193,
                -1.3225609397226277,
                2.1076019829420787,
                -1.1681483053702644,
                0.2912832986081894,
                -2.580402310247306
            ]
        },
        {
            "positions": [
                -0.05854226407217025,
                -1.2788060686806264,
                2.0772764191322235,
                -1.0877253192867997,
                0.2513983150045984,
                -2.717475270534206
            ]
        },
        {
            "positions": [
                0.0017848215105787935,
                -1.2350511976386251,
                2.0469508553223683,
                -1.007302333203335,
                0.21151333140100748,
                -2.8545482308211056
            ]
        },
        {
            "positions": [
                0.06211190709332787,
                -1.1912963265966237,
                2.016625291512513,
                -0.9268793471198702,
                0.17162834779741648,
                -2.9916211911080053
            ]
        },
        {
            "positions": [
                0.12243899267607689,
                -1.1475414555546224,
                1.9862997277026582,
                -0.8464563610364055,
                0.1317433641938255,
                -3.1286941513949054
            ]
        }
    ]
}