{
    "goal": {
        "global_pose": {
            "orientation": {
                "w": 0.7047431468963623,
                "x": -0.7094548344612122,
                "y": 0.0024358443915843964,
                "z": -0.0022348060738295317
            },
            "position": {
                "x": 0.6094750761985779,
                "y": 0.3671506643295288,
                "z": 0.19426114857196808
            }
        },
        "name": "move_to_magneteinheit_A"
    },
    "id": "SPARStwo_move_to_magneteinheit_A_73",
    "joint_names": [
        "shoulder_pan_joint",
        "shoulder_lift_joint",
        "elbow_joint",
        "wrist_1_joint",
        "wrist_2_joint",
        "wrist_3_joint"
    ],
    "metrics": {
        "cart_traj_len": 1.2408858278145103,
        "distance_elbow_joint": 0.12460094451689674,
        "distance_shoulder_lift_joint": 0.753864615248862,
        "distance_shoulder_pan_joint": 1.241441701807243,
        "distance_wrist_1_joint": 0.7625356912708564,
        "distance_wrist_2_joint": 2.341694402552112,
        "distance_wrist_3_joint": 4.260155042215125,
        "smoothness": 0.2654859374602802,
        "time": 5.017832609,
        "traj_len": 3.079657837749365,
        "weighted_distance": 4.5944349571916145
    },
    "planner": "SPARStwo",
    "start": {
        "state": {
            "elbow_joint": 1.919643534880228,
            "shoulder_lift_joint": -1.8972525353963687,
            "shoulder_pan_joint": -1.1188672234189438,
            "wrist_1_joint": -1.5931878212786155,
            "wrist_2_joint": 1.5706036197970081,
            "wrist_3_joint": 1.118896926603594
        }
    },
    "waypoints": [
        {
            "positions": [
                -1.1188672234189438,
                -1.8972525353963687,
                1.919643534880228,
                -1.5931878212786155,
                1.5706036197970081,
                1.118896926603594
            ]
        },
        {
            "positions": [
                -1.0814599158502802,
                -1.8634598651768381,
                1.9179711032957352,
                -1.5584518984401128,
                1.4709845008915732,
                0.937081091857078
            ]
        },
        {
            "positions": [
                -1.0440526082816164,
                -1.8296671949573076,
                1.9162986717112422,
                -1.5237159756016099,
                1.371365381986138,
                0.755265257110562
            ]
        },
        {
            "positions": [
                -1.0066453007129528,
                -1.795874524737777,
                1.9146262401267493,
                -1.4889800527631072,
                1.271746263080703,
                0.5734494223640461
            ]
        },
        {
            "positions": [
                -0.969237993144289,
                -1.7620818545182466,
                1.9129538085422564,
                -1.4542441299246043,
                1.1721271441752679,
                0.3916335876175301
            ]
        },
        {
            "positions": [
                -0.9318306855756253,
                -1.728289184298716,
                1.9112813769577632,
                -1.4195082070861016,
                1.072508025269833,
                0.20981775287101412
            ]
        },
        {
            "positions": [
                -0.8944233780069617,
                -1.6944965140791854,
                1.9096089453732703,
                -1.3847722842475987,
                0.9728889063643978,
                0.02800191812449815
            ]
        },
        {
            "positions": [
                -0.8570160704382979,
                -1.6607038438596549,
                1.9079365137887774,
                -1.350036361409096,
                0.8732697874589628,
                -0.15381391662201782
            ]
        },
        {
            "positions": [
                -0.8196087628696342,
                -1.6269111736401243,
                1.9062640822042844,
                -1.3153004385705933,
                0.7736506685535278,
                -0.3356297513685338
            ]
        },
        {
            "positions": [
                -0.7822014553009705,
                -1.5931185034205937,
                1.9045916506197915,
                -1.2805645157320904,
                0.6740315496480928,
                -0.5174455861150498
            ]
        },
        {
            "positions": [
                -0.7447941477323068,
                -1.559325833201063,
                1.9029192190352986,
                -1.2458285928935877,
                0.5744124307426577,
                -0.6992614208615657
            ]
        },
        {
            "positions": [
                -0.7073868401636431,
                -1.5255331629815325,
                1.9012467874508057,
                -1.2110926700550848,
                0.4747933118372225,
                -0.8810772556080819
            ]
        },
        {
            "positions": [
                -0.6699795325949794,
                -1.491740492762002,
                1.8995743558663127,
                -1.1763567472165821,
                0.37517419293178755,
                -1.0628930903545977
            ]
        },
        {
            "positions": [
                -0.6325722250263157,
                -1.4579478225424714,
                1.8979019242818198,
                -1.1416208243780792,
                0.2755550740263524,
                -1.2447089251011139
            ]
        },
        {
            "positions": [
                -0.595164917457652,
                -1.4241551523229408,
                1.8962294926973269,
                -1.1068849015395765,
                0.17593595512091742,
                -1.4265247598476296
            ]
        },
        {
            "positions": [
                -0.5577576098889883,
                -1.3903624821034102,
                1.8945570611128337,
                -1.0721489787010738,
                0.07631683621548246,
                -1.6083405945941458
            ]
        },
        {
            "positions": [
                -0.5203503023203246,
                -1.3565698118838798,
                1.8928846295283408,
                -1.037413055862571,
                -0.02330228268995249,
                -1.7901564293406615
            ]
        },
        {
            "positions": [
                -0.4829429947516609,
                -1.3227771416643492,
                1.8912121979438479,
                -1.0026771330240682,
                -0.12292140159538767,
                -1.9719722640871777
            ]
        },
        {
            "positions": [
                -0.4455356871829972,
                -1.2889844714448186,
                1.889539766359355,
                -0.9679412101855654,
                -0.22254052050082263,
                -2.1537880988336937
            ]
        },
        {
            "positions": [
                -0.40812837961433346,
                -1.255191801225288,
                1.887867334774862,
                -0.9332052873470627,
                -0.32215963940625775,
                -2.3356039335802095
            ]
        },
        {
            "positions": [
                -0.31967790328056134,
                -1.2365578210456578,
                1.9033381255101172,
                -0.9161130944571787,
                -0.24733778218144997,
                -2.46987963058543
            ]
        },
        {
            "positions": [
                -0.2312274269467892,
                -1.2179238408660276,
                1.9188089162453723,
                -0.8990209015672948,
                -0.17251592495664217,
                -2.6041553275906497
            ]
        },
        {
            "positions": [
                -0.14277695061301704,
                -1.1992898606863975,
                1.9342797069806275,
                -0.8819287086774108,
                -0.09769406773183437,
                -2.73843102459587
            ]
        },
        {
            "positions": [
                -0.05432647427924492,
                -1.1806558805067673,
                1.9497504977158824,
                -0.864836515787527,
                -0.02287221050702659,
                -2.87270672160109
            ]
        },
        {
            "positions": [
                0.03412400205452726,
                -1.162021900327137,
                1.9652212884511375,
                -0.847744322897643,
                0.05194964671778124,
                -3.0069824186063103
            ]
        },
        {
            "positions": [
                0.12257447838829937,
                -1.1433879201475068,
                1.9806920791863927,
                -0.8306521300077591,
                0.126771503942589,
                -3.1412581156115307
            ]
        }
    ]
}