{
    "goal": {
        "global_pose": {
            "orientation": {
                "w": 0.5084816217422485,
                "x": -0.49083608388900757,
                "y": 0.5182115435600281,
                "z": -0.4816462993621826
            },
            "position": {
                "x": 0.5540239810943604,
                "y": 0.030875300988554955,
                "z": 0.16403168439865112
            }
        },
        "name": "move_to_storage_A"
    },
    "id": "SPARStwo_move_to_storage_A_38",
    "joint_names": [
        "shoulder_pan_joint",
        "shoulder_lift_joint",
        "elbow_joint",
        "wrist_1_joint",
        "wrist_2_joint",
        "wrist_3_joint"
    ],
    "metrics": {
        "cart_traj_len": 0.3534858944808093,
        "distance_elbow_joint": 0.45102345551634926,
        "distance_shoulder_lift_joint": 0.23374171978405123,
        "distance_shoulder_pan_joint": 0.4601055625403693,
        "distance_wrist_1_joint": 0.2497928495283438,
        "distance_wrist_2_joint": 1.1083994267562205,
        "distance_wrist_3_joint": 0.1032541650106924,
        "smoothness": 4.440892098500626e-16,
        "time": 5.005200838,
        "traj_len": 1.6144092353353365,
        "weighted_distance": 2.0423069762995905
    },
    "planner": "SPARStwo",
    "start": {
        "state": {
            "elbow_joint": 1.9715477243005601,
            "shoulder_lift_joint": -1.1394853015351272,
            "shoulder_pan_joint": 0.12281154014795169,
            "wrist_1_joint": -0.7804696478968182,
            "wrist_2_joint": 0.12958648046900423,
            "wrist_3_joint": -3.192491284697111
        }
    },
    "waypoints": [
        {
            "positions": [
                0.12281154014795169,
                -1.1394853015351272,
                1.9715477243005601,
                -0.7804696478968182,
                0.12958648046900423,
                -3.192491284697111
            ]
        },
        {
            "positions": [
                0.05708217407075608,
                -1.1728769757899917,
                2.0359796465171813,
                -0.8161543406865815,
                0.28792925571989286,
                -3.1777406896955838
            ]
        },
        {
            "positions": [
                -0.008647192006439527,
                -1.206268650044856,
                2.100411568733803,
                -0.8518390334763449,
                0.4462720309707815,
                -3.1629900946940563
            ]
        },
        {
            "positions": [
                -0.07437655808363512,
                -1.2396603242997206,
                2.164843490950424,
                -0.8875237262661083,
                0.6046148062216701,
                -3.148239499692529
            ]
        },
        {
            "positions": [
                -0.14010592416083073,
                -1.273051998554585,
                2.2292754131670454,
                -0.9232084190558718,
                0.7629575814725588,
                -3.133488904691001
            ]
        },
        {
            "positions": [
                -0.20583529023802638,
                -1.3064436728094495,
                2.293707335383667,
                -0.9588931118456352,
                0.9213003567234475,
                -3.1187383096894736
            ]
        },
        {
            "positions": [
                -0.2715646563152219,
                -1.3398353470643138,
                2.358139257600288,
                -0.9945778046353986,
                1.079643131974336,
                -3.103987714687946
            ]
        },
        {
            "positions": [
                -0.33729402239241757,
                -1.3732270213191784,
                2.4225711798169094,
                -1.030262497425162,
                1.2379859072252248,
                -3.089237119686419
            ]
        }
    ]
}