{
    "goal": {
        "global_pose": {
            "orientation": {
                "w": 0.5084816217422485,
                "x": -0.49083608388900757,
                "y": 0.5182115435600281,
                "z": -0.4816462993621826
            },
            "position": {
                "x": 0.5540239810943604,
                "y": 0.030875300988554955,
                "z": 0.16403168439865112
            }
        },
        "name": "move_to_storage_A"
    },
    "id": "SPARS_move_to_storage_A_37",
    "joint_names": [
        "shoulder_pan_joint",
        "shoulder_lift_joint",
        "elbow_joint",
        "wrist_1_joint",
        "wrist_2_joint",
        "wrist_3_joint"
    ],
    "metrics": {
        "cart_traj_len": 0.35373940315782926,
        "distance_elbow_joint": 0.4482011728628583,
        "distance_shoulder_lift_joint": 0.23410559445921475,
        "distance_shoulder_pan_joint": 0.4625073291303532,
        "distance_wrist_1_joint": 0.2365914463749762,
        "distance_wrist_2_joint": 1.0999019855548742,
        "distance_wrist_3_joint": 0.1005701669771013,
        "smoothness": 8.881784213138256e-16,
        "time": 5.003982437,
        "traj_len": 1.606822235145935,
        "weighted_distance": 2.0296579665656553
    },
    "planner": "SPARS",
    "start": {
        "state": {
            "elbow_joint": 1.9715477243005601,
            "shoulder_lift_joint": -1.1394853015351272,
            "shoulder_pan_joint": 0.12281154014795169,
            "wrist_1_joint": -0.7804696478968182,
            "wrist_2_joint": 0.12958648046900423,
            "wrist_3_joint": -3.192491284697111
        }
    },
    "waypoints": [
        {
            "positions": [
                0.12281154014795169,
                -1.1394853015351272,
                1.9715477243005601,
                -0.7804696478968182,
                0.12958648046900423,
                -3.192491284697111
            ]
        },
        {
            "positions": [
                0.05673906455790123,
                -1.1729289578864435,
                2.0355764632809685,
                -0.8142684259503862,
                0.286715335548272,
                -3.178124117986097
            ]
        },
        {
            "positions": [
                -0.009333411032149228,
                -1.20637261423776,
                2.099605202261377,
                -0.8480672040039542,
                0.4438441906275397,
                -3.163756951275082
            ]
        },
        {
            "positions": [
                -0.07540588662219967,
                -1.2398162705890763,
                2.1636339412417853,
                -0.8818659820575222,
                0.6009730457068074,
                -3.1493897845640677
            ]
        },
        {
            "positions": [
                -0.14147836221225013,
                -1.2732599269403928,
                2.2276626802221933,
                -0.9156647601110903,
                0.7581019007860752,
                -3.1350226178530534
            ]
        },
        {
            "positions": [
                -0.2075508378023006,
                -1.306703583291709,
                2.2916914192026017,
                -0.9494635381646583,
                0.915230755865343,
                -3.120655451142039
            ]
        },
        {
            "positions": [
                -0.273623313392351,
                -1.3401472396430254,
                2.35572015818301,
                -0.9832623162182264,
                1.0723596109446105,
                -3.1062882844310242
            ]
        },
        {
            "positions": [
                -0.3396957889824015,
                -1.373590895994342,
                2.4197488971634185,
                -1.0170610942717944,
                1.2294884660238783,
                -3.09192111772001
            ]
        }
    ]
}