{
    "goal": {
        "global_pose": {
            "orientation": {
                "w": 0.7047431468963623,
                "x": -0.7094548344612122,
                "y": 0.0024358443915843964,
                "z": -0.0022348060738295317
            },
            "position": {
                "x": 0.6094750761985779,
                "y": 0.3671506643295288,
                "z": 0.19426114857196808
            }
        },
        "name": "move_to_magneteinheit_A"
    },
    "id": "SPARStwo_move_to_magneteinheit_A_47",
    "joint_names": [
        "shoulder_pan_joint",
        "shoulder_lift_joint",
        "elbow_joint",
        "wrist_1_joint",
        "wrist_2_joint",
        "wrist_3_joint"
    ],
    "metrics": {
        "cart_traj_len": 1.7749682416092951,
        "distance_elbow_joint": 2.0175609433535513,
        "distance_shoulder_lift_joint": 0.7694020935066843,
        "distance_shoulder_pan_joint": 1.2417931593109393,
        "distance_wrist_1_joint": 1.389730304326143,
        "distance_wrist_2_joint": 1.4488561367547774,
        "distance_wrist_3_joint": 4.381893595042941,
        "smoothness": 0.22041200190124224,
        "time": 5.0192264920000005,
        "traj_len": 3.3539881085500336,
        "weighted_distance": 4.780335747984845
    },
    "planner": "SPARStwo",
    "start": {
        "state": {
            "elbow_joint": 1.919643534880228,
            "shoulder_lift_joint": -1.8972525353963687,
            "shoulder_pan_joint": -1.1188672234189438,
            "wrist_1_joint": -1.5931878212786155,
            "wrist_2_joint": 1.5706036197970081,
            "wrist_3_joint": 1.118896926603594
        }
    },
    "waypoints": [
        {
            "positions": [
                -1.1188672234189438,
                -1.8972525353963687,
                1.919643534880228,
                -1.5931878212786155,
                1.5706036197970081,
                1.118896926603594
            ]
        },
        {
            "positions": [
                -1.109691687025428,
                -1.878218801921685,
                1.8644859121720407,
                -1.5295631126438063,
                1.5477325559121535,
                0.900094998257899
            ]
        },
        {
            "positions": [
                -1.100516150631912,
                -1.859185068447001,
                1.8093282894638536,
                -1.4659384040089969,
                1.5248614920272991,
                0.681293069912204
            ]
        },
        {
            "positions": [
                -1.0913406142383963,
                -1.8401513349723173,
                1.7541706667556665,
                -1.4023136953741877,
                1.5019904281424448,
                0.46249114156650895
            ]
        },
        {
            "positions": [
                -1.0821650778448806,
                -1.8211176014976334,
                1.699013044047479,
                -1.3386889867393785,
                1.4791193642575902,
                0.24368921322081394
            ]
        },
        {
            "positions": [
                -1.0729895414513648,
                -1.8020838680229496,
                1.6438554213392917,
                -1.2750642781045691,
                1.4562483003727356,
                0.02488728487511893
            ]
        },
        {
            "positions": [
                -1.063814005057849,
                -1.7830501345482659,
                1.5886977986311046,
                -1.21143956946976,
                1.4333772364878812,
                -0.19391464347057608
            ]
        },
        {
            "positions": [
                -1.054638468664333,
                -1.764016401073582,
                1.5335401759229175,
                -1.1478148608349508,
                1.4105061726030268,
                -0.4127165718162711
            ]
        },
        {
            "positions": [
                -1.0454629322708173,
                -1.7449826675988982,
                1.47838255321473,
                -1.0841901522001414,
                1.3876351087181722,
                -0.6315185001619661
            ]
        },
        {
            "positions": [
                -1.0362873958773016,
                -1.7259489341242142,
                1.4232249305065428,
                -1.0205654435653322,
                1.3647640448333176,
                -0.8503204285076611
            ]
        },
        {
            "positions": [
                -1.0271118594837856,
                -1.7069152006495305,
                1.3680673077983556,
                -0.9569407349305229,
                1.3418929809484632,
                -1.069122356853356
            ]
        },
        {
            "positions": [
                -1.0179363230902698,
                -1.6878814671748468,
                1.3129096850901685,
                -0.8933160262957136,
                1.3190219170636088,
                -1.2879242851990511
            ]
        },
        {
            "positions": [
                -1.008760786696754,
                -1.6688477337001628,
                1.2577520623819811,
                -0.8296913176609044,
                1.2961508531787542,
                -1.5067262135447461
            ]
        },
        {
            "positions": [
                -0.9995852503032383,
                -1.649814000225479,
                1.2025944396737938,
                -0.7660666090260951,
                1.2732797892938996,
                -1.7255281418904411
            ]
        },
        {
            "positions": [
                -0.9904097139097224,
                -1.6307802667507953,
                1.1474368169656066,
                -0.702441900391286,
                1.2504087254090452,
                -1.9443300702361361
            ]
        },
        {
            "positions": [
                -0.9812341775162066,
                -1.6117465332761114,
                1.0922791942574195,
                -0.6388171917564767,
                1.2275376615241909,
                -2.1631319985818314
            ]
        },
        {
            "positions": [
                -0.9720586411226908,
                -1.5927127998014277,
                1.0371215715492321,
                -0.5751924831216675,
                1.2046665976393363,
                -2.381933926927526
            ]
        },
        {
            "positions": [
                -0.962883104729175,
                -1.573679066326744,
                0.9819639488410449,
                -0.5115677744868581,
                1.1817955337544817,
                -2.6007358552732214
            ]
        },
        {
            "positions": [
                -0.9537075683356592,
                -1.55464533285206,
                0.9268063261328576,
                -0.447943065852049,
                1.1589244698696273,
                -2.8195377836189164
            ]
        },
        {
            "positions": [
                -0.8558317952240542,
                -1.5158457973100259,
                1.0199630292788742,
                -0.4701690248429196,
                1.0646356528853185,
                -2.8598522276935006
            ]
        },
        {
            "positions": [
                -0.7579560221124493,
                -1.4770462617679916,
                1.1131197324248905,
                -0.49239498383379016,
                0.9703468359010097,
                -2.900166671768085
            ]
        },
        {
            "positions": [
                -0.6600802490008444,
                -1.4382467262259575,
                1.2062764355709068,
                -0.5146209428246608,
                0.8760580189167009,
                -2.9404811158426694
            ]
        },
        {
            "positions": [
                -0.5622044758892393,
                -1.3994471906839234,
                1.2994331387169233,
                -0.5368469018155313,
                0.7817692019323921,
                -2.980795559917254
            ]
        },
        {
            "positions": [
                -0.46432870277763444,
                -1.3606476551418893,
                1.3925898418629399,
                -0.5590728608064018,
                0.6874803849480834,
                -3.021110003991838
            ]
        },
        {
            "positions": [
                -0.3664529296660295,
                -1.321848119599855,
                1.4857465450089562,
                -0.5812988197972724,
                0.5931915679637746,
                -3.0614244480664228
            ]
        },
        {
            "positions": [
                -0.2685771565544245,
                -1.283048584057821,
                1.5789032481549727,
                -0.603524778788143,
                0.4989027509794658,
                -3.101738892141007
            ]
        },
        {
            "positions": [
                -0.1707013834428195,
                -1.2442490485157869,
                1.672059951300989,
                -0.6257507377790136,
                0.404613933995157,
                -3.1420533362155916
            ]
        },
        {
            "positions": [
                -0.0728256103312146,
                -1.2054495129737526,
                1.7652166544470056,
                -0.6479766967698841,
                0.3103251170108482,
                -3.1823677802901758
            ]
        },
        {
            "positions": [
                0.025050162780390295,
                -1.1666499774317185,
                1.8583733575930221,
                -0.6702026557607548,
                0.2160363000265395,
                -3.2226822243647604
            ]
        },
        {
            "positions": [
                0.12292593589199531,
                -1.1278504418896844,
                1.9515300607390385,
                -0.6924286147516253,
                0.12174748304223076,
                -3.2629966684393445
            ]
        }
    ]
}