{
    "goal": {
        "global_pose": {
            "orientation": {
                "w": 0.5084816217422485,
                "x": -0.49083608388900757,
                "y": 0.5182115435600281,
                "z": -0.4816462993621826
            },
            "position": {
                "x": 0.5540239810943604,
                "y": 0.030875300988554955,
                "z": 0.16403168439865112
            }
        },
        "name": "move_to_storage_A"
    },
    "id": "SPARStwo_move_to_storage_A_60",
    "joint_names": [
        "shoulder_pan_joint",
        "shoulder_lift_joint",
        "elbow_joint",
        "wrist_1_joint",
        "wrist_2_joint",
        "wrist_3_joint"
    ],
    "metrics": {
        "cart_traj_len": 0.3531567325352376,
        "distance_elbow_joint": 0.45527010635795717,
        "distance_shoulder_lift_joint": 0.23297244138277984,
        "distance_shoulder_pan_joint": 0.4636138830383728,
        "distance_wrist_1_joint": 0.26358268220411285,
        "distance_wrist_2_joint": 1.0913427106835583,
        "distance_wrist_3_joint": 0.093463904542046,
        "smoothness": 2.2204460668324854e-16,
        "time": 5.00114415,
        "traj_len": 1.6125277449423396,
        "weighted_distance": 2.0352147135328473
    },
    "planner": "SPARStwo",
    "start": {
        "state": {
            "elbow_joint": 1.9715477243005601,
            "shoulder_lift_joint": -1.1394853015351272,
            "shoulder_pan_joint": 0.12281154014795169,
            "wrist_1_joint": -0.7804696478968182,
            "wrist_2_joint": 0.12958648046900423,
            "wrist_3_joint": -3.192491284697111
        }
    },
    "waypoints": [
        {
            "positions": [
                0.12281154014795169,
                -1.1394853015351272,
                1.9715477243005601,
                -0.7804696478968182,
                0.12958648046900423,
                -3.192491284697111
            ]
        },
        {
            "positions": [
                0.056580985428184155,
                -1.1727670788755242,
                2.0365863109231253,
                -0.81812431678312,
                0.28549258199522687,
                -3.1791392983339617
            ]
        },
        {
            "positions": [
                -0.00964956929158338,
                -1.2060488562159215,
                2.101624897545691,
                -0.8557789856694218,
                0.44139868352144945,
                -3.165787311970812
            ]
        },
        {
            "positions": [
                -0.07588012401135093,
                -1.2393306335563186,
                2.166663484168256,
                -0.8934336545557237,
                0.597304785047672,
                -3.1524353256076627
            ]
        },
        {
            "positions": [
                -0.14211067873111843,
                -1.2726124108967156,
                2.2317020707908215,
                -0.9310883234420255,
                0.7532108865738947,
                -3.1390833392445137
            ]
        },
        {
            "positions": [
                -0.208341233450886,
                -1.305894188237113,
                2.2967406574133866,
                -0.9687429923283273,
                0.9091169881001173,
                -3.125731352881364
            ]
        },
        {
            "positions": [
                -0.27457178817065353,
                -1.33917596557751,
                2.3617792440359517,
                -1.0063976612146293,
                1.0650230896263397,
                -3.1123793665182147
            ]
        },
        {
            "positions": [
                -0.3408023428904211,
                -1.372457742917907,
                2.4268178306585173,
                -1.044052330100931,
                1.2209291911525624,
                -3.099027380155065
            ]
        }
    ]
}