{
    "goal": {
        "global_pose": {
            "orientation": {
                "w": 0.7047431468963623,
                "x": -0.7094548344612122,
                "y": 0.0024358443915843964,
                "z": -0.0022348060738295317
            },
            "position": {
                "x": 0.6094750761985779,
                "y": 0.3671506643295288,
                "z": 0.19426114857196808
            }
        },
        "name": "move_to_magneteinheit_A"
    },
    "id": "SPARS_move_to_magneteinheit_A_13",
    "joint_names": [
        "shoulder_pan_joint",
        "shoulder_lift_joint",
        "elbow_joint",
        "wrist_1_joint",
        "wrist_2_joint",
        "wrist_3_joint"
    ],
    "metrics": {
        "cart_traj_len": 3.611532097635216,
        "distance_elbow_joint": 3.9294055211563235,
        "distance_shoulder_lift_joint": 0.46122981776570304,
        "distance_shoulder_pan_joint": 2.7450635650264243,
        "distance_wrist_1_joint": 3.5217670564406287,
        "distance_wrist_2_joint": 1.4645641543475958,
        "distance_wrist_3_joint": 1.8920916037680313,
        "smoothness": 0.10391432514514594,
        "time": 5.042259877,
        "traj_len": 3.743544005151363,
        "weighted_distance": 4.773325479875533
    },
    "planner": "SPARS",
    "start": {
        "state": {
            "elbow_joint": -1.919618573717145,
            "shoulder_lift_joint": -1.2443395971678275,
            "shoulder_pan_joint": 2.6996025300909787,
            "wrist_1_joint": -1.548550951253194,
            "wrist_2_joint": -1.5709469090946802,
            "wrist_3_joint": 0.4420197732051276
        }
    },
    "waypoints": [
        {
            "positions": [
                2.6996025300909787,
                -1.2443395971678275,
                -1.919618573717145,
                -1.548550951253194,
                -1.5709469090946802,
                0.4420197732051276
            ]
        },
        {
            "positions": [
                2.585056342554301,
                -1.2402563759234397,
                -1.7854937469830021,
                -1.5314314823076531,
                -1.5085717247935069,
                0.3898789895542405
            ]
        },
        {
            "positions": [
                2.470510155017624,
                -1.236173154679052,
                -1.651368920248859,
                -1.514312013362112,
                -1.4461965404923336,
                0.33773820590335335
            ]
        },
        {
            "positions": [
                2.3559639674809465,
                -1.2320899334346642,
                -1.5172440935147162,
                -1.497192544416571,
                -1.3838213561911603,
                0.28559742225246626
            ]
        },
        {
            "positions": [
                2.2414177799442694,
                -1.2280067121902765,
                -1.3831192667805734,
                -1.4800730754710298,
                -1.321446171889987,
                0.23345663860157917
            ]
        },
        {
            "positions": [
                2.126871592407592,
                -1.2239234909458887,
                -1.2489944400464306,
                -1.462953606525489,
                -1.2590709875888138,
                0.18131585495069208
            ]
        },
        {
            "positions": [
                2.0123254048709147,
                -1.219840269701501,
                -1.1148696133122877,
                -1.4458341375799477,
                -1.1966958032876405,
                0.12917507129980493
            ]
        },
        {
            "positions": [
                1.8977792173342372,
                -1.2157570484571132,
                -0.9807447865781447,
                -1.4287146686344068,
                -1.134320618986467,
                0.07703428764891779
            ]
        },
        {
            "positions": [
                1.7832330297975598,
                -1.2116738272127254,
                -0.8466199598440018,
                -1.4115951996888656,
                -1.0719454346852937,
                0.024893503998030753
            ]
        },
        {
            "positions": [
                1.6686868422608825,
                -1.2075906059683377,
                -0.7124951331098588,
                -1.3944757307433246,
                -1.0095702503841204,
                -0.027247279652856393
            ]
        },
        {
            "positions": [
                1.5541406547242052,
                -1.20350738472395,
                -0.5783703063757162,
                -1.3773562617977837,
                -0.9471950660829471,
                -0.07938806330374343
            ]
        },
        {
            "positions": [
                1.4395944671875276,
                -1.1994241634795622,
                -0.4442454796415731,
                -1.3602367928522425,
                -0.8848198817817738,
                -0.13152884695463057
            ]
        },
        {
            "positions": [
                1.3250482796508505,
                -1.1953409422351746,
                -0.3101206529074303,
                -1.3431173239067016,
                -0.8224446974806006,
                -0.18366963060551772
            ]
        },
        {
            "positions": [
                1.2105020921141731,
                -1.1912577209907869,
                -0.17599582617328746,
                -1.3259978549611604,
                -0.7600695131794273,
                -0.23581041425640475
            ]
        },
        {
            "positions": [
                1.0959559045774956,
                -1.187174499746399,
                -0.04187099943914441,
                -1.3088783860156195,
                -0.6976943288782539,
                -0.287951197907292
            ]
        },
        {
            "positions": [
                0.9814097170408183,
                -1.1830912785020113,
                0.09225382729499843,
                -1.2917589170700783,
                -0.6353191445770806,
                -0.34009198155817905
            ]
        },
        {
            "positions": [
                0.8668635295041409,
                -1.1790080572576236,
                0.22637865402914126,
                -1.2746394481245373,
                -0.5729439602759073,
                -0.3922327652090661
            ]
        },
        {
            "positions": [
                0.7523173419674636,
                -1.1749248360132358,
                0.3605034807632841,
                -1.2575199791789964,
                -0.5105687759747342,
                -0.4443735488599532
            ]
        },
        {
            "positions": [
                0.6377711544307862,
                -1.170841614768848,
                0.49462830749742737,
                -1.2404005102334552,
                -0.44819359167356065,
                -0.4965143325108404
            ]
        },
        {
            "positions": [
                0.5232249668941087,
                -1.1667583935244603,
                0.6287531342315702,
                -1.2232810412879143,
                -0.3858184073723874,
                -0.5486551161617275
            ]
        },
        {
            "positions": [
                0.4086787793574316,
                -1.1626751722800726,
                0.7628779609657126,
                -1.206161572342373,
                -0.3234432230712141,
                -0.6007958998126144
            ]
        },
        {
            "positions": [
                0.294132591820754,
                -1.1585919510356848,
                0.8970027876998554,
                -1.1890421033968321,
                -0.26106803877004103,
                -0.6529366834635015
            ]
        },
        {
            "positions": [
                0.17958640428407646,
                -1.154508729791297,
                1.0311276144339987,
                -1.171922634451291,
                -0.19869285446886753,
                -0.7050774671143887
            ]
        },
        {
            "positions": [
                0.06504021674739949,
                -1.1504255085469093,
                1.1652524411681418,
                -1.15480316550575,
                -0.13631767016769433,
                -0.7572182507652758
            ]
        },
        {
            "positions": [
                0.06069100906444002,
                -1.1216018142946167,
                1.2285695742373297,
                -0.9248023804659142,
                -0.13882229600739487,
                -0.7175099356378895
            ]
        },
        {
            "positions": [
                0.05634180138148056,
                -1.0927781200423243,
                1.2918867073065177,
                -0.6948015954260783,
                -0.14132692184709542,
                -0.6778016205105032
            ]
        },
        {
            "positions": [
                0.05199259369852109,
                -1.063954425790032,
                1.3552038403757056,
                -0.46480081038624244,
                -0.14383154768679596,
                -0.6380933053831168
            ]
        },
        {
            "positions": [
                0.04764338601556163,
                -1.0351307315377394,
                1.4185209734448936,
                -0.23480002534640665,
                -0.14633617352649653,
                -0.5983849902557306
            ]
        },
        {
            "positions": [
                0.04329417833260216,
                -1.0063070372854468,
                1.4818381065140815,
                -0.00479924030657064,
                -0.14884079936619707,
                -0.5586766751283441
            ]
        },
        {
            "positions": [
                0.038944970649642696,
                -0.9774833430331544,
                1.5451552395832695,
                0.22520154473326515,
                -0.1513454252058976,
                -0.5189683600009578
            ]
        },
        {
            "positions": [
                0.043385063228305674,
                -0.9520784895826537,
                1.603682191101276,
                0.44223055397227184,
                -0.1512508702355228,
                -0.47039434463355095
            ]
        },
        {
            "positions": [
                0.04782515580696865,
                -0.9266736361321531,
                1.6622091426192822,
                0.6592595632112785,
                -0.151156315265148,
                -0.4218203292661441
            ]
        },
        {
            "positions": [
                0.052265248385631624,
                -0.9012687826816524,
                1.7207360941372887,
                0.8762885724502854,
                -0.1510617602947732,
                -0.37324631389873725
            ]
        },
        {
            "positions": [
                0.05670534096429461,
                -0.8758639292311517,
                1.779263045655295,
                1.0933175816892922,
                -0.15096720532439836,
                -0.3246722985313304
            ]
        },
        {
            "positions": [
                0.06114543354295758,
                -0.8504590757806512,
                1.8377899971733014,
                1.310346590928299,
                -0.15087265035402356,
                -0.27609828316392354
            ]
        },
        {
            "positions": [
                0.06558552612162055,
                -0.8250542223301505,
                1.8963169486913076,
                1.5273756001673056,
                -0.15077809538364875,
                -0.2275242677965167
            ]
        },
        {
            "positions": [
                0.07002561870028354,
                -0.7996493688796498,
                1.954843900209314,
                1.7444046094063124,
                -0.15068354041327395,
                -0.17895025242910984
            ]
        },
        {
            "positions": [
                0.09668829746750596,
                -0.7913795741408871,
                1.9823154238242464,
                1.8588103572968735,
                -0.14356090261838259,
                -0.12165746169837863
            ]
        },
        {
            "positions": [
                0.12335097623472839,
                -0.7831097794021245,
                2.0097869474391787,
                1.9732161051874348,
                -0.13643826482349122,
                -0.06436467096764743
            ]
        }
    ]
}{
    "goal": {
        "global_pose": {
            "orientation": {
                "w": 0.7047431468963623,
                "x": -0.7094548344612122,
                "y": 0.0024358443915843964,
                "z": -0.0022348060738295317
            },
            "position": {
                "x": 0.6094750761985779,
                "y": 0.3671506643295288,
                "z": 0.19426114857196808
            }
        },
        "name": "move_to_magneteinheit_A"
    },
    "id": "SPARS_move_to_magneteinheit_A_13",
    "joint_names": [
        "shoulder_pan_joint",
        "shoulder_lift_joint",
        "elbow_joint",
        "wrist_1_joint",
        "wrist_2_joint",
        "wrist_3_joint"
    ],
    "metrics": {
        "cart_traj_len": 2.7978487765059517,
        "distance_elbow_joint": 4.329107607357843,
        "distance_shoulder_lift_joint": 1.379830832067782,
        "distance_shoulder_pan_joint": 2.29267996737725,
        "distance_wrist_1_joint": 3.4754515778645465,
        "distance_wrist_2_joint": 1.431648912119631,
        "distance_wrist_3_joint": 4.378802497685465,
        "smoothness": 0.3631179948506715,
        "time": 5.078497438,
        "traj_len": 4.157826522893002,
        "weighted_distance": 5.563472555861818
    },
    "planner": "SPARS",
    "start": {
        "state": {
            "elbow_joint": 1.919643534880228,
            "shoulder_lift_joint": -1.8972525353963687,
            "shoulder_pan_joint": -1.1188672234189438,
            "wrist_1_joint": -1.5931878212786155,
            "wrist_2_joint": 1.5706036197970081,
            "wrist_3_joint": 1.118896926603594
        }
    },
    "waypoints": [
        {
            "positions": [
                -1.1188672234189438,
                -1.8972525353963687,
                1.919643534880228,
                -1.5931878212786155,
                1.5706036197970081,
                1.118896926603594
            ]
        },
        {
            "positions": [
                -1.1451524218971472,
                -1.8436631781845954,
                1.8124245866799622,
                -1.4842899046563642,
                1.549542459862545,
                1.0405309567117786
            ]
        },
        {
            "positions": [
                -1.1714376203753507,
                -1.7900738209728222,
                1.7052056384796963,
                -1.3753919880341132,
                1.5284812999280815,
                0.9621649868199634
            ]
        },
        {
            "positions": [
                -1.197722818853554,
                -1.7364844637610488,
                1.5979866902794306,
                -1.266494071411862,
                1.5074201399936182,
                0.8837990169281482
            ]
        },
        {
            "positions": [
                -1.2240080173317576,
                -1.6828951065492754,
                1.4907677420791647,
                -1.1575961547896108,
                1.4863589800591548,
                0.8054330470363329
            ]
        },
        {
            "positions": [
                -1.250293215809961,
                -1.6293057493375023,
                1.3835487938788988,
                -1.0486982381673595,
                1.4652978201246916,
                0.7270670771445178
            ]
        },
        {
            "positions": [
                -1.2765784142881642,
                -1.5757163921257291,
                1.276329845678633,
                -0.9398003215451085,
                1.4442366601902283,
                0.6487011072527025
            ]
        },
        {
            "positions": [
                -1.3028636127663678,
                -1.5221270349139557,
                1.169110897478367,
                -0.8309024049228574,
                1.423175500255765,
                0.5703351373608873
            ]
        },
        {
            "positions": [
                -1.329148811244571,
                -1.4685376777021824,
                1.0618919492781012,
                -0.722004488300606,
                1.4021143403213017,
                0.49196916746907193
            ]
        },
        {
            "positions": [
                -1.3554340097227746,
                -1.4149483204904092,
                0.9546730010778354,
                -0.6131065716783549,
                1.3810531803868382,
                0.4136031975772567
            ]
        },
        {
            "positions": [
                -1.381719208200978,
                -1.3613589632786358,
                0.8474540528775696,
                -0.5042086550561038,
                1.359992020452375,
                0.3352372276854415
            ]
        },
        {
            "positions": [
                -1.4080044066791815,
                -1.3077696060668624,
                0.7402351046773037,
                -0.39531073843385256,
                1.3389308605179115,
                0.2568712577936262
            ]
        },
        {
            "positions": [
                -1.4342896051573848,
                -1.2541802488550893,
                0.633016156477038,
                -0.28641282181160155,
                1.3178697005834483,
                0.17850528790181108
            ]
        },
        {
            "positions": [
                -1.4605748036355881,
                -1.200590891643316,
                0.5257972082767719,
                -0.1775149051893503,
                1.296808540648985,
                0.10013931800999565
            ]
        },
        {
            "positions": [
                -1.4868600021137914,
                -1.1470015344315427,
                0.4185782600765062,
                -0.0686169885670993,
                1.2757473807145217,
                0.021773348118180547
            ]
        },
        {
            "positions": [
                -1.513145200591995,
                -1.0934121772197694,
                0.31135931187624033,
                0.040280928055152154,
                1.2546862207800584,
                -0.05659262177363478
            ]
        },
        {
            "positions": [
                -1.5394303990701985,
                -1.039822820007996,
                0.20414036367597443,
                0.1491788446774034,
                1.2336250608455952,
                -0.1349585916654501
            ]
        },
        {
            "positions": [
                -1.5657155975484018,
                -0.9862334627962228,
                0.09692141547570876,
                0.2580767612996544,
                1.2125639009111318,
                -0.2133245615572652
            ]
        },
        {
            "positions": [
                -1.5920007960266052,
                -0.9326441055844494,
                -0.010297532724557357,
                0.36697467792190563,
                1.1915027409766685,
                -0.2916905314490805
            ]
        },
        {
            "positions": [
                -1.6182859945048085,
                -0.8790547483726763,
                -0.11751648092482303,
                0.47587259454415665,
                1.1704415810422053,
                -0.3700565013408956
            ]
        },
        {
            "positions": [
                -1.644571192983012,
                -0.8254653911609029,
                -0.224735429125089,
                0.5847705111664079,
                1.1493804211077419,
                -0.44842247123271095
            ]
        },
        {
            "positions": [
                -1.5709471930741294,
                -0.8383005448205827,
                -0.13370506898540052,
                0.5307082926072613,
                1.10727934971481,
                -0.5655676003930926
            ]
        },
        {
            "positions": [
                -1.4973231931652469,
                -0.8511356984802626,
                -0.04267470884571206,
                0.47664607404811454,
                1.0651782783218782,
                -0.6827127295534742
            ]
        },
        {
            "positions": [
                -1.4236991932563643,
                -0.8639708521399424,
                0.048355651293976426,
                0.4225838554889679,
                1.0230772069289462,
                -0.7998578587138558
            ]
        },
        {
            "positions": [
                -1.3500751933474817,
                -0.8768060057996223,
                0.13938601143366489,
                0.3685216369298212,
                0.9809761355360145,
                -0.9170029878742374
            ]
        },
        {
            "positions": [
                -1.2764511934385991,
                -0.8896411594593021,
                0.2304163715733534,
                0.31445941837067454,
                0.9388750641430825,
                -1.0341481170346192
            ]
        },
        {
            "positions": [
                -1.2028271935297163,
                -0.9024763131189819,
                0.32144673171304183,
                0.26039719981152787,
                0.8967739927501507,
                -1.1512932461950007
            ]
        },
        {
            "positions": [
                -1.129203193620834,
                -0.9153114667786618,
                0.4124770918527304,
                0.2063349812523812,
                0.8546729213572188,
                -1.2684383753553825
            ]
        },
        {
            "positions": [
                -1.0555791937119512,
                -0.9281466204383416,
                0.5035074519924188,
                0.15227276269323453,
                0.812571849964287,
                -1.3855835045157638
            ]
        },
        {
            "positions": [
                -0.9819551938030686,
                -0.9409817740980215,
                0.5945378121321073,
                0.09821054413408786,
                0.7704707785713552,
                -1.5027286336761456
            ]
        },
        {
            "positions": [
                -0.908331193894186,
                -0.9538169277577013,
                0.6855681722717958,
                0.044148325574941194,
                0.7283697071784232,
                -1.6198737628365274
            ]
        },
        {
            "positions": [
                -0.8347071939853035,
                -0.9666520814173811,
                0.7765985324114842,
                -0.009913892984205419,
                0.6862686357854915,
                -1.7370188919969087
            ]
        },
        {
            "positions": [
                -0.7610831940764209,
                -0.979487235077061,
                0.8676288925511727,
                -0.06397611154335214,
                0.6441675643925595,
                -1.8541640211572905
            ]
        },
        {
            "positions": [
                -0.6874591941675383,
                -0.9923223887367408,
                0.9586592526908612,
                -0.11803833010249876,
                0.6020664929996277,
                -1.971309150317672
            ]
        },
        {
            "positions": [
                -0.6138351942586557,
                -1.0051575423964207,
                1.04968961283055,
                -0.17210054866164548,
                0.5599654216066957,
                -2.0884542794780536
            ]
        },
        {
            "positions": [
                -0.5402111943497732,
                -1.0179926960561005,
                1.1407199729702382,
                -0.2261627672207922,
                0.5178643502137639,
                -2.2055994086384354
            ]
        },
        {
            "positions": [
                -0.4665871944408906,
                -1.0308278497157803,
                1.2317503331099267,
                -0.2802249857799388,
                0.47576327882083214,
                -2.322744537798817
            ]
        },
        {
            "positions": [
                -0.3929631945320078,
                -1.0436630033754604,
                1.3227806932496153,
                -0.33428720433908554,
                0.4336622074279002,
                -2.439889666959199
            ]
        },
        {
            "positions": [
                -0.3193391946231252,
                -1.0564981570351402,
                1.4138110533893038,
                -0.38834942289823215,
                0.39156113603496834,
                -2.5570347961195803
            ]
        },
        {
            "positions": [
                -0.24571519471424286,
                -1.06933331069482,
                1.504841413528992,
                -0.4424116414573789,
                0.3494600646420365,
                -2.6741799252799616
            ]
        },
        {
            "positions": [
                -0.17209119480536006,
                -1.0821684643544998,
                1.5958717736686807,
                -0.4964738600165255,
                0.30735899324910454,
                -2.791325054440344
            ]
        },
        {
            "positions": [
                -0.09846719489647748,
                -1.0950036180141796,
                1.6869021338083692,
                -0.5505360785756721,
                0.2652579218561728,
                -2.908470183600725
            ]
        },
        {
            "positions": [
                -0.024843194987594908,
                -1.1078387716738596,
                1.7779324939480576,
                -0.6045982971348187,
                0.22315685046324096,
                -3.0256153127611065
            ]
        },
        {
            "positions": [
                0.04878080492128767,
                -1.1206739253335394,
                1.8689628540877463,
                -0.6586605156939656,
                0.181055779070309,
                -3.1427604419214887
            ]
        },
        {
            "positions": [
                0.12240480483017015,
                -1.1335090789932192,
                1.9599932142274346,
                -0.7127227342531121,
                0.13895470767737716,
                -3.25990557108187
            ]
        }
    ]
}