{
    "goal": {
        "global_pose": {
            "orientation": {
                "w": 0.7047431468963623,
                "x": -0.7094548344612122,
                "y": 0.0024358443915843964,
                "z": -0.0022348060738295317
            },
            "position": {
                "x": 0.6094750761985779,
                "y": 0.3671506643295288,
                "z": 0.19426114857196808
            }
        },
        "name": "move_to_magneteinheit_A"
    },
    "id": "SPARS_move_to_magneteinheit_A_49",
    "joint_names": [
        "shoulder_pan_joint",
        "shoulder_lift_joint",
        "elbow_joint",
        "wrist_1_joint",
        "wrist_2_joint",
        "wrist_3_joint"
    ],
    "metrics": {
        "cart_traj_len": 3.8628441123389656,
        "distance_elbow_joint": 3.871677695241887,
        "distance_shoulder_lift_joint": 0.1162760428495011,
        "distance_shoulder_pan_joint": 3.3729903874622162,
        "distance_wrist_1_joint": 0.8526649191622968,
        "distance_wrist_2_joint": 1.6923787034742086,
        "distance_wrist_3_joint": 2.570867173771259,
        "smoothness": 0.17246820233686258,
        "time": 5.040745627000001,
        "traj_len": 3.5322591810286754,
        "weighted_distance": 4.490393400598704
    },
    "planner": "SPARS",
    "start": {
        "state": {
            "elbow_joint": -1.919618573717145,
            "shoulder_lift_joint": -1.2443395971678275,
            "shoulder_pan_joint": 2.6996025300909787,
            "wrist_1_joint": -1.548550951253194,
            "wrist_2_joint": -1.5709469090946802,
            "wrist_3_joint": 0.4420197732051276
        }
    },
    "waypoints": [
        {
            "positions": [
                2.6996025300909787,
                -1.2443395971678275,
                -1.919618573717145,
                -1.548550951253194,
                -1.5709469090946802,
                0.4420197732051276
            ]
        },
        {
            "positions": [
                2.5851681219331715,
                -1.2401183582666317,
                -1.7982988536266504,
                -1.522938734099099,
                -1.5086019559521429,
                0.5074334504696545
            ]
        },
        {
            "positions": [
                2.470733713775364,
                -1.235897119365436,
                -1.6769791335361557,
                -1.4973265169450038,
                -1.4462570028096056,
                0.5728471277341813
            ]
        },
        {
            "positions": [
                2.356299305617557,
                -1.2316758804642403,
                -1.5556594134456612,
                -1.4717142997909087,
                -1.383912049667068,
                0.6382608049987083
            ]
        },
        {
            "positions": [
                2.2418648974597497,
                -1.2274546415630445,
                -1.4343396933551666,
                -1.4461020826368136,
                -1.3215670965245307,
                0.7036744822632353
            ]
        },
        {
            "positions": [
                2.1274304893019425,
                -1.2232334026618488,
                -1.3130199732646721,
                -1.4204898654827185,
                -1.2592221433819935,
                0.7690881595277621
            ]
        },
        {
            "positions": [
                2.012996081144135,
                -1.219012163760653,
                -1.1917002531741774,
                -1.3948776483286234,
                -1.1968771902394562,
                0.834501836792289
            ]
        },
        {
            "positions": [
                1.8985616729863284,
                -1.2147909248594573,
                -1.0703805330836829,
                -1.3692654311745283,
                -1.1345322370969189,
                0.8999155140568158
            ]
        },
        {
            "positions": [
                1.7841272648285211,
                -1.2105696859582615,
                -0.9490608129931882,
                -1.3436532140204331,
                -1.0721872839543813,
                0.9653291913213429
            ]
        },
        {
            "positions": [
                1.6696928566707139,
                -1.2063484470570658,
                -0.8277410929026936,
                -1.318040996866338,
                -1.009842330811844,
                1.0307428685858697
            ]
        },
        {
            "positions": [
                1.5552584485129066,
                -1.20212720815587,
                -0.7064213728121991,
                -1.292428779712243,
                -0.9474973776693068,
                1.0961565458503966
            ]
        },
        {
            "positions": [
                1.4408240403550996,
                -1.1979059692546743,
                -0.5851016527217046,
                -1.2668165625581478,
                -0.8851524245267695,
                1.1615702231149234
            ]
        },
        {
            "positions": [
                1.3263896321972921,
                -1.1936847303534786,
                -0.4637819326312098,
                -1.2412043454040527,
                -0.822807471384232,
                1.2269839003794505
            ]
        },
        {
            "positions": [
                1.211955224039485,
                -1.1894634914522828,
                -0.3424622125407153,
                -1.2155921282499575,
                -0.7604625182416948,
                1.2923975776439773
            ]
        },
        {
            "positions": [
                1.097520815881678,
                -1.1852422525510868,
                -0.22114249245022077,
                -1.1899799110958624,
                -0.6981175650991575,
                1.3578112549085042
            ]
        },
        {
            "positions": [
                0.9830864077238708,
                -1.181021013649891,
                -0.09982277235972625,
                -1.1643676939417673,
                -0.6357726119566202,
                1.423224932173031
            ]
        },
        {
            "positions": [
                0.8686519995660633,
                -1.1767997747486953,
                0.02149694773076849,
                -1.1387554767876722,
                -0.5734276588140826,
                1.488638609437558
            ]
        },
        {
            "positions": [
                0.7542175914082563,
                -1.1725785358474996,
                0.14281666782126323,
                -1.113143259633577,
                -0.5110827056715455,
                1.554052286702085
            ]
        },
        {
            "positions": [
                0.639783183250449,
                -1.1683572969463039,
                0.26413638791175775,
                -1.087531042479482,
                -0.44873775252900816,
                1.6194659639666118
            ]
        },
        {
            "positions": [
                0.5253487750926418,
                -1.1641360580451081,
                0.3854561080022523,
                -1.0619188253253868,
                -0.38639279938647086,
                1.6848796412311386
            ]
        },
        {
            "positions": [
                0.4109143669348345,
                -1.1599148191439124,
                0.5067758280927468,
                -1.0363066081712917,
                -0.32404784624393335,
                1.7502933184956657
            ]
        },
        {
            "positions": [
                0.29647995877702726,
                -1.1556935802427166,
                0.6280955481832413,
                -1.0106943910171966,
                -0.26170289310139605,
                1.8157069957601926
            ]
        },
        {
            "positions": [
                0.18204555061922045,
                -1.1514723413415209,
                0.7494152682737358,
                -0.9850821738631015,
                -0.19935793995885875,
                1.8811206730247194
            ]
        },
        {
            "positions": [
                0.0676111424614132,
                -1.1472511024403251,
                0.8707349883642304,
                -0.9594699567090064,
                -0.13701298681632146,
                1.9465343502892463
            ]
        },
        {
            "positions": [
                -0.0468232656963945,
                -1.1430298635391294,
                0.9920547084547253,
                -0.9338577395549112,
                -0.07466803367378394,
                2.0119480275537733
            ]
        },
        {
            "positions": [
                -0.1612576738542013,
                -1.1388086246379336,
                1.1133744285452198,
                -0.9082455224008161,
                -0.012323080531246644,
                2.0773617048183
            ]
        },
        {
            "positions": [
                -0.27569208201200873,
                -1.134587385736738,
                1.2346941486357146,
                -0.882633305246721,
                0.050021872611290666,
                2.142775382082827
            ]
        },
        {
            "positions": [
                -0.2094094527854705,
                -1.133500080500336,
                1.3542549774505526,
                -0.8515087597207504,
                0.061923526239330236,
                2.287793976231754
            ]
        },
        {
            "positions": [
                -0.14312682355893225,
                -1.1324127752639341,
                1.4738158062653905,
                -0.8203842141947798,
                0.0738251798673698,
                2.43281257038068
            ]
        },
        {
            "positions": [
                -0.076844194332394,
                -1.1313254700275321,
                1.5933766350802285,
                -0.7892596686688091,
                0.08572683349540938,
                2.5778311645296066
            ]
        },
        {
            "positions": [
                -0.010561565105855764,
                -1.1302381647911302,
                1.7129374638950665,
                -0.7581351231428385,
                0.09762848712344895,
                2.7228497586785334
            ]
        },
        {
            "positions": [
                0.055721064120682506,
                -1.1291508595547284,
                1.8324982927099045,
                -0.7270105776168678,
                0.10953014075148851,
                2.86786835282746
            ]
        },
        {
            "positions": [
                0.12200369334722072,
                -1.1280635543183264,
                1.9520591215247425,
                -0.6958860320908973,
                0.12143179437952809,
                3.0128869469763866
            ]
        }
    ]
}{
    "goal": {
        "global_pose": {
            "orientation": {
                "w": 0.7047431468963623,
                "x": -0.7094548344612122,
                "y": 0.0024358443915843964,
                "z": -0.0022348060738295317
            },
            "position": {
                "x": 0.6094750761985779,
                "y": 0.3671506643295288,
                "z": 0.19426114857196808
            }
        },
        "name": "move_to_magneteinheit_A"
    },
    "id": "SPARS_move_to_magneteinheit_A_49",
    "joint_names": [
        "shoulder_pan_joint",
        "shoulder_lift_joint",
        "elbow_joint",
        "wrist_1_joint",
        "wrist_2_joint",
        "wrist_3_joint"
    ],
    "metrics": {
        "cart_traj_len": 1.3024408138259536,
        "distance_elbow_joint": 0.09447515279760577,
        "distance_shoulder_lift_joint": 0.8150351204565269,
        "distance_shoulder_pan_joint": 1.5205837531099204,
        "distance_wrist_1_joint": 0.9246059196302755,
        "distance_wrist_2_joint": 1.4336609992294362,
        "distance_wrist_3_joint": 4.256540780929646,
        "smoothness": 0.4936546668231566,
        "time": 5.035720965,
        "traj_len": 3.007474310140223,
        "weighted_distance": 4.462762620493321
    },
    "planner": "SPARS",
    "start": {
        "state": {
            "elbow_joint": 1.919643534880228,
            "shoulder_lift_joint": -1.8972525353963687,
            "shoulder_pan_joint": -1.1188672234189438,
            "wrist_1_joint": -1.5931878212786155,
            "wrist_2_joint": 1.5706036197970081,
            "wrist_3_joint": 1.118896926603594
        }
    },
    "waypoints": [
        {
            "positions": [
                -1.1188672234189438,
                -1.8972525353963687,
                1.919643534880228,
                -1.5931878212786155,
                1.5706036197970081,
                1.118896926603594
            ]
        },
        {
            "positions": [
                -1.1887317195183096,
                -1.9134378931993887,
                1.9595797337911542,
                -1.6343690728223184,
                1.5499458293655817,
                1.020890067617849
            ]
        },
        {
            "positions": [
                -1.2585962156176755,
                -1.9296232510024085,
                1.9995159327020806,
                -1.675550324366021,
                1.5292880389341552,
                0.922883208632104
            ]
        },
        {
            "positions": [
                -1.1958300901217125,
                -1.8940475962364773,
                1.9988521711122735,
                -1.6372665327049816,
                1.4659996108265831,
                0.7383137966794606
            ]
        },
        {
            "positions": [
                -1.1330639646257492,
                -1.858471941470546,
                1.9981884095224667,
                -1.598982741043942,
                1.4027111827190113,
                0.5537443847268171
            ]
        },
        {
            "positions": [
                -1.0702978391297862,
                -1.8228962867046148,
                1.9975246479326598,
                -1.5606989493829024,
                1.3394227546114392,
                0.36917497277417377
            ]
        },
        {
            "positions": [
                -1.007531713633823,
                -1.7873206319386836,
                1.9968608863428527,
                -1.5224151577218628,
                1.2761343265038674,
                0.18460556082153023
            ]
        },
        {
            "positions": [
                -0.9447655881378599,
                -1.7517449771727522,
                1.9961971247530457,
                -1.4841313660608233,
                1.2128458983962953,
                3.614886888692048e-05
            ]
        },
        {
            "positions": [
                -0.8819994626418968,
                -1.716169322406821,
                1.9955333631632388,
                -1.4458475743997838,
                1.1495574702887235,
                -0.1845332630837565
            ]
        },
        {
            "positions": [
                -0.8192333371459337,
                -1.68059366764089,
                1.994869601573432,
                -1.4075637827387442,
                1.0862690421811514,
                -0.36910267503640004
            ]
        },
        {
            "positions": [
                -0.7564672116499706,
                -1.6450180128749587,
                1.9942058399836249,
                -1.3692799910777047,
                1.0229806140735795,
                -0.5536720869890436
            ]
        },
        {
            "positions": [
                -0.6937010861540074,
                -1.6094423581090274,
                1.9935420783938178,
                -1.3309961994166652,
                0.9596921859660075,
                -0.7382414989416869
            ]
        },
        {
            "positions": [
                -0.6309349606580443,
                -1.5738667033430962,
                1.992878316804011,
                -1.2927124077556256,
                0.8964037578584355,
                -0.9228109108943302
            ]
        },
        {
            "positions": [
                -0.5681688351620812,
                -1.538291048577165,
                1.992214555214204,
                -1.2544286160945861,
                0.8331153297508636,
                -1.1073803228469736
            ]
        },
        {
            "positions": [
                -0.5054027096661181,
                -1.5027153938112336,
                1.991550793624397,
                -1.2161448244335467,
                0.7698269016432916,
                -1.291949734799617
            ]
        },
        {
            "positions": [
                -0.44263658417015483,
                -1.4671397390453025,
                1.99088703203459,
                -1.177861032772507,
                0.7065384735357195,
                -1.4765191467522607
            ]
        },
        {
            "positions": [
                -0.3798704586741918,
                -1.4315640842793713,
                1.990223270444783,
                -1.1395772411114673,
                0.6432500454281477,
                -1.661088558704904
            ]
        },
        {
            "positions": [
                -0.3171043331782287,
                -1.39598842951344,
                1.9895595088549762,
                -1.101293449450428,
                0.5799616173205757,
                -1.8456579706575473
            ]
        },
        {
            "positions": [
                -0.25433820768226556,
                -1.3604127747475088,
                1.9888957472651692,
                -1.0630096577893884,
                0.5166731892130036,
                -2.030227382610191
            ]
        },
        {
            "positions": [
                -0.1915720821863025,
                -1.3248371199815776,
                1.988231985675362,
                -1.0247258661283487,
                0.4533847611054318,
                -2.214796794562834
            ]
        },
        {
            "positions": [
                -0.12880595669033923,
                -1.2892614652156462,
                1.9875682240855552,
                -0.9864420744673092,
                0.39009633299785973,
                -2.3993662065154777
            ]
        },
        {
            "positions": [
                -0.06603983119437618,
                -1.253685810449715,
                1.9869044624957484,
                -0.9481582828062697,
                0.3268079048902879,
                -2.583935618468121
            ]
        },
        {
            "positions": [
                -0.0032737056984131208,
                -1.218110155683784,
                1.9862407009059413,
                -0.9098744911452302,
                0.2635194767827158,
                -2.7685050304207643
            ]
        },
        {
            "positions": [
                0.059492419797550156,
                -1.1825345009178525,
                1.9855769393161342,
                -0.8715906994841905,
                0.20023104867514374,
                -2.953074442373408
            ]
        },
        {
            "positions": [
                0.1222585452935132,
                -1.1469588461519213,
                1.9849131777263274,
                -0.8333069078231511,
                0.1369426205675719,
                -3.137643854326052
            ]
        }
    ]
}