{
    "goal": {
        "global_pose": {
            "orientation": {
                "w": 0.5084816217422485,
                "x": -0.49083608388900757,
                "y": 0.5182115435600281,
                "z": -0.4816462993621826
            },
            "position": {
                "x": 0.5540239810943604,
                "y": 0.030875300988554955,
                "z": 0.16403168439865112
            }
        },
        "name": "move_to_storage_A"
    },
    "id": "SPARS_move_to_storage_A_142",
    "joint_names": [
        "shoulder_pan_joint",
        "shoulder_lift_joint",
        "elbow_joint",
        "wrist_1_joint",
        "wrist_2_joint",
        "wrist_3_joint"
    ],
    "metrics": {
        "cart_traj_len": 0.35307229281982166,
        "distance_elbow_joint": 0.44842287961337,
        "distance_shoulder_lift_joint": 0.2325176373655511,
        "distance_shoulder_pan_joint": 0.4627497181622273,
        "distance_wrist_1_joint": 0.240399092149289,
        "distance_wrist_2_joint": 1.0930080994800213,
        "distance_wrist_3_joint": 0.10419593232001434,
        "smoothness": 8.881784197001252e-16,
        "time": 5.021194951,
        "traj_len": 1.606640395076158,
        "weighted_distance": 2.030539931978638
    },
    "planner": "SPARS",
    "start": {
        "state": {
            "elbow_joint": 1.9715477243005601,
            "shoulder_lift_joint": -1.1394853015351272,
            "shoulder_pan_joint": 0.12281154014795169,
            "wrist_1_joint": -0.7804696478968182,
            "wrist_2_joint": 0.12958648046900423,
            "wrist_3_joint": -3.192491284697111
        }
    },
    "waypoints": [
        {
            "positions": [
                0.12281154014795169,
                -1.1394853015351272,
                1.9715477243005601,
                -0.7804696478968182,
                0.12958648046900423,
                -3.192491284697111
            ]
        },
        {
            "positions": [
                0.056704437553347795,
                -1.172702106873063,
                2.0356081356738986,
                -0.8148123753467166,
                0.2857304946804359,
                -3.1776061515085376
            ]
        },
        {
            "positions": [
                -0.0094026650412561,
                -1.205918912210999,
                2.099668547047237,
                -0.849155102796615,
                0.44187450889186747,
                -3.162721018319964
            ]
        },
        {
            "positions": [
                -0.07550976763586,
                -1.2391357175489348,
                2.1637289584205757,
                -0.8834978302465134,
                0.5980185231032991,
                -3.1478358851313906
            ]
        },
        {
            "positions": [
                -0.14161687023046388,
                -1.2723525228868706,
                2.227789369793914,
                -0.9178405576964119,
                0.7541625373147307,
                -3.1329507519428175
            ]
        },
        {
            "positions": [
                -0.20772397282506783,
                -1.3055693282248066,
                2.291849781167253,
                -0.9521832851463103,
                0.9103065515261624,
                -3.118065618754244
            ]
        },
        {
            "positions": [
                -0.27383107541967167,
                -1.3387861335627425,
                2.3559101925405916,
                -0.9865260125962088,
                1.0664505657375938,
                -3.1031804855656704
            ]
        },
        {
            "positions": [
                -0.3399381780142756,
                -1.3720029389006783,
                2.41997060391393,
                -1.0208687400461072,
                1.2225945799490254,
                -3.088295352377097
            ]
        }
    ]
}