{
    "goal": {
        "global_pose": {
            "orientation": {
                "w": 0.5084816217422485,
                "x": -0.49083608388900757,
                "y": 0.5182115435600281,
                "z": -0.4816462993621826
            },
            "position": {
                "x": 0.5540239810943604,
                "y": 0.030875300988554955,
                "z": 0.16403168439865112
            }
        },
        "name": "move_to_storage_A"
    },
    "id": "SPARS_move_to_storage_A_76",
    "joint_names": [
        "shoulder_pan_joint",
        "shoulder_lift_joint",
        "elbow_joint",
        "wrist_1_joint",
        "wrist_2_joint",
        "wrist_3_joint"
    ],
    "metrics": {
        "cart_traj_len": 0.35306173208408265,
        "distance_elbow_joint": 0.45113570866839625,
        "distance_shoulder_lift_joint": 0.23471702491668855,
        "distance_shoulder_pan_joint": 0.4618290514395567,
        "distance_wrist_1_joint": 0.2474130070462056,
        "distance_wrist_2_joint": 1.0983984025898175,
        "distance_wrist_3_joint": 0.1055696445131451,
        "smoothness": 2.2204460668324854e-16,
        "time": 5.026276301999999,
        "traj_len": 1.6121609222325821,
        "weighted_distance": 2.0386303092606375
    },
    "planner": "SPARS",
    "start": {
        "state": {
            "elbow_joint": 1.9715477243005601,
            "shoulder_lift_joint": -1.1394853015351272,
            "shoulder_pan_joint": 0.12281154014795169,
            "wrist_1_joint": -0.7804696478968182,
            "wrist_2_joint": 0.12958648046900423,
            "wrist_3_joint": -3.192491284697111
        }
    },
    "waypoints": [
        {
            "positions": [
                0.12281154014795169,
                -1.1394853015351272,
                1.9715477243005601,
                -0.7804696478968182,
                0.12958648046900423,
                -3.192491284697111
            ]
        },
        {
            "positions": [
                0.05683596137087216,
                -1.173016305094654,
                2.03599568268176,
                -0.8158143631891333,
                0.2865005379818353,
                -3.177409906909519
            ]
        },
        {
            "positions": [
                -0.009139617406207376,
                -1.2065473086541811,
                2.100443641062959,
                -0.8511590784814483,
                0.44341459549466633,
                -3.1623285291219267
            ]
        },
        {
            "positions": [
                -0.0751151961832869,
                -1.240078312213708,
                2.1648915994441587,
                -0.8865037937737634,
                0.6003286530074974,
                -3.1472471513343345
            ]
        },
        {
            "positions": [
                -0.14109077496036643,
                -1.2736093157732349,
                2.229339557825358,
                -0.9218485090660785,
                0.7572427105203284,
                -3.1321657735467427
            ]
        },
        {
            "positions": [
                -0.20706635373744597,
                -1.307140319332762,
                2.2937875162065575,
                -0.9571932243583936,
                0.9141567680331596,
                -3.1170843957591505
            ]
        },
        {
            "positions": [
                -0.27304193251452546,
                -1.3406713228922889,
                2.3582354745877567,
                -0.9925379396507087,
                1.0710708255459904,
                -3.1020030179715583
            ]
        },
        {
            "positions": [
                -0.339017511291605,
                -1.3742023264518157,
                2.4226834329689564,
                -1.0278826549430238,
                1.2279848830588216,
                -3.086921640183966
            ]
        }
    ]
}