{
    "goal": {
        "global_pose": {
            "orientation": {
                "w": 0.5084816217422485,
                "x": -0.49083608388900757,
                "y": 0.5182115435600281,
                "z": -0.4816462993621826
            },
            "position": {
                "x": 0.5540239810943604,
                "y": 0.030875300988554955,
                "z": 0.16403168439865112
            }
        },
        "name": "move_to_storage_A"
    },
    "id": "SPARS_move_to_storage_A_54",
    "joint_names": [
        "shoulder_pan_joint",
        "shoulder_lift_joint",
        "elbow_joint",
        "wrist_1_joint",
        "wrist_2_joint",
        "wrist_3_joint"
    ],
    "metrics": {
        "cart_traj_len": 0.35359457147695456,
        "distance_elbow_joint": 0.45368259015792756,
        "distance_shoulder_lift_joint": 0.23560979493749779,
        "distance_shoulder_pan_joint": 0.46297727929026655,
        "distance_wrist_1_joint": 0.2567380360676691,
        "distance_wrist_2_joint": 1.0981530713476335,
        "distance_wrist_3_joint": 0.10823376748878033,
        "smoothness": 2.2204460668324854e-16,
        "time": 5.028893382,
        "traj_len": 1.6172181483305754,
        "weighted_distance": 2.046155708073713
    },
    "planner": "SPARS",
    "start": {
        "state": {
            "elbow_joint": 1.9715477243005601,
            "shoulder_lift_joint": -1.1394853015351272,
            "shoulder_pan_joint": 0.12281154014795169,
            "wrist_1_joint": -0.7804696478968182,
            "wrist_2_joint": 0.12958648046900423,
            "wrist_3_joint": -3.192491284697111
        }
    },
    "waypoints": [
        {
            "positions": [
                0.12281154014795169,
                -1.1394853015351272,
                1.9715477243005601,
                -0.7804696478968182,
                0.12958648046900423,
                -3.192491284697111
            ]
        },
        {
            "positions": [
                0.05667192882077075,
                -1.1731438436690553,
                2.03635952289455,
                -0.8171465101921994,
                0.28646549066152327,
                -3.1770293179129996
            ]
        },
        {
            "positions": [
                -0.009467682506410183,
                -1.2068023858029837,
                2.1011713214885392,
                -0.8538233724875808,
                0.44334450085404237,
                -3.1615673511288884
            ]
        },
        {
            "positions": [
                -0.07560729383359112,
                -1.2404609279369119,
                2.165983120082529,
                -0.890500234782962,
                0.6002235110465615,
                -3.146105384344777
            ]
        },
        {
            "positions": [
                -0.14174690516077204,
                -1.2741194700708403,
                2.230794918676519,
                -0.9271770970783434,
                0.7571025212390805,
                -3.130643417560665
            ]
        },
        {
            "positions": [
                -0.20788651648795298,
                -1.3077780122047684,
                2.2956067172705086,
                -0.9638539593737246,
                0.9139815314315997,
                -3.1151814507765536
            ]
        },
        {
            "positions": [
                -0.2740261278151339,
                -1.3414365543386966,
                2.360418515864498,
                -1.000530821669106,
                1.0708605416241186,
                -3.0997194839924425
            ]
        },
        {
            "positions": [
                -0.34016573914231485,
                -1.375095096472625,
                2.4252303144584877,
                -1.0372076839644873,
                1.2277395518166376,
                -3.084257517208331
            ]
        }
    ]
}