{
    "goal": {
        "global_pose": {
            "orientation": {
                "w": 0.5084816217422485,
                "x": -0.49083608388900757,
                "y": 0.5182115435600281,
                "z": -0.4816462993621826
            },
            "position": {
                "x": 0.5540239810943604,
                "y": 0.030875300988554955,
                "z": 0.16403168439865112
            }
        },
        "name": "move_to_storage_A"
    },
    "id": "SPARS_move_to_storage_A_77",
    "joint_names": [
        "shoulder_pan_joint",
        "shoulder_lift_joint",
        "elbow_joint",
        "wrist_1_joint",
        "wrist_2_joint",
        "wrist_3_joint"
    ],
    "metrics": {
        "cart_traj_len": 0.3527420371554973,
        "distance_elbow_joint": 0.44952281675565553,
        "distance_shoulder_lift_joint": 0.23569116951329638,
        "distance_shoulder_pan_joint": 0.4607024788933991,
        "distance_wrist_1_joint": 0.24230714178482582,
        "distance_wrist_2_joint": 1.1008561214175088,
        "distance_wrist_3_joint": 0.09948176729940705,
        "smoothness": 0.0,
        "time": 5.011577449,
        "traj_len": 1.6089007103187232,
        "weighted_distance": 2.0324094797715446
    },
    "planner": "SPARS",
    "start": {
        "state": {
            "elbow_joint": 1.9715477243005601,
            "shoulder_lift_joint": -1.1394853015351272,
            "shoulder_pan_joint": 0.12281154014795169,
            "wrist_1_joint": -0.7804696478968182,
            "wrist_2_joint": 0.12958648046900423,
            "wrist_3_joint": -3.192491284697111
        }
    },
    "waypoints": [
        {
            "positions": [
                0.12281154014795169,
                -1.1394853015351272,
                1.9715477243005601,
                -0.7804696478968182,
                0.12958648046900423,
                -3.192491284697111
            ]
        },
        {
            "positions": [
                0.05699690030603753,
                -1.1731554686084553,
                2.035765269551368,
                -0.815084953866079,
                0.2868516406715055,
                -3.178279603654339
            ]
        },
        {
            "positions": [
                -0.008817739535876626,
                -1.2068256356817832,
                2.099982814802176,
                -0.8497002598353398,
                0.44411680087400673,
                -3.1640679226115664
            ]
        },
        {
            "positions": [
                -0.07463237937779078,
                -1.2404958027551114,
                2.164200360052984,
                -0.8843155658046007,
                0.601381961076508,
                -3.149856241568794
            ]
        },
        {
            "positions": [
                -0.14044701921970493,
                -1.2741659698284393,
                2.228417905303792,
                -0.9189308717738615,
                0.7586471212790092,
                -3.1356445605260213
            ]
        },
        {
            "positions": [
                -0.20626165906161908,
                -1.3078361369017675,
                2.2926354505545996,
                -0.9535461777431223,
                0.9159122814815105,
                -3.121432879483249
            ]
        },
        {
            "positions": [
                -0.27207629890353324,
                -1.3415063039750954,
                2.356852995805408,
                -0.9881614837123831,
                1.0731774416840119,
                -3.1072211984404765
            ]
        },
        {
            "positions": [
                -0.3378909387454474,
                -1.3751764710484236,
                2.4210705410562157,
                -1.022776789681644,
                1.2304426018865129,
                -3.093009517397704
            ]
        }
    ]
}