{
    "goal": {
        "global_pose": {
            "orientation": {
                "w": 0.7047431468963623,
                "x": -0.7094548344612122,
                "y": 0.0024358443915843964,
                "z": -0.0022348060738295317
            },
            "position": {
                "x": 0.6094750761985779,
                "y": 0.3671506643295288,
                "z": 0.19426114857196808
            }
        },
        "name": "move_to_magneteinheit_A"
    },
    "id": "SPARS_move_to_magneteinheit_A_28",
    "joint_names": [
        "shoulder_pan_joint",
        "shoulder_lift_joint",
        "elbow_joint",
        "wrist_1_joint",
        "wrist_2_joint",
        "wrist_3_joint"
    ],
    "metrics": {
        "cart_traj_len": 3.1277593420834338,
        "distance_elbow_joint": 3.9094411361292654,
        "distance_shoulder_lift_joint": 0.9710956663034901,
        "distance_shoulder_pan_joint": 3.0815900710807957,
        "distance_wrist_1_joint": 3.4706756282316884,
        "distance_wrist_2_joint": 1.4458779416706826,
        "distance_wrist_3_joint": 0.5462310456480308,
        "smoothness": 0.2082468199776126,
        "time": 5.037399682999999,
        "traj_len": 3.6640021136816983,
        "weighted_distance": 4.408392808072165
    },
    "planner": "SPARS",
    "start": {
        "state": {
            "elbow_joint": -1.919618573717145,
            "shoulder_lift_joint": -1.2443395971678275,
            "shoulder_pan_joint": 2.6996025300909787,
            "wrist_1_joint": -1.548550951253194,
            "wrist_2_joint": -1.5709469090946802,
            "wrist_3_joint": 0.4420197732051276
        }
    },
    "waypoints": [
        {
            "positions": [
                2.6996025300909787,
                -1.2443395971678275,
                -1.919618573717145,
                -1.548550951253194,
                -1.5709469090946802,
                0.4420197732051276
            ]
        },
        {
            "positions": [
                2.57663632877184,
                -1.262300265068733,
                -1.8467954126161903,
                -1.4396101984301195,
                -1.529377421018914,
                0.4460175130163445
            ]
        },
        {
            "positions": [
                2.453670127452701,
                -1.2802609329696386,
                -1.7739722515152356,
                -1.3306694456070451,
                -1.4878079329431477,
                0.45001525282756144
            ]
        },
        {
            "positions": [
                2.3307039261335625,
                -1.298221600870544,
                -1.701149090414281,
                -1.2217286927839708,
                -1.4462384448673815,
                0.4540129926387784
            ]
        },
        {
            "positions": [
                2.2077377248144234,
                -1.3161822687714495,
                -1.628325929313326,
                -1.1127879399608962,
                -1.4046689567916153,
                0.45801073244999535
            ]
        },
        {
            "positions": [
                2.084771523495285,
                -1.3341429366723552,
                -1.5555027682123714,
                -1.0038471871378216,
                -1.363099468715849,
                0.4620084722612123
            ]
        },
        {
            "positions": [
                1.9618053221761462,
                -1.3521036045732606,
                -1.4826796071114168,
                -0.8949064343147473,
                -1.3215299806400829,
                0.4660062120724292
            ]
        },
        {
            "positions": [
                1.8388391208570072,
                -1.370064272474166,
                -1.4098564460104621,
                -0.7859656814916728,
                -1.2799604925643167,
                0.4700039518836462
            ]
        },
        {
            "positions": [
                1.7158729195378686,
                -1.3880249403750717,
                -1.3370332849095075,
                -0.6770249286685983,
                -1.2383910044885504,
                0.4740016916948631
            ]
        },
        {
            "positions": [
                1.5929067182187298,
                -1.4059856082759772,
                -1.2642101238085526,
                -0.5680841758455237,
                -1.1968215164127842,
                0.47799943150608004
            ]
        },
        {
            "positions": [
                1.469940516899591,
                -1.4239462761768829,
                -1.1913869627075981,
                -0.45914342302244937,
                -1.155252028337018,
                0.48199717131729697
            ]
        },
        {
            "positions": [
                1.346974315580452,
                -1.4419069440777883,
                -1.1185638016066433,
                -0.350202670199375,
                -1.1136825402612518,
                0.4859949111285139
            ]
        },
        {
            "positions": [
                1.2240081142613135,
                -1.4598676119786937,
                -1.0457406405056888,
                -0.24126191737630043,
                -1.0721130521854856,
                0.4899926509397309
            ]
        },
        {
            "positions": [
                1.1010419129421747,
                -1.4778282798795994,
                -0.9729174794047339,
                -0.13232116455322585,
                -1.0305435641097194,
                0.4939903907509478
            ]
        },
        {
            "positions": [
                0.9780757116230359,
                -1.4957889477805049,
                -0.9000943183037794,
                -0.02338041173015143,
                -0.9889740760339532,
                0.49798813056216473
            ]
        },
        {
            "positions": [
                0.9165476996756201,
                -1.4699784415183457,
                -0.7654429744091701,
                0.08008282007509393,
                -0.9444867342944671,
                0.47864256414312945
            ]
        },
        {
            "positions": [
                0.8550196877282045,
                -1.4441679352561863,
                -0.6307916305145608,
                0.1835460518803393,
                -0.899999392554981,
                0.45929699772409416
            ]
        },
        {
            "positions": [
                0.7934916757807888,
                -1.418357428994027,
                -0.49614028661995146,
                0.28700928368558465,
                -0.8555120508154948,
                0.43995143130505887
            ]
        },
        {
            "positions": [
                0.7319636638333731,
                -1.3925469227318679,
                -0.36148894272534215,
                0.39047251549083,
                -0.8110247090760088,
                0.4206058648860236
            ]
        },
        {
            "positions": [
                0.6704356518859573,
                -1.3667364164697087,
                -0.22683759883073285,
                0.4939357472960754,
                -0.7665373673365226,
                0.4012602984669883
            ]
        },
        {
            "positions": [
                0.6089076399385417,
                -1.3409259102075493,
                -0.09218625493612354,
                0.5973989791013208,
                -0.7220500255970365,
                0.38191473204795306
            ]
        },
        {
            "positions": [
                0.5473796279911259,
                -1.31511540394539,
                0.042465088958485775,
                0.7008622109065661,
                -0.6775626838575504,
                0.3625691656289177
            ]
        },
        {
            "positions": [
                0.4858516160437103,
                -1.2893048976832309,
                0.17711643285309508,
                0.8043254427118114,
                -0.6330753421180643,
                0.3432235992098825
            ]
        },
        {
            "positions": [
                0.42432360409629455,
                -1.2634943914210717,
                0.3117677767477044,
                0.9077886745170569,
                -0.5885880003785782,
                0.3238780327908472
            ]
        },
        {
            "positions": [
                0.3627955921488788,
                -1.2376838851589123,
                0.4464191206423137,
                1.0112519063223022,
                -0.544100658639092,
                0.3045324663718119
            ]
        },
        {
            "positions": [
                0.30126758020146305,
                -1.211873378896753,
                0.5810704645369232,
                1.1147151381275475,
                -0.49961331689960586,
                0.28518689995277663
            ]
        },
        {
            "positions": [
                0.23973956825404752,
                -1.1860628726345939,
                0.7157218084315323,
                1.2181783699327928,
                -0.45512597516011977,
                0.2658413335337414
            ]
        },
        {
            "positions": [
                0.17821155630663177,
                -1.1602523663724345,
                0.8503731523261416,
                1.3216416017380384,
                -0.41063863342063367,
                0.2464957671147061
            ]
        },
        {
            "positions": [
                0.11668354435921602,
                -1.1344418601102753,
                0.985024496220751,
                1.4251048335432837,
                -0.3661512916811476,
                0.22715020069567077
            ]
        },
        {
            "positions": [
                0.05515553241180027,
                -1.108631353848116,
                1.1196758401153604,
                1.528568065348529,
                -0.32166394994166136,
                0.20780463427663548
            ]
        },
        {
            "positions": [
                -0.006372479535615261,
                -1.0828208475859569,
                1.2543271840099695,
                1.6320312971537743,
                -0.2771766082021754,
                0.18845906785760025
            ]
        },
        {
            "positions": [
                -0.06790049148303101,
                -1.0570103413237975,
                1.3889785279045785,
                1.7354945289590198,
                -0.23268926646268917,
                0.16911350143856496
            ]
        },
        {
            "positions": [
                -0.12942850343044676,
                -1.0311998350616383,
                1.523629871799188,
                1.838957760764265,
                -0.18820192472320305,
                0.14976793501952965
            ]
        },
        {
            "positions": [
                -0.06628874404060363,
                -0.9674355343186517,
                1.640178044452421,
                1.8597494898178226,
                -0.17241868539840177,
                0.11425731183244002
            ]
        },
        {
            "positions": [
                -0.0031489846507604946,
                -0.9036712335756651,
                1.756726217105654,
                1.8805412188713801,
                -0.15663544607360047,
                0.0787466886453504
            ]
        },
        {
            "positions": [
                0.05999077473908265,
                -0.8399069328326787,
                1.8732743897588868,
                1.901332947924938,
                -0.1408522067487992,
                0.04323606545826077
            ]
        },
        {
            "positions": [
                0.12313053412892577,
                -0.7761426320896921,
                1.9898225624121197,
                1.9221246769784954,
                -0.12506896742399792,
                0.00772544227117113
            ]
        }
    ]
}{
    "goal": {
        "global_pose": {
            "orientation": {
                "w": 0.7047431468963623,
                "x": -0.7094548344612122,
                "y": 0.0024358443915843964,
                "z": -0.0022348060738295317
            },
            "position": {
                "x": 0.6094750761985779,
                "y": 0.3671506643295288,
                "z": 0.19426114857196808
            }
        },
        "name": "move_to_magneteinheit_A"
    },
    "id": "SPARS_move_to_magneteinheit_A_28",
    "joint_names": [
        "shoulder_pan_joint",
        "shoulder_lift_joint",
        "elbow_joint",
        "wrist_1_joint",
        "wrist_2_joint",
        "wrist_3_joint"
    ],
    "metrics": {
        "cart_traj_len": 1.392389942813365,
        "distance_elbow_joint": 0.7630637259162567,
        "distance_shoulder_lift_joint": 0.7664211102143139,
        "distance_shoulder_pan_joint": 1.2409812760142762,
        "distance_wrist_1_joint": 0.8728186163224633,
        "distance_wrist_2_joint": 1.4472641560081678,
        "distance_wrist_3_joint": 4.36220661614128,
        "smoothness": 0.07328124709157798,
        "time": 5.043402379,
        "traj_len": 3.0745333793303917,
        "weighted_distance": 4.527389038422692
    },
    "planner": "SPARS",
    "start": {
        "state": {
            "elbow_joint": 1.919643534880228,
            "shoulder_lift_joint": -1.8972525353963687,
            "shoulder_pan_joint": -1.1188672234189438,
            "wrist_1_joint": -1.5931878212786155,
            "wrist_2_joint": 1.5706036197970081,
            "wrist_3_joint": 1.118896926603594
        }
    },
    "waypoints": [
        {
            "positions": [
                -1.1188672234189438,
                -1.8972525353963687,
                1.919643534880228,
                -1.5931878212786155,
                1.5706036197970081,
                1.118896926603594
            ]
        },
        {
            "positions": [
                -1.1149724455321026,
                -1.8818798639138041,
                1.8590673818520944,
                -1.47595182397833,
                1.5080639990702887,
                0.991593882007874
            ]
        },
        {
            "positions": [
                -1.1110776676452614,
                -1.8665071924312395,
                1.7984912288239605,
                -1.3587158266780446,
                1.4455243783435692,
                0.8642908374121542
            ]
        },
        {
            "positions": [
                -1.1071828897584202,
                -1.851134520948675,
                1.7379150757958266,
                -1.241479829377759,
                1.3829847576168497,
                0.7369877928164342
            ]
        },
        {
            "positions": [
                -1.1032881118715787,
                -1.8357618494661105,
                1.677338922767693,
                -1.1242438320774735,
                1.3204451368901302,
                0.6096847482207144
            ]
        },
        {
            "positions": [
                -1.0993933339847375,
                -1.820389177983546,
                1.6167627697395592,
                -1.007007834777188,
                1.2579055161634107,
                0.48238170362499433
            ]
        },
        {
            "positions": [
                -1.0954985560978963,
                -1.8050165065009813,
                1.5561866167114253,
                -0.8897718374769026,
                1.1953658954366913,
                0.3550786590292745
            ]
        },
        {
            "positions": [
                -1.0278534111704947,
                -1.767561779761041,
                1.5783869949196172,
                -0.8803605801146387,
                1.135808871456255,
                0.15516819521999892
            ]
        },
        {
            "positions": [
                -0.9602082662430931,
                -1.7301070530211007,
                1.600587373127809,
                -0.8709493227523748,
                1.076251847475819,
                -0.04474226858927666
            ]
        },
        {
            "positions": [
                -0.8925631213156915,
                -1.6926523262811601,
                1.622787751336001,
                -0.8615380653901108,
                1.0166948234953828,
                -0.24465273239855223
            ]
        },
        {
            "positions": [
                -0.8249179763882899,
                -1.6551975995412198,
                1.6449881295441928,
                -0.8521268080278469,
                0.9571377995149466,
                -0.4445631962078278
            ]
        },
        {
            "positions": [
                -0.7572728314608883,
                -1.6177428728012795,
                1.6671885077523847,
                -0.842715550665583,
                0.8975807755345104,
                -0.6444736600171035
            ]
        },
        {
            "positions": [
                -0.6896276865334867,
                -1.5802881460613392,
                1.6893888859605766,
                -0.8333042933033191,
                0.8380237515540744,
                -0.844384123826379
            ]
        },
        {
            "positions": [
                -0.6219825416060851,
                -1.5428334193213988,
                1.7115892641687684,
                -0.8238930359410552,
                0.7784667275736381,
                -1.0442945876356546
            ]
        },
        {
            "positions": [
                -0.5543373966786835,
                -1.5053786925814585,
                1.7337896423769603,
                -0.8144817785787913,
                0.718909703593202,
                -1.24420505144493
            ]
        },
        {
            "positions": [
                -0.48669225175128195,
                -1.4679239658415182,
                1.7559900205851524,
                -0.8050705212165274,
                0.6593526796127659,
                -1.4441155152542058
            ]
        },
        {
            "positions": [
                -0.41904710682388036,
                -1.4304692391015776,
                1.7781903987933443,
                -0.7956592638542634,
                0.5997956556323297,
                -1.6440259790634815
            ]
        },
        {
            "positions": [
                -0.35140196189647865,
                -1.3930145123616373,
                1.8003907770015362,
                -0.7862480064919996,
                0.5402386316518936,
                -1.843936442872757
            ]
        },
        {
            "positions": [
                -0.2837568169690772,
                -1.355559785621697,
                1.8225911552097278,
                -0.7768367491297357,
                0.4806816076714575,
                -2.0438469066820324
            ]
        },
        {
            "positions": [
                -0.21611167204167558,
                -1.3181050588817567,
                1.84479153341792,
                -0.7674254917674718,
                0.42112458369102135,
                -2.2437573704913083
            ]
        },
        {
            "positions": [
                -0.148466527114274,
                -1.2806503321418163,
                1.8669919116261118,
                -0.7580142344052079,
                0.3615675597105851,
                -2.4436678343005838
            ]
        },
        {
            "positions": [
                -0.0808213821868724,
                -1.2431956054018758,
                1.8891922898343037,
                -0.7486029770429439,
                0.3020105357301489,
                -2.6435782981098592
            ]
        },
        {
            "positions": [
                -0.013176237259470813,
                -1.2057408786619357,
                1.9113926680424955,
                -0.7391917196806801,
                0.24245351174971286,
                -2.8434887619191347
            ]
        },
        {
            "positions": [
                0.05446890766793078,
                -1.1682861519219951,
                1.9335930462506874,
                -0.7297804623184161,
                0.1828964877692767,
                -3.0433992257284106
            ]
        },
        {
            "positions": [
                0.12211405259533238,
                -1.1308314251820548,
                1.9557934244588793,
                -0.7203692049561522,
                0.12333946378884046,
                -3.243309689537686
            ]
        }
    ]
}