{
    "goal": {
        "global_pose": {
            "orientation": {
                "w": 0.7047431468963623,
                "x": -0.7094548344612122,
                "y": 0.0024358443915843964,
                "z": -0.0022348060738295317
            },
            "position": {
                "x": 0.6094750761985779,
                "y": 0.3671506643295288,
                "z": 0.19426114857196808
            }
        },
        "name": "move_to_magneteinheit_A"
    },
    "id": "SPARStwo_move_to_magneteinheit_A_40",
    "joint_names": [
        "shoulder_pan_joint",
        "shoulder_lift_joint",
        "elbow_joint",
        "wrist_1_joint",
        "wrist_2_joint",
        "wrist_3_joint"
    ],
    "metrics": {
        "cart_traj_len": 1.2738648004965818,
        "distance_elbow_joint": 0.33182498942767213,
        "distance_shoulder_lift_joint": 0.7686826358313437,
        "distance_shoulder_pan_joint": 1.2411981355009443,
        "distance_wrist_1_joint": 0.8939047856119213,
        "distance_wrist_2_joint": 1.4910960209769635,
        "distance_wrist_3_joint": 4.37167040310549,
        "smoothness": 0.10583723857173405,
        "time": 5.0611216820000005,
        "traj_len": 3.016351599275909,
        "weighted_distance": 4.4974124319717665
    },
    "planner": "SPARStwo",
    "start": {
        "state": {
            "elbow_joint": 1.919643534880228,
            "shoulder_lift_joint": -1.8972525353963687,
            "shoulder_pan_joint": -1.1188672234189438,
            "wrist_1_joint": -1.5931878212786155,
            "wrist_2_joint": 1.5706036197970081,
            "wrist_3_joint": 1.118896926603594
        }
    },
    "waypoints": [
        {
            "positions": [
                -1.1188672234189438,
                -1.8972525353963687,
                1.919643534880228,
                -1.5931878212786155,
                1.5706036197970081,
                1.118896926603594
            ]
        },
        {
            "positions": [
                -1.067664691771117,
                -1.8639404983351269,
                1.913171971252929,
                -1.5544086315941854,
                1.5066739026037135,
                0.9316699718649826
            ]
        },
        {
            "positions": [
                -1.0164621601232902,
                -1.8306284612738848,
                1.9067004076256298,
                -1.5156294419097553,
                1.442744185410419,
                0.7444430171263712
            ]
        },
        {
            "positions": [
                -0.9652596284754633,
                -1.797316424212643,
                1.9002288439983306,
                -1.4768502522253253,
                1.3788144682171244,
                0.5572160623877598
            ]
        },
        {
            "positions": [
                -0.9140570968276365,
                -1.764004387151401,
                1.8937572803710314,
                -1.4380710625408952,
                1.31488475102383,
                0.3699891076491485
            ]
        },
        {
            "positions": [
                -0.8628545651798096,
                -1.730692350090159,
                1.8872857167437322,
                -1.3992918728564652,
                1.2509550338305353,
                0.1827621529105371
            ]
        },
        {
            "positions": [
                -0.8116520335319828,
                -1.6973803130289171,
                1.880814153116433,
                -1.3605126831720349,
                1.1870253166372406,
                -0.004464801828074405
            ]
        },
        {
            "positions": [
                -0.7604495018841559,
                -1.6640682759676753,
                1.874342589489134,
                -1.3217334934876048,
                1.123095599443946,
                -0.1916917565666858
            ]
        },
        {
            "positions": [
                -0.7092469702363291,
                -1.6307562389064332,
                1.8678710258618347,
                -1.2829543038031748,
                1.0591658822506516,
                -0.378918711305297
            ]
        },
        {
            "positions": [
                -0.6580444385885023,
                -1.5974442018451913,
                1.8613994622345356,
                -1.2441751141187447,
                0.9952361650573569,
                -0.5661456660439086
            ]
        },
        {
            "positions": [
                -0.6068419069406754,
                -1.5641321647839495,
                1.8549278986072364,
                -1.2053959244343146,
                0.9313064478640624,
                -0.7533726207825198
            ]
        },
        {
            "positions": [
                -0.5556393752928486,
                -1.5308201277227074,
                1.8484563349799372,
                -1.1666167347498846,
                0.8673767306707677,
                -0.9405995755211312
            ]
        },
        {
            "positions": [
                -0.5044368436450217,
                -1.4975080906614655,
                1.8419847713526378,
                -1.1278375450654545,
                0.8034470134774733,
                -1.1278265302597428
            ]
        },
        {
            "positions": [
                -0.4532343119971949,
                -1.4641960536002236,
                1.8355132077253387,
                -1.0890583553810245,
                0.7395172962841787,
                -1.315053484998354
            ]
        },
        {
            "positions": [
                -0.40203178034936804,
                -1.4308840165389816,
                1.8290416440980395,
                -1.0502791656965944,
                0.675587579090884,
                -1.5022804397369656
            ]
        },
        {
            "positions": [
                -0.3508292487015412,
                -1.3975719794777397,
                1.8225700804707403,
                -1.0114999760121641,
                0.6116578618975894,
                -1.6895073944755767
            ]
        },
        {
            "positions": [
                -0.29962671705371435,
                -1.3642599424164978,
                1.8160985168434411,
                -0.9727207863277342,
                0.547728144704295,
                -1.876734349214188
            ]
        },
        {
            "positions": [
                -0.24842418540588762,
                -1.3309479053552558,
                1.809626953216142,
                -0.9339415966433041,
                0.48379842751100033,
                -2.0639613039527998
            ]
        },
        {
            "positions": [
                -0.19722165375806067,
                -1.2976358682940137,
                1.8031553895888428,
                -0.895162406958874,
                0.4198687103177057,
                -2.2511882586914114
            ]
        },
        {
            "positions": [
                -0.14601912211023382,
                -1.264323831232772,
                1.7966838259615436,
                -0.8563832172744439,
                0.35593899312441124,
                -2.438415213430022
            ]
        },
        {
            "positions": [
                -0.09481659046240698,
                -1.23101179417153,
                1.7902122623342445,
                -0.8176040275900138,
                0.2920092759311166,
                -2.6256421681686337
            ]
        },
        {
            "positions": [
                -0.04361405881458014,
                -1.197699757110288,
                1.7837406987069453,
                -0.7788248379055838,
                0.22807955873782215,
                -2.8128691229072453
            ]
        },
        {
            "positions": [
                0.007588472833246707,
                -1.164387720049046,
                1.7772691350796461,
                -0.7400456482211536,
                0.16414984154452728,
                -3.000096077645856
            ]
        },
        {
            "positions": [
                0.058791004481073536,
                -1.1310756829878041,
                1.770797571452347,
                -0.7012664585367235,
                0.10022012435123284,
                -3.1873230323844677
            ]
        },
        {
            "positions": [
                0.12233091208200035,
                -1.128569899565025,
                1.953776597452138,
                -0.7032498814067529,
                0.120932649882421,
                -3.252773476501896
            ]
        }
    ]
}