{
    "goal": {
        "global_pose": {
            "orientation": {
                "w": 0.7047431468963623,
                "x": -0.7094548344612122,
                "y": 0.0024358443915843964,
                "z": -0.0022348060738295317
            },
            "position": {
                "x": 0.6094750761985779,
                "y": 0.3671506643295288,
                "z": 0.19426114857196808
            }
        },
        "name": "move_to_magneteinheit_A"
    },
    "id": "SPARStwo_move_to_magneteinheit_A_146",
    "joint_names": [
        "shoulder_pan_joint",
        "shoulder_lift_joint",
        "elbow_joint",
        "wrist_1_joint",
        "wrist_2_joint",
        "wrist_3_joint"
    ],
    "metrics": {
        "cart_traj_len": 1.199925896791273,
        "distance_elbow_joint": 0.056514259262277156,
        "distance_shoulder_lift_joint": 0.7542683937596322,
        "distance_shoulder_pan_joint": 1.2422070253422395,
        "distance_wrist_1_joint": 0.7813805902153467,
        "distance_wrist_2_joint": 1.4489911978523322,
        "distance_wrist_3_joint": 1.9927463303760977,
        "smoothness": 1.0449157961564637e-16,
        "time": 5.006181159,
        "traj_len": 2.505216117784636,
        "weighted_distance": 3.534398427685792
    },
    "planner": "SPARStwo",
    "start": {
        "state": {
            "elbow_joint": 1.919643534880228,
            "shoulder_lift_joint": -1.8972525353963687,
            "shoulder_pan_joint": -1.1188672234189438,
            "wrist_1_joint": -1.5931878212786155,
            "wrist_2_joint": 1.5706036197970081,
            "wrist_3_joint": 1.118896926603594
        }
    },
    "waypoints": [
        {
            "positions": [
                -1.1188672234189438,
                -1.8972525353963687,
                1.919643534880228,
                -1.5931878212786155,
                1.5706036197970081,
                1.118896926603594
            ]
        },
        {
            "positions": [
                -1.041229284335054,
                -1.8501107607863918,
                1.9231756760841203,
                -1.5443515343901564,
                1.4800416699312373,
                1.2434435722521
            ]
        },
        {
            "positions": [
                -0.963591345251164,
                -1.8029689861764147,
                1.9267078172880128,
                -1.495515247501697,
                1.3894797200654665,
                1.3679902179006063
            ]
        },
        {
            "positions": [
                -0.8859534061672739,
                -1.7558272115664377,
                1.930239958491905,
                -1.446678960613238,
                1.298917770199696,
                1.4925368635491123
            ]
        },
        {
            "positions": [
                -0.808315467083384,
                -1.7086854369564608,
                1.9337720996957974,
                -1.3978426737247789,
                1.208355820333925,
                1.6170835091976183
            ]
        },
        {
            "positions": [
                -0.730677527999494,
                -1.6615436623464837,
                1.9373042408996897,
                -1.3490063868363196,
                1.1177938704681543,
                1.7416301548461246
            ]
        },
        {
            "positions": [
                -0.653039588915604,
                -1.6144018877365067,
                1.9408363821035821,
                -1.3001700999478605,
                1.0272319206023837,
                1.8661768004946306
            ]
        },
        {
            "positions": [
                -0.575401649831714,
                -1.5672601131265296,
                1.9443685233074743,
                -1.2513338130594014,
                0.9366699707366128,
                1.9907234461431367
            ]
        },
        {
            "positions": [
                -0.4977637107478241,
                -1.5201183385165526,
                1.9479006645113666,
                -1.202497526170942,
                0.846108020870842,
                2.115270091791643
            ]
        },
        {
            "positions": [
                -0.42012577166393417,
                -1.4729765639065757,
                1.951432805715259,
                -1.153661239282483,
                0.7555460710050712,
                2.239816737440149
            ]
        },
        {
            "positions": [
                -0.3424878325800442,
                -1.4258347892965986,
                1.9549649469191512,
                -1.104824952394024,
                0.6649841211393005,
                2.364363383088655
            ]
        },
        {
            "positions": [
                -0.2648498934961542,
                -1.3786930146866216,
                1.9584970881230437,
                -1.0559886655055646,
                0.5744221712735298,
                2.488910028737161
            ]
        },
        {
            "positions": [
                -0.18721195441226424,
                -1.3315512400766445,
                1.962029229326936,
                -1.0071523786171055,
                0.483860221407759,
                2.6134566743856675
            ]
        },
        {
            "positions": [
                -0.10957401532837419,
                -1.2844094654666676,
                1.9655613705308284,
                -0.9583160917286463,
                0.39329827154198815,
                2.7380033200341733
            ]
        },
        {
            "positions": [
                -0.031936076244484246,
                -1.2372676908566906,
                1.9690935117347206,
                -0.9094798048401871,
                0.30273632167621756,
                2.862549965682679
            ]
        },
        {
            "positions": [
                0.045701862839405694,
                -1.1901259162467137,
                1.972625652938613,
                -0.860643517951728,
                0.21217437181044674,
                2.987096611331186
            ]
        },
        {
            "positions": [
                0.12333980192329573,
                -1.1429841416367366,
                1.9761577941425053,
                -0.8118072310632688,
                0.12161242194467582,
                3.1116432569796917
            ]
        }
    ]
}