{
    "goal": {
        "global_pose": {
            "orientation": {
                "w": 0.7047431468963623,
                "x": -0.7094548344612122,
                "y": 0.0024358443915843964,
                "z": -0.0022348060738295317
            },
            "position": {
                "x": 0.6094750761985779,
                "y": 0.3671506643295288,
                "z": 0.19426114857196808
            }
        },
        "name": "move_to_magneteinheit_A"
    },
    "id": "SPARS_move_to_magneteinheit_A_131",
    "joint_names": [
        "shoulder_pan_joint",
        "shoulder_lift_joint",
        "elbow_joint",
        "wrist_1_joint",
        "wrist_2_joint",
        "wrist_3_joint"
    ],
    "metrics": {
        "cart_traj_len": 3.8095747277782275,
        "distance_elbow_joint": 3.909855122170475,
        "distance_shoulder_lift_joint": 0.45803795470668685,
        "distance_shoulder_pan_joint": 3.0047310075948976,
        "distance_wrist_1_joint": 0.6796301082973956,
        "distance_wrist_2_joint": 2.1137304682645484,
        "distance_wrist_3_joint": 3.5521592486758435,
        "smoothness": 0.14754585177566928,
        "time": 5.0288731780000004,
        "traj_len": 3.70380127837737,
        "weighted_distance": 4.859611402532457
    },
    "planner": "SPARS",
    "start": {
        "state": {
            "elbow_joint": -1.919618573717145,
            "shoulder_lift_joint": -1.2443395971678275,
            "shoulder_pan_joint": 2.6996025300909787,
            "wrist_1_joint": -1.548550951253194,
            "wrist_2_joint": -1.5709469090946802,
            "wrist_3_joint": 0.4420197732051276
        }
    },
    "waypoints": [
        {
            "positions": [
                2.6996025300909787,
                -1.2443395971678275,
                -1.919618573717145,
                -1.548550951253194,
                -1.5709469090946802,
                0.4420197732051276
            ]
        },
        {
            "positions": [
                2.5962276882313486,
                -1.2340808512073878,
                -1.8319690002674556,
                -1.5246705690832416,
                -1.500503076194047,
                0.3464670910299438
            ]
        },
        {
            "positions": [
                2.4928528463717186,
                -1.223822105246948,
                -1.7443194268177662,
                -1.5007901869132894,
                -1.430059243293414,
                0.25091440885476
            ]
        },
        {
            "positions": [
                2.389478004512089,
                -1.2135633592865083,
                -1.6566698533680768,
                -1.4769098047433369,
                -1.3596154103927809,
                0.1553617266795762
            ]
        },
        {
            "positions": [
                2.286103162652459,
                -1.2033046133260685,
                -1.5690202799183874,
                -1.4530294225733844,
                -1.289171577492148,
                0.059809044504392395
            ]
        },
        {
            "positions": [
                2.1827283207928287,
                -1.1930458673656288,
                -1.481370706468698,
                -1.429149040403432,
                -1.2187277445915148,
                -0.03574363767079136
            ]
        },
        {
            "positions": [
                2.0793534789331987,
                -1.182787121405189,
                -1.3937211330190087,
                -1.4052686582334797,
                -1.1482839116908816,
                -0.13129631984597517
            ]
        },
        {
            "positions": [
                1.9759786370735686,
                -1.1725283754447493,
                -1.3060715595693193,
                -1.3813882760635272,
                -1.0778400787902487,
                -0.22684900202115893
            ]
        },
        {
            "positions": [
                1.8726037952139385,
                -1.1622696294843093,
                -1.21842198611963,
                -1.3575078938935747,
                -1.0073962458896155,
                -0.3224016841963428
            ]
        },
        {
            "positions": [
                1.7692289533543086,
                -1.1520108835238696,
                -1.1307724126699406,
                -1.3336275117236225,
                -0.9369524129889825,
                -0.41795436637152655
            ]
        },
        {
            "positions": [
                1.6658541114946785,
                -1.1417521375634299,
                -1.0431228392202512,
                -1.30974712955367,
                -0.8665085800883494,
                -0.5135070485467104
            ]
        },
        {
            "positions": [
                1.5624792696350487,
                -1.1314933916029901,
                -0.9554732657705618,
                -1.2858667473837175,
                -0.7960647471877164,
                -0.6090597307218941
            ]
        },
        {
            "positions": [
                1.4591044277754186,
                -1.1212346456425504,
                -0.8678236923208724,
                -1.2619863652137653,
                -0.7256209142870832,
                -0.7046124128970779
            ]
        },
        {
            "positions": [
                1.3557295859157885,
                -1.1109758996821106,
                -0.780174118871183,
                -1.2381059830438128,
                -0.6551770813864501,
                -0.8001650950722616
            ]
        },
        {
            "positions": [
                1.2523547440561587,
                -1.100717153721671,
                -0.6925245454214937,
                -1.2142256008738603,
                -0.5847332484858171,
                -0.8957177772474454
            ]
        },
        {
            "positions": [
                1.1489799021965283,
                -1.0904584077612312,
                -0.6048749719718043,
                -1.1903452187039079,
                -0.5142894155851838,
                -0.9912704594226294
            ]
        },
        {
            "positions": [
                1.0456050603368985,
                -1.0801996618007914,
                -0.5172253985221149,
                -1.1664648365339556,
                -0.4438455826845509,
                -1.0868231415978131
            ]
        },
        {
            "positions": [
                0.9422302184772684,
                -1.0699409158403517,
                -0.42957582507242553,
                -1.1425844543640031,
                -0.3734017497839177,
                -1.1823758237729969
            ]
        },
        {
            "positions": [
                0.8388553766176385,
                -1.059682169879912,
                -0.34192625162273615,
                -1.1187040721940509,
                -0.3029579168832848,
                -1.2779285059481806
            ]
        },
        {
            "positions": [
                0.7354805347580082,
                -1.0494234239194722,
                -0.2542766781730468,
                -1.0948236900240982,
                -0.2325140839826516,
                -1.3734811881233646
            ]
        },
        {
            "positions": [
                0.6321056928983784,
                -1.0391646779590324,
                -0.1666271047233574,
                -1.070943307854146,
                -0.16207025108201867,
                -1.4690338702985482
            ]
        },
        {
            "positions": [
                0.5287308510387483,
                -1.0289059319985925,
                -0.07897753127366802,
                -1.0470629256841935,
                -0.0916264181813855,
                -1.5645865524737324
            ]
        },
        {
            "positions": [
                0.42535600917911864,
                -1.0186471860381527,
                0.008672042176021355,
                -1.023182543514241,
                -0.021182585280752564,
                -1.6601392346489159
            ]
        },
        {
            "positions": [
                0.3219811673194881,
                -1.008388440077713,
                0.09632161562571073,
                -0.9993021613442887,
                0.04926124761988082,
                -1.7556919168240999
            ]
        },
        {
            "positions": [
                0.21860632545985847,
                -0.9981296941172733,
                0.1839711890754001,
                -0.9754217791743364,
                0.11970508052051376,
                -1.8512445989992834
            ]
        },
        {
            "positions": [
                0.11523148360022839,
                -0.9878709481568335,
                0.2716207625250895,
                -0.9515413970043839,
                0.19014891342114693,
                -1.9467972811744674
            ]
        },
        {
            "positions": [
                0.011856641740598306,
                -0.9776122021963938,
                0.35927033597477886,
                -0.9276610148344315,
                0.26059274632177987,
                -2.042349963349651
            ]
        },
        {
            "positions": [
                -0.09151820011903161,
                -0.967353456235954,
                0.44691990942446813,
                -0.9037806326644791,
                0.33103657922241303,
                -2.137902645524835
            ]
        },
        {
            "positions": [
                -0.06481691544592086,
                -0.9899849329578057,
                0.6398344893030758,
                -0.899423158950894,
                0.3045682067289812,
                -2.25943224926807
            ]
        },
        {
            "positions": [
                -0.03811563077281012,
                -1.0126164096796573,
                0.8327490691816835,
                -0.8950656852373089,
                0.27809983423554935,
                -2.3809618530113053
            ]
        },
        {
            "positions": [
                -0.01141434609969938,
                -1.035247886401509,
                1.025663649060291,
                -0.8907082115237238,
                0.25163146174211753,
                -2.5024914567545404
            ]
        },
        {
            "positions": [
                0.015286938573411374,
                -1.0578793631233607,
                1.2185782289388989,
                -0.8863507378101387,
                0.2251630892486857,
                -2.6240210604977756
            ]
        },
        {
            "positions": [
                0.04198822324652213,
                -1.0805108398452123,
                1.4114928088175063,
                -0.8819932640965538,
                0.19869471675525385,
                -2.7455506642410104
            ]
        },
        {
            "positions": [
                0.06868950791963285,
                -1.1031423165670642,
                1.604407388696114,
                -0.8776357903829687,
                0.17222634426182204,
                -2.8670802679842455
            ]
        },
        {
            "positions": [
                0.0953907925927436,
                -1.1257737932889158,
                1.797321968574722,
                -0.8732783166693836,
                0.1457579717683902,
                -2.9886098717274807
            ]
        },
        {
            "positions": [
                0.12209207726585437,
                -1.1484052700107674,
                1.9902365484533295,
                -0.8689208429557985,
                0.11928959927495834,
                -3.110139475470716
            ]
        }
    ]
}{
    "goal": {
        "global_pose": {
            "orientation": {
                "w": 0.7047431468963623,
                "x": -0.7094548344612122,
                "y": 0.0024358443915843964,
                "z": -0.0022348060738295317
            },
            "position": {
                "x": 0.6094750761985779,
                "y": 0.3671506643295288,
                "z": 0.19426114857196808
            }
        },
        "name": "move_to_magneteinheit_A"
    },
    "id": "SPARS_move_to_magneteinheit_A_131",
    "joint_names": [
        "shoulder_pan_joint",
        "shoulder_lift_joint",
        "elbow_joint",
        "wrist_1_joint",
        "wrist_2_joint",
        "wrist_3_joint"
    ],
    "metrics": {
        "cart_traj_len": 1.210784182166528,
        "distance_elbow_joint": 0.03512680507988164,
        "distance_shoulder_lift_joint": 0.7683616057734313,
        "distance_shoulder_pan_joint": 1.2421213775055209,
        "distance_wrist_1_joint": 0.9359986721994761,
        "distance_wrist_2_joint": 1.4419185592693378,
        "distance_wrist_3_joint": 4.370564402205406,
        "smoothness": 0.10050583416642395,
        "time": 5.0412140050000005,
        "traj_len": 2.9654833370014164,
        "weighted_distance": 4.4624138599991685
    },
    "planner": "SPARS",
    "start": {
        "state": {
            "elbow_joint": 1.919643534880228,
            "shoulder_lift_joint": -1.8972525353963687,
            "shoulder_pan_joint": -1.1188672234189438,
            "wrist_1_joint": -1.5931878212786155,
            "wrist_2_joint": 1.5706036197970081,
            "wrist_3_joint": 1.118896926603594
        }
    },
    "waypoints": [
        {
            "positions": [
                -1.1188672234189438,
                -1.8972525353963687,
                1.919643534880228,
                -1.5931878212786155,
                1.5706036197970081,
                1.118896926603594
            ]
        },
        {
            "positions": [
                -1.065282233915393,
                -1.8644250256334145,
                1.919706552239084,
                -1.5518031697316532,
                1.5088809920371986,
                0.9228025567152485
            ]
        },
        {
            "positions": [
                -1.011697244411842,
                -1.8315975158704603,
                1.9197695695979398,
                -1.510418518184691,
                1.4471583642773893,
                0.726708186826903
            ]
        },
        {
            "positions": [
                -0.9581122549082911,
                -1.7987700061075058,
                1.9198325869567956,
                -1.4690338666377287,
                1.3854357365175798,
                0.5306138169385576
            ]
        },
        {
            "positions": [
                -0.9045272654047402,
                -1.7659424963445516,
                1.9198956043156516,
                -1.4276492150907663,
                1.3237131087577703,
                0.3345194470502121
            ]
        },
        {
            "positions": [
                -0.8509422759011893,
                -1.7331149865815973,
                1.9199586216745075,
                -1.386264563543804,
                1.261990480997961,
                0.13842507716186658
            ]
        },
        {
            "positions": [
                -0.7973572863976384,
                -1.7002874768186431,
                1.9200216390333633,
                -1.3448799119968418,
                1.2002678532381514,
                -0.057669292726478805
            ]
        },
        {
            "positions": [
                -0.7437722968940874,
                -1.6674599670556887,
                1.9200846563922191,
                -1.3034952604498795,
                1.138545225478342,
                -0.2537636626148243
            ]
        },
        {
            "positions": [
                -0.6901873073905365,
                -1.6346324572927344,
                1.920147673751075,
                -1.2621106089029173,
                1.0768225977185326,
                -0.4498580325031698
            ]
        },
        {
            "positions": [
                -0.6366023178869855,
                -1.6018049475297802,
                1.9202106911099308,
                -1.2207259573559548,
                1.015099969958723,
                -0.6459524023915155
            ]
        },
        {
            "positions": [
                -0.5830173283834347,
                -1.568977437766826,
                1.9202737084687866,
                -1.1793413058089925,
                0.9533773421989137,
                -0.8420467722798608
            ]
        },
        {
            "positions": [
                -0.5294323388798837,
                -1.5361499280038715,
                1.9203367258276427,
                -1.1379566542620303,
                0.8916547144391043,
                -1.0381411421682063
            ]
        },
        {
            "positions": [
                -0.4758473493763329,
                -1.5033224182409173,
                1.9203997431864985,
                -1.096572002715068,
                0.8299320866792949,
                -1.2342355120565516
            ]
        },
        {
            "positions": [
                -0.4222623598727818,
                -1.470494908477963,
                1.9204627605453544,
                -1.0551873511681058,
                0.7682094589194853,
                -1.4303298819448973
            ]
        },
        {
            "positions": [
                -0.368677370369231,
                -1.4376673987150088,
                1.9205257779042102,
                -1.0138026996211433,
                0.7064868311596759,
                -1.6264242518332426
            ]
        },
        {
            "positions": [
                -0.31509238086568014,
                -1.4048398889520546,
                1.920588795263066,
                -0.9724180480741812,
                0.6447642033998666,
                -1.8225186217215879
            ]
        },
        {
            "positions": [
                -0.2615073913621291,
                -1.3720123791891004,
                1.9206518126219219,
                -0.9310333965272188,
                0.583041575640057,
                -2.018612991609934
            ]
        },
        {
            "positions": [
                -0.20792240185857824,
                -1.339184869426146,
                1.9207148299807777,
                -0.8896487449802566,
                0.5213189478802476,
                -2.214707361498279
            ]
        },
        {
            "positions": [
                -0.15433741235502718,
                -1.3063573596631914,
                1.9207778473396335,
                -0.8482640934332942,
                0.45959632012043805,
                -2.4108017313866252
            ]
        },
        {
            "positions": [
                -0.10075242285147645,
                -1.2735298499002372,
                1.9208408646984896,
                -0.806879441886332,
                0.39787369236062875,
                -2.6068961012749705
            ]
        },
        {
            "positions": [
                -0.0471674333479255,
                -1.240702340137283,
                1.9209038820573454,
                -0.7654947903393697,
                0.3361510646008192,
                -2.802990471163316
            ]
        },
        {
            "positions": [
                0.006417556155625448,
                -1.2078748303743287,
                1.9209668994162012,
                -0.7241101387924074,
                0.2744284368410097,
                -2.999084841051661
            ]
        },
        {
            "positions": [
                0.06000254565917637,
                -1.1750473206113745,
                1.921029916775057,
                -0.6827254872454451,
                0.2127058090812004,
                -3.1951792109400063
            ]
        },
        {
            "positions": [
                0.12325415408657693,
                -1.1288909296229375,
                1.9547703399601097,
                -0.7082618254117509,
                0.1286850605276704,
                -3.2516674756018116
            ]
        }
    ]
}