{
    "goal": {
        "global_pose": {
            "orientation": {
                "w": 0.7047431468963623,
                "x": -0.7094548344612122,
                "y": 0.0024358443915843964,
                "z": -0.0022348060738295317
            },
            "position": {
                "x": 0.6094750761985779,
                "y": 0.3671506643295288,
                "z": 0.19426114857196808
            }
        },
        "name": "move_to_magneteinheit_A"
    },
    "id": "SPARS_move_to_magneteinheit_A_105",
    "joint_names": [
        "shoulder_pan_joint",
        "shoulder_lift_joint",
        "elbow_joint",
        "wrist_1_joint",
        "wrist_2_joint",
        "wrist_3_joint"
    ],
    "metrics": {
        "cart_traj_len": 3.1179876534106286,
        "distance_elbow_joint": 3.90770618509978,
        "distance_shoulder_lift_joint": 1.279222722464101,
        "distance_shoulder_pan_joint": 3.362826475764624,
        "distance_wrist_1_joint": 3.4623534955227178,
        "distance_wrist_2_joint": 1.59995356779605,
        "distance_wrist_3_joint": 2.15691885438583,
        "smoothness": 0.19140996732563373,
        "time": 5.021113344000001,
        "traj_len": 3.9710176656662077,
        "weighted_distance": 5.014491606646033
    },
    "planner": "SPARS",
    "start": {
        "state": {
            "elbow_joint": -1.919618573717145,
            "shoulder_lift_joint": -1.2443395971678275,
            "shoulder_pan_joint": 2.6996025300909787,
            "wrist_1_joint": -1.548550951253194,
            "wrist_2_joint": -1.5709469090946802,
            "wrist_3_joint": 0.4420197732051276
        }
    },
    "waypoints": [
        {
            "positions": [
                2.6996025300909787,
                -1.2443395971678275,
                -1.919618573717145,
                -1.548550951253194,
                -1.5709469090946802,
                0.4420197732051276
            ]
        },
        {
            "positions": [
                2.5935348234853097,
                -1.2587908914914927,
                -1.8199989028911592,
                -1.486259476642935,
                -1.5165105360979714,
                0.39570439526578455
            ]
        },
        {
            "positions": [
                2.4874671168796407,
                -1.273242185815158,
                -1.7203792320651736,
                -1.423968002032676,
                -1.4620741631012626,
                0.34938901732644156
            ]
        },
        {
            "positions": [
                2.3813994102739717,
                -1.2876934801388231,
                -1.620759561239188,
                -1.3616765274224167,
                -1.4076377901045538,
                0.3030736393870985
            ]
        },
        {
            "positions": [
                2.2753317036683027,
                -1.3021447744624883,
                -1.5211398904132023,
                -1.2993850528121578,
                -1.353201417107845,
                0.2567582614477555
            ]
        },
        {
            "positions": [
                2.1692639970626337,
                -1.3165960687861535,
                -1.4215202195872165,
                -1.2370935782018986,
                -1.298765044111136,
                0.21044288350841242
            ]
        },
        {
            "positions": [
                2.0631962904569647,
                -1.3310473631098187,
                -1.321900548761231,
                -1.1748021035916394,
                -1.2443286711144275,
                0.1641275055690694
            ]
        },
        {
            "positions": [
                1.9571285838512957,
                -1.345498657433484,
                -1.2222808779352454,
                -1.1125106289813804,
                -1.1898922981177185,
                0.11781212762972637
            ]
        },
        {
            "positions": [
                1.851060877245627,
                -1.3599499517571492,
                -1.1226612071092597,
                -1.0502191543711212,
                -1.1354559251210097,
                0.07149674969038339
            ]
        },
        {
            "positions": [
                1.7449931706399577,
                -1.3744012460808144,
                -1.0230415362832739,
                -0.9879276797608622,
                -1.081019552124301,
                0.025181371751040293
            ]
        },
        {
            "positions": [
                1.638925464034289,
                -1.3888525404044796,
                -0.9234218654572883,
                -0.9256362051506031,
                -1.0265831791275921,
                -0.021134006188302745
            ]
        },
        {
            "positions": [
                1.53285775742862,
                -1.4033038347281448,
                -0.8238021946313028,
                -0.863344730540344,
                -0.9721468061308833,
                -0.06744938412764573
            ]
        },
        {
            "positions": [
                1.426790050822951,
                -1.4177551290518098,
                -0.724182523805317,
                -0.8010532559300849,
                -0.9177104331341746,
                -0.11376476206698877
            ]
        },
        {
            "positions": [
                1.320722344217282,
                -1.4322064233754752,
                -0.6245628529793312,
                -0.7387617813198257,
                -0.8632740601374657,
                -0.1600801400063318
            ]
        },
        {
            "positions": [
                1.214654637611613,
                -1.4466577176991402,
                -0.5249431821533457,
                -0.6764703067095666,
                -0.8088376871407569,
                -0.20639551794567484
            ]
        },
        {
            "positions": [
                1.108586931005944,
                -1.4611090120228054,
                -0.4253235113273601,
                -0.6141788320993076,
                -0.7544013141440481,
                -0.2527108958850179
            ]
        },
        {
            "positions": [
                1.0025192244002752,
                -1.4755603063464706,
                -0.32570384050137435,
                -0.5518873574890485,
                -0.6999649411473393,
                -0.2990262738243608
            ]
        },
        {
            "positions": [
                0.8964515177946062,
                -1.4900116006701358,
                -0.2260841696753888,
                -0.4895958828787894,
                -0.6455285681506305,
                -0.34534165176370385
            ]
        },
        {
            "positions": [
                0.790383811188937,
                -1.504462894993801,
                -0.1264644988494028,
                -0.4273044082685302,
                -0.5910921951539215,
                -0.391657029703047
            ]
        },
        {
            "positions": [
                0.6843161045832677,
                -1.5189141893174662,
                -0.026844828023417255,
                -0.36501293365827103,
                -0.5366558221572129,
                -0.43797240764239004
            ]
        },
        {
            "positions": [
                0.5782483979775992,
                -1.5333654836411315,
                0.0727748428025683,
                -0.30272145904801206,
                -0.4822194491605041,
                -0.4842877855817331
            ]
        },
        {
            "positions": [
                0.4721806913719302,
                -1.5478167779647967,
                0.17239451362855385,
                -0.24042998443775287,
                -0.4277830761637953,
                -0.530603163521076
            ]
        },
        {
            "positions": [
                0.3661129847662612,
                -1.5622680722884619,
                0.2720141844545394,
                -0.1781385098274939,
                -0.3733467031670865,
                -0.576918541460419
            ]
        },
        {
            "positions": [
                0.2600452781605922,
                -1.576719366612127,
                0.3716338552805254,
                -0.11584703521723472,
                -0.31891033017037773,
                -0.623233919399762
            ]
        },
        {
            "positions": [
                0.1539775715549232,
                -1.5911706609357923,
                0.47125352610651094,
                -0.05355556060697575,
                -0.26447395717366895,
                -0.6695492973391051
            ]
        },
        {
            "positions": [
                0.0479098649492542,
                -1.6056219552594575,
                0.5708731969324969,
                0.008735914003283662,
                -0.21003758417695995,
                -0.7158646752784481
            ]
        },
        {
            "positions": [
                -0.0581578416564148,
                -1.6200732495831227,
                0.6704928677584825,
                0.07102738861354263,
                -0.15560121118025116,
                -0.7621800532177911
            ]
        },
        {
            "positions": [
                -0.1642255482620838,
                -1.634524543906788,
                0.770112538584468,
                0.13331886322380182,
                -0.10116483818354238,
                -0.8084954311571342
            ]
        },
        {
            "positions": [
                -0.2702932548677529,
                -1.6489758382304531,
                0.8697322094104537,
                0.19561033783406084,
                -0.04672846518683365,
                -0.8548108090964772
            ]
        },
        {
            "positions": [
                -0.24228232041107767,
                -1.581088139807751,
                0.9594943637992897,
                0.33124798080865603,
                -0.05127760035104888,
                -0.7888510908841024
            ]
        },
        {
            "positions": [
                -0.21427138595440243,
                -1.513200441385049,
                1.0492565181881255,
                0.46688562378325116,
                -0.0558267355152641,
                -0.7228913726717278
            ]
        },
        {
            "positions": [
                -0.1862604514977272,
                -1.445312742962347,
                1.1390186725769615,
                0.6025232667578463,
                -0.06037587067947932,
                -0.6569316544593531
            ]
        },
        {
            "positions": [
                -0.15824951704105195,
                -1.3774250445396448,
                1.2287808269657976,
                0.7381609097324415,
                -0.06492500584369454,
                -0.5909719362469783
            ]
        },
        {
            "positions": [
                -0.13023858258437673,
                -1.3095373461169428,
                1.3185429813546334,
                0.8737985527070367,
                -0.06947414100790977,
                -0.5250122180346035
            ]
        },
        {
            "positions": [
                -0.10222764812770149,
                -1.2416496476942407,
                1.4083051357434693,
                1.0094361956816318,
                -0.074023276172125,
                -0.45905249982222884
            ]
        },
        {
            "positions": [
                -0.07421671367102628,
                -1.1737619492715385,
                1.498067290132305,
                1.145073838656227,
                -0.07857241133634021,
                -0.39309278160985417
            ]
        },
        {
            "positions": [
                -0.04620577921435101,
                -1.1058742508488364,
                1.5878294445211414,
                1.280711481630822,
                -0.08312154650055545,
                -0.3271330633974794
            ]
        },
        {
            "positions": [
                -0.0181948447576758,
                -1.0379865524261342,
                1.6775915989099772,
                1.4163491246054172,
                -0.08767068166477067,
                -0.2611733451851046
            ]
        },
        {
            "positions": [
                0.009816089698999442,
                -0.9700988540034323,
                1.767353753298813,
                1.5519867675800123,
                -0.09221981682898589,
                -0.19521362697272993
            ]
        },
        {
            "positions": [
                0.04742320511204611,
                -0.9048623549452808,
                1.8409317059934203,
                1.6725920264765155,
                -0.10230107424433597,
                -0.12838326365257055
            ]
        },
        {
            "positions": [
                0.08503032052509278,
                -0.8396258558871293,
                1.9145096586880277,
                1.7931972853730187,
                -0.11238233165968604,
                -0.061552900332411176
            ]
        },
        {
            "positions": [
                0.12263743593813946,
                -0.7743893568289778,
                1.988087611382635,
                1.913802544269522,
                -0.12246358907503613,
                0.005277462987748221
            ]
        }
    ]
}{
    "goal": {
        "global_pose": {
            "orientation": {
                "w": 0.7047431468963623,
                "x": -0.7094548344612122,
                "y": 0.0024358443915843964,
                "z": -0.0022348060738295317
            },
            "position": {
                "x": 0.6094750761985779,
                "y": 0.3671506643295288,
                "z": 0.19426114857196808
            }
        },
        "name": "move_to_magneteinheit_A"
    },
    "id": "SPARS_move_to_magneteinheit_A_105",
    "joint_names": [
        "shoulder_pan_joint",
        "shoulder_lift_joint",
        "elbow_joint",
        "wrist_1_joint",
        "wrist_2_joint",
        "wrist_3_joint"
    ],
    "metrics": {
        "cart_traj_len": 1.4705935179562324,
        "distance_elbow_joint": 0.045347662305155856,
        "distance_shoulder_lift_joint": 0.8989707119903605,
        "distance_shoulder_pan_joint": 1.2411276627051862,
        "distance_wrist_1_joint": 5.933772415008579,
        "distance_wrist_2_joint": 1.4386854403251328,
        "distance_wrist_3_joint": 4.382279528968262,
        "smoothness": 0.30935078889644924,
        "time": 5.0515853250000005,
        "traj_len": 3.7336555038330292,
        "weighted_distance": 5.4842684411480915
    },
    "planner": "SPARS",
    "start": {
        "state": {
            "elbow_joint": 1.919643534880228,
            "shoulder_lift_joint": -1.8972525353963687,
            "shoulder_pan_joint": -1.1188672234189438,
            "wrist_1_joint": -1.5931878212786155,
            "wrist_2_joint": 1.5706036197970081,
            "wrist_3_joint": 1.118896926603594
        }
    },
    "waypoints": [
        {
            "positions": [
                -1.1188672234189438,
                -1.8972525353963687,
                1.919643534880228,
                -1.5931878212786155,
                1.5706036197970081,
                1.118896926603594
            ]
        },
        {
            "positions": [
                -1.074169142679661,
                -1.901119858732801,
                1.9220092811293337,
                -1.3923426388915012,
                1.5101716266897451,
                1.0558681205757436
            ]
        },
        {
            "positions": [
                -1.029471061940378,
                -1.9049871820692335,
                1.9243750273784392,
                -1.1914974565043868,
                1.4497396335824821,
                0.9928393145478934
            ]
        },
        {
            "positions": [
                -0.9847729812010948,
                -1.9088545054056658,
                1.9267407736275448,
                -0.9906522741172725,
                1.389307640475219,
                0.9298105085200432
            ]
        },
        {
            "positions": [
                -0.9400749004618119,
                -1.9127218287420982,
                1.9291065198766504,
                -0.7898070917301583,
                1.328875647367956,
                0.8667817024921929
            ]
        },
        {
            "positions": [
                -0.8953768197225289,
                -1.9165891520785305,
                1.931472266125756,
                -0.5889619093430438,
                1.268443654260693,
                0.8037528964643427
            ]
        },
        {
            "positions": [
                -0.8506787389832459,
                -1.920456475414963,
                1.9338380123748615,
                -0.3881167269559296,
                1.2080116611534297,
                0.7407240904364925
            ]
        },
        {
            "positions": [
                -0.8059806582439629,
                -1.9243237987513953,
                1.936203758623967,
                -0.18727154456881534,
                1.1475796680461667,
                0.6776952844086421
            ]
        },
        {
            "positions": [
                -0.7612825775046799,
                -1.9281911220878276,
                1.9385695048730727,
                0.0135736378182989,
                1.0871476749389037,
                0.6146664783807919
            ]
        },
        {
            "positions": [
                -0.7165844967653969,
                -1.9320584454242598,
                1.9409352511221785,
                0.21441882020541336,
                1.0267156818316407,
                0.5516376723529416
            ]
        },
        {
            "positions": [
                -0.6718864160261139,
                -1.9359257687606921,
                1.943300997371284,
                0.4152640025925278,
                0.9662836887243776,
                0.4886088663250914
            ]
        },
        {
            "positions": [
                -0.6271883352868308,
                -1.9397930920971245,
                1.9456667436203896,
                0.6161091849796418,
                0.9058516956171146,
                0.42558006029724105
            ]
        },
        {
            "positions": [
                -0.5824902545475479,
                -1.9436604154335568,
                1.9480324898694952,
                0.8169543673667563,
                0.8454197025098515,
                0.36255125426939083
            ]
        },
        {
            "positions": [
                -0.5377921738082649,
                -1.9475277387699892,
                1.9503982361186007,
                1.0177995497538703,
                0.7849877094025886,
                0.2995224482415406
            ]
        },
        {
            "positions": [
                -0.493094093068982,
                -1.9513950621064216,
                1.9527639823677063,
                1.2186447321409848,
                0.7245557162953256,
                0.2364936422136904
            ]
        },
        {
            "positions": [
                -0.44839601232969895,
                -1.955262385442854,
                1.955129728616812,
                1.4194899145280993,
                0.6641237231880625,
                0.17346483618584008
            ]
        },
        {
            "positions": [
                -0.403697931590416,
                -1.9591297087792863,
                1.9574954748659175,
                1.6203350969152133,
                0.6036917300807995,
                0.11043603015798986
            ]
        },
        {
            "positions": [
                -0.35899985085113295,
                -1.9629970321157186,
                1.959861221115023,
                1.821180279302328,
                0.5432597369735362,
                0.04740722413013951
            ]
        },
        {
            "positions": [
                -0.3349368363442642,
                -1.921335721352168,
                1.959604722311505,
                1.6952100635809462,
                0.5226926590984532,
                -0.1181322671946009
            ]
        },
        {
            "positions": [
                -0.3108738218373954,
                -1.8796744105886176,
                1.9593482235079869,
                1.5692398478595644,
                0.5021255812233701,
                -0.28367175851934134
            ]
        },
        {
            "positions": [
                -0.2868108073305267,
                -1.838013099825067,
                1.9590917247044688,
                1.4432696321381828,
                0.48155850334828715,
                -0.4492112498440817
            ]
        },
        {
            "positions": [
                -0.26274779282365796,
                -1.7963517890615166,
                1.958835225900951,
                1.3172994164168008,
                0.4609914254732041,
                -0.6147507411688221
            ]
        },
        {
            "positions": [
                -0.2386847783167892,
                -1.754690478297966,
                1.9585787270974329,
                1.1913292006954193,
                0.4404243475981211,
                -0.7802902324935624
            ]
        },
        {
            "positions": [
                -0.21462176380992046,
                -1.7130291675344154,
                1.9583222282939148,
                1.0653589849740377,
                0.41985726972303805,
                -0.9458297238183028
            ]
        },
        {
            "positions": [
                -0.1905587493030517,
                -1.671367856770865,
                1.9580657294903967,
                0.9393887692526558,
                0.399290191847955,
                -1.1113692151430432
            ]
        },
        {
            "positions": [
                -0.16649573479618293,
                -1.6297065460073143,
                1.9578092306868786,
                0.8134185535312739,
                0.37872311397287195,
                -1.2769087064677838
            ]
        },
        {
            "positions": [
                -0.14243272028931417,
                -1.5880452352437637,
                1.9575527318833605,
                0.6874483378098923,
                0.35815603609778895,
                -1.442448197792524
            ]
        },
        {
            "positions": [
                -0.11836970578244543,
                -1.5463839244802133,
                1.9572962330798425,
                0.5614781220885106,
                0.33758895822270596,
                -1.6079876891172644
            ]
        },
        {
            "positions": [
                -0.09430669127557667,
                -1.5047226137166627,
                1.9570397342763246,
                0.43550790636712877,
                0.3170218803476229,
                -1.773527180442005
            ]
        },
        {
            "positions": [
                -0.07024367676870796,
                -1.4630613029531123,
                1.9567832354728065,
                0.3095376906457472,
                0.29645480247253986,
                -1.939066671766745
            ]
        },
        {
            "positions": [
                -0.046180662261839145,
                -1.4213999921895617,
                1.9565267366692884,
                0.1835674749243652,
                0.2758877245974568,
                -2.1046061630914856
            ]
        },
        {
            "positions": [
                -0.022117647754970438,
                -1.3797386814260113,
                1.9562702378657704,
                0.05759725920298364,
                0.2553206467223738,
                -2.270145654416226
            ]
        },
        {
            "positions": [
                0.0019453667518983253,
                -1.3380773706624607,
                1.9560137390622523,
                -0.06837295651839814,
                0.23475356884729076,
                -2.4356851457409663
            ]
        },
        {
            "positions": [
                0.026008381258767088,
                -1.29641605989891,
                1.9557572402587342,
                -0.19434317223978015,
                0.2141864909722077,
                -2.601224637065707
            ]
        },
        {
            "positions": [
                0.050071395765635796,
                -1.2547547491353597,
                1.9555007414552164,
                -0.3203133879611615,
                0.19361941309712472,
                -2.766764128390447
            ]
        },
        {
            "positions": [
                0.07413441027250461,
                -1.213093438371809,
                1.9552442426516983,
                -0.4462836036825433,
                0.17305233522204166,
                -2.9323036197151877
            ]
        },
        {
            "positions": [
                0.09819742477937332,
                -1.1714321276082587,
                1.9549877438481802,
                -0.5722538194039251,
                0.15248525734695867,
                -3.097843111039928
            ]
        },
        {
            "positions": [
                0.12226043928624208,
                -1.129770816844708,
                1.9547312450446621,
                -0.6982240351253067,
                0.13191817947187562,
                -3.2633826023646684
            ]
        }
    ]
}