{
    "goal": {
        "global_pose": {
            "orientation": {
                "w": 0.7047431468963623,
                "x": -0.7094548344612122,
                "y": 0.0024358443915843964,
                "z": -0.0022348060738295317
            },
            "position": {
                "x": 0.6094750761985779,
                "y": 0.3671506643295288,
                "z": 0.19426114857196808
            }
        },
        "name": "move_to_magneteinheit_A"
    },
    "id": "SPARS_move_to_magneteinheit_A_45",
    "joint_names": [
        "shoulder_pan_joint",
        "shoulder_lift_joint",
        "elbow_joint",
        "wrist_1_joint",
        "wrist_2_joint",
        "wrist_3_joint"
    ],
    "metrics": {
        "cart_traj_len": 3.4948977142396678,
        "distance_elbow_joint": 4.166751686809595,
        "distance_shoulder_lift_joint": 0.9997839241727915,
        "distance_shoulder_pan_joint": 3.295270671666538,
        "distance_wrist_1_joint": 0.7027684011993537,
        "distance_wrist_2_joint": 2.987823368421717,
        "distance_wrist_3_joint": 5.746557603227986,
        "smoothness": 0.26313277872201996,
        "time": 5.0582727169999995,
        "traj_len": 4.230715737968928,
        "weighted_distance": 5.751753005091146
    },
    "planner": "SPARS",
    "start": {
        "state": {
            "elbow_joint": -1.919618573717145,
            "shoulder_lift_joint": -1.2443395971678275,
            "shoulder_pan_joint": 2.6996025300909787,
            "wrist_1_joint": -1.548550951253194,
            "wrist_2_joint": -1.5709469090946802,
            "wrist_3_joint": 0.4420197732051276
        }
    },
    "waypoints": [
        {
            "positions": [
                2.6996025300909787,
                -1.2443395971678275,
                -1.919618573717145,
                -1.548550951253194,
                -1.5709469090946802,
                0.4420197732051276
            ]
        },
        {
            "positions": [
                2.62443866113613,
                -1.2639747335129587,
                -1.7979589900429183,
                -1.5421808639565313,
                -1.4690569358261383,
                0.37583379633396274
            ]
        },
        {
            "positions": [
                2.5492747921812815,
                -1.28360986985809,
                -1.6762994063686913,
                -1.5358107766598685,
                -1.3671669625575966,
                0.30964781946279796
            ]
        },
        {
            "positions": [
                2.4741109232264327,
                -1.303245006203221,
                -1.5546398226944647,
                -1.529440689363206,
                -1.2652769892890547,
                0.2434618425916331
            ]
        },
        {
            "positions": [
                2.3989470542715843,
                -1.3228801425483523,
                -1.432980239020238,
                -1.5230706020665432,
                -1.163387016020513,
                0.17727586572046827
            ]
        },
        {
            "positions": [
                2.3237831853167354,
                -1.3425152788934835,
                -1.311320655346011,
                -1.5167005147698804,
                -1.0614970427519712,
                0.11108988884930343
            ]
        },
        {
            "positions": [
                2.2486193163618866,
                -1.3621504152386148,
                -1.1896610716717846,
                -1.5103304274732177,
                -0.9596070694834294,
                0.04490391197813859
            ]
        },
        {
            "positions": [
                2.173455447407038,
                -1.381785551583746,
                -1.0680014879975577,
                -1.503960340176555,
                -0.8577170962148876,
                -0.02128206489302631
            ]
        },
        {
            "positions": [
                2.0982915784521894,
                -1.401420687928877,
                -0.9463419043233309,
                -1.4975902528798923,
                -0.7558271229463458,
                -0.08746804176419104
            ]
        },
        {
            "positions": [
                2.0231277094973406,
                -1.4210558242740083,
                -0.8246823206491041,
                -1.4912201655832296,
                -0.653937149677804,
                -0.15365401863535594
            ]
        },
        {
            "positions": [
                1.9479638405424922,
                -1.4406909606191396,
                -0.7030227369748774,
                -1.4848500782865668,
                -0.5520471764092623,
                -0.21983999550652072
            ]
        },
        {
            "positions": [
                1.8727999715876433,
                -1.4603260969642708,
                -0.5813631533006505,
                -1.478479990989904,
                -0.4501572031407204,
                -0.2860259723776856
            ]
        },
        {
            "positions": [
                1.7976361026327947,
                -1.4799612333094019,
                -0.459703569626424,
                -1.4721099036932415,
                -0.34826722987217873,
                -0.3522119492488504
            ]
        },
        {
            "positions": [
                1.722472233677946,
                -1.4995963696545331,
                -0.3380439859521973,
                -1.4657398163965787,
                -0.24637725660363707,
                -0.4183979261200152
            ]
        },
        {
            "positions": [
                1.6473083647230973,
                -1.5192315059996644,
                -0.21638440227797018,
                -1.459369729099916,
                -0.14448728333509497,
                -0.4845839029911802
            ]
        },
        {
            "positions": [
                1.5721444957682487,
                -1.5388666423447956,
                -0.09472481860374349,
                -1.4529996418032531,
                -0.04259731006655332,
                -0.550769879862345
            ]
        },
        {
            "positions": [
                1.4969806268134,
                -1.558501778689927,
                0.026934765070483202,
                -1.4466295545065906,
                0.05929266320198856,
                -0.6169558567335096
            ]
        },
        {
            "positions": [
                1.4218167578585514,
                -1.578136915035058,
                0.1485943487447099,
                -1.4402594672099278,
                0.16118263647053022,
                -0.6831418336046744
            ]
        },
        {
            "positions": [
                1.3466528889037026,
                -1.5977720513801892,
                0.2702539324189368,
                -1.433889379913265,
                0.2630726097390721,
                -0.7493278104758394
            ]
        },
        {
            "positions": [
                1.271489019948854,
                -1.6174071877253204,
                0.39191351609316327,
                -1.4275192926166023,
                0.36496258300761397,
                -0.8155137873470042
            ]
        },
        {
            "positions": [
                1.1963251509940054,
                -1.6370423240704515,
                0.5135730997673902,
                -1.4211492053199395,
                0.46685255627615563,
                -0.881699764218169
            ]
        },
        {
            "positions": [
                1.1211612820391568,
                -1.6566774604155827,
                0.6352326834416167,
                -1.414779118023277,
                0.5687425295446973,
                -0.9478857410893338
            ]
        },
        {
            "positions": [
                1.045997413084308,
                -1.676312596760714,
                0.756892267115844,
                -1.4084090307266142,
                0.6706325028132394,
                -1.0140717179604988
            ]
        },
        {
            "positions": [
                0.9708335441294593,
                -1.6959477331058452,
                0.8785518507900705,
                -1.4020389434299514,
                0.7725224760817813,
                -1.0802576948316636
            ]
        },
        {
            "positions": [
                0.8903205261609856,
                -1.6847833915231545,
                0.9610803409076154,
                -1.3800696690184433,
                0.76582768398565,
                -0.8949881197548538
            ]
        },
        {
            "positions": [
                0.8098075081925118,
                -1.6736190499404635,
                1.0436088310251603,
                -1.3581003946069352,
                0.7591328918895188,
                -0.7097185446780441
            ]
        },
        {
            "positions": [
                0.7292944902240381,
                -1.6624547083577728,
                1.1261373211427053,
                -1.3361311201954271,
                0.7524380997933875,
                -0.5244489696012342
            ]
        },
        {
            "positions": [
                0.6487814722555644,
                -1.651290366775082,
                1.2086658112602502,
                -1.314161845783919,
                0.7457433076972563,
                -0.33917939452442447
            ]
        },
        {
            "positions": [
                0.5682684542870906,
                -1.640126025192391,
                1.2911943013777951,
                -1.292192571372411,
                0.7390485156011251,
                -0.15390981944761473
            ]
        },
        {
            "positions": [
                0.48775543631861684,
                -1.6289616836097003,
                1.37372279149534,
                -1.2702232969609029,
                0.7323537235049938,
                0.03135975562919513
            ]
        },
        {
            "positions": [
                0.4072424183501431,
                -1.6177973420270095,
                1.456251281612885,
                -1.248254022549395,
                0.7256589314088626,
                0.21662933070600499
            ]
        },
        {
            "positions": [
                0.3267294003816694,
                -1.6066330004443186,
                1.53877977173043,
                -1.226284748137887,
                0.7189641393127313,
                0.4018989057828146
            ]
        },
        {
            "positions": [
                0.24621638241319566,
                -1.5954686588616278,
                1.6213082618479748,
                -1.2043154737263788,
                0.7122693472166001,
                0.5871684808596245
            ]
        },
        {
            "positions": [
                0.1657033644447219,
                -1.584304317278937,
                1.7038367519655198,
                -1.1823461993148707,
                0.7055745551204688,
                0.7724380559364341
            ]
        },
        {
            "positions": [
                0.08519034647624824,
                -1.573139975696246,
                1.7863652420830647,
                -1.1603769249033626,
                0.6988797630243376,
                0.9577076310132437
            ]
        },
        {
            "positions": [
                0.004677328507774359,
                -1.5619756341135553,
                1.8688937322006096,
                -1.1384076504918546,
                0.6921849709282064,
                1.1429772060900538
            ]
        },
        {
            "positions": [
                -0.0758356894606993,
                -1.5508112925308646,
                1.9514222223181545,
                -1.1164383760803465,
                0.6854901788320751,
                1.328246781166864
            ]
        },
        {
            "positions": [
                -0.15634870742917317,
                -1.5396469509481736,
                2.0339507124356997,
                -1.0944691016688384,
                0.6787953867359439,
                1.5135163562436735
            ]
        },
        {
            "positions": [
                -0.23686172539764677,
                -1.5284826093654829,
                2.1164792025532444,
                -1.0724998272573303,
                0.6721005946398126,
                1.6987859313204834
            ]
        },
        {
            "positions": [
                -0.1920109233754077,
                -1.4808937763036814,
                2.1001474637358437,
                -1.0441601676068941,
                0.6041090819144018,
                1.8794404949503642
            ]
        },
        {
            "positions": [
                -0.14716012135316864,
                -1.43330494324188,
                2.083815724918443,
                -1.0158205079564577,
                0.5361175691889909,
                2.060095058580245
            ]
        },
        {
            "positions": [
                -0.1023093193309296,
                -1.3857161101800786,
                2.0674839861010423,
                -0.9874808483060216,
                0.4681260564635801,
                2.240749622210126
            ]
        },
        {
            "positions": [
                -0.05745851730869053,
                -1.3381272771182773,
                2.0511522472836416,
                -0.9591411886555854,
                0.4001345437381692,
                2.4214041858400073
            ]
        },
        {
            "positions": [
                -0.012607715286451465,
                -1.2905384440564758,
                2.034820508466241,
                -0.9308015290051491,
                0.3321430310127583,
                2.602058749469888
            ]
        },
        {
            "positions": [
                0.032243086735787574,
                -1.2429496109946743,
                2.0184887696488403,
                -0.9024618693547128,
                0.2641515182873475,
                2.782713313099769
            ]
        },
        {
            "positions": [
                0.07709388875802664,
                -1.1953607779328728,
                2.0021570308314396,
                -0.8741222097042767,
                0.19616000556193663,
                2.9633678767296496
            ]
        },
        {
            "positions": [
                0.12194469078026572,
                -1.1477719448710715,
                1.9858252920140391,
                -0.8457825500538404,
                0.1281684928365258,
                3.1440224403595307
            ]
        }
    ]
}{
    "goal": {
        "global_pose": {
            "orientation": {
                "w": 0.7047431468963623,
                "x": -0.7094548344612122,
                "y": 0.0024358443915843964,
                "z": -0.0022348060738295317
            },
            "position": {
                "x": 0.6094750761985779,
                "y": 0.3671506643295288,
                "z": 0.19426114857196808
            }
        },
        "name": "move_to_magneteinheit_A"
    },
    "id": "SPARS_move_to_magneteinheit_A_45",
    "joint_names": [
        "shoulder_pan_joint",
        "shoulder_lift_joint",
        "elbow_joint",
        "wrist_1_joint",
        "wrist_2_joint",
        "wrist_3_joint"
    ],
    "metrics": {
        "cart_traj_len": 1.2498584365898067,
        "distance_elbow_joint": 0.06714230610190586,
        "distance_shoulder_lift_joint": 1.122297429999222,
        "distance_shoulder_pan_joint": 1.2407846972909813,
        "distance_wrist_1_joint": 3.50633812024424,
        "distance_wrist_2_joint": 1.690567253404659,
        "distance_wrist_3_joint": 1.0974909204579648,
        "smoothness": 1.8503717119220745e-16,
        "time": 5.034477334,
        "traj_len": 2.9537468963164355,
        "weighted_distance": 4.014537076932259
    },
    "planner": "SPARS",
    "start": {
        "state": {
            "elbow_joint": 1.919643534880228,
            "shoulder_lift_joint": -1.8972525353963687,
            "shoulder_pan_joint": -1.1188672234189438,
            "wrist_1_joint": -1.5931878212786155,
            "wrist_2_joint": 1.5706036197970081,
            "wrist_3_joint": 1.118896926603594
        }
    },
    "waypoints": [
        {
            "positions": [
                -1.1188672234189438,
                -1.8972525353963687,
                1.919643534880228,
                -1.5931878212786155,
                1.5706036197970081,
                1.118896926603594
            ]
        },
        {
            "positions": [
                -1.064920062667162,
                -1.8484569949616199,
                1.922562765580311,
                -1.4407383377897354,
                1.497100695735936,
                1.0711799300619433
            ]
        },
        {
            "positions": [
                -1.0109729019153804,
                -1.7996614545268712,
                1.9254819962803937,
                -1.2882888543008555,
                1.4235977716748638,
                1.0234629335202927
            ]
        },
        {
            "positions": [
                -0.9570257411635985,
                -1.7508659140921223,
                1.9284012269804767,
                -1.1358393708119756,
                1.3500948476137917,
                0.9757459369786421
            ]
        },
        {
            "positions": [
                -0.9030785804118167,
                -1.7020703736573737,
                1.9313204576805596,
                -0.9833898873230955,
                1.2765919235527197,
                0.9280289404369914
            ]
        },
        {
            "positions": [
                -0.8491314196600348,
                -1.6532748332226248,
                1.9342396883806423,
                -0.8309404038342155,
                1.2030889994916474,
                0.8803119438953407
            ]
        },
        {
            "positions": [
                -0.7951842589082531,
                -1.6044792927878762,
                1.9371589190807252,
                -0.6784909203453355,
                1.1295860754305753,
                0.8325949473536901
            ]
        },
        {
            "positions": [
                -0.7412370981564713,
                -1.5556837523531273,
                1.9400781497808082,
                -0.5260414368564554,
                1.0560831513695033,
                0.7848779508120394
            ]
        },
        {
            "positions": [
                -0.6872899374046895,
                -1.5068882119183784,
                1.942997380480891,
                -0.37359195336757556,
                0.9825802273084311,
                0.7371609542703887
            ]
        },
        {
            "positions": [
                -0.6333427766529076,
                -1.4580926714836298,
                1.9459166111809738,
                -0.22114246987869546,
                0.9090773032473589,
                0.6894439577287381
            ]
        },
        {
            "positions": [
                -0.5793956159011259,
                -1.4092971310488809,
                1.9488358418810567,
                -0.06869298638981558,
                0.8355743791862869,
                0.6417269611870875
            ]
        },
        {
            "positions": [
                -0.5254484551493441,
                -1.360501590614132,
                1.9517550725811397,
                0.08375649709906452,
                0.7620714551252147,
                0.5940099646454369
            ]
        },
        {
            "positions": [
                -0.4715012943975623,
                -1.3117060501793834,
                1.9546743032812224,
                0.2362059805879444,
                0.6885685310641426,
                0.5462929681037862
            ]
        },
        {
            "positions": [
                -0.41755413364578053,
                -1.2629105097446347,
                1.9575935339813053,
                0.3886554640768243,
                0.6150656070030706,
                0.4985759715621356
            ]
        },
        {
            "positions": [
                -0.3636069728939987,
                -1.2141149693098856,
                1.9605127646813882,
                0.5411049475657046,
                0.5415626829419982,
                0.4508589750204849
            ]
        },
        {
            "positions": [
                -0.30965981214221694,
                -1.165319428875137,
                1.963431995381471,
                0.6935544310545845,
                0.4680597588809261,
                0.40314197847883426
            ]
        },
        {
            "positions": [
                -0.2557126513904352,
                -1.1165238884403883,
                1.9663512260815539,
                0.8460039145434644,
                0.39455683481985404,
                0.35542498193718364
            ]
        },
        {
            "positions": [
                -0.20176549063865334,
                -1.0677283480056394,
                1.9692704567816368,
                0.9984533980323442,
                0.321053910758782,
                0.3077079853955331
            ]
        },
        {
            "positions": [
                -0.1478183298868715,
                -1.0189328075708906,
                1.9721896874817197,
                1.1509028815212246,
                0.2475509866977097,
                0.2599909888538824
            ]
        },
        {
            "positions": [
                -0.09387116913508975,
                -0.9701372671361418,
                1.9751089181818025,
                1.3033523650101044,
                0.17404806263663763,
                0.21227399231223176
            ]
        },
        {
            "positions": [
                -0.039924008383307896,
                -0.921341726701393,
                1.9780281488818854,
                1.4558018484989843,
                0.10054513857556557,
                0.16455699577058114
            ]
        },
        {
            "positions": [
                0.014023152368473735,
                -0.8725461862666442,
                1.9809473795819683,
                1.6082513319878642,
                0.027042214514493512,
                0.1168399992289304
            ]
        },
        {
            "positions": [
                0.06797031312025559,
                -0.8237506458318953,
                1.983866610282051,
                1.7607008154767445,
                -0.04646070954657877,
                0.06912300268727978
            ]
        },
        {
            "positions": [
                0.12191747387203737,
                -0.7749551053971467,
                1.986785840982134,
                1.9131502989656246,
                -0.11996363360765085,
                0.021406006145629063
            ]
        }
    ]
}