{
    "goal": {
        "global_pose": {
            "orientation": {
                "w": 0.7047431468963623,
                "x": -0.7094548344612122,
                "y": 0.0024358443915843964,
                "z": -0.0022348060738295317
            },
            "position": {
                "x": 0.6094750761985779,
                "y": 0.3671506643295288,
                "z": 0.19426114857196808
            }
        },
        "name": "move_to_magneteinheit_A"
    },
    "id": "SPARS_move_to_magneteinheit_A_119",
    "joint_names": [
        "shoulder_pan_joint",
        "shoulder_lift_joint",
        "elbow_joint",
        "wrist_1_joint",
        "wrist_2_joint",
        "wrist_3_joint"
    ],
    "metrics": {
        "cart_traj_len": 3.405851188886437,
        "distance_elbow_joint": 3.91379776021422,
        "distance_shoulder_lift_joint": 0.8438442903486416,
        "distance_shoulder_pan_joint": 3.367510156735019,
        "distance_wrist_1_joint": 3.471783840063741,
        "distance_wrist_2_joint": 1.529312842850612,
        "distance_wrist_3_joint": 1.5871987074648752,
        "smoothness": 0.16115107079757784,
        "time": 5.031065625,
        "traj_len": 3.835811204644606,
        "weighted_distance": 4.784238883617876
    },
    "planner": "SPARS",
    "start": {
        "state": {
            "elbow_joint": -1.919618573717145,
            "shoulder_lift_joint": -1.2443395971678275,
            "shoulder_pan_joint": 2.6996025300909787,
            "wrist_1_joint": -1.548550951253194,
            "wrist_2_joint": -1.5709469090946802,
            "wrist_3_joint": 0.4420197732051276
        }
    },
    "waypoints": [
        {
            "positions": [
                2.6996025300909787,
                -1.2443395971678275,
                -1.919618573717145,
                -1.548550951253194,
                -1.5709469090946802,
                0.4420197732051276
            ]
        },
        {
            "positions": [
                2.548316918952819,
                -1.203948379962799,
                -1.8917902961625734,
                -1.4734936136976515,
                -1.5757706171383765,
                0.35997177052769985
            ]
        },
        {
            "positions": [
                2.397031307814659,
                -1.1635571627577705,
                -1.863962018608002,
                -1.3984362761421092,
                -1.580594325182073,
                0.2779237678502721
            ]
        },
        {
            "positions": [
                2.245745696676499,
                -1.123165945552742,
                -1.8361337410534302,
                -1.3233789385865666,
                -1.5854180332257695,
                0.19587576517284438
            ]
        },
        {
            "positions": [
                2.094460085538339,
                -1.0827747283477136,
                -1.8083054634988587,
                -1.2483216010310243,
                -1.5902417412694658,
                0.11382776249541665
            ]
        },
        {
            "positions": [
                1.943174474400179,
                -1.0423835111426851,
                -1.7804771859442872,
                -1.1732642634754815,
                -1.5950654493131624,
                0.03177975981798892
            ]
        },
        {
            "positions": [
                1.7918888632620193,
                -1.0019922939376567,
                -1.7526489083897157,
                -1.0982069259199392,
                -1.5998891573568588,
                -0.050268242859438816
            ]
        },
        {
            "positions": [
                1.6406032521238592,
                -0.9616010767326282,
                -1.724820630835144,
                -1.0231495883643968,
                -1.6047128654005551,
                -0.13231624553686655
            ]
        },
        {
            "positions": [
                1.4893176409856994,
                -0.9212098595275997,
                -1.6969923532805724,
                -0.9480922508088543,
                -1.6095365734442517,
                -0.21436424821429428
            ]
        },
        {
            "positions": [
                1.3380320298475394,
                -0.8808186423225712,
                -1.669164075726001,
                -0.8730349132533117,
                -1.614360281487948,
                -0.2964122508917221
            ]
        },
        {
            "positions": [
                1.257485885316522,
                -0.8662183447403051,
                -1.5468578957193064,
                -0.7645416682513198,
                -1.5692825909234456,
                -0.31020408330061905
            ]
        },
        {
            "positions": [
                1.1769397407855047,
                -0.851618047158039,
                -1.424551715712612,
                -0.6560484232493279,
                -1.5242049003589433,
                -0.32399591570951597
            ]
        },
        {
            "positions": [
                1.0963935962544875,
                -0.8370177495757729,
                -1.3022455357059177,
                -0.547555178247336,
                -1.4791272097944408,
                -0.33778774811841294
            ]
        },
        {
            "positions": [
                1.0158474517234701,
                -0.8224174519935068,
                -1.1799393556992233,
                -0.43906193324534404,
                -1.4340495192299385,
                -0.35157958052730987
            ]
        },
        {
            "positions": [
                0.9353013071924527,
                -0.8078171544112407,
                -1.057633175692529,
                -0.33056868824335217,
                -1.388971828665436,
                -0.36537141293620684
            ]
        },
        {
            "positions": [
                0.8547551626614354,
                -0.7932168568289745,
                -0.9353269956858346,
                -0.2220754432413603,
                -1.3438941381009335,
                -0.3791632453451038
            ]
        },
        {
            "positions": [
                0.7742090181304181,
                -0.7786165592467084,
                -0.8130208156791402,
                -0.11358219823936844,
                -1.2988164475364312,
                -0.39295507775400074
            ]
        },
        {
            "positions": [
                0.6936628735994007,
                -0.7640162616644423,
                -0.6907146356724456,
                -0.005088953237376348,
                -1.2537387569719287,
                -0.4067469101628977
            ]
        },
        {
            "positions": [
                0.6131167290683833,
                -0.7494159640821761,
                -0.5684084556657514,
                0.10340429176461552,
                -1.2086610664074264,
                -0.4205387425717947
            ]
        },
        {
            "positions": [
                0.532570584537366,
                -0.73481566649991,
                -0.4461022756590569,
                0.21189753676660739,
                -1.163583375842924,
                -0.4343305749806916
            ]
        },
        {
            "positions": [
                0.45202444000634867,
                -0.7202153689176439,
                -0.32379609565236245,
                0.32039078176859936,
                -1.1185056852784214,
                -0.4481224073895886
            ]
        },
        {
            "positions": [
                0.3714782954753314,
                -0.7056150713353778,
                -0.2014899156456682,
                0.4288840267705911,
                -1.0734279947139191,
                -0.4619142397984855
            ]
        },
        {
            "positions": [
                0.2909321509443139,
                -0.6910147737531117,
                -0.07918373563897374,
                0.5373772717725831,
                -1.0283503041494169,
                -0.4757060722073825
            ]
        },
        {
            "positions": [
                0.21038600641329674,
                -0.6764144761708456,
                0.0431224443677205,
                0.6458705167745749,
                -0.9832726135849144,
                -0.4894979046162794
            ]
        },
        {
            "positions": [
                0.12983986188227936,
                -0.6618141785885794,
                0.1654286243744152,
                0.7543637617765668,
                -0.938194923020412,
                -0.5032897370251763
            ]
        },
        {
            "positions": [
                0.04929371735126198,
                -0.6472138810063133,
                0.28773480438110965,
                0.862857006778559,
                -0.8931172324559095,
                -0.5170815694340734
            ]
        },
        {
            "positions": [
                -0.03125242717975518,
                -0.6326135834240472,
                0.4100409843878037,
                0.9713502517805508,
                -0.8480395418914072,
                -0.5308734018429703
            ]
        },
        {
            "positions": [
                -0.11179857171077279,
                -0.6180132858417811,
                0.5323471643944981,
                1.0798434967825428,
                -0.8029618513269047,
                -0.5446652342518672
            ]
        },
        {
            "positions": [
                -0.19234471624178995,
                -0.603412988259515,
                0.6546533444011926,
                1.1883367417845343,
                -0.7578841607624024,
                -0.5584570666607642
            ]
        },
        {
            "positions": [
                -0.2728908607728073,
                -0.5888126906772488,
                0.776959524407887,
                1.2968299867865265,
                -0.7128064701978999,
                -0.5722488990696611
            ]
        },
        {
            "positions": [
                -0.23338918418568416,
                -0.6076444290630552,
                0.8986814906168058,
                1.3594702769889286,
                -0.6543719042811702,
                -0.5149558955506525
            ]
        },
        {
            "positions": [
                -0.19388750759856102,
                -0.6264761674488615,
                1.0204034568257248,
                1.4221105671913306,
                -0.5959373383644405,
                -0.4576628920316439
            ]
        },
        {
            "positions": [
                -0.1543858310114379,
                -0.6453079058346677,
                1.1421254230346434,
                1.4847508573937327,
                -0.5375027724477109,
                -0.4003698885126352
            ]
        },
        {
            "positions": [
                -0.11488415442431477,
                -0.664139644220474,
                1.2638473892435624,
                1.5473911475961346,
                -0.47906820653098126,
                -0.3430768849936266
            ]
        },
        {
            "positions": [
                -0.07538247783719165,
                -0.6829713826062803,
                1.385569355452481,
                1.6100314377985367,
                -0.42063364061425157,
                -0.285783881474618
            ]
        },
        {
            "positions": [
                -0.03588080125006854,
                -0.7018031209920866,
                1.5072913216614001,
                1.6726717280009389,
                -0.36219907469752194,
                -0.22849087795560935
            ]
        },
        {
            "positions": [
                0.0036208753370545743,
                -0.7206348593778928,
                1.6290132878703187,
                1.7353120182033408,
                -0.30376450878079225,
                -0.17119787443660073
            ]
        },
        {
            "positions": [
                0.04312255192417774,
                -0.7394665977636992,
                1.7507352540792378,
                1.797952308405743,
                -0.24532994286406257,
                -0.11390487091759205
            ]
        },
        {
            "positions": [
                0.08262422851130086,
                -0.7582983361495055,
                1.8724572202881564,
                1.8605925986081449,
                -0.18689537694733294,
                -0.05661186739858337
            ]
        },
        {
            "positions": [
                0.122125905098424,
                -0.7771300745353118,
                1.9941791864970755,
                1.923232888810547,
                -0.12846081103060328,
                0.0006811361204251673
            ]
        }
    ]
}{
    "goal": {
        "global_pose": {
            "orientation": {
                "w": 0.7047431468963623,
                "x": -0.7094548344612122,
                "y": 0.0024358443915843964,
                "z": -0.0022348060738295317
            },
            "position": {
                "x": 0.6094750761985779,
                "y": 0.3671506643295288,
                "z": 0.19426114857196808
            }
        },
        "name": "move_to_magneteinheit_A"
    },
    "id": "SPARS_move_to_magneteinheit_A_119",
    "joint_names": [
        "shoulder_pan_joint",
        "shoulder_lift_joint",
        "elbow_joint",
        "wrist_1_joint",
        "wrist_2_joint",
        "wrist_3_joint"
    ],
    "metrics": {
        "cart_traj_len": 1.1786006995250633,
        "distance_elbow_joint": 0.18333753054444202,
        "distance_shoulder_lift_joint": 0.7576284662668369,
        "distance_shoulder_pan_joint": 1.2416050086329133,
        "distance_wrist_1_joint": 1.5269703563933263,
        "distance_wrist_2_joint": 1.447042963898231,
        "distance_wrist_3_joint": 4.305158799396748,
        "smoothness": 0.20354256623447142,
        "time": 5.0510265940000005,
        "traj_len": 3.075994656226259,
        "weighted_distance": 4.587600030976715
    },
    "planner": "SPARS",
    "start": {
        "state": {
            "elbow_joint": 1.919643534880228,
            "shoulder_lift_joint": -1.8972525353963687,
            "shoulder_pan_joint": -1.1188672234189438,
            "wrist_1_joint": -1.5931878212786155,
            "wrist_2_joint": 1.5706036197970081,
            "wrist_3_joint": 1.118896926603594
        }
    },
    "waypoints": [
        {
            "positions": [
                -1.1188672234189438,
                -1.8972525353963687,
                1.919643534880228,
                -1.5931878212786155,
                1.5706036197970081,
                1.118896926603594
            ]
        },
        {
            "positions": [
                -1.0689905710907854,
                -1.8741403261691798,
                1.924970229446309,
                -1.5399823700623487,
                1.5049476573776888,
                0.9332927006106622
            ]
        },
        {
            "positions": [
                -1.0191139187626272,
                -1.8510281169419909,
                1.9302969240123895,
                -1.486776918846082,
                1.4392916949583694,
                0.7476884746177305
            ]
        },
        {
            "positions": [
                -0.9692372664344688,
                -1.827915907714802,
                1.9356236185784703,
                -1.4335714676298155,
                1.3736357325390502,
                0.5620842486247988
            ]
        },
        {
            "positions": [
                -0.9193606141063104,
                -1.804803698487613,
                1.940950313144551,
                -1.3803660164135487,
                1.3079797701197309,
                0.376480022631867
            ]
        },
        {
            "positions": [
                -0.8694839617781521,
                -1.781691489260424,
                1.9462770077106317,
                -1.327160565197282,
                1.2423238077004117,
                0.19087579663893528
            ]
        },
        {
            "positions": [
                -0.8196073094499938,
                -1.7585792800332352,
                1.9516037022767125,
                -1.2739551139810152,
                1.1766678452810924,
                0.005271570646003587
            ]
        },
        {
            "positions": [
                -0.7697306571218354,
                -1.7354670708060462,
                1.9569303968427931,
                -1.2207496627647485,
                1.111011882861773,
                -0.18033265534692822
            ]
        },
        {
            "positions": [
                -0.719854004793677,
                -1.7123548615788573,
                1.962257091408874,
                -1.167544211548482,
                1.0453559204424536,
                -0.36593688133986
            ]
        },
        {
            "positions": [
                -0.6699773524655186,
                -1.6892426523516684,
                1.9675837859749545,
                -1.1143387603322152,
                0.9796999580231344,
                -0.5515411073327918
            ]
        },
        {
            "positions": [
                -0.6201007001373604,
                -1.6661304431244797,
                1.9729104805410353,
                -1.0611333091159487,
                0.9140439956038151,
                -0.7371453333257234
            ]
        },
        {
            "positions": [
                -0.570224047809202,
                -1.6430182338972905,
                1.978237175107116,
                -1.007927857899682,
                0.8483880331844957,
                -0.9227495593186552
            ]
        },
        {
            "positions": [
                -0.5203473954810437,
                -1.6199060246701018,
                1.9835638696731968,
                -0.9547224066834152,
                0.7827320707651765,
                -1.1083537853115868
            ]
        },
        {
            "positions": [
                -0.4704707431528853,
                -1.5967938154429127,
                1.9888905642392776,
                -0.9015169554671485,
                0.7170761083458571,
                -1.2939580113045188
            ]
        },
        {
            "positions": [
                -0.420594090824727,
                -1.573681606215724,
                1.9942172588053582,
                -0.8483115042508818,
                0.6514201459265379,
                -1.4795622372974504
            ]
        },
        {
            "positions": [
                -0.3707174384965687,
                -1.550569396988535,
                1.999543953371439,
                -0.7951060530346151,
                0.5857641835072186,
                -1.665166463290382
            ]
        },
        {
            "positions": [
                -0.3208407861684103,
                -1.527457187761346,
                2.0048706479375196,
                -0.7419006018183484,
                0.5201082210878991,
                -1.850770689283314
            ]
        },
        {
            "positions": [
                -0.27096413384025186,
                -1.5043449785341572,
                2.0101973425036004,
                -0.6886951506020818,
                0.45445225866857997,
                -2.0363749152762454
            ]
        },
        {
            "positions": [
                -0.22108748151209345,
                -1.4812327693069682,
                2.015524037069681,
                -0.635489699385815,
                0.3887962962492606,
                -2.221979141269178
            ]
        },
        {
            "positions": [
                -0.17121082918393515,
                -1.4581205600797793,
                2.020850731635762,
                -0.5822842481695483,
                0.32314033382994123,
                -2.4075833672621094
            ]
        },
        {
            "positions": [
                -0.12133417685577685,
                -1.4350083508525904,
                2.0261774262018424,
                -0.5290787969532817,
                0.2574843714106221,
                -2.593187593255041
            ]
        },
        {
            "positions": [
                -0.07145752452761855,
                -1.4118961416254014,
                2.031504120767923,
                -0.475873345737015,
                0.1918284089913025,
                -2.7787918192479726
            ]
        },
        {
            "positions": [
                -0.021580872199460234,
                -1.3887839323982125,
                2.036830815334004,
                -0.42266789452074827,
                0.12617244657198334,
                -2.964396045240904
            ]
        },
        {
            "positions": [
                0.02652534693834962,
                -1.3057306446419856,
                2.0147807319704487,
                -0.5414847043992347,
                0.12530184968091454,
                -3.038351321091654
            ]
        },
        {
            "positions": [
                0.07463156607615948,
                -1.2226773568857587,
                1.9927306486068932,
                -0.6603015142777211,
                0.12443125278984572,
                -3.112306596942404
            ]
        },
        {
            "positions": [
                0.12273778521396933,
                -1.1396240691295318,
                1.970680565243338,
                -0.7791183241562075,
                0.12356065589877692,
                -3.186261872793154
            ]
        }
    ]
}