{
    "goal": {
        "global_pose": {
            "orientation": {
                "w": 0.5084816217422485,
                "x": -0.49083608388900757,
                "y": 0.5182115435600281,
                "z": -0.4816462993621826
            },
            "position": {
                "x": 0.5540239810943604,
                "y": 0.030875300988554955,
                "z": 0.16403168439865112
            }
        },
        "name": "move_to_storage_A"
    },
    "id": "SPARS_move_to_storage_A_33",
    "joint_names": [
        "shoulder_pan_joint",
        "shoulder_lift_joint",
        "elbow_joint",
        "wrist_1_joint",
        "wrist_2_joint",
        "wrist_3_joint"
    ],
    "metrics": {
        "cart_traj_len": 0.3524737519959442,
        "distance_elbow_joint": 0.45276156797444855,
        "distance_shoulder_lift_joint": 0.2327724317951605,
        "distance_shoulder_pan_joint": 0.4569774042774822,
        "distance_wrist_1_joint": 0.25917881609300386,
        "distance_wrist_2_joint": 1.113925479283346,
        "distance_wrist_3_joint": 0.11077880690845543,
        "smoothness": 6.661338200497456e-16,
        "time": 5.0185067189999994,
        "traj_len": 1.6206154714588827,
        "weighted_distance": 2.0545209698431304
    },
    "planner": "SPARS",
    "start": {
        "state": {
            "elbow_joint": 1.9715477243005601,
            "shoulder_lift_joint": -1.1394853015351272,
            "shoulder_pan_joint": 0.12281154014795169,
            "wrist_1_joint": -0.7804696478968182,
            "wrist_2_joint": 0.12958648046900423,
            "wrist_3_joint": -3.192491284697111
        }
    },
    "waypoints": [
        {
            "positions": [
                0.12281154014795169,
                -1.1394853015351272,
                1.9715477243005601,
                -0.7804696478968182,
                0.12958648046900423,
                -3.192491284697111
            ]
        },
        {
            "positions": [
                0.0575290538225971,
                -1.172738506077293,
                2.03622794829691,
                -0.8174951930529616,
                0.2887186917951965,
                -3.1766657408530463
            ]
        },
        {
            "positions": [
                -0.007753432502757493,
                -1.2059917106194586,
                2.1009081722932597,
                -0.854520738209105,
                0.44785090312138875,
                -3.160840197008981
            ]
        },
        {
            "positions": [
                -0.0730359188281121,
                -1.2392449151616245,
                2.1655883962896096,
                -0.8915462833652483,
                0.606983114447581,
                -3.145014653164916
            ]
        },
        {
            "positions": [
                -0.13831840515346666,
                -1.2724981197037903,
                2.230268620285959,
                -0.9285718285213918,
                0.7661153257737733,
                -3.129189109320851
            ]
        },
        {
            "positions": [
                -0.20360089147882127,
                -1.3057513242459562,
                2.294948844282309,
                -0.9655973736775352,
                0.9252475370999657,
                -3.113363565476786
            ]
        },
        {
            "positions": [
                -0.26888337780417587,
                -1.3390045287881218,
                2.3596290682786587,
                -1.0026229188336786,
                1.0843797484261577,
                -3.0975380216327206
            ]
        },
        {
            "positions": [
                -0.3341658641295305,
                -1.3722577333302877,
                2.4243092922750087,
                -1.039648463989822,
                1.2435119597523503,
                -3.0817124777886558
            ]
        }
    ]
}