{
    "goal": {
        "global_pose": {
            "orientation": {
                "w": 0.5084816217422485,
                "x": -0.49083608388900757,
                "y": 0.5182115435600281,
                "z": -0.4816462993621826
            },
            "position": {
                "x": 0.5540239810943604,
                "y": 0.030875300988554955,
                "z": 0.16403168439865112
            }
        },
        "name": "move_to_storage_A"
    },
    "id": "SPARStwo_move_to_storage_A_43",
    "joint_names": [
        "shoulder_pan_joint",
        "shoulder_lift_joint",
        "elbow_joint",
        "wrist_1_joint",
        "wrist_2_joint",
        "wrist_3_joint"
    ],
    "metrics": {
        "cart_traj_len": 0.35300231388145265,
        "distance_elbow_joint": 0.44992670443185423,
        "distance_shoulder_lift_joint": 0.2352089798340975,
        "distance_shoulder_pan_joint": 0.46301483547207234,
        "distance_wrist_1_joint": 0.24506255873158034,
        "distance_wrist_2_joint": 1.0925808672002035,
        "distance_wrist_3_joint": 0.10427778637182028,
        "smoothness": 8.881784197001252e-16,
        "time": 5.005608570000001,
        "traj_len": 1.6093699798497636,
        "weighted_distance": 2.0337823705394467
    },
    "planner": "SPARStwo",
    "start": {
        "state": {
            "elbow_joint": 1.9715477243005601,
            "shoulder_lift_joint": -1.1394853015351272,
            "shoulder_pan_joint": 0.12281154014795169,
            "wrist_1_joint": -0.7804696478968182,
            "wrist_2_joint": 0.12958648046900423,
            "wrist_3_joint": -3.192491284697111
        }
    },
    "waypoints": [
        {
            "positions": [
                0.12281154014795169,
                -1.1394853015351272,
                1.9715477243005601,
                -0.7804696478968182,
                0.12958648046900423,
                -3.192491284697111
            ]
        },
        {
            "positions": [
                0.056666563651941365,
                -1.1730865843685696,
                2.035822967790825,
                -0.8154785848584725,
                0.28566946149760475,
                -3.1775944580725652
            ]
        },
        {
            "positions": [
                -0.009478412844068959,
                -1.2066878672020123,
                2.10009821128109,
                -0.8504875218201269,
                0.4417524425262052,
                -3.1626976314480197
            ]
        },
        {
            "positions": [
                -0.0756233893400793,
                -1.2402891500354547,
                2.1643734547713547,
                -0.8854964587817812,
                0.5978354235548058,
                -3.147800804823474
            ]
        },
        {
            "positions": [
                -0.1417683658360896,
                -1.2738904328688971,
                2.22864869826162,
                -0.9205053957434355,
                0.7539184045834062,
                -3.1329039781989283
            ]
        },
        {
            "positions": [
                -0.20791334233209996,
                -1.3074917157023398,
                2.2929239417518845,
                -0.9555143327050899,
                0.9100013856120067,
                -3.1180071515743824
            ]
        },
        {
            "positions": [
                -0.27405831882811027,
                -1.3410929985357822,
                2.357199185242149,
                -0.9905232696667441,
                1.0660843666406072,
                -3.103110324949837
            ]
        },
        {
            "positions": [
                -0.34020329532412064,
                -1.3746942813692247,
                2.4214744287324144,
                -1.0255322066283985,
                1.2221673476692076,
                -3.088213498325291
            ]
        }
    ]
}