{
    "goal": {
        "global_pose": {
            "orientation": {
                "w": 0.5084816217422485,
                "x": -0.49083608388900757,
                "y": 0.5182115435600281,
                "z": -0.4816462993621826
            },
            "position": {
                "x": 0.5540239810943604,
                "y": 0.030875300988554955,
                "z": 0.16403168439865112
            }
        },
        "name": "move_to_storage_A"
    },
    "id": "SPARS_move_to_storage_A_68",
    "joint_names": [
        "shoulder_pan_joint",
        "shoulder_lift_joint",
        "elbow_joint",
        "wrist_1_joint",
        "wrist_2_joint",
        "wrist_3_joint"
    ],
    "metrics": {
        "cart_traj_len": 0.352829977949408,
        "distance_elbow_joint": 0.4505029375412284,
        "distance_shoulder_lift_joint": 0.23619488468653582,
        "distance_shoulder_pan_joint": 0.46134535878403277,
        "distance_wrist_1_joint": 0.2416798204587115,
        "distance_wrist_2_joint": 1.099486652939166,
        "distance_wrist_3_joint": 0.1048677657823105,
        "smoothness": 8.881784197001252e-16,
        "time": 5.011557077,
        "traj_len": 1.610613988574539,
        "weighted_distance": 2.0359222542018847
    },
    "planner": "SPARS",
    "start": {
        "state": {
            "elbow_joint": 1.9715477243005601,
            "shoulder_lift_joint": -1.1394853015351272,
            "shoulder_pan_joint": 0.12281154014795169,
            "wrist_1_joint": -0.7804696478968182,
            "wrist_2_joint": 0.12958648046900423,
            "wrist_3_joint": -3.192491284697111
        }
    },
    "waypoints": [
        {
            "positions": [
                0.12281154014795169,
                -1.1394853015351272,
                1.9715477243005601,
                -0.7804696478968182,
                0.12958648046900423,
                -3.192491284697111
            ]
        },
        {
            "positions": [
                0.0569050603216613,
                -1.173227427918918,
                2.0359052868064498,
                -0.814995336533777,
                0.28665600231745647,
                -3.177510175299638
            ]
        },
        {
            "positions": [
                -0.009001419504629085,
                -1.2069695543027088,
                2.10026284931234,
                -0.8495210251707357,
                0.44372552416590877,
                -3.162529065902165
            ]
        },
        {
            "positions": [
                -0.07490789933091947,
                -1.2407116806864997,
                2.1646204118182295,
                -0.8840467138076945,
                0.6007950460143611,
                -3.147547956504692
            ]
        },
        {
            "positions": [
                -0.14081437915720985,
                -1.2744538070702904,
                2.228977974324119,
                -0.9185724024446533,
                0.7578645678628133,
                -3.1325668471072197
            ]
        },
        {
            "positions": [
                -0.2067208589835003,
                -1.3081959334540814,
                2.293335536830009,
                -0.953098091081612,
                0.9149340897112657,
                -3.1175857377097467
            ]
        },
        {
            "positions": [
                -0.2726273388097906,
                -1.341938059837872,
                2.357693099335899,
                -0.9876237797185708,
                1.072003611559718,
                -3.1026046283122737
            ]
        },
        {
            "positions": [
                -0.33853381863608106,
                -1.375680186221663,
                2.4220506618417885,
                -1.0221494683555297,
                1.2290731334081704,
                -3.0876235189148007
            ]
        }
    ]
}