{
    "goal": {
        "global_pose": {
            "orientation": {
                "w": 0.5084816217422485,
                "x": -0.49083608388900757,
                "y": 0.5182115435600281,
                "z": -0.4816462993621826
            },
            "position": {
                "x": 0.5540239810943604,
                "y": 0.030875300988554955,
                "z": 0.16403168439865112
            }
        },
        "name": "move_to_storage_A"
    },
    "id": "SPARS_move_to_storage_A_120",
    "joint_names": [
        "shoulder_pan_joint",
        "shoulder_lift_joint",
        "elbow_joint",
        "wrist_1_joint",
        "wrist_2_joint",
        "wrist_3_joint"
    ],
    "metrics": {
        "cart_traj_len": 0.35327595742991036,
        "distance_elbow_joint": 0.45278375707620677,
        "distance_shoulder_lift_joint": 0.2358966597255152,
        "distance_shoulder_pan_joint": 0.4601516801811342,
        "distance_wrist_1_joint": 0.2535919751251471,
        "distance_wrist_2_joint": 1.1078897156044945,
        "distance_wrist_3_joint": 0.1093984710206164,
        "smoothness": 4.440892098500626e-16,
        "time": 5.044614971,
        "traj_len": 1.6185525196091457,
        "weighted_distance": 2.049387930945234
    },
    "planner": "SPARS",
    "start": {
        "state": {
            "elbow_joint": 1.9715477243005601,
            "shoulder_lift_joint": -1.1394853015351272,
            "shoulder_pan_joint": 0.12281154014795169,
            "wrist_1_joint": -0.7804696478968182,
            "wrist_2_joint": 0.12958648046900423,
            "wrist_3_joint": -3.192491284697111
        }
    },
    "waypoints": [
        {
            "positions": [
                0.12281154014795169,
                -1.1394853015351272,
                1.9715477243005601,
                -0.7804696478968182,
                0.12958648046900423,
                -3.192491284697111
            ]
        },
        {
            "positions": [
                0.05707558583636109,
                -1.1731848243530578,
                2.0362311181685895,
                -0.8166970729146963,
                0.2878564398410749,
                -3.176862931694166
            ]
        },
        {
            "positions": [
                -0.00866036847522951,
                -1.2068843471709887,
                2.1009145120366193,
                -0.8529244979325745,
                0.4461263992131455,
                -3.1612345786912206
            ]
        },
        {
            "positions": [
                -0.07439632278682011,
                -1.2405838699889193,
                2.1655979059046486,
                -0.8891519229504526,
                0.6043963585852161,
                -3.1456062256882755
            ]
        },
        {
            "positions": [
                -0.1401322770984107,
                -1.2742833928068502,
                2.2302812997726784,
                -0.9253793479683308,
                0.7626663179572868,
                -3.1299778726853305
            ]
        },
        {
            "positions": [
                -0.20586823141000132,
                -1.3079829156247809,
                2.2949646936407078,
                -0.961606772986209,
                0.9209362773293575,
                -3.1143495196823854
            ]
        },
        {
            "positions": [
                -0.2716041857215919,
                -1.3416824384427115,
                2.359648087508737,
                -0.997834198004087,
                1.079206236701428,
                -3.09872116667944
            ]
        },
        {
            "positions": [
                -0.3373401400331825,
                -1.3753819612606424,
                2.424331481376767,
                -1.0340616230219652,
                1.2374761960734986,
                -3.083092813676495
            ]
        }
    ]
}