{
    "goal": {
        "global_pose": {
            "orientation": {
                "w": 0.7047431468963623,
                "x": -0.7094548344612122,
                "y": 0.0024358443915843964,
                "z": -0.0022348060738295317
            },
            "position": {
                "x": 0.6094750761985779,
                "y": 0.3671506643295288,
                "z": 0.19426114857196808
            }
        },
        "name": "move_to_magneteinheit_A"
    },
    "id": "SPARStwo_move_to_magneteinheit_A_124",
    "joint_names": [
        "shoulder_pan_joint",
        "shoulder_lift_joint",
        "elbow_joint",
        "wrist_1_joint",
        "wrist_2_joint",
        "wrist_3_joint"
    ],
    "metrics": {
        "cart_traj_len": 1.2365673787658613,
        "distance_elbow_joint": 0.3548185474966117,
        "distance_shoulder_lift_joint": 0.7658180773753676,
        "distance_shoulder_pan_joint": 1.2426231550325517,
        "distance_wrist_1_joint": 0.9464841102972125,
        "distance_wrist_2_joint": 2.012783873332873,
        "distance_wrist_3_joint": 4.355477057702983,
        "smoothness": 0.36576464164154077,
        "time": 5.040359414,
        "traj_len": 3.110949183326144,
        "weighted_distance": 4.620414150297964
    },
    "planner": "SPARStwo",
    "start": {
        "state": {
            "elbow_joint": 1.919643534880228,
            "shoulder_lift_joint": -1.8972525353963687,
            "shoulder_pan_joint": -1.1188672234189438,
            "wrist_1_joint": -1.5931878212786155,
            "wrist_2_joint": 1.5706036197970081,
            "wrist_3_joint": 1.118896926603594
        }
    },
    "waypoints": [
        {
            "positions": [
                -1.1188672234189438,
                -1.8972525353963687,
                1.919643534880228,
                -1.5931878212786155,
                1.5706036197970081,
                1.118896926603594
            ]
        },
        {
            "positions": [
                -1.0691020581787773,
                -1.8674480695733318,
                1.912780235311872,
                -1.5538015594299064,
                1.4954159802211069,
                0.9364129696996916
            ]
        },
        {
            "positions": [
                -1.019336892938611,
                -1.8376436037502946,
                1.9059169357435155,
                -1.514415297581197,
                1.4202283406452056,
                0.7539290127957892
            ]
        },
        {
            "positions": [
                -0.9695717276984446,
                -1.8078391379272576,
                1.8990536361751593,
                -1.475029035732488,
                1.3450407010693044,
                0.5714450558918869
            ]
        },
        {
            "positions": [
                -0.9198065624582782,
                -1.7780346721042204,
                1.8921903366068031,
                -1.4356427738837787,
                1.2698530614934032,
                0.3889610989879845
            ]
        },
        {
            "positions": [
                -0.8700413972181118,
                -1.7482302062811834,
                1.8853270370384467,
                -1.3962565120350696,
                1.194665421917502,
                0.2064771420840822
            ]
        },
        {
            "positions": [
                -0.8202762319779454,
                -1.7184257404581464,
                1.8784637374700905,
                -1.3568702501863603,
                1.1194777823416007,
                0.023993185180179788
            ]
        },
        {
            "positions": [
                -0.770511066737779,
                -1.6886212746351092,
                1.8716004379017344,
                -1.317483988337651,
                1.0442901427656994,
                -0.15849077172372272
            ]
        },
        {
            "positions": [
                -0.7207459014976125,
                -1.6588168088120723,
                1.864737138333378,
                -1.278097726488942,
                0.9691025031897984,
                -0.340974728627625
            ]
        },
        {
            "positions": [
                -0.6709807362574461,
                -1.6290123429890353,
                1.8578738387650218,
                -1.2387114646402329,
                0.893914863613897,
                -0.5234586855315273
            ]
        },
        {
            "positions": [
                -0.6212155710172798,
                -1.599207877165998,
                1.8510105391966656,
                -1.1993252027915235,
                0.8187272240379959,
                -0.7059426424354296
            ]
        },
        {
            "positions": [
                -0.5714504057771133,
                -1.5694034113429611,
                1.8441472396283092,
                -1.1599389409428145,
                0.7435395844620947,
                -0.8884265993393321
            ]
        },
        {
            "positions": [
                -0.521685240536947,
                -1.539598945519924,
                1.837283940059953,
                -1.1205526790941052,
                0.6683519448861934,
                -1.0709105562432344
            ]
        },
        {
            "positions": [
                -0.4719200752967806,
                -1.509794479696887,
                1.8304206404915968,
                -1.081166417245396,
                0.5931643053102923,
                -1.2533945131471367
            ]
        },
        {
            "positions": [
                -0.4221549100566141,
                -1.47999001387385,
                1.8235573409232404,
                -1.0417801553966868,
                0.5179766657343909,
                -1.4358784700510394
            ]
        },
        {
            "positions": [
                -0.3723897448164477,
                -1.4501855480508128,
                1.8166940413548842,
                -1.0023938935479777,
                0.4427890261584897,
                -1.6183624269549417
            ]
        },
        {
            "positions": [
                -0.3226245795762813,
                -1.4203810822277758,
                1.8098307417865278,
                -0.9630076316992685,
                0.3676013865825887,
                -1.800846383858844
            ]
        },
        {
            "positions": [
                -0.27285941433611494,
                -1.3905766164047386,
                1.8029674422181716,
                -0.9236213698505593,
                0.29241374700668743,
                -1.9833303407627463
            ]
        },
        {
            "positions": [
                -0.22309424909594844,
                -1.3607721505817016,
                1.7961041426498154,
                -0.8842351080018501,
                0.21722610743078596,
                -2.165814297666649
            ]
        },
        {
            "positions": [
                -0.17332908385578205,
                -1.3309676847586647,
                1.789240843081459,
                -0.8448488461531409,
                0.14203846785488494,
                -2.348298254570551
            ]
        },
        {
            "positions": [
                -0.12356391861561566,
                -1.3011632189356275,
                1.7823775435131028,
                -0.8054625843044317,
                0.0668508282789837,
                -2.5307822114744534
            ]
        },
        {
            "positions": [
                -0.07379875337544917,
                -1.2713587531125905,
                1.7755142439447467,
                -0.7660763224557225,
                -0.008336811296917546,
                -2.7132661683783557
            ]
        },
        {
            "positions": [
                -0.02403358813528267,
                -1.2415542872895533,
                1.7686509443763903,
                -0.7266900606070134,
                -0.08352445087281879,
                -2.895750125282258
            ]
        },
        {
            "positions": [
                0.025731577104883635,
                -1.2117498214665163,
                1.761787644808034,
                -0.6873037987583042,
                -0.15871209044871998,
                -3.0782340821861602
            ]
        },
        {
            "positions": [
                0.0584063619411251,
                -1.1849780336513447,
                1.8274418639495067,
                -0.7008371613506046,
                -0.06422270275300501,
                -3.13101609849057
            ]
        },
        {
            "positions": [
                0.09108114677736656,
                -1.1582062458361728,
                1.893096083090979,
                -0.7143705239429049,
                0.030266684942709954,
                -3.1837981147949797
            ]
        },
        {
            "positions": [
                0.12375593161360804,
                -1.1314344580210012,
                1.9587503022324517,
                -0.7279038865352053,
                0.12475607263842493,
                -3.2365801310993896
            ]
        }
    ]
}