{
    "goal": {
        "global_pose": {
            "orientation": {
                "w": 0.5084816217422485,
                "x": -0.49083608388900757,
                "y": 0.5182115435600281,
                "z": -0.4816462993621826
            },
            "position": {
                "x": 0.5540239810943604,
                "y": 0.030875300988554955,
                "z": 0.16403168439865112
            }
        },
        "name": "move_to_storage_A"
    },
    "id": "SPARStwo_move_to_storage_A_53",
    "joint_names": [
        "shoulder_pan_joint",
        "shoulder_lift_joint",
        "elbow_joint",
        "wrist_1_joint",
        "wrist_2_joint",
        "wrist_3_joint"
    ],
    "metrics": {
        "cart_traj_len": 0.3527381190824224,
        "distance_elbow_joint": 0.4534995077566686,
        "distance_shoulder_lift_joint": 0.23233726610552452,
        "distance_shoulder_pan_joint": 0.4596268324686176,
        "distance_wrist_1_joint": 0.26121804694737916,
        "distance_wrist_2_joint": 1.1045134388772908,
        "distance_wrist_3_joint": 0.10349731565126064,
        "smoothness": 6.661338165333112e-16,
        "time": 5.011997379,
        "traj_len": 1.6170010537432378,
        "weighted_distance": 2.046318285344177
    },
    "planner": "SPARStwo",
    "start": {
        "state": {
            "elbow_joint": 1.9715477243005601,
            "shoulder_lift_joint": -1.1394853015351272,
            "shoulder_pan_joint": 0.12281154014795169,
            "wrist_1_joint": -0.7804696478968182,
            "wrist_2_joint": 0.12958648046900423,
            "wrist_3_joint": -3.192491284697111
        }
    },
    "waypoints": [
        {
            "positions": [
                0.12281154014795169,
                -1.1394853015351272,
                1.9715477243005601,
                -0.7804696478968182,
                0.12958648046900423,
                -3.192491284697111
            ]
        },
        {
            "positions": [
                0.05715056408100633,
                -1.172676339550202,
                2.0363333682657987,
                -0.8177865117464438,
                0.2873741145943315,
                -3.177705953889788
            ]
        },
        {
            "positions": [
                -0.008510411985939034,
                -1.205867377565277,
                2.101119012231037,
                -0.8551033755960693,
                0.44516174871965875,
                -3.1629206230824654
            ]
        },
        {
            "positions": [
                -0.07417138805288441,
                -1.239058415580352,
                2.1659046561962754,
                -0.8924202394456949,
                0.602949382844986,
                -3.148135292275142
            ]
        },
        {
            "positions": [
                -0.13983236411982974,
                -1.272249453595427,
                2.2306903001615135,
                -0.9297371032953206,
                0.7607370169703133,
                -3.1333499614678195
            ]
        },
        {
            "positions": [
                -0.20549334018677512,
                -1.3054404916105018,
                2.295475944126752,
                -0.9670539671449461,
                0.9185246510956405,
                -3.1185646306604964
            ]
        },
        {
            "positions": [
                -0.2711543162537205,
                -1.3386315296255766,
                2.36026158809199,
                -1.0043708309945718,
                1.076312285220968,
                -3.1037792998531737
            ]
        },
        {
            "positions": [
                -0.33681529232066587,
                -1.3718225676406517,
                2.4250472320572287,
                -1.0416876948441973,
                1.2340999193462951,
                -3.0889939690458506
            ]
        }
    ]
}