{
    "goal": {
        "global_pose": {
            "orientation": {
                "w": 0.7047431468963623,
                "x": -0.7094548344612122,
                "y": 0.0024358443915843964,
                "z": -0.0022348060738295317
            },
            "position": {
                "x": 0.6094750761985779,
                "y": 0.3671506643295288,
                "z": 0.19426114857196808
            }
        },
        "name": "move_to_magneteinheit_A"
    },
    "id": "SPARS_move_to_magneteinheit_A_72",
    "joint_names": [
        "shoulder_pan_joint",
        "shoulder_lift_joint",
        "elbow_joint",
        "wrist_1_joint",
        "wrist_2_joint",
        "wrist_3_joint"
    ],
    "metrics": {
        "cart_traj_len": 3.619473064395997,
        "distance_elbow_joint": 3.9109310234215195,
        "distance_shoulder_lift_joint": 0.7697514443412405,
        "distance_shoulder_pan_joint": 2.774818580671516,
        "distance_wrist_1_joint": 3.4665826213262676,
        "distance_wrist_2_joint": 1.439244205695473,
        "distance_wrist_3_joint": 1.3245120526284995,
        "smoothness": 0.10278508866790255,
        "time": 5.01366098,
        "traj_len": 3.699437785405306,
        "weighted_distance": 4.608762400076972
    },
    "planner": "SPARS",
    "start": {
        "state": {
            "elbow_joint": -1.919618573717145,
            "shoulder_lift_joint": -1.2443395971678275,
            "shoulder_pan_joint": 2.6996025300909787,
            "wrist_1_joint": -1.548550951253194,
            "wrist_2_joint": -1.5709469090946802,
            "wrist_3_joint": 0.4420197732051276
        }
    },
    "waypoints": [
        {
            "positions": [
                2.6996025300909787,
                -1.2443395971678275,
                -1.919618573717145,
                -1.548550951253194,
                -1.5709469090946802,
                0.4420197732051276
            ]
        },
        {
            "positions": [
                2.553010204550009,
                -1.2079637010321922,
                -1.821626704886844,
                -1.5249121146426277,
                -1.510834694312719,
                0.4682826347706169
            ]
        },
        {
            "positions": [
                2.406417879009039,
                -1.1715878048965571,
                -1.7236348360565428,
                -1.5012732780320615,
                -1.4507224795307578,
                0.4945454963361061
            ]
        },
        {
            "positions": [
                2.259825553468069,
                -1.1352119087609218,
                -1.6256429672262418,
                -1.477634441421495,
                -1.3906102647487968,
                0.5208083579015954
            ]
        },
        {
            "positions": [
                2.113233227927099,
                -1.0988360126252867,
                -1.5276510983959406,
                -1.4539956048109286,
                -1.3304980499668355,
                0.5470712194670847
            ]
        },
        {
            "positions": [
                1.9666409023861293,
                -1.0624601164896514,
                -1.4296592295656394,
                -1.4303567682003622,
                -1.2703858351848745,
                0.573334081032574
            ]
        },
        {
            "positions": [
                1.8200485768451595,
                -1.0260842203540164,
                -1.3316673607353384,
                -1.406717931589796,
                -1.2102736204029134,
                0.5995969425980632
            ]
        },
        {
            "positions": [
                1.6734562513041897,
                -0.9897083242183811,
                -1.2336754919050374,
                -1.3830790949792295,
                -1.1501614056209521,
                0.6258598041635525
            ]
        },
        {
            "positions": [
                1.5268639257632197,
                -0.953332428082746,
                -1.1356836230747365,
                -1.3594402583686631,
                -1.090049190838991,
                0.6521226657290418
            ]
        },
        {
            "positions": [
                1.38027160022225,
                -0.9169565319471107,
                -1.037691754244435,
                -1.335801421758097,
                -1.02993697605703,
                0.678385527294531
            ]
        },
        {
            "positions": [
                1.23367927468128,
                -0.8805806358114756,
                -0.9396998854141341,
                -1.3121625851475305,
                -0.9698247612750688,
                0.7046483888600203
            ]
        },
        {
            "positions": [
                1.0870869491403101,
                -0.8442047396758403,
                -0.8417080165838331,
                -1.288523748536964,
                -0.9097125464931076,
                0.7309112504255095
            ]
        },
        {
            "positions": [
                0.9404946235993401,
                -0.8078288435402051,
                -0.7437161477535319,
                -1.2648849119263978,
                -0.8496003317111465,
                0.7571741119909988
            ]
        },
        {
            "positions": [
                0.7939022980583705,
                -0.7714529474045699,
                -0.6457242789232309,
                -1.2412460753158314,
                -0.7894881169291854,
                0.7834369735564881
            ]
        },
        {
            "positions": [
                0.6473099725174007,
                -0.7350770512689347,
                -0.5477324100929299,
                -1.217607238705265,
                -0.7293759021472243,
                0.8096998351219773
            ]
        },
        {
            "positions": [
                0.5007176469764305,
                -0.6987011551332996,
                -0.44974054126262875,
                -1.1939684020946988,
                -0.6692636873652631,
                0.8359626966874667
            ]
        },
        {
            "positions": [
                0.3541253214354607,
                -0.6623252589976644,
                -0.35174867243232777,
                -1.1703295654841324,
                -0.6091514725833019,
                0.8622255582529559
            ]
        },
        {
            "positions": [
                0.20753299589449095,
                -0.6259493628620292,
                -0.25375680360202646,
                -1.146690728873566,
                -0.5490392578013409,
                0.8884884198184452
            ]
        },
        {
            "positions": [
                0.19603931592458926,
                -0.6323044249464014,
                -0.1292547942548048,
                -0.9819579848569402,
                -0.5239082671237344,
                0.8428594339875007
            ]
        },
        {
            "positions": [
                0.18454563595468754,
                -0.6386594870307736,
                -0.00475278490758313,
                -0.8172252408403144,
                -0.4987772764461279,
                0.7972304481565562
            ]
        },
        {
            "positions": [
                0.17305195598478584,
                -0.6450145491151458,
                0.11974922443963854,
                -0.6524924968236888,
                -0.4736462857685214,
                0.7516014623256118
            ]
        },
        {
            "positions": [
                0.16155827601488415,
                -0.651369611199518,
                0.2442512337868602,
                -0.4877597528070631,
                -0.448515295090915,
                0.7059724764946672
            ]
        },
        {
            "positions": [
                0.15006459604498246,
                -0.6577246732838902,
                0.36875324313408187,
                -0.32302700879043733,
                -0.4233843044133085,
                0.6603434906637228
            ]
        },
        {
            "positions": [
                0.13857091607508076,
                -0.6640797353682624,
                0.49325525248130353,
                -0.1582942647738117,
                -0.398253313735702,
                0.6147145048327782
            ]
        },
        {
            "positions": [
                0.12707723610517904,
                -0.6704347974526346,
                0.6177572618285252,
                0.006438479242814044,
                -0.37312232305809556,
                0.5690855190018338
            ]
        },
        {
            "positions": [
                0.11558355613527735,
                -0.6767898595370068,
                0.7422592711757469,
                0.1711712232594398,
                -0.34799133238048907,
                0.5234565331708894
            ]
        },
        {
            "positions": [
                0.10408987616537566,
                -0.683144921621379,
                0.8667612805229686,
                0.33590396727606553,
                -0.3228603417028826,
                0.4778275473399448
            ]
        },
        {
            "positions": [
                0.09259619619547395,
                -0.6894999837057512,
                0.9912632898701902,
                0.5006367112926913,
                -0.2977293510252761,
                0.4321985615090003
            ]
        },
        {
            "positions": [
                0.08110251622557224,
                -0.6958550457901234,
                1.1157652992174119,
                0.665369455309317,
                -0.2725983603476696,
                0.38656957567805583
            ]
        },
        {
            "positions": [
                0.06960883625567055,
                -0.7022101078744956,
                1.2402673085646336,
                0.8301021993259425,
                -0.2474673696700631,
                0.3409405898471114
            ]
        },
        {
            "positions": [
                0.058115156285768854,
                -0.7085651699588678,
                1.3647693179118554,
                0.9948349433425685,
                -0.22233637899245662,
                0.29531160401616685
            ]
        },
        {
            "positions": [
                0.04662147631586713,
                -0.71492023204324,
                1.4892713272590767,
                1.159567687359194,
                -0.19720538831485018,
                0.24968261818522242
            ]
        },
        {
            "positions": [
                0.03512779634596544,
                -0.7212752941276122,
                1.6137733366062985,
                1.32430043137582,
                -0.1720743976372437,
                0.20405363235427787
            ]
        },
        {
            "positions": [
                0.023634116376063732,
                -0.7276303562119844,
                1.7382753459535203,
                1.4890331753924455,
                -0.1469434069596372,
                0.15842464652333346
            ]
        },
        {
            "positions": [
                0.05658417202826394,
                -0.74419042844048,
                1.822621047203805,
                1.6320326736193214,
                -0.1418631724394939,
                0.10909810228330996
            ]
        },
        {
            "positions": [
                0.08953422768046415,
                -0.7607505006689758,
                1.9069667484540895,
                1.7750321718461972,
                -0.1367829379193506,
                0.059771558043286446
            ]
        },
        {
            "positions": [
                0.12248428333266437,
                -0.7773105728974714,
                1.9913124497043742,
                1.918031670073073,
                -0.13170270339920728,
                0.010445013803262933
            ]
        }
    ]
}{
    "goal": {
        "global_pose": {
            "orientation": {
                "w": 0.7047431468963623,
                "x": -0.7094548344612122,
                "y": 0.0024358443915843964,
                "z": -0.0022348060738295317
            },
            "position": {
                "x": 0.6094750761985779,
                "y": 0.3671506643295288,
                "z": 0.19426114857196808
            }
        },
        "name": "move_to_magneteinheit_A"
    },
    "id": "SPARS_move_to_magneteinheit_A_72",
    "joint_names": [
        "shoulder_pan_joint",
        "shoulder_lift_joint",
        "elbow_joint",
        "wrist_1_joint",
        "wrist_2_joint",
        "wrist_3_joint"
    ],
    "metrics": {
        "cart_traj_len": 1.8633491820095027,
        "distance_elbow_joint": 2.3764590582375296,
        "distance_shoulder_lift_joint": 0.7495298505214756,
        "distance_shoulder_pan_joint": 1.2411699896915471,
        "distance_wrist_1_joint": 1.2654158986868844,
        "distance_wrist_2_joint": 1.441372975437385,
        "distance_wrist_3_joint": 4.250372846908613,
        "smoothness": 0.23802525603470429,
        "time": 5.025609075999999,
        "traj_len": 3.365162792419325,
        "weighted_distance": 4.746773134185466
    },
    "planner": "SPARS",
    "start": {
        "state": {
            "elbow_joint": 1.919643534880228,
            "shoulder_lift_joint": -1.8972525353963687,
            "shoulder_pan_joint": -1.1188672234189438,
            "wrist_1_joint": -1.5931878212786155,
            "wrist_2_joint": 1.5706036197970081,
            "wrist_3_joint": 1.118896926603594
        }
    },
    "waypoints": [
        {
            "positions": [
                -1.1188672234189438,
                -1.8972525353963687,
                1.919643534880228,
                -1.5931878212786155,
                1.5706036197970081,
                1.118896926603594
            ]
        },
        {
            "positions": [
                -1.0858492388896936,
                -1.8792149856111788,
                1.8618737074331035,
                -1.5427905201918097,
                1.5261827483982258,
                0.9430415444095331
            ]
        },
        {
            "positions": [
                -1.0528312543604437,
                -1.861177435825989,
                1.8041038799859792,
                -1.492393219105004,
                1.4817618769994436,
                0.7671861622154723
            ]
        },
        {
            "positions": [
                -1.0198132698311935,
                -1.8431398860407988,
                1.7463340525388547,
                -1.4419959180181983,
                1.4373410056006612,
                0.5913307800214116
            ]
        },
        {
            "positions": [
                -0.9867952853019433,
                -1.825102336255609,
                1.68856422509173,
                -1.3915986169313923,
                1.392920134201879,
                0.41547539782735066
            ]
        },
        {
            "positions": [
                -0.9537773007726932,
                -1.807064786470419,
                1.6307943976446055,
                -1.3412013158445866,
                1.3484992628030967,
                0.23962001563328994
            ]
        },
        {
            "positions": [
                -0.9207593162434431,
                -1.7890272366852291,
                1.573024570197481,
                -1.2908040147577808,
                1.3040783914043146,
                0.06376463343922922
            ]
        },
        {
            "positions": [
                -0.8877413317141929,
                -1.7709896869000392,
                1.5152547427503567,
                -1.240406713670975,
                1.2596575200055322,
                -0.11209074875483149
            ]
        },
        {
            "positions": [
                -0.8547233471849427,
                -1.752952137114849,
                1.457484915303232,
                -1.1900094125841694,
                1.21523664860675,
                -0.28794613094889265
            ]
        },
        {
            "positions": [
                -0.8217053626556927,
                -1.7349145873296592,
                1.3997150878561075,
                -1.1396121114973634,
                1.1708157772079677,
                -0.46380151314295337
            ]
        },
        {
            "positions": [
                -0.7886873781264425,
                -1.7168770375444693,
                1.3419452604089832,
                -1.089214810410558,
                1.1263949058091856,
                -0.6396568953370141
            ]
        },
        {
            "positions": [
                -0.7556693935971923,
                -1.6988394877592794,
                1.2841754329618587,
                -1.038817509323752,
                1.0819740344104032,
                -0.815512277531075
            ]
        },
        {
            "positions": [
                -0.7226514090679423,
                -1.6808019379740895,
                1.226405605514734,
                -0.9884202082369463,
                1.037553163011621,
                -0.9913676597251355
            ]
        },
        {
            "positions": [
                -0.6896334245386921,
                -1.6627643881888994,
                1.1686357780676095,
                -0.9380229071501405,
                0.9931322916128387,
                -1.1672230419191967
            ]
        },
        {
            "positions": [
                -0.6566154400094419,
                -1.6447268384037095,
                1.110865950620485,
                -0.8876256060633347,
                0.9487114202140565,
                -1.343078424113257
            ]
        },
        {
            "positions": [
                -0.6235974554801919,
                -1.6266892886185196,
                1.0530961231733607,
                -0.837228304976529,
                0.9042905488152742,
                -1.5189338063073181
            ]
        },
        {
            "positions": [
                -0.5905794709509417,
                -1.6086517388333297,
                0.9953262957262361,
                -0.7868310038897232,
                0.8598696774164919,
                -1.6947891885013793
            ]
        },
        {
            "positions": [
                -0.5575614864216916,
                -1.5906141890481398,
                0.9375564682791117,
                -0.7364337028029174,
                0.8154488060177096,
                -1.8706445706954395
            ]
        },
        {
            "positions": [
                -0.5245435018924415,
                -1.5725766392629497,
                0.879786640831987,
                -0.6860364017161116,
                0.7710279346189274,
                -2.0464999528895005
            ]
        },
        {
            "positions": [
                -0.4915255173631914,
                -1.5545390894777598,
                0.8220168133848627,
                -0.635639100629306,
                0.7266070632201451,
                -2.222355335083561
            ]
        },
        {
            "positions": [
                -0.4585075328339412,
                -1.5365015396925699,
                0.7642469859377381,
                -0.5852417995425001,
                0.6821861918213629,
                -2.3982107172776224
            ]
        },
        {
            "positions": [
                -0.40042650292328674,
                -1.4976236542108021,
                0.8863532368672421,
                -0.610988787237577,
                0.6268906370751889,
                -2.471537237580362
            ]
        },
        {
            "positions": [
                -0.34234547301263235,
                -1.4587457687290346,
                1.008459487796746,
                -0.6367357749326539,
                0.571595082329015,
                -2.5448637578831015
            ]
        },
        {
            "positions": [
                -0.28426444310197796,
                -1.4198678832472669,
                1.1305657387262502,
                -0.6624827626277308,
                0.516299527582841,
                -2.6181902781858413
            ]
        },
        {
            "positions": [
                -0.22618341319132348,
                -1.3809899977654991,
                1.252671989655754,
                -0.6882297503228076,
                0.4610039728366671,
                -2.691516798488581
            ]
        },
        {
            "positions": [
                -0.16810238328066907,
                -1.3421121122837314,
                1.374778240585258,
                -0.7139767380178845,
                0.4057084180904932,
                -2.7648433187913204
            ]
        },
        {
            "positions": [
                -0.11002135337001467,
                -1.3032342268019639,
                1.496884491514762,
                -0.7397237257129614,
                0.35041286334431926,
                -2.83816983909406
            ]
        },
        {
            "positions": [
                -0.05194032345936023,
                -1.2643563413201961,
                1.6189907424442662,
                -0.7654707134080383,
                0.29511730859814533,
                -2.9114963593968
            ]
        },
        {
            "positions": [
                0.00614070645129422,
                -1.2254784558384284,
                1.74109699337377,
                -0.7912177011031153,
                0.23982175385197135,
                -2.9848228796995397
            ]
        },
        {
            "positions": [
                0.06422173636194861,
                -1.1866005703566609,
                1.8632032443032742,
                -0.8169646887981922,
                0.18452619910579743,
                -3.058149400002279
            ]
        },
        {
            "positions": [
                0.12230276627260307,
                -1.1477226848748932,
                1.985309495232778,
                -0.8427116764932691,
                0.12923064435962348,
                -3.131475920305019
            ]
        }
    ]
}