{
    "goal": {
        "global_pose": {
            "orientation": {
                "w": 0.7047431468963623,
                "x": -0.7094548344612122,
                "y": 0.0024358443915843964,
                "z": -0.0022348060738295317
            },
            "position": {
                "x": 0.6094750761985779,
                "y": 0.3671506643295288,
                "z": 0.19426114857196808
            }
        },
        "name": "move_to_magneteinheit_A"
    },
    "id": "SPARStwo_move_to_magneteinheit_A_117",
    "joint_names": [
        "shoulder_pan_joint",
        "shoulder_lift_joint",
        "elbow_joint",
        "wrist_1_joint",
        "wrist_2_joint",
        "wrist_3_joint"
    ],
    "metrics": {
        "cart_traj_len": 1.4099728488966687,
        "distance_elbow_joint": 0.5565453140399184,
        "distance_shoulder_lift_joint": 1.0071750821537924,
        "distance_shoulder_pan_joint": 1.2438884364137521,
        "distance_wrist_1_joint": 0.7525285869975291,
        "distance_wrist_2_joint": 1.4398767063731865,
        "distance_wrist_3_joint": 4.265687904721879,
        "smoothness": 0.17576806594753336,
        "time": 5.018442373999999,
        "traj_len": 3.0439615685320436,
        "weighted_distance": 4.470959978965875
    },
    "planner": "SPARStwo",
    "start": {
        "state": {
            "elbow_joint": 1.919643534880228,
            "shoulder_lift_joint": -1.8972525353963687,
            "shoulder_pan_joint": -1.1188672234189438,
            "wrist_1_joint": -1.5931878212786155,
            "wrist_2_joint": 1.5706036197970081,
            "wrist_3_joint": 1.118896926603594
        }
    },
    "waypoints": [
        {
            "positions": [
                -1.1188672234189438,
                -1.8972525353963687,
                1.919643534880228,
                -1.5931878212786155,
                1.5706036197970081,
                1.118896926603594
            ]
        },
        {
            "positions": [
                -1.0623591012873148,
                -1.8572919078838193,
                1.9084788853086225,
                -1.564254288177975,
                1.5081193303613738,
                0.9313867686581069
            ]
        },
        {
            "positions": [
                -1.0058509791556858,
                -1.8173312803712696,
                1.8973142357370172,
                -1.535320755077335,
                1.4456350409257392,
                0.7438766107126198
            ]
        },
        {
            "positions": [
                -0.9493428570240566,
                -1.77737065285872,
                1.8861495861654118,
                -1.5063872219766945,
                1.383150751490105,
                0.5563664527671328
            ]
        },
        {
            "positions": [
                -0.8928347348924276,
                -1.7374100253461704,
                1.8749849365938063,
                -1.477453688876054,
                1.3206664620544704,
                0.3688562948216457
            ]
        },
        {
            "positions": [
                -0.8363266127607984,
                -1.697449397833621,
                1.8638202870222007,
                -1.448520155775414,
                1.258182172618836,
                0.18134613687615875
            ]
        },
        {
            "positions": [
                -0.7798184906291694,
                -1.6574887703210714,
                1.8526556374505954,
                -1.4195866226747735,
                1.1956978831832017,
                -0.00616402106932834
            ]
        },
        {
            "positions": [
                -0.7233103684975404,
                -1.6175281428085218,
                1.84149098787899,
                -1.3906530895741331,
                1.1332135937475671,
                -0.19367417901481532
            ]
        },
        {
            "positions": [
                -0.6668022463659113,
                -1.5775675152959723,
                1.8303263383073844,
                -1.361719556473493,
                1.0707293043119328,
                -0.3811843369603025
            ]
        },
        {
            "positions": [
                -0.6102941242342822,
                -1.5376068877834226,
                1.8191616887357789,
                -1.3327860233728526,
                1.0082450148762985,
                -0.5686944949057897
            ]
        },
        {
            "positions": [
                -0.5537860021026532,
                -1.497646260270873,
                1.8079970391641735,
                -1.3038524902722122,
                0.945760725440664,
                -0.7562046528512765
            ]
        },
        {
            "positions": [
                -0.49727787997102413,
                -1.4576856327583236,
                1.7968323895925682,
                -1.2749189571715718,
                0.8832764360050296,
                -0.9437148107967637
            ]
        },
        {
            "positions": [
                -0.4407697578393951,
                -1.417725005245774,
                1.7856677400209626,
                -1.2459854240709316,
                0.8207921465693953,
                -1.1312249687422506
            ]
        },
        {
            "positions": [
                -0.38426163570776595,
                -1.3777643777332242,
                1.774503090449357,
                -1.2170518909702912,
                0.7583078571337607,
                -1.318735126687738
            ]
        },
        {
            "positions": [
                -0.3277535135761369,
                -1.337803750220675,
                1.7633384408777517,
                -1.188118357869651,
                0.6958235676981264,
                -1.5062452846332246
            ]
        },
        {
            "positions": [
                -0.2712453914445079,
                -1.2978431227081253,
                1.7521737913061464,
                -1.1591848247690106,
                0.633339278262492,
                -1.6937554425787116
            ]
        },
        {
            "positions": [
                -0.21473726931287873,
                -1.2578824951955756,
                1.7410091417345408,
                -1.1302512916683702,
                0.5708549888268575,
                -1.881265600524199
            ]
        },
        {
            "positions": [
                -0.1582291471812498,
                -1.2179218676830261,
                1.7298444921629352,
                -1.1013177585677298,
                0.5083706993912231,
                -2.0687757584696858
            ]
        },
        {
            "positions": [
                -0.10172102504962055,
                -1.1779612401704767,
                1.7186798425913299,
                -1.0723842254670894,
                0.4458864099555886,
                -2.256285916415173
            ]
        },
        {
            "positions": [
                -0.045212902917991515,
                -1.138000612657927,
                1.7075151930197245,
                -1.0434506923664493,
                0.38340212051995426,
                -2.4437960743606606
            ]
        },
        {
            "positions": [
                0.01129521921363752,
                -1.0980399851453775,
                1.696350543448119,
                -1.014517159265809,
                0.3209178310843199,
                -2.631306232306147
            ]
        },
        {
            "positions": [
                0.06780334134526655,
                -1.0580793576328278,
                1.6851858938765134,
                -0.9855836261651686,
                0.25843354164868537,
                -2.8188163902516346
            ]
        },
        {
            "positions": [
                0.1243114634768956,
                -1.0181187301202783,
                1.674021244304908,
                -0.9566500930645283,
                0.19594925221305093,
                -3.006326548197121
            ]
        },
        {
            "positions": [
                0.12395658871793935,
                -1.0821393685591292,
                1.8294827560372071,
                -0.8986546636728073,
                0.1633380828184362,
                -3.0765587631577036
            ]
        },
        {
            "positions": [
                0.12360171395898309,
                -1.1461600069979803,
                1.9849442677695064,
                -0.8406592342810864,
                0.13072691342382148,
                -3.1467909781182857
            ]
        }
    ]
}