{
    "goal": {
        "global_pose": {
            "orientation": {
                "w": 0.5084816217422485,
                "x": -0.49083608388900757,
                "y": 0.5182115435600281,
                "z": -0.4816462993621826
            },
            "position": {
                "x": 0.5540239810943604,
                "y": 0.030875300988554955,
                "z": 0.16403168439865112
            }
        },
        "name": "move_to_storage_A"
    },
    "id": "SPARS_move_to_storage_A_138",
    "joint_names": [
        "shoulder_pan_joint",
        "shoulder_lift_joint",
        "elbow_joint",
        "wrist_1_joint",
        "wrist_2_joint",
        "wrist_3_joint"
    ],
    "metrics": {
        "cart_traj_len": 0.3536196714640414,
        "distance_elbow_joint": 0.45188780790731586,
        "distance_shoulder_lift_joint": 0.23605035433053856,
        "distance_shoulder_pan_joint": 0.4648199848810925,
        "distance_wrist_1_joint": 0.24665022746331033,
        "distance_wrist_2_joint": 1.0905967401166925,
        "distance_wrist_3_joint": 0.09125809538217311,
        "smoothness": 4.440892098500626e-16,
        "time": 5.030219803,
        "traj_len": 1.6066310124235506,
        "weighted_distance": 2.0250991008899963
    },
    "planner": "SPARS",
    "start": {
        "state": {
            "elbow_joint": 1.9715477243005601,
            "shoulder_lift_joint": -1.1394853015351272,
            "shoulder_pan_joint": 0.12281154014795169,
            "wrist_1_joint": -0.7804696478968182,
            "wrist_2_joint": 0.12958648046900423,
            "wrist_3_joint": -3.192491284697111
        }
    },
    "waypoints": [
        {
            "positions": [
                0.12281154014795169,
                -1.1394853015351272,
                1.9715477243005601,
                -0.7804696478968182,
                0.12958648046900423,
                -3.192491284697111
            ]
        },
        {
            "positions": [
                0.05640868516493848,
                -1.173206780725204,
                2.0361031254301767,
                -0.8157053946772911,
                0.28538601477138886,
                -3.1794544139282293
            ]
        },
        {
            "positions": [
                -0.00999416981807473,
                -1.206928259915281,
                2.1006585265597932,
                -0.850941141457764,
                0.4411855490737735,
                -3.1664175431593473
            ]
        },
        {
            "positions": [
                -0.07639702480108794,
                -1.240649739105358,
                2.16521392768941,
                -0.8861768882382368,
                0.5969850833761581,
                -3.1533806723904654
            ]
        },
        {
            "positions": [
                -0.14279987978410114,
                -1.274371218295435,
                2.2297693288190263,
                -0.9214126350187097,
                0.7527846176785428,
                -3.140343801621584
            ]
        },
        {
            "positions": [
                -0.20920273476711437,
                -1.3080926974855118,
                2.294324729948643,
                -0.9566483817991827,
                0.9085841519809275,
                -3.127306930852702
            ]
        },
        {
            "positions": [
                -0.27560558975012756,
                -1.3418141766755887,
                2.3588801310782594,
                -0.9918841285796556,
                1.064383686283312,
                -3.11427006008382
            ]
        },
        {
            "positions": [
                -0.3420084447331408,
                -1.3755356558656657,
                2.423435532207876,
                -1.0271198753601285,
                1.2201832205856966,
                -3.101233189314938
            ]
        }
    ]
}