{
    "goal": {
        "global_pose": {
            "orientation": {
                "w": 0.7047431468963623,
                "x": -0.7094548344612122,
                "y": 0.0024358443915843964,
                "z": -0.0022348060738295317
            },
            "position": {
                "x": 0.6094750761985779,
                "y": 0.3671506643295288,
                "z": 0.19426114857196808
            }
        },
        "name": "move_to_magneteinheit_A"
    },
    "id": "SPARS_move_to_magneteinheit_A_103",
    "joint_names": [
        "shoulder_pan_joint",
        "shoulder_lift_joint",
        "elbow_joint",
        "wrist_1_joint",
        "wrist_2_joint",
        "wrist_3_joint"
    ],
    "metrics": {
        "cart_traj_len": 3.98002817413396,
        "distance_elbow_joint": 3.872135670314817,
        "distance_shoulder_lift_joint": 0.4958158018677319,
        "distance_shoulder_pan_joint": 4.661248542039514,
        "distance_wrist_1_joint": 0.8459107419666346,
        "distance_wrist_2_joint": 1.6975934155900818,
        "distance_wrist_3_joint": 2.582747579257266,
        "smoothness": 0.2005750689518165,
        "time": 5.038107687,
        "traj_len": 3.7623731541456706,
        "weighted_distance": 4.675943869114266
    },
    "planner": "SPARS",
    "start": {
        "state": {
            "elbow_joint": -1.919618573717145,
            "shoulder_lift_joint": -1.2443395971678275,
            "shoulder_pan_joint": 2.6996025300909787,
            "wrist_1_joint": -1.548550951253194,
            "wrist_2_joint": -1.5709469090946802,
            "wrist_3_joint": 0.4420197732051276
        }
    },
    "waypoints": [
        {
            "positions": [
                2.6996025300909787,
                -1.2443395971678275,
                -1.919618573717145,
                -1.548550951253194,
                -1.5709469090946802,
                0.4420197732051276
            ]
        },
        {
            "positions": [
                2.5422726564777496,
                -1.2310390949141639,
                -1.8560829874071187,
                -1.517956356590139,
                -1.5299764388847092,
                0.51582576996952
            ]
        },
        {
            "positions": [
                2.3849427828645204,
                -1.2177385926605,
                -1.7925474010970923,
                -1.487361761927084,
                -1.4890059686747381,
                0.5896317667339124
            ]
        },
        {
            "positions": [
                2.227612909251291,
                -1.2044380904068364,
                -1.7290118147870661,
                -1.456767167264029,
                -1.4480354984647672,
                0.6634377634983047
            ]
        },
        {
            "positions": [
                2.0702830356380617,
                -1.1911375881531727,
                -1.6654762284770397,
                -1.426172572600974,
                -1.407065028254796,
                0.7372437602626971
            ]
        },
        {
            "positions": [
                1.9129531620248326,
                -1.177837085899509,
                -1.6019406421670135,
                -1.395577977937919,
                -1.3660945580448252,
                0.8110497570270895
            ]
        },
        {
            "positions": [
                1.7556232884116034,
                -1.1645365836458452,
                -1.538405055856987,
                -1.364983383274864,
                -1.3251240878348542,
                0.8848557537914818
            ]
        },
        {
            "positions": [
                1.598293414798374,
                -1.1512360813921816,
                -1.4748694695469609,
                -1.3343887886118089,
                -1.2841536176248831,
                0.9586617505558743
            ]
        },
        {
            "positions": [
                1.440963541185145,
                -1.137935579138518,
                -1.4113338832369346,
                -1.3037941939487538,
                -1.2431831474149122,
                1.0324677473202666
            ]
        },
        {
            "positions": [
                1.2836336675719155,
                -1.124635076884854,
                -1.3477982969269082,
                -1.2731995992856988,
                -1.202212677204941,
                1.106273744084659
            ]
        },
        {
            "positions": [
                1.1263037939586864,
                -1.1113345746311905,
                -1.2842627106168818,
                -1.2426050046226438,
                -1.1612422069949702,
                1.1800797408490513
            ]
        },
        {
            "positions": [
                0.968973920345457,
                -1.0980340723775268,
                -1.2207271243068556,
                -1.2120104099595888,
                -1.120271736784999,
                1.2538857376134438
            ]
        },
        {
            "positions": [
                0.8116440467322279,
                -1.084733570123863,
                -1.1571915379968294,
                -1.1814158152965337,
                -1.0793012665750281,
                1.327691734377836
            ]
        },
        {
            "positions": [
                0.654314173118999,
                -1.0714330678701993,
                -1.0936559516868032,
                -1.1508212206334787,
                -1.0383307963650572,
                1.4014977311422285
            ]
        },
        {
            "positions": [
                0.4969842995057694,
                -1.0581325656165357,
                -1.0301203653767765,
                -1.1202266259704237,
                -0.9973603261550861,
                1.475303727906621
            ]
        },
        {
            "positions": [
                0.33965442589254025,
                -1.0448320633628718,
                -0.9665847790667504,
                -1.0896320313073686,
                -0.9563898559451152,
                1.5491097246710135
            ]
        },
        {
            "positions": [
                0.1823245522793111,
                -1.0315315611092082,
                -0.9030491927567241,
                -1.0590374366443136,
                -0.9154193857351441,
                1.6229157214354057
            ]
        },
        {
            "positions": [
                0.02499467866608196,
                -1.0182310588555445,
                -0.8395136064466979,
                -1.0284428419812586,
                -0.8744489155251731,
                1.696721718199798
            ]
        },
        {
            "positions": [
                -0.13233519494714763,
                -1.004930556601881,
                -0.7759780201366715,
                -0.9978482473182037,
                -0.8334784453152021,
                1.7705277149641905
            ]
        },
        {
            "positions": [
                -0.28966506856037677,
                -0.991630054348217,
                -0.7124424338266453,
                -0.9672536526551486,
                -0.7925079751052311,
                1.844333711728583
            ]
        },
        {
            "positions": [
                -0.4469949421736059,
                -0.9783295520945534,
                -0.6489068475166189,
                -0.9366590579920936,
                -0.7515375048952602,
                1.9181397084929752
            ]
        },
        {
            "positions": [
                -0.6043248157868351,
                -0.9650290498408898,
                -0.5853712612065927,
                -0.9060644633290386,
                -0.7105670346852891,
                1.9919457052573675
            ]
        },
        {
            "positions": [
                -0.7616546894000646,
                -0.9517285475872259,
                -0.5218356748965662,
                -0.8754698686659835,
                -0.6695965644753181,
                2.06575170202176
            ]
        },
        {
            "positions": [
                -0.9189845630132936,
                -0.9384280453335623,
                -0.45830008858654014,
                -0.8448752740029285,
                -0.6286260942653471,
                2.1395576987861524
            ]
        },
        {
            "positions": [
                -0.844508745232205,
                -0.951992634621667,
                -0.2860988610733821,
                -0.8347156265231879,
                -0.574678051353865,
                2.202786959763027
            ]
        },
        {
            "positions": [
                -0.7700329274511164,
                -0.9655572239097718,
                -0.11389763356022414,
                -0.8245559790434472,
                -0.5207300084423829,
                2.266016220739901
            ]
        },
        {
            "positions": [
                -0.6955571096700279,
                -0.9791218131978766,
                0.05830359395293383,
                -0.8143963315637066,
                -0.4667819655309008,
                2.3292454817167756
            ]
        },
        {
            "positions": [
                -0.6210812918889392,
                -0.9926864024859813,
                0.23050482146609186,
                -0.8042366840839659,
                -0.41283392261941876,
                2.3924747426936497
            ]
        },
        {
            "positions": [
                -0.5466054741078508,
                -1.006250991774086,
                0.4027060489792499,
                -0.7940770366042252,
                -0.3588858797079366,
                2.455704003670524
            ]
        },
        {
            "positions": [
                -0.4721296563267622,
                -1.019815581062191,
                0.5749072764924078,
                -0.7839173891244846,
                -0.30493783679645453,
                2.5189332646473988
            ]
        },
        {
            "positions": [
                -0.3976538385456736,
                -1.0333801703502956,
                0.7471085040055659,
                -0.773757741644744,
                -0.25098979388497245,
                2.5821625256242733
            ]
        },
        {
            "positions": [
                -0.323178020764585,
                -1.0469447596384003,
                0.9193097315187239,
                -0.7635980941650033,
                -0.19704175097349036,
                2.6453917866011474
            ]
        },
        {
            "positions": [
                -0.24870220298349643,
                -1.0605093489265052,
                1.0915109590318819,
                -0.7534384466852627,
                -0.14309370806200822,
                2.708621047578022
            ]
        },
        {
            "positions": [
                -0.17422638520240785,
                -1.0740739382146098,
                1.2637121865450398,
                -0.7432787992055221,
                -0.08914566515052613,
                2.771850308554896
            ]
        },
        {
            "positions": [
                -0.09975056742131938,
                -1.0876385275027147,
                1.4359134140581982,
                -0.7331191517257813,
                -0.0351976222390441,
                2.8350795695317705
            ]
        },
        {
            "positions": [
                -0.025274749640230798,
                -1.1012031167908194,
                1.6081146415713556,
                -0.7229595042460407,
                0.01875042067243804,
                2.898308830508645
            ]
        },
        {
            "positions": [
                0.049201068140857784,
                -1.1147677060789243,
                1.780315869084514,
                -0.7127998567663001,
                0.07269846358392018,
                2.9615380914855196
            ]
        },
        {
            "positions": [
                0.12367688592194642,
                -1.128332295367029,
                1.9525170965976721,
                -0.7026402092865595,
                0.12664650649540218,
                3.0247673524623937
            ]
        }
    ]
}{
    "goal": {
        "global_pose": {
            "orientation": {
                "w": 0.7047431468963623,
                "x": -0.7094548344612122,
                "y": 0.0024358443915843964,
                "z": -0.0022348060738295317
            },
            "position": {
                "x": 0.6094750761985779,
                "y": 0.3671506643295288,
                "z": 0.19426114857196808
            }
        },
        "name": "move_to_magneteinheit_A"
    },
    "id": "SPARS_move_to_magneteinheit_A_103",
    "joint_names": [
        "shoulder_pan_joint",
        "shoulder_lift_joint",
        "elbow_joint",
        "wrist_1_joint",
        "wrist_2_joint",
        "wrist_3_joint"
    ],
    "metrics": {
        "cart_traj_len": 1.9552888700228261,
        "distance_elbow_joint": 0.9454180616020809,
        "distance_shoulder_lift_joint": 0.9003962745766909,
        "distance_shoulder_pan_joint": 2.5342372681961347,
        "distance_wrist_1_joint": 0.7858953672985219,
        "distance_wrist_2_joint": 1.4452027702216514,
        "distance_wrist_3_joint": 4.241380603024071,
        "smoothness": 0.2650339913915099,
        "time": 5.020713615,
        "traj_len": 3.2943178876543096,
        "weighted_distance": 4.643962713942421
    },
    "planner": "SPARS",
    "start": {
        "state": {
            "elbow_joint": 1.919643534880228,
            "shoulder_lift_joint": -1.8972525353963687,
            "shoulder_pan_joint": -1.1188672234189438,
            "wrist_1_joint": -1.5931878212786155,
            "wrist_2_joint": 1.5706036197970081,
            "wrist_3_joint": 1.118896926603594
        }
    },
    "waypoints": [
        {
            "positions": [
                -1.1188672234189438,
                -1.8972525353963687,
                1.919643534880228,
                -1.5931878212786155,
                1.5706036197970081,
                1.118896926603594
            ]
        },
        {
            "positions": [
                -1.1685543682813557,
                -1.9030993964672538,
                1.8859065899919374,
                -1.5950968678553799,
                1.5038071715712042,
                0.9057720064939498
            ]
        },
        {
            "positions": [
                -1.2182415131437676,
                -1.908946257538139,
                1.8521696451036467,
                -1.5970059144321442,
                1.4370107233454004,
                0.6926470863843058
            ]
        },
        {
            "positions": [
                -1.2679286580061795,
                -1.9147931186090241,
                1.818432700215356,
                -1.5989149610089088,
                1.3702142751195963,
                0.4795221662746618
            ]
        },
        {
            "positions": [
                -1.3176158028685914,
                -1.9206399796799094,
                1.784695755327065,
                -1.6008240075856732,
                1.3034178268937924,
                0.2663972461650177
            ]
        },
        {
            "positions": [
                -1.3673029477310032,
                -1.9264868407507945,
                1.7509588104387743,
                -1.6027330541624376,
                1.2366213786679885,
                0.053272326055373576
            ]
        },
        {
            "positions": [
                -1.4169900925934151,
                -1.9323337018216797,
                1.7172218655504836,
                -1.604642100739202,
                1.1698249304421846,
                -0.15985259405427032
            ]
        },
        {
            "positions": [
                -1.466677237455827,
                -1.9381805628925648,
                1.683484920662193,
                -1.6065511473159666,
                1.1030284822163807,
                -0.37297751416391445
            ]
        },
        {
            "positions": [
                -1.516364382318239,
                -1.94402742396345,
                1.6497479757739022,
                -1.608460193892731,
                1.0362320339905766,
                -0.5861024342735586
            ]
        },
        {
            "positions": [
                -1.5660515271806508,
                -1.9498742850343351,
                1.6160110308856115,
                -1.6103692404694954,
                0.9694355857647728,
                -0.7992273543832025
            ]
        },
        {
            "positions": [
                -1.6157386720430627,
                -1.9557211461052204,
                1.5822740859973208,
                -1.6122782870462598,
                0.902639137538969,
                -1.0123522744928468
            ]
        },
        {
            "positions": [
                -1.6654258169054745,
                -1.9615680071761055,
                1.5485371411090298,
                -1.6141873336230244,
                0.8358426893131651,
                -1.2254771946024905
            ]
        },
        {
            "positions": [
                -1.7151129617678864,
                -1.9674148682469907,
                1.5148001962207391,
                -1.6160963801997887,
                0.7690462410873611,
                -1.4386021147121346
            ]
        },
        {
            "positions": [
                -1.7648001066302983,
                -1.9732617293178758,
                1.4810632513324484,
                -1.6180054267765531,
                0.7022497928615572,
                -1.6517270348217785
            ]
        },
        {
            "positions": [
                -1.6467810825687494,
                -1.9217375367769267,
                1.5127406124608422,
                -1.5704380666640165,
                0.6661967339061697,
                -1.743649324921697
            ]
        },
        {
            "positions": [
                -1.5287620585072008,
                -1.8702133442359778,
                1.544417973589236,
                -1.5228707065514802,
                0.6301436749507823,
                -1.8355716150216157
            ]
        },
        {
            "positions": [
                -1.410743034445652,
                -1.8186891516950288,
                1.5760953347176299,
                -1.4753033464389436,
                0.5940906159953948,
                -1.9274939051215345
            ]
        },
        {
            "positions": [
                -1.2927240103841031,
                -1.76716495915408,
                1.6077726958460237,
                -1.427735986326407,
                0.5580375570400073,
                -2.019416195221453
            ]
        },
        {
            "positions": [
                -1.1747049863225545,
                -1.7156407666131308,
                1.6394500569744175,
                -1.3801686262138706,
                0.5219844980846198,
                -2.111338485321372
            ]
        },
        {
            "positions": [
                -1.0566859622610056,
                -1.6641165740721817,
                1.6711274181028113,
                -1.332601266101334,
                0.4859314391292323,
                -2.2032607754212905
            ]
        },
        {
            "positions": [
                -0.9386669381994568,
                -1.6125923815312329,
                1.7028047792312053,
                -1.2850339059887976,
                0.44987838017384485,
                -2.295183065521209
            ]
        },
        {
            "positions": [
                -0.820647914137908,
                -1.561068188990284,
                1.734482140359599,
                -1.237466545876261,
                0.4138253212184574,
                -2.3871053556211277
            ]
        },
        {
            "positions": [
                -0.7026288900763593,
                -1.509543996449335,
                1.766159501487993,
                -1.1898991857637244,
                0.3777722622630699,
                -2.4790276457210463
            ]
        },
        {
            "positions": [
                -0.5846098660148105,
                -1.4580198039083858,
                1.7978368626163865,
                -1.1423318256511878,
                0.34171920330768246,
                -2.570949935820965
            ]
        },
        {
            "positions": [
                -0.4665908419532616,
                -1.406495611367437,
                1.8295142237447806,
                -1.0947644655386515,
                0.30566614435229494,
                -2.662872225920884
            ]
        },
        {
            "positions": [
                -0.348571817891713,
                -1.3549714188264879,
                1.8611915848731744,
                -1.0471971054261149,
                0.2696130853969075,
                -2.7547945160208025
            ]
        },
        {
            "positions": [
                -0.23055279383016414,
                -1.303447226285539,
                1.8928689460015682,
                -0.9996297453135784,
                0.23356002644152002,
                -2.846716806120721
            ]
        },
        {
            "positions": [
                -0.11253376976861529,
                -1.25192303374459,
                1.924546307129962,
                -0.9520623852010419,
                0.1975069674861325,
                -2.9386390962206397
            ]
        },
        {
            "positions": [
                0.005485254292933339,
                -1.2003988412036408,
                1.9562236682583558,
                -0.9044950250885053,
                0.16145390853074504,
                -3.0305613863205583
            ]
        },
        {
            "positions": [
                0.12350427835448209,
                -1.148874648662692,
                1.9879010293867496,
                -0.8569276649759688,
                0.12540084957535752,
                -3.122483676420477
            ]
        }
    ]
}