{
    "goal": {
        "global_pose": {
            "orientation": {
                "w": 0.7047431468963623,
                "x": -0.7094548344612122,
                "y": 0.0024358443915843964,
                "z": -0.0022348060738295317
            },
            "position": {
                "x": 0.6094750761985779,
                "y": 0.3671506643295288,
                "z": 0.19426114857196808
            }
        },
        "name": "move_to_magneteinheit_A"
    },
    "id": "SPARS_move_to_magneteinheit_A_85",
    "joint_names": [
        "shoulder_pan_joint",
        "shoulder_lift_joint",
        "elbow_joint",
        "wrist_1_joint",
        "wrist_2_joint",
        "wrist_3_joint"
    ],
    "metrics": {
        "cart_traj_len": 2.9322501685284803,
        "distance_elbow_joint": 3.9119980129945278,
        "distance_shoulder_lift_joint": 1.0527841036964962,
        "distance_shoulder_pan_joint": 3.1557934387750013,
        "distance_wrist_1_joint": 3.473395334212462,
        "distance_wrist_2_joint": 1.4955392172115212,
        "distance_wrist_3_joint": 1.4159118822864538,
        "smoothness": 0.1276377874836586,
        "time": 5.066779796,
        "traj_len": 3.8085984284479846,
        "weighted_distance": 4.722941912110857
    },
    "planner": "SPARS",
    "start": {
        "state": {
            "elbow_joint": -1.919618573717145,
            "shoulder_lift_joint": -1.2443395971678275,
            "shoulder_pan_joint": 2.6996025300909787,
            "wrist_1_joint": -1.548550951253194,
            "wrist_2_joint": -1.5709469090946802,
            "wrist_3_joint": 0.4420197732051276
        }
    },
    "waypoints": [
        {
            "positions": [
                2.6996025300909787,
                -1.2443395971678275,
                -1.919618573717145,
                -1.548550951253194,
                -1.5709469090946802,
                0.4420197732051276
            ]
        },
        {
            "positions": [
                2.6040362778412165,
                -1.254081201885475,
                -1.8063494639257625,
                -1.4440632522650918,
                -1.521944667399279,
                0.4583750636062829
            ]
        },
        {
            "positions": [
                2.5084700255914543,
                -1.2638228066031223,
                -1.6930803541343802,
                -1.3395755532769895,
                -1.472942425703878,
                0.47473035400743824
            ]
        },
        {
            "positions": [
                2.412903773341692,
                -1.2735644113207698,
                -1.5798112443429977,
                -1.2350878542888872,
                -1.4239401840084767,
                0.49108564440859354
            ]
        },
        {
            "positions": [
                2.31733752109193,
                -1.2833060160384173,
                -1.4665421345516154,
                -1.130600155300785,
                -1.3749379423130754,
                0.5074409348097488
            ]
        },
        {
            "positions": [
                2.221771268842168,
                -1.2930476207560648,
                -1.353273024760233,
                -1.0261124563126827,
                -1.3259357006176744,
                0.5237962252109041
            ]
        },
        {
            "positions": [
                2.126205016592406,
                -1.3027892254737121,
                -1.2400039149688504,
                -0.9216247573245804,
                -1.2769334589222732,
                0.5401515156120594
            ]
        },
        {
            "positions": [
                2.0306387643426436,
                -1.3125308301913596,
                -1.1267348051774682,
                -0.8171370583364781,
                -1.227931217226872,
                0.5565068060132148
            ]
        },
        {
            "positions": [
                1.9350725120928813,
                -1.3222724349090071,
                -1.0134656953860857,
                -0.7126493593483758,
                -1.178928975531471,
                0.57286209641437
            ]
        },
        {
            "positions": [
                1.839506259843119,
                -1.3320140396266544,
                -0.9001965855947034,
                -0.6081616603602735,
                -1.1299267338360697,
                0.5892173868155254
            ]
        },
        {
            "positions": [
                1.743940007593357,
                -1.341755644344302,
                -0.7869274758033209,
                -0.5036739613721712,
                -1.0809244921406687,
                0.6055726772166807
            ]
        },
        {
            "positions": [
                1.6483737553435949,
                -1.3514972490619495,
                -0.6736583660119386,
                -0.39918626238406896,
                -1.0319222504452674,
                0.621927967617836
            ]
        },
        {
            "positions": [
                1.5528075030938326,
                -1.3612388537795967,
                -0.5603892562205559,
                -0.2946985633959667,
                -0.9829200087498662,
                0.6382832580189913
            ]
        },
        {
            "positions": [
                1.4572412508440704,
                -1.3709804584972443,
                -0.44712014642917364,
                -0.1902108644078644,
                -0.9339177670544649,
                0.6546385484201467
            ]
        },
        {
            "positions": [
                1.3616749985943084,
                -1.3807220632148918,
                -0.33385103663779114,
                -0.0857231654197621,
                -0.8849155253590638,
                0.6709938388213019
            ]
        },
        {
            "positions": [
                1.2661087463445462,
                -1.390463667932539,
                -0.22058192684640887,
                0.01876453356834018,
                -0.8359132836636627,
                0.6873491292224573
            ]
        },
        {
            "positions": [
                1.170542494094784,
                -1.4002052726501866,
                -0.1073128170550266,
                0.12325223255644246,
                -0.7869110419682616,
                0.7037044196236126
            ]
        },
        {
            "positions": [
                1.074976241845022,
                -1.409946877367834,
                0.005956292736355895,
                0.22773993154454475,
                -0.7379088002728604,
                0.7200597100247679
            ]
        },
        {
            "positions": [
                0.9794099895952597,
                -1.4196884820854816,
                0.11922540252773817,
                0.33222763053264703,
                -0.6889065585774592,
                0.7364150004259231
            ]
        },
        {
            "positions": [
                0.8838437373454975,
                -1.4294300868031289,
                0.23249451231912066,
                0.4367153295207493,
                -0.6399043168820581,
                0.7527702908270785
            ]
        },
        {
            "positions": [
                0.7882774850957355,
                -1.4391716915207764,
                0.34576362211050315,
                0.5412030285088516,
                -0.5909020751866569,
                0.7691255812282338
            ]
        },
        {
            "positions": [
                0.6927112328459732,
                -1.448913296238424,
                0.4590327319018852,
                0.6456907274969539,
                -0.5418998334912557,
                0.7854808716293891
            ]
        },
        {
            "positions": [
                0.597144980596211,
                -1.4586549009560712,
                0.5723018416932677,
                0.7501784264850562,
                -0.4928975917958547,
                0.8018361620305444
            ]
        },
        {
            "positions": [
                0.5015787283464488,
                -1.4683965056737187,
                0.6855709514846506,
                0.8546661254731585,
                -0.4438953501004532,
                0.8181914524316998
            ]
        },
        {
            "positions": [
                0.40601247609668656,
                -1.4781381103913662,
                0.7988400612760331,
                0.9591538244612607,
                -0.3948931084050522,
                0.834546742832855
            ]
        },
        {
            "positions": [
                0.31044622384692433,
                -1.4878797151090137,
                0.9121091710674152,
                1.063641523449363,
                -0.34589086670965097,
                0.8509020332340104
            ]
        },
        {
            "positions": [
                0.2148799715971621,
                -1.497621319826661,
                1.0253782808587977,
                1.1681292224374653,
                -0.29688862501424973,
                0.8672573236351657
            ]
        },
        {
            "positions": [
                0.11931371934739987,
                -1.5073629245443085,
                1.1386473906501802,
                1.2726169214255676,
                -0.2478863833188487,
                0.883612614036321
            ]
        },
        {
            "positions": [
                0.023747467097638086,
                -1.5171045292619558,
                1.2519165004415627,
                1.3771046204136699,
                -0.19888414162344747,
                0.8999679044374763
            ]
        },
        {
            "positions": [
                -0.07181878515212414,
                -1.5268461339796033,
                1.3651856102329447,
                1.4815923194017722,
                -0.14988189992804646,
                0.9163231948386317
            ]
        },
        {
            "positions": [
                -0.16738503740188657,
                -1.5365877386972508,
                1.4784547200243274,
                1.5860800183898742,
                -0.10087965823264511,
                0.9326784852397869
            ]
        },
        {
            "positions": [
                -0.139062230952743,
                -1.4468829434847639,
                1.5465625997975891,
                1.632838767869246,
                -0.10012277619342427,
                0.8238268769224586
            ]
        },
        {
            "positions": [
                -0.11073942450359943,
                -1.357178148272277,
                1.614670479570851,
                1.679597517348618,
                -0.09936589415420342,
                0.7149752686051302
            ]
        },
        {
            "positions": [
                -0.08241661805445585,
                -1.2674733530597901,
                1.682778359344113,
                1.7263562668279897,
                -0.09860901211498257,
                0.6061236602878017
            ]
        },
        {
            "positions": [
                -0.05409381160531229,
                -1.1777685578473032,
                1.7508862391173747,
                1.7731150163073615,
                -0.09785213007576174,
                0.4972720519704734
            ]
        },
        {
            "positions": [
                -0.010215150233921742,
                -1.0773393625180219,
                1.811259539157377,
                1.811047357970338,
                -0.10346323962391255,
                0.37481036772485316
            ]
        },
        {
            "positions": [
                0.03366351113746881,
                -0.9769101671887406,
                1.871632839197379,
                1.8489796996333143,
                -0.10907434917206335,
                0.2523486834792329
            ]
        },
        {
            "positions": [
                0.07754217250885936,
                -0.8764809718594594,
                1.9320061392373815,
                1.886912041296291,
                -0.11468545872021416,
                0.1298869992336127
            ]
        },
        {
            "positions": [
                0.1214208338802499,
                -0.7760517765301781,
                1.9923794392773837,
                1.9248443829592674,
                -0.12029656826836496,
                0.007425314987992428
            ]
        }
    ]
}{
    "goal": {
        "global_pose": {
            "orientation": {
                "w": 0.7047431468963623,
                "x": -0.7094548344612122,
                "y": 0.0024358443915843964,
                "z": -0.0022348060738295317
            },
            "position": {
                "x": 0.6094750761985779,
                "y": 0.3671506643295288,
                "z": 0.19426114857196808
            }
        },
        "name": "move_to_magneteinheit_A"
    },
    "id": "SPARS_move_to_magneteinheit_A_85",
    "joint_names": [
        "shoulder_pan_joint",
        "shoulder_lift_joint",
        "elbow_joint",
        "wrist_1_joint",
        "wrist_2_joint",
        "wrist_3_joint"
    ],
    "metrics": {
        "cart_traj_len": 2.415095939099453,
        "distance_elbow_joint": 3.653337829081105,
        "distance_shoulder_lift_joint": 1.2762416678373758,
        "distance_shoulder_pan_joint": 1.4109523078469397,
        "distance_wrist_1_joint": 1.082409468191119,
        "distance_wrist_2_joint": 1.4322722018209935,
        "distance_wrist_3_joint": 4.350714547905445,
        "smoothness": 0.31898002520578767,
        "time": 5.063248856,
        "traj_len": 3.6339961506147724,
        "weighted_distance": 4.941865921745144
    },
    "planner": "SPARS",
    "start": {
        "state": {
            "elbow_joint": 1.919643534880228,
            "shoulder_lift_joint": -1.8972525353963687,
            "shoulder_pan_joint": -1.1188672234189438,
            "wrist_1_joint": -1.5931878212786155,
            "wrist_2_joint": 1.5706036197970081,
            "wrist_3_joint": 1.118896926603594
        }
    },
    "waypoints": [
        {
            "positions": [
                -1.1188672234189438,
                -1.8972525353963687,
                1.919643534880228,
                -1.5931878212786155,
                1.5706036197970081,
                1.118896926603594
            ]
        },
        {
            "positions": [
                -1.1235699142339894,
                -1.840588768805566,
                1.8193251755978173,
                -1.5391367601087986,
                1.5536782512608713,
                0.9679211545835518
            ]
        },
        {
            "positions": [
                -1.128272605049035,
                -1.7839250022147632,
                1.7190068163154064,
                -1.4850856989389816,
                1.5367528827247343,
                0.8169453825635096
            ]
        },
        {
            "positions": [
                -1.1329752958640809,
                -1.7272612356239605,
                1.6186884570329956,
                -1.4310346377691645,
                1.5198275141885973,
                0.6659696105434675
            ]
        },
        {
            "positions": [
                -1.1376779866791265,
                -1.670597469033158,
                1.5183700977505845,
                -1.3769835765993477,
                1.5029021456524605,
                0.5149938385234253
            ]
        },
        {
            "positions": [
                -1.142380677494172,
                -1.6139337024423552,
                1.4180517384681737,
                -1.3229325154295308,
                1.4859767771163237,
                0.3640180665033831
            ]
        },
        {
            "positions": [
                -1.1470833683092176,
                -1.5572699358515525,
                1.3177333791857628,
                -1.2688814542597138,
                1.4690514085801867,
                0.213042294483341
            ]
        },
        {
            "positions": [
                -1.1517860591242632,
                -1.5006061692607497,
                1.2174150199033518,
                -1.2148303930898967,
                1.4521260400440497,
                0.0620665224632988
            ]
        },
        {
            "positions": [
                -1.1564887499393088,
                -1.443942402669947,
                1.1170966606209412,
                -1.1607793319200799,
                1.4352006715079129,
                -0.0889092495567434
            ]
        },
        {
            "positions": [
                -1.1611914407543544,
                -1.3872786360791443,
                1.01677830133853,
                -1.106728270750263,
                1.418275302971776,
                -0.2398850215767856
            ]
        },
        {
            "positions": [
                -1.1658941315694002,
                -1.3306148694883415,
                0.9164599420561192,
                -1.052677209580446,
                1.401349934435639,
                -0.3908607935968278
            ]
        },
        {
            "positions": [
                -1.1705968223844458,
                -1.2739511028975388,
                0.8161415827737082,
                -0.998626148410629,
                1.384424565899502,
                -0.54183656561687
            ]
        },
        {
            "positions": [
                -1.1752995131994914,
                -1.217287336306736,
                0.7158232234912976,
                -0.9445750872408121,
                1.3674991973633652,
                -0.692812337636912
            ]
        },
        {
            "positions": [
                -1.180002204014537,
                -1.1606235697159333,
                0.6155048642088865,
                -0.8905240260709951,
                1.3505738288272284,
                -0.8437881096569542
            ]
        },
        {
            "positions": [
                -1.1847048948295826,
                -1.1039598031251305,
                0.5151865049264757,
                -0.8364729649011782,
                1.3336484602910914,
                -0.9947638816769964
            ]
        },
        {
            "positions": [
                -1.1894075856446285,
                -1.0472960365343278,
                0.4148681456440646,
                -0.7824219037313612,
                1.3167230917549544,
                -1.1457396536970388
            ]
        },
        {
            "positions": [
                -1.194110276459674,
                -0.9906322699435253,
                0.314549786361654,
                -0.7283708425615443,
                1.2997977232188176,
                -1.2967154257170808
            ]
        },
        {
            "positions": [
                -1.1988129672747196,
                -0.9339685033527225,
                0.21423142707924292,
                -0.6743197813917273,
                1.2828723546826808,
                -1.4476911977371227
            ]
        },
        {
            "positions": [
                -1.2035156580897652,
                -0.8773047367619198,
                0.1139130677968321,
                -0.6202687202219104,
                1.2659469861465438,
                -1.598666969757165
            ]
        },
        {
            "positions": [
                -1.1206216660162578,
                -0.8933231035871027,
                0.2293885279216889,
                -0.6271118681678113,
                1.1954710131358857,
                -1.7007388854787078
            ]
        },
        {
            "positions": [
                -1.0377276739427503,
                -0.9093414704122855,
                0.34486398804654567,
                -0.6339550161137122,
                1.1249950401252276,
                -1.8028108012002508
            ]
        },
        {
            "positions": [
                -0.9548336818692431,
                -0.9253598372374684,
                0.4603394481714025,
                -0.6407981640596131,
                1.0545190671145694,
                -1.9048827169217937
            ]
        },
        {
            "positions": [
                -0.8719396897957357,
                -0.9413782040626513,
                0.5758149082962593,
                -0.647641312005514,
                0.9840430941039114,
                -2.0069546326433367
            ]
        },
        {
            "positions": [
                -0.7890456977222282,
                -0.9573965708878343,
                0.691290368421116,
                -0.654484459951415,
                0.9135671210932533,
                -2.10902654836488
            ]
        },
        {
            "positions": [
                -0.7061517056487209,
                -0.9734149377130171,
                0.8067658285459729,
                -0.6613276078973159,
                0.8430911480825953,
                -2.2110984640864224
            ]
        },
        {
            "positions": [
                -0.6232577135752135,
                -0.9894333045382,
                0.9222412886708297,
                -0.6681707558432168,
                0.7726151750719372,
                -2.3131703798079655
            ]
        },
        {
            "positions": [
                -0.5403637215017061,
                -1.005451671363383,
                1.0377167487956864,
                -0.6750139037891177,
                0.7021392020612791,
                -2.4152422955295085
            ]
        },
        {
            "positions": [
                -0.45746972942819863,
                -1.0214700381885657,
                1.1531922089205433,
                -0.6818570517350186,
                0.631663229050621,
                -2.517314211251051
            ]
        },
        {
            "positions": [
                -0.3745757373546913,
                -1.0374884050137487,
                1.2686676690454,
                -0.6887001996809196,
                0.5611872560399629,
                -2.619386126972594
            ]
        },
        {
            "positions": [
                -0.29168174528118396,
                -1.0535067718389315,
                1.3841431291702568,
                -0.6955433476268205,
                0.4907112830293049,
                -2.7214580426941373
            ]
        },
        {
            "positions": [
                -0.2087877532076765,
                -1.0695251386641145,
                1.4996185892951137,
                -0.7023864955727215,
                0.4202353100186468,
                -2.82352995841568
            ]
        },
        {
            "positions": [
                -0.12589376113416906,
                -1.0855435054892972,
                1.6150940494199704,
                -0.7092296435186224,
                0.34975933700798867,
                -2.925601874137223
            ]
        },
        {
            "positions": [
                -0.04299976906066183,
                -1.1015618723144802,
                1.7305695095448272,
                -0.7160727914645233,
                0.27928336399733067,
                -3.027673789858766
            ]
        },
        {
            "positions": [
                0.03989422301284562,
                -1.117580239139663,
                1.846044969669684,
                -0.7229159394104242,
                0.20880739098667256,
                -3.1297457055803086
            ]
        },
        {
            "positions": [
                0.12278821508635308,
                -1.133598605964846,
                1.9615204297945408,
                -0.7297590873563251,
                0.13833141797601453,
                -3.2318176213018517
            ]
        }
    ]
}