{
    "goal": {
        "global_pose": {
            "orientation": {
                "w": 0.7047431468963623,
                "x": -0.7094548344612122,
                "y": 0.0024358443915843964,
                "z": -0.0022348060738295317
            },
            "position": {
                "x": 0.6094750761985779,
                "y": 0.3671506643295288,
                "z": 0.19426114857196808
            }
        },
        "name": "move_to_magneteinheit_A"
    },
    "id": "SPARStwo_move_to_magneteinheit_A_84",
    "joint_names": [
        "shoulder_pan_joint",
        "shoulder_lift_joint",
        "elbow_joint",
        "wrist_1_joint",
        "wrist_2_joint",
        "wrist_3_joint"
    ],
    "metrics": {
        "cart_traj_len": 1.6184935474623465,
        "distance_elbow_joint": 1.4440855460779218,
        "distance_shoulder_lift_joint": 0.7516144299024525,
        "distance_shoulder_pan_joint": 1.2408213553977503,
        "distance_wrist_1_joint": 0.7870152642139878,
        "distance_wrist_2_joint": 1.447686350811325,
        "distance_wrist_3_joint": 4.264973025970384,
        "smoothness": 0.1758639437099147,
        "time": 5.0376725890000005,
        "traj_len": 3.152173214208544,
        "weighted_distance": 4.549817978704193
    },
    "planner": "SPARStwo",
    "start": {
        "state": {
            "elbow_joint": 1.919643534880228,
            "shoulder_lift_joint": -1.8972525353963687,
            "shoulder_pan_joint": -1.1188672234189438,
            "wrist_1_joint": -1.5931878212786155,
            "wrist_2_joint": 1.5706036197970081,
            "wrist_3_joint": 1.118896926603594
        }
    },
    "waypoints": [
        {
            "positions": [
                -1.1188672234189438,
                -1.8972525353963687,
                1.919643534880228,
                -1.5931878212786155,
                1.5706036197970081,
                1.118896926603594
            ]
        },
        {
            "positions": [
                -1.0936596064968125,
                -1.8766978858616934,
                1.8621509412202577,
                -1.594501344326828,
                1.4776215886629622,
                0.9440828811504987
            ]
        },
        {
            "positions": [
                -1.0684519895746811,
                -1.856143236327018,
                1.8046583475602875,
                -1.5958148673750405,
                1.3846395575289165,
                0.7692688356974035
            ]
        },
        {
            "positions": [
                -1.0432443726525498,
                -1.8355885867923427,
                1.7471657539003171,
                -1.5971283904232532,
                1.2916575263948706,
                0.5944547902443081
            ]
        },
        {
            "positions": [
                -1.0180367557304182,
                -1.8150339372576674,
                1.689673160240347,
                -1.5984419134714656,
                1.198675495260825,
                0.41964074479121294
            ]
        },
        {
            "positions": [
                -0.9928291388082868,
                -1.794479287722992,
                1.6321805665803766,
                -1.5997554365196782,
                1.1056934641267788,
                0.24482669933811751
            ]
        },
        {
            "positions": [
                -0.9676215218861555,
                -1.773924638188317,
                1.5746879729204064,
                -1.6010689595678906,
                1.0127114329927331,
                0.07001265388502231
            ]
        },
        {
            "positions": [
                -0.9424139049640241,
                -1.7533699886536414,
                1.517195379260436,
                -1.6023824826161033,
                0.9197294018586872,
                -0.104801391568073
            ]
        },
        {
            "positions": [
                -0.9172062880418927,
                -1.7328153391189662,
                1.4597027856004656,
                -1.603696005664316,
                0.8267473707246416,
                -0.2796154370211681
            ]
        },
        {
            "positions": [
                -0.8919986711197613,
                -1.712260689584291,
                1.4022101919404955,
                -1.6050095287125283,
                0.7337653395905956,
                -0.4544294824742636
            ]
        },
        {
            "positions": [
                -0.8667910541976298,
                -1.6917060400496156,
                1.344717598280525,
                -1.606323051760741,
                0.6407833084565497,
                -0.6292435279273589
            ]
        },
        {
            "positions": [
                -0.8415834372754984,
                -1.6711513905149402,
                1.287225004620555,
                -1.6076365748089534,
                0.547801277322504,
                -0.804057573380454
            ]
        },
        {
            "positions": [
                -0.8163758203533671,
                -1.6505967409802649,
                1.2297324109605845,
                -1.608950097857166,
                0.4548192461884581,
                -0.9788716188335492
            ]
        },
        {
            "positions": [
                -0.7493522523296404,
                -1.6145282670169543,
                1.2836020125433187,
                -1.553860598740349,
                0.43111196210254554,
                -1.1336719388716379
            ]
        },
        {
            "positions": [
                -0.6823286843059138,
                -1.5784597930536437,
                1.3374716141260528,
                -1.4987710996235322,
                0.407404678016633,
                -1.2884722589097266
            ]
        },
        {
            "positions": [
                -0.6153051162821871,
                -1.5423913190903331,
                1.391341215708787,
                -1.4436816005067152,
                0.38369739393072044,
                -1.4432725789478151
            ]
        },
        {
            "positions": [
                -0.5482815482584604,
                -1.5063228451270225,
                1.445210817291521,
                -1.3885921013898983,
                0.35999010984480784,
                -1.5980728989859037
            ]
        },
        {
            "positions": [
                -0.48125798023473365,
                -1.4702543711637117,
                1.4990804188742552,
                -1.3335026022730814,
                0.3362828257588953,
                -1.7528732190239924
            ]
        },
        {
            "positions": [
                -0.41423441221100704,
                -1.4341858972004011,
                1.5529500204569895,
                -1.2784131031562644,
                0.31257554167298274,
                -1.9076735390620811
            ]
        },
        {
            "positions": [
                -0.3472108441872803,
                -1.3981174232370905,
                1.6068196220397235,
                -1.2233236040394475,
                0.2888682575870702,
                -2.06247385910017
            ]
        },
        {
            "positions": [
                -0.28018727616355366,
                -1.36204894927378,
                1.6606892236224577,
                -1.1682341049226306,
                0.26516097350115764,
                -2.217274179138258
            ]
        },
        {
            "positions": [
                -0.21316370813982688,
                -1.3259804753104691,
                1.714558825205192,
                -1.1131446058058134,
                0.24145368941524506,
                -2.3720744991763474
            ]
        },
        {
            "positions": [
                -0.14614014011610021,
                -1.2899120013471586,
                1.768428426787926,
                -1.0580551066889965,
                0.2177464053293325,
                -2.5268748192144357
            ]
        },
        {
            "positions": [
                -0.07911657209237366,
                -1.253843527383848,
                1.8222980283706602,
                -1.0029656075721798,
                0.19403912124342,
                -2.6816751392525244
            ]
        },
        {
            "positions": [
                -0.012093004068646995,
                -1.2177750534205374,
                1.8761676299533945,
                -0.9478761084553627,
                0.17033183715750744,
                -2.8364754592906127
            ]
        },
        {
            "positions": [
                0.05493056395507978,
                -1.1817065794572268,
                1.9300372315361285,
                -0.8927866093385457,
                0.14662455307159483,
                -2.9912757793287015
            ]
        },
        {
            "positions": [
                0.12195413197880649,
                -1.1456381054939162,
                1.9839068331188627,
                -0.8376971102217288,
                0.1229172689856823,
                -3.1460760993667902
            ]
        }
    ]
}