{
    "goal": {
        "global_pose": {
            "orientation": {
                "w": 0.5084816217422485,
                "x": -0.49083608388900757,
                "y": 0.5182115435600281,
                "z": -0.4816462993621826
            },
            "position": {
                "x": 0.5540239810943604,
                "y": 0.030875300988554955,
                "z": 0.16403168439865112
            }
        },
        "name": "move_to_storage_A"
    },
    "id": "SPARS_move_to_storage_A_135",
    "joint_names": [
        "shoulder_pan_joint",
        "shoulder_lift_joint",
        "elbow_joint",
        "wrist_1_joint",
        "wrist_2_joint",
        "wrist_3_joint"
    ],
    "metrics": {
        "cart_traj_len": 0.35298185208176824,
        "distance_elbow_joint": 0.448712362878787,
        "distance_shoulder_lift_joint": 0.23395461127292294,
        "distance_shoulder_pan_joint": 0.4598155214557007,
        "distance_wrist_1_joint": 0.23727153919461264,
        "distance_wrist_2_joint": 1.1059799169132174,
        "distance_wrist_3_joint": 0.0998617297677944,
        "smoothness": 2.2204460668324854e-16,
        "time": 5.005883327,
        "traj_len": 1.6079787565397234,
        "weighted_distance": 2.0318884312694077
    },
    "planner": "SPARS",
    "start": {
        "state": {
            "elbow_joint": 1.9715477243005601,
            "shoulder_lift_joint": -1.1394853015351272,
            "shoulder_pan_joint": 0.12281154014795169,
            "wrist_1_joint": -0.7804696478968182,
            "wrist_2_joint": 0.12958648046900423,
            "wrist_3_joint": -3.192491284697111
        }
    },
    "waypoints": [
        {
            "positions": [
                0.12281154014795169,
                -1.1394853015351272,
                1.9715477243005601,
                -0.7804696478968182,
                0.12958648046900423,
                -3.192491284697111
            ]
        },
        {
            "positions": [
                0.05712360851142302,
                -1.1729073888598305,
                2.0356494904261013,
                -0.8143655820674771,
                0.2875836114566067,
                -3.178225323301712
            ]
        },
        {
            "positions": [
                -0.008564323125105647,
                -1.2063294761845338,
                2.099751256551642,
                -0.8482615162381361,
                0.4455807424442092,
                -3.1639593619063127
            ]
        },
        {
            "positions": [
                -0.07425225476163431,
                -1.239751563509237,
                2.1638530226771833,
                -0.882157450408795,
                0.6035778734318117,
                -3.1496934005109134
            ]
        },
        {
            "positions": [
                -0.13994018639816297,
                -1.2731736508339402,
                2.227954788802724,
                -0.916053384579454,
                0.7615750044194142,
                -3.1354274391155146
            ]
        },
        {
            "positions": [
                -0.20562811803469166,
                -1.3065957381586435,
                2.292056554928265,
                -0.9499493187501129,
                0.9195721354070167,
                -3.1211614777201153
            ]
        },
        {
            "positions": [
                -0.2713160496712203,
                -1.3400178254833468,
                2.356158321053806,
                -0.9838452529207719,
                1.0775692663946193,
                -3.106895516324716
            ]
        },
        {
            "positions": [
                -0.337003981307749,
                -1.3734399128080501,
                2.420260087179347,
                -1.0177411870914308,
                1.2355663973822217,
                -3.092629554929317
            ]
        }
    ]
}