{
    "goal": {
        "global_pose": {
            "orientation": {
                "w": 0.7047431468963623,
                "x": -0.7094548344612122,
                "y": 0.0024358443915843964,
                "z": -0.0022348060738295317
            },
            "position": {
                "x": 0.6094750761985779,
                "y": 0.3671506643295288,
                "z": 0.19426114857196808
            }
        },
        "name": "move_to_magneteinheit_A"
    },
    "id": "SPARStwo_move_to_magneteinheit_A_94",
    "joint_names": [
        "shoulder_pan_joint",
        "shoulder_lift_joint",
        "elbow_joint",
        "wrist_1_joint",
        "wrist_2_joint",
        "wrist_3_joint"
    ],
    "metrics": {
        "cart_traj_len": 1.1869350159675611,
        "distance_elbow_joint": 0.4034232598993728,
        "distance_shoulder_lift_joint": 0.7586540260642085,
        "distance_shoulder_pan_joint": 1.2407187228373737,
        "distance_wrist_1_joint": 1.3903806607173586,
        "distance_wrist_2_joint": 1.8351957705869308,
        "distance_wrist_3_joint": 4.2954876836616425,
        "smoothness": 0.31843199998641286,
        "time": 5.017858047,
        "traj_len": 3.1502158852635618,
        "weighted_distance": 4.662661463412764
    },
    "planner": "SPARStwo",
    "start": {
        "state": {
            "elbow_joint": 1.919643534880228,
            "shoulder_lift_joint": -1.8972525353963687,
            "shoulder_pan_joint": -1.1188672234189438,
            "wrist_1_joint": -1.5931878212786155,
            "wrist_2_joint": 1.5706036197970081,
            "wrist_3_joint": 1.118896926603594
        }
    },
    "waypoints": [
        {
            "positions": [
                -1.1188672234189438,
                -1.8972525353963687,
                1.919643534880228,
                -1.5931878212786155,
                1.5706036197970081,
                1.118896926603594
            ]
        },
        {
            "positions": [
                -1.0772769279985226,
                -1.877028543342612,
                1.911281880591746,
                -1.5409477772215332,
                1.4923451571990833,
                0.9401798273329962
            ]
        },
        {
            "positions": [
                -1.0356866325781016,
                -1.856804551288855,
                1.9029202263032639,
                -1.4887077331644507,
                1.4140866946011583,
                0.7614627280623985
            ]
        },
        {
            "positions": [
                -0.9940963371576804,
                -1.836580559235098,
                1.8945585720147817,
                -1.4364676891073684,
                1.3358282320032335,
                0.5827456287918007
            ]
        },
        {
            "positions": [
                -0.9525060417372593,
                -1.8163565671813413,
                1.8861969177262996,
                -1.3842276450502862,
                1.2575697694053085,
                0.40402852952120294
            ]
        },
        {
            "positions": [
                -0.910915746316838,
                -1.7961325751275845,
                1.8778352634378175,
                -1.331987600993204,
                1.1793113068073837,
                0.22531143025060518
            ]
        },
        {
            "positions": [
                -0.8693254508964169,
                -1.7759085830738275,
                1.8694736091493356,
                -1.2797475569361214,
                1.1010528442094587,
                0.046594330980007426
            ]
        },
        {
            "positions": [
                -0.8277351554759957,
                -1.7556845910200707,
                1.8611119548608535,
                -1.2275075128790391,
                1.022794381611534,
                -0.13212276829059033
            ]
        },
        {
            "positions": [
                -0.7861448600555746,
                -1.7354605989663139,
                1.8527503005723713,
                -1.1752674688219567,
                0.944535919013609,
                -0.3108398675611881
            ]
        },
        {
            "positions": [
                -0.7445545646351535,
                -1.715236606912557,
                1.8443886462838892,
                -1.1230274247648744,
                0.8662774564156841,
                -0.48955696683178584
            ]
        },
        {
            "positions": [
                -0.7029642692147323,
                -1.6950126148588,
                1.836026991995407,
                -1.0707873807077921,
                0.7880189938177592,
                -0.6682740661023836
            ]
        },
        {
            "positions": [
                -0.6613739737943111,
                -1.6747886228050433,
                1.827665337706925,
                -1.0185473366507096,
                0.7097605312198342,
                -0.8469911653729814
            ]
        },
        {
            "positions": [
                -0.6197836783738899,
                -1.6545646307512865,
                1.8193036834184428,
                -0.9663072925936274,
                0.6315020686219094,
                -1.0257082646435791
            ]
        },
        {
            "positions": [
                -0.5781933829534688,
                -1.6343406386975294,
                1.8109420291299607,
                -0.914067248536545,
                0.5532436060239845,
                -1.2044253639141769
            ]
        },
        {
            "positions": [
                -0.5366030875330476,
                -1.6141166466437726,
                1.8025803748414786,
                -0.8618272044794627,
                0.4749851434260597,
                -1.3831424631847746
            ]
        },
        {
            "positions": [
                -0.4950127921126265,
                -1.5938926545900158,
                1.7942187205529965,
                -0.8095871604223803,
                0.39672668082813467,
                -1.5618595624553724
            ]
        },
        {
            "positions": [
                -0.45342249669220536,
                -1.5736686625362588,
                1.7858570662645143,
                -0.7573471163652981,
                0.3184682182302099,
                -1.7405766617259701
            ]
        },
        {
            "positions": [
                -0.4118322012717841,
                -1.553444670482502,
                1.7774954119760324,
                -0.7051070723082157,
                0.24020975563228486,
                -1.919293760996568
            ]
        },
        {
            "positions": [
                -0.3702419058513631,
                -1.5332206784287452,
                1.7691337576875503,
                -0.6528670282511333,
                0.16195129303436007,
                -2.0980108602671654
            ]
        },
        {
            "positions": [
                -0.3286516104309418,
                -1.5129966863749882,
                1.7607721033990682,
                -0.6006269841940509,
                0.08369283043643505,
                -2.276727959537763
            ]
        },
        {
            "positions": [
                -0.2870613150105208,
                -1.4927726943212316,
                1.752410449110586,
                -0.5483869401369688,
                0.005434367838510257,
                -2.455445058808361
            ]
        },
        {
            "positions": [
                -0.24547101959009948,
                -1.4725487022674746,
                1.744048794822104,
                -0.4961468960798863,
                -0.0728240947594147,
                -2.6341621580789587
            ]
        },
        {
            "positions": [
                -0.17200651578839363,
                -1.4057586636804118,
                1.7896144987903537,
                -0.5548148431836122,
                -0.034470483553313135,
                -2.7426478778747767
            ]
        },
        {
            "positions": [
                -0.09854201198668777,
                -1.3389686250933488,
                1.8351802027586035,
                -0.6134827902873381,
                0.0038831276527884345,
                -2.8511335976705947
            ]
        },
        {
            "positions": [
                -0.025077508184981945,
                -1.272178586506286,
                1.880745906726853,
                -0.672150737391064,
                0.04223673885889,
                -2.959619317466413
            ]
        },
        {
            "positions": [
                0.04838699561672394,
                -1.205388547919223,
                1.9263116106951028,
                -0.7308186844947899,
                0.08059035006499157,
                -3.068105037262231
            ]
        },
        {
            "positions": [
                0.12185149941842977,
                -1.1385985093321602,
                1.9718773146633526,
                -0.7894866315985157,
                0.11894396127109312,
                -3.176590757058049
            ]
        }
    ]
}