{
    "goal": {
        "global_pose": {
            "orientation": {
                "w": 0.7047431468963623,
                "x": -0.7094548344612122,
                "y": 0.0024358443915843964,
                "z": -0.0022348060738295317
            },
            "position": {
                "x": 0.6094750761985779,
                "y": 0.3671506643295288,
                "z": 0.19426114857196808
            }
        },
        "name": "move_to_magneteinheit_A"
    },
    "id": "SPARS_move_to_magneteinheit_A_61",
    "joint_names": [
        "shoulder_pan_joint",
        "shoulder_lift_joint",
        "elbow_joint",
        "wrist_1_joint",
        "wrist_2_joint",
        "wrist_3_joint"
    ],
    "metrics": {
        "cart_traj_len": 3.526742670263964,
        "distance_elbow_joint": 3.8793254666092905,
        "distance_shoulder_lift_joint": 0.17964436966301278,
        "distance_shoulder_pan_joint": 2.7141251960287067,
        "distance_wrist_1_joint": 0.9530168458386579,
        "distance_wrist_2_joint": 2.3455739160698976,
        "distance_wrist_3_joint": 2.583464771783852,
        "smoothness": 0.24036957051256896,
        "time": 5.042543689,
        "traj_len": 3.557407843640285,
        "weighted_distance": 4.595723106483862
    },
    "planner": "SPARS",
    "start": {
        "state": {
            "elbow_joint": -1.919618573717145,
            "shoulder_lift_joint": -1.2443395971678275,
            "shoulder_pan_joint": 2.6996025300909787,
            "wrist_1_joint": -1.548550951253194,
            "wrist_2_joint": -1.5709469090946802,
            "wrist_3_joint": 0.4420197732051276
        }
    },
    "waypoints": [
        {
            "positions": [
                2.6996025300909787,
                -1.2443395971678275,
                -1.919618573717145,
                -1.548550951253194,
                -1.5709469090946802,
                0.4420197732051276
            ]
        },
        {
            "positions": [
                2.605121328628579,
                -1.245554140511493,
                -1.8159948812505224,
                -1.5166822878680488,
                -1.4985802341335437,
                0.5267601541338385
            ]
        },
        {
            "positions": [
                2.510640127166179,
                -1.2467686838551584,
                -1.7123711887838997,
                -1.4848136244829038,
                -1.4262135591724074,
                0.6115005350625495
            ]
        },
        {
            "positions": [
                2.416158925703779,
                -1.2479832271988238,
                -1.6087474963172772,
                -1.4529449610977585,
                -1.353846884211271,
                0.6962409159912604
            ]
        },
        {
            "positions": [
                2.3216777242413795,
                -1.2491977705424893,
                -1.5051238038506547,
                -1.4210762977126132,
                -1.2814802092501347,
                0.7809812969199714
            ]
        },
        {
            "positions": [
                2.2271965227789794,
                -1.2504123138861547,
                -1.401500111384032,
                -1.3892076343274682,
                -1.2091135342889983,
                0.8657216778486823
            ]
        },
        {
            "positions": [
                2.1327153213165797,
                -1.2516268572298201,
                -1.2978764189174095,
                -1.357338970942323,
                -1.136746859327862,
                0.9504620587773933
            ]
        },
        {
            "positions": [
                2.03823411985418,
                -1.2528414005734856,
                -1.1942527264507867,
                -1.3254703075571777,
                -1.0643801843667255,
                1.0352024397061041
            ]
        },
        {
            "positions": [
                1.94375291839178,
                -1.254055943917151,
                -1.0906290339841642,
                -1.2936016441720324,
                -0.9920135094055892,
                1.1199428206348152
            ]
        },
        {
            "positions": [
                1.8492717169293802,
                -1.2552704872608165,
                -0.9870053415175416,
                -1.2617329807868873,
                -0.9196468344444527,
                1.2046832015635263
            ]
        },
        {
            "positions": [
                1.7547905154669805,
                -1.256485030604482,
                -0.883381649050919,
                -1.229864317401742,
                -0.8472801594833164,
                1.289423582492237
            ]
        },
        {
            "positions": [
                1.6603093140045806,
                -1.2576995739481474,
                -0.7797579565842965,
                -1.1979956540165968,
                -0.7749134845221801,
                1.374163963420948
            ]
        },
        {
            "positions": [
                1.565828112542181,
                -1.2589141172918128,
                -0.676134264117674,
                -1.1661269906314518,
                -0.7025468095610438,
                1.458904344349659
            ]
        },
        {
            "positions": [
                1.4713469110797808,
                -1.2601286606354782,
                -0.5725105716510512,
                -1.1342583272463065,
                -0.6301801345999073,
                1.54364472527837
            ]
        },
        {
            "positions": [
                1.376865709617381,
                -1.2613432039791437,
                -0.46888687918442873,
                -1.1023896638611612,
                -0.5578134596387709,
                1.6283851062070809
            ]
        },
        {
            "positions": [
                1.2823845081549814,
                -1.2625577473228091,
                -0.3652631867178062,
                -1.070521000476016,
                -0.4854467846776347,
                1.7131254871357917
            ]
        },
        {
            "positions": [
                1.1879033066925815,
                -1.2637722906664746,
                -0.2616394942511837,
                -1.038652337090871,
                -0.4130801097164982,
                1.7978658680645028
            ]
        },
        {
            "positions": [
                1.0934221052301818,
                -1.26498683401014,
                -0.1580158017845612,
                -1.0067836737057259,
                -0.340713434755362,
                1.8826062489932136
            ]
        },
        {
            "positions": [
                0.9989409037677817,
                -1.2662013773538054,
                -0.05439210931793825,
                -0.9749150103205805,
                -0.2683467597942253,
                1.9673466299219249
            ]
        },
        {
            "positions": [
                0.9044597023053818,
                -1.2674159206974709,
                0.049231583148684255,
                -0.9430463469354352,
                -0.19598008483308904,
                2.0520870108506357
            ]
        },
        {
            "positions": [
                0.8099785008429821,
                -1.2686304640411363,
                0.15285527561530698,
                -0.91117768355029,
                -0.12361340987195257,
                2.1368273917793466
            ]
        },
        {
            "positions": [
                0.7154972993805822,
                -1.2698450073848018,
                0.2564789680819295,
                -0.8793090201651449,
                -0.05124673491081633,
                2.2215677727080574
            ]
        },
        {
            "positions": [
                0.6210160979181825,
                -1.2710595507284672,
                0.360102660548552,
                -0.8474403567799996,
                0.02111994005031992,
                2.306308153636768
            ]
        },
        {
            "positions": [
                0.5265348964557828,
                -1.2722740940721327,
                0.4637263530151745,
                -0.8155716933948545,
                0.09348661501145639,
                2.391048534565479
            ]
        },
        {
            "positions": [
                0.4320536949933831,
                -1.273488637415798,
                0.567350045481797,
                -0.7837030300097093,
                0.16585328997259263,
                2.4757889154941903
            ]
        },
        {
            "positions": [
                0.33757249353098295,
                -1.2747031807594635,
                0.67097373794842,
                -0.751834366624564,
                0.23821996493372932,
                2.5605292964229016
            ]
        },
        {
            "positions": [
                0.24309129206858282,
                -1.275917724103129,
                0.7745974304150425,
                -0.7199657032394189,
                0.31058663989486557,
                2.6452696773516124
            ]
        },
        {
            "positions": [
                0.14861009060618313,
                -1.2771322674467944,
                0.878221122881665,
                -0.6880970398542736,
                0.38295331485600204,
                2.7300100582803233
            ]
        },
        {
            "positions": [
                0.05412888914378325,
                -1.2783468107904599,
                0.9818448153482876,
                -0.6562283764691285,
                0.45531998981713817,
                2.814750439209034
            ]
        },
        {
            "positions": [
                0.06785920016008541,
                -1.2492193795823838,
                1.1774172308570592,
                -0.6683672306800469,
                0.39145858638552217,
                2.8568972603650233
            ]
        },
        {
            "positions": [
                0.08158951117638756,
                -1.2200919483743078,
                1.3729896463658307,
                -0.6805060848909653,
                0.32759718295390616,
                2.8990440815210126
            ]
        },
        {
            "positions": [
                0.09531982219268972,
                -1.1909645171662315,
                1.5685620618746023,
                -0.6926449391018838,
                0.2637357795222902,
                2.9411909026770013
            ]
        },
        {
            "positions": [
                0.10905013320899187,
                -1.1618370859581555,
                1.7641344773833738,
                -0.7047837933128023,
                0.1998743760906742,
                2.9833377238329906
            ]
        },
        {
            "positions": [
                0.12278044422529404,
                -1.1327096547500795,
                1.9597068928921453,
                -0.7169226475237207,
                0.1360129726590582,
                3.02548454498898
            ]
        }
    ]
}{
    "goal": {
        "global_pose": {
            "orientation": {
                "w": 0.7047431468963623,
                "x": -0.7094548344612122,
                "y": 0.0024358443915843964,
                "z": -0.0022348060738295317
            },
            "position": {
                "x": 0.6094750761985779,
                "y": 0.3671506643295288,
                "z": 0.19426114857196808
            }
        },
        "name": "move_to_magneteinheit_A"
    },
    "id": "SPARS_move_to_magneteinheit_A_61",
    "joint_names": [
        "shoulder_pan_joint",
        "shoulder_lift_joint",
        "elbow_joint",
        "wrist_1_joint",
        "wrist_2_joint",
        "wrist_3_joint"
    ],
    "metrics": {
        "cart_traj_len": 1.3603248472933973,
        "distance_elbow_joint": 0.08557959628188128,
        "distance_shoulder_lift_joint": 0.7641571882667577,
        "distance_shoulder_pan_joint": 1.2429517312630576,
        "distance_wrist_1_joint": 1.6535651271127874,
        "distance_wrist_2_joint": 1.4301008096464476,
        "distance_wrist_3_joint": 4.35802926340517,
        "smoothness": 0.22720288856353058,
        "time": 5.052632115,
        "traj_len": 3.087779738902388,
        "weighted_distance": 4.618886032318364
    },
    "planner": "SPARS",
    "start": {
        "state": {
            "elbow_joint": 1.919643534880228,
            "shoulder_lift_joint": -1.8972525353963687,
            "shoulder_pan_joint": -1.1188672234189438,
            "wrist_1_joint": -1.5931878212786155,
            "wrist_2_joint": 1.5706036197970081,
            "wrist_3_joint": 1.118896926603594
        }
    },
    "waypoints": [
        {
            "positions": [
                -1.1188672234189438,
                -1.8972525353963687,
                1.919643534880228,
                -1.5931878212786155,
                1.5706036197970081,
                1.118896926603594
            ]
        },
        {
            "positions": [
                -1.0952170744229546,
                -1.8612549800087523,
                1.9226123152851455,
                -1.5329837002574036,
                1.5028750527220553,
                0.9165731190690047
            ]
        },
        {
            "positions": [
                -1.0715669254269653,
                -1.825257424621136,
                1.925581095690063,
                -1.4727795792361915,
                1.4351464856471028,
                0.7142493115344155
            ]
        },
        {
            "positions": [
                -1.047916776430976,
                -1.7892598692335195,
                1.9285498760949806,
                -1.4125754582149797,
                1.36741791857215,
                0.5119255039998263
            ]
        },
        {
            "positions": [
                -1.0242666274349868,
                -1.753262313845903,
                1.931518656499898,
                -1.3523713371937678,
                1.2996893514971974,
                0.30960169646523705
            ]
        },
        {
            "positions": [
                -1.0006164784389975,
                -1.7172647584582865,
                1.9344874369048155,
                -1.292167216172556,
                1.2319607844222447,
                0.10727788893064782
            ]
        },
        {
            "positions": [
                -0.9769663294430082,
                -1.6812672030706701,
                1.937456217309733,
                -1.231963095151344,
                1.164232217347292,
                -0.0950459186039414
            ]
        },
        {
            "positions": [
                -0.9533161804470189,
                -1.6452696476830537,
                1.9404249977146504,
                -1.171758974130132,
                1.0965036502723393,
                -0.29736972613853063
            ]
        },
        {
            "positions": [
                -0.9296660314510296,
                -1.6092720922954373,
                1.943393778119568,
                -1.11155485310892,
                1.0287750831973868,
                -0.49969353367311986
            ]
        },
        {
            "positions": [
                -0.9060158824550403,
                -1.573274536907821,
                1.9463625585244855,
                -1.051350732087708,
                0.961046516122434,
                -0.7020173412077091
            ]
        },
        {
            "positions": [
                -0.882365733459051,
                -1.5372769815202045,
                1.949331338929403,
                -0.9911466110664963,
                0.8933179490474813,
                -0.9043411487422983
            ]
        },
        {
            "positions": [
                -0.8587155844630617,
                -1.501279426132588,
                1.9523001193343203,
                -0.9309424900452842,
                0.8255893819725285,
                -1.1066649562768875
            ]
        },
        {
            "positions": [
                -0.8350654354670725,
                -1.4652818707449717,
                1.9552688997392378,
                -0.8707383690240724,
                0.757860814897576,
                -1.3089887638114768
            ]
        },
        {
            "positions": [
                -0.8114152864710831,
                -1.4292843153573551,
                1.9582376801441552,
                -0.8105342480028603,
                0.6901322478226232,
                -1.511312571346066
            ]
        },
        {
            "positions": [
                -0.7877651374750939,
                -1.3932867599697387,
                1.9612064605490729,
                -0.7503301269816485,
                0.6224036807476705,
                -1.7136363788806552
            ]
        },
        {
            "positions": [
                -0.7641149884791045,
                -1.3572892045821223,
                1.9641752409539903,
                -0.6901260059604365,
                0.5546751136727177,
                -1.9159601864152445
            ]
        },
        {
            "positions": [
                -0.7404648394831153,
                -1.321291649194506,
                1.9671440213589078,
                -0.6299218849392246,
                0.48694654659776515,
                -2.1182839939498335
            ]
        },
        {
            "positions": [
                -0.716814690487126,
                -1.2852940938068893,
                1.9701128017638252,
                -0.5697177639180127,
                0.41921797952281237,
                -2.3206078014844227
            ]
        },
        {
            "positions": [
                -0.6931645414911367,
                -1.249296538419273,
                1.9730815821687426,
                -0.5095136428968008,
                0.3514894124478598,
                -2.522931609019012
            ]
        },
        {
            "positions": [
                -0.6695143924951474,
                -1.2132989830316565,
                1.9760503625736603,
                -0.4493095218755889,
                0.283760845372907,
                -2.725255416553601
            ]
        },
        {
            "positions": [
                -0.6458642434991582,
                -1.17730142764404,
                1.9790191429785777,
                -0.38910540085437706,
                0.21603227829795446,
                -2.9275792240881904
            ]
        },
        {
            "positions": [
                -0.6222140945031689,
                -1.1413038722564237,
                1.9819879233834952,
                -0.32890127983316486,
                0.14830371122300165,
                -3.12990303162278
            ]
        },
        {
            "positions": [
                -0.43563944391634823,
                -1.1392517409747205,
                1.9761791214388416,
                -0.4262209262499991,
                0.14635348595489142,
                -3.157210357917479
            ]
        },
        {
            "positions": [
                -0.24906479332952758,
                -1.1371996096930173,
                1.970370319494188,
                -0.5235405726668332,
                0.14440326068678122,
                -3.184517684212178
            ]
        },
        {
            "positions": [
                -0.06249014274270692,
                -1.1351474784113142,
                1.9645615175495346,
                -0.6208602190836674,
                0.142453035418671,
                -3.211825010506877
            ]
        },
        {
            "positions": [
                0.12408450784411368,
                -1.133095347129611,
                1.958752715604881,
                -0.7181798655005016,
                0.14050281015056076,
                -3.2391323368015756
            ]
        }
    ]
}