{
    "goal": {
        "global_pose": {
            "orientation": {
                "w": 0.5084816217422485,
                "x": -0.49083608388900757,
                "y": 0.5182115435600281,
                "z": -0.4816462993621826
            },
            "position": {
                "x": 0.5540239810943604,
                "y": 0.030875300988554955,
                "z": 0.16403168439865112
            }
        },
        "name": "move_to_storage_A"
    },
    "id": "SPARS_move_to_storage_A_145",
    "joint_names": [
        "shoulder_pan_joint",
        "shoulder_lift_joint",
        "elbow_joint",
        "wrist_1_joint",
        "wrist_2_joint",
        "wrist_3_joint"
    ],
    "metrics": {
        "cart_traj_len": 0.3536892290514703,
        "distance_elbow_joint": 0.4540595435983765,
        "distance_shoulder_lift_joint": 0.23403839416361483,
        "distance_shoulder_pan_joint": 0.4649954234851852,
        "distance_wrist_1_joint": 0.2570824282087355,
        "distance_wrist_2_joint": 1.08977066721391,
        "distance_wrist_3_joint": 0.10461525401561156,
        "smoothness": 4.440892098500626e-16,
        "time": 5.0376357259999995,
        "traj_len": 1.6138654561906434,
        "weighted_distance": 2.039765994946308
    },
    "planner": "SPARS",
    "start": {
        "state": {
            "elbow_joint": 1.9715477243005601,
            "shoulder_lift_joint": -1.1394853015351272,
            "shoulder_pan_joint": 0.12281154014795169,
            "wrist_1_joint": -0.7804696478968182,
            "wrist_2_joint": 0.12958648046900423,
            "wrist_3_joint": -3.192491284697111
        }
    },
    "waypoints": [
        {
            "positions": [
                0.12281154014795169,
                -1.1394853015351272,
                1.9715477243005601,
                -0.7804696478968182,
                0.12958648046900423,
                -3.192491284697111
            ]
        },
        {
            "positions": [
                0.05638362250721095,
                -1.172919357844215,
                2.0364133733860426,
                -0.8171957090694947,
                0.28526800435670563,
                -3.1775462484091666
            ]
        },
        {
            "positions": [
                -0.010044295133529793,
                -1.2063534141533028,
                2.101279022471525,
                -0.8539217702421712,
                0.4409495282444071,
                -3.1626012121212224
            ]
        },
        {
            "positions": [
                -0.07647221277427053,
                -1.2397874704623906,
                2.1661446715570074,
                -0.8906478314148476,
                0.5966310521321085,
                -3.1476561758332777
            ]
        },
        {
            "positions": [
                -0.14290013041501126,
                -1.2732215267714784,
                2.2310103206424894,
                -0.9273738925875241,
                0.7523125760198099,
                -3.132711139545333
            ]
        },
        {
            "positions": [
                -0.209328048055752,
                -1.3066555830805664,
                2.295875969727972,
                -0.9640999537602006,
                0.9079940999075115,
                -3.1177661032573885
            ]
        },
        {
            "positions": [
                -0.27575596569649274,
                -1.3400896393896542,
                2.3607416188134542,
                -1.0008260149328772,
                1.0636756237952127,
                -3.1028210669694443
            ]
        },
        {
            "positions": [
                -0.3421838833372335,
                -1.373523695698742,
                2.4256072678989367,
                -1.0375520761055537,
                1.2193571476829141,
                -3.0878760306814996
            ]
        }
    ]
}