{
    "goal": {
        "global_pose": {
            "orientation": {
                "w": 0.7047431468963623,
                "x": -0.7094548344612122,
                "y": 0.0024358443915843964,
                "z": -0.0022348060738295317
            },
            "position": {
                "x": 0.6094750761985779,
                "y": 0.3671506643295288,
                "z": 0.19426114857196808
            }
        },
        "name": "move_to_magneteinheit_A"
    },
    "id": "SPARS_move_to_magneteinheit_A_137",
    "joint_names": [
        "shoulder_pan_joint",
        "shoulder_lift_joint",
        "elbow_joint",
        "wrist_1_joint",
        "wrist_2_joint",
        "wrist_3_joint"
    ],
    "metrics": {
        "cart_traj_len": 3.6378579651039225,
        "distance_elbow_joint": 3.875175829129258,
        "distance_shoulder_lift_joint": 0.6092228007934795,
        "distance_shoulder_pan_joint": 5.445879405649267,
        "distance_wrist_1_joint": 0.9600512367065959,
        "distance_wrist_2_joint": 3.425749485801537,
        "distance_wrist_3_joint": 2.766583338206743,
        "smoothness": 0.23701366028163146,
        "time": 5.034100059,
        "traj_len": 4.133117721077743,
        "weighted_distance": 5.196309218590489
    },
    "planner": "SPARS",
    "start": {
        "state": {
            "elbow_joint": -1.919618573717145,
            "shoulder_lift_joint": -1.2443395971678275,
            "shoulder_pan_joint": 2.6996025300909787,
            "wrist_1_joint": -1.548550951253194,
            "wrist_2_joint": -1.5709469090946802,
            "wrist_3_joint": 0.4420197732051276
        }
    },
    "waypoints": [
        {
            "positions": [
                2.6996025300909787,
                -1.2443395971678275,
                -1.919618573717145,
                -1.548550951253194,
                -1.5709469090946802,
                0.4420197732051276
            ]
        },
        {
            "positions": [
                2.508578975170287,
                -1.2561451116692255,
                -1.8199740763714576,
                -1.5056161473400902,
                -1.6121141110431338,
                0.4374944240192003
            ]
        },
        {
            "positions": [
                2.3175554202495956,
                -1.2679506261706233,
                -1.7203295790257702,
                -1.4626813434269863,
                -1.6532813129915873,
                0.432969074833273
            ]
        },
        {
            "positions": [
                2.126531865328904,
                -1.2797561406720213,
                -1.620685081680083,
                -1.4197465395138822,
                -1.694448514940041,
                0.42844372564734573
            ]
        },
        {
            "positions": [
                1.9355083104082125,
                -1.291561655173419,
                -1.5210405843343957,
                -1.3768117356007783,
                -1.7356157168884945,
                0.42391837646141844
            ]
        },
        {
            "positions": [
                1.744484755487521,
                -1.303367169674817,
                -1.4213960869887083,
                -1.3338769316876744,
                -1.7767829188369482,
                0.41939302727549116
            ]
        },
        {
            "positions": [
                1.5534612005668296,
                -1.3151726841762148,
                -1.321751589643021,
                -1.2909421277745705,
                -1.8179501207854016,
                0.4148676780895639
            ]
        },
        {
            "positions": [
                1.362437645646138,
                -1.3269781986776128,
                -1.2221070922973336,
                -1.2480073238614664,
                -1.859117322733855,
                0.4103423289036366
            ]
        },
        {
            "positions": [
                1.1714140907254464,
                -1.3387837131790106,
                -1.1224625949516462,
                -1.2050725199483625,
                -1.9002845246823088,
                0.4058169797177093
            ]
        },
        {
            "positions": [
                0.9803905358047549,
                -1.3505892276804086,
                -1.022818097605959,
                -1.1621377160352586,
                -1.9414517266307625,
                0.4012916305317821
            ]
        },
        {
            "positions": [
                0.7893669808840633,
                -1.3623947421818063,
                -0.9231736002602717,
                -1.1192029121221547,
                -1.982618928579216,
                0.3967662813458548
            ]
        },
        {
            "positions": [
                0.5983434259633715,
                -1.3742002566832043,
                -0.8235291029145844,
                -1.0762681082090506,
                -2.0237861305276694,
                0.3922409321599275
            ]
        },
        {
            "positions": [
                0.4073198710426804,
                -1.386005771184602,
                -0.7238846055688972,
                -1.033333304295947,
                -2.064953332476123,
                0.3877155829740002
            ]
        },
        {
            "positions": [
                0.2162963161219884,
                -1.397811285686,
                -0.6242401082232096,
                -0.9903985003828428,
                -2.106120534424577,
                0.38319023378807293
            ]
        },
        {
            "positions": [
                0.02527276120129729,
                -1.4096168001873979,
                -0.5245956108775225,
                -0.9474636964697389,
                -2.1472877363730305,
                0.37866488460214565
            ]
        },
        {
            "positions": [
                -0.16575079371939427,
                -1.4214223146887959,
                -0.4249511135318351,
                -0.9045288925566349,
                -2.1884549383214837,
                0.37413953541621836
            ]
        },
        {
            "positions": [
                -0.35677434864008584,
                -1.4332278291901936,
                -0.32530661618614776,
                -0.861594088643531,
                -2.2296221402699374,
                0.3696141862302911
            ]
        },
        {
            "positions": [
                -0.5477979035607774,
                -1.4450333436915916,
                -0.2256621188404604,
                -0.818659284730427,
                -2.270789342218391,
                0.3650888370443638
            ]
        },
        {
            "positions": [
                -0.738821458481469,
                -1.4568388581929894,
                -0.12601762149477325,
                -0.7757244808173231,
                -2.3119565441668444,
                0.3605634878584365
            ]
        },
        {
            "positions": [
                -0.9298450134021605,
                -1.4686443726943874,
                -0.02637312414908588,
                -0.7327896769042191,
                -2.3531237461152985,
                0.3560381386725092
            ]
        },
        {
            "positions": [
                -1.120868568322852,
                -1.4804498871957852,
                0.07327137319660149,
                -0.6898548729911153,
                -2.3942909480637518,
                0.35151278948658193
            ]
        },
        {
            "positions": [
                -1.3118921232435437,
                -1.4922554016971832,
                0.17291587054228902,
                -0.6469200690780113,
                -2.4354581500122054,
                0.34698744030065465
            ]
        },
        {
            "positions": [
                -1.2495275687950769,
                -1.4765464018596126,
                0.25042201771054234,
                -0.6494600844924205,
                -2.324099965452031,
                0.463141831835536
            ]
        },
        {
            "positions": [
                -1.1871630143466099,
                -1.460837402022042,
                0.3279281648787956,
                -0.6520000999068297,
                -2.212741780891857,
                0.5792962233704173
            ]
        },
        {
            "positions": [
                -1.124798459898143,
                -1.4451284021844715,
                0.40543431204704894,
                -0.654540115321239,
                -2.101383596331682,
                0.6954506149052986
            ]
        },
        {
            "positions": [
                -1.062433905449676,
                -1.429419402346901,
                0.48294045921530226,
                -0.6570801307356483,
                -1.9900254117715077,
                0.8116050064401799
            ]
        },
        {
            "positions": [
                -1.0000693510012093,
                -1.41371040250933,
                0.5604466063835556,
                -0.6596201461500576,
                -1.8786672272113334,
                0.9277593979750612
            ]
        },
        {
            "positions": [
                -0.9377047965527424,
                -1.3980014026717595,
                0.6379527535518089,
                -0.6621601615644668,
                -1.767309042651159,
                1.0439137895099426
            ]
        },
        {
            "positions": [
                -0.8753402421042755,
                -1.382292402834189,
                0.7154589007200622,
                -0.6647001769788761,
                -1.6559508580909843,
                1.160068181044824
            ]
        },
        {
            "positions": [
                -0.8129756876558086,
                -1.3665834029966184,
                0.7929650478883155,
                -0.6672401923932854,
                -1.54459267353081,
                1.2762225725797052
            ]
        },
        {
            "positions": [
                -0.7506111332073417,
                -1.3508744031590478,
                0.8704711950565689,
                -0.6697802078076946,
                -1.4332344889706357,
                1.3923769641145864
            ]
        },
        {
            "positions": [
                -0.6882465787588748,
                -1.3351654033214773,
                0.9479773422248221,
                -0.6723202232221038,
                -1.3218763044104613,
                1.5085313556494677
            ]
        },
        {
            "positions": [
                -0.625882024310408,
                -1.3194564034839065,
                1.0254834893930755,
                -0.6748602386365131,
                -1.2105181198502868,
                1.624685747184349
            ]
        },
        {
            "positions": [
                -0.5635174698619412,
                -1.303747403646336,
                1.1029896365613288,
                -0.6774002540509224,
                -1.0991599352901125,
                1.7408401387192303
            ]
        },
        {
            "positions": [
                -0.5011529154134743,
                -1.2880384038087653,
                1.1804957837295822,
                -0.6799402694653317,
                -0.9878017507299381,
                1.8569945302541115
            ]
        },
        {
            "positions": [
                -0.4387883609650073,
                -1.2723294039711948,
                1.2580019308978356,
                -0.6824802848797409,
                -0.8764435661697634,
                1.9731489217889933
            ]
        },
        {
            "positions": [
                -0.3764238065165405,
                -1.2566204041336242,
                1.3355080780660888,
                -0.6850203002941502,
                -0.765085381609589,
                2.0893033133238745
            ]
        },
        {
            "positions": [
                -0.3140592520680736,
                -1.2409114042960536,
                1.413014225234342,
                -0.6875603157085595,
                -0.6537271970494147,
                2.205457704858756
            ]
        },
        {
            "positions": [
                -0.25169469761960683,
                -1.225202404458483,
                1.4905203724025955,
                -0.6901003311229688,
                -0.5423690124892404,
                2.3216120963936366
            ]
        },
        {
            "positions": [
                -0.18933014317113983,
                -1.2094934046209125,
                1.568026519570849,
                -0.6926403465373779,
                -0.43101082792906587,
                2.4377664879285184
            ]
        },
        {
            "positions": [
                -0.12696558872267305,
                -1.193784404783342,
                1.6455326667391021,
                -0.6951803619517872,
                -0.31965264336889154,
                2.5539208794633996
            ]
        },
        {
            "positions": [
                -0.06460103427420605,
                -1.1780754049457713,
                1.7230388139073554,
                -0.6977203773661965,
                -0.20829445880871722,
                2.670075270998281
            ]
        },
        {
            "positions": [
                -0.002236479825739268,
                -1.1623664051082006,
                1.8005449610756088,
                -0.7002603927806057,
                -0.0969362742485429,
                2.786229662533162
            ]
        },
        {
            "positions": [
                0.060128074622727734,
                -1.14665740527063,
                1.8780511082438622,
                -0.702800408195015,
                0.01442191031163187,
                2.9023840540680435
            ]
        },
        {
            "positions": [
                0.12249262907119456,
                -1.1309484054330594,
                1.9555572554121154,
                -0.7053404236094243,
                0.12578009487180628,
                3.0185384456029247
            ]
        }
    ]
}{
    "goal": {
        "global_pose": {
            "orientation": {
                "w": 0.7047431468963623,
                "x": -0.7094548344612122,
                "y": 0.0024358443915843964,
                "z": -0.0022348060738295317
            },
            "position": {
                "x": 0.6094750761985779,
                "y": 0.3671506643295288,
                "z": 0.19426114857196808
            }
        },
        "name": "move_to_magneteinheit_A"
    },
    "id": "SPARS_move_to_magneteinheit_A_137",
    "joint_names": [
        "shoulder_pan_joint",
        "shoulder_lift_joint",
        "elbow_joint",
        "wrist_1_joint",
        "wrist_2_joint",
        "wrist_3_joint"
    ],
    "metrics": {
        "cart_traj_len": 2.2021499394968305,
        "distance_elbow_joint": 3.72046777467674,
        "distance_shoulder_lift_joint": 0.7635621277831692,
        "distance_shoulder_pan_joint": 1.3101217020394311,
        "distance_wrist_1_joint": 0.8488443768228338,
        "distance_wrist_2_joint": 2.273806993655174,
        "distance_wrist_3_joint": 4.340653019521486,
        "smoothness": 0.28900551641001193,
        "time": 5.024765253,
        "traj_len": 3.6410789602120466,
        "weighted_distance": 5.006137573421232
    },
    "planner": "SPARS",
    "start": {
        "state": {
            "elbow_joint": 1.919643534880228,
            "shoulder_lift_joint": -1.8972525353963687,
            "shoulder_pan_joint": -1.1188672234189438,
            "wrist_1_joint": -1.5931878212786155,
            "wrist_2_joint": 1.5706036197970081,
            "wrist_3_joint": 1.118896926603594
        }
    },
    "waypoints": [
        {
            "positions": [
                -1.1188672234189438,
                -1.8972525353963687,
                1.919643534880228,
                -1.5931878212786155,
                1.5706036197970081,
                1.118896926603594
            ]
        },
        {
            "positions": [
                -1.1203688787079236,
                -1.8729695271498052,
                1.8396899049274344,
                -1.5564636954657722,
                1.4896507299793753,
                0.9580029886563327
            ]
        },
        {
            "positions": [
                -1.1218705339969035,
                -1.8486865189032415,
                1.759736274974641,
                -1.519739569652929,
                1.4086978401617425,
                0.7971090507090715
            ]
        },
        {
            "positions": [
                -1.1233721892858832,
                -1.824403510656678,
                1.6797826450218474,
                -1.4830154438400858,
                1.3277449503441094,
                0.6362151127618101
            ]
        },
        {
            "positions": [
                -1.124873844574863,
                -1.8001205024101143,
                1.5998290150690537,
                -1.4462913180272423,
                1.2467920605264766,
                0.47532117481454894
            ]
        },
        {
            "positions": [
                -1.1263754998638429,
                -1.7758374941635509,
                1.51987538511626,
                -1.409567192214399,
                1.1658391707088438,
                0.3144272368672877
            ]
        },
        {
            "positions": [
                -1.1278771551528226,
                -1.7515544859169871,
                1.4399217551634664,
                -1.3728430664015558,
                1.0848862808912108,
                0.15353329892002632
            ]
        },
        {
            "positions": [
                -1.1293788104418023,
                -1.7272714776704237,
                1.3599681252106728,
                -1.3361189405887126,
                1.003933391073578,
                -0.007360639027234939
            ]
        },
        {
            "positions": [
                -1.130880465730782,
                -1.70298846942386,
                1.2800144952578794,
                -1.2993948147758694,
                0.9229805012559451,
                -0.16825457697449608
            ]
        },
        {
            "positions": [
                -1.132382121019762,
                -1.6787054611772965,
                1.2000608653050857,
                -1.2626706889630261,
                0.8420276114383122,
                -0.32914851492175745
            ]
        },
        {
            "positions": [
                -1.1338837763087417,
                -1.6544224529307328,
                1.1201072353522923,
                -1.225946563150183,
                0.7610747216206794,
                -0.4900424528690186
            ]
        },
        {
            "positions": [
                -1.1353854315977214,
                -1.6301394446841693,
                1.0401536053994986,
                -1.1892224373373397,
                0.6801218318030464,
                -0.65093639081628
            ]
        },
        {
            "positions": [
                -1.1368870868867014,
                -1.6058564364376056,
                0.9601999754467049,
                -1.1524983115244964,
                0.5991689419854136,
                -0.8118303287635413
            ]
        },
        {
            "positions": [
                -1.138388742175681,
                -1.581573428191042,
                0.8802463454939113,
                -1.1157741857116532,
                0.5182160521677808,
                -0.9727242667108025
            ]
        },
        {
            "positions": [
                -1.1398903974646608,
                -1.5572904199444784,
                0.8002927155411177,
                -1.0790500598988098,
                0.4372631623501477,
                -1.1336182046580638
            ]
        },
        {
            "positions": [
                -1.1413920527536408,
                -1.5330074116979149,
                0.720339085588324,
                -1.0423259340859665,
                0.3563102725325149,
                -1.2945121426053252
            ]
        },
        {
            "positions": [
                -1.1428937080426205,
                -1.5087244034513514,
                0.6403854556355306,
                -1.0056018082731233,
                0.2753573827148821,
                -1.4554060805525861
            ]
        },
        {
            "positions": [
                -1.1443953633316002,
                -1.4844413952047877,
                0.560431825682737,
                -0.96887768246028,
                0.19440449289724926,
                -1.6163000184998475
            ]
        },
        {
            "positions": [
                -1.14589701862058,
                -1.460158386958224,
                0.4804781957299433,
                -0.9321535566474367,
                0.11345160307961621,
                -1.7771939564471089
            ]
        },
        {
            "positions": [
                -1.1473986739095599,
                -1.4358753787116605,
                0.4005245657771497,
                -0.8954294308345935,
                0.03249871326198339,
                -1.9380878943943702
            ]
        },
        {
            "positions": [
                -1.1489003291985396,
                -1.411592370465097,
                0.32057093582435625,
                -0.8587053050217502,
                -0.04845417655564943,
                -2.0989818323416314
            ]
        },
        {
            "positions": [
                -1.1504019844875193,
                -1.3873093622185333,
                0.2406173058715626,
                -0.821981179208907,
                -0.12940706637328225,
                -2.2598757702888923
            ]
        },
        {
            "positions": [
                -1.1519036397764992,
                -1.3630263539719696,
                0.16066367591876896,
                -0.7852570533960637,
                -0.2103599561909153,
                -2.420769708236154
            ]
        },
        {
            "positions": [
                -1.153405295065479,
                -1.338743345725406,
                0.08071004596597531,
                -0.7485329275832204,
                -0.291312846008548,
                -2.581663646183415
            ]
        },
        {
            "positions": [
                -1.0471066591994043,
                -1.3216556008827223,
                0.2375045697795159,
                -0.7481838039892672,
                -0.2569886353544132,
                -2.6350046834112884
            ]
        },
        {
            "positions": [
                -0.9408080233333296,
                -1.3045678560400384,
                0.3942990935930565,
                -0.747834680395314,
                -0.22266442470027842,
                -2.688345720639161
            ]
        },
        {
            "positions": [
                -0.8345093874672549,
                -1.2874801111973544,
                0.5510936174065971,
                -0.7474855568013608,
                -0.18834021404614362,
                -2.7416867578670345
            ]
        },
        {
            "positions": [
                -0.7282107516011803,
                -1.2703923663546706,
                0.7078881412201377,
                -0.7471364332074075,
                -0.15401600339200883,
                -2.795027795094908
            ]
        },
        {
            "positions": [
                -0.6219121157351056,
                -1.2533046215119867,
                0.8646826650336784,
                -0.7467873096134543,
                -0.11969179273787403,
                -2.8483688323227807
            ]
        },
        {
            "positions": [
                -0.5156134798690309,
                -1.2362168766693027,
                1.021477188847219,
                -0.7464381860195011,
                -0.08536758208373924,
                -2.901709869550654
            ]
        },
        {
            "positions": [
                -0.40931484400295626,
                -1.2191291318266189,
                1.1782717126607596,
                -0.7460890624255478,
                -0.05104337142960441,
                -2.9550509067785273
            ]
        },
        {
            "positions": [
                -0.3030162081368817,
                -1.202041386983935,
                1.3350662364743,
                -0.7457399388315946,
                -0.016719160775469644,
                -3.0083919440064
            ]
        },
        {
            "positions": [
                -0.196717572270807,
                -1.1849536421412512,
                1.4918607602878406,
                -0.7453908152376414,
                0.01760504987866518,
                -3.0617329812342735
            ]
        },
        {
            "positions": [
                -0.09041893640473231,
                -1.1678658972985674,
                1.6486552841013815,
                -0.7450416916436882,
                0.05192926053279995,
                -3.115074018462147
            ]
        },
        {
            "positions": [
                0.015879699461342378,
                -1.1507781524558833,
                1.805449807914922,
                -0.7446925680497349,
                0.08625347118693472,
                -3.1684150556900197
            ]
        },
        {
            "positions": [
                0.12217833532741706,
                -1.1336904076131995,
                1.9622443317284626,
                -0.7443434444557817,
                0.12057768184106951,
                -3.221756092917893
            ]
        }
    ]
}