{
    "goal": {
        "global_pose": {
            "orientation": {
                "w": 0.7047431468963623,
                "x": -0.7094548344612122,
                "y": 0.0024358443915843964,
                "z": -0.0022348060738295317
            },
            "position": {
                "x": 0.6094750761985779,
                "y": 0.3671506643295288,
                "z": 0.19426114857196808
            }
        },
        "name": "move_to_magneteinheit_A"
    },
    "id": "SPARS_move_to_magneteinheit_A_110",
    "joint_names": [
        "shoulder_pan_joint",
        "shoulder_lift_joint",
        "elbow_joint",
        "wrist_1_joint",
        "wrist_2_joint",
        "wrist_3_joint"
    ],
    "metrics": {
        "cart_traj_len": 3.7501145653845125,
        "distance_elbow_joint": 3.8724123458855852,
        "distance_shoulder_lift_joint": 0.9489183246498527,
        "distance_shoulder_pan_joint": 2.9366987875490334,
        "distance_wrist_1_joint": 1.1678592746549157,
        "distance_wrist_2_joint": 1.6977328519442803,
        "distance_wrist_3_joint": 2.574171810790889,
        "smoothness": 0.16428260966864933,
        "time": 5.036509277,
        "traj_len": 3.6328767382715528,
        "weighted_distance": 4.6056193007732995
    },
    "planner": "SPARS",
    "start": {
        "state": {
            "elbow_joint": -1.919618573717145,
            "shoulder_lift_joint": -1.2443395971678275,
            "shoulder_pan_joint": 2.6996025300909787,
            "wrist_1_joint": -1.548550951253194,
            "wrist_2_joint": -1.5709469090946802,
            "wrist_3_joint": 0.4420197732051276
        }
    },
    "waypoints": [
        {
            "positions": [
                2.6996025300909787,
                -1.2443395971678275,
                -1.919618573717145,
                -1.548550951253194,
                -1.5709469090946802,
                0.4420197732051276
            ]
        },
        {
            "positions": [
                2.567862670983271,
                -1.206311593831505,
                -1.812788859321749,
                -1.5600652423832195,
                -1.5460354046033145,
                0.49729088481760736
            ]
        },
        {
            "positions": [
                2.4361228118755633,
                -1.1682835904951825,
                -1.705959144926353,
                -1.5715795335132452,
                -1.521123900111949,
                0.5525619964300872
            ]
        },
        {
            "positions": [
                2.3043829527678557,
                -1.13025558715886,
                -1.599129430530957,
                -1.5830938246432706,
                -1.4962123956205833,
                0.607833108042567
            ]
        },
        {
            "positions": [
                2.172643093660148,
                -1.0922275838225375,
                -1.4922997161355607,
                -1.594608115773296,
                -1.4713008911292178,
                0.6631042196550467
            ]
        },
        {
            "positions": [
                2.04090323455244,
                -1.054199580486215,
                -1.3854700017401647,
                -1.6061224069033218,
                -1.446389386637852,
                0.7183753312675265
            ]
        },
        {
            "positions": [
                1.9091633754447321,
                -1.0161715771498925,
                -1.2786402873447686,
                -1.6176366980333472,
                -1.4214778821464866,
                0.7736464428800063
            ]
        },
        {
            "positions": [
                1.7774235163370244,
                -0.97814357381357,
                -1.1718105729493726,
                -1.6291509891633726,
                -1.396566377655121,
                0.828917554492486
            ]
        },
        {
            "positions": [
                1.6456836572293168,
                -0.9401155704772475,
                -1.0649808585539766,
                -1.6406652802933983,
                -1.3716548731637555,
                0.8841886661049658
            ]
        },
        {
            "positions": [
                1.5139437981216088,
                -0.902087567140925,
                -0.9581511441585805,
                -1.6521795714234238,
                -1.3467433686723898,
                0.9394597777174456
            ]
        },
        {
            "positions": [
                1.3822039390139012,
                -0.8640595638046025,
                -0.8513214297631844,
                -1.6636938625534494,
                -1.321831864181024,
                0.9947308893299254
            ]
        },
        {
            "positions": [
                1.2504640799061935,
                -0.82603156046828,
                -0.7444917153677886,
                -1.6752081536834749,
                -1.2969203596896586,
                1.0500020009424051
            ]
        },
        {
            "positions": [
                1.1187242207984858,
                -0.7880035571319575,
                -0.6376620009723926,
                -1.6867224448135003,
                -1.2720088551982929,
                1.105273112554885
            ]
        },
        {
            "positions": [
                0.9869843616907779,
                -0.749975553795635,
                -0.5308322865769963,
                -1.698236735943526,
                -1.2470973507069272,
                1.1605442241673647
            ]
        },
        {
            "positions": [
                0.85524450258307,
                -0.7119475504593125,
                -0.4240025721816003,
                -1.7097510270735514,
                -1.2221858462155617,
                1.2158153357798445
            ]
        },
        {
            "positions": [
                0.8015820275886674,
                -0.7243246923522587,
                -0.3013487922044237,
                -1.666922033299032,
                -1.1583115937731057,
                1.3046020982706004
            ]
        },
        {
            "positions": [
                0.7479195525942646,
                -0.7367018342452049,
                -0.17869501222724704,
                -1.6240930395245128,
                -1.0944373413306494,
                1.3933888607613563
            ]
        },
        {
            "positions": [
                0.6942570775998619,
                -0.7490789761381511,
                -0.05604123225007035,
                -1.5812640457499934,
                -1.0305630888881934,
                1.4821756232521124
            ]
        },
        {
            "positions": [
                0.6405946026054592,
                -0.7614561180310973,
                0.06661254772710623,
                -1.538435051975474,
                -0.9666888364457373,
                1.5709623857428683
            ]
        },
        {
            "positions": [
                0.5869321276110564,
                -0.7738332599240435,
                0.18926632770428287,
                -1.4956060582009545,
                -0.9028145840032812,
                1.6597491482336242
            ]
        },
        {
            "positions": [
                0.5332696526166538,
                -0.7862104018169898,
                0.3119201076814596,
                -1.452777064426435,
                -0.838940331560825,
                1.74853591072438
            ]
        },
        {
            "positions": [
                0.4796071776222511,
                -0.7985875437099359,
                0.43457388765863614,
                -1.4099480706519159,
                -0.775066079118369,
                1.837322673215136
            ]
        },
        {
            "positions": [
                0.42594470262784834,
                -0.8109646856028822,
                0.5572276676358128,
                -1.3671190768773964,
                -0.7111918266759129,
                1.926109435705892
            ]
        },
        {
            "positions": [
                0.37228222763344565,
                -0.8233418274958283,
                0.6798814476129895,
                -1.324290083102877,
                -0.6473175742334568,
                2.014896198196648
            ]
        },
        {
            "positions": [
                0.31861975263904285,
                -0.8357189693887745,
                0.802535227590166,
                -1.2814610893283576,
                -0.5834433217910007,
                2.103682960687404
            ]
        },
        {
            "positions": [
                0.26495727764464017,
                -0.8480961112817207,
                0.9251890075673428,
                -1.2386320955538381,
                -0.5195690693485445,
                2.19246972317816
            ]
        },
        {
            "positions": [
                0.21129480265023748,
                -0.8604732531746669,
                1.0478427875445195,
                -1.195803101779319,
                -0.4556948169060884,
                2.2812564856689157
            ]
        },
        {
            "positions": [
                0.1576323276558348,
                -0.8728503950676132,
                1.1704965675216958,
                -1.1529741080047995,
                -0.39182056446363245,
                2.3700432481596714
            ]
        },
        {
            "positions": [
                0.1039698526614321,
                -0.8852275369605593,
                1.2931503474988726,
                -1.11014511423028,
                -0.3279463120211763,
                2.4588300106504275
            ]
        },
        {
            "positions": [
                0.05030737766702942,
                -0.8976046788535056,
                1.4158041274760493,
                -1.0673161204557609,
                -0.26407205957872015,
                2.5476167731411836
            ]
        },
        {
            "positions": [
                -0.0033550973273733797,
                -0.9099818207464518,
                1.5384579074532259,
                -1.0244871266812414,
                -0.200197807136264,
                2.6364035356319393
            ]
        },
        {
            "positions": [
                -0.05701757232177607,
                -0.922358962639398,
                1.6611116874304024,
                -0.981658132906722,
                -0.13632355469380794,
                2.7251902981226954
            ]
        },
        {
            "positions": [
                -0.01199790103770594,
                -0.9738876790797111,
                1.7340322086149116,
                -0.9120165567397898,
                -0.07054618030795581,
                2.7979406195910257
            ]
        },
        {
            "positions": [
                0.033021770246364185,
                -1.0254163955200242,
                1.806952729799421,
                -0.8423749805728576,
                -0.004768805922103686,
                2.870690941059356
            ]
        },
        {
            "positions": [
                0.0780414415304343,
                -1.076945111960337,
                1.8798732509839304,
                -0.7727334044059255,
                0.06100856846374844,
                2.9434412625276862
            ]
        },
        {
            "positions": [
                0.12306111281450445,
                -1.1284738284006501,
                1.9527937721684396,
                -0.7030918282389933,
                0.1267859428496006,
                3.0161915839960165
            ]
        }
    ]
}{
    "goal": {
        "global_pose": {
            "orientation": {
                "w": 0.7047431468963623,
                "x": -0.7094548344612122,
                "y": 0.0024358443915843964,
                "z": -0.0022348060738295317
            },
            "position": {
                "x": 0.6094750761985779,
                "y": 0.3671506643295288,
                "z": 0.19426114857196808
            }
        },
        "name": "move_to_magneteinheit_A"
    },
    "id": "SPARS_move_to_magneteinheit_A_110",
    "joint_names": [
        "shoulder_pan_joint",
        "shoulder_lift_joint",
        "elbow_joint",
        "wrist_1_joint",
        "wrist_2_joint",
        "wrist_3_joint"
    ],
    "metrics": {
        "cart_traj_len": 1.6962531467773077,
        "distance_elbow_joint": 0.5611894677601315,
        "distance_shoulder_lift_joint": 0.7512190576507622,
        "distance_shoulder_pan_joint": 1.982989645582595,
        "distance_wrist_1_joint": 0.7660631745946336,
        "distance_wrist_2_joint": 1.4369299941297626,
        "distance_wrist_3_joint": 4.263214635669536,
        "smoothness": 0.3126753753451093,
        "time": 5.028783145,
        "traj_len": 3.1243568898874887,
        "weighted_distance": 4.526701714874847
    },
    "planner": "SPARS",
    "start": {
        "state": {
            "elbow_joint": 1.919643534880228,
            "shoulder_lift_joint": -1.8972525353963687,
            "shoulder_pan_joint": -1.1188672234189438,
            "wrist_1_joint": -1.5931878212786155,
            "wrist_2_joint": 1.5706036197970081,
            "wrist_3_joint": 1.118896926603594
        }
    },
    "waypoints": [
        {
            "positions": [
                -1.1188672234189438,
                -1.8972525353963687,
                1.919643534880228,
                -1.5931878212786155,
                1.5706036197970081,
                1.118896926603594
            ]
        },
        {
            "positions": [
                -1.192869809431492,
                -1.8937977990177963,
                1.8697688104041026,
                -1.483151805655821,
                1.5469526027408613,
                1.0569401963787848
            ]
        },
        {
            "positions": [
                -1.2668723954440404,
                -1.890343062639224,
                1.819894085927977,
                -1.3731157900330266,
                1.5233015856847147,
                0.9949834661539757
            ]
        },
        {
            "positions": [
                -1.3408749814565886,
                -1.8868883262606517,
                1.7700193614518516,
                -1.2630797744102324,
                1.499650568628568,
                0.9330267359291666
            ]
        },
        {
            "positions": [
                -1.414877567469137,
                -1.8834335898820793,
                1.720144636975726,
                -1.153043758787438,
                1.4759995515724214,
                0.8710700057043574
            ]
        },
        {
            "positions": [
                -1.4888801534816851,
                -1.879978853503507,
                1.6702699124996006,
                -1.0430077431646436,
                1.4523485345162745,
                0.8091132754795484
            ]
        },
        {
            "positions": [
                -1.4120717384569301,
                -1.8450290737055117,
                1.6851182860891007,
                -1.0327275957131836,
                1.3895544912377493,
                0.6208546571678584
            ]
        },
        {
            "positions": [
                -1.3352633234321754,
                -1.8100792939075163,
                1.699966659678601,
                -1.0224474482617234,
                1.326760447959224,
                0.4325960388561683
            ]
        },
        {
            "positions": [
                -1.2584549084074204,
                -1.7751295141095211,
                1.7148150332681011,
                -1.0121673008102634,
                1.263966404680699,
                0.24433742054447838
            ]
        },
        {
            "positions": [
                -1.1816464933826654,
                -1.740179734311526,
                1.7296634068576013,
                -1.0018871533588034,
                1.2011723614021739,
                0.05607880223278827
            ]
        },
        {
            "positions": [
                -1.1048380783579104,
                -1.7052299545135305,
                1.7445117804471015,
                -0.9916070059073432,
                1.1383783181236486,
                -0.13217981607890172
            ]
        },
        {
            "positions": [
                -1.0280296633331556,
                -1.6702801747155354,
                1.7593601540366017,
                -0.9813268584558831,
                1.0755842748451234,
                -0.3204384343905916
            ]
        },
        {
            "positions": [
                -0.9512212483084006,
                -1.6353303949175402,
                1.774208527626102,
                -0.9710467110044231,
                1.0127902315665982,
                -0.5086970527022817
            ]
        },
        {
            "positions": [
                -0.8744128332836457,
                -1.600380615119545,
                1.7890569012156021,
                -0.960766563552963,
                0.9499961882880731,
                -0.6969556710139718
            ]
        },
        {
            "positions": [
                -0.7976044182588907,
                -1.5654308353215496,
                1.803905274805102,
                -0.9504864161015029,
                0.8872021450095479,
                -0.8852142893256617
            ]
        },
        {
            "positions": [
                -0.7207960032341358,
                -1.5304810555235544,
                1.8187536483946025,
                -0.9402062686500428,
                0.8244081017310226,
                -1.0734729076373517
            ]
        },
        {
            "positions": [
                -0.6439875882093808,
                -1.495531275725559,
                1.8336020219841025,
                -0.9299261211985828,
                0.7616140584524974,
                -1.2617315259490418
            ]
        },
        {
            "positions": [
                -0.567179173184626,
                -1.4605814959275638,
                1.8484503955736027,
                -0.9196459737471226,
                0.6988200151739723,
                -1.4499901442607315
            ]
        },
        {
            "positions": [
                -0.49037075815987097,
                -1.4256317161295686,
                1.8632987691631029,
                -0.9093658262956625,
                0.636025971895447,
                -1.638248762572422
            ]
        },
        {
            "positions": [
                -0.4135623431351161,
                -1.3906819363315734,
                1.878147142752603,
                -0.8990856788442025,
                0.5732319286169218,
                -1.8265073808841117
            ]
        },
        {
            "positions": [
                -0.3367539281103611,
                -1.355732156533578,
                1.8929955163421033,
                -0.8888055313927423,
                0.5104378853383966,
                -2.014765999195802
            ]
        },
        {
            "positions": [
                -0.2599455130856063,
                -1.3207823767355829,
                1.9078438899316035,
                -0.8785253839412823,
                0.4476438420598716,
                -2.203024617507492
            ]
        },
        {
            "positions": [
                -0.18313709806085132,
                -1.2858325969375874,
                1.9226922635211037,
                -0.8682452364898222,
                0.3848497987813462,
                -2.391283235819182
            ]
        },
        {
            "positions": [
                -0.10632868303609633,
                -1.2508828171395923,
                1.9375406371106039,
                -0.8579650890383621,
                0.3220557555028212,
                -2.5795418541308717
            ]
        },
        {
            "positions": [
                -0.029520268011341333,
                -1.215933037341597,
                1.952389010700104,
                -0.8476849415869021,
                0.25926171222429595,
                -2.7678004724425618
            ]
        },
        {
            "positions": [
                0.04728814701341344,
                -1.180983257543602,
                1.9672373842896043,
                -0.837404794135442,
                0.19646766894577072,
                -2.956059090754252
            ]
        },
        {
            "positions": [
                0.12409656203816843,
                -1.1460334777456065,
                1.9820857578791045,
                -0.8271246466839819,
                0.13367362566724542,
                -3.144317709065942
            ]
        }
    ]
}