{
    "goal": {
        "global_pose": {
            "orientation": {
                "w": 0.7047431468963623,
                "x": -0.7094548344612122,
                "y": 0.0024358443915843964,
                "z": -0.0022348060738295317
            },
            "position": {
                "x": 0.6094750761985779,
                "y": 0.3671506643295288,
                "z": 0.19426114857196808
            }
        },
        "name": "move_to_magneteinheit_A"
    },
    "id": "SPARStwo_move_to_magneteinheit_A_136",
    "joint_names": [
        "shoulder_pan_joint",
        "shoulder_lift_joint",
        "elbow_joint",
        "wrist_1_joint",
        "wrist_2_joint",
        "wrist_3_joint"
    ],
    "metrics": {
        "cart_traj_len": 2.692673014484866,
        "distance_elbow_joint": 4.13762731659864,
        "distance_shoulder_lift_joint": 0.7566698808539494,
        "distance_shoulder_pan_joint": 1.6460398116586705,
        "distance_wrist_1_joint": 0.7936941509246629,
        "distance_wrist_2_joint": 1.663774022987484,
        "distance_wrist_3_joint": 4.288331140185539,
        "smoothness": 0.27170448550413223,
        "time": 5.059158232000001,
        "traj_len": 3.6450152706413923,
        "weighted_distance": 4.931558250440946
    },
    "planner": "SPARStwo",
    "start": {
        "state": {
            "elbow_joint": 1.919643534880228,
            "shoulder_lift_joint": -1.8972525353963687,
            "shoulder_pan_joint": -1.1188672234189438,
            "wrist_1_joint": -1.5931878212786155,
            "wrist_2_joint": 1.5706036197970081,
            "wrist_3_joint": 1.118896926603594
        }
    },
    "waypoints": [
        {
            "positions": [
                -1.1188672234189438,
                -1.8972525353963687,
                1.919643534880228,
                -1.5931878212786155,
                1.5706036197970081,
                1.118896926603594
            ]
        },
        {
            "positions": [
                -1.128040377852638,
                -1.874336170498949,
                1.8268685326661687,
                -1.584691112614976,
                1.499920740249286,
                0.9440731362021182
            ]
        },
        {
            "positions": [
                -1.137213532286332,
                -1.8514198056015294,
                1.7340935304521092,
                -1.5761944039513365,
                1.429237860701564,
                0.7692493458006424
            ]
        },
        {
            "positions": [
                -1.146386686720026,
                -1.8285034407041096,
                1.6413185282380498,
                -1.567697695287697,
                1.3585549811538418,
                0.5944255553991667
            ]
        },
        {
            "positions": [
                -1.1555598411537202,
                -1.8055870758066899,
                1.5485435260239904,
                -1.5592009866240575,
                1.2878721016061196,
                0.419601764997691
            ]
        },
        {
            "positions": [
                -1.1647329955874144,
                -1.7826707109092703,
                1.455768523809931,
                -1.550704277960418,
                1.2171892220583973,
                0.2447779745962153
            ]
        },
        {
            "positions": [
                -1.1739061500211083,
                -1.7597543460118505,
                1.3629935215958715,
                -1.5422075692967787,
                1.1465063425106752,
                0.06995418419473953
            ]
        },
        {
            "positions": [
                -1.1830793044548025,
                -1.7368379811144308,
                1.270218519381812,
                -1.533710860633139,
                1.075823462962953,
                -0.10486960620673624
            ]
        },
        {
            "positions": [
                -1.1922524588884966,
                -1.7139216162170112,
                1.1774435171677526,
                -1.5252141519694997,
                1.005140583415231,
                -0.279693396608212
            ]
        },
        {
            "positions": [
                -1.2014256133221908,
                -1.6910052513195915,
                1.0846685149536932,
                -1.5167174433058601,
                0.9344577038675087,
                -0.4545171870096878
            ]
        },
        {
            "positions": [
                -1.2105987677558847,
                -1.6680888864221717,
                0.9918935127396338,
                -1.5082207346422207,
                0.8637748243197866,
                -0.6293409774111633
            ]
        },
        {
            "positions": [
                -1.2197719221895789,
                -1.645172521524752,
                0.8991185105255743,
                -1.4997240259785811,
                0.7930919447720645,
                -0.8041647678126391
            ]
        },
        {
            "positions": [
                -1.228945076623273,
                -1.6222561566273324,
                0.8063435083115149,
                -1.4912273173149417,
                0.7224090652243423,
                -0.9789885582141149
            ]
        },
        {
            "positions": [
                -1.238118231056967,
                -1.5993397917299126,
                0.7135685060974555,
                -1.4827306086513024,
                0.6517261856766201,
                -1.1538123486155907
            ]
        },
        {
            "positions": [
                -1.247291385490661,
                -1.576423426832493,
                0.620793503883396,
                -1.4742338999876627,
                0.581043306128898,
                -1.3286361390170665
            ]
        },
        {
            "positions": [
                -1.2564645399243553,
                -1.5535070619350733,
                0.5280185016693366,
                -1.4657371913240234,
                0.5103604265811759,
                -1.5034599294185418
            ]
        },
        {
            "positions": [
                -1.2656376943580494,
                -1.5305906970376535,
                0.4352434994552772,
                -1.4572404826603838,
                0.43967754703345374,
                -1.678283719820018
            ]
        },
        {
            "positions": [
                -1.2748108487917433,
                -1.5076743321402337,
                0.34246849724121775,
                -1.4487437739967444,
                0.3689946674857316,
                -1.8531075102214933
            ]
        },
        {
            "positions": [
                -1.2839840032254375,
                -1.484757967242814,
                0.24969349502715832,
                -1.440247065333105,
                0.2983117879380093,
                -2.02793130062297
            ]
        },
        {
            "positions": [
                -1.2931571576591316,
                -1.4618416023453944,
                0.1569184928130989,
                -1.4317503566694654,
                0.22762890839028715,
                -2.2027550910244447
            ]
        },
        {
            "positions": [
                -1.3023303120928258,
                -1.4389252374479748,
                0.06414349059903945,
                -1.423253648005826,
                0.15694602884256503,
                -2.3775788814259204
            ]
        },
        {
            "positions": [
                -1.3115034665265197,
                -1.416008872550555,
                -0.028631511615019978,
                -1.4147569393421864,
                0.08626314929484291,
                -2.552402671827396
            ]
        },
        {
            "positions": [
                -1.3206766209602139,
                -1.3930925076531353,
                -0.12140651382907941,
                -1.406260230678547,
                0.015580269747120835,
                -2.7272264622288724
            ]
        },
        {
            "positions": [
                -1.2095819737204139,
                -1.3736686727984648,
                0.03986866062394609,
                -1.3595858798843474,
                0.02394570612693591,
                -2.7612424431021854
            ]
        },
        {
            "positions": [
                -1.0984873264806139,
                -1.3542448379437944,
                0.2011438350769716,
                -1.3129115290901479,
                0.03231114250675099,
                -2.7952584239754987
            ]
        },
        {
            "positions": [
                -0.9873926792408138,
                -1.3348210030891239,
                0.3624190095299971,
                -1.2662371782959483,
                0.04067657888656606,
                -2.8292744048488117
            ]
        },
        {
            "positions": [
                -0.8762980320010136,
                -1.3153971682344534,
                0.5236941839830226,
                -1.2195628275017487,
                0.049042015266381134,
                -2.863290385722125
            ]
        },
        {
            "positions": [
                -0.7652033847612136,
                -1.295973333379783,
                0.6849693584360481,
                -1.1728884767075491,
                0.05740745164619622,
                -2.897306366595438
            ]
        },
        {
            "positions": [
                -0.6541087375214136,
                -1.2765494985251125,
                0.8462445328890736,
                -1.1262141259133496,
                0.06577288802601129,
                -2.931322347468751
            ]
        },
        {
            "positions": [
                -0.5430140902816136,
                -1.2571256636704422,
                1.007519707342099,
                -1.07953977511915,
                0.07413832440582636,
                -2.9653383283420642
            ]
        },
        {
            "positions": [
                -0.4319194430418135,
                -1.2377018288157717,
                1.1687948817951246,
                -1.0328654243249504,
                0.08250376078564144,
                -2.999354309215377
            ]
        },
        {
            "positions": [
                -0.3208247958020135,
                -1.2182779939611013,
                1.33007005624815,
                -0.9861910735307509,
                0.09086919716545651,
                -3.0333702900886905
            ]
        },
        {
            "positions": [
                -0.2097301485622134,
                -1.1988541591064308,
                1.4913452307011756,
                -0.9395167227365513,
                0.0992346335452716,
                -3.0673862709620034
            ]
        },
        {
            "positions": [
                -0.09863550132241339,
                -1.1794303242517603,
                1.652620405154201,
                -0.8928423719423517,
                0.10760006992508665,
                -3.1014022518353164
            ]
        },
        {
            "positions": [
                0.012459145917386616,
                -1.1600064893970898,
                1.8138955796072267,
                -0.8461680211481521,
                0.11596550630490174,
                -3.1354182327086297
            ]
        },
        {
            "positions": [
                0.12355379315718669,
                -1.1405826545424194,
                1.975170754060252,
                -0.7994936703539526,
                0.12433094268471681,
                -3.1694342135819427
            ]
        }
    ]
}