{
    "goal": {
        "global_pose": {
            "orientation": {
                "w": 0.5084816217422485,
                "x": -0.49083608388900757,
                "y": 0.5182115435600281,
                "z": -0.4816462993621826
            },
            "position": {
                "x": 0.5540239810943604,
                "y": 0.030875300988554955,
                "z": 0.16403168439865112
            }
        },
        "name": "move_to_storage_A"
    },
    "id": "SPARS_move_to_storage_A_90",
    "joint_names": [
        "shoulder_pan_joint",
        "shoulder_lift_joint",
        "elbow_joint",
        "wrist_1_joint",
        "wrist_2_joint",
        "wrist_3_joint"
    ],
    "metrics": {
        "cart_traj_len": 0.3529934238071627,
        "distance_elbow_joint": 0.44933545689802346,
        "distance_shoulder_lift_joint": 0.2362611783200752,
        "distance_shoulder_pan_joint": 0.45842000084991574,
        "distance_wrist_1_joint": 0.24080547532873442,
        "distance_wrist_2_joint": 1.112837245348981,
        "distance_wrist_3_joint": 0.09732158651849554,
        "smoothness": 1.5543122362334363e-15,
        "time": 5.0156505639999995,
        "traj_len": 1.6108944544147592,
        "weighted_distance": 2.0355016180241496
    },
    "planner": "SPARS",
    "start": {
        "state": {
            "elbow_joint": 1.9715477243005601,
            "shoulder_lift_joint": -1.1394853015351272,
            "shoulder_pan_joint": 0.12281154014795169,
            "wrist_1_joint": -0.7804696478968182,
            "wrist_2_joint": 0.12958648046900423,
            "wrist_3_joint": -3.192491284697111
        }
    },
    "waypoints": [
        {
            "positions": [
                0.12281154014795169,
                -1.1394853015351272,
                1.9715477243005601,
                -0.7804696478968182,
                0.12958648046900423,
                -3.192491284697111
            ]
        },
        {
            "positions": [
                0.057322968597963736,
                -1.173236898437995,
                2.0357385038574205,
                -0.8148704300866374,
                0.28856322980457294,
                -3.1785882009087545
            ]
        },
        {
            "positions": [
                -0.008165602952024217,
                -1.206988495340863,
                2.0999292834142813,
                -0.8492712122764565,
                0.44753997914014165,
                -3.1646851171203982
            ]
        },
        {
            "positions": [
                -0.07365417450201218,
                -1.2407400922437308,
                2.1641200629711417,
                -0.8836719944662758,
                0.6065167284757104,
                -3.1507820333320415
            ]
        },
        {
            "positions": [
                -0.1391427460520001,
                -1.2744916891465987,
                2.228310842528002,
                -0.918072776656095,
                0.7654934778112791,
                -3.1368789495436853
            ]
        },
        {
            "positions": [
                -0.2046313176019881,
                -1.3082432860494666,
                2.2925016220848624,
                -0.9524735588459141,
                0.9244702271468478,
                -3.1229758657553286
            ]
        },
        {
            "positions": [
                -0.27011988915197604,
                -1.3419948829523345,
                2.3566924016417232,
                -0.9868743410357333,
                1.0834469764824166,
                -3.1090727819669723
            ]
        },
        {
            "positions": [
                -0.33560846070196404,
                -1.3757464798552024,
                2.4208831811985836,
                -1.0212751232255526,
                1.2424237258179853,
                -3.0951696981786156
            ]
        }
    ]
}