{
    "goal": {
        "global_pose": {
            "orientation": {
                "w": 0.5084816217422485,
                "x": -0.49083608388900757,
                "y": 0.5182115435600281,
                "z": -0.4816462993621826
            },
            "position": {
                "x": 0.5540239810943604,
                "y": 0.030875300988554955,
                "z": 0.16403168439865112
            }
        },
        "name": "move_to_storage_A"
    },
    "id": "SPARStwo_move_to_storage_A_62",
    "joint_names": [
        "shoulder_pan_joint",
        "shoulder_lift_joint",
        "elbow_joint",
        "wrist_1_joint",
        "wrist_2_joint",
        "wrist_3_joint"
    ],
    "metrics": {
        "cart_traj_len": 0.3527883090106607,
        "distance_elbow_joint": 0.450848697575033,
        "distance_shoulder_lift_joint": 0.23477787568504138,
        "distance_shoulder_pan_joint": 0.46287354633190875,
        "distance_wrist_1_joint": 0.24173865452655197,
        "distance_wrist_2_joint": 1.0922573186379303,
        "distance_wrist_3_joint": 0.10047618188503282,
        "smoothness": 4.440892098500626e-16,
        "time": 5.000934126000001,
        "traj_len": 1.6071628027805702,
        "weighted_distance": 2.0292660277982395
    },
    "planner": "SPARStwo",
    "start": {
        "state": {
            "elbow_joint": 1.9715477243005601,
            "shoulder_lift_joint": -1.1394853015351272,
            "shoulder_pan_joint": 0.12281154014795169,
            "wrist_1_joint": -0.7804696478968182,
            "wrist_2_joint": 0.12958648046900423,
            "wrist_3_joint": -3.192491284697111
        }
    },
    "waypoints": [
        {
            "positions": [
                0.12281154014795169,
                -1.1394853015351272,
                1.9715477243005601,
                -0.7804696478968182,
                0.12958648046900423,
                -3.192491284697111
            ]
        },
        {
            "positions": [
                0.05668674781482187,
                -1.1730249980615617,
                2.0359546810969933,
                -0.8150037414006113,
                0.2856232402744229,
                -3.1781375444278206
            ]
        },
        {
            "positions": [
                -0.009438044518307945,
                -1.2065646945879962,
                2.100361637893427,
                -0.8495378349044045,
                0.44166000007984146,
                -3.1637838041585304
            ]
        },
        {
            "positions": [
                -0.07556283685143776,
                -1.2401043911144307,
                2.16476859468986,
                -0.8840719284081976,
                0.59769675988526,
                -3.14943006388924
            ]
        },
        {
            "positions": [
                -0.14168762918456757,
                -1.273644087640865,
                2.229175551486293,
                -0.9186060219119907,
                0.7537335196906787,
                -3.1350763236199497
            ]
        },
        {
            "positions": [
                -0.2078124215176974,
                -1.3071837841672995,
                2.293582508282727,
                -0.9531401154157839,
                0.9097702794960973,
                -3.120722583350659
            ]
        },
        {
            "positions": [
                -0.2739372138508272,
                -1.340723480693734,
                2.35798946507916,
                -0.9876742089195769,
                1.0658070393015158,
                -3.106368843081369
            ]
        },
        {
            "positions": [
                -0.34006200618395704,
                -1.3742631772201686,
                2.422396421875593,
                -1.0222083024233701,
                1.2218437991069344,
                -3.0920151028120784
            ]
        }
    ]
}