{
    "goal": {
        "global_pose": {
            "orientation": {
                "w": 0.5084816217422485,
                "x": -0.49083608388900757,
                "y": 0.5182115435600281,
                "z": -0.4816462993621826
            },
            "position": {
                "x": 0.5540239810943604,
                "y": 0.030875300988554955,
                "z": 0.16403168439865112
            }
        },
        "name": "move_to_storage_A"
    },
    "id": "SPARS_move_to_storage_A_128",
    "joint_names": [
        "shoulder_pan_joint",
        "shoulder_lift_joint",
        "elbow_joint",
        "wrist_1_joint",
        "wrist_2_joint",
        "wrist_3_joint"
    ],
    "metrics": {
        "cart_traj_len": 0.353246879974822,
        "distance_elbow_joint": 0.4500566787336582,
        "distance_shoulder_lift_joint": 0.23520179741736125,
        "distance_shoulder_pan_joint": 0.464097540641528,
        "distance_wrist_1_joint": 0.23623445509240282,
        "distance_wrist_2_joint": 1.0907059302396376,
        "distance_wrist_3_joint": 0.09801493460838051,
        "smoothness": 2.2204460668324854e-16,
        "time": 5.012730921,
        "traj_len": 1.6044660597011604,
        "weighted_distance": 2.0241742986417375
    },
    "planner": "SPARS",
    "start": {
        "state": {
            "elbow_joint": 1.9715477243005601,
            "shoulder_lift_joint": -1.1394853015351272,
            "shoulder_pan_joint": 0.12281154014795169,
            "wrist_1_joint": -0.7804696478968182,
            "wrist_2_joint": 0.12958648046900423,
            "wrist_3_joint": -3.192491284697111
        }
    },
    "waypoints": [
        {
            "positions": [
                0.12281154014795169,
                -1.1394853015351272,
                1.9715477243005601,
                -0.7804696478968182,
                0.12958648046900423,
                -3.192491284697111
            ]
        },
        {
            "positions": [
                0.05651189148487627,
                -1.1730855583090358,
                2.0358415355482258,
                -0.8142174271957329,
                0.28540161336038106,
                -3.1784891511816284
            ]
        },
        {
            "positions": [
                -0.009787757178199144,
                -1.2066858150829447,
                2.100135346795891,
                -0.8479652064946476,
                0.44121674625175783,
                -3.1644870176661453
            ]
        },
        {
            "positions": [
                -0.07608740584127456,
                -1.2402860718568534,
                2.1644291580435566,
                -0.8817129857935622,
                0.5970318791431346,
                -3.1504848841506625
            ]
        },
        {
            "positions": [
                -0.14238705450434996,
                -1.2738863286307622,
                2.228722969291222,
                -0.9154607650924769,
                0.7528470120345114,
                -3.1364827506351793
            ]
        },
        {
            "positions": [
                -0.20868670316742544,
                -1.3074865854046709,
                2.2930167805388875,
                -0.9492085443913916,
                0.9086621449258883,
                -3.1224806171196966
            ]
        },
        {
            "positions": [
                -0.2749863518305008,
                -1.3410868421785795,
                2.3573105917865527,
                -0.9829563236903063,
                1.0644772778172649,
                -3.1084784836042134
            ]
        },
        {
            "positions": [
                -0.34128600049357627,
                -1.3746870989524884,
                2.4216044030342183,
                -1.016704102989221,
                1.2202924107086417,
                -3.0944763500887307
            ]
        }
    ]
}