{
    "goal": {
        "global_pose": {
            "orientation": {
                "w": 0.5084816217422485,
                "x": -0.49083608388900757,
                "y": 0.5182115435600281,
                "z": -0.4816462993621826
            },
            "position": {
                "x": 0.5540239810943604,
                "y": 0.030875300988554955,
                "z": 0.16403168439865112
            }
        },
        "name": "move_to_storage_A"
    },
    "id": "SPARS_move_to_storage_A_48",
    "joint_names": [
        "shoulder_pan_joint",
        "shoulder_lift_joint",
        "elbow_joint",
        "wrist_1_joint",
        "wrist_2_joint",
        "wrist_3_joint"
    ],
    "metrics": {
        "cart_traj_len": 0.3527470054190743,
        "distance_elbow_joint": 0.44893128431378404,
        "distance_shoulder_lift_joint": 0.2370980906825475,
        "distance_shoulder_pan_joint": 0.4624763064672451,
        "distance_wrist_1_joint": 0.23370963937689193,
        "distance_wrist_2_joint": 1.0942526335523972,
        "distance_wrist_3_joint": 0.10131551335061673,
        "smoothness": 4.440892098500626e-16,
        "time": 5.01578708,
        "traj_len": 1.605547715810241,
        "weighted_distance": 2.026913112931584
    },
    "planner": "SPARS",
    "start": {
        "state": {
            "elbow_joint": 1.9715477243005601,
            "shoulder_lift_joint": -1.1394853015351272,
            "shoulder_pan_joint": 0.12281154014795169,
            "wrist_1_joint": -0.7804696478968182,
            "wrist_2_joint": 0.12958648046900423,
            "wrist_3_joint": -3.192491284697111
        }
    },
    "waypoints": [
        {
            "positions": [
                0.12281154014795169,
                -1.1394853015351272,
                1.9715477243005601,
                -0.7804696478968182,
                0.12958648046900423,
                -3.192491284697111
            ]
        },
        {
            "positions": [
                0.05674349636691668,
                -1.1733564573469197,
                2.035680764916815,
                -0.8138567392363741,
                0.2859082852622038,
                -3.1780176399327376
            ]
        },
        {
            "positions": [
                -0.009324547414118325,
                -1.207227613158712,
                2.0998138055330697,
                -0.8472438305759301,
                0.4422300900554034,
                -3.1635439951683635
            ]
        },
        {
            "positions": [
                -0.07539259119515333,
                -1.2410987689705046,
                2.1639468461493245,
                -0.8806309219154861,
                0.598551894848603,
                -3.14907035040399
            ]
        },
        {
            "positions": [
                -0.14146063497618833,
                -1.2749699247822972,
                2.2280798867655793,
                -0.9140180132550422,
                0.7548736996418026,
                -3.134596705639616
            ]
        },
        {
            "positions": [
                -0.20752867875722336,
                -1.3088410805940898,
                2.2922129273818346,
                -0.9474051045945981,
                0.9111955044350023,
                -3.120123060875242
            ]
        },
        {
            "positions": [
                -0.27359672253825834,
                -1.342712236405882,
                2.3563459679980894,
                -0.9807921959341541,
                1.0675173092282018,
                -3.105649416110868
            ]
        },
        {
            "positions": [
                -0.3396647663192934,
                -1.3765833922176747,
                2.420479008614344,
                -1.01417928727371,
                1.2238391140214013,
                -3.0911757713464945
            ]
        }
    ]
}