{
    "goal": {
        "global_pose": {
            "orientation": {
                "w": 0.5084816217422485,
                "x": -0.49083608388900757,
                "y": 0.5182115435600281,
                "z": -0.4816462993621826
            },
            "position": {
                "x": 0.5540239810943604,
                "y": 0.030875300988554955,
                "z": 0.16403168439865112
            }
        },
        "name": "move_to_storage_A"
    },
    "id": "SPARS_move_to_storage_A_39",
    "joint_names": [
        "shoulder_pan_joint",
        "shoulder_lift_joint",
        "elbow_joint",
        "wrist_1_joint",
        "wrist_2_joint",
        "wrist_3_joint"
    ],
    "metrics": {
        "cart_traj_len": 0.3535321689015156,
        "distance_elbow_joint": 0.4510254703372891,
        "distance_shoulder_lift_joint": 0.23563936347248027,
        "distance_shoulder_pan_joint": 0.46382590116080386,
        "distance_wrist_1_joint": 0.24429200693362396,
        "distance_wrist_2_joint": 1.0938798474973552,
        "distance_wrist_3_joint": 0.10598034226238706,
        "smoothness": 7.771561204992932e-16,
        "time": 5.100692798,
        "traj_len": 1.6107895367377885,
        "weighted_distance": 2.0358721646065336
    },
    "planner": "SPARS",
    "start": {
        "state": {
            "elbow_joint": 1.9715477243005601,
            "shoulder_lift_joint": -1.1394853015351272,
            "shoulder_pan_joint": 0.12281154014795169,
            "wrist_1_joint": -0.7804696478968182,
            "wrist_2_joint": 0.12958648046900423,
            "wrist_3_joint": -3.192491284697111
        }
    },
    "waypoints": [
        {
            "positions": [
                0.12281154014795169,
                -1.1394853015351272,
                1.9715477243005601,
                -0.7804696478968182,
                0.12958648046900423,
                -3.192491284697111
            ]
        },
        {
            "positions": [
                0.05655069712497972,
                -1.1731480677454815,
                2.0359799343487444,
                -0.8153685060301931,
                0.2858550301114835,
                -3.1773512358024845
            ]
        },
        {
            "positions": [
                -0.009710145897992253,
                -1.2068108339558359,
                2.1004121443969286,
                -0.8502673641635679,
                0.4421235797539628,
                -3.1622111869078577
            ]
        },
        {
            "positions": [
                -0.07597098892096422,
                -1.2404736001661902,
                2.164844354445113,
                -0.8851662222969428,
                0.5983921293964422,
                -3.147071138013231
            ]
        },
        {
            "positions": [
                -0.14223183194393618,
                -1.2741363663765444,
                2.2292765644932966,
                -0.9200650804303175,
                0.7546606790389214,
                -3.1319310891186043
            ]
        },
        {
            "positions": [
                -0.2084926749669082,
                -1.3077991325868987,
                2.293708774541481,
                -0.9549639385636924,
                0.9109292286814008,
                -3.1167910402239776
            ]
        },
        {
            "positions": [
                -0.2747535179898801,
                -1.341461898797253,
                2.358140984589665,
                -0.9898627966970672,
                1.0671977783238802,
                -3.101650991329351
            ]
        },
        {
            "positions": [
                -0.34101436101285215,
                -1.3751246650076074,
                2.4225731946378493,
                -1.0247616548304421,
                1.2234663279663596,
                -3.086510942434724
            ]
        }
    ]
}