{
    "goal": {
        "global_pose": {
            "orientation": {
                "w": 0.5084816217422485,
                "x": -0.49083608388900757,
                "y": 0.5182115435600281,
                "z": -0.4816462993621826
            },
            "position": {
                "x": 0.5540239810943604,
                "y": 0.030875300988554955,
                "z": 0.16403168439865112
            }
        },
        "name": "move_to_storage_A"
    },
    "id": "SPARStwo_move_to_storage_A_11",
    "joint_names": [
        "shoulder_pan_joint",
        "shoulder_lift_joint",
        "elbow_joint",
        "wrist_1_joint",
        "wrist_2_joint",
        "wrist_3_joint"
    ],
    "metrics": {
        "cart_traj_len": 0.35394020456476116,
        "distance_elbow_joint": 0.45112591894365206,
        "distance_shoulder_lift_joint": 0.23500536838474306,
        "distance_shoulder_pan_joint": 0.4644155256648238,
        "distance_wrist_1_joint": 0.24315231787448288,
        "distance_wrist_2_joint": 1.0943601982989812,
        "distance_wrist_3_joint": 0.10310689544993812,
        "smoothness": 0.0,
        "time": 5.005681211,
        "traj_len": 1.609709981523573,
        "weighted_distance": 2.0334435157362893
    },
    "planner": "SPARStwo",
    "start": {
        "state": {
            "elbow_joint": 1.9715477243005601,
            "shoulder_lift_joint": -1.1394853015351272,
            "shoulder_pan_joint": 0.12281154014795169,
            "wrist_1_joint": -0.7804696478968182,
            "wrist_2_joint": 0.12958648046900423,
            "wrist_3_joint": -3.192491284697111
        }
    },
    "waypoints": [
        {
            "positions": [
                0.12281154014795169,
                -1.1394853015351272,
                1.9715477243005601,
                -0.7804696478968182,
                0.12958648046900423,
                -3.192491284697111
            ]
        },
        {
            "positions": [
                0.056466465052976866,
                -1.1730574970186618,
                2.0359942841496532,
                -0.8152056933074586,
                0.285923651654573,
                -3.177761728204263
            ]
        },
        {
            "positions": [
                -0.009878610041997957,
                -1.2066296925021966,
                2.1004408439987463,
                -0.849941738718099,
                0.44226082284014173,
                -3.1630321717114147
            ]
        },
        {
            "positions": [
                -0.0762236851369728,
                -1.2402018879857313,
                2.1648874038478394,
                -0.8846777841287394,
                0.5985979940257105,
                -3.1483026152185665
            ]
        },
        {
            "positions": [
                -0.1425687602319476,
                -1.2737740834692661,
                2.2293339636969325,
                -0.9194138295393798,
                0.7549351652112792,
                -3.133573058725718
            ]
        },
        {
            "positions": [
                -0.20891383532692243,
                -1.3073462789528008,
                2.293780523546026,
                -0.9541498749500202,
                0.911272336396848,
                -3.1188435022328695
            ]
        },
        {
            "positions": [
                -0.27525891042189726,
                -1.3409184744363354,
                2.358227083395119,
                -0.9888859203606606,
                1.0676095075824166,
                -3.1041139457400213
            ]
        },
        {
            "positions": [
                -0.3416039855168721,
                -1.3744906699198702,
                2.422673643244212,
                -1.023621965771301,
                1.2239466787679856,
                -3.089384389247173
            ]
        }
    ]
}