{
    "goal": {
        "global_pose": {
            "orientation": {
                "w": 0.7047431468963623,
                "x": -0.7094548344612122,
                "y": 0.0024358443915843964,
                "z": -0.0022348060738295317
            },
            "position": {
                "x": 0.6094750761985779,
                "y": 0.3671506643295288,
                "z": 0.19426114857196808
            }
        },
        "name": "move_to_magneteinheit_A"
    },
    "id": "SPARS_move_to_magneteinheit_A_115",
    "joint_names": [
        "shoulder_pan_joint",
        "shoulder_lift_joint",
        "elbow_joint",
        "wrist_1_joint",
        "wrist_2_joint",
        "wrist_3_joint"
    ],
    "metrics": {
        "cart_traj_len": 3.4718410689177754,
        "distance_elbow_joint": 3.8697526162689253,
        "distance_shoulder_lift_joint": 0.36233831274656736,
        "distance_shoulder_pan_joint": 2.8929618650509408,
        "distance_wrist_1_joint": 2.091741727624823,
        "distance_wrist_2_joint": 1.6920975943899634,
        "distance_wrist_3_joint": 3.7091570525970257,
        "smoothness": 0.12923280680620577,
        "time": 5.047783656,
        "traj_len": 3.8233557470732755,
        "weighted_distance": 5.0813583416136945
    },
    "planner": "SPARS",
    "start": {
        "state": {
            "elbow_joint": -1.919618573717145,
            "shoulder_lift_joint": -1.2443395971678275,
            "shoulder_pan_joint": 2.6996025300909787,
            "wrist_1_joint": -1.548550951253194,
            "wrist_2_joint": -1.5709469090946802,
            "wrist_3_joint": 0.4420197732051276
        }
    },
    "waypoints": [
        {
            "positions": [
                2.6996025300909787,
                -1.2443395971678275,
                -1.919618573717145,
                -1.548550951253194,
                -1.5709469090946802,
                0.4420197732051276
            ]
        },
        {
            "positions": [
                2.610690494279244,
                -1.2356244747528522,
                -1.824377444748351,
                -1.4938273771775985,
                -1.5190027918856712,
                0.3558314589744118
            ]
        },
        {
            "positions": [
                2.52177845846751,
                -1.2269093523378767,
                -1.7291363157795567,
                -1.439103803102003,
                -1.467058674676662,
                0.2696431447436961
            ]
        },
        {
            "positions": [
                2.4328664226557755,
                -1.2181942299229014,
                -1.6338951868107627,
                -1.3843802290264073,
                -1.4151145574676531,
                0.18345483051298034
            ]
        },
        {
            "positions": [
                2.3439543868440413,
                -1.209479107507926,
                -1.5386540578419687,
                -1.3296566549508118,
                -1.3631704402586442,
                0.09726651628226463
            ]
        },
        {
            "positions": [
                2.2550423510323068,
                -1.2007639850929506,
                -1.4434129288731745,
                -1.2749330808752162,
                -1.311226323049635,
                0.011078202051548858
            ]
        },
        {
            "positions": [
                2.1661303152205726,
                -1.1920488626779753,
                -1.3481717999043805,
                -1.2202095067996206,
                -1.2592822058406261,
                -0.07511011217916691
            ]
        },
        {
            "positions": [
                2.077218279408838,
                -1.183333740263,
                -1.2529306709355863,
                -1.165485932724025,
                -1.2073380886316172,
                -0.16129842640988262
            ]
        },
        {
            "positions": [
                1.988306243597104,
                -1.1746186178480245,
                -1.1576895419667923,
                -1.1107623586484294,
                -1.155393971422608,
                -0.24748674064059833
            ]
        },
        {
            "positions": [
                1.8993942077853694,
                -1.1659034954330492,
                -1.0624484129979983,
                -1.0560387845728338,
                -1.103449854213599,
                -0.33367505487131416
            ]
        },
        {
            "positions": [
                1.810482171973635,
                -1.1571883730180739,
                -0.9672072840292042,
                -1.0013152104972383,
                -1.05150573700459,
                -0.41986336910202987
            ]
        },
        {
            "positions": [
                1.7215701361619007,
                -1.1484732506030984,
                -0.8719661550604101,
                -0.9465916364216427,
                -0.999561619795581,
                -0.5060516833327455
            ]
        },
        {
            "positions": [
                1.6326581003501663,
                -1.139758128188123,
                -0.7767250260916161,
                -0.8918680623460471,
                -0.947617502586572,
                -0.5922399975634614
            ]
        },
        {
            "positions": [
                1.543746064538432,
                -1.1310430057731478,
                -0.6814838971228219,
                -0.8371444882704515,
                -0.895673385377563,
                -0.678428311794177
            ]
        },
        {
            "positions": [
                1.4548340287266976,
                -1.1223278833581722,
                -0.5862427681540279,
                -0.7824209141948559,
                -0.843729268168554,
                -0.7646166260248928
            ]
        },
        {
            "positions": [
                1.365921992914963,
                -1.113612760943197,
                -0.49100163918523365,
                -0.7276973401192603,
                -0.7917851509595449,
                -0.8508049402556086
            ]
        },
        {
            "positions": [
                1.277009957103229,
                -1.1048976385282216,
                -0.39576051021643965,
                -0.6729737660436648,
                -0.739841033750536,
                -0.9369932544863242
            ]
        },
        {
            "positions": [
                1.1880979212914944,
                -1.0961825161132461,
                -0.30051938124764543,
                -0.6182501919680692,
                -0.6878969165415268,
                -1.0231815687170402
            ]
        },
        {
            "positions": [
                1.09918588547976,
                -1.0874673936982708,
                -0.20527825227885166,
                -0.5635266178924736,
                -0.6359527993325179,
                -1.1093698829477558
            ]
        },
        {
            "positions": [
                1.0102738496680257,
                -1.0787522712832955,
                -0.11003712331005744,
                -0.508803043816878,
                -0.5840086821235089,
                -1.1955581971784717
            ]
        },
        {
            "positions": [
                0.9213618138562913,
                -1.07003714886832,
                -0.014795994341263441,
                -0.45407946974128244,
                -0.5320645649144999,
                -1.2817465114091873
            ]
        },
        {
            "positions": [
                0.832449778044557,
                -1.0613220264533447,
                0.08044513462753078,
                -0.39935589566568686,
                -0.4801204477054908,
                -1.367934825639903
            ]
        },
        {
            "positions": [
                0.7435377422328227,
                -1.0526069040383694,
                0.17568626359632478,
                -0.3446323215900913,
                -0.42817633049648185,
                -1.4541231398706187
            ]
        },
        {
            "positions": [
                0.6546257064210881,
                -1.043891781623394,
                0.2709273925651188,
                -0.2899087475144957,
                -0.3762322132874727,
                -1.5403114541013345
            ]
        },
        {
            "positions": [
                0.565713670609354,
                -1.0351766592084186,
                0.36616852153391277,
                -0.2351851734389001,
                -0.32428809607846376,
                -1.6264997683320503
            ]
        },
        {
            "positions": [
                0.4768016347976194,
                -1.0264615367934433,
                0.4614096505027072,
                -0.18046159936330453,
                -0.27234397886945483,
                -1.712688082562766
            ]
        },
        {
            "positions": [
                0.38788959898588526,
                -1.0177464143784678,
                0.5566507794715012,
                -0.12573802528770894,
                -0.2203998616604459,
                -1.7988763967934815
            ]
        },
        {
            "positions": [
                0.2989775631741505,
                -1.0090312919634925,
                0.6518919084402951,
                -0.0710144512121133,
                -0.1684557444514368,
                -1.8850647110241976
            ]
        },
        {
            "positions": [
                0.25716634600731214,
                -1.0085282425359137,
                0.7775773556014858,
                -0.08749567812051688,
                -0.13740464937700408,
                -2.019637116203025
            ]
        },
        {
            "positions": [
                0.2153551288404738,
                -1.0080251931083346,
                0.9032628027626765,
                -0.10397690502892046,
                -0.10635355430257137,
                -2.154209521381852
            ]
        },
        {
            "positions": [
                0.17354391167363548,
                -1.0075221436807558,
                1.0289482499238671,
                -0.12045813193732403,
                -0.07530245922813865,
                -2.2887819265606795
            ]
        },
        {
            "positions": [
                0.13173269450679714,
                -1.007019094253177,
                1.1546336970850577,
                -0.1369393588457276,
                -0.04425136415370594,
                -2.4233543317395068
            ]
        },
        {
            "positions": [
                0.08992147733995881,
                -1.006516044825598,
                1.2803191442462485,
                -0.1534205857541312,
                -0.013200269079273214,
                -2.557926736918334
            ]
        },
        {
            "positions": [
                0.04811026017312048,
                -1.0060129953980192,
                1.4060045914074393,
                -0.16990181266253476,
                0.017850825995159497,
                -2.6924991420971613
            ]
        },
        {
            "positions": [
                0.006299043006282146,
                -1.0055099459704402,
                1.5316900385686298,
                -0.18638303957093832,
                0.04890192106959221,
                -2.8270715472759886
            ]
        },
        {
            "positions": [
                -0.03551217416055616,
                -1.0050068965428613,
                1.6573754857298204,
                -0.20286426647934191,
                0.07995301614402492,
                -2.961643952454816
            ]
        },
        {
            "positions": [
                0.003949616039295278,
                -1.0357582995732617,
                1.7305651249353105,
                -0.32345311955847034,
                0.09025243343183949,
                -3.0380172841890865
            ]
        },
        {
            "positions": [
                0.043411406239146716,
                -1.0665097026036618,
                1.8037547641408005,
                -0.4440419726375988,
                0.10055185071965406,
                -3.114390615923357
            ]
        },
        {
            "positions": [
                0.08287319643899815,
                -1.0972611056340622,
                1.8769444033462908,
                -0.5646308257167272,
                0.11085126800746864,
                -3.1907639476576275
            ]
        },
        {
            "positions": [
                0.1223349866388496,
                -1.1280125086644626,
                1.9501340425517808,
                -0.6852196787958557,
                0.12115068529528321,
                -3.267137279391898
            ]
        }
    ]
}{
    "goal": {
        "global_pose": {
            "orientation": {
                "w": 0.7047431468963623,
                "x": -0.7094548344612122,
                "y": 0.0024358443915843964,
                "z": -0.0022348060738295317
            },
            "position": {
                "x": 0.6094750761985779,
                "y": 0.3671506643295288,
                "z": 0.19426114857196808
            }
        },
        "name": "move_to_magneteinheit_A"
    },
    "id": "SPARS_move_to_magneteinheit_A_115",
    "joint_names": [
        "shoulder_pan_joint",
        "shoulder_lift_joint",
        "elbow_joint",
        "wrist_1_joint",
        "wrist_2_joint",
        "wrist_3_joint"
    ],
    "metrics": {
        "cart_traj_len": 1.1376842100678202,
        "distance_elbow_joint": 1.0628383954061063,
        "distance_shoulder_lift_joint": 0.7478760515230516,
        "distance_shoulder_pan_joint": 1.2418595811925364,
        "distance_wrist_1_joint": 0.7395290426599752,
        "distance_wrist_2_joint": 1.4329940545663424,
        "distance_wrist_3_joint": 4.240576127511692,
        "smoothness": 0.11680296701699219,
        "time": 5.047025226,
        "traj_len": 3.0766334284180985,
        "weighted_distance": 4.48545968715687
    },
    "planner": "SPARS",
    "start": {
        "state": {
            "elbow_joint": 1.919643534880228,
            "shoulder_lift_joint": -1.8972525353963687,
            "shoulder_pan_joint": -1.1188672234189438,
            "wrist_1_joint": -1.5931878212786155,
            "wrist_2_joint": 1.5706036197970081,
            "wrist_3_joint": 1.118896926603594
        }
    },
    "waypoints": [
        {
            "positions": [
                -1.1188672234189438,
                -1.8972525353963687,
                1.919643534880228,
                -1.5931878212786155,
                1.5706036197970081,
                1.118896926603594
            ]
        },
        {
            "positions": [
                -1.0504104686593418,
                -1.866235504672415,
                1.971137482946781,
                -1.5880505547986115,
                1.4811832221847276,
                0.9739458162910016
            ]
        },
        {
            "positions": [
                -0.9819537138997397,
                -1.8352184739484616,
                2.0226314310133335,
                -1.5829132883186072,
                1.391762824572447,
                0.8289947059784093
            ]
        },
        {
            "positions": [
                -0.9134969591401377,
                -1.804201443224508,
                2.074125379079886,
                -1.5777760218386032,
                1.3023424269601664,
                0.6840435956658171
            ]
        },
        {
            "positions": [
                -0.8450402043805356,
                -1.7731844125005543,
                2.125619327146439,
                -1.572638755358599,
                1.2129220293478857,
                0.5390924853532247
            ]
        },
        {
            "positions": [
                -0.7765834496209336,
                -1.7421673817766008,
                2.177113275212992,
                -1.567501488878595,
                1.1235016317356052,
                0.3941413750406325
            ]
        },
        {
            "positions": [
                -0.7081266948613316,
                -1.7111503510526471,
                2.2286072232795444,
                -1.5623642223985907,
                1.0340812341233248,
                0.24919026472804018
            ]
        },
        {
            "positions": [
                -0.6396699401017296,
                -1.6801333203286934,
                2.2801011713460975,
                -1.5572269559185867,
                0.944660836511044,
                0.10423915441544795
            ]
        },
        {
            "positions": [
                -0.5712131853421275,
                -1.64911628960474,
                2.33159511941265,
                -1.5520896894385825,
                0.8552404388987634,
                -0.04071195589714449
            ]
        },
        {
            "positions": [
                -0.5027564305825254,
                -1.6180992588807863,
                2.3830890674792027,
                -1.5469524229585785,
                0.7658200412864827,
                -0.18566306620973694
            ]
        },
        {
            "positions": [
                -0.4342996758229235,
                -1.5870822281568329,
                2.4345830155457557,
                -1.5418151564785743,
                0.6763996436742022,
                -0.33061417652232894
            ]
        },
        {
            "positions": [
                -0.36584292106332134,
                -1.5560651974328792,
                2.4860769636123083,
                -1.5366778899985702,
                0.5869792460619216,
                -0.47556528683492144
            ]
        },
        {
            "positions": [
                -0.3309261154321132,
                -1.5270160036071962,
                2.450619465992735,
                -1.4878908106142896,
                0.554881411716832,
                -0.664573423554434
            ]
        },
        {
            "positions": [
                -0.29600930980090506,
                -1.497966809781513,
                2.4151619683731615,
                -1.4391037312300088,
                0.5227835773717424,
                -0.8535815602739466
            ]
        },
        {
            "positions": [
                -0.2610925041696969,
                -1.4689176159558301,
                2.3797044707535884,
                -1.3903166518457282,
                0.4906857430266527,
                -1.0425896969934592
            ]
        },
        {
            "positions": [
                -0.2261756985384888,
                -1.4398684221301472,
                2.344246973134015,
                -1.3415295724614473,
                0.4585879086815631,
                -1.2315978337129718
            ]
        },
        {
            "positions": [
                -0.19125889290728065,
                -1.4108192283044643,
                2.308789475514442,
                -1.2927424930771667,
                0.4264900743364734,
                -1.4206059704324845
            ]
        },
        {
            "positions": [
                -0.15634208727607252,
                -1.381770034478781,
                2.273331977894869,
                -1.2439554136928859,
                0.3943922399913838,
                -1.609614107151997
            ]
        },
        {
            "positions": [
                -0.12142528164486438,
                -1.3527208406530982,
                2.2378744802752952,
                -1.1951683343086053,
                0.3622944056462941,
                -1.7986222438715096
            ]
        },
        {
            "positions": [
                -0.08650847601365624,
                -1.3236716468274152,
                2.202416982655722,
                -1.1463812549243246,
                0.3301965713012045,
                -1.987630380591022
            ]
        },
        {
            "positions": [
                -0.05159167038244811,
                -1.294622453001732,
                2.166959485036149,
                -1.0975941755400438,
                0.2980987369561148,
                -2.176638517310535
            ]
        },
        {
            "positions": [
                -0.01667486475123997,
                -1.2655732591760491,
                2.1315019874165753,
                -1.0488070961557632,
                0.26600090261102516,
                -2.3656466540300474
            ]
        },
        {
            "positions": [
                0.018241940879968166,
                -1.2365240653503662,
                2.096044489797002,
                -1.0000200167714826,
                0.23390306826593554,
                -2.5546547907495603
            ]
        },
        {
            "positions": [
                0.0531587465111763,
                -1.2074748715246832,
                2.060586992177429,
                -0.9512329373872017,
                0.20180523392084593,
                -2.7436629274690727
            ]
        },
        {
            "positions": [
                0.08807555214238444,
                -1.178425677699,
                2.0251294945578557,
                -0.902445858002921,
                0.1697073995757562,
                -2.9326710641885856
            ]
        },
        {
            "positions": [
                0.1229923577735926,
                -1.1493764838733171,
                1.9896719969382823,
                -0.8536587786186403,
                0.13760956523066656,
                -3.121679200908098
            ]
        }
    ]
}