{
    "goal": {
        "global_pose": {
            "orientation": {
                "w": 0.7047431468963623,
                "x": -0.7094548344612122,
                "y": 0.0024358443915843964,
                "z": -0.0022348060738295317
            },
            "position": {
                "x": 0.6094750761985779,
                "y": 0.3671506643295288,
                "z": 0.19426114857196808
            }
        },
        "name": "move_to_magneteinheit_A"
    },
    "id": "SPARStwo_move_to_magneteinheit_A_75",
    "joint_names": [
        "shoulder_pan_joint",
        "shoulder_lift_joint",
        "elbow_joint",
        "wrist_1_joint",
        "wrist_2_joint",
        "wrist_3_joint"
    ],
    "metrics": {
        "cart_traj_len": 1.1320037721444733,
        "distance_elbow_joint": 0.20003137541678617,
        "distance_shoulder_lift_joint": 1.085222007558006,
        "distance_shoulder_pan_joint": 1.2410798629483597,
        "distance_wrist_1_joint": 1.1010132956453447,
        "distance_wrist_2_joint": 1.4374691343372932,
        "distance_wrist_3_joint": 4.25538713108577,
        "smoothness": 0.12052612225184162,
        "time": 5.037885794,
        "traj_len": 3.052900720133486,
        "weighted_distance": 4.513253759666715
    },
    "planner": "SPARStwo",
    "start": {
        "state": {
            "elbow_joint": 1.919643534880228,
            "shoulder_lift_joint": -1.8972525353963687,
            "shoulder_pan_joint": -1.1188672234189438,
            "wrist_1_joint": -1.5931878212786155,
            "wrist_2_joint": 1.5706036197970081,
            "wrist_3_joint": 1.118896926603594
        }
    },
    "waypoints": [
        {
            "positions": [
                -1.1188672234189438,
                -1.8972525353963687,
                1.919643534880228,
                -1.5931878212786155,
                1.5706036197970081,
                1.118896926603594
            ]
        },
        {
            "positions": [
                -1.1017524809578016,
                -1.9181166114939106,
                1.9361481043594866,
                -1.4768444229480446,
                1.551870471010742,
                0.9299256585492519
            ]
        },
        {
            "positions": [
                -1.0846377384966592,
                -1.9389806875914524,
                1.952652673838745,
                -1.3605010246174738,
                1.533137322224476,
                0.7409543904949097
            ]
        },
        {
            "positions": [
                -1.067522996035517,
                -1.9598447636889942,
                1.9691572433180036,
                -1.2441576262869027,
                1.5144041734382097,
                0.5519831224405676
            ]
        },
        {
            "positions": [
                -1.0504082535743748,
                -1.9807088397865362,
                1.9856618127972618,
                -1.127814227956332,
                1.4956710246519436,
                0.3630118543862255
            ]
        },
        {
            "positions": [
                -1.0332935111132324,
                -2.001572915884078,
                2.0021663822765206,
                -1.011470829625761,
                1.4769378758656775,
                0.17404058633188346
            ]
        },
        {
            "positions": [
                -1.0161787686520902,
                -2.02243699198162,
                2.018670951755779,
                -0.8951274312951902,
                1.4582047270794112,
                -0.014930681722458816
            ]
        },
        {
            "positions": [
                -0.999064026190948,
                -2.0433010680791615,
                2.0351755212350375,
                -0.7787840329646194,
                1.439471578293145,
                -0.20390194977680087
            ]
        },
        {
            "positions": [
                -0.9819492837298057,
                -2.0641651441767035,
                2.051680090714296,
                -0.6624406346340486,
                1.420738429506879,
                -0.3928732178311429
            ]
        },
        {
            "positions": [
                -0.9129391635261044,
                -2.006770806753099,
                2.047430414490376,
                -0.6730822664465972,
                1.3402631830039313,
                -0.5643492794968324
            ]
        },
        {
            "positions": [
                -0.843929043322403,
                -1.9493764693294946,
                2.043180738266456,
                -0.6837238982591458,
                1.2597879365009834,
                -0.735825341162522
            ]
        },
        {
            "positions": [
                -0.7749189231187017,
                -1.8919821319058903,
                2.0389310620425363,
                -0.6943655300716943,
                1.1793126899980357,
                -0.9073014028282116
            ]
        },
        {
            "positions": [
                -0.7059088029150002,
                -1.8345877944822857,
                2.034681385818616,
                -0.705007161884243,
                1.098837443495088,
                -1.078777464493901
            ]
        },
        {
            "positions": [
                -0.636898682711299,
                -1.7771934570586811,
                2.0304317095946964,
                -0.7156487936967916,
                1.0183621969921401,
                -1.2502535261595906
            ]
        },
        {
            "positions": [
                -0.5678885625075976,
                -1.7197991196350768,
                2.0261820333707763,
                -0.7262904255093402,
                0.9378869504891925,
                -1.4217295878252802
            ]
        },
        {
            "positions": [
                -0.4988784423038962,
                -1.6624047822114725,
                2.0219323571468566,
                -0.7369320573218888,
                0.8574117039862448,
                -1.5932056494909697
            ]
        },
        {
            "positions": [
                -0.4298683221001949,
                -1.605010444787868,
                2.0176826809229365,
                -0.7475736891344373,
                0.776936457483297,
                -1.7646817111566593
            ]
        },
        {
            "positions": [
                -0.36085820189649354,
                -1.5476161073642634,
                2.0134330046990168,
                -0.758215320946986,
                0.6964612109803492,
                -1.936157772822349
            ]
        },
        {
            "positions": [
                -0.2918480816927922,
                -1.490221769940659,
                2.0091833284750966,
                -0.7688569527595346,
                0.6159859644774015,
                -2.107633834488038
            ]
        },
        {
            "positions": [
                -0.22283796148909085,
                -1.4328274325170547,
                2.004933652251177,
                -0.7794985845720832,
                0.5355107179744537,
                -2.2791098961537277
            ]
        },
        {
            "positions": [
                -0.1538278412853894,
                -1.3754330950934501,
                2.000683976027257,
                -0.7901402163846318,
                0.4550354714715059,
                -2.4505859578194173
            ]
        },
        {
            "positions": [
                -0.08481772108168806,
                -1.3180387576698456,
                1.996434299803337,
                -0.8007818481971805,
                0.37456022496855823,
                -2.622062019485107
            ]
        },
        {
            "positions": [
                -0.015807600877986716,
                -1.2606444202462412,
                1.9921846235794172,
                -0.8114234800097291,
                0.29408497846561055,
                -2.793538081150796
            ]
        },
        {
            "positions": [
                0.053202519325714515,
                -1.203250082822637,
                1.9879349473554973,
                -0.8220651118222776,
                0.21360973196266264,
                -2.965014142816486
            ]
        },
        {
            "positions": [
                0.12221263952941597,
                -1.1458557453990323,
                1.9836852711315773,
                -0.8327067436348262,
                0.13313448545971504,
                -3.1364902044821754
            ]
        }
    ]
}