{
    "goal": {
        "global_pose": {
            "orientation": {
                "w": 0.5084816217422485,
                "x": -0.49083608388900757,
                "y": 0.5182115435600281,
                "z": -0.4816462993621826
            },
            "position": {
                "x": 0.5540239810943604,
                "y": 0.030875300988554955,
                "z": 0.16403168439865112
            }
        },
        "name": "move_to_storage_A"
    },
    "id": "SPARS_move_to_storage_A_117",
    "joint_names": [
        "shoulder_pan_joint",
        "shoulder_lift_joint",
        "elbow_joint",
        "wrist_1_joint",
        "wrist_2_joint",
        "wrist_3_joint"
    ],
    "metrics": {
        "cart_traj_len": 0.35344132738969297,
        "distance_elbow_joint": 0.4541144736993985,
        "distance_shoulder_lift_joint": 0.2331588620688847,
        "distance_shoulder_pan_joint": 0.46268052047247576,
        "distance_wrist_1_joint": 0.261492465276682,
        "distance_wrist_2_joint": 1.0971939611964503,
        "distance_wrist_3_joint": 0.10161457776877114,
        "smoothness": 8.881784197001252e-16,
        "time": 5.024379807,
        "traj_len": 1.6156283175540906,
        "weighted_distance": 2.0425891516634804
    },
    "planner": "SPARS",
    "start": {
        "state": {
            "elbow_joint": 1.9715477243005601,
            "shoulder_lift_joint": -1.1394853015351272,
            "shoulder_pan_joint": 0.12281154014795169,
            "wrist_1_joint": -0.7804696478968182,
            "wrist_2_joint": 0.12958648046900423,
            "wrist_3_joint": -3.192491284697111
        }
    },
    "waypoints": [
        {
            "positions": [
                0.12281154014795169,
                -1.1394853015351272,
                1.9715477243005601,
                -0.7804696478968182,
                0.12958648046900423,
                -3.192491284697111
            ]
        },
        {
            "positions": [
                0.05671432293759801,
                -1.1727937104021107,
                2.0364212205433314,
                -0.8178257143649156,
                0.28632847492563995,
                -3.1779749164444295
            ]
        },
        {
            "positions": [
                -0.009382894272755668,
                -1.2061021192690942,
                2.1012947167861027,
                -0.855181780833013,
                0.44307046938227573,
                -3.163458548191748
            ]
        },
        {
            "positions": [
                -0.07548011148310933,
                -1.2394105281360777,
                2.166168213028874,
                -0.8925378473011104,
                0.5998124638389115,
                -3.148942179939066
            ]
        },
        {
            "positions": [
                -0.141577328693463,
                -1.2727189370030612,
                2.231041709271645,
                -0.9298939137692079,
                0.7565544582955472,
                -3.134425811686385
            ]
        },
        {
            "positions": [
                -0.20767454590381673,
                -1.3060273458700449,
                2.295915205514416,
                -0.9672499802373054,
                0.9132964527521831,
                -3.1199094434337034
            ]
        },
        {
            "positions": [
                -0.27377176311417034,
                -1.3393357547370284,
                2.3607887017571874,
                -1.0046060467054028,
                1.0700384472088187,
                -3.1053930751810217
            ]
        },
        {
            "positions": [
                -0.33986898032452406,
                -1.3726441636040119,
                2.4256621979999586,
                -1.0419621131735002,
                1.2267804416654544,
                -3.09087670692834
            ]
        }
    ]
}