{
    "goal": {
        "global_pose": {
            "orientation": {
                "w": 0.5084816217422485,
                "x": -0.49083608388900757,
                "y": 0.5182115435600281,
                "z": -0.4816462993621826
            },
            "position": {
                "x": 0.5540239810943604,
                "y": 0.030875300988554955,
                "z": 0.16403168439865112
            }
        },
        "name": "move_to_storage_A"
    },
    "id": "SPARS_move_to_storage_A_61",
    "joint_names": [
        "shoulder_pan_joint",
        "shoulder_lift_joint",
        "elbow_joint",
        "wrist_1_joint",
        "wrist_2_joint",
        "wrist_3_joint"
    ],
    "metrics": {
        "cart_traj_len": 0.3537109894236309,
        "distance_elbow_joint": 0.45310000809479867,
        "distance_shoulder_lift_joint": 0.2355385110117243,
        "distance_shoulder_pan_joint": 0.46489734297608726,
        "distance_wrist_1_joint": 0.2512829999567613,
        "distance_wrist_2_joint": 1.090952055302922,
        "distance_wrist_3_joint": 0.10269051946291885,
        "smoothness": 4.440892133664971e-16,
        "time": 5.020640020999999,
        "traj_len": 1.6119743908651938,
        "weighted_distance": 2.036191918997503
    },
    "planner": "SPARS",
    "start": {
        "state": {
            "elbow_joint": 1.9715477243005601,
            "shoulder_lift_joint": -1.1394853015351272,
            "shoulder_pan_joint": 0.12281154014795169,
            "wrist_1_joint": -0.7804696478968182,
            "wrist_2_joint": 0.12958648046900423,
            "wrist_3_joint": -3.192491284697111
        }
    },
    "waypoints": [
        {
            "positions": [
                0.12281154014795169,
                -1.1394853015351272,
                1.9715477243005601,
                -0.7804696478968182,
                0.12958648046900423,
                -3.192491284697111
            ]
        },
        {
            "positions": [
                0.05639763400851065,
                -1.1731336602510878,
                2.0362762968855312,
                -0.8163672193192126,
                0.2854367740837074,
                -3.1778212104881227
            ]
        },
        {
            "positions": [
                -0.010016272130930384,
                -1.2067820189670484,
                2.101004869470503,
                -0.8522647907416071,
                0.4412870676984105,
                -3.1631511362791342
            ]
        },
        {
            "positions": [
                -0.07643017827037142,
                -1.240430377683009,
                2.165733442055474,
                -0.8881623621640016,
                0.5971373613131137,
                -3.1484810620701458
            ]
        },
        {
            "positions": [
                -0.14284408440981244,
                -1.2740787363989696,
                2.230462014640445,
                -0.924059933586396,
                0.7529876549278167,
                -3.1338109878611577
            ]
        },
        {
            "positions": [
                -0.20925799054925348,
                -1.3077270951149302,
                2.2951905872254166,
                -0.9599575050087905,
                0.9088379485425199,
                -3.1191409136521693
            ]
        },
        {
            "positions": [
                -0.2756718966886945,
                -1.3413754538308909,
                2.3599191598103877,
                -0.995855076431185,
                1.064688242157223,
                -3.104470839443181
            ]
        },
        {
            "positions": [
                -0.34208580282813555,
                -1.3750238125468515,
                2.424647732395359,
                -1.0317526478535795,
                1.2205385357719263,
                -3.0898007652341923
            ]
        }
    ]
}