{
    "goal": {
        "global_pose": {
            "orientation": {
                "w": 0.7047431468963623,
                "x": -0.7094548344612122,
                "y": 0.0024358443915843964,
                "z": -0.0022348060738295317
            },
            "position": {
                "x": 0.6094750761985779,
                "y": 0.3671506643295288,
                "z": 0.19426114857196808
            }
        },
        "name": "move_to_magneteinheit_A"
    },
    "id": "SPARS_move_to_magneteinheit_A_86",
    "joint_names": [
        "shoulder_pan_joint",
        "shoulder_lift_joint",
        "elbow_joint",
        "wrist_1_joint",
        "wrist_2_joint",
        "wrist_3_joint"
    ],
    "metrics": {
        "cart_traj_len": 3.7255991499594523,
        "distance_elbow_joint": 3.883151488295992,
        "distance_shoulder_lift_joint": 0.13505092299394095,
        "distance_shoulder_pan_joint": 3.4777133111595315,
        "distance_wrist_1_joint": 1.8472432778364665,
        "distance_wrist_2_joint": 3.9279477634417805,
        "distance_wrist_3_joint": 2.609950719350248,
        "smoothness": 0.3125779014450995,
        "time": 5.02907276,
        "traj_len": 3.9851044507111673,
        "weighted_distance": 5.18422124943146
    },
    "planner": "SPARS",
    "start": {
        "state": {
            "elbow_joint": -1.919618573717145,
            "shoulder_lift_joint": -1.2443395971678275,
            "shoulder_pan_joint": 2.6996025300909787,
            "wrist_1_joint": -1.548550951253194,
            "wrist_2_joint": -1.5709469090946802,
            "wrist_3_joint": 0.4420197732051276
        }
    },
    "waypoints": [
        {
            "positions": [
                2.6996025300909787,
                -1.2443395971678275,
                -1.919618573717145,
                -1.548550951253194,
                -1.5709469090946802,
                0.4420197732051276
            ]
        },
        {
            "positions": [
                2.5875023397471164,
                -1.2448330221530688,
                -1.8600976024251836,
                -1.4993692862085495,
                -1.4665567599547027,
                0.49939936320017997
            ]
        },
        {
            "positions": [
                2.4754021494032545,
                -1.2453264471383099,
                -1.8005766311332223,
                -1.4501876211639049,
                -1.3621666108147252,
                0.5567789531952323
            ]
        },
        {
            "positions": [
                2.363301959059392,
                -1.2458198721235512,
                -1.741055659841261,
                -1.40100595611926,
                -1.257776461674748,
                0.6141585431902847
            ]
        },
        {
            "positions": [
                2.25120176871553,
                -1.2463132971087922,
                -1.6815346885492997,
                -1.3518242910746154,
                -1.1533863125347703,
                0.6715381331853371
            ]
        },
        {
            "positions": [
                2.139101578371668,
                -1.2468067220940335,
                -1.6220137172573383,
                -1.3026426260299708,
                -1.048996163394793,
                0.7289177231803895
            ]
        },
        {
            "positions": [
                2.0270013880278057,
                -1.2473001470792748,
                -1.5624927459653768,
                -1.253460960985326,
                -0.9446060142548156,
                0.7862973131754418
            ]
        },
        {
            "positions": [
                1.9149011976839434,
                -1.247793572064516,
                -1.5029717746734155,
                -1.2042792959406814,
                -0.8402158651148381,
                0.8436769031704943
            ]
        },
        {
            "positions": [
                1.8028010073400813,
                -1.2482869970497572,
                -1.4434508033814542,
                -1.1550976308960368,
                -0.7358257159748607,
                0.9010564931655466
            ]
        },
        {
            "positions": [
                1.6907008169962192,
                -1.2487804220349983,
                -1.3839298320894928,
                -1.1059159658513922,
                -0.6314355668348832,
                0.9584360831605989
            ]
        },
        {
            "positions": [
                1.578600626652357,
                -1.2492738470202396,
                -1.3244088607975315,
                -1.0567343008067476,
                -0.5270454176949058,
                1.0158156731556514
            ]
        },
        {
            "positions": [
                1.4665004363084948,
                -1.2497672720054809,
                -1.2648878895055702,
                -1.007552635762103,
                -0.4226552685549285,
                1.0731952631507038
            ]
        },
        {
            "positions": [
                1.3544002459646325,
                -1.250260696990722,
                -1.2053669182136089,
                -0.9583709707174581,
                -0.31826511941495106,
                1.130574853145756
            ]
        },
        {
            "positions": [
                1.2423000556207704,
                -1.2507541219759633,
                -1.1458459469216473,
                -0.9091893056728135,
                -0.2138749702749736,
                1.1879544431408084
            ]
        },
        {
            "positions": [
                1.1301998652769083,
                -1.2512475469612043,
                -1.0863249756296862,
                -0.8600076406281688,
                -0.10948482113499614,
                1.2453340331358609
            ]
        },
        {
            "positions": [
                1.018099674933046,
                -1.2517409719464456,
                -1.0268040043377247,
                -0.8108259755835241,
                -0.005094671995018452,
                1.3027136231309133
            ]
        },
        {
            "positions": [
                0.9059994845891839,
                -1.2522343969316867,
                -0.9672830330457635,
                -0.7616443105388795,
                0.09929547714495879,
                1.3600932131259655
            ]
        },
        {
            "positions": [
                0.7938992942453216,
                -1.252727821916928,
                -0.907762061753802,
                -0.7124626454942348,
                0.20368562628493625,
                1.417472803121018
            ]
        },
        {
            "positions": [
                0.6817991039014597,
                -1.2532212469021693,
                -0.8482410904618407,
                -0.6632809804495902,
                0.3080757754249137,
                1.4748523931160704
            ]
        },
        {
            "positions": [
                0.5696989135575974,
                -1.2537146718874104,
                -0.7887201191698794,
                -0.6140993154049454,
                0.4124659245648912,
                1.5322319831111229
            ]
        },
        {
            "positions": [
                0.45759872321373507,
                -1.2542080968726517,
                -0.7291991478779181,
                -0.5649176503603008,
                0.5168560737048686,
                1.5896115731061753
            ]
        },
        {
            "positions": [
                0.34549853286987275,
                -1.2547015218578927,
                -0.6696781765859567,
                -0.515735985315656,
                0.6212462228448459,
                1.6469911631012277
            ]
        },
        {
            "positions": [
                0.23339834252601088,
                -1.255194946843134,
                -0.6101572052939954,
                -0.4665543202710116,
                0.7256363719848231,
                1.70437075309628
            ]
        },
        {
            "positions": [
                0.12129815218214857,
                -1.2556883718283753,
                -0.5506362340020339,
                -0.4173726552263668,
                0.8300265211248008,
                1.7617503430913324
            ]
        },
        {
            "positions": [
                0.00919796183828625,
                -1.2561817968136164,
                -0.4911152627100728,
                -0.3681909901817222,
                0.934416670264778,
                1.8191299330863846
            ]
        },
        {
            "positions": [
                -0.10290222850557607,
                -1.2566752217988577,
                -0.43159429141811123,
                -0.31900932513707736,
                1.0388068194047557,
                1.8765095230814373
            ]
        },
        {
            "positions": [
                -0.21500241884943794,
                -1.2571686467840988,
                -0.3720733201261499,
                -0.269827660092433,
                1.143196968544733,
                1.9338891130764895
            ]
        },
        {
            "positions": [
                -0.32710260919330014,
                -1.25766207176934,
                -0.31255234883418853,
                -0.22064599504778817,
                1.2475871176847104,
                1.991268703071542
            ]
        },
        {
            "positions": [
                -0.29488773977363925,
                -1.2489671825984523,
                -0.14997483001897172,
                -0.2577415894500068,
                1.1683432793516826,
                2.0670331166061016
            ]
        },
        {
            "positions": [
                -0.26267287035397835,
                -1.2402722934275645,
                0.012602688796245098,
                -0.2948371838522254,
                1.0890994410186547,
                2.142797530140661
            ]
        },
        {
            "positions": [
                -0.23045800093431745,
                -1.231577404256677,
                0.1751802076114619,
                -0.331932778254444,
                1.009855602685627,
                2.2185619436752204
            ]
        },
        {
            "positions": [
                -0.19824313151465656,
                -1.2228825150857892,
                0.33775772642667873,
                -0.3690283726566626,
                0.9306117643525991,
                2.29432635720978
            ]
        },
        {
            "positions": [
                -0.16602826209499566,
                -1.2141876259149014,
                0.5003352452418957,
                -0.4061239670588812,
                0.8513679260195712,
                2.3700907707443397
            ]
        },
        {
            "positions": [
                -0.13381339267533476,
                -1.2054927367440136,
                0.6629127640571124,
                -0.4432195614610998,
                0.7721240876865434,
                2.445855184278899
            ]
        },
        {
            "positions": [
                -0.10159852325567387,
                -1.196797847573126,
                0.8254902828723292,
                -0.4803151558633184,
                0.6928802493535156,
                2.5216195978134586
            ]
        },
        {
            "positions": [
                -0.06938365383601297,
                -1.1881029584022382,
                0.9880678016875459,
                -0.5174107502655371,
                0.6136364110204877,
                2.5973840113480184
            ]
        },
        {
            "positions": [
                -0.037168784416352074,
                -1.1794080692313504,
                1.150645320502763,
                -0.5545063446677557,
                0.5343925726874599,
                2.673148424882578
            ]
        },
        {
            "positions": [
                -0.004953914996691178,
                -1.1707131800604627,
                1.3132228393179797,
                -0.5916019390699743,
                0.45514873435443204,
                2.7489128384171373
            ]
        },
        {
            "positions": [
                0.02726095442296972,
                -1.1620182908895749,
                1.4758003581331964,
                -0.6286975334721928,
                0.3759048960214042,
                2.8246772519516967
            ]
        },
        {
            "positions": [
                0.059475823842630615,
                -1.1533234017186873,
                1.6383778769484132,
                -0.6657931278744115,
                0.29666105768837636,
                2.900441665486256
            ]
        },
        {
            "positions": [
                0.09169069326229151,
                -1.1446285125477995,
                1.8009553957636302,
                -0.7028887222766301,
                0.21741721935534852,
                2.976206079020816
            ]
        },
        {
            "positions": [
                0.1239055626819524,
                -1.1359336233769117,
                1.9635329145788472,
                -0.7399843166788487,
                0.1381733810223206,
                3.0519704925553754
            ]
        }
    ]
}{
    "goal": {
        "global_pose": {
            "orientation": {
                "w": 0.7047431468963623,
                "x": -0.7094548344612122,
                "y": 0.0024358443915843964,
                "z": -0.0022348060738295317
            },
            "position": {
                "x": 0.6094750761985779,
                "y": 0.3671506643295288,
                "z": 0.19426114857196808
            }
        },
        "name": "move_to_magneteinheit_A"
    },
    "id": "SPARS_move_to_magneteinheit_A_86",
    "joint_names": [
        "shoulder_pan_joint",
        "shoulder_lift_joint",
        "elbow_joint",
        "wrist_1_joint",
        "wrist_2_joint",
        "wrist_3_joint"
    ],
    "metrics": {
        "cart_traj_len": 1.2103852948325085,
        "distance_elbow_joint": 1.2317718185092512,
        "distance_shoulder_lift_joint": 0.7487815492835204,
        "distance_shoulder_pan_joint": 1.2411106142678694,
        "distance_wrist_1_joint": 2.2966444898106175,
        "distance_wrist_2_joint": 1.4496550946436522,
        "distance_wrist_3_joint": 4.2391617909059605,
        "smoothness": 0.2842191394013131,
        "time": 5.020024692,
        "traj_len": 3.3477044907549516,
        "weighted_distance": 4.840635136393474
    },
    "planner": "SPARS",
    "start": {
        "state": {
            "elbow_joint": 1.919643534880228,
            "shoulder_lift_joint": -1.8972525353963687,
            "shoulder_pan_joint": -1.1188672234189438,
            "wrist_1_joint": -1.5931878212786155,
            "wrist_2_joint": 1.5706036197970081,
            "wrist_3_joint": 1.118896926603594
        }
    },
    "waypoints": [
        {
            "positions": [
                -1.1188672234189438,
                -1.8972525353963687,
                1.919643534880228,
                -1.5931878212786155,
                1.5706036197970081,
                1.118896926603594
            ]
        },
        {
            "positions": [
                -1.0689582670008473,
                -1.8549795169676337,
                1.9739134136766607,
                -1.6586768536067087,
                1.5598202036514337,
                0.9778102237368245
            ]
        },
        {
            "positions": [
                -1.0190493105827507,
                -1.812706498538899,
                2.028183292473093,
                -1.7241658859348017,
                1.5490367875058593,
                0.836723520870055
            ]
        },
        {
            "positions": [
                -0.969140354164654,
                -1.770433480110164,
                2.082453171269526,
                -1.789654918262895,
                1.5382533713602848,
                0.6956368180032855
            ]
        },
        {
            "positions": [
                -0.9192313977465575,
                -1.728160461681429,
                2.1367230500659584,
                -1.855143950590988,
                1.5274699552147104,
                0.5545501151365161
            ]
        },
        {
            "positions": [
                -0.8693224413284609,
                -1.685887443252694,
                2.190992928862391,
                -1.9206329829190811,
                1.516686539069136,
                0.4134634122697466
            ]
        },
        {
            "positions": [
                -0.8194134849103643,
                -1.643614424823959,
                2.2452628076588232,
                -1.9861220152471741,
                1.5059031229235615,
                0.2723767094029771
            ]
        },
        {
            "positions": [
                -0.7695045284922677,
                -1.6013414063952243,
                2.299532686455256,
                -2.0516110475752676,
                1.4951197067779871,
                0.1312900065362076
            ]
        },
        {
            "positions": [
                -0.7195955720741711,
                -1.5590683879664893,
                2.3538025652516885,
                -2.1171000799033606,
                1.4843362906324127,
                -0.009796696330561794
            ]
        },
        {
            "positions": [
                -0.6696866156560746,
                -1.5167953695377543,
                2.408072444048121,
                -2.1825891122314536,
                1.4735528744868382,
                -0.1508833991973313
            ]
        },
        {
            "positions": [
                -0.619777659237978,
                -1.4745223511090195,
                2.4623423228445533,
                -2.248078144559547,
                1.4627694583412638,
                -0.2919701020641008
            ]
        },
        {
            "positions": [
                -0.5698687028198813,
                -1.4322493326802845,
                2.516612201640986,
                -2.31356717688764,
                1.4519860421956894,
                -0.4330568049308703
            ]
        },
        {
            "positions": [
                -0.5199597464017848,
                -1.3899763142515495,
                2.5708820804374186,
                -2.379056209215733,
                1.441202626050115,
                -0.5741435077976398
            ]
        },
        {
            "positions": [
                -0.48428179433230084,
                -1.3765593515771772,
                2.5386302319400817,
                -2.295124203556094,
                1.367855176000295,
                -0.7155946942701246
            ]
        },
        {
            "positions": [
                -0.4486038422628169,
                -1.363142388902805,
                2.5063783834427453,
                -2.2111921978964553,
                1.2945077259504751,
                -0.8570458807426093
            ]
        },
        {
            "positions": [
                -0.412925890193333,
                -1.3497254262284326,
                2.4741265349454085,
                -2.1272601922368164,
                1.221160275900655,
                -0.9984970672150942
            ]
        },
        {
            "positions": [
                -0.37724793812384905,
                -1.3363084635540603,
                2.4418746864480716,
                -2.0433281865771775,
                1.1478128258508353,
                -1.139948253687579
            ]
        },
        {
            "positions": [
                -0.34156998605436506,
                -1.3228915008796882,
                2.409622837950735,
                -1.9593961809175384,
                1.0744653758010152,
                -1.281399440160064
            ]
        },
        {
            "positions": [
                -0.3058920339848812,
                -1.309474538205316,
                2.3773709894533983,
                -1.8754641752578995,
                1.0011179257511953,
                -1.4228506266325487
            ]
        },
        {
            "positions": [
                -0.2702140819153972,
                -1.2960575755309436,
                2.3451191409560614,
                -1.7915321695982607,
                0.9277704757013754,
                -1.5643018131050335
            ]
        },
        {
            "positions": [
                -0.23453612984591327,
                -1.2826406128565713,
                2.312867292458725,
                -1.7076001639386218,
                0.8544230256515555,
                -1.7057529995775182
            ]
        },
        {
            "positions": [
                -0.19885817777642933,
                -1.269223650182199,
                2.280615443961388,
                -1.6236681582789827,
                0.7810755756017355,
                -1.8472041860500032
            ]
        },
        {
            "positions": [
                -0.1631802257069454,
                -1.2558066875078266,
                2.2483635954640517,
                -1.5397361526193438,
                0.7077281255519154,
                -1.9886553725224883
            ]
        },
        {
            "positions": [
                -0.12750227363746142,
                -1.2423897248334543,
                2.216111746966715,
                -1.455804146959705,
                0.6343806755020955,
                -2.130106558994973
            ]
        },
        {
            "positions": [
                -0.09182432156797754,
                -1.228972762159082,
                2.183859898469378,
                -1.371872141300066,
                0.5610332254522756,
                -2.2715577454674576
            ]
        },
        {
            "positions": [
                -0.05614636949849361,
                -1.2155557994847097,
                2.1516080499720416,
                -1.2879401356404272,
                0.4876857754024557,
                -2.4130089319399426
            ]
        },
        {
            "positions": [
                -0.020468417429009622,
                -1.2021388368103376,
                2.1193562014747047,
                -1.2040081299807883,
                0.4143383253526358,
                -2.554460118412427
            ]
        },
        {
            "positions": [
                0.015209534640474365,
                -1.1887218741359653,
                2.087104352977368,
                -1.1200761243211492,
                0.3409908753028157,
                -2.695911304884912
            ]
        },
        {
            "positions": [
                0.05088748670995824,
                -1.175304911461593,
                2.0548525044800314,
                -1.0361441186615106,
                0.267643425252996,
                -2.8373624913573967
            ]
        },
        {
            "positions": [
                0.08656543877944212,
                -1.1618879487872207,
                2.0226006559826946,
                -0.9522121130018715,
                0.19429597520317587,
                -2.9788136778298817
            ]
        },
        {
            "positions": [
                0.1222433908489261,
                -1.1484709861128484,
                1.990348807485358,
                -0.8682801073422326,
                0.12094852515335607,
                -3.1202648643023667
            ]
        }
    ]
}