{
    "goal": {
        "global_pose": {
            "orientation": {
                "w": 0.7047431468963623,
                "x": -0.7094548344612122,
                "y": 0.0024358443915843964,
                "z": -0.0022348060738295317
            },
            "position": {
                "x": 0.6094750761985779,
                "y": 0.3671506643295288,
                "z": 0.19426114857196808
            }
        },
        "name": "move_to_magneteinheit_A"
    },
    "id": "SPARStwo_move_to_magneteinheit_A_149",
    "joint_names": [
        "shoulder_pan_joint",
        "shoulder_lift_joint",
        "elbow_joint",
        "wrist_1_joint",
        "wrist_2_joint",
        "wrist_3_joint"
    ],
    "metrics": {
        "cart_traj_len": 1.309520300615622,
        "distance_elbow_joint": 0.07933360464292627,
        "distance_shoulder_lift_joint": 0.7663434675261402,
        "distance_shoulder_pan_joint": 1.242031988259978,
        "distance_wrist_1_joint": 3.868461950503272,
        "distance_wrist_2_joint": 1.435519930061072,
        "distance_wrist_3_joint": 4.371502389121725,
        "smoothness": 0.2949335098937707,
        "time": 5.0640569619999996,
        "traj_len": 3.429751205279344,
        "weighted_distance": 5.080372032530975
    },
    "planner": "SPARStwo",
    "start": {
        "state": {
            "elbow_joint": 1.919643534880228,
            "shoulder_lift_joint": -1.8972525353963687,
            "shoulder_pan_joint": -1.1188672234189438,
            "wrist_1_joint": -1.5931878212786155,
            "wrist_2_joint": 1.5706036197970081,
            "wrist_3_joint": 1.118896926603594
        }
    },
    "waypoints": [
        {
            "positions": [
                -1.1188672234189438,
                -1.8972525353963687,
                1.919643534880228,
                -1.5931878212786155,
                1.5706036197970081,
                1.118896926603594
            ]
        },
        {
            "positions": [
                -1.091669123926841,
                -1.8760811751773356,
                1.9269367231476,
                -1.780176671444055,
                1.5687273995787172,
                1.0081527241293817
            ]
        },
        {
            "positions": [
                -1.0644710244347384,
                -1.8549098149583025,
                1.9342299114149721,
                -1.9671655216094945,
                1.5668511793604265,
                0.8974085216551697
            ]
        },
        {
            "positions": [
                -1.0372729249426356,
                -1.8337384547392694,
                1.941523099682344,
                -2.154154371774934,
                1.5649749591421358,
                0.7866643191809575
            ]
        },
        {
            "positions": [
                -1.0100748254505327,
                -1.8125670945202363,
                1.948816287949716,
                -2.341143221940374,
                1.5630987389238449,
                0.6759201167067453
            ]
        },
        {
            "positions": [
                -0.9828767259584301,
                -1.7913957343012032,
                1.956109476217088,
                -2.528132072105813,
                1.561222518705554,
                0.5651759142325332
            ]
        },
        {
            "positions": [
                -0.9556786264663273,
                -1.7702243740821701,
                1.96340266448446,
                -2.715120922271253,
                1.5593462984872632,
                0.454431711758321
            ]
        },
        {
            "positions": [
                -0.9284805269742246,
                -1.749053013863137,
                1.9706958527518321,
                -2.9021097724366927,
                1.5574700782689725,
                0.34368750928410885
            ]
        },
        {
            "positions": [
                -0.9012824274821218,
                -1.727881653644104,
                1.977989041019204,
                -3.089098622602132,
                1.5555938580506816,
                0.23294330680989672
            ]
        },
        {
            "positions": [
                -0.8567412452072021,
                -1.7019263238278486,
                1.977076514997293,
                -2.985944224811708,
                1.4938325463848232,
                0.08139770814346076
            ]
        },
        {
            "positions": [
                -0.8122000629322822,
                -1.675970994011593,
                1.9761639889753824,
                -2.8827898270212837,
                1.4320712347189646,
                -0.07014789052297521
            ]
        },
        {
            "positions": [
                -0.7676588806573623,
                -1.6500156641953376,
                1.9752514629534714,
                -2.7796354292308596,
                1.3703099230531062,
                -0.22169348918941123
            ]
        },
        {
            "positions": [
                -0.7231176983824426,
                -1.624060334379082,
                1.9743389369315605,
                -2.6764810314404355,
                1.3085486113872478,
                -0.37323908785584714
            ]
        },
        {
            "positions": [
                -0.6785765161075228,
                -1.5981050045628267,
                1.9734264109096495,
                -2.5733266336500114,
                1.2467872997213891,
                -0.5247846865222832
            ]
        },
        {
            "positions": [
                -0.6340353338326029,
                -1.5721496747465713,
                1.9725138848877388,
                -2.4701722358595872,
                1.1850259880555307,
                -0.6763302851887192
            ]
        },
        {
            "positions": [
                -0.589494151557683,
                -1.5461943449303157,
                1.9716013588658279,
                -2.367017838069163,
                1.123264676389672,
                -0.8278758838551552
            ]
        },
        {
            "positions": [
                -0.5449529692827633,
                -1.5202390151140603,
                1.970688832843917,
                -2.263863440278739,
                1.0615033647238137,
                -0.979421482521591
            ]
        },
        {
            "positions": [
                -0.5004117870078434,
                -1.4942836852978048,
                1.969776306822006,
                -2.160709042488315,
                0.9997420530579553,
                -1.1309670811880272
            ]
        },
        {
            "positions": [
                -0.4558706047329236,
                -1.4683283554815494,
                1.9688637808000953,
                -2.0575546446978907,
                0.9379807413920968,
                -1.282512679854463
            ]
        },
        {
            "positions": [
                -0.41132942245800375,
                -1.442373025665294,
                1.9679512547781843,
                -1.9544002469074666,
                0.8762194297262382,
                -1.434058278520899
            ]
        },
        {
            "positions": [
                -0.366788240183084,
                -1.4164176958490384,
                1.9670387287562734,
                -1.8512458491170425,
                0.8144581180603798,
                -1.585603877187335
            ]
        },
        {
            "positions": [
                -0.3222470579081642,
                -1.390462366032783,
                1.9661262027343624,
                -1.7480914513266184,
                0.7526968063945214,
                -1.7371494758537709
            ]
        },
        {
            "positions": [
                -0.2777058756332442,
                -1.3645070362165277,
                1.9652136767124517,
                -1.6449370535361942,
                0.6909354947286628,
                -1.8886950745202071
            ]
        },
        {
            "positions": [
                -0.23316469335832446,
                -1.338551706400272,
                1.9643011506905408,
                -1.5417826557457701,
                0.6291741830628043,
                -2.040240673186643
            ]
        },
        {
            "positions": [
                -0.1886235110834047,
                -1.3125963765840167,
                1.9633886246686298,
                -1.438628257955346,
                0.5674128713969459,
                -2.1917862718530787
            ]
        },
        {
            "positions": [
                -0.14408232880848493,
                -1.2866410467677611,
                1.962476098646719,
                -1.335473860164922,
                0.5056515597310873,
                -2.3433318705195147
            ]
        },
        {
            "positions": [
                -0.09954114653356494,
                -1.2606857169515058,
                1.9615635726248082,
                -1.2323194623744977,
                0.4438902480652289,
                -2.494877469185951
            ]
        },
        {
            "positions": [
                -0.05499996425864517,
                -1.2347303871352504,
                1.9606510466028972,
                -1.1291650645840736,
                0.3821289363993703,
                -2.646423067852387
            ]
        },
        {
            "positions": [
                -0.010458781983725407,
                -1.2087750573189948,
                1.9597385205809863,
                -1.0260106667936495,
                0.3203676247335119,
                -2.797968666518823
            ]
        },
        {
            "positions": [
                0.03408240029119436,
                -1.1828197275027394,
                1.9588259945590754,
                -0.9228562690032254,
                0.25860631306765347,
                -2.949514265185259
            ]
        },
        {
            "positions": [
                0.07862358256611435,
                -1.1568643976864839,
                1.9579134685371646,
                -0.8197018712128012,
                0.19684500140179484,
                -3.101059863851695
            ]
        },
        {
            "positions": [
                0.12316476484103411,
                -1.1309090678702285,
                1.9570009425152537,
                -0.716547473422377,
                0.13508368973593649,
                -3.252605462518131
            ]
        }
    ]
}