{
    "goal": {
        "global_pose": {
            "orientation": {
                "w": 0.7047431468963623,
                "x": -0.7094548344612122,
                "y": 0.0024358443915843964,
                "z": -0.0022348060738295317
            },
            "position": {
                "x": 0.6094750761985779,
                "y": 0.3671506643295288,
                "z": 0.19426114857196808
            }
        },
        "name": "move_to_magneteinheit_A"
    },
    "id": "SPARStwo_move_to_magneteinheit_A_58",
    "joint_names": [
        "shoulder_pan_joint",
        "shoulder_lift_joint",
        "elbow_joint",
        "wrist_1_joint",
        "wrist_2_joint",
        "wrist_3_joint"
    ],
    "metrics": {
        "cart_traj_len": 1.2847898564925648,
        "distance_elbow_joint": 0.4462377119168055,
        "distance_shoulder_lift_joint": 0.7485980304059634,
        "distance_shoulder_pan_joint": 1.2408002174552344,
        "distance_wrist_1_joint": 0.7373226860089499,
        "distance_wrist_2_joint": 1.4466208146511752,
        "distance_wrist_3_joint": 4.240716802667945,
        "smoothness": 0.05975801511837541,
        "time": 5.023261224,
        "traj_len": 2.9766249785799475,
        "weighted_distance": 4.418786413609747
    },
    "planner": "SPARStwo",
    "start": {
        "state": {
            "elbow_joint": 1.919643534880228,
            "shoulder_lift_joint": -1.8972525353963687,
            "shoulder_pan_joint": -1.1188672234189438,
            "wrist_1_joint": -1.5931878212786155,
            "wrist_2_joint": 1.5706036197970081,
            "wrist_3_joint": 1.118896926603594
        }
    },
    "waypoints": [
        {
            "positions": [
                -1.1188672234189438,
                -1.8972525353963687,
                1.919643534880228,
                -1.5931878212786155,
                1.5706036197970081,
                1.118896926603594
            ]
        },
        {
            "positions": [
                -1.0728686065250592,
                -1.854691398216974,
                1.902503680040199,
                -1.5442595326826616,
                1.471114953653871,
                0.9859787195159029
            ]
        },
        {
            "positions": [
                -1.0268699896311748,
                -1.8121302610375791,
                1.8853638252001699,
                -1.495331244086708,
                1.3716262875107341,
                0.8530605124282118
            ]
        },
        {
            "positions": [
                -0.9808713727372902,
                -1.7695691238581843,
                1.8682239703601409,
                -1.446402955490754,
                1.272137621367597,
                0.7201423053405209
            ]
        },
        {
            "positions": [
                -0.9348727558434056,
                -1.7270079866787895,
                1.8510841155201119,
                -1.3974746668948002,
                1.17264895522446,
                0.5872240982528297
            ]
        },
        {
            "positions": [
                -0.888874138949521,
                -1.6844468494993947,
                1.8339442606800826,
                -1.3485463782988465,
                1.073160289081323,
                0.45430589116513875
            ]
        },
        {
            "positions": [
                -0.8428755220556365,
                -1.6418857123200001,
                1.8168044058400536,
                -1.2996180897028926,
                0.973671622938186,
                0.3213876840774478
            ]
        },
        {
            "positions": [
                -0.7968769051617519,
                -1.5993245751406053,
                1.7996645510000244,
                -1.250689801106939,
                0.8741829567950489,
                0.1884694769897567
            ]
        },
        {
            "positions": [
                -0.7508782882678673,
                -1.5567634379612105,
                1.7825246961599954,
                -1.201761512510985,
                0.7746942906519119,
                0.05555126990206549
            ]
        },
        {
            "positions": [
                -0.7048796713739827,
                -1.5142023007818157,
                1.7653848413199664,
                -1.1528332239150312,
                0.6752056245087747,
                -0.0773669371856256
            ]
        },
        {
            "positions": [
                -0.6588810544800983,
                -1.471641163602421,
                1.7482449864799372,
                -1.1039049353190775,
                0.5757169583656379,
                -0.21028514427331646
            ]
        },
        {
            "positions": [
                -0.6128824375862136,
                -1.4290800264230261,
                1.7311051316399082,
                -1.0549766467231236,
                0.4762282922225006,
                -0.34320335136100766
            ]
        },
        {
            "positions": [
                -0.5516478182843383,
                -1.4057112329703076,
                1.7525800740296154,
                -1.0383840207686688,
                0.4468745016327783,
                -0.5747547284196197
            ]
        },
        {
            "positions": [
                -0.490413198982463,
                -1.3823424395175894,
                1.7740550164193225,
                -1.0217913948142139,
                0.41752071104305605,
                -0.8063061054782318
            ]
        },
        {
            "positions": [
                -0.4291785796805877,
                -1.358973646064871,
                1.7955299588090297,
                -1.005198768859759,
                0.38816692045333373,
                -1.0378574825368438
            ]
        },
        {
            "positions": [
                -0.36794396037871235,
                -1.3356048526121524,
                1.8170049011987368,
                -0.9886061429053042,
                0.35881312986361147,
                -1.269408859595456
            ]
        },
        {
            "positions": [
                -0.306709341076837,
                -1.3122360591594342,
                1.838479843588444,
                -0.9720135169508495,
                0.32945933927388915,
                -1.500960236654068
            ]
        },
        {
            "positions": [
                -0.2454747217749617,
                -1.2888672657067157,
                1.8599547859781511,
                -0.9554208909963946,
                0.30010554868416683,
                -1.73251161371268
            ]
        },
        {
            "positions": [
                -0.18424010247308636,
                -1.2654984722539973,
                1.8814297283678583,
                -0.9388282650419397,
                0.2707517580944445,
                -1.9640629907712923
            ]
        },
        {
            "positions": [
                -0.12300548317121107,
                -1.242129678801279,
                1.9029046707575652,
                -0.922235639087485,
                0.24139796750472228,
                -2.1956143678299043
            ]
        },
        {
            "positions": [
                -0.061770863869335724,
                -1.2187608853485605,
                1.9243796131472723,
                -0.9056430131330301,
                0.212044176915,
                -2.427165744888516
            ]
        },
        {
            "positions": [
                -0.0005362445674603755,
                -1.195392091895842,
                1.9458545555369795,
                -0.8890503871785752,
                0.18269038632527768,
                -2.6587171219471286
            ]
        },
        {
            "positions": [
                0.06069837473441486,
                -1.1720232984431238,
                1.9673294979266867,
                -0.8724577612241204,
                0.15333659573555541,
                -2.8902684990057406
            ]
        },
        {
            "positions": [
                0.12193299403629022,
                -1.1486545049904053,
                1.9888044403163938,
                -0.8558651352696656,
                0.12398280514583311,
                -3.1218198760643525
            ]
        }
    ]
}