{
    "goal": {
        "global_pose": {
            "orientation": {
                "w": 0.7047431468963623,
                "x": -0.7094548344612122,
                "y": 0.0024358443915843964,
                "z": -0.0022348060738295317
            },
            "position": {
                "x": 0.6094750761985779,
                "y": 0.3671506643295288,
                "z": 0.19426114857196808
            }
        },
        "name": "move_to_magneteinheit_A"
    },
    "id": "SPARS_move_to_magneteinheit_A_132",
    "joint_names": [
        "shoulder_pan_joint",
        "shoulder_lift_joint",
        "elbow_joint",
        "wrist_1_joint",
        "wrist_2_joint",
        "wrist_3_joint"
    ],
    "metrics": {
        "cart_traj_len": 3.9887468521732643,
        "distance_elbow_joint": 3.9101179349230417,
        "distance_shoulder_lift_joint": 0.5459507980990588,
        "distance_shoulder_pan_joint": 4.814772918459319,
        "distance_wrist_1_joint": 0.6925222766119525,
        "distance_wrist_2_joint": 1.7089102267489071,
        "distance_wrist_3_joint": 3.5747166910391432,
        "smoothness": 0.16879863190999078,
        "time": 5.043654279,
        "traj_len": 3.9047395362407245,
        "weighted_distance": 4.979744645192219
    },
    "planner": "SPARS",
    "start": {
        "state": {
            "elbow_joint": -1.919618573717145,
            "shoulder_lift_joint": -1.2443395971678275,
            "shoulder_pan_joint": 2.6996025300909787,
            "wrist_1_joint": -1.548550951253194,
            "wrist_2_joint": -1.5709469090946802,
            "wrist_3_joint": 0.4420197732051276
        }
    },
    "waypoints": [
        {
            "positions": [
                2.6996025300909787,
                -1.2443395971678275,
                -1.919618573717145,
                -1.548550951253194,
                -1.5709469090946802,
                0.4420197732051276
            ]
        },
        {
            "positions": [
                2.5389143516755297,
                -1.2541730201412762,
                -1.79737111931314,
                -1.521123862201254,
                -1.5291866758265051,
                0.4163489097274163
            ]
        },
        {
            "positions": [
                2.3782261732600802,
                -1.264006443114725,
                -1.6751236649091352,
                -1.4936967731493136,
                -1.48742644255833,
                0.3906780462497049
            ]
        },
        {
            "positions": [
                2.217537994844631,
                -1.2738398660881738,
                -1.5528762105051301,
                -1.4662696840973735,
                -1.4456662092901549,
                0.3650071827719936
            ]
        },
        {
            "positions": [
                2.0568498164291817,
                -1.2836732890616227,
                -1.4306287561011253,
                -1.438842595045433,
                -1.4039059760219796,
                0.3393363192942823
            ]
        },
        {
            "positions": [
                1.8961616380137327,
                -1.2935067120350714,
                -1.3083813016971204,
                -1.411415505993493,
                -1.3621457427538046,
                0.313665455816571
            ]
        },
        {
            "positions": [
                1.7354734595982833,
                -1.3033401350085203,
                -1.1861338472931156,
                -1.3839884169415526,
                -1.3203855094856294,
                0.2879945923388597
            ]
        },
        {
            "positions": [
                1.574785281182834,
                -1.313173557981969,
                -1.0638863928891107,
                -1.3565613278896125,
                -1.2786252762174544,
                0.26232372886114835
            ]
        },
        {
            "positions": [
                1.414097102767385,
                -1.3230069809554177,
                -0.9416389384851057,
                -1.3291342388376721,
                -1.2368650429492791,
                0.23665286538343705
            ]
        },
        {
            "positions": [
                1.2534089243519355,
                -1.3328404039288666,
                -0.8193914840811007,
                -1.301707149785732,
                -1.195104809681104,
                0.21098200190572572
            ]
        },
        {
            "positions": [
                1.0927207459364865,
                -1.3426738269023153,
                -0.6971440296770959,
                -1.2742800607337916,
                -1.153344576412929,
                0.18531113842801444
            ]
        },
        {
            "positions": [
                0.932032567521037,
                -1.3525072498757642,
                -0.574896575273091,
                -1.2468529716818515,
                -1.1115843431447539,
                0.15964027495030308
            ]
        },
        {
            "positions": [
                0.771344389105588,
                -1.362340672849213,
                -0.45264912086908615,
                -1.2194258826299111,
                -1.0698241098765786,
                0.13396941147259178
            ]
        },
        {
            "positions": [
                0.6106562106901388,
                -1.3721740958226618,
                -0.3304016664650813,
                -1.191998793577971,
                -1.0280638766084036,
                0.10829854799488048
            ]
        },
        {
            "positions": [
                0.4499680322746893,
                -1.3820075187961105,
                -0.2081542120610762,
                -1.1645717045260306,
                -0.9863036433402285,
                0.08262768451716912
            ]
        },
        {
            "positions": [
                0.28927985385924027,
                -1.3918409417695594,
                -0.08590675765707134,
                -1.1371446154740905,
                -0.9445434100720533,
                0.05695682103945782
            ]
        },
        {
            "positions": [
                0.12859167544379124,
                -1.401674364743008,
                0.03634069674693352,
                -1.1097175264221502,
                -0.9027831768038783,
                0.031285957561746514
            ]
        },
        {
            "positions": [
                -0.032096502971658225,
                -1.4115077877164568,
                0.15858815115093816,
                -1.08229043737021,
                -0.8610229435357032,
                0.00561509408403521
            ]
        },
        {
            "positions": [
                -0.1927846813871077,
                -1.4213412106899057,
                0.28083560555494347,
                -1.0548633483182697,
                -0.819262710267528,
                -0.02005576939367615
            ]
        },
        {
            "positions": [
                -0.3534728598025567,
                -1.4311746336633544,
                0.40308305995894833,
                -1.0274362592663295,
                -0.7775024769993529,
                -0.04572663287138745
            ]
        },
        {
            "positions": [
                -0.5141610382180057,
                -1.4410080566368033,
                0.5253305143629532,
                -1.0000091702143892,
                -0.7357422437311778,
                -0.0713974963490987
            ]
        },
        {
            "positions": [
                -0.6748492166334552,
                -1.450841479610252,
                0.6475779687669576,
                -0.972582081162449,
                -0.6939820104630027,
                -0.09706835982681
            ]
        },
        {
            "positions": [
                -0.8355373950489047,
                -1.460674902583701,
                0.7698254231709629,
                -0.9451549921105088,
                -0.6522217771948275,
                -0.12273922330452142
            ]
        },
        {
            "positions": [
                -0.9962255734643538,
                -1.4705083255571496,
                0.892072877574968,
                -0.9177279030585686,
                -0.6104615439266524,
                -0.14841008678223272
            ]
        },
        {
            "positions": [
                -0.9262915225328545,
                -1.4505219462002912,
                0.960724532801901,
                -0.9138717012824856,
                -0.5636849900778476,
                -0.33492801372296915
            ]
        },
        {
            "positions": [
                -0.8563574716013551,
                -1.4305355668434325,
                1.029376188028834,
                -0.9100154995064027,
                -0.5169084362290427,
                -0.5214459406637055
            ]
        },
        {
            "positions": [
                -0.7864234206698558,
                -1.4105491874865739,
                1.098027843255767,
                -0.9061592977303198,
                -0.47013188238023784,
                -0.707963867604442
            ]
        },
        {
            "positions": [
                -0.7164893697383565,
                -1.3905628081297154,
                1.1666794984827,
                -0.9023030959542369,
                -0.423355328531433,
                -0.8944817945451784
            ]
        },
        {
            "positions": [
                -0.6465553188068572,
                -1.370576428772857,
                1.235331153709633,
                -0.8984468941781538,
                -0.3765787746826281,
                -1.0809997214859148
            ]
        },
        {
            "positions": [
                -0.576621267875358,
                -1.3505900494159984,
                1.303982808936566,
                -0.8945906924020709,
                -0.32980222083382327,
                -1.2675176484266513
            ]
        },
        {
            "positions": [
                -0.5066872169438585,
                -1.3306036700591397,
                1.3726344641634989,
                -0.890734490625988,
                -0.2830256669850184,
                -1.4540355753673877
            ]
        },
        {
            "positions": [
                -0.43675316601235925,
                -1.3106172907022813,
                1.441286119390432,
                -0.886878288849905,
                -0.23624911313621355,
                -1.6405535023081241
            ]
        },
        {
            "positions": [
                -0.36681911508085996,
                -1.2906309113454228,
                1.5099377746173648,
                -0.8830220870738221,
                -0.1894725592874087,
                -1.8270714292488606
            ]
        },
        {
            "positions": [
                -0.29688506414936067,
                -1.2706445319885642,
                1.578589429844298,
                -0.8791658852977392,
                -0.14269600543860383,
                -2.013589356189597
            ]
        },
        {
            "positions": [
                -0.22695101321786126,
                -1.2506581526317055,
                1.647241085071231,
                -0.8753096835216563,
                -0.09591945158979898,
                -2.2001072831303334
            ]
        },
        {
            "positions": [
                -0.15701696228636197,
                -1.2306717732748471,
                1.7158927402981639,
                -0.8714534817455732,
                -0.04914289774099412,
                -2.38662521007107
            ]
        },
        {
            "positions": [
                -0.08708291135486268,
                -1.2106853939179887,
                1.784544395525097,
                -0.8675972799694903,
                -0.00236634389218926,
                -2.5731431370118063
            ]
        },
        {
            "positions": [
                -0.017148860423363277,
                -1.19069901456113,
                1.8531960507520298,
                -0.8637410781934074,
                0.0444102099566156,
                -2.7596610639525427
            ]
        },
        {
            "positions": [
                0.052785190508135904,
                -1.1707126352042714,
                1.921847705978963,
                -0.8598848764173245,
                0.09118676380542046,
                -2.946178990893279
            ]
        },
        {
            "positions": [
                0.12271924143963522,
                -1.150726255847413,
                1.9904993612058959,
                -0.8560286746412415,
                0.13796331765422537,
                -3.1326969178340156
            ]
        }
    ]
}{
    "goal": {
        "global_pose": {
            "orientation": {
                "w": 0.7047431468963623,
                "x": -0.7094548344612122,
                "y": 0.0024358443915843964,
                "z": -0.0022348060738295317
            },
            "position": {
                "x": 0.6094750761985779,
                "y": 0.3671506643295288,
                "z": 0.19426114857196808
            }
        },
        "name": "move_to_magneteinheit_A"
    },
    "id": "SPARS_move_to_magneteinheit_A_132",
    "joint_names": [
        "shoulder_pan_joint",
        "shoulder_lift_joint",
        "elbow_joint",
        "wrist_1_joint",
        "wrist_2_joint",
        "wrist_3_joint"
    ],
    "metrics": {
        "cart_traj_len": 1.266937491927979,
        "distance_elbow_joint": 0.2620007666128039,
        "distance_shoulder_lift_joint": 0.7616809657934935,
        "distance_shoulder_pan_joint": 1.2418241018780405,
        "distance_wrist_1_joint": 1.041671053024772,
        "distance_wrist_2_joint": 1.433638601756614,
        "distance_wrist_3_joint": 4.3475178643382915,
        "smoothness": 0.15947503211417868,
        "time": 5.0450322750000005,
        "traj_len": 3.0146862777748558,
        "weighted_distance": 4.500964200797645
    },
    "planner": "SPARS",
    "start": {
        "state": {
            "elbow_joint": 1.919643534880228,
            "shoulder_lift_joint": -1.8972525353963687,
            "shoulder_pan_joint": -1.1188672234189438,
            "wrist_1_joint": -1.5931878212786155,
            "wrist_2_joint": 1.5706036197970081,
            "wrist_3_joint": 1.118896926603594
        }
    },
    "waypoints": [
        {
            "positions": [
                -1.1188672234189438,
                -1.8972525353963687,
                1.919643534880228,
                -1.5931878212786155,
                1.5706036197970081,
                1.118896926603594
            ]
        },
        {
            "positions": [
                -1.0801906764548994,
                -1.8638722419511355,
                1.9270034016451212,
                -1.548352534901123,
                1.510655460656086,
                0.9120287065053935
            ]
        },
        {
            "positions": [
                -1.0415141294908548,
                -1.8304919485059021,
                1.9343632684100143,
                -1.5035172485236306,
                1.450707301515164,
                0.705160486407193
            ]
        },
        {
            "positions": [
                -1.0028375825268103,
                -1.797111655060669,
                1.9417231351749074,
                -1.458681962146138,
                1.3907591423742418,
                0.49829226630899237
            ]
        },
        {
            "positions": [
                -0.9641610355627659,
                -1.7637313616154358,
                1.9490830019398004,
                -1.4138466757686454,
                1.3308109832333195,
                0.2914240462107919
            ]
        },
        {
            "positions": [
                -0.9254844885987213,
                -1.7303510681702026,
                1.9564428687046935,
                -1.3690113893911529,
                1.2708628240923974,
                0.08455582611259138
            ]
        },
        {
            "positions": [
                -0.8868079416346768,
                -1.6969707747249692,
                1.9638027354695868,
                -1.3241761030136603,
                1.2109146649514753,
                -0.12231239398560922
            ]
        },
        {
            "positions": [
                -0.8481313946706324,
                -1.663590481279736,
                1.97116260223448,
                -1.279340816636168,
                1.1509665058105532,
                -0.32918061408380983
            ]
        },
        {
            "positions": [
                -0.8094548477065878,
                -1.6302101878345028,
                1.978522468999373,
                -1.2345055302586754,
                1.0910183466696308,
                -0.5360488341820102
            ]
        },
        {
            "positions": [
                -0.7707783007425433,
                -1.5968298943892694,
                1.985882335764266,
                -1.1896702438811828,
                1.0310701875287087,
                -0.7429170542802108
            ]
        },
        {
            "positions": [
                -0.7321017537784988,
                -1.5634496009440362,
                1.9932422025291592,
                -1.1448349575036905,
                0.9711220283877866,
                -0.9497852743784112
            ]
        },
        {
            "positions": [
                -0.6934252068144542,
                -1.530069307498803,
                2.0006020692940525,
                -1.0999996711261977,
                0.9111738692468645,
                -1.1566534944766123
            ]
        },
        {
            "positions": [
                -0.6547486598504098,
                -1.4966890140535698,
                2.0079619360589454,
                -1.0551643847487053,
                0.8512257101059424,
                -1.3635217145748124
            ]
        },
        {
            "positions": [
                -0.6160721128863652,
                -1.4633087206083364,
                2.0153218028238387,
                -1.0103290983712128,
                0.7912775509650202,
                -1.570389934673013
            ]
        },
        {
            "positions": [
                -0.5773955659223208,
                -1.4299284271631032,
                2.0226816695887315,
                -0.9654938119937203,
                0.7313293918240981,
                -1.7772581547712136
            ]
        },
        {
            "positions": [
                -0.5387190189582762,
                -1.3965481337178698,
                2.030041536353625,
                -0.9206585256162277,
                0.6713812326831758,
                -1.9841263748694142
            ]
        },
        {
            "positions": [
                -0.5000424719942318,
                -1.3631678402726366,
                2.0374014031185177,
                -0.8758232392387353,
                0.6114330735422537,
                -2.1909945949676146
            ]
        },
        {
            "positions": [
                -0.46136592503018725,
                -1.3297875468274034,
                2.044761269883411,
                -0.8309879528612427,
                0.5514849144013316,
                -2.3978628150658157
            ]
        },
        {
            "positions": [
                -0.4226893780661427,
                -1.2964072533821702,
                2.052121136648304,
                -0.7861526664837503,
                0.4915367552604095,
                -2.604731035164016
            ]
        },
        {
            "positions": [
                -0.38401283110209816,
                -1.263026959936937,
                2.059481003413197,
                -0.7413173801062577,
                0.4315885961194872,
                -2.811599255262216
            ]
        },
        {
            "positions": [
                -0.34533628413805373,
                -1.2296466664917038,
                2.06684087017809,
                -0.6964820937287652,
                0.3716404369785651,
                -3.018467475360416
            ]
        },
        {
            "positions": [
                -0.30665973717400913,
                -1.1962663730464704,
                2.0742007369429833,
                -0.6516468073512727,
                0.3116922778376429,
                -3.225335695458617
            ]
        },
        {
            "positions": [
                -0.16345419862964056,
                -1.1760347718986053,
                2.0383862154263004,
                -0.6850234870504157,
                0.25344985790522656,
                -3.226430776217311
            ]
        },
        {
            "positions": [
                -0.020248660085271986,
                -1.1558031707507403,
                2.0025716939096174,
                -0.7184001667495586,
                0.1952074379728102,
                -3.2275258569760044
            ]
        },
        {
            "positions": [
                0.12295687845909661,
                -1.1355715696028752,
                1.9667571723929347,
                -0.7517768464487017,
                0.13696501804039382,
                -3.228620937734698
            ]
        }
    ]
}