{
    "goal": {
        "global_pose": {
            "orientation": {
                "w": 0.7047431468963623,
                "x": -0.7094548344612122,
                "y": 0.0024358443915843964,
                "z": -0.0022348060738295317
            },
            "position": {
                "x": 0.6094750761985779,
                "y": 0.3671506643295288,
                "z": 0.19426114857196808
            }
        },
        "name": "move_to_magneteinheit_A"
    },
    "id": "SPARStwo_move_to_magneteinheit_A_147",
    "joint_names": [
        "shoulder_pan_joint",
        "shoulder_lift_joint",
        "elbow_joint",
        "wrist_1_joint",
        "wrist_2_joint",
        "wrist_3_joint"
    ],
    "metrics": {
        "cart_traj_len": 1.379474546531344,
        "distance_elbow_joint": 0.43246768384533296,
        "distance_shoulder_lift_joint": 0.749019833417514,
        "distance_shoulder_pan_joint": 1.2416919410368739,
        "distance_wrist_1_joint": 1.8305514197909107,
        "distance_wrist_2_joint": 1.4576814154836084,
        "distance_wrist_3_joint": 4.2429436037054415,
        "smoothness": 0.24472420230100841,
        "time": 5.052306464,
        "traj_len": 3.1550524397036064,
        "weighted_distance": 4.661381333892893
    },
    "planner": "SPARStwo",
    "start": {
        "state": {
            "elbow_joint": 1.919643534880228,
            "shoulder_lift_joint": -1.8972525353963687,
            "shoulder_pan_joint": -1.1188672234189438,
            "wrist_1_joint": -1.5931878212786155,
            "wrist_2_joint": 1.5706036197970081,
            "wrist_3_joint": 1.118896926603594
        }
    },
    "waypoints": [
        {
            "positions": [
                -1.1188672234189438,
                -1.8972525353963687,
                1.919643534880228,
                -1.5931878212786155,
                1.5706036197970081,
                1.118896926603594
            ]
        },
        {
            "positions": [
                -1.0956810464227624,
                -1.8565387036018357,
                1.9335644353173684,
                -1.5216648334656646,
                1.490235629634814,
                0.9739331456958438
            ]
        },
        {
            "positions": [
                -1.072494869426581,
                -1.8158248718073027,
                1.9474853357545088,
                -1.4501418456527138,
                1.40986763947262,
                0.8289693647880936
            ]
        },
        {
            "positions": [
                -1.0493086924303996,
                -1.7751110400127694,
                1.961406236191649,
                -1.378618857839763,
                1.3294996493104256,
                0.6840055838803433
            ]
        },
        {
            "positions": [
                -1.0261225154342182,
                -1.7343972082182364,
                1.9753271366287892,
                -1.307095870026812,
                1.2491316591482318,
                0.5390418029725931
            ]
        },
        {
            "positions": [
                -1.0029363384380368,
                -1.6936833764237034,
                1.9892480370659296,
                -1.2355728822138612,
                1.1687636689860375,
                0.39407802206484266
            ]
        },
        {
            "positions": [
                -0.9797501614418554,
                -1.6529695446291703,
                2.00316893750307,
                -1.1640498944009103,
                1.0883956788238434,
                0.24911424115709258
            ]
        },
        {
            "positions": [
                -0.956563984445674,
                -1.6122557128346373,
                2.01708983794021,
                -1.0925269065879595,
                1.0080276886616493,
                0.10415046024934216
            ]
        },
        {
            "positions": [
                -0.9333778074494927,
                -1.5715418810401043,
                2.0310107383773506,
                -1.0210039187750086,
                0.9276596984994552,
                -0.040813320658407815
            ]
        },
        {
            "positions": [
                -0.9101916304533113,
                -1.5308280492455713,
                2.0449316388144907,
                -0.9494809309620578,
                0.847291708337261,
                -0.18577710156615823
            ]
        },
        {
            "positions": [
                -0.8870054534571299,
                -1.490114217451038,
                2.0588525392516313,
                -0.8779579431491069,
                0.7669237181750668,
                -0.33074088247390865
            ]
        },
        {
            "positions": [
                -0.8638192764609485,
                -1.449400385656505,
                2.0727734396887714,
                -0.806434955336156,
                0.6865557280128727,
                -0.47570466338165884
            ]
        },
        {
            "positions": [
                -0.840633099464767,
                -1.408686553861972,
                2.086694340125912,
                -0.7349119675232052,
                0.6061877378506786,
                -0.6206684442894088
            ]
        },
        {
            "positions": [
                -0.8174469224685856,
                -1.367972722067439,
                2.100615240563052,
                -0.6633889797102543,
                0.5258197476884845,
                -0.7656322251971592
            ]
        },
        {
            "positions": [
                -0.7942607454724042,
                -1.3272588902729057,
                2.114536141000192,
                -0.5918659918973035,
                0.4454517575262904,
                -0.9105960061049096
            ]
        },
        {
            "positions": [
                -0.7710745684762228,
                -1.2865450584783726,
                2.1284570414373327,
                -0.5203430040843526,
                0.3650837673640961,
                -1.0555597870126598
            ]
        },
        {
            "positions": [
                -0.7478883914800415,
                -1.2458312266838396,
                2.142377941874473,
                -0.4488200162714018,
                0.2847157772019022,
                -1.2005235679204096
            ]
        },
        {
            "positions": [
                -0.7247022144838601,
                -1.2051173948893066,
                2.1562988423116134,
                -0.3772970284584509,
                0.2043477870397079,
                -1.3454873488281602
            ]
        },
        {
            "positions": [
                -0.7015160374876787,
                -1.1644035630947736,
                2.1702197427487535,
                -0.30577404064549996,
                0.12397979687751376,
                -1.4904511297359107
            ]
        },
        {
            "positions": [
                -0.6099226202537221,
                -1.1626068007485604,
                2.1500095787513303,
                -0.3661226672185883,
                0.12520841827352652,
                -1.6719617461099037
            ]
        },
        {
            "positions": [
                -0.5183292030197656,
                -1.1608100384023472,
                2.1297994147539074,
                -0.4264712937916767,
                0.1264370396695393,
                -1.8534723624838965
            ]
        },
        {
            "positions": [
                -0.426735785785809,
                -1.159013276056134,
                2.109589250756484,
                -0.486819920364765,
                0.12766566106555205,
                -2.0349829788578893
            ]
        },
        {
            "positions": [
                -0.3351423685518525,
                -1.1572165137099208,
                2.0893790867590614,
                -0.5471685469378533,
                0.1288942824615648,
                -2.2164935952318823
            ]
        },
        {
            "positions": [
                -0.24354895131789583,
                -1.1554197513637074,
                2.069168922761638,
                -0.6075171735109417,
                0.13012290385757758,
                -2.3980042116058753
            ]
        },
        {
            "positions": [
                -0.15195553408393936,
                -1.1536229890174943,
                2.0489587587642153,
                -0.6678658000840301,
                0.13135152525359034,
                -2.5795148279798683
            ]
        },
        {
            "positions": [
                -0.06036211684998272,
                -1.151826226671281,
                2.028748594766792,
                -0.7282144266571184,
                0.1325801466496031,
                -2.7610254443538613
            ]
        },
        {
            "positions": [
                0.031231300383973704,
                -1.150029464325068,
                2.008538430769369,
                -0.7885630532302068,
                0.13380876804561587,
                -2.942536060727854
            ]
        },
        {
            "positions": [
                0.1228247176179303,
                -1.1482327019788547,
                1.988328266771946,
                -0.8489116798032952,
                0.13503738944162863,
                -3.124046677101847
            ]
        }
    ]
}