{
    "goal": {
        "global_pose": {
            "orientation": {
                "w": 0.7047431468963623,
                "x": -0.7094548344612122,
                "y": 0.0024358443915843964,
                "z": -0.0022348060738295317
            },
            "position": {
                "x": 0.6094750761985779,
                "y": 0.3671506643295288,
                "z": 0.19426114857196808
            }
        },
        "name": "move_to_magneteinheit_A"
    },
    "id": "SPARS_move_to_magneteinheit_A_145",
    "joint_names": [
        "shoulder_pan_joint",
        "shoulder_lift_joint",
        "elbow_joint",
        "wrist_1_joint",
        "wrist_2_joint",
        "wrist_3_joint"
    ],
    "metrics": {
        "cart_traj_len": 3.4429587115220084,
        "distance_elbow_joint": 3.9216723295671425,
        "distance_shoulder_lift_joint": 0.6492228537871045,
        "distance_shoulder_pan_joint": 2.658161021289629,
        "distance_wrist_1_joint": 3.512452748356538,
        "distance_wrist_2_joint": 3.798912670826588,
        "distance_wrist_3_joint": 1.1466079930193018,
        "smoothness": 0.2067450194154955,
        "time": 5.075708797,
        "traj_len": 3.9606854983507964,
        "weighted_distance": 5.029076557586695
    },
    "planner": "SPARS",
    "start": {
        "state": {
            "elbow_joint": -1.919618573717145,
            "shoulder_lift_joint": -1.2443395971678275,
            "shoulder_pan_joint": 2.6996025300909787,
            "wrist_1_joint": -1.548550951253194,
            "wrist_2_joint": -1.5709469090946802,
            "wrist_3_joint": 0.4420197732051276
        }
    },
    "waypoints": [
        {
            "positions": [
                2.6996025300909787,
                -1.2443395971678275,
                -1.919618573717145,
                -1.548550951253194,
                -1.5709469090946802,
                0.4420197732051276
            ]
        },
        {
            "positions": [
                2.6099995430880103,
                -1.222963845543213,
                -1.8468447633109975,
                -1.4500920695015018,
                -1.4699672064865261,
                0.4547630885160034
            ]
        },
        {
            "positions": [
                2.5203965560850423,
                -1.2015880939185983,
                -1.7740709529048497,
                -1.3516331877498096,
                -1.3689875038783723,
                0.46750640382687925
            ]
        },
        {
            "positions": [
                2.430793569082074,
                -1.1802123422939839,
                -1.7012971424987022,
                -1.2531743059981175,
                -1.2680078012702183,
                0.48024971913775505
            ]
        },
        {
            "positions": [
                2.341190582079106,
                -1.1588365906693694,
                -1.6285233320925547,
                -1.1547154242464253,
                -1.1670280986620645,
                0.49299303444863085
            ]
        },
        {
            "positions": [
                2.2515875950761375,
                -1.1374608390447547,
                -1.555749521686407,
                -1.056256542494733,
                -1.0660483960539104,
                0.5057363497595067
            ]
        },
        {
            "positions": [
                2.161984608073169,
                -1.1160850874201402,
                -1.4829757112802595,
                -0.9577976607430407,
                -0.9650686934457565,
                0.5184796650703825
            ]
        },
        {
            "positions": [
                2.072381621070201,
                -1.0947093357955258,
                -1.410201900874112,
                -0.8593387789913487,
                -0.8640889908376027,
                0.5312229803812583
            ]
        },
        {
            "positions": [
                1.9827786340672326,
                -1.073333584170911,
                -1.3374280904679643,
                -0.7608798972396563,
                -0.7631092882294487,
                0.5439662956921342
            ]
        },
        {
            "positions": [
                1.8931756470642644,
                -1.0519578325462966,
                -1.264654280061817,
                -0.6624210154879642,
                -0.6621295856212949,
                0.55670961100301
            ]
        },
        {
            "positions": [
                1.8035726600612962,
                -1.0305820809216821,
                -1.1918804696556693,
                -0.5639621337362719,
                -0.5611498830131407,
                0.5694529263138858
            ]
        },
        {
            "positions": [
                1.7139696730583278,
                -1.0092063292970674,
                -1.1191066592495216,
                -0.46550325198457987,
                -0.4601701804049869,
                0.5821962416247616
            ]
        },
        {
            "positions": [
                1.6243666860553596,
                -0.987830577672453,
                -1.046332848843374,
                -0.3670443702328874,
                -0.3591904777968329,
                0.5949395569356374
            ]
        },
        {
            "positions": [
                1.5347636990523914,
                -0.9664548260478384,
                -0.9735590384372266,
                -0.26858548848119534,
                -0.2582107751886791,
                0.6076828722465132
            ]
        },
        {
            "positions": [
                1.4451607120494232,
                -0.9450790744232238,
                -0.9007852280310791,
                -0.1701266067295033,
                -0.15723107258052527,
                0.620426187557389
            ]
        },
        {
            "positions": [
                1.355557725046455,
                -0.9237033227986093,
                -0.8280114176249316,
                -0.07166772497781104,
                -0.05625136997237146,
                0.6331695028682648
            ]
        },
        {
            "positions": [
                1.2659547380434866,
                -0.9023275711739948,
                -0.7552376072187839,
                0.02679115677388144,
                0.0447283326357828,
                0.6459128181791407
            ]
        },
        {
            "positions": [
                1.1763517510405184,
                -0.8809518195493802,
                -0.6824637968126364,
                0.12525003852557348,
                0.1457080352439366,
                0.6586561334900165
            ]
        },
        {
            "positions": [
                1.0867487640375502,
                -0.8595760679247657,
                -0.6096899864064889,
                0.22370892027726574,
                0.24668773785209042,
                0.6713994488008923
            ]
        },
        {
            "positions": [
                0.997145777034582,
                -0.8382003163001511,
                -0.5369161760003414,
                0.3221678020289578,
                0.34766744046024445,
                0.6841427641117681
            ]
        },
        {
            "positions": [
                0.9075427900316135,
                -0.8168245646755365,
                -0.4641423655941934,
                0.42062668378065027,
                0.4486471430683987,
                0.6968860794226439
            ]
        },
        {
            "positions": [
                0.8179398030286453,
                -0.7954488130509221,
                -0.3913685551880459,
                0.5190855655323423,
                0.5496268456765523,
                0.7096293947335197
            ]
        },
        {
            "positions": [
                0.7283368160256771,
                -0.7740730614263075,
                -0.3185947447818984,
                0.6175444472840343,
                0.6506065482847063,
                0.7223727100443955
            ]
        },
        {
            "positions": [
                0.6387338290227089,
                -0.7526973098016929,
                -0.24582093437575092,
                0.7160033290357268,
                0.7515862508928599,
                0.7351160253552713
            ]
        },
        {
            "positions": [
                0.5491308420197405,
                -0.7313215581770783,
                -0.1730471239696032,
                0.8144622107874193,
                0.8525659535010144,
                0.7478593406661472
            ]
        },
        {
            "positions": [
                0.45952785501677207,
                -0.7099458065524639,
                -0.1002733135634557,
                0.9129210925391114,
                0.953545656109168,
                0.760602655977023
            ]
        },
        {
            "positions": [
                0.3699248680138043,
                -0.6885700549278493,
                -0.027499503157308258,
                1.0113799742908034,
                1.0545253587173218,
                0.7733459712878988
            ]
        },
        {
            "positions": [
                0.3378811577444174,
                -0.6945248835400257,
                0.11513165033011116,
                1.079223444437416,
                0.9813674340382124,
                0.7063024904523811
            ]
        },
        {
            "positions": [
                0.30583744747503055,
                -0.7004797121522022,
                0.2577628038175306,
                1.1470669145840287,
                0.9082095093591029,
                0.6392590096168633
            ]
        },
        {
            "positions": [
                0.2737937372056437,
                -0.7064345407643786,
                0.40039395730495,
                1.2149103847306413,
                0.8350515846799936,
                0.5722155287813456
            ]
        },
        {
            "positions": [
                0.2417500269362568,
                -0.7123893693765551,
                0.5430251107923694,
                1.282753854877254,
                0.7618936600008842,
                0.5051720479458279
            ]
        },
        {
            "positions": [
                0.2097063166668699,
                -0.7183441979887315,
                0.6856562642797888,
                1.3505973250238665,
                0.6887357353217748,
                0.4381285671103101
            ]
        },
        {
            "positions": [
                0.17766260639748305,
                -0.724299026600908,
                0.8282874177672082,
                1.4184407951704792,
                0.6155778106426655,
                0.3710850862747924
            ]
        },
        {
            "positions": [
                0.14561889612809614,
                -0.7302538552130844,
                0.9709185712546278,
                1.4862842653170918,
                0.542419885963556,
                0.30404160543927466
            ]
        },
        {
            "positions": [
                0.1135751858587093,
                -0.7362086838252608,
                1.1135497247420472,
                1.5541277354637044,
                0.46926196128444664,
                0.23699812460375702
            ]
        },
        {
            "positions": [
                0.08153147558932239,
                -0.7421635124374373,
                1.2561808782294666,
                1.621971205610317,
                0.39610403660533716,
                0.16995464376823927
            ]
        },
        {
            "positions": [
                0.08954946894691708,
                -0.750135483244945,
                1.4053554537535728,
                1.6903573239089225,
                0.2931002204248169,
                0.12757655028486503
            ]
        },
        {
            "positions": [
                0.09756746230451176,
                -0.7581074540524526,
                1.5545300292776791,
                1.7587434422075279,
                0.1900964042442967,
                0.0851984568014908
            ]
        },
        {
            "positions": [
                0.10558545566210645,
                -0.7660794248599603,
                1.7037046048017856,
                1.8271295605061333,
                0.08709258806377645,
                0.04282036331811656
            ]
        },
        {
            "positions": [
                0.11360344901970112,
                -0.774051395667468,
                1.852879180325892,
                1.8955156788047387,
                -0.01591122811674378,
                0.00044226983474232595
            ]
        },
        {
            "positions": [
                0.12162144237729582,
                -0.7820233664749756,
                2.0020537558499982,
                1.9639017971033441,
                -0.11891504429726396,
                -0.04193582364863192
            ]
        }
    ]
}{
    "goal": {
        "global_pose": {
            "orientation": {
                "w": 0.7047431468963623,
                "x": -0.7094548344612122,
                "y": 0.0024358443915843964,
                "z": -0.0022348060738295317
            },
            "position": {
                "x": 0.6094750761985779,
                "y": 0.3671506643295288,
                "z": 0.19426114857196808
            }
        },
        "name": "move_to_magneteinheit_A"
    },
    "id": "SPARS_move_to_magneteinheit_A_145",
    "joint_names": [
        "shoulder_pan_joint",
        "shoulder_lift_joint",
        "elbow_joint",
        "wrist_1_joint",
        "wrist_2_joint",
        "wrist_3_joint"
    ],
    "metrics": {
        "cart_traj_len": 1.3836592812149504,
        "distance_elbow_joint": 0.3367158293420449,
        "distance_shoulder_lift_joint": 1.4058496106645204,
        "distance_shoulder_pan_joint": 1.242750944266195,
        "distance_wrist_1_joint": 0.875446601244253,
        "distance_wrist_2_joint": 1.441218900146609,
        "distance_wrist_3_joint": 4.359421880461748,
        "smoothness": 0.13541706669465972,
        "time": 5.064698298,
        "traj_len": 3.1082798725541707,
        "weighted_distance": 4.549386005653921
    },
    "planner": "SPARS",
    "start": {
        "state": {
            "elbow_joint": 1.919643534880228,
            "shoulder_lift_joint": -1.8972525353963687,
            "shoulder_pan_joint": -1.1188672234189438,
            "wrist_1_joint": -1.5931878212786155,
            "wrist_2_joint": 1.5706036197970081,
            "wrist_3_joint": 1.118896926603594
        }
    },
    "waypoints": [
        {
            "positions": [
                -1.1188672234189438,
                -1.8972525353963687,
                1.919643534880228,
                -1.5931878212786155,
                1.5706036197970081,
                1.118896926603594
            ]
        },
        {
            "positions": [
                -1.1094147352922947,
                -1.9263252441537684,
                1.906017311455116,
                -1.5385118689829338,
                1.4861871421432662,
                0.946130553896991
            ]
        },
        {
            "positions": [
                -1.0999622471656456,
                -1.9553979529111682,
                1.8923910880300037,
                -1.4838359166872521,
                1.4017706644895243,
                0.773364181190388
            ]
        },
        {
            "positions": [
                -1.0905097590389965,
                -1.984470661668568,
                1.8787648646048916,
                -1.4291599643915707,
                1.3173541868357823,
                0.6005978084837851
            ]
        },
        {
            "positions": [
                -1.0810572709123474,
                -2.0135433704259675,
                1.8651386411797795,
                -1.374484012095889,
                1.2329377091820402,
                0.4278314357771821
            ]
        },
        {
            "positions": [
                -1.0716047827856983,
                -2.042616079183367,
                1.8515124177546674,
                -1.3198080598002073,
                1.1485212315282982,
                0.2550650630705792
            ]
        },
        {
            "positions": [
                -1.062152294659049,
                -2.071688787940767,
                1.837886194329555,
                -1.2651321075045256,
                1.0641047538745563,
                0.08229869036397619
            ]
        },
        {
            "positions": [
                -1.0526998065323998,
                -2.1007614966981665,
                1.824259970904443,
                -1.2104561552088442,
                0.9796882762208142,
                -0.0904676823426267
            ]
        },
        {
            "positions": [
                -1.0432473184057507,
                -2.1298342054555666,
                1.8106337474793308,
                -1.1557802029131625,
                0.8952717985670722,
                -0.2632340550492298
            ]
        },
        {
            "positions": [
                -1.0337948302791016,
                -2.158906914212966,
                1.7970075240542185,
                -1.1011042506174809,
                0.8108553209133301,
                -0.4360004277558329
            ]
        },
        {
            "positions": [
                -1.0243423421524525,
                -2.187979622970366,
                1.7833813006291064,
                -1.0464282983217994,
                0.7264388432595883,
                -0.6087668004624356
            ]
        },
        {
            "positions": [
                -1.0148898540258033,
                -2.2170523317277655,
                1.7697550772039943,
                -0.9917523460261176,
                0.6420223656058462,
                -0.7815331731690387
            ]
        },
        {
            "positions": [
                -0.938971615700933,
                -2.144649010772224,
                1.7822102353150484,
                -0.9734849376266673,
                0.6078465225421498,
                -0.9454659585483131
            ]
        },
        {
            "positions": [
                -0.8630533773760627,
                -2.0722456898166826,
                1.7946653934261023,
                -0.9552175292272169,
                0.5736706794784533,
                -1.1093987439275874
            ]
        },
        {
            "positions": [
                -0.7871351390511925,
                -1.9998423688611409,
                1.8071205515371564,
                -0.9369501208277666,
                0.5394948364147568,
                -1.2733315293068619
            ]
        },
        {
            "positions": [
                -0.7112169007263222,
                -1.9274390479055992,
                1.8195757096482106,
                -0.9186827124283162,
                0.5053189933510603,
                -1.4372643146861361
            ]
        },
        {
            "positions": [
                -0.6352986624014518,
                -1.8550357269500577,
                1.8320308677592647,
                -0.9004153040288659,
                0.4711431502873639,
                -1.6011971000654106
            ]
        },
        {
            "positions": [
                -0.5593804240765815,
                -1.782632405994516,
                1.8444860258703186,
                -0.8821478956294155,
                0.4369673072236674,
                -1.765129885444685
            ]
        },
        {
            "positions": [
                -0.4834621857517112,
                -1.7102290850389745,
                1.8569411839813728,
                -0.8638804872299652,
                0.40279146415997097,
                -1.9290626708239593
            ]
        },
        {
            "positions": [
                -0.40754394742684097,
                -1.6378257640834328,
                1.8693963420924269,
                -0.8456130788305148,
                0.3686156210962745,
                -2.0929954562032336
            ]
        },
        {
            "positions": [
                -0.33162570910197064,
                -1.5654224431278914,
                1.881851500203481,
                -0.8273456704310646,
                0.334439778032578,
                -2.256928241582508
            ]
        },
        {
            "positions": [
                -0.2557074707771003,
                -1.4930191221723499,
                1.894306658314535,
                -0.8090782620316141,
                0.3002639349688816,
                -2.4208610269617825
            ]
        },
        {
            "positions": [
                -0.1797892324522301,
                -1.4206158012168082,
                1.906761816425589,
                -0.7908108536321639,
                0.2660880919051851,
                -2.584793812341057
            ]
        },
        {
            "positions": [
                -0.10387099412735967,
                -1.3482124802612665,
                1.9192169745366432,
                -0.7725434452327135,
                0.2319122488414886,
                -2.7487265977203315
            ]
        },
        {
            "positions": [
                -0.02795275580248935,
                -1.275809159305725,
                1.931672132647697,
                -0.7542760368332632,
                0.1977364057777921,
                -2.912659383099606
            ]
        },
        {
            "positions": [
                0.047965482522380976,
                -1.2034058383501833,
                1.9441272907587512,
                -0.7360086284338128,
                0.1635605627140957,
                -3.07659216847888
            ]
        },
        {
            "positions": [
                0.12388372084725117,
                -1.1310025173946419,
                1.9565824488698054,
                -0.7177412200343625,
                0.1293847196503992,
                -3.2405249538581544
            ]
        }
    ]
}