{
    "goal": {
        "global_pose": {
            "orientation": {
                "w": 0.7047431468963623,
                "x": -0.7094548344612122,
                "y": 0.0024358443915843964,
                "z": -0.0022348060738295317
            },
            "position": {
                "x": 0.6094750761985779,
                "y": 0.3671506643295288,
                "z": 0.19426114857196808
            }
        },
        "name": "move_to_magneteinheit_A"
    },
    "id": "SPARS_move_to_magneteinheit_A_52",
    "joint_names": [
        "shoulder_pan_joint",
        "shoulder_lift_joint",
        "elbow_joint",
        "wrist_1_joint",
        "wrist_2_joint",
        "wrist_3_joint"
    ],
    "metrics": {
        "cart_traj_len": 3.778882759009497,
        "distance_elbow_joint": 3.901557163047304,
        "distance_shoulder_lift_joint": 0.49595313912577876,
        "distance_shoulder_pan_joint": 2.992435218723167,
        "distance_wrist_1_joint": 1.1511927610401822,
        "distance_wrist_2_joint": 2.20645554444277,
        "distance_wrist_3_joint": 3.929659517574883,
        "smoothness": 0.5468374641822182,
        "time": 5.071111152,
        "traj_len": 3.8310903596696972,
        "weighted_distance": 5.088636426842343
    },
    "planner": "SPARS",
    "start": {
        "state": {
            "elbow_joint": -1.919618573717145,
            "shoulder_lift_joint": -1.2443395971678275,
            "shoulder_pan_joint": 2.6996025300909787,
            "wrist_1_joint": -1.548550951253194,
            "wrist_2_joint": -1.5709469090946802,
            "wrist_3_joint": 0.4420197732051276
        }
    },
    "waypoints": [
        {
            "positions": [
                2.6996025300909787,
                -1.2443395971678275,
                -1.919618573717145,
                -1.548550951253194,
                -1.5709469090946802,
                0.4420197732051276
            ]
        },
        {
            "positions": [
                2.585508713971909,
                -1.2608584582160822,
                -1.8591732254502313,
                -1.5567823393035911,
                -1.4959775213203974,
                0.3351198926377834
            ]
        },
        {
            "positions": [
                2.4714148978528394,
                -1.277377319264337,
                -1.798727877183318,
                -1.5650137273539884,
                -1.4210081335461147,
                0.2282200120704392
            ]
        },
        {
            "positions": [
                2.3573210817337698,
                -1.2938961803125917,
                -1.7382825289164043,
                -1.5732451154043854,
                -1.346038745771832,
                0.12132013150309501
            ]
        },
        {
            "positions": [
                2.2432272656147,
                -1.3104150413608464,
                -1.677837180649491,
                -1.5814765034547824,
                -1.2710693579975492,
                0.014420250935750833
            ]
        },
        {
            "positions": [
                2.1291334494956304,
                -1.3269339024091011,
                -1.6173918323825773,
                -1.5897078915051797,
                -1.1960999702232662,
                -0.09247962963159345
            ]
        },
        {
            "positions": [
                2.015039633376561,
                -1.3434527634573556,
                -1.556946484115664,
                -1.5979392795555767,
                -1.1211305824489834,
                -0.19937951019893757
            ]
        },
        {
            "positions": [
                1.9009458172574913,
                -1.3599716245056104,
                -1.4965011358487503,
                -1.6061706676059737,
                -1.0461611946747005,
                -0.3062793907662818
            ]
        },
        {
            "positions": [
                1.786852001138422,
                -1.376490485553865,
                -1.4360557875818367,
                -1.614402055656371,
                -0.971191806900418,
                -0.4131792713336259
            ]
        },
        {
            "positions": [
                1.6727581850193523,
                -1.3930093466021198,
                -1.3756104393149233,
                -1.622633443706768,
                -0.8962224191261351,
                -0.5200791519009702
            ]
        },
        {
            "positions": [
                1.5586643689002824,
                -1.4095282076503746,
                -1.3151650910480097,
                -1.630864831757165,
                -0.8212530313518522,
                -0.6269790324683144
            ]
        },
        {
            "positions": [
                1.444570552781213,
                -1.4260470686986293,
                -1.2547197427810963,
                -1.6390962198075623,
                -0.7462836435775696,
                -0.7338789130356584
            ]
        },
        {
            "positions": [
                1.3304767366621433,
                -1.442565929746884,
                -1.1942743945141827,
                -1.6473276078579593,
                -0.6713142558032867,
                -0.8407787936030027
            ]
        },
        {
            "positions": [
                1.2689599492497237,
                -1.4353335806278305,
                -1.0619932659070017,
                -1.6067930402348847,
                -0.6254991267540222,
                -0.9483091047524731
            ]
        },
        {
            "positions": [
                1.2074431618373038,
                -1.4281012315087769,
                -0.9297121372998209,
                -1.56625847261181,
                -0.5796839977047576,
                -1.0558394159019435
            ]
        },
        {
            "positions": [
                1.1459263744248842,
                -1.420868882389723,
                -0.7974310086926399,
                -1.5257239049887357,
                -0.5338688686554931,
                -1.163369727051414
            ]
        },
        {
            "positions": [
                1.0844095870124644,
                -1.4136365332706695,
                -0.665149880085459,
                -1.485189337365661,
                -0.4880537396062286,
                -1.2709000382008844
            ]
        },
        {
            "positions": [
                1.0228927996000448,
                -1.406404184151616,
                -0.5328687514782781,
                -1.4446547697425864,
                -0.44223861055696406,
                -1.378430349350355
            ]
        },
        {
            "positions": [
                0.961376012187625,
                -1.3991718350325624,
                -0.40058762287109717,
                -1.404120202119512,
                -0.3964234815076995,
                -1.4859606604998254
            ]
        },
        {
            "positions": [
                0.8998592247752053,
                -1.3919394859135086,
                -0.2683064942639162,
                -1.3635856344964372,
                -0.35060835245843497,
                -1.5934909716492958
            ]
        },
        {
            "positions": [
                0.8383424373627856,
                -1.384707136794455,
                -0.1360253656567354,
                -1.3230510668733628,
                -0.3047932234091705,
                -1.7010212827987663
            ]
        },
        {
            "positions": [
                0.7768256499503658,
                -1.3774747876754014,
                -0.0037442370495543997,
                -1.2825164992502882,
                -0.2589780943599059,
                -1.8085515939482368
            ]
        },
        {
            "positions": [
                0.7153088625379461,
                -1.3702424385563479,
                0.1285368915576266,
                -1.2419819316272136,
                -0.21316296531064138,
                -1.9160819050977071
            ]
        },
        {
            "positions": [
                0.6537920751255264,
                -1.3630100894372943,
                0.2608180201648076,
                -1.2014473640041392,
                -0.16734783626137684,
                -2.0236122162471775
            ]
        },
        {
            "positions": [
                0.5922752877131068,
                -1.3557777403182405,
                0.39309914877198837,
                -1.1609127963810646,
                -0.12153270721211229,
                -2.131142527396648
            ]
        },
        {
            "positions": [
                0.530758500300687,
                -1.348545391199187,
                0.5253802773791691,
                -1.12037822875799,
                -0.07571757816284785,
                -2.238672838546118
            ]
        },
        {
            "positions": [
                0.4692417128882672,
                -1.3413130420801334,
                0.6576614059863504,
                -1.0798436611349154,
                -0.029902449113583196,
                -2.3462031496955893
            ]
        },
        {
            "positions": [
                0.4077249254758476,
                -1.3340806929610798,
                0.7899425345935314,
                -1.0393090935118408,
                0.01591267993568135,
                -2.4537334608450596
            ]
        },
        {
            "positions": [
                0.3462081380634279,
                -1.3268483438420262,
                0.9222236632007119,
                -0.9987745258887664,
                0.06172780898494579,
                -2.56126377199453
            ]
        },
        {
            "positions": [
                0.28469135065100826,
                -1.3196159947229724,
                1.0545047918078931,
                -0.9582399582656919,
                0.10754293803421033,
                -2.6687940831440002
            ]
        },
        {
            "positions": [
                0.22317456323858842,
                -1.3123836456039188,
                1.186785920415074,
                -0.9177053906426171,
                0.153358067083475,
                -2.7763243942934706
            ]
        },
        {
            "positions": [
                0.1616577758261688,
                -1.3051512964848653,
                1.3190670490222551,
                -0.8771708230195426,
                0.19917319613273943,
                -2.8838547054429413
            ]
        },
        {
            "positions": [
                0.10014098841374897,
                -1.2979189473658117,
                1.451348177629436,
                -0.8366362553964681,
                0.24498832518200397,
                -2.9913850165924116
            ]
        },
        {
            "positions": [
                0.03862420100132935,
                -1.290686598246758,
                1.5836293062366167,
                -0.7961016877733935,
                0.2908034542312685,
                -3.098915327741882
            ]
        },
        {
            "positions": [
                -0.022892586411090488,
                -1.2834542491277043,
                1.715910434843798,
                -0.7555671201503189,
                0.33661858328053307,
                -3.2064456388913527
            ]
        },
        {
            "positions": [
                -0.0844093738235102,
                -1.2762219000086508,
                1.8481915634509787,
                -0.7150325525272444,
                0.3824337123297977,
                -3.313975950040823
            ]
        },
        {
            "positions": [
                -0.014934935553951159,
                -1.2324276410724877,
                1.8927739054107053,
                -0.7550729022288117,
                0.29807540465703375,
                -3.256088018597845
            ]
        },
        {
            "positions": [
                0.05453950271560788,
                -1.1886333821363249,
                1.9373562473704318,
                -0.7951132519303791,
                0.21371709698426974,
                -3.1982000871548677
            ]
        },
        {
            "positions": [
                0.12401394098516692,
                -1.1448391232001618,
                1.9819385893301584,
                -0.8351536016319464,
                0.12935878931150574,
                -3.14031215571189
            ]
        }
    ]
}{
    "goal": {
        "global_pose": {
            "orientation": {
                "w": 0.7047431468963623,
                "x": -0.7094548344612122,
                "y": 0.0024358443915843964,
                "z": -0.0022348060738295317
            },
            "position": {
                "x": 0.6094750761985779,
                "y": 0.3671506643295288,
                "z": 0.19426114857196808
            }
        },
        "name": "move_to_magneteinheit_A"
    },
    "id": "SPARS_move_to_magneteinheit_A_52",
    "joint_names": [
        "shoulder_pan_joint",
        "shoulder_lift_joint",
        "elbow_joint",
        "wrist_1_joint",
        "wrist_2_joint",
        "wrist_3_joint"
    ],
    "metrics": {
        "cart_traj_len": 2.139497514664383,
        "distance_elbow_joint": 2.735557628927533,
        "distance_shoulder_lift_joint": 0.7504024105015774,
        "distance_shoulder_pan_joint": 1.4193736937516923,
        "distance_wrist_1_joint": 1.6375575215491849,
        "distance_wrist_2_joint": 1.4320259291232789,
        "distance_wrist_3_joint": 4.263723504558983,
        "smoothness": 0.31903261069078775,
        "time": 5.032246375,
        "traj_len": 3.4983768648349267,
        "weighted_distance": 4.882178934472054
    },
    "planner": "SPARS",
    "start": {
        "state": {
            "elbow_joint": 1.919643534880228,
            "shoulder_lift_joint": -1.8972525353963687,
            "shoulder_pan_joint": -1.1188672234189438,
            "wrist_1_joint": -1.5931878212786155,
            "wrist_2_joint": 1.5706036197970081,
            "wrist_3_joint": 1.118896926603594
        }
    },
    "waypoints": [
        {
            "positions": [
                -1.1188672234189438,
                -1.8972525353963687,
                1.919643534880228,
                -1.5931878212786155,
                1.5706036197970081,
                1.118896926603594
            ]
        },
        {
            "positions": [
                -1.1277704832137605,
                -1.8295663064249297,
                1.7860906317015546,
                -1.6370904233612282,
                1.4966216715058525,
                1.0511407428989747
            ]
        },
        {
            "positions": [
                -1.1366737430085774,
                -1.7618800774534908,
                1.6525377285228813,
                -1.680993025443841,
                1.4226397232146966,
                0.9833845591943557
            ]
        },
        {
            "positions": [
                -1.145577002803394,
                -1.694193848482052,
                1.5189848253442078,
                -1.7248956275264538,
                1.3486577749235409,
                0.9156283754897366
            ]
        },
        {
            "positions": [
                -1.1544802625982107,
                -1.626507619510613,
                1.3854319221655342,
                -1.7687982296090665,
                1.274675826632385,
                0.8478721917851175
            ]
        },
        {
            "positions": [
                -1.1633835223930276,
                -1.558821390539174,
                1.2518790189868607,
                -1.812700831691679,
                1.2006938783412293,
                0.7801160080804983
            ]
        },
        {
            "positions": [
                -1.1722867821878442,
                -1.491135161567735,
                1.1183261158081874,
                -1.8566034337742918,
                1.1267119300500736,
                0.7123598243758793
            ]
        },
        {
            "positions": [
                -1.1811900419826609,
                -1.4234489325962962,
                0.984773212629514,
                -1.9005060358569046,
                1.052729981758918,
                0.6446036406712601
            ]
        },
        {
            "positions": [
                -1.1900933017774775,
                -1.3557627036248572,
                0.8512203094508404,
                -1.9444086379395173,
                0.978748033467762,
                0.576847456966641
            ]
        },
        {
            "positions": [
                -1.1989965615722944,
                -1.2880764746534181,
                0.7176674062721671,
                -1.98831124002213,
                0.9047660851766063,
                0.5090912732620219
            ]
        },
        {
            "positions": [
                -1.207899821367111,
                -1.2203902456819793,
                0.5841145030934936,
                -2.032213842104743,
                0.8307841368854505,
                0.44133508955740275
            ]
        },
        {
            "positions": [
                -1.144550245376467,
                -1.2168883351683037,
                0.6507825315287696,
                -1.9751409134988829,
                0.7978219251610829,
                0.2705654863425079
            ]
        },
        {
            "positions": [
                -1.081200669385823,
                -1.213386424654628,
                0.7174505599640457,
                -1.918067984893023,
                0.7648597134367152,
                0.09979588312761306
            ]
        },
        {
            "positions": [
                -1.017851093395179,
                -1.2098845141409524,
                0.7841185883993218,
                -1.8609950562871633,
                0.7318975017123476,
                -0.07097372008728176
            ]
        },
        {
            "positions": [
                -0.9545015174045348,
                -1.206382603627277,
                0.8507866168345979,
                -1.8039221276813033,
                0.6989352899879799,
                -0.24174332330217663
            ]
        },
        {
            "positions": [
                -0.8911519414138909,
                -1.2028806931136011,
                0.917454645269874,
                -1.7468491990754433,
                0.6659730782636122,
                -0.4125129265170715
            ]
        },
        {
            "positions": [
                -0.8278023654232467,
                -1.1993787825999256,
                0.98412267370515,
                -1.6897762704695836,
                0.6330108665392445,
                -0.5832825297319663
            ]
        },
        {
            "positions": [
                -0.7644527894326028,
                -1.19587687208625,
                1.0507907021404261,
                -1.6327033418637238,
                0.6000486548148769,
                -0.7540521329468611
            ]
        },
        {
            "positions": [
                -0.7011032134419587,
                -1.1923749615725743,
                1.1174587305757022,
                -1.5756304132578638,
                0.5670864430905093,
                -0.924821736161756
            ]
        },
        {
            "positions": [
                -0.6377536374513146,
                -1.1888730510588987,
                1.1841267590109785,
                -1.5185574846520038,
                0.5341242313661416,
                -1.095591339376651
            ]
        },
        {
            "positions": [
                -0.5744040614606706,
                -1.1853711405452232,
                1.2507947874462544,
                -1.461484556046144,
                0.5011620196417739,
                -1.2663609425915459
            ]
        },
        {
            "positions": [
                -0.5110544854700264,
                -1.1818692300315474,
                1.3174628158815307,
                -1.404411627440284,
                0.4681998079174063,
                -1.4371305458064407
            ]
        },
        {
            "positions": [
                -0.44770490947938246,
                -1.1783673195178719,
                1.3841308443168066,
                -1.3473386988344243,
                0.43523759619303864,
                -1.6079001490213352
            ]
        },
        {
            "positions": [
                -0.3843553334887383,
                -1.1748654090041963,
                1.4507988727520829,
                -1.2902657702285643,
                0.40227538446867095,
                -1.7786697522362305
            ]
        },
        {
            "positions": [
                -0.32100575749809435,
                -1.1713634984905206,
                1.5174669011873587,
                -1.2331928416227045,
                0.3693131727443033,
                -1.949439355451125
            ]
        },
        {
            "positions": [
                -0.2576561815074503,
                -1.167861587976845,
                1.584134929622635,
                -1.1761199130168445,
                0.33635096101993567,
                -2.1202089586660198
            ]
        },
        {
            "positions": [
                -0.19430660551680634,
                -1.1643596774631695,
                1.6508029580579109,
                -1.1190469844109847,
                0.303388749295568,
                -2.2909785618809146
            ]
        },
        {
            "positions": [
                -0.13095702952616217,
                -1.1608577669494937,
                1.7174709864931872,
                -1.0619740558051247,
                0.2704265375712004,
                -2.4617481650958095
            ]
        },
        {
            "positions": [
                -0.06760745353551822,
                -1.1573558564358182,
                1.7841390149284633,
                -1.004901127199265,
                0.23746432584683275,
                -2.6325177683107044
            ]
        },
        {
            "positions": [
                -0.004257877544874056,
                -1.1538539459221426,
                1.8508070433637394,
                -0.947828198593405,
                0.204502114122465,
                -2.8032873715255993
            ]
        },
        {
            "positions": [
                0.05909169844576989,
                -1.1503520354084669,
                1.9174750717990154,
                -0.8907552699875452,
                0.17153990239809735,
                -2.974056974740494
            ]
        },
        {
            "positions": [
                0.12244127443641413,
                -1.1468501248947913,
                1.9841431002342915,
                -0.8336823413816853,
                0.13857769067372977,
                -3.144826577955389
            ]
        }
    ]
}