{
    "goal": {
        "global_pose": {
            "orientation": {
                "w": 0.5084816217422485,
                "x": -0.49083608388900757,
                "y": 0.5182115435600281,
                "z": -0.4816462993621826
            },
            "position": {
                "x": 0.5540239810943604,
                "y": 0.030875300988554955,
                "z": 0.16403168439865112
            }
        },
        "name": "move_to_storage_A"
    },
    "id": "SPARS_move_to_storage_A_148",
    "joint_names": [
        "shoulder_pan_joint",
        "shoulder_lift_joint",
        "elbow_joint",
        "wrist_1_joint",
        "wrist_2_joint",
        "wrist_3_joint"
    ],
    "metrics": {
        "cart_traj_len": 0.3530010000611484,
        "distance_elbow_joint": 0.45084717902188753,
        "distance_shoulder_lift_joint": 0.23414619379569723,
        "distance_shoulder_pan_joint": 0.46109350850851943,
        "distance_wrist_1_joint": 0.24186429356552186,
        "distance_wrist_2_joint": 1.1013192758053445,
        "distance_wrist_3_joint": 0.10575197976370232,
        "smoothness": 4.440892098500626e-16,
        "time": 5.0194451550000005,
        "traj_len": 1.6109073314317843,
        "weighted_distance": 2.037083689826941
    },
    "planner": "SPARS",
    "start": {
        "state": {
            "elbow_joint": 1.9715477243005601,
            "shoulder_lift_joint": -1.1394853015351272,
            "shoulder_pan_joint": 0.12281154014795169,
            "wrist_1_joint": -0.7804696478968182,
            "wrist_2_joint": 0.12958648046900423,
            "wrist_3_joint": -3.192491284697111
        }
    },
    "waypoints": [
        {
            "positions": [
                0.12281154014795169,
                -1.1394853015351272,
                1.9715477243005601,
                -0.7804696478968182,
                0.12958648046900423,
                -3.192491284697111
            ]
        },
        {
            "positions": [
                0.05694103893244892,
                -1.1729347577916553,
                2.0359544641608296,
                -0.8150216898347499,
                0.28691780558405344,
                -3.177383859016582
            ]
        },
        {
            "positions": [
                -0.008929462283053843,
                -1.2063842140481835,
                2.1003612040210995,
                -0.8495737317726816,
                0.44424913069910266,
                -3.1622764333360536
            ]
        },
        {
            "positions": [
                -0.07479996349855662,
                -1.2398336703047117,
                2.164767943881369,
                -0.8841257737106132,
                0.6015804558141519,
                -3.1471690076555245
            ]
        },
        {
            "positions": [
                -0.14067046471405936,
                -1.2732831265612399,
                2.229174683741639,
                -0.9186778156485449,
                0.7589117809292011,
                -3.1320615819749955
            ]
        },
        {
            "positions": [
                -0.20654096592956217,
                -1.306732582817768,
                2.2935814236019083,
                -0.9532298575864766,
                0.9162431060442503,
                -3.1169541562944665
            ]
        },
        {
            "positions": [
                -0.2724114671450649,
                -1.3401820390742962,
                2.3579881634621778,
                -0.9877818995244083,
                1.0735744311592996,
                -3.101846730613938
            ]
        },
        {
            "positions": [
                -0.33828196836056773,
                -1.3736314953308244,
                2.4223949033224477,
                -1.02233394146234,
                1.2309057562743486,
                -3.086739304933409
            ]
        }
    ]
}