{
    "goal": {
        "global_pose": {
            "orientation": {
                "w": 0.5084816217422485,
                "x": -0.49083608388900757,
                "y": 0.5182115435600281,
                "z": -0.4816462993621826
            },
            "position": {
                "x": 0.5540239810943604,
                "y": 0.030875300988554955,
                "z": 0.16403168439865112
            }
        },
        "name": "move_to_storage_A"
    },
    "id": "SPARS_move_to_storage_A_115",
    "joint_names": [
        "shoulder_pan_joint",
        "shoulder_lift_joint",
        "elbow_joint",
        "wrist_1_joint",
        "wrist_2_joint",
        "wrist_3_joint"
    ],
    "metrics": {
        "cart_traj_len": 0.35338423613260095,
        "distance_elbow_joint": 0.45392932987262435,
        "distance_shoulder_lift_joint": 0.23577135274206373,
        "distance_shoulder_pan_joint": 0.4638372870537691,
        "distance_wrist_1_joint": 0.2573795029991305,
        "distance_wrist_2_joint": 1.0929703281603844,
        "distance_wrist_3_joint": 0.10922132760858938,
        "smoothness": 4.440892098500626e-16,
        "time": 5.042498147,
        "traj_len": 1.6165114068377502,
        "weighted_distance": 2.0449698322501617
    },
    "planner": "SPARS",
    "start": {
        "state": {
            "elbow_joint": 1.9715477243005601,
            "shoulder_lift_joint": -1.1394853015351272,
            "shoulder_pan_joint": 0.12281154014795169,
            "wrist_1_joint": -0.7804696478968182,
            "wrist_2_joint": 0.12958648046900423,
            "wrist_3_joint": -3.192491284697111
        }
    },
    "waypoints": [
        {
            "positions": [
                0.12281154014795169,
                -1.1394853015351272,
                1.9715477243005601,
                -0.7804696478968182,
                0.12958648046900423,
                -3.192491284697111
            ]
        },
        {
            "positions": [
                0.05654907056884183,
                -1.173166923355422,
                2.0363947714252206,
                -0.8172381483252654,
                0.2857250987776305,
                -3.1768882378958843
            ]
        },
        {
            "positions": [
                -0.009713399010268034,
                -1.2068485451757167,
                2.1012418185498816,
                -0.8540066487537126,
                0.4418637170862569,
                -3.161285191094657
            ]
        },
        {
            "positions": [
                -0.0759758685893779,
                -1.2405301669960116,
                2.166088865674542,
                -0.8907751491821598,
                0.5980023353948832,
                -3.14568214429343
            ]
        },
        {
            "positions": [
                -0.14223833816848774,
                -1.2742117888163065,
                2.2309359127992026,
                -0.927543649610607,
                0.7541409537035095,
                -3.130079097492203
            ]
        },
        {
            "positions": [
                -0.20850080774759766,
                -1.3078934106366014,
                2.295782959923863,
                -0.9643121500390542,
                0.9102795720121359,
                -3.114476050690976
            ]
        },
        {
            "positions": [
                -0.27476327732670747,
                -1.341575032456896,
                2.360630007048524,
                -1.0010806504675014,
                1.0664181903207623,
                -3.0988730038897487
            ]
        },
        {
            "positions": [
                -0.3410257469058174,
                -1.375256654277191,
                2.4254770541731845,
                -1.0378491508959486,
                1.2225568086293888,
                -3.083269957088522
            ]
        }
    ]
}