{
    "goal": {
        "global_pose": {
            "orientation": {
                "w": 0.5084816217422485,
                "x": -0.49083608388900757,
                "y": 0.5182115435600281,
                "z": -0.4816462993621826
            },
            "position": {
                "x": 0.5540239810943604,
                "y": 0.030875300988554955,
                "z": 0.16403168439865112
            }
        },
        "name": "move_to_storage_A"
    },
    "id": "STRIDE_move_to_storage_A_39",
    "joint_names": [
        "shoulder_pan_joint",
        "shoulder_lift_joint",
        "elbow_joint",
        "wrist_1_joint",
        "wrist_2_joint",
        "wrist_3_joint"
    ],
    "metrics": {
        "cart_traj_len": 0.35346543941135444,
        "distance_elbow_joint": 0.45140933865855004,
        "distance_shoulder_lift_joint": 0.23321214388350842,
        "distance_shoulder_pan_joint": 0.4583752660296083,
        "distance_wrist_1_joint": 0.2555302645335894,
        "distance_wrist_2_joint": 1.1151542216212156,
        "distance_wrist_3_joint": 0.09687392179025744,
        "smoothness": 0.0,
        "time": 0.029789803999999996,
        "traj_len": 1.6157212496333422,
        "weighted_distance": 2.0432786119988746
    },
    "planner": "STRIDE",
    "start": {
        "state": {
            "elbow_joint": 1.9715477243005601,
            "shoulder_lift_joint": -1.1394853015351272,
            "shoulder_pan_joint": 0.12281154014795169,
            "wrist_1_joint": -0.7804696478968182,
            "wrist_2_joint": 0.12958648046900423,
            "wrist_3_joint": -3.192491284697111
        }
    },
    "waypoints": [
        {
            "positions": [
                0.12281154014795169,
                -1.1394853015351272,
                1.9715477243005601,
                -0.7804696478968182,
                0.12958648046900423,
                -3.192491284697111
            ]
        },
        {
            "positions": [
                0.057329359286579076,
                -1.172801322089914,
                2.036034772680353,
                -0.8169739714016166,
                0.28889422641489215,
                -3.1786521530127887
            ]
        },
        {
            "positions": [
                -0.008152821574793537,
                -1.206117342644701,
                2.1005218210601457,
                -0.8534782949064151,
                0.4482019723607801,
                -3.164813021328466
            ]
        },
        {
            "positions": [
                -0.07363500243616615,
                -1.2394333631994878,
                2.1650088694399385,
                -0.8899826184112136,
                0.607509718306668,
                -3.1509738896441437
            ]
        },
        {
            "positions": [
                -0.13911718329753875,
                -1.2727493837542747,
                2.2294959178197313,
                -0.9264869419160121,
                0.7668174642525559,
                -3.137134757959821
            ]
        },
        {
            "positions": [
                -0.2045993641589114,
                -1.3060654043090618,
                2.2939829661995246,
                -0.9629912654208106,
                0.926125210198444,
                -3.1232956262754987
            ]
        },
        {
            "positions": [
                -0.270081545020284,
                -1.3393814248638487,
                2.3584700145793174,
                -0.9994955889256091,
                1.0854329561443317,
                -3.1094564945911762
            ]
        },
        {
            "positions": [
                -0.3355637258816566,
                -1.3726974454186356,
                2.42295706295911,
                -1.0359999124304076,
                1.2447407020902197,
                -3.0956173629068537
            ]
        }
    ]
}