{
    "goal": {
        "global_pose": {
            "orientation": {
                "w": 0.7047431468963623,
                "x": -0.7094548344612122,
                "y": 0.0024358443915843964,
                "z": -0.0022348060738295317
            },
            "position": {
                "x": 0.6094750761985779,
                "y": 0.3671506643295288,
                "z": 0.19426114857196808
            }
        },
        "name": "move_to_magneteinheit_A"
    },
    "id": "STRIDE_move_to_magneteinheit_A_43",
    "joint_names": [
        "shoulder_pan_joint",
        "shoulder_lift_joint",
        "elbow_joint",
        "wrist_1_joint",
        "wrist_2_joint",
        "wrist_3_joint"
    ],
    "metrics": {
        "cart_traj_len": 3.7236508428497106,
        "distance_elbow_joint": 3.87566851366621,
        "distance_shoulder_lift_joint": 0.11386610573818645,
        "distance_shoulder_pan_joint": 3.1612822827548337,
        "distance_wrist_1_joint": 0.8957495993826181,
        "distance_wrist_2_joint": 1.9581244751305413,
        "distance_wrist_3_joint": 3.699099043236877,
        "smoothness": 0.27837228736278297,
        "time": 0.438290379,
        "traj_len": 3.7018630471573735,
        "weighted_distance": 4.8944726151952445
    },
    "planner": "STRIDE",
    "start": {
        "state": {
            "elbow_joint": -1.919618573717145,
            "shoulder_lift_joint": -1.2443395971678275,
            "shoulder_pan_joint": 2.6996025300909787,
            "wrist_1_joint": -1.548550951253194,
            "wrist_2_joint": -1.5709469090946802,
            "wrist_3_joint": 0.4420197732051276
        }
    },
    "waypoints": [
        {
            "positions": [
                2.6996025300909787,
                -1.2443395971678275,
                -1.919618573717145,
                -1.548550951253194,
                -1.5709469090946802,
                0.4420197732051276
            ]
        },
        {
            "positions": [
                2.6099380288760083,
                -1.2420562336099752,
                -1.8138171280916633,
                -1.5214316841592725,
                -1.5136803819639524,
                0.33940944720983257
            ]
        },
        {
            "positions": [
                2.520273527661038,
                -1.2397728700521229,
                -1.7080156824661816,
                -1.4943124170653512,
                -1.4564138548332244,
                0.23679912121453756
            ]
        },
        {
            "positions": [
                2.430609026446067,
                -1.2374895064942708,
                -1.6022142368407,
                -1.46719314997143,
                -1.3991473277024966,
                0.13418879521924254
            ]
        },
        {
            "positions": [
                2.3409445252310968,
                -1.2352061429364185,
                -1.4964127912152183,
                -1.4400738828775084,
                -1.3418808005717686,
                0.031578469223947525
            ]
        },
        {
            "positions": [
                2.2512800240161264,
                -1.2329227793785662,
                -1.3906113455897366,
                -1.4129546157835868,
                -1.2846142734410408,
                -0.07103185677134755
            ]
        },
        {
            "positions": [
                2.161615522801156,
                -1.230639415820714,
                -1.2848098999642548,
                -1.3858353486896655,
                -1.227347746310313,
                -0.1736421827666425
            ]
        },
        {
            "positions": [
                2.0719510215861856,
                -1.2283560522628618,
                -1.1790084543387733,
                -1.3587160815957442,
                -1.170081219179585,
                -0.27625250876193747
            ]
        },
        {
            "positions": [
                1.982286520371215,
                -1.2260726887050095,
                -1.0732070087132914,
                -1.3315968145018227,
                -1.112814692048857,
                -0.37886283475723254
            ]
        },
        {
            "positions": [
                1.8926220191562444,
                -1.2237893251471572,
                -0.9674055630878099,
                -1.3044775474079011,
                -1.0555481649181293,
                -0.4814731607525276
            ]
        },
        {
            "positions": [
                1.802957517941274,
                -1.221505961589305,
                -0.8616041174623281,
                -1.2773582803139798,
                -0.9982816377874014,
                -0.5840834867478226
            ]
        },
        {
            "positions": [
                1.7132930167263036,
                -1.2192225980314526,
                -0.7558026718368465,
                -1.2502390132200585,
                -0.9410151106566735,
                -0.6866938127431175
            ]
        },
        {
            "positions": [
                1.6236285155113332,
                -1.2169392344736005,
                -0.6500012262113648,
                -1.223119746126137,
                -0.8837485835259458,
                -0.7893041387384125
            ]
        },
        {
            "positions": [
                1.5339640142963626,
                -1.2146558709157482,
                -0.5441997805858831,
                -1.1960004790322154,
                -0.8264820563952179,
                -0.8919144647337076
            ]
        },
        {
            "positions": [
                1.4442995130813923,
                -1.212372507357896,
                -0.4383983349604015,
                -1.168881211938294,
                -0.76921552926449,
                -0.9945247907290025
            ]
        },
        {
            "positions": [
                1.3546350118664217,
                -1.2100891438000436,
                -0.3325968893349198,
                -1.1417619448443728,
                -0.7119490021337621,
                -1.0971351167242975
            ]
        },
        {
            "positions": [
                1.2649705106514513,
                -1.2078057802421913,
                -0.22679544370943816,
                -1.1146426777504512,
                -0.6546824750030342,
                -1.1997454427195926
            ]
        },
        {
            "positions": [
                1.175306009436481,
                -1.2055224166843392,
                -0.1209939980839565,
                -1.0875234106565297,
                -0.5974159478723063,
                -1.3023557687148877
            ]
        },
        {
            "positions": [
                1.0856415082215103,
                -1.203239053126487,
                -0.01519255245847484,
                -1.0604041435626084,
                -0.5401494207415785,
                -1.4049660947101827
            ]
        },
        {
            "positions": [
                0.9959770070065399,
                -1.2009556895686346,
                0.09060889316700682,
                -1.033284876468687,
                -0.4828828936108507,
                -1.5075764207054776
            ]
        },
        {
            "positions": [
                0.9063125057915693,
                -1.1986723260107823,
                0.1964103387924887,
                -1.0061656093747655,
                -0.4256163664801227,
                -1.6101867467007729
            ]
        },
        {
            "positions": [
                0.8166480045765989,
                -1.1963889624529302,
                0.30221178441797014,
                -0.9790463422808441,
                -0.3683498393493949,
                -1.7127970726960675
            ]
        },
        {
            "positions": [
                0.7269835033616285,
                -1.194105598895078,
                0.408013230043452,
                -0.9519270751869227,
                -0.3110833122186669,
                -1.8154073986913626
            ]
        },
        {
            "positions": [
                0.6373190021466582,
                -1.1918222353372256,
                0.5138146756689335,
                -0.9248078080930012,
                -0.25381678508793915,
                -1.9180177246866577
            ]
        },
        {
            "positions": [
                0.5476545009316878,
                -1.1895388717793733,
                0.6196161212944153,
                -0.8976885409990798,
                -0.19655025795721137,
                -2.0206280506819527
            ]
        },
        {
            "positions": [
                0.45798999971671694,
                -1.187255508221521,
                0.7254175669198968,
                -0.8705692739051584,
                -0.13928373082648338,
                -2.123238376677248
            ]
        },
        {
            "positions": [
                0.36832549850174656,
                -1.184972144663669,
                0.8312190125453787,
                -0.8434500068112369,
                -0.0820172036957556,
                -2.225848702672543
            ]
        },
        {
            "positions": [
                0.2786609972867762,
                -1.1826887811058167,
                0.9370204581708601,
                -0.8163307397173155,
                -0.024750676565027607,
                -2.328459028667838
            ]
        },
        {
            "positions": [
                0.1889964960718058,
                -1.1804054175479644,
                1.042821903796342,
                -0.7892114726233941,
                0.032515850565700166,
                -2.4310693546631326
            ]
        },
        {
            "positions": [
                0.09933199485683541,
                -1.178122053990112,
                1.1486233494218234,
                -0.7620922055294727,
                0.08978237769642816,
                -2.5336796806584276
            ]
        },
        {
            "positions": [
                0.009667493641864588,
                -1.17583869043226,
                1.2544247950473053,
                -0.7349729384355512,
                0.14704890482715594,
                -2.6362900066537227
            ]
        },
        {
            "positions": [
                -0.0799970075731058,
                -1.1735553268744077,
                1.3602262406727867,
                -0.7078536713416298,
                0.20431543195788393,
                -2.7389003326490178
            ]
        },
        {
            "positions": [
                -0.16966150878807612,
                -1.1712719633165554,
                1.4660276862982686,
                -0.6807344042477084,
                0.2615819590886118,
                -2.841510658644313
            ]
        },
        {
            "positions": [
                -0.09665694781913141,
                -1.1610723453448268,
                1.5885332497109679,
                -0.6877176673419915,
                0.23018305735179945,
                -2.945402811491172
            ]
        },
        {
            "positions": [
                -0.023652386850186696,
                -1.1508727273730983,
                1.711038813123667,
                -0.6947009304362746,
                0.19878415561498705,
                -3.0492949643380314
            ]
        },
        {
            "positions": [
                0.04935217411875803,
                -1.1406731094013696,
                1.8335443765363661,
                -0.7016841935305577,
                0.16738525387817466,
                -3.15318711718489
            ]
        },
        {
            "positions": [
                0.12235673508770274,
                -1.130473491429641,
                1.9560499399490654,
                -0.7086674566248408,
                0.1359863521413623,
                -3.2570792700317495
            ]
        }
    ]
}{
    "goal": {
        "global_pose": {
            "orientation": {
                "w": 0.7047431468963623,
                "x": -0.7094548344612122,
                "y": 0.0024358443915843964,
                "z": -0.0022348060738295317
            },
            "position": {
                "x": 0.6094750761985779,
                "y": 0.3671506643295288,
                "z": 0.19426114857196808
            }
        },
        "name": "move_to_magneteinheit_A"
    },
    "id": "STRIDE_move_to_magneteinheit_A_43",
    "joint_names": [
        "shoulder_pan_joint",
        "shoulder_lift_joint",
        "elbow_joint",
        "wrist_1_joint",
        "wrist_2_joint",
        "wrist_3_joint"
    ],
    "metrics": {
        "cart_traj_len": 1.207696030662751,
        "distance_elbow_joint": 0.02932309472638739,
        "distance_shoulder_lift_joint": 0.7707969121009615,
        "distance_shoulder_pan_joint": 1.2413062985305228,
        "distance_wrist_1_joint": 0.9888922032058922,
        "distance_wrist_2_joint": 1.5520907649826072,
        "distance_wrist_3_joint": 4.391278803978583,
        "smoothness": 0.49261162177052176,
        "time": 0.921502539,
        "traj_len": 2.995611469721158,
        "weighted_distance": 4.505244572015
    },
    "planner": "STRIDE",
    "start": {
        "state": {
            "elbow_joint": 1.919643534880228,
            "shoulder_lift_joint": -1.8972525353963687,
            "shoulder_pan_joint": -1.1188672234189438,
            "wrist_1_joint": -1.5931878212786155,
            "wrist_2_joint": 1.5706036197970081,
            "wrist_3_joint": 1.118896926603594
        }
    },
    "waypoints": [
        {
            "positions": [
                -1.1188672234189438,
                -1.8972525353963687,
                1.919643534880228,
                -1.5931878212786155,
                1.5706036197970081,
                1.118896926603594
            ]
        },
        {
            "positions": [
                -1.065480366592161,
                -1.8645460203555042,
                1.9200360619011774,
                -1.5520371988831212,
                1.5054160308559266,
                0.9304803244337669
            ]
        },
        {
            "positions": [
                -1.012093509765378,
                -1.83183950531464,
                1.9204285889221264,
                -1.510886576487627,
                1.440228441914845,
                0.7420637222639399
            ]
        },
        {
            "positions": [
                -0.9587066529385952,
                -1.7991329902737754,
                1.9208211159430757,
                -1.4697359540921329,
                1.3750408529737634,
                0.5536471200941128
            ]
        },
        {
            "positions": [
                -0.9053197961118123,
                -1.766426475232911,
                1.9212136429640247,
                -1.4285853316966386,
                1.3098532640326819,
                0.36523051792428574
            ]
        },
        {
            "positions": [
                -0.8519329392850294,
                -1.7337199601920465,
                1.921606169984974,
                -1.3874347093011443,
                1.2446656750916003,
                0.1768139157544586
            ]
        },
        {
            "positions": [
                -0.7985460824582467,
                -1.7010134451511822,
                1.9219986970059233,
                -1.34628408690565,
                1.1794780861505187,
                -0.011602686415368435
            ]
        },
        {
            "positions": [
                -0.7451592256314638,
                -1.6683069301103177,
                1.9223912240268723,
                -1.3051334645101558,
                1.1142904972094372,
                -0.2000192885851957
            ]
        },
        {
            "positions": [
                -0.6917723688046808,
                -1.6356004150694534,
                1.9227837510478216,
                -1.2639828421146617,
                1.0491029082683558,
                -0.3884358907550225
            ]
        },
        {
            "positions": [
                -0.6383855119778981,
                -1.602893900028589,
                1.9231762780687707,
                -1.2228322197191674,
                0.9839153193272742,
                -0.5768524929248497
            ]
        },
        {
            "positions": [
                -0.5849986551511152,
                -1.5701873849877246,
                1.92356880508972,
                -1.1816815973236732,
                0.9187277303861927,
                -0.7652690950946768
            ]
        },
        {
            "positions": [
                -0.5316117983243323,
                -1.53748086994686,
                1.9239613321106692,
                -1.140530974928179,
                0.8535401414451111,
                -0.9536856972645038
            ]
        },
        {
            "positions": [
                -0.47822494149754946,
                -1.5047743549059958,
                1.9243538591316183,
                -1.0993803525326848,
                0.7883525525040296,
                -1.1421022994343308
            ]
        },
        {
            "positions": [
                -0.42483808467076656,
                -1.4720678398651312,
                1.9247463861525675,
                -1.0582297301371906,
                0.7231649635629481,
                -1.3305189016041579
            ]
        },
        {
            "positions": [
                -0.37145122784398366,
                -1.439361324824267,
                1.9251389131735168,
                -1.0170791077416963,
                0.6579773746218665,
                -1.5189355037739853
            ]
        },
        {
            "positions": [
                -0.31806437101720075,
                -1.4066548097834024,
                1.9255314401944659,
                -0.975928485346202,
                0.5927897856807849,
                -1.707352105943812
            ]
        },
        {
            "positions": [
                -0.26467751419041796,
                -1.3739482947425379,
                1.9259239672154151,
                -0.9347778629507079,
                0.5276021967397035,
                -1.895768708113639
            ]
        },
        {
            "positions": [
                -0.21129065736363517,
                -1.3412417797016736,
                1.9263164942363642,
                -0.8936272405552137,
                0.462414607798622,
                -2.084185310283466
            ]
        },
        {
            "positions": [
                -0.15790380053685216,
                -1.3085352646608093,
                1.9267090212573135,
                -0.8524766181597194,
                0.3972270188575402,
                -2.2726019124532932
            ]
        },
        {
            "positions": [
                -0.10451694371006925,
                -1.2758287496199447,
                1.9271015482782627,
                -0.8113259957642251,
                0.33203942991645885,
                -2.4610185146231203
            ]
        },
        {
            "positions": [
                -0.05113008688328646,
                -1.2431222345790802,
                1.9274940752992118,
                -0.770175373368731,
                0.2668518409753773,
                -2.6494351167929473
            ]
        },
        {
            "positions": [
                0.0022567699434963284,
                -1.210415719538216,
                1.927886602320161,
                -0.7290247509732368,
                0.20166425203429572,
                -2.8378517189627743
            ]
        },
        {
            "positions": [
                0.05564362677027934,
                -1.1777092044973516,
                1.9282791293411101,
                -0.6878741285777424,
                0.13647666309321416,
                -3.0262683211326014
            ]
        },
        {
            "positions": [
                0.10903048359706222,
                -1.145002689456487,
                1.9286716563620594,
                -0.6467235061822483,
                0.07128907415213251,
                -3.2146849233024284
            ]
        },
        {
            "positions": [
                0.12243907511157896,
                -1.1264556232954073,
                1.9489666296066155,
                -0.6891513942917733,
                0.1240652934898642,
                -3.2723818773749893
            ]
        }
    ]
}