{
    "goal": {
        "global_pose": {
            "orientation": {
                "w": 0.7047431468963623,
                "x": -0.7094548344612122,
                "y": 0.0024358443915843964,
                "z": -0.0022348060738295317
            },
            "position": {
                "x": 0.6094750761985779,
                "y": 0.3671506643295288,
                "z": 0.19426114857196808
            }
        },
        "name": "move_to_magneteinheit_A"
    },
    "id": "STRIDE_move_to_magneteinheit_A_84",
    "joint_names": [
        "shoulder_pan_joint",
        "shoulder_lift_joint",
        "elbow_joint",
        "wrist_1_joint",
        "wrist_2_joint",
        "wrist_3_joint"
    ],
    "metrics": {
        "cart_traj_len": 3.3774932562505335,
        "distance_elbow_joint": 3.87723413694141,
        "distance_shoulder_lift_joint": 1.1690924850428066,
        "distance_shoulder_pan_joint": 4.490017659938422,
        "distance_wrist_1_joint": 2.683173394467134,
        "distance_wrist_2_joint": 1.7085381433568319,
        "distance_wrist_3_joint": 2.923494844962898,
        "smoothness": 0.28308174747969156,
        "time": 0.06137134599999999,
        "traj_len": 4.105064026870898,
        "weighted_distance": 5.2048296698796275
    },
    "planner": "STRIDE",
    "start": {
        "state": {
            "elbow_joint": -1.919618573717145,
            "shoulder_lift_joint": -1.2443395971678275,
            "shoulder_pan_joint": 2.6996025300909787,
            "wrist_1_joint": -1.548550951253194,
            "wrist_2_joint": -1.5709469090946802,
            "wrist_3_joint": 0.4420197732051276
        }
    },
    "waypoints": [
        {
            "positions": [
                2.6996025300909787,
                -1.2443395971678275,
                -1.919618573717145,
                -1.548550951253194,
                -1.5709469090946802,
                0.4420197732051276
            ]
        },
        {
            "positions": [
                2.5687250542859976,
                -1.2639048103580397,
                -1.8071744715420759,
                -1.4833614461039586,
                -1.515833312117522,
                0.4358446457616436
            ]
        },
        {
            "positions": [
                2.4378475784810165,
                -1.283470023548252,
                -1.6947303693670066,
                -1.418171940954723,
                -1.460719715140364,
                0.42966951831815964
            ]
        },
        {
            "positions": [
                2.306970102676035,
                -1.303035236738464,
                -1.5822862671919375,
                -1.3529824358054878,
                -1.4056061181632058,
                0.42349439087467566
            ]
        },
        {
            "positions": [
                2.176092626871054,
                -1.322600449928676,
                -1.4698421650168685,
                -1.2877929306562523,
                -1.3504925211860477,
                0.41731926343119163
            ]
        },
        {
            "positions": [
                2.0452151510660728,
                -1.3421656631188883,
                -1.3573980628417994,
                -1.2226034255070168,
                -1.2953789242088896,
                0.41114413598770766
            ]
        },
        {
            "positions": [
                1.9143376752610914,
                -1.3617308763091005,
                -1.2449539606667304,
                -1.1574139203577816,
                -1.2402653272317314,
                0.4049690085442237
            ]
        },
        {
            "positions": [
                1.7834601994561101,
                -1.3812960894993127,
                -1.132509858491661,
                -1.092224415208546,
                -1.1851517302545733,
                0.3987938811007397
            ]
        },
        {
            "positions": [
                1.652582723651129,
                -1.400861302689525,
                -1.020065756316592,
                -1.0270349100593106,
                -1.1300381332774152,
                0.39261875365725574
            ]
        },
        {
            "positions": [
                1.521705247846148,
                -1.4204265158797371,
                -0.907621654141523,
                -0.9618454049100751,
                -1.074924536300257,
                0.38644362621377176
            ]
        },
        {
            "positions": [
                1.3908277720411666,
                -1.4399917290699493,
                -0.7951775519664539,
                -0.8966558997608397,
                -1.019810939323099,
                0.3802684987702878
            ]
        },
        {
            "positions": [
                1.2599502962361855,
                -1.4595569422601613,
                -0.6827334497913846,
                -0.8314663946116042,
                -0.9646973423459408,
                0.37409337132680376
            ]
        },
        {
            "positions": [
                1.1290728204312042,
                -1.4791221554503735,
                -0.5702893476163156,
                -0.7662768894623688,
                -0.9095837453687827,
                0.3679182438833198
            ]
        },
        {
            "positions": [
                0.9981953446262231,
                -1.4986873686405857,
                -0.4578452454412465,
                -0.7010873843131333,
                -0.8544701483916246,
                0.3617431164398358
            ]
        },
        {
            "positions": [
                0.8673178688212417,
                -1.518252581830798,
                -0.34540114326617744,
                -0.635897879163898,
                -0.7993565514144665,
                0.35556798899635184
            ]
        },
        {
            "positions": [
                0.7364403930162604,
                -1.5378177950210101,
                -0.23295704109110815,
                -0.5707083740146623,
                -0.7442429544373084,
                0.34939286155286786
            ]
        },
        {
            "positions": [
                0.6055629172112793,
                -1.557383008211222,
                -0.12051293891603909,
                -0.5055188688654271,
                -0.6891293574601502,
                0.3432177341093839
            ]
        },
        {
            "positions": [
                0.47468544140629776,
                -1.5769482214014343,
                -0.00806883674096981,
                -0.4403293637161916,
                -0.6340157604829921,
                0.3370426066658999
            ]
        },
        {
            "positions": [
                0.3438079656013171,
                -1.5965134345916465,
                0.10437526543409903,
                -0.3751398585669561,
                -0.578902163505834,
                0.3308674792224159
            ]
        },
        {
            "positions": [
                0.21293048979633555,
                -1.6160786477818587,
                0.2168193676091683,
                -0.3099503534177206,
                -0.5237885665286759,
                0.3246923517789319
            ]
        },
        {
            "positions": [
                0.08205301399135445,
                -1.635643860972071,
                0.32926346978423715,
                -0.24476084826848532,
                -0.4686749695515178,
                0.31851722433544793
            ]
        },
        {
            "positions": [
                -0.048824461813627096,
                -1.6552090741622831,
                0.44170757195930643,
                -0.17957134311924983,
                -0.41356137257435965,
                0.31234209689196396
            ]
        },
        {
            "positions": [
                -0.17970193761860775,
                -1.6747742873524953,
                0.5541516741343757,
                -0.11438183797001433,
                -0.35844777559720153,
                0.30616696944848
            ]
        },
        {
            "positions": [
                -0.3105794134235893,
                -1.6943395005427075,
                0.666595776309445,
                -0.04919233282077884,
                -0.3033341786200434,
                0.29999184200499596
            ]
        },
        {
            "positions": [
                -0.4414568892285704,
                -1.7139047137329195,
                0.7790398784845138,
                0.015997172328456433,
                -0.2482205816428853,
                0.29381671456151204
            ]
        },
        {
            "positions": [
                -0.572334365033552,
                -1.7334699269231317,
                0.8914839806595831,
                0.08118667747769193,
                -0.19310698466572718,
                0.287641587118028
            ]
        },
        {
            "positions": [
                -0.7032118408385326,
                -1.753035140113344,
                1.003928082834652,
                0.14637618262692742,
                -0.13799338768856906,
                0.2814664596745441
            ]
        },
        {
            "positions": [
                -0.8340893166435143,
                -1.7726003533035561,
                1.1163721850097215,
                0.21156568777616303,
                -0.08287979071141093,
                0.27529133223106006
            ]
        },
        {
            "positions": [
                -0.7743189533182688,
                -1.7325483702468638,
                1.1689498961481306,
                0.15387464056130193,
                -0.06910035165056329,
                0.447589232480362
            ]
        },
        {
            "positions": [
                -0.7145485899930234,
                -1.6924963871901715,
                1.2215276072865398,
                0.09618359334644083,
                -0.05532091258971565,
                0.6198871327296639
            ]
        },
        {
            "positions": [
                -0.654778226667778,
                -1.652444404133479,
                1.274105318424949,
                0.038492546131579736,
                -0.041541473528868014,
                0.7921850329789658
            ]
        },
        {
            "positions": [
                -0.5950078633425324,
                -1.6123924210767866,
                1.326683029563358,
                -0.01919850108328136,
                -0.027762034468020377,
                0.9644829332282677
            ]
        },
        {
            "positions": [
                -0.535237500017287,
                -1.5723404380200943,
                1.3792607407017672,
                -0.07688954829814243,
                -0.01398259540717274,
                1.1367808334775695
            ]
        },
        {
            "positions": [
                -0.47546713669204155,
                -1.532288454963402,
                1.4318384518401763,
                -0.13458059551300355,
                -0.0002031563463251035,
                1.3090787337268717
            ]
        },
        {
            "positions": [
                -0.41569677336679606,
                -1.4922364719067096,
                1.4844161629785853,
                -0.19227164272786468,
                0.013576282714522533,
                1.4813766339761734
            ]
        },
        {
            "positions": [
                -0.3559264100415506,
                -1.4521844888500173,
                1.5369938741169946,
                -0.24996268994272575,
                0.02735572177537017,
                1.6536745342254755
            ]
        },
        {
            "positions": [
                -0.29615604671630513,
                -1.4121325057933247,
                1.5895715852554035,
                -0.3076537371575868,
                0.04113516083621781,
                1.8259724344747772
            ]
        },
        {
            "positions": [
                -0.2363856833910597,
                -1.3720805227366324,
                1.642149296393813,
                -0.3653447843724479,
                0.054914599897065444,
                1.9982703347240793
            ]
        },
        {
            "positions": [
                -0.17661532006581426,
                -1.33202853967994,
                1.6947270075322218,
                -0.42303583158730906,
                0.06869403895791308,
                2.170568234973381
            ]
        },
        {
            "positions": [
                -0.11684495674056883,
                -1.2919765566232477,
                1.747304718670631,
                -0.48072687880217013,
                0.08247347801876072,
                2.342866135222683
            ]
        },
        {
            "positions": [
                -0.057074593415323394,
                -1.2519245735665554,
                1.7998824298090401,
                -0.5384179260170312,
                0.09625291707960835,
                2.5151640354719853
            ]
        },
        {
            "positions": [
                0.002695769909922152,
                -1.2118725905098628,
                1.8524601409474493,
                -0.5961089732318924,
                0.11003235614045599,
                2.687461935721287
            ]
        },
        {
            "positions": [
                0.06246613323516759,
                -1.1718206074531705,
                1.9050378520858584,
                -0.6538000204467534,
                0.12381179520130363,
                2.8597598359705887
            ]
        },
        {
            "positions": [
                0.12223649656041304,
                -1.1317686243964782,
                1.9576155632242676,
                -0.7114910676616145,
                0.13759123426215128,
                3.032057736219891
            ]
        }
    ]
}{
    "goal": {
        "global_pose": {
            "orientation": {
                "w": 0.7047431468963623,
                "x": -0.7094548344612122,
                "y": 0.0024358443915843964,
                "z": -0.0022348060738295317
            },
            "position": {
                "x": 0.6094750761985779,
                "y": 0.3671506643295288,
                "z": 0.19426114857196808
            }
        },
        "name": "move_to_magneteinheit_A"
    },
    "id": "STRIDE_move_to_magneteinheit_A_84",
    "joint_names": [
        "shoulder_pan_joint",
        "shoulder_lift_joint",
        "elbow_joint",
        "wrist_1_joint",
        "wrist_2_joint",
        "wrist_3_joint"
    ],
    "metrics": {
        "cart_traj_len": 1.2525063823574634,
        "distance_elbow_joint": 0.22455531203001167,
        "distance_shoulder_lift_joint": 0.7599873156222723,
        "distance_shoulder_pan_joint": 1.2425053802165413,
        "distance_wrist_1_joint": 1.0168322336890796,
        "distance_wrist_2_joint": 1.4370660522236052,
        "distance_wrist_3_joint": 4.327867167830309,
        "smoothness": 0.17073494426213656,
        "time": 0.116582173,
        "traj_len": 3.0014685508283807,
        "weighted_distance": 4.48535908074093
    },
    "planner": "STRIDE",
    "start": {
        "state": {
            "elbow_joint": 1.919643534880228,
            "shoulder_lift_joint": -1.8972525353963687,
            "shoulder_pan_joint": -1.1188672234189438,
            "wrist_1_joint": -1.5931878212786155,
            "wrist_2_joint": 1.5706036197970081,
            "wrist_3_joint": 1.118896926603594
        }
    },
    "waypoints": [
        {
            "positions": [
                -1.1188672234189438,
                -1.8972525353963687,
                1.919643534880228,
                -1.5931878212786155,
                1.5706036197970081,
                1.118896926603594
            ]
        },
        {
            "positions": [
                -1.0630257623606938,
                -1.8635742348303337,
                1.915632534577033,
                -1.5510329227641293,
                1.505310355332165,
                0.9261190641740092
            ]
        },
        {
            "positions": [
                -1.007184301302444,
                -1.8298959342642986,
                1.9116215342738383,
                -1.508878024249643,
                1.440017090867322,
                0.7333412017444245
            ]
        },
        {
            "positions": [
                -0.9513428402441939,
                -1.7962176336982636,
                1.9076105339706433,
                -1.4667231257351567,
                1.3747238264024788,
                0.5405633393148398
            ]
        },
        {
            "positions": [
                -0.895501379185944,
                -1.7625393331322288,
                1.9035995336674485,
                -1.4245682272206706,
                1.3094305619376359,
                0.34778547688525496
            ]
        },
        {
            "positions": [
                -0.839659918127694,
                -1.7288610325661937,
                1.8995885333642535,
                -1.3824133287061842,
                1.2441372974727927,
                0.15500761445567035
            ]
        },
        {
            "positions": [
                -0.7838184570694441,
                -1.6951827320001587,
                1.8955775330610587,
                -1.340258430191698,
                1.1788440330079495,
                -0.03777024797391437
            ]
        },
        {
            "positions": [
                -0.7279769960111941,
                -1.6615044314341236,
                1.8915665327578637,
                -1.2981035316772118,
                1.1135507685431065,
                -0.2305481104034992
            ]
        },
        {
            "positions": [
                -0.6721355349529441,
                -1.6278261308680886,
                1.887555532454669,
                -1.2559486331627254,
                1.0482575040782633,
                -0.42332597283308404
            ]
        },
        {
            "positions": [
                -0.6162940738946941,
                -1.5941478303020535,
                1.8835445321514739,
                -1.2137937346482393,
                0.9829642396134203,
                -0.6161038352626687
            ]
        },
        {
            "positions": [
                -0.5604526128364442,
                -1.5604695297360185,
                1.879533531848279,
                -1.171638836133753,
                0.9176709751485772,
                -0.8088816976922533
            ]
        },
        {
            "positions": [
                -0.5046111517781943,
                -1.5267912291699837,
                1.875522531545084,
                -1.1294839376192667,
                0.8523777106837341,
                -1.001659560121838
            ]
        },
        {
            "positions": [
                -0.4487696907199443,
                -1.4931129286039486,
                1.871511531241889,
                -1.0873290391047807,
                0.7870844462188911,
                -1.1944374225514227
            ]
        },
        {
            "positions": [
                -0.3929282296616943,
                -1.4594346280379136,
                1.8675005309386943,
                -1.0451741405902943,
                0.7217911817540479,
                -1.3872152849810078
            ]
        },
        {
            "positions": [
                -0.33708676860344444,
                -1.4257563274718785,
                1.8634895306354993,
                -1.003019242075808,
                0.6564979172892049,
                -1.5799931474105924
            ]
        },
        {
            "positions": [
                -0.2812453075451945,
                -1.3920780269058435,
                1.8594785303323045,
                -0.9608643435613219,
                0.5912046528243619,
                -1.772771009840177
            ]
        },
        {
            "positions": [
                -0.22540384648694445,
                -1.3583997263398084,
                1.8554675300291095,
                -0.9187094450468356,
                0.5259113883595186,
                -1.965548872269762
            ]
        },
        {
            "positions": [
                -0.1695623854286945,
                -1.3247214257737734,
                1.8514565297259147,
                -0.8765545465323493,
                0.4606181238946756,
                -2.1583267346993464
            ]
        },
        {
            "positions": [
                -0.11372092437044445,
                -1.2910431252077386,
                1.8474455294227197,
                -0.834399648017863,
                0.3953248594298324,
                -2.3511045971289315
            ]
        },
        {
            "positions": [
                -0.05787946331219462,
                -1.2573648246417033,
                1.8434345291195249,
                -0.7922447495033769,
                0.33003159496498946,
                -2.5438824595585157
            ]
        },
        {
            "positions": [
                -0.002038002253944571,
                -1.2236865240756685,
                1.8394235288163299,
                -0.7500898509888907,
                0.2647383305001463,
                -2.7366603219881007
            ]
        },
        {
            "positions": [
                0.05380345880430548,
                -1.1900082235096332,
                1.8354125285131349,
                -0.7079349524744043,
                0.1994450660353031,
                -2.9294381844176858
            ]
        },
        {
            "positions": [
                0.10964491986255534,
                -1.1563299229435984,
                1.83140152820994,
                -0.6657800539599181,
                0.13415180157046008,
                -3.1222160468472704
            ]
        },
        {
            "positions": [
                0.1236381567975974,
                -1.1372652197740964,
                1.9677148335696637,
                -0.7552045203303004,
                0.1335375675734029,
                -3.2089702412267154
            ]
        }
    ]
}