{
    "goal": {
        "global_pose": {
            "orientation": {
                "w": 0.5084816217422485,
                "x": -0.49083608388900757,
                "y": 0.5182115435600281,
                "z": -0.4816462993621826
            },
            "position": {
                "x": 0.5540239810943604,
                "y": 0.030875300988554955,
                "z": 0.16403168439865112
            }
        },
        "name": "move_to_storage_A"
    },
    "id": "STRIDE_move_to_storage_A_35",
    "joint_names": [
        "shoulder_pan_joint",
        "shoulder_lift_joint",
        "elbow_joint",
        "wrist_1_joint",
        "wrist_2_joint",
        "wrist_3_joint"
    ],
    "metrics": {
        "cart_traj_len": 0.3531110307571693,
        "distance_elbow_joint": 0.4492427376444099,
        "distance_shoulder_lift_joint": 0.23631174546687794,
        "distance_shoulder_pan_joint": 0.4595933526631875,
        "distance_wrist_1_joint": 0.2392613923249275,
        "distance_wrist_2_joint": 1.1087851168283027,
        "distance_wrist_3_joint": 0.09381507308114401,
        "smoothness": 2.2204460668324854e-16,
        "time": 0.033727582,
        "traj_len": 1.6084182969640857,
        "weighted_distance": 2.0304398718810583
    },
    "planner": "STRIDE",
    "start": {
        "state": {
            "elbow_joint": 1.9715477243005601,
            "shoulder_lift_joint": -1.1394853015351272,
            "shoulder_pan_joint": 0.12281154014795169,
            "wrist_1_joint": -0.7804696478968182,
            "wrist_2_joint": 0.12958648046900423,
            "wrist_3_joint": -3.192491284697111
        }
    },
    "waypoints": [
        {
            "positions": [
                0.12281154014795169,
                -1.1394853015351272,
                1.9715477243005601,
                -0.7804696478968182,
                0.12958648046900423,
                -3.192491284697111
            ]
        },
        {
            "positions": [
                0.05715534691035348,
                -1.1732441223161096,
                2.0357252582497614,
                -0.8146498468003792,
                0.2879843543016189,
                -3.179089131399805
            ]
        },
        {
            "positions": [
                -0.008500846327244724,
                -1.2070029430970923,
                2.099902792198963,
                -0.8488300457039403,
                0.44638222813423356,
                -3.1656869781024985
            ]
        },
        {
            "positions": [
                -0.07415703956484294,
                -1.2407617638780748,
                2.1640803261481643,
                -0.8830102446075013,
                0.6047801019668482,
                -3.1522848248051925
            ]
        },
        {
            "positions": [
                -0.13981323280244112,
                -1.2745205846590575,
                2.228257860097366,
                -0.9171904435110625,
                0.7631779757994629,
                -3.138882671507886
            ]
        },
        {
            "positions": [
                -0.20546942604003937,
                -1.30827940544004,
                2.292435394046567,
                -0.9513706424146235,
                0.9215758496320776,
                -3.12548051821058
            ]
        },
        {
            "positions": [
                -0.27112561927763756,
                -1.3420382262210224,
                2.3566129279957684,
                -0.9855508413181846,
                1.0799737234646922,
                -3.1120783649132733
            ]
        },
        {
            "positions": [
                -0.3367818125152358,
                -1.3757970470020051,
                2.42079046194497,
                -1.0197310402217457,
                1.238371597297307,
                -3.098676211615967
            ]
        }
    ]
}