{
    "goal": {
        "global_pose": {
            "orientation": {
                "w": 0.5084816217422485,
                "x": -0.49083608388900757,
                "y": 0.5182115435600281,
                "z": -0.4816462993621826
            },
            "position": {
                "x": 0.5540239810943604,
                "y": 0.030875300988554955,
                "z": 0.16403168439865112
            }
        },
        "name": "move_to_storage_A"
    },
    "id": "STRIDE_move_to_storage_A_74",
    "joint_names": [
        "shoulder_pan_joint",
        "shoulder_lift_joint",
        "elbow_joint",
        "wrist_1_joint",
        "wrist_2_joint",
        "wrist_3_joint"
    ],
    "metrics": {
        "cart_traj_len": 0.3521937226808459,
        "distance_elbow_joint": 0.44863243187241375,
        "distance_shoulder_lift_joint": 0.23534108036893508,
        "distance_shoulder_pan_joint": 0.4590814852847051,
        "distance_wrist_1_joint": 0.2350688898368959,
        "distance_wrist_2_joint": 1.1038717267535625,
        "distance_wrist_3_joint": 0.09178618169149155,
        "smoothness": 8.881784197001252e-16,
        "time": 0.057066150999999996,
        "traj_len": 1.6043010302957497,
        "weighted_distance": 2.023930526421657
    },
    "planner": "STRIDE",
    "start": {
        "state": {
            "elbow_joint": 1.9715477243005601,
            "shoulder_lift_joint": -1.1394853015351272,
            "shoulder_pan_joint": 0.12281154014795169,
            "wrist_1_joint": -0.7804696478968182,
            "wrist_2_joint": 0.12958648046900423,
            "wrist_3_joint": -3.192491284697111
        }
    },
    "waypoints": [
        {
            "positions": [
                0.12281154014795169,
                -1.1394853015351272,
                1.9715477243005601,
                -0.7804696478968182,
                0.12958648046900423,
                -3.192491284697111
            ]
        },
        {
            "positions": [
                0.05722847082156525,
                -1.1731054558735465,
                2.035638071710905,
                -0.8140509178735176,
                0.2872824414337989,
                -3.179378973026898
            ]
        },
        {
            "positions": [
                -0.00835459850482119,
                -1.2067256102119657,
                2.09972841912125,
                -0.847632187850217,
                0.4449784023985935,
                -3.166266661356685
            ]
        },
        {
            "positions": [
                -0.07393766783120763,
                -1.240345764550385,
                2.1638187665315947,
                -0.8812134578269164,
                0.6026743633633882,
                -3.153154349686472
            ]
        },
        {
            "positions": [
                -0.13952073715759405,
                -1.2739659188888044,
                2.2279091139419394,
                -0.9147947278036158,
                0.7603703243281827,
                -3.140042038016259
            ]
        },
        {
            "positions": [
                -0.20510380648398052,
                -1.3075860732272238,
                2.291999461352284,
                -0.9483759977803152,
                0.9180662852929774,
                -3.1269297263460456
            ]
        },
        {
            "positions": [
                -0.27068687581036693,
                -1.341206227565643,
                2.356089808762629,
                -0.9819572677570146,
                1.075762246257772,
                -3.113817414675833
            ]
        },
        {
            "positions": [
                -0.3362699451367534,
                -1.3748263819040623,
                2.420180156172974,
                -1.015538537733714,
                1.2334582072225668,
                -3.1007051030056196
            ]
        }
    ]
}