{
    "goal": {
        "global_pose": {
            "orientation": {
                "w": 0.7047431468963623,
                "x": -0.7094548344612122,
                "y": 0.0024358443915843964,
                "z": -0.0022348060738295317
            },
            "position": {
                "x": 0.6094750761985779,
                "y": 0.3671506643295288,
                "z": 0.19426114857196808
            }
        },
        "name": "move_to_magneteinheit_A"
    },
    "id": "STRIDE_move_to_magneteinheit_A_77",
    "joint_names": [
        "shoulder_pan_joint",
        "shoulder_lift_joint",
        "elbow_joint",
        "wrist_1_joint",
        "wrist_2_joint",
        "wrist_3_joint"
    ],
    "metrics": {
        "cart_traj_len": 4.360262552695968,
        "distance_elbow_joint": 3.895968222183484,
        "distance_shoulder_lift_joint": 0.3658844902612379,
        "distance_shoulder_pan_joint": 3.7752523791684887,
        "distance_wrist_1_joint": 0.7520513188132232,
        "distance_wrist_2_joint": 2.8400383232301114,
        "distance_wrist_3_joint": 3.720234643328897,
        "smoothness": 0.38320405856943646,
        "time": 0.426541344,
        "traj_len": 3.9178347817366475,
        "weighted_distance": 5.136339971778209
    },
    "planner": "STRIDE",
    "start": {
        "state": {
            "elbow_joint": -1.919618573717145,
            "shoulder_lift_joint": -1.2443395971678275,
            "shoulder_pan_joint": 2.6996025300909787,
            "wrist_1_joint": -1.548550951253194,
            "wrist_2_joint": -1.5709469090946802,
            "wrist_3_joint": 0.4420197732051276
        }
    },
    "waypoints": [
        {
            "positions": [
                2.6996025300909787,
                -1.2443395971678275,
                -1.919618573717145,
                -1.548550951253194,
                -1.5709469090946802,
                0.4420197732051276
            ]
        },
        {
            "positions": [
                2.603344601257243,
                -1.2372545359856375,
                -1.8303891526163514,
                -1.5317921271861683,
                -1.5020195945780606,
                0.3306696439676602
            ]
        },
        {
            "positions": [
                2.5070866724235077,
                -1.2301694748034477,
                -1.7411597315155578,
                -1.5150333031191425,
                -1.433092280061441,
                0.21931951473019276
            ]
        },
        {
            "positions": [
                2.410828743589772,
                -1.2230844136212577,
                -1.6519303104147642,
                -1.4982744790521167,
                -1.3641649655448216,
                0.10796938549272533
            ]
        },
        {
            "positions": [
                2.314570814756036,
                -1.2159993524390678,
                -1.5627008893139707,
                -1.481515654985091,
                -1.295237651028202,
                -0.003380743744742065
            ]
        },
        {
            "positions": [
                2.218312885922301,
                -1.208914291256878,
                -1.473471468213177,
                -1.4647568309180652,
                -1.2263103365115824,
                -0.11473087298220946
            ]
        },
        {
            "positions": [
                2.122054957088565,
                -1.201829230074688,
                -1.3842420471123837,
                -1.4479980068510394,
                -1.157383021994963,
                -0.22608100221967692
            ]
        },
        {
            "positions": [
                2.0257970282548294,
                -1.194744168892498,
                -1.29501262601159,
                -1.4312391827840136,
                -1.0884557074783434,
                -0.33743113145714426
            ]
        },
        {
            "positions": [
                1.929539099421094,
                -1.1876591077103082,
                -1.2057832049107966,
                -1.4144803587169879,
                -1.0195283929617238,
                -0.4487812606946117
            ]
        },
        {
            "positions": [
                1.8332811705873584,
                -1.1805740465281183,
                -1.116553783810003,
                -1.397721534649962,
                -0.9506010784451043,
                -0.560131389932079
            ]
        },
        {
            "positions": [
                1.7370232417536227,
                -1.1734889853459283,
                -1.0273243627092095,
                -1.3809627105829363,
                -0.8816737639284847,
                -0.6714815191695465
            ]
        },
        {
            "positions": [
                1.6407653129198871,
                -1.1664039241637385,
                -0.9380949416084159,
                -1.3642038865159105,
                -0.8127464494118652,
                -0.7828316484070137
            ]
        },
        {
            "positions": [
                1.5445073840861514,
                -1.1593188629815485,
                -0.8488655205076223,
                -1.3474450624488847,
                -0.7438191348952456,
                -0.8941817776444814
            ]
        },
        {
            "positions": [
                1.4482494552524159,
                -1.1522338017993585,
                -0.7596360994068287,
                -1.330686238381859,
                -0.6748918203786262,
                -1.0055319068819486
            ]
        },
        {
            "positions": [
                1.3519915264186801,
                -1.1451487406171688,
                -0.6704066783060352,
                -1.3139274143148332,
                -0.6059645058620066,
                -1.116882036119416
            ]
        },
        {
            "positions": [
                1.2557335975849446,
                -1.1380636794349788,
                -0.5811772572052418,
                -1.2971685902478074,
                -0.5370371913453871,
                -1.2282321653568835
            ]
        },
        {
            "positions": [
                1.159475668751209,
                -1.1309786182527888,
                -0.49194783610444803,
                -1.2804097661807816,
                -0.4681098768287675,
                -1.339582294594351
            ]
        },
        {
            "positions": [
                1.0632177399174734,
                -1.123893557070599,
                -0.4027184150036547,
                -1.2636509421137558,
                -0.3991825623121481,
                -1.4509324238318182
            ]
        },
        {
            "positions": [
                0.9669598110837379,
                -1.116808495888409,
                -0.3134889939028611,
                -1.24689211804673,
                -0.3302552477955285,
                -1.5622825530692857
            ]
        },
        {
            "positions": [
                0.8707018822500021,
                -1.109723434706219,
                -0.22425957280206732,
                -1.230133293979704,
                -0.2613279332789089,
                -1.6736326823067533
            ]
        },
        {
            "positions": [
                0.7744439534162666,
                -1.1026383735240293,
                -0.13503015170127397,
                -1.2133744699126785,
                -0.1924006187622893,
                -1.7849828115442206
            ]
        },
        {
            "positions": [
                0.6781860245825309,
                -1.0955533123418393,
                -0.0458007306004804,
                -1.1966156458456527,
                -0.12347330424566993,
                -1.8963329407816878
            ]
        },
        {
            "positions": [
                0.5819280957487956,
                -1.0884682511596493,
                0.04342869050031317,
                -1.179856821778627,
                -0.05454598972905034,
                -2.007683070019155
            ]
        },
        {
            "positions": [
                0.4856701669150598,
                -1.0813831899774595,
                0.13265811160110696,
                -1.163097997711601,
                0.01438132478756926,
                -2.1190331992566227
            ]
        },
        {
            "positions": [
                0.3894122380813241,
                -1.0742981287952695,
                0.22188753270190031,
                -1.1463391736445754,
                0.08330863930418886,
                -2.2303833284940904
            ]
        },
        {
            "positions": [
                0.2931543092475888,
                -1.0672130676130795,
                0.31111695380269366,
                -1.1295803495775496,
                0.15223595382080823,
                -2.3417334577315576
            ]
        },
        {
            "positions": [
                0.19689638041385304,
                -1.0601280064308898,
                0.40034637490348746,
                -1.1128215255105238,
                0.22116326833742783,
                -2.453083586969025
            ]
        },
        {
            "positions": [
                0.1006384515801173,
                -1.0530429452486998,
                0.48957579600428125,
                -1.0960627014434978,
                0.29009058285404743,
                -2.5644337162064925
            ]
        },
        {
            "positions": [
                0.0043805227463815655,
                -1.0459578840665098,
                0.5788052171050746,
                -1.0793038773764723,
                0.359017897370667,
                -2.6757838454439598
            ]
        },
        {
            "positions": [
                -0.09187740608735373,
                -1.03887282288432,
                0.668034638205868,
                -1.0625450533094463,
                0.4279452118872864,
                -2.787133974681427
            ]
        },
        {
            "positions": [
                -0.18813533492108947,
                -1.03178776170213,
                0.7572640593066613,
                -1.0457862292424207,
                0.496872526403906,
                -2.8984841039188947
            ]
        },
        {
            "positions": [
                -0.2843932637548252,
                -1.02470270051994,
                0.8464934804074551,
                -1.0290274051753947,
                0.5657998409205258,
                -3.0098342331563623
            ]
        },
        {
            "positions": [
                -0.3806511925885605,
                -1.0176176393377503,
                0.9357229015082489,
                -1.0122685811083691,
                0.6347271554371452,
                -3.1211843623938296
            ]
        },
        {
            "positions": [
                -0.47690912142229636,
                -1.0105325781555603,
                1.024952322609042,
                -0.9955097570413433,
                0.7036544699537648,
                -3.232534491631297
            ]
        },
        {
            "positions": [
                -0.3913747317572657,
                -1.0294007883339846,
                1.1608662263029415,
                -0.9670797392411472,
                0.622877763642098,
                -3.2260087232752293
            ]
        },
        {
            "positions": [
                -0.3058403420922351,
                -1.0482689985124092,
                1.296780129996841,
                -0.9386497214409512,
                0.5421010573304312,
                -3.2194829549191617
            ]
        },
        {
            "positions": [
                -0.2203059524272044,
                -1.0671372086908335,
                1.43269403369074,
                -0.9102197036407551,
                0.4613243510187645,
                -3.212957186563094
            ]
        },
        {
            "positions": [
                -0.13477156276217378,
                -1.0860054188692578,
                1.5686079373846398,
                -0.8817896858405591,
                0.38054764470709773,
                -3.206431418207027
            ]
        },
        {
            "positions": [
                -0.049237173097143094,
                -1.1048736290476822,
                1.704521841078539,
                -0.853359668040363,
                0.29977093839543095,
                -3.1999056498509595
            ]
        },
        {
            "positions": [
                0.036297216567887536,
                -1.1237418392261067,
                1.8404357447724384,
                -0.824929650240167,
                0.21899423208376423,
                -3.193379881494892
            ]
        },
        {
            "positions": [
                0.12183160623291822,
                -1.142610049404531,
                1.9763496484663379,
                -0.7964996324399709,
                0.1382175257720975,
                -3.1868541131388244
            ]
        }
    ]
}{
    "goal": {
        "global_pose": {
            "orientation": {
                "w": 0.7047431468963623,
                "x": -0.7094548344612122,
                "y": 0.0024358443915843964,
                "z": -0.0022348060738295317
            },
            "position": {
                "x": 0.6094750761985779,
                "y": 0.3671506643295288,
                "z": 0.19426114857196808
            }
        },
        "name": "move_to_magneteinheit_A"
    },
    "id": "STRIDE_move_to_magneteinheit_A_77",
    "joint_names": [
        "shoulder_pan_joint",
        "shoulder_lift_joint",
        "elbow_joint",
        "wrist_1_joint",
        "wrist_2_joint",
        "wrist_3_joint"
    ],
    "metrics": {
        "cart_traj_len": 1.3245057204726896,
        "distance_elbow_joint": 0.6571039786568236,
        "distance_shoulder_lift_joint": 0.8238585385361996,
        "distance_shoulder_pan_joint": 1.2422149727668512,
        "distance_wrist_1_joint": 0.8229124402842066,
        "distance_wrist_2_joint": 2.0336481510245683,
        "distance_wrist_3_joint": 4.320524317717696,
        "smoothness": 0.2656230208921912,
        "time": 0.142792898,
        "traj_len": 3.1464682421703136,
        "weighted_distance": 4.625783352658285
    },
    "planner": "STRIDE",
    "start": {
        "state": {
            "elbow_joint": 1.919643534880228,
            "shoulder_lift_joint": -1.8972525353963687,
            "shoulder_pan_joint": -1.1188672234189438,
            "wrist_1_joint": -1.5931878212786155,
            "wrist_2_joint": 1.5706036197970081,
            "wrist_3_joint": 1.118896926603594
        }
    },
    "waypoints": [
        {
            "positions": [
                -1.1188672234189438,
                -1.8972525353963687,
                1.919643534880228,
                -1.5931878212786155,
                1.5706036197970081,
                1.118896926603594
            ]
        },
        {
            "positions": [
                -1.0752894008927536,
                -1.8595608853957764,
                1.905172040560794,
                -1.5549687575514335,
                1.487996890806024,
                0.9506125361167601
            ]
        },
        {
            "positions": [
                -1.0317115783665634,
                -1.8218692353951838,
                1.8907005462413597,
                -1.5167496938242515,
                1.4053901618150397,
                0.7823281456299263
            ]
        },
        {
            "positions": [
                -0.9881337558403732,
                -1.7841775853945914,
                1.8762290519219256,
                -1.4785306300970698,
                1.3227834328240555,
                0.6140437551430924
            ]
        },
        {
            "positions": [
                -0.9445559333141831,
                -1.7464859353939988,
                1.8617575576024914,
                -1.4403115663698878,
                1.2401767038330715,
                0.44575936465625854
            ]
        },
        {
            "positions": [
                -0.9009781107879928,
                -1.7087942853934064,
                1.8472860632830572,
                -1.4020925026427058,
                1.1575699748420873,
                0.2774749741694247
            ]
        },
        {
            "positions": [
                -0.8574002882618026,
                -1.6711026353928138,
                1.832814568963623,
                -1.3638734389155238,
                1.0749632458511031,
                0.10919058368259082
            ]
        },
        {
            "positions": [
                -0.8138224657356125,
                -1.6334109853922214,
                1.8183430746441889,
                -1.3256543751883418,
                0.9923565168601189,
                -0.05909380680424303
            ]
        },
        {
            "positions": [
                -0.7702446432094222,
                -1.5957193353916288,
                1.8038715803247547,
                -1.28743531146116,
                0.9097497878691349,
                -0.2273781972910769
            ]
        },
        {
            "positions": [
                -0.7266668206832321,
                -1.5580276853910364,
                1.7894000860053205,
                -1.249216247733978,
                0.8271430588781506,
                -0.39566258777791075
            ]
        },
        {
            "positions": [
                -0.6830889981570418,
                -1.5203360353904438,
                1.7749285916858861,
                -1.2109971840067961,
                0.7445363298871664,
                -0.5639469782647446
            ]
        },
        {
            "positions": [
                -0.6395111756308516,
                -1.4826443853898514,
                1.760457097366452,
                -1.1727781202796141,
                0.6619296008961822,
                -0.7322313687515785
            ]
        },
        {
            "positions": [
                -0.5959333531046614,
                -1.444952735389259,
                1.7459856030470178,
                -1.1345590565524324,
                0.5793228719051982,
                -0.9005157592384123
            ]
        },
        {
            "positions": [
                -0.5523555305784712,
                -1.4072610853886665,
                1.7315141087275836,
                -1.0963399928252504,
                0.49671614291421395,
                -1.0688001497252462
            ]
        },
        {
            "positions": [
                -0.5087777080522811,
                -1.3695694353880739,
                1.7170426144081494,
                -1.0581209290980684,
                0.41410941392322975,
                -1.23708454021208
            ]
        },
        {
            "positions": [
                -0.4651998855260908,
                -1.3318777853874815,
                1.7025711200887153,
                -1.0199018653708865,
                0.33150268493224555,
                -1.4053689306989139
            ]
        },
        {
            "positions": [
                -0.42162206299990057,
                -1.294186135386889,
                1.688099625769281,
                -0.9816828016437046,
                0.24889595594126157,
                -1.5736533211857477
            ]
        },
        {
            "positions": [
                -0.3780442404737103,
                -1.2564944853862965,
                1.673628131449847,
                -0.9434637379165226,
                0.16628922695027715,
                -1.7419377116725816
            ]
        },
        {
            "positions": [
                -0.3344664179475202,
                -1.2188028353857039,
                1.6591566371304127,
                -0.9052446741893407,
                0.08368249795929317,
                -1.9102221021594155
            ]
        },
        {
            "positions": [
                -0.29088859542132994,
                -1.1811111853851115,
                1.6446851428109786,
                -0.8670256104621588,
                0.0010757689683089655,
                -2.078506492646249
            ]
        },
        {
            "positions": [
                -0.2473107728951398,
                -1.1434195353845191,
                1.6302136484915444,
                -0.8288065467349769,
                -0.08153096002267524,
                -2.246790883133083
            ]
        },
        {
            "positions": [
                -0.20373295036894953,
                -1.1057278853839265,
                1.6157421541721102,
                -0.7905874830077949,
                -0.16413768901365935,
                -2.4150752736199173
            ]
        },
        {
            "positions": [
                -0.13831681042557814,
                -1.112194663088678,
                1.6863826737618512,
                -0.7865250626051177,
                -0.10435632057087915,
                -2.5723856971187544
            ]
        },
        {
            "positions": [
                -0.07290067048220672,
                -1.1186614407934294,
                1.7570231933515925,
                -0.7824626422024404,
                -0.04457495212809896,
                -2.7296961206175916
            ]
        },
        {
            "positions": [
                -0.0074845305388353545,
                -1.125128218498181,
                1.8276637129413336,
                -0.7784002217997633,
                0.015206416314681226,
                -2.8870065441164283
            ]
        },
        {
            "positions": [
                0.057931609404536094,
                -1.1315949962029324,
                1.8983042325310748,
                -0.7743378013970861,
                0.07498778475746143,
                -3.0443169676152655
            ]
        },
        {
            "positions": [
                0.12334774934790747,
                -1.138061773907684,
                1.9689447521208159,
                -0.7702753809944088,
                0.1347691532002416,
                -3.2016273911141027
            ]
        }
    ]
}