{
    "goal": {
        "global_pose": {
            "orientation": {
                "w": 0.7047431468963623,
                "x": -0.7094548344612122,
                "y": 0.0024358443915843964,
                "z": -0.0022348060738295317
            },
            "position": {
                "x": 0.6094750761985779,
                "y": 0.3671506643295288,
                "z": 0.19426114857196808
            }
        },
        "name": "move_to_magneteinheit_A"
    },
    "id": "STRIDE_move_to_magneteinheit_A_135",
    "joint_names": [
        "shoulder_pan_joint",
        "shoulder_lift_joint",
        "elbow_joint",
        "wrist_1_joint",
        "wrist_2_joint",
        "wrist_3_joint"
    ],
    "metrics": {
        "cart_traj_len": 4.006000865933775,
        "distance_elbow_joint": 3.8779096171712713,
        "distance_shoulder_lift_joint": 0.5879849516651692,
        "distance_shoulder_pan_joint": 3.736748626287986,
        "distance_wrist_1_joint": 1.8851232974079506,
        "distance_wrist_2_joint": 1.7221821241076631,
        "distance_wrist_3_joint": 3.6738441548869787,
        "smoothness": 0.22348589514556605,
        "time": 0.205456871,
        "traj_len": 3.934945078590935,
        "weighted_distance": 5.141866052593803
    },
    "planner": "STRIDE",
    "start": {
        "state": {
            "elbow_joint": -1.919618573717145,
            "shoulder_lift_joint": -1.2443395971678275,
            "shoulder_pan_joint": 2.6996025300909787,
            "wrist_1_joint": -1.548550951253194,
            "wrist_2_joint": -1.5709469090946802,
            "wrist_3_joint": 0.4420197732051276
        }
    },
    "waypoints": [
        {
            "positions": [
                2.6996025300909787,
                -1.2443395971678275,
                -1.919618573717145,
                -1.548550951253194,
                -1.5709469090946802,
                0.4420197732051276
            ]
        },
        {
            "positions": [
                2.6037646371030227,
                -1.2396869284531948,
                -1.8136196727041696,
                -1.5018681645920726,
                -1.5196223989180493,
                0.35636653502832893
            ]
        },
        {
            "positions": [
                2.5079267441150668,
                -1.235034259738562,
                -1.7076207716911942,
                -1.4551853779309514,
                -1.4682978887414186,
                0.27071329685153034
            ]
        },
        {
            "positions": [
                2.412088851127111,
                -1.2303815910239293,
                -1.6016218706782186,
                -1.40850259126983,
                -1.4169733785647878,
                0.18506005867473174
            ]
        },
        {
            "positions": [
                2.316250958139155,
                -1.2257289223092964,
                -1.4956229696652432,
                -1.3618198046087087,
                -1.3656488683881571,
                0.09940682049793309
            ]
        },
        {
            "positions": [
                2.220413065151199,
                -1.2210762535946638,
                -1.3896240686522678,
                -1.3151370179475872,
                -1.3143243582115263,
                0.013753582321134439
            ]
        },
        {
            "positions": [
                2.124575172163243,
                -1.216423584880031,
                -1.2836251676392925,
                -1.2684542312864657,
                -1.2629998480348954,
                -0.0718996558556641
            ]
        },
        {
            "positions": [
                2.028737279175287,
                -1.2117709161653982,
                -1.177626266626317,
                -1.2217714446253445,
                -1.2116753378582648,
                -0.1575528940324628
            ]
        },
        {
            "positions": [
                1.932899386187331,
                -1.2071182474507656,
                -1.0716273656133417,
                -1.175088657964223,
                -1.160350827681634,
                -0.2432061322092614
            ]
        },
        {
            "positions": [
                1.837061493199375,
                -1.202465578736133,
                -0.9656284646003661,
                -1.1284058713031015,
                -1.1090263175050032,
                -0.32885937038606
            ]
        },
        {
            "positions": [
                1.741223600211419,
                -1.1978129100215,
                -0.8596295635873907,
                -1.0817230846419803,
                -1.0577018073283724,
                -0.4145126085628587
            ]
        },
        {
            "positions": [
                1.645385707223463,
                -1.1931602413068674,
                -0.7536306625744154,
                -1.035040297980859,
                -1.0063772971517415,
                -0.5001658467396572
            ]
        },
        {
            "positions": [
                1.549547814235507,
                -1.1885075725922345,
                -0.64763176156144,
                -0.9883575113197375,
                -0.9550527869751109,
                -0.5858190849164557
            ]
        },
        {
            "positions": [
                1.453709921247551,
                -1.1838549038776018,
                -0.5416328605484644,
                -0.9416747246586161,
                -0.9037282767984801,
                -0.6714723230932544
            ]
        },
        {
            "positions": [
                1.357872028259595,
                -1.1792022351629692,
                -0.435633959535489,
                -0.8949919379974947,
                -0.8524037666218492,
                -0.7571255612700531
            ]
        },
        {
            "positions": [
                1.262034135271639,
                -1.1745495664483363,
                -0.3296350585225134,
                -0.8483091513363733,
                -0.8010792564452185,
                -0.8427787994468519
            ]
        },
        {
            "positions": [
                1.1661962422836831,
                -1.1698968977337036,
                -0.22363615750953825,
                -0.801626364675252,
                -0.7497547462685877,
                -0.9284320376236503
            ]
        },
        {
            "positions": [
                1.0703583492957274,
                -1.165244229019071,
                -0.11763725649656287,
                -0.7549435780141307,
                -0.6984302360919571,
                -1.0140852758004488
            ]
        },
        {
            "positions": [
                0.9745204563077712,
                -1.160591560304438,
                -0.01163835548358727,
                -0.7082607913530091,
                -0.6471057259153262,
                -1.0997385139772475
            ]
        },
        {
            "positions": [
                0.8786825633198152,
                -1.1559388915898055,
                0.0943605455293881,
                -0.6615780046918879,
                -0.5957812157386955,
                -1.1853917521540462
            ]
        },
        {
            "positions": [
                0.782844670331859,
                -1.1512862228751726,
                0.20035944654236348,
                -0.6148952180307664,
                -0.5444567055620646,
                -1.271044990330845
            ]
        },
        {
            "positions": [
                0.6870067773439033,
                -1.14663355416054,
                0.30635834755533886,
                -0.568212431369645,
                -0.49313219538543396,
                -1.3566982285076434
            ]
        },
        {
            "positions": [
                0.5911688843559473,
                -1.1419808854459073,
                0.41235724856831424,
                -0.5215296447085238,
                -0.4418076852088031,
                -1.442351466684442
            ]
        },
        {
            "positions": [
                0.4953309913679913,
                -1.1373282167312744,
                0.5183561495812901,
                -0.47484685804740234,
                -0.3904831750321722,
                -1.5280047048612408
            ]
        },
        {
            "positions": [
                0.3994930983800353,
                -1.1326755480166417,
                0.624355050594265,
                -0.4281640713862809,
                -0.3391586648555416,
                -1.6136579430380391
            ]
        },
        {
            "positions": [
                0.30365520539207935,
                -1.128022879302009,
                0.7303539516072404,
                -0.38148128472515963,
                -0.28783415467891094,
                -1.6993111812148376
            ]
        },
        {
            "positions": [
                0.20781731240412338,
                -1.1233702105873762,
                0.8363528526202162,
                -0.33479849806403816,
                -0.23650964450228007,
                -1.7849644193916365
            ]
        },
        {
            "positions": [
                0.1119794194161674,
                -1.1187175418727435,
                0.9423517536331916,
                -0.2881157114029167,
                -0.1851851343256492,
                -1.870617657568435
            ]
        },
        {
            "positions": [
                0.016141526428211428,
                -1.1140648731581106,
                1.048350654646167,
                -0.24143292474179523,
                -0.13386062414901834,
                -1.956270895745234
            ]
        },
        {
            "positions": [
                -0.07969636655974467,
                -1.109412204443478,
                1.154349555659142,
                -0.19475013808067396,
                -0.08253611397238764,
                -2.0419241339220324
            ]
        },
        {
            "positions": [
                -0.13370850820291044,
                -1.078620824173756,
                1.2631052141071335,
                -0.20339323971296433,
                -0.08445079154961768,
                -2.2046151092734587
            ]
        },
        {
            "positions": [
                -0.1877206498460762,
                -1.047829443904034,
                1.371860872555125,
                -0.21203634134525473,
                -0.08636546912684771,
                -2.367306084624885
            ]
        },
        {
            "positions": [
                -0.24173279148924198,
                -1.0170380636343122,
                1.480616531003116,
                -0.2206794429775451,
                -0.08828014670407776,
                -2.529997059976311
            ]
        },
        {
            "positions": [
                -0.29574493313240774,
                -0.9862466833645903,
                1.5893721894511075,
                -0.2293225446098355,
                -0.0901948242813078,
                -2.692688035327737
            ]
        },
        {
            "positions": [
                -0.3497570747755735,
                -0.9554553030948685,
                1.6981278478990989,
                -0.23796564624212588,
                -0.09210950185853785,
                -2.8553790106791634
            ]
        },
        {
            "positions": [
                -0.40376921641873925,
                -0.9246639228251465,
                1.8068835063470903,
                -0.24660874787441628,
                -0.09402417943576788,
                -3.0180699860305897
            ]
        },
        {
            "positions": [
                -0.457781358061905,
                -0.8938725425554246,
                1.9156391647950817,
                -0.25525184950670665,
                -0.09593885701299792,
                -3.180760961382016
            ]
        },
        {
            "positions": [
                -0.34190841043488474,
                -0.9413761219659779,
                1.9241695405268904,
                -0.3494160040685863,
                -0.05186513982404586,
                -3.190973645441983
            ]
        },
        {
            "positions": [
                -0.22603546280786446,
                -0.9888797013765311,
                1.932699916258699,
                -0.44358015863046596,
                -0.007791422635093789,
                -3.20118632950195
            ]
        },
        {
            "positions": [
                -0.11016251518084419,
                -1.0363832807870843,
                1.9412302919905076,
                -0.5377443131923456,
                0.03628229455385826,
                -3.211399013561917
            ]
        },
        {
            "positions": [
                0.005710432446176084,
                -1.0838868601976377,
                1.9497606677223163,
                -0.6319084677542253,
                0.08035601174281035,
                -3.221611697621884
            ]
        },
        {
            "positions": [
                0.12158338007319638,
                -1.1313904396081909,
                1.958291043454125,
                -0.7260726223161049,
                0.12442972893176242,
                -3.231824381681851
            ]
        }
    ]
}{
    "goal": {
        "global_pose": {
            "orientation": {
                "w": 0.7047431468963623,
                "x": -0.7094548344612122,
                "y": 0.0024358443915843964,
                "z": -0.0022348060738295317
            },
            "position": {
                "x": 0.6094750761985779,
                "y": 0.3671506643295288,
                "z": 0.19426114857196808
            }
        },
        "name": "move_to_magneteinheit_A"
    },
    "id": "STRIDE_move_to_magneteinheit_A_135",
    "joint_names": [
        "shoulder_pan_joint",
        "shoulder_lift_joint",
        "elbow_joint",
        "wrist_1_joint",
        "wrist_2_joint",
        "wrist_3_joint"
    ],
    "metrics": {
        "cart_traj_len": 1.197684011133917,
        "distance_elbow_joint": 0.06910797950972025,
        "distance_shoulder_lift_joint": 0.7489294452015403,
        "distance_shoulder_pan_joint": 1.241213600955656,
        "distance_wrist_1_joint": 0.7392167729284165,
        "distance_wrist_2_joint": 1.4443194843023055,
        "distance_wrist_3_joint": 2.030562351613159,
        "smoothness": 1.0449157961564637e-16,
        "time": 0.153242462,
        "traj_len": 2.5046655733871535,
        "weighted_distance": 3.5380800718705947
    },
    "planner": "STRIDE",
    "start": {
        "state": {
            "elbow_joint": 1.919643534880228,
            "shoulder_lift_joint": -1.8972525353963687,
            "shoulder_pan_joint": -1.1188672234189438,
            "wrist_1_joint": -1.5931878212786155,
            "wrist_2_joint": 1.5706036197970081,
            "wrist_3_joint": 1.118896926603594
        }
    },
    "waypoints": [
        {
            "positions": [
                -1.1188672234189438,
                -1.8972525353963687,
                1.919643534880228,
                -1.5931878212786155,
                1.5706036197970081,
                1.118896926603594
            ]
        },
        {
            "positions": [
                -1.0412913733592153,
                -1.8504444450712725,
                1.9239627835995856,
                -1.5469867729705895,
                1.480333652028114,
                1.2458070735794164
            ]
        },
        {
            "positions": [
                -0.9637155232994868,
                -1.8036363547461762,
                1.9282820323189431,
                -1.5007857246625633,
                1.39006368425922,
                1.3727172205552387
            ]
        },
        {
            "positions": [
                -0.8861396732397584,
                -1.75682826442108,
                1.9326012810383006,
                -1.4545846763545374,
                1.299793716490326,
                1.4996273675310612
            ]
        },
        {
            "positions": [
                -0.8085638231800298,
                -1.7100201740959837,
                1.9369205297576582,
                -1.4083836280465114,
                1.2095237487214319,
                1.6265375145068837
            ]
        },
        {
            "positions": [
                -0.7309879731203013,
                -1.6632120837708875,
                1.9412397784770157,
                -1.3621825797384854,
                1.1192537809525378,
                1.7534476614827061
            ]
        },
        {
            "positions": [
                -0.6534121230605728,
                -1.616403993445791,
                1.9455590271963732,
                -1.3159815314304593,
                1.0289838131836435,
                1.8803578084585286
            ]
        },
        {
            "positions": [
                -0.5758362730008444,
                -1.5695959031206947,
                1.9498782759157307,
                -1.2697804831224333,
                0.9387138454147494,
                2.007267955434351
            ]
        },
        {
            "positions": [
                -0.49826042294111583,
                -1.5227878127955985,
                1.9541975246350882,
                -1.2235794348144071,
                0.8484438776458554,
                2.134178102410173
            ]
        },
        {
            "positions": [
                -0.4206845728813873,
                -1.4759797224705022,
                1.9585167733544457,
                -1.1773783865063812,
                0.7581739098769613,
                2.261088249385996
            ]
        },
        {
            "positions": [
                -0.34310872282165883,
                -1.429171632145406,
                1.9628360220738033,
                -1.1311773381983552,
                0.6679039421080673,
                2.3879983963618185
            ]
        },
        {
            "positions": [
                -0.2655328727619304,
                -1.3823635418203097,
                1.9671552707931608,
                -1.0849762898903292,
                0.5776339743391731,
                2.514908543337641
            ]
        },
        {
            "positions": [
                -0.18795702270220183,
                -1.3355554514952135,
                1.9714745195125183,
                -1.038775241582303,
                0.4873640065702789,
                2.641818690313463
            ]
        },
        {
            "positions": [
                -0.11038117264247327,
                -1.2887473611701172,
                1.9757937682318758,
                -0.9925741932742771,
                0.39709403880138483,
                2.7687288372892853
            ]
        },
        {
            "positions": [
                -0.032805322582744934,
                -1.241939270845021,
                1.9801130169512333,
                -0.946373144966251,
                0.30682407103249076,
                2.8956389842651076
            ]
        },
        {
            "positions": [
                0.044770527476983624,
                -1.1951311805199247,
                1.9844322656705908,
                -0.9001720966582251,
                0.2165541032635967,
                3.0225491312409303
            ]
        },
        {
            "positions": [
                0.12234637753671207,
                -1.1483230901948285,
                1.9887515143899483,
                -0.853971048350199,
                0.12628413549470252,
                3.1494592782167525
            ]
        }
    ]
}