{
    "goal": {
        "global_pose": {
            "orientation": {
                "w": 0.7047431468963623,
                "x": -0.7094548344612122,
                "y": 0.0024358443915843964,
                "z": -0.0022348060738295317
            },
            "position": {
                "x": 0.6094750761985779,
                "y": 0.3671506643295288,
                "z": 0.19426114857196808
            }
        },
        "name": "move_to_magneteinheit_A"
    },
    "id": "STRIDE_move_to_magneteinheit_A_132",
    "joint_names": [
        "shoulder_pan_joint",
        "shoulder_lift_joint",
        "elbow_joint",
        "wrist_1_joint",
        "wrist_2_joint",
        "wrist_3_joint"
    ],
    "metrics": {
        "cart_traj_len": 3.350127490881996,
        "distance_elbow_joint": 3.897478499501636,
        "distance_shoulder_lift_joint": 0.3036704962925598,
        "distance_shoulder_pan_joint": 3.314379406447743,
        "distance_wrist_1_joint": 3.3728822643470617,
        "distance_wrist_2_joint": 1.7029055871397913,
        "distance_wrist_3_joint": 3.6300945598378536,
        "smoothness": 0.16149567560522154,
        "time": 0.127183445,
        "traj_len": 4.027581260951372,
        "weighted_distance": 5.343911281517425
    },
    "planner": "STRIDE",
    "start": {
        "state": {
            "elbow_joint": -1.919618573717145,
            "shoulder_lift_joint": -1.2443395971678275,
            "shoulder_pan_joint": 2.6996025300909787,
            "wrist_1_joint": -1.548550951253194,
            "wrist_2_joint": -1.5709469090946802,
            "wrist_3_joint": 0.4420197732051276
        }
    },
    "waypoints": [
        {
            "positions": [
                2.6996025300909787,
                -1.2443395971678275,
                -1.919618573717145,
                -1.548550951253194,
                -1.5709469090946802,
                0.4420197732051276
            ]
        },
        {
            "positions": [
                2.5881581964521425,
                -1.2351362557261574,
                -1.8024516248002553,
                -1.4550701759445939,
                -1.5278900446393946,
                0.4205030046407216
            ]
        },
        {
            "positions": [
                2.4767138628133063,
                -1.225932914284487,
                -1.685284675883366,
                -1.3615894006359934,
                -1.4848331801841088,
                0.3989862360763156
            ]
        },
        {
            "positions": [
                2.3652695291744696,
                -1.216729572842817,
                -1.5681177269664763,
                -1.2681086253273932,
                -1.4417763157288233,
                0.37746946751190963
            ]
        },
        {
            "positions": [
                2.2538251955356334,
                -1.2075262314011466,
                -1.4509507780495867,
                -1.174627850018793,
                -1.3987194512735375,
                0.3559526989475036
            ]
        },
        {
            "positions": [
                2.142380861896797,
                -1.1983228899594764,
                -1.3337838291326973,
                -1.0811470747101928,
                -1.355662586818252,
                0.3344359303830976
            ]
        },
        {
            "positions": [
                2.030936528257961,
                -1.189119548517806,
                -1.216616880215808,
                -0.9876662994015925,
                -1.3126057223629664,
                0.3129191618186916
            ]
        },
        {
            "positions": [
                1.9194921946191246,
                -1.179916207076136,
                -1.0994499312989183,
                -0.8941855240929921,
                -1.2695488579076806,
                0.29140239325428563
            ]
        },
        {
            "positions": [
                1.8080478609802881,
                -1.1707128656344656,
                -0.9822829823820287,
                -0.8007047487843918,
                -1.226491993452395,
                0.26988562468987964
            ]
        },
        {
            "positions": [
                1.696603527341452,
                -1.1615095241927955,
                -0.8651160334651391,
                -0.7072239734757916,
                -1.1834351289971092,
                0.24836885612547363
            ]
        },
        {
            "positions": [
                1.5851591937026157,
                -1.1523061827511252,
                -0.7479490845482497,
                -0.6137431981671914,
                -1.1403782645418237,
                0.22685208756106767
            ]
        },
        {
            "positions": [
                1.4737148600637793,
                -1.143102841309455,
                -0.6307821356313601,
                -0.520262422858591,
                -1.0973214000865381,
                0.20533531899666166
            ]
        },
        {
            "positions": [
                1.362270526424943,
                -1.133899499867785,
                -0.5136151867144707,
                -0.4267816475499908,
                -1.0542645356312526,
                0.1838185504322557
            ]
        },
        {
            "positions": [
                1.2508261927861066,
                -1.1246961584261146,
                -0.39644823779758087,
                -0.3333008722413904,
                -1.0112076711759668,
                0.16230178186784966
            ]
        },
        {
            "positions": [
                1.1393818591472704,
                -1.1154928169844445,
                -0.2792812888806915,
                -0.23982009693279016,
                -0.9681508067206811,
                0.14078501330344367
            ]
        },
        {
            "positions": [
                1.0279375255084342,
                -1.1062894755427741,
                -0.1621143399638021,
                -0.14633932162418994,
                -0.9250939422653955,
                0.11926824473903769
            ]
        },
        {
            "positions": [
                0.9164931918695978,
                -1.097086134101104,
                -0.04494739104691248,
                -0.052858546315589505,
                -0.8820370778101098,
                0.0977514761746317
            ]
        },
        {
            "positions": [
                0.8050488582307613,
                -1.0878827926594337,
                0.07221955786997714,
                0.04062222899301049,
                -0.8389802133548242,
                0.07623470761022572
            ]
        },
        {
            "positions": [
                0.6936045245919251,
                -1.0786794512177635,
                0.18938650678686675,
                0.13410300430161093,
                -0.7959233488995385,
                0.054717939045819675
            ]
        },
        {
            "positions": [
                0.5821601909530889,
                -1.0694761097760932,
                0.30655345570375636,
                0.22758377961021115,
                -0.7528664844442529,
                0.03320117048141369
            ]
        },
        {
            "positions": [
                0.4707158573142527,
                -1.060272768334423,
                0.42372040462064553,
                0.32106455491881136,
                -0.7098096199889673,
                0.011684401917007758
            ]
        },
        {
            "positions": [
                0.35927152367541604,
                -1.0510694268927527,
                0.5408873535375351,
                0.4145453302274118,
                -0.6667527555336815,
                -0.009832366647398283
            ]
        },
        {
            "positions": [
                0.2478271900365797,
                -1.0418660854510826,
                0.6580543024544246,
                0.5080261055360119,
                -0.623695891078396,
                -0.03134913521180428
            ]
        },
        {
            "positions": [
                0.19298346851674486,
                -1.042705693660717,
                0.7740244171402317,
                0.48491414029203483,
                -0.5677459989324083,
                0.1136540640826381
            ]
        },
        {
            "positions": [
                0.13813974699691003,
                -1.0435453018703518,
                0.8899945318260389,
                0.46180217504805776,
                -0.5117961067864206,
                0.2586572633770805
            ]
        },
        {
            "positions": [
                0.08329602547707521,
                -1.0443849100799862,
                1.005964646511846,
                0.43869020980408074,
                -0.4558462146404329,
                0.4036604626715229
            ]
        },
        {
            "positions": [
                0.028452303957240382,
                -1.045224518289621,
                1.1219347611976531,
                0.41557824456010367,
                -0.3998963224944452,
                0.5486636619659653
            ]
        },
        {
            "positions": [
                -0.02639141756259447,
                -1.0460641264992554,
                1.2379048758834603,
                0.3924662793161266,
                -0.3439464303484575,
                0.6936668612604078
            ]
        },
        {
            "positions": [
                -0.08123513908242927,
                -1.04690373470889,
                1.3538749905692673,
                0.3693543140721496,
                -0.28799653820246984,
                0.83867006055485
            ]
        },
        {
            "positions": [
                -0.13607886060226412,
                -1.0477433429185246,
                1.4698451052550745,
                0.3462423488281725,
                -0.23204664605648212,
                0.9836732598492925
            ]
        },
        {
            "positions": [
                -0.19092258212209892,
                -1.0485829511281592,
                1.5858152199408817,
                0.32313038358419544,
                -0.17609675391049445,
                1.1286764591437348
            ]
        },
        {
            "positions": [
                -0.24576630364193375,
                -1.0494225593377937,
                1.7017853346266887,
                0.30001841834021836,
                -0.12014686176450672,
                1.2736796584381773
            ]
        },
        {
            "positions": [
                -0.20886524637045065,
                -1.058786610406704,
                1.7293927937424691,
                0.18918866630401215,
                -0.09493630778354503,
                1.4588493442152712
            ]
        },
        {
            "positions": [
                -0.17196418909896755,
                -1.0681506614756144,
                1.7570002528582493,
                0.07835891426780592,
                -0.06972575380258336,
                1.6440190299923654
            ]
        },
        {
            "positions": [
                -0.13506313182748445,
                -1.0775147125445248,
                1.7846077119740298,
                -0.03247083776840026,
                -0.04451519982162169,
                1.8291887157694593
            ]
        },
        {
            "positions": [
                -0.09816207455600134,
                -1.0868787636134352,
                1.81221517108981,
                -0.14330058980460653,
                -0.01930464584066001,
                2.0143584015465534
            ]
        },
        {
            "positions": [
                -0.06126101728451824,
                -1.0962428146823457,
                1.8398226302055904,
                -0.25413034184081273,
                0.0059059081403016606,
                2.1995280873236474
            ]
        },
        {
            "positions": [
                -0.024359960013035142,
                -1.105606865751256,
                1.867430089321371,
                -0.3649600938770189,
                0.03111646212126333,
                2.3846977731007413
            ]
        },
        {
            "positions": [
                0.01254109725844793,
                -1.1149709168201665,
                1.895037548437151,
                -0.47578984591322515,
                0.056327016102225,
                2.569867458877835
            ]
        },
        {
            "positions": [
                0.04944215452993106,
                -1.1243349678890768,
                1.9226450075529316,
                -0.5866195979494314,
                0.0815375700831867,
                2.7550371446549295
            ]
        },
        {
            "positions": [
                0.08634321180141419,
                -1.1336990189579872,
                1.9502524666687118,
                -0.6974493499856377,
                0.10674812406414837,
                2.9402068304320235
            ]
        },
        {
            "positions": [
                0.12324426907289726,
                -1.1430630700268976,
                1.9778599257844922,
                -0.8082791020218437,
                0.13195867804511005,
                3.1253765162091174
            ]
        }
    ]
}{
    "goal": {
        "global_pose": {
            "orientation": {
                "w": 0.7047431468963623,
                "x": -0.7094548344612122,
                "y": 0.0024358443915843964,
                "z": -0.0022348060738295317
            },
            "position": {
                "x": 0.6094750761985779,
                "y": 0.3671506643295288,
                "z": 0.19426114857196808
            }
        },
        "name": "move_to_magneteinheit_A"
    },
    "id": "STRIDE_move_to_magneteinheit_A_132",
    "joint_names": [
        "shoulder_pan_joint",
        "shoulder_lift_joint",
        "elbow_joint",
        "wrist_1_joint",
        "wrist_2_joint",
        "wrist_3_joint"
    ],
    "metrics": {
        "cart_traj_len": 2.692545499379981,
        "distance_elbow_joint": 3.613739783798014,
        "distance_shoulder_lift_joint": 0.7585999450053305,
        "distance_shoulder_pan_joint": 1.2403642396569223,
        "distance_wrist_1_joint": 0.8220860937049798,
        "distance_wrist_2_joint": 1.4419385256714512,
        "distance_wrist_3_joint": 4.329228502887801,
        "smoothness": 0.27070547320058796,
        "time": 0.058174799,
        "traj_len": 3.4937024902994387,
        "weighted_distance": 4.809203542778838
    },
    "planner": "STRIDE",
    "start": {
        "state": {
            "elbow_joint": 1.919643534880228,
            "shoulder_lift_joint": -1.8972525353963687,
            "shoulder_pan_joint": -1.1188672234189438,
            "wrist_1_joint": -1.5931878212786155,
            "wrist_2_joint": 1.5706036197970081,
            "wrist_3_joint": 1.118896926603594
        }
    },
    "waypoints": [
        {
            "positions": [
                -1.1188672234189438,
                -1.8972525353963687,
                1.919643534880228,
                -1.5931878212786155,
                1.5706036197970081,
                1.118896926603594
            ]
        },
        {
            "positions": [
                -1.092174701036816,
                -1.8694990778355332,
                1.7923556519351058,
                -1.537474165819455,
                1.5586505850147214,
                0.981449750794055
            ]
        },
        {
            "positions": [
                -1.065482178654688,
                -1.8417456202746976,
                1.6650677689899835,
                -1.4817605103602947,
                1.5466975502324347,
                0.8440025749845161
            ]
        },
        {
            "positions": [
                -1.03878965627256,
                -1.8139921627138622,
                1.5377798860448613,
                -1.4260468549011343,
                1.534744515450148,
                0.7065553991749772
            ]
        },
        {
            "positions": [
                -1.012097133890432,
                -1.7862387051530266,
                1.4104920030997388,
                -1.3703331994419736,
                1.5227914806678613,
                0.5691082233654383
            ]
        },
        {
            "positions": [
                -0.9854046115083042,
                -1.758485247592191,
                1.2832041201546165,
                -1.3146195439828132,
                1.5108384458855746,
                0.4316610475558993
            ]
        },
        {
            "positions": [
                -0.9587120891261762,
                -1.7307317900313555,
                1.1559162372094942,
                -1.2589058885236528,
                1.4988854111032879,
                0.2942138717463605
            ]
        },
        {
            "positions": [
                -0.9320195667440483,
                -1.7029783324705199,
                1.028628354264372,
                -1.2031922330644924,
                1.4869323763210012,
                0.15676669593682147
            ]
        },
        {
            "positions": [
                -0.9053270443619204,
                -1.6752248749096845,
                0.9013404713192497,
                -1.147478577605332,
                1.4749793415387145,
                0.019319520127282663
            ]
        },
        {
            "positions": [
                -0.8786345219797924,
                -1.647471417348849,
                0.7740525883741272,
                -1.0917649221461714,
                1.4630263067564278,
                -0.11812765568225658
            ]
        },
        {
            "positions": [
                -0.8519419995976645,
                -1.6197179597880134,
                0.6467647054290049,
                -1.0360512666870112,
                1.451073271974141,
                -0.2555748314917954
            ]
        },
        {
            "positions": [
                -0.8252494772155365,
                -1.591964502227178,
                0.5194768224838828,
                -0.9803376112278507,
                1.4391202371918543,
                -0.3930220073013342
            ]
        },
        {
            "positions": [
                -0.7985569548334086,
                -1.5642110446663424,
                0.39218893953876055,
                -0.9246239557686903,
                1.4271672024095676,
                -0.530469183110873
            ]
        },
        {
            "positions": [
                -0.7718644324512807,
                -1.5364575871055068,
                0.26490105659363805,
                -0.8689103003095298,
                1.415214167627281,
                -0.6679163589204122
            ]
        },
        {
            "positions": [
                -0.7451719100691527,
                -1.5087041295446713,
                0.13761317364851589,
                -0.8131966448503694,
                1.4032611328449942,
                -0.8053635347299511
            ]
        },
        {
            "positions": [
                -0.6970236363854232,
                -1.4881457107028027,
                0.23937480823553264,
                -0.8108580383349953,
                1.3324502418050255,
                -0.9389728703718542
            ]
        },
        {
            "positions": [
                -0.6488753627016937,
                -1.4675872918609343,
                0.3411364428225494,
                -0.8085194318196212,
                1.2616393507650567,
                -1.0725822060137573
            ]
        },
        {
            "positions": [
                -0.6007270890179642,
                -1.4470288730190657,
                0.4428980774095661,
                -0.8061808253042471,
                1.190828459725088,
                -1.2061915416556603
            ]
        },
        {
            "positions": [
                -0.5525788153342347,
                -1.4264704541771973,
                0.5446597119965828,
                -0.803842218788873,
                1.1200175686851193,
                -1.3398008772975634
            ]
        },
        {
            "positions": [
                -0.5044305416505052,
                -1.4059120353353287,
                0.6464213465835996,
                -0.8015036122734989,
                1.0492066776451505,
                -1.4734102129394664
            ]
        },
        {
            "positions": [
                -0.4562822679667757,
                -1.3853536164934603,
                0.7481829811706163,
                -0.7991650057581248,
                0.9783957866051818,
                -1.6070195485813694
            ]
        },
        {
            "positions": [
                -0.40813399428304614,
                -1.3647951976515917,
                0.8499446157576331,
                -0.7968263992427507,
                0.907584895565213,
                -1.7406288842232724
            ]
        },
        {
            "positions": [
                -0.35998572059931666,
                -1.3442367788097234,
                0.9517062503446498,
                -0.7944877927273766,
                0.8367740045252443,
                -1.8742382198651755
            ]
        },
        {
            "positions": [
                -0.3118374469155871,
                -1.3236783599678548,
                1.0534678849316665,
                -0.7921491862120025,
                0.7659631134852756,
                -2.0078475555070785
            ]
        },
        {
            "positions": [
                -0.2636891732318576,
                -1.3031199411259862,
                1.1552295195186835,
                -0.7898105796966285,
                0.6951522224453068,
                -2.1414568911489815
            ]
        },
        {
            "positions": [
                -0.21554089954812805,
                -1.2825615222841178,
                1.2569911541057004,
                -0.7874719731812544,
                0.624341331405338,
                -2.275066226790885
            ]
        },
        {
            "positions": [
                -0.16739262586439863,
                -1.2620031034422492,
                1.3587527886927169,
                -0.7851333666658803,
                0.5535304403653694,
                -2.4086755624327876
            ]
        },
        {
            "positions": [
                -0.11924435218066909,
                -1.2414446846003808,
                1.4605144232797338,
                -0.7827947601505062,
                0.4827195493254006,
                -2.5422848980746906
            ]
        },
        {
            "positions": [
                -0.07109607849693955,
                -1.2208862657585122,
                1.5622760578667503,
                -0.7804561536351321,
                0.4119086582854319,
                -2.675894233716594
            ]
        },
        {
            "positions": [
                -0.022947804813210015,
                -1.2003278469166436,
                1.6640376924537672,
                -0.778117547119758,
                0.34109776724546315,
                -2.809503569358497
            ]
        },
        {
            "positions": [
                0.02520046887051941,
                -1.1797694280747753,
                1.7657993270407837,
                -0.7757789406043839,
                0.2702868762054944,
                -2.9431129050004
            ]
        },
        {
            "positions": [
                0.07334874255424895,
                -1.1592110092329069,
                1.8675609616278006,
                -0.7734403340890098,
                0.19947598516552567,
                -3.076722240642303
            ]
        },
        {
            "positions": [
                0.12149701623797851,
                -1.1386525903910383,
                1.9693225962148175,
                -0.7711017275736357,
                0.1286650941255569,
                -3.210331576284206
            ]
        }
    ]
}