{
    "goal": {
        "global_pose": {
            "orientation": {
                "w": 0.7047431468963623,
                "x": -0.7094548344612122,
                "y": 0.0024358443915843964,
                "z": -0.0022348060738295317
            },
            "position": {
                "x": 0.6094750761985779,
                "y": 0.3671506643295288,
                "z": 0.19426114857196808
            }
        },
        "name": "move_to_magneteinheit_A"
    },
    "id": "STRIDE_move_to_magneteinheit_A_5",
    "joint_names": [
        "shoulder_pan_joint",
        "shoulder_lift_joint",
        "elbow_joint",
        "wrist_1_joint",
        "wrist_2_joint",
        "wrist_3_joint"
    ],
    "metrics": {
        "cart_traj_len": 3.265054206038235,
        "distance_elbow_joint": 3.872069651046427,
        "distance_shoulder_lift_joint": 1.1739446217578184,
        "distance_shoulder_pan_joint": 4.141909379859158,
        "distance_wrist_1_joint": 0.8445336469999716,
        "distance_wrist_2_joint": 1.6956352169752953,
        "distance_wrist_3_joint": 2.5758717237368716,
        "smoothness": 0.1676731010822141,
        "time": 0.115986217,
        "traj_len": 3.782058201611332,
        "weighted_distance": 4.689976178172396
    },
    "planner": "STRIDE",
    "start": {
        "state": {
            "elbow_joint": -1.919618573717145,
            "shoulder_lift_joint": -1.2443395971678275,
            "shoulder_pan_joint": 2.6996025300909787,
            "wrist_1_joint": -1.548550951253194,
            "wrist_2_joint": -1.5709469090946802,
            "wrist_3_joint": 0.4420197732051276
        }
    },
    "waypoints": [
        {
            "positions": [
                2.6996025300909787,
                -1.2443395971678275,
                -1.919618573717145,
                -1.548550951253194,
                -1.5709469090946802,
                0.4420197732051276
            ]
        },
        {
            "positions": [
                2.5396524724413796,
                -1.269521195590898,
                -1.7737953833942068,
                -1.5095838375150707,
                -1.5622420826099115,
                0.4591390809834935
            ]
        },
        {
            "positions": [
                2.37970241479178,
                -1.2947027940139688,
                -1.6279721930712685,
                -1.4706167237769472,
                -1.5535372561251426,
                0.47625838876185944
            ]
        },
        {
            "positions": [
                2.219752357142181,
                -1.3198843924370394,
                -1.4821490027483302,
                -1.4316496100388236,
                -1.544832429640374,
                0.49337769654022534
            ]
        },
        {
            "positions": [
                2.0598022994925813,
                -1.34506599086011,
                -1.336325812425392,
                -1.3926824963007003,
                -1.536127603155605,
                0.5104970043185912
            ]
        },
        {
            "positions": [
                1.8998522418429822,
                -1.3702475892831807,
                -1.190502622102454,
                -1.3537153825625767,
                -1.5274227766708364,
                0.5276163120969573
            ]
        },
        {
            "positions": [
                1.739902184193383,
                -1.3954291877062512,
                -1.0446794317795156,
                -1.3147482688244534,
                -1.5187179501860675,
                0.5447356198753232
            ]
        },
        {
            "positions": [
                1.5799521265437837,
                -1.420610786129322,
                -0.8988562414565775,
                -1.2757811550863298,
                -1.5100131237012988,
                0.561854927653689
            ]
        },
        {
            "positions": [
                1.4200020688941843,
                -1.4457923845523926,
                -0.7530330511336392,
                -1.2368140413482065,
                -1.5013082972165301,
                0.578974235432055
            ]
        },
        {
            "positions": [
                1.2600520112445852,
                -1.4709739829754631,
                -0.607209860810701,
                -1.197846927610083,
                -1.4926034707317613,
                0.5960935432104209
            ]
        },
        {
            "positions": [
                1.1001019535949859,
                -1.4961555813985339,
                -0.4613866704877627,
                -1.1588798138719596,
                -1.4838986442469926,
                0.6132128509887869
            ]
        },
        {
            "positions": [
                0.9401518959453863,
                -1.5213371798216044,
                -0.3155634801648244,
                -1.119912700133836,
                -1.4751938177622237,
                0.6303321587671528
            ]
        },
        {
            "positions": [
                0.7802018382957872,
                -1.5465187782446752,
                -0.16974028984188627,
                -1.0809455863957127,
                -1.466488991277455,
                0.6474514665455187
            ]
        },
        {
            "positions": [
                0.6202517806461878,
                -1.5717003766677458,
                -0.023917099518947937,
                -1.0419784726575891,
                -1.4577841647926861,
                0.6645707743238846
            ]
        },
        {
            "positions": [
                0.46030172299658867,
                -1.5968819750908163,
                0.12190609080398995,
                -1.0030113589194658,
                -1.4490793383079175,
                0.6816900821022505
            ]
        },
        {
            "positions": [
                0.3003516653469891,
                -1.622063573513887,
                0.26772928112692873,
                -0.9640442451813422,
                -1.4403745118231486,
                0.6988093898806165
            ]
        },
        {
            "positions": [
                0.14040160769738996,
                -1.6472451719369576,
                0.4135524714498666,
                -0.9250771314432189,
                -1.43166968533838,
                0.7159286976589824
            ]
        },
        {
            "positions": [
                -0.019548449952209612,
                -1.6724267703600284,
                0.559375661772805,
                -0.8861100177050953,
                -1.4229648588536112,
                0.7330480054373483
            ]
        },
        {
            "positions": [
                -0.1794985076018083,
                -1.697608368783099,
                0.7051988520957428,
                -0.8471429039669719,
                -1.4142600323688423,
                0.7501673132157142
            ]
        },
        {
            "positions": [
                -0.3394485652514079,
                -1.7227899672061695,
                0.8510220424186816,
                -0.8081757902288484,
                -1.4055552058840737,
                0.7672866209940801
            ]
        },
        {
            "positions": [
                -0.499398622901007,
                -1.74797156562924,
                0.9968452327416195,
                -0.769208676490725,
                -1.396850379399305,
                0.7844059287724461
            ]
        },
        {
            "positions": [
                -0.6593486805506066,
                -1.7731531640523108,
                1.1426684230645576,
                -0.7302415627526015,
                -1.3881455529145361,
                0.801525236550812
            ]
        },
        {
            "positions": [
                -0.6104137949745083,
                -1.7328324731227274,
                1.193279838956103,
                -0.7286025465963903,
                -1.2935934366148392,
                0.9400481278252611
            ]
        },
        {
            "positions": [
                -0.5614789093984099,
                -1.692511782193144,
                1.2438912548476484,
                -0.7269635304401791,
                -1.1990413203151422,
                1.0785710190997104
            ]
        },
        {
            "positions": [
                -0.5125440238223117,
                -1.6521910912635605,
                1.2945026707391938,
                -0.7253245142839679,
                -1.1044892040154453,
                1.2170939103741596
            ]
        },
        {
            "positions": [
                -0.46360913824621336,
                -1.611870400333977,
                1.3451140866307392,
                -0.7236854981277567,
                -1.0099370877157483,
                1.3556168016486088
            ]
        },
        {
            "positions": [
                -0.41467425267011504,
                -1.5715497094043935,
                1.3957255025222848,
                -0.7220464819715456,
                -0.9153849714160514,
                1.494139692923058
            ]
        },
        {
            "positions": [
                -0.3657393670940168,
                -1.53122901847481,
                1.4463369184138302,
                -0.7204074658153344,
                -0.8208328551163544,
                1.632662584197507
            ]
        },
        {
            "positions": [
                -0.31680448151791846,
                -1.4909083275452266,
                1.4969483343053755,
                -0.7187684496591232,
                -0.7262807388166574,
                1.7711854754719565
            ]
        },
        {
            "positions": [
                -0.26786959594182014,
                -1.4505876366156434,
                1.547559750196921,
                -0.717129433502912,
                -0.6317286225169605,
                1.9097083667464054
            ]
        },
        {
            "positions": [
                -0.21893471036572182,
                -1.4102669456860597,
                1.5981711660884663,
                -0.7154904173467008,
                -0.5371765062172635,
                2.048231258020855
            ]
        },
        {
            "positions": [
                -0.1699998247896235,
                -1.3699462547564765,
                1.6487825819800117,
                -0.7138514011904896,
                -0.4426243899175666,
                2.1867541492953038
            ]
        },
        {
            "positions": [
                -0.12106493921352524,
                -1.329625563826893,
                1.699393997871557,
                -0.7122123850342784,
                -0.34807227361786963,
                2.325277040569753
            ]
        },
        {
            "positions": [
                -0.07213005363742697,
                -1.2893048728973096,
                1.7500054137631027,
                -0.7105733688780673,
                -0.2535201573181727,
                2.4637999318442025
            ]
        },
        {
            "positions": [
                -0.023195168061328597,
                -1.248984181967726,
                1.8006168296546479,
                -0.7089343527218561,
                -0.15896804101847573,
                2.6023228231186515
            ]
        },
        {
            "positions": [
                0.025739717514769667,
                -1.2086634910381426,
                1.8512282455461935,
                -0.7072953365656449,
                -0.06441592471877877,
                2.740845714393101
            ]
        },
        {
            "positions": [
                0.07467460309086804,
                -1.1683428001085592,
                1.9018396614377389,
                -0.7056563204094337,
                0.03013619158091818,
                2.87936860566755
            ]
        },
        {
            "positions": [
                0.12360948866696636,
                -1.1280221091789757,
                1.9524510773292842,
                -0.7040173042532225,
                0.12468830788061522,
                3.017891496941999
            ]
        }
    ]
}{
    "goal": {
        "global_pose": {
            "orientation": {
                "w": 0.7047431468963623,
                "x": -0.7094548344612122,
                "y": 0.0024358443915843964,
                "z": -0.0022348060738295317
            },
            "position": {
                "x": 0.6094750761985779,
                "y": 0.3671506643295288,
                "z": 0.19426114857196808
            }
        },
        "name": "move_to_magneteinheit_A"
    },
    "id": "STRIDE_move_to_magneteinheit_A_5",
    "joint_names": [
        "shoulder_pan_joint",
        "shoulder_lift_joint",
        "elbow_joint",
        "wrist_1_joint",
        "wrist_2_joint",
        "wrist_3_joint"
    ],
    "metrics": {
        "cart_traj_len": 1.2933024977117957,
        "distance_elbow_joint": 0.41582705652006413,
        "distance_shoulder_lift_joint": 0.7485590241587314,
        "distance_shoulder_pan_joint": 1.241398014901816,
        "distance_wrist_1_joint": 0.7438835804088325,
        "distance_wrist_2_joint": 1.4351090802918232,
        "distance_wrist_3_joint": 4.25341244372107,
        "smoothness": 0.03335980094934559,
        "time": 0.11390738,
        "traj_len": 2.9729092148941136,
        "weighted_distance": 4.4185978260241265
    },
    "planner": "STRIDE",
    "start": {
        "state": {
            "elbow_joint": 1.919643534880228,
            "shoulder_lift_joint": -1.8972525353963687,
            "shoulder_pan_joint": -1.1188672234189438,
            "wrist_1_joint": -1.5931878212786155,
            "wrist_2_joint": 1.5706036197970081,
            "wrist_3_joint": 1.118896926603594
        }
    },
    "waypoints": [
        {
            "positions": [
                -1.1188672234189438,
                -1.8972525353963687,
                1.919643534880228,
                -1.5931878212786155,
                1.5706036197970081,
                1.118896926603594
            ]
        },
        {
            "positions": [
                -1.0699880363565055,
                -1.863083566030115,
                1.9113991580590666,
                -1.5612636217037537,
                1.5076887071162015,
                0.9230370686211029
            ]
        },
        {
            "positions": [
                -1.0211088492940672,
                -1.8289145966638616,
                1.903154781237905,
                -1.5293394221288918,
                1.4447737944353947,
                0.727177210638612
            ]
        },
        {
            "positions": [
                -0.972229662231629,
                -1.794745627297608,
                1.8949104044167435,
                -1.49741522255403,
                1.381858881754588,
                0.531317352656121
            ]
        },
        {
            "positions": [
                -0.9233504751691907,
                -1.7605766579313542,
                1.886666027595582,
                -1.4654910229791682,
                1.3189439690737812,
                0.33545749467362995
            ]
        },
        {
            "positions": [
                -0.8744712881067525,
                -1.7264076885651005,
                1.8784216507744205,
                -1.4335668234043064,
                1.2560290563929746,
                0.139597636691139
            ]
        },
        {
            "positions": [
                -0.8255921010443141,
                -1.6922387191988468,
                1.8701772739532592,
                -1.4016426238294446,
                1.1931141437121677,
                -0.056262221291351944
            ]
        },
        {
            "positions": [
                -0.7767129139818758,
                -1.6580697498325934,
                1.8619328971320976,
                -1.3697184242545828,
                1.130199231031361,
                -0.252122079273843
            ]
        },
        {
            "positions": [
                -0.7278337269194375,
                -1.6239007804663397,
                1.8536885203109361,
                -1.3377942246797208,
                1.0672843183505543,
                -0.44798193725633406
            ]
        },
        {
            "positions": [
                -0.6789545398569993,
                -1.589731811100086,
                1.8454441434897746,
                -1.3058700251048592,
                1.0043694056697476,
                -0.6438417952388249
            ]
        },
        {
            "positions": [
                -0.630075352794561,
                -1.5555628417338325,
                1.837199766668613,
                -1.2739458255299971,
                0.9414544929889409,
                -0.839701653221316
            ]
        },
        {
            "positions": [
                -0.5811961657321226,
                -1.5213938723675788,
                1.8289553898474515,
                -1.2420216259551353,
                0.8785395803081341,
                -1.035561511203807
            ]
        },
        {
            "positions": [
                -0.5323169786696844,
                -1.4872249030013251,
                1.82071101302629,
                -1.2100974263802735,
                0.8156246676273274,
                -1.2314213691862979
            ]
        },
        {
            "positions": [
                -0.4834377916072461,
                -1.4530559336350715,
                1.8124666362051285,
                -1.1781732268054117,
                0.7527097549465206,
                -1.4272812271687891
            ]
        },
        {
            "positions": [
                -0.43455860454480777,
                -1.4188869642688178,
                1.804222259383967,
                -1.1462490272305499,
                0.689794842265714,
                -1.62314108515128
            ]
        },
        {
            "positions": [
                -0.38567941748236945,
                -1.384717994902564,
                1.7959778825628054,
                -1.114324827655688,
                0.6268799295849072,
                -1.8190009431337713
            ]
        },
        {
            "positions": [
                -0.33680023041993123,
                -1.3505490255363106,
                1.787733505741644,
                -1.0824006280808263,
                0.5639650169041006,
                -2.014860801116262
            ]
        },
        {
            "positions": [
                -0.2879210433574929,
                -1.316380056170057,
                1.7794891289204826,
                -1.0504764285059645,
                0.5010501042232938,
                -2.2107206590987536
            ]
        },
        {
            "positions": [
                -0.2390418562950547,
                -1.2822110868038035,
                1.771244752099321,
                -1.0185522289311026,
                0.43813519154248715,
                -2.4065805170812435
            ]
        },
        {
            "positions": [
                -0.19016266923261627,
                -1.2480421174375498,
                1.7630003752781596,
                -0.9866280293562407,
                0.3752202788616803,
                -2.6024403750637353
            ]
        },
        {
            "positions": [
                -0.14128348217017805,
                -1.213873148071296,
                1.754755998456998,
                -0.9547038297813789,
                0.3123053661808737,
                -2.798300233046226
            ]
        },
        {
            "positions": [
                -0.0924042951077397,
                -1.1797041787050424,
                1.7465116216358365,
                -0.9227796302065171,
                0.24939045350006686,
                -2.9941600910287174
            ]
        },
        {
            "positions": [
                -0.020759266244202434,
                -1.1693672895492406,
                1.8274100027277274,
                -0.898287833760939,
                0.21142514883510624,
                -3.0409452330583036
            ]
        },
        {
            "positions": [
                0.050885762619334834,
                -1.159030400393439,
                1.9083083838196182,
                -0.873796037315361,
                0.17345984417014562,
                -3.0877303750878897
            ]
        },
        {
            "positions": [
                0.1225307914828721,
                -1.1486935112376373,
                1.989206764911509,
                -0.849304240869783,
                0.135494539505185,
                -3.134515517117476
            ]
        }
    ]
}