{
    "goal": {
        "global_pose": {
            "orientation": {
                "w": 0.5084816217422485,
                "x": -0.49083608388900757,
                "y": 0.5182115435600281,
                "z": -0.4816462993621826
            },
            "position": {
                "x": 0.5540239810943604,
                "y": 0.030875300988554955,
                "z": 0.16403168439865112
            }
        },
        "name": "move_to_storage_A"
    },
    "id": "STRIDE_move_to_storage_A_45",
    "joint_names": [
        "shoulder_pan_joint",
        "shoulder_lift_joint",
        "elbow_joint",
        "wrist_1_joint",
        "wrist_2_joint",
        "wrist_3_joint"
    ],
    "metrics": {
        "cart_traj_len": 0.35209866691456815,
        "distance_elbow_joint": 0.44802596986514587,
        "distance_shoulder_lift_joint": 0.23378463649725933,
        "distance_shoulder_pan_joint": 0.46093077342829736,
        "distance_wrist_1_joint": 0.23802399548453945,
        "distance_wrist_2_joint": 1.0940165928556143,
        "distance_wrist_3_joint": 0.09478493799217924,
        "smoothness": 0.0,
        "time": 0.058057441,
        "traj_len": 1.602986870227899,
        "weighted_distance": 2.0226659067793546
    },
    "planner": "STRIDE",
    "start": {
        "state": {
            "elbow_joint": 1.9715477243005601,
            "shoulder_lift_joint": -1.1394853015351272,
            "shoulder_pan_joint": 0.12281154014795169,
            "wrist_1_joint": -0.7804696478968182,
            "wrist_2_joint": 0.12958648046900423,
            "wrist_3_joint": -3.192491284697111
        }
    },
    "waypoints": [
        {
            "positions": [
                0.12281154014795169,
                -1.1394853015351272,
                1.9715477243005601,
                -0.7804696478968182,
                0.12958648046900423,
                -3.192491284697111
            ]
        },
        {
            "positions": [
                0.056964286801052075,
                -1.1728831067490213,
                2.0355514342812953,
                -0.814473075823181,
                0.2858745651626634,
                -3.178950579269657
            ]
        },
        {
            "positions": [
                -0.00888296654584754,
                -1.2062809119629156,
                2.0995551442620304,
                -0.8484765037495438,
                0.4421626498563226,
                -3.165409873842203
            ]
        },
        {
            "positions": [
                -0.07473021989274715,
                -1.2396787171768098,
                2.1635588542427655,
                -0.8824799316759064,
                0.5984507345499818,
                -3.151869168414749
            ]
        },
        {
            "positions": [
                -0.14057747323964676,
                -1.273076522390704,
                2.2275625642235006,
                -0.9164833596022692,
                0.754738819243641,
                -3.1383284629872943
            ]
        },
        {
            "positions": [
                -0.20642472658654643,
                -1.3064743276045983,
                2.2915662742042358,
                -0.950486787528632,
                0.9110269039373001,
                -3.12478775755984
            ]
        },
        {
            "positions": [
                -0.272271979933446,
                -1.3398721328184924,
                2.355569984184971,
                -0.9844902154549948,
                1.0673149886309594,
                -3.111247052132386
            ]
        },
        {
            "positions": [
                -0.33811923328034565,
                -1.3732699380323865,
                2.419573694165706,
                -1.0184936433813576,
                1.2236030733246184,
                -3.097706346704932
            ]
        }
    ]
}