{
    "goal": {
        "global_pose": {
            "orientation": {
                "w": 0.7047431468963623,
                "x": -0.7094548344612122,
                "y": 0.0024358443915843964,
                "z": -0.0022348060738295317
            },
            "position": {
                "x": 0.6094750761985779,
                "y": 0.3671506643295288,
                "z": 0.19426114857196808
            }
        },
        "name": "move_to_magneteinheit_A"
    },
    "id": "STRIDE_move_to_magneteinheit_A_66",
    "joint_names": [
        "shoulder_pan_joint",
        "shoulder_lift_joint",
        "elbow_joint",
        "wrist_1_joint",
        "wrist_2_joint",
        "wrist_3_joint"
    ],
    "metrics": {
        "cart_traj_len": 2.919848425466644,
        "distance_elbow_joint": 3.90404128529783,
        "distance_shoulder_lift_joint": 0.9727875846986573,
        "distance_shoulder_pan_joint": 2.787740321928287,
        "distance_wrist_1_joint": 3.453930471159552,
        "distance_wrist_2_joint": 1.6902740293156422,
        "distance_wrist_3_joint": 3.024822572672604,
        "smoothness": 0.15226675360749561,
        "time": 0.11679483,
        "traj_len": 3.9791451676299237,
        "weighted_distance": 5.198792735904459
    },
    "planner": "STRIDE",
    "start": {
        "state": {
            "elbow_joint": -1.919618573717145,
            "shoulder_lift_joint": -1.2443395971678275,
            "shoulder_pan_joint": 2.6996025300909787,
            "wrist_1_joint": -1.548550951253194,
            "wrist_2_joint": -1.5709469090946802,
            "wrist_3_joint": 0.4420197732051276
        }
    },
    "waypoints": [
        {
            "positions": [
                2.6996025300909787,
                -1.2443395971678275,
                -1.919618573717145,
                -1.548550951253194,
                -1.5709469090946802,
                0.4420197732051276
            ]
        },
        {
            "positions": [
                2.6156490112504542,
                -1.2536528265164026,
                -1.8211919558595813,
                -1.4549096997490716,
                -1.516312067869085,
                0.49030903625108313
            ]
        },
        {
            "positions": [
                2.5316954924099297,
                -1.262966055864978,
                -1.7227653380020176,
                -1.361268448244949,
                -1.4616772266434894,
                0.5385982992970386
            ]
        },
        {
            "positions": [
                2.4477419735694053,
                -1.2722792852135532,
                -1.6243387201444537,
                -1.2676271967408264,
                -1.4070423854178942,
                0.5868875623429942
            ]
        },
        {
            "positions": [
                2.3637884547288808,
                -1.2815925145621285,
                -1.52591210228689,
                -1.1739859452367039,
                -1.352407544192299,
                0.6351768253889498
            ]
        },
        {
            "positions": [
                2.2798349358883563,
                -1.2909057439107037,
                -1.4274854844293263,
                -1.0803446937325814,
                -1.2977727029667037,
                0.6834660884349053
            ]
        },
        {
            "positions": [
                2.195881417047832,
                -1.300218973259279,
                -1.3290588665717626,
                -0.9867034422284587,
                -1.2431378617411082,
                0.7317553514808608
            ]
        },
        {
            "positions": [
                2.1119278982073073,
                -1.3095322026078542,
                -1.230632248714199,
                -0.8930621907243362,
                -1.188503020515513,
                0.7800446145268164
            ]
        },
        {
            "positions": [
                2.0279743793667833,
                -1.3188454319564296,
                -1.1322056308566353,
                -0.7994209392202136,
                -1.1338681792899177,
                0.828333877572772
            ]
        },
        {
            "positions": [
                1.9440208605262588,
                -1.3281586613050047,
                -1.0337790129990714,
                -0.7057796877160911,
                -1.0792333380643222,
                0.8766231406187275
            ]
        },
        {
            "positions": [
                1.8600673416857343,
                -1.3374718906535799,
                -0.9353523951415077,
                -0.6121384362119685,
                -1.024598496838727,
                0.924912403664683
            ]
        },
        {
            "positions": [
                1.7761138228452098,
                -1.3467851200021552,
                -0.836925777283944,
                -0.5184971847078459,
                -0.9699636556131316,
                0.9732016667106385
            ]
        },
        {
            "positions": [
                1.6921603040046853,
                -1.3560983493507304,
                -0.7384991594263803,
                -0.4248559332037234,
                -0.9153288143875362,
                1.0214909297565942
            ]
        },
        {
            "positions": [
                1.6082067851641608,
                -1.3654115786993057,
                -0.6400725415688164,
                -0.3312146816996009,
                -0.860693973161941,
                1.0697801928025497
            ]
        },
        {
            "positions": [
                1.5242532663236363,
                -1.3747248080478809,
                -0.5416459237112528,
                -0.23757343019547839,
                -0.8060591319363456,
                1.1180694558485051
            ]
        },
        {
            "positions": [
                1.4402997474831118,
                -1.3840380373964563,
                -0.44321930585368885,
                -0.14393217869135566,
                -0.7514242907107502,
                1.1663587188944609
            ]
        },
        {
            "positions": [
                1.3563462286425876,
                -1.3933512667450314,
                -0.3447926879961254,
                -0.05029092718723316,
                -0.696789449485155,
                1.2146479819404163
            ]
        },
        {
            "positions": [
                1.2723927098020629,
                -1.4026644960936068,
                -0.2463660701385615,
                0.043350324316889566,
                -0.6421546082595595,
                1.2629372449863718
            ]
        },
        {
            "positions": [
                1.1884391909615386,
                -1.411977725442182,
                -0.1479394522809978,
                0.13699157582101185,
                -0.5875197670339642,
                1.3112265080323273
            ]
        },
        {
            "positions": [
                1.1044856721210141,
                -1.421290954790757,
                -0.04951283442343413,
                0.23063282732513457,
                -0.532884925808369,
                1.359515771078283
            ]
        },
        {
            "positions": [
                1.0205321532804896,
                -1.4306041841393324,
                0.048913783434129554,
                0.3242740788292571,
                -0.47825008458277374,
                1.4078050341242385
            ]
        },
        {
            "positions": [
                0.9365786344399651,
                -1.4399174134879076,
                0.14734040129169323,
                0.4179153303333798,
                -0.42361524335717826,
                1.4560942971701942
            ]
        },
        {
            "positions": [
                0.8526251155994409,
                -1.449230642836483,
                0.24576701914925692,
                0.5115565818375023,
                -0.368980402131583,
                1.5043835602161495
            ]
        },
        {
            "positions": [
                0.7686715967589162,
                -1.458543872185058,
                0.34419363700682104,
                0.605197833341625,
                -0.31434556090598753,
                1.5526728232621052
            ]
        },
        {
            "positions": [
                0.6847180779183919,
                -1.4678571015336335,
                0.4426202548643843,
                0.6988390848457473,
                -0.2597107196803923,
                1.6009620863080607
            ]
        },
        {
            "positions": [
                0.6007645590778674,
                -1.4771703308822086,
                0.5410468727219484,
                0.79248033634987,
                -0.20507587845479702,
                1.6492513493540164
            ]
        },
        {
            "positions": [
                0.5168110402373429,
                -1.4864835602307838,
                0.6394734905795121,
                0.8861215878539923,
                -0.15044103722920177,
                1.6975406123999717
            ]
        },
        {
            "positions": [
                0.43285752139681843,
                -1.4957967895793591,
                0.7379001084370758,
                0.979762839358115,
                -0.09580619600360626,
                1.7458298754459274
            ]
        },
        {
            "positions": [
                0.3809235788952911,
                -1.459619061945645,
                0.833628347509989,
                1.0585498679432688,
                -0.08399484614815826,
                1.6493191205310411
            ]
        },
        {
            "positions": [
                0.3289896363937638,
                -1.4234413343119312,
                0.9293565865829023,
                1.1373368965284225,
                -0.07218349629271026,
                1.5528083656161547
            ]
        },
        {
            "positions": [
                0.2770556938922364,
                -1.3872636066782174,
                1.0250848256558154,
                1.2161239251135763,
                -0.06037214643726224,
                1.4562976107012684
            ]
        },
        {
            "positions": [
                0.22512175139070906,
                -1.3510858790445033,
                1.1208130647287287,
                1.29491095369873,
                -0.04856079658181424,
                1.359786855786382
            ]
        },
        {
            "positions": [
                0.17318780888918173,
                -1.3149081514107892,
                1.216541303801642,
                1.3736979822838837,
                -0.036749446726366236,
                1.2632761008714957
            ]
        },
        {
            "positions": [
                0.12125386638765434,
                -1.2787304237770754,
                1.3122695428745552,
                1.4524850108690375,
                -0.02493809687091822,
                1.1667653459566094
            ]
        },
        {
            "positions": [
                0.06931992388612701,
                -1.2425526961433615,
                1.4079977819474685,
                1.5312720394541912,
                -0.013126747015470216,
                1.070254591041723
            ]
        },
        {
            "positions": [
                0.017385981384599694,
                -1.2063749685096474,
                1.5037260210203818,
                1.610059068039345,
                -0.0013153971600222193,
                0.9737438361268367
            ]
        },
        {
            "positions": [
                0.023156241240708062,
                -1.1434151484229385,
                1.5828838762433326,
                1.6619923411091633,
                -0.015852040448601782,
                0.8319004205838276
            ]
        },
        {
            "positions": [
                0.02892650109681643,
                -1.0804553283362293,
                1.6620417314662834,
                1.7139256141789816,
                -0.030388683737181347,
                0.6900570050408186
            ]
        },
        {
            "positions": [
                0.0346967609529248,
                -1.0174955082495203,
                1.741199586689234,
                1.7658588872488,
                -0.04492532702576091,
                0.5482135894978097
            ]
        },
        {
            "positions": [
                0.040467020809033166,
                -0.9545356881628113,
                1.8203574419121848,
                1.8177921603186182,
                -0.05946197031434047,
                0.4063701739548006
            ]
        },
        {
            "positions": [
                0.04623728066514154,
                -0.8915758680761022,
                1.8995152971351357,
                1.8697254333884366,
                -0.07399861360292002,
                0.26452675841179163
            ]
        },
        {
            "positions": [
                0.08457351763582441,
                -0.8330211326841679,
                1.9419690043579108,
                1.8875524766473966,
                -0.09797826407196333,
                0.14467208171295737
            ]
        },
        {
            "positions": [
                0.1229097546065073,
                -0.7744663972922334,
                1.9844227115806858,
                1.9053795199063568,
                -0.12195791454100663,
                0.024817405014123075
            ]
        }
    ]
}{
    "goal": {
        "global_pose": {
            "orientation": {
                "w": 0.7047431468963623,
                "x": -0.7094548344612122,
                "y": 0.0024358443915843964,
                "z": -0.0022348060738295317
            },
            "position": {
                "x": 0.6094750761985779,
                "y": 0.3671506643295288,
                "z": 0.19426114857196808
            }
        },
        "name": "move_to_magneteinheit_A"
    },
    "id": "STRIDE_move_to_magneteinheit_A_66",
    "joint_names": [
        "shoulder_pan_joint",
        "shoulder_lift_joint",
        "elbow_joint",
        "wrist_1_joint",
        "wrist_2_joint",
        "wrist_3_joint"
    ],
    "metrics": {
        "cart_traj_len": 2.1687680845045496,
        "distance_elbow_joint": 3.5716947929515657,
        "distance_shoulder_lift_joint": 0.7502173163953862,
        "distance_shoulder_pan_joint": 1.2408206634245293,
        "distance_wrist_1_joint": 0.7496434780307639,
        "distance_wrist_2_joint": 1.451177406746649,
        "distance_wrist_3_joint": 4.259709170202609,
        "smoothness": 0.2625723252296854,
        "time": 0.155888748,
        "traj_len": 3.467457689396008,
        "weighted_distance": 4.769014788500256
    },
    "planner": "STRIDE",
    "start": {
        "state": {
            "elbow_joint": 1.919643534880228,
            "shoulder_lift_joint": -1.8972525353963687,
            "shoulder_pan_joint": -1.1188672234189438,
            "wrist_1_joint": -1.5931878212786155,
            "wrist_2_joint": 1.5706036197970081,
            "wrist_3_joint": 1.118896926603594
        }
    },
    "waypoints": [
        {
            "positions": [
                -1.1188672234189438,
                -1.8972525353963687,
                1.919643534880228,
                -1.5931878212786155,
                1.5706036197970081,
                1.118896926603594
            ]
        },
        {
            "positions": [
                -1.0818608009771307,
                -1.8614035118416192,
                1.8222285409234333,
                -1.5613818734111298,
                1.494629062288072,
                1.0082160200446093
            ]
        },
        {
            "positions": [
                -1.0448543785353177,
                -1.8255544882868697,
                1.7248135469666386,
                -1.5295759255436443,
                1.418654504779136,
                0.8975351134856249
            ]
        },
        {
            "positions": [
                -1.0078479560935045,
                -1.7897054647321202,
                1.627398553009844,
                -1.4977699776761586,
                1.3426799472701996,
                0.7868542069266402
            ]
        },
        {
            "positions": [
                -0.9708415336516915,
                -1.7538564411773707,
                1.5299835590530493,
                -1.465964029808673,
                1.2667053897612635,
                0.6761733003676557
            ]
        },
        {
            "positions": [
                -0.9338351112098784,
                -1.718007417622621,
                1.4325685650962545,
                -1.4341580819411872,
                1.1907308322523273,
                0.565492393808671
            ]
        },
        {
            "positions": [
                -0.8968286887680652,
                -1.6821583940678715,
                1.3351535711394598,
                -1.4023521340737017,
                1.1147562747433912,
                0.45481148724968645
            ]
        },
        {
            "positions": [
                -0.8598222663262521,
                -1.646309370513122,
                1.237738577182665,
                -1.370546186206216,
                1.0387817172344551,
                0.3441305806907019
            ]
        },
        {
            "positions": [
                -0.8228158438844391,
                -1.6104603469583725,
                1.1403235832258702,
                -1.3387402383387303,
                0.9628071597255189,
                0.23344967413171736
            ]
        },
        {
            "positions": [
                -0.7858094214426259,
                -1.574611323403623,
                1.0429085892690755,
                -1.3069342904712449,
                0.8868326022165827,
                0.1227687675727327
            ]
        },
        {
            "positions": [
                -0.7488029990008128,
                -1.5387622998488735,
                0.9454935953122807,
                -1.2751283426037592,
                0.8108580447076464,
                0.012087861013748036
            ]
        },
        {
            "positions": [
                -0.7117965765589997,
                -1.502913276294124,
                0.848078601355486,
                -1.2433223947362735,
                0.7348834871987103,
                -0.09859304554523662
            ]
        },
        {
            "positions": [
                -0.6747901541171867,
                -1.4670642527393745,
                0.7506636073986914,
                -1.2115164468687878,
                0.6589089296897742,
                -0.20927395210422106
            ]
        },
        {
            "positions": [
                -0.6377837316753736,
                -1.431215229184625,
                0.6532486134418967,
                -1.1797104990013023,
                0.582934372180838,
                -0.3199548586632057
            ]
        },
        {
            "positions": [
                -0.6007773092335604,
                -1.3953662056298755,
                0.5558336194851017,
                -1.1479045511338166,
                0.5069598146719019,
                -0.43063576522219016
            ]
        },
        {
            "positions": [
                -0.5637708867917474,
                -1.3595171820751257,
                0.4584186255283069,
                -1.116098603266331,
                0.43098525716296554,
                -0.5413166717811748
            ]
        },
        {
            "positions": [
                -0.5267644643499343,
                -1.3236681585203764,
                0.3610036315715124,
                -1.0842926553988455,
                0.35501069965402965,
                -0.6519975783401593
            ]
        },
        {
            "positions": [
                -0.4897580419081211,
                -1.2878191349656267,
                0.2635886376147176,
                -1.0524867075313598,
                0.2790361421450933,
                -0.7626784848991439
            ]
        },
        {
            "positions": [
                -0.45275161946630804,
                -1.2519701114108772,
                0.1661736436579228,
                -1.020680759663874,
                0.20306158463615726,
                -0.8733593914581286
            ]
        },
        {
            "positions": [
                -0.4085435379684701,
                -1.2438981966101161,
                0.30603709763709663,
                -1.0070548814780262,
                0.19662809451417274,
                -1.0477788416228122
            ]
        },
        {
            "positions": [
                -0.3643354564706321,
                -1.235826281809355,
                0.44590055161627046,
                -0.9934290032921783,
                0.19019460439218822,
                -1.2221982917874956
            ]
        },
        {
            "positions": [
                -0.32012737497279414,
                -1.2277543670085937,
                0.5857640055954443,
                -0.9798031251063304,
                0.1837611142702037,
                -1.3966177419521792
            ]
        },
        {
            "positions": [
                -0.27591929347495614,
                -1.2196824522078327,
                0.7256274595746182,
                -0.9661772469204826,
                0.1773276241482192,
                -1.5710371921168629
            ]
        },
        {
            "positions": [
                -0.2317112119771182,
                -1.2116105374070716,
                0.8654909135537918,
                -0.9525513687346346,
                0.17089413402623468,
                -1.7454566422815465
            ]
        },
        {
            "positions": [
                -0.18750313047928024,
                -1.2035386226063105,
                1.0053543675329657,
                -0.9389254905487867,
                0.16446064390425016,
                -1.91987609244623
            ]
        },
        {
            "positions": [
                -0.1432950489814423,
                -1.1954667078055492,
                1.1452178215121394,
                -0.9252996123629389,
                0.15802715378226564,
                -2.0942955426109133
            ]
        },
        {
            "positions": [
                -0.0990869674836043,
                -1.1873947930047881,
                1.2850812754913135,
                -0.911673734177091,
                0.15159366366028112,
                -2.268714992775597
            ]
        },
        {
            "positions": [
                -0.054878885985766346,
                -1.179322878204027,
                1.4249447294704871,
                -0.898047855991243,
                0.14516017353829663,
                -2.4431344429402806
            ]
        },
        {
            "positions": [
                -0.010670804487928343,
                -1.171250963403266,
                1.564808183449661,
                -0.8844219778053952,
                0.1387266834163121,
                -2.6175538931049642
            ]
        },
        {
            "positions": [
                0.03353727700990955,
                -1.1631790486025047,
                1.7046716374288349,
                -0.8707960996195473,
                0.1322931932943276,
                -2.791973343269648
            ]
        },
        {
            "positions": [
                0.07774535850774755,
                -1.1551071338017436,
                1.8445350914080088,
                -0.8571702214336994,
                0.12585970317234307,
                -2.9663927934343315
            ]
        },
        {
            "positions": [
                0.12195344000558549,
                -1.1470352190009825,
                1.9843985453871824,
                -0.8435443432478515,
                0.11942621305035855,
                -3.140812243599015
            ]
        }
    ]
}