{
    "goal": {
        "global_pose": {
            "orientation": {
                "w": 0.7047431468963623,
                "x": -0.7094548344612122,
                "y": 0.0024358443915843964,
                "z": -0.0022348060738295317
            },
            "position": {
                "x": 0.6094750761985779,
                "y": 0.3671506643295288,
                "z": 0.19426114857196808
            }
        },
        "name": "move_to_magneteinheit_A"
    },
    "id": "STRIDE_move_to_magneteinheit_A_16",
    "joint_names": [
        "shoulder_pan_joint",
        "shoulder_lift_joint",
        "elbow_joint",
        "wrist_1_joint",
        "wrist_2_joint",
        "wrist_3_joint"
    ],
    "metrics": {
        "cart_traj_len": 3.748931134152013,
        "distance_elbow_joint": 3.905380504741266,
        "distance_shoulder_lift_joint": 0.2629806146114517,
        "distance_shoulder_pan_joint": 3.8762513767579336,
        "distance_wrist_1_joint": 1.642225361223954,
        "distance_wrist_2_joint": 1.6917745450043995,
        "distance_wrist_3_joint": 3.5618986727664756,
        "smoothness": 0.14466367986126974,
        "time": 0.083711788,
        "traj_len": 3.865295729320784,
        "weighted_distance": 5.039673434545812
    },
    "planner": "STRIDE",
    "start": {
        "state": {
            "elbow_joint": -1.919618573717145,
            "shoulder_lift_joint": -1.2443395971678275,
            "shoulder_pan_joint": 2.6996025300909787,
            "wrist_1_joint": -1.548550951253194,
            "wrist_2_joint": -1.5709469090946802,
            "wrist_3_joint": 0.4420197732051276
        }
    },
    "waypoints": [
        {
            "positions": [
                2.6996025300909787,
                -1.2443395971678275,
                -1.919618573717145,
                -1.548550951253194,
                -1.5709469090946802,
                0.4420197732051276
            ]
        },
        {
            "positions": [
                2.5529474430264005,
                -1.2361304251599032,
                -1.8542999600992274,
                -1.5700964495410508,
                -1.517928036918273,
                0.34367997884151624
            ]
        },
        {
            "positions": [
                2.4062923559618223,
                -1.227921253151979,
                -1.7889813464813096,
                -1.5916419478289077,
                -1.464909164741866,
                0.24534018447790487
            ]
        },
        {
            "positions": [
                2.259637268897244,
                -1.219712081144055,
                -1.723662732863392,
                -1.6131874461167643,
                -1.4118902925654586,
                0.14700039011429356
            ]
        },
        {
            "positions": [
                2.112982181832666,
                -1.2115029091361307,
                -1.6583441192454744,
                -1.634732944404621,
                -1.3588714203890515,
                0.048660595750682156
            ]
        },
        {
            "positions": [
                1.9663270947680878,
                -1.2032937371282064,
                -1.5930255056275568,
                -1.656278442692478,
                -1.3058525482126444,
                -0.04967919861292913
            ]
        },
        {
            "positions": [
                1.8196720077035096,
                -1.1950845651202822,
                -1.5277068920096393,
                -1.6778239409803346,
                -1.2528336760362373,
                -0.14801899297654048
            ]
        },
        {
            "positions": [
                1.6730169206389314,
                -1.186875393112358,
                -1.4623882783917215,
                -1.6993694392681915,
                -1.1998148038598302,
                -0.24635878734015187
            ]
        },
        {
            "positions": [
                1.5263618335743532,
                -1.1786662211044336,
                -1.397069664773804,
                -1.7209149375560482,
                -1.1467959316834229,
                -0.3446985817037633
            ]
        },
        {
            "positions": [
                1.379706746509775,
                -1.1704570490965096,
                -1.3317510511558863,
                -1.7424604358439049,
                -1.0937770595070158,
                -0.44303837606737456
            ]
        },
        {
            "positions": [
                1.2330516594451968,
                -1.1622478770885853,
                -1.2664324375379685,
                -1.7640059341317618,
                -1.0407581873306087,
                -0.5413781704309859
            ]
        },
        {
            "positions": [
                1.0863965723806186,
                -1.154038705080661,
                -1.201113823920051,
                -1.7855514324196184,
                -0.9877393151542014,
                -0.6397179647945972
            ]
        },
        {
            "positions": [
                0.9397414853160406,
                -1.1458295330727368,
                -1.1357952103021334,
                -1.8070969307074751,
                -0.9347204429777943,
                -0.7380577591582085
            ]
        },
        {
            "positions": [
                0.7930863982514622,
                -1.1376203610648126,
                -1.0704765966842156,
                -1.828642428995332,
                -0.8817015708013871,
                -0.83639755352182
            ]
        },
        {
            "positions": [
                0.646431311186884,
                -1.1294111890568885,
                -1.005157983066298,
                -1.8501879272831887,
                -0.82868269862498,
                -0.9347373478854313
            ]
        },
        {
            "positions": [
                0.4997762241223058,
                -1.1212020170489643,
                -0.9398393694483804,
                -1.8717334255710454,
                -0.7756638264485729,
                -1.0330771422490426
            ]
        },
        {
            "positions": [
                0.35312113705772763,
                -1.11299284504104,
                -0.8745207558304628,
                -1.8932789238589023,
                -0.7226449542721657,
                -1.131416936612654
            ]
        },
        {
            "positions": [
                0.20646604999314944,
                -1.1047836730331158,
                -0.809202142212545,
                -1.914824422146759,
                -0.6696260820957585,
                -1.2297567309762651
            ]
        },
        {
            "positions": [
                0.05981096292857124,
                -1.0965745010251915,
                -0.7438835285946275,
                -1.9363699204346159,
                -0.6166072099193513,
                -1.3280965253398767
            ]
        },
        {
            "positions": [
                -0.08684412413600695,
                -1.0883653290172672,
                -0.6785649149767099,
                -1.9579154187224725,
                -0.5635883377429443,
                -1.426436319703488
            ]
        },
        {
            "positions": [
                -0.23349921120058514,
                -1.0801561570093432,
                -0.6132463013587923,
                -1.9794609170103292,
                -0.5105694655665372,
                -1.5247761140670992
            ]
        },
        {
            "positions": [
                -0.38015429826516334,
                -1.071946985001419,
                -0.5479276877408745,
                -2.001006415298186,
                -0.4575505933901298,
                -1.623115908430711
            ]
        },
        {
            "positions": [
                -0.5268093853297414,
                -1.0637378129934947,
                -0.48260907412295695,
                -2.022551913586043,
                -0.4045317212137227,
                -1.721455702794322
            ]
        },
        {
            "positions": [
                -0.4861944189961656,
                -1.0688864898958146,
                -0.32833588630126453,
                -1.9495378886553487,
                -0.3716967613935075,
                -1.8088571525922612
            ]
        },
        {
            "positions": [
                -0.4455794526625898,
                -1.0740351667981345,
                -0.17406269847957206,
                -1.8765238637246546,
                -0.33886180157329227,
                -1.8962586023902002
            ]
        },
        {
            "positions": [
                -0.40496448632901405,
                -1.0791838437004544,
                -0.019789510657879594,
                -1.8035098387939605,
                -0.30602684175307704,
                -1.9836600521881393
            ]
        },
        {
            "positions": [
                -0.36434951999543824,
                -1.0843325206027745,
                0.13448367716381282,
                -1.7304958138632665,
                -0.2731918819328618,
                -2.0710615019860783
            ]
        },
        {
            "positions": [
                -0.32373455366186243,
                -1.0894811975050944,
                0.28875686498550523,
                -1.6574817889325724,
                -0.2403569221126466,
                -2.1584629517840175
            ]
        },
        {
            "positions": [
                -0.2831195873282867,
                -1.0946298744074143,
                0.44303005280719776,
                -1.5844677640018783,
                -0.20752196229243136,
                -2.2458644015819567
            ]
        },
        {
            "positions": [
                -0.24250462099471087,
                -1.0997785513097342,
                0.5973032406288901,
                -1.5114537390711842,
                -0.17468700247221614,
                -2.333265851379896
            ]
        },
        {
            "positions": [
                -0.20188965466113507,
                -1.1049272282120541,
                0.7515764284505826,
                -1.43843971414049,
                -0.1418520426520009,
                -2.4206673011778346
            ]
        },
        {
            "positions": [
                -0.16127468832755926,
                -1.110075905114374,
                0.9058496162722751,
                -1.365425689209796,
                -0.10901708283178568,
                -2.5080687509757738
            ]
        },
        {
            "positions": [
                -0.12065972199398345,
                -1.115224582016694,
                1.0601228040939674,
                -1.292411664279102,
                -0.07618212301157046,
                -2.595470200773713
            ]
        },
        {
            "positions": [
                -0.0800447556604077,
                -1.1203732589190138,
                1.21439599191566,
                -1.2193976393484078,
                -0.04334716319135523,
                -2.682871650571652
            ]
        },
        {
            "positions": [
                -0.03942978932683189,
                -1.1255219358213338,
                1.3686691797373525,
                -1.146383614417714,
                -0.010512203371140005,
                -2.7702731003695913
            ]
        },
        {
            "positions": [
                0.0011851770067439205,
                -1.1306706127236539,
                1.5229423675590448,
                -1.0733695894870199,
                0.02232275644907522,
                -2.8576745501675305
            ]
        },
        {
            "positions": [
                0.04180014334031967,
                -1.1358192896259738,
                1.677215555380737,
                -1.0003555645563258,
                0.05515771626929045,
                -2.9450759999654696
            ]
        },
        {
            "positions": [
                0.08241510967389554,
                -1.1409679665282937,
                1.8314887432024298,
                -0.9273415396256317,
                0.08799267608950567,
                -3.0324774497634084
            ]
        },
        {
            "positions": [
                0.12303007600747125,
                -1.1461166434306136,
                1.9857619310241221,
                -0.8543275146949376,
                0.12082763590972087,
                -3.1198788995613476
            ]
        }
    ]
}{
    "goal": {
        "global_pose": {
            "orientation": {
                "w": 0.7047431468963623,
                "x": -0.7094548344612122,
                "y": 0.0024358443915843964,
                "z": -0.0022348060738295317
            },
            "position": {
                "x": 0.6094750761985779,
                "y": 0.3671506643295288,
                "z": 0.19426114857196808
            }
        },
        "name": "move_to_magneteinheit_A"
    },
    "id": "STRIDE_move_to_magneteinheit_A_16",
    "joint_names": [
        "shoulder_pan_joint",
        "shoulder_lift_joint",
        "elbow_joint",
        "wrist_1_joint",
        "wrist_2_joint",
        "wrist_3_joint"
    ],
    "metrics": {
        "cart_traj_len": 3.259534577556632,
        "distance_elbow_joint": 2.6686472841994666,
        "distance_shoulder_lift_joint": 0.7620918358634543,
        "distance_shoulder_pan_joint": 3.8666942630243053,
        "distance_wrist_1_joint": 1.8352742350392748,
        "distance_wrist_2_joint": 1.4318640496494832,
        "distance_wrist_3_joint": 4.3389410880217625,
        "smoothness": 0.3650756199234836,
        "time": 0.10913508499999999,
        "traj_len": 3.86050680038227,
        "weighted_distance": 5.181557026274056
    },
    "planner": "STRIDE",
    "start": {
        "state": {
            "elbow_joint": 1.919643534880228,
            "shoulder_lift_joint": -1.8972525353963687,
            "shoulder_pan_joint": -1.1188672234189438,
            "wrist_1_joint": -1.5931878212786155,
            "wrist_2_joint": 1.5706036197970081,
            "wrist_3_joint": 1.118896926603594
        }
    },
    "waypoints": [
        {
            "positions": [
                -1.1188672234189438,
                -1.8972525353963687,
                1.919643534880228,
                -1.5931878212786155,
                1.5706036197970081,
                1.118896926603594
            ]
        },
        {
            "positions": [
                -1.1879497973221602,
                -1.8831411752355318,
                1.8505856081648582,
                -1.5224811558629163,
                1.5674205577967257,
                0.9644132164855742
            ]
        },
        {
            "positions": [
                -1.2570323712253768,
                -1.869029815074695,
                1.7815276814494883,
                -1.4517744904472172,
                1.5642374957964433,
                0.8099295063675545
            ]
        },
        {
            "positions": [
                -1.3261149451285932,
                -1.854918454913858,
                1.712469754734118,
                -1.381067825031518,
                1.561054433796161,
                0.6554457962495348
            ]
        },
        {
            "positions": [
                -1.3951975190318098,
                -1.840807094753021,
                1.6434118280187482,
                -1.310361159615819,
                1.5578713717958785,
                0.500962086131515
            ]
        },
        {
            "positions": [
                -1.4642800929350261,
                -1.8266957345921842,
                1.5743539013033783,
                -1.2396544942001197,
                1.5546883097955964,
                0.3464783760134953
            ]
        },
        {
            "positions": [
                -1.5333626668382427,
                -1.8125843744313472,
                1.5052959745880083,
                -1.1689478287844208,
                1.551505247795314,
                0.19199466589547554
            ]
        },
        {
            "positions": [
                -1.602445240741459,
                -1.7984730142705103,
                1.4362380478726384,
                -1.0982411633687215,
                1.5483221857950316,
                0.03751095577745578
            ]
        },
        {
            "positions": [
                -1.6715278146446755,
                -1.7843616541096734,
                1.3671801211572685,
                -1.0275344979530225,
                1.5451391237947492,
                -0.11697275434056387
            ]
        },
        {
            "positions": [
                -1.740610388547892,
                -1.7702502939488367,
                1.2981221944418984,
                -0.9568278325373233,
                1.5419560617944668,
                -0.27145646445858373
            ]
        },
        {
            "positions": [
                -1.8096929624511087,
                -1.7561389337879998,
                1.2290642677265284,
                -0.8861211671216241,
                1.5387729997941844,
                -0.4259401745766034
            ]
        },
        {
            "positions": [
                -1.878775536354325,
                -1.7420275736271629,
                1.1600063410111585,
                -0.815414501705925,
                1.535589937793902,
                -0.5804238846946235
            ]
        },
        {
            "positions": [
                -1.9478581102575414,
                -1.727916213466326,
                1.0909484142957884,
                -0.744707836290226,
                1.5324068757936196,
                -0.7349075948126429
            ]
        },
        {
            "positions": [
                -2.0169406841607582,
                -1.713804853305489,
                1.0218904875804184,
                -0.6740011708745267,
                1.5292238137933372,
                -0.889391304930663
            ]
        },
        {
            "positions": [
                -2.0860232580639746,
                -1.6996934931446521,
                0.9528325608650486,
                -0.6032945054588277,
                1.526040751793055,
                -1.0438750150486824
            ]
        },
        {
            "positions": [
                -2.155105831967191,
                -1.6855821329838152,
                0.8837746341496786,
                -0.5325878400431285,
                1.5228576897927726,
                -1.1983587251667023
            ]
        },
        {
            "positions": [
                -2.2241884058704073,
                -1.6714707728229783,
                0.8147167074343087,
                -0.4618811746274294,
                1.5196746277924902,
                -1.3528424352847217
            ]
        },
        {
            "positions": [
                -2.2932709797736237,
                -1.6573594126621414,
                0.7456587807189385,
                -0.39117450921173025,
                1.5164915657922078,
                -1.507326145402742
            ]
        },
        {
            "positions": [
                -2.36235355367684,
                -1.6432480525013045,
                0.6766008540035688,
                -0.3204678437960311,
                1.5133085037919254,
                -1.6618098555207614
            ]
        },
        {
            "positions": [
                -2.431436127580057,
                -1.6291366923404675,
                0.6075429272881987,
                -0.24976117838033185,
                1.510125441791643,
                -1.816293565638781
            ]
        },
        {
            "positions": [
                -2.3037298596368974,
                -1.60443789270009,
                0.6753702611185706,
                -0.2743535579873815,
                1.441556148209437,
                -1.8864810954277504
            ]
        },
        {
            "positions": [
                -2.176023591693738,
                -1.5797390930597122,
                0.7431975949489424,
                -0.2989459375944311,
                1.3729868546272312,
                -1.9566686252167196
            ]
        },
        {
            "positions": [
                -2.048317323750578,
                -1.5550402934193346,
                0.8110249287793143,
                -0.32353831720148074,
                1.3044175610450253,
                -2.026856155005689
            ]
        },
        {
            "positions": [
                -1.9206110558074183,
                -1.530341493778957,
                0.8788522626096863,
                -0.34813069680853037,
                1.2358482674628193,
                -2.097043684794658
            ]
        },
        {
            "positions": [
                -1.7929047878642588,
                -1.5056426941385792,
                0.9466795964400582,
                -0.37272307641558,
                1.1672789738806135,
                -2.1672312145836274
            ]
        },
        {
            "positions": [
                -1.6651985199210992,
                -1.4809438944982016,
                1.01450693027043,
                -0.39731545602262963,
                1.0987096802984075,
                -2.237418744372597
            ]
        },
        {
            "positions": [
                -1.5374922519779397,
                -1.456245094857824,
                1.082334264100802,
                -0.4219078356296792,
                1.0301403867162016,
                -2.307606274161566
            ]
        },
        {
            "positions": [
                -1.40978598403478,
                -1.4315462952174463,
                1.150161597931174,
                -0.4465002152367289,
                0.9615710931339957,
                -2.3777938039505355
            ]
        },
        {
            "positions": [
                -1.2820797160916202,
                -1.4068474955770687,
                1.2179889317615458,
                -0.47109259484377847,
                0.8930017995517898,
                -2.447981333739505
            ]
        },
        {
            "positions": [
                -1.1543734481484607,
                -1.3821486959366909,
                1.2858162655919176,
                -0.4956849744508281,
                0.824432505969584,
                -2.518168863528474
            ]
        },
        {
            "positions": [
                -1.026667180205301,
                -1.3574498962963133,
                1.3536435994222895,
                -0.5202773540578778,
                0.755863212387378,
                -2.5883563933174436
            ]
        },
        {
            "positions": [
                -0.8989609122621414,
                -1.3327510966559357,
                1.4214709332526614,
                -0.5448697336649273,
                0.6872939188051722,
                -2.6585439231064125
            ]
        },
        {
            "positions": [
                -0.7712546443189818,
                -1.308052297015558,
                1.4892982670830333,
                -0.569462113271977,
                0.6187246252229662,
                -2.728731452895382
            ]
        },
        {
            "positions": [
                -0.6435483763758223,
                -1.2833534973751803,
                1.5571256009134051,
                -0.5940544928790266,
                0.5501553316407604,
                -2.7989189826843512
            ]
        },
        {
            "positions": [
                -0.5158421084326625,
                -1.2586546977348028,
                1.624952934743777,
                -0.6186468724860762,
                0.4815860380585544,
                -2.8691065124733206
            ]
        },
        {
            "positions": [
                -0.388135840489503,
                -1.233955898094425,
                1.692780268574149,
                -0.6432392520931258,
                0.4130167444763484,
                -2.93929404226229
            ]
        },
        {
            "positions": [
                -0.26042957254634347,
                -1.2092570984540474,
                1.760607602404521,
                -0.6678316317001755,
                0.34444745089414264,
                -3.009481572051259
            ]
        },
        {
            "positions": [
                -0.1327233046031835,
                -1.1845582988136698,
                1.8284349362348928,
                -0.6924240113072251,
                0.27587815731193666,
                -3.0796691018402287
            ]
        },
        {
            "positions": [
                -0.005017036660023955,
                -1.159859499173292,
                1.8962622700652647,
                -0.7170163909142747,
                0.2073088637297309,
                -3.1498566316291976
            ]
        },
        {
            "positions": [
                0.12268923128313573,
                -1.1351606995329144,
                1.9640896038956366,
                -0.7416087705213243,
                0.13873957014752492,
                -3.220044161418167
            ]
        }
    ]
}