{
    "goal": {
        "global_pose": {
            "orientation": {
                "w": 0.7047431468963623,
                "x": -0.7094548344612122,
                "y": 0.0024358443915843964,
                "z": -0.0022348060738295317
            },
            "position": {
                "x": 0.6094750761985779,
                "y": 0.3671506643295288,
                "z": 0.19426114857196808
            }
        },
        "name": "move_to_magneteinheit_A"
    },
    "id": "STRIDE_move_to_magneteinheit_A_98",
    "joint_names": [
        "shoulder_pan_joint",
        "shoulder_lift_joint",
        "elbow_joint",
        "wrist_1_joint",
        "wrist_2_joint",
        "wrist_3_joint"
    ],
    "metrics": {
        "cart_traj_len": 3.402504620579763,
        "distance_elbow_joint": 3.8844314803703197,
        "distance_shoulder_lift_joint": 0.2443545200651167,
        "distance_shoulder_pan_joint": 2.778138826427166,
        "distance_wrist_1_joint": 1.3052619286536893,
        "distance_wrist_2_joint": 2.3030461133516953,
        "distance_wrist_3_joint": 3.6747264456591036,
        "smoothness": 0.1784758399501222,
        "time": 0.11707372999999999,
        "traj_len": 3.7669562400600167,
        "weighted_distance": 5.014750267745213
    },
    "planner": "STRIDE",
    "start": {
        "state": {
            "elbow_joint": -1.919618573717145,
            "shoulder_lift_joint": -1.2443395971678275,
            "shoulder_pan_joint": 2.6996025300909787,
            "wrist_1_joint": -1.548550951253194,
            "wrist_2_joint": -1.5709469090946802,
            "wrist_3_joint": 0.4420197732051276
        }
    },
    "waypoints": [
        {
            "positions": [
                2.6996025300909787,
                -1.2443395971678275,
                -1.919618573717145,
                -1.548550951253194,
                -1.5709469090946802,
                0.4420197732051276
            ]
        },
        {
            "positions": [
                2.6118239136353583,
                -1.246857219485268,
                -1.80389274099573,
                -1.50945397460693,
                -1.4973071909622293,
                0.3747052558477698
            ]
        },
        {
            "positions": [
                2.524045297179738,
                -1.2493748418027084,
                -1.688166908274315,
                -1.4703569979606657,
                -1.4236674728297785,
                0.307390738490412
            ]
        },
        {
            "positions": [
                2.4362666807241173,
                -1.251892464120149,
                -1.5724410755529,
                -1.4312600213144016,
                -1.3500277546973276,
                0.24007622113305419
            ]
        },
        {
            "positions": [
                2.348488064268497,
                -1.2544100864375896,
                -1.4567152428314847,
                -1.3921630446681372,
                -1.2763880365648768,
                0.17276170377569638
            ]
        },
        {
            "positions": [
                2.260709447812877,
                -1.2569277087550301,
                -1.3409894101100697,
                -1.3530660680218731,
                -1.202748318432426,
                0.10544718641833856
            ]
        },
        {
            "positions": [
                2.1729308313572564,
                -1.2594453310724705,
                -1.2252635773886547,
                -1.3139690913756088,
                -1.129108600299975,
                0.038132669060980784
            ]
        },
        {
            "positions": [
                2.085152214901636,
                -1.261962953389911,
                -1.1095377446672396,
                -1.2748721147293447,
                -1.0554688821675242,
                -0.029181848296377044
            ]
        },
        {
            "positions": [
                1.9973735984460155,
                -1.2644805757073516,
                -0.9938119119458245,
                -1.2357751380830804,
                -0.9818291640350733,
                -0.09649636565373482
            ]
        },
        {
            "positions": [
                1.909594981990395,
                -1.2669981980247922,
                -0.8780860792244096,
                -1.1966781614368163,
                -0.9081894459026224,
                -0.16381088301109265
            ]
        },
        {
            "positions": [
                1.8218163655347746,
                -1.2695158203422325,
                -0.7623602465029944,
                -1.1575811847905522,
                -0.8345497277701716,
                -0.23112540036845047
            ]
        },
        {
            "positions": [
                1.734037749079154,
                -1.272033442659673,
                -0.6466344137815794,
                -1.1184842081442878,
                -0.7609100096377207,
                -0.2984399177258083
            ]
        },
        {
            "positions": [
                1.6462591326235338,
                -1.2745510649771137,
                -0.5309085810601644,
                -1.0793872314980237,
                -0.6872702915052699,
                -0.365754435083166
            ]
        },
        {
            "positions": [
                1.5584805161679134,
                -1.2770686872945543,
                -0.41518274833874935,
                -1.0402902548517594,
                -0.613630573372819,
                -0.43306895244052385
            ]
        },
        {
            "positions": [
                1.470701899712293,
                -1.2795863096119946,
                -0.29945691561733434,
                -1.0011932782054953,
                -0.539990855240368,
                -0.5003834697978817
            ]
        },
        {
            "positions": [
                1.3829232832566725,
                -1.2821039319294352,
                -0.1837310828959191,
                -0.962096301559231,
                -0.4663511371079172,
                -0.5676979871552394
            ]
        },
        {
            "positions": [
                1.2951446668010522,
                -1.2846215542468757,
                -0.0680052501745041,
                -0.9229993249129669,
                -0.39271141897546635,
                -0.6350125045125972
            ]
        },
        {
            "positions": [
                1.2073660503454318,
                -1.2871391765643163,
                0.04772058254691092,
                -0.8839023482667027,
                -0.3190717008430155,
                -0.7023270218699551
            ]
        },
        {
            "positions": [
                1.1195874338898113,
                -1.2896567988817567,
                0.1634464152683257,
                -0.8448053716204385,
                -0.24543198271056466,
                -0.7696415392273128
            ]
        },
        {
            "positions": [
                1.0318088174341908,
                -1.2921744211991972,
                0.27917224798974094,
                -0.8057083949741742,
                -0.17179226457811358,
                -0.8369560565846708
            ]
        },
        {
            "positions": [
                0.9440302009785706,
                -1.2946920435166378,
                0.3948980807111562,
                -0.7666114183279101,
                -0.09815254644566296,
                -0.9042705739420285
            ]
        },
        {
            "positions": [
                0.8562515845229501,
                -1.2972096658340784,
                0.5106239134325714,
                -0.7275144416816458,
                -0.024512828313211887,
                -0.9715850912993864
            ]
        },
        {
            "positions": [
                0.7684729680673297,
                -1.2997272881515187,
                0.6263497461539862,
                -0.6884174650353817,
                0.04912688981923874,
                -1.0388996086567441
            ]
        },
        {
            "positions": [
                0.6806943516117094,
                -1.3022449104689593,
                0.7420755788754014,
                -0.6493204883891174,
                0.12276660795168981,
                -1.1062141260141019
            ]
        },
        {
            "positions": [
                0.592915735156089,
                -1.3047625327863999,
                0.8578014115968162,
                -0.6102235117428533,
                0.19640632608414044,
                -1.1735286433714596
            ]
        },
        {
            "positions": [
                0.5051371187004685,
                -1.3072801551038404,
                0.9735272443182315,
                -0.5711265350965891,
                0.2700460442165915,
                -1.2408431607288175
            ]
        },
        {
            "positions": [
                0.41735850224484805,
                -1.3097977774212808,
                1.0892530770396462,
                -0.532029558450325,
                0.34368576234904213,
                -1.3081576780861752
            ]
        },
        {
            "positions": [
                0.3295798857892278,
                -1.3123153997387214,
                1.2049789097610617,
                -0.4929325818040606,
                0.4173254804814932,
                -1.3754721954435332
            ]
        },
        {
            "positions": [
                0.26604767011141567,
                -1.297901526971905,
                1.3123874840559695,
                -0.5006928065231483,
                0.37814146637815976,
                -1.4879093466490383
            ]
        },
        {
            "positions": [
                0.20251545443360353,
                -1.2834876542050888,
                1.419796058350877,
                -0.508453031242236,
                0.3389574522748263,
                -1.6003464978545434
            ]
        },
        {
            "positions": [
                0.13898323875579138,
                -1.2690737814382724,
                1.5272046326457849,
                -0.5162132559613237,
                0.2997734381714929,
                -1.7127836490600485
            ]
        },
        {
            "positions": [
                0.10978366636224508,
                -1.2520906486479504,
                1.6076121090933115,
                -0.5379206831943302,
                0.26012707136837965,
                -1.8729853826626273
            ]
        },
        {
            "positions": [
                0.08058409396869878,
                -1.2351075158576286,
                1.6880195855408382,
                -0.5596281104273365,
                0.2204807045652664,
                -2.0331871162652058
            ]
        },
        {
            "positions": [
                0.0513845215751525,
                -1.2181243830673067,
                1.7684270619883649,
                -0.5813355376603428,
                0.18083433776215313,
                -2.1933888498677847
            ]
        },
        {
            "positions": [
                0.0221849491816062,
                -1.2011412502769847,
                1.8488345384358915,
                -0.6030429648933493,
                0.1411879709590399,
                -2.353590583470363
            ]
        },
        {
            "positions": [
                0.04032950718249925,
                -1.183549954754663,
                1.8946277709841863,
                -0.6517153208307316,
                0.13093773964033756,
                -2.5838348463228247
            ]
        },
        {
            "positions": [
                0.058474065183392314,
                -1.1659586592323417,
                1.9404210035324811,
                -0.7003876767681139,
                0.12068750832163523,
                -2.814079109175286
            ]
        },
        {
            "positions": [
                0.09069012994139683,
                -1.15094767073842,
                1.9526169550928274,
                -0.7214819088883652,
                0.12975538412946783,
                -3.0233928908146313
            ]
        },
        {
            "positions": [
                0.12290619469940132,
                -1.1359366822444985,
                1.9648129066531734,
                -0.7425761410086165,
                0.13882325993730044,
                -3.2327066724539764
            ]
        }
    ]
}{
    "goal": {
        "global_pose": {
            "orientation": {
                "w": 0.7047431468963623,
                "x": -0.7094548344612122,
                "y": 0.0024358443915843964,
                "z": -0.0022348060738295317
            },
            "position": {
                "x": 0.6094750761985779,
                "y": 0.3671506643295288,
                "z": 0.19426114857196808
            }
        },
        "name": "move_to_magneteinheit_A"
    },
    "id": "STRIDE_move_to_magneteinheit_A_98",
    "joint_names": [
        "shoulder_pan_joint",
        "shoulder_lift_joint",
        "elbow_joint",
        "wrist_1_joint",
        "wrist_2_joint",
        "wrist_3_joint"
    ],
    "metrics": {
        "cart_traj_len": 1.4397577554350607,
        "distance_elbow_joint": 0.9048636219182697,
        "distance_shoulder_lift_joint": 0.7593877981549186,
        "distance_shoulder_pan_joint": 1.2420631898495702,
        "distance_wrist_1_joint": 1.0151094533595728,
        "distance_wrist_2_joint": 1.4344232567398127,
        "distance_wrist_3_joint": 4.331828875840191,
        "smoothness": 0.11755789862810541,
        "time": 0.160556603,
        "traj_len": 3.1125032041529423,
        "weighted_distance": 4.560796713036233
    },
    "planner": "STRIDE",
    "start": {
        "state": {
            "elbow_joint": 1.919643534880228,
            "shoulder_lift_joint": -1.8972525353963687,
            "shoulder_pan_joint": -1.1188672234189438,
            "wrist_1_joint": -1.5931878212786155,
            "wrist_2_joint": 1.5706036197970081,
            "wrist_3_joint": 1.118896926603594
        }
    },
    "waypoints": [
        {
            "positions": [
                -1.1188672234189438,
                -1.8972525353963687,
                1.919643534880228,
                -1.5931878212786155,
                1.5706036197970081,
                1.118896926603594
            ]
        },
        {
            "positions": [
                -1.0996784280827068,
                -1.8624052436056622,
                1.894461943816165,
                -1.5387223462895496,
                1.5058261214765876,
                0.9280647124259364
            ]
        },
        {
            "positions": [
                -1.08048963274647,
                -1.8275579518149556,
                1.8692803527521018,
                -1.4842568713004836,
                1.441048623156167,
                0.7372324982482787
            ]
        },
        {
            "positions": [
                -1.0613008374102328,
                -1.792710660024249,
                1.8440987616880387,
                -1.4297913963114177,
                1.3762711248357462,
                0.546400284070621
            ]
        },
        {
            "positions": [
                -1.0421120420739958,
                -1.7578633682335425,
                1.8189171706239755,
                -1.3753259213223517,
                1.3114936265153256,
                0.3555680698929634
            ]
        },
        {
            "positions": [
                -1.022923246737759,
                -1.723016076442836,
                1.7937355795599124,
                -1.3208604463332856,
                1.246716128194905,
                0.1647358557153057
            ]
        },
        {
            "positions": [
                -1.0037344514015218,
                -1.6881687846521294,
                1.7685539884958492,
                -1.2663949713442197,
                1.1819386298744843,
                -0.02609635846235192
            ]
        },
        {
            "positions": [
                -0.9845456560652849,
                -1.6533214928614228,
                1.743372397431786,
                -1.211929496355154,
                1.117161131554064,
                -0.21692857264000942
            ]
        },
        {
            "positions": [
                -0.9653568607290479,
                -1.6184742010707165,
                1.718190806367723,
                -1.1574640213660878,
                1.0523836332336431,
                -0.40776078681766714
            ]
        },
        {
            "positions": [
                -0.9461680653928108,
                -1.5836269092800097,
                1.6930092153036598,
                -1.102998546377022,
                0.9876061349132226,
                -0.5985930009953249
            ]
        },
        {
            "positions": [
                -0.9269792700565739,
                -1.5487796174893034,
                1.6678276242395966,
                -1.048533071387956,
                0.9228286365928019,
                -0.7894252151729826
            ]
        },
        {
            "positions": [
                -0.9077904747203369,
                -1.5139323256985966,
                1.6426460331755335,
                -0.99406759639889,
                0.8580511382723812,
                -0.9802574293506401
            ]
        },
        {
            "positions": [
                -0.8886016793840998,
                -1.4790850339078903,
                1.6174644421114703,
                -0.939602121409824,
                0.7932736399519607,
                -1.1710896435282978
            ]
        },
        {
            "positions": [
                -0.8694128840478629,
                -1.4442377421171837,
                1.5922828510474072,
                -0.8851366464207582,
                0.7284961416315401,
                -1.361921857705955
            ]
        },
        {
            "positions": [
                -0.8502240887116259,
                -1.4093904503264771,
                1.567101259983344,
                -0.8306711714316922,
                0.6637186433111195,
                -1.5527540718836128
            ]
        },
        {
            "positions": [
                -0.8310352933753888,
                -1.3745431585357706,
                1.541919668919281,
                -0.7762056964426263,
                0.5989411449906988,
                -1.7435862860612705
            ]
        },
        {
            "positions": [
                -0.811846498039152,
                -1.339695866745064,
                1.5167380778552177,
                -0.7217402214535603,
                0.5341636466702782,
                -1.9344185002389283
            ]
        },
        {
            "positions": [
                -0.7926577027029149,
                -1.3048485749543575,
                1.4915564867911546,
                -0.6672747464644944,
                0.46938614834985765,
                -2.125250714416586
            ]
        },
        {
            "positions": [
                -0.6781759940612223,
                -1.283975595240244,
                1.5511535585198042,
                -0.6784242937826759,
                0.4277354251882749,
                -2.2612108687690875
            ]
        },
        {
            "positions": [
                -0.5636942854195296,
                -1.2631026155261307,
                1.6107506302484538,
                -0.6895738411008573,
                0.3860847020266922,
                -2.3971710231215893
            ]
        },
        {
            "positions": [
                -0.449212576777837,
                -1.2422296358120173,
                1.6703477019771031,
                -0.7007233884190388,
                0.34443397886510946,
                -2.5331311774740906
            ]
        },
        {
            "positions": [
                -0.33473086813614433,
                -1.2213566560979037,
                1.7299447737057527,
                -0.7118729357372202,
                0.3027832557035267,
                -2.669091331826592
            ]
        },
        {
            "positions": [
                -0.22024915949445167,
                -1.2004836763837903,
                1.7895418454344023,
                -0.7230224830554017,
                0.26113253254194396,
                -2.8050514861790936
            ]
        },
        {
            "positions": [
                -0.10576745085275907,
                -1.1796106966696769,
                1.8491389171630517,
                -0.7341720303735833,
                0.21948180938036124,
                -2.941011640531595
            ]
        },
        {
            "positions": [
                0.008714257788933644,
                -1.1587377169555635,
                1.9087359888917013,
                -0.7453215776917647,
                0.17783108621877852,
                -3.0769717948840967
            ]
        },
        {
            "positions": [
                0.12319596643062629,
                -1.13786473724145,
                1.9683330606203508,
                -0.7564711250099462,
                0.13618036305719577,
                -3.212931949236598
            ]
        }
    ]
}