{
    "goal": {
        "global_pose": {
            "orientation": {
                "w": 0.5084816217422485,
                "x": -0.49083608388900757,
                "y": 0.5182115435600281,
                "z": -0.4816462993621826
            },
            "position": {
                "x": 0.5540239810943604,
                "y": 0.030875300988554955,
                "z": 0.16403168439865112
            }
        },
        "name": "move_to_storage_A"
    },
    "id": "STRIDE_move_to_storage_A_29",
    "joint_names": [
        "shoulder_pan_joint",
        "shoulder_lift_joint",
        "elbow_joint",
        "wrist_1_joint",
        "wrist_2_joint",
        "wrist_3_joint"
    ],
    "metrics": {
        "cart_traj_len": 0.3533333061006263,
        "distance_elbow_joint": 0.45185460984608694,
        "distance_shoulder_lift_joint": 0.23171880205439654,
        "distance_shoulder_pan_joint": 0.4635233821534107,
        "distance_wrist_1_joint": 0.2574776077162674,
        "distance_wrist_2_joint": 1.0914354309463135,
        "distance_wrist_3_joint": 0.10549282093258094,
        "smoothness": 1.3322676295501878e-15,
        "time": 0.034314637,
        "traj_len": 1.6129174354718396,
        "weighted_distance": 2.0399513068151403
    },
    "planner": "STRIDE",
    "start": {
        "state": {
            "elbow_joint": 1.9715477243005601,
            "shoulder_lift_joint": -1.1394853015351272,
            "shoulder_pan_joint": 0.12281154014795169,
            "wrist_1_joint": -0.7804696478968182,
            "wrist_2_joint": 0.12958648046900423,
            "wrist_3_joint": -3.192491284697111
        }
    },
    "waypoints": [
        {
            "positions": [
                0.12281154014795169,
                -1.1394853015351272,
                1.9715477243005601,
                -0.7804696478968182,
                0.12958648046900423,
                -3.192491284697111
            ]
        },
        {
            "positions": [
                0.05659391412603587,
                -1.1725879875428982,
                2.036098382850001,
                -0.8172521632848564,
                0.285505827747049,
                -3.1774208817067424
            ]
        },
        {
            "positions": [
                -0.009623711895879947,
                -1.205690673550669,
                2.1006490413994423,
                -0.8540346786728945,
                0.44142517502509376,
                -3.1623504787163736
            ]
        },
        {
            "positions": [
                -0.07584133791779575,
                -1.23879335955844,
                2.165199699948883,
                -0.8908171940609327,
                0.5973445223031386,
                -3.147280075726005
            ]
        },
        {
            "positions": [
                -0.14205896393971157,
                -1.271896045566211,
                2.229750358498324,
                -0.927599709448971,
                0.7532638695811833,
                -3.1322096727356366
            ]
        },
        {
            "positions": [
                -0.2082765899616274,
                -1.304998731573982,
                2.294301017047765,
                -0.9643822248370091,
                0.9091832168592281,
                -3.117139269745268
            ]
        },
        {
            "positions": [
                -0.2744942159835432,
                -1.3381014175817527,
                2.358851675597206,
                -1.0011647402250474,
                1.065102564137273,
                -3.102068866754899
            ]
        },
        {
            "positions": [
                -0.340711842005459,
                -1.3712041035895237,
                2.423402334146647,
                -1.0379472556130855,
                1.2210219114153178,
                -3.0869984637645302
            ]
        }
    ]
}