{
    "goal": {
        "global_pose": {
            "orientation": {
                "w": 0.5084816217422485,
                "x": -0.49083608388900757,
                "y": 0.5182115435600281,
                "z": -0.4816462993621826
            },
            "position": {
                "x": 0.5540239810943604,
                "y": 0.030875300988554955,
                "z": 0.16403168439865112
            }
        },
        "name": "move_to_storage_A"
    },
    "id": "STRIDE_move_to_storage_A_117",
    "joint_names": [
        "shoulder_pan_joint",
        "shoulder_lift_joint",
        "elbow_joint",
        "wrist_1_joint",
        "wrist_2_joint",
        "wrist_3_joint"
    ],
    "metrics": {
        "cart_traj_len": 0.35281155238993345,
        "distance_elbow_joint": 0.44751874959472726,
        "distance_shoulder_lift_joint": 0.23618851559645204,
        "distance_shoulder_pan_joint": 0.461976605386626,
        "distance_wrist_1_joint": 0.23283837412329433,
        "distance_wrist_2_joint": 1.09593597428371,
        "distance_wrist_3_joint": 0.09834123392709015,
        "smoothness": 0.0,
        "time": 0.035227739,
        "traj_len": 1.6039948419218497,
        "weighted_distance": 2.02441504370351
    },
    "planner": "STRIDE",
    "start": {
        "state": {
            "elbow_joint": 1.9715477243005601,
            "shoulder_lift_joint": -1.1394853015351272,
            "shoulder_pan_joint": 0.12281154014795169,
            "wrist_1_joint": -0.7804696478968182,
            "wrist_2_joint": 0.12958648046900423,
            "wrist_3_joint": -3.192491284697111
        }
    },
    "waypoints": [
        {
            "positions": [
                0.12281154014795169,
                -1.1394853015351272,
                1.9715477243005601,
                -0.7804696478968182,
                0.12958648046900423,
                -3.192491284697111
            ]
        },
        {
            "positions": [
                0.056814882235576555,
                -1.173226518048906,
                2.035478974242664,
                -0.8137322727715744,
                0.28614876250953425,
                -3.178442536993241
            ]
        },
        {
            "positions": [
                -0.009181775676798579,
                -1.2069677345626848,
                2.099410224184768,
                -0.8469948976463308,
                0.4427110445500642,
                -3.164393789289371
            ]
        },
        {
            "positions": [
                -0.07517843358917371,
                -1.2407089510764637,
                2.163341474126872,
                -0.8802575225210871,
                0.5992733265905943,
                -3.150345041585501
            ]
        },
        {
            "positions": [
                -0.14117509150154883,
                -1.2744501675902427,
                2.2272727240689756,
                -0.9135201473958435,
                0.7558356086311242,
                -3.1362962938816312
            ]
        },
        {
            "positions": [
                -0.20717174941392402,
                -1.3081913841040216,
                2.2912039740110797,
                -0.9467827722705998,
                0.9123978906716542,
                -3.122247546177761
            ]
        },
        {
            "positions": [
                -0.2731684073262991,
                -1.3419326006178003,
                2.3551352239531833,
                -0.9800453971453562,
                1.0689601727121842,
                -3.1081987984738912
            ]
        },
        {
            "positions": [
                -0.3391650652386743,
                -1.3756738171315792,
                2.4190664738952874,
                -1.0133080220201125,
                1.2255224547527144,
                -3.094150050770021
            ]
        }
    ]
}