{
    "goal": {
        "global_pose": {
            "orientation": {
                "w": 0.7047431468963623,
                "x": -0.7094548344612122,
                "y": 0.0024358443915843964,
                "z": -0.0022348060738295317
            },
            "position": {
                "x": 0.6094750761985779,
                "y": 0.3671506643295288,
                "z": 0.19426114857196808
            }
        },
        "name": "move_to_magneteinheit_A"
    },
    "id": "STRIDE_move_to_magneteinheit_A_150",
    "joint_names": [
        "shoulder_pan_joint",
        "shoulder_lift_joint",
        "elbow_joint",
        "wrist_1_joint",
        "wrist_2_joint",
        "wrist_3_joint"
    ],
    "metrics": {
        "cart_traj_len": 2.9602542859898753,
        "distance_elbow_joint": 4.268030597044104,
        "distance_shoulder_lift_joint": 1.490312915707845,
        "distance_shoulder_pan_joint": 3.08275022021296,
        "distance_wrist_1_joint": 2.4109443891076765,
        "distance_wrist_2_joint": 1.6953345551763066,
        "distance_wrist_3_joint": 3.601764664265928,
        "smoothness": 0.21855114233269662,
        "time": 0.112809852,
        "traj_len": 4.068063094583812,
        "weighted_distance": 5.2781574071195205
    },
    "planner": "STRIDE",
    "start": {
        "state": {
            "elbow_joint": -1.919618573717145,
            "shoulder_lift_joint": -1.2443395971678275,
            "shoulder_pan_joint": 2.6996025300909787,
            "wrist_1_joint": -1.548550951253194,
            "wrist_2_joint": -1.5709469090946802,
            "wrist_3_joint": 0.4420197732051276
        }
    },
    "waypoints": [
        {
            "positions": [
                2.6996025300909787,
                -1.2443395971678275,
                -1.919618573717145,
                -1.548550951253194,
                -1.5709469090946802,
                0.4420197732051276
            ]
        },
        {
            "positions": [
                2.605277239608129,
                -1.2675034303861732,
                -1.7835329428184168,
                -1.496166360099969,
                -1.5241623395732755,
                0.4063154810447622
            ]
        },
        {
            "positions": [
                2.510951949125279,
                -1.290667263604519,
                -1.6474473119196889,
                -1.4437817689467443,
                -1.477377770051871,
                0.37061118888439676
            ]
        },
        {
            "positions": [
                2.416626658642429,
                -1.3138310968228648,
                -1.5113616810209607,
                -1.3913971777935192,
                -1.4305932005304665,
                0.3349068967240313
            ]
        },
        {
            "positions": [
                2.322301368159579,
                -1.3369949300412107,
                -1.3752760501222328,
                -1.3390125866402944,
                -1.383808631009062,
                0.2992026045636659
            ]
        },
        {
            "positions": [
                2.2279760776767294,
                -1.3601587632595564,
                -1.2391904192235046,
                -1.2866279954870694,
                -1.3370240614876574,
                0.26349831240330046
            ]
        },
        {
            "positions": [
                2.1336507871938792,
                -1.3833225964779021,
                -1.1031047883247767,
                -1.2342434043338444,
                -1.290239491966253,
                0.22779402024293505
            ]
        },
        {
            "positions": [
                2.0393254967110295,
                -1.406486429696248,
                -0.9670191574260485,
                -1.1818588131806194,
                -1.2434549224448483,
                0.19208972808256963
            ]
        },
        {
            "positions": [
                1.9450002062281797,
                -1.4296502629145937,
                -0.8309335265273206,
                -1.1294742220273946,
                -1.196670352923444,
                0.15638543592220422
            ]
        },
        {
            "positions": [
                1.85067491574533,
                -1.4528140961329397,
                -0.6948478956285924,
                -1.0770896308741698,
                -1.1498857834020393,
                0.1206811437618388
            ]
        },
        {
            "positions": [
                1.7563496252624802,
                -1.4759779293512854,
                -0.5587622647298645,
                -1.0247050397209447,
                -1.1031012138806349,
                0.08497685160147339
            ]
        },
        {
            "positions": [
                1.6620243347796302,
                -1.499141762569631,
                -0.4226766338311365,
                -0.9723204485677197,
                -1.0563166443592302,
                0.04927255944110798
            ]
        },
        {
            "positions": [
                1.5676990442967802,
                -1.522305595787977,
                -0.28659100293240813,
                -0.9199358574144947,
                -1.0095320748378258,
                0.013568267280742508
            ]
        },
        {
            "positions": [
                1.4733737538139304,
                -1.5454694290063227,
                -0.1505053720336802,
                -0.8675512662612698,
                -0.9627475053164212,
                -0.022136024879622906
            ]
        },
        {
            "positions": [
                1.3790484633310804,
                -1.5686332622246684,
                -0.014419741134952035,
                -0.8151666751080449,
                -0.9159629357950166,
                -0.05784031703998832
            ]
        },
        {
            "positions": [
                1.2847231728482307,
                -1.5917970954430143,
                0.1216658897637759,
                -0.76278208395482,
                -0.8691783662736121,
                -0.09354460920035373
            ]
        },
        {
            "positions": [
                1.190397882365381,
                -1.6149609286613602,
                0.25775152066250384,
                -0.710397492801595,
                -0.8223937967522076,
                -0.12924890136071915
            ]
        },
        {
            "positions": [
                1.096072591882531,
                -1.638124761879706,
                0.3938371515612318,
                -0.6580129016483701,
                -0.7756092272308031,
                -0.16495319352108456
            ]
        },
        {
            "positions": [
                1.0017473013996812,
                -1.6612885950980516,
                0.5299227824599602,
                -0.6056283104951452,
                -0.7288246577093985,
                -0.20065748568144998
            ]
        },
        {
            "positions": [
                0.9074220109168314,
                -1.6844524283163973,
                0.6660084133586881,
                -0.5532437193419202,
                -0.682040088187994,
                -0.2363617778418154
            ]
        },
        {
            "positions": [
                0.8130967204339814,
                -1.7076162615347432,
                0.802094044257416,
                -0.5008591281886954,
                -0.6352555186665895,
                -0.2720660700021808
            ]
        },
        {
            "positions": [
                0.7187714299511316,
                -1.730780094753089,
                0.938179675156144,
                -0.44847453703547036,
                -0.5884709491451849,
                -0.3077703621625462
            ]
        },
        {
            "positions": [
                0.6244461394682816,
                -1.7539439279714348,
                1.074265306054872,
                -0.39608994588224533,
                -0.5416863796237805,
                -0.34347465432291163
            ]
        },
        {
            "positions": [
                0.5301208489854314,
                -1.7771077611897805,
                1.2103509369536007,
                -0.3437053547290203,
                -0.49490181010237566,
                -0.37917894648327716
            ]
        },
        {
            "positions": [
                0.43579555850258167,
                -1.8002715944081262,
                1.3464365678523287,
                -0.2913207635757953,
                -0.44811724058097124,
                -0.41488323864364257
            ]
        },
        {
            "positions": [
                0.3414702680197319,
                -1.8234354276264721,
                1.4825221987510566,
                -0.23893617242257048,
                -0.4013326710595666,
                -0.450587530804008
            ]
        },
        {
            "positions": [
                0.24714497753688214,
                -1.846599260844818,
                1.6186078296497846,
                -0.18655158126934546,
                -0.3545481015381622,
                -0.4862918229643734
            ]
        },
        {
            "positions": [
                0.15281968705403237,
                -1.8697630940631638,
                1.7546934605485125,
                -0.13416699011612065,
                -0.30776353201675755,
                -0.5219961151247388
            ]
        },
        {
            "positions": [
                0.05849439657118216,
                -1.8929269272815095,
                1.8907790914472409,
                -0.08178239896289563,
                -0.26097896249535313,
                -0.5577004072851042
            ]
        },
        {
            "positions": [
                -0.035830893911667605,
                -1.9160907604998552,
                2.0268647223459686,
                -0.02939780780967083,
                -0.2141943929739485,
                -0.5934046994454696
            ]
        },
        {
            "positions": [
                -0.13015618439451732,
                -1.939254593718201,
                2.1629503532446965,
                0.02298678334355425,
                -0.16740982345254418,
                -0.6291089916058351
            ]
        },
        {
            "positions": [
                -0.11069529933855873,
                -1.8780701383983955,
                2.1486840709306763,
                -0.041582959311132595,
                -0.14496386425760793,
                -0.8237732915639093
            ]
        },
        {
            "positions": [
                -0.09123441428260015,
                -1.81688568307859,
                2.1344177886166555,
                -0.10615270196581944,
                -0.12251790506267168,
                -1.0184375915219837
            ]
        },
        {
            "positions": [
                -0.07177352922664157,
                -1.7557012277587847,
                2.1201515063026353,
                -0.17072244462050626,
                -0.10007194586773545,
                -1.2131018914800578
            ]
        },
        {
            "positions": [
                -0.05231264417068297,
                -1.6945167724389791,
                2.1058852239886146,
                -0.23529218727519313,
                -0.0776259866727992,
                -1.407766191438132
            ]
        },
        {
            "positions": [
                -0.03285175911472439,
                -1.6333323171191736,
                2.0916189416745943,
                -0.29986192992988,
                -0.05518002747786295,
                -1.6024304913962064
            ]
        },
        {
            "positions": [
                -0.013390874058765809,
                -1.572147861799368,
                2.077352659360574,
                -0.36443167258456677,
                -0.032734068282926715,
                -1.7970947913542807
            ]
        },
        {
            "positions": [
                0.00607001099719276,
                -1.5109634064795627,
                2.0630863770465533,
                -0.4290014152392536,
                -0.010288109087990466,
                -1.9917590913123546
            ]
        },
        {
            "positions": [
                0.02553089605315137,
                -1.4497789511597572,
                2.048820094732533,
                -0.4935711578939405,
                0.012157850106945783,
                -2.186423391270429
            ]
        },
        {
            "positions": [
                0.04499178110910995,
                -1.3885944958399516,
                2.0345538124185127,
                -0.5581409005486273,
                0.034603809301882005,
                -2.3810876912285033
            ]
        },
        {
            "positions": [
                0.06445266616506853,
                -1.327410040520146,
                2.020287530104492,
                -0.6227106432033143,
                0.05704976849681828,
                -2.5757519911865776
            ]
        },
        {
            "positions": [
                0.08391355122102712,
                -1.2662255852003406,
                2.0060212477904718,
                -0.687280385858001,
                0.0794957276917545,
                -2.7704162911446515
            ]
        },
        {
            "positions": [
                0.1033744362769857,
                -1.2050411298805352,
                1.9917549654764513,
                -0.7518501285126877,
                0.10194168688669075,
                -2.9650805911027263
            ]
        },
        {
            "positions": [
                0.1228353213329443,
                -1.1438566745607297,
                1.9774886831624308,
                -0.8164198711673747,
                0.12438764608162703,
                -3.1597448910608
            ]
        }
    ]
}{
    "goal": {
        "global_pose": {
            "orientation": {
                "w": 0.7047431468963623,
                "x": -0.7094548344612122,
                "y": 0.0024358443915843964,
                "z": -0.0022348060738295317
            },
            "position": {
                "x": 0.6094750761985779,
                "y": 0.3671506643295288,
                "z": 0.19426114857196808
            }
        },
        "name": "move_to_magneteinheit_A"
    },
    "id": "STRIDE_move_to_magneteinheit_A_150",
    "joint_names": [
        "shoulder_pan_joint",
        "shoulder_lift_joint",
        "elbow_joint",
        "wrist_1_joint",
        "wrist_2_joint",
        "wrist_3_joint"
    ],
    "metrics": {
        "cart_traj_len": 1.2001430238155626,
        "distance_elbow_joint": 0.0509044477345979,
        "distance_shoulder_lift_joint": 0.7575807202449909,
        "distance_shoulder_pan_joint": 1.2410888556109754,
        "distance_wrist_1_joint": 1.0782768122130388,
        "distance_wrist_2_joint": 1.6715641507781442,
        "distance_wrist_3_joint": 4.3110604593038,
        "smoothness": 0.31278146705025334,
        "time": 0.30610875,
        "traj_len": 3.01835641465443,
        "weighted_distance": 4.525752680768618
    },
    "planner": "STRIDE",
    "start": {
        "state": {
            "elbow_joint": 1.919643534880228,
            "shoulder_lift_joint": -1.8972525353963687,
            "shoulder_pan_joint": -1.1188672234189438,
            "wrist_1_joint": -1.5931878212786155,
            "wrist_2_joint": 1.5706036197970081,
            "wrist_3_joint": 1.118896926603594
        }
    },
    "waypoints": [
        {
            "positions": [
                -1.1188672234189438,
                -1.8972525353963687,
                1.919643534880228,
                -1.5931878212786155,
                1.5706036197970081,
                1.118896926603594
            ]
        },
        {
            "positions": [
                -1.0622939118015258,
                -1.8694854447102647,
                1.9210142806582717,
                -1.547998136380725,
                1.4963593574784415,
                0.9342365850327596
            ]
        },
        {
            "positions": [
                -1.0057206001841075,
                -1.8417183540241606,
                1.9223850264363154,
                -1.5028084514828344,
                1.4221150951598749,
                0.7495762434619252
            ]
        },
        {
            "positions": [
                -0.9491472885666893,
                -1.8139512633380563,
                1.923755772214359,
                -1.4576187665849438,
                1.3478708328413083,
                0.5649159018910909
            ]
        },
        {
            "positions": [
                -0.8925739769492711,
                -1.7861841726519523,
                1.9251265179924024,
                -1.4124290816870533,
                1.2736265705227416,
                0.3802555603202564
            ]
        },
        {
            "positions": [
                -0.8360006653318529,
                -1.7584170819658482,
                1.926497263770446,
                -1.367239396789163,
                1.199382308204175,
                0.1955952187494221
            ]
        },
        {
            "positions": [
                -0.7794273537144347,
                -1.7306499912797442,
                1.9278680095484897,
                -1.3220497118912724,
                1.1251380458856084,
                0.010934877178587765
            ]
        },
        {
            "positions": [
                -0.7228540420970165,
                -1.7028829005936401,
                1.9292387553265333,
                -1.2768600269933819,
                1.0508937835670418,
                -0.1737254643922468
            ]
        },
        {
            "positions": [
                -0.6662807304795983,
                -1.675115809907536,
                1.930609501104577,
                -1.2316703420954913,
                0.9766495212484751,
                -0.3583858059630811
            ]
        },
        {
            "positions": [
                -0.6097074188621802,
                -1.6473487192214318,
                1.9319802468826206,
                -1.1864806571976008,
                0.9024052589299084,
                -0.5430461475339154
            ]
        },
        {
            "positions": [
                -0.553134107244762,
                -1.6195816285353277,
                1.9333509926606642,
                -1.1412909722997102,
                0.8281609966113418,
                -0.7277064891047498
            ]
        },
        {
            "positions": [
                -0.4965607956273437,
                -1.5918145378492237,
                1.9347217384387076,
                -1.0961012874018197,
                0.7539167342927752,
                -0.9123668306755846
            ]
        },
        {
            "positions": [
                -0.4399874840099256,
                -1.5640474471631196,
                1.9360924842167513,
                -1.0509116025039291,
                0.6796724719742085,
                -1.0970271722464184
            ]
        },
        {
            "positions": [
                -0.3834141723925073,
                -1.5362803564770156,
                1.937463229994795,
                -1.0057219176060386,
                0.6054282096556418,
                -1.2816875138172532
            ]
        },
        {
            "positions": [
                -0.3268408607750892,
                -1.5085132657909113,
                1.9388339757728386,
                -0.9605322327081481,
                0.5311839473370754,
                -1.4663478553880875
            ]
        },
        {
            "positions": [
                -0.2702675491576709,
                -1.4807461751048072,
                1.9402047215508822,
                -0.9153425478102576,
                0.45693968501850857,
                -1.6510081969589219
            ]
        },
        {
            "positions": [
                -0.21369423754025285,
                -1.4529790844187032,
                1.9415754673289258,
                -0.870152862912367,
                0.38269542269994217,
                -1.8356685385297562
            ]
        },
        {
            "positions": [
                -0.15712092592283455,
                -1.425211993732599,
                1.9429462131069695,
                -0.8249631780144765,
                0.3084511603813753,
                -2.0203288801005908
            ]
        },
        {
            "positions": [
                -0.10054761430541648,
                -1.397444903046495,
                1.9443169588850129,
                -0.7797734931165861,
                0.2342068980628087,
                -2.2049892216714246
            ]
        },
        {
            "positions": [
                -0.04397430268799818,
                -1.3696778123603908,
                1.9456877046630565,
                -0.7345838082186955,
                0.15996263574424208,
                -2.3896495632422594
            ]
        },
        {
            "positions": [
                0.012599008929419897,
                -1.341910721674287,
                1.9470584504411002,
                -0.689394123320805,
                0.08571837342567545,
                -2.5743099048130933
            ]
        },
        {
            "positions": [
                0.06917232054683829,
                -1.3141436309881827,
                1.9484291962191438,
                -0.6442044384229144,
                0.011474111107108838,
                -2.7589702463839285
            ]
        },
        {
            "positions": [
                0.08685542442856939,
                -1.255986359042581,
                1.9558021250177045,
                -0.6873022482086938,
                0.04895232513652385,
                -2.903368008489354
            ]
        },
        {
            "positions": [
                0.1045385283103005,
                -1.1978290870969794,
                1.9631750538162653,
                -0.730400057994473,
                0.08643053916593887,
                -3.0477657705947796
            ]
        },
        {
            "positions": [
                0.1222216321920316,
                -1.1396718151513778,
                1.970547982614826,
                -0.7734978677802524,
                0.12390875319535388,
                -3.192163532700205
            ]
        }
    ]
}