{
    "goal": {
        "global_pose": {
            "orientation": {
                "w": 0.7047431468963623,
                "x": -0.7094548344612122,
                "y": 0.0024358443915843964,
                "z": -0.0022348060738295317
            },
            "position": {
                "x": 0.6094750761985779,
                "y": 0.3671506643295288,
                "z": 0.19426114857196808
            }
        },
        "name": "move_to_magneteinheit_A"
    },
    "id": "STRIDE_move_to_magneteinheit_A_149",
    "joint_names": [
        "shoulder_pan_joint",
        "shoulder_lift_joint",
        "elbow_joint",
        "wrist_1_joint",
        "wrist_2_joint",
        "wrist_3_joint"
    ],
    "metrics": {
        "cart_traj_len": 4.423210942232071,
        "distance_elbow_joint": 3.873220548524438,
        "distance_shoulder_lift_joint": 0.11533242730757243,
        "distance_shoulder_pan_joint": 4.474577532792278,
        "distance_wrist_1_joint": 2.149352271624025,
        "distance_wrist_2_joint": 3.022557399101915,
        "distance_wrist_3_joint": 2.5826709243400425,
        "smoothness": 0.387448112277108,
        "time": 0.070654364,
        "traj_len": 4.027121938021032,
        "weighted_distance": 5.153150747173645
    },
    "planner": "STRIDE",
    "start": {
        "state": {
            "elbow_joint": -1.919618573717145,
            "shoulder_lift_joint": -1.2443395971678275,
            "shoulder_pan_joint": 2.6996025300909787,
            "wrist_1_joint": -1.548550951253194,
            "wrist_2_joint": -1.5709469090946802,
            "wrist_3_joint": 0.4420197732051276
        }
    },
    "waypoints": [
        {
            "positions": [
                2.6996025300909787,
                -1.2443395971678275,
                -1.919618573717145,
                -1.548550951253194,
                -1.5709469090946802,
                0.4420197732051276
            ]
        },
        {
            "positions": [
                2.582077360075003,
                -1.243637621064669,
                -1.8147361748880184,
                -1.4987242327105328,
                -1.4923311199872673,
                0.47646302881799796
            ]
        },
        {
            "positions": [
                2.464552190059027,
                -1.2429356449615103,
                -1.7098537760588919,
                -1.4488975141678713,
                -1.4137153308798542,
                0.5109062844308683
            ]
        },
        {
            "positions": [
                2.3470270200430514,
                -1.2422336688583517,
                -1.6049713772297654,
                -1.3990707956252098,
                -1.3350995417724414,
                0.5453495400437387
            ]
        },
        {
            "positions": [
                2.2295018500270753,
                -1.2415316927551932,
                -1.500088978400639,
                -1.3492440770825485,
                -1.2564837526650283,
                0.579792795656609
            ]
        },
        {
            "positions": [
                2.1119766800110997,
                -1.2408297166520348,
                -1.3952065795715125,
                -1.2994173585398872,
                -1.1778679635576155,
                0.6142360512694793
            ]
        },
        {
            "positions": [
                1.9944515099951237,
                -1.2401277405488762,
                -1.290324180742386,
                -1.2495906399972256,
                -1.0992521744502026,
                0.6486793068823498
            ]
        },
        {
            "positions": [
                1.876926339979148,
                -1.2394257644457176,
                -1.1854417819132594,
                -1.1997639214545641,
                -1.0206363853427896,
                0.6831225624952201
            ]
        },
        {
            "positions": [
                1.7594011699631722,
                -1.238723788342559,
                -1.080559383084133,
                -1.1499372029119028,
                -0.9420205962353767,
                0.7175658181080904
            ]
        },
        {
            "positions": [
                1.6418759999471964,
                -1.2380218122394004,
                -0.9756769842550065,
                -1.1001104843692415,
                -0.8634048071279637,
                0.7520090737209608
            ]
        },
        {
            "positions": [
                1.5243508299312207,
                -1.2373198361362419,
                -0.8707945854258801,
                -1.05028376582658,
                -0.7847890180205508,
                0.786452329333831
            ]
        },
        {
            "positions": [
                1.4068256599152449,
                -1.2366178600330833,
                -0.7659121865967535,
                -1.0004570472839185,
                -0.7061732289131379,
                0.8208955849467015
            ]
        },
        {
            "positions": [
                1.2893004898992688,
                -1.2359158839299247,
                -0.6610297877676268,
                -0.9506303287412572,
                -0.6275574398057249,
                0.8553388405595719
            ]
        },
        {
            "positions": [
                1.171775319883293,
                -1.235213907826766,
                -0.5561473889385005,
                -0.9008036101985958,
                -0.548941650698312,
                0.8897820961724422
            ]
        },
        {
            "positions": [
                1.0542501498673174,
                -1.2345119317236075,
                -0.45126499010937393,
                -0.8509768916559344,
                -0.47032586159089895,
                0.9242253517853125
            ]
        },
        {
            "positions": [
                0.9367249798513415,
                -1.233809955620449,
                -0.3463825912802474,
                -0.801150173113273,
                -0.3917100724834861,
                0.9586686073981829
            ]
        },
        {
            "positions": [
                0.8191998098353657,
                -1.2331079795172906,
                -0.24150019245112087,
                -0.7513234545706116,
                -0.31309428337607326,
                0.9931118630110531
            ]
        },
        {
            "positions": [
                0.70167463981939,
                -1.232406003414132,
                -0.13661779362199433,
                -0.7014967360279502,
                -0.2344784942686602,
                1.0275551186239236
            ]
        },
        {
            "positions": [
                0.584149469803414,
                -1.2317040273109734,
                -0.03173539479286802,
                -0.6516700174852887,
                -0.15586270516124734,
                1.061998374236794
            ]
        },
        {
            "positions": [
                0.46662429978743836,
                -1.2310020512078148,
                0.07314700403625851,
                -0.6018432989426273,
                -0.07724691605383449,
                1.0964416298496642
            ]
        },
        {
            "positions": [
                0.34909912977146274,
                -1.2303000751046562,
                0.17802940286538482,
                -0.5520165803999659,
                0.0013688730535785787,
                1.1308848854625346
            ]
        },
        {
            "positions": [
                0.23157395975548667,
                -1.2295980990014976,
                0.28291180169451136,
                -0.5021898618573046,
                0.07998466216099143,
                1.165328141075405
            ]
        },
        {
            "positions": [
                0.11404878973951105,
                -1.228896122898339,
                0.3877942005236379,
                -0.4523631433146431,
                0.15860045126840427,
                1.1997713966882753
            ]
        },
        {
            "positions": [
                -0.0034763802764650187,
                -1.2281941467951805,
                0.49267659935276487,
                -0.4025364247719816,
                0.23721624037581757,
                1.2342146523011457
            ]
        },
        {
            "positions": [
                -0.12100155029244108,
                -1.2274921706920219,
                0.5975589981818914,
                -0.3527097062293203,
                0.3158320294832304,
                1.2686579079140161
            ]
        },
        {
            "positions": [
                -0.2385267203084167,
                -1.2267901945888635,
                0.7024413970110179,
                -0.3028829876866588,
                0.39444781859064326,
                1.3031011635268865
            ]
        },
        {
            "positions": [
                -0.3560518903243928,
                -1.226088218485705,
                0.807323795840144,
                -0.2530562691439975,
                0.4730636076980561,
                1.3375444191397567
            ]
        },
        {
            "positions": [
                -0.4735770603403684,
                -1.2253862423825463,
                0.9122061946692706,
                -0.20322955060133596,
                0.5516793968054694,
                1.3719876747526272
            ]
        },
        {
            "positions": [
                -0.591102230356344,
                -1.2246842662793878,
                1.017088593498397,
                -0.15340283205867467,
                0.6302951859128822,
                1.4064309303654974
            ]
        },
        {
            "positions": [
                -0.7086274003723201,
                -1.2239822901762292,
                1.1219709923275236,
                -0.10357611351601315,
                0.7089109750202951,
                1.4408741859783678
            ]
        },
        {
            "positions": [
                -0.8261525703882957,
                -1.2232803140730706,
                1.22685339115665,
                -0.05374939497335185,
                0.7875267641277078,
                1.4753174415912382
            ]
        },
        {
            "positions": [
                -0.747084034362212,
                -1.2154242187220026,
                1.2874157731275369,
                -0.10829528791870044,
                0.7321864536377471,
                1.6044318795873993
            ]
        },
        {
            "positions": [
                -0.6680154983361283,
                -1.2075681233709346,
                1.3479781550984236,
                -0.16284118086404903,
                0.6768461431477866,
                1.7335463175835601
            ]
        },
        {
            "positions": [
                -0.5889469623100446,
                -1.1997120280198668,
                1.4085405370693105,
                -0.21738707380939762,
                0.6215058326578259,
                1.8626607555797212
            ]
        },
        {
            "positions": [
                -0.5098784262839609,
                -1.1918559326687987,
                1.4691029190401974,
                -0.2719329667547462,
                0.5661655221678652,
                1.991775193575882
            ]
        },
        {
            "positions": [
                -0.4308098902578772,
                -1.1839998373177307,
                1.5296653010110841,
                -0.3264788597000948,
                0.5108252116779045,
                2.120889631572043
            ]
        },
        {
            "positions": [
                -0.3517413542317935,
                -1.176143741966663,
                1.590227682981971,
                -0.3810247526454434,
                0.4554849011879439,
                2.250004069568204
            ]
        },
        {
            "positions": [
                -0.27267281820570977,
                -1.168287646615595,
                1.650790064952858,
                -0.435570645590792,
                0.4001445906979832,
                2.3791185075643653
            ]
        },
        {
            "positions": [
                -0.1936042821796261,
                -1.160431551264527,
                1.7113524469237447,
                -0.49011653853614057,
                0.34480428020802256,
                2.5082329455605263
            ]
        },
        {
            "positions": [
                -0.11453574615354234,
                -1.152575455913459,
                1.7719148288946316,
                -0.5446624314814892,
                0.2894639697180619,
                2.637347383556687
            ]
        },
        {
            "positions": [
                -0.03546721012745868,
                -1.1447193605623909,
                1.8324772108655185,
                -0.5992083244268378,
                0.2341236592281012,
                2.7664618215528485
            ]
        },
        {
            "positions": [
                0.043601325898624976,
                -1.136863265211323,
                1.8930395928364052,
                -0.6537542173721863,
                0.1787833487381406,
                2.895576259549009
            ]
        },
        {
            "positions": [
                0.12266986192470876,
                -1.129007169860255,
                1.9536019748072921,
                -0.7083001103175349,
                0.12344303824817994,
                3.02469069754517
            ]
        }
    ]
}{
    "goal": {
        "global_pose": {
            "orientation": {
                "w": 0.7047431468963623,
                "x": -0.7094548344612122,
                "y": 0.0024358443915843964,
                "z": -0.0022348060738295317
            },
            "position": {
                "x": 0.6094750761985779,
                "y": 0.3671506643295288,
                "z": 0.19426114857196808
            }
        },
        "name": "move_to_magneteinheit_A"
    },
    "id": "STRIDE_move_to_magneteinheit_A_149",
    "joint_names": [
        "shoulder_pan_joint",
        "shoulder_lift_joint",
        "elbow_joint",
        "wrist_1_joint",
        "wrist_2_joint",
        "wrist_3_joint"
    ],
    "metrics": {
        "cart_traj_len": 1.9194072370677642,
        "distance_elbow_joint": 1.397770190674983,
        "distance_shoulder_lift_joint": 0.7517799293034046,
        "distance_shoulder_pan_joint": 1.7548377400462603,
        "distance_wrist_1_joint": 0.8464231696495425,
        "distance_wrist_2_joint": 1.4493099980568003,
        "distance_wrist_3_joint": 4.237299169161151,
        "smoothness": 0.27520713766639066,
        "time": 0.149418499,
        "traj_len": 3.230699645106635,
        "weighted_distance": 4.605187477499779
    },
    "planner": "STRIDE",
    "start": {
        "state": {
            "elbow_joint": 1.919643534880228,
            "shoulder_lift_joint": -1.8972525353963687,
            "shoulder_pan_joint": -1.1188672234189438,
            "wrist_1_joint": -1.5931878212786155,
            "wrist_2_joint": 1.5706036197970081,
            "wrist_3_joint": 1.118896926603594
        }
    },
    "waypoints": [
        {
            "positions": [
                -1.1188672234189438,
                -1.8972525353963687,
                1.919643534880228,
                -1.5931878212786155,
                1.5706036197970081,
                1.118896926603594
            ]
        },
        {
            "positions": [
                -1.1616731330823038,
                -1.865325949649032,
                1.8086247962671484,
                -1.602221915844015,
                1.4688311278927357,
                1.058783307190441
            ]
        },
        {
            "positions": [
                -1.2044790427456635,
                -1.8333993639016952,
                1.6976060576540688,
                -1.6112560104094142,
                1.3670586359884633,
                0.9986696877772877
            ]
        },
        {
            "positions": [
                -1.2472849524090233,
                -1.8014727781543587,
                1.5865873190409894,
                -1.6202901049748137,
                1.265286144084191,
                0.9385560683641345
            ]
        },
        {
            "positions": [
                -1.2900908620723832,
                -1.769546192407022,
                1.4755685804279097,
                -1.6293241995402132,
                1.1635136521799185,
                0.8784424489509814
            ]
        },
        {
            "positions": [
                -1.3328967717357432,
                -1.7376196066596852,
                1.36454984181483,
                -1.6383582941056125,
                1.0617411602756461,
                0.8183288295378282
            ]
        },
        {
            "positions": [
                -1.375702681399103,
                -1.7056930209123484,
                1.2535311032017504,
                -1.647392388671012,
                0.9599686683713737,
                0.7582152101246751
            ]
        },
        {
            "positions": [
                -1.3043692393959552,
                -1.6790158583019015,
                1.2883719488682508,
                -1.6096676933254337,
                0.9200317613889373,
                0.5736143790445688
            ]
        },
        {
            "positions": [
                -1.2330357973928077,
                -1.6523386956914548,
                1.323212794534751,
                -1.5719429979798551,
                0.8800948544065008,
                0.3890135479644626
            ]
        },
        {
            "positions": [
                -1.16170235538966,
                -1.6256615330810078,
                1.3580536402012513,
                -1.5342183026342768,
                0.8401579474240644,
                0.20441271688435625
            ]
        },
        {
            "positions": [
                -1.0903689133865122,
                -1.5989843704705609,
                1.3928944858677514,
                -1.4964936072886985,
                0.8002210404416279,
                0.019811885804250084
            ]
        },
        {
            "positions": [
                -1.0190354713833645,
                -1.5723072078601141,
                1.4277353315342518,
                -1.4587689119431202,
                0.7602841334591914,
                -0.1647889452758562
            ]
        },
        {
            "positions": [
                -0.947702029380217,
                -1.5456300452496672,
                1.462576177200752,
                -1.4210442165975419,
                0.720347226476755,
                -0.3493897763559626
            ]
        },
        {
            "positions": [
                -0.8763685873770692,
                -1.5189528826392202,
                1.4974170228672523,
                -1.3833195212519633,
                0.6804103194943185,
                -0.5339906074360687
            ]
        },
        {
            "positions": [
                -0.8050351453739216,
                -1.4922757200287735,
                1.5322578685337525,
                -1.345594825906385,
                0.6404734125118821,
                -0.7185914385161749
            ]
        },
        {
            "positions": [
                -0.7337017033707739,
                -1.4655985574183266,
                1.5670987142002528,
                -1.3078701305608067,
                0.6005365055294456,
                -0.9031922695962813
            ]
        },
        {
            "positions": [
                -0.6623682613676263,
                -1.4389213948078798,
                1.601939559866753,
                -1.2701454352152282,
                0.5605995985470091,
                -1.0877931006763875
            ]
        },
        {
            "positions": [
                -0.5910348193644785,
                -1.4122442321974327,
                1.6367804055332533,
                -1.2324207398696498,
                0.5206626915645727,
                -1.272393931756494
            ]
        },
        {
            "positions": [
                -0.5197013773613309,
                -1.385567069586986,
                1.6716212511997535,
                -1.1946960445240715,
                0.48072578458213616,
                -1.4569947628366002
            ]
        },
        {
            "positions": [
                -0.4483679353581832,
                -1.358889906976539,
                1.7064620968662538,
                -1.1569713491784932,
                0.44078887759969965,
                -1.6415955939167064
            ]
        },
        {
            "positions": [
                -0.3770344933550356,
                -1.3322127443660923,
                1.741302942532754,
                -1.1192466538329149,
                0.4008519706172633,
                -1.8261964249968126
            ]
        },
        {
            "positions": [
                -0.30570105135188785,
                -1.3055355817556453,
                1.7761437881992543,
                -1.0815219584873363,
                0.3609150636348267,
                -2.010797256076919
            ]
        },
        {
            "positions": [
                -0.23436760934874035,
                -1.2788584191451986,
                1.8109846338657545,
                -1.043797263141758,
                0.3209781566523904,
                -2.1953980871570247
            ]
        },
        {
            "positions": [
                -0.16303416734559262,
                -1.2521812565347517,
                1.8458254795322548,
                -1.0060725677961795,
                0.2810412496699538,
                -2.3799989182371313
            ]
        },
        {
            "positions": [
                -0.09170072534244489,
                -1.2255040939243047,
                1.8806663251987552,
                -0.9683478724506013,
                0.24110434268751746,
                -2.564599749317238
            ]
        },
        {
            "positions": [
                -0.02036728333929716,
                -1.198826931313858,
                1.9155071708652553,
                -0.9306231771050228,
                0.2011674357050809,
                -2.7492005803973445
            ]
        },
        {
            "positions": [
                0.05096615866385035,
                -1.172149768703411,
                1.9503480165317555,
                -0.8928984817594445,
                0.16123052872264443,
                -2.93380141147745
            ]
        },
        {
            "positions": [
                0.12229960066699802,
                -1.145472606092964,
                1.9851888621982559,
                -0.8551737864138661,
                0.12129362174020798,
                -3.118402242557557
            ]
        }
    ]
}