{
    "goal": {
        "global_pose": {
            "orientation": {
                "w": 0.5084816217422485,
                "x": -0.49083608388900757,
                "y": 0.5182115435600281,
                "z": -0.4816462993621826
            },
            "position": {
                "x": 0.5540239810943604,
                "y": 0.030875300988554955,
                "z": 0.16403168439865112
            }
        },
        "name": "move_to_storage_A"
    },
    "id": "STRIDE_move_to_storage_A_6",
    "joint_names": [
        "shoulder_pan_joint",
        "shoulder_lift_joint",
        "elbow_joint",
        "wrist_1_joint",
        "wrist_2_joint",
        "wrist_3_joint"
    ],
    "metrics": {
        "cart_traj_len": 0.35340396729053003,
        "distance_elbow_joint": 0.45198380285324014,
        "distance_shoulder_lift_joint": 0.2358199234618843,
        "distance_shoulder_pan_joint": 0.46060364628380845,
        "distance_wrist_1_joint": 0.2521141135322399,
        "distance_wrist_2_joint": 1.106607077220921,
        "distance_wrist_3_joint": 0.10565647600976291,
        "smoothness": 2.2204460668324854e-16,
        "time": 0.060261655,
        "traj_len": 1.6164111603678863,
        "weighted_distance": 2.0451941673431753
    },
    "planner": "STRIDE",
    "start": {
        "state": {
            "elbow_joint": 1.9715477243005601,
            "shoulder_lift_joint": -1.1394853015351272,
            "shoulder_pan_joint": 0.12281154014795169,
            "wrist_1_joint": -0.7804696478968182,
            "wrist_2_joint": 0.12958648046900423,
            "wrist_3_joint": -3.192491284697111
        }
    },
    "waypoints": [
        {
            "positions": [
                0.12281154014795169,
                -1.1394853015351272,
                1.9715477243005601,
                -0.7804696478968182,
                0.12958648046900423,
                -3.192491284697111
            ]
        },
        {
            "positions": [
                0.05701101925026478,
                -1.173173862029682,
                2.03611683899388,
                -0.8164859498299953,
                0.28767320578627864,
                -3.177397502410002
            ]
        },
        {
            "positions": [
                -0.008789501647422135,
                -1.206862422524237,
                2.1006859536872002,
                -0.8525022517631724,
                0.4457599311035531,
                -3.1623037201228934
            ]
        },
        {
            "positions": [
                -0.07459002254510906,
                -1.240550983018792,
                2.16525506838052,
                -0.8885185536963496,
                0.6038466564208276,
                -3.1472099378357843
            ]
        },
        {
            "positions": [
                -0.14039054344279595,
                -1.2742395435133467,
                2.2298241830738403,
                -0.9245348556295266,
                0.761933381738102,
                -3.132116155548675
            ]
        },
        {
            "positions": [
                -0.2061910643404829,
                -1.3079281040079016,
                2.29439329776716,
                -0.9605511575627038,
                0.9200201070553765,
                -3.117022373261566
            ]
        },
        {
            "positions": [
                -0.2719915852381698,
                -1.3416166645024565,
                2.35896241246048,
                -0.9965674594958809,
                1.0781068323726508,
                -3.1019285909744574
            ]
        },
        {
            "positions": [
                -0.33779210613585675,
                -1.3753052249970115,
                2.4235315271538003,
                -1.032583761429058,
                1.2361935576899252,
                -3.0868348086873483
            ]
        }
    ]
}