{
    "goal": {
        "global_pose": {
            "orientation": {
                "w": 0.5084816217422485,
                "x": -0.49083608388900757,
                "y": 0.5182115435600281,
                "z": -0.4816462993621826
            },
            "position": {
                "x": 0.5540239810943604,
                "y": 0.030875300988554955,
                "z": 0.16403168439865112
            }
        },
        "name": "move_to_storage_A"
    },
    "id": "STRIDE_move_to_storage_A_124",
    "joint_names": [
        "shoulder_pan_joint",
        "shoulder_lift_joint",
        "elbow_joint",
        "wrist_1_joint",
        "wrist_2_joint",
        "wrist_3_joint"
    ],
    "metrics": {
        "cart_traj_len": 0.3526145274828299,
        "distance_elbow_joint": 0.4496074628949347,
        "distance_shoulder_lift_joint": 0.2360823635919742,
        "distance_shoulder_pan_joint": 0.46300105106605266,
        "distance_wrist_1_joint": 0.23541636287229728,
        "distance_wrist_2_joint": 1.0908236763004555,
        "distance_wrist_3_joint": 0.09113337253570597,
        "smoothness": 0.0,
        "time": 0.036036059,
        "traj_len": 1.6018939694191436,
        "weighted_distance": 2.0185566807760402
    },
    "planner": "STRIDE",
    "start": {
        "state": {
            "elbow_joint": 1.9715477243005601,
            "shoulder_lift_joint": -1.1394853015351272,
            "shoulder_pan_joint": 0.12281154014795169,
            "wrist_1_joint": -0.7804696478968182,
            "wrist_2_joint": 0.12958648046900423,
            "wrist_3_joint": -3.192491284697111
        }
    },
    "waypoints": [
        {
            "positions": [
                0.12281154014795169,
                -1.1394853015351272,
                1.9715477243005601,
                -0.7804696478968182,
                0.12958648046900423,
                -3.192491284697111
            ]
        },
        {
            "positions": [
                0.05666853285280131,
                -1.1732113534768378,
                2.0357773618569794,
                -0.814100556878575,
                0.28541843422621216,
                -3.1794722314777246
            ]
        },
        {
            "positions": [
                -0.00947447444234907,
                -1.2069374054185484,
                2.1000069994133987,
                -0.8477314658603317,
                0.4412503879834201,
                -3.166453178258338
            ]
        },
        {
            "positions": [
                -0.07561748173749945,
                -1.240663457360259,
                2.164236636969818,
                -0.8813623748420885,
                0.597082341740628,
                -3.1534341250389515
            ]
        },
        {
            "positions": [
                -0.14176048903264982,
                -1.2743895093019695,
                2.228466274526237,
                -0.9149932838238451,
                0.752914295497836,
                -3.140415071819565
            ]
        },
        {
            "positions": [
                -0.2079034963278002,
                -1.3081155612436801,
                2.292695912082656,
                -0.948624192805602,
                0.9087462492550439,
                -3.1273960186001784
            ]
        },
        {
            "positions": [
                -0.2740465036229506,
                -1.3418416131853907,
                2.3569255496390755,
                -0.9822551017873586,
                1.064578203012252,
                -3.114376965380792
            ]
        },
        {
            "positions": [
                -0.34018951091810096,
                -1.3755676651271014,
                2.421155187195495,
                -1.0158860107691154,
                1.2204101567694599,
                -3.101357912161405
            ]
        }
    ]
}