{
    "goal": {
        "global_pose": {
            "orientation": {
                "w": 0.5084816217422485,
                "x": -0.49083608388900757,
                "y": 0.5182115435600281,
                "z": -0.4816462993621826
            },
            "position": {
                "x": 0.5540239810943604,
                "y": 0.030875300988554955,
                "z": 0.16403168439865112
            }
        },
        "name": "move_to_storage_A"
    },
    "id": "STRIDE_move_to_storage_A_21",
    "joint_names": [
        "shoulder_pan_joint",
        "shoulder_lift_joint",
        "elbow_joint",
        "wrist_1_joint",
        "wrist_2_joint",
        "wrist_3_joint"
    ],
    "metrics": {
        "cart_traj_len": 0.35258389874290286,
        "distance_elbow_joint": 0.45048786594811974,
        "distance_shoulder_lift_joint": 0.23312090306835853,
        "distance_shoulder_pan_joint": 0.4624652751107836,
        "distance_wrist_1_joint": 0.2434994984626283,
        "distance_wrist_2_joint": 1.091541198420019,
        "distance_wrist_3_joint": 0.10531725715442652,
        "smoothness": 1.3322676295501878e-15,
        "time": 0.110975718,
        "traj_len": 1.6082387876693982,
        "weighted_distance": 2.032758522145667
    },
    "planner": "STRIDE",
    "start": {
        "state": {
            "elbow_joint": 1.9715477243005601,
            "shoulder_lift_joint": -1.1394853015351272,
            "shoulder_pan_joint": 0.12281154014795169,
            "wrist_1_joint": -0.7804696478968182,
            "wrist_2_joint": 0.12958648046900423,
            "wrist_3_joint": -3.192491284697111
        }
    },
    "waypoints": [
        {
            "positions": [
                0.12281154014795169,
                -1.1394853015351272,
                1.9715477243005601,
                -0.7804696478968182,
                0.12958648046900423,
                -3.192491284697111
            ]
        },
        {
            "positions": [
                0.0567450722749826,
                -1.1727882876877498,
                2.03590313372172,
                -0.8152552905343365,
                0.2855209373861498,
                -3.177445962246479
            ]
        },
        {
            "positions": [
                -0.00932139559798649,
                -1.2060912738403724,
                2.10025854314288,
                -0.8500409331718548,
                0.44145539430329533,
                -3.1624006397958464
            ]
        },
        {
            "positions": [
                -0.07538786347095557,
                -1.239394259992995,
                2.16461395256404,
                -0.8848265758093732,
                0.597389851220441,
                -3.1473553173452142
            ]
        },
        {
            "positions": [
                -0.14145433134392466,
                -1.2726972461456176,
                2.2289693619852,
                -0.9196122184468914,
                0.7533243081375864,
                -3.1323099948945816
            ]
        },
        {
            "positions": [
                -0.20752079921689376,
                -1.3060002322982405,
                2.29332477140636,
                -0.9543978610844098,
                0.909258765054732,
                -3.1172646724439494
            ]
        },
        {
            "positions": [
                -0.2735872670898628,
                -1.339303218450863,
                2.35768018082752,
                -0.9891835037219281,
                1.0651932219718776,
                -3.102219349993317
            ]
        },
        {
            "positions": [
                -0.3396537349628319,
                -1.3726062046034857,
                2.42203559024868,
                -1.0239691463594465,
                1.221127678889023,
                -3.0871740275426847
            ]
        }
    ]
}