{
    "goal": {
        "global_pose": {
            "orientation": {
                "w": 0.5084816217422485,
                "x": -0.49083608388900757,
                "y": 0.5182115435600281,
                "z": -0.4816462993621826
            },
            "position": {
                "x": 0.5540239810943604,
                "y": 0.030875300988554955,
                "z": 0.16403168439865112
            }
        },
        "name": "move_to_storage_A"
    },
    "id": "STRIDE_move_to_storage_A_50",
    "joint_names": [
        "shoulder_pan_joint",
        "shoulder_lift_joint",
        "elbow_joint",
        "wrist_1_joint",
        "wrist_2_joint",
        "wrist_3_joint"
    ],
    "metrics": {
        "cart_traj_len": 0.3536314290607939,
        "distance_elbow_joint": 0.4501795559861477,
        "distance_shoulder_lift_joint": 0.23275036293425577,
        "distance_shoulder_pan_joint": 0.4631144760355069,
        "distance_wrist_1_joint": 0.24704851532721717,
        "distance_wrist_2_joint": 1.095983174306082,
        "distance_wrist_3_joint": 0.09800855430233524,
        "smoothness": 4.440892098500626e-16,
        "time": 0.060662094,
        "traj_len": 1.6084416802891999,
        "weighted_distance": 2.0312886149263756
    },
    "planner": "STRIDE",
    "start": {
        "state": {
            "elbow_joint": 1.9715477243005601,
            "shoulder_lift_joint": -1.1394853015351272,
            "shoulder_pan_joint": 0.12281154014795169,
            "wrist_1_joint": -0.7804696478968182,
            "wrist_2_joint": 0.12958648046900423,
            "wrist_3_joint": -3.192491284697111
        }
    },
    "waypoints": [
        {
            "positions": [
                0.12281154014795169,
                -1.1394853015351272,
                1.9715477243005601,
                -0.7804696478968182,
                0.12958648046900423,
                -3.192491284697111
            ]
        },
        {
            "positions": [
                0.05665232928573642,
                -1.172735353382878,
                2.0358590894414386,
                -0.8157622929435635,
                0.2861555053698731,
                -3.1784900626539203
            ]
        },
        {
            "positions": [
                -0.009506881576478846,
                -1.205985405230629,
                2.1001704545823165,
                -0.8510549379903087,
                0.44272453027074193,
                -3.16448884061073
            ]
        },
        {
            "positions": [
                -0.07566609243869411,
                -1.2392354570783797,
                2.164481819723195,
                -0.8863475830370541,
                0.5992935551716108,
                -3.150487618567539
            ]
        },
        {
            "positions": [
                -0.14182530330090937,
                -1.2724855089261304,
                2.228793184864073,
                -0.9216402280837994,
                0.7558625800724796,
                -3.136486396524348
            ]
        },
        {
            "positions": [
                -0.20798451416312463,
                -1.3057355607738814,
                2.2931045500049514,
                -0.9569328731305446,
                0.9124316049733485,
                -3.1224851744811573
            ]
        },
        {
            "positions": [
                -0.2741437250253399,
                -1.3389856126216322,
                2.3574159151458294,
                -0.99222551817729,
                1.0690006298742172,
                -3.108483952437967
            ]
        },
        {
            "positions": [
                -0.34030293588755517,
                -1.372235664469383,
                2.421727280286708,
                -1.0275181632240353,
                1.2255696547750863,
                -3.094482730394776
            ]
        }
    ]
}