{
    "goal": {
        "global_pose": {
            "orientation": {
                "w": 0.5084816217422485,
                "x": -0.49083608388900757,
                "y": 0.5182115435600281,
                "z": -0.4816462993621826
            },
            "position": {
                "x": 0.5540239810943604,
                "y": 0.030875300988554955,
                "z": 0.16403168439865112
            }
        },
        "name": "move_to_storage_A"
    },
    "id": "STRIDE_move_to_storage_A_85",
    "joint_names": [
        "shoulder_pan_joint",
        "shoulder_lift_joint",
        "elbow_joint",
        "wrist_1_joint",
        "wrist_2_joint",
        "wrist_3_joint"
    ],
    "metrics": {
        "cart_traj_len": 0.35326613576006866,
        "distance_elbow_joint": 0.4497247356740348,
        "distance_shoulder_lift_joint": 0.23326350395631046,
        "distance_shoulder_pan_joint": 0.46309745854609663,
        "distance_wrist_1_joint": 0.24727285707360724,
        "distance_wrist_2_joint": 1.0932136033600428,
        "distance_wrist_3_joint": 0.10353683943027336,
        "smoothness": 4.440892098500626e-16,
        "time": 0.07736765599999999,
        "traj_len": 1.6093815576302486,
        "weighted_distance": 2.0341261360433287
    },
    "planner": "STRIDE",
    "start": {
        "state": {
            "elbow_joint": 1.9715477243005601,
            "shoulder_lift_joint": -1.1394853015351272,
            "shoulder_pan_joint": 0.12281154014795169,
            "wrist_1_joint": -0.7804696478968182,
            "wrist_2_joint": 0.12958648046900423,
            "wrist_3_joint": -3.192491284697111
        }
    },
    "waypoints": [
        {
            "positions": [
                0.12281154014795169,
                -1.1394853015351272,
                1.9715477243005601,
                -0.7804696478968182,
                0.12958648046900423,
                -3.192491284697111
            ]
        },
        {
            "positions": [
                0.05665476035565217,
                -1.1728086592431715,
                2.0357941151111367,
                -0.8157943417644763,
                0.2857598523775817,
                -3.1777003076356434
            ]
        },
        {
            "positions": [
                -0.009502019436647344,
                -1.206132016951216,
                2.100040505921713,
                -0.8511190356321345,
                0.4419332242861593,
                -3.162909330574176
            ]
        },
        {
            "positions": [
                -0.07565879922894685,
                -1.2394553746592603,
                2.1642868967322895,
                -0.8864437294997927,
                0.5981065961947368,
                -3.148118353512708
            ]
        },
        {
            "positions": [
                -0.14181557902124636,
                -1.2727787323673045,
                2.2285332875428656,
                -0.9217684233674509,
                0.7542799681033143,
                -3.133327376451241
            ]
        },
        {
            "positions": [
                -0.20797235881354592,
                -1.306102090075349,
                2.292779678353442,
                -0.957093117235109,
                0.9104533400118919,
                -3.118536399389773
            ]
        },
        {
            "positions": [
                -0.27412913860584537,
                -1.3394254477833933,
                2.3570260691640184,
                -0.9924178111027673,
                1.0666267119204695,
                -3.1037454223283056
            ]
        },
        {
            "positions": [
                -0.3402859183981449,
                -1.3727488054914376,
                2.421272459974595,
                -1.0277425049704254,
                1.2228000838290471,
                -3.088954445266838
            ]
        }
    ]
}