{
    "goal": {
        "global_pose": {
            "orientation": {
                "w": 0.7047431468963623,
                "x": -0.7094548344612122,
                "y": 0.0024358443915843964,
                "z": -0.0022348060738295317
            },
            "position": {
                "x": 0.6094750761985779,
                "y": 0.3671506643295288,
                "z": 0.19426114857196808
            }
        },
        "name": "move_to_magneteinheit_A"
    },
    "id": "STRIDE_move_to_magneteinheit_A_113",
    "joint_names": [
        "shoulder_pan_joint",
        "shoulder_lift_joint",
        "elbow_joint",
        "wrist_1_joint",
        "wrist_2_joint",
        "wrist_3_joint"
    ],
    "metrics": {
        "cart_traj_len": 3.3198343503184553,
        "distance_elbow_joint": 3.9131566861514235,
        "distance_shoulder_lift_joint": 0.4675591927625695,
        "distance_shoulder_pan_joint": 3.1872110944244616,
        "distance_wrist_1_joint": 3.4719257849158214,
        "distance_wrist_2_joint": 2.2868014984020655,
        "distance_wrist_3_joint": 1.1967500700310054,
        "smoothness": 0.24533861309551547,
        "time": 0.32157018000000004,
        "traj_len": 3.8109584525008073,
        "weighted_distance": 4.761893714696628
    },
    "planner": "STRIDE",
    "start": {
        "state": {
            "elbow_joint": -1.919618573717145,
            "shoulder_lift_joint": -1.2443395971678275,
            "shoulder_pan_joint": 2.6996025300909787,
            "wrist_1_joint": -1.548550951253194,
            "wrist_2_joint": -1.5709469090946802,
            "wrist_3_joint": 0.4420197732051276
        }
    },
    "waypoints": [
        {
            "positions": [
                2.6996025300909787,
                -1.2443395971678275,
                -1.919618573717145,
                -1.548550951253194,
                -1.5709469090946802,
                0.4420197732051276
            ]
        },
        {
            "positions": [
                2.600224726258819,
                -1.23951502038293,
                -1.828472512932624,
                -1.4499011584143853,
                -1.506596145792989,
                0.41365692342772475
            ]
        },
        {
            "positions": [
                2.500846922426659,
                -1.2346904435980324,
                -1.737326452148103,
                -1.3512513655755765,
                -1.4422453824912977,
                0.385294073650322
            ]
        },
        {
            "positions": [
                2.401469118594499,
                -1.2298658668131348,
                -1.6461803913635822,
                -1.2526015727367676,
                -1.3778946191896067,
                0.35693122387291915
            ]
        },
        {
            "positions": [
                2.3020913147623396,
                -1.2250412900282373,
                -1.555034330579061,
                -1.1539517798979588,
                -1.3135438558879153,
                0.3285683740955163
            ]
        },
        {
            "positions": [
                2.20271351093018,
                -1.2202167132433397,
                -1.4638882697945401,
                -1.05530198705915,
                -1.2491930925862242,
                0.3002055243181135
            ]
        },
        {
            "positions": [
                2.10333570709802,
                -1.2153921364584421,
                -1.3727422090100192,
                -0.9566521942203412,
                -1.1848423292845331,
                0.27184267454071065
            ]
        },
        {
            "positions": [
                2.00395790326586,
                -1.2105675596735446,
                -1.2815961482254983,
                -0.8580024013815324,
                -1.1204915659828418,
                0.24347982476330784
            ]
        },
        {
            "positions": [
                1.9045800994337005,
                -1.205742982888647,
                -1.1904500874409774,
                -0.7593526085427236,
                -1.0561408026811507,
                0.21511697498590504
            ]
        },
        {
            "positions": [
                1.8052022956015408,
                -1.2009184061037494,
                -1.0993040266564564,
                -0.6607028157039148,
                -0.9917900393794595,
                0.1867541252085022
            ]
        },
        {
            "positions": [
                1.705824491769381,
                -1.1960938293188519,
                -1.0081579658719355,
                -0.5620530228651058,
                -0.9274392760777683,
                0.15839127543109938
            ]
        },
        {
            "positions": [
                1.6064466879372215,
                -1.1912692525339543,
                -0.9170119050874146,
                -0.46340323002629713,
                -0.8630885127760772,
                0.1300284256536966
            ]
        },
        {
            "positions": [
                1.5070688841050615,
                -1.1864446757490568,
                -0.8258658443028937,
                -0.3647534371874883,
                -0.798737749474386,
                0.10166557587629377
            ]
        },
        {
            "positions": [
                1.4076910802729017,
                -1.1816200989641592,
                -0.7347197835183727,
                -0.2661036443486795,
                -0.7343869861726948,
                0.07330272609889094
            ]
        },
        {
            "positions": [
                1.308313276440742,
                -1.1767955221792614,
                -0.6435737227338516,
                -0.1674538515098707,
                -0.6700362228710036,
                0.044939876321488104
            ]
        },
        {
            "positions": [
                1.2089354726085821,
                -1.1719709453943639,
                -0.5524276619493307,
                -0.06880405867106187,
                -0.6056854595693124,
                0.01657702654408527
            ]
        },
        {
            "positions": [
                1.1095576687764226,
                -1.1671463686094663,
                -0.46128160116480976,
                0.02984573416774694,
                -0.5413346962676213,
                -0.011785823233317505
            ]
        },
        {
            "positions": [
                1.0101798649442628,
                -1.1623217918245687,
                -0.37013554038028906,
                0.12849552700655553,
                -0.4769839329659302,
                -0.04014867301072028
            ]
        },
        {
            "positions": [
                0.9108020611121028,
                -1.1574972150396712,
                -0.2789894795957679,
                0.22714531984536457,
                -0.4126331696642389,
                -0.06851152278812317
            ]
        },
        {
            "positions": [
                0.8114242572799433,
                -1.1526726382547736,
                -0.187843418811247,
                0.3257951126841734,
                -0.3482824063625478,
                -0.09687437256552595
            ]
        },
        {
            "positions": [
                0.7120464534477833,
                -1.147848061469876,
                -0.09669735802672585,
                0.4244449055229824,
                -0.2839316430608565,
                -0.12523722234292883
            ]
        },
        {
            "positions": [
                0.6126686496156237,
                -1.1430234846849785,
                -0.005551297242205155,
                0.523094698361791,
                -0.2195808797591654,
                -0.1536000721203316
            ]
        },
        {
            "positions": [
                0.5132908457834642,
                -1.138198907900081,
                0.08559476354231577,
                0.6217444912005998,
                -0.1552301164574743,
                -0.1819629218977344
            ]
        },
        {
            "positions": [
                0.4139130419513042,
                -1.1333743311151834,
                0.1767408243268369,
                0.7203942840394086,
                -0.090879353155783,
                -0.21032577167513727
            ]
        },
        {
            "positions": [
                0.3145352381191442,
                -1.1285497543302858,
                0.2678868851113576,
                0.8190440768782175,
                -0.0265285898540919,
                -0.23868862145254005
            ]
        },
        {
            "positions": [
                0.21515743428698464,
                -1.1237251775453883,
                0.3590329458958783,
                0.9176938697170263,
                0.037822173447599194,
                -0.2670514712299428
            ]
        },
        {
            "positions": [
                0.11577963045482464,
                -1.1189006007604907,
                0.45017900668039945,
                1.016343662555835,
                0.10217293674929051,
                -0.2954143210073457
            ]
        },
        {
            "positions": [
                0.016401826622665094,
                -1.1140760239755931,
                0.5413250674649206,
                1.114993455394644,
                0.1665237000509816,
                -0.3237771707847485
            ]
        },
        {
            "positions": [
                -0.0829759772094949,
                -1.1092514471906956,
                0.6324711282494417,
                1.2136432482334527,
                0.23087446335267292,
                -0.3521400205621514
            ]
        },
        {
            "positions": [
                -0.1823537810416543,
                -1.104426870405798,
                0.7236171890339624,
                1.3122930410722615,
                0.2952252266543641,
                -0.3805028703395542
            ]
        },
        {
            "positions": [
                -0.14682756839615327,
                -1.0667060998211406,
                0.8718818459062477,
                1.3841804620180675,
                0.24939631319775166,
                -0.33486100130591595
            ]
        },
        {
            "positions": [
                -0.11130135575065221,
                -1.0289853292364832,
                1.020146502778533,
                1.4560678829638738,
                0.2035673997411392,
                -0.2892191322722777
            ]
        },
        {
            "positions": [
                -0.07577514310515115,
                -0.9912645586518258,
                1.1684111596508182,
                1.5279553039096798,
                0.1577384862845267,
                -0.2435772632386394
            ]
        },
        {
            "positions": [
                -0.04024893045965011,
                -0.9535437880671684,
                1.3166758165231034,
                1.599842724855486,
                0.11190957282791422,
                -0.19793539420500114
            ]
        },
        {
            "positions": [
                -0.004722717814149041,
                -0.915823017482511,
                1.4649404733953888,
                1.671730145801292,
                0.06608065937130173,
                -0.15229352517136285
            ]
        },
        {
            "positions": [
                0.030803494831352002,
                -0.8781022468978537,
                1.6132051302676742,
                1.7436175667470981,
                0.020251745914689256,
                -0.1066516561377246
            ]
        },
        {
            "positions": [
                0.06632970747685307,
                -0.8403814763131963,
                1.7614697871399594,
                1.8155049876929044,
                -0.025577167541923254,
                -0.06100978710408632
            ]
        },
        {
            "positions": [
                0.09461535486351319,
                -0.8085809403592271,
                1.877503949787119,
                1.869439910677766,
                -0.07549065177029055,
                -0.03364261547865828
            ]
        },
        {
            "positions": [
                0.12290100225017331,
                -0.776780404405258,
                1.9935381124342786,
                1.9233748336626273,
                -0.12540413599865785,
                -0.006275443853230249
            ]
        }
    ]
}{
    "goal": {
        "global_pose": {
            "orientation": {
                "w": 0.7047431468963623,
                "x": -0.7094548344612122,
                "y": 0.0024358443915843964,
                "z": -0.0022348060738295317
            },
            "position": {
                "x": 0.6094750761985779,
                "y": 0.3671506643295288,
                "z": 0.19426114857196808
            }
        },
        "name": "move_to_magneteinheit_A"
    },
    "id": "STRIDE_move_to_magneteinheit_A_113",
    "joint_names": [
        "shoulder_pan_joint",
        "shoulder_lift_joint",
        "elbow_joint",
        "wrist_1_joint",
        "wrist_2_joint",
        "wrist_3_joint"
    ],
    "metrics": {
        "cart_traj_len": 1.2798100362871678,
        "distance_elbow_joint": 0.5169142724318874,
        "distance_shoulder_lift_joint": 0.7661726560564617,
        "distance_shoulder_pan_joint": 1.2411180113543423,
        "distance_wrist_1_joint": 0.8828583164408942,
        "distance_wrist_2_joint": 1.4377400589651403,
        "distance_wrist_3_joint": 4.37649035281922,
        "smoothness": 0.04277867092557207,
        "time": 0.23634022699999999,
        "traj_len": 3.0366583061101795,
        "weighted_distance": 4.504983101978566
    },
    "planner": "STRIDE",
    "start": {
        "state": {
            "elbow_joint": 1.919643534880228,
            "shoulder_lift_joint": -1.8972525353963687,
            "shoulder_pan_joint": -1.1188672234189438,
            "wrist_1_joint": -1.5931878212786155,
            "wrist_2_joint": 1.5706036197970081,
            "wrist_3_joint": 1.118896926603594
        }
    },
    "waypoints": [
        {
            "positions": [
                -1.1188672234189438,
                -1.8972525353963687,
                1.919643534880228,
                -1.5931878212786155,
                1.5706036197970081,
                1.118896926603594
            ]
        },
        {
            "positions": [
                -1.071095962311237,
                -1.8671949645079011,
                1.9082318231217374,
                -1.5532743053154228,
                1.5074479217705328,
                0.9154365276757331
            ]
        },
        {
            "positions": [
                -1.0233247012035305,
                -1.8371373936194335,
                1.896820111363247,
                -1.51336078935223,
                1.4442922237440576,
                0.7119761287478723
            ]
        },
        {
            "positions": [
                -0.9755534400958238,
                -1.807079822730966,
                1.8854083996047564,
                -1.4734472733890374,
                1.3811365257175825,
                0.5085157298200115
            ]
        },
        {
            "positions": [
                -0.9277821789881171,
                -1.7770222518424983,
                1.873996687846266,
                -1.4335337574258447,
                1.3179808276911071,
                0.30505533089215076
            ]
        },
        {
            "positions": [
                -0.8800109178804104,
                -1.7469646809540307,
                1.8625849760877753,
                -1.393620241462652,
                1.2548251296646318,
                0.10159493196428993
            ]
        },
        {
            "positions": [
                -0.8322396567727037,
                -1.716907110065563,
                1.8511732643292849,
                -1.3537067254994593,
                1.1916694316381566,
                -0.10186546696357102
            ]
        },
        {
            "positions": [
                -0.784468395664997,
                -1.6868495391770955,
                1.8397615525707942,
                -1.3137932095362665,
                1.1285137336116815,
                -0.30532586589143174
            ]
        },
        {
            "positions": [
                -0.7366971345572904,
                -1.6567919682886278,
                1.8283498408123036,
                -1.2738796935730738,
                1.0653580355852061,
                -0.5087862648192925
            ]
        },
        {
            "positions": [
                -0.6889258734495837,
                -1.6267343974001602,
                1.8169381290538131,
                -1.2339661776098811,
                1.0022023375587308,
                -0.7122466637471534
            ]
        },
        {
            "positions": [
                -0.641154612341877,
                -1.5966768265116926,
                1.8055264172953225,
                -1.1940526616466882,
                0.9390466395322556,
                -0.9157070626750141
            ]
        },
        {
            "positions": [
                -0.5933833512341702,
                -1.566619255623225,
                1.794114705536832,
                -1.1541391456834957,
                0.8758909415057803,
                -1.1191674616028753
            ]
        },
        {
            "positions": [
                -0.5456120901264636,
                -1.5365616847347574,
                1.7827029937783414,
                -1.1142256297203028,
                0.8127352434793051,
                -1.322627860530736
            ]
        },
        {
            "positions": [
                -0.4978408290187568,
                -1.5065041138462898,
                1.7712912820198508,
                -1.0743121137571103,
                0.7495795454528298,
                -1.5260882594585967
            ]
        },
        {
            "positions": [
                -0.45006956791105024,
                -1.4764465429578222,
                1.7598795702613603,
                -1.0343985977939174,
                0.6864238474263546,
                -1.7295486583864574
            ]
        },
        {
            "positions": [
                -0.40229830680334344,
                -1.4463889720693546,
                1.7484678585028697,
                -0.9944850818307247,
                0.6232681493998793,
                -1.9330090573143186
            ]
        },
        {
            "positions": [
                -0.35452704569563687,
                -1.416331401180887,
                1.7370561467443792,
                -0.9545715658675321,
                0.5601124513734042,
                -2.136469456242179
            ]
        },
        {
            "positions": [
                -0.30675578458793007,
                -1.3862738302924194,
                1.7256444349858886,
                -0.9146580499043393,
                0.4969567533469288,
                -2.3399298551700403
            ]
        },
        {
            "positions": [
                -0.2589845234802235,
                -1.3562162594039517,
                1.7142327232273982,
                -0.8747445339411467,
                0.43380105532045365,
                -2.5433902540979005
            ]
        },
        {
            "positions": [
                -0.2112132623725167,
                -1.3261586885154841,
                1.7028210114689075,
                -0.8348310179779539,
                0.3706453572939783,
                -2.7468506530257617
            ]
        },
        {
            "positions": [
                -0.16344200126481012,
                -1.2961011176270165,
                1.691409299710417,
                -0.7949175020147612,
                0.30748965926750316,
                -2.950311051953622
            ]
        },
        {
            "positions": [
                -0.11567074015710342,
                -1.266043546738549,
                1.6799975879519264,
                -0.7550039860515685,
                0.24433396124102774,
                -3.153771450881483
            ]
        },
        {
            "positions": [
                -0.03636356412626959,
                -1.2210556576056684,
                1.7724203631197883,
                -0.7401124923136194,
                0.20717716110464102,
                -3.1883787759928643
            ]
        },
        {
            "positions": [
                0.042943611904564236,
                -1.1760677684727876,
                1.8648431382876502,
                -0.7252209985756704,
                0.17002036096825432,
                -3.222986101104245
            ]
        },
        {
            "positions": [
                0.12225078793539808,
                -1.131079879339907,
                1.9572659134555122,
                -0.7103295048377213,
                0.1328635608318676,
                -3.2575934262156263
            ]
        }
    ]
}