{
    "goal": {
        "global_pose": {
            "orientation": {
                "w": 0.5084816217422485,
                "x": -0.49083608388900757,
                "y": 0.5182115435600281,
                "z": -0.4816462993621826
            },
            "position": {
                "x": 0.5540239810943604,
                "y": 0.030875300988554955,
                "z": 0.16403168439865112
            }
        },
        "name": "move_to_storage_A"
    },
    "id": "STRIDE_move_to_storage_A_125",
    "joint_names": [
        "shoulder_pan_joint",
        "shoulder_lift_joint",
        "elbow_joint",
        "wrist_1_joint",
        "wrist_2_joint",
        "wrist_3_joint"
    ],
    "metrics": {
        "cart_traj_len": 0.353878490193793,
        "distance_elbow_joint": 0.4479407380124867,
        "distance_shoulder_lift_joint": 0.23387583693283176,
        "distance_shoulder_pan_joint": 0.46134407984325954,
        "distance_wrist_1_joint": 0.2357309483497293,
        "distance_wrist_2_joint": 1.1058433820843039,
        "distance_wrist_3_joint": 0.09305744772295332,
        "smoothness": 8.881784197001252e-16,
        "time": 0.049747859000000005,
        "traj_len": 1.6055505077528904,
        "weighted_distance": 2.026198820161907
    },
    "planner": "STRIDE",
    "start": {
        "state": {
            "elbow_joint": 1.9715477243005601,
            "shoulder_lift_joint": -1.1394853015351272,
            "shoulder_pan_joint": 0.12281154014795169,
            "wrist_1_joint": -0.7804696478968182,
            "wrist_2_joint": 0.12958648046900423,
            "wrist_3_joint": -3.192491284697111
        }
    },
    "waypoints": [
        {
            "positions": [
                0.12281154014795169,
                -1.1394853015351272,
                1.9715477243005601,
                -0.7804696478968182,
                0.12958648046900423,
                -3.192491284697111
            ]
        },
        {
            "positions": [
                0.05690524302748605,
                -1.1728961353826746,
                2.035539258302344,
                -0.8141454976610653,
                0.28756410648104763,
                -3.179197363593832
            ]
        },
        {
            "positions": [
                -0.00900105409297959,
                -1.206306969230222,
                2.0995307923041278,
                -0.8478213474253122,
                0.44554173249309104,
                -3.165903442490553
            ]
        },
        {
            "positions": [
                -0.07490735121344523,
                -1.2397178030777694,
                2.1635223263059116,
                -0.8814971971895593,
                0.6035193585051344,
                -3.1526095213872742
            ]
        },
        {
            "positions": [
                -0.14081364833391086,
                -1.2731286369253167,
                2.2275138603076954,
                -0.9151730469538063,
                0.7614969845171778,
                -3.139315600283995
            ]
        },
        {
            "positions": [
                -0.20671994545437655,
                -1.3065394707728641,
                2.291505394309479,
                -0.9488488967180534,
                0.9194746105292213,
                -3.126021679180716
            ]
        },
        {
            "positions": [
                -0.27262624257484214,
                -1.3399503046204115,
                2.355496928311263,
                -0.9825247464823004,
                1.0774522365412647,
                -3.112727758077437
            ]
        },
        {
            "positions": [
                -0.33853253969530783,
                -1.373361138467959,
                2.419488462313047,
                -1.0162005962465475,
                1.235429862553308,
                -3.099433836974158
            ]
        }
    ]
}