{
    "goal": {
        "global_pose": {
            "orientation": {
                "w": 0.5084816217422485,
                "x": -0.49083608388900757,
                "y": 0.5182115435600281,
                "z": -0.4816462993621826
            },
            "position": {
                "x": 0.5540239810943604,
                "y": 0.030875300988554955,
                "z": 0.16403168439865112
            }
        },
        "name": "move_to_storage_A"
    },
    "id": "STRIDE_move_to_storage_A_83",
    "joint_names": [
        "shoulder_pan_joint",
        "shoulder_lift_joint",
        "elbow_joint",
        "wrist_1_joint",
        "wrist_2_joint",
        "wrist_3_joint"
    ],
    "metrics": {
        "cart_traj_len": 0.3533935189490557,
        "distance_elbow_joint": 0.45398321356048266,
        "distance_shoulder_lift_joint": 0.23416994170711924,
        "distance_shoulder_pan_joint": 0.46322972208664187,
        "distance_wrist_1_joint": 0.2585831185482711,
        "distance_wrist_2_joint": 1.0950309602107628,
        "distance_wrist_3_joint": 0.09335715661801514,
        "smoothness": 4.440892133664971e-16,
        "time": 0.068008299,
        "traj_len": 1.6119411008877753,
        "weighted_distance": 2.03437521237513
    },
    "planner": "STRIDE",
    "start": {
        "state": {
            "elbow_joint": 1.9715477243005601,
            "shoulder_lift_joint": -1.1394853015351272,
            "shoulder_pan_joint": 0.12281154014795169,
            "wrist_1_joint": -0.7804696478968182,
            "wrist_2_joint": 0.12958648046900423,
            "wrist_3_joint": -3.192491284697111
        }
    },
    "waypoints": [
        {
            "positions": [
                0.12281154014795169,
                -1.1394853015351272,
                1.9715477243005601,
                -0.7804696478968182,
                0.12958648046900423,
                -3.192491284697111
            ]
        },
        {
            "positions": [
                0.05663586556414571,
                -1.17293815035043,
                2.0364024690949147,
                -0.8174100934037141,
                0.2860194747848275,
                -3.1791545480373946
            ]
        },
        {
            "positions": [
                -0.00953980901966027,
                -1.2063909991657327,
                2.1012572138892693,
                -0.8543505389106099,
                0.4424524691006507,
                -3.1658178113776785
            ]
        },
        {
            "positions": [
                -0.07571548360346624,
                -1.2398438479810354,
                2.166111958683624,
                -0.8912909844175058,
                0.598885463416474,
                -3.152481074717962
            ]
        },
        {
            "positions": [
                -0.14189115818727221,
                -1.2732966967963382,
                2.2309667034779785,
                -0.9282314299244017,
                0.7553184577322972,
                -3.1391443380582453
            ]
        },
        {
            "positions": [
                -0.20806683277107824,
                -1.306749545611641,
                2.2958214482723336,
                -0.9651718754312975,
                0.9117514520481206,
                -3.1258076013985288
            ]
        },
        {
            "positions": [
                -0.27424250735488415,
                -1.3402023944269437,
                2.360676193066688,
                -1.0021123209381935,
                1.0681844463639436,
                -3.1124708647388126
            ]
        },
        {
            "positions": [
                -0.34041818193869017,
                -1.3736552432422464,
                2.425530937861043,
                -1.0390527664450893,
                1.224617440679767,
                -3.099134128079096
            ]
        }
    ]
}