{
    "goal": {
        "global_pose": {
            "orientation": {
                "w": 0.7047431468963623,
                "x": -0.7094548344612122,
                "y": 0.0024358443915843964,
                "z": -0.0022348060738295317
            },
            "position": {
                "x": 0.6094750761985779,
                "y": 0.3671506643295288,
                "z": 0.19426114857196808
            }
        },
        "name": "move_to_magneteinheit_A"
    },
    "id": "STRIDE_move_to_magneteinheit_A_122",
    "joint_names": [
        "shoulder_pan_joint",
        "shoulder_lift_joint",
        "elbow_joint",
        "wrist_1_joint",
        "wrist_2_joint",
        "wrist_3_joint"
    ],
    "metrics": {
        "cart_traj_len": 3.418441106408878,
        "distance_elbow_joint": 3.914240124025344,
        "distance_shoulder_lift_joint": 0.4671096168468789,
        "distance_shoulder_pan_joint": 3.0531489801316063,
        "distance_wrist_1_joint": 3.4674679484208446,
        "distance_wrist_2_joint": 1.6558216410373539,
        "distance_wrist_3_joint": 1.270363217586609,
        "smoothness": 0.1773326302477473,
        "time": 0.18372075699999998,
        "traj_len": 3.7186222620815674,
        "weighted_distance": 4.6359645762969395
    },
    "planner": "STRIDE",
    "start": {
        "state": {
            "elbow_joint": -1.919618573717145,
            "shoulder_lift_joint": -1.2443395971678275,
            "shoulder_pan_joint": 2.6996025300909787,
            "wrist_1_joint": -1.548550951253194,
            "wrist_2_joint": -1.5709469090946802,
            "wrist_3_joint": 0.4420197732051276
        }
    },
    "waypoints": [
        {
            "positions": [
                2.6996025300909787,
                -1.2443395971678275,
                -1.919618573717145,
                -1.548550951253194,
                -1.5709469090946802,
                0.4420197732051276
            ]
        },
        {
            "positions": [
                2.551432287361803,
                -1.2397918199755966,
                -1.8021929600649709,
                -1.5058245131823516,
                -1.5196666334447204,
                0.4640422281629333
            ]
        },
        {
            "positions": [
                2.4032620446326267,
                -1.2352440427833657,
                -1.684767346412797,
                -1.463098075111509,
                -1.4683863577947607,
                0.4860646831207389
            ]
        },
        {
            "positions": [
                2.255091801903451,
                -1.2306962655911349,
                -1.5673417327606232,
                -1.4203716370406665,
                -1.417106082144801,
                0.5080871380785446
            ]
        },
        {
            "positions": [
                2.1069215591742747,
                -1.2261484883989038,
                -1.449916119108449,
                -1.377645198969824,
                -1.3658258064948412,
                0.5301095930363503
            ]
        },
        {
            "positions": [
                1.958751316445099,
                -1.221600711206673,
                -1.332490505456275,
                -1.3349187608989814,
                -1.3145455308448815,
                0.5521320479941559
            ]
        },
        {
            "positions": [
                1.810581073715923,
                -1.217052934014442,
                -1.2150648918041012,
                -1.292192322828139,
                -1.2632652551949217,
                0.5741545029519617
            ]
        },
        {
            "positions": [
                1.662410830986747,
                -1.2125051568222112,
                -1.0976392781519273,
                -1.2494658847572964,
                -1.211984979544962,
                0.5961769579097673
            ]
        },
        {
            "positions": [
                1.5142405882575711,
                -1.2079573796299803,
                -0.9802136644997532,
                -1.2067394466864538,
                -1.1607047038950022,
                0.618199412867573
            ]
        },
        {
            "positions": [
                1.3660703455283951,
                -1.2034096024377494,
                -0.8627880508475794,
                -1.1640130086156113,
                -1.1094244282450425,
                0.6402218678253786
            ]
        },
        {
            "positions": [
                1.2179001027992191,
                -1.1988618252455183,
                -0.7453624371954053,
                -1.1212865705447688,
                -1.0581441525950828,
                0.6622443227831843
            ]
        },
        {
            "positions": [
                1.069729860070043,
                -1.1943140480532874,
                -0.6279368235432312,
                -1.0785601324739262,
                -1.006863876945123,
                0.68426677774099
            ]
        },
        {
            "positions": [
                0.9215596173408671,
                -1.1897662708610566,
                -0.5105112098910574,
                -1.0358336944030837,
                -0.9555836012951634,
                0.7062892326987957
            ]
        },
        {
            "positions": [
                0.7733893746116911,
                -1.1852184936688257,
                -0.3930855962388833,
                -0.9931072563322411,
                -0.9043033256452037,
                0.7283116876566014
            ]
        },
        {
            "positions": [
                0.6252191318825151,
                -1.1806707164765948,
                -0.27565998258670943,
                -0.9503808182613986,
                -0.8530230499952439,
                0.750334142614407
            ]
        },
        {
            "positions": [
                0.4770488891533393,
                -1.176122939284364,
                -0.15823436893453535,
                -0.907654380190556,
                -0.8017427743452842,
                0.7723565975722126
            ]
        },
        {
            "positions": [
                0.32887864642416353,
                -1.1715751620921329,
                -0.0408087552823615,
                -0.8649279421197135,
                -0.7504624986953244,
                0.7943790525300184
            ]
        },
        {
            "positions": [
                0.1807084036949873,
                -1.167027384899902,
                0.07661685836981258,
                -0.8222015040488709,
                -0.6991822230453647,
                0.8164015074878241
            ]
        },
        {
            "positions": [
                0.032538160965811525,
                -1.1624796077076711,
                0.1940424720219862,
                -0.7794750659780284,
                -0.647901947395405,
                0.8384239624456298
            ]
        },
        {
            "positions": [
                -0.11563208176336463,
                -1.1579318305154402,
                0.31146808567416046,
                -0.7367486279071859,
                -0.5966216717454452,
                0.8604464174034354
            ]
        },
        {
            "positions": [
                -0.10457095801946938,
                -1.136925200986086,
                0.4129704965430474,
                -0.578518869475156,
                -0.5609818604450365,
                0.8131681879210265
            ]
        },
        {
            "positions": [
                -0.0935098342755741,
                -1.1159185714567317,
                0.5144729074119344,
                -0.42028911104312594,
                -0.5253420491446279,
                0.7658899584386177
            ]
        },
        {
            "positions": [
                -0.08244871053167885,
                -1.0949119419273774,
                0.6159753182808214,
                -0.262059352611096,
                -0.4897022378442192,
                0.7186117289562088
            ]
        },
        {
            "positions": [
                -0.07138758678778359,
                -1.0739053123980231,
                0.7174777291497083,
                -0.10382959417906601,
                -0.4540624265438105,
                0.6713334994737999
            ]
        },
        {
            "positions": [
                -0.06032646304388832,
                -1.0528986828686688,
                0.8189801400185954,
                0.05440016425296401,
                -0.41842261524340185,
                0.624055269991391
            ]
        },
        {
            "positions": [
                -0.04926533929999306,
                -1.0318920533393146,
                0.9204825508874823,
                0.21262992268499392,
                -0.38278280394299313,
                0.5767770405089823
            ]
        },
        {
            "positions": [
                -0.03820421555609779,
                -1.01088542380996,
                1.0219849617563692,
                0.37085968111702383,
                -0.34714299264258447,
                0.5294988110265734
            ]
        },
        {
            "positions": [
                -0.027143091812202536,
                -0.9898787942806059,
                1.1234873726252563,
                0.5290894395490539,
                -0.3115031813421758,
                0.48222058154416453
            ]
        },
        {
            "positions": [
                -0.01608196806830728,
                -0.9688721647512516,
                1.2249897834941432,
                0.6873191979810839,
                -0.27586337004176714,
                0.4349423520617557
            ]
        },
        {
            "positions": [
                -0.005020844324412008,
                -0.9478655352218973,
                1.3264921943630303,
                0.8455489564131139,
                -0.24022355874135848,
                0.3876641225793468
            ]
        },
        {
            "positions": [
                0.006040279419483249,
                -0.9268589056925429,
                1.4279946052319172,
                1.0037787148451436,
                -0.20458374744094976,
                0.3403858930969379
            ]
        },
        {
            "positions": [
                0.017101403163378506,
                -0.9058522761631886,
                1.5294970161008041,
                1.1620084732771736,
                -0.1689439361405411,
                0.2931076636145291
            ]
        },
        {
            "positions": [
                0.028162526907273763,
                -0.8848456466338344,
                1.6309994269696912,
                1.3202382317092036,
                -0.13330412484013243,
                0.24582943413212022
            ]
        },
        {
            "positions": [
                0.03922365065116905,
                -0.8638390171044801,
                1.7325018378385781,
                1.4784679901412336,
                -0.09766431353972371,
                0.19855120464971132
            ]
        },
        {
            "positions": [
                0.050284774395064305,
                -0.8428323875751258,
                1.8340042487074653,
                1.6366977485732637,
                -0.062024502239315105,
                0.15127297516730254
            ]
        },
        {
            "positions": [
                0.06134589813895956,
                -0.8218257580457715,
                1.9355066595763522,
                1.7949275070052937,
                -0.026384690938906386,
                0.10399474568489361
            ]
        },
        {
            "positions": [
                0.09181409232642834,
                -0.79952786918336,
                1.9650641049422757,
                1.856922252086472,
                -0.08201440237969654,
                0.056252294850014095
            ]
        },
        {
            "positions": [
                0.12228228651389712,
                -0.7772299803209486,
                1.994621550308199,
                1.9189169971676505,
                -0.1376441138204867,
                0.008509844015134584
            ]
        }
    ]
}{
    "goal": {
        "global_pose": {
            "orientation": {
                "w": 0.7047431468963623,
                "x": -0.7094548344612122,
                "y": 0.0024358443915843964,
                "z": -0.0022348060738295317
            },
            "position": {
                "x": 0.6094750761985779,
                "y": 0.3671506643295288,
                "z": 0.19426114857196808
            }
        },
        "name": "move_to_magneteinheit_A"
    },
    "id": "STRIDE_move_to_magneteinheit_A_122",
    "joint_names": [
        "shoulder_pan_joint",
        "shoulder_lift_joint",
        "elbow_joint",
        "wrist_1_joint",
        "wrist_2_joint",
        "wrist_3_joint"
    ],
    "metrics": {
        "cart_traj_len": 1.72688618045833,
        "distance_elbow_joint": 2.284932076802872,
        "distance_shoulder_lift_joint": 0.7668967646554388,
        "distance_shoulder_pan_joint": 1.2415245518206317,
        "distance_wrist_1_joint": 0.7373115346588771,
        "distance_wrist_2_joint": 1.4389983957799406,
        "distance_wrist_3_joint": 4.237103724891374,
        "smoothness": 0.18595767560199286,
        "time": 0.306462001,
        "traj_len": 3.2721196568293673,
        "weighted_distance": 4.621394208334829
    },
    "planner": "STRIDE",
    "start": {
        "state": {
            "elbow_joint": 1.919643534880228,
            "shoulder_lift_joint": -1.8972525353963687,
            "shoulder_pan_joint": -1.1188672234189438,
            "wrist_1_joint": -1.5931878212786155,
            "wrist_2_joint": 1.5706036197970081,
            "wrist_3_joint": 1.118896926603594
        }
    },
    "waypoints": [
        {
            "positions": [
                -1.1188672234189438,
                -1.8972525353963687,
                1.919643534880228,
                -1.5931878212786155,
                1.5706036197970081,
                1.118896926603594
            ]
        },
        {
            "positions": [
                -1.0870821143278704,
                -1.8551705473089022,
                1.858064965269806,
                -1.5774202155710846,
                1.4963511256763888,
                0.9600385320265602
            ]
        },
        {
            "positions": [
                -1.055297005236797,
                -1.8130885592214359,
                1.7964863956593837,
                -1.5616526098635537,
                1.4220986315557698,
                0.8011801374495264
            ]
        },
        {
            "positions": [
                -1.0235118961457235,
                -1.7710065711339693,
                1.7349078260489614,
                -1.5458850041560228,
                1.3478461374351505,
                0.6423217428724928
            ]
        },
        {
            "positions": [
                -0.9917267870546502,
                -1.7289245830465028,
                1.6733292564385394,
                -1.5301173984484917,
                1.2735936433145314,
                0.483463348295459
            ]
        },
        {
            "positions": [
                -0.9599416779635768,
                -1.6868425949590364,
                1.6117506868281173,
                -1.5143497927409608,
                1.1993411491939119,
                0.3246049537184251
            ]
        },
        {
            "positions": [
                -0.9281565688725033,
                -1.6447606068715699,
                1.550172117217695,
                -1.49858218703343,
                1.1250886550732928,
                0.16574655914139147
            ]
        },
        {
            "positions": [
                -0.8963714597814298,
                -1.6026786187841033,
                1.4885935476072727,
                -1.482814581325899,
                1.0508361609526737,
                0.006888164564357702
            ]
        },
        {
            "positions": [
                -0.8645863506903565,
                -1.560596630696637,
                1.4270149779968506,
                -1.4670469756183682,
                0.9765836668320544,
                -0.15197023001267596
            ]
        },
        {
            "positions": [
                -0.832801241599283,
                -1.5185146426091705,
                1.3654364083864285,
                -1.451279369910837,
                0.9023311727114351,
                -0.31082862458970983
            ]
        },
        {
            "positions": [
                -0.8010161325082096,
                -1.476432654521704,
                1.3038578387760063,
                -1.4355117642033062,
                0.8280786785908159,
                -0.4696870191667437
            ]
        },
        {
            "positions": [
                -0.7692310234171362,
                -1.4343506664342374,
                1.242279269165584,
                -1.4197441584957753,
                0.7538261844701967,
                -0.6285454137437776
            ]
        },
        {
            "positions": [
                -0.7374459143260628,
                -1.392268678346771,
                1.1807006995551619,
                -1.4039765527882444,
                0.6795736903495775,
                -0.787403808320811
            ]
        },
        {
            "positions": [
                -0.7056608052349893,
                -1.3501866902593047,
                1.1191221299447398,
                -1.3882089470807135,
                0.6053211962289583,
                -0.9462622028978449
            ]
        },
        {
            "positions": [
                -0.6738756961439158,
                -1.3081047021718382,
                1.0575435603343175,
                -1.3724413413731826,
                0.5310687021083391,
                -1.1051205974748786
            ]
        },
        {
            "positions": [
                -0.6420905870528425,
                -1.2660227140843716,
                0.9959649907238953,
                -1.3566737356656517,
                0.4568162079877198,
                -1.2639789920519127
            ]
        },
        {
            "positions": [
                -0.6103054779617691,
                -1.223940725996905,
                0.9343864211134731,
                -1.3409061299581206,
                0.38256371386710075,
                -1.4228373866289459
            ]
        },
        {
            "positions": [
                -0.5785203688706957,
                -1.1818587379094387,
                0.8728078515030511,
                -1.3251385242505898,
                0.30831121974648146,
                -1.58169578120598
            ]
        },
        {
            "positions": [
                -0.5467352597796222,
                -1.1397767498219722,
                0.8112292818926288,
                -1.3093709185430589,
                0.23405872562586205,
                -1.7405541757830139
            ]
        },
        {
            "positions": [
                -0.4797960009614912,
                -1.1407188477300765,
                0.9288810642741561,
                -1.2640214553507267,
                0.22381337546498262,
                -1.8783194380334904
            ]
        },
        {
            "positions": [
                -0.4128567421433602,
                -1.1416609456381805,
                1.0465328466556834,
                -1.2186719921583948,
                0.21356802530410315,
                -2.016084700283967
            ]
        },
        {
            "positions": [
                -0.3459174833252292,
                -1.1426030435462848,
                1.1641846290372106,
                -1.1733225289660627,
                0.20332267514322372,
                -2.153849962534444
            ]
        },
        {
            "positions": [
                -0.27897822450709814,
                -1.1435451414543891,
                1.281836411418738,
                -1.1279730657737306,
                0.19307732498234426,
                -2.2916152247849206
            ]
        },
        {
            "positions": [
                -0.21203896568896713,
                -1.1444872393624932,
                1.3994881938002652,
                -1.0826236025813987,
                0.18283197482146482,
                -2.429380487035397
            ]
        },
        {
            "positions": [
                -0.14509970687083612,
                -1.1454293372705975,
                1.5171399761817925,
                -1.0372741393890665,
                0.17258662466058539,
                -2.567145749285874
            ]
        },
        {
            "positions": [
                -0.07816044805270511,
                -1.1463714351787018,
                1.6347917585633198,
                -0.9919246761967345,
                0.16234127449970592,
                -2.7049110115363506
            ]
        },
        {
            "positions": [
                -0.011221189234574047,
                -1.147313533086806,
                1.7524435409448471,
                -0.9465752130044025,
                0.15209592433882646,
                -2.842676273786827
            ]
        },
        {
            "positions": [
                0.05571806958355696,
                -1.1482556309949101,
                1.8700953233263744,
                -0.9012257498120704,
                0.14185057417794705,
                -2.980441536037304
            ]
        },
        {
            "positions": [
                0.122657328401688,
                -1.1491977289030144,
                1.9877471057079017,
                -0.8558762866197384,
                0.1316052240170676,
                -3.1182067982877806
            ]
        }
    ]
}