{
    "goal": {
        "global_pose": {
            "orientation": {
                "w": 0.7047431468963623,
                "x": -0.7094548344612122,
                "y": 0.0024358443915843964,
                "z": -0.0022348060738295317
            },
            "position": {
                "x": 0.6094750761985779,
                "y": 0.3671506643295288,
                "z": 0.19426114857196808
            }
        },
        "name": "move_to_magneteinheit_A"
    },
    "id": "STRIDE_move_to_magneteinheit_A_88",
    "joint_names": [
        "shoulder_pan_joint",
        "shoulder_lift_joint",
        "elbow_joint",
        "wrist_1_joint",
        "wrist_2_joint",
        "wrist_3_joint"
    ],
    "metrics": {
        "cart_traj_len": 3.3208810800500093,
        "distance_elbow_joint": 3.9121815928551076,
        "distance_shoulder_lift_joint": 0.8443659556577026,
        "distance_shoulder_pan_joint": 2.762942488557775,
        "distance_wrist_1_joint": 3.944891541598772,
        "distance_wrist_2_joint": 3.4977900557730206,
        "distance_wrist_3_joint": 1.9151965127828616,
        "smoothness": 0.5862182295828401,
        "time": 0.249977603,
        "traj_len": 4.108207412877939,
        "weighted_distance": 5.305699084019255
    },
    "planner": "STRIDE",
    "start": {
        "state": {
            "elbow_joint": -1.919618573717145,
            "shoulder_lift_joint": -1.2443395971678275,
            "shoulder_pan_joint": 2.6996025300909787,
            "wrist_1_joint": -1.548550951253194,
            "wrist_2_joint": -1.5709469090946802,
            "wrist_3_joint": 0.4420197732051276
        }
    },
    "waypoints": [
        {
            "positions": [
                2.6996025300909787,
                -1.2443395971678275,
                -1.919618573717145,
                -1.548550951253194,
                -1.5709469090946802,
                0.4420197732051276
            ]
        },
        {
            "positions": [
                2.5983421642056093,
                -1.2515051542379492,
                -1.8323440904235389,
                -1.4718366726681484,
                -1.4795776527646196,
                0.45777299027043555
            ]
        },
        {
            "positions": [
                2.49708179832024,
                -1.2586707113080708,
                -1.7450696071299328,
                -1.3951223940831028,
                -1.388208396434559,
                0.4735262073357435
            ]
        },
        {
            "positions": [
                2.39582143243487,
                -1.2658362683781925,
                -1.6577951238363267,
                -1.3184081154980574,
                -1.2968391401044985,
                0.48927942440105143
            ]
        },
        {
            "positions": [
                2.2945610665495004,
                -1.273001825448314,
                -1.5705206405427206,
                -1.2416938369130117,
                -1.2054698837744378,
                0.5050326414663594
            ]
        },
        {
            "positions": [
                2.193300700664131,
                -1.2801673825184356,
                -1.4832461572491145,
                -1.1649795583279663,
                -1.1141006274443772,
                0.5207858585316674
            ]
        },
        {
            "positions": [
                2.0920403347787615,
                -1.2873329395885573,
                -1.3959716739555084,
                -1.0882652797429206,
                -1.0227313711143167,
                0.5365390755969753
            ]
        },
        {
            "positions": [
                1.990779968893392,
                -1.294498496658679,
                -1.3086971906619023,
                -1.011551001157875,
                -0.9313621147842561,
                0.5522922926622833
            ]
        },
        {
            "positions": [
                1.8895196030080224,
                -1.3016640537288007,
                -1.2214227073682962,
                -0.9348367225728293,
                -0.8399928584541955,
                0.5680455097275913
            ]
        },
        {
            "positions": [
                1.7882592371226527,
                -1.3088296107989223,
                -1.13414822407469,
                -0.8581224439877838,
                -0.7486236021241348,
                0.5837987267928992
            ]
        },
        {
            "positions": [
                1.6869988712372834,
                -1.315995167869044,
                -1.046873740781084,
                -0.7814081654027383,
                -0.6572543457940744,
                0.5995519438582072
            ]
        },
        {
            "positions": [
                1.5857385053519137,
                -1.3231607249391657,
                -0.9595992574874779,
                -0.7046938868176926,
                -0.5658850894640137,
                0.6153051609235152
            ]
        },
        {
            "positions": [
                1.4844781394665443,
                -1.3303262820092872,
                -0.8723247741938718,
                -0.6279796082326471,
                -0.4745158331339532,
                0.631058377988823
            ]
        },
        {
            "positions": [
                1.3832177735811746,
                -1.3374918390794088,
                -0.7850502909002657,
                -0.5512653296476014,
                -0.3831465768038924,
                0.6468115950541311
            ]
        },
        {
            "positions": [
                1.2819574076958051,
                -1.3446573961495305,
                -0.6977758076066596,
                -0.4745510510625559,
                -0.2917773204738321,
                0.662564812119439
            ]
        },
        {
            "positions": [
                1.1806970418104357,
                -1.3518229532196522,
                -0.6105013243130535,
                -0.39783677247751026,
                -0.20040806414377155,
                0.6783180291847469
            ]
        },
        {
            "positions": [
                1.079436675925066,
                -1.3589885102897739,
                -0.5232268410194474,
                -0.3211224938924646,
                -0.10903880781371078,
                0.6940712462500549
            ]
        },
        {
            "positions": [
                0.9781763100396965,
                -1.3661540673598955,
                -0.4359523577258413,
                -0.24440821530741919,
                -0.017669551483650237,
                0.709824463315363
            ]
        },
        {
            "positions": [
                0.8769159441543268,
                -1.3733196244300172,
                -0.3486778744322352,
                -0.16769393672237354,
                0.07369970484641053,
                0.7255776803806708
            ]
        },
        {
            "positions": [
                0.7756555782689574,
                -1.3804851815001387,
                -0.2614033911386291,
                -0.09097965813732789,
                0.16506896117647107,
                0.7413308974459788
            ]
        },
        {
            "positions": [
                0.6743952123835881,
                -1.3876507385702603,
                -0.174128907845023,
                -0.014265379552282464,
                0.2564382175065314,
                0.7570841145112868
            ]
        },
        {
            "positions": [
                0.5731348464982182,
                -1.394816295640382,
                -0.0868544245514169,
                0.062448899032763405,
                0.34780747383659216,
                0.7728373315765947
            ]
        },
        {
            "positions": [
                0.47187448061284887,
                -1.4019818527105037,
                0.0004200587421891999,
                0.13916317761780875,
                0.43917673016665293,
                0.7885905486419027
            ]
        },
        {
            "positions": [
                0.43556931056503895,
                -1.3501773928335061,
                0.11373683072449466,
                0.24593161698080468,
                0.41480922396458386,
                0.7474038619401869
            ]
        },
        {
            "positions": [
                0.3992641405172291,
                -1.2983729329565086,
                0.2270536027068001,
                0.35270005634380064,
                0.3904417177625148,
                0.7062171752384712
            ]
        },
        {
            "positions": [
                0.36295897046941916,
                -1.2465684730795112,
                0.3403703746891056,
                0.4594684957067966,
                0.3660742115604457,
                0.6650304885367554
            ]
        },
        {
            "positions": [
                0.3266538004216093,
                -1.1947640132025137,
                0.453687146671411,
                0.5662369350697924,
                0.3417067053583766,
                0.6238438018350396
            ]
        },
        {
            "positions": [
                0.2903486303737993,
                -1.1429595533255161,
                0.5670039186537166,
                0.6730053744327884,
                0.31733919915630754,
                0.5826571151333239
            ]
        },
        {
            "positions": [
                0.25404346032598946,
                -1.0911550934485188,
                0.680320690636022,
                0.7797738137957844,
                0.2929716929542384,
                0.5414704284316081
            ]
        },
        {
            "positions": [
                0.21773829027817954,
                -1.0393506335715212,
                0.7936374626183275,
                0.8865422531587803,
                0.26860418675216935,
                0.5002837417298923
            ]
        },
        {
            "positions": [
                0.18143312023036967,
                -0.9875461736945237,
                0.9069542346006328,
                0.9933106925217762,
                0.24423668055010028,
                0.4590970550281766
            ]
        },
        {
            "positions": [
                0.14512795018255975,
                -0.9357417138175261,
                1.0202710065829383,
                1.1000791318847722,
                0.21986917434803122,
                0.41791036832646083
            ]
        },
        {
            "positions": [
                0.10882278013474983,
                -0.8839372539405287,
                1.133587778565244,
                1.2068475712477682,
                0.19550166814596212,
                0.37672368162474507
            ]
        },
        {
            "positions": [
                0.07251761008693997,
                -0.8321327940635312,
                1.2469045505475491,
                1.3136160106107642,
                0.17113416194389303,
                0.3355369949230293
            ]
        },
        {
            "positions": [
                0.036212440039130024,
                -0.7803283341865337,
                1.3602213225298547,
                1.4203844499737601,
                0.14676665574182396,
                0.29435030822131353
            ]
        },
        {
            "positions": [
                0.035027805073858095,
                -0.7746797345571286,
                1.432197279542858,
                1.5436347017997878,
                0.2240791739360777,
                0.1812918432182153
            ]
        },
        {
            "positions": [
                0.03384317010858616,
                -0.7690311349277236,
                1.504173236555861,
                1.6668849536258155,
                0.30139169213033146,
                0.06823337821511705
            ]
        },
        {
            "positions": [
                0.032658535143314224,
                -0.7633825352983185,
                1.576149193568864,
                1.790135205451843,
                0.37870421032458523,
                -0.044825086787981194
            ]
        },
        {
            "positions": [
                0.031473900178042295,
                -0.7577339356689133,
                1.6481251505818673,
                1.9133854572778706,
                0.45601672851883895,
                -0.15788355179107944
            ]
        },
        {
            "positions": [
                0.030289265212770363,
                -0.7520853360395083,
                1.7201011075948704,
                2.0366357091038982,
                0.5333292467130928,
                -0.2709420167941777
            ]
        },
        {
            "positions": [
                0.02910463024749843,
                -0.7464367364101032,
                1.7920770646078736,
                2.159885960929926,
                0.6106417649073465,
                -0.3840004817972759
            ]
        },
        {
            "positions": [
                0.04759354799035723,
                -0.7526724531730284,
                1.8321742555138913,
                2.1125950350467955,
                0.46436551832307893,
                -0.3047935404158944
            ]
        },
        {
            "positions": [
                0.06608246573321602,
                -0.7589081699359536,
                1.8722714464199093,
                2.0653041091636655,
                0.31808927173881146,
                -0.22558659903451286
            ]
        },
        {
            "positions": [
                0.08457138347607482,
                -0.7651438866988788,
                1.912368637325927,
                2.018013183280535,
                0.17181302515454405,
                -0.14637965765313135
            ]
        },
        {
            "positions": [
                0.10306030121893363,
                -0.7713796034618039,
                1.952465828231945,
                1.9707222573974046,
                0.025536778570276475,
                -0.06717271627174981
            ]
        },
        {
            "positions": [
                0.12154921896179242,
                -0.7776153202247291,
                1.9925630191379626,
                1.9234313315142744,
                -0.1207394680139909,
                0.012034225109631678
            ]
        }
    ]
}{
    "goal": {
        "global_pose": {
            "orientation": {
                "w": 0.7047431468963623,
                "x": -0.7094548344612122,
                "y": 0.0024358443915843964,
                "z": -0.0022348060738295317
            },
            "position": {
                "x": 0.6094750761985779,
                "y": 0.3671506643295288,
                "z": 0.19426114857196808
            }
        },
        "name": "move_to_magneteinheit_A"
    },
    "id": "STRIDE_move_to_magneteinheit_A_88",
    "joint_names": [
        "shoulder_pan_joint",
        "shoulder_lift_joint",
        "elbow_joint",
        "wrist_1_joint",
        "wrist_2_joint",
        "wrist_3_joint"
    ],
    "metrics": {
        "cart_traj_len": 1.249958221751319,
        "distance_elbow_joint": 0.06928827296092188,
        "distance_shoulder_lift_joint": 1.1229147170587013,
        "distance_shoulder_pan_joint": 1.2408505232720015,
        "distance_wrist_1_joint": 3.496149817859116,
        "distance_wrist_2_joint": 1.702464649495972,
        "distance_wrist_3_joint": 1.1036334580774083,
        "smoothness": 1.4802973778883236e-16,
        "time": 0.06635933,
        "traj_len": 2.955554336960178,
        "weighted_distance": 4.017609092760771
    },
    "planner": "STRIDE",
    "start": {
        "state": {
            "elbow_joint": 1.919643534880228,
            "shoulder_lift_joint": -1.8972525353963687,
            "shoulder_pan_joint": -1.1188672234189438,
            "wrist_1_joint": -1.5931878212786155,
            "wrist_2_joint": 1.5706036197970081,
            "wrist_3_joint": 1.118896926603594
        }
    },
    "waypoints": [
        {
            "positions": [
                -1.1188672234189438,
                -1.8972525353963687,
                1.919643534880228,
                -1.5931878212786155,
                1.5706036197970081,
                1.118896926603594
            ]
        },
        {
            "positions": [
                -1.0649172006679872,
                -1.8484301563938166,
                1.9226560684872247,
                -1.441181307458654,
                1.4965834176450095,
                1.070912863208924
            ]
        },
        {
            "positions": [
                -1.0109671779170306,
                -1.7996077773912642,
                1.9256686020942213,
                -1.2891747936386924,
                1.4225632154930106,
                1.0229287998142542
            ]
        },
        {
            "positions": [
                -0.9570171551660741,
                -1.750785398388712,
                1.928681135701218,
                -1.1371682798187308,
                1.3485430133410117,
                0.9749447364195842
            ]
        },
        {
            "positions": [
                -0.9030671324151175,
                -1.70196301938616,
                1.9316936693082145,
                -0.9851617659987693,
                1.274522811189013,
                0.9269606730249143
            ]
        },
        {
            "positions": [
                -0.849117109664161,
                -1.6531406403836075,
                1.9347062029152111,
                -0.8331552521788077,
                1.2005026090370143,
                0.8789766096302444
            ]
        },
        {
            "positions": [
                -0.7951670869132044,
                -1.6043182613810554,
                1.9377187365222077,
                -0.6811487383588462,
                1.1264824068850154,
                0.8309925462355744
            ]
        },
        {
            "positions": [
                -0.7412170641622478,
                -1.5554958823785032,
                1.9407312701292043,
                -0.5291422245388844,
                1.0524622047330165,
                0.7830084828409045
            ]
        },
        {
            "positions": [
                -0.6872670414112911,
                -1.5066735033759509,
                1.943743803736201,
                -0.37713571071892305,
                0.9784420025810179,
                0.7350244194462345
            ]
        },
        {
            "positions": [
                -0.6333170186603345,
                -1.4578511243733987,
                1.9467563373431975,
                -0.22512919689896127,
                0.904421800429019,
                0.6870403560515645
            ]
        },
        {
            "positions": [
                -0.579366995909378,
                -1.4090287453708465,
                1.9497688709501941,
                -0.07312268307899994,
                0.8304015982770203,
                0.6390562926568948
            ]
        },
        {
            "positions": [
                -0.5254169731584214,
                -1.3602063663682942,
                1.9527814045571907,
                0.07888383074096184,
                0.7563813961250214,
                0.5910722292622248
            ]
        },
        {
            "positions": [
                -0.4714669504074648,
                -1.311383987365742,
                1.9557939381641873,
                0.23089034456092317,
                0.6823611939730228,
                0.5430881658675548
            ]
        },
        {
            "positions": [
                -0.4175169276565083,
                -1.2625616083631899,
                1.958806471771184,
                0.3828968583808847,
                0.608340991821024,
                0.49510410247288494
            ]
        },
        {
            "positions": [
                -0.36356690490555155,
                -1.2137392293606375,
                1.9618190053781805,
                0.5349033722008467,
                0.534320789669025,
                0.44712003907821496
            ]
        },
        {
            "positions": [
                -0.30961688215459504,
                -1.1649168503580851,
                1.9648315389851772,
                0.686909886020808,
                0.4603005875170263,
                0.3991359756835451
            ]
        },
        {
            "positions": [
                -0.2556668594036384,
                -1.1160944713555332,
                1.9678440725921738,
                0.8389163998407694,
                0.3862803853650276,
                0.3511519122888752
            ]
        },
        {
            "positions": [
                -0.20171683665268192,
                -1.0672720923529808,
                1.9708566061991704,
                0.9909229136607307,
                0.31226018321302895,
                0.3031678488942052
            ]
        },
        {
            "positions": [
                -0.1477668139017252,
                -1.0184497133504284,
                1.973869139806167,
                1.142929427480693,
                0.23823998106102984,
                0.25518378549953524
            ]
        },
        {
            "positions": [
                -0.09381679115076857,
                -0.9696273343478764,
                1.9768816734131636,
                1.2949359413006543,
                0.16421977890903117,
                0.20719972210486537
            ]
        },
        {
            "positions": [
                -0.03986676839981218,
                -0.9208049553453241,
                1.9798942070201602,
                1.4469424551206156,
                0.0901995767570325,
                0.1592156587101955
            ]
        },
        {
            "positions": [
                0.014083254351144436,
                -0.871982576342772,
                1.9829067406271568,
                1.5989489689405774,
                0.016179374605033603,
                0.11123159531552562
            ]
        },
        {
            "positions": [
                0.06803327710210105,
                -0.8231601973402196,
                1.9859192742341534,
                1.7509554827605391,
                -0.05784082754696529,
                0.06324753192085564
            ]
        },
        {
            "positions": [
                0.12198329985305761,
                -0.7743378183376675,
                1.98893180784115,
                1.9029619965805005,
                -0.13186102969896402,
                0.015263468526185597
            ]
        }
    ]
}