{
    "goal": {
        "global_pose": {
            "orientation": {
                "w": 0.7047431468963623,
                "x": -0.7094548344612122,
                "y": 0.0024358443915843964,
                "z": -0.0022348060738295317
            },
            "position": {
                "x": 0.6094750761985779,
                "y": 0.3671506643295288,
                "z": 0.19426114857196808
            }
        },
        "name": "move_to_magneteinheit_A"
    },
    "id": "STRIDE_move_to_magneteinheit_A_134",
    "joint_names": [
        "shoulder_pan_joint",
        "shoulder_lift_joint",
        "elbow_joint",
        "wrist_1_joint",
        "wrist_2_joint",
        "wrist_3_joint"
    ],
    "metrics": {
        "cart_traj_len": 3.2688224835929374,
        "distance_elbow_joint": 3.8731202850904722,
        "distance_shoulder_lift_joint": 0.6988959746398544,
        "distance_shoulder_pan_joint": 3.9705753527490426,
        "distance_wrist_1_joint": 5.129267159841172,
        "distance_wrist_2_joint": 2.2978360828168425,
        "distance_wrist_3_joint": 3.6995826699504955,
        "smoothness": 0.2662881159976632,
        "time": 0.25004397300000003,
        "traj_len": 4.4350059216519515,
        "weighted_distance": 5.873290909502685
    },
    "planner": "STRIDE",
    "start": {
        "state": {
            "elbow_joint": -1.919618573717145,
            "shoulder_lift_joint": -1.2443395971678275,
            "shoulder_pan_joint": 2.6996025300909787,
            "wrist_1_joint": -1.548550951253194,
            "wrist_2_joint": -1.5709469090946802,
            "wrist_3_joint": 0.4420197732051276
        }
    },
    "waypoints": [
        {
            "positions": [
                2.6996025300909787,
                -1.2443395971678275,
                -1.919618573717145,
                -1.548550951253194,
                -1.5709469090946802,
                0.4420197732051276
            ]
        },
        {
            "positions": [
                2.603303662786481,
                -1.2529180787462664,
                -1.8200999737986834,
                -1.4606652751461588,
                -1.512269078660227,
                0.4075439821852494
            ]
        },
        {
            "positions": [
                2.507004795481984,
                -1.2614965603247055,
                -1.7205813738802218,
                -1.3727795990391234,
                -1.453591248225774,
                0.3730681911653712
            ]
        },
        {
            "positions": [
                2.4107059281774865,
                -1.2700750419031444,
                -1.6210627739617602,
                -1.2848939229320882,
                -1.394913417791321,
                0.338592400145493
            ]
        },
        {
            "positions": [
                2.3144070608729894,
                -1.2786535234815832,
                -1.5215441740432984,
                -1.1970082468250527,
                -1.336235587356868,
                0.30411660912561483
            ]
        },
        {
            "positions": [
                2.218108193568492,
                -1.2872320050600223,
                -1.4220255741248369,
                -1.1091225707180175,
                -1.277557756922415,
                0.26964081810573665
            ]
        },
        {
            "positions": [
                2.1218093262639943,
                -1.2958104866384612,
                -1.3225069742063753,
                -1.0212368946109822,
                -1.218879926487962,
                0.23516502708585846
            ]
        },
        {
            "positions": [
                2.025510458959497,
                -1.3043889682169,
                -1.2229883742879137,
                -0.9333512185039469,
                -1.1602020960535089,
                0.20068923606598027
            ]
        },
        {
            "positions": [
                1.9292115916549997,
                -1.3129674497953392,
                -1.1234697743694522,
                -0.8454655423969115,
                -1.101524265619056,
                0.16621344504610208
            ]
        },
        {
            "positions": [
                1.8329127243505026,
                -1.321545931373778,
                -1.0239511744509904,
                -0.7575798662898763,
                -1.042846435184603,
                0.1317376540262239
            ]
        },
        {
            "positions": [
                1.736613857046005,
                -1.330124412952217,
                -0.9244325745325288,
                -0.6696941901828409,
                -0.9841686047501498,
                0.0972618630063457
            ]
        },
        {
            "positions": [
                1.6403149897415077,
                -1.338702894530656,
                -0.8249139746140672,
                -0.5818085140758056,
                -0.9254907743156968,
                0.06278607198646752
            ]
        },
        {
            "positions": [
                1.5440161224370104,
                -1.347281376109095,
                -0.7253953746956057,
                -0.4939228379687701,
                -0.8668129438812437,
                0.02831028096658933
            ]
        },
        {
            "positions": [
                1.447717255132513,
                -1.3558598576875338,
                -0.6258767747771441,
                -0.4060371618617351,
                -0.8081351134467908,
                -0.006165510053288803
            ]
        },
        {
            "positions": [
                1.3514183878280157,
                -1.364438339265973,
                -0.5263581748586825,
                -0.31815148575469965,
                -0.7494572830123377,
                -0.04064130107316705
            ]
        },
        {
            "positions": [
                1.2551195205235184,
                -1.3730168208444118,
                -0.42683957494022096,
                -0.2302658096476644,
                -0.6907794525778848,
                -0.07511709209304523
            ]
        },
        {
            "positions": [
                1.1588206532190208,
                -1.3815953024228507,
                -0.32732097502175916,
                -0.14238013354062895,
                -0.6321016221434317,
                -0.10959288311292342
            ]
        },
        {
            "positions": [
                1.0625217859145235,
                -1.3901737840012895,
                -0.2278023751032976,
                -0.05449445743359371,
                -0.5734237917089786,
                -0.1440686741328016
            ]
        },
        {
            "positions": [
                0.9662229186100262,
                -1.3987522655797286,
                -0.12828377518483602,
                0.033391218673441525,
                -0.5147459612745255,
                -0.1785444651526798
            ]
        },
        {
            "positions": [
                0.8699240513055286,
                -1.4073307471581675,
                -0.028765175266374232,
                0.12127689478047698,
                -0.45606813084007247,
                -0.213020256172558
            ]
        },
        {
            "positions": [
                0.7736251840010313,
                -1.4159092287366066,
                0.07075342465208734,
                0.20916257088751222,
                -0.3973903004056194,
                -0.24749604719243617
            ]
        },
        {
            "positions": [
                0.6773263166965338,
                -1.4244877103150455,
                0.17027202457054913,
                0.2970482469945477,
                -0.33871246997116633,
                -0.28197183821231436
            ]
        },
        {
            "positions": [
                0.5810274493920367,
                -1.4330661918934844,
                0.2697906244890105,
                0.3849339231015829,
                -0.2800346395367135,
                -0.31644762923219255
            ]
        },
        {
            "positions": [
                0.4847285820875391,
                -1.4416446734719233,
                0.36930922440747227,
                0.47281959920861816,
                -0.2213568091022604,
                -0.35092342025207074
            ]
        },
        {
            "positions": [
                0.388429714783042,
                -1.4502231550503624,
                0.4688278243259336,
                0.5607052753156538,
                -0.16267897866780734,
                -0.3853992112719489
            ]
        },
        {
            "positions": [
                0.29213084747854445,
                -1.4588016366288012,
                0.5683464242443954,
                0.6485909514226891,
                -0.10400114823335427,
                -0.4198750022918272
            ]
        },
        {
            "positions": [
                0.19583198017404735,
                -1.4673801182072401,
                0.6678650241628568,
                0.7364766275297239,
                -0.04532331779890142,
                -0.4543507933117052
            ]
        },
        {
            "positions": [
                0.0995331128695498,
                -1.4759585997856792,
                0.7673836240813185,
                0.8243623036367591,
                0.013354512635551652,
                -0.4888265843315835
            ]
        },
        {
            "positions": [
                0.0032342455650526958,
                -1.484537081364118,
                0.8669022239997799,
                0.9122479797437948,
                0.07203234307000472,
                -0.5233023753514616
            ]
        },
        {
            "positions": [
                -0.09306462173944485,
                -1.493115562942557,
                0.9664208239182417,
                1.00013365585083,
                0.1307101735044578,
                -0.5577781663713399
            ]
        },
        {
            "positions": [
                -0.18936348904394196,
                -1.501694044520996,
                1.065939423836703,
                1.0880193319578653,
                0.18938800393891064,
                -0.592253957391218
            ]
        },
        {
            "positions": [
                -0.2856623563484395,
                -1.510272526099435,
                1.1654580237551648,
                1.1759050080649005,
                0.24806583437336371,
                -0.6267297484110961
            ]
        },
        {
            "positions": [
                -0.38196122365293705,
                -1.5188510076778738,
                1.2649766236736266,
                1.2637906841719362,
                0.3067436648078168,
                -0.6612055394309744
            ]
        },
        {
            "positions": [
                -0.47826009095743416,
                -1.527429489256313,
                1.364495223592088,
                1.3516763602789714,
                0.36542149524226986,
                -0.6956813304508525
            ]
        },
        {
            "positions": [
                -0.5745589582619319,
                -1.5360079708347518,
                1.46401382351055,
                1.4395620363860064,
                0.4240993256767229,
                -0.7301571214707309
            ]
        },
        {
            "positions": [
                -0.5335934368268656,
                -1.5120534060716382,
                1.4928072286789487,
                1.3136117909623612,
                0.4062881581446383,
                -0.8788280494280625
            ]
        },
        {
            "positions": [
                -0.49262791539179906,
                -1.4880988413085248,
                1.5216006338473473,
                1.187661545538716,
                0.3884769906125537,
                -1.027498977385394
            ]
        },
        {
            "positions": [
                -0.45166239395673263,
                -1.4641442765454111,
                1.550394039015746,
                1.0617113001150706,
                0.37066582308046914,
                -1.1761699053427257
            ]
        },
        {
            "positions": [
                -0.4106968725216662,
                -1.4401897117822977,
                1.5791874441841447,
                0.9357610546914256,
                0.3528546555483845,
                -1.3248408333000572
            ]
        },
        {
            "positions": [
                -0.3697313510865997,
                -1.416235147019184,
                1.6079808493525434,
                0.8098108092677803,
                0.3350434880162999,
                -1.473511761257389
            ]
        },
        {
            "positions": [
                -0.32876582965153334,
                -1.3922805822560707,
                1.636774254520942,
                0.683860563844135,
                0.3172323204842153,
                -1.6221826892147204
            ]
        },
        {
            "positions": [
                -0.2878003082164669,
                -1.368326017492957,
                1.6655676596893407,
                0.5579103184204899,
                0.2994211529521307,
                -1.770853617172052
            ]
        },
        {
            "positions": [
                -0.24683478678140047,
                -1.3443714527298436,
                1.6943610648577394,
                0.4319600729968447,
                0.2816099854200461,
                -1.9195245451293834
            ]
        },
        {
            "positions": [
                -0.20586926534633399,
                -1.32041688796673,
                1.723154470026138,
                0.3060098275731993,
                0.26379881788796145,
                -2.068195473086715
            ]
        },
        {
            "positions": [
                -0.16490374391126755,
                -1.2964623232036165,
                1.751947875194537,
                0.1800595821495541,
                0.24598765035587686,
                -2.216866401044047
            ]
        },
        {
            "positions": [
                -0.12393822247620112,
                -1.272507758440503,
                1.7807412803629357,
                0.054109336725908896,
                0.22817648282379227,
                -2.3655373290013784
            ]
        },
        {
            "positions": [
                -0.08297270104113469,
                -1.2485531936773895,
                1.8095346855313343,
                -0.07184090869773652,
                0.21036531529170766,
                -2.51420825695871
            ]
        },
        {
            "positions": [
                -0.04200717960606826,
                -1.2245986289142758,
                1.838328090699733,
                -0.19779115412138148,
                0.19255414775962307,
                -2.6628791849160414
            ]
        },
        {
            "positions": [
                -0.0010416581710018802,
                -1.2006440641511624,
                1.8671214958681317,
                -0.3237413995450267,
                0.17474298022753845,
                -2.811550112873373
            ]
        },
        {
            "positions": [
                0.03992386326406461,
                -1.1766894993880488,
                1.8959149010365304,
                -0.44969164496867187,
                0.15693181269545387,
                -2.9602210408307044
            ]
        },
        {
            "positions": [
                0.08088938469913098,
                -1.1527349346249354,
                1.924708306204929,
                -0.5756418903923171,
                0.13912064516336925,
                -3.1088919687880363
            ]
        },
        {
            "positions": [
                0.1218549061341975,
                -1.1287803698618217,
                1.9535017113733277,
                -0.7015921358159625,
                0.12130947763128465,
                -3.257562896745368
            ]
        }
    ]
}{
    "goal": {
        "global_pose": {
            "orientation": {
                "w": 0.7047431468963623,
                "x": -0.7094548344612122,
                "y": 0.0024358443915843964,
                "z": -0.0022348060738295317
            },
            "position": {
                "x": 0.6094750761985779,
                "y": 0.3671506643295288,
                "z": 0.19426114857196808
            }
        },
        "name": "move_to_magneteinheit_A"
    },
    "id": "STRIDE_move_to_magneteinheit_A_134",
    "joint_names": [
        "shoulder_pan_joint",
        "shoulder_lift_joint",
        "elbow_joint",
        "wrist_1_joint",
        "wrist_2_joint",
        "wrist_3_joint"
    ],
    "metrics": {
        "cart_traj_len": 2.345372370498898,
        "distance_elbow_joint": 3.782398413536277,
        "distance_shoulder_lift_joint": 0.7490588860675909,
        "distance_shoulder_pan_joint": 1.2432882453064682,
        "distance_wrist_1_joint": 1.7368960144279746,
        "distance_wrist_2_joint": 1.430480500545885,
        "distance_wrist_3_joint": 4.2446481582664735,
        "smoothness": 0.3472235898511438,
        "time": 0.45983686700000004,
        "traj_len": 3.631359279684492,
        "weighted_distance": 4.984319717840889
    },
    "planner": "STRIDE",
    "start": {
        "state": {
            "elbow_joint": 1.919643534880228,
            "shoulder_lift_joint": -1.8972525353963687,
            "shoulder_pan_joint": -1.1188672234189438,
            "wrist_1_joint": -1.5931878212786155,
            "wrist_2_joint": 1.5706036197970081,
            "wrist_3_joint": 1.118896926603594
        }
    },
    "waypoints": [
        {
            "positions": [
                -1.1188672234189438,
                -1.8972525353963687,
                1.919643534880228,
                -1.5931878212786155,
                1.5706036197970081,
                1.118896926603594
            ]
        },
        {
            "positions": [
                -1.1119756740373734,
                -1.8519503010527663,
                1.803599672858954,
                -1.6244287339328525,
                1.5051691095286375,
                0.9949074611946641
            ]
        },
        {
            "positions": [
                -1.105084124655803,
                -1.8066480667091638,
                1.6875558108376802,
                -1.6556696465870897,
                1.4397345992602668,
                0.8709179957857343
            ]
        },
        {
            "positions": [
                -1.0981925752742325,
                -1.7613458323655613,
                1.5715119488164062,
                -1.6869105592413267,
                1.3743000889918964,
                0.7469285303768045
            ]
        },
        {
            "positions": [
                -1.091301025892662,
                -1.7160435980219588,
                1.4554680867951322,
                -1.7181514718955637,
                1.3088655787235257,
                0.6229390649678745
            ]
        },
        {
            "positions": [
                -1.0844094765110917,
                -1.6707413636783564,
                1.3394242247738584,
                -1.7493923845498007,
                1.243431068455155,
                0.4989495995589448
            ]
        },
        {
            "positions": [
                -1.0775179271295212,
                -1.6254391293347539,
                1.2233803627525843,
                -1.780633297204038,
                1.1779965581867846,
                0.37496013415001495
            ]
        },
        {
            "positions": [
                -1.0706263777479508,
                -1.5801368949911514,
                1.1073365007313103,
                -1.811874209858275,
                1.112562047918414,
                0.2509706687410851
            ]
        },
        {
            "positions": [
                -1.0637348283663806,
                -1.534834660647549,
                0.9912926387100364,
                -1.8431151225125122,
                1.0471275376500433,
                0.12698120333215523
            ]
        },
        {
            "positions": [
                -1.0568432789848101,
                -1.4895324263039464,
                0.8752487766887624,
                -1.8743560351667492,
                0.9816930273816726,
                0.0029917379232253793
            ]
        },
        {
            "positions": [
                -1.0499517296032397,
                -1.444230191960344,
                0.7592049146674884,
                -1.9055969478209862,
                0.9162585171133021,
                -0.12099772748570436
            ]
        },
        {
            "positions": [
                -1.0430601802216692,
                -1.3989279576167415,
                0.6431610526462144,
                -1.9368378604752232,
                0.8508240068449315,
                -0.24498719289463433
            ]
        },
        {
            "positions": [
                -1.0361686308400988,
                -1.353625723273139,
                0.5271171906249406,
                -1.9680787731294604,
                0.7853894965765609,
                -0.3689766583035641
            ]
        },
        {
            "positions": [
                -1.0292770814585284,
                -1.3083234889295365,
                0.4110733286036665,
                -1.9993196857836975,
                0.7199549863081902,
                -0.49296612371249404
            ]
        },
        {
            "positions": [
                -1.022385532076958,
                -1.263021254585934,
                0.2950294665823925,
                -2.0305605984379347,
                0.6545204760398197,
                -0.6169555891214238
            ]
        },
        {
            "positions": [
                -1.0154939826953875,
                -1.2177190202423316,
                0.17898560456111867,
                -2.0618015110921717,
                0.5890859657714491,
                -0.7409450545303538
            ]
        },
        {
            "positions": [
                -1.008602433313817,
                -1.172416785898729,
                0.06294174253984458,
                -2.0930424237464087,
                0.5236514555030783,
                -0.8649345199392835
            ]
        },
        {
            "positions": [
                -0.9456566858026314,
                -1.1710710560892874,
                0.16992488816183868,
                -2.024317900859732,
                0.502344325711303,
                -0.9905354483683722
            ]
        },
        {
            "positions": [
                -0.8827109382914458,
                -1.1697253262798457,
                0.2769080337838328,
                -1.9555933779730552,
                0.4810371959195277,
                -1.1161363767974608
            ]
        },
        {
            "positions": [
                -0.8197651907802601,
                -1.168379596470404,
                0.3838911794058269,
                -1.8868688550863786,
                0.4597300661277524,
                -1.2417373052265495
            ]
        },
        {
            "positions": [
                -0.7568194432690745,
                -1.167033866660962,
                0.49087432502782097,
                -1.8181443321997017,
                0.4384229363359771,
                -1.3673382336556381
            ]
        },
        {
            "positions": [
                -0.6938736957578888,
                -1.1656881368515204,
                0.5978574706498152,
                -1.749419809313025,
                0.4171158065442018,
                -1.4929391620847268
            ]
        },
        {
            "positions": [
                -0.6309279482467033,
                -1.1643424070420787,
                0.7048406162718093,
                -1.6806952864263485,
                0.3958086767524265,
                -1.6185400905138152
            ]
        },
        {
            "positions": [
                -0.5679822007355175,
                -1.162996677232637,
                0.8118237618938033,
                -1.6119707635396716,
                0.3745015469606512,
                -1.744141018942904
            ]
        },
        {
            "positions": [
                -0.505036453224332,
                -1.1616509474231953,
                0.9188069075157974,
                -1.5432462406529948,
                0.3531944171688759,
                -1.8697419473719925
            ]
        },
        {
            "positions": [
                -0.44209070571314635,
                -1.1603052176137534,
                1.0257900531377915,
                -1.4745217177663181,
                0.33188728737710055,
                -1.9953428758010812
            ]
        },
        {
            "positions": [
                -0.3791449582019607,
                -1.1589594878043117,
                1.1327731987597858,
                -1.4057971948796415,
                0.3105801575853252,
                -2.12094380423017
            ]
        },
        {
            "positions": [
                -0.31619921069077506,
                -1.15761375799487,
                1.2397563443817798,
                -1.3370726719929646,
                0.2892730277935499,
                -2.2465447326592587
            ]
        },
        {
            "positions": [
                -0.2532534631795895,
                -1.1562680281854283,
                1.346739490003774,
                -1.268348149106288,
                0.2679658980017746,
                -2.372145661088347
            ]
        },
        {
            "positions": [
                -0.19030771566840388,
                -1.1549222983759866,
                1.453722635625768,
                -1.1996236262196112,
                0.24665876820999932,
                -2.4977465895174356
            ]
        },
        {
            "positions": [
                -0.12736196815721812,
                -1.153576568566545,
                1.560705781247762,
                -1.1308991033329345,
                0.22535163841822398,
                -2.6233475179465247
            ]
        },
        {
            "positions": [
                -0.06441622064603247,
                -1.1522308387571032,
                1.6676889268697563,
                -1.0621745804462577,
                0.20404450862644868,
                -2.7489484463756133
            ]
        },
        {
            "positions": [
                -0.001470473134846939,
                -1.1508851089476613,
                1.7746720724917502,
                -0.993450057559581,
                0.1827373788346734,
                -2.8745493748047015
            ]
        },
        {
            "positions": [
                0.06147527437633871,
                -1.1495393791382196,
                1.8816552181137445,
                -0.9247255346729044,
                0.1614302490428981,
                -3.00015030323379
            ]
        },
        {
            "positions": [
                0.12442102188752445,
                -1.1481936493287779,
                1.9886383637357385,
                -0.8560010117862275,
                0.14012311925112278,
                -3.125751231662879
            ]
        }
    ]
}