{
    "goal": {
        "global_pose": {
            "orientation": {
                "w": 0.7047431468963623,
                "x": -0.7094548344612122,
                "y": 0.0024358443915843964,
                "z": -0.0022348060738295317
            },
            "position": {
                "x": 0.6094750761985779,
                "y": 0.3671506643295288,
                "z": 0.19426114857196808
            }
        },
        "name": "move_to_magneteinheit_A"
    },
    "id": "STRIDE_move_to_magneteinheit_A_42",
    "joint_names": [
        "shoulder_pan_joint",
        "shoulder_lift_joint",
        "elbow_joint",
        "wrist_1_joint",
        "wrist_2_joint",
        "wrist_3_joint"
    ],
    "metrics": {
        "cart_traj_len": 3.679744489714254,
        "distance_elbow_joint": 3.902018321361309,
        "distance_shoulder_lift_joint": 0.2912584250798598,
        "distance_shoulder_pan_joint": 2.750713760735582,
        "distance_wrist_1_joint": 0.7077398468921002,
        "distance_wrist_2_joint": 1.6933094772557782,
        "distance_wrist_3_joint": 3.5806466875803795,
        "smoothness": 0.05336212392737488,
        "time": 0.09069060200000001,
        "traj_len": 3.5952310800427005,
        "weighted_distance": 4.742154491179472
    },
    "planner": "STRIDE",
    "start": {
        "state": {
            "elbow_joint": -1.919618573717145,
            "shoulder_lift_joint": -1.2443395971678275,
            "shoulder_pan_joint": 2.6996025300909787,
            "wrist_1_joint": -1.548550951253194,
            "wrist_2_joint": -1.5709469090946802,
            "wrist_3_joint": 0.4420197732051276
        }
    },
    "waypoints": [
        {
            "positions": [
                2.6996025300909787,
                -1.2443395971678275,
                -1.919618573717145,
                -1.548550951253194,
                -1.5709469090946802,
                0.4420197732051276
            ]
        },
        {
            "positions": [
                2.60773841056221,
                -1.2376143191220228,
                -1.8181101312900712,
                -1.533250120066478,
                -1.5186084046773385,
                0.323055816924489
            ]
        },
        {
            "positions": [
                2.5158742910334415,
                -1.2308890410762183,
                -1.7166016888629976,
                -1.5179492888797623,
                -1.4662699002599968,
                0.2040918606438504
            ]
        },
        {
            "positions": [
                2.4240101715046727,
                -1.2241637630304136,
                -1.6150932464359238,
                -1.5026484576930463,
                -1.4139313958426551,
                0.08512790436321183
            ]
        },
        {
            "positions": [
                2.3321460519759043,
                -1.217438484984609,
                -1.51358480400885,
                -1.4873476265063306,
                -1.3615928914253137,
                -0.03383605191742678
            ]
        },
        {
            "positions": [
                2.2402819324471355,
                -1.2107132069388042,
                -1.4120763615817764,
                -1.4720467953196146,
                -1.309254387007972,
                -0.15280000819806544
            ]
        },
        {
            "positions": [
                2.1484178129183666,
                -1.2039879288929998,
                -1.3105679191547026,
                -1.4567459641328988,
                -1.2569158825906304,
                -0.27176396447870393
            ]
        },
        {
            "positions": [
                2.0565536933895983,
                -1.197262650847195,
                -1.2090594767276288,
                -1.4414451329461828,
                -1.2045773781732887,
                -0.39072792075934254
            ]
        },
        {
            "positions": [
                1.9646895738608294,
                -1.1905373728013904,
                -1.1075510343005552,
                -1.426144301759467,
                -1.152238873755947,
                -0.5096918770399812
            ]
        },
        {
            "positions": [
                1.872825454332061,
                -1.1838120947555857,
                -1.0060425918734812,
                -1.410843470572751,
                -1.0999003693386054,
                -0.6286558333206198
            ]
        },
        {
            "positions": [
                1.7809613348032922,
                -1.1770868167097812,
                -0.9045341494464076,
                -1.395542639386035,
                -1.0475618649212637,
                -0.7476197896012584
            ]
        },
        {
            "positions": [
                1.6890972152745236,
                -1.1703615386639765,
                -0.8030257070193341,
                -1.3802418081993193,
                -0.9952233605039221,
                -0.8665837458818968
            ]
        },
        {
            "positions": [
                1.597233095745755,
                -1.1636362606181718,
                -0.7015172645922603,
                -1.3649409770126033,
                -0.9428848560865805,
                -0.9855477021625354
            ]
        },
        {
            "positions": [
                1.5053689762169864,
                -1.1569109825723674,
                -0.6000088221651865,
                -1.3496401458258875,
                -0.8905463516692388,
                -1.104511658443174
            ]
        },
        {
            "positions": [
                1.4135048566882176,
                -1.1501857045265627,
                -0.4985003797381127,
                -1.3343393146391715,
                -0.8382078472518972,
                -1.2234756147238126
            ]
        },
        {
            "positions": [
                1.321640737159449,
                -1.143460426480758,
                -0.3969919373110389,
                -1.3190384834524558,
                -0.7858693428345556,
                -1.3424395710044514
            ]
        },
        {
            "positions": [
                1.2297766176306804,
                -1.1367351484349533,
                -0.2954834948839653,
                -1.3037376522657398,
                -0.733530838417214,
                -1.4614035272850898
            ]
        },
        {
            "positions": [
                1.137912498101912,
                -1.1300098703891488,
                -0.19397505245689173,
                -1.288436821079024,
                -0.6811923339998723,
                -1.5803674835657282
            ]
        },
        {
            "positions": [
                1.0460483785731431,
                -1.123284592343344,
                -0.09246661002981771,
                -1.273135989892308,
                -0.6288538295825307,
                -1.6993314398463673
            ]
        },
        {
            "positions": [
                0.9541842590443745,
                -1.1165593142975394,
                0.009041832397255867,
                -1.2578351587055923,
                -0.5765153251651891,
                -1.8182953961270054
            ]
        },
        {
            "positions": [
                0.8623201395156057,
                -1.1098340362517347,
                0.11055027482432966,
                -1.2425343275188763,
                -0.5241768207478472,
                -1.9372593524076445
            ]
        },
        {
            "positions": [
                0.7704560199868371,
                -1.1031087582059302,
                0.21205871725140324,
                -1.2272334963321603,
                -0.47183831633050577,
                -2.0562233086882826
            ]
        },
        {
            "positions": [
                0.6785919004580685,
                -1.0963834801601255,
                0.3135671596784768,
                -1.2119326651454445,
                -0.4194998119131641,
                -2.1751872649689212
            ]
        },
        {
            "positions": [
                0.5867277809292997,
                -1.0896582021143209,
                0.41507560210555083,
                -1.1966318339587285,
                -0.36716130749582243,
                -2.29415122124956
            ]
        },
        {
            "positions": [
                0.4948636614005313,
                -1.0829329240685164,
                0.5165840445326244,
                -1.1813310027720128,
                -0.31482280307848076,
                -2.4131151775301984
            ]
        },
        {
            "positions": [
                0.4029995418717629,
                -1.0762076460227117,
                0.618092486959698,
                -1.1660301715852968,
                -0.2624842986611393,
                -2.532079133810837
            ]
        },
        {
            "positions": [
                0.3111354223429941,
                -1.069482367976907,
                0.719600929386772,
                -1.150729340398581,
                -0.21014579424379742,
                -2.6510430900914757
            ]
        },
        {
            "positions": [
                0.21927130281422524,
                -1.0627570899311025,
                0.8211093718138456,
                -1.135428509211865,
                -0.15780728982645598,
                -2.7700070463721143
            ]
        },
        {
            "positions": [
                0.12740718328545642,
                -1.0560318118852978,
                0.9226178142409196,
                -1.120127678025149,
                -0.10546878540911431,
                -2.888971002652753
            ]
        },
        {
            "positions": [
                0.035543063756687886,
                -1.0493065338394931,
                1.024126256667993,
                -1.1048268468384332,
                -0.053130280991772555,
                -3.0079349589333915
            ]
        },
        {
            "positions": [
                0.04868925225451137,
                -1.064813732053689,
                1.1920792864471603,
                -1.0595297360807423,
                -0.028159008441514016,
                -3.0507385090357677
            ]
        },
        {
            "positions": [
                0.061835440752334866,
                -1.0803209302678847,
                1.3600323162263277,
                -1.0142326253230514,
                -0.0031877358912554762,
                -3.0935420591381435
            ]
        },
        {
            "positions": [
                0.07498162925015836,
                -1.0958281284820806,
                1.527985346005495,
                -0.9689355145653604,
                0.021783536659003074,
                -3.1363456092405197
            ]
        },
        {
            "positions": [
                0.09858949370406875,
                -1.1206800120365497,
                1.7551925468248293,
                -0.9048733094632271,
                0.07207305241005069,
                -3.1374862618078856
            ]
        },
        {
            "positions": [
                0.12219735815797915,
                -1.1455318955910185,
                1.9823997476441635,
                -0.8408111043610939,
                0.12236256816109829,
                -3.138626914375252
            ]
        }
    ]
}{
    "goal": {
        "global_pose": {
            "orientation": {
                "w": 0.7047431468963623,
                "x": -0.7094548344612122,
                "y": 0.0024358443915843964,
                "z": -0.0022348060738295317
            },
            "position": {
                "x": 0.6094750761985779,
                "y": 0.3671506643295288,
                "z": 0.19426114857196808
            }
        },
        "name": "move_to_magneteinheit_A"
    },
    "id": "STRIDE_move_to_magneteinheit_A_42",
    "joint_names": [
        "shoulder_pan_joint",
        "shoulder_lift_joint",
        "elbow_joint",
        "wrist_1_joint",
        "wrist_2_joint",
        "wrist_3_joint"
    ],
    "metrics": {
        "cart_traj_len": 1.1974027378061318,
        "distance_elbow_joint": 0.2129956361009686,
        "distance_shoulder_lift_joint": 0.7489984194003516,
        "distance_shoulder_pan_joint": 1.2419156740304336,
        "distance_wrist_1_joint": 0.7392991272314353,
        "distance_wrist_2_joint": 1.5430583896006649,
        "distance_wrist_3_joint": 4.2347983515301735,
        "smoothness": 0.08874687280928634,
        "time": 0.046461170999999996,
        "traj_len": 2.9531450350252064,
        "weighted_distance": 4.41282447167191
    },
    "planner": "STRIDE",
    "start": {
        "state": {
            "elbow_joint": 1.919643534880228,
            "shoulder_lift_joint": -1.8972525353963687,
            "shoulder_pan_joint": -1.1188672234189438,
            "wrist_1_joint": -1.5931878212786155,
            "wrist_2_joint": 1.5706036197970081,
            "wrist_3_joint": 1.118896926603594
        }
    },
    "waypoints": [
        {
            "positions": [
                -1.1188672234189438,
                -1.8972525353963687,
                1.919643534880228,
                -1.5931878212786155,
                1.5706036197970081,
                1.118896926603594
            ]
        },
        {
            "positions": [
                -1.0707626657948728,
                -1.8648555260021764,
                1.9266333334524652,
                -1.5744609323731154,
                1.4958177404960122,
                0.9105662622730997
            ]
        },
        {
            "positions": [
                -1.022658108170802,
                -1.832458516607984,
                1.9336231320247022,
                -1.5557340434676152,
                1.4210318611950161,
                0.7022355979426054
            ]
        },
        {
            "positions": [
                -0.9745535505467309,
                -1.8000615072137915,
                1.9406129305969393,
                -1.537007154562115,
                1.3462459818940202,
                0.4939049336121111
            ]
        },
        {
            "positions": [
                -0.9264489929226598,
                -1.7676644978195992,
                1.9476027291691762,
                -1.5182802656566148,
                1.271460102593024,
                0.2855742692816168
            ]
        },
        {
            "positions": [
                -0.8783444352985889,
                -1.735267488425407,
                1.9545925277414133,
                -1.4995533767511147,
                1.1966742232920282,
                0.07724360495112248
            ]
        },
        {
            "positions": [
                -0.8302398776745179,
                -1.7028704790312146,
                1.9615823263136503,
                -1.4808264878456145,
                1.121888343991032,
                -0.13108705937937182
            ]
        },
        {
            "positions": [
                -0.7821353200504468,
                -1.6704734696370223,
                1.9685721248858874,
                -1.4620995989401144,
                1.0471024646900362,
                -0.3394177237098661
            ]
        },
        {
            "positions": [
                -0.7340307624263759,
                -1.6380764602428297,
                1.9755619234581243,
                -1.443372710034614,
                0.9723165853890402,
                -0.5477483880403604
            ]
        },
        {
            "positions": [
                -0.6859262048023049,
                -1.6056794508486374,
                1.9825517220303615,
                -1.424645821129114,
                0.8975307060880442,
                -0.7560790523708547
            ]
        },
        {
            "positions": [
                -0.6378216471782339,
                -1.573282441454445,
                1.9895415206025984,
                -1.4059189322236139,
                0.8227448267870482,
                -0.964409716701349
            ]
        },
        {
            "positions": [
                -0.5897170895541629,
                -1.5408854320602527,
                1.9965313191748355,
                -1.3871920433181137,
                0.7479589474860522,
                -1.1727403810318433
            ]
        },
        {
            "positions": [
                -0.541612531930092,
                -1.5084884226660604,
                2.0035211177470726,
                -1.3684651544126136,
                0.6731730681850562,
                -1.3810710453623376
            ]
        },
        {
            "positions": [
                -0.4935079743060209,
                -1.4760914132718679,
                2.01051091631931,
                -1.3497382655071133,
                0.5983871888840602,
                -1.589401709692832
            ]
        },
        {
            "positions": [
                -0.44540341668194994,
                -1.4436944038776756,
                2.0175007148915465,
                -1.3310113766016132,
                0.5236013095830643,
                -1.7977323740233262
            ]
        },
        {
            "positions": [
                -0.397298859057879,
                -1.4112973944834832,
                2.0244905134637836,
                -1.312284487696113,
                0.44881543028206816,
                -2.0060630383538207
            ]
        },
        {
            "positions": [
                -0.3491943014338079,
                -1.378900385089291,
                2.0314803120360208,
                -1.293557598790613,
                0.37402955098107227,
                -2.2143937026843146
            ]
        },
        {
            "positions": [
                -0.30108974380973696,
                -1.3465033756950984,
                2.038470110608258,
                -1.2748307098851128,
                0.29924367168007615,
                -2.4227243670148093
            ]
        },
        {
            "positions": [
                -0.252985186185666,
                -1.3141063663009063,
                2.0454599091804946,
                -1.2561038209796125,
                0.22445779237908026,
                -2.631055031345303
            ]
        },
        {
            "positions": [
                -0.20488062856159506,
                -1.2817093569067137,
                2.0524497077527317,
                -1.2373769320741124,
                0.14967191307808436,
                -2.839385695675798
            ]
        },
        {
            "positions": [
                -0.156776070937524,
                -1.2493123475125214,
                2.059439506324969,
                -1.2186500431686123,
                0.07488603377708833,
                -3.0477163600062918
            ]
        },
        {
            "positions": [
                -0.06350123042118613,
                -1.2156262703403533,
                2.035039618106226,
                -1.0970629267948016,
                0.09066630163733663,
                -3.0704447149797214
            ]
        },
        {
            "positions": [
                0.029773610095151726,
                -1.1819401931681852,
                2.0106397298874836,
                -0.9754758104209909,
                0.10644656949758494,
                -3.093173069953151
            ]
        },
        {
            "positions": [
                0.1230484506114896,
                -1.1482541159960171,
                1.986239841668741,
                -0.8538886940471802,
                0.12222683735783325,
                -3.1159014249265806
            ]
        }
    ]
}