{
    "goal": {
        "global_pose": {
            "orientation": {
                "w": 0.5084816217422485,
                "x": -0.49083608388900757,
                "y": 0.5182115435600281,
                "z": -0.4816462993621826
            },
            "position": {
                "x": 0.5540239810943604,
                "y": 0.030875300988554955,
                "z": 0.16403168439865112
            }
        },
        "name": "move_to_storage_A"
    },
    "id": "STRIDE_move_to_storage_A_46",
    "joint_names": [
        "shoulder_pan_joint",
        "shoulder_lift_joint",
        "elbow_joint",
        "wrist_1_joint",
        "wrist_2_joint",
        "wrist_3_joint"
    ],
    "metrics": {
        "cart_traj_len": 0.35250256211330794,
        "distance_elbow_joint": 0.4473281124990365,
        "distance_shoulder_lift_joint": 0.2351121881380187,
        "distance_shoulder_pan_joint": 0.45821175223169913,
        "distance_wrist_1_joint": 0.23347050271081182,
        "distance_wrist_2_joint": 1.1093574378387885,
        "distance_wrist_3_joint": 0.0887556234243565,
        "smoothness": 0.0,
        "time": 0.026262874999999998,
        "traj_len": 1.6038190723528358,
        "weighted_distance": 2.0230113208385725
    },
    "planner": "STRIDE",
    "start": {
        "state": {
            "elbow_joint": 1.9715477243005601,
            "shoulder_lift_joint": -1.1394853015351272,
            "shoulder_pan_joint": 0.12281154014795169,
            "wrist_1_joint": -0.7804696478968182,
            "wrist_2_joint": 0.12958648046900423,
            "wrist_3_joint": -3.192491284697111
        }
    },
    "waypoints": [
        {
            "positions": [
                0.12281154014795169,
                -1.1394853015351272,
                1.9715477243005601,
                -0.7804696478968182,
                0.12958648046900423,
                -3.192491284697111
            ]
        },
        {
            "positions": [
                0.057352718400566105,
                -1.1730727569834156,
                2.035451740371851,
                -0.8138225768555055,
                0.28806611444597396,
                -3.1798119099222033
            ]
        },
        {
            "positions": [
                -0.00810610334681948,
                -1.2066602124317038,
                2.099355756443142,
                -0.847175505814193,
                0.44654574842294376,
                -3.167132535147295
            ]
        },
        {
            "positions": [
                -0.07356492509420508,
                -1.2402476678799923,
                2.163259772514433,
                -0.8805284347728803,
                0.6050253823999135,
                -3.154453160372387
            ]
        },
        {
            "positions": [
                -0.13902374684159063,
                -1.2738351233282807,
                2.227163788585724,
                -0.9138813637315678,
                0.7635050163768833,
                -3.1417737855974788
            ]
        },
        {
            "positions": [
                -0.20448256858897623,
                -1.3074225787765692,
                2.2910678046570148,
                -0.9472342926902552,
                0.9219846503538531,
                -3.129094410822571
            ]
        },
        {
            "positions": [
                -0.26994139033636183,
                -1.3410100342248574,
                2.3549718207283057,
                -0.9805872216489426,
                1.080464284330823,
                -3.1164150360476626
            ]
        },
        {
            "positions": [
                -0.33540021208374743,
                -1.3745974896731459,
                2.4188758367995966,
                -1.01394015060763,
                1.2389439183077928,
                -3.1037356612727547
            ]
        }
    ]
}