{
    "goal": {
        "global_pose": {
            "orientation": {
                "w": 0.5084816217422485,
                "x": -0.49083608388900757,
                "y": 0.5182115435600281,
                "z": -0.4816462993621826
            },
            "position": {
                "x": 0.5540239810943604,
                "y": 0.030875300988554955,
                "z": 0.16403168439865112
            }
        },
        "name": "move_to_storage_A"
    },
    "id": "STRIDE_move_to_storage_A_41",
    "joint_names": [
        "shoulder_pan_joint",
        "shoulder_lift_joint",
        "elbow_joint",
        "wrist_1_joint",
        "wrist_2_joint",
        "wrist_3_joint"
    ],
    "metrics": {
        "cart_traj_len": 0.3527750460818333,
        "distance_elbow_joint": 0.44855149983750797,
        "distance_shoulder_lift_joint": 0.23313412466279537,
        "distance_shoulder_pan_joint": 0.46059503292160225,
        "distance_wrist_1_joint": 0.23881835201041757,
        "distance_wrist_2_joint": 1.1005371304329672,
        "distance_wrist_3_joint": 0.09148658187951986,
        "smoothness": 1.1102230263833737e-15,
        "time": 0.032232883000000004,
        "traj_len": 1.6040956086670177,
        "weighted_distance": 2.0237221568059276
    },
    "planner": "STRIDE",
    "start": {
        "state": {
            "elbow_joint": 1.9715477243005601,
            "shoulder_lift_joint": -1.1394853015351272,
            "shoulder_pan_joint": 0.12281154014795169,
            "wrist_1_joint": -0.7804696478968182,
            "wrist_2_joint": 0.12958648046900423,
            "wrist_3_joint": -3.192491284697111
        }
    },
    "waypoints": [
        {
            "positions": [
                0.12281154014795169,
                -1.1394853015351272,
                1.9715477243005601,
                -0.7804696478968182,
                0.12958648046900423,
                -3.192491284697111
            ]
        },
        {
            "positions": [
                0.057012249730579945,
                -1.172790176486955,
                2.0356265099916326,
                -0.8145865553268778,
                0.2868060705308567,
                -3.179421773000037
            ]
        },
        {
            "positions": [
                -0.0087870406867918,
                -1.206095051438783,
                2.099705295682705,
                -0.8487034627569374,
                0.44402566059270915,
                -3.1663522613029627
            ]
        },
        {
            "positions": [
                -0.07458633110416356,
                -1.2393999263906108,
                2.1637840813737776,
                -0.8828203701869971,
                0.6012452506545616,
                -3.1532827496058884
            ]
        },
        {
            "positions": [
                -0.14038562152153528,
                -1.2727048013424387,
                2.22786286706485,
                -0.9169372776170568,
                0.7584648407164141,
                -3.140213237908814
            ]
        },
        {
            "positions": [
                -0.20618491193890703,
                -1.3060096762942668,
                2.291941652755923,
                -0.9510541850471164,
                0.9156844307782666,
                -3.12714372621174
            ]
        },
        {
            "positions": [
                -0.2719842023562788,
                -1.3393145512460947,
                2.3560204384469956,
                -0.985171092477176,
                1.0729040208401188,
                -3.1140742145146656
            ]
        },
        {
            "positions": [
                -0.33778349277365055,
                -1.3726194261979225,
                2.420099224138068,
                -1.0192879999072357,
                1.2301236109019715,
                -3.1010047028175913
            ]
        }
    ]
}