{
    "goal": {
        "global_pose": {
            "orientation": {
                "w": 0.7047431468963623,
                "x": -0.7094548344612122,
                "y": 0.0024358443915843964,
                "z": -0.0022348060738295317
            },
            "position": {
                "x": 0.6094750761985779,
                "y": 0.3671506643295288,
                "z": 0.19426114857196808
            }
        },
        "name": "move_to_magneteinheit_A"
    },
    "id": "STRIDE_move_to_magneteinheit_A_94",
    "joint_names": [
        "shoulder_pan_joint",
        "shoulder_lift_joint",
        "elbow_joint",
        "wrist_1_joint",
        "wrist_2_joint",
        "wrist_3_joint"
    ],
    "metrics": {
        "cart_traj_len": 3.5209365003057296,
        "distance_elbow_joint": 3.87029370947661,
        "distance_shoulder_lift_joint": 0.6082533735321358,
        "distance_shoulder_pan_joint": 3.986539011443257,
        "distance_wrist_1_joint": 1.8507648218286454,
        "distance_wrist_2_joint": 1.694765093212618,
        "distance_wrist_3_joint": 2.5754163033585318,
        "smoothness": 0.248411301020765,
        "time": 0.153735015,
        "traj_len": 3.8191664421509315,
        "weighted_distance": 4.825183399064757
    },
    "planner": "STRIDE",
    "start": {
        "state": {
            "elbow_joint": -1.919618573717145,
            "shoulder_lift_joint": -1.2443395971678275,
            "shoulder_pan_joint": 2.6996025300909787,
            "wrist_1_joint": -1.548550951253194,
            "wrist_2_joint": -1.5709469090946802,
            "wrist_3_joint": 0.4420197732051276
        }
    },
    "waypoints": [
        {
            "positions": [
                2.6996025300909787,
                -1.2443395971678275,
                -1.919618573717145,
                -1.548550951253194,
                -1.5709469090946802,
                0.4420197732051276
            ]
        },
        {
            "positions": [
                2.5733808618819287,
                -1.253804903697221,
                -1.8021902806639316,
                -1.4965013843934962,
                -1.5216666632595126,
                0.47595931699452293
            ]
        },
        {
            "positions": [
                2.4471591936728783,
                -1.2632702102266145,
                -1.6847619876107185,
                -1.4444518175337986,
                -1.4723864174243453,
                0.5098988607839182
            ]
        },
        {
            "positions": [
                2.3209375254638283,
                -1.272735516756008,
                -1.5673336945575052,
                -1.3924022506741007,
                -1.4231061715891777,
                0.5438384045733136
            ]
        },
        {
            "positions": [
                2.194715857254778,
                -1.2822008232854014,
                -1.4499054015042918,
                -1.3403526838144029,
                -1.3738259257540102,
                0.5777779483627089
            ]
        },
        {
            "positions": [
                2.068494189045728,
                -1.2916661298147951,
                -1.3324771084510787,
                -1.288303116954705,
                -1.3245456799188426,
                0.6117174921521042
            ]
        },
        {
            "positions": [
                1.9422725208366778,
                -1.3011314363441886,
                -1.2150488153978654,
                -1.2362535500950074,
                -1.2752654340836753,
                0.6456570359414995
            ]
        },
        {
            "positions": [
                1.8160508526276278,
                -1.310596742873582,
                -1.0976205223446522,
                -1.1842039832353095,
                -1.2259851882485078,
                0.6795965797308948
            ]
        },
        {
            "positions": [
                1.6898291844185773,
                -1.3200620494029756,
                -0.9801922292914389,
                -1.1321544163756116,
                -1.1767049424133402,
                0.7135361235202902
            ]
        },
        {
            "positions": [
                1.5636075162095273,
                -1.329527355932369,
                -0.8627639362382258,
                -1.080104849515914,
                -1.127424696578173,
                0.7474756673096854
            ]
        },
        {
            "positions": [
                1.437385848000477,
                -1.3389926624617625,
                -0.7453356431850124,
                -1.0280552826562162,
                -1.0781444507430054,
                0.7814152110990809
            ]
        },
        {
            "positions": [
                1.3111641797914269,
                -1.348457968991156,
                -0.6279073501317991,
                -0.9760057157965184,
                -1.0288642049078378,
                0.8153547548884761
            ]
        },
        {
            "positions": [
                1.1849425115823766,
                -1.3579232755205495,
                -0.5104790570785858,
                -0.9239561489368205,
                -0.9795839590726704,
                0.8492942986778714
            ]
        },
        {
            "positions": [
                1.0587208433733266,
                -1.367388582049943,
                -0.39305076402537265,
                -0.8719065820771228,
                -0.9303037132375029,
                0.8832338424672668
            ]
        },
        {
            "positions": [
                0.9324991751642766,
                -1.3768538885793367,
                -0.27562247097215953,
                -0.819857015217425,
                -0.8810234674023355,
                0.917173386256662
            ]
        },
        {
            "positions": [
                0.8062775069552264,
                -1.3863191951087301,
                -0.1581941779189462,
                -0.7678074483577273,
                -0.8317432215671681,
                0.9511129300460572
            ]
        },
        {
            "positions": [
                0.6800558387461759,
                -1.3957845016381236,
                -0.04076588486573285,
                -0.7157578814980293,
                -0.7824629757320004,
                0.9850524738354527
            ]
        },
        {
            "positions": [
                0.5538341705371259,
                -1.405249808167517,
                0.07666240818748049,
                -0.6637083146383316,
                -0.733182729896833,
                1.018992017624848
            ]
        },
        {
            "positions": [
                0.4276125023280759,
                -1.4147151146969106,
                0.1940907012406934,
                -0.6116587477786338,
                -0.6839024840616655,
                1.0529315614142434
            ]
        },
        {
            "positions": [
                0.3013908341190259,
                -1.424180421226304,
                0.31151899429390695,
                -0.5596091809189361,
                -0.6346222382264981,
                1.0868711052036386
            ]
        },
        {
            "positions": [
                0.17516916590997544,
                -1.4336457277556975,
                0.42894728734712007,
                -0.5075596140592382,
                -0.5853419923913306,
                1.120810648993034
            ]
        },
        {
            "positions": [
                0.048947497700925435,
                -1.4431110342850912,
                0.5463755804003336,
                -0.45551004719954036,
                -0.536061746556163,
                1.1547501927824293
            ]
        },
        {
            "positions": [
                -0.07727417050812502,
                -1.4525763408144847,
                0.6638038734535467,
                -0.4034604803398427,
                -0.4867815007209957,
                1.1886897365718245
            ]
        },
        {
            "positions": [
                -0.20349583871717503,
                -1.4620416473438782,
                0.7812321665067599,
                -0.35141091348014486,
                -0.43750125488582814,
                1.2226292803612198
            ]
        },
        {
            "positions": [
                -0.3297175069262255,
                -1.4715069538732717,
                0.8986604595599734,
                -0.299361346620447,
                -0.3882210090506606,
                1.2565688241506152
            ]
        },
        {
            "positions": [
                -0.4559391751352755,
                -1.4809722604026652,
                1.0160887526131865,
                -0.24731177976074936,
                -0.33894076321549327,
                1.2905083679400104
            ]
        },
        {
            "positions": [
                -0.5821608433443255,
                -1.4904375669320586,
                1.1335170456663999,
                -0.1952622129010514,
                -0.2896605173803257,
                1.324447911729406
            ]
        },
        {
            "positions": [
                -0.5234295401769959,
                -1.4602579499514,
                1.2016135531741552,
                -0.23671855319075996,
                -0.2552039589221371,
                1.465530258798927
            ]
        },
        {
            "positions": [
                -0.4646982370096665,
                -1.4300783329707412,
                1.2697100606819107,
                -0.27817489348046853,
                -0.22074740046394845,
                1.606612605868448
            ]
        },
        {
            "positions": [
                -0.405966933842337,
                -1.3998987159900824,
                1.337806568189666,
                -0.3196312337701771,
                -0.1862908420057598,
                1.7476949529379693
            ]
        },
        {
            "positions": [
                -0.3472356306750075,
                -1.3697190990094237,
                1.4059030756974213,
                -0.3610875740598857,
                -0.15183428354757117,
                1.8887773000074903
            ]
        },
        {
            "positions": [
                -0.288504327507678,
                -1.339539482028765,
                1.4739995832051769,
                -0.4025439143495943,
                -0.11737772508938252,
                2.0298596470770116
            ]
        },
        {
            "positions": [
                -0.22977302434034852,
                -1.3093598650481062,
                1.5420960907129322,
                -0.44400025463930287,
                -0.0829211666311939,
                2.1709419941465327
            ]
        },
        {
            "positions": [
                -0.17104172117301902,
                -1.2791802480674477,
                1.6101925982206877,
                -0.48545659492901144,
                -0.04846460817300524,
                2.3120243412160537
            ]
        },
        {
            "positions": [
                -0.11231041800568953,
                -1.249000631086789,
                1.6782891057284428,
                -0.5269129352187201,
                -0.014008049714816617,
                2.4531066882855748
            ]
        },
        {
            "positions": [
                -0.053579114838359976,
                -1.2188210141061302,
                1.7463856132361983,
                -0.5683692755084286,
                0.020448508743372007,
                2.594189035355096
            ]
        },
        {
            "positions": [
                0.005152188328969465,
                -1.1886413971254715,
                1.8144821207439539,
                -0.6098256157981372,
                0.05490506720156069,
                2.7352713824246173
            ]
        },
        {
            "positions": [
                0.0638834914962989,
                -1.1584617801448127,
                1.882578628251709,
                -0.6512819560878458,
                0.08936162565974926,
                2.876353729494138
            ]
        },
        {
            "positions": [
                0.12261479466362847,
                -1.128282163164154,
                1.9506751357594645,
                -0.6927382963775544,
                0.12381818411793793,
                3.0174360765636594
            ]
        }
    ]
}{
    "goal": {
        "global_pose": {
            "orientation": {
                "w": 0.7047431468963623,
                "x": -0.7094548344612122,
                "y": 0.0024358443915843964,
                "z": -0.0022348060738295317
            },
            "position": {
                "x": 0.6094750761985779,
                "y": 0.3671506643295288,
                "z": 0.19426114857196808
            }
        },
        "name": "move_to_magneteinheit_A"
    },
    "id": "STRIDE_move_to_magneteinheit_A_94",
    "joint_names": [
        "shoulder_pan_joint",
        "shoulder_lift_joint",
        "elbow_joint",
        "wrist_1_joint",
        "wrist_2_joint",
        "wrist_3_joint"
    ],
    "metrics": {
        "cart_traj_len": 1.340529265279306,
        "distance_elbow_joint": 0.06252339238513738,
        "distance_shoulder_lift_joint": 0.9704315850406762,
        "distance_shoulder_pan_joint": 1.2427365158217416,
        "distance_wrist_1_joint": 0.7947508028020372,
        "distance_wrist_2_joint": 1.4391276439370504,
        "distance_wrist_3_joint": 4.291681614590714,
        "smoothness": 0.13880367973354069,
        "time": 0.169028363,
        "traj_len": 2.966690336819358,
        "weighted_distance": 4.429276829291422
    },
    "planner": "STRIDE",
    "start": {
        "state": {
            "elbow_joint": 1.919643534880228,
            "shoulder_lift_joint": -1.8972525353963687,
            "shoulder_pan_joint": -1.1188672234189438,
            "wrist_1_joint": -1.5931878212786155,
            "wrist_2_joint": 1.5706036197970081,
            "wrist_3_joint": 1.118896926603594
        }
    },
    "waypoints": [
        {
            "positions": [
                -1.1188672234189438,
                -1.8972525353963687,
                1.919643534880228,
                -1.5931878212786155,
                1.5706036197970081,
                1.118896926603594
            ]
        },
        {
            "positions": [
                -1.0677606912032904,
                -1.8540990267762256,
                1.9225977919438857,
                -1.5570151852506406,
                1.5105447392214912,
                0.9227562133243414
            ]
        },
        {
            "positions": [
                -1.016654158987637,
                -1.8109455181560825,
                1.9255520490075435,
                -1.5208425492226658,
                1.4504858586459741,
                0.7266155000450888
            ]
        },
        {
            "positions": [
                -0.9655476267719835,
                -1.7677920095359392,
                1.9285063060712013,
                -1.4846699131946908,
                1.3904269780704572,
                0.5304747867658363
            ]
        },
        {
            "positions": [
                -0.9144410945563299,
                -1.724638500915796,
                1.931460563134859,
                -1.448497277166716,
                1.3303680974949401,
                0.3343340734865836
            ]
        },
        {
            "positions": [
                -0.8633345623406765,
                -1.681484992295653,
                1.9344148201985165,
                -1.4123246411387411,
                1.2703092169194232,
                0.13819336020733108
            ]
        },
        {
            "positions": [
                -0.8122280301250231,
                -1.6383314836755098,
                1.9373690772621743,
                -1.3761520051107663,
                1.2102503363439063,
                -0.05794735307192145
            ]
        },
        {
            "positions": [
                -0.7611214979093697,
                -1.5951779750553667,
                1.9403233343258321,
                -1.3399793690827915,
                1.1501914557683892,
                -0.254088066351174
            ]
        },
        {
            "positions": [
                -0.710014965693716,
                -1.5520244664352234,
                1.9432775913894897,
                -1.3038067330548164,
                1.0901325751928723,
                -0.45022877963042673
            ]
        },
        {
            "positions": [
                -0.6589084334780626,
                -1.5088709578150803,
                1.9462318484531473,
                -1.2676340970268416,
                1.0300736946173554,
                -0.6463694929096793
            ]
        },
        {
            "positions": [
                -0.6078019012624092,
                -1.4657174491949372,
                1.9491861055168052,
                -1.2314614609988668,
                0.9700148140418383,
                -0.8425102061889318
            ]
        },
        {
            "positions": [
                -0.5566953690467557,
                -1.422563940574794,
                1.952140362580463,
                -1.195288824970892,
                0.9099559334663213,
                -1.0386509194681846
            ]
        },
        {
            "positions": [
                -0.5055888368311022,
                -1.3794104319546507,
                1.9550946196441206,
                -1.1591161889429171,
                0.8498970528908044,
                -1.2347916327474369
            ]
        },
        {
            "positions": [
                -0.4544823046154488,
                -1.3362569233345076,
                1.9580488767077782,
                -1.122943552914942,
                0.7898381723152873,
                -1.4309323460266896
            ]
        },
        {
            "positions": [
                -0.4033757723997954,
                -1.2931034147143645,
                1.961003133771436,
                -1.0867709168869673,
                0.7297792917397704,
                -1.627073059305942
            ]
        },
        {
            "positions": [
                -0.35226924018414185,
                -1.2499499060942214,
                1.9639573908350938,
                -1.0505982808589924,
                0.6697204111642534,
                -1.8232137725851947
            ]
        },
        {
            "positions": [
                -0.3011627079684883,
                -1.2067963974740783,
                1.9669116478987514,
                -1.0144256448310176,
                0.6096615305887364,
                -2.019354485864447
            ]
        },
        {
            "positions": [
                -0.2500561757528349,
                -1.1636428888539352,
                1.969865904962409,
                -0.9782530088030427,
                0.5496026500132194,
                -2.2154951991436995
            ]
        },
        {
            "positions": [
                -0.19894964353718148,
                -1.120489380233792,
                1.9728201620260668,
                -0.9420803727750678,
                0.4895437694377025,
                -2.4116359124229527
            ]
        },
        {
            "positions": [
                -0.14784311132152805,
                -1.077335871613649,
                1.9757744190897246,
                -0.905907736747093,
                0.4294848888621856,
                -2.607776625702205
            ]
        },
        {
            "positions": [
                -0.0967365791058746,
                -1.0341823629935056,
                1.9787286761533822,
                -0.8697351007191181,
                0.3694260082866685,
                -2.8039173389814573
            ]
        },
        {
            "positions": [
                -0.02320128860298387,
                -1.0699695005394434,
                1.9775825924493877,
                -0.8459690733049381,
                0.2901093308110983,
                -2.926873121983345
            ]
        },
        {
            "positions": [
                0.05033400189990686,
                -1.105756638085381,
                1.9764365087453934,
                -0.8222030458907582,
                0.2107926533355281,
                -3.0498289049852323
            ]
        },
        {
            "positions": [
                0.12386929240279763,
                -1.1415437756313187,
                1.975290425041399,
                -0.7984370184765782,
                0.13147597585995788,
                -3.1727846879871198
            ]
        }
    ]
}