{
    "goal": {
        "global_pose": {
            "orientation": {
                "w": 0.7047431468963623,
                "x": -0.7094548344612122,
                "y": 0.0024358443915843964,
                "z": -0.0022348060738295317
            },
            "position": {
                "x": 0.6094750761985779,
                "y": 0.3671506643295288,
                "z": 0.19426114857196808
            }
        },
        "name": "move_to_magneteinheit_A"
    },
    "id": "STRIDE_move_to_magneteinheit_A_8",
    "joint_names": [
        "shoulder_pan_joint",
        "shoulder_lift_joint",
        "elbow_joint",
        "wrist_1_joint",
        "wrist_2_joint",
        "wrist_3_joint"
    ],
    "metrics": {
        "cart_traj_len": 3.6179543550936626,
        "distance_elbow_joint": 4.3282518273560395,
        "distance_shoulder_lift_joint": 1.0004106507735995,
        "distance_shoulder_pan_joint": 5.226585954291647,
        "distance_wrist_1_joint": 3.3006465265407448,
        "distance_wrist_2_joint": 1.693740542795314,
        "distance_wrist_3_joint": 2.5776285061263695,
        "smoothness": 0.35712558342452455,
        "time": 0.150661705,
        "traj_len": 4.257612477420146,
        "weighted_distance": 5.317603604018685
    },
    "planner": "STRIDE",
    "start": {
        "state": {
            "elbow_joint": -1.919618573717145,
            "shoulder_lift_joint": -1.2443395971678275,
            "shoulder_pan_joint": 2.6996025300909787,
            "wrist_1_joint": -1.548550951253194,
            "wrist_2_joint": -1.5709469090946802,
            "wrist_3_joint": 0.4420197732051276
        }
    },
    "waypoints": [
        {
            "positions": [
                2.6996025300909787,
                -1.2443395971678275,
                -1.919618573717145,
                -1.548550951253194,
                -1.5709469090946802,
                0.4420197732051276
            ]
        },
        {
            "positions": [
                2.5776658644677384,
                -1.258159869663203,
                -1.7914567900748417,
                -1.483798860075946,
                -1.5293731827058732,
                0.4653375949475207
            ]
        },
        {
            "positions": [
                2.455729198844498,
                -1.2719801421585788,
                -1.6632950064325382,
                -1.4190467688986979,
                -1.4877994563170662,
                0.48865541668991386
            ]
        },
        {
            "positions": [
                2.3337925332212572,
                -1.2858004146539543,
                -1.535133222790235,
                -1.35429467772145,
                -1.4462257299282595,
                0.511973238432307
            ]
        },
        {
            "positions": [
                2.211855867598017,
                -1.29962068714933,
                -1.4069714391479318,
                -1.2895425865442018,
                -1.4046520035394525,
                0.5352910601747001
            ]
        },
        {
            "positions": [
                2.0899192019747765,
                -1.3134409596447056,
                -1.2788096555056285,
                -1.2247904953669537,
                -1.3630782771506456,
                0.5586088819170932
            ]
        },
        {
            "positions": [
                1.9679825363515362,
                -1.3272612321400814,
                -1.1506478718633253,
                -1.1600384041897056,
                -1.3215045507618386,
                0.5819267036594864
            ]
        },
        {
            "positions": [
                1.8460458707282958,
                -1.341081504635457,
                -1.0224860882210218,
                -1.0952863130124575,
                -1.2799308243730316,
                0.6052445254018796
            ]
        },
        {
            "positions": [
                1.7241092051050553,
                -1.3549017771308325,
                -0.8943243045787186,
                -1.0305342218352096,
                -1.2383570979842249,
                0.6285623471442727
            ]
        },
        {
            "positions": [
                1.602172539481815,
                -1.3687220496262082,
                -0.7661625209364153,
                -0.9657821306579614,
                -1.196783371595418,
                0.6518801688866658
            ]
        },
        {
            "positions": [
                1.4802358738585744,
                -1.3825423221215838,
                -0.6380007372941121,
                -0.9010300394807134,
                -1.155209645206611,
                0.6751979906290589
            ]
        },
        {
            "positions": [
                1.358299208235334,
                -1.3963625946169596,
                -0.5098389536518086,
                -0.8362779483034652,
                -1.113635918817804,
                0.6985158123714521
            ]
        },
        {
            "positions": [
                1.2363625426120937,
                -1.410182867112335,
                -0.3816771700095054,
                -0.7715258571262171,
                -1.072062192428997,
                0.7218336341138452
            ]
        },
        {
            "positions": [
                1.114425876988853,
                -1.4240031396077109,
                -0.25351538636720217,
                -0.7067737659489691,
                -1.03048846604019,
                0.7451514558562384
            ]
        },
        {
            "positions": [
                0.9924892113656127,
                -1.4378234121030864,
                -0.1253536027248987,
                -0.642021674771721,
                -0.9889147396513832,
                0.7684692775986315
            ]
        },
        {
            "positions": [
                0.8705525457423722,
                -1.4516436845984622,
                0.0028081809174045347,
                -0.577269583594473,
                -0.9473410132625764,
                0.7917870993410245
            ]
        },
        {
            "positions": [
                0.7486158801191318,
                -1.4654639570938377,
                0.13096996455970777,
                -0.5125174924172249,
                -0.9057672868737694,
                0.8151049210834178
            ]
        },
        {
            "positions": [
                0.6266792144958915,
                -1.4792842295892132,
                0.25913174820201124,
                -0.44776540123997677,
                -0.8641935604849624,
                0.8384227428258109
            ]
        },
        {
            "positions": [
                0.5047425488726511,
                -1.493104502084589,
                0.38729353184431425,
                -0.38301331006272865,
                -0.8226198340961556,
                0.861740564568204
            ]
        },
        {
            "positions": [
                0.38280588324941034,
                -1.5069247745799645,
                0.5154553154866177,
                -0.31826121888548076,
                -0.7810461077073486,
                0.8850583863105972
            ]
        },
        {
            "positions": [
                0.26086921762617,
                -1.5207450470753403,
                0.6436170991289207,
                -0.25350912770823264,
                -0.7394723813185418,
                0.9083762080529902
            ]
        },
        {
            "positions": [
                0.13893255200292964,
                -1.5345653195707158,
                0.7717788827712242,
                -0.18875703653098452,
                -0.6978986549297348,
                0.9316940297953835
            ]
        },
        {
            "positions": [
                0.016995886379689296,
                -1.5483855920660914,
                0.8999406664135277,
                -0.1240049453537364,
                -0.6563249285409278,
                0.9550118515377766
            ]
        },
        {
            "positions": [
                -0.10494077924355105,
                -1.5622058645614672,
                1.0281024500558307,
                -0.05925285417648829,
                -0.614751202152121,
                0.9783296732801696
            ]
        },
        {
            "positions": [
                -0.2268774448667914,
                -1.576026137056843,
                1.1562642336981341,
                0.005499237000759827,
                -0.573177475763314,
                1.001647495022563
            ]
        },
        {
            "positions": [
                -0.3488141104900322,
                -1.5898464095522185,
                1.2844260173404376,
                0.07025132817800772,
                -0.5316037493745072,
                1.024965316764956
            ]
        },
        {
            "positions": [
                -0.47075077611327254,
                -1.603666682047594,
                1.4125878009827406,
                0.13500341935525584,
                -0.4900300229857002,
                1.0482831385073492
            ]
        },
        {
            "positions": [
                -0.5926874417365129,
                -1.6174869545429698,
                1.540749584625044,
                0.19975551053250395,
                -0.44845629659689323,
                1.0716009602497423
            ]
        },
        {
            "positions": [
                -0.7146241073597532,
                -1.6313072270383453,
                1.6689113682673475,
                0.26450760170975207,
                -0.40688257020808627,
                1.0949187819921353
            ]
        },
        {
            "positions": [
                -0.8365607729829936,
                -1.645127499533721,
                1.7970731519096506,
                0.3292596928870002,
                -0.3653088438192793,
                1.1182366037345286
            ]
        },
        {
            "positions": [
                -0.9584974386062344,
                -1.6589477720290966,
                1.925234935551954,
                0.3940117840642481,
                -0.32373511743047256,
                1.1415544254769217
            ]
        },
        {
            "positions": [
                -1.0804341042294747,
                -1.6727680445244721,
                2.0533967191942573,
                0.4587638752414964,
                -0.2821613910416656,
                1.1648722472193147
            ]
        },
        {
            "positions": [
                -1.202370769852715,
                -1.686588317019848,
                2.1815585028365607,
                0.5235159664187443,
                -0.24058766465285863,
                1.188190068961708
            ]
        },
        {
            "positions": [
                -1.1077555802564327,
                -1.6467196076683066,
                2.1653388777792513,
                0.43576028007097256,
                -0.2146318576276092,
                1.31900851255955
            ]
        },
        {
            "positions": [
                -1.0131403906601504,
                -1.606850898316765,
                2.1491192527219414,
                0.3480045937232008,
                -0.18867605060235976,
                1.4498269561573922
            ]
        },
        {
            "positions": [
                -0.918525201063868,
                -1.5669821889652238,
                2.132899627664632,
                0.260248907375429,
                -0.16272024357711032,
                1.5806453997552343
            ]
        },
        {
            "positions": [
                -0.8239100114675858,
                -1.5271134796136825,
                2.1166800026073225,
                0.17249322102765724,
                -0.13676443655186088,
                1.7114638433530764
            ]
        },
        {
            "positions": [
                -0.7292948218713033,
                -1.4872447702621412,
                2.1004603775500126,
                0.08473753467988543,
                -0.11080862952661144,
                1.8422822869509186
            ]
        },
        {
            "positions": [
                -0.6346796322750211,
                -1.4473760609105997,
                2.084240752492703,
                -0.0030181516678863263,
                -0.084852822501362,
                1.9731007305487605
            ]
        },
        {
            "positions": [
                -0.5400644426787388,
                -1.4075073515590584,
                2.0680211274353937,
                -0.09077383801565808,
                -0.05889701547611256,
                2.1039191741466023
            ]
        },
        {
            "positions": [
                -0.44544925308245653,
                -1.367638642207517,
                2.051801502378084,
                -0.17852952436342984,
                -0.032941208450863124,
                2.234737617744445
            ]
        },
        {
            "positions": [
                -0.3508340634861741,
                -1.3277699328559756,
                2.0355818773207743,
                -0.2662852107112017,
                -0.006985401425613658,
                2.3655560613422866
            ]
        },
        {
            "positions": [
                -0.25621887388989173,
                -1.2879012235044343,
                2.0193622522634644,
                -0.35404089705897346,
                0.018970405599635753,
                2.496374504940129
            ]
        },
        {
            "positions": [
                -0.1616036842936095,
                -1.248032514152893,
                2.003142627206155,
                -0.4417965834067451,
                0.044926212624885165,
                2.627192948537971
            ]
        },
        {
            "positions": [
                -0.06698849469732715,
                -1.2081638048013517,
                1.9869230021488455,
                -0.529552269754517,
                0.07088201965013463,
                2.758011392135813
            ]
        },
        {
            "positions": [
                0.027626694898955195,
                -1.1682950954498101,
                1.9707033770915359,
                -0.6173079561022887,
                0.0968378266753841,
                2.888829835733655
            ]
        },
        {
            "positions": [
                0.12224188449523762,
                -1.1284263860982688,
                1.9544837520342262,
                -0.7050636424500605,
                0.12279363370063351,
                3.019648279331497
            ]
        }
    ]
}{
    "goal": {
        "global_pose": {
            "orientation": {
                "w": 0.7047431468963623,
                "x": -0.7094548344612122,
                "y": 0.0024358443915843964,
                "z": -0.0022348060738295317
            },
            "position": {
                "x": 0.6094750761985779,
                "y": 0.3671506643295288,
                "z": 0.19426114857196808
            }
        },
        "name": "move_to_magneteinheit_A"
    },
    "id": "STRIDE_move_to_magneteinheit_A_8",
    "joint_names": [
        "shoulder_pan_joint",
        "shoulder_lift_joint",
        "elbow_joint",
        "wrist_1_joint",
        "wrist_2_joint",
        "wrist_3_joint"
    ],
    "metrics": {
        "cart_traj_len": 1.9627898582471495,
        "distance_elbow_joint": 2.925098493796032,
        "distance_shoulder_lift_joint": 1.2127326145122628,
        "distance_shoulder_pan_joint": 1.2414959139830843,
        "distance_wrist_1_joint": 0.7441106270462221,
        "distance_wrist_2_joint": 1.4397992057064006,
        "distance_wrist_3_joint": 4.253881652634147,
        "smoothness": 0.2659310553551148,
        "time": 0.285787341,
        "traj_len": 3.4376035995556773,
        "weighted_distance": 4.744343120569914
    },
    "planner": "STRIDE",
    "start": {
        "state": {
            "elbow_joint": 1.919643534880228,
            "shoulder_lift_joint": -1.8972525353963687,
            "shoulder_pan_joint": -1.1188672234189438,
            "wrist_1_joint": -1.5931878212786155,
            "wrist_2_joint": 1.5706036197970081,
            "wrist_3_joint": 1.118896926603594
        }
    },
    "waypoints": [
        {
            "positions": [
                -1.1188672234189438,
                -1.8972525353963687,
                1.919643534880228,
                -1.5931878212786155,
                1.5706036197970081,
                1.118896926603594
            ]
        },
        {
            "positions": [
                -1.099261417247059,
                -1.842768168940457,
                1.8402806321945429,
                -1.5610266649045261,
                1.511734852310159,
                0.9881372376500621
            ]
        },
        {
            "positions": [
                -1.0796556110751738,
                -1.788283802484545,
                1.7609177295088574,
                -1.5288655085304368,
                1.45286608482331,
                0.8573775486965303
            ]
        },
        {
            "positions": [
                -1.060049804903289,
                -1.733799436028633,
                1.681554826823172,
                -1.4967043521563475,
                1.3939973173364608,
                0.7266178597429984
            ]
        },
        {
            "positions": [
                -1.040443998731404,
                -1.6793150695727213,
                1.6021919241374867,
                -1.4645431957822583,
                1.3351285498496117,
                0.5958581707894666
            ]
        },
        {
            "positions": [
                -1.0208381925595191,
                -1.6248307031168094,
                1.5228290214518014,
                -1.432382039408169,
                1.2762597823627626,
                0.4650984818359347
            ]
        },
        {
            "positions": [
                -1.001232386387634,
                -1.5703463366608976,
                1.443466118766116,
                -1.4002208830340797,
                1.2173910148759135,
                0.33433879288240287
            ]
        },
        {
            "positions": [
                -0.9816265802157491,
                -1.5158619702049858,
                1.3641032160804305,
                -1.3680597266599903,
                1.1585222473890644,
                0.20357910392887102
            ]
        },
        {
            "positions": [
                -0.9620207740438642,
                -1.4613776037490738,
                1.2847403133947453,
                -1.335898570285901,
                1.0996534799022153,
                0.07281941497533917
            ]
        },
        {
            "positions": [
                -0.9424149678719792,
                -1.406893237293162,
                1.20537741070906,
                -1.3037374139118119,
                1.0407847124153662,
                -0.05794027397819268
            ]
        },
        {
            "positions": [
                -0.9228091617000942,
                -1.35240887083725,
                1.1260145080233745,
                -1.2715762575377223,
                0.9819159449285171,
                -0.18869996293172453
            ]
        },
        {
            "positions": [
                -0.9032033555282093,
                -1.297924504381338,
                1.046651605337689,
                -1.2394151011636332,
                0.923047177441668,
                -0.3194596518852566
            ]
        },
        {
            "positions": [
                -0.8835975493563244,
                -1.2434401379254263,
                0.9672887026520038,
                -1.2072539447895438,
                0.8641784099548189,
                -0.45021934083878823
            ]
        },
        {
            "positions": [
                -0.8639917431844394,
                -1.1889557714695145,
                0.8879257999663186,
                -1.1750927884154545,
                0.8053096424679698,
                -0.5809790297923201
            ]
        },
        {
            "positions": [
                -0.8443859370125544,
                -1.1344714050136027,
                0.8085628972806331,
                -1.1429316320413652,
                0.7464408749811207,
                -0.7117387187458519
            ]
        },
        {
            "positions": [
                -0.8247801308406695,
                -1.0799870385576908,
                0.7291999945949477,
                -1.1107704756672758,
                0.6875721074942716,
                -0.8424984076993838
            ]
        },
        {
            "positions": [
                -0.8051743246687846,
                -1.025502672101779,
                0.6498370919092624,
                -1.0786093192931867,
                0.6287033400074225,
                -0.9732580966529156
            ]
        },
        {
            "positions": [
                -0.7855685184968995,
                -0.9710183056458671,
                0.5704741892235772,
                -1.0464481629190974,
                0.5698345725205733,
                -1.1040177856064475
            ]
        },
        {
            "positions": [
                -0.7659627123250146,
                -0.9165339391899552,
                0.4911112865378917,
                -1.014287006545008,
                0.5109658050337242,
                -1.234777474559979
            ]
        },
        {
            "positions": [
                -0.6976095274873872,
                -0.9343811713673282,
                0.6062317669574069,
                -1.0015785594440376,
                0.48172262111502295,
                -1.3809472631346387
            ]
        },
        {
            "positions": [
                -0.6292563426497599,
                -0.9522284035447012,
                0.721352247376922,
                -0.9888701123430673,
                0.45247943719632167,
                -1.5271170517092982
            ]
        },
        {
            "positions": [
                -0.5609031578121326,
                -0.9700756357220742,
                0.8364727277964372,
                -0.9761616652420969,
                0.42323625327762043,
                -1.6732868402839578
            ]
        },
        {
            "positions": [
                -0.4925499729745053,
                -0.9879228678994472,
                0.9515932082159524,
                -0.9634532181411266,
                0.39399306935891915,
                -1.8194566288586174
            ]
        },
        {
            "positions": [
                -0.424196788136878,
                -1.0057701000768202,
                1.0667136886354676,
                -0.9507447710401562,
                0.3647498854402179,
                -1.9656264174332772
            ]
        },
        {
            "positions": [
                -0.35584360329925074,
                -1.0236173322541933,
                1.1818341690549827,
                -0.9380363239391859,
                0.3355067015215166,
                -2.1117962060079365
            ]
        },
        {
            "positions": [
                -0.28749041846162343,
                -1.041464564431566,
                1.296954649474498,
                -0.9253278768382155,
                0.30626351760281534,
                -2.2579659945825963
            ]
        },
        {
            "positions": [
                -0.21913723362399606,
                -1.0593117966089391,
                1.412075129894013,
                -0.9126194297372452,
                0.27702033368411405,
                -2.4041357831572556
            ]
        },
        {
            "positions": [
                -0.15078404878636886,
                -1.0771590287863122,
                1.5271956103135282,
                -0.8999109826362748,
                0.24777714976541282,
                -2.5503055717319154
            ]
        },
        {
            "positions": [
                -0.08243086394874144,
                -1.0950062609636853,
                1.6423160907330434,
                -0.8872025355353044,
                0.21853396584671153,
                -2.696475360306575
            ]
        },
        {
            "positions": [
                -0.014077679111114239,
                -1.112853493141058,
                1.7574365711525586,
                -0.8744940884343341,
                0.18929078192801024,
                -2.8426451488812345
            ]
        },
        {
            "positions": [
                0.054275505726513074,
                -1.1307007253184311,
                1.8725570515720737,
                -0.8617856413333638,
                0.16004759800930896,
                -2.988814937455894
            ]
        },
        {
            "positions": [
                0.1226286905641404,
                -1.1485479574958042,
                1.987677531991589,
                -0.8490771942323934,
                0.13080441409060775,
                -3.1349847260305537
            ]
        }
    ]
}