{
    "goal": {
        "global_pose": {
            "orientation": {
                "w": 0.5084816217422485,
                "x": -0.49083608388900757,
                "y": 0.5182115435600281,
                "z": -0.4816462993621826
            },
            "position": {
                "x": 0.5540239810943604,
                "y": 0.030875300988554955,
                "z": 0.16403168439865112
            }
        },
        "name": "move_to_storage_A"
    },
    "id": "STRIDE_move_to_storage_A_38",
    "joint_names": [
        "shoulder_pan_joint",
        "shoulder_lift_joint",
        "elbow_joint",
        "wrist_1_joint",
        "wrist_2_joint",
        "wrist_3_joint"
    ],
    "metrics": {
        "cart_traj_len": 0.35316160444275047,
        "distance_elbow_joint": 0.44865420789976973,
        "distance_shoulder_lift_joint": 0.2341338973424527,
        "distance_shoulder_pan_joint": 0.4629838854961848,
        "distance_wrist_1_joint": 0.24174048500909617,
        "distance_wrist_2_joint": 1.093209638066904,
        "distance_wrist_3_joint": 0.10599292765402968,
        "smoothness": 4.440892098500626e-16,
        "time": 0.087574376,
        "traj_len": 1.6083267831720136,
        "weighted_distance": 2.033138219564154
    },
    "planner": "STRIDE",
    "start": {
        "state": {
            "elbow_joint": 1.9715477243005601,
            "shoulder_lift_joint": -1.1394853015351272,
            "shoulder_pan_joint": 0.12281154014795169,
            "wrist_1_joint": -0.7804696478968182,
            "wrist_2_joint": 0.12958648046900423,
            "wrist_3_joint": -3.192491284697111
        }
    },
    "waypoints": [
        {
            "positions": [
                0.12281154014795169,
                -1.1394853015351272,
                1.9715477243005601,
                -0.7804696478968182,
                0.12958648046900423,
                -3.192491284697111
            ]
        },
        {
            "positions": [
                0.05667098507706815,
                -1.1729330011554775,
                2.035641182571956,
                -0.8150040028981176,
                0.2857592859071334,
                -3.1773494378893927
            ]
        },
        {
            "positions": [
                -0.009469569993815388,
                -1.206380700775828,
                2.0997346408433515,
                -0.8495383578994171,
                0.4419320913452625,
                -3.1622075910816743
            ]
        },
        {
            "positions": [
                -0.07561012506469893,
                -1.2398284003961784,
                2.163828099114747,
                -0.8840727129007165,
                0.5981048967833917,
                -3.147065744273956
            ]
        },
        {
            "positions": [
                -0.14175068013558245,
                -1.2732761000165287,
                2.227921557386143,
                -0.918607067902016,
                0.7542777022215208,
                -3.131923897466237
            ]
        },
        {
            "positions": [
                -0.20789123520646602,
                -1.3067237996368792,
                2.2920150156575385,
                -0.9531414229033155,
                0.91045050765965,
                -3.1167820506585184
            ]
        },
        {
            "positions": [
                -0.27403179027734953,
                -1.3401714992572296,
                2.356108473928934,
                -0.9876757779046148,
                1.0666233130977791,
                -3.1016402038508
            ]
        },
        {
            "positions": [
                -0.3401723453482331,
                -1.3736191988775799,
                2.42020193220033,
                -1.0222101329059143,
                1.2227961185359084,
                -3.0864983570430815
            ]
        }
    ]
}