{
    "goal": {
        "global_pose": {
            "orientation": {
                "w": 0.7047431468963623,
                "x": -0.7094548344612122,
                "y": 0.0024358443915843964,
                "z": -0.0022348060738295317
            },
            "position": {
                "x": 0.6094750761985779,
                "y": 0.3671506643295288,
                "z": 0.19426114857196808
            }
        },
        "name": "move_to_magneteinheit_A"
    },
    "id": "STRIDE_move_to_magneteinheit_A_18",
    "joint_names": [
        "shoulder_pan_joint",
        "shoulder_lift_joint",
        "elbow_joint",
        "wrist_1_joint",
        "wrist_2_joint",
        "wrist_3_joint"
    ],
    "metrics": {
        "cart_traj_len": 3.8599665945026556,
        "distance_elbow_joint": 3.899855913515471,
        "distance_shoulder_lift_joint": 0.3184977758174041,
        "distance_shoulder_pan_joint": 4.115103730084519,
        "distance_wrist_1_joint": 1.6904032034035925,
        "distance_wrist_2_joint": 1.6930107424924106,
        "distance_wrist_3_joint": 3.5799592065746593,
        "smoothness": 0.2984361763199657,
        "time": 0.176425667,
        "traj_len": 3.9111162820719167,
        "weighted_distance": 5.083322036909858
    },
    "planner": "STRIDE",
    "start": {
        "state": {
            "elbow_joint": -1.919618573717145,
            "shoulder_lift_joint": -1.2443395971678275,
            "shoulder_pan_joint": 2.6996025300909787,
            "wrist_1_joint": -1.548550951253194,
            "wrist_2_joint": -1.5709469090946802,
            "wrist_3_joint": 0.4420197732051276
        }
    },
    "waypoints": [
        {
            "positions": [
                2.6996025300909787,
                -1.2443395971678275,
                -1.919618573717145,
                -1.548550951253194,
                -1.5709469090946802,
                0.4420197732051276
            ]
        },
        {
            "positions": [
                2.601189461572548,
                -1.2475416983188974,
                -1.8060150578823215,
                -1.5131796241077866,
                -1.5242568389364666,
                0.34662640639663245
            ]
        },
        {
            "positions": [
                2.5027763930541176,
                -1.2507437994699673,
                -1.6924115420474979,
                -1.4778082969623791,
                -1.4775667687782528,
                0.25123303958813736
            ]
        },
        {
            "positions": [
                2.404363324535687,
                -1.2539459006210372,
                -1.5788080262126745,
                -1.442436969816972,
                -1.4308766986200392,
                0.15583967277964222
            ]
        },
        {
            "positions": [
                2.3059502560172565,
                -1.257148001772107,
                -1.465204510377851,
                -1.4070656426715644,
                -1.3841866284618254,
                0.06044630597114714
            ]
        },
        {
            "positions": [
                2.2075371874988257,
                -1.260350102923177,
                -1.3516009945430274,
                -1.371694315526157,
                -1.3374965583036118,
                -0.034947060837348
            ]
        },
        {
            "positions": [
                2.1091241189803953,
                -1.263552204074247,
                -1.2379974787082038,
                -1.3363229883807495,
                -1.290806488145398,
                -0.13034042764584314
            ]
        },
        {
            "positions": [
                2.0107110504619645,
                -1.266754305225317,
                -1.1243939628733806,
                -1.300951661235342,
                -1.2441164179871844,
                -0.22573379445433822
            ]
        },
        {
            "positions": [
                1.9122979819435342,
                -1.2699564063763868,
                -1.010790447038557,
                -1.2655803340899348,
                -1.1974263478289706,
                -0.3211271612628333
            ]
        },
        {
            "positions": [
                1.8138849134251034,
                -1.2731585075274567,
                -0.8971869312037333,
                -1.230209006944527,
                -1.150736277670757,
                -0.4165205280713285
            ]
        },
        {
            "positions": [
                1.715471844906673,
                -1.2763606086785266,
                -0.7835834153689099,
                -1.1948376797991198,
                -1.1040462075125435,
                -0.5119138948798236
            ]
        },
        {
            "positions": [
                1.6170587763882422,
                -1.2795627098295965,
                -0.6699798995340862,
                -1.1594663526537123,
                -1.0573561373543297,
                -0.6073072616883186
            ]
        },
        {
            "positions": [
                1.5186457078698117,
                -1.2827648109806664,
                -0.5563763836992628,
                -1.1240950255083049,
                -1.0106660671961158,
                -0.7027006284968138
            ]
        },
        {
            "positions": [
                1.4202326393513813,
                -1.2859669121317363,
                -0.44277286786443937,
                -1.0887236983628976,
                -0.9639759970379024,
                -0.7980939953053088
            ]
        },
        {
            "positions": [
                1.3218195708329505,
                -1.2891690132828062,
                -0.32916935202961595,
                -1.05335237121749,
                -0.9172859268796887,
                -0.893487362113804
            ]
        },
        {
            "positions": [
                1.22340650231452,
                -1.292371114433876,
                -0.2155658361947923,
                -1.0179810440720827,
                -0.870595856721475,
                -0.9888807289222992
            ]
        },
        {
            "positions": [
                1.1249934337960894,
                -1.295573215584946,
                -0.10196232035996888,
                -0.9826097169266752,
                -0.8239057865632613,
                -1.0842740957307941
            ]
        },
        {
            "positions": [
                1.0265803652776588,
                -1.298775316736016,
                0.01164119547485476,
                -0.9472383897812677,
                -0.7772157164050476,
                -1.1796674625392893
            ]
        },
        {
            "positions": [
                0.9281672967592283,
                -1.301977417887086,
                0.1252447113096784,
                -0.9118670626358603,
                -0.7305256462468339,
                -1.2750608293477845
            ]
        },
        {
            "positions": [
                0.8297542282407977,
                -1.3051795190381559,
                0.23884822714450205,
                -0.8764957354904529,
                -0.6838355760886202,
                -1.3704541961562795
            ]
        },
        {
            "positions": [
                0.7313411597223671,
                -1.3083816201892258,
                0.35245174297932524,
                -0.8411244083450454,
                -0.6371455059304065,
                -1.4658475629647747
            ]
        },
        {
            "positions": [
                0.6329280912039366,
                -1.3115837213402957,
                0.4660552588141489,
                -0.805753081199638,
                -0.5904554357721928,
                -1.5612409297732697
            ]
        },
        {
            "positions": [
                0.5345150226855058,
                -1.3147858224913656,
                0.5796587746489725,
                -0.7703817540542305,
                -0.5437653656139791,
                -1.6566342965817649
            ]
        },
        {
            "positions": [
                0.4361019541670754,
                -1.3179879236424354,
                0.6932622904837962,
                -0.7350104269088231,
                -0.49707529545576556,
                -1.75202766339026
            ]
        },
        {
            "positions": [
                0.33768888564864463,
                -1.3211900247935053,
                0.8068658063186194,
                -0.6996390997634157,
                -0.45038522529755176,
                -1.8474210301987553
            ]
        },
        {
            "positions": [
                0.23927581713021384,
                -1.3243921259445752,
                0.920469322153443,
                -0.6642677726180082,
                -0.4036951551393382,
                -1.9428143970072504
            ]
        },
        {
            "positions": [
                0.14086274861178394,
                -1.3275942270956451,
                1.0340728379882662,
                -0.6288964454726009,
                -0.3570050849811246,
                -2.038207763815745
            ]
        },
        {
            "positions": [
                0.04244968009335315,
                -1.330796328246715,
                1.1476763538230899,
                -0.5935251183271935,
                -0.3103150148229108,
                -2.1336011306242404
            ]
        },
        {
            "positions": [
                -0.05596338842507764,
                -1.333998429397785,
                1.261279869657913,
                -0.558153791181786,
                -0.2636249446646972,
                -2.2289944974327356
            ]
        },
        {
            "positions": [
                -0.154376456943508,
                -1.337200530548855,
                1.3748833854927367,
                -0.5227824640363785,
                -0.2169348745064834,
                -2.324387864241231
            ]
        },
        {
            "positions": [
                -0.2527895254619388,
                -1.340402631699925,
                1.4884869013275603,
                -0.48741113689097104,
                -0.17024480434826983,
                -2.419781231049726
            ]
        },
        {
            "positions": [
                -0.3512025939803691,
                -1.3436047328509948,
                1.602090417162384,
                -0.4520398097455638,
                -0.12355473419005603,
                -2.5151745978582207
            ]
        },
        {
            "positions": [
                -0.4496156624987999,
                -1.3468068340020647,
                1.7156939329972072,
                -0.4166684826001563,
                -0.07686466403184244,
                -2.610567964666716
            ]
        },
        {
            "positions": [
                -0.5480287310172303,
                -1.3500089351531346,
                1.8292974488320308,
                -0.38129715545474885,
                -0.03017459387362864,
                -2.705961331475211
            ]
        },
        {
            "positions": [
                -0.6464417995356612,
                -1.3532110363042045,
                1.9429009646668547,
                -0.3459258283093414,
                0.01651547628458494,
                -2.8013546982837063
            ]
        },
        {
            "positions": [
                -0.4926299194440853,
                -1.311285768967999,
                1.9503682396931488,
                -0.44348144440128934,
                0.03762514770721412,
                -2.8686716453008714
            ]
        },
        {
            "positions": [
                -0.3388180393525094,
                -1.2693605016317937,
                1.957835514719443,
                -0.5410370604932373,
                0.058734819129843296,
                -2.9359885923180364
            ]
        },
        {
            "positions": [
                -0.18500615926093367,
                -1.227435234295588,
                1.9653027897457371,
                -0.6385926765851853,
                0.07984449055247247,
                -3.0033055393352015
            ]
        },
        {
            "positions": [
                -0.031194279169357686,
                -1.1855099669593827,
                1.9727700647720314,
                -0.7361482926771332,
                0.10095416197510165,
                -3.0706224863523666
            ]
        },
        {
            "positions": [
                0.12261760092221805,
                -1.1435846996231773,
                1.9802373397983255,
                -0.8337039087690811,
                0.12206383339773083,
                -3.1379394333695316
            ]
        }
    ]
}{
    "goal": {
        "global_pose": {
            "orientation": {
                "w": 0.7047431468963623,
                "x": -0.7094548344612122,
                "y": 0.0024358443915843964,
                "z": -0.0022348060738295317
            },
            "position": {
                "x": 0.6094750761985779,
                "y": 0.3671506643295288,
                "z": 0.19426114857196808
            }
        },
        "name": "move_to_magneteinheit_A"
    },
    "id": "STRIDE_move_to_magneteinheit_A_18",
    "joint_names": [
        "shoulder_pan_joint",
        "shoulder_lift_joint",
        "elbow_joint",
        "wrist_1_joint",
        "wrist_2_joint",
        "wrist_3_joint"
    ],
    "metrics": {
        "cart_traj_len": 1.291983437712115,
        "distance_elbow_joint": 0.639440320079788,
        "distance_shoulder_lift_joint": 0.7504697077176172,
        "distance_shoulder_pan_joint": 1.2428227940394645,
        "distance_wrist_1_joint": 0.9650372903054599,
        "distance_wrist_2_joint": 1.4389581089102876,
        "distance_wrist_3_joint": 4.255224211996229,
        "smoothness": 0.1218213171606657,
        "time": 0.233585355,
        "traj_len": 3.0482704002514027,
        "weighted_distance": 4.49515252869767
    },
    "planner": "STRIDE",
    "start": {
        "state": {
            "elbow_joint": 1.919643534880228,
            "shoulder_lift_joint": -1.8972525353963687,
            "shoulder_pan_joint": -1.1188672234189438,
            "wrist_1_joint": -1.5931878212786155,
            "wrist_2_joint": 1.5706036197970081,
            "wrist_3_joint": 1.118896926603594
        }
    },
    "waypoints": [
        {
            "positions": [
                -1.1188672234189438,
                -1.8972525353963687,
                1.919643534880228,
                -1.5931878212786155,
                1.5706036197970081,
                1.118896926603594
            ]
        },
        {
            "positions": [
                -1.097047046816728,
                -1.8725730417536897,
                1.9052783102854656,
                -1.550190935769895,
                1.5013483961119753,
                0.915175044726312
            ]
        },
        {
            "positions": [
                -1.075226870214512,
                -1.8478935481110108,
                1.8909130856907033,
                -1.5071940502611747,
                1.4320931724269426,
                0.7114531628490299
            ]
        },
        {
            "positions": [
                -1.0534066936122959,
                -1.8232140544683317,
                1.8765478610959407,
                -1.4641971647524543,
                1.3628379487419098,
                0.5077312809717479
            ]
        },
        {
            "positions": [
                -1.03158651701008,
                -1.7985345608256529,
                1.8621826365011782,
                -1.4212002792437337,
                1.293582725056877,
                0.3040093990944658
            ]
        },
        {
            "positions": [
                -1.009766340407864,
                -1.7738550671829738,
                1.847817411906416,
                -1.3782033937350135,
                1.2243275013718442,
                0.10028751721718376
            ]
        },
        {
            "positions": [
                -0.9879461638056481,
                -1.7491755735402947,
                1.8334521873116534,
                -1.335206508226293,
                1.1550722776868114,
                -0.10343436466009814
            ]
        },
        {
            "positions": [
                -0.9661259872034322,
                -1.7244960798976159,
                1.819086962716891,
                -1.2922096227175728,
                1.0858170540017786,
                -0.3071562465373803
            ]
        },
        {
            "positions": [
                -0.9443058106012162,
                -1.6998165862549368,
                1.8047217381221285,
                -1.2492127372088522,
                1.0165618303167459,
                -0.5108781284146624
            ]
        },
        {
            "positions": [
                -0.9224856339990003,
                -1.675137092612258,
                1.790356513527366,
                -1.2062158517001318,
                0.9473066066317131,
                -0.7146000102919445
            ]
        },
        {
            "positions": [
                -0.9006654573967843,
                -1.6504575989695789,
                1.7759912889326035,
                -1.1632189661914114,
                0.8780513829466803,
                -0.9183218921692264
            ]
        },
        {
            "positions": [
                -0.8788452807945684,
                -1.6257781053268998,
                1.7616260643378412,
                -1.120222080682691,
                0.8087961592616474,
                -1.1220437740465086
            ]
        },
        {
            "positions": [
                -0.8570251041923524,
                -1.601098611684221,
                1.7472608397430787,
                -1.0772251951739706,
                0.7395409355766147,
                -1.3257656559237903
            ]
        },
        {
            "positions": [
                -0.8352049275901365,
                -1.5764191180415419,
                1.7328956151483164,
                -1.03422830966525,
                0.6702857118915819,
                -1.5294875378010728
            ]
        },
        {
            "positions": [
                -0.8133847509879206,
                -1.551739624398863,
                1.7185303905535538,
                -0.9912314241565299,
                0.6010304882065493,
                -1.7332094196783545
            ]
        },
        {
            "positions": [
                -0.7915645743857046,
                -1.527060130756184,
                1.7041651659587913,
                -0.9482345386478094,
                0.5317752645215164,
                -1.9369313015556366
            ]
        },
        {
            "positions": [
                -0.7697443977834886,
                -1.502380637113505,
                1.6897999413640288,
                -0.9052376531390889,
                0.46252004083648357,
                -2.140653183432919
            ]
        },
        {
            "positions": [
                -0.7479242211812727,
                -1.477701143470826,
                1.6754347167692665,
                -0.8622407676303686,
                0.3932648171514508,
                -2.3443750653102002
            ]
        },
        {
            "positions": [
                -0.7261040445790568,
                -1.453021649828147,
                1.661069492174504,
                -0.8192438821216481,
                0.324009593466418,
                -2.5480969471874833
            ]
        },
        {
            "positions": [
                -0.7042838679768408,
                -1.4283421561854681,
                1.6467042675797416,
                -0.7762469966129278,
                0.2547543697813852,
                -2.7518188290647645
            ]
        },
        {
            "positions": [
                -0.6824636913746248,
                -1.403662662542789,
                1.6323390429849791,
                -0.7332501111042073,
                0.18549914609635237,
                -2.9555407109420466
            ]
        },
        {
            "positions": [
                -0.5211798389755957,
                -1.3522866955699815,
                1.7027662086218869,
                -0.7542700271304177,
                0.17472841905442607,
                -2.991698025832164
            ]
        },
        {
            "positions": [
                -0.35989598657656663,
                -1.300910728597174,
                1.7731933742587946,
                -0.775289943156628,
                0.16395769201249977,
                -3.0278553407222817
            ]
        },
        {
            "positions": [
                -0.19861213417753765,
                -1.2495347616243666,
                1.8436205398957026,
                -0.7963098591828385,
                0.15318696497057346,
                -3.064012655612399
            ]
        },
        {
            "positions": [
                -0.03732828177850844,
                -1.198158794651559,
                1.9140477055326104,
                -0.8173297752090488,
                0.14241623792864716,
                -3.1001699705025167
            ]
        },
        {
            "positions": [
                0.1239555706205205,
                -1.1467828276787515,
                1.9844748711695182,
                -0.8383496912352592,
                0.13164551088672086,
                -3.136327285392634
            ]
        }
    ]
}