{
    "goal": {
        "global_pose": {
            "orientation": {
                "w": 0.7047431468963623,
                "x": -0.7094548344612122,
                "y": 0.0024358443915843964,
                "z": -0.0022348060738295317
            },
            "position": {
                "x": 0.6094750761985779,
                "y": 0.3671506643295288,
                "z": 0.19426114857196808
            }
        },
        "name": "move_to_magneteinheit_A"
    },
    "id": "STRIDE_move_to_magneteinheit_A_147",
    "joint_names": [
        "shoulder_pan_joint",
        "shoulder_lift_joint",
        "elbow_joint",
        "wrist_1_joint",
        "wrist_2_joint",
        "wrist_3_joint"
    ],
    "metrics": {
        "cart_traj_len": 4.744768334009627,
        "distance_elbow_joint": 3.870248189838815,
        "distance_shoulder_lift_joint": 0.24658243986989592,
        "distance_shoulder_pan_joint": 5.4327204054849325,
        "distance_wrist_1_joint": 0.8579875798013107,
        "distance_wrist_2_joint": 1.6909223839512215,
        "distance_wrist_3_joint": 2.560434624638992,
        "smoothness": 0.18318790848303318,
        "time": 0.196754257,
        "traj_len": 3.8286937228753577,
        "weighted_distance": 4.725322723012227
    },
    "planner": "STRIDE",
    "start": {
        "state": {
            "elbow_joint": -1.919618573717145,
            "shoulder_lift_joint": -1.2443395971678275,
            "shoulder_pan_joint": 2.6996025300909787,
            "wrist_1_joint": -1.548550951253194,
            "wrist_2_joint": -1.5709469090946802,
            "wrist_3_joint": 0.4420197732051276
        }
    },
    "waypoints": [
        {
            "positions": [
                2.6996025300909787,
                -1.2443395971678275,
                -1.919618573717145,
                -1.548550951253194,
                -1.5709469090946802,
                0.4420197732051276
            ]
        },
        {
            "positions": [
                2.4993299447923727,
                -1.2352308759298214,
                -1.8096145935446064,
                -1.5477487139140609,
                -1.5375576021807396,
                0.48017930838451023
            ]
        },
        {
            "positions": [
                2.2990573594937667,
                -1.226122154691815,
                -1.6996106133720676,
                -1.546946476574928,
                -1.5041682952667992,
                0.5183388435638928
            ]
        },
        {
            "positions": [
                2.0987847741951606,
                -1.217013433453809,
                -1.589606633199529,
                -1.5461442392357947,
                -1.4707789883528586,
                0.5564983787432755
            ]
        },
        {
            "positions": [
                1.8985121888965546,
                -1.2079047122158029,
                -1.4796026530269903,
                -1.5453420018966617,
                -1.4373896814389182,
                0.5946579139226581
            ]
        },
        {
            "positions": [
                1.6982396035979488,
                -1.1987959909777965,
                -1.3695986728544518,
                -1.5445397645575285,
                -1.4040003745249776,
                0.6328174491020406
            ]
        },
        {
            "positions": [
                1.4979670182993428,
                -1.1896872697397904,
                -1.259594692681913,
                -1.5437375272183953,
                -1.3706110676110372,
                0.6709769842814233
            ]
        },
        {
            "positions": [
                1.297694433000737,
                -1.1805785485017843,
                -1.1495907125093745,
                -1.5429352898792623,
                -1.3372217606970966,
                0.7091365194608059
            ]
        },
        {
            "positions": [
                1.0974218477021307,
                -1.171469827263778,
                -1.039586732336836,
                -1.5421330525401291,
                -1.3038324537831563,
                0.7472960546401886
            ]
        },
        {
            "positions": [
                0.8971492624035249,
                -1.162361106025772,
                -0.9295827521642973,
                -1.5413308152009961,
                -1.2704431468692157,
                0.7854555898195712
            ]
        },
        {
            "positions": [
                0.6968766771049189,
                -1.1532523847877658,
                -0.8195787719917587,
                -1.540528577861863,
                -1.237053839955275,
                0.8236151249989538
            ]
        },
        {
            "positions": [
                0.4966040918063128,
                -1.1441436635497595,
                -0.7095747918192199,
                -1.5397263405227297,
                -1.2036645330413347,
                0.8617746601783365
            ]
        },
        {
            "positions": [
                0.2963315065077068,
                -1.1350349423117534,
                -0.5995708116466814,
                -1.5389241031835967,
                -1.1702752261273943,
                0.899934195357719
            ]
        },
        {
            "positions": [
                0.09605892120910076,
                -1.125926221073747,
                -0.4895668314741428,
                -1.5381218658444635,
                -1.1368859192134537,
                0.9380937305371017
            ]
        },
        {
            "positions": [
                -0.10421366408950483,
                -1.116817499835741,
                -0.3795628513016043,
                -1.5373196285053305,
                -1.1034966122995131,
                0.9762532657164842
            ]
        },
        {
            "positions": [
                -0.30448624938811086,
                -1.1077087785977349,
                -0.2695588711290655,
                -1.5365173911661973,
                -1.0701073053855727,
                1.0144128008958668
            ]
        },
        {
            "positions": [
                -0.5047588346867173,
                -1.0986000573597285,
                -0.15955489095652675,
                -1.5357151538270641,
                -1.0367179984716322,
                1.0525723360752495
            ]
        },
        {
            "positions": [
                -0.7050314199853229,
                -1.0894913361217224,
                -0.04955091078398821,
                -1.5349129164879312,
                -1.0033286915576918,
                1.0907318712546321
            ]
        },
        {
            "positions": [
                -0.905304005283929,
                -1.0803826148837163,
                0.06045306938855033,
                -1.534110679148798,
                -0.9699393846437512,
                1.1288914064340148
            ]
        },
        {
            "positions": [
                -1.105576590582535,
                -1.07127389364571,
                0.1704570495610891,
                -1.533308441809665,
                -0.9365500777298107,
                1.1670509416133974
            ]
        },
        {
            "positions": [
                -1.3058491758811408,
                -1.062165172407704,
                0.28046102973362785,
                -1.5325062044705318,
                -0.9031607708158702,
                1.20521047679278
            ]
        },
        {
            "positions": [
                -1.226556470352651,
                -1.065743395469358,
                0.37324817342185246,
                -1.4857316026361624,
                -0.846319868278514,
                1.3050573612956322
            ]
        },
        {
            "positions": [
                -1.1472637648241613,
                -1.069321618531012,
                0.4660353171100771,
                -1.4389570008017931,
                -0.7894789657411577,
                1.4049042457984844
            ]
        },
        {
            "positions": [
                -1.0679710592956715,
                -1.072899841592666,
                0.5588224607983018,
                -1.3921823989674238,
                -0.7326380632038015,
                1.5047511303013366
            ]
        },
        {
            "positions": [
                -0.9886783537671818,
                -1.07647806465432,
                0.6516096044865264,
                -1.3454077971330545,
                -0.6757971606664454,
                1.6045980148041887
            ]
        },
        {
            "positions": [
                -0.9093856482386921,
                -1.080056287715974,
                0.7443967481747511,
                -1.298633195298685,
                -0.618956258129089,
                1.7044448993070411
            ]
        },
        {
            "positions": [
                -0.8300929427102024,
                -1.083634510777628,
                0.8371838918629757,
                -1.2518585934643156,
                -0.5621153555917329,
                1.804291783809893
            ]
        },
        {
            "positions": [
                -0.7508002371817125,
                -1.087212733839282,
                0.9299710355512003,
                -1.2050839916299463,
                -0.5052744530543767,
                1.9041386683127455
            ]
        },
        {
            "positions": [
                -0.6715075316532229,
                -1.090790956900936,
                1.022758179239425,
                -1.158309389795577,
                -0.44843355051702044,
                2.0039855528155974
            ]
        },
        {
            "positions": [
                -0.5922148261247331,
                -1.09436917996259,
                1.1155453229276495,
                -1.1115347879612076,
                -0.3915926479796642,
                2.1038324373184496
            ]
        },
        {
            "positions": [
                -0.5129221205962433,
                -1.0979474030242442,
                1.2083324666158743,
                -1.064760186126838,
                -0.3347517454423079,
                2.203679321821302
            ]
        },
        {
            "positions": [
                -0.43362941506775354,
                -1.101525626085898,
                1.301119610304099,
                -1.017985584292469,
                -0.2779108429049517,
                2.3035262063241544
            ]
        },
        {
            "positions": [
                -0.3543367095392639,
                -1.1051038491475522,
                1.3939067539923236,
                -0.9712109824580996,
                -0.22106994036759553,
                2.4033730908270066
            ]
        },
        {
            "positions": [
                -0.2750440040107742,
                -1.1086820722092061,
                1.4866938976805482,
                -0.9244363806237301,
                -0.16422903783023934,
                2.5032199753298583
            ]
        },
        {
            "positions": [
                -0.19575129848228423,
                -1.1122602952708602,
                1.5794810413687728,
                -0.8776617787893608,
                -0.10738813529288305,
                2.603066859832711
            ]
        },
        {
            "positions": [
                -0.11645859295379446,
                -1.1158385183325141,
                1.6722681850569976,
                -0.8308871769549915,
                -0.05054723275552686,
                2.702913744335563
            ]
        },
        {
            "positions": [
                -0.03716588742530491,
                -1.1194167413941682,
                1.765055328745222,
                -0.7841125751206222,
                0.006293669781829325,
                2.8027606288384153
            ]
        },
        {
            "positions": [
                0.04212681810318486,
                -1.1229949644558221,
                1.8578424724334468,
                -0.7373379732862527,
                0.06313457231918551,
                2.9026075133412674
            ]
        },
        {
            "positions": [
                0.1214195236316747,
                -1.1265731875174763,
                1.9506296161216714,
                -0.6905633714518834,
                0.11997547485654173,
                3.0024543978441196
            ]
        }
    ]
}{
    "goal": {
        "global_pose": {
            "orientation": {
                "w": 0.7047431468963623,
                "x": -0.7094548344612122,
                "y": 0.0024358443915843964,
                "z": -0.0022348060738295317
            },
            "position": {
                "x": 0.6094750761985779,
                "y": 0.3671506643295288,
                "z": 0.19426114857196808
            }
        },
        "name": "move_to_magneteinheit_A"
    },
    "id": "STRIDE_move_to_magneteinheit_A_147",
    "joint_names": [
        "shoulder_pan_joint",
        "shoulder_lift_joint",
        "elbow_joint",
        "wrist_1_joint",
        "wrist_2_joint",
        "wrist_3_joint"
    ],
    "metrics": {
        "cart_traj_len": 1.2109818864108,
        "distance_elbow_joint": 0.3374742517205218,
        "distance_shoulder_lift_joint": 0.7494191902255132,
        "distance_shoulder_pan_joint": 1.2415564154289849,
        "distance_wrist_1_joint": 0.749775507157631,
        "distance_wrist_2_joint": 1.4318479588947297,
        "distance_wrist_3_joint": 4.25325911626269,
        "smoothness": 0.03716971088175187,
        "time": 0.284201695,
        "traj_len": 2.96029262737488,
        "weighted_distance": 4.410382538767789
    },
    "planner": "STRIDE",
    "start": {
        "state": {
            "elbow_joint": 1.919643534880228,
            "shoulder_lift_joint": -1.8972525353963687,
            "shoulder_pan_joint": -1.1188672234189438,
            "wrist_1_joint": -1.5931878212786155,
            "wrist_2_joint": 1.5706036197970081,
            "wrist_3_joint": 1.118896926603594
        }
    },
    "waypoints": [
        {
            "positions": [
                -1.1188672234189438,
                -1.8972525353963687,
                1.919643534880228,
                -1.5931878212786155,
                1.5706036197970081,
                1.118896926603594
            ]
        },
        {
            "positions": [
                -1.068599150774047,
                -1.8634220675188302,
                1.9297549962485732,
                -1.5634390502288664,
                1.5008096451884896,
                0.9261978039951225
            ]
        },
        {
            "positions": [
                -1.0183310781291504,
                -1.8295915996412915,
                1.9398664576169184,
                -1.5336902791791174,
                1.431015670579971,
                0.7334986813866511
            ]
        },
        {
            "positions": [
                -0.9680630054842537,
                -1.795761131763753,
                1.9499779189852635,
                -1.5039415081293683,
                1.3612216959714527,
                0.5407995587781796
            ]
        },
        {
            "positions": [
                -0.917794932839357,
                -1.7619306638862142,
                1.9600893803536086,
                -1.4741927370796195,
                1.2914277213629342,
                0.3481004361697081
            ]
        },
        {
            "positions": [
                -0.8675268601944603,
                -1.7281001960086757,
                1.9702008417219539,
                -1.4444439660298705,
                1.2216337467544156,
                0.15540131356123665
            ]
        },
        {
            "positions": [
                -0.8172587875495636,
                -1.694269728131137,
                1.980312303090299,
                -1.4146951949801214,
                1.1518397721458973,
                -0.037297809047234676
            ]
        },
        {
            "positions": [
                -0.7669907149046669,
                -1.6604392602535984,
                1.990423764458644,
                -1.3849464239303724,
                1.0820457975373787,
                -0.22999693165570623
            ]
        },
        {
            "positions": [
                -0.7167226422597701,
                -1.6266087923760597,
                2.0005352258269893,
                -1.3551976528806233,
                1.0122518229288602,
                -0.4226960542641778
            ]
        },
        {
            "positions": [
                -0.6664545696148734,
                -1.5927783244985212,
                2.0106466871953343,
                -1.3254488818308743,
                0.9424578483203416,
                -0.6153951768726493
            ]
        },
        {
            "positions": [
                -0.6161864969699767,
                -1.5589478566209825,
                2.0207581485636794,
                -1.2957001107811252,
                0.8726638737118232,
                -0.8080942994811207
            ]
        },
        {
            "positions": [
                -0.56591842432508,
                -1.525117388743444,
                2.0308696099320245,
                -1.2659513397313762,
                0.8028698991033046,
                -1.0007934220895922
            ]
        },
        {
            "positions": [
                -0.5156503516801834,
                -1.4912869208659054,
                2.04098107130037,
                -1.2362025686816274,
                0.7330759244947862,
                -1.1934925446980633
            ]
        },
        {
            "positions": [
                -0.4653822790352866,
                -1.4574564529883667,
                2.051092532668715,
                -1.2064537976318783,
                0.6632819498862677,
                -1.3861916673065353
            ]
        },
        {
            "positions": [
                -0.41511420639039,
                -1.4236259851108282,
                2.06120399403706,
                -1.1767050265821293,
                0.5934879752777493,
                -1.5788907899150064
            ]
        },
        {
            "positions": [
                -0.36484613374549313,
                -1.3897955172332894,
                2.071315455405405,
                -1.1469562555323802,
                0.5236940006692308,
                -1.771589912523478
            ]
        },
        {
            "positions": [
                -0.3145780611005964,
                -1.355965049355751,
                2.0814269167737502,
                -1.1172074844826312,
                0.4539000260607122,
                -1.9642890351319495
            ]
        },
        {
            "positions": [
                -0.26430998845569975,
                -1.3221345814782124,
                2.0915383781420953,
                -1.0874587134328824,
                0.3841060514521937,
                -2.156988157740421
            ]
        },
        {
            "positions": [
                -0.214041915810803,
                -1.2883041136006737,
                2.101649839510441,
                -1.0577099423831333,
                0.3143120768436751,
                -2.349687280348893
            ]
        },
        {
            "positions": [
                -0.16377384316590637,
                -1.254473645723135,
                2.111761300878786,
                -1.0279611713333843,
                0.2445181022351568,
                -2.542386402957364
            ]
        },
        {
            "positions": [
                -0.11350577052100953,
                -1.2206431778455964,
                2.121872762247131,
                -0.9982124002836352,
                0.17472412762663816,
                -2.735085525565835
            ]
        },
        {
            "positions": [
                -0.03477411634399273,
                -1.1963732336206827,
                2.0767910874625914,
                -0.9466123715627517,
                0.16273463871851826,
                -2.868177746930255
            ]
        },
        {
            "positions": [
                0.04395753783302407,
                -1.1721032893957692,
                2.0317094126780515,
                -0.895012342841868,
                0.15074514981039833,
                -3.0012699682946757
            ]
        },
        {
            "positions": [
                0.12268919201004089,
                -1.1478333451708556,
                1.986627737893512,
                -0.8434123141209845,
                0.13875566090227842,
                -3.134362189659096
            ]
        }
    ]
}