{
    "goal": {
        "global_pose": {
            "orientation": {
                "w": 0.5084816217422485,
                "x": -0.49083608388900757,
                "y": 0.5182115435600281,
                "z": -0.4816462993621826
            },
            "position": {
                "x": 0.5540239810943604,
                "y": 0.030875300988554955,
                "z": 0.16403168439865112
            }
        },
        "name": "move_to_storage_A"
    },
    "id": "STRIDE_move_to_storage_A_147",
    "joint_names": [
        "shoulder_pan_joint",
        "shoulder_lift_joint",
        "elbow_joint",
        "wrist_1_joint",
        "wrist_2_joint",
        "wrist_3_joint"
    ],
    "metrics": {
        "cart_traj_len": 0.3538937710199342,
        "distance_elbow_joint": 0.4488050028479744,
        "distance_shoulder_lift_joint": 0.23476042447089407,
        "distance_shoulder_pan_joint": 0.4601337873576741,
        "distance_wrist_1_joint": 0.2348762232924323,
        "distance_wrist_2_joint": 1.1120137735472575,
        "distance_wrist_3_joint": 0.09006080957107532,
        "smoothness": 2.2204460668324854e-16,
        "time": 0.10132279899999999,
        "traj_len": 1.6064401704038989,
        "weighted_distance": 2.026736696531927
    },
    "planner": "STRIDE",
    "start": {
        "state": {
            "elbow_joint": 1.9715477243005601,
            "shoulder_lift_joint": -1.1394853015351272,
            "shoulder_pan_joint": 0.12281154014795169,
            "wrist_1_joint": -0.7804696478968182,
            "wrist_2_joint": 0.12958648046900423,
            "wrist_3_joint": -3.192491284697111
        }
    },
    "waypoints": [
        {
            "positions": [
                0.12281154014795169,
                -1.1394853015351272,
                1.9715477243005601,
                -0.7804696478968182,
                0.12958648046900423,
                -3.192491284697111
            ]
        },
        {
            "positions": [
                0.057078141953998254,
                -1.1730225050309693,
                2.0356627247074135,
                -0.8140233940814513,
                0.2884455909757553,
                -3.179625454758386
            ]
        },
        {
            "positions": [
                -0.00865525623995518,
                -1.2065597085268112,
                2.0997777251142673,
                -0.8475771402660845,
                0.44730470148250634,
                -3.1667596248196612
            ]
        },
        {
            "positions": [
                -0.07438865443390862,
                -1.2400969120226533,
                2.1638927255211207,
                -0.8811308864507177,
                0.6061638119892574,
                -3.1538937948809362
            ]
        },
        {
            "positions": [
                -0.14012205262786204,
                -1.2736341155184951,
                2.228007725927974,
                -0.9146846326353509,
                0.7650229224960085,
                -3.141027964942211
            ]
        },
        {
            "positions": [
                -0.2058554508218155,
                -1.3071713190143373,
                2.292122726334828,
                -0.9482383788199841,
                0.9238820330027596,
                -3.128162135003486
            ]
        },
        {
            "positions": [
                -0.2715888490157689,
                -1.3407085225101791,
                2.356237726741681,
                -0.9817921250046173,
                1.0827411435095105,
                -3.115296305064761
            ]
        },
        {
            "positions": [
                -0.33732224720972237,
                -1.3742457260060212,
                2.4203527271485346,
                -1.0153458711892505,
                1.2416002540162618,
                -3.102430475126036
            ]
        }
    ]
}