{
    "goal": {
        "global_pose": {
            "orientation": {
                "w": 0.7047431468963623,
                "x": -0.7094548344612122,
                "y": 0.0024358443915843964,
                "z": -0.0022348060738295317
            },
            "position": {
                "x": 0.6094750761985779,
                "y": 0.3671506643295288,
                "z": 0.19426114857196808
            }
        },
        "name": "move_to_magneteinheit_A"
    },
    "id": "STRIDE_move_to_magneteinheit_A_41",
    "joint_names": [
        "shoulder_pan_joint",
        "shoulder_lift_joint",
        "elbow_joint",
        "wrist_1_joint",
        "wrist_2_joint",
        "wrist_3_joint"
    ],
    "metrics": {
        "cart_traj_len": 3.214410938323385,
        "distance_elbow_joint": 3.9382230596413046,
        "distance_shoulder_lift_joint": 0.4963545716560924,
        "distance_shoulder_pan_joint": 2.9500510036528906,
        "distance_wrist_1_joint": 3.569280472565098,
        "distance_wrist_2_joint": 1.848725244722957,
        "distance_wrist_3_joint": 1.112308552739377,
        "smoothness": 0.2297409491578486,
        "time": 0.135017519,
        "traj_len": 3.7302738378003455,
        "weighted_distance": 4.643012570276386
    },
    "planner": "STRIDE",
    "start": {
        "state": {
            "elbow_joint": -1.919618573717145,
            "shoulder_lift_joint": -1.2443395971678275,
            "shoulder_pan_joint": 2.6996025300909787,
            "wrist_1_joint": -1.548550951253194,
            "wrist_2_joint": -1.5709469090946802,
            "wrist_3_joint": 0.4420197732051276
        }
    },
    "waypoints": [
        {
            "positions": [
                2.6996025300909787,
                -1.2443395971678275,
                -1.919618573717145,
                -1.548550951253194,
                -1.5709469090946802,
                0.4420197732051276
            ]
        },
        {
            "positions": [
                2.59945389962628,
                -1.2450790629537478,
                -1.8099555920852837,
                -1.4655036804450026,
                -1.5130614203679238,
                0.4111007233140143
            ]
        },
        {
            "positions": [
                2.4993052691615816,
                -1.245818528739668,
                -1.7002926104534224,
                -1.382456409636811,
                -1.4551759316411674,
                0.380181673422901
            ]
        },
        {
            "positions": [
                2.399156638696883,
                -1.2465579945255882,
                -1.5906296288215613,
                -1.2994091388286195,
                -1.397290442914411,
                0.3492626235317877
            ]
        },
        {
            "positions": [
                2.2990080082321844,
                -1.2472974603115086,
                -1.4809666471897,
                -1.2163618680204282,
                -1.3394049541876547,
                0.31834357364067445
            ]
        },
        {
            "positions": [
                2.1988593777674863,
                -1.248036926097429,
                -1.3713036655578388,
                -1.1333145972122367,
                -1.2815194654608981,
                0.2874245237495612
            ]
        },
        {
            "positions": [
                2.0987107473027873,
                -1.248776391883349,
                -1.2616406839259775,
                -1.0502673264040452,
                -1.2236339767341418,
                0.25650547385844785
            ]
        },
        {
            "positions": [
                1.998562116838089,
                -1.2495158576692693,
                -1.1519777022941162,
                -0.9672200555958537,
                -1.1657484880073854,
                0.22558642396733455
            ]
        },
        {
            "positions": [
                1.8984134863733906,
                -1.2502553234551896,
                -1.042314720662255,
                -0.8841727847876623,
                -1.107862999280629,
                0.19466737407622128
            ]
        },
        {
            "positions": [
                1.798264855908692,
                -1.25099478924111,
                -0.9326517390303938,
                -0.8011255139794707,
                -1.0499775105538727,
                0.16374832418510799
            ]
        },
        {
            "positions": [
                1.6981162254439934,
                -1.25173425502703,
                -0.8229887573985326,
                -0.7180782431712792,
                -0.9920920218271162,
                0.13282927429399471
            ]
        },
        {
            "positions": [
                1.5979675949792949,
                -1.2524737208129504,
                -0.7133257757666713,
                -0.6350309723630878,
                -0.9342065331003598,
                0.10191022440288139
            ]
        },
        {
            "positions": [
                1.4978189645145963,
                -1.2532131865988707,
                -0.60366279413481,
                -0.5519837015548963,
                -0.8763210443736035,
                0.07099117451176812
            ]
        },
        {
            "positions": [
                1.3976703340498977,
                -1.253952652384791,
                -0.4939998125029488,
                -0.46893643074670477,
                -0.8184355556468471,
                0.04007212462065485
            ]
        },
        {
            "positions": [
                1.2975217035851991,
                -1.2546921181707111,
                -0.3843368308710875,
                -0.38588915993851325,
                -0.7605500669200906,
                0.009153074729541522
            ]
        },
        {
            "positions": [
                1.1973730731205006,
                -1.2554315839566315,
                -0.2746738492392262,
                -0.30284188913032173,
                -0.7026645781933342,
                -0.021765975161571804
            ]
        },
        {
            "positions": [
                1.0972244426558022,
                -1.2561710497425518,
                -0.16501086760736516,
                -0.21979461832213043,
                -0.6447790894665779,
                -0.05268502505268502
            ]
        },
        {
            "positions": [
                0.9970758121911034,
                -1.256910515528472,
                -0.05534788597550366,
                -0.1367473475139387,
                -0.5868936007398214,
                -0.08360407494379835
            ]
        },
        {
            "positions": [
                0.8969271817264051,
                -1.2576499813143922,
                0.05431509565635739,
                -0.05370007670574739,
                -0.5290081120130652,
                -0.11452312483491162
            ]
        },
        {
            "positions": [
                0.7967785512617065,
                -1.2583894471003125,
                0.1639780772882189,
                0.02934719410244413,
                -0.4711226232863086,
                -0.145442174726025
            ]
        },
        {
            "positions": [
                0.6966299207970081,
                -1.2591289128862329,
                0.2736410589200797,
                0.11239446491063565,
                -0.41323713455955224,
                -0.17636122461713816
            ]
        },
        {
            "positions": [
                0.5964812903323091,
                -1.2598683786721532,
                0.38330404055194145,
                0.19544173571882717,
                -0.3553516458327959,
                -0.20728027450825154
            ]
        },
        {
            "positions": [
                0.496332659867611,
                -1.2606078444580733,
                0.4929670221838023,
                0.27848900652701847,
                -0.2974661571060395,
                -0.2381993243993648
            ]
        },
        {
            "positions": [
                0.3961840294029124,
                -1.2613473102439936,
                0.6026300038156636,
                0.3615362773352102,
                -0.23958066837928316,
                -0.2691183742904781
            ]
        },
        {
            "positions": [
                0.29603539893821385,
                -1.262086776029914,
                0.7122929854475248,
                0.4445835481434015,
                -0.1816951796525268,
                -0.30003742418159135
            ]
        },
        {
            "positions": [
                0.19588676847351527,
                -1.2628262418158342,
                0.8219559670793861,
                0.527630818951593,
                -0.12380969092577021,
                -0.33095647407270473
            ]
        },
        {
            "positions": [
                0.0957381380088167,
                -1.2635657076017544,
                0.9316189487112474,
                0.6106780897597845,
                -0.06592420219901407,
                -0.3618755239638179
            ]
        },
        {
            "positions": [
                -0.004410492455881786,
                -1.2643051733876747,
                1.0412819303431087,
                0.6937253605679758,
                -0.008038713472257406,
                -0.39279457385493133
            ]
        },
        {
            "positions": [
                -0.012862045814678197,
                -1.2147264477568696,
                1.1444696876545506,
                0.8561475474574685,
                -0.0367450973157457,
                -0.3618538392972479
            ]
        },
        {
            "positions": [
                -0.02131359917347461,
                -1.1651477221260647,
                1.2476574449659927,
                1.018569734346961,
                -0.06545148115923399,
                -0.3309131047395645
            ]
        },
        {
            "positions": [
                -0.029765152532271022,
                -1.1155689964952595,
                1.3508452022774347,
                1.1809919212364537,
                -0.09415786500272227,
                -0.299972370181881
            ]
        },
        {
            "positions": [
                -0.03821670589106743,
                -1.0659902708644544,
                1.4540329595888766,
                1.3434141081259465,
                -0.12286424884621057,
                -0.2690316356241976
            ]
        },
        {
            "positions": [
                -0.04666825924986385,
                -1.0164115452336493,
                1.5572207169003187,
                1.5058362950154391,
                -0.15157063268969886,
                -0.23809090106651412
            ]
        },
        {
            "positions": [
                -0.05511981260866026,
                -0.9668328196028444,
                1.6604084742117609,
                1.6682584819049318,
                -0.18027701653318715,
                -0.2071501665088307
            ]
        },
        {
            "positions": [
                -0.06357136596745668,
                -0.9172540939720393,
                1.7635962315232028,
                1.8306806687944244,
                -0.20898340037667545,
                -0.17620943195114724
            ]
        },
        {
            "positions": [
                -0.0012789967693051657,
                -0.8741414552985026,
                1.848598982990188,
                1.8940302863002512,
                -0.18069261297796985,
                -0.1559064106926359
            ]
        },
        {
            "positions": [
                0.061013372428846344,
                -0.8310288166249661,
                1.9336017344571736,
                1.9573799038060777,
                -0.15240182557926424,
                -0.13560338943412453
            ]
        },
        {
            "positions": [
                0.12330574162699784,
                -0.7879161779514294,
                2.018604485924159,
                2.0207295213119045,
                -0.12411103818055863,
                -0.11530036817561318
            ]
        }
    ]
}{
    "goal": {
        "global_pose": {
            "orientation": {
                "w": 0.7047431468963623,
                "x": -0.7094548344612122,
                "y": 0.0024358443915843964,
                "z": -0.0022348060738295317
            },
            "position": {
                "x": 0.6094750761985779,
                "y": 0.3671506643295288,
                "z": 0.19426114857196808
            }
        },
        "name": "move_to_magneteinheit_A"
    },
    "id": "STRIDE_move_to_magneteinheit_A_41",
    "joint_names": [
        "shoulder_pan_joint",
        "shoulder_lift_joint",
        "elbow_joint",
        "wrist_1_joint",
        "wrist_2_joint",
        "wrist_3_joint"
    ],
    "metrics": {
        "cart_traj_len": 1.481171330262883,
        "distance_elbow_joint": 1.4688823003567635,
        "distance_shoulder_lift_joint": 0.7567284999476873,
        "distance_shoulder_pan_joint": 1.2418998077066818,
        "distance_wrist_1_joint": 0.8019730764236649,
        "distance_wrist_2_joint": 1.4412986672720236,
        "distance_wrist_3_joint": 4.30447132212529,
        "smoothness": 0.11030717882490437,
        "time": 0.16706391,
        "traj_len": 3.1646885587419358,
        "weighted_distance": 4.568092387614155
    },
    "planner": "STRIDE",
    "start": {
        "state": {
            "elbow_joint": 1.919643534880228,
            "shoulder_lift_joint": -1.8972525353963687,
            "shoulder_pan_joint": -1.1188672234189438,
            "wrist_1_joint": -1.5931878212786155,
            "wrist_2_joint": 1.5706036197970081,
            "wrist_3_joint": 1.118896926603594
        }
    },
    "waypoints": [
        {
            "positions": [
                -1.1188672234189438,
                -1.8972525353963687,
                1.919643534880228,
                -1.5931878212786155,
                1.5706036197970081,
                1.118896926603594
            ]
        },
        {
            "positions": [
                -1.0824567163183738,
                -1.874559598332479,
                1.8842718612485563,
                -1.5532289720429358,
                1.51653769907832,
                0.9228823291405631
            ]
        },
        {
            "positions": [
                -1.0460462092178038,
                -1.8518666612685895,
                1.8489001876168845,
                -1.513270122807256,
                1.4624717783596315,
                0.7268677316775323
            ]
        },
        {
            "positions": [
                -1.0096357021172337,
                -1.8291737242046997,
                1.8135285139852126,
                -1.473311273571576,
                1.4084058576409433,
                0.5308531342145015
            ]
        },
        {
            "positions": [
                -0.9732251950166636,
                -1.80648078714081,
                1.7781568403535408,
                -1.4333524243358964,
                1.3543399369222549,
                0.3348385367514706
            ]
        },
        {
            "positions": [
                -0.9368146879160936,
                -1.7837878500769204,
                1.742785166721869,
                -1.3933935751002167,
                1.3002740162035666,
                0.13882393928843983
            ]
        },
        {
            "positions": [
                -0.9004041808155235,
                -1.7610949130130307,
                1.7074134930901972,
                -1.353434725864537,
                1.2462080954848782,
                -0.0571906581745909
            ]
        },
        {
            "positions": [
                -0.8639936737149534,
                -1.7384019759491411,
                1.6720418194585254,
                -1.3134758766288572,
                1.19214217476619,
                -0.25320525563762164
            ]
        },
        {
            "positions": [
                -0.8275831666143834,
                -1.7157090388852514,
                1.6366701458268536,
                -1.2735170273931773,
                1.1380762540475016,
                -0.4492198531006528
            ]
        },
        {
            "positions": [
                -0.7911726595138133,
                -1.6930161018213616,
                1.601298472195182,
                -1.2335581781574976,
                1.0840103333288134,
                -0.6452344505636836
            ]
        },
        {
            "positions": [
                -0.7547621524132433,
                -1.670323164757472,
                1.5659267985635101,
                -1.1935993289218179,
                1.0299444126101251,
                -0.8412490480267143
            ]
        },
        {
            "positions": [
                -0.7183516453126733,
                -1.6476302276935824,
                1.5305551249318383,
                -1.1536404796861381,
                0.9758784918914367,
                -1.0372636454897453
            ]
        },
        {
            "positions": [
                -0.6819411382121032,
                -1.6249372906296926,
                1.4951834513001665,
                -1.1136816304504584,
                0.9218125711727484,
                -1.2332782429527758
            ]
        },
        {
            "positions": [
                -0.6455306311115332,
                -1.602244353565803,
                1.4598117776684947,
                -1.0737227812147787,
                0.8677466504540601,
                -1.4292928404158067
            ]
        },
        {
            "positions": [
                -0.609120124010963,
                -1.5795514165019133,
                1.4244401040368229,
                -1.0337639319790988,
                0.8136807297353719,
                -1.6253074378788372
            ]
        },
        {
            "positions": [
                -0.572709616910393,
                -1.5568584794380236,
                1.389068430405151,
                -0.993805082743419,
                0.7596148090166834,
                -1.8213220353418687
            ]
        },
        {
            "positions": [
                -0.536299109809823,
                -1.5341655423741338,
                1.3536967567734792,
                -0.9538462335077392,
                0.7055488882979951,
                -2.0173366328048994
            ]
        },
        {
            "positions": [
                -0.49988860270925295,
                -1.5114726053102443,
                1.3183250831418074,
                -0.9138873842720595,
                0.6514829675793069,
                -2.2133512302679303
            ]
        },
        {
            "positions": [
                -0.4634780956086828,
                -1.4887796682463545,
                1.2829534095101356,
                -0.8739285350363798,
                0.5974170468606186,
                -2.4093658277309613
            ]
        },
        {
            "positions": [
                -0.42706758850811277,
                -1.466086731182465,
                1.2475817358784638,
                -0.8339696858007001,
                0.5433511261419304,
                -2.6053804251939914
            ]
        },
        {
            "positions": [
                -0.39065708140754274,
                -1.4433937941185753,
                1.212210062246792,
                -0.7940108365650203,
                0.4892852054232419,
                -2.8013950226570223
            ]
        },
        {
            "positions": [
                -0.30504213712499595,
                -1.3929155010069263,
                1.3391182002006798,
                -0.7935448212800087,
                0.4292884966068656,
                -2.865424918134468
            ]
        },
        {
            "positions": [
                -0.21942719284244916,
                -1.3424372078952773,
                1.4660263381545677,
                -0.793078805994997,
                0.36929178779048927,
                -2.9294548136119136
            ]
        },
        {
            "positions": [
                -0.13381224855990237,
                -1.2919589147836283,
                1.5929344761084556,
                -0.7926127907099854,
                0.30929507897411296,
                -2.9934847090893593
            ]
        },
        {
            "positions": [
                -0.04819730427735558,
                -1.2414806216719794,
                1.7198426140623435,
                -0.7921467754249738,
                0.24929837015773665,
                -3.057514604566805
            ]
        },
        {
            "positions": [
                0.03741764000519121,
                -1.1910023285603304,
                1.8467507520162314,
                -0.7916807601399622,
                0.18930166134136034,
                -3.1215445000442505
            ]
        },
        {
            "positions": [
                0.12303258428773796,
                -1.1405240354486814,
                1.9736588899701193,
                -0.7912147448549506,
                0.12930495252498403,
                -3.185574395521696
            ]
        }
    ]
}