{
    "goal": {
        "global_pose": {
            "orientation": {
                "w": 0.5084816217422485,
                "x": -0.49083608388900757,
                "y": 0.5182115435600281,
                "z": -0.4816462993621826
            },
            "position": {
                "x": 0.5540239810943604,
                "y": 0.030875300988554955,
                "z": 0.16403168439865112
            }
        },
        "name": "move_to_storage_A"
    },
    "id": "STRIDE_move_to_storage_A_55",
    "joint_names": [
        "shoulder_pan_joint",
        "shoulder_lift_joint",
        "elbow_joint",
        "wrist_1_joint",
        "wrist_2_joint",
        "wrist_3_joint"
    ],
    "metrics": {
        "cart_traj_len": 0.35272227108158394,
        "distance_elbow_joint": 0.44995678999770794,
        "distance_shoulder_lift_joint": 0.23501685006110762,
        "distance_shoulder_pan_joint": 0.45925961885626093,
        "distance_wrist_1_joint": 0.2448075930401531,
        "distance_wrist_2_joint": 1.1066892627460057,
        "distance_wrist_3_joint": 0.10709009039766659,
        "smoothness": 6.661338165333112e-16,
        "time": 0.051821336999999995,
        "traj_len": 1.6133258211219772,
        "weighted_distance": 2.0416898005525703
    },
    "planner": "STRIDE",
    "start": {
        "state": {
            "elbow_joint": 1.9715477243005601,
            "shoulder_lift_joint": -1.1394853015351272,
            "shoulder_pan_joint": 0.12281154014795169,
            "wrist_1_joint": -0.7804696478968182,
            "wrist_2_joint": 0.12958648046900423,
            "wrist_3_joint": -3.192491284697111
        }
    },
    "waypoints": [
        {
            "positions": [
                0.12281154014795169,
                -1.1394853015351272,
                1.9715477243005601,
                -0.7804696478968182,
                0.12958648046900423,
                -3.192491284697111
            ]
        },
        {
            "positions": [
                0.05720302316848584,
                -1.1730591372581425,
                2.035827265728804,
                -0.8154421611882686,
                0.2876849465755764,
                -3.1771927003545875
            ]
        },
        {
            "positions": [
                -0.008405493810980005,
                -1.206632972981158,
                2.100106807157048,
                -0.8504146744797191,
                0.44578341268214866,
                -3.1618941160120637
            ]
        },
        {
            "positions": [
                -0.07401401079044585,
                -1.2402068087041733,
                2.164386348585292,
                -0.8853871877711694,
                0.6038818787887209,
                -3.14659553166954
            ]
        },
        {
            "positions": [
                -0.1396225277699117,
                -1.2737806444271886,
                2.228665890013536,
                -0.9203597010626199,
                0.7619803448952931,
                -3.131296947327016
            ]
        },
        {
            "positions": [
                -0.20523104474937753,
                -1.3073544801502042,
                2.29294543144178,
                -0.9553322143540703,
                0.9200788110018654,
                -3.115998362984492
            ]
        },
        {
            "positions": [
                -0.2708395617288434,
                -1.3409283158732195,
                2.357224972870024,
                -0.9903047276455208,
                1.0781772771084377,
                -3.1006997786419683
            ]
        },
        {
            "positions": [
                -0.33644807870830923,
                -1.3745021515962348,
                2.421504514298268,
                -1.0252772409369713,
                1.23627574321501,
                -3.0854011942994446
            ]
        }
    ]
}