{
    "goal": {
        "global_pose": {
            "orientation": {
                "w": 0.7047431468963623,
                "x": -0.7094548344612122,
                "y": 0.0024358443915843964,
                "z": -0.0022348060738295317
            },
            "position": {
                "x": 0.6094750761985779,
                "y": 0.3671506643295288,
                "z": 0.19426114857196808
            }
        },
        "name": "move_to_magneteinheit_A"
    },
    "id": "STRIDE_move_to_magneteinheit_A_141",
    "joint_names": [
        "shoulder_pan_joint",
        "shoulder_lift_joint",
        "elbow_joint",
        "wrist_1_joint",
        "wrist_2_joint",
        "wrist_3_joint"
    ],
    "metrics": {
        "cart_traj_len": 3.8451384140698437,
        "distance_elbow_joint": 3.914564963612115,
        "distance_shoulder_lift_joint": 0.46730793466215315,
        "distance_shoulder_pan_joint": 4.556633009282198,
        "distance_wrist_1_joint": 3.4778292837544624,
        "distance_wrist_2_joint": 1.444955632391227,
        "distance_wrist_3_joint": 0.7597182993306841,
        "smoothness": 0.19599101161626184,
        "time": 0.176702928,
        "traj_len": 3.8237428160158524,
        "weighted_distance": 4.5894695377396175
    },
    "planner": "STRIDE",
    "start": {
        "state": {
            "elbow_joint": -1.919618573717145,
            "shoulder_lift_joint": -1.2443395971678275,
            "shoulder_pan_joint": 2.6996025300909787,
            "wrist_1_joint": -1.548550951253194,
            "wrist_2_joint": -1.5709469090946802,
            "wrist_3_joint": 0.4420197732051276
        }
    },
    "waypoints": [
        {
            "positions": [
                2.6996025300909787,
                -1.2443395971678275,
                -1.919618573717145,
                -1.548550951253194,
                -1.5709469090946802,
                0.4420197732051276
            ]
        },
        {
            "positions": [
                2.5624050115788344,
                -1.2426097046516147,
                -1.8148915028300385,
                -1.4652854883090107,
                -1.5189198624296032,
                0.4478631060955208
            ]
        },
        {
            "positions": [
                2.42520749306669,
                -1.2408798121354019,
                -1.710164431942932,
                -1.3820200253648274,
                -1.466892815764526,
                0.4537064389859141
            ]
        },
        {
            "positions": [
                2.2880099745545457,
                -1.239149919619189,
                -1.6054373610558257,
                -1.298754562420644,
                -1.4148657690994488,
                0.45954977187630736
            ]
        },
        {
            "positions": [
                2.1508124560424013,
                -1.2374200271029763,
                -1.5007102901687193,
                -1.2154890994764607,
                -1.3628387224343719,
                0.46539310476670065
            ]
        },
        {
            "positions": [
                2.013614937530257,
                -1.2356901345867635,
                -1.395983219281613,
                -1.1322236365322773,
                -1.310811675769295,
                0.4712364376570939
            ]
        },
        {
            "positions": [
                1.8764174190181127,
                -1.2339602420705507,
                -1.2912561483945066,
                -1.048958173588094,
                -1.2587846291042177,
                0.4770797705474872
            ]
        },
        {
            "positions": [
                1.7392199005059688,
                -1.2322303495543379,
                -1.1865290775074002,
                -0.9656927106439105,
                -1.2067575824391406,
                0.4829231034378804
            ]
        },
        {
            "positions": [
                1.6020223819938242,
                -1.230500457038125,
                -1.0818020066202938,
                -0.882427247699727,
                -1.1547305357740636,
                0.48876643632827366
            ]
        },
        {
            "positions": [
                1.46482486348168,
                -1.2287705645219122,
                -0.9770749357331874,
                -0.7991617847555438,
                -1.1027034891089866,
                0.49460976921866695
            ]
        },
        {
            "positions": [
                1.3276273449695355,
                -1.2270406720056994,
                -0.872347864846081,
                -0.7158963218113603,
                -1.0506764424439095,
                0.5004531021090602
            ]
        },
        {
            "positions": [
                1.1904298264573914,
                -1.2253107794894866,
                -0.7676207939589745,
                -0.632630858867177,
                -0.9986493957788324,
                0.5062964349994534
            ]
        },
        {
            "positions": [
                1.0532323079452468,
                -1.2235808869732738,
                -0.6628937230718681,
                -0.5493653959229936,
                -0.9466223491137553,
                0.5121397678898467
            ]
        },
        {
            "positions": [
                0.9160347894331027,
                -1.221850994457061,
                -0.5581666521847617,
                -0.46609993297881025,
                -0.8945953024486782,
                0.51798310078024
            ]
        },
        {
            "positions": [
                0.7788372709209586,
                -1.2201211019408484,
                -0.45343958129765527,
                -0.3828344700346269,
                -0.8425682557836012,
                0.5238264336706332
            ]
        },
        {
            "positions": [
                0.6416397524088144,
                -1.2183912094246356,
                -0.34871251041054907,
                -0.29956900709044354,
                -0.7905412091185242,
                0.5296697665610265
            ]
        },
        {
            "positions": [
                0.5044422338966696,
                -1.2166613169084228,
                -0.24398543952344243,
                -0.21630354414625996,
                -0.738514162453447,
                0.5355130994514198
            ]
        },
        {
            "positions": [
                0.3672447153845253,
                -1.21493142439221,
                -0.139258368636336,
                -0.13303808120207683,
                -0.68648711578837,
                0.5413564323418131
            ]
        },
        {
            "positions": [
                0.2300471968723814,
                -1.2132015318759972,
                -0.034531297749229806,
                -0.049772618257893475,
                -0.6344600691232929,
                0.5471997652322063
            ]
        },
        {
            "positions": [
                0.09284967836023705,
                -1.2114716393597844,
                0.07019577313787662,
                0.03349284468628988,
                -0.5824330224582159,
                0.5530430981225996
            ]
        },
        {
            "positions": [
                -0.044347840151907736,
                -1.2097417468435716,
                0.17492284402498304,
                0.11675830763047346,
                -0.5304059757931388,
                0.5588864310129928
            ]
        },
        {
            "positions": [
                -0.18154535866405208,
                -1.2080118543273588,
                0.27964991491208946,
                0.2000237705746568,
                -0.47837892912806157,
                0.5647297639033861
            ]
        },
        {
            "positions": [
                -0.318742877176196,
                -1.206281961811146,
                0.3843769857991959,
                0.28328923351884017,
                -0.4263518824629846,
                0.5705730967937793
            ]
        },
        {
            "positions": [
                -0.4559403956883403,
                -1.2045520692949332,
                0.4891040566863023,
                0.3665546964630233,
                -0.37432483579790765,
                0.5764164296841726
            ]
        },
        {
            "positions": [
                -0.5931379142004851,
                -1.2028221767787204,
                0.5938311275734087,
                0.4498201594072069,
                -0.32229778913283047,
                0.5822597625745659
            ]
        },
        {
            "positions": [
                -0.730335432712629,
                -1.2010922842625076,
                0.6985581984605151,
                0.5330856223513902,
                -0.2702707424677533,
                0.5881030954649591
            ]
        },
        {
            "positions": [
                -0.8675329512247736,
                -1.1993623917462948,
                0.8032852693476216,
                0.6163510852955735,
                -0.21824369580267625,
                0.5939464283553524
            ]
        },
        {
            "positions": [
                -0.7850748238942362,
                -1.1641681643095765,
                0.9025903627265672,
                0.7257616892293813,
                -0.21055599421107427,
                0.5432971246736474
            ]
        },
        {
            "positions": [
                -0.7026166965636989,
                -1.128973936872858,
                1.001895456105513,
                0.8351722931631893,
                -0.20286829261947226,
                0.4926478209919425
            ]
        },
        {
            "positions": [
                -0.6201585692331616,
                -1.0937797094361397,
                1.1012005494844586,
                0.9445828970969972,
                -0.19518059102787028,
                0.44199851731023754
            ]
        },
        {
            "positions": [
                -0.5377004419026242,
                -1.0585854819994214,
                1.2005056428634042,
                1.053993501030805,
                -0.1874928894362683,
                0.39134921362853264
            ]
        },
        {
            "positions": [
                -0.45524231457208686,
                -1.0233912545627029,
                1.29981073624235,
                1.1634041049646129,
                -0.1798051878446663,
                0.3406999099468277
            ]
        },
        {
            "positions": [
                -0.37278418724154955,
                -0.9881970271259846,
                1.3991158296212958,
                1.2728147088984207,
                -0.1721174862530643,
                0.29005060626512275
            ]
        },
        {
            "positions": [
                -0.2903260599110121,
                -0.9530027996892662,
                1.4984209230002414,
                1.3822253128322288,
                -0.1644297846614623,
                0.2394013025834178
            ]
        },
        {
            "positions": [
                -0.20786793258047487,
                -0.9178085722525479,
                1.597726016379187,
                1.4916359167660365,
                -0.15674208306986032,
                0.1887519989017129
            ]
        },
        {
            "positions": [
                -0.1254098052499375,
                -0.8826143448158295,
                1.6970311097581328,
                1.6010465206998445,
                -0.14905438147825834,
                0.13810269522000795
            ]
        },
        {
            "positions": [
                -0.04295167791940013,
                -0.847420117379111,
                1.7963362031370784,
                1.7104571246336526,
                -0.14136667988665635,
                0.087453391538303
            ]
        },
        {
            "positions": [
                0.03950644941113712,
                -0.8122258899423928,
                1.895641296516024,
                1.8198677285674605,
                -0.13367897829505437,
                0.036804087856598056
            ]
        },
        {
            "positions": [
                0.1219645767416745,
                -0.7770316625056743,
                1.9949463898949698,
                1.9292783325012683,
                -0.12599127670345237,
                -0.013845215825106894
            ]
        }
    ]
}{
    "goal": {
        "global_pose": {
            "orientation": {
                "w": 0.7047431468963623,
                "x": -0.7094548344612122,
                "y": 0.0024358443915843964,
                "z": -0.0022348060738295317
            },
            "position": {
                "x": 0.6094750761985779,
                "y": 0.3671506643295288,
                "z": 0.19426114857196808
            }
        },
        "name": "move_to_magneteinheit_A"
    },
    "id": "STRIDE_move_to_magneteinheit_A_141",
    "joint_names": [
        "shoulder_pan_joint",
        "shoulder_lift_joint",
        "elbow_joint",
        "wrist_1_joint",
        "wrist_2_joint",
        "wrist_3_joint"
    ],
    "metrics": {
        "cart_traj_len": 1.228817865242551,
        "distance_elbow_joint": 0.1093521266395987,
        "distance_shoulder_lift_joint": 0.7638281714469688,
        "distance_shoulder_pan_joint": 1.2423722818270864,
        "distance_wrist_1_joint": 2.2873018140230714,
        "distance_wrist_2_joint": 2.3781810302907274,
        "distance_wrist_3_joint": 4.341927837673797,
        "smoothness": 0.4416399628039952,
        "time": 0.125182991,
        "traj_len": 3.335110682106555,
        "weighted_distance": 4.946948734478926
    },
    "planner": "STRIDE",
    "start": {
        "state": {
            "elbow_joint": 1.919643534880228,
            "shoulder_lift_joint": -1.8972525353963687,
            "shoulder_pan_joint": -1.1188672234189438,
            "wrist_1_joint": -1.5931878212786155,
            "wrist_2_joint": 1.5706036197970081,
            "wrist_3_joint": 1.118896926603594
        }
    },
    "waypoints": [
        {
            "positions": [
                -1.1188672234189438,
                -1.8972525353963687,
                1.919643534880228,
                -1.5931878212786155,
                1.5706036197970081,
                1.118896926603594
            ]
        },
        {
            "positions": [
                -1.0724975690200576,
                -1.8762900332663845,
                1.9182027966316584,
                -1.5249716122639363,
                1.4875557756503228,
                0.9545285370002108
            ]
        },
        {
            "positions": [
                -1.0261279146211713,
                -1.8553275311364006,
                1.9167620583830887,
                -1.456755403249257,
                1.4045079315036375,
                0.7901601473968275
            ]
        },
        {
            "positions": [
                -0.9797582602222848,
                -1.8343650290064164,
                1.915321320134519,
                -1.3885391942345775,
                1.3214600873569522,
                0.6257917577934443
            ]
        },
        {
            "positions": [
                -0.9333886058233986,
                -1.8134025268764322,
                1.9138805818859492,
                -1.3203229852198983,
                1.2384122432102669,
                0.461423368190061
            ]
        },
        {
            "positions": [
                -0.8870189514245123,
                -1.7924400247464483,
                1.9124398436373795,
                -1.2521067762052192,
                1.1553643990635816,
                0.29705497858667784
            ]
        },
        {
            "positions": [
                -0.8406492970256259,
                -1.771477522616464,
                1.9109991053888098,
                -1.1838905671905398,
                1.0723165549168963,
                0.13268658898329466
            ]
        },
        {
            "positions": [
                -0.7942796426267396,
                -1.7505150204864799,
                1.90955836714024,
                -1.1156743581758604,
                0.9892687107702108,
                -0.03168180062008874
            ]
        },
        {
            "positions": [
                -0.7479099882278533,
                -1.729552518356496,
                1.9081176288916704,
                -1.0474581491611812,
                0.9062208666235255,
                -0.19605019022347192
            ]
        },
        {
            "positions": [
                -0.701540333828967,
                -1.7085900162265117,
                1.9066768906431006,
                -0.9792419401465018,
                0.8231730224768402,
                -0.3604185798268551
            ]
        },
        {
            "positions": [
                -0.6551706794300807,
                -1.6876275140965276,
                1.905236152394531,
                -0.9110257311318226,
                0.7401251783301549,
                -0.5247869694302383
            ]
        },
        {
            "positions": [
                -0.6088010250311943,
                -1.6666650119665434,
                1.9037954141459612,
                -0.8428095221171432,
                0.6570773341834696,
                -0.6891553590336217
            ]
        },
        {
            "positions": [
                -0.562431370632308,
                -1.6457025098365594,
                1.9023546758973915,
                -0.774593313102464,
                0.5740294900367843,
                -0.8535237486370046
            ]
        },
        {
            "positions": [
                -0.5160617162334217,
                -1.6247400077065752,
                1.9009139376488218,
                -0.7063771040877848,
                0.49098164589009907,
                -1.017892138240388
            ]
        },
        {
            "positions": [
                -0.46969206183453527,
                -1.603777505576591,
                1.899473199400252,
                -0.6381608950731054,
                0.40793380174341354,
                -1.1822605278437714
            ]
        },
        {
            "positions": [
                -0.423322407435649,
                -1.582815003446607,
                1.8980324611516823,
                -0.5699446860584261,
                0.3248859575967282,
                -1.3466289174471544
            ]
        },
        {
            "positions": [
                -0.3769527530367627,
                -1.561852501316623,
                1.8965917229031126,
                -0.5017284770437469,
                0.2418381134500429,
                -1.5109973070505378
            ]
        },
        {
            "positions": [
                -0.3305830986378764,
                -1.5408899991866387,
                1.895150984654543,
                -0.4335122680290675,
                0.15879026930335782,
                -1.6753656966539208
            ]
        },
        {
            "positions": [
                -0.28421344423899,
                -1.5199274970566545,
                1.8937102464059732,
                -0.3652960590143881,
                0.07574242515667229,
                -1.8397340862573042
            ]
        },
        {
            "positions": [
                -0.23784378984010368,
                -1.4989649949266706,
                1.8922695081574035,
                -0.29707984999970893,
                -0.007305418990013024,
                -2.0041024758606873
            ]
        },
        {
            "positions": [
                -0.19147413544121739,
                -1.4780024927966864,
                1.8908287699088338,
                -0.22886364098502976,
                -0.09035326313669834,
                -2.1684708654640703
            ]
        },
        {
            "positions": [
                -0.1451044810423311,
                -1.4570399906667024,
                1.889388031660264,
                -0.16064743197035036,
                -0.17340110728338343,
                -2.3328392550674533
            ]
        },
        {
            "positions": [
                -0.09873482664344468,
                -1.4360774885367182,
                1.8879472934116943,
                -0.09243122295567097,
                -0.25644895143006896,
                -2.497207644670837
            ]
        },
        {
            "positions": [
                -0.0523651722445584,
                -1.415114986406734,
                1.8865065551631246,
                -0.024215013940991792,
                -0.3394967955767544,
                -2.6615760342742205
            ]
        },
        {
            "positions": [
                -0.023053467135774865,
                -1.3681665493305117,
                1.8992090796502072,
                -0.14393651505523303,
                -0.26148335975726034,
                -2.755151847073551
            ]
        },
        {
            "positions": [
                0.0062582379730086735,
                -1.3212181122542894,
                1.9119116041372897,
                -0.26365801616947426,
                -0.18346992393776626,
                -2.8487276598728815
            ]
        },
        {
            "positions": [
                0.03556994308179222,
                -1.274269675178067,
                1.924614128624372,
                -0.38337951728371555,
                -0.10545648811827218,
                -2.9423034726722115
            ]
        },
        {
            "positions": [
                0.06488164819057575,
                -1.2273212381018446,
                1.9373166531114547,
                -0.5031010183979567,
                -0.027443052298778137,
                -3.035879285471542
            ]
        },
        {
            "positions": [
                0.09419335329935931,
                -1.1803728010256223,
                1.9500191775985374,
                -0.6228225195121981,
                0.05057038352071597,
                -3.1294550982708724
            ]
        },
        {
            "positions": [
                0.12350505840814284,
                -1.1334243639494,
                1.9627217020856198,
                -0.7425440206264393,
                0.12858381934021,
                -3.223030911070203
            ]
        }
    ]
}