{
    "goal": {
        "global_pose": {
            "orientation": {
                "w": 0.7047431468963623,
                "x": -0.7094548344612122,
                "y": 0.0024358443915843964,
                "z": -0.0022348060738295317
            },
            "position": {
                "x": 0.6094750761985779,
                "y": 0.3671506643295288,
                "z": 0.19426114857196808
            }
        },
        "name": "move_to_magneteinheit_A"
    },
    "id": "STRIDE_move_to_magneteinheit_A_80",
    "joint_names": [
        "shoulder_pan_joint",
        "shoulder_lift_joint",
        "elbow_joint",
        "wrist_1_joint",
        "wrist_2_joint",
        "wrist_3_joint"
    ],
    "metrics": {
        "cart_traj_len": 3.226696176434019,
        "distance_elbow_joint": 3.907172346853697,
        "distance_shoulder_lift_joint": 0.5210676909263662,
        "distance_shoulder_pan_joint": 3.4581527985790768,
        "distance_wrist_1_joint": 3.4517662011597317,
        "distance_wrist_2_joint": 1.4490470093763865,
        "distance_wrist_3_joint": 0.4127958276967058,
        "smoothness": 0.15475250469662502,
        "time": 0.25858932700000004,
        "traj_len": 3.633180682899209,
        "weighted_distance": 4.350449027459291
    },
    "planner": "STRIDE",
    "start": {
        "state": {
            "elbow_joint": -1.919618573717145,
            "shoulder_lift_joint": -1.2443395971678275,
            "shoulder_pan_joint": 2.6996025300909787,
            "wrist_1_joint": -1.548550951253194,
            "wrist_2_joint": -1.5709469090946802,
            "wrist_3_joint": 0.4420197732051276
        }
    },
    "waypoints": [
        {
            "positions": [
                2.6996025300909787,
                -1.2443395971678275,
                -1.919618573717145,
                -1.548550951253194,
                -1.5709469090946802,
                0.4420197732051276
            ]
        },
        {
            "positions": [
                2.587833175757433,
                -1.2452746720602257,
                -1.7854391754140373,
                -1.4518490564034017,
                -1.5267300841690354,
                0.44144503976546384
            ]
        },
        {
            "positions": [
                2.4760638214238875,
                -1.2462097469526239,
                -1.6512597771109296,
                -1.3551471615536093,
                -1.4825132592433907,
                0.4408703063258001
            ]
        },
        {
            "positions": [
                2.3642944670903416,
                -1.247144821845022,
                -1.517080378807822,
                -1.2584452667038168,
                -1.438296434317746,
                0.4402955728861364
            ]
        },
        {
            "positions": [
                2.2525251127567962,
                -1.2480798967374203,
                -1.382900980504714,
                -1.1617433718540242,
                -1.3940796093921013,
                0.43972083944647267
            ]
        },
        {
            "positions": [
                2.1407557584232504,
                -1.2490149716298184,
                -1.2487215822016065,
                -1.0650414770042318,
                -1.3498627844664566,
                0.4391461060068089
            ]
        },
        {
            "positions": [
                2.0289864040897045,
                -1.2499500465222166,
                -1.1145421838984988,
                -0.9683395821544394,
                -1.3056459595408119,
                0.4385713725671452
            ]
        },
        {
            "positions": [
                1.9172170497561591,
                -1.2508851214146148,
                -0.9803627855953911,
                -0.8716376873046469,
                -1.2614291346151671,
                0.43799663912748144
            ]
        },
        {
            "positions": [
                1.8054476954226133,
                -1.251820196307013,
                -0.8461833872922835,
                -0.7749357924548544,
                -1.2172123096895224,
                0.4374219056878177
            ]
        },
        {
            "positions": [
                1.693678341089068,
                -1.2527552711994112,
                -0.7120039889891758,
                -0.6782338976050619,
                -1.1729954847638777,
                0.436847172248154
            ]
        },
        {
            "positions": [
                1.581908986755522,
                -1.2536903460918094,
                -0.577824590686068,
                -0.5815320027552695,
                -1.1287786598382328,
                0.43627243880849026
            ]
        },
        {
            "positions": [
                1.4701396324219764,
                -1.2546254209842076,
                -0.4436451923829603,
                -0.4848301079054771,
                -1.084561834912588,
                0.4356977053688265
            ]
        },
        {
            "positions": [
                1.3583702780884308,
                -1.2555604958766058,
                -0.30946579407985264,
                -0.3881282130556847,
                -1.0403450099869433,
                0.43512297192916277
            ]
        },
        {
            "positions": [
                1.2466009237548852,
                -1.256495570769004,
                -0.17528639577674499,
                -0.29142631820589204,
                -0.9961281850612986,
                0.43454823848949903
            ]
        },
        {
            "positions": [
                1.1348315694213396,
                -1.257430645661402,
                -0.04110699747363733,
                -0.19472442335609963,
                -0.9519113601356539,
                0.43397350504983534
            ]
        },
        {
            "positions": [
                1.0230622150877937,
                -1.2583657205538001,
                0.09307240082947055,
                -0.098022528506307,
                -0.9076945352100092,
                0.4333987716101716
            ]
        },
        {
            "positions": [
                0.9112928607542481,
                -1.2593007954461983,
                0.22725179913257798,
                -0.0013206336565148025,
                -0.8634777102843645,
                0.43282403817050785
            ]
        },
        {
            "positions": [
                0.7995235064207025,
                -1.2602358703385965,
                0.36143119743568586,
                0.09538126119327783,
                -0.8192608853587197,
                0.4322493047308441
            ]
        },
        {
            "positions": [
                0.6877541520871571,
                -1.2611709452309947,
                0.4956105957387933,
                0.19208315604307025,
                -0.775044060433075,
                0.43167457129118036
            ]
        },
        {
            "positions": [
                0.5759847977536112,
                -1.262106020123393,
                0.6297899940419012,
                0.28878505089286266,
                -0.7308272355074302,
                0.4310998378515166
            ]
        },
        {
            "positions": [
                0.4642154434200654,
                -1.263041095015791,
                0.763969392345009,
                0.3854869457426551,
                -0.6866104105817855,
                0.43052510441185293
            ]
        },
        {
            "positions": [
                0.35244608908651953,
                -1.2639761699081893,
                0.8981487906481169,
                0.4821888405924475,
                -0.6423935856561408,
                0.4299503709721892
            ]
        },
        {
            "positions": [
                0.24067673475297413,
                -1.2649112448005875,
                1.0323281889512244,
                0.5788907354422399,
                -0.5981767607304961,
                0.42937563753252544
            ]
        },
        {
            "positions": [
                0.12890738041942829,
                -1.2658463196929857,
                1.1665075872543322,
                0.6755926302920328,
                -0.5539599358048513,
                0.4288009040928617
            ]
        },
        {
            "positions": [
                0.017138026085882885,
                -1.2667813945853839,
                1.3006869855574397,
                0.7722945251418247,
                -0.5097431108792065,
                0.42822617065319796
            ]
        },
        {
            "positions": [
                -0.09463132824766296,
                -1.267716469477782,
                1.4348663838605475,
                0.8689964199916176,
                -0.4655262859535618,
                0.42765143721353427
            ]
        },
        {
            "positions": [
                -0.20640068258120836,
                -1.2686515443701802,
                1.569045782163655,
                0.96569831484141,
                -0.4213094610279171,
                0.4270767037738705
            ]
        },
        {
            "positions": [
                -0.3181700369147543,
                -1.2695866192625784,
                1.7032251804667626,
                1.0624002096912024,
                -0.3770926361022725,
                0.4265019703342068
            ]
        },
        {
            "positions": [
                -0.2552585752614195,
                -1.1987550951437762,
                1.7438435508481611,
                1.1825166440076789,
                -0.34063653090456125,
                0.3697479667876661
            ]
        },
        {
            "positions": [
                -0.19234711360808462,
                -1.127923571024974,
                1.7844619212295594,
                1.3026330783241553,
                -0.30418042570685005,
                0.3129939632411254
            ]
        },
        {
            "positions": [
                -0.1294356519547498,
                -1.057092046906172,
                1.8250802916109579,
                1.4227495126406318,
                -0.26772432050913886,
                0.2562399596945847
            ]
        },
        {
            "positions": [
                -0.06652419030141493,
                -0.9862605227873698,
                1.8656986619923563,
                1.542865946957108,
                -0.2312682153114276,
                0.19948595614804393
            ]
        },
        {
            "positions": [
                -0.0036127286480800436,
                -0.9154289986685675,
                1.9063170323737548,
                1.6629823812735847,
                -0.19481211011371635,
                0.14273195260150318
            ]
        },
        {
            "positions": [
                0.05929873300525473,
                -0.8445974745497654,
                1.946935402755153,
                1.783098815590061,
                -0.15835600491600516,
                0.08597794905496253
            ]
        },
        {
            "positions": [
                0.12221019465858964,
                -0.7737659504309632,
                1.9875537731365516,
                1.9032152499065373,
                -0.12189989971829389,
                0.029223945508421778
            ]
        }
    ]
}{
    "goal": {
        "global_pose": {
            "orientation": {
                "w": 0.7047431468963623,
                "x": -0.7094548344612122,
                "y": 0.0024358443915843964,
                "z": -0.0022348060738295317
            },
            "position": {
                "x": 0.6094750761985779,
                "y": 0.3671506643295288,
                "z": 0.19426114857196808
            }
        },
        "name": "move_to_magneteinheit_A"
    },
    "id": "STRIDE_move_to_magneteinheit_A_80",
    "joint_names": [
        "shoulder_pan_joint",
        "shoulder_lift_joint",
        "elbow_joint",
        "wrist_1_joint",
        "wrist_2_joint",
        "wrist_3_joint"
    ],
    "metrics": {
        "cart_traj_len": 1.2168499734973206,
        "distance_elbow_joint": 0.04033555683007961,
        "distance_shoulder_lift_joint": 0.767055741239961,
        "distance_shoulder_pan_joint": 1.2407538181764917,
        "distance_wrist_1_joint": 0.9256304714791665,
        "distance_wrist_2_joint": 1.447985844897246,
        "distance_wrist_3_joint": 4.367138643639053,
        "smoothness": 0.1530867258743037,
        "time": 0.13482385800000002,
        "traj_len": 2.9646079127368594,
        "weighted_distance": 4.46058221311036
    },
    "planner": "STRIDE",
    "start": {
        "state": {
            "elbow_joint": 1.919643534880228,
            "shoulder_lift_joint": -1.8972525353963687,
            "shoulder_pan_joint": -1.1188672234189438,
            "wrist_1_joint": -1.5931878212786155,
            "wrist_2_joint": 1.5706036197970081,
            "wrist_3_joint": 1.118896926603594
        }
    },
    "waypoints": [
        {
            "positions": [
                -1.1188672234189438,
                -1.8972525353963687,
                1.919643534880228,
                -1.5931878212786155,
                1.5706036197970081,
                1.118896926603594
            ]
        },
        {
            "positions": [
                -1.0631476203550672,
                -1.862719224489951,
                1.9195588300785276,
                -1.552045502823391,
                1.5050059572715027,
                0.9220097567544726
            ]
        },
        {
            "positions": [
                -1.0074280172911907,
                -1.8281859135835334,
                1.919474125276827,
                -1.5109031843681666,
                1.4394082947459972,
                0.7251225869053513
            ]
        },
        {
            "positions": [
                -0.951708414227314,
                -1.7936526026771158,
                1.9193894204751267,
                -1.4697608659129422,
                1.373810632220492,
                0.5282354170562299
            ]
        },
        {
            "positions": [
                -0.8959888111634374,
                -1.759119291770698,
                1.9193047156734262,
                -1.4286185474577178,
                1.3082129696949865,
                0.3313482472071084
            ]
        },
        {
            "positions": [
                -0.8402692080995608,
                -1.7245859808642803,
                1.9192200108717257,
                -1.3874762290024933,
                1.242615307169481,
                0.13446107735798718
            ]
        },
        {
            "positions": [
                -0.7845496050356843,
                -1.6900526699578626,
                1.9191353060700251,
                -1.346333910547269,
                1.1770176446439757,
                -0.06242609249113418
            ]
        },
        {
            "positions": [
                -0.7288300019718077,
                -1.655519359051445,
                1.9190506012683246,
                -1.3051915920920445,
                1.1114199821184703,
                -0.25931326234025565
            ]
        },
        {
            "positions": [
                -0.673110398907931,
                -1.6209860481450273,
                1.918965896466624,
                -1.26404927363682,
                1.0458223195929648,
                -0.4562004321893771
            ]
        },
        {
            "positions": [
                -0.6173907958440544,
                -1.5864527372386097,
                1.9188811916649238,
                -1.2229069551815956,
                0.9802246570674593,
                -0.6530876020384984
            ]
        },
        {
            "positions": [
                -0.5616711927801779,
                -1.551919426332192,
                1.9187964868632232,
                -1.1817646367263712,
                0.914626994541954,
                -0.8499747718876196
            ]
        },
        {
            "positions": [
                -0.5059515897163013,
                -1.5173861154257744,
                1.9187117820615227,
                -1.1406223182711468,
                0.8490293320164485,
                -1.046861941736741
            ]
        },
        {
            "positions": [
                -0.4502319866524247,
                -1.4828528045193567,
                1.9186270772598222,
                -1.0994799998159224,
                0.7834316694909431,
                -1.2437491115858623
            ]
        },
        {
            "positions": [
                -0.394512383588548,
                -1.4483194936129389,
                1.9185423724581216,
                -1.058337681360698,
                0.7178340069654376,
                -1.440636281434984
            ]
        },
        {
            "positions": [
                -0.33879278052467154,
                -1.4137861827065212,
                1.9184576676564213,
                -1.0171953629054735,
                0.6522363444399322,
                -1.6375234512841053
            ]
        },
        {
            "positions": [
                -0.28307317746079497,
                -1.3792528718001036,
                1.9183729628547208,
                -0.9760530444502491,
                0.5866386819144268,
                -1.8344106211332265
            ]
        },
        {
            "positions": [
                -0.22735357439691828,
                -1.3447195608936857,
                1.9182882580530203,
                -0.9349107259950247,
                0.5210410193889214,
                -2.0312977909823484
            ]
        },
        {
            "positions": [
                -0.1716339713330417,
                -1.3101862499872683,
                1.9182035532513197,
                -0.8937684075398002,
                0.45544335686341597,
                -2.228184960831469
            ]
        },
        {
            "positions": [
                -0.11591436826916501,
                -1.2756529390808504,
                1.9181188484496192,
                -0.8526260890845758,
                0.3898456943379105,
                -2.425072130680591
            ]
        },
        {
            "positions": [
                -0.06019476520528855,
                -1.2411196281744328,
                1.9180341436479187,
                -0.8114837706293514,
                0.324248031812405,
                -2.6219593005297117
            ]
        },
        {
            "positions": [
                -0.004475162141411859,
                -1.2065863172680151,
                1.9179494388462184,
                -0.770341452174127,
                0.2586503692868998,
                -2.8188464703788334
            ]
        },
        {
            "positions": [
                0.05124444092246483,
                -1.1720530063615975,
                1.9178647340445178,
                -0.7291991337189025,
                0.1930527067613943,
                -3.015733640227955
            ]
        },
        {
            "positions": [
                0.10696404398634128,
                -1.1375196954551798,
                1.9177800292428173,
                -0.6880568152636781,
                0.12745504423588885,
                -3.212620810077076
            ]
        },
        {
            "positions": [
                0.12188659475754782,
                -1.1301967941564077,
                1.9562520804354862,
                -0.7085562807279073,
                0.12261777489976207,
                -3.2482417170354587
            ]
        }
    ]
}