{
    "goal": {
        "global_pose": {
            "orientation": {
                "w": 0.5084816217422485,
                "x": -0.49083608388900757,
                "y": 0.5182115435600281,
                "z": -0.4816462993621826
            },
            "position": {
                "x": 0.5540239810943604,
                "y": 0.030875300988554955,
                "z": 0.16403168439865112
            }
        },
        "name": "move_to_storage_A"
    },
    "id": "STRIDE_move_to_storage_A_133",
    "joint_names": [
        "shoulder_pan_joint",
        "shoulder_lift_joint",
        "elbow_joint",
        "wrist_1_joint",
        "wrist_2_joint",
        "wrist_3_joint"
    ],
    "metrics": {
        "cart_traj_len": 0.3527770945718961,
        "distance_elbow_joint": 0.45085529946843295,
        "distance_shoulder_lift_joint": 0.23567581111862435,
        "distance_shoulder_pan_joint": 0.459152212558308,
        "distance_wrist_1_joint": 0.24877830262841016,
        "distance_wrist_2_joint": 1.1078566523630884,
        "distance_wrist_3_joint": 0.1070642818062022,
        "smoothness": 6.661338165333112e-16,
        "time": 0.105045815,
        "traj_len": 1.6153583379371481,
        "weighted_distance": 2.0445405543903914
    },
    "planner": "STRIDE",
    "start": {
        "state": {
            "elbow_joint": 1.9715477243005601,
            "shoulder_lift_joint": -1.1394853015351272,
            "shoulder_pan_joint": 0.12281154014795169,
            "wrist_1_joint": -0.7804696478968182,
            "wrist_2_joint": 0.12958648046900423,
            "wrist_3_joint": -3.192491284697111
        }
    },
    "waypoints": [
        {
            "positions": [
                0.12281154014795169,
                -1.1394853015351272,
                1.9715477243005601,
                -0.7804696478968182,
                0.12958648046900423,
                -3.192491284697111
            ]
        },
        {
            "positions": [
                0.05721836692533626,
                -1.1731532745520734,
                2.035955624224622,
                -0.8160094054151624,
                0.287851716520874,
                -3.1771963872962252
            ]
        },
        {
            "positions": [
                -0.008374806297279172,
                -1.2068212475690199,
                2.1003635241486838,
                -0.8515491629335068,
                0.44611695257274375,
                -3.1619014898953393
            ]
        },
        {
            "positions": [
                -0.0739679795198946,
                -1.2404892205859661,
                2.164771424072746,
                -0.8870889204518511,
                0.6043821886246135,
                -3.1466065924944533
            ]
        },
        {
            "positions": [
                -0.13956115274251002,
                -1.2741571936029126,
                2.2291793239968074,
                -0.9226286779701954,
                0.7626474246764833,
                -3.131311695093567
            ]
        },
        {
            "positions": [
                -0.20515432596512545,
                -1.3078251666198588,
                2.2935872239208694,
                -0.9581684354885397,
                0.9209126607283531,
                -3.116016797692681
            ]
        },
        {
            "positions": [
                -0.2707474991877409,
                -1.341493139636805,
                2.357995123844931,
                -0.9937081930068841,
                1.0791778967802228,
                -3.100721900291795
            ]
        },
        {
            "positions": [
                -0.3363406724103563,
                -1.3751611126537515,
                2.422403023768993,
                -1.0292479505252283,
                1.2374431328320925,
                -3.085427002890909
            ]
        }
    ]
}