{
    "goal": {
        "global_pose": {
            "orientation": {
                "w": 0.7047431468963623,
                "x": -0.7094548344612122,
                "y": 0.0024358443915843964,
                "z": -0.0022348060738295317
            },
            "position": {
                "x": 0.6094750761985779,
                "y": 0.3671506643295288,
                "z": 0.19426114857196808
            }
        },
        "name": "move_to_magneteinheit_A"
    },
    "id": "STRIDE_move_to_magneteinheit_A_38",
    "joint_names": [
        "shoulder_pan_joint",
        "shoulder_lift_joint",
        "elbow_joint",
        "wrist_1_joint",
        "wrist_2_joint",
        "wrist_3_joint"
    ],
    "metrics": {
        "cart_traj_len": 4.253310187900265,
        "distance_elbow_joint": 3.9104508989772686,
        "distance_shoulder_lift_joint": 1.541567405716462,
        "distance_shoulder_pan_joint": 3.9524949399864684,
        "distance_wrist_1_joint": 3.4556508150450407,
        "distance_wrist_2_joint": 2.6370555789322623,
        "distance_wrist_3_joint": 2.945833427417027,
        "smoothness": 0.4638494361344347,
        "time": 0.15477201,
        "traj_len": 4.294537584662,
        "weighted_distance": 5.516106082635275
    },
    "planner": "STRIDE",
    "start": {
        "state": {
            "elbow_joint": -1.919618573717145,
            "shoulder_lift_joint": -1.2443395971678275,
            "shoulder_pan_joint": 2.6996025300909787,
            "wrist_1_joint": -1.548550951253194,
            "wrist_2_joint": -1.5709469090946802,
            "wrist_3_joint": 0.4420197732051276
        }
    },
    "waypoints": [
        {
            "positions": [
                2.6996025300909787,
                -1.2443395971678275,
                -1.919618573717145,
                -1.548550951253194,
                -1.5709469090946802,
                0.4420197732051276
            ]
        },
        {
            "positions": [
                2.6081525444043034,
                -1.2641625849871303,
                -1.800691834823918,
                -1.5183869159852235,
                -1.4923359529528395,
                0.39154153779233325
            ]
        },
        {
            "positions": [
                2.516702558717628,
                -1.283985572806433,
                -1.681765095930691,
                -1.4882228807172526,
                -1.413724996810999,
                0.34106330237953897
            ]
        },
        {
            "positions": [
                2.425252573030953,
                -1.303808560625736,
                -1.5628383570374642,
                -1.458058845449282,
                -1.3351140406691584,
                0.2905850669667447
            ]
        },
        {
            "positions": [
                2.333802587344277,
                -1.3236315484450387,
                -1.443911618144237,
                -1.4278948101813111,
                -1.2565030845273177,
                0.24010683155395032
            ]
        },
        {
            "positions": [
                2.242352601657602,
                -1.3434545362643415,
                -1.3249848792510102,
                -1.3977307749133405,
                -1.1778921283854773,
                0.18962859614115601
            ]
        },
        {
            "positions": [
                2.1509026159709266,
                -1.3632775240836443,
                -1.2060581403577832,
                -1.36756673964537,
                -1.0992811722436366,
                0.13915036072836173
            ]
        },
        {
            "positions": [
                2.0594526302842513,
                -1.3831005119029471,
                -1.0871314014645563,
                -1.337402704377399,
                -1.020670216101796,
                0.0886721253155674
            ]
        },
        {
            "positions": [
                1.968002644597576,
                -1.40292349972225,
                -0.9682046625713292,
                -1.3072386691094284,
                -0.9420592599599554,
                0.03819388990277306
            ]
        },
        {
            "positions": [
                1.8765526589109005,
                -1.4227464875415528,
                -0.8492779236781023,
                -1.2770746338414578,
                -0.8634483038181149,
                -0.012284345510021277
            ]
        },
        {
            "positions": [
                1.7851026732242252,
                -1.4425694753608553,
                -0.7303511847848754,
                -1.246910598573487,
                -0.7848373476762743,
                -0.06276258092281556
            ]
        },
        {
            "positions": [
                1.6936526875375497,
                -1.4623924631801581,
                -0.6114244458916482,
                -1.2167465633055163,
                -0.7062263915344337,
                -0.11324081633560995
            ]
        },
        {
            "positions": [
                1.6022027018508747,
                -1.482215450999461,
                -0.49249770699842155,
                -1.1865825280375457,
                -0.6276154353925932,
                -0.16371905174840412
            ]
        },
        {
            "positions": [
                1.5107527161641991,
                -1.5020384388187638,
                -0.3735709681051944,
                -1.1564184927695749,
                -0.5490044792507525,
                -0.2141972871611985
            ]
        },
        {
            "positions": [
                1.4193027304775239,
                -1.5218614266380666,
                -0.2546442292119677,
                -1.1262544575016042,
                -0.470393523108912,
                -0.2646755225739928
            ]
        },
        {
            "positions": [
                1.3278527447908486,
                -1.5416844144573694,
                -0.13571749031874059,
                -1.0960904222336336,
                -0.39178256696707137,
                -0.3151537579867872
            ]
        },
        {
            "positions": [
                1.236402759104173,
                -1.5615074022766722,
                -0.01679075142551345,
                -1.0659263869656628,
                -0.3131716108252307,
                -0.36563199339958147
            ]
        },
        {
            "positions": [
                1.1449527734174978,
                -1.581330390095975,
                0.10213598746771324,
                -1.035762351697692,
                -0.23456065468339027,
                -0.41611022881237575
            ]
        },
        {
            "positions": [
                1.0535027877308223,
                -1.6011533779152778,
                0.22106272636094038,
                -1.0055983164297213,
                -0.1559496985415496,
                -0.46658846422517014
            ]
        },
        {
            "positions": [
                0.9620528020441472,
                -1.6209763657345806,
                0.33998946525416707,
                -0.9754342811617507,
                -0.07733874239970917,
                -0.5170666996379643
            ]
        },
        {
            "positions": [
                0.8706028163574718,
                -1.6407993535538834,
                0.4589162041473942,
                -0.94527024589378,
                0.0012722137421314061,
                -0.5675449350507586
            ]
        },
        {
            "positions": [
                0.7950848318739231,
                -1.5879012031923672,
                0.5049389585507542,
                -0.8295441149723103,
                0.02566564161261323,
                -0.5012245742980582
            ]
        },
        {
            "positions": [
                0.7195668473903745,
                -1.5350030528308507,
                0.5509617129541142,
                -0.7138179840508406,
                0.050059069483095055,
                -0.43490421354535774
            ]
        },
        {
            "positions": [
                0.6440488629068257,
                -1.4821049024693345,
                0.5969844673574742,
                -0.5980918531293709,
                0.07445249735357688,
                -0.36858385279265726
            ]
        },
        {
            "positions": [
                0.568530878423277,
                -1.4292067521078182,
                0.6430072217608342,
                -0.48236572220790125,
                0.0988459252240587,
                -0.30226349203995684
            ]
        },
        {
            "positions": [
                0.49301289393972836,
                -1.3763086017463018,
                0.6890299761641943,
                -0.36663959128643153,
                0.12323935309454054,
                -0.2359431312872564
            ]
        },
        {
            "positions": [
                0.4174949094561796,
                -1.3234104513847855,
                0.7350527305675543,
                -0.25091346036496187,
                0.14763278096502236,
                -0.16962277053455593
            ]
        },
        {
            "positions": [
                0.3419769249726309,
                -1.270512301023269,
                0.7810754849709143,
                -0.1351873294434922,
                0.17202620883550418,
                -0.10330240978185551
            ]
        },
        {
            "positions": [
                0.26645894048908225,
                -1.2176141506617528,
                0.8270982393742743,
                -0.01946119852202255,
                0.196419636705986,
                -0.03698204902915503
            ]
        },
        {
            "positions": [
                0.1909409560055335,
                -1.1647160003002366,
                0.8731209937776343,
                0.09626493239944722,
                0.22081306457646782,
                0.029338311723545396
            ]
        },
        {
            "positions": [
                0.11542297152198489,
                -1.1118178499387201,
                0.9191437481809944,
                0.21199106332091688,
                0.24520649244694967,
                0.09565867247624582
            ]
        },
        {
            "positions": [
                0.039904987038436035,
                -1.0589196995772039,
                0.9651665025843544,
                0.32771719424238654,
                0.2695999203174315,
                0.16197903322894636
            ]
        },
        {
            "positions": [
                -0.03561299744511259,
                -1.0060215492156876,
                1.0111892569877146,
                0.4434433251638562,
                0.29399334818791334,
                0.22829939398164678
            ]
        },
        {
            "positions": [
                -0.11113098192866133,
                -0.9531233988541712,
                1.0572120113910746,
                0.5591694560853261,
                0.31838677605839516,
                0.2946197547343473
            ]
        },
        {
            "positions": [
                -0.18664896641221007,
                -0.900225248492655,
                1.1032347657944346,
                0.6748955870067955,
                0.342780203928877,
                0.36094011548704763
            ]
        },
        {
            "positions": [
                -0.2621669508957588,
                -0.8473270981311386,
                1.1492575201977946,
                0.7906217179282654,
                0.3671736317993588,
                0.42726047623974817
            ]
        },
        {
            "positions": [
                -0.3376849353793073,
                -0.7944289477696224,
                1.1952802746011546,
                0.9063478488497348,
                0.3915670596698406,
                0.4935808369924486
            ]
        },
        {
            "positions": [
                -0.41320291986285607,
                -0.7415307974081059,
                1.2413030290045146,
                1.0220739797712048,
                0.41596048754032244,
                0.5599011977451491
            ]
        },
        {
            "positions": [
                -0.4887209043464048,
                -0.6886326470465897,
                1.2873257834078746,
                1.1378001106926745,
                0.44035391541080426,
                0.6262215584978494
            ]
        },
        {
            "positions": [
                -0.5642388888299534,
                -0.6357344966850734,
                1.3333485378112346,
                1.253526241614144,
                0.4647473432812861,
                0.69254191925055
            ]
        },
        {
            "positions": [
                -0.48772183093378246,
                -0.651294806958584,
                1.4064022919722223,
                1.3261455329672223,
                0.3979294181083643,
                0.617410600932791
            ]
        },
        {
            "positions": [
                -0.4112047730376115,
                -0.6668551172320946,
                1.47945604613321,
                1.3987648243203004,
                0.3311114929354425,
                0.542279282615032
            ]
        },
        {
            "positions": [
                -0.3346877151414405,
                -0.6824154275056051,
                1.5525098002941977,
                1.4713841156733787,
                0.2642935677625207,
                0.467147964297273
            ]
        },
        {
            "positions": [
                -0.25817065724526955,
                -0.6979757377791157,
                1.6255635544551854,
                1.544003407026457,
                0.19747564258959893,
                0.39201664597951397
            ]
        },
        {
            "positions": [
                -0.18165359934909853,
                -0.7135360480526263,
                1.698617308616173,
                1.616622698379535,
                0.1306577174166771,
                0.316885327661755
            ]
        },
        {
            "positions": [
                -0.10513654145292761,
                -0.7290963583261368,
                1.7716710627771608,
                1.6892419897326134,
                0.06383979224375536,
                0.241754009343996
            ]
        },
        {
            "positions": [
                -0.028619483556756586,
                -0.7446566685996474,
                1.8447248169381485,
                1.7618612810856917,
                -0.002978132929166488,
                0.16662269102623695
            ]
        },
        {
            "positions": [
                0.04789757433941433,
                -0.760216978873158,
                1.9177785710991362,
                1.8344805724387698,
                -0.06979605810208822,
                0.09149137270847796
            ]
        },
        {
            "positions": [
                0.12441463223558531,
                -0.7757772891466685,
                1.9908323252601239,
                1.9070998637918481,
                -0.13661398327501004,
                0.01636005439071901
            ]
        }
    ]
}{
    "goal": {
        "global_pose": {
            "orientation": {
                "w": 0.7047431468963623,
                "x": -0.7094548344612122,
                "y": 0.0024358443915843964,
                "z": -0.0022348060738295317
            },
            "position": {
                "x": 0.6094750761985779,
                "y": 0.3671506643295288,
                "z": 0.19426114857196808
            }
        },
        "name": "move_to_magneteinheit_A"
    },
    "id": "STRIDE_move_to_magneteinheit_A_38",
    "joint_names": [
        "shoulder_pan_joint",
        "shoulder_lift_joint",
        "elbow_joint",
        "wrist_1_joint",
        "wrist_2_joint",
        "wrist_3_joint"
    ],
    "metrics": {
        "cart_traj_len": 1.2302988185818464,
        "distance_elbow_joint": 0.13315284818088813,
        "distance_shoulder_lift_joint": 0.7650105270323029,
        "distance_shoulder_pan_joint": 1.2419801773684493,
        "distance_wrist_1_joint": 0.9407997496951742,
        "distance_wrist_2_joint": 1.4360043727107512,
        "distance_wrist_3_joint": 4.363562616207329,
        "smoothness": 0.08249069335788153,
        "time": 0.068730868,
        "traj_len": 2.9800185051765857,
        "weighted_distance": 4.470395916025278
    },
    "planner": "STRIDE",
    "start": {
        "state": {
            "elbow_joint": 1.919643534880228,
            "shoulder_lift_joint": -1.8972525353963687,
            "shoulder_pan_joint": -1.1188672234189438,
            "wrist_1_joint": -1.5931878212786155,
            "wrist_2_joint": 1.5706036197970081,
            "wrist_3_joint": 1.118896926603594
        }
    },
    "waypoints": [
        {
            "positions": [
                -1.1188672234189438,
                -1.8972525353963687,
                1.919643534880228,
                -1.5931878212786155,
                1.5706036197970081,
                1.118896926603594
            ]
        },
        {
            "positions": [
                -1.0654184268987605,
                -1.8630034185872058,
                1.917472125076231,
                -1.5517875149571292,
                1.5054995014790848,
                0.9305270311792927
            ]
        },
        {
            "positions": [
                -1.011969630378577,
                -1.8287543017780428,
                1.9153007152722339,
                -1.510387208635643,
                1.4403953831611616,
                0.7421571357549914
            ]
        },
        {
            "positions": [
                -0.9585208338583937,
                -1.7945051849688798,
                1.9131293054682368,
                -1.4689869023141569,
                1.3752912648432383,
                0.5537872403306902
            ]
        },
        {
            "positions": [
                -0.9050720373382103,
                -1.7602560681597166,
                1.9109578956642397,
                -1.4275865959926706,
                1.310187146525315,
                0.3654173449063888
            ]
        },
        {
            "positions": [
                -0.8516232408180269,
                -1.7260069513505536,
                1.9087864858602426,
                -1.3861862896711843,
                1.2450830282073917,
                0.17704744948208762
            ]
        },
        {
            "positions": [
                -0.7981744442978436,
                -1.6917578345413906,
                1.9066150760562455,
                -1.344785983349698,
                1.1799789098894684,
                -0.011322445942213655
            ]
        },
        {
            "positions": [
                -0.74472564777766,
                -1.6575087177322276,
                1.9044436662522484,
                -1.3033856770282117,
                1.1148747915715451,
                -0.19969234136651504
            ]
        },
        {
            "positions": [
                -0.6912768512574767,
                -1.6232596009230646,
                1.9022722564482513,
                -1.2619853707067257,
                1.0497706732536218,
                -0.3880622367908164
            ]
        },
        {
            "positions": [
                -0.6378280547372932,
                -1.5890104841139017,
                1.9001008466442542,
                -1.2205850643852394,
                0.9846665549356985,
                -0.5764321322151176
            ]
        },
        {
            "positions": [
                -0.5843792582171099,
                -1.5547613673047387,
                1.897929436840257,
                -1.1791847580637531,
                0.9195624366177753,
                -0.7648020276394187
            ]
        },
        {
            "positions": [
                -0.5309304616969265,
                -1.5205122504955755,
                1.89575802703626,
                -1.137784451742267,
                0.854458318299852,
                -0.9531719230637201
            ]
        },
        {
            "positions": [
                -0.4774816651767432,
                -1.4862631336864127,
                1.8935866172322628,
                -1.0963841454207808,
                0.7893541999819288,
                -1.1415418184880213
            ]
        },
        {
            "positions": [
                -0.42403286865655965,
                -1.4520140168772495,
                1.8914152074282657,
                -1.0549838390992945,
                0.7242500816640054,
                -1.3299117139123229
            ]
        },
        {
            "positions": [
                -0.37058407213637634,
                -1.4177649000680865,
                1.8892437976242686,
                -1.0135835327778082,
                0.6591459633460821,
                -1.518281609336624
            ]
        },
        {
            "positions": [
                -0.3171352756161929,
                -1.3835157832589235,
                1.8870723878202715,
                -0.972183226456322,
                0.5940418450281589,
                -1.7066515047609252
            ]
        },
        {
            "positions": [
                -0.2636864790960095,
                -1.3492666664497603,
                1.8849009780162744,
                -0.9307829201348358,
                0.5289377267102355,
                -1.8950214001852268
            ]
        },
        {
            "positions": [
                -0.2102376825758261,
                -1.3150175496405976,
                1.8827295682122773,
                -0.8893826138133496,
                0.46383360839231225,
                -2.0833912956095277
            ]
        },
        {
            "positions": [
                -0.15678888605564267,
                -1.2807684328314344,
                1.8805581584082802,
                -0.8479823074918633,
                0.39872949007438896,
                -2.2717611910338293
            ]
        },
        {
            "positions": [
                -0.10334008953545926,
                -1.2465193160222716,
                1.8783867486042831,
                -0.8065820011703771,
                0.33362537175646567,
                -2.46013108645813
            ]
        },
        {
            "positions": [
                -0.04989129301527595,
                -1.2122701992131084,
                1.876215338800286,
                -0.7651816948488909,
                0.2685212534385424,
                -2.6485009818824317
            ]
        },
        {
            "positions": [
                0.0035575035049075776,
                -1.1780210824039454,
                1.874043928996289,
                -0.7237813885274046,
                0.2034171351206191,
                -2.8368708773067333
            ]
        },
        {
            "positions": [
                0.05700630002509079,
                -1.1437719655947824,
                1.8718725191922918,
                -0.6823810822059184,
                0.13831301680269578,
                -3.025240772731034
            ]
        },
        {
            "positions": [
                0.09005962698729816,
                -1.1380069869794243,
                1.9145634354387677,
                -0.6973775875171571,
                0.13645613194447642,
                -3.1349532311673847
            ]
        },
        {
            "positions": [
                0.12311295394950553,
                -1.1322420083640659,
                1.9572543516852436,
                -0.7123740928283956,
                0.13459924708625703,
                -3.2446656896037354
            ]
        }
    ]
}