{
    "goal": {
        "global_pose": {
            "orientation": {
                "w": 0.5084816217422485,
                "x": -0.49083608388900757,
                "y": 0.5182115435600281,
                "z": -0.4816462993621826
            },
            "position": {
                "x": 0.5540239810943604,
                "y": 0.030875300988554955,
                "z": 0.16403168439865112
            }
        },
        "name": "move_to_storage_A"
    },
    "id": "STRIDE_move_to_storage_A_26",
    "joint_names": [
        "shoulder_pan_joint",
        "shoulder_lift_joint",
        "elbow_joint",
        "wrist_1_joint",
        "wrist_2_joint",
        "wrist_3_joint"
    ],
    "metrics": {
        "cart_traj_len": 0.35318362561410516,
        "distance_elbow_joint": 0.45144630455454493,
        "distance_shoulder_lift_joint": 0.23531657462758826,
        "distance_shoulder_pan_joint": 0.4633952620204362,
        "distance_wrist_1_joint": 0.24309764107100806,
        "distance_wrist_2_joint": 1.093346267219479,
        "distance_wrist_3_joint": 0.10288203296371945,
        "smoothness": 4.440892098500626e-16,
        "time": 0.048593389,
        "traj_len": 1.6091873981785887,
        "weighted_distance": 2.0326564039883137
    },
    "planner": "STRIDE",
    "start": {
        "state": {
            "elbow_joint": 1.9715477243005601,
            "shoulder_lift_joint": -1.1394853015351272,
            "shoulder_pan_joint": 0.12281154014795169,
            "wrist_1_joint": -0.7804696478968182,
            "wrist_2_joint": 0.12958648046900423,
            "wrist_3_joint": -3.192491284697111
        }
    },
    "waypoints": [
        {
            "positions": [
                0.12281154014795169,
                -1.1394853015351272,
                1.9715477243005601,
                -0.7804696478968182,
                0.12958648046900423,
                -3.192491284697111
            ]
        },
        {
            "positions": [
                0.0566122170021751,
                -1.1731019550533541,
                2.036040053522638,
                -0.8151978823355336,
                0.28577880435750125,
                -3.1777938514165798
            ]
        },
        {
            "positions": [
                -0.00958710614360149,
                -1.2067186085715809,
                2.1005323827447158,
                -0.849926116774249,
                0.4419711282459982,
                -3.1630964181360484
            ]
        },
        {
            "positions": [
                -0.07578642928937808,
                -1.2403352620898078,
                2.165024711966794,
                -0.8846543512129644,
                0.5981634521344952,
                -3.148398984855517
            ]
        },
        {
            "positions": [
                -0.14198575243515466,
                -1.2739519156080348,
                2.2295170411888714,
                -0.91938258565168,
                0.7543557760229922,
                -3.133701551574986
            ]
        },
        {
            "positions": [
                -0.2081850755809313,
                -1.3075685691262617,
                2.2940093704109494,
                -0.9541108200903954,
                0.9105480999114892,
                -3.1190041182944546
            ]
        },
        {
            "positions": [
                -0.27438439872670783,
                -1.3411852226444885,
                2.358501699633027,
                -0.9888390545291108,
                1.066740423799986,
                -3.104306685013923
            ]
        },
        {
            "positions": [
                -0.3405837218724845,
                -1.3748018761627154,
                2.422994028855105,
                -1.0235672889678262,
                1.2229327476884833,
                -3.0896092517333917
            ]
        }
    ]
}