{
    "goal": {
        "global_pose": {
            "orientation": {
                "w": 0.7047431468963623,
                "x": -0.7094548344612122,
                "y": 0.0024358443915843964,
                "z": -0.0022348060738295317
            },
            "position": {
                "x": 0.6094750761985779,
                "y": 0.3671506643295288,
                "z": 0.19426114857196808
            }
        },
        "name": "move_to_magneteinheit_A"
    },
    "id": "STRIDE_move_to_magneteinheit_A_112",
    "joint_names": [
        "shoulder_pan_joint",
        "shoulder_lift_joint",
        "elbow_joint",
        "wrist_1_joint",
        "wrist_2_joint",
        "wrist_3_joint"
    ],
    "metrics": {
        "cart_traj_len": 3.585309667147326,
        "distance_elbow_joint": 4.064323254220131,
        "distance_shoulder_lift_joint": 0.10642096612338303,
        "distance_shoulder_pan_joint": 2.844393615578168,
        "distance_wrist_1_joint": 0.9915594488280445,
        "distance_wrist_2_joint": 1.9585659717994832,
        "distance_wrist_3_joint": 3.636199638462037,
        "smoothness": 0.41303332021986155,
        "time": 0.240173134,
        "traj_len": 3.688016119136581,
        "weighted_distance": 4.8809822364522955
    },
    "planner": "STRIDE",
    "start": {
        "state": {
            "elbow_joint": -1.919618573717145,
            "shoulder_lift_joint": -1.2443395971678275,
            "shoulder_pan_joint": 2.6996025300909787,
            "wrist_1_joint": -1.548550951253194,
            "wrist_2_joint": -1.5709469090946802,
            "wrist_3_joint": 0.4420197732051276
        }
    },
    "waypoints": [
        {
            "positions": [
                2.6996025300909787,
                -1.2443395971678275,
                -1.919618573717145,
                -1.548550951253194,
                -1.5709469090946802,
                0.4420197732051276
            ]
        },
        {
            "positions": [
                2.5895015648067954,
                -1.2427199755362524,
                -1.8195971748355868,
                -1.54591311732303,
                -1.4905313996309992,
                0.35306847880095227
            ]
        },
        {
            "positions": [
                2.4794005995226116,
                -1.2411003539046772,
                -1.7195757759540284,
                -1.543275283392866,
                -1.4101158901673183,
                0.264117184396777
            ]
        },
        {
            "positions": [
                2.3692996342384283,
                -1.239480732273102,
                -1.61955437707247,
                -1.5406374494627018,
                -1.3297003807036372,
                0.17516588999260163
            ]
        },
        {
            "positions": [
                2.2591986689542445,
                -1.237861110641527,
                -1.519532978190912,
                -1.5379996155325377,
                -1.2492848712399562,
                0.08621459558842637
            ]
        },
        {
            "positions": [
                2.149097703670061,
                -1.2362414890099518,
                -1.4195115793093538,
                -1.5353617816023737,
                -1.1688693617762753,
                -0.0027366988157489502
            ]
        },
        {
            "positions": [
                2.038996738385878,
                -1.2346218673783766,
                -1.3194901804277954,
                -1.5327239476722097,
                -1.0884538523125942,
                -0.09168799321992432
            ]
        },
        {
            "positions": [
                1.9288957731016942,
                -1.2330022457468015,
                -1.219468781546237,
                -1.5300861137420454,
                -1.0080383428489132,
                -0.1806392876240996
            ]
        },
        {
            "positions": [
                1.8187948078175107,
                -1.2313826241152264,
                -1.119447382664679,
                -1.5274482798118814,
                -0.9276228333852323,
                -0.26959058202827485
            ]
        },
        {
            "positions": [
                1.7086938425333273,
                -1.2297630024836512,
                -1.0194259837831208,
                -1.5248104458817173,
                -0.8472073239215513,
                -0.3585418764324502
            ]
        },
        {
            "positions": [
                1.5985928772491438,
                -1.228143380852076,
                -0.9194045849015624,
                -1.5221726119515533,
                -0.7667918144578704,
                -0.4474931708366255
            ]
        },
        {
            "positions": [
                1.48849191196496,
                -1.226523759220501,
                -0.819383186020004,
                -1.519534778021389,
                -0.6863763049941892,
                -0.5364444652408009
            ]
        },
        {
            "positions": [
                1.3783909466807767,
                -1.2249041375889258,
                -0.7193617871384459,
                -1.516896944091225,
                -0.6059607955305084,
                -0.6253957596449762
            ]
        },
        {
            "positions": [
                1.268289981396593,
                -1.2232845159573507,
                -0.6193403882568875,
                -1.514259110161061,
                -0.5255452860668273,
                -0.7143470540491514
            ]
        },
        {
            "positions": [
                1.1581890161124098,
                -1.2216648943257755,
                -0.5193189893753294,
                -1.511621276230897,
                -0.44512977660314634,
                -0.8032983484533267
            ]
        },
        {
            "positions": [
                1.048088050828226,
                -1.2200452726942004,
                -0.419297590493771,
                -1.5089834423007327,
                -0.3647142671394654,
                -0.8922496428575022
            ]
        },
        {
            "positions": [
                0.9379870855440426,
                -1.2184256510626252,
                -0.3192761916122129,
                -1.5063456083705686,
                -0.2842987576757845,
                -0.9812009372616772
            ]
        },
        {
            "positions": [
                0.8278861202598591,
                -1.21680602943105,
                -0.2192547927306545,
                -1.5037077744404046,
                -0.20388324821210335,
                -1.0701522316658527
            ]
        },
        {
            "positions": [
                0.7177851549756757,
                -1.215186407799475,
                -0.11923339384909637,
                -1.5010699405102406,
                -0.12346773874842243,
                -1.159103526070028
            ]
        },
        {
            "positions": [
                0.6076841896914922,
                -1.2135667861678998,
                -0.019211994967538004,
                -1.4984321065800763,
                -0.043052229284741506,
                -1.2480548204742035
            ]
        },
        {
            "positions": [
                0.49758322440730884,
                -1.2119471645363247,
                0.08080940391402014,
                -1.4957942726499123,
                0.03736328017893942,
                -1.3370061148783785
            ]
        },
        {
            "positions": [
                0.38748225912312506,
                -1.2103275429047495,
                0.18083080279557867,
                -1.4931564387197482,
                0.11777878964262047,
                -1.425957409282554
            ]
        },
        {
            "positions": [
                0.35680802846672877,
                -1.2074846509503299,
                0.3251599775513012,
                -1.4295554286465204,
                0.1284527692953986,
                -1.5578737891362182
            ]
        },
        {
            "positions": [
                0.3261337978103324,
                -1.20464175899591,
                0.4694891523070238,
                -1.3659544185732926,
                0.13912674894817673,
                -1.6897901689898824
            ]
        },
        {
            "positions": [
                0.2954595671539361,
                -1.2017988670414903,
                0.6138183270627464,
                -1.3023534085000648,
                0.14980072860095484,
                -1.8217065488435467
            ]
        },
        {
            "positions": [
                0.26478533649753977,
                -1.1989559750870706,
                0.7581475018184689,
                -1.238752398426837,
                0.16047470825373295,
                -1.9536229286972109
            ]
        },
        {
            "positions": [
                0.23411110584114347,
                -1.1961130831326507,
                0.9024766765741916,
                -1.1751513883536089,
                0.17114868790651108,
                -2.0855393085508753
            ]
        },
        {
            "positions": [
                0.20343687518474715,
                -1.193270191178231,
                1.046805851329914,
                -1.111550378280381,
                0.18182266755928922,
                -2.2174556884045393
            ]
        },
        {
            "positions": [
                0.17276264452835086,
                -1.1904272992238114,
                1.1911350260856366,
                -1.0479493682071532,
                0.19249664721206733,
                -2.3493720682582038
            ]
        },
        {
            "positions": [
                0.1420884138719545,
                -1.1875844072693917,
                1.3354642008413593,
                -0.9843483581339255,
                0.20317062686484544,
                -2.4812884481118678
            ]
        },
        {
            "positions": [
                0.11141418321555824,
                -1.1847415153149718,
                1.4797933755970818,
                -0.9207473480606977,
                0.21384460651762355,
                -2.613204827965532
            ]
        },
        {
            "positions": [
                0.08073995255916189,
                -1.1818986233605522,
                1.6241225503528045,
                -0.8571463379874698,
                0.2245185861704017,
                -2.7451212078191967
            ]
        },
        {
            "positions": [
                0.05006572190276559,
                -1.1790557314061325,
                1.768451725108527,
                -0.7935453279142419,
                0.23519256582317982,
                -2.8770375876728607
            ]
        },
        {
            "positions": [
                0.01939149124636924,
                -1.1762128394517126,
                1.9127808998642497,
                -0.7299443178410141,
                0.24586654547595793,
                -3.0089539675265247
            ]
        },
        {
            "positions": [
                -0.011282739410027068,
                -1.173369947497293,
                2.057110074619972,
                -0.6663433077677863,
                0.25654052512873604,
                -3.140870347380189
            ]
        },
        {
            "positions": [
                0.05547143362855343,
                -1.1556442892708687,
                2.0133127716784665,
                -0.7210192104391047,
                0.1910012563407028,
                -3.167525106318549
            ]
        },
        {
            "positions": [
                0.12222560666713395,
                -1.1379186310444445,
                1.9695154687369607,
                -0.7756951131104229,
                0.12546198755266955,
                -3.1941798652569093
            ]
        }
    ]
}{
    "goal": {
        "global_pose": {
            "orientation": {
                "w": 0.7047431468963623,
                "x": -0.7094548344612122,
                "y": 0.0024358443915843964,
                "z": -0.0022348060738295317
            },
            "position": {
                "x": 0.6094750761985779,
                "y": 0.3671506643295288,
                "z": 0.19426114857196808
            }
        },
        "name": "move_to_magneteinheit_A"
    },
    "id": "STRIDE_move_to_magneteinheit_A_112",
    "joint_names": [
        "shoulder_pan_joint",
        "shoulder_lift_joint",
        "elbow_joint",
        "wrist_1_joint",
        "wrist_2_joint",
        "wrist_3_joint"
    ],
    "metrics": {
        "cart_traj_len": 1.6841530790111106,
        "distance_elbow_joint": 1.4160420700459218,
        "distance_shoulder_lift_joint": 1.1089591778985517,
        "distance_shoulder_pan_joint": 1.6939759877853882,
        "distance_wrist_1_joint": 4.758365751881911,
        "distance_wrist_2_joint": 1.6796780583742756,
        "distance_wrist_3_joint": 4.376652731107532,
        "smoothness": 0.3721775041196464,
        "time": 0.183857866,
        "traj_len": 3.8773281750573525,
        "weighted_distance": 5.497728899242378
    },
    "planner": "STRIDE",
    "start": {
        "state": {
            "elbow_joint": 1.919643534880228,
            "shoulder_lift_joint": -1.8972525353963687,
            "shoulder_pan_joint": -1.1188672234189438,
            "wrist_1_joint": -1.5931878212786155,
            "wrist_2_joint": 1.5706036197970081,
            "wrist_3_joint": 1.118896926603594
        }
    },
    "waypoints": [
        {
            "positions": [
                -1.1188672234189438,
                -1.8972525353963687,
                1.919643534880228,
                -1.5931878212786155,
                1.5706036197970081,
                1.118896926603594
            ]
        },
        {
            "positions": [
                -1.1296351008867427,
                -1.9053611082594315,
                1.8867030692815236,
                -1.4586885969394052,
                1.4961416492861204,
                0.9905561926504299
            ]
        },
        {
            "positions": [
                -1.1404029783545413,
                -1.9134696811224943,
                1.8537626036828192,
                -1.324189372600195,
                1.4216796787752326,
                0.8622154586972659
            ]
        },
        {
            "positions": [
                -1.1511708558223401,
                -1.921578253985557,
                1.8208221380841147,
                -1.1896901482609847,
                1.3472177082643448,
                0.7338747247441019
            ]
        },
        {
            "positions": [
                -1.161938733290139,
                -1.9296868268486196,
                1.7878816724854103,
                -1.0551909239217745,
                1.272755737753457,
                0.6055339907909378
            ]
        },
        {
            "positions": [
                -1.1727066107579376,
                -1.9377953997116824,
                1.7549412068867059,
                -0.9206916995825642,
                1.1982937672425693,
                0.4771932568377738
            ]
        },
        {
            "positions": [
                -1.1834744882257364,
                -1.9459039725747451,
                1.7220007412880014,
                -0.786192475243354,
                1.1238317967316815,
                0.3488525228846098
            ]
        },
        {
            "positions": [
                -1.1942423656935353,
                -1.954012545437808,
                1.689060275689297,
                -0.6516932509041438,
                1.049369826220794,
                0.22051178893144574
            ]
        },
        {
            "positions": [
                -1.2050102431613339,
                -1.9621211183008707,
                1.6561198100905927,
                -0.5171940265649335,
                0.9749078557099061,
                0.09217105497828171
            ]
        },
        {
            "positions": [
                -1.2157781206291327,
                -1.9702296911639334,
                1.6231793444918883,
                -0.3826948022257233,
                0.9004458851990184,
                -0.03616967897488221
            ]
        },
        {
            "positions": [
                -1.2265459980969315,
                -1.9783382640269962,
                1.5902388788931838,
                -0.24819557788651303,
                0.8259839146881306,
                -0.16451041292804636
            ]
        },
        {
            "positions": [
                -1.2373138755647302,
                -1.9864468368900587,
                1.5572984132944794,
                -0.11369635354730279,
                0.7515219441772428,
                -0.2928511468812105
            ]
        },
        {
            "positions": [
                -1.248081753032529,
                -1.9945554097531215,
                1.524357947695775,
                0.020802870791907457,
                0.6770599736663552,
                -0.4211918808343744
            ]
        },
        {
            "positions": [
                -1.2588496305003278,
                -2.0026639826161845,
                1.4914174820970705,
                0.1553020951311177,
                0.6025980031554673,
                -0.5495326147875386
            ]
        },
        {
            "positions": [
                -1.2696175079681264,
                -2.010772555479247,
                1.458477016498366,
                0.28980131947032794,
                0.5281360326445796,
                -0.6778733487407025
            ]
        },
        {
            "positions": [
                -1.2803853854359253,
                -2.0188811283423096,
                1.4255365508996616,
                0.4243005438095382,
                0.4536740621336919,
                -0.8062140826938666
            ]
        },
        {
            "positions": [
                -1.2911532629037241,
                -2.0269897012053724,
                1.3925960853009571,
                0.5587997681487484,
                0.3792120916228041,
                -0.9345548166470306
            ]
        },
        {
            "positions": [
                -1.3019211403715227,
                -2.035098274068435,
                1.3596556197022527,
                0.6932989924879587,
                0.30475012111191635,
                -1.0628955506001947
            ]
        },
        {
            "positions": [
                -1.3126890178393216,
                -2.043206846931498,
                1.3267151541035482,
                0.8277982168271689,
                0.23028815060102859,
                -1.1912362845533584
            ]
        },
        {
            "positions": [
                -1.3234568953071204,
                -2.0513154197945607,
                1.2937746885048438,
                0.9622974411663792,
                0.15582618009014082,
                -1.319577018506523
            ]
        },
        {
            "positions": [
                -1.334224772774919,
                -2.0594239926576234,
                1.2608342229061393,
                1.0967966655055894,
                0.08136420957925306,
                -1.4479177524596867
            ]
        },
        {
            "positions": [
                -1.3449926502427179,
                -2.067532565520686,
                1.2278937573074349,
                1.2312958898447999,
                0.006902239068365209,
                -1.576258486412851
            ]
        },
        {
            "positions": [
                -1.2634453968559616,
                -2.0153837239776733,
                1.2681322180003864,
                1.1238579986915502,
                0.013345387826455904,
                -1.669675004084578
            ]
        },
        {
            "positions": [
                -1.1818981434692053,
                -1.9632348824346602,
                1.308370678693338,
                1.0164201075383006,
                0.019788536584546598,
                -1.763091521756305
            ]
        },
        {
            "positions": [
                -1.1003508900824488,
                -1.9110860408916472,
                1.3486091393862896,
                0.908982216385051,
                0.02623168534263729,
                -1.8565080394280318
            ]
        },
        {
            "positions": [
                -1.0188036366956925,
                -1.858937199348634,
                1.3888476000792411,
                0.8015443252318013,
                0.03267483410072799,
                -1.949924557099759
            ]
        },
        {
            "positions": [
                -0.9372563833089361,
                -1.8067883578056212,
                1.429086060772193,
                0.6941064340785517,
                0.039117982858818685,
                -2.0433410747714857
            ]
        },
        {
            "positions": [
                -0.8557091299221798,
                -1.7546395162626083,
                1.4693245214651445,
                0.5866685429253021,
                0.045561131616909376,
                -2.136757592443213
            ]
        },
        {
            "positions": [
                -0.7741618765354235,
                -1.7024906747195951,
                1.509562982158096,
                0.4792306517720525,
                0.05200428037500007,
                -2.2301741101149397
            ]
        },
        {
            "positions": [
                -0.6926146231486672,
                -1.650341833176582,
                1.5498014428510476,
                0.37179276061880284,
                0.05844742913309076,
                -2.3235906277866665
            ]
        },
        {
            "positions": [
                -0.6110673697619108,
                -1.598192991633569,
                1.5900399035439992,
                0.2643548694655532,
                0.06489057789118147,
                -2.4170071454583937
            ]
        },
        {
            "positions": [
                -0.5295201163751544,
                -1.5460441500905562,
                1.6302783642369507,
                0.15691697831230345,
                0.07133372664927216,
                -2.510423663130121
            ]
        },
        {
            "positions": [
                -0.447972862988398,
                -1.493895308547543,
                1.6705168249299023,
                0.0494790871590538,
                0.07777687540736286,
                -2.6038401808018476
            ]
        },
        {
            "positions": [
                -0.36642560960164183,
                -1.4417464670045301,
                1.7107552856228538,
                -0.05795880399419562,
                0.08422002416545354,
                -2.6972566984735744
            ]
        },
        {
            "positions": [
                -0.28487835621488533,
                -1.389597625461517,
                1.7509937463158054,
                -0.16539669514744526,
                0.09066317292354424,
                -2.7906732161453016
            ]
        },
        {
            "positions": [
                -0.20333110282812905,
                -1.337448783918504,
                1.7912322070087572,
                -0.2728345863006949,
                0.09710632168163494,
                -2.884089733817029
            ]
        },
        {
            "positions": [
                -0.12178384944137277,
                -1.285299942375491,
                1.8314706677017087,
                -0.38027247745394455,
                0.10354947043972564,
                -2.9775062514887556
            ]
        },
        {
            "positions": [
                -0.04023659605461649,
                -1.233151100832478,
                1.8717091283946603,
                -0.4877103686071942,
                0.10999261919781632,
                -3.0709227691604823
            ]
        },
        {
            "positions": [
                0.04131065733214001,
                -1.181002259289465,
                1.9119475890876119,
                -0.5951482597604438,
                0.11643576795590702,
                -3.1643392868322096
            ]
        },
        {
            "positions": [
                0.12285791071889621,
                -1.128853417746452,
                1.9521860497805634,
                -0.7025861509136935,
                0.12287891671399771,
                -3.2577558045039363
            ]
        }
    ]
}