{
    "goal": {
        "global_pose": {
            "orientation": {
                "w": 0.7047431468963623,
                "x": -0.7094548344612122,
                "y": 0.0024358443915843964,
                "z": -0.0022348060738295317
            },
            "position": {
                "x": 0.6094750761985779,
                "y": 0.3671506643295288,
                "z": 0.19426114857196808
            }
        },
        "name": "move_to_magneteinheit_A"
    },
    "id": "STRIDE_move_to_magneteinheit_A_65",
    "joint_names": [
        "shoulder_pan_joint",
        "shoulder_lift_joint",
        "elbow_joint",
        "wrist_1_joint",
        "wrist_2_joint",
        "wrist_3_joint"
    ],
    "metrics": {
        "cart_traj_len": 3.7142490730435345,
        "distance_elbow_joint": 3.9201232495870624,
        "distance_shoulder_lift_joint": 0.7842508348640284,
        "distance_shoulder_pan_joint": 4.7233553387209755,
        "distance_wrist_1_joint": 3.503910245948319,
        "distance_wrist_2_joint": 2.374806653042861,
        "distance_wrist_3_joint": 1.2190568615190631,
        "smoothness": 0.3801502399721129,
        "time": 0.156884771,
        "traj_len": 4.065157215124934,
        "weighted_distance": 4.984208443244687
    },
    "planner": "STRIDE",
    "start": {
        "state": {
            "elbow_joint": -1.919618573717145,
            "shoulder_lift_joint": -1.2443395971678275,
            "shoulder_pan_joint": 2.6996025300909787,
            "wrist_1_joint": -1.548550951253194,
            "wrist_2_joint": -1.5709469090946802,
            "wrist_3_joint": 0.4420197732051276
        }
    },
    "waypoints": [
        {
            "positions": [
                2.6996025300909787,
                -1.2443395971678275,
                -1.919618573717145,
                -1.548550951253194,
                -1.5709469090946802,
                0.4420197732051276
            ]
        },
        {
            "positions": [
                2.588985290973443,
                -1.2492087023359262,
                -1.8228516850179302,
                -1.4600751593163315,
                -1.512993177124777,
                0.41642129001501205
            ]
        },
        {
            "positions": [
                2.4783680518559073,
                -1.2540778075040249,
                -1.7260847963187151,
                -1.3715993673794686,
                -1.4550394451548738,
                0.3908228068248965
            ]
        },
        {
            "positions": [
                2.3677508127383717,
                -1.2589469126721236,
                -1.6293179076195003,
                -1.2831235754426058,
                -1.3970857131849708,
                0.36522432363478097
            ]
        },
        {
            "positions": [
                2.2571335736208358,
                -1.2638160178402222,
                -1.5325510189202853,
                -1.1946477835057432,
                -1.3391319812150675,
                0.3396258404446655
            ]
        },
        {
            "positions": [
                2.1465163345033003,
                -1.268685123008321,
                -1.4357841302210705,
                -1.1061719915688806,
                -1.2811782492451644,
                0.3140273572545499
            ]
        },
        {
            "positions": [
                2.0358990953857647,
                -1.2735542281764196,
                -1.3390172415218555,
                -1.0176961996320177,
                -1.2232245172752612,
                0.2884288740644344
            ]
        },
        {
            "positions": [
                1.9252818562682288,
                -1.2784233333445183,
                -1.2422503528226407,
                -0.929220407695155,
                -1.165270785305358,
                0.26283039087431886
            ]
        },
        {
            "positions": [
                1.814664617150693,
                -1.283292438512617,
                -1.145483464123426,
                -0.8407446157582923,
                -1.1073170533354548,
                0.23723190768420332
            ]
        },
        {
            "positions": [
                1.7040473780331573,
                -1.2881615436807157,
                -1.0487165754242112,
                -0.7522688238214297,
                -1.0493633213655518,
                0.2116334244940878
            ]
        },
        {
            "positions": [
                1.5934301389156216,
                -1.2930306488488144,
                -0.951949686724996,
                -0.6637930318845668,
                -0.9914095893956486,
                0.18603494130397225
            ]
        },
        {
            "positions": [
                1.482812899798086,
                -1.297899754016913,
                -0.8551827980257813,
                -0.5753172399477042,
                -0.9334558574257454,
                0.16043645811385676
            ]
        },
        {
            "positions": [
                1.3721956606805503,
                -1.3027688591850117,
                -0.7584159093265663,
                -0.4868414480108414,
                -0.8755021254558423,
                0.13483797492374122
            ]
        },
        {
            "positions": [
                1.2615784215630146,
                -1.3076379643531104,
                -0.6616490206273515,
                -0.3983656560739788,
                -0.8175483934859391,
                0.10923949173362568
            ]
        },
        {
            "positions": [
                1.1509611824454788,
                -1.312507069521209,
                -0.5648821319281365,
                -0.30988986413711594,
                -0.7595946615160359,
                0.08364100854351014
            ]
        },
        {
            "positions": [
                1.0403439433279433,
                -1.3173761746893078,
                -0.46811524322892173,
                -0.22141407220025333,
                -0.7016409295461329,
                0.05804252535339466
            ]
        },
        {
            "positions": [
                0.9297267042104074,
                -1.3222452798574065,
                -0.3713483545297067,
                -0.1329382802633905,
                -0.6436871975762296,
                0.03244404216327906
            ]
        },
        {
            "positions": [
                0.8191094650928719,
                -1.3271143850255052,
                -0.2745814658304919,
                -0.04446248832652788,
                -0.5857334656063266,
                0.006845558973163579
            ]
        },
        {
            "positions": [
                0.7084922259753361,
                -1.3319834901936038,
                -0.17781457713127713,
                0.04401330361033473,
                -0.5277797336364234,
                -0.01875292421695196
            ]
        },
        {
            "positions": [
                0.5978749868578004,
                -1.3368525953617025,
                -0.08104768843206189,
                0.1324890955471978,
                -0.4698260016665201,
                -0.044351407407067556
            ]
        },
        {
            "positions": [
                0.4872577477402644,
                -1.3417217005298012,
                0.0157192002671529,
                0.2209648874840604,
                -0.41187226969661705,
                -0.0699498905971831
            ]
        },
        {
            "positions": [
                0.3766405086227289,
                -1.3465908056979,
                0.11248608896636747,
                0.309440679420923,
                -0.353918537726714,
                -0.09554837378729858
            ]
        },
        {
            "positions": [
                0.2660232695051934,
                -1.3514599108659986,
                0.20925297766558226,
                0.39791647135778563,
                -0.2959648057568107,
                -0.12114685697741406
            ]
        },
        {
            "positions": [
                0.15540603038765743,
                -1.3563290160340973,
                0.3060198663647975,
                0.4863922632946487,
                -0.23801107378690745,
                -0.14674534016752966
            ]
        },
        {
            "positions": [
                0.04478879127012192,
                -1.361198121202196,
                0.4027867550640123,
                0.5748680552315113,
                -0.1800573418170044,
                -0.17234382335764514
            ]
        },
        {
            "positions": [
                -0.06582844784741404,
                -1.3660672263702947,
                0.4995536437632271,
                0.6633438471683739,
                -0.12210360984710134,
                -0.19794230654776074
            ]
        },
        {
            "positions": [
                -0.17644568696494956,
                -1.3709363315383933,
                0.5963205324624419,
                0.7518196391052365,
                -0.06414987787719806,
                -0.22354078973787622
            ]
        },
        {
            "positions": [
                -0.2870629260824855,
                -1.375805436706492,
                0.6930874211616571,
                0.8402954310420996,
                -0.006196145907294781,
                -0.24913927292799182
            ]
        },
        {
            "positions": [
                -0.39768016520002103,
                -1.3806745418745907,
                0.7898543098608719,
                0.9287712229789622,
                0.051757586062608274,
                -0.2747377561181073
            ]
        },
        {
            "positions": [
                -0.5082974043175565,
                -1.3855436470426894,
                0.8866211985600867,
                1.0172470149158248,
                0.10971131803251133,
                -0.3003362393082228
            ]
        },
        {
            "positions": [
                -0.6189146434350921,
                -1.390412752210788,
                0.9833880872593015,
                1.1057228068526874,
                0.16766505000241438,
                -0.32593472249833827
            ]
        },
        {
            "positions": [
                -0.7295318825526285,
                -1.3952818573788868,
                1.0801549759585167,
                1.1941985987895505,
                0.22561878197231788,
                -0.351533205688454
            ]
        },
        {
            "positions": [
                -0.840149121670164,
                -1.4001509625469855,
                1.1769218646577315,
                1.282674390726413,
                0.28357251394222094,
                -0.37713168887856946
            ]
        },
        {
            "positions": [
                -0.9507663607876995,
                -1.4050200677150841,
                1.2736887533569465,
                1.3711501826632757,
                0.341526245912124,
                -0.4027301720686849
            ]
        },
        {
            "positions": [
                -0.8434677160034696,
                -1.342663031283407,
                1.3463703456082434,
                1.4295710938664608,
                0.2952928961085182,
                -0.36529948044415983
            ]
        },
        {
            "positions": [
                -0.7361690712192397,
                -1.2803059948517297,
                1.4190519378595403,
                1.4879920050696458,
                0.24905954630491242,
                -0.3278687888196348
            ]
        },
        {
            "positions": [
                -0.6288704264350098,
                -1.2179489584200527,
                1.4917335301108372,
                1.5464129162728308,
                0.20282619650130665,
                -0.2904380971951098
            ]
        },
        {
            "positions": [
                -0.5215717816507799,
                -1.1555919219883755,
                1.564415122362134,
                1.6048338274760159,
                0.15659284669770085,
                -0.25300740557058476
            ]
        },
        {
            "positions": [
                -0.4142731368665501,
                -1.0932348855566982,
                1.637096714613431,
                1.6632547386792012,
                0.11035949689409508,
                -0.21557671394605973
            ]
        },
        {
            "positions": [
                -0.3069744920823202,
                -1.0308778491250212,
                1.7097783068647279,
                1.721675649882386,
                0.0641261470904893,
                -0.1781460223215347
            ]
        },
        {
            "positions": [
                -0.1996758472980904,
                -0.968520812693344,
                1.7824598991160248,
                1.7800965610855712,
                0.017892797286883533,
                -0.1407153306970097
            ]
        },
        {
            "positions": [
                -0.09237720251386039,
                -0.9061637762616668,
                1.8551414913673216,
                1.8385174722887563,
                -0.028340552516722295,
                -0.10328463907248464
            ]
        },
        {
            "positions": [
                0.0149214422703694,
                -0.8438067398299895,
                1.9278230836186185,
                1.8969383834919413,
                -0.07457390232032807,
                -0.06585394744795958
            ]
        },
        {
            "positions": [
                0.12222008705459934,
                -0.7814497033983124,
                2.0005046758699154,
                1.9553592946951264,
                -0.12080725212393383,
                -0.028423255823434582
            ]
        }
    ]
}{
    "goal": {
        "global_pose": {
            "orientation": {
                "w": 0.7047431468963623,
                "x": -0.7094548344612122,
                "y": 0.0024358443915843964,
                "z": -0.0022348060738295317
            },
            "position": {
                "x": 0.6094750761985779,
                "y": 0.3671506643295288,
                "z": 0.19426114857196808
            }
        },
        "name": "move_to_magneteinheit_A"
    },
    "id": "STRIDE_move_to_magneteinheit_A_65",
    "joint_names": [
        "shoulder_pan_joint",
        "shoulder_lift_joint",
        "elbow_joint",
        "wrist_1_joint",
        "wrist_2_joint",
        "wrist_3_joint"
    ],
    "metrics": {
        "cart_traj_len": 1.6062222321386126,
        "distance_elbow_joint": 1.6112990896680268,
        "distance_shoulder_lift_joint": 0.7513596252373282,
        "distance_shoulder_pan_joint": 1.241582257290094,
        "distance_wrist_1_joint": 0.7341791034476675,
        "distance_wrist_2_joint": 1.4468638984551547,
        "distance_wrist_3_joint": 4.232571819575359,
        "smoothness": 0.16225430611857825,
        "time": 0.09615372,
        "traj_len": 3.1650996498804953,
        "weighted_distance": 4.545771929466675
    },
    "planner": "STRIDE",
    "start": {
        "state": {
            "elbow_joint": 1.919643534880228,
            "shoulder_lift_joint": -1.8972525353963687,
            "shoulder_pan_joint": -1.1188672234189438,
            "wrist_1_joint": -1.5931878212786155,
            "wrist_2_joint": 1.5706036197970081,
            "wrist_3_joint": 1.118896926603594
        }
    },
    "waypoints": [
        {
            "positions": [
                -1.1188672234189438,
                -1.8972525353963687,
                1.919643534880228,
                -1.5931878212786155,
                1.5706036197970081,
                1.118896926603594
            ]
        },
        {
            "positions": [
                -1.108015246078835,
                -1.8601135088223208,
                1.8681743961188035,
                -1.5501423663624436,
                1.4904076749766553,
                0.9529637972051028
            ]
        },
        {
            "positions": [
                -1.0971632687387265,
                -1.8229744822482732,
                1.8167052573573792,
                -1.507096911446272,
                1.4102117301563024,
                0.7870306678066118
            ]
        },
        {
            "positions": [
                -1.0863112913986177,
                -1.7858354556742253,
                1.7652361185959546,
                -1.4640514565301002,
                1.3300157853359493,
                0.6210975384081207
            ]
        },
        {
            "positions": [
                -1.0754593140585091,
                -1.7486964291001776,
                1.7137669798345303,
                -1.4210060016139285,
                1.2498198405155965,
                0.4551644090096296
            ]
        },
        {
            "positions": [
                -1.0646073367184004,
                -1.7115574025261298,
                1.662297841073106,
                -1.3779605466977567,
                1.1696238956952436,
                0.2892312796111385
            ]
        },
        {
            "positions": [
                -1.0537553593782916,
                -1.674418375952082,
                1.6108287023116814,
                -1.3349150917815849,
                1.0894279508748905,
                0.12329815021264734
            ]
        },
        {
            "positions": [
                -1.042903382038183,
                -1.6372793493780342,
                1.5593595635502568,
                -1.2918696368654132,
                1.0092320060545377,
                -0.0426349791858438
            ]
        },
        {
            "positions": [
                -1.0320514046980742,
                -1.6001403228039865,
                1.5078904247888325,
                -1.2488241819492414,
                0.9290360612341848,
                -0.20856810858433472
            ]
        },
        {
            "positions": [
                -1.0211994273579657,
                -1.5630012962299387,
                1.456421286027408,
                -1.2057787270330698,
                0.8488401164138318,
                -0.37450123798282586
            ]
        },
        {
            "positions": [
                -1.0103474500178569,
                -1.525862269655891,
                1.4049521472659836,
                -1.162733272116898,
                0.768644171593479,
                -0.540434367381317
            ]
        },
        {
            "positions": [
                -0.9994954726777482,
                -1.4887232430818431,
                1.353483008504559,
                -1.119687817200726,
                0.6884482267731261,
                -0.7063674967798079
            ]
        },
        {
            "positions": [
                -0.9886434953376395,
                -1.4515842165077952,
                1.3020138697431345,
                -1.0766423622845545,
                0.608252281952773,
                -0.8723006261782993
            ]
        },
        {
            "positions": [
                -0.9777915179975307,
                -1.4144451899337476,
                1.2505447309817102,
                -1.0335969073683826,
                0.5280563371324201,
                -1.0382337555767902
            ]
        },
        {
            "positions": [
                -0.966939540657422,
                -1.3773061633597,
                1.1990755922202858,
                -0.9905514524522109,
                0.4478603923120672,
                -1.2041668849752816
            ]
        },
        {
            "positions": [
                -0.9560875633173134,
                -1.340167136785652,
                1.1476064534588613,
                -0.9475059975360391,
                0.36766444749171423,
                -1.3701000143737727
            ]
        },
        {
            "positions": [
                -0.8580145999365439,
                -1.32250584345596,
                1.223902999663103,
                -0.9394607902901217,
                0.34548947238718136,
                -1.5286068215190447
            ]
        },
        {
            "positions": [
                -0.7599416365557745,
                -1.3048445501262682,
                1.300199545867345,
                -0.9314155830442044,
                0.3233144972826485,
                -1.6871136286643167
            ]
        },
        {
            "positions": [
                -0.6618686731750051,
                -1.2871832567965762,
                1.3764960920715867,
                -0.9233703757982871,
                0.3011395221781157,
                -1.8456204358095887
            ]
        },
        {
            "positions": [
                -0.5637957097942357,
                -1.2695219634668842,
                1.4527926382758285,
                -0.9153251685523697,
                0.2789645470735828,
                -2.0041272429548607
            ]
        },
        {
            "positions": [
                -0.46572274641346617,
                -1.2518606701371922,
                1.5290891844800703,
                -0.9072799613064523,
                0.25678957196904995,
                -2.1626340501001327
            ]
        },
        {
            "positions": [
                -0.3676497830326968,
                -1.2341993768075004,
                1.6053857306843122,
                -0.8992347540605349,
                0.23461459686451713,
                -2.3211408572454046
            ]
        },
        {
            "positions": [
                -0.26957681965192726,
                -1.2165380834778083,
                1.681682276888554,
                -0.8911895468146175,
                0.21243962175998427,
                -2.4796476643906766
            ]
        },
        {
            "positions": [
                -0.17150385627115783,
                -1.1988767901481163,
                1.7579788230927957,
                -0.8831443395687002,
                0.1902646466554514,
                -2.6381544715359486
            ]
        },
        {
            "positions": [
                -0.0734308928903884,
                -1.1812154968184243,
                1.8342753692970377,
                -0.8750991323227828,
                0.16808967155091853,
                -2.7966612786812206
            ]
        },
        {
            "positions": [
                0.02464207049038103,
                -1.1635542034887325,
                1.9105719155012792,
                -0.8670539250768654,
                0.14591469644638572,
                -2.9551680858264926
            ]
        },
        {
            "positions": [
                0.12271503387115043,
                -1.1458929101590405,
                1.9868684617055212,
                -0.859008717830948,
                0.12373972134185285,
                -3.1136748929717646
            ]
        }
    ]
}