{
    "goal": {
        "global_pose": {
            "orientation": {
                "w": 0.5084816217422485,
                "x": -0.49083608388900757,
                "y": 0.5182115435600281,
                "z": -0.4816462993621826
            },
            "position": {
                "x": 0.5540239810943604,
                "y": 0.030875300988554955,
                "z": 0.16403168439865112
            }
        },
        "name": "move_to_storage_A"
    },
    "id": "STRIDE_move_to_storage_A_16",
    "joint_names": [
        "shoulder_pan_joint",
        "shoulder_lift_joint",
        "elbow_joint",
        "wrist_1_joint",
        "wrist_2_joint",
        "wrist_3_joint"
    ],
    "metrics": {
        "cart_traj_len": 0.35330488293360507,
        "distance_elbow_joint": 0.4508877986605282,
        "distance_shoulder_lift_joint": 0.23554717246773915,
        "distance_shoulder_pan_joint": 0.462108995148446,
        "distance_wrist_1_joint": 0.24219622456476342,
        "distance_wrist_2_joint": 1.0996949850284996,
        "distance_wrist_3_joint": 0.10453491908277579,
        "smoothness": 1.4432899370326045e-15,
        "time": 0.030592765,
        "traj_len": 1.610891087241081,
        "weighted_distance": 2.0361559720982987
    },
    "planner": "STRIDE",
    "start": {
        "state": {
            "elbow_joint": 1.9715477243005601,
            "shoulder_lift_joint": -1.1394853015351272,
            "shoulder_pan_joint": 0.12281154014795169,
            "wrist_1_joint": -0.7804696478968182,
            "wrist_2_joint": 0.12958648046900423,
            "wrist_3_joint": -3.192491284697111
        }
    },
    "waypoints": [
        {
            "positions": [
                0.12281154014795169,
                -1.1394853015351272,
                1.9715477243005601,
                -0.7804696478968182,
                0.12958648046900423,
                -3.192491284697111
            ]
        },
        {
            "positions": [
                0.0567959694124594,
                -1.1731348976019471,
                2.0359602669663497,
                -0.8150691085489272,
                0.2866857640445042,
                -3.177557724828143
            ]
        },
        {
            "positions": [
                -0.009219601323032886,
                -1.2067844936687668,
                2.1003728096321397,
                -0.8496685692010363,
                0.4437850476200041,
                -3.1626241649591753
            ]
        },
        {
            "positions": [
                -0.07523517205852516,
                -1.2404340897355868,
                2.1647853522979292,
                -0.8842680298531453,
                0.6008843311955041,
                -3.147690605090207
            ]
        },
        {
            "positions": [
                -0.14125074279401745,
                -1.2740836858024067,
                2.2291978949637192,
                -0.9188674905052544,
                0.757983614771004,
                -3.1327570452212394
            ]
        },
        {
            "positions": [
                -0.20726631352950975,
                -1.3077332818692267,
                2.293610437629509,
                -0.9534669511573635,
                0.9150828983465039,
                -3.1178234853522713
            ]
        },
        {
            "positions": [
                -0.273281884265002,
                -1.3413828779360464,
                2.3580229802952983,
                -0.9880664118094725,
                1.0721821819220039,
                -3.1028899254833036
            ]
        },
        {
            "positions": [
                -0.3392974550004943,
                -1.3750324740028663,
                2.4224355229610883,
                -1.0226658724615816,
                1.229281465497504,
                -3.0879563656143354
            ]
        }
    ]
}