{
    "goal": {
        "global_pose": {
            "orientation": {
                "w": 0.7047431468963623,
                "x": -0.7094548344612122,
                "y": 0.0024358443915843964,
                "z": -0.0022348060738295317
            },
            "position": {
                "x": 0.6094750761985779,
                "y": 0.3671506643295288,
                "z": 0.19426114857196808
            }
        },
        "name": "move_to_magneteinheit_A"
    },
    "id": "STRIDE_move_to_magneteinheit_A_119",
    "joint_names": [
        "shoulder_pan_joint",
        "shoulder_lift_joint",
        "elbow_joint",
        "wrist_1_joint",
        "wrist_2_joint",
        "wrist_3_joint"
    ],
    "metrics": {
        "cart_traj_len": 3.1088279876617584,
        "distance_elbow_joint": 3.941179337119392,
        "distance_shoulder_lift_joint": 0.45362787372253843,
        "distance_shoulder_pan_joint": 2.6450235966946294,
        "distance_wrist_1_joint": 3.5955570201570937,
        "distance_wrist_2_joint": 1.4459335973828467,
        "distance_wrist_3_joint": 0.5629785364110077,
        "smoothness": 0.01627511999898253,
        "time": 0.416456171,
        "traj_len": 3.555882444835249,
        "weighted_distance": 4.337251163104284
    },
    "planner": "STRIDE",
    "start": {
        "state": {
            "elbow_joint": -1.919618573717145,
            "shoulder_lift_joint": -1.2443395971678275,
            "shoulder_pan_joint": 2.6996025300909787,
            "wrist_1_joint": -1.548550951253194,
            "wrist_2_joint": -1.5709469090946802,
            "wrist_3_joint": 0.4420197732051276
        }
    },
    "waypoints": [
        {
            "positions": [
                2.6996025300909787,
                -1.2443395971678275,
                -1.919618573717145,
                -1.548550951253194,
                -1.5709469090946802,
                0.4420197732051276
            ]
        },
        {
            "positions": [
                2.604901171012491,
                -1.2385354892318678,
                -1.8037312910557997,
                -1.4169750891085569,
                -1.5273331125086311,
                0.43924695293767163
            ]
        },
        {
            "positions": [
                2.5101998119340037,
                -1.2327313812959082,
                -1.6878440083944546,
                -1.2853992269639194,
                -1.483719315922582,
                0.43647413267021573
            ]
        },
        {
            "positions": [
                2.415498452855516,
                -1.2269272733599486,
                -1.5719567257331093,
                -1.153823364819282,
                -1.4401055193365329,
                0.4337013124027598
            ]
        },
        {
            "positions": [
                2.3207970937770286,
                -1.221123165423989,
                -1.456069443071764,
                -1.0222475026746447,
                -1.3964917227504838,
                0.4309284921353039
            ]
        },
        {
            "positions": [
                2.226095734698541,
                -1.2153190574880293,
                -1.3401821604104187,
                -0.8906716405300072,
                -1.3528779261644348,
                0.4281556718678479
            ]
        },
        {
            "positions": [
                2.1313943756200535,
                -1.2095149495520696,
                -1.2242948777490734,
                -0.7590957783853699,
                -1.3092641295783858,
                0.42538285160039196
            ]
        },
        {
            "positions": [
                2.036693016541566,
                -1.20371084161611,
                -1.1084075950877283,
                -0.6275199162407326,
                -1.2656503329923368,
                0.42261003133293606
            ]
        },
        {
            "positions": [
                1.941991657463079,
                -1.1979067336801503,
                -0.9925203124263831,
                -0.4959440540960953,
                -1.2220365364062875,
                0.4198372110654801
            ]
        },
        {
            "positions": [
                1.8472902983845914,
                -1.1921026257441907,
                -0.8766330297650378,
                -0.36436819195145786,
                -1.1784227398202387,
                0.4170643907980242
            ]
        },
        {
            "positions": [
                1.7525889393061038,
                -1.186298517808231,
                -0.7607457471036927,
                -0.2327923298068204,
                -1.1348089432341895,
                0.41429157053056825
            ]
        },
        {
            "positions": [
                1.6578875802276163,
                -1.1804944098722714,
                -0.6448584644423474,
                -0.10121646766218317,
                -1.0911951466481404,
                0.41151875026311235
            ]
        },
        {
            "positions": [
                1.5631862211491288,
                -1.1746903019363117,
                -0.5289711817810021,
                0.030359394482454283,
                -1.0475813500620914,
                0.4087459299956564
            ]
        },
        {
            "positions": [
                1.4684848620706412,
                -1.168886194000352,
                -0.4130838991196568,
                0.16193525662709152,
                -1.0039675534760422,
                0.40597310972820044
            ]
        },
        {
            "positions": [
                1.3737835029921537,
                -1.1630820860643925,
                -0.29719661645831175,
                0.293511118771729,
                -0.9603537568899932,
                0.40320028946074454
            ]
        },
        {
            "positions": [
                1.2790821439136661,
                -1.1572779781284328,
                -0.18130933379696623,
                0.42508698091636643,
                -0.9167399603039441,
                0.4004274691932886
            ]
        },
        {
            "positions": [
                1.1843807848351788,
                -1.1514738701924732,
                -0.06542205113562116,
                0.5566628430610034,
                -0.8731261637178951,
                0.3976546489258327
            ]
        },
        {
            "positions": [
                1.089679425756691,
                -1.1456697622565135,
                0.05046523152572435,
                0.6882387052056411,
                -0.829512367131846,
                0.39488182865837673
            ]
        },
        {
            "positions": [
                0.9949780666782038,
                -1.1398656543205539,
                0.16635251418706942,
                0.8198145673502784,
                -0.785898570545797,
                0.3921090083909208
            ]
        },
        {
            "positions": [
                0.9002767075997162,
                -1.1340615463845942,
                0.2822397968484147,
                0.951390429494916,
                -0.7422847739597479,
                0.3893361881234649
            ]
        },
        {
            "positions": [
                0.8055753485212287,
                -1.1282574384486346,
                0.39812707950975956,
                1.0829662916395533,
                -0.6986709773736989,
                0.3865633678560089
            ]
        },
        {
            "positions": [
                0.7108739894427412,
                -1.122453330512675,
                0.5140143621711053,
                1.2145421537841905,
                -0.6550571807876497,
                0.383790547588553
            ]
        },
        {
            "positions": [
                0.6161726303642538,
                -1.1166492225767153,
                0.6299016448324501,
                1.3461180159288277,
                -0.6114433842016007,
                0.38101772732109707
            ]
        },
        {
            "positions": [
                0.5214712712857663,
                -1.1108451146407556,
                0.7457889274937959,
                1.4776938780734654,
                -0.5678295876155517,
                0.3782449070536411
            ]
        },
        {
            "positions": [
                0.4267699122072788,
                -1.105041006704796,
                0.8616762101551407,
                1.6092697402181027,
                -0.5242157910295027,
                0.3754720867861852
            ]
        },
        {
            "positions": [
                0.33206855312879124,
                -1.0992368987688363,
                0.977563492816486,
                1.7408456023627399,
                -0.4806019944434534,
                0.37269926651872926
            ]
        },
        {
            "positions": [
                0.2373671940503037,
                -1.0934327908328767,
                1.0934507754778313,
                1.8724214645073771,
                -0.4369881978574044,
                0.36992644625127336
            ]
        },
        {
            "positions": [
                0.14266583497181598,
                -1.087628682896917,
                1.2093380581391764,
                2.003997326652015,
                -0.3933744012713555,
                0.3671536259838174
            ]
        },
        {
            "positions": [
                0.08870917841870436,
                -0.9800406751110298,
                1.2820959557993084,
                2.0402392433097405,
                -0.3738415285606411,
                0.2993234165930253
            ]
        },
        {
            "positions": [
                0.09386321786924169,
                -0.9391292221543528,
                1.4308003019901203,
                2.039467532718191,
                -0.32399859980553203,
                0.21417637215815347
            ]
        },
        {
            "positions": [
                0.099017257319779,
                -0.8982177691976758,
                1.579504648180932,
                2.038695822126641,
                -0.27415567105042293,
                0.12902932772328163
            ]
        },
        {
            "positions": [
                0.10417129677031634,
                -0.8573063162409988,
                1.728208994371744,
                2.0379241115350917,
                -0.22431274229531378,
                0.04388228328840982
            ]
        },
        {
            "positions": [
                0.10932533622085366,
                -0.8163948632843219,
                1.876913340562556,
                2.037152400943542,
                -0.1744698135402047,
                -0.041264761146462034
            ]
        },
        {
            "positions": [
                0.1228394234410602,
                -0.7907117234452891,
                2.0215607634022463,
                2.0334724177155814,
                -0.12501331171183386,
                -0.12095876320588012
            ]
        }
    ]
}{
    "goal": {
        "global_pose": {
            "orientation": {
                "w": 0.7047431468963623,
                "x": -0.7094548344612122,
                "y": 0.0024358443915843964,
                "z": -0.0022348060738295317
            },
            "position": {
                "x": 0.6094750761985779,
                "y": 0.3671506643295288,
                "z": 0.19426114857196808
            }
        },
        "name": "move_to_magneteinheit_A"
    },
    "id": "STRIDE_move_to_magneteinheit_A_119",
    "joint_names": [
        "shoulder_pan_joint",
        "shoulder_lift_joint",
        "elbow_joint",
        "wrist_1_joint",
        "wrist_2_joint",
        "wrist_3_joint"
    ],
    "metrics": {
        "cart_traj_len": 1.1947034492018669,
        "distance_elbow_joint": 0.04563448627419309,
        "distance_shoulder_lift_joint": 0.7627329546397601,
        "distance_shoulder_pan_joint": 1.2414166152984871,
        "distance_wrist_1_joint": 1.1707869343075472,
        "distance_wrist_2_joint": 1.4504634069237259,
        "distance_wrist_3_joint": 4.331704270750874,
        "smoothness": 0.14557478978674218,
        "time": 0.2336492,
        "traj_len": 3.0004564099807527,
        "weighted_distance": 4.5041533667191676
    },
    "planner": "STRIDE",
    "start": {
        "state": {
            "elbow_joint": 1.919643534880228,
            "shoulder_lift_joint": -1.8972525353963687,
            "shoulder_pan_joint": -1.1188672234189438,
            "wrist_1_joint": -1.5931878212786155,
            "wrist_2_joint": 1.5706036197970081,
            "wrist_3_joint": 1.118896926603594
        }
    },
    "waypoints": [
        {
            "positions": [
                -1.1188672234189438,
                -1.8972525353963687,
                1.919643534880228,
                -1.5931878212786155,
                1.5706036197970081,
                1.118896926603594
            ]
        },
        {
            "positions": [
                -1.0683723641472378,
                -1.8649338026838438,
                1.9202599998566716,
                -1.5404335148101598,
                1.5019713818232783,
                0.9330418644268064
            ]
        },
        {
            "positions": [
                -1.017877504875532,
                -1.8326150699713188,
                1.9208764648331154,
                -1.4876792083417039,
                1.4333391438495484,
                0.7471868022500187
            ]
        },
        {
            "positions": [
                -0.9673826456038259,
                -1.8002963372587941,
                1.9214929298095589,
                -1.4349249018732482,
                1.3647069058758186,
                0.5613317400732311
            ]
        },
        {
            "positions": [
                -0.91688778633212,
                -1.7679776045462692,
                1.9221093947860026,
                -1.3821705954047925,
                1.2960746679020887,
                0.37547667789644334
            ]
        },
        {
            "positions": [
                -0.866392927060414,
                -1.7356588718337442,
                1.9227258597624461,
                -1.3294162889363368,
                1.2274424299283588,
                0.18962161571965575
            ]
        },
        {
            "positions": [
                -0.815898067788708,
                -1.7033401391212193,
                1.9233423247388899,
                -1.276661982467881,
                1.158810191954629,
                0.003766553542868145
            ]
        },
        {
            "positions": [
                -0.765403208517002,
                -1.6710214064086943,
                1.9239587897153334,
                -1.2239076759994252,
                1.0901779539808991,
                -0.18208850863391968
            ]
        },
        {
            "positions": [
                -0.7149083492452961,
                -1.6387026736961696,
                1.9245752546917771,
                -1.1711533695309695,
                1.0215457160071693,
                -0.3679435708107073
            ]
        },
        {
            "positions": [
                -0.6644134899735901,
                -1.6063839409836447,
                1.9251917196682207,
                -1.1183990630625138,
                0.9529134780334393,
                -0.5537986329874949
            ]
        },
        {
            "positions": [
                -0.6139186307018841,
                -1.5740652082711197,
                1.9258081846446644,
                -1.0656447565940579,
                0.8842812400597094,
                -0.7396536951642825
            ]
        },
        {
            "positions": [
                -0.5634237714301781,
                -1.5417464755585948,
                1.926424649621108,
                -1.0128904501256022,
                0.8156490020859796,
                -0.9255087573410703
            ]
        },
        {
            "positions": [
                -0.5129289121584722,
                -1.50942774284607,
                1.9270411145975517,
                -0.9601361436571465,
                0.7470167641122497,
                -1.1113638195178577
            ]
        },
        {
            "positions": [
                -0.4624340528867662,
                -1.4771090101335451,
                1.9276575795739952,
                -0.9073818371886907,
                0.6783845261385197,
                -1.2972188816946455
            ]
        },
        {
            "positions": [
                -0.41193919361506026,
                -1.4447902774210202,
                1.928274044550439,
                -0.854627530720235,
                0.60975228816479,
                -1.4830739438714333
            ]
        },
        {
            "positions": [
                -0.3614443343433542,
                -1.4124715447084952,
                1.9288905095268825,
                -0.8018732242517792,
                0.54112005019106,
                -1.6689290060482211
            ]
        },
        {
            "positions": [
                -0.3109494750716483,
                -1.3801528119959703,
                1.9295069745033262,
                -0.7491189177833235,
                0.47248781221733016,
                -1.8547840682250085
            ]
        },
        {
            "positions": [
                -0.26045461579994234,
                -1.3478340792834453,
                1.9301234394797697,
                -0.6963646113148677,
                0.4038555742436003,
                -2.0406391304017966
            ]
        },
        {
            "positions": [
                -0.2099597565282364,
                -1.3155153465709206,
                1.9307399044562135,
                -0.643610304846412,
                0.33522333626987044,
                -2.226494192578584
            ]
        },
        {
            "positions": [
                -0.15946489725653035,
                -1.2831966138583957,
                1.931356369432657,
                -0.5908559983779562,
                0.2665910982961407,
                -2.4123492547553718
            ]
        },
        {
            "positions": [
                -0.08896132497251194,
                -1.2460273555829489,
                1.939836782363098,
                -0.6329697762296782,
                0.229978376940426,
                -2.6124637771033488
            ]
        },
        {
            "positions": [
                -0.018457752688493534,
                -1.2088580973075023,
                1.948317195293539,
                -0.6750835540814002,
                0.1933656555847113,
                -2.812578299451326
            ]
        },
        {
            "positions": [
                0.05204581959552487,
                -1.1716888390320555,
                1.9567976082239802,
                -0.7171973319331221,
                0.1567529342289966,
                -3.012692821799303
            ]
        },
        {
            "positions": [
                0.12254939187954329,
                -1.1345195807566086,
                1.9652780211544212,
                -0.7593111097848441,
                0.12014021287328192,
                -3.21280734414728
            ]
        }
    ]
}