{
    "goal": {
        "global_pose": {
            "orientation": {
                "w": 0.7047431468963623,
                "x": -0.7094548344612122,
                "y": 0.0024358443915843964,
                "z": -0.0022348060738295317
            },
            "position": {
                "x": 0.6094750761985779,
                "y": 0.3671506643295288,
                "z": 0.19426114857196808
            }
        },
        "name": "move_to_magneteinheit_A"
    },
    "id": "STRIDE_move_to_magneteinheit_A_14",
    "joint_names": [
        "shoulder_pan_joint",
        "shoulder_lift_joint",
        "elbow_joint",
        "wrist_1_joint",
        "wrist_2_joint",
        "wrist_3_joint"
    ],
    "metrics": {
        "cart_traj_len": 3.507216756895047,
        "distance_elbow_joint": 3.8917083720926113,
        "distance_shoulder_lift_joint": 1.1009244485208936,
        "distance_shoulder_pan_joint": 3.9532328040142577,
        "distance_wrist_1_joint": 0.7723589906652532,
        "distance_wrist_2_joint": 1.7068884037253462,
        "distance_wrist_3_joint": 5.326387976006599,
        "smoothness": 0.24056339934857024,
        "time": 0.365713463,
        "traj_len": 4.0928597575564405,
        "weighted_distance": 5.466582510255266
    },
    "planner": "STRIDE",
    "start": {
        "state": {
            "elbow_joint": -1.919618573717145,
            "shoulder_lift_joint": -1.2443395971678275,
            "shoulder_pan_joint": 2.6996025300909787,
            "wrist_1_joint": -1.548550951253194,
            "wrist_2_joint": -1.5709469090946802,
            "wrist_3_joint": 0.4420197732051276
        }
    },
    "waypoints": [
        {
            "positions": [
                2.6996025300909787,
                -1.2443395971678275,
                -1.919618573717145,
                -1.548550951253194,
                -1.5709469090946802,
                0.4420197732051276
            ]
        },
        {
            "positions": [
                2.536368943759138,
                -1.2692443649366898,
                -1.8302734506260865,
                -1.517021179928983,
                -1.5643049944213085,
                0.3751374566235349
            ]
        },
        {
            "positions": [
                2.373135357427297,
                -1.294149132705552,
                -1.740928327535028,
                -1.4854914086047721,
                -1.5576630797479367,
                0.3082551400419422
            ]
        },
        {
            "positions": [
                2.2099017710954567,
                -1.3190539004744144,
                -1.6515832044439696,
                -1.453961637280561,
                -1.5510211650745651,
                0.24137282346034955
            ]
        },
        {
            "positions": [
                2.046668184763616,
                -1.3439586682432767,
                -1.562238081352911,
                -1.42243186595635,
                -1.5443792504011935,
                0.17449050687875683
            ]
        },
        {
            "positions": [
                1.883434598431775,
                -1.368863436012139,
                -1.4728929582618528,
                -1.390902094632139,
                -1.537737335727822,
                0.10760819029716417
            ]
        },
        {
            "positions": [
                1.7202010120999343,
                -1.3937682037810013,
                -1.3835478351707944,
                -1.359372323307928,
                -1.53109542105445,
                0.040725873715571514
            ]
        },
        {
            "positions": [
                1.5569674257680937,
                -1.4186729715498636,
                -1.294202712079736,
                -1.327842551983717,
                -1.5244535063810785,
                -0.026156442866021146
            ]
        },
        {
            "positions": [
                1.3937338394362528,
                -1.4435777393187261,
                -1.2048575889886775,
                -1.296312780659506,
                -1.5178115917077069,
                -0.09303875944761392
            ]
        },
        {
            "positions": [
                1.230500253104412,
                -1.4684825070875882,
                -1.115512465897619,
                -1.264783009335295,
                -1.511169677034335,
                -0.15992107602920652
            ]
        },
        {
            "positions": [
                1.0672666667725714,
                -1.4933872748564507,
                -1.0261673428065605,
                -1.233253238011084,
                -1.5045277623609634,
                -0.22680339261079924
            ]
        },
        {
            "positions": [
                0.9040330804407306,
                -1.518292042625313,
                -0.936822219715502,
                -1.201723466686873,
                -1.4978858476875918,
                -0.29368570919239195
            ]
        },
        {
            "positions": [
                0.74079949410889,
                -1.5431968103941753,
                -0.8474770966244436,
                -1.170193695362662,
                -1.49124393301422,
                -0.36056802577398456
            ]
        },
        {
            "positions": [
                0.577565907777049,
                -1.5681015781630376,
                -0.7581319735333851,
                -1.1386639240384508,
                -1.4846020183408484,
                -0.4274503423555773
            ]
        },
        {
            "positions": [
                0.4143323214452086,
                -1.5930063459319,
                -0.6687868504423269,
                -1.10713415271424,
                -1.4779601036674768,
                -0.4943326589371699
            ]
        },
        {
            "positions": [
                0.2510987351133678,
                -1.6179111137007622,
                -0.5794417273512684,
                -1.075604381390029,
                -1.471318188994105,
                -0.5612149755187625
            ]
        },
        {
            "positions": [
                0.08786514878152696,
                -1.6428158814696245,
                -0.49009660426020973,
                -1.044074610065818,
                -1.4646762743207333,
                -0.6280972921003554
            ]
        },
        {
            "positions": [
                -0.07536843755031342,
                -1.6677206492384868,
                -0.4007514811691515,
                -1.012544838741607,
                -1.4580343596473617,
                -0.694979608681948
            ]
        },
        {
            "positions": [
                -0.23860202388215468,
                -1.6926254170073491,
                -0.311406358078093,
                -0.9810150674173959,
                -1.4513924449739901,
                -0.7618619252635406
            ]
        },
        {
            "positions": [
                -0.40183561021399505,
                -1.7175301847762114,
                -0.22206123498703456,
                -0.949485296093185,
                -1.4447505303006183,
                -0.8287442418451332
            ]
        },
        {
            "positions": [
                -0.5650691965458361,
                -1.7424349525450737,
                -0.1327161118959762,
                -0.9179555247689739,
                -1.4381086156272467,
                -0.8956265584267261
            ]
        },
        {
            "positions": [
                -0.5351317583989907,
                -1.7162249919736108,
                -0.04120281144939178,
                -0.9117918915437117,
                -1.3696716543116851,
                -0.7222030086713024
            ]
        },
        {
            "positions": [
                -0.5051943202521454,
                -1.6900150314021478,
                0.05031048899719265,
                -0.9056282583184493,
                -1.3012346929961238,
                -0.5487794589158786
            ]
        },
        {
            "positions": [
                -0.4752568821053001,
                -1.663805070830685,
                0.1418237894437771,
                -0.899464625093187,
                -1.2327977316805625,
                -0.3753559091604549
            ]
        },
        {
            "positions": [
                -0.4453194439584548,
                -1.637595110259222,
                0.2333370898903615,
                -0.8933009918679247,
                -1.164360770365001,
                -0.20193235940503118
            ]
        },
        {
            "positions": [
                -0.41538200581160944,
                -1.6113851496877591,
                0.32485039033694596,
                -0.8871373586426624,
                -1.0959238090494396,
                -0.028508809649607447
            ]
        },
        {
            "positions": [
                -0.3854445676647641,
                -1.5851751891162962,
                0.4163636907835304,
                -0.8809737254174,
                -1.027486847733878,
                0.1449147401058163
            ]
        },
        {
            "positions": [
                -0.35550712951791874,
                -1.5589652285448332,
                0.5078769912301149,
                -0.8748100921921378,
                -0.9590498864183167,
                0.31833828986124024
            ]
        },
        {
            "positions": [
                -0.32556969137107344,
                -1.5327552679733703,
                0.5993902916766992,
                -0.8686464589668755,
                -0.8906129251027552,
                0.49176183961666375
            ]
        },
        {
            "positions": [
                -0.2956322532242281,
                -1.5065453074019075,
                0.6909035921232838,
                -0.8624828257416132,
                -0.8221759637871938,
                0.6651853893720877
            ]
        },
        {
            "positions": [
                -0.2656948150773828,
                -1.4803353468304445,
                0.7824168925698681,
                -0.8563191925163509,
                -0.7537390024716325,
                0.8386089391275112
            ]
        },
        {
            "positions": [
                -0.23575737693053744,
                -1.4541253862589816,
                0.8739301930164526,
                -0.8501555592910885,
                -0.685302041156071,
                1.012032488882935
            ]
        },
        {
            "positions": [
                -0.2058199387836921,
                -1.4279154256875186,
                0.965443493463037,
                -0.8439919260658263,
                -0.6168650798405096,
                1.1854560386383586
            ]
        },
        {
            "positions": [
                -0.1758825006368468,
                -1.4017054651160556,
                1.0569567939096212,
                -0.8378282928405639,
                -0.5484281185249482,
                1.358879588393782
            ]
        },
        {
            "positions": [
                -0.1459450624900014,
                -1.3754955045445927,
                1.148470094356206,
                -0.8316646596153017,
                -0.4799911572093867,
                1.5323031381492065
            ]
        },
        {
            "positions": [
                -0.11600762434315609,
                -1.3492855439731297,
                1.2399833948027905,
                -0.8255010263900393,
                -0.41155419589382536,
                1.70572668790463
            ]
        },
        {
            "positions": [
                -0.0860701861963108,
                -1.323075583401667,
                1.3314966952493745,
                -0.819337393164777,
                -0.3431172345782638,
                1.8791502376600535
            ]
        },
        {
            "positions": [
                -0.05613274804946544,
                -1.296865622830204,
                1.423009995695959,
                -0.8131737599395148,
                -0.2746802732627025,
                2.052573787415477
            ]
        },
        {
            "positions": [
                -0.02619530990262009,
                -1.270655662258741,
                1.5145232961425439,
                -0.8070101267142524,
                -0.20624331194714096,
                2.2259973371709014
            ]
        },
        {
            "positions": [
                0.0037421282442252624,
                -1.244445701687278,
                1.606036596589128,
                -0.8008464934889902,
                -0.13780635063157964,
                2.399420886926325
            ]
        },
        {
            "positions": [
                0.0336795663910705,
                -1.2182357411158153,
                1.6975498970357124,
                -0.7946828602637278,
                -0.06936938931601833,
                2.5728444366817484
            ]
        },
        {
            "positions": [
                0.06361700453791586,
                -1.1920257805443524,
                1.7890631974822968,
                -0.7885192270384656,
                -0.0009324280004567864,
                2.746267986437172
            ]
        },
        {
            "positions": [
                0.09355444268476121,
                -1.1658158199728894,
                1.8805764979288813,
                -0.7823555938132032,
                0.06750453331510475,
                2.9196915361925964
            ]
        },
        {
            "positions": [
                0.12349188083160653,
                -1.1396058594014264,
                1.972089798375466,
                -0.7761919605879409,
                0.135941494630666,
                3.09311508594802
            ]
        }
    ]
}{
    "goal": {
        "global_pose": {
            "orientation": {
                "w": 0.7047431468963623,
                "x": -0.7094548344612122,
                "y": 0.0024358443915843964,
                "z": -0.0022348060738295317
            },
            "position": {
                "x": 0.6094750761985779,
                "y": 0.3671506643295288,
                "z": 0.19426114857196808
            }
        },
        "name": "move_to_magneteinheit_A"
    },
    "id": "STRIDE_move_to_magneteinheit_A_14",
    "joint_names": [
        "shoulder_pan_joint",
        "shoulder_lift_joint",
        "elbow_joint",
        "wrist_1_joint",
        "wrist_2_joint",
        "wrist_3_joint"
    ],
    "metrics": {
        "cart_traj_len": 1.2506131982706086,
        "distance_elbow_joint": 0.06990313057410447,
        "distance_shoulder_lift_joint": 1.1218233927033556,
        "distance_shoulder_pan_joint": 1.2422611180138623,
        "distance_wrist_1_joint": 3.5078553822243506,
        "distance_wrist_2_joint": 1.6979540831915934,
        "distance_wrist_3_joint": 1.1138640807043105,
        "smoothness": 0.0,
        "time": 0.23653106200000001,
        "traj_len": 2.9586586804515957,
        "weighted_distance": 4.023331805138142
    },
    "planner": "STRIDE",
    "start": {
        "state": {
            "elbow_joint": 1.919643534880228,
            "shoulder_lift_joint": -1.8972525353963687,
            "shoulder_pan_joint": -1.1188672234189438,
            "wrist_1_joint": -1.5931878212786155,
            "wrist_2_joint": 1.5706036197970081,
            "wrist_3_joint": 1.118896926603594
        }
    },
    "waypoints": [
        {
            "positions": [
                -1.1188672234189438,
                -1.8972525353963687,
                1.919643534880228,
                -1.5931878212786155,
                1.5706036197970081,
                1.118896926603594
            ]
        },
        {
            "positions": [
                -1.0648558704618194,
                -1.8484776052788314,
                1.9226828014269284,
                -1.4406723698775568,
                1.4967795292234607,
                1.0704680535294935
            ]
        },
        {
            "positions": [
                -1.010844517504695,
                -1.7997026751612943,
                1.9257220679736284,
                -1.288156918476498,
                1.422955438649913,
                1.022039180455393
            ]
        },
        {
            "positions": [
                -0.9568331645475705,
                -1.7509277450437573,
                1.9287613345203287,
                -1.1356414670754393,
                1.3491313480763656,
                0.9736103073812926
            ]
        },
        {
            "positions": [
                -0.902821811590446,
                -1.70215281492622,
                1.9318006010670288,
                -0.9831260156743806,
                1.275307257502818,
                0.9251814343071921
            ]
        },
        {
            "positions": [
                -0.8488104586333216,
                -1.6533778848086826,
                1.934839867613729,
                -0.8306105642733219,
                1.2014831669292705,
                0.8767525612330916
            ]
        },
        {
            "positions": [
                -0.7947991056761972,
                -1.6046029546911456,
                1.9378791341604293,
                -0.6780951128722632,
                1.127659076355723,
                0.8283236881589913
            ]
        },
        {
            "positions": [
                -0.7407877527190727,
                -1.5558280245736082,
                1.9409184007071294,
                -0.5255796614712043,
                1.0538349857821754,
                0.7798948150848908
            ]
        },
        {
            "positions": [
                -0.6867763997619483,
                -1.5070530944560712,
                1.9439576672538297,
                -0.3730642100701458,
                0.9800108952086278,
                0.7314659420107903
            ]
        },
        {
            "positions": [
                -0.6327650468048238,
                -1.4582781643385339,
                1.9469969338005297,
                -0.22054875866908685,
                0.9061868046350803,
                0.6830370689366898
            ]
        },
        {
            "positions": [
                -0.5787536938476994,
                -1.4095032342209968,
                1.95003620034723,
                -0.06803330726802836,
                0.8323627140615327,
                0.6346081958625893
            ]
        },
        {
            "positions": [
                -0.5247423408905749,
                -1.3607283041034595,
                1.9530754668939303,
                0.08448214413303057,
                0.7585386234879852,
                0.5861793227884889
            ]
        },
        {
            "positions": [
                -0.4707309879334505,
                -1.3119533739859224,
                1.9561147334406304,
                0.23699759553408906,
                0.6847145329144377,
                0.5377504497143885
            ]
        },
        {
            "positions": [
                -0.416719634976326,
                -1.263178443868385,
                1.9591539999873306,
                0.38951304693514777,
                0.6108904423408902,
                0.4893215766402881
            ]
        },
        {
            "positions": [
                -0.3627082820192016,
                -1.214403513750848,
                1.962193266534031,
                0.5420284983362069,
                0.5370663517673426,
                0.4408927035661875
            ]
        },
        {
            "positions": [
                -0.30869692906207713,
                -1.1656285836333107,
                1.965232533080731,
                0.6945439497372654,
                0.46324226119379497,
                0.3924638304920871
            ]
        },
        {
            "positions": [
                -0.2546855761049527,
                -1.1168536535157734,
                1.9682717996274313,
                0.8470594011383239,
                0.38941817062024753,
                0.3440349574179866
            ]
        },
        {
            "positions": [
                -0.20067422314782835,
                -1.0680787233982363,
                1.9713110661741313,
                0.9995748525393824,
                0.3155940800467001,
                0.29560608434388624
            ]
        },
        {
            "positions": [
                -0.1466628701907038,
                -1.0193037932806992,
                1.9743503327208316,
                1.1520903039404418,
                0.24176998947315242,
                0.24717721126978565
            ]
        },
        {
            "positions": [
                -0.09265151723357934,
                -0.9705288631631619,
                1.9773895992675319,
                1.3046057553415003,
                0.16794589889960498,
                0.19874833819568527
            ]
        },
        {
            "positions": [
                -0.03864016427645489,
                -0.9217539330456247,
                1.980428865814232,
                1.4571212067425587,
                0.09412180832605732,
                0.15031946512158478
            ]
        },
        {
            "positions": [
                0.015371188680669556,
                -0.8729790029280875,
                1.9834681323609322,
                1.6096366581436177,
                0.02029771775250988,
                0.10189059204748441
            ]
        },
        {
            "positions": [
                0.069382541637794,
                -0.8242040728105502,
                1.9865073989076323,
                1.7621521095446766,
                -0.05352637282103778,
                0.05346171897338392
            ]
        },
        {
            "positions": [
                0.12339389459491835,
                -0.775429142693013,
                1.9895466654543326,
                1.914667560945735,
                -0.12735046339458525,
                0.005032845899283349
            ]
        }
    ]
}