{
    "goal": {
        "global_pose": {
            "orientation": {
                "w": 0.5084816217422485,
                "x": -0.49083608388900757,
                "y": 0.5182115435600281,
                "z": -0.4816462993621826
            },
            "position": {
                "x": 0.5540239810943604,
                "y": 0.030875300988554955,
                "z": 0.16403168439865112
            }
        },
        "name": "move_to_storage_A"
    },
    "id": "STRIDE_move_to_storage_A_102",
    "joint_names": [
        "shoulder_pan_joint",
        "shoulder_lift_joint",
        "elbow_joint",
        "wrist_1_joint",
        "wrist_2_joint",
        "wrist_3_joint"
    ],
    "metrics": {
        "cart_traj_len": 0.3537462892152425,
        "distance_elbow_joint": 0.4498780688754551,
        "distance_shoulder_lift_joint": 0.23414995422938012,
        "distance_shoulder_pan_joint": 0.4648156258328162,
        "distance_wrist_1_joint": 0.2423425345675182,
        "distance_wrist_2_joint": 1.090287221279313,
        "distance_wrist_3_joint": 0.09888908143855346,
        "smoothness": 4.440892098500626e-16,
        "time": 0.047428755,
        "traj_len": 1.6063506734903918,
        "weighted_distance": 2.027503490736076
    },
    "planner": "STRIDE",
    "start": {
        "state": {
            "elbow_joint": 1.9715477243005601,
            "shoulder_lift_joint": -1.1394853015351272,
            "shoulder_pan_joint": 0.12281154014795169,
            "wrist_1_joint": -0.7804696478968182,
            "wrist_2_joint": 0.12958648046900423,
            "wrist_3_joint": -3.192491284697111
        }
    },
    "waypoints": [
        {
            "positions": [
                0.12281154014795169,
                -1.1394853015351272,
                1.9715477243005601,
                -0.7804696478968182,
                0.12958648046900423,
                -3.192491284697111
            ]
        },
        {
            "positions": [
                0.05640930788612081,
                -1.172935294996467,
                2.0358160198541966,
                -0.8150900099778922,
                0.2853417977946204,
                -3.178364273063032
            ]
        },
        {
            "positions": [
                -0.009992924375710074,
                -1.2063852884578072,
                2.100084315407833,
                -0.8497103720589663,
                0.4410971151202365,
                -3.164237261428953
            ]
        },
        {
            "positions": [
                -0.07639515663754097,
                -1.2398352819191472,
                2.1643526109614695,
                -0.8843307341400403,
                0.5968524324458526,
                -3.150110249794874
            ]
        },
        {
            "positions": [
                -0.14279738889937182,
                -1.2732852753804873,
                2.228620906515106,
                -0.9189510962211143,
                0.7526077497714688,
                -3.135983238160795
            ]
        },
        {
            "positions": [
                -0.20919962116120272,
                -1.3067352688418272,
                2.2928892020687424,
                -0.9535714583021884,
                0.908363067097085,
                -3.121856226526716
            ]
        },
        {
            "positions": [
                -0.2756018534230336,
                -1.3401852623031671,
                2.357157497622379,
                -0.9881918203832623,
                1.0641183844227011,
                -3.107729214892637
            ]
        },
        {
            "positions": [
                -0.3420040856848645,
                -1.3736352557645073,
                2.4214257931760153,
                -1.0228121824643364,
                1.2198737017483172,
                -3.0936022032585577
            ]
        }
    ]
}