{
    "goal": {
        "global_pose": {
            "orientation": {
                "w": 0.7047431468963623,
                "x": -0.7094548344612122,
                "y": 0.0024358443915843964,
                "z": -0.0022348060738295317
            },
            "position": {
                "x": 0.6094750761985779,
                "y": 0.3671506643295288,
                "z": 0.19426114857196808
            }
        },
        "name": "move_to_magneteinheit_A"
    },
    "id": "STRIDE_move_to_magneteinheit_A_33",
    "joint_names": [
        "shoulder_pan_joint",
        "shoulder_lift_joint",
        "elbow_joint",
        "wrist_1_joint",
        "wrist_2_joint",
        "wrist_3_joint"
    ],
    "metrics": {
        "cart_traj_len": 3.72535172022407,
        "distance_elbow_joint": 4.614093409741891,
        "distance_shoulder_lift_joint": 0.8202693671608919,
        "distance_shoulder_pan_joint": 3.954138747455744,
        "distance_wrist_1_joint": 3.9253886793601898,
        "distance_wrist_2_joint": 3.019960667772383,
        "distance_wrist_3_joint": 2.835027055519546,
        "smoothness": 0.3863302603516473,
        "time": 0.215716164,
        "traj_len": 4.378227715298811,
        "weighted_distance": 5.637754995136123
    },
    "planner": "STRIDE",
    "start": {
        "state": {
            "elbow_joint": -1.919618573717145,
            "shoulder_lift_joint": -1.2443395971678275,
            "shoulder_pan_joint": 2.6996025300909787,
            "wrist_1_joint": -1.548550951253194,
            "wrist_2_joint": -1.5709469090946802,
            "wrist_3_joint": 0.4420197732051276
        }
    },
    "waypoints": [
        {
            "positions": [
                2.6996025300909787,
                -1.2443395971678275,
                -1.919618573717145,
                -1.548550951253194,
                -1.5709469090946802,
                0.4420197732051276
            ]
        },
        {
            "positions": [
                2.5742446881370733,
                -1.2264782199866604,
                -1.8672383129045218,
                -1.4600420771293032,
                -1.5362517947114602,
                0.3772228775061658
            ]
        },
        {
            "positions": [
                2.448886846183168,
                -1.208616842805493,
                -1.8148580520918987,
                -1.3715332030054121,
                -1.50155668032824,
                0.31242598180720393
            ]
        },
        {
            "positions": [
                2.323529004229263,
                -1.190755465624326,
                -1.7624777912792757,
                -1.2830243288815213,
                -1.4668615659450202,
                0.24762908610824208
            ]
        },
        {
            "positions": [
                2.1981711622753575,
                -1.172894088443159,
                -1.7100975304666526,
                -1.1945154547576304,
                -1.4321664515618002,
                0.18283219040928028
            ]
        },
        {
            "positions": [
                2.072813320321452,
                -1.1550327112619918,
                -1.6577172696540294,
                -1.1060065806337394,
                -1.39747133717858,
                0.11803529471031843
            ]
        },
        {
            "positions": [
                1.9474554783675466,
                -1.1371713340808245,
                -1.6053370088414063,
                -1.0174977065098485,
                -1.3627762227953601,
                0.053238399011356574
            ]
        },
        {
            "positions": [
                1.8220976364136416,
                -1.1193099568996574,
                -1.5529567480287834,
                -0.9289888323859576,
                -1.3280811084121402,
                -0.011558496687605169
            ]
        },
        {
            "positions": [
                1.696739794459736,
                -1.1014485797184903,
                -1.5005764872161602,
                -0.8404799582620667,
                -1.29338599402892,
                -0.07635539238656702
            ]
        },
        {
            "positions": [
                1.5713819525058308,
                -1.083587202537323,
                -1.448196226403537,
                -0.7519710841381758,
                -1.2586908796457001,
                -0.14115228808552888
            ]
        },
        {
            "positions": [
                1.4460241105519254,
                -1.065725825356156,
                -1.395815965590914,
                -0.6634622100142847,
                -1.22399576526248,
                -0.20594918378449073
            ]
        },
        {
            "positions": [
                1.3206662685980202,
                -1.0478644481749888,
                -1.3434357047782908,
                -0.5749533358903939,
                -1.18930065087926,
                -0.2707460794834525
            ]
        },
        {
            "positions": [
                1.1953084266441147,
                -1.0300030709938217,
                -1.2910554439656678,
                -0.4864444617665029,
                -1.1546055364960401,
                -0.33554297518241444
            ]
        },
        {
            "positions": [
                1.0699505846902095,
                -1.0121416938126544,
                -1.2386751831530447,
                -0.39793558764261205,
                -1.1199104221128202,
                -0.4003398708813762
            ]
        },
        {
            "positions": [
                0.9445927427363043,
                -0.9942803166314873,
                -1.1862949223404216,
                -0.3094267135187212,
                -1.0852153077296,
                -0.4651367665803379
            ]
        },
        {
            "positions": [
                0.8192349007823991,
                -0.9764189394503202,
                -1.1339146615277986,
                -0.22091783939483034,
                -1.0505201933463801,
                -0.5299336622792998
            ]
        },
        {
            "positions": [
                0.6938770588284933,
                -0.9585575622691529,
                -1.0815344007151753,
                -0.13240896527093926,
                -1.01582507896316,
                -0.5947305579782616
            ]
        },
        {
            "positions": [
                0.5685192168745883,
                -0.9406961850879858,
                -1.0291541399025523,
                -0.0439000911470484,
                -0.9811299645799401,
                -0.6595274536772235
            ]
        },
        {
            "positions": [
                0.44316137492068286,
                -0.9228348079068187,
                -0.9767738790899293,
                0.044608782976842454,
                -0.9464348501967201,
                -0.7243243493761853
            ]
        },
        {
            "positions": [
                0.3178035329667779,
                -0.9049734307256515,
                -0.9243936182773062,
                0.1331176571007333,
                -0.9117397358135001,
                -0.789121245075147
            ]
        },
        {
            "positions": [
                0.192445691012872,
                -0.8871120535444843,
                -0.8720133574646829,
                0.2216265312246246,
                -0.8770446214302801,
                -0.853918140774109
            ]
        },
        {
            "positions": [
                0.06708784905896703,
                -0.8692506763633172,
                -0.81963309665206,
                0.31013540534851547,
                -0.84234950704706,
                -0.9187150364730707
            ]
        },
        {
            "positions": [
                -0.058269992894938394,
                -0.8513892991821501,
                -0.7672528358394368,
                0.3986442794724063,
                -0.8076543926638401,
                -0.9835119321720325
            ]
        },
        {
            "positions": [
                -0.18362783484884337,
                -0.8335279220009829,
                -0.7148725750268139,
                0.4871531535962972,
                -0.77295927828062,
                -1.0483088278709944
            ]
        },
        {
            "positions": [
                -0.30898567680274924,
                -0.8156665448198157,
                -0.6624923142141905,
                0.5756620277201883,
                -0.7382641638974,
                -1.1131057235699564
            ]
        },
        {
            "positions": [
                -0.4343435187566542,
                -0.7978051676386486,
                -0.6101120534015676,
                0.6641709018440789,
                -0.70356904951418,
                -1.1779026192689181
            ]
        },
        {
            "positions": [
                -0.5597013607105594,
                -0.7799437904574814,
                -0.5577317925889445,
                0.7526797759679701,
                -0.66887393513096,
                -1.24269951496788
            ]
        },
        {
            "positions": [
                -0.5600582389588745,
                -0.7906146253022711,
                -0.38643727496637875,
                0.8373816968113752,
                -0.5905128723568891,
                -1.1985069473280412
            ]
        },
        {
            "positions": [
                -0.5604151172071895,
                -0.8012854601470608,
                -0.21514275734381305,
                0.9220836176547803,
                -0.5121518095828183,
                -1.1543143796882025
            ]
        },
        {
            "positions": [
                -0.5607719954555046,
                -0.8119562949918505,
                -0.043848239721247295,
                1.0067855384981854,
                -0.4337907468087473,
                -1.1101218120483636
            ]
        },
        {
            "positions": [
                -0.5611288737038196,
                -0.8226271298366402,
                0.12744627790131835,
                1.0914874593415904,
                -0.35542968403467645,
                -1.0659292444085249
            ]
        },
        {
            "positions": [
                -0.5614857519521347,
                -0.83329796468143,
                0.2987407955238841,
                1.1761893801849956,
                -0.2770686212606055,
                -1.0217366767686862
            ]
        },
        {
            "positions": [
                -0.5618426302004498,
                -0.8439687995262197,
                0.47003531314644986,
                1.2608913010284009,
                -0.1987075584865346,
                -0.9775441091288475
            ]
        },
        {
            "positions": [
                -0.5621995084487648,
                -0.8546396343710094,
                0.6413298307690154,
                1.3455932218718059,
                -0.12034649571246381,
                -0.9333515414890088
            ]
        },
        {
            "positions": [
                -0.5625563866970799,
                -0.8653104692157991,
                0.8126243483915812,
                1.4302951427152109,
                -0.04198543293839285,
                -0.8891589738491701
            ]
        },
        {
            "positions": [
                -0.5629132649453948,
                -0.8759813040605888,
                0.9839188660141469,
                1.514997063558616,
                0.0363756298356781,
                -0.8449664062093314
            ]
        },
        {
            "positions": [
                -0.5632701431937099,
                -0.8866521389053785,
                1.1552133836367127,
                1.5996989844020213,
                0.11473669260974906,
                -0.8007738385694926
            ]
        },
        {
            "positions": [
                -0.5636270214420249,
                -0.8973229737501682,
                1.3265079012592784,
                1.6844009052454263,
                0.1930977553838199,
                -0.7565812709296538
            ]
        },
        {
            "positions": [
                -0.56398389969034,
                -0.9079938085949579,
                1.4978024188818442,
                1.7691028260888313,
                0.27145881815789086,
                -0.7123887032898151
            ]
        },
        {
            "positions": [
                -0.5643407779386551,
                -0.9186646434397476,
                1.6690969365044095,
                1.8538047469322363,
                0.3498198809319617,
                -0.6681961356499765
            ]
        },
        {
            "positions": [
                -0.5646976561869701,
                -0.9293354782845373,
                1.8403914541269752,
                1.9385066677756413,
                0.42818094370603244,
                -0.6240035680101377
            ]
        },
        {
            "positions": [
                -0.5650545344352852,
                -0.9400063131293271,
                2.0116859717495412,
                2.0232085886190467,
                0.5065420064801034,
                -0.579811000370299
            ]
        },
        {
            "positions": [
                -0.5654114126836002,
                -0.9506771479741168,
                2.182980489372107,
                2.1079105094624517,
                0.5849030692541743,
                -0.5356184327304602
            ]
        },
        {
            "positions": [
                -0.5657682909319153,
                -0.9613479828189065,
                2.3542750069946727,
                2.1926124303058567,
                0.6632641320282453,
                -0.49142586509062147
            ]
        },
        {
            "positions": [
                -0.4673728728700796,
                -0.9364237873776036,
                2.3056750314189483,
                2.1662945306199797,
                0.551014185364037,
                -0.43442099116643884
            ]
        },
        {
            "positions": [
                -0.36897745480824395,
                -0.9114995919363006,
                2.2570750558432233,
                2.1399766309341026,
                0.43876423869982883,
                -0.3774161172422562
            ]
        },
        {
            "positions": [
                -0.27058203674640824,
                -0.8865753964949976,
                2.208475080267499,
                2.1136587312482256,
                0.32651429203562055,
                -0.3204112433180736
            ]
        },
        {
            "positions": [
                -0.17218661868457258,
                -0.8616512010536947,
                2.1598751046917744,
                2.087340831562348,
                0.2142643453714123,
                -0.2634063693938909
            ]
        },
        {
            "positions": [
                -0.07379120062273686,
                -0.8367270056123918,
                2.11127512911605,
                2.061022931876471,
                0.10201439870720397,
                -0.2064014954697082
            ]
        },
        {
            "positions": [
                0.024604217439098797,
                -0.8118028101710888,
                2.062675153540325,
                2.034705032190594,
                -0.01023554795700421,
                -0.14939662154552563
            ]
        },
        {
            "positions": [
                0.12299963550093455,
                -0.7868786147297858,
                2.0140751779646004,
                2.008387132504717,
                -0.12248549462121247,
                -0.09239174762134295
            ]
        }
    ]
}{
    "goal": {
        "global_pose": {
            "orientation": {
                "w": 0.7047431468963623,
                "x": -0.7094548344612122,
                "y": 0.0024358443915843964,
                "z": -0.0022348060738295317
            },
            "position": {
                "x": 0.6094750761985779,
                "y": 0.3671506643295288,
                "z": 0.19426114857196808
            }
        },
        "name": "move_to_magneteinheit_A"
    },
    "id": "STRIDE_move_to_magneteinheit_A_33",
    "joint_names": [
        "shoulder_pan_joint",
        "shoulder_lift_joint",
        "elbow_joint",
        "wrist_1_joint",
        "wrist_2_joint",
        "wrist_3_joint"
    ],
    "metrics": {
        "cart_traj_len": 1.2071182120540949,
        "distance_elbow_joint": 0.09125837058047415,
        "distance_shoulder_lift_joint": 0.7504087223292182,
        "distance_shoulder_pan_joint": 1.2416421828059627,
        "distance_wrist_1_joint": 0.7454240559789131,
        "distance_wrist_2_joint": 1.6015616119731442,
        "distance_wrist_3_joint": 4.240947736588746,
        "smoothness": 0.17462975605322859,
        "time": 0.26613692,
        "traj_len": 2.9446973834770285,
        "weighted_distance": 4.415894453152839
    },
    "planner": "STRIDE",
    "start": {
        "state": {
            "elbow_joint": 1.919643534880228,
            "shoulder_lift_joint": -1.8972525353963687,
            "shoulder_pan_joint": -1.1188672234189438,
            "wrist_1_joint": -1.5931878212786155,
            "wrist_2_joint": 1.5706036197970081,
            "wrist_3_joint": 1.118896926603594
        }
    },
    "waypoints": [
        {
            "positions": [
                -1.1188672234189438,
                -1.8972525353963687,
                1.919643534880228,
                -1.5931878212786155,
                1.5706036197970081,
                1.118896926603594
            ]
        },
        {
            "positions": [
                -1.0681935034669663,
                -1.8653506713876713,
                1.9190185211777266,
                -1.5613227629112223,
                1.4981012197887151,
                0.9186744525873803
            ]
        },
        {
            "positions": [
                -1.017519783514989,
                -1.8334488073789739,
                1.9183935074752252,
                -1.5294577045438293,
                1.4255988197804221,
                0.7184519785711667
            ]
        },
        {
            "positions": [
                -0.9668460635630115,
                -1.8015469433702764,
                1.9177684937727237,
                -1.4975926461764362,
                1.3530964197721294,
                0.5182295045549531
            ]
        },
        {
            "positions": [
                -0.9161723436110341,
                -1.7696450793615788,
                1.9171434800702223,
                -1.465727587809043,
                1.2805940197638364,
                0.3180070305387396
            ]
        },
        {
            "positions": [
                -0.8654986236590566,
                -1.7377432153528813,
                1.9165184663677208,
                -1.4338625294416498,
                1.2080916197555434,
                0.11778455652252595
            ]
        },
        {
            "positions": [
                -0.8148249037070792,
                -1.705841351344184,
                1.9158934526652194,
                -1.4019974710742569,
                1.1355892197472504,
                -0.08243791749368778
            ]
        },
        {
            "positions": [
                -0.7641511837551017,
                -1.6739394873354865,
                1.915268438962718,
                -1.3701324127068637,
                1.0630868197389574,
                -0.2826603915099013
            ]
        },
        {
            "positions": [
                -0.7134774638031243,
                -1.642037623326789,
                1.9146434252602165,
                -1.3382673543394705,
                0.9905844197306645,
                -0.4828828655261148
            ]
        },
        {
            "positions": [
                -0.6628037438511468,
                -1.6101357593180916,
                1.914018411557715,
                -1.3064022959720774,
                0.9180820197223716,
                -0.6831053395423285
            ]
        },
        {
            "positions": [
                -0.6121300238991694,
                -1.5782338953093942,
                1.9133933978552136,
                -1.2745372376046844,
                0.8455796197140786,
                -0.8833278135585421
            ]
        },
        {
            "positions": [
                -0.5614563039471918,
                -1.5463320313006965,
                1.912768384152712,
                -1.2426721792372912,
                0.7730772197057856,
                -1.083550287574756
            ]
        },
        {
            "positions": [
                -0.5107825839952145,
                -1.5144301672919993,
                1.9121433704502107,
                -1.210807120869898,
                0.7005748196974927,
                -1.2837727615909695
            ]
        },
        {
            "positions": [
                -0.4601088640432369,
                -1.4825283032833017,
                1.9115183567477092,
                -1.1789420625025049,
                0.6280724196891997,
                -1.483995235607183
            ]
        },
        {
            "positions": [
                -0.4094351440912596,
                -1.4506264392746042,
                1.9108933430452077,
                -1.147077004135112,
                0.5555700196809068,
                -1.6842177096233966
            ]
        },
        {
            "positions": [
                -0.358761424139282,
                -1.4187245752659068,
                1.9102683293427063,
                -1.1152119457677188,
                0.4830676196726138,
                -1.8844401836396105
            ]
        },
        {
            "positions": [
                -0.3080877041873047,
                -1.3868227112572094,
                1.9096433156402048,
                -1.0833468874003258,
                0.4105652196643208,
                -2.084662657655824
            ]
        },
        {
            "positions": [
                -0.25741398423532713,
                -1.3549208472485117,
                1.9090183019377034,
                -1.0514818290329324,
                0.3380628196560278,
                -2.2848851316720378
            ]
        },
        {
            "positions": [
                -0.2067402642833498,
                -1.3230189832398143,
                1.908393288235202,
                -1.0196167706655395,
                0.265560419647735,
                -2.485107605688251
            ]
        },
        {
            "positions": [
                -0.15606654433137224,
                -1.2911171192311168,
                1.9077682745327005,
                -0.9877517122981463,
                0.19305801963944202,
                -2.685330079704465
            ]
        },
        {
            "positions": [
                -0.1053928243793949,
                -1.2592152552224194,
                1.907143260830199,
                -0.9558866539307532,
                0.12055561963114902,
                -2.885552553720678
            ]
        },
        {
            "positions": [
                -0.05471910442741729,
                -1.227313391213722,
                1.9065182471276976,
                -0.92402159556336,
                0.04805321962285594,
                -3.085775027736892
            ]
        },
        {
            "positions": [
                0.03402792747980074,
                -1.1870786021404363,
                1.9455847885416695,
                -0.8858926804315312,
                0.087558825522352,
                -3.1039129188610217
            ]
        },
        {
            "positions": [
                0.12277495938701875,
                -1.1468438130671506,
                1.9846513299556412,
                -0.8477637652997023,
                0.12706443142184806,
                -3.1220508099851516
            ]
        }
    ]
}