{
    "goal": {
        "global_pose": {
            "orientation": {
                "w": 0.5084816217422485,
                "x": -0.49083608388900757,
                "y": 0.5182115435600281,
                "z": -0.4816462993621826
            },
            "position": {
                "x": 0.5540239810943604,
                "y": 0.030875300988554955,
                "z": 0.16403168439865112
            }
        },
        "name": "move_to_storage_A"
    },
    "id": "STRIDE_move_to_storage_A_43",
    "joint_names": [
        "shoulder_pan_joint",
        "shoulder_lift_joint",
        "elbow_joint",
        "wrist_1_joint",
        "wrist_2_joint",
        "wrist_3_joint"
    ],
    "metrics": {
        "cart_traj_len": 0.3527479217005183,
        "distance_elbow_joint": 0.4492617294494763,
        "distance_shoulder_lift_joint": 0.23226259142350614,
        "distance_shoulder_pan_joint": 0.4604674498228701,
        "distance_wrist_1_joint": 0.2443175883930001,
        "distance_wrist_2_joint": 1.1004037328406566,
        "distance_wrist_3_joint": 0.10241873531930201,
        "smoothness": 1.8873791433662325e-15,
        "time": 0.065328157,
        "traj_len": 1.609077943186349,
        "weighted_distance": 2.0343772066952264
    },
    "planner": "STRIDE",
    "start": {
        "state": {
            "elbow_joint": 1.9715477243005601,
            "shoulder_lift_joint": -1.1394853015351272,
            "shoulder_pan_joint": 0.12281154014795169,
            "wrist_1_joint": -0.7804696478968182,
            "wrist_2_joint": 0.12958648046900423,
            "wrist_3_joint": -3.192491284697111
        }
    },
    "waypoints": [
        {
            "positions": [
                0.12281154014795169,
                -1.1394853015351272,
                1.9715477243005601,
                -0.7804696478968182,
                0.12958648046900423,
                -3.192491284697111
            ]
        },
        {
            "positions": [
                0.057030475887541676,
                -1.1726656717384851,
                2.035727971364771,
                -0.8153721605243897,
                0.28678701373195514,
                -3.1778600367943537
            ]
        },
        {
            "positions": [
                -0.008750588372868337,
                -1.2058460419418433,
                2.099908218428982,
                -0.850274673151961,
                0.4439875469949061,
                -3.163228788891596
            ]
        },
        {
            "positions": [
                -0.07453165263327834,
                -1.2390264121452013,
                2.164088465493193,
                -0.8851771857795325,
                0.6011880802578571,
                -3.1485975409888387
            ]
        },
        {
            "positions": [
                -0.14031271689368835,
                -1.2722067823485592,
                2.2282687125574037,
                -0.9200796984071039,
                0.758388613520808,
                -3.1339662930860817
            ]
        },
        {
            "positions": [
                -0.20609378115409838,
                -1.3053871525519174,
                2.2924489596216144,
                -0.9549822110346754,
                0.915589146783759,
                -3.119335045183324
            ]
        },
        {
            "positions": [
                -0.27187484541450835,
                -1.3385675227552754,
                2.3566292066858257,
                -0.9898847236622468,
                1.0727896800467098,
                -3.1047037972805667
            ]
        },
        {
            "positions": [
                -0.3376559096749184,
                -1.3717478929586333,
                2.4208094537500364,
                -1.0247872362898183,
                1.2299902133096607,
                -3.090072549377809
            ]
        }
    ]
}