{
    "goal": {
        "global_pose": {
            "orientation": {
                "w": 0.5084816217422485,
                "x": -0.49083608388900757,
                "y": 0.5182115435600281,
                "z": -0.4816462993621826
            },
            "position": {
                "x": 0.5540239810943604,
                "y": 0.030875300988554955,
                "z": 0.16403168439865112
            }
        },
        "name": "move_to_storage_A"
    },
    "id": "TRRT_move_to_storage_A_9",
    "joint_names": [
        "shoulder_pan_joint",
        "shoulder_lift_joint",
        "elbow_joint",
        "wrist_1_joint",
        "wrist_2_joint",
        "wrist_3_joint"
    ],
    "metrics": {
        "cart_traj_len": 0.35326509235775516,
        "distance_elbow_joint": 0.45144196219502586,
        "distance_shoulder_lift_joint": 0.23613283447248534,
        "distance_shoulder_pan_joint": 0.46375933637128275,
        "distance_wrist_1_joint": 0.24648714893633705,
        "distance_wrist_2_joint": 1.0923170112411391,
        "distance_wrist_3_joint": 0.09062323681964957,
        "smoothness": 6.661338165333112e-16,
        "time": 0.019610631,
        "traj_len": 1.6064748768766723,
        "weighted_distance": 2.0250462127696482
    },
    "planner": "TRRT",
    "start": {
        "state": {
            "elbow_joint": 1.9715477243005601,
            "shoulder_lift_joint": -1.1394853015351272,
            "shoulder_pan_joint": 0.12281154014795169,
            "wrist_1_joint": -0.7804696478968182,
            "wrist_2_joint": 0.12958648046900423,
            "wrist_3_joint": -3.192491284697111
        }
    },
    "waypoints": [
        {
            "positions": [
                0.12281154014795169,
                -1.1394853015351272,
                1.9715477243005601,
                -0.7804696478968182,
                0.12958648046900423,
                -3.192491284697111
            ]
        },
        {
            "positions": [
                0.05656020638062559,
                -1.173218563602625,
                2.036039433185564,
                -0.8156820977448663,
                0.285631767789167,
                -3.1795451080085897
            ]
        },
        {
            "positions": [
                -0.009691127386700513,
                -1.206951825670123,
                2.1005311420705675,
                -0.8508945475929145,
                0.4416770551093297,
                -3.1665989313200686
            ]
        },
        {
            "positions": [
                -0.07594246115402663,
                -1.240685087737621,
                2.1650228509555713,
                -0.8861069974409626,
                0.5977223424294924,
                -3.153652754631547
            ]
        },
        {
            "positions": [
                -0.1421937949213527,
                -1.2744183498051187,
                2.229514559840575,
                -0.9213194472890107,
                0.7537676297496552,
                -3.1407065779430257
            ]
        },
        {
            "positions": [
                -0.20844512868867882,
                -1.3081516118726166,
                2.2940062687255787,
                -0.9565318971370589,
                0.9098129170698179,
                -3.127760401254504
            ]
        },
        {
            "positions": [
                -0.27469646245600493,
                -1.3418848739401146,
                2.358497977610582,
                -0.991744346985107,
                1.0658582043899805,
                -3.114814224565983
            ]
        },
        {
            "positions": [
                -0.34094779622333105,
                -1.3756181360076125,
                2.422989686495586,
                -1.0269567968331552,
                1.2219034917101435,
                -3.1018680478774616
            ]
        }
    ]
}