{
    "goal": {
        "global_pose": {
            "orientation": {
                "w": 0.7047431468963623,
                "x": -0.7094548344612122,
                "y": 0.0024358443915843964,
                "z": -0.0022348060738295317
            },
            "position": {
                "x": 0.6094750761985779,
                "y": 0.3671506643295288,
                "z": 0.19426114857196808
            }
        },
        "name": "move_to_magneteinheit_A"
    },
    "id": "TRRT_move_to_magneteinheit_A_58",
    "joint_names": [
        "shoulder_pan_joint",
        "shoulder_lift_joint",
        "elbow_joint",
        "wrist_1_joint",
        "wrist_2_joint",
        "wrist_3_joint"
    ],
    "metrics": {
        "cart_traj_len": 6.033253379761651,
        "distance_elbow_joint": 3.9210868315348106,
        "distance_shoulder_lift_joint": 2.9590029449649737,
        "distance_shoulder_pan_joint": 8.795708486433766,
        "distance_wrist_1_joint": 4.985384181284288,
        "distance_wrist_2_joint": 5.004481445905883,
        "distance_wrist_3_joint": 1.2938657608887725,
        "smoothness": 0.45931361281039185,
        "time": 0.110450471,
        "traj_len": 5.192256701186152,
        "weighted_distance": 6.287855500882652
    },
    "planner": "TRRT",
    "start": {
        "state": {
            "elbow_joint": -1.919618573717145,
            "shoulder_lift_joint": -1.2443395971678275,
            "shoulder_pan_joint": 2.6996025300909787,
            "wrist_1_joint": -1.548550951253194,
            "wrist_2_joint": -1.5709469090946802,
            "wrist_3_joint": 0.4420197732051276
        }
    },
    "waypoints": [
        {
            "positions": [
                2.6996025300909787,
                -1.2443395971678275,
                -1.919618573717145,
                -1.548550951253194,
                -1.5709469090946802,
                0.4420197732051276
            ]
        },
        {
            "positions": [
                2.587929511270421,
                -1.215918588334249,
                -1.8490962046446642,
                -1.441207136366747,
                -1.502393399359062,
                0.44204603961771005
            ]
        },
        {
            "positions": [
                2.4762564924498633,
                -1.1874975795006706,
                -1.7785738355721834,
                -1.3338633214802995,
                -1.4338398896234437,
                0.4420723060302925
            ]
        },
        {
            "positions": [
                2.364583473629305,
                -1.159076570667092,
                -1.7080514664997026,
                -1.2265195065938523,
                -1.3652863798878252,
                0.442098572442875
            ]
        },
        {
            "positions": [
                2.2529104548087475,
                -1.1306555618335135,
                -1.6375290974272219,
                -1.119175691707405,
                -1.296732870152207,
                0.4421248388554574
            ]
        },
        {
            "positions": [
                2.14123743598819,
                -1.102234552999935,
                -1.567006728354741,
                -1.0118318768209575,
                -1.2281793604165887,
                0.44215110526803986
            ]
        },
        {
            "positions": [
                2.029564417167632,
                -1.0738135441663563,
                -1.4964843592822605,
                -0.9044880619345105,
                -1.1596258506809705,
                0.4421773716806223
            ]
        },
        {
            "positions": [
                1.9178913983470742,
                -1.045392535332778,
                -1.4259619902097795,
                -0.7971442470480632,
                -1.091072340945352,
                0.4422036380932048
            ]
        },
        {
            "positions": [
                1.8062183795265163,
                -1.0169715264991994,
                -1.355439621137299,
                -0.6898004321616159,
                -1.0225188312097337,
                0.44222990450578725
            ]
        },
        {
            "positions": [
                1.6945453607059586,
                -0.9885505176656209,
                -1.284917252064818,
                -0.5824566172751686,
                -0.9539653214741155,
                0.44225617091836966
            ]
        },
        {
            "positions": [
                1.5828723418854007,
                -0.9601295088320424,
                -1.2143948829923374,
                -0.4751128023887212,
                -0.8854118117384971,
                0.4422824373309521
            ]
        },
        {
            "positions": [
                1.471199323064843,
                -0.931708499998464,
                -1.1438725139198564,
                -0.36776898750227405,
                -0.8168583020028789,
                0.4423087037435346
            ]
        },
        {
            "positions": [
                1.3595263042442853,
                -0.9032874911648854,
                -1.073350144847376,
                -0.26042517261582687,
                -0.7483047922672607,
                0.44233497015611706
            ]
        },
        {
            "positions": [
                1.2478532854237274,
                -0.8748664823313068,
                -1.0028277757748951,
                -0.15308135772937947,
                -0.6797512825316423,
                0.4423612365686995
            ]
        },
        {
            "positions": [
                1.1361802666031697,
                -0.8464454734977284,
                -0.9323054067024142,
                -0.0457375428429323,
                -0.611197772796024,
                0.442387502981282
            ]
        },
        {
            "positions": [
                1.0245072477826118,
                -0.8180244646641499,
                -0.8617830376299336,
                0.0616062720435151,
                -0.5426442630604056,
                0.44241376939386445
            ]
        },
        {
            "positions": [
                0.9128342289620541,
                -0.7896034558305713,
                -0.7912606685574528,
                0.16895008692996227,
                -0.47409075332478756,
                0.44244003580644686
            ]
        },
        {
            "positions": [
                0.8011612101414964,
                -0.7611824469969928,
                -0.720738299484972,
                0.27629390181640945,
                -0.4055372435891691,
                0.44246630221902933
            ]
        },
        {
            "positions": [
                0.6894881913209384,
                -0.7327614381634143,
                -0.6502159304124913,
                0.38363771670285696,
                -0.3369837338535508,
                0.4424925686316118
            ]
        },
        {
            "positions": [
                0.574605847901505,
                -0.7717396545176857,
                -0.5754967274245548,
                0.45589136947551623,
                -0.39255770425747066,
                0.41475833037270216
            ]
        },
        {
            "positions": [
                0.4597235044820718,
                -0.8107178708719571,
                -0.5007775244366184,
                0.5281450222481755,
                -0.4481316746613906,
                0.3870240921137926
            ]
        },
        {
            "positions": [
                0.34484116106263846,
                -0.8496960872262285,
                -0.42605832144868194,
                0.6003986750208348,
                -0.5037056450653105,
                0.35928985385488293
            ]
        },
        {
            "positions": [
                0.22995881764320514,
                -0.8886743035804998,
                -0.3513391184607455,
                0.672652327793494,
                -0.5592796154692303,
                0.33155561559597335
            ]
        },
        {
            "positions": [
                0.11507647422377187,
                -0.9276525199347712,
                -0.27661991547280906,
                0.7449059805661533,
                -0.6148535858731502,
                0.3038213773370637
            ]
        },
        {
            "positions": [
                0.00019413080433849927,
                -0.9666307362890425,
                -0.20190071248487262,
                0.8171596333388126,
                -0.6704275562770701,
                0.2760871390781541
            ]
        },
        {
            "positions": [
                -0.11468821261509488,
                -1.005608952643314,
                -0.12718150949693618,
                0.8894132861114719,
                -0.72600152668099,
                0.2483529008192445
            ]
        },
        {
            "positions": [
                -0.22957055603452814,
                -1.0445871689975852,
                -0.052462306508999745,
                0.9616669388841311,
                -0.7815754970849098,
                0.22061866256033488
            ]
        },
        {
            "positions": [
                -0.3444528994539614,
                -1.0835653853518568,
                0.022256896478936694,
                1.0339205916567904,
                -0.8371494674888298,
                0.19288442430142527
            ]
        },
        {
            "positions": [
                -0.45933524287339467,
                -1.122543601706128,
                0.09697609946687313,
                1.1061742444294498,
                -0.8927234378927495,
                0.16515018604251563
            ]
        },
        {
            "positions": [
                -0.5742175862928282,
                -1.1615218180603994,
                0.17169530245480957,
                1.178427897202109,
                -0.9482974082966695,
                0.13741594778360605
            ]
        },
        {
            "positions": [
                -0.6890999297122614,
                -1.2005000344146708,
                0.246414505442746,
                1.250681549974768,
                -1.0038713787005895,
                0.10968170952469641
            ]
        },
        {
            "positions": [
                -0.8039822731316947,
                -1.2394782507689421,
                0.32113370843068245,
                1.3229352027474275,
                -1.0594453491045093,
                0.08194747126578683
            ]
        },
        {
            "positions": [
                -0.9188646165511282,
                -1.2784564671232137,
                0.3958529114186189,
                1.3951888555200869,
                -1.1150193195084293,
                0.05421323300687719
            ]
        },
        {
            "positions": [
                -1.0337469599705615,
                -1.3174346834774848,
                0.47057211440655533,
                1.4674425082927458,
                -1.170593289912349,
                0.02647899474796761
            ]
        },
        {
            "positions": [
                -1.1486293033899946,
                -1.3564128998317564,
                0.5452913173944918,
                1.5396961610654052,
                -1.226167260316269,
                -0.001255243510942028
            ]
        },
        {
            "positions": [
                -1.263511646809428,
                -1.3953911161860275,
                0.6200105203824282,
                1.6119498138380646,
                -1.2817412307201888,
                -0.028989481769851666
            ]
        },
        {
            "positions": [
                -1.378393990228861,
                -1.434369332540299,
                0.6947297233703646,
                1.684203466610724,
                -1.3373152011241087,
                -0.05672372002876125
            ]
        },
        {
            "positions": [
                -1.4932763336482946,
                -1.4733475488945704,
                0.7694489263583011,
                1.756457119383383,
                -1.3928891715280287,
                -0.08445795828767089
            ]
        },
        {
            "positions": [
                -1.6081586770677276,
                -1.5123257652488418,
                0.8441681293462375,
                1.8287107721560423,
                -1.4484631419319485,
                -0.11219219654658052
            ]
        },
        {
            "positions": [
                -1.7230410204871611,
                -1.5513039816031131,
                0.918887332334174,
                1.9009644249287017,
                -1.5040371123358685,
                -0.13992643480549005
            ]
        },
        {
            "positions": [
                -1.8379233639065946,
                -1.5902821979573845,
                0.9936065353221104,
                1.973218077701361,
                -1.5596110827397882,
                -0.1676606730643997
            ]
        },
        {
            "positions": [
                -1.9528057073260277,
                -1.629260414311656,
                1.0683257383100468,
                2.04547173047402,
                -1.6151850531437082,
                -0.19539491132330933
            ]
        },
        {
            "positions": [
                -2.067688050745461,
                -1.6682386306659271,
                1.1430449412979833,
                2.1177253832466794,
                -1.6707590235476282,
                -0.22312914958221897
            ]
        },
        {
            "positions": [
                -2.1825703941648946,
                -1.7072168470201987,
                1.2177641442859197,
                2.1899790360193387,
                -1.726332993951548,
                -0.2508633878411286
            ]
        },
        {
            "positions": [
                -2.2974527375843277,
                -1.7461950633744698,
                1.2924833472738562,
                2.262232688791998,
                -1.781906964355468,
                -0.27859762610003813
            ]
        },
        {
            "positions": [
                -2.412335081003761,
                -1.7851732797287414,
                1.3672025502617924,
                2.334486341564657,
                -1.8374809347593877,
                -0.30633186435894777
            ]
        },
        {
            "positions": [
                -2.5272174244231946,
                -1.824151496083013,
                1.441921753249729,
                2.4067399943373164,
                -1.8930549051633077,
                -0.3340661026178574
            ]
        },
        {
            "positions": [
                -2.6420997678426277,
                -1.863129712437284,
                1.5166409562376657,
                2.478993647109976,
                -1.9486288755672274,
                -0.36180034087676705
            ]
        },
        {
            "positions": [
                -2.756982111262061,
                -1.9021079287915557,
                1.591360159225602,
                2.5512472998826348,
                -2.004202845971147,
                -0.3895345791356766
            ]
        },
        {
            "positions": [
                -2.871864454681494,
                -1.9410861451458268,
                1.6660793622135381,
                2.623500952655294,
                -2.059776816375067,
                -0.4172688173945862
            ]
        },
        {
            "positions": [
                -2.9867467981009277,
                -1.9800643615000983,
                1.7407985652014748,
                2.6957546054279535,
                -2.115350786778987,
                -0.44500305565349585
            ]
        },
        {
            "positions": [
                -2.8312788401888347,
                -1.9200582683689047,
                1.7538320498322844,
                2.6587006741977968,
                -2.015743225892021,
                -0.42470818859463677
            ]
        },
        {
            "positions": [
                -2.6758108822767412,
                -1.860052175237711,
                1.766865534463094,
                2.6216467429676396,
                -1.9161356650050554,
                -0.40441332153577775
            ]
        },
        {
            "positions": [
                -2.5203429243646482,
                -1.8000460821065174,
                1.7798990190939035,
                2.584592811737483,
                -1.8165281041180896,
                -0.38411845447691867
            ]
        },
        {
            "positions": [
                -2.364874966452555,
                -1.7400399889753237,
                1.792932503724713,
                2.547538880507326,
                -1.7169205432311236,
                -0.36382358741805965
            ]
        },
        {
            "positions": [
                -2.209407008540462,
                -1.68003389584413,
                1.8059659883555226,
                2.510484949277169,
                -1.6173129823441579,
                -0.34352872035920057
            ]
        },
        {
            "positions": [
                -2.053939050628369,
                -1.6200278027129364,
                1.8189994729863321,
                2.473431018047012,
                -1.5177054214571921,
                -0.3232338533003415
            ]
        },
        {
            "positions": [
                -1.8984710927162756,
                -1.5600217095817428,
                1.8320329576171417,
                2.436377086816855,
                -1.4180978605702261,
                -0.30293898624148247
            ]
        },
        {
            "positions": [
                -1.7430031348041821,
                -1.5000156164505491,
                1.8450664422479512,
                2.399323155586698,
                -1.3184902996832601,
                -0.2826441191826234
            ]
        },
        {
            "positions": [
                -1.5875351768920891,
                -1.4400095233193555,
                1.8580999268787608,
                2.3622692243565413,
                -1.2188827387962944,
                -0.26234925212376436
            ]
        },
        {
            "positions": [
                -1.432067218979996,
                -1.3800034301881619,
                1.8711334115095704,
                2.325215293126384,
                -1.1192751779093286,
                -0.2420543850649053
            ]
        },
        {
            "positions": [
                -1.2765992610679027,
                -1.3199973370569682,
                1.88416689614038,
                2.2881613618962273,
                -1.0196676170223626,
                -0.2217595180060462
            ]
        },
        {
            "positions": [
                -1.1211313031558097,
                -1.2599912439257746,
                1.8972003807711895,
                2.25110743066607,
                -0.9200600561353969,
                -0.20146465094718718
            ]
        },
        {
            "positions": [
                -0.9656633452437164,
                -1.199985150794581,
                1.910233865401999,
                2.2140534994359133,
                -0.8204524952484309,
                -0.1811697838883281
            ]
        },
        {
            "positions": [
                -0.8101953873316234,
                -1.1399790576633873,
                1.9232673500328086,
                2.1769995682057566,
                -0.7208449343614651,
                -0.16087491682946908
            ]
        },
        {
            "positions": [
                -0.65472742941953,
                -1.0799729645321936,
                1.9363008346636181,
                2.1399456369755994,
                -0.6212373734744991,
                -0.14058004977061
            ]
        },
        {
            "positions": [
                -0.49925947150743655,
                -1.019966871401,
                1.9493343192944277,
                2.1028917057454426,
                -0.5216298125875332,
                -0.12028518271175093
            ]
        },
        {
            "positions": [
                -0.34379151359534355,
                -0.9599607782698063,
                1.9623678039252372,
                2.065837774515286,
                -0.4220222517005676,
                -0.0999903156528919
            ]
        },
        {
            "positions": [
                -0.18832355568325054,
                -0.8999546851386127,
                1.9754012885560468,
                2.0287838432851286,
                -0.32241469081360163,
                -0.07969544859403282
            ]
        },
        {
            "positions": [
                -0.03285559777115754,
                -0.839948592007419,
                1.9884347731868564,
                1.9917299120549719,
                -0.22280712992663587,
                -0.0594005815351738
            ]
        },
        {
            "positions": [
                0.12261236014093593,
                -0.7799424988762252,
                2.001468257817666,
                1.9546759808248149,
                -0.12319956903966996,
                -0.03910571447631472
            ]
        }
    ]
}{
    "goal": {
        "global_pose": {
            "orientation": {
                "w": 0.7047431468963623,
                "x": -0.7094548344612122,
                "y": 0.0024358443915843964,
                "z": -0.0022348060738295317
            },
            "position": {
                "x": 0.6094750761985779,
                "y": 0.3671506643295288,
                "z": 0.19426114857196808
            }
        },
        "name": "move_to_magneteinheit_A"
    },
    "id": "TRRT_move_to_magneteinheit_A_58",
    "joint_names": [
        "shoulder_pan_joint",
        "shoulder_lift_joint",
        "elbow_joint",
        "wrist_1_joint",
        "wrist_2_joint",
        "wrist_3_joint"
    ],
    "metrics": {
        "cart_traj_len": 1.2963501810462503,
        "distance_elbow_joint": 0.23013823534362188,
        "distance_shoulder_lift_joint": 0.9143217556914938,
        "distance_shoulder_pan_joint": 1.2409746045841348,
        "distance_wrist_1_joint": 0.7848329518196971,
        "distance_wrist_2_joint": 1.4404213891932216,
        "distance_wrist_3_joint": 4.283296297638425,
        "smoothness": 0.17789700389818733,
        "time": 0.066372907,
        "traj_len": 2.9822785306323407,
        "weighted_distance": 4.436871890257861
    },
    "planner": "TRRT",
    "start": {
        "state": {
            "elbow_joint": 1.919643534880228,
            "shoulder_lift_joint": -1.8972525353963687,
            "shoulder_pan_joint": -1.1188672234189438,
            "wrist_1_joint": -1.5931878212786155,
            "wrist_2_joint": 1.5706036197970081,
            "wrist_3_joint": 1.118896926603594
        }
    },
    "waypoints": [
        {
            "positions": [
                -1.1188672234189438,
                -1.8972525353963687,
                1.919643534880228,
                -1.5931878212786155,
                1.5706036197970081,
                1.118896926603594
            ]
        },
        {
            "positions": [
                -1.0655249624545167,
                -1.857532733197859,
                1.9155398094008766,
                -1.5563292903120416,
                1.5030528433520813,
                0.9248170652678741
            ]
        },
        {
            "positions": [
                -1.0121827014900895,
                -1.8178129309993496,
                1.911436083921525,
                -1.5194707593454675,
                1.4355020669071543,
                0.7307372039321542
            ]
        },
        {
            "positions": [
                -0.9588404405256624,
                -1.77809312880084,
                1.9073323584421735,
                -1.4826122283788936,
                1.3679512904622275,
                0.5366573425964343
            ]
        },
        {
            "positions": [
                -0.9054981795612354,
                -1.7383733266023302,
                1.9032286329628219,
                -1.4457536974123197,
                1.3004005140173005,
                0.3425774812607144
            ]
        },
        {
            "positions": [
                -0.8521559185968082,
                -1.6986535244038208,
                1.8991249074834704,
                -1.4088951664457459,
                1.2328497375723737,
                0.14849761992499444
            ]
        },
        {
            "positions": [
                -0.798813657632381,
                -1.658933722205311,
                1.8950211820041187,
                -1.3720366354791718,
                1.165298961127447,
                -0.04558224141072542
            ]
        },
        {
            "positions": [
                -0.7454713966679539,
                -1.6192139200068016,
                1.8909174565247673,
                -1.3351781045125979,
                1.09774818468252,
                -0.2396621027464454
            ]
        },
        {
            "positions": [
                -0.6921291357035269,
                -1.579494117808292,
                1.8868137310454158,
                -1.298319573546024,
                1.0301974082375929,
                -0.43374196408216514
            ]
        },
        {
            "positions": [
                -0.6387868747390997,
                -1.5397743156097823,
                1.8827100055660642,
                -1.26146104257945,
                0.9626466317926662,
                -0.6278218254178851
            ]
        },
        {
            "positions": [
                -0.5854446137746725,
                -1.5000545134112726,
                1.8786062800867127,
                -1.224602511612876,
                0.8950958553477393,
                -0.8219016867536051
            ]
        },
        {
            "positions": [
                -0.5321023528102453,
                -1.460334711212763,
                1.874502554607361,
                -1.1877439806463022,
                0.8275450789028123,
                -1.0159815480893253
            ]
        },
        {
            "positions": [
                -0.47876009184581825,
                -1.4206149090142535,
                1.8703988291280096,
                -1.1508854496797283,
                0.7599943024578855,
                -1.2100614094250448
            ]
        },
        {
            "positions": [
                -0.42541783088139107,
                -1.380895106815744,
                1.866295103648658,
                -1.1140269187131542,
                0.6924435260129586,
                -1.4041412707607648
            ]
        },
        {
            "positions": [
                -0.372075569916964,
                -1.3411753046172343,
                1.8621913781693065,
                -1.0771683877465803,
                0.6248927495680316,
                -1.5982211320964848
            ]
        },
        {
            "positions": [
                -0.3187333089525368,
                -1.3014555024187247,
                1.858087652689955,
                -1.0403098567800062,
                0.5573419731231046,
                -1.7923009934322047
            ]
        },
        {
            "positions": [
                -0.26539104798810975,
                -1.261735700220215,
                1.8539839272106033,
                -1.0034513258134323,
                0.48979119667817783,
                -1.9863808547679243
            ]
        },
        {
            "positions": [
                -0.21204878702368246,
                -1.2220158980217053,
                1.849880201731252,
                -0.9665927948468584,
                0.42224042023325103,
                -2.180460716103645
            ]
        },
        {
            "positions": [
                -0.1587065260592554,
                -1.1822960958231958,
                1.8457764762519002,
                -0.9297342638802846,
                0.35468964378832424,
                -2.3745405774393644
            ]
        },
        {
            "positions": [
                -0.10536426509482832,
                -1.1425762936246864,
                1.8416727507725488,
                -0.8928757329137106,
                0.2871388673433972,
                -2.568620438775084
            ]
        },
        {
            "positions": [
                -0.052022004130401145,
                -1.1028564914261767,
                1.837569025293197,
                -0.8560172019471367,
                0.21958809089847042,
                -2.7627003001108044
            ]
        },
        {
            "positions": [
                0.0013202568340261317,
                -1.063136689227667,
                1.8334652998138457,
                -0.8191586709805627,
                0.15203731445354346,
                -2.956780161446524
            ]
        },
        {
            "positions": [
                0.06171381899960851,
                -1.103239643989063,
                1.9054452999524654,
                -0.8137567702197406,
                0.141109772528665,
                -3.0605897662406774
            ]
        },
        {
            "positions": [
                0.12210738116519089,
                -1.143342598750459,
                1.977425300091085,
                -0.8083548694589183,
                0.13018223060378653,
                -3.164399371034831
            ]
        }
    ]
}