{
    "goal": {
        "global_pose": {
            "orientation": {
                "w": 0.7047431468963623,
                "x": -0.7094548344612122,
                "y": 0.0024358443915843964,
                "z": -0.0022348060738295317
            },
            "position": {
                "x": 0.6094750761985779,
                "y": 0.3671506643295288,
                "z": 0.19426114857196808
            }
        },
        "name": "move_to_magneteinheit_A"
    },
    "id": "TRRT_move_to_magneteinheit_A_68",
    "joint_names": [
        "shoulder_pan_joint",
        "shoulder_lift_joint",
        "elbow_joint",
        "wrist_1_joint",
        "wrist_2_joint",
        "wrist_3_joint"
    ],
    "metrics": {
        "cart_traj_len": 1.2214636073737588,
        "distance_elbow_joint": 0.112277871620583,
        "distance_shoulder_lift_joint": 0.7665156197302769,
        "distance_shoulder_pan_joint": 1.2420265523047125,
        "distance_wrist_1_joint": 1.2962626914668194,
        "distance_wrist_2_joint": 1.433327138717867,
        "distance_wrist_3_joint": 4.379080305889989,
        "smoothness": 0.1976836155134018,
        "time": 0.144930275,
        "traj_len": 3.0380076003410936,
        "weighted_distance": 4.55161956029883
    },
    "planner": "TRRT",
    "start": {
        "state": {
            "elbow_joint": 1.919643534880228,
            "shoulder_lift_joint": -1.8972525353963687,
            "shoulder_pan_joint": -1.1188672234189438,
            "wrist_1_joint": -1.5931878212786155,
            "wrist_2_joint": 1.5706036197970081,
            "wrist_3_joint": 1.118896926603594
        }
    },
    "waypoints": [
        {
            "positions": [
                -1.1188672234189438,
                -1.8972525353963687,
                1.919643534880228,
                -1.5931878212786155,
                1.5706036197970081,
                1.118896926603594
            ]
        },
        {
            "positions": [
                -1.0735770744679265,
                -1.8642926419917267,
                1.917844519048292,
                -1.5412546685628485,
                1.502741406345472,
                0.9379495327519074
            ]
        },
        {
            "positions": [
                -1.0282869255169091,
                -1.8313327485870845,
                1.916045503216356,
                -1.4893215158470816,
                1.434879192893936,
                0.7570021389002208
            ]
        },
        {
            "positions": [
                -0.9829967765658917,
                -1.7983728551824425,
                1.91424648738442,
                -1.4373883631313147,
                1.3670169794423996,
                0.5760547450485344
            ]
        },
        {
            "positions": [
                -0.9377066276148742,
                -1.7654129617778005,
                1.912447471552484,
                -1.3854552104155478,
                1.2991547659908635,
                0.3951073511968478
            ]
        },
        {
            "positions": [
                -0.8924164786638569,
                -1.7324530683731585,
                1.9106484557205479,
                -1.3335220576997808,
                1.2312925525393275,
                0.21415995734516124
            ]
        },
        {
            "positions": [
                -0.8471263297128395,
                -1.6994931749685163,
                1.9088494398886118,
                -1.281588904984014,
                1.1634303390877911,
                0.03321256349347479
            ]
        },
        {
            "positions": [
                -0.8018361807618221,
                -1.6665332815638743,
                1.9070504240566757,
                -1.229655752268247,
                1.095568125636255,
                -0.14773483035821178
            ]
        },
        {
            "positions": [
                -0.7565460318108047,
                -1.6335733881592323,
                1.9052514082247398,
                -1.17772259955248,
                1.027705912184719,
                -0.32868222420989834
            ]
        },
        {
            "positions": [
                -0.7112558828597872,
                -1.6006134947545902,
                1.9034523923928037,
                -1.1257894468367131,
                0.9598436987331828,
                -0.5096296180615849
            ]
        },
        {
            "positions": [
                -0.6659657339087699,
                -1.567653601349948,
                1.9016533765608676,
                -1.073856294120946,
                0.8919814852816467,
                -0.6905770119132715
            ]
        },
        {
            "positions": [
                -0.6206755849577524,
                -1.534693707945306,
                1.8998543607289315,
                -1.0219231414051793,
                0.8241192718301104,
                -0.871524405764958
            ]
        },
        {
            "positions": [
                -0.5753854360067351,
                -1.501733814540664,
                1.8980553448969955,
                -0.9699899886894122,
                0.7562570583785744,
                -1.0524717996166444
            ]
        },
        {
            "positions": [
                -0.5300952870557176,
                -1.4687739211360218,
                1.8962563290650594,
                -0.9180568359736453,
                0.6883948449270381,
                -1.2334191934683314
            ]
        },
        {
            "positions": [
                -0.4848051381047003,
                -1.4358140277313798,
                1.8944573132331235,
                -0.8661236832578784,
                0.620532631475502,
                -1.4143665873200175
            ]
        },
        {
            "positions": [
                -0.4395149891536828,
                -1.4028541343267378,
                1.8926582974011874,
                -0.8141905305421113,
                0.5526704180239659,
                -1.595313981171704
            ]
        },
        {
            "positions": [
                -0.39422484020266557,
                -1.3698942409220956,
                1.8908592815692513,
                -0.7622573778263445,
                0.4848082045724298,
                -1.7762613750233907
            ]
        },
        {
            "positions": [
                -0.3489346912516481,
                -1.3369343475174535,
                1.8890602657373152,
                -0.7103242251105775,
                0.4169459911208935,
                -1.9572087688750772
            ]
        },
        {
            "positions": [
                -0.30364454230063076,
                -1.3039744541128115,
                1.8872612499053791,
                -0.6583910723948107,
                0.3490837776693574,
                -2.138156162726764
            ]
        },
        {
            "positions": [
                -0.2583543933496133,
                -1.2710145607081693,
                1.8854622340734433,
                -0.6064579196790436,
                0.2812215642178213,
                -2.31910355657845
            ]
        },
        {
            "positions": [
                -0.21306424439859595,
                -1.2380546673035275,
                1.8836632182415072,
                -0.5545247669632767,
                0.2133593507662852,
                -2.500050950430137
            ]
        },
        {
            "positions": [
                -0.16777409544757846,
                -1.2050947738988853,
                1.881864202409571,
                -0.5025916142475098,
                0.1454971373147489,
                -2.6809983442818233
            ]
        },
        {
            "positions": [
                -0.09504073936424164,
                -1.186505309340687,
                1.9004888371970525,
                -0.5540082353564381,
                0.1434419732558469,
                -2.8257946030329664
            ]
        },
        {
            "positions": [
                -0.022307383280904813,
                -1.1679158447824887,
                1.919113471984534,
                -0.6054248564653664,
                0.1413868091969449,
                -2.9705908617841095
            ]
        },
        {
            "positions": [
                0.05042597280243202,
                -1.1493263802242901,
                1.9377381067720156,
                -0.6568414775742948,
                0.13933164513804291,
                -3.1153871205352526
            ]
        },
        {
            "positions": [
                0.12315932888576885,
                -1.1307369156660918,
                1.956362741559497,
                -0.7082580986832231,
                0.13727648107914092,
                -3.2601833792863957
            ]
        }
    ]
}