{
    "goal": {
        "global_pose": {
            "orientation": {
                "w": 0.5084816217422485,
                "x": -0.49083608388900757,
                "y": 0.5182115435600281,
                "z": -0.4816462993621826
            },
            "position": {
                "x": 0.5540239810943604,
                "y": 0.030875300988554955,
                "z": 0.16403168439865112
            }
        },
        "name": "move_to_storage_A"
    },
    "id": "TRRT_move_to_storage_A_25",
    "joint_names": [
        "shoulder_pan_joint",
        "shoulder_lift_joint",
        "elbow_joint",
        "wrist_1_joint",
        "wrist_2_joint",
        "wrist_3_joint"
    ],
    "metrics": {
        "cart_traj_len": 0.35253094127206447,
        "distance_elbow_joint": 0.44818741986909316,
        "distance_shoulder_lift_joint": 0.23446548383964316,
        "distance_shoulder_pan_joint": 0.46108832644979564,
        "distance_wrist_1_joint": 0.2401123143796463,
        "distance_wrist_2_joint": 1.0966991216624034,
        "distance_wrist_3_joint": 0.09004067825741169,
        "smoothness": 8.881784197001252e-16,
        "time": 0.034912435000000006,
        "traj_len": 1.6033070025600191,
        "weighted_distance": 2.0217532334622015
    },
    "planner": "TRRT",
    "start": {
        "state": {
            "elbow_joint": 1.9715477243005601,
            "shoulder_lift_joint": -1.1394853015351272,
            "shoulder_pan_joint": 0.12281154014795169,
            "wrist_1_joint": -0.7804696478968182,
            "wrist_2_joint": 0.12958648046900423,
            "wrist_3_joint": -3.192491284697111
        }
    },
    "waypoints": [
        {
            "positions": [
                0.12281154014795169,
                -1.1394853015351272,
                1.9715477243005601,
                -0.7804696478968182,
                0.12958648046900423,
                -3.192491284697111
            ]
        },
        {
            "positions": [
                0.056941779226552316,
                -1.172980370655076,
                2.0355744985675734,
                -0.8147714070939105,
                0.2862577835636333,
                -3.179628330660338
            ]
        },
        {
            "positions": [
                -0.008927981694847056,
                -1.2064754397750252,
                2.0996012728345868,
                -0.8490731662910028,
                0.4429290866582623,
                -3.166765376623565
            ]
        },
        {
            "positions": [
                -0.07479774261624643,
                -1.2399705088949742,
                2.1636280471016,
                -0.8833749254880952,
                0.5996003897528914,
                -3.1539024225867918
            ]
        },
        {
            "positions": [
                -0.1406675035376458,
                -1.2734655780149233,
                2.2276548213686134,
                -0.9176766846851875,
                0.7562716928475204,
                -3.141039468550019
            ]
        },
        {
            "positions": [
                -0.2065372644590452,
                -1.3069606471348723,
                2.2916815956356267,
                -0.9519784438822798,
                0.9129429959421494,
                -3.1281765145132456
            ]
        },
        {
            "positions": [
                -0.27240702538044453,
                -1.3404557162548212,
                2.35570836990264,
                -0.9862802030793721,
                1.0696142990367785,
                -3.115313560476473
            ]
        },
        {
            "positions": [
                -0.33827678630184393,
                -1.3739507853747703,
                2.4197351441696533,
                -1.0205819622764645,
                1.2262856021314077,
                -3.1024506064396995
            ]
        }
    ]
}