{
    "goal": {
        "global_pose": {
            "orientation": {
                "w": 0.7047431468963623,
                "x": -0.7094548344612122,
                "y": 0.0024358443915843964,
                "z": -0.0022348060738295317
            },
            "position": {
                "x": 0.6094750761985779,
                "y": 0.3671506643295288,
                "z": 0.19426114857196808
            }
        },
        "name": "move_to_magneteinheit_A"
    },
    "id": "TRRT_move_to_magneteinheit_A_142",
    "joint_names": [
        "shoulder_pan_joint",
        "shoulder_lift_joint",
        "elbow_joint",
        "wrist_1_joint",
        "wrist_2_joint",
        "wrist_3_joint"
    ],
    "metrics": {
        "cart_traj_len": 6.599418091984991,
        "distance_elbow_joint": 3.883246650079043,
        "distance_shoulder_lift_joint": 2.8058935258432047,
        "distance_shoulder_pan_joint": 8.23141598431156,
        "distance_wrist_1_joint": 1.2389105229823811,
        "distance_wrist_2_joint": 3.82771377744489,
        "distance_wrist_3_joint": 4.366025281959967,
        "smoothness": 0.2907173026913332,
        "time": 0.863459427,
        "traj_len": 4.93489673069468,
        "weighted_distance": 6.176720861992086
    },
    "planner": "TRRT",
    "start": {
        "state": {
            "elbow_joint": -1.919618573717145,
            "shoulder_lift_joint": -1.2443395971678275,
            "shoulder_pan_joint": 2.6996025300909787,
            "wrist_1_joint": -1.548550951253194,
            "wrist_2_joint": -1.5709469090946802,
            "wrist_3_joint": 0.4420197732051276
        }
    },
    "waypoints": [
        {
            "positions": [
                2.6996025300909787,
                -1.2443395971678275,
                -1.919618573717145,
                -1.548550951253194,
                -1.5709469090946802,
                0.4420197732051276
            ]
        },
        {
            "positions": [
                2.5132425794130184,
                -1.2908368235922416,
                -1.8360119069914052,
                -1.5559736385027731,
                -1.6075553822930684,
                0.4117838393845158
            ]
        },
        {
            "positions": [
                2.326882628735058,
                -1.3373340500166555,
                -1.7524052402656654,
                -1.5633963257523522,
                -1.6441638554914566,
                0.381547905563904
            ]
        },
        {
            "positions": [
                2.140522678057098,
                -1.3838312764410696,
                -1.6687985735399256,
                -1.5708190130019313,
                -1.680772328689845,
                0.3513119717432922
            ]
        },
        {
            "positions": [
                1.9541627273791375,
                -1.4303285028654837,
                -1.585191906814186,
                -1.5782417002515103,
                -1.7173808018882333,
                0.32107603792268036
            ]
        },
        {
            "positions": [
                1.7678027767011772,
                -1.4768257292898976,
                -1.501585240088446,
                -1.5856643875010896,
                -1.7539892750866215,
                0.2908401041020686
            ]
        },
        {
            "positions": [
                1.581442826023217,
                -1.5233229557143118,
                -1.4179785733627064,
                -1.5930870747506687,
                -1.7905977482850097,
                0.26060417028145677
            ]
        },
        {
            "positions": [
                1.3950828753452564,
                -1.5698201821387259,
                -1.3343719066369664,
                -1.6005097620002477,
                -1.8272062214833982,
                0.23036823646084498
            ]
        },
        {
            "positions": [
                1.2087229246672964,
                -1.6163174085631398,
                -1.2507652399112268,
                -1.6079324492498268,
                -1.8638146946817864,
                0.20013230264023318
            ]
        },
        {
            "positions": [
                1.0223629739893358,
                -1.6628146349875539,
                -1.167158573185487,
                -1.6153551364994059,
                -1.9004231678801746,
                0.1698963688196214
            ]
        },
        {
            "positions": [
                0.8360030233113755,
                -1.709311861411968,
                -1.0835519064597472,
                -1.622777823748985,
                -1.9370316410785628,
                0.1396604349990096
            ]
        },
        {
            "positions": [
                0.6496430726334155,
                -1.755809087836382,
                -0.9999452397340075,
                -1.630200510998564,
                -1.973640114276951,
                0.1094245011783978
            ]
        },
        {
            "positions": [
                0.4632831219554552,
                -1.802306314260796,
                -0.9163385730082676,
                -1.637623198248143,
                -2.0102485874753393,
                0.07918856735778601
            ]
        },
        {
            "positions": [
                0.27692317127749444,
                -1.8488035406852101,
                -0.8327319062825278,
                -1.6450458854977221,
                -2.0468570606737275,
                0.04895263353717422
            ]
        },
        {
            "positions": [
                0.09056322059953414,
                -1.895300767109624,
                -0.749125239556788,
                -1.6524685727473012,
                -2.0834655338721157,
                0.01871669971656237
            ]
        },
        {
            "positions": [
                -0.09579673007842615,
                -1.9417979935340381,
                -0.6655185728310482,
                -1.6598912599968805,
                -2.1200740070705044,
                -0.011519234104049425
            ]
        },
        {
            "positions": [
                -0.282156680756386,
                -1.9882952199584523,
                -0.5819119061053086,
                -1.6673139472464595,
                -2.1566824802688926,
                -0.04175516792466122
            ]
        },
        {
            "positions": [
                -0.4685166314343463,
                -2.034792446382866,
                -0.49830523937956883,
                -1.6747366344960386,
                -2.193290953467281,
                -0.07199110174527296
            ]
        },
        {
            "positions": [
                -0.654876582112307,
                -2.08128967280728,
                -0.41469857265382903,
                -1.6821593217456177,
                -2.229899426665669,
                -0.1022270355658848
            ]
        },
        {
            "positions": [
                -0.8412365327902669,
                -2.1277868992316944,
                -0.33109190592808924,
                -1.6895820089951967,
                -2.2665078998640573,
                -0.13246296938649654
            ]
        },
        {
            "positions": [
                -1.0275964834682276,
                -2.1742841256561083,
                -0.24748523920234944,
                -1.6970046962447758,
                -2.3031163730624455,
                -0.1626989032071084
            ]
        },
        {
            "positions": [
                -1.213956434146188,
                -2.2207813520805226,
                -0.16387857247660964,
                -1.7044273834943549,
                -2.3397248462608338,
                -0.19293483702772024
            ]
        },
        {
            "positions": [
                -1.4003163848241478,
                -2.2672785785049365,
                -0.08027190575087007,
                -1.711850070743934,
                -2.376333319459222,
                -0.22317077084833198
            ]
        },
        {
            "positions": [
                -1.5866763355021085,
                -2.3137758049293504,
                0.0033347609748699547,
                -1.719272757993513,
                -2.4129417926576107,
                -0.2534067046689438
            ]
        },
        {
            "positions": [
                -1.7730362861800684,
                -2.3602730313537643,
                0.08694142770060975,
                -1.726695445243092,
                -2.449550265855999,
                -0.28364263848955557
            ]
        },
        {
            "positions": [
                -1.959396236858029,
                -2.406770257778178,
                0.17054809442634933,
                -1.734118132492671,
                -2.486158739054387,
                -0.3138785723101673
            ]
        },
        {
            "positions": [
                -2.14575618753599,
                -2.4532674842025926,
                0.25415476115208935,
                -1.7415408197422504,
                -2.5227672122527753,
                -0.34411450613077915
            ]
        },
        {
            "positions": [
                -2.3321161382139497,
                -2.499764710627007,
                0.3377614278778289,
                -1.7489635069918295,
                -2.5593756854511636,
                -0.374350439951391
            ]
        },
        {
            "positions": [
                -2.5184760888919104,
                -2.546261937051421,
                0.42136809460356894,
                -1.7563861942414085,
                -2.595984158649552,
                -0.40458637377200285
            ]
        },
        {
            "positions": [
                -2.7048360395698707,
                -2.5927591634758347,
                0.5049747613293087,
                -1.7638088814909876,
                -2.63259263184794,
                -0.43482230759261453
            ]
        },
        {
            "positions": [
                -2.619170057307728,
                -2.548593285914162,
                0.5491763769363569,
                -1.7327891059532727,
                -2.5487723877663755,
                -0.32908948331497134
            ]
        },
        {
            "positions": [
                -2.533504075045585,
                -2.5044274083524893,
                0.5933779925434051,
                -1.7017693304155581,
                -2.464952143684811,
                -0.22335665903732818
            ]
        },
        {
            "positions": [
                -2.447838092783442,
                -2.4602615307908167,
                0.6375796081504532,
                -1.6707495548778433,
                -2.3811318996032464,
                -0.11762383475968502
            ]
        },
        {
            "positions": [
                -2.362172110521299,
                -2.416095653229144,
                0.6817812237575013,
                -1.6397297793401284,
                -2.297311655521682,
                -0.01189101048204183
            ]
        },
        {
            "positions": [
                -2.276506128259156,
                -2.3719297756674713,
                0.7259828393645494,
                -1.6087100038024136,
                -2.2134914114401174,
                0.09384181379560141
            ]
        },
        {
            "positions": [
                -2.1908401459970133,
                -2.3277638981057986,
                0.7701844549715976,
                -1.577690228264699,
                -2.129671167358553,
                0.1995746380732445
            ]
        },
        {
            "positions": [
                -2.1051741637348704,
                -2.283598020544126,
                0.8143860705786458,
                -1.5466704527269841,
                -2.0458509232769884,
                0.3053074623508877
            ]
        },
        {
            "positions": [
                -2.0195081814727276,
                -2.2394321429824537,
                0.8585876861856938,
                -1.5156506771892693,
                -1.9620306791954238,
                0.41104028662853087
            ]
        },
        {
            "positions": [
                -1.9338421992105845,
                -2.195266265420781,
                0.902789301792742,
                -1.4846309016515544,
                -1.8782104351138593,
                0.516773110906174
            ]
        },
        {
            "positions": [
                -1.8481762169484415,
                -2.1511003878591084,
                0.9469909173997901,
                -1.4536111261138398,
                -1.7943901910322948,
                0.6225059351838174
            ]
        },
        {
            "positions": [
                -1.7625102346862986,
                -2.1069345102974357,
                0.9911925330068383,
                -1.422591350576125,
                -1.7105699469507303,
                0.7282387594614603
            ]
        },
        {
            "positions": [
                -1.6768442524241558,
                -2.062768632735763,
                1.0353941486138865,
                -1.3915715750384101,
                -1.6267497028691655,
                0.8339715837391035
            ]
        },
        {
            "positions": [
                -1.5911782701620127,
                -2.0186027551740904,
                1.0795957642209344,
                -1.3605517995006955,
                -1.542929458787601,
                0.9397044080167467
            ]
        },
        {
            "positions": [
                -1.50551228789987,
                -1.9744368776124177,
                1.1237973798279828,
                -1.3295320239629806,
                -1.4591092147060365,
                1.04543723229439
            ]
        },
        {
            "positions": [
                -1.419846305637727,
                -1.930271000050745,
                1.1679989954350307,
                -1.2985122484252658,
                -1.375288970624472,
                1.151170056572033
            ]
        },
        {
            "positions": [
                -1.334180323375584,
                -1.8861051224890724,
                1.2122006110420789,
                -1.267492472887551,
                -1.2914687265429075,
                1.2569028808496763
            ]
        },
        {
            "positions": [
                -1.2485143411134412,
                -1.8419392449273997,
                1.256402226649127,
                -1.2364726973498361,
                -1.207648482461343,
                1.3626357051273195
            ]
        },
        {
            "positions": [
                -1.1628483588512983,
                -1.7977733673657272,
                1.3006038422561752,
                -1.2054529218121215,
                -1.1238282383797784,
                1.4683685294049624
            ]
        },
        {
            "positions": [
                -1.0771823765891553,
                -1.7536074898040543,
                1.3448054578632234,
                -1.1744331462744066,
                -1.0400079942982137,
                1.574101353682606
            ]
        },
        {
            "positions": [
                -0.9915163943270124,
                -1.709441612242382,
                1.3890070734702715,
                -1.1434133707366918,
                -0.9561877502166494,
                1.6798341779602493
            ]
        },
        {
            "positions": [
                -0.9058504120648694,
                -1.6652757346807092,
                1.4332086890773197,
                -1.1123935951989772,
                -0.8723675061350848,
                1.785567002237892
            ]
        },
        {
            "positions": [
                -0.8201844298027265,
                -1.6211098571190368,
                1.4774103046843678,
                -1.0813738196612623,
                -0.7885472620535203,
                1.8912998265155352
            ]
        },
        {
            "positions": [
                -0.7345184475405835,
                -1.5769439795573639,
                1.521611920291416,
                -1.0503540441235475,
                -0.7047270179719556,
                1.9970326507931788
            ]
        },
        {
            "positions": [
                -0.6488524652784409,
                -1.5327781019956914,
                1.5658135358984642,
                -1.0193342685858329,
                -0.6209067738903911,
                2.1027654750708216
            ]
        },
        {
            "positions": [
                -0.5631864830162976,
                -1.4886122244340187,
                1.6100151515055123,
                -0.988314493048118,
                -0.5370865298088265,
                2.2084982993484648
            ]
        },
        {
            "positions": [
                -0.47752050075415475,
                -1.444446346872346,
                1.6542167671125603,
                -0.9572947175104032,
                -0.453266285727262,
                2.314231123626108
            ]
        },
        {
            "positions": [
                -0.3918545184920119,
                -1.4002804693106734,
                1.6984183827196087,
                -0.9262749419726883,
                -0.3694460416456975,
                2.4199639479037516
            ]
        },
        {
            "positions": [
                -0.3061885362298691,
                -1.3561145917490007,
                1.7426199983266568,
                -0.8952551664349736,
                -0.285625797564133,
                2.5256967721813943
            ]
        },
        {
            "positions": [
                -0.22052255396772624,
                -1.311948714187328,
                1.7868216139337048,
                -0.8642353908972589,
                -0.20180555348256846,
                2.6314295964590375
            ]
        },
        {
            "positions": [
                -0.1348565717055834,
                -1.2677828366256556,
                1.831023229540753,
                -0.8332156153595441,
                -0.11798530940100393,
                2.7371624207366807
            ]
        },
        {
            "positions": [
                -0.049190589443440125,
                -1.2236169590639827,
                1.8752248451478013,
                -0.8021958398218292,
                -0.034165065319439414,
                2.842895245014324
            ]
        },
        {
            "positions": [
                0.03647539281870271,
                -1.1794510815023103,
                1.9194264607548492,
                -0.7711760642841144,
                0.04965517876212511,
                2.948628069291967
            ]
        },
        {
            "positions": [
                0.12214137508084554,
                -1.1352852039406376,
                1.9636280763618974,
                -0.7401562887463997,
                0.1334754228436896,
                3.0543608935696103
            ]
        }
    ]
}{
    "goal": {
        "global_pose": {
            "orientation": {
                "w": 0.7047431468963623,
                "x": -0.7094548344612122,
                "y": 0.0024358443915843964,
                "z": -0.0022348060738295317
            },
            "position": {
                "x": 0.6094750761985779,
                "y": 0.3671506643295288,
                "z": 0.19426114857196808
            }
        },
        "name": "move_to_magneteinheit_A"
    },
    "id": "TRRT_move_to_magneteinheit_A_142",
    "joint_names": [
        "shoulder_pan_joint",
        "shoulder_lift_joint",
        "elbow_joint",
        "wrist_1_joint",
        "wrist_2_joint",
        "wrist_3_joint"
    ],
    "metrics": {
        "cart_traj_len": 1.2173616797251976,
        "distance_elbow_joint": 0.05843481162481101,
        "distance_shoulder_lift_joint": 0.7533925933800321,
        "distance_shoulder_pan_joint": 1.2426322018820606,
        "distance_wrist_1_joint": 0.7825274992504657,
        "distance_wrist_2_joint": 1.6275071372330527,
        "distance_wrist_3_joint": 4.293351005028034,
        "smoothness": 0.04175586666745624,
        "time": 0.06656472699999999,
        "traj_len": 2.9593656834528677,
        "weighted_distance": 4.444612682218558
    },
    "planner": "TRRT",
    "start": {
        "state": {
            "elbow_joint": 1.919643534880228,
            "shoulder_lift_joint": -1.8972525353963687,
            "shoulder_pan_joint": -1.1188672234189438,
            "wrist_1_joint": -1.5931878212786155,
            "wrist_2_joint": 1.5706036197970081,
            "wrist_3_joint": 1.118896926603594
        }
    },
    "waypoints": [
        {
            "positions": [
                -1.1188672234189438,
                -1.8972525353963687,
                1.919643534880228,
                -1.5931878212786155,
                1.5706036197970081,
                1.118896926603594
            ]
        },
        {
            "positions": [
                -1.0536683910028473,
                -1.851517086090825,
                1.9203117802733496,
                -1.5455352615275364,
                1.4683391231737153,
                0.9886881803629997
            ]
        },
        {
            "positions": [
                -0.9884695585867505,
                -1.8057816367852815,
                1.9209800256664713,
                -1.4978827017764573,
                1.3660746265504224,
                0.8584794341224055
            ]
        },
        {
            "positions": [
                -0.9232707261706538,
                -1.7600461874797377,
                1.9216482710595928,
                -1.4502301420253783,
                1.2638101299271294,
                0.7282706878818112
            ]
        },
        {
            "positions": [
                -0.8580718937545571,
                -1.7143107381741942,
                1.9223165164527143,
                -1.402577582274299,
                1.1615456333038365,
                0.598061941641217
            ]
        },
        {
            "positions": [
                -0.7928730613384605,
                -1.6685752888686505,
                1.9229847618458358,
                -1.35492502252322,
                1.0592811366805437,
                0.46785319540062265
            ]
        },
        {
            "positions": [
                -0.7276742289223637,
                -1.6228398395631067,
                1.9236530072389575,
                -1.3072724627721408,
                0.9570166400572506,
                0.33764444916002834
            ]
        },
        {
            "positions": [
                -0.6624753965062671,
                -1.5771043902575632,
                1.924321252632079,
                -1.2596199030210617,
                0.8547521434339578,
                0.20743570291943414
            ]
        },
        {
            "positions": [
                -0.5972765640901704,
                -1.5313689409520195,
                1.9249894980252005,
                -1.2119673432699827,
                0.7524876468106649,
                0.07722695667883994
            ]
        },
        {
            "positions": [
                -0.5320777316740737,
                -1.485633491646476,
                1.925657743418322,
                -1.1643147835189036,
                0.6502231501873721,
                -0.05298178956175437
            ]
        },
        {
            "positions": [
                -0.466878899257977,
                -1.4398980423409322,
                1.9263259888114437,
                -1.1166622237678245,
                0.5479586535640792,
                -0.18319053580234868
            ]
        },
        {
            "positions": [
                -0.4016800668418803,
                -1.3941625930353885,
                1.9269942342045652,
                -1.0690096640167455,
                0.4456941569407862,
                -0.31339928204294276
            ]
        },
        {
            "positions": [
                -0.3364812344257835,
                -1.348427143729845,
                1.9276624795976867,
                -1.0213571042656664,
                0.3434296603174931,
                -0.4436080282835373
            ]
        },
        {
            "positions": [
                -0.2712824020096869,
                -1.3026916944243012,
                1.9283307249908082,
                -0.9737045445145871,
                0.24116516369420027,
                -0.5738167745241316
            ]
        },
        {
            "positions": [
                -0.2060835695935902,
                -1.2569562451187575,
                1.9289989703839299,
                -0.926051984763508,
                0.13890066707090742,
                -0.7040255207647257
            ]
        },
        {
            "positions": [
                -0.1408847371774935,
                -1.211220795813214,
                1.9296672157770514,
                -0.878399425012429,
                0.03663617044761457,
                -0.83423426700532
            ]
        },
        {
            "positions": [
                -0.1078035227224172,
                -1.2028006890886043,
                1.9357186071180499,
                -0.869932037139394,
                0.04832863143307203,
                -1.1267617434327102
            ]
        },
        {
            "positions": [
                -0.07472230826734089,
                -1.1943805823639946,
                1.9417699984590482,
                -0.8614646492663591,
                0.06002109241852949,
                -1.4192892198601004
            ]
        },
        {
            "positions": [
                -0.04164109381226458,
                -1.185960475639385,
                1.9478213898000467,
                -0.8529972613933242,
                0.07171355340398694,
                -1.7118166962874903
            ]
        },
        {
            "positions": [
                -0.008559879357188271,
                -1.1775403689147752,
                1.9538727811410452,
                -0.8445298735202893,
                0.0834060143894444,
                -2.0043441727148803
            ]
        },
        {
            "positions": [
                0.024521335097888036,
                -1.1691202621901657,
                1.9599241724820438,
                -0.8360624856472545,
                0.09509847537490185,
                -2.296871649142271
            ]
        },
        {
            "positions": [
                0.057602549552964344,
                -1.160700155465556,
                1.9659755638230423,
                -0.8275950977742196,
                0.10679093636035933,
                -2.5893991255696607
            ]
        },
        {
            "positions": [
                0.09068376400804065,
                -1.1522800487409464,
                1.9720269551640406,
                -0.8191277099011847,
                0.11848339734581678,
                -2.881926601997051
            ]
        },
        {
            "positions": [
                0.12376497846311699,
                -1.1438599420163367,
                1.978078346505039,
                -0.8106603220281497,
                0.13017585833127424,
                -3.174454078424441
            ]
        }
    ]
}