{
    "goal": {
        "global_pose": {
            "orientation": {
                "w": 0.5084816217422485,
                "x": -0.49083608388900757,
                "y": 0.5182115435600281,
                "z": -0.4816462993621826
            },
            "position": {
                "x": 0.5540239810943604,
                "y": 0.030875300988554955,
                "z": 0.16403168439865112
            }
        },
        "name": "move_to_storage_A"
    },
    "id": "TRRT_move_to_storage_A_15",
    "joint_names": [
        "shoulder_pan_joint",
        "shoulder_lift_joint",
        "elbow_joint",
        "wrist_1_joint",
        "wrist_2_joint",
        "wrist_3_joint"
    ],
    "metrics": {
        "cart_traj_len": 0.35311659005837587,
        "distance_elbow_joint": 0.4514307204080117,
        "distance_shoulder_lift_joint": 0.23304026346621343,
        "distance_shoulder_pan_joint": 0.46278832201118064,
        "distance_wrist_1_joint": 0.25372253240547893,
        "distance_wrist_2_joint": 1.0936026840017679,
        "distance_wrist_3_joint": 0.09293795496283819,
        "smoothness": 0.0,
        "time": 0.023442235,
        "traj_len": 1.6085777809156419,
        "weighted_distance": 2.029956552143029
    },
    "planner": "TRRT",
    "start": {
        "state": {
            "elbow_joint": 1.9715477243005601,
            "shoulder_lift_joint": -1.1394853015351272,
            "shoulder_pan_joint": 0.12281154014795169,
            "wrist_1_joint": -0.7804696478968182,
            "wrist_2_joint": 0.12958648046900423,
            "wrist_3_joint": -3.192491284697111
        }
    },
    "waypoints": [
        {
            "positions": [
                0.12281154014795169,
                -1.1394853015351272,
                1.9715477243005601,
                -0.7804696478968182,
                0.12958648046900423,
                -3.192491284697111
            ]
        },
        {
            "positions": [
                0.056698922717783026,
                -1.1727767677445862,
                2.0360378272159902,
                -0.8167157239547437,
                0.28581543532639964,
                -3.1792144339881343
            ]
        },
        {
            "positions": [
                -0.009413694712385637,
                -1.2060682339540454,
                2.100527930131421,
                -0.8529618000126693,
                0.44204439018379504,
                -3.1659375832791574
            ]
        },
        {
            "positions": [
                -0.0755263121425543,
                -1.2393597001635044,
                2.165018033046851,
                -0.8892078760705948,
                0.5982733450411905,
                -3.1526607325701805
            ]
        },
        {
            "positions": [
                -0.14163892957272295,
                -1.2726511663729634,
                2.229508135962281,
                -0.9254539521285204,
                0.7545022998985859,
                -3.1393838818612037
            ]
        },
        {
            "positions": [
                -0.2077515470028916,
                -1.3059426325824224,
                2.2939982388777116,
                -0.961700028186446,
                0.9107312547559813,
                -3.1261070311522268
            ]
        },
        {
            "positions": [
                -0.2738641644330603,
                -1.3392340987918816,
                2.3584883417931417,
                -0.9979461042443716,
                1.0669602096133768,
                -3.11283018044325
            ]
        },
        {
            "positions": [
                -0.33997678186322894,
                -1.3725255650013406,
                2.422978444708572,
                -1.034192180302297,
                1.223189164470772,
                -3.099553329734273
            ]
        }
    ]
}