{
    "goal": {
        "global_pose": {
            "orientation": {
                "w": 0.7047431468963623,
                "x": -0.7094548344612122,
                "y": 0.0024358443915843964,
                "z": -0.0022348060738295317
            },
            "position": {
                "x": 0.6094750761985779,
                "y": 0.3671506643295288,
                "z": 0.19426114857196808
            }
        },
        "name": "move_to_magneteinheit_A"
    },
    "id": "TRRT_move_to_magneteinheit_A_122",
    "joint_names": [
        "shoulder_pan_joint",
        "shoulder_lift_joint",
        "elbow_joint",
        "wrist_1_joint",
        "wrist_2_joint",
        "wrist_3_joint"
    ],
    "metrics": {
        "cart_traj_len": 3.7117672657646334,
        "distance_elbow_joint": 3.9081889578549047,
        "distance_shoulder_lift_joint": 1.3949557814528013,
        "distance_shoulder_pan_joint": 3.4356933979760393,
        "distance_wrist_1_joint": 3.459394030585682,
        "distance_wrist_2_joint": 1.4414263519066997,
        "distance_wrist_3_joint": 0.5411680195121906,
        "smoothness": 0.2533356810767897,
        "time": 0.153846948,
        "traj_len": 3.765743822844076,
        "weighted_distance": 4.490432380161746
    },
    "planner": "TRRT",
    "start": {
        "state": {
            "elbow_joint": -1.919618573717145,
            "shoulder_lift_joint": -1.2443395971678275,
            "shoulder_pan_joint": 2.6996025300909787,
            "wrist_1_joint": -1.548550951253194,
            "wrist_2_joint": -1.5709469090946802,
            "wrist_3_joint": 0.4420197732051276
        }
    },
    "waypoints": [
        {
            "positions": [
                2.6996025300909787,
                -1.2443395971678275,
                -1.919618573717145,
                -1.548550951253194,
                -1.5709469090946802,
                0.4420197732051276
            ]
        },
        {
            "positions": [
                2.5682778145383334,
                -1.221778113318351,
                -1.8049475453676236,
                -1.4906410191012591,
                -1.5254974412466444,
                0.42758847383674153
            ]
        },
        {
            "positions": [
                2.4369530989856876,
                -1.1992166294688744,
                -1.6902765170181022,
                -1.4327310869493242,
                -1.480047973398609,
                0.4131571744683555
            ]
        },
        {
            "positions": [
                2.305628383433042,
                -1.1766551456193979,
                -1.5756054886685809,
                -1.3748211547973892,
                -1.4345985055505732,
                0.3987258750999694
            ]
        },
        {
            "positions": [
                2.1743036678803964,
                -1.1540936617699213,
                -1.4609344603190595,
                -1.3169112226454542,
                -1.3891490377025377,
                0.3842945757315833
            ]
        },
        {
            "positions": [
                2.042978952327751,
                -1.1315321779204448,
                -1.346263431969538,
                -1.259001290493519,
                -1.343699569854502,
                0.36986327636319727
            ]
        },
        {
            "positions": [
                1.9116542367751057,
                -1.108970694070968,
                -1.2315924036200165,
                -1.2010913583415843,
                -1.2982501020064663,
                0.3554319769948112
            ]
        },
        {
            "positions": [
                1.78032952122246,
                -1.0864092102214915,
                -1.1169213752704952,
                -1.1431814261896491,
                -1.2528006341584308,
                0.34100067762642516
            ]
        },
        {
            "positions": [
                1.6490048056698146,
                -1.063847726372015,
                -1.0022503469209738,
                -1.0852714940377142,
                -1.207351166310395,
                0.3265693782580391
            ]
        },
        {
            "positions": [
                1.517680090117169,
                -1.0412862425225384,
                -0.8875793185714524,
                -1.0273615618857792,
                -1.1619016984623594,
                0.31213807888965306
            ]
        },
        {
            "positions": [
                1.3863553745645234,
                -1.018724758673062,
                -0.7729082902219311,
                -0.9694516297338442,
                -1.1164522306143239,
                0.29770677952126695
            ]
        },
        {
            "positions": [
                1.2550306590118778,
                -0.9961632748235854,
                -0.6582372618724095,
                -0.9115416975819092,
                -1.0710027627662881,
                0.2832754801528809
            ]
        },
        {
            "positions": [
                1.1237059434592325,
                -0.9736017909741088,
                -0.5435662335228884,
                -0.8536317654299743,
                -1.0255532949182526,
                0.26884418078449485
            ]
        },
        {
            "positions": [
                0.9923812279065869,
                -0.9510403071246323,
                -0.428895205173367,
                -0.7957218332780392,
                -0.9801038270702169,
                0.2544128814161088
            ]
        },
        {
            "positions": [
                0.8610565123539413,
                -0.9284788232751557,
                -0.3142241768238454,
                -0.7378119011261043,
                -0.9346543592221813,
                0.2399815820477227
            ]
        },
        {
            "positions": [
                0.7297317968012957,
                -0.9059173394256792,
                -0.19955314847432404,
                -0.6799019689741692,
                -0.8892048913741456,
                0.22555028267933666
            ]
        },
        {
            "positions": [
                0.5984070812486504,
                -0.8833558555762027,
                -0.0848821201248029,
                -0.6219920368222344,
                -0.8437554235261101,
                0.2111189833109506
            ]
        },
        {
            "positions": [
                0.46708236569600503,
                -0.8607943717267261,
                0.02978890822471869,
                -0.5640821046702993,
                -0.7983059556780744,
                0.19668768394256456
            ]
        },
        {
            "positions": [
                0.3357576501433594,
                -0.8382328878772495,
                0.14445993657423994,
                -0.5061721725183644,
                -0.7528564878300388,
                0.18225638457417848
            ]
        },
        {
            "positions": [
                0.2980620728355425,
                -0.8268973748806746,
                0.2391540344527162,
                -0.3579819139695313,
                -0.6941603519631023,
                0.18246398182625062
            ]
        },
        {
            "positions": [
                0.2603664955277256,
                -0.8155618618840996,
                0.3338481323311925,
                -0.2097916554206981,
                -0.6354642160961659,
                0.18267157907832274
            ]
        },
        {
            "positions": [
                0.2226709182199087,
                -0.8042263488875248,
                0.42854223020966875,
                -0.06160139687186496,
                -0.5767680802292294,
                0.18287917633039488
            ]
        },
        {
            "positions": [
                0.19959375763364676,
                -0.7978617797075218,
                0.5411905735904513,
                0.09765535701524287,
                -0.5288470022845587,
                0.1716808913164061
            ]
        },
        {
            "positions": [
                0.17651659704738482,
                -0.7914972105275189,
                0.6538389169712339,
                0.2569121109023507,
                -0.480925924339888,
                0.1604826063024173
            ]
        },
        {
            "positions": [
                0.13264599370481184,
                -0.8335990231368712,
                0.7672721048176832,
                0.3852336416719992,
                -0.4623537101859736,
                0.14215331174058385
            ]
        },
        {
            "positions": [
                0.08877539036223885,
                -0.8757008357462235,
                0.8807052926641324,
                0.5135551724416476,
                -0.4437814960320592,
                0.12382401717875041
            ]
        },
        {
            "positions": [
                0.04490478701966588,
                -0.9178026483555757,
                0.9941384805105817,
                0.6418767032112962,
                -0.4252092818781448,
                0.10549472261691696
            ]
        },
        {
            "positions": [
                0.0010341836770928758,
                -0.959904460964928,
                1.1075716683570311,
                0.7701982339809446,
                -0.40663706772423036,
                0.0871654280550835
            ]
        },
        {
            "positions": [
                -0.0428364196654801,
                -1.0020062735742803,
                1.2210048562034803,
                0.8985197647505931,
                -0.38806485357031595,
                0.06883613349325006
            ]
        },
        {
            "positions": [
                -0.08670702300805305,
                -1.0441080861836325,
                1.3344380440499295,
                1.0268412955202415,
                -0.36949263941640154,
                0.05050683893141661
            ]
        },
        {
            "positions": [
                -0.13057762635062609,
                -1.0862098987929847,
                1.4478712318963791,
                1.15516282628989,
                -0.3509204252624871,
                0.032177544369583144
            ]
        },
        {
            "positions": [
                -0.17444822969319906,
                -1.128311711402337,
                1.5613044197428283,
                1.2834843570595384,
                -0.33234821110857266,
                0.01384824980774968
            ]
        },
        {
            "positions": [
                -0.21831883303577204,
                -1.1704135240116895,
                1.6747376075892775,
                1.411805887829187,
                -0.31377599695465824,
                -0.004481044754083757
            ]
        },
        {
            "positions": [
                -0.262189436378345,
                -1.2125153366210415,
                1.7881707954357267,
                1.5401274185988354,
                -0.29520378280074383,
                -0.022810339315917194
            ]
        },
        {
            "positions": [
                -0.306060039720918,
                -1.254617149230394,
                1.901603983282176,
                1.668448949368484,
                -0.2766315686468294,
                -0.04113963387775066
            ]
        },
        {
            "positions": [
                -0.19855233267988204,
                -1.1348687852029895,
                1.9233455834960718,
                1.7290474818594852,
                -0.23985381578211717,
                -0.02694887664853079
            ]
        },
        {
            "positions": [
                -0.0910446256388461,
                -1.015120421175585,
                1.9450871837099677,
                1.7896460143504864,
                -0.20307606291740493,
                -0.012758119419310925
            ]
        },
        {
            "positions": [
                0.016463081402189828,
                -0.8953720571481808,
                1.9668287839238636,
                1.8502445468414879,
                -0.1662983100526927,
                0.001432637809908946
            ]
        },
        {
            "positions": [
                0.1239707884432258,
                -0.7756236931207764,
                1.9885703841377593,
                1.910843079332489,
                -0.12952055718798045,
                0.015623395039128811
            ]
        }
    ]
}{
    "goal": {
        "global_pose": {
            "orientation": {
                "w": 0.7047431468963623,
                "x": -0.7094548344612122,
                "y": 0.0024358443915843964,
                "z": -0.0022348060738295317
            },
            "position": {
                "x": 0.6094750761985779,
                "y": 0.3671506643295288,
                "z": 0.19426114857196808
            }
        },
        "name": "move_to_magneteinheit_A"
    },
    "id": "TRRT_move_to_magneteinheit_A_122",
    "joint_names": [
        "shoulder_pan_joint",
        "shoulder_lift_joint",
        "elbow_joint",
        "wrist_1_joint",
        "wrist_2_joint",
        "wrist_3_joint"
    ],
    "metrics": {
        "cart_traj_len": 1.5273212720212144,
        "distance_elbow_joint": 0.7655569221607468,
        "distance_shoulder_lift_joint": 1.3232891671860108,
        "distance_shoulder_pan_joint": 1.2402834137967857,
        "distance_wrist_1_joint": 1.7774245377010656,
        "distance_wrist_2_joint": 1.439035676319217,
        "distance_wrist_3_joint": 4.317451392324853,
        "smoothness": 0.3613604199477672,
        "time": 0.069859263,
        "traj_len": 3.29591278851378,
        "weighted_distance": 4.7659630829622115
    },
    "planner": "TRRT",
    "start": {
        "state": {
            "elbow_joint": 1.919643534880228,
            "shoulder_lift_joint": -1.8972525353963687,
            "shoulder_pan_joint": -1.1188672234189438,
            "wrist_1_joint": -1.5931878212786155,
            "wrist_2_joint": 1.5706036197970081,
            "wrist_3_joint": 1.118896926603594
        }
    },
    "waypoints": [
        {
            "positions": [
                -1.1188672234189438,
                -1.8972525353963687,
                1.919643534880228,
                -1.5931878212786155,
                1.5706036197970081,
                1.118896926603594
            ]
        },
        {
            "positions": [
                -1.071565859193931,
                -1.8519950442570923,
                1.904082406264199,
                -1.5365333870756805,
                1.5337558329367558,
                0.9409344061435093
            ]
        },
        {
            "positions": [
                -1.024264494968918,
                -1.8067375531178156,
                1.88852127764817,
                -1.4798789528727456,
                1.4969080460765032,
                0.7629718856834247
            ]
        },
        {
            "positions": [
                -0.976963130743905,
                -1.7614800619785391,
                1.8729601490321408,
                -1.4232245186698105,
                1.4600602592162508,
                0.58500936522334
            ]
        },
        {
            "positions": [
                -0.929661766518892,
                -1.7162225708392627,
                1.8573990204161117,
                -1.3665700844668756,
                1.4232124723559982,
                0.40704684476325537
            ]
        },
        {
            "positions": [
                -0.882360402293879,
                -1.670965079699986,
                1.8418378918000826,
                -1.3099156502639406,
                1.3863646854957459,
                0.22908432430317072
            ]
        },
        {
            "positions": [
                -0.835059038068866,
                -1.6257075885607095,
                1.8262767631840535,
                -1.2532612160610057,
                1.3495168986354935,
                0.05112180384308607
            ]
        },
        {
            "positions": [
                -0.7877576738438531,
                -1.580450097421433,
                1.8107156345680244,
                -1.1966067818580706,
                1.312669111775241,
                -0.1268407166169987
            ]
        },
        {
            "positions": [
                -0.7404563096188401,
                -1.5351926062821564,
                1.7951545059519953,
                -1.1399523476551356,
                1.2758213249149886,
                -0.30480323707708323
            ]
        },
        {
            "positions": [
                -0.6931549453938272,
                -1.48993511514288,
                1.7795933773359662,
                -1.0832979134522007,
                1.238973538054736,
                -0.482765757537168
            ]
        },
        {
            "positions": [
                -0.6458535811688142,
                -1.4446776240036034,
                1.7640322487199374,
                -1.0266434792492658,
                1.2021257511944836,
                -0.6607282779972525
            ]
        },
        {
            "positions": [
                -0.5985522169438012,
                -1.3994201328643268,
                1.748471120103908,
                -0.9699890450463308,
                1.1652779643342313,
                -0.8386907984573373
            ]
        },
        {
            "positions": [
                -0.5512508527187884,
                -1.3541626417250505,
                1.7329099914878792,
                -0.9133346108433958,
                1.1284301774739787,
                -1.0166533189174218
            ]
        },
        {
            "positions": [
                -0.5039494884937754,
                -1.3089051505857738,
                1.71734886287185,
                -0.8566801766404609,
                1.0915823906137263,
                -1.1946158393775062
            ]
        },
        {
            "positions": [
                -0.45664812426876233,
                -1.2636476594464972,
                1.701787734255821,
                -0.8000257424375258,
                1.0547346037534737,
                -1.3725783598375914
            ]
        },
        {
            "positions": [
                -0.4093467600437495,
                -1.218390168307221,
                1.6862266056397919,
                -0.7433713082345909,
                1.0178868168932214,
                -1.5505408802976757
            ]
        },
        {
            "positions": [
                -0.3620453958187365,
                -1.1731326771679442,
                1.6706654770237628,
                -0.6867168740316559,
                0.981039030032969,
                -1.7285034007577604
            ]
        },
        {
            "positions": [
                -0.31474403159372355,
                -1.1278751860286678,
                1.6551043484077337,
                -0.630062439828721,
                0.9441912431727165,
                -1.9064659212178448
            ]
        },
        {
            "positions": [
                -0.2674426673687105,
                -1.0826176948893913,
                1.6395432197917046,
                -0.573408005625786,
                0.907343456312464,
                -2.0844284416779297
            ]
        },
        {
            "positions": [
                -0.22014130314369762,
                -1.0373602037501146,
                1.6239820911756755,
                -0.516753571422851,
                0.8704956694522116,
                -2.2623909621380145
            ]
        },
        {
            "positions": [
                -0.17283993891868465,
                -0.9921027126108382,
                1.6084209625596464,
                -0.46009913721991613,
                0.8336478825919592,
                -2.4403534825980993
            ]
        },
        {
            "positions": [
                -0.1255385746936717,
                -0.9468452214715617,
                1.5928598339436173,
                -0.4034447030169812,
                0.7968000957317067,
                -2.618316003058183
            ]
        },
        {
            "positions": [
                -0.07823721046865861,
                -0.901587730332285,
                1.5772987053275882,
                -0.34679026881404607,
                0.7599523088714543,
                -2.7962785235182688
            ]
        },
        {
            "positions": [
                -0.030935846243645704,
                -0.8563302391930087,
                1.561737576711559,
                -0.29013583461111114,
                0.7231045220112018,
                -2.9742410439783526
            ]
        },
        {
            "positions": [
                -0.005543840140064409,
                -0.9033913843567838,
                1.629679404043572,
                -0.369197926450038,
                0.6245150922556334,
                -3.0116266142688373
            ]
        },
        {
            "positions": [
                0.019848165963516885,
                -0.9504525295205589,
                1.697621231375585,
                -0.44826001828896495,
                0.525925662500065,
                -3.0490121845593214
            ]
        },
        {
            "positions": [
                0.04524017206709818,
                -0.997513674684334,
                1.765563058707598,
                -0.5273221101278919,
                0.4273362327444966,
                -3.086397754849806
            ]
        },
        {
            "positions": [
                0.07063217817067947,
                -1.0445748198481093,
                1.833504886039611,
                -0.6063842019668187,
                0.3287468029889282,
                -3.1237833251402907
            ]
        },
        {
            "positions": [
                0.0960241842742608,
                -1.0916359650118843,
                1.901446713371624,
                -0.6854462938057457,
                0.23015737323335983,
                -3.161168895430775
            ]
        },
        {
            "positions": [
                0.12141619037784207,
                -1.1386971101756596,
                1.969388540703637,
                -0.7645083856446726,
                0.13156794347779147,
                -3.1985544657212595
            ]
        }
    ]
}