{
    "goal": {
        "global_pose": {
            "orientation": {
                "w": 0.5084816217422485,
                "x": -0.49083608388900757,
                "y": 0.5182115435600281,
                "z": -0.4816462993621826
            },
            "position": {
                "x": 0.5540239810943604,
                "y": 0.030875300988554955,
                "z": 0.16403168439865112
            }
        },
        "name": "move_to_storage_A"
    },
    "id": "TRRT_move_to_storage_A_33",
    "joint_names": [
        "shoulder_pan_joint",
        "shoulder_lift_joint",
        "elbow_joint",
        "wrist_1_joint",
        "wrist_2_joint",
        "wrist_3_joint"
    ],
    "metrics": {
        "cart_traj_len": 0.3528308955117285,
        "distance_elbow_joint": 0.4488994691951813,
        "distance_shoulder_lift_joint": 0.23542548475975278,
        "distance_shoulder_pan_joint": 0.4616123764166646,
        "distance_wrist_1_joint": 0.23701328073929184,
        "distance_wrist_2_joint": 1.0977086248255974,
        "distance_wrist_3_joint": 0.09975943515502417,
        "smoothness": 6.661338165333112e-16,
        "time": 0.01921949,
        "traj_len": 1.6063681617523151,
        "weighted_distance": 2.0284623356045954
    },
    "planner": "TRRT",
    "start": {
        "state": {
            "elbow_joint": 1.9715477243005601,
            "shoulder_lift_joint": -1.1394853015351272,
            "shoulder_pan_joint": 0.12281154014795169,
            "wrist_1_joint": -0.7804696478968182,
            "wrist_2_joint": 0.12958648046900423,
            "wrist_3_joint": -3.192491284697111
        }
    },
    "waypoints": [
        {
            "positions": [
                0.12281154014795169,
                -1.1394853015351272,
                1.9715477243005601,
                -0.7804696478968182,
                0.12958648046900423,
                -3.192491284697111
            ]
        },
        {
            "positions": [
                0.05686691494557104,
                -1.1731175136436633,
                2.0356762198998717,
                -0.8143286880024313,
                0.2864019983012324,
                -3.178239936817822
            ]
        },
        {
            "positions": [
                -0.009077710256809604,
                -1.2067497257521993,
                2.0998047154991832,
                -0.8481877281080444,
                0.4432175161334606,
                -3.163988588938533
            ]
        },
        {
            "positions": [
                -0.07502233545919025,
                -1.2403819378607355,
                2.163933211098495,
                -0.8820467682136575,
                0.6000330339656887,
                -3.1497372410592437
            ]
        },
        {
            "positions": [
                -0.14096696066157088,
                -1.2740141499692716,
                2.2280617066978063,
                -0.9159058083192706,
                0.756848551797917,
                -3.1354858931799545
            ]
        },
        {
            "positions": [
                -0.20691158586395159,
                -1.3076463620778078,
                2.2921902022971183,
                -0.9497648484248837,
                0.9136640696301452,
                -3.1212345453006654
            ]
        },
        {
            "positions": [
                -0.2728562110663322,
                -1.3412785741863438,
                2.35631869789643,
                -0.9836238885304969,
                1.0704795874623734,
                -3.106983197421376
            ]
        },
        {
            "positions": [
                -0.3388008362687129,
                -1.37491078629488,
                2.4204471934957414,
                -1.01748292863611,
                1.2272951052946017,
                -3.092731849542087
            ]
        }
    ]
}