{
    "goal": {
        "global_pose": {
            "orientation": {
                "w": 0.5084816217422485,
                "x": -0.49083608388900757,
                "y": 0.5182115435600281,
                "z": -0.4816462993621826
            },
            "position": {
                "x": 0.5540239810943604,
                "y": 0.030875300988554955,
                "z": 0.16403168439865112
            }
        },
        "name": "move_to_storage_A"
    },
    "id": "TRRT_move_to_storage_A_150",
    "joint_names": [
        "shoulder_pan_joint",
        "shoulder_lift_joint",
        "elbow_joint",
        "wrist_1_joint",
        "wrist_2_joint",
        "wrist_3_joint"
    ],
    "metrics": {
        "cart_traj_len": 0.3528972763819218,
        "distance_elbow_joint": 0.4504797380830645,
        "distance_shoulder_lift_joint": 0.23614955825802886,
        "distance_shoulder_pan_joint": 0.4613553426433079,
        "distance_wrist_1_joint": 0.24605401977518648,
        "distance_wrist_2_joint": 1.0994804457876044,
        "distance_wrist_3_joint": 0.09664318743667488,
        "smoothness": 4.440892133664971e-16,
        "time": 0.024901289,
        "traj_len": 1.6093981148192844,
        "weighted_distance": 2.0319899439761033
    },
    "planner": "TRRT",
    "start": {
        "state": {
            "elbow_joint": 1.9715477243005601,
            "shoulder_lift_joint": -1.1394853015351272,
            "shoulder_pan_joint": 0.12281154014795169,
            "wrist_1_joint": -0.7804696478968182,
            "wrist_2_joint": 0.12958648046900423,
            "wrist_3_joint": -3.192491284697111
        }
    },
    "waypoints": [
        {
            "positions": [
                0.12281154014795169,
                -1.1394853015351272,
                1.9715477243005601,
                -0.7804696478968182,
                0.12958648046900423,
                -3.192491284697111
            ]
        },
        {
            "positions": [
                0.05690363405605056,
                -1.1732209527148456,
                2.0359019725981407,
                -0.8156202221504162,
                0.2866551155815191,
                -3.1786851150633004
            ]
        },
        {
            "positions": [
                -0.009004272035850566,
                -1.206956603894564,
                2.1002562208957216,
                -0.8507707964040143,
                0.443723750694034,
                -3.1648789454294897
            ]
        },
        {
            "positions": [
                -0.07491217812775168,
                -1.2406922550742825,
                2.164610469193302,
                -0.8859213706576123,
                0.6007923858065489,
                -3.151072775795679
            ]
        },
        {
            "positions": [
                -0.1408200842196528,
                -1.2744279062540007,
                2.2289647174908827,
                -0.9210719449112105,
                0.7578610209190638,
                -3.1372666061618686
            ]
        },
        {
            "positions": [
                -0.20672799031155398,
                -1.3081635574337191,
                2.2933189657884636,
                -0.9562225191648085,
                0.9149296560315788,
                -3.123460436528058
            ]
        },
        {
            "positions": [
                -0.27263589640345504,
                -1.3418992086134376,
                2.357673214086044,
                -0.9913730934184066,
                1.0719982911440935,
                -3.109654266894247
            ]
        },
        {
            "positions": [
                -0.3385438024953562,
                -1.375634859793156,
                2.4220274623836247,
                -1.0265236676720046,
                1.2290669262566085,
                -3.0958480972604363
            ]
        }
    ]
}