{
    "goal": {
        "global_pose": {
            "orientation": {
                "w": 0.5084816217422485,
                "x": -0.49083608388900757,
                "y": 0.5182115435600281,
                "z": -0.4816462993621826
            },
            "position": {
                "x": 0.5540239810943604,
                "y": 0.030875300988554955,
                "z": 0.16403168439865112
            }
        },
        "name": "move_to_storage_A"
    },
    "id": "TRRT_move_to_storage_A_118",
    "joint_names": [
        "shoulder_pan_joint",
        "shoulder_lift_joint",
        "elbow_joint",
        "wrist_1_joint",
        "wrist_2_joint",
        "wrist_3_joint"
    ],
    "metrics": {
        "cart_traj_len": 0.3531994310313597,
        "distance_elbow_joint": 0.45006766355026695,
        "distance_shoulder_lift_joint": 0.23285580759812108,
        "distance_shoulder_pan_joint": 0.463376863122735,
        "distance_wrist_1_joint": 0.24294029308663878,
        "distance_wrist_2_joint": 1.0919835330502559,
        "distance_wrist_3_joint": 0.10445691708657501,
        "smoothness": 9.992007236661072e-16,
        "time": 0.044216011,
        "traj_len": 1.608005310157461,
        "weighted_distance": 2.032121733018137
    },
    "planner": "TRRT",
    "start": {
        "state": {
            "elbow_joint": 1.9715477243005601,
            "shoulder_lift_joint": -1.1394853015351272,
            "shoulder_pan_joint": 0.12281154014795169,
            "wrist_1_joint": -0.7804696478968182,
            "wrist_2_joint": 0.12958648046900423,
            "wrist_3_joint": -3.192491284697111
        }
    },
    "waypoints": [
        {
            "positions": [
                0.12281154014795169,
                -1.1394853015351272,
                1.9715477243005601,
                -0.7804696478968182,
                0.12958648046900423,
                -3.192491284697111
            ]
        },
        {
            "positions": [
                0.0566148454161324,
                -1.1727504169062872,
                2.035843104807741,
                -0.8151754040520522,
                0.28558412804761224,
                -3.1775688679704577
            ]
        },
        {
            "positions": [
                -0.009581849315686883,
                -1.2060155322774475,
                2.1001384853149223,
                -0.8498811602072864,
                0.4415817756262202,
                -3.162646451243804
            ]
        },
        {
            "positions": [
                -0.07577854404750616,
                -1.2392806476486076,
                2.164433865822103,
                -0.8845869163625205,
                0.5975794232048282,
                -3.1477240345171507
            ]
        },
        {
            "positions": [
                -0.14197523877932544,
                -1.2725457630197679,
                2.228729246329284,
                -0.9192926725177546,
                0.7535770707834362,
                -3.1328016177904967
            ]
        },
        {
            "positions": [
                -0.20817193351114477,
                -1.305810878390928,
                2.2930246268364654,
                -0.9539984286729888,
                0.9095747183620442,
                -3.117879201063843
            ]
        },
        {
            "positions": [
                -0.274368628242964,
                -1.339075993762088,
                2.357320007343646,
                -0.9887041848282228,
                1.065572365940652,
                -3.1029567843371897
            ]
        },
        {
            "positions": [
                -0.3405653229747833,
                -1.3723411091332482,
                2.421615387850827,
                -1.023409940983457,
                1.22157001351926,
                -3.088034367610536
            ]
        }
    ]
}