{
    "goal": {
        "global_pose": {
            "orientation": {
                "w": 0.5084816217422485,
                "x": -0.49083608388900757,
                "y": 0.5182115435600281,
                "z": -0.4816462993621826
            },
            "position": {
                "x": 0.5540239810943604,
                "y": 0.030875300988554955,
                "z": 0.16403168439865112
            }
        },
        "name": "move_to_storage_A"
    },
    "id": "TRRT_move_to_storage_A_119",
    "joint_names": [
        "shoulder_pan_joint",
        "shoulder_lift_joint",
        "elbow_joint",
        "wrist_1_joint",
        "wrist_2_joint",
        "wrist_3_joint"
    ],
    "metrics": {
        "cart_traj_len": 0.3532781659995944,
        "distance_elbow_joint": 0.4506342403955452,
        "distance_shoulder_lift_joint": 0.23282409935228987,
        "distance_shoulder_pan_joint": 0.4588198948620825,
        "distance_wrist_1_joint": 0.24816911550945708,
        "distance_wrist_2_joint": 1.1120249912635867,
        "distance_wrist_3_joint": 0.09205838103170638,
        "smoothness": 0.0,
        "time": 0.020073846,
        "traj_len": 1.6107547058489906,
        "weighted_distance": 2.034414311602021
    },
    "planner": "TRRT",
    "start": {
        "state": {
            "elbow_joint": 1.9715477243005601,
            "shoulder_lift_joint": -1.1394853015351272,
            "shoulder_pan_joint": 0.12281154014795169,
            "wrist_1_joint": -0.7804696478968182,
            "wrist_2_joint": 0.12958648046900423,
            "wrist_3_joint": -3.192491284697111
        }
    },
    "waypoints": [
        {
            "positions": [
                0.12281154014795169,
                -1.1394853015351272,
                1.9715477243005601,
                -0.7804696478968182,
                0.12958648046900423,
                -3.192491284697111
            ]
        },
        {
            "positions": [
                0.05726584088193991,
                -1.1727458871568828,
                2.0359240443570665,
                -0.8159223786838835,
                0.2884471935066595,
                -3.1793400874068674
            ]
        },
        {
            "positions": [
                -0.008279858384071873,
                -1.2060064727786386,
                2.100300364413573,
                -0.8513751094709487,
                0.4473079065443147,
                -3.1661888901166235
            ]
        },
        {
            "positions": [
                -0.07382555765008365,
                -1.2392670584003942,
                2.1646766844700793,
                -0.8868278402580141,
                0.60616861958197,
                -3.1530376928263797
            ]
        },
        {
            "positions": [
                -0.13937125691609542,
                -1.27252764402215,
                2.2290530045265857,
                -0.9222805710450793,
                0.7650293326196251,
                -3.1398864955361363
            ]
        },
        {
            "positions": [
                -0.20491695618210726,
                -1.3057882296439056,
                2.2934293245830926,
                -0.9577333018321447,
                0.9238900456572804,
                -3.1267352982458925
            ]
        },
        {
            "positions": [
                -0.270462655448119,
                -1.3390488152656612,
                2.357805644639599,
                -0.9931860326192099,
                1.0827507586949356,
                -3.1135841009556486
            ]
        },
        {
            "positions": [
                -0.3360083547141308,
                -1.372309400887417,
                2.4221819646961054,
                -1.0286387634062752,
                1.241611471732591,
                -3.100432903665405
            ]
        }
    ]
}