{
    "goal": {
        "global_pose": {
            "orientation": {
                "w": 0.7047431468963623,
                "x": -0.7094548344612122,
                "y": 0.0024358443915843964,
                "z": -0.0022348060738295317
            },
            "position": {
                "x": 0.6094750761985779,
                "y": 0.3671506643295288,
                "z": 0.19426114857196808
            }
        },
        "name": "move_to_magneteinheit_A"
    },
    "id": "TRRT_move_to_magneteinheit_A_111",
    "joint_names": [
        "shoulder_pan_joint",
        "shoulder_lift_joint",
        "elbow_joint",
        "wrist_1_joint",
        "wrist_2_joint",
        "wrist_3_joint"
    ],
    "metrics": {
        "cart_traj_len": 3.440163934177283,
        "distance_elbow_joint": 3.922208331059874,
        "distance_shoulder_lift_joint": 0.6566726144091222,
        "distance_shoulder_pan_joint": 3.139118803402977,
        "distance_wrist_1_joint": 3.46183365769798,
        "distance_wrist_2_joint": 1.7254739949872204,
        "distance_wrist_3_joint": 3.7748433817612637,
        "smoothness": 0.3071092100816555,
        "time": 0.129841184,
        "traj_len": 4.084134031017889,
        "weighted_distance": 5.423757479785223
    },
    "planner": "TRRT",
    "start": {
        "state": {
            "elbow_joint": -1.919618573717145,
            "shoulder_lift_joint": -1.2443395971678275,
            "shoulder_pan_joint": 2.6996025300909787,
            "wrist_1_joint": -1.548550951253194,
            "wrist_2_joint": -1.5709469090946802,
            "wrist_3_joint": 0.4420197732051276
        }
    },
    "waypoints": [
        {
            "positions": [
                2.6996025300909787,
                -1.2443395971678275,
                -1.919618573717145,
                -1.548550951253194,
                -1.5709469090946802,
                0.4420197732051276
            ]
        },
        {
            "positions": [
                2.6169929762109163,
                -1.230094647463812,
                -1.8434633526734139,
                -1.4581193330266493,
                -1.5165894145649512,
                0.3694177058684471
            ]
        },
        {
            "positions": [
                2.5343834223308543,
                -1.2158496977597963,
                -1.7673081316296828,
                -1.3676877148001045,
                -1.4622319200352225,
                0.29681563853176657
            ]
        },
        {
            "positions": [
                2.451773868450792,
                -1.2016047480557808,
                -1.6911529105859517,
                -1.2772560965735598,
                -1.4078744255054936,
                0.22421357119508606
            ]
        },
        {
            "positions": [
                2.36916431457073,
                -1.187359798351765,
                -1.6149976895422204,
                -1.1868244783470148,
                -1.3535169309757649,
                0.15161150385840555
            ]
        },
        {
            "positions": [
                2.2865547606906675,
                -1.1731148486477494,
                -1.5388424684984894,
                -1.09639286012047,
                -1.299159436446036,
                0.07900943652172504
            ]
        },
        {
            "positions": [
                2.2039452068106056,
                -1.1588698989437338,
                -1.4626872474547583,
                -1.0059612418939252,
                -1.244801941916307,
                0.006407369185044531
            ]
        },
        {
            "positions": [
                2.121335652930543,
                -1.1446249492397182,
                -1.386532026411027,
                -0.9155296236673803,
                -1.1904444473865783,
                -0.06619469815163598
            ]
        },
        {
            "positions": [
                2.038726099050481,
                -1.1303799995357027,
                -1.3103768053672962,
                -0.8250980054408356,
                -1.1360869528568494,
                -0.1387967654883165
            ]
        },
        {
            "positions": [
                1.9561165451704188,
                -1.116135049831687,
                -1.2342215843235649,
                -0.7346663872142907,
                -1.0817294583271204,
                -0.211398832824997
            ]
        },
        {
            "positions": [
                1.8735069912903568,
                -1.1018901001276715,
                -1.1580663632798338,
                -0.6442347689877458,
                -1.0273719637973917,
                -0.2840009001616775
            ]
        },
        {
            "positions": [
                1.7908974374102946,
                -1.087645150423656,
                -1.0819111422361027,
                -0.5538031507612011,
                -0.9730144692676629,
                -0.356602967498358
            ]
        },
        {
            "positions": [
                1.7082878835302324,
                -1.0734002007196402,
                -1.0057559211923717,
                -0.46337153253465635,
                -0.918656974737934,
                -0.4292050348350385
            ]
        },
        {
            "positions": [
                1.62567832965017,
                -1.0591552510156246,
                -0.9296007001486405,
                -0.37293991430811135,
                -0.8642994802082051,
                -0.501807102171719
            ]
        },
        {
            "positions": [
                1.5430687757701078,
                -1.044910301311609,
                -0.8534454791049093,
                -0.2825082960815666,
                -0.8099419856784762,
                -0.5744091695083995
            ]
        },
        {
            "positions": [
                1.4604592218900456,
                -1.0306653516075934,
                -0.7772902580611782,
                -0.19207667785502158,
                -0.7555844911487474,
                -0.64701123684508
            ]
        },
        {
            "positions": [
                1.3778496680099837,
                -1.0164204019035779,
                -0.7011350370174472,
                -0.10164505962847703,
                -0.7012269966190185,
                -0.7196133041817605
            ]
        },
        {
            "positions": [
                1.2952401141299215,
                -1.0021754521995623,
                -0.6249798159737163,
                -0.011213441401932256,
                -0.6468695020892898,
                -0.792215371518441
            ]
        },
        {
            "positions": [
                1.212630560249859,
                -0.9879305024955466,
                -0.548824594929985,
                0.07921817682461274,
                -0.5925120075595608,
                -0.8648174388551215
            ]
        },
        {
            "positions": [
                1.130021006369797,
                -0.973685552791531,
                -0.47266937388625396,
                0.16964979505115751,
                -0.538154513029832,
                -0.937419506191802
            ]
        },
        {
            "positions": [
                1.0474114524897347,
                -0.9594406030875153,
                -0.39651415284252267,
                0.2600814132777025,
                -0.48379701850010304,
                -1.0100215735284825
            ]
        },
        {
            "positions": [
                0.9648018986096725,
                -0.9451956533834998,
                -0.3203589317987916,
                0.35051303150424706,
                -0.4294395239703743,
                -1.082623640865163
            ]
        },
        {
            "positions": [
                0.8821923447296105,
                -0.9309507036794842,
                -0.24420371075506075,
                0.44094464973079184,
                -0.3750820294406456,
                -1.1552257082018436
            ]
        },
        {
            "positions": [
                0.7995827908495481,
                -0.9167057539754686,
                -0.16804848971132946,
                0.5313762679573371,
                -0.3207245349109167,
                -1.227827775538524
            ]
        },
        {
            "positions": [
                0.7169732369694859,
                -0.902460804271453,
                -0.0918932686675984,
                0.6218078861838814,
                -0.26636704038118775,
                -1.3004298428752046
            ]
        },
        {
            "positions": [
                0.6343636830894237,
                -0.8882158545674375,
                -0.015738047623867324,
                0.7122395044104262,
                -0.21200954585145904,
                -1.3730319102118849
            ]
        },
        {
            "positions": [
                0.5517541292093613,
                -0.8739709048634218,
                0.06041717341986397,
                0.8026711226369714,
                -0.1576520513217301,
                -1.4456339775485656
            ]
        },
        {
            "positions": [
                0.4691445753292993,
                -0.8597259551594061,
                0.13657239446359504,
                0.8931027408635162,
                -0.10329455679200117,
                -1.518236044885246
            ]
        },
        {
            "positions": [
                0.3865350214492369,
                -0.8454810054553905,
                0.21272761550732633,
                0.9835343590900609,
                -0.048937062262272235,
                -1.5908381122219266
            ]
        },
        {
            "positions": [
                0.3039254675691749,
                -0.8312360557513749,
                0.28888283655105707,
                1.0739659773166057,
                0.005420432267456456,
                -1.6634401795586071
            ]
        },
        {
            "positions": [
                0.24684324788310216,
                -0.7602849858966405,
                0.33114208152161384,
                1.1408328313735783,
                -0.05016166369028272,
                -1.6361839381364116
            ]
        },
        {
            "positions": [
                0.2063061488121744,
                -0.7696107614789252,
                0.497563812290054,
                1.175065938147582,
                -0.05853871558418368,
                -1.5154647893812598
            ]
        },
        {
            "positions": [
                0.16576904974124665,
                -0.7789365370612099,
                0.6639855430584941,
                1.2092990449215861,
                -0.06691576747808464,
                -1.394745640626108
            ]
        },
        {
            "positions": [
                0.12523195067031892,
                -0.7882623126434947,
                0.8304072738269342,
                1.24353215169559,
                -0.07529281937198559,
                -1.2740264918709565
            ]
        },
        {
            "positions": [
                0.08469485159939114,
                -0.7975880882257793,
                0.9968290045953744,
                1.2777652584695938,
                -0.08366987126588656,
                -1.1533073431158047
            ]
        },
        {
            "positions": [
                0.044157752528463406,
                -0.806913863808064,
                1.1632507353638144,
                1.3119983652435976,
                -0.09204692315978752,
                -1.032588194360653
            ]
        },
        {
            "positions": [
                0.0036206534575356775,
                -0.8162396393903487,
                1.3296724661322545,
                1.3462314720176016,
                -0.10042397505368847,
                -0.9118690456055013
            ]
        },
        {
            "positions": [
                -0.03691644561339205,
                -0.8255654149726335,
                1.4960941969006947,
                1.3804645787916054,
                -0.10880102694758942,
                -0.7911498968503495
            ]
        },
        {
            "positions": [
                -0.07745354468431989,
                -0.8348911905549181,
                1.6625159276691348,
                1.4146976855656095,
                -0.1171780788414904,
                -0.6704307480951978
            ]
        },
        {
            "positions": [
                -0.11799064375524762,
                -0.8442169661372028,
                1.828937658437575,
                1.4489307923396133,
                -0.12555513073539135,
                -0.5497115993400461
            ]
        },
        {
            "positions": [
                -0.15852774282617538,
                -0.8535427417194875,
                1.995359389206015,
                1.4831638991136171,
                -0.1339321826292923,
                -0.4289924505848942
            ]
        },
        {
            "positions": [
                -0.08828061020471988,
                -0.8337026798907154,
                1.9935517971718368,
                1.5906936009464094,
                -0.1314936729472087,
                -0.32025852557893997
            ]
        },
        {
            "positions": [
                -0.018033477583264373,
                -0.8138626180619435,
                1.9917442051376586,
                1.6982233027792017,
                -0.12905516326512512,
                -0.2115246005729857
            ]
        },
        {
            "positions": [
                0.05221365503819114,
                -0.7940225562331714,
                1.9899366131034804,
                1.8057530046119943,
                -0.12661665358304153,
                -0.10279067556703142
            ]
        },
        {
            "positions": [
                0.12246078765964664,
                -0.7741824944043993,
                1.9881290210693021,
                1.9132827064447866,
                -0.12417814390095792,
                0.005943249438922818
            ]
        }
    ]
}{
    "goal": {
        "global_pose": {
            "orientation": {
                "w": 0.7047431468963623,
                "x": -0.7094548344612122,
                "y": 0.0024358443915843964,
                "z": -0.0022348060738295317
            },
            "position": {
                "x": 0.6094750761985779,
                "y": 0.3671506643295288,
                "z": 0.19426114857196808
            }
        },
        "name": "move_to_magneteinheit_A"
    },
    "id": "TRRT_move_to_magneteinheit_A_111",
    "joint_names": [
        "shoulder_pan_joint",
        "shoulder_lift_joint",
        "elbow_joint",
        "wrist_1_joint",
        "wrist_2_joint",
        "wrist_3_joint"
    ],
    "metrics": {
        "cart_traj_len": 1.2508352875207929,
        "distance_elbow_joint": 0.07819452423619788,
        "distance_shoulder_lift_joint": 1.1175737188829906,
        "distance_shoulder_pan_joint": 1.242424982296473,
        "distance_wrist_1_joint": 3.540295476448332,
        "distance_wrist_2_joint": 1.6918271125344357,
        "distance_wrist_3_joint": 1.1403622799775526,
        "smoothness": 7.401486889441618e-17,
        "time": 0.066235805,
        "traj_len": 2.9682786416332245,
        "weighted_distance": 4.040238265661302
    },
    "planner": "TRRT",
    "start": {
        "state": {
            "elbow_joint": 1.919643534880228,
            "shoulder_lift_joint": -1.8972525353963687,
            "shoulder_pan_joint": -1.1188672234189438,
            "wrist_1_joint": -1.5931878212786155,
            "wrist_2_joint": 1.5706036197970081,
            "wrist_3_joint": 1.118896926603594
        }
    },
    "waypoints": [
        {
            "positions": [
                -1.1188672234189438,
                -1.8972525353963687,
                1.919643534880228,
                -1.5931878212786155,
                1.5706036197970081,
                1.118896926603594
            ]
        },
        {
            "positions": [
                -1.0648487459277929,
                -1.8486623737058039,
                1.9230432968035411,
                -1.4392619309982533,
                1.4970459192520327,
                1.0693159579089178
            ]
        },
        {
            "positions": [
                -1.010830268436642,
                -1.800072212015239,
                1.926443058726854,
                -1.2853360407178909,
                1.4234882187070572,
                1.0197349892142415
            ]
        },
        {
            "positions": [
                -0.9568117909454908,
                -1.7514820503246744,
                1.929842820650167,
                -1.1314101504375287,
                1.3499305181620818,
                0.9701540205195653
            ]
        },
        {
            "positions": [
                -0.9027933134543399,
                -1.7028918886341096,
                1.9332425825734798,
                -0.9774842601571665,
                1.2763728176171063,
                0.9205730518248891
            ]
        },
        {
            "positions": [
                -0.8487748359631888,
                -1.6543017269435447,
                1.9366423444967928,
                -0.8235583698768042,
                1.2028151170721308,
                0.8709920831302129
            ]
        },
        {
            "positions": [
                -0.7947563584720378,
                -1.6057115652529799,
                1.9400421064201059,
                -0.669632479596442,
                1.1292574165271554,
                0.8214111144355367
            ]
        },
        {
            "positions": [
                -0.7407378809808869,
                -1.557121403562415,
                1.9434418683434187,
                -0.5157065893160797,
                1.05569971598218,
                0.7718301457408605
            ]
        },
        {
            "positions": [
                -0.6867194034897359,
                -1.5085312418718502,
                1.9468416302667317,
                -0.3617806990357175,
                0.9821420154372044,
                0.7222491770461844
            ]
        },
        {
            "positions": [
                -0.6327009259985847,
                -1.4599410801812853,
                1.9502413921900446,
                -0.2078548087553551,
                0.9085843148922289,
                0.6726682083515081
            ]
        },
        {
            "positions": [
                -0.5786824485074339,
                -1.4113509184907207,
                1.9536411541133576,
                -0.053928918474992926,
                0.8350266143472534,
                0.623087239656832
            ]
        },
        {
            "positions": [
                -0.5246639710162828,
                -1.3627607568001558,
                1.9570409160366706,
                0.09999697180536948,
                0.761468913802278,
                0.5735062709621558
            ]
        },
        {
            "positions": [
                -0.47064549352513185,
                -1.314170595109591,
                1.9604406779599834,
                0.25392286208573145,
                0.6879112132573025,
                0.5239253022674796
            ]
        },
        {
            "positions": [
                -0.4166270160339809,
                -1.2655804334190264,
                1.9638404398832965,
                0.40784875236609364,
                0.6143535127123272,
                0.4743443335728035
            ]
        },
        {
            "positions": [
                -0.3626085385428298,
                -1.2169902717284613,
                1.9672402018066095,
                0.561774642646456,
                0.5407958121673515,
                0.42476336487812716
            ]
        },
        {
            "positions": [
                -0.30859006105167885,
                -1.1684001100378967,
                1.9706399637299223,
                0.7157005329268185,
                0.46723811162237605,
                0.37518239618345095
            ]
        },
        {
            "positions": [
                -0.2545715835605279,
                -1.1198099483473318,
                1.9740397256532354,
                0.8696264232071804,
                0.3936804110774006,
                0.32560142748877485
            ]
        },
        {
            "positions": [
                -0.20055310606937693,
                -1.071219786656767,
                1.9774394875765482,
                1.0235523134875428,
                0.32012271053242536,
                0.27602045879409864
            ]
        },
        {
            "positions": [
                -0.14653462857822575,
                -1.0226296249662021,
                1.9808392494998612,
                1.1774782037679052,
                0.24656500998744968,
                0.22643949009942232
            ]
        },
        {
            "positions": [
                -0.0925161510870749,
                -0.9740394632756374,
                1.9842390114231743,
                1.3314040940482672,
                0.17300730944247422,
                0.17685852140474623
            ]
        },
        {
            "positions": [
                -0.03849767359592393,
                -0.9254493015850725,
                1.987638773346487,
                1.4853299843286296,
                0.09944960889749876,
                0.12727755271007002
            ]
        },
        {
            "positions": [
                0.015520803895227031,
                -0.8768591398945078,
                1.9910385352698001,
                1.6392558746089916,
                0.025891908352523307,
                0.07769658401539381
            ]
        },
        {
            "positions": [
                0.06953928138637822,
                -0.828268978203943,
                1.994438297193113,
                1.7931817648893544,
                -0.04766579219245215,
                0.028115615320717602
            ]
        },
        {
            "positions": [
                0.12355775887752916,
                -0.7796788165133782,
                1.997838059116426,
                1.9471076551697162,
                -0.12122349273742758,
                -0.021465353373958638
            ]
        }
    ]
}