{
    "goal": {
        "global_pose": {
            "orientation": {
                "w": 0.7047431468963623,
                "x": -0.7094548344612122,
                "y": 0.0024358443915843964,
                "z": -0.0022348060738295317
            },
            "position": {
                "x": 0.6094750761985779,
                "y": 0.3671506643295288,
                "z": 0.19426114857196808
            }
        },
        "name": "move_to_magneteinheit_A"
    },
    "id": "TRRT_move_to_magneteinheit_A_130",
    "joint_names": [
        "shoulder_pan_joint",
        "shoulder_lift_joint",
        "elbow_joint",
        "wrist_1_joint",
        "wrist_2_joint",
        "wrist_3_joint"
    ],
    "metrics": {
        "cart_traj_len": 3.7437053672675913,
        "distance_elbow_joint": 3.91664197333772,
        "distance_shoulder_lift_joint": 1.0272546194679424,
        "distance_shoulder_pan_joint": 2.5771568031965235,
        "distance_wrist_1_joint": 3.48967880420919,
        "distance_wrist_2_joint": 2.108890764842908,
        "distance_wrist_3_joint": 1.3470058150650805,
        "smoothness": 0.10287752255319002,
        "time": 0.065451855,
        "traj_len": 3.803502173013624,
        "weighted_distance": 4.770661377555699
    },
    "planner": "TRRT",
    "start": {
        "state": {
            "elbow_joint": -1.919618573717145,
            "shoulder_lift_joint": -1.2443395971678275,
            "shoulder_pan_joint": 2.6996025300909787,
            "wrist_1_joint": -1.548550951253194,
            "wrist_2_joint": -1.5709469090946802,
            "wrist_3_joint": 0.4420197732051276
        }
    },
    "waypoints": [
        {
            "positions": [
                2.6996025300909787,
                -1.2443395971678275,
                -1.919618573717145,
                -1.548550951253194,
                -1.5709469090946802,
                0.4420197732051276
            ]
        },
        {
            "positions": [
                2.5958253293602986,
                -1.210026712089325,
                -1.8346735233638323,
                -1.4847684501444245,
                -1.4948172857047506,
                0.4630850744721404
            ]
        },
        {
            "positions": [
                2.492048128629618,
                -1.1757138270108225,
                -1.7497284730105196,
                -1.420985949035655,
                -1.4186876623148208,
                0.48415037573915326
            ]
        },
        {
            "positions": [
                2.388270927898938,
                -1.1414009419323201,
                -1.664783422657207,
                -1.3572034479268855,
                -1.3425580389248912,
                0.5052156770061661
            ]
        },
        {
            "positions": [
                2.2844937271682575,
                -1.1070880568538175,
                -1.5798383723038942,
                -1.293420946818116,
                -1.2664284155349614,
                0.5262809782731789
            ]
        },
        {
            "positions": [
                2.1807165264375774,
                -1.0727751717753151,
                -1.4948933219505816,
                -1.2296384457093463,
                -1.1902987921450319,
                0.5473462795401918
            ]
        },
        {
            "positions": [
                2.0769393257068973,
                -1.0384622866968125,
                -1.4099482715972687,
                -1.165855944600577,
                -1.1141691687551023,
                0.5684115808072046
            ]
        },
        {
            "positions": [
                1.973162124976217,
                -1.0041494016183101,
                -1.3250032212439562,
                -1.1020734434918074,
                -1.0380395453651725,
                0.5894768820742173
            ]
        },
        {
            "positions": [
                1.8693849242455367,
                -0.9698365165398077,
                -1.2400581708906433,
                -1.0382909423830378,
                -0.9619099219752429,
                0.6105421833412302
            ]
        },
        {
            "positions": [
                1.7656077235148566,
                -0.9355236314613051,
                -1.1551131205373308,
                -0.9745084412742683,
                -0.8857802985853133,
                0.631607484608243
            ]
        },
        {
            "positions": [
                1.6618305227841763,
                -0.9012107463828027,
                -1.070168070184018,
                -0.9107259401654987,
                -0.8096506751953837,
                0.6526727858752559
            ]
        },
        {
            "positions": [
                1.5580533220534958,
                -0.8668978613043001,
                -0.9852230198307051,
                -0.8469434390567291,
                -0.7335210518054539,
                0.6737380871422687
            ]
        },
        {
            "positions": [
                1.4542761213228157,
                -0.8325849762257977,
                -0.9002779694773926,
                -0.7831609379479596,
                -0.6573914284155243,
                0.6948033884092815
            ]
        },
        {
            "positions": [
                1.3504989205921354,
                -0.7982720911472951,
                -0.8153329191240799,
                -0.71937843683919,
                -0.5812618050255947,
                0.7158686896762944
            ]
        },
        {
            "positions": [
                1.2467217198614553,
                -0.7639592060687928,
                -0.7303878687707672,
                -0.6555959357304205,
                -0.5051321816356651,
                0.7369339909433071
            ]
        },
        {
            "positions": [
                1.1429445191307748,
                -0.7296463209902903,
                -0.6454428184174543,
                -0.5918134346216509,
                -0.4290025582457353,
                0.75799929221032
            ]
        },
        {
            "positions": [
                1.0391673184000947,
                -0.6953334359117879,
                -0.5604977680641419,
                -0.5280309335128814,
                -0.35287293485580573,
                0.7790645934773328
            ]
        },
        {
            "positions": [
                0.9353901176694144,
                -0.6610205508332853,
                -0.47555271771082896,
                -0.46424843240411184,
                -0.27674331146587594,
                0.8001298947443456
            ]
        },
        {
            "positions": [
                0.8316129169387343,
                -0.6267076657547829,
                -0.3906076673575165,
                -0.40046593129534247,
                -0.20061368807594637,
                0.8211951960113584
            ]
        },
        {
            "positions": [
                0.7278357162080538,
                -0.5923947806762804,
                -0.3056626170042036,
                -0.33668343018657265,
                -0.1244840646860168,
                0.8422604972783713
            ]
        },
        {
            "positions": [
                0.6240585154773739,
                -0.5580818955977779,
                -0.22071756665089115,
                -0.2729009290778033,
                -0.048354441296087236,
                0.8633257985453842
            ]
        },
        {
            "positions": [
                0.5202813147466933,
                -0.5237690105192754,
                -0.13577251629757828,
                -0.20911842796903374,
                0.027775182093842637,
                0.8843910998123969
            ]
        },
        {
            "positions": [
                0.4708753744191535,
                -0.5205841499371283,
                -0.005738032549787414,
                -0.09020061215362654,
                0.05010801023261298,
                0.8417199696159214
            ]
        },
        {
            "positions": [
                0.4214694340916137,
                -0.5173992893549811,
                0.12429645119800345,
                0.028717203661780655,
                0.07244083837138332,
                0.7990488394194459
            ]
        },
        {
            "positions": [
                0.37206349376407394,
                -0.5142144287728341,
                0.2543309349457943,
                0.14763501947718788,
                0.09477366651015368,
                0.7563777092229704
            ]
        },
        {
            "positions": [
                0.32265755343653413,
                -0.5110295681906869,
                0.3843654186935852,
                0.26655283529259505,
                0.11710649464892402,
                0.7137065790264949
            ]
        },
        {
            "positions": [
                0.2732516131089944,
                -0.5078447076085398,
                0.5143999024413761,
                0.3854706511080022,
                0.13943932278769436,
                0.6710354488300194
            ]
        },
        {
            "positions": [
                0.22384567278145462,
                -0.5046598470263927,
                0.6444343861891669,
                0.5043884669234096,
                0.16177215092646471,
                0.6283643186335439
            ]
        },
        {
            "positions": [
                0.1744397324539148,
                -0.5014749864442456,
                0.7744688699369577,
                0.6233062827388167,
                0.18410497906523504,
                0.5856931884370684
            ]
        },
        {
            "positions": [
                0.12503379212637505,
                -0.4982901258620985,
                0.9045033536847485,
                0.7422240985542239,
                0.2064378072040054,
                0.5430220582405929
            ]
        },
        {
            "positions": [
                0.12474622932282829,
                -0.5295351423245667,
                1.0258944698998405,
                0.8754356268210876,
                0.1696038018102028,
                0.48043700858659205
            ]
        },
        {
            "positions": [
                0.12445866651928153,
                -0.5607801587870348,
                1.1472855861149323,
                1.0086471550879512,
                0.13276979641640022,
                0.4178519589325912
            ]
        },
        {
            "positions": [
                0.12417110371573477,
                -0.5920251752495029,
                1.268676702330024,
                1.1418586833548148,
                0.09593579102259762,
                0.35526690927859034
            ]
        },
        {
            "positions": [
                0.123883540912188,
                -0.6232701917119711,
                1.3900678185451159,
                1.2750702116216783,
                0.059101785628795034,
                0.2926818596245895
            ]
        },
        {
            "positions": [
                0.12359597810864126,
                -0.6545152081744392,
                1.5114589347602077,
                1.408281739888542,
                0.02226778023499243,
                0.23009680997058857
            ]
        },
        {
            "positions": [
                0.1233084153050945,
                -0.6857602246369074,
                1.6328500509752994,
                1.5414932681554059,
                -0.014566225158810148,
                0.16751176031658777
            ]
        },
        {
            "positions": [
                0.12302085250154773,
                -0.7170052410993756,
                1.7542411671903912,
                1.6747047964222694,
                -0.05140023055261278,
                0.10492671066258685
            ]
        },
        {
            "positions": [
                0.12273328969800097,
                -0.7482502575618437,
                1.875632283405483,
                1.807916324689133,
                -0.08823423594641533,
                0.04234166100858605
            ]
        },
        {
            "positions": [
                0.12244572689445421,
                -0.7794952740243118,
                1.9970233996205746,
                1.9411278529559968,
                -0.12506824134021793,
                -0.020243388645414827
            ]
        }
    ]
}{
    "goal": {
        "global_pose": {
            "orientation": {
                "w": 0.7047431468963623,
                "x": -0.7094548344612122,
                "y": 0.0024358443915843964,
                "z": -0.0022348060738295317
            },
            "position": {
                "x": 0.6094750761985779,
                "y": 0.3671506643295288,
                "z": 0.19426114857196808
            }
        },
        "name": "move_to_magneteinheit_A"
    },
    "id": "TRRT_move_to_magneteinheit_A_130",
    "joint_names": [
        "shoulder_pan_joint",
        "shoulder_lift_joint",
        "elbow_joint",
        "wrist_1_joint",
        "wrist_2_joint",
        "wrist_3_joint"
    ],
    "metrics": {
        "cart_traj_len": 1.2737951155800533,
        "distance_elbow_joint": 0.25035864471674296,
        "distance_shoulder_lift_joint": 0.8545871288368685,
        "distance_shoulder_pan_joint": 1.241450542107425,
        "distance_wrist_1_joint": 0.7445184309640817,
        "distance_wrist_2_joint": 1.563401119814315,
        "distance_wrist_3_joint": 4.245275824950158,
        "smoothness": 0.17294140931825186,
        "time": 0.081796699,
        "traj_len": 2.9832183445717795,
        "weighted_distance": 4.438249980799674
    },
    "planner": "TRRT",
    "start": {
        "state": {
            "elbow_joint": 1.919643534880228,
            "shoulder_lift_joint": -1.8972525353963687,
            "shoulder_pan_joint": -1.1188672234189438,
            "wrist_1_joint": -1.5931878212786155,
            "wrist_2_joint": 1.5706036197970081,
            "wrist_3_joint": 1.118896926603594
        }
    },
    "waypoints": [
        {
            "positions": [
                -1.1188672234189438,
                -1.8972525353963687,
                1.919643534880228,
                -1.5931878212786155,
                1.5706036197970081,
                1.118896926603594
            ]
        },
        {
            "positions": [
                -1.065250532314089,
                -1.8590591149448086,
                1.9152939158049294,
                -1.558101485374948,
                1.4988412725356548,
                0.9390408859831448
            ]
        },
        {
            "positions": [
                -1.0116338412092343,
                -1.8208656944932482,
                1.9109442967296304,
                -1.5230151494712807,
                1.4270789252743017,
                0.7591848453626957
            ]
        },
        {
            "positions": [
                -0.9580171501043795,
                -1.782672274041688,
                1.9065946776543317,
                -1.4879288135676132,
                1.3553165780129484,
                0.5793288047422466
            ]
        },
        {
            "positions": [
                -0.9044004589995246,
                -1.7444788535901279,
                1.9022450585790327,
                -1.4528424776639457,
                1.2835542307515952,
                0.39947276412179733
            ]
        },
        {
            "positions": [
                -0.8507837678946698,
                -1.7062854331385677,
                1.897895439503734,
                -1.4177561417602784,
                1.211791883490242,
                0.2196167235013482
            ]
        },
        {
            "positions": [
                -0.797167076789815,
                -1.6680920126870074,
                1.8935458204284352,
                -1.382669805856611,
                1.1400295362288886,
                0.03976068288089918
            ]
        },
        {
            "positions": [
                -0.7435503856849602,
                -1.6298985922354472,
                1.8891962013531363,
                -1.3475834699529434,
                1.0682671889675355,
                -0.14009535773955006
            ]
        },
        {
            "positions": [
                -0.6899336945801053,
                -1.591705171783887,
                1.8848465822778375,
                -1.3124971340492761,
                0.9965048417061821,
                -0.3199513983599993
            ]
        },
        {
            "positions": [
                -0.6363170034752506,
                -1.5535117513323269,
                1.8804969632025388,
                -1.2774107981456087,
                0.9247424944448289,
                -0.4998074389804483
            ]
        },
        {
            "positions": [
                -0.5827003123703958,
                -1.5153183308807665,
                1.8761473441272398,
                -1.2423244622419412,
                0.8529801471834757,
                -0.6796634796008976
            ]
        },
        {
            "positions": [
                -0.529083621265541,
                -1.4771249104292064,
                1.871797725051941,
                -1.2072381263382739,
                0.7812177999221224,
                -0.8595195202213468
            ]
        },
        {
            "positions": [
                -0.4754669301606862,
                -1.4389314899776462,
                1.8674481059766421,
                -1.1721517904346064,
                0.7094554526607693,
                -1.0393755608417956
            ]
        },
        {
            "positions": [
                -0.4218502390558313,
                -1.4007380695260858,
                1.8630984869013434,
                -1.1370654545309389,
                0.6376931053994159,
                -1.2192316014622453
            ]
        },
        {
            "positions": [
                -0.3682335479509766,
                -1.3625446490745257,
                1.8587488678260446,
                -1.1019791186272716,
                0.5659307581380628,
                -1.399087642082694
            ]
        },
        {
            "positions": [
                -0.31461685684612173,
                -1.3243512286229655,
                1.8543992487507457,
                -1.066892782723604,
                0.4941684108767095,
                -1.5789436827031433
            ]
        },
        {
            "positions": [
                -0.26100016574126694,
                -1.2861578081714051,
                1.850049629675447,
                -1.0318064468199366,
                0.42240606361535615,
                -1.7587997233235926
            ]
        },
        {
            "positions": [
                -0.20738347463641216,
                -1.247964387719845,
                1.8457000106001482,
                -0.9967201109162692,
                0.3506437163540028,
                -1.9386557639440418
            ]
        },
        {
            "positions": [
                -0.15376678353155737,
                -1.2097709672682848,
                1.8413503915248493,
                -0.9616337750126018,
                0.2788813690926497,
                -2.1185118045644904
            ]
        },
        {
            "positions": [
                -0.10015009242670248,
                -1.1715775468167244,
                1.8370007724495505,
                -0.9265474391089344,
                0.20711902183129638,
                -2.2983678451849396
            ]
        },
        {
            "positions": [
                -0.04653340132184769,
                -1.1333841263651645,
                1.8326511533742516,
                -0.8914611032052671,
                0.13535667456994327,
                -2.478223885805389
            ]
        },
        {
            "positions": [
                0.007083289783007152,
                -1.0951907059136041,
                1.8283015342989528,
                -0.8563747673015996,
                0.06359432730858997,
                -2.658079926425838
            ]
        },
        {
            "positions": [
                0.04558329941816514,
                -1.1126991390316388,
                1.8813070823441087,
                -0.8589432262972881,
                0.08239160308388885,
                -2.814179583732747
            ]
        },
        {
            "positions": [
                0.08408330905332313,
                -1.1302075721496734,
                1.9343126303892646,
                -0.8615116852929767,
                0.10118887885918773,
                -2.9702792410396555
            ]
        },
        {
            "positions": [
                0.12258331868848113,
                -1.147716005267708,
                1.9873181784344205,
                -0.8640801442886653,
                0.11998615463448663,
                -3.126378898346564
            ]
        }
    ]
}