{
    "goal": {
        "global_pose": {
            "orientation": {
                "w": 0.7047431468963623,
                "x": -0.7094548344612122,
                "y": 0.0024358443915843964,
                "z": -0.0022348060738295317
            },
            "position": {
                "x": 0.6094750761985779,
                "y": 0.3671506643295288,
                "z": 0.19426114857196808
            }
        },
        "name": "move_to_magneteinheit_A"
    },
    "id": "TRRT_move_to_magneteinheit_A_74",
    "joint_names": [
        "shoulder_pan_joint",
        "shoulder_lift_joint",
        "elbow_joint",
        "wrist_1_joint",
        "wrist_2_joint",
        "wrist_3_joint"
    ],
    "metrics": {
        "cart_traj_len": 3.5912109442852476,
        "distance_elbow_joint": 3.889536844435023,
        "distance_shoulder_lift_joint": 0.911403464403316,
        "distance_shoulder_pan_joint": 3.916927379427319,
        "distance_wrist_1_joint": 1.8464089082341684,
        "distance_wrist_2_joint": 2.457105267130274,
        "distance_wrist_3_joint": 3.637072138217813,
        "smoothness": 0.28853613009963225,
        "time": 0.092202535,
        "traj_len": 4.081476938786732,
        "weighted_distance": 5.313766315302922
    },
    "planner": "TRRT",
    "start": {
        "state": {
            "elbow_joint": -1.919618573717145,
            "shoulder_lift_joint": -1.2443395971678275,
            "shoulder_pan_joint": 2.6996025300909787,
            "wrist_1_joint": -1.548550951253194,
            "wrist_2_joint": -1.5709469090946802,
            "wrist_3_joint": 0.4420197732051276
        }
    },
    "waypoints": [
        {
            "positions": [
                2.6996025300909787,
                -1.2443395971678275,
                -1.919618573717145,
                -1.548550951253194,
                -1.5709469090946802,
                0.4420197732051276
            ]
        },
        {
            "positions": [
                2.594856220056526,
                -1.2571423055163762,
                -1.827841787624509,
                -1.506318624678472,
                -1.5038628383594048,
                0.3742582696673693
            ]
        },
        {
            "positions": [
                2.490109910022073,
                -1.2699450138649249,
                -1.7360650015318733,
                -1.4640862981037503,
                -1.4367787676241293,
                0.3064967661296111
            ]
        },
        {
            "positions": [
                2.385363599987621,
                -1.2827477222134738,
                -1.6442882154392375,
                -1.4218539715290284,
                -1.369694696888854,
                0.23873526259185282
            ]
        },
        {
            "positions": [
                2.280617289953168,
                -1.2955504305620225,
                -1.5525114293466016,
                -1.3796216449543066,
                -1.3026106261535784,
                0.17097375905409457
            ]
        },
        {
            "positions": [
                2.1758709799187153,
                -1.3083531389105711,
                -1.4607346432539656,
                -1.3373893183795846,
                -1.235526555418303,
                0.10321225551633628
            ]
        },
        {
            "positions": [
                2.071124669884263,
                -1.3211558472591198,
                -1.36895785716133,
                -1.2951569918048627,
                -1.1684424846830277,
                0.035450751978578054
            ]
        },
        {
            "positions": [
                1.9663783598498101,
                -1.3339585556076685,
                -1.2771810710686942,
                -1.252924665230141,
                -1.1013584139477521,
                -0.03231075155918023
            ]
        },
        {
            "positions": [
                1.8616320498153573,
                -1.3467612639562174,
                -1.1854042849760582,
                -1.2106923386554191,
                -1.0342743432124768,
                -0.10007225509693846
            ]
        },
        {
            "positions": [
                1.7568857397809046,
                -1.359563972304766,
                -1.0936274988834223,
                -1.1684600120806972,
                -0.9671902724772014,
                -0.1678337586346968
            ]
        },
        {
            "positions": [
                1.652139429746452,
                -1.3723666806533148,
                -1.0018507127907865,
                -1.1262276855059752,
                -0.9001062017419259,
                -0.23559526217245502
            ]
        },
        {
            "positions": [
                1.5473931197119992,
                -1.3851693890018635,
                -0.9100739266981506,
                -1.0839953589312534,
                -0.8330221310066505,
                -0.30335676571021336
            ]
        },
        {
            "positions": [
                1.4426468096775467,
                -1.3979720973504122,
                -0.8182971406055148,
                -1.0417630323565314,
                -0.7659380602713751,
                -0.3711182692479715
            ]
        },
        {
            "positions": [
                1.3379004996430939,
                -1.4107748056989609,
                -0.7265203545128789,
                -0.9995307057818096,
                -0.6988539895360997,
                -0.4388797727857298
            ]
        },
        {
            "positions": [
                1.2331541896086413,
                -1.4235775140475098,
                -0.6347435684202432,
                -0.9572983792070877,
                -0.6317699188008242,
                -0.506641276323488
            ]
        },
        {
            "positions": [
                1.1284078795741885,
                -1.4363802223960584,
                -0.5429667823276072,
                -0.9150660526323657,
                -0.5646858480655488,
                -0.5744027798612463
            ]
        },
        {
            "positions": [
                1.0236615695397357,
                -1.4491829307446071,
                -0.45118999623497147,
                -0.872833726057644,
                -0.49760177733027344,
                -0.6421642833990044
            ]
        },
        {
            "positions": [
                0.9189152595052832,
                -1.4619856390931558,
                -0.35941321014233574,
                -0.8306013994829221,
                -0.4305177065949981,
                -0.7099257869367628
            ]
        },
        {
            "positions": [
                0.8141689494708304,
                -1.4747883474417045,
                -0.26763642404969956,
                -0.7883690729082001,
                -0.36343363585972255,
                -0.7776872904745211
            ]
        },
        {
            "positions": [
                0.7094226394363776,
                -1.4875910557902534,
                -0.17585963795706383,
                -0.7461367463334783,
                -0.2963495651244472,
                -0.8454487940122792
            ]
        },
        {
            "positions": [
                0.6046763294019253,
                -1.500393764138802,
                -0.0840828518644281,
                -0.7039044197587564,
                -0.22926549438917165,
                -0.9132102975500376
            ]
        },
        {
            "positions": [
                0.4999300193674725,
                -1.5131964724873508,
                0.007693934228207633,
                -0.6616720931840345,
                -0.16218142365389632,
                -0.9809718010877957
            ]
        },
        {
            "positions": [
                0.3951837093330197,
                -1.5259991808358995,
                0.09947072032084381,
                -0.6194397666093125,
                -0.09509735291862076,
                -1.0487333046255543
            ]
        },
        {
            "positions": [
                0.29043739929856693,
                -1.5388018891844482,
                0.19124750641347954,
                -0.5772074400345907,
                -0.028013282183345423,
                -1.1164948081633124
            ]
        },
        {
            "positions": [
                0.1856910892641146,
                -1.551604597532997,
                0.28302429250611527,
                -0.5349751134598688,
                0.039070788551929914,
                -1.1842563117010705
            ]
        },
        {
            "positions": [
                0.08094477922966181,
                -1.5644073058815458,
                0.374801078598751,
                -0.49274278688514705,
                0.10615485928720525,
                -1.2520178152388288
            ]
        },
        {
            "positions": [
                -0.02380153080479097,
                -1.5772100142300944,
                0.4665778646913872,
                -0.4505104603104251,
                0.1732389300224808,
                -1.3197793187765872
            ]
        },
        {
            "positions": [
                -0.12854784083924375,
                -1.5900127225786431,
                0.5583546507840229,
                -0.4082781337357031,
                0.24032300075775614,
                -1.3875408223143453
            ]
        },
        {
            "positions": [
                -0.2332941508736961,
                -1.6028154309271918,
                0.6501314368766586,
                -0.36604580716098134,
                0.3074070714930317,
                -1.4553023258521036
            ]
        },
        {
            "positions": [
                -0.3380404609081489,
                -1.6156181392757407,
                0.7419082229692944,
                -0.32381348058625936,
                0.37449114222830704,
                -1.5230638293898617
            ]
        },
        {
            "positions": [
                -0.44278677094260166,
                -1.6284208476242894,
                0.8336850090619305,
                -0.2815811540115374,
                0.4415752129635826,
                -1.5908253329276203
            ]
        },
        {
            "positions": [
                -0.5475330809770546,
                -1.641223555972838,
                0.9254617951545665,
                -0.23934882743681563,
                0.5086592836988579,
                -1.6585868364653784
            ]
        },
        {
            "positions": [
                -0.4880452432951208,
                -1.594978024442578,
                1.0187343618721838,
                -0.28782640530710013,
                0.48386412860117983,
                -1.7792824138709735
            ]
        },
        {
            "positions": [
                -0.428557405613187,
                -1.5487324929123176,
                1.112006928589801,
                -0.33630398317738464,
                0.4590689735035018,
                -1.8999779912765686
            ]
        },
        {
            "positions": [
                -0.3690695679312533,
                -1.5024869613820575,
                1.2052794953074184,
                -0.38478156104766914,
                0.4342738184058237,
                -2.020673568682164
            ]
        },
        {
            "positions": [
                -0.30958173024931945,
                -1.4562414298517972,
                1.2985520620250357,
                -0.4332591389179537,
                0.40947866330814564,
                -2.141369146087759
            ]
        },
        {
            "positions": [
                -0.25009389256738573,
                -1.409995898321537,
                1.3918246287426528,
                -0.4817367167882382,
                0.38468350821046754,
                -2.262064723493354
            ]
        },
        {
            "positions": [
                -0.19060605488545201,
                -1.363750366791277,
                1.4850971954602703,
                -0.5302142946585227,
                0.3598883531127895,
                -2.382760300898949
            ]
        },
        {
            "positions": [
                -0.13111821720351818,
                -1.3175048352610168,
                1.5783697621778874,
                -0.5786918725288073,
                0.3350931980151114,
                -2.5034558783045444
            ]
        },
        {
            "positions": [
                -0.07163037952158441,
                -1.2712593037307565,
                1.671642328895505,
                -0.6271694503990918,
                0.31029804291743335,
                -2.6241514557101393
            ]
        },
        {
            "positions": [
                -0.012142541839650689,
                -1.2250137722004961,
                1.764914895613122,
                -0.6756470282693763,
                0.28550288781975525,
                -2.7448470331157346
            ]
        },
        {
            "positions": [
                0.047345295842283086,
                -1.178768240670236,
                1.8581874623307393,
                -0.7241246061396608,
                0.26070773272207715,
                -2.86554261052133
            ]
        },
        {
            "positions": [
                0.10683313352421683,
                -1.1325227091399759,
                1.9514600290483566,
                -0.7726021840099453,
                0.2359125776243991,
                -2.986238187926925
            ]
        },
        {
            "positions": [
                0.12225868738223014,
                -1.138341367905419,
                1.9699182707178775,
                -0.7765556118546049,
                0.13116020936212008,
                -3.195052365012686
            ]
        }
    ]
}{
    "goal": {
        "global_pose": {
            "orientation": {
                "w": 0.7047431468963623,
                "x": -0.7094548344612122,
                "y": 0.0024358443915843964,
                "z": -0.0022348060738295317
            },
            "position": {
                "x": 0.6094750761985779,
                "y": 0.3671506643295288,
                "z": 0.19426114857196808
            }
        },
        "name": "move_to_magneteinheit_A"
    },
    "id": "TRRT_move_to_magneteinheit_A_74",
    "joint_names": [
        "shoulder_pan_joint",
        "shoulder_lift_joint",
        "elbow_joint",
        "wrist_1_joint",
        "wrist_2_joint",
        "wrist_3_joint"
    ],
    "metrics": {
        "cart_traj_len": 1.303390890389511,
        "distance_elbow_joint": 0.6391646084969091,
        "distance_shoulder_lift_joint": 0.7491766725388074,
        "distance_shoulder_pan_joint": 1.2413647897228952,
        "distance_wrist_1_joint": 0.7323256111505723,
        "distance_wrist_2_joint": 1.7462780705426957,
        "distance_wrist_3_joint": 4.247612501062941,
        "smoothness": 0.24404014761023649,
        "time": 2.6602842310000003,
        "traj_len": 3.0587452089892713,
        "weighted_distance": 4.508852507826573
    },
    "planner": "TRRT",
    "start": {
        "state": {
            "elbow_joint": 1.919643534880228,
            "shoulder_lift_joint": -1.8972525353963687,
            "shoulder_pan_joint": -1.1188672234189438,
            "wrist_1_joint": -1.5931878212786155,
            "wrist_2_joint": 1.5706036197970081,
            "wrist_3_joint": 1.118896926603594
        }
    },
    "waypoints": [
        {
            "positions": [
                -1.1188672234189438,
                -1.8972525353963687,
                1.919643534880228,
                -1.5931878212786155,
                1.5706036197970081,
                1.118896926603594
            ]
        },
        {
            "positions": [
                -1.0737517001793175,
                -1.8655287201076507,
                1.9067029784592533,
                -1.562975883915695,
                1.4982076754029148,
                0.9264591480024504
            ]
        },
        {
            "positions": [
                -1.0286361769396914,
                -1.8338049048189327,
                1.8937624220382785,
                -1.532763946552775,
                1.4258117310088212,
                0.7340213694013068
            ]
        },
        {
            "positions": [
                -0.9835206537000653,
                -1.8020810895302146,
                1.880821865617304,
                -1.5025520091898545,
                1.3534157866147278,
                0.5415835908001633
            ]
        },
        {
            "positions": [
                -0.938405130460439,
                -1.7703572742414966,
                1.867881309196329,
                -1.4723400718269344,
                1.2810198422206345,
                0.34914581219901963
            ]
        },
        {
            "positions": [
                -0.8932896072208127,
                -1.7386334589527785,
                1.8549407527753543,
                -1.442128134464014,
                1.208623897826541,
                0.1567080335978761
            ]
        },
        {
            "positions": [
                -0.8481740839811867,
                -1.7069096436640607,
                1.8420001963543795,
                -1.4119161971010938,
                1.1362279534324475,
                -0.03572974500326742
            ]
        },
        {
            "positions": [
                -0.8030585607415603,
                -1.6751858283753427,
                1.829059639933405,
                -1.3817042597381735,
                1.0638320090383542,
                -0.22816752360441095
            ]
        },
        {
            "positions": [
                -0.7579430375019341,
                -1.6434620130866247,
                1.8161190835124301,
                -1.351492322375253,
                0.9914360646442607,
                -0.4206053022055547
            ]
        },
        {
            "positions": [
                -0.712827514262308,
                -1.6117381977979066,
                1.8031785270914553,
                -1.321280385012333,
                0.9190401202501672,
                -0.6130430808066982
            ]
        },
        {
            "positions": [
                -0.6677119910226818,
                -1.5800143825091886,
                1.7902379706704805,
                -1.2910684476494125,
                0.8466441758560739,
                -0.8054808594078418
            ]
        },
        {
            "positions": [
                -0.6225964677830556,
                -1.5482905672204705,
                1.7772974142495057,
                -1.2608565102864924,
                0.7742482314619804,
                -0.9979186380089853
            ]
        },
        {
            "positions": [
                -0.5774809445434294,
                -1.5165667519317525,
                1.7643568578285311,
                -1.230644572923572,
                0.701852287067887,
                -1.1903564166101288
            ]
        },
        {
            "positions": [
                -0.5323654213038032,
                -1.4848429366430345,
                1.7514163014075563,
                -1.2004326355606518,
                0.6294563426737935,
                -1.3827941952112723
            ]
        },
        {
            "positions": [
                -0.48724989806417696,
                -1.4531191213543164,
                1.7384757449865815,
                -1.1702206981977314,
                0.5570603982797002,
                -1.5752319738124159
            ]
        },
        {
            "positions": [
                -0.44213437482455076,
                -1.4213953060655986,
                1.725535188565607,
                -1.1400087608348113,
                0.48466445388560686,
                -1.7676697524135594
            ]
        },
        {
            "positions": [
                -0.39701885158492445,
                -1.3896714907768803,
                1.7125946321446321,
                -1.109796823471891,
                0.4122685094915133,
                -1.9601075310147034
            ]
        },
        {
            "positions": [
                -0.35190332834529836,
                -1.3579476754881625,
                1.6996540757236573,
                -1.0795848861089707,
                0.3398725650974199,
                -2.1525453096158467
            ]
        },
        {
            "positions": [
                -0.30678780510567205,
                -1.3262238601994443,
                1.6867135193026825,
                -1.0493729487460501,
                0.26747662070332634,
                -2.34498308821699
            ]
        },
        {
            "positions": [
                -0.26167228186604585,
                -1.2945000449107265,
                1.6737729628817077,
                -1.01916101138313,
                0.19508067630923298,
                -2.5374208668181337
            ]
        },
        {
            "positions": [
                -0.21655675862641965,
                -1.2627762296220084,
                1.6608324064607332,
                -0.9889490740202097,
                0.12268473191513962,
                -2.7298586454192773
            ]
        },
        {
            "positions": [
                -0.17144123538679346,
                -1.2310524143332904,
                1.6478918500397584,
                -0.9587371366572894,
                0.05028878752104604,
                -2.922296424020421
            ]
        },
        {
            "positions": [
                -0.12632571214716729,
                -1.1993285990445723,
                1.6349512936187836,
                -0.9285251992943692,
                -0.02210715687304739,
                -3.1147342026215643
            ]
        },
        {
            "positions": [
                -0.04338461933012784,
                -1.182244353648902,
                1.7531087493639383,
                -0.9059708695722605,
                0.02908194108449939,
                -3.1193946599008253
            ]
        },
        {
            "positions": [
                0.0395564734869116,
                -1.1651601082532317,
                1.8712662051090934,
                -0.8834165398501519,
                0.08027103904204617,
                -3.124055117180086
            ]
        },
        {
            "positions": [
                0.12249756630395107,
                -1.1480758628575614,
                1.9894236608542482,
                -0.8608622101280432,
                0.13146013699959294,
                -3.128715574459347
            ]
        }
    ]
}