{
    "goal": {
        "global_pose": {
            "orientation": {
                "w": 0.7047431468963623,
                "x": -0.7094548344612122,
                "y": 0.0024358443915843964,
                "z": -0.0022348060738295317
            },
            "position": {
                "x": 0.6094750761985779,
                "y": 0.3671506643295288,
                "z": 0.19426114857196808
            }
        },
        "name": "move_to_magneteinheit_A"
    },
    "id": "TRRT_move_to_magneteinheit_A_104",
    "joint_names": [
        "shoulder_pan_joint",
        "shoulder_lift_joint",
        "elbow_joint",
        "wrist_1_joint",
        "wrist_2_joint",
        "wrist_3_joint"
    ],
    "metrics": {
        "cart_traj_len": 4.122111482298212,
        "distance_elbow_joint": 3.879692478326382,
        "distance_shoulder_lift_joint": 1.1415357564067299,
        "distance_shoulder_pan_joint": 3.3105446543494694,
        "distance_wrist_1_joint": 1.1610053883568618,
        "distance_wrist_2_joint": 2.77009795683705,
        "distance_wrist_3_joint": 2.6114848274005324,
        "smoothness": 0.559716687013409,
        "time": 0.09047962300000001,
        "traj_len": 3.856729321805852,
        "weighted_distance": 4.901880665792672
    },
    "planner": "TRRT",
    "start": {
        "state": {
            "elbow_joint": -1.919618573717145,
            "shoulder_lift_joint": -1.2443395971678275,
            "shoulder_pan_joint": 2.6996025300909787,
            "wrist_1_joint": -1.548550951253194,
            "wrist_2_joint": -1.5709469090946802,
            "wrist_3_joint": 0.4420197732051276
        }
    },
    "waypoints": [
        {
            "positions": [
                2.6996025300909787,
                -1.2443395971678275,
                -1.919618573717145,
                -1.548550951253194,
                -1.5709469090946802,
                0.4420197732051276
            ]
        },
        {
            "positions": [
                2.60577619499559,
                -1.2279176619013907,
                -1.8087318714852212,
                -1.5074909213161618,
                -1.4861224022897555,
                0.482308879908678
            ]
        },
        {
            "positions": [
                2.511949859900201,
                -1.211495726634954,
                -1.6978451692532974,
                -1.4664308913791293,
                -1.4012978954848307,
                0.5225979866122283
            ]
        },
        {
            "positions": [
                2.418123524804812,
                -1.1950737913685172,
                -1.5869584670213737,
                -1.425370861442097,
                -1.3164733886799058,
                0.5628870933157788
            ]
        },
        {
            "positions": [
                2.324297189709423,
                -1.1786518561020807,
                -1.4760717647894497,
                -1.3843108315050647,
                -1.2316488818749811,
                0.6031762000193291
            ]
        },
        {
            "positions": [
                2.230470854614034,
                -1.162229920835644,
                -1.365185062557526,
                -1.3432508015680322,
                -1.1468243750700564,
                0.6434653067228795
            ]
        },
        {
            "positions": [
                2.136644519518645,
                -1.1458079855692072,
                -1.2542983603256022,
                -1.302190771631,
                -1.0619998682651315,
                0.68375441342643
            ]
        },
        {
            "positions": [
                2.0428181844232562,
                -1.1293860503027704,
                -1.1434116580936782,
                -1.2611307416939677,
                -0.9771753614602068,
                0.7240435201299803
            ]
        },
        {
            "positions": [
                1.9489918493278673,
                -1.1129641150363336,
                -1.0325249558617546,
                -1.2200707117569354,
                -0.8923508546552821,
                0.7643326268335306
            ]
        },
        {
            "positions": [
                1.8551655142324783,
                -1.0965421797698969,
                -0.9216382536298308,
                -1.1790106818199029,
                -0.8075263478503574,
                0.8046217335370811
            ]
        },
        {
            "positions": [
                1.7613391791370892,
                -1.0801202445034601,
                -0.8107515513979069,
                -1.1379506518828706,
                -0.7227018410454326,
                0.8449108402406315
            ]
        },
        {
            "positions": [
                1.6675128440417004,
                -1.0636983092370234,
                -0.6998648491659831,
                -1.0968906219458383,
                -0.6378773342405079,
                0.8851999469441818
            ]
        },
        {
            "positions": [
                1.5736865089463115,
                -1.0472763739705866,
                -0.5889781469340594,
                -1.0558305920088058,
                -0.553052827435583,
                0.9254890536477323
            ]
        },
        {
            "positions": [
                1.4798601738509225,
                -1.03085443870415,
                -0.4780914447021356,
                -1.0147705620717735,
                -0.46822832063065833,
                0.9657781603512825
            ]
        },
        {
            "positions": [
                1.3860338387555335,
                -1.0144325034377133,
                -0.3672047424702116,
                -0.9737105321347411,
                -0.3834038138257334,
                1.006067267054833
            ]
        },
        {
            "positions": [
                1.2922075036601446,
                -0.9980105681712765,
                -0.25631804023828786,
                -0.9326505021977088,
                -0.2985793070208087,
                1.0463563737583834
            ]
        },
        {
            "positions": [
                1.1983811685647558,
                -0.9815886329048398,
                -0.14543133800636432,
                -0.8915904722606764,
                -0.213754800215884,
                1.0866454804619337
            ]
        },
        {
            "positions": [
                1.1045548334693667,
                -0.965166697638403,
                -0.034544635774440335,
                -0.850530442323644,
                -0.12893029341095907,
                1.1269345871654841
            ]
        },
        {
            "positions": [
                1.010728498373978,
                -0.9487447623719663,
                0.07634206645748343,
                -0.8094704123866118,
                -0.04410578660603459,
                1.1672236938690346
            ]
        },
        {
            "positions": [
                0.916902163278589,
                -0.9323228271055296,
                0.1872287686894072,
                -0.7684103824495794,
                0.04071872019889011,
                1.2075128005725848
            ]
        },
        {
            "positions": [
                0.8230758281831998,
                -0.9159008918390928,
                0.29811547092133117,
                -0.727350352512547,
                0.12554322700381504,
                1.2478019072761353
            ]
        },
        {
            "positions": [
                0.7292494930878111,
                -0.8994789565726561,
                0.4090021731532547,
                -0.6862903225755147,
                0.21036773380873974,
                1.2880910139796857
            ]
        },
        {
            "positions": [
                0.6354231579924221,
                -0.8830570213062194,
                0.5198888753851787,
                -0.6452302926384824,
                0.29519224061366445,
                1.328380120683236
            ]
        },
        {
            "positions": [
                0.5415968228970329,
                -0.8666350860397827,
                0.6307755776171027,
                -0.6041702627014499,
                0.3800167474185894,
                1.3686692273867864
            ]
        },
        {
            "positions": [
                0.447770487801644,
                -0.8502131507733459,
                0.7416622798490264,
                -0.5631102327644176,
                0.46484125422351397,
                1.4089583340903369
            ]
        },
        {
            "positions": [
                0.38490752570466713,
                -0.8970298826329135,
                0.8174491950179766,
                -0.5728488777875511,
                0.4158446846052354,
                1.5580792700628607
            ]
        },
        {
            "positions": [
                0.3220445636076903,
                -0.9438466144924811,
                0.8932361101869268,
                -0.5825875228106847,
                0.3668481149869568,
                1.7072002060353848
            ]
        },
        {
            "positions": [
                0.25918160151071346,
                -0.9906633463520486,
                0.9690230253558769,
                -0.5923261678338182,
                0.3178515453686782,
                1.8563211420079087
            ]
        },
        {
            "positions": [
                0.19631863941373656,
                -1.0374800782116163,
                1.0448099405248272,
                -0.6020648128569517,
                0.26885497575039957,
                2.0054420779804327
            ]
        },
        {
            "positions": [
                0.13345567731675972,
                -1.0842968100711836,
                1.1205968556937773,
                -0.6118034578800853,
                0.219858406132121,
                2.1545630139529566
            ]
        },
        {
            "positions": [
                0.07059271521978289,
                -1.1311135419307512,
                1.1963837708627274,
                -0.6215421029032188,
                0.1708618365138424,
                2.3036839499254804
            ]
        },
        {
            "positions": [
                0.007729753122806049,
                -1.1779302737903188,
                1.2721706860316777,
                -0.6312807479263522,
                0.12186526689556382,
                2.4528048858980043
            ]
        },
        {
            "positions": [
                -0.0551332089741709,
                -1.2247470056498864,
                1.347957601200628,
                -0.6410193929494858,
                0.07286869727728518,
                2.6019258218705286
            ]
        },
        {
            "positions": [
                -0.11799617107114774,
                -1.271563737509454,
                1.4237445163695783,
                -0.6507580379726193,
                0.023872127659006592,
                2.7510467578430524
            ]
        },
        {
            "positions": [
                -0.18085913316812458,
                -1.3183804693690215,
                1.4995314315385282,
                -0.6604966829957529,
                -0.025124441959271993,
                2.9001676938155763
            ]
        },
        {
            "positions": [
                -0.24372209526510144,
                -1.3651972012285891,
                1.5753183467074785,
                -0.6702353280188864,
                -0.07412101157755055,
                3.0492886297881
            ]
        },
        {
            "positions": [
                -0.15191708801675402,
                -1.3070908863393378,
                1.6715072361829177,
                -0.6873452216722904,
                -0.025284129648102782,
                3.04823463708371
            ]
        },
        {
            "positions": [
                -0.06011208076840657,
                -1.2489845714500865,
                1.7676961256583572,
                -0.7044551153256945,
                0.023552752281344985,
                3.04718064437932
            ]
        },
        {
            "positions": [
                0.03169292647994085,
                -1.1908782565608353,
                1.8638850151337967,
                -0.7215650089790986,
                0.07238963421079275,
                3.04612665167493
            ]
        },
        {
            "positions": [
                0.1234979337282883,
                -1.132771941671584,
                1.960073904609236,
                -0.7386749026325026,
                0.12122651614024052,
                3.04507265897054
            ]
        }
    ]
}{
    "goal": {
        "global_pose": {
            "orientation": {
                "w": 0.7047431468963623,
                "x": -0.7094548344612122,
                "y": 0.0024358443915843964,
                "z": -0.0022348060738295317
            },
            "position": {
                "x": 0.6094750761985779,
                "y": 0.3671506643295288,
                "z": 0.19426114857196808
            }
        },
        "name": "move_to_magneteinheit_A"
    },
    "id": "TRRT_move_to_magneteinheit_A_104",
    "joint_names": [
        "shoulder_pan_joint",
        "shoulder_lift_joint",
        "elbow_joint",
        "wrist_1_joint",
        "wrist_2_joint",
        "wrist_3_joint"
    ],
    "metrics": {
        "cart_traj_len": 1.3551176933550424,
        "distance_elbow_joint": 0.2553293994654642,
        "distance_shoulder_lift_joint": 0.9769854177185127,
        "distance_shoulder_pan_joint": 1.2416375052497033,
        "distance_wrist_1_joint": 1.0858416588012467,
        "distance_wrist_2_joint": 1.4396757047795323,
        "distance_wrist_3_joint": 4.284429220743911,
        "smoothness": 0.33605307620926084,
        "time": 1.6651784219999999,
        "traj_len": 3.04694911456663,
        "weighted_distance": 4.514230245770254
    },
    "planner": "TRRT",
    "start": {
        "state": {
            "elbow_joint": 1.919643534880228,
            "shoulder_lift_joint": -1.8972525353963687,
            "shoulder_pan_joint": -1.1188672234189438,
            "wrist_1_joint": -1.5931878212786155,
            "wrist_2_joint": 1.5706036197970081,
            "wrist_3_joint": 1.118896926603594
        }
    },
    "waypoints": [
        {
            "positions": [
                -1.1188672234189438,
                -1.8972525353963687,
                1.919643534880228,
                -1.5931878212786155,
                1.5706036197970081,
                1.118896926603594
            ]
        },
        {
            "positions": [
                -1.068886766200413,
                -1.8579401719468545,
                1.9267870921948214,
                -1.5506507188288197,
                1.5057563056435188,
                0.9413705842233212
            ]
        },
        {
            "positions": [
                -1.0189063089818822,
                -1.8186278084973402,
                1.9339306495094146,
                -1.5081136163790239,
                1.4409089914900295,
                0.7638442418430484
            ]
        },
        {
            "positions": [
                -0.9689258517633512,
                -1.779315445047826,
                1.9410742068240079,
                -1.465576513929228,
                1.3760616773365402,
                0.5863178994627758
            ]
        },
        {
            "positions": [
                -0.9189453945448203,
                -1.7400030815983119,
                1.948217764138601,
                -1.4230394114794325,
                1.3112143631830508,
                0.4087915570825029
            ]
        },
        {
            "positions": [
                -0.8689649373262894,
                -1.7006907181487976,
                1.9553613214531942,
                -1.3805023090296367,
                1.2463670490295615,
                0.23126521470223027
            ]
        },
        {
            "positions": [
                -0.8189844801077586,
                -1.6613783546992833,
                1.9625048787677875,
                -1.3379652065798409,
                1.1815197348760722,
                0.05373887232195762
            ]
        },
        {
            "positions": [
                -0.7690040228892276,
                -1.622065991249769,
                1.9696484360823807,
                -1.295428104130045,
                1.1166724207225829,
                -0.12378747005831525
            ]
        },
        {
            "positions": [
                -0.7190235656706968,
                -1.5827536278002547,
                1.976791993396974,
                -1.2528910016802492,
                1.0518251065690933,
                -0.3013138124385881
            ]
        },
        {
            "positions": [
                -0.669043108452166,
                -1.5434412643507405,
                1.9839355507115672,
                -1.2103538992304534,
                0.986977792415604,
                -0.478840154818861
            ]
        },
        {
            "positions": [
                -0.619062651233635,
                -1.5041289009012262,
                1.9910791080261605,
                -1.1678167967806576,
                0.9221304782621147,
                -0.6563664971991334
            ]
        },
        {
            "positions": [
                -0.5690821940151042,
                -1.464816537451712,
                1.9982226653407538,
                -1.125279694330862,
                0.8572831641086254,
                -0.8338928395794063
            ]
        },
        {
            "positions": [
                -0.5191017367965733,
                -1.4255041740021979,
                2.005366222655347,
                -1.0827425918810663,
                0.792435849955136,
                -1.0114191819596787
            ]
        },
        {
            "positions": [
                -0.4691212795780424,
                -1.3861918105526834,
                2.0125097799699403,
                -1.0402054894312704,
                0.7275885358016466,
                -1.188945524339952
            ]
        },
        {
            "positions": [
                -0.41914082235951156,
                -1.3468794471031693,
                2.0196533372845336,
                -0.9976683869814746,
                0.6627412216481574,
                -1.3664718667202245
            ]
        },
        {
            "positions": [
                -0.3691603651409807,
                -1.307567083653655,
                2.0267968945991264,
                -0.955131284531679,
                0.5978939074946681,
                -1.543998209100497
            ]
        },
        {
            "positions": [
                -0.31917990792244977,
                -1.2682547202041408,
                2.0339404519137196,
                -0.912594182081883,
                0.5330465933411785,
                -1.7215245514807702
            ]
        },
        {
            "positions": [
                -0.26919945070391893,
                -1.2289423567546267,
                2.041084009228313,
                -0.8700570796320873,
                0.46819927918768944,
                -1.8990508938610426
            ]
        },
        {
            "positions": [
                -0.21921899348538798,
                -1.1896299933051124,
                2.048227566542906,
                -0.8275199771822914,
                0.4033519650341999,
                -2.0765772362413157
            ]
        },
        {
            "positions": [
                -0.16923853626685714,
                -1.1503176298555982,
                2.0553711238574994,
                -0.7849828747324957,
                0.3385046508807106,
                -2.2541035786215886
            ]
        },
        {
            "positions": [
                -0.1192580790483263,
                -1.1110052664060839,
                2.0625146811720927,
                -0.7424457722827,
                0.27365733672722126,
                -2.4316299210018606
            ]
        },
        {
            "positions": [
                -0.06927762182979524,
                -1.0716929029565696,
                2.069658238486686,
                -0.6999086698329041,
                0.20881002257373193,
                -2.6091562633821344
            ]
        },
        {
            "positions": [
                -0.019297164611264545,
                -1.0323805395070553,
                2.076801795801279,
                -0.6573715673831084,
                0.14396270842024264,
                -2.7866826057624063
            ]
        },
        {
            "positions": [
                0.028058650869410146,
                -1.0697516801167883,
                2.0440780829531415,
                -0.7073800356850216,
                0.13961777728598712,
                -2.91296583522171
            ]
        },
        {
            "positions": [
                0.07541446635008484,
                -1.1071228207265216,
                2.011354370105004,
                -0.7573885039869348,
                0.1352728461517316,
                -3.0392490646810133
            ]
        },
        {
            "positions": [
                0.12277028183075951,
                -1.1444939613362546,
                1.9786306572568662,
                -0.807396972288848,
                0.13092791501747608,
                -3.165532294140317
            ]
        }
    ]
}