{
    "goal": {
        "global_pose": {
            "orientation": {
                "w": 0.7047431468963623,
                "x": -0.7094548344612122,
                "y": 0.0024358443915843964,
                "z": -0.0022348060738295317
            },
            "position": {
                "x": 0.6094750761985779,
                "y": 0.3671506643295288,
                "z": 0.19426114857196808
            }
        },
        "name": "move_to_magneteinheit_A"
    },
    "id": "TRRT_move_to_magneteinheit_A_105",
    "joint_names": [
        "shoulder_pan_joint",
        "shoulder_lift_joint",
        "elbow_joint",
        "wrist_1_joint",
        "wrist_2_joint",
        "wrist_3_joint"
    ],
    "metrics": {
        "cart_traj_len": 3.349691235627009,
        "distance_elbow_joint": 3.8987976789662504,
        "distance_shoulder_lift_joint": 0.3002518822070992,
        "distance_shoulder_pan_joint": 2.7605739042718227,
        "distance_wrist_1_joint": 1.08265366346821,
        "distance_wrist_2_joint": 1.7969589245282673,
        "distance_wrist_3_joint": 3.5922946773491335,
        "smoothness": 0.27922520024556863,
        "time": 1.721500486,
        "traj_len": 3.6649052826493054,
        "weighted_distance": 4.847239696310213
    },
    "planner": "TRRT",
    "start": {
        "state": {
            "elbow_joint": -1.919618573717145,
            "shoulder_lift_joint": -1.2443395971678275,
            "shoulder_pan_joint": 2.6996025300909787,
            "wrist_1_joint": -1.548550951253194,
            "wrist_2_joint": -1.5709469090946802,
            "wrist_3_joint": 0.4420197732051276
        }
    },
    "waypoints": [
        {
            "positions": [
                2.6996025300909787,
                -1.2443395971678275,
                -1.919618573717145,
                -1.548550951253194,
                -1.5709469090946802,
                0.4420197732051276
            ]
        },
        {
            "positions": [
                2.6130647560838876,
                -1.2484656948314052,
                -1.814199650112141,
                -1.5142484584949203,
                -1.513083684706901,
                0.3505778802930131
            ]
        },
        {
            "positions": [
                2.5265269820767964,
                -1.252591792494983,
                -1.7087807265071366,
                -1.4799459657366467,
                -1.4552204603191214,
                0.2591359873808986
            ]
        },
        {
            "positions": [
                2.439989208069705,
                -1.2567178901585607,
                -1.6033618029021324,
                -1.445643472978373,
                -1.3973572359313422,
                0.16769409446878414
            ]
        },
        {
            "positions": [
                2.353451434062614,
                -1.2608439878221387,
                -1.4979428792971283,
                -1.4113409802200994,
                -1.339494011543563,
                0.07625220155666967
            ]
        },
        {
            "positions": [
                2.266913660055523,
                -1.2649700854857164,
                -1.3925239556921243,
                -1.3770384874618256,
                -1.2816307871557835,
                -0.015189691355444845
            ]
        },
        {
            "positions": [
                2.1803758860484317,
                -1.2690961831492942,
                -1.28710503208712,
                -1.3427359947035518,
                -1.2237675627680042,
                -0.10663158426755931
            ]
        },
        {
            "positions": [
                2.0938381120413405,
                -1.273222280812872,
                -1.1816861084821157,
                -1.3084335019452782,
                -1.165904338380225,
                -0.19807347717967388
            ]
        },
        {
            "positions": [
                2.00730033803425,
                -1.2773483784764497,
                -1.0762671848771117,
                -1.2741310091870044,
                -1.1080411139924458,
                -0.28951537009178824
            ]
        },
        {
            "positions": [
                1.9207625640271586,
                -1.2814744761400274,
                -0.9708482612721075,
                -1.2398285164287306,
                -1.0501778896046663,
                -0.3809572630039027
            ]
        },
        {
            "positions": [
                1.8342247900200674,
                -1.2856005738036052,
                -0.8654293376671034,
                -1.205526023670457,
                -0.9923146652168869,
                -0.4723991559160173
            ]
        },
        {
            "positions": [
                1.7476870160129763,
                -1.289726671467183,
                -0.7600104140620993,
                -1.1712235309121832,
                -0.9344514408291077,
                -0.5638410488281316
            ]
        },
        {
            "positions": [
                1.661149242005885,
                -1.2938527691307606,
                -0.6545914904570951,
                -1.1369210381539094,
                -0.8765882164413283,
                -0.6552829417402461
            ]
        },
        {
            "positions": [
                1.5746114679987941,
                -1.2979788667943386,
                -0.549172566852091,
                -1.1026185453956359,
                -0.8187249920535491,
                -0.7467248346523605
            ]
        },
        {
            "positions": [
                1.4880736939917028,
                -1.3021049644579163,
                -0.44375364324708677,
                -1.068316052637362,
                -0.7608617676657696,
                -0.8381667275644753
            ]
        },
        {
            "positions": [
                1.4015359199846116,
                -1.306231062121494,
                -0.3383347196420827,
                -1.0340135598790883,
                -0.7029985432779904,
                -0.9296086204765897
            ]
        },
        {
            "positions": [
                1.3149981459775206,
                -1.3103571597850718,
                -0.23291579603707846,
                -0.9997110671208147,
                -0.6451353188902111,
                -1.021050513388704
            ]
        },
        {
            "positions": [
                1.2284603719704292,
                -1.3144832574486496,
                -0.1274968724320742,
                -0.9654085743625409,
                -0.5872720945024317,
                -1.1124924063008186
            ]
        },
        {
            "positions": [
                1.1419225979633383,
                -1.3186093551122273,
                -0.02207794882707015,
                -0.9311060816042673,
                -0.5294088701146524,
                -1.203934299212933
            ]
        },
        {
            "positions": [
                1.0553848239562473,
                -1.322735452775805,
                0.0833409747779339,
                -0.8968035888459936,
                -0.4715456457268732,
                -1.2953761921250475
            ]
        },
        {
            "positions": [
                0.9688470499491559,
                -1.326861550439383,
                0.18875989838293816,
                -0.8625010960877199,
                -0.4136824213390937,
                -1.386818085037162
            ]
        },
        {
            "positions": [
                0.882309275942065,
                -1.3309876481029608,
                0.29417882198794243,
                -0.8281986033294462,
                -0.3558191969513145,
                -1.4782599779492764
            ]
        },
        {
            "positions": [
                0.7957715019349738,
                -1.3351137457665385,
                0.39959774559294625,
                -0.7938961105711725,
                -0.29795597256353523,
                -1.5697018708613908
            ]
        },
        {
            "positions": [
                0.7092337279278824,
                -1.3392398434301163,
                0.5050166691979505,
                -0.7595936178128987,
                -0.24009274817575577,
                -1.6611437637735054
            ]
        },
        {
            "positions": [
                0.6226959539207912,
                -1.343365941093694,
                0.6104355928029549,
                -0.725291125054625,
                -0.1822295237879765,
                -1.7525856566856202
            ]
        },
        {
            "positions": [
                0.5361428944829338,
                -1.340487040947623,
                0.7380164646208098,
                -0.7499426331834991,
                -0.14153976288447934,
                -1.8625771378989744
            ]
        },
        {
            "positions": [
                0.4495898350450763,
                -1.3376081408015523,
                0.8655973364386649,
                -0.7745941413123733,
                -0.10085000198098215,
                -1.9725686191123286
            ]
        },
        {
            "positions": [
                0.36303677560721886,
                -1.3347292406554814,
                0.9931782082565199,
                -0.7992456494412474,
                -0.060160241077484966,
                -2.082560100325683
            ]
        },
        {
            "positions": [
                0.2764837161693614,
                -1.3318503405094104,
                1.1207590800743747,
                -0.8238971575701215,
                -0.01947048017398781,
                -2.192551581539037
            ]
        },
        {
            "positions": [
                0.18993065673150394,
                -1.3289714403633397,
                1.24833995189223,
                -0.8485486656989956,
                0.021219280729509404,
                -2.3025430627523913
            ]
        },
        {
            "positions": [
                0.10337759729364651,
                -1.3260925402172687,
                1.3759208237100848,
                -0.8732001738278697,
                0.06190904163300656,
                -2.4125345439657453
            ]
        },
        {
            "positions": [
                0.08519849046443585,
                -1.3026722814109737,
                1.4785382353348193,
                -0.8525628206776074,
                0.048716212980990097,
                -2.567295774818888
            ]
        },
        {
            "positions": [
                0.0670193836352252,
                -1.2792520226046786,
                1.5811556469595538,
                -0.8319254675273451,
                0.03552338432897363,
                -2.7220570056720303
            ]
        },
        {
            "positions": [
                0.04884027680601455,
                -1.2558317637983838,
                1.6837730585842883,
                -0.8112881143770827,
                0.022330555676957173,
                -2.876818236525173
            ]
        },
        {
            "positions": [
                0.03066116997680389,
                -1.2324115049920887,
                1.7863904702090228,
                -0.7906507612268203,
                0.009137727024940707,
                -3.0315794673783154
            ]
        },
        {
            "positions": [
                0.06120535136268594,
                -1.2023211375988796,
                1.8506533485557166,
                -0.8002958865252693,
                0.04624828008911243,
                -3.0711446129668785
            ]
        },
        {
            "positions": [
                0.09174953274856801,
                -1.1722307702056705,
                1.9149162269024105,
                -0.8099410118237182,
                0.08335883315328416,
                -3.1107097585554415
            ]
        },
        {
            "positions": [
                0.12229371413445006,
                -1.1421404028124613,
                1.9791791052491046,
                -0.8195861371221673,
                0.12046938621745587,
                -3.150274904144005
            ]
        }
    ]
}{
    "goal": {
        "global_pose": {
            "orientation": {
                "w": 0.7047431468963623,
                "x": -0.7094548344612122,
                "y": 0.0024358443915843964,
                "z": -0.0022348060738295317
            },
            "position": {
                "x": 0.6094750761985779,
                "y": 0.3671506643295288,
                "z": 0.19426114857196808
            }
        },
        "name": "move_to_magneteinheit_A"
    },
    "id": "TRRT_move_to_magneteinheit_A_105",
    "joint_names": [
        "shoulder_pan_joint",
        "shoulder_lift_joint",
        "elbow_joint",
        "wrist_1_joint",
        "wrist_2_joint",
        "wrist_3_joint"
    ],
    "metrics": {
        "cart_traj_len": 1.1571011663964714,
        "distance_elbow_joint": 0.16681942660485993,
        "distance_shoulder_lift_joint": 0.7528158329847707,
        "distance_shoulder_pan_joint": 1.2421435664321485,
        "distance_wrist_1_joint": 0.9314943185075323,
        "distance_wrist_2_joint": 1.4431553905041834,
        "distance_wrist_3_joint": 4.26786928029882,
        "smoothness": 0.05149706744123025,
        "time": 0.055558523,
        "traj_len": 2.967203703039667,
        "weighted_distance": 4.440122305178278
    },
    "planner": "TRRT",
    "start": {
        "state": {
            "elbow_joint": 1.919643534880228,
            "shoulder_lift_joint": -1.8972525353963687,
            "shoulder_pan_joint": -1.1188672234189438,
            "wrist_1_joint": -1.5931878212786155,
            "wrist_2_joint": 1.5706036197970081,
            "wrist_3_joint": 1.118896926603594
        }
    },
    "waypoints": [
        {
            "positions": [
                -1.1188672234189438,
                -1.8972525353963687,
                1.919643534880228,
                -1.5931878212786155,
                1.5706036197970081,
                1.118896926603594
            ]
        },
        {
            "positions": [
                -1.0541185118251342,
                -1.8650409902395408,
                1.9277240853758826,
                -1.5322946269333984,
                1.512875964756922,
                0.9651568138415523
            ]
        },
        {
            "positions": [
                -0.9893698002313247,
                -1.832829445082713,
                1.935804635871537,
                -1.4714014325881815,
                1.455148309716836,
                0.8114167010795106
            ]
        },
        {
            "positions": [
                -0.9246210886375151,
                -1.8006178999258853,
                1.9438851863671915,
                -1.4105082382429643,
                1.39742065467675,
                0.6576765883174689
            ]
        },
        {
            "positions": [
                -0.8598723770437056,
                -1.7684063547690574,
                1.951965736862846,
                -1.3496150438977474,
                1.339692999636664,
                0.5039364755554271
            ]
        },
        {
            "positions": [
                -0.795123665449896,
                -1.7361948096122295,
                1.9600462873585005,
                -1.2887218495525303,
                1.281965344596578,
                0.3501963627933853
            ]
        },
        {
            "positions": [
                -0.7303749538560864,
                -1.7039832644554016,
                1.968126837854155,
                -1.2278286552073134,
                1.224237689556492,
                0.1964562500313437
            ]
        },
        {
            "positions": [
                -0.6656262422622768,
                -1.6717717192985737,
                1.9762073883498092,
                -1.1669354608620963,
                1.1665100345164057,
                0.0427161372693019
            ]
        },
        {
            "positions": [
                -0.6008775306684673,
                -1.639560174141746,
                1.9842879388454637,
                -1.1060422665168792,
                1.1087823794763196,
                -0.11102397549273979
            ]
        },
        {
            "positions": [
                -0.5361288190746577,
                -1.6073486289849181,
                1.9923684893411182,
                -1.0451490721716623,
                1.0510547244362336,
                -0.2647640882547817
            ]
        },
        {
            "positions": [
                -0.47138010748084813,
                -1.5751370838280903,
                2.0004490398367727,
                -0.9842558778264452,
                0.9933270693961476,
                -0.4185042010168234
            ]
        },
        {
            "positions": [
                -0.40663139588703856,
                -1.5429255386712626,
                2.008529590332427,
                -0.9233626834812283,
                0.9355994143560615,
                -0.5722443137788649
            ]
        },
        {
            "positions": [
                -0.341882684293229,
                -1.5107139935144347,
                2.0166101408280817,
                -0.8624694891360113,
                0.8778717593159755,
                -0.7259844265409066
            ]
        },
        {
            "positions": [
                -0.2771339726994194,
                -1.4785024483576068,
                2.024690691323736,
                -0.8015762947907942,
                0.8201441042758894,
                -0.8797245393029485
            ]
        },
        {
            "positions": [
                -0.21238526110560982,
                -1.446290903200779,
                2.0327712418193906,
                -0.7406831004455772,
                0.7624164492358033,
                -1.03346465206499
            ]
        },
        {
            "positions": [
                -0.17508952731463043,
                -1.4127515475575365,
                2.0268054951898686,
                -0.7494597224094098,
                0.6918644247976946,
                -1.2685210633572381
            ]
        },
        {
            "positions": [
                -0.137793793523651,
                -1.3792121919142943,
                2.0208397485603466,
                -0.7582363443732425,
                0.6213124003595859,
                -1.5035774746494863
            ]
        },
        {
            "positions": [
                -0.10049805973267163,
                -1.345672836271052,
                2.0148740019308247,
                -0.7670129663370752,
                0.5507603759214772,
                -1.7386338859417347
            ]
        },
        {
            "positions": [
                -0.06320232594169223,
                -1.3121334806278095,
                2.0089082553013027,
                -0.7757895883009078,
                0.48020835148336843,
                -1.973690297233983
            ]
        },
        {
            "positions": [
                -0.025906592150712837,
                -1.2785941249845674,
                2.002942508671781,
                -0.7845662102647405,
                0.4096563270452597,
                -2.208746708526231
            ]
        },
        {
            "positions": [
                0.011389141640266554,
                -1.245054769341325,
                1.996976762042259,
                -0.7933428322285732,
                0.339104302607151,
                -2.4438031198184795
            ]
        },
        {
            "positions": [
                0.04868487543124597,
                -1.2115154136980826,
                1.9910110154127372,
                -0.8021194541924058,
                0.26855227816904226,
                -2.678859531110728
            ]
        },
        {
            "positions": [
                0.08598060922222536,
                -1.1779760580548404,
                1.9850452687832152,
                -0.8108960761562385,
                0.19800025373093355,
                -2.913915942402976
            ]
        },
        {
            "positions": [
                0.12327634301320474,
                -1.144436702411598,
                1.9790795221536932,
                -0.8196726981200712,
                0.12744822929282482,
                -3.1489723536952243
            ]
        }
    ]
}