{
    "goal": {
        "global_pose": {
            "orientation": {
                "w": 0.5084816217422485,
                "x": -0.49083608388900757,
                "y": 0.5182115435600281,
                "z": -0.4816462993621826
            },
            "position": {
                "x": 0.5540239810943604,
                "y": 0.030875300988554955,
                "z": 0.16403168439865112
            }
        },
        "name": "move_to_storage_A"
    },
    "id": "TRRT_move_to_storage_A_147",
    "joint_names": [
        "shoulder_pan_joint",
        "shoulder_lift_joint",
        "elbow_joint",
        "wrist_1_joint",
        "wrist_2_joint",
        "wrist_3_joint"
    ],
    "metrics": {
        "cart_traj_len": 0.3532071457270834,
        "distance_elbow_joint": 0.44956464470498947,
        "distance_shoulder_lift_joint": 0.23373563563885447,
        "distance_shoulder_pan_joint": 0.4616582181782131,
        "distance_wrist_1_joint": 0.24466027934362022,
        "distance_wrist_2_joint": 1.0993453121173826,
        "distance_wrist_3_joint": 0.10747818597452197,
        "smoothness": 6.661338200497456e-16,
        "time": 0.037478706,
        "traj_len": 1.6113479686143466,
        "weighted_distance": 2.0384808655878106
    },
    "planner": "TRRT",
    "start": {
        "state": {
            "elbow_joint": 1.9715477243005601,
            "shoulder_lift_joint": -1.1394853015351272,
            "shoulder_pan_joint": 0.12281154014795169,
            "wrist_1_joint": -0.7804696478968182,
            "wrist_2_joint": 0.12958648046900423,
            "wrist_3_joint": -3.192491284697111
        }
    },
    "waypoints": [
        {
            "positions": [
                0.12281154014795169,
                -1.1394853015351272,
                1.9715477243005601,
                -0.7804696478968182,
                0.12958648046900423,
                -3.192491284697111
            ]
        },
        {
            "positions": [
                0.05686036612249268,
                -1.1728761066263922,
                2.0357712449727017,
                -0.8154211163744782,
                0.2866358107714875,
                -3.1771372581293225
            ]
        },
        {
            "positions": [
                -0.009090807902966333,
                -1.206266911717657,
                2.0999947656448428,
                -0.8503725848521382,
                0.44368514107397067,
                -3.1617832315615333
            ]
        },
        {
            "positions": [
                -0.07504198192842536,
                -1.239657716808922,
                2.1642182863169843,
                -0.8853240533297982,
                0.600734471376454,
                -3.1464292049937446
            ]
        },
        {
            "positions": [
                -0.14099315595388434,
                -1.2730485219001868,
                2.2284418069891254,
                -0.9202755218074583,
                0.7577838016789371,
                -3.131075178425956
            ]
        },
        {
            "positions": [
                -0.20694432997934337,
                -1.3064393269914518,
                2.292665327661267,
                -0.9552269902851183,
                0.9148331319814204,
                -3.115721151858167
            ]
        },
        {
            "positions": [
                -0.2728955040048024,
                -1.3398301320827166,
                2.356888848333408,
                -0.9901784587627783,
                1.0718824622839036,
                -3.100367125290378
            ]
        },
        {
            "positions": [
                -0.3388466780302614,
                -1.3732209371739816,
                2.4211123690055496,
                -1.0251299272404384,
                1.2289317925863867,
                -3.085013098722589
            ]
        }
    ]
}