{
    "goal": {
        "global_pose": {
            "orientation": {
                "w": 0.5084816217422485,
                "x": -0.49083608388900757,
                "y": 0.5182115435600281,
                "z": -0.4816462993621826
            },
            "position": {
                "x": 0.5540239810943604,
                "y": 0.030875300988554955,
                "z": 0.16403168439865112
            }
        },
        "name": "move_to_storage_A"
    },
    "id": "TRRT_move_to_storage_A_104",
    "joint_names": [
        "shoulder_pan_joint",
        "shoulder_lift_joint",
        "elbow_joint",
        "wrist_1_joint",
        "wrist_2_joint",
        "wrist_3_joint"
    ],
    "metrics": {
        "cart_traj_len": 0.3532569280190214,
        "distance_elbow_joint": 0.44759998381779775,
        "distance_shoulder_lift_joint": 0.23302654222626074,
        "distance_shoulder_pan_joint": 0.46140603946163444,
        "distance_wrist_1_joint": 0.23588529118848756,
        "distance_wrist_2_joint": 1.1004148920837213,
        "distance_wrist_3_joint": 0.09485073440697755,
        "smoothness": 0.0,
        "time": 0.031772658,
        "traj_len": 1.604114548024822,
        "weighted_distance": 2.0246444466303317
    },
    "planner": "TRRT",
    "start": {
        "state": {
            "elbow_joint": 1.9715477243005601,
            "shoulder_lift_joint": -1.1394853015351272,
            "shoulder_pan_joint": 0.12281154014795169,
            "wrist_1_joint": -0.7804696478968182,
            "wrist_2_joint": 0.12958648046900423,
            "wrist_3_joint": -3.192491284697111
        }
    },
    "waypoints": [
        {
            "positions": [
                0.12281154014795169,
                -1.1394853015351272,
                1.9715477243005601,
                -0.7804696478968182,
                0.12958648046900423,
                -3.192491284697111
            ]
        },
        {
            "positions": [
                0.05689639165343249,
                -1.1727748075674502,
                2.035490579131674,
                -0.8141675466380307,
                0.28678860790953586,
                -3.1789411797818286
            ]
        },
        {
            "positions": [
                -0.009018756841086703,
                -1.206064313599773,
                2.0994334339627883,
                -0.8478654453792431,
                0.44399073535006744,
                -3.1653910748665464
            ]
        },
        {
            "positions": [
                -0.07493390533560591,
                -1.2393538196320961,
                2.163376288793902,
                -0.8815633441204557,
                0.6011928627905991,
                -3.1518409699512637
            ]
        },
        {
            "positions": [
                -0.14084905383012508,
                -1.272643325664419,
                2.227319143625016,
                -0.9152612428616682,
                0.7583949902311307,
                -3.138290865035981
            ]
        },
        {
            "positions": [
                -0.20676420232464432,
                -1.305932831696742,
                2.2912619984561298,
                -0.9489591416028806,
                0.9155971176716623,
                -3.1247407601206985
            ]
        },
        {
            "positions": [
                -0.2726793508191635,
                -1.3392223377290648,
                2.355204853287244,
                -0.9826570403440932,
                1.072799245112194,
                -3.1111906552054163
            ]
        },
        {
            "positions": [
                -0.33859449931368274,
                -1.372511843761388,
                2.419147708118358,
                -1.0163549390853057,
                1.2300013725527255,
                -3.0976405502901336
            ]
        }
    ]
}