{
    "goal": {
        "global_pose": {
            "orientation": {
                "w": 0.5084816217422485,
                "x": -0.49083608388900757,
                "y": 0.5182115435600281,
                "z": -0.4816462993621826
            },
            "position": {
                "x": 0.5540239810943604,
                "y": 0.030875300988554955,
                "z": 0.16403168439865112
            }
        },
        "name": "move_to_storage_A"
    },
    "id": "TRRT_move_to_storage_A_42",
    "joint_names": [
        "shoulder_pan_joint",
        "shoulder_lift_joint",
        "elbow_joint",
        "wrist_1_joint",
        "wrist_2_joint",
        "wrist_3_joint"
    ],
    "metrics": {
        "cart_traj_len": 0.3529825127826457,
        "distance_elbow_joint": 0.4489705564608202,
        "distance_shoulder_lift_joint": 0.23407951255610926,
        "distance_shoulder_pan_joint": 0.46125527816727613,
        "distance_wrist_1_joint": 0.24107943877072635,
        "distance_wrist_2_joint": 1.0995634529589204,
        "distance_wrist_3_joint": 0.0943540456481533,
        "smoothness": 0.0,
        "time": 0.021514231999999998,
        "traj_len": 1.6060206364060226,
        "weighted_distance": 2.0269813190032013
    },
    "planner": "TRRT",
    "start": {
        "state": {
            "elbow_joint": 1.9715477243005601,
            "shoulder_lift_joint": -1.1394853015351272,
            "shoulder_pan_joint": 0.12281154014795169,
            "wrist_1_joint": -0.7804696478968182,
            "wrist_2_joint": 0.12958648046900423,
            "wrist_3_joint": -3.192491284697111
        }
    },
    "waypoints": [
        {
            "positions": [
                0.12281154014795169,
                -1.1394853015351272,
                1.9715477243005601,
                -0.7804696478968182,
                0.12958648046900423,
                -3.192491284697111
            ]
        },
        {
            "positions": [
                0.05691792898119796,
                -1.1729252319002856,
                2.0356863752235346,
                -0.8149095677212076,
                0.28666697374885,
                -3.1790121353188034
            ]
        },
        {
            "positions": [
                -0.008975682185555764,
                -1.206365162265444,
                2.0998250261465086,
                -0.8493494875455971,
                0.4437474670286958,
                -3.165532985940496
            ]
        },
        {
            "positions": [
                -0.0748692933523095,
                -1.2398050926306026,
                2.163963677069483,
                -0.8837894073699866,
                0.6008279603085416,
                -3.1520538365621884
            ]
        },
        {
            "positions": [
                -0.1407629045190632,
                -1.273245022995761,
                2.2281023279924574,
                -0.9182293271943761,
                0.7579084535883873,
                -3.1385746871838807
            ]
        },
        {
            "positions": [
                -0.20665651568581694,
                -1.3066849533609195,
                2.292240978915432,
                -0.9526692470187655,
                0.9149889468682332,
                -3.125095537805573
            ]
        },
        {
            "positions": [
                -0.2725501268525707,
                -1.340124883726078,
                2.356379629838406,
                -0.9871091668431551,
                1.0720694401480788,
                -3.1116163884272656
            ]
        },
        {
            "positions": [
                -0.3384437380193244,
                -1.3735648140912364,
                2.4205182807613803,
                -1.0215490866675445,
                1.2291499334279246,
                -3.098137239048958
            ]
        }
    ]
}