{
    "goal": {
        "global_pose": {
            "orientation": {
                "w": 0.5084816217422485,
                "x": -0.49083608388900757,
                "y": 0.5182115435600281,
                "z": -0.4816462993621826
            },
            "position": {
                "x": 0.5540239810943604,
                "y": 0.030875300988554955,
                "z": 0.16403168439865112
            }
        },
        "name": "move_to_storage_A"
    },
    "id": "TRRT_move_to_storage_A_41",
    "joint_names": [
        "shoulder_pan_joint",
        "shoulder_lift_joint",
        "elbow_joint",
        "wrist_1_joint",
        "wrist_2_joint",
        "wrist_3_joint"
    ],
    "metrics": {
        "cart_traj_len": 0.3527600142631012,
        "distance_elbow_joint": 0.44989757019081633,
        "distance_shoulder_lift_joint": 0.23572284085993012,
        "distance_shoulder_pan_joint": 0.458322036989463,
        "distance_wrist_1_joint": 0.23616326732815363,
        "distance_wrist_2_joint": 1.112062485684549,
        "distance_wrist_3_joint": 0.09186742715614526,
        "smoothness": 4.440892098500626e-16,
        "time": 0.023249047000000002,
        "traj_len": 1.607493585744297,
        "weighted_distance": 2.028791816706202
    },
    "planner": "TRRT",
    "start": {
        "state": {
            "elbow_joint": 1.9715477243005601,
            "shoulder_lift_joint": -1.1394853015351272,
            "shoulder_pan_joint": 0.12281154014795169,
            "wrist_1_joint": -0.7804696478968182,
            "wrist_2_joint": 0.12958648046900423,
            "wrist_3_joint": -3.192491284697111
        }
    },
    "waypoints": [
        {
            "positions": [
                0.12281154014795169,
                -1.1394853015351272,
                1.9715477243005601,
                -0.7804696478968182,
                0.12958648046900423,
                -3.192491284697111
            ]
        },
        {
            "positions": [
                0.057336963435171265,
                -1.1731599930865457,
                2.035818805756391,
                -0.8142072575151258,
                0.28845254985251123,
                -3.1793673665319475
            ]
        },
        {
            "positions": [
                -0.00813761327760916,
                -1.2068346846379643,
                2.100089887212222,
                -0.8479448671334335,
                0.4473186192360182,
                -3.166243448366784
            ]
        },
        {
            "positions": [
                -0.07361218999038958,
                -1.2405093761893828,
                2.1643609686680527,
                -0.8816824767517412,
                0.6061846886195252,
                -3.15311953020162
            ]
        },
        {
            "positions": [
                -0.13908676670317,
                -1.2741840677408014,
                2.228632050123884,
                -0.9154200863700488,
                0.7650507580030321,
                -3.139995612036457
            ]
        },
        {
            "positions": [
                -0.20456134341595045,
                -1.3078587592922202,
                2.2929031315797146,
                -0.9491576959883565,
                0.9239168273865391,
                -3.1268716938712933
            ]
        },
        {
            "positions": [
                -0.27003592012873084,
                -1.3415334508436387,
                2.3571742130355453,
                -0.982895305606664,
                1.0827828967700461,
                -3.1137477757061296
            ]
        },
        {
            "positions": [
                -0.3355104968415113,
                -1.3752081423950573,
                2.4214452944913765,
                -1.0166329152249718,
                1.241648966153553,
                -3.100623857540966
            ]
        }
    ]
}