{
    "goal": {
        "global_pose": {
            "orientation": {
                "w": 0.5084816217422485,
                "x": -0.49083608388900757,
                "y": 0.5182115435600281,
                "z": -0.4816462993621826
            },
            "position": {
                "x": 0.5540239810943604,
                "y": 0.030875300988554955,
                "z": 0.16403168439865112
            }
        },
        "name": "move_to_storage_A"
    },
    "id": "TRRT_move_to_storage_A_57",
    "joint_names": [
        "shoulder_pan_joint",
        "shoulder_lift_joint",
        "elbow_joint",
        "wrist_1_joint",
        "wrist_2_joint",
        "wrist_3_joint"
    ],
    "metrics": {
        "cart_traj_len": 0.35378897198513326,
        "distance_elbow_joint": 0.4500135528882998,
        "distance_shoulder_lift_joint": 0.23669300129536142,
        "distance_shoulder_pan_joint": 0.4600420774396282,
        "distance_wrist_1_joint": 0.2391345550439764,
        "distance_wrist_2_joint": 1.112477981605863,
        "distance_wrist_3_joint": 0.08704883654350848,
        "smoothness": 8.881784197001252e-16,
        "time": 0.020756168999999998,
        "traj_len": 1.6079210194585545,
        "weighted_distance": 2.027589754993227
    },
    "planner": "TRRT",
    "start": {
        "state": {
            "elbow_joint": 1.9715477243005601,
            "shoulder_lift_joint": -1.1394853015351272,
            "shoulder_pan_joint": 0.12281154014795169,
            "wrist_1_joint": -0.7804696478968182,
            "wrist_2_joint": 0.12958648046900423,
            "wrist_3_joint": -3.192491284697111
        }
    },
    "waypoints": [
        {
            "positions": [
                0.12281154014795169,
                -1.1394853015351272,
                1.9715477243005601,
                -0.7804696478968182,
                0.12958648046900423,
                -3.192491284697111
            ]
        },
        {
            "positions": [
                0.05709124337086195,
                -1.1732985874344646,
                2.0358353747131743,
                -0.8146317271888148,
                0.28851190641269897,
                -3.180055736619467
            ]
        },
        {
            "positions": [
                -0.008629053406227785,
                -1.2071118733338018,
                2.1001230251257885,
                -0.8487938064808114,
                0.44743733235639366,
                -3.167620188541823
            ]
        },
        {
            "positions": [
                -0.07434935018331752,
                -1.2409251592331392,
                2.1644106755384027,
                -0.882955885772808,
                0.6063627583000883,
                -3.155184640464179
            ]
        },
        {
            "positions": [
                -0.14006964696040725,
                -1.2747384451324766,
                2.228698325951017,
                -0.9171179650648047,
                0.7652881842437831,
                -3.142749092386535
            ]
        },
        {
            "positions": [
                -0.20578994373749704,
                -1.308551731031814,
                2.2929859763636316,
                -0.9512800443568012,
                0.9242136101874778,
                -3.130313544308891
            ]
        },
        {
            "positions": [
                -0.2715102405145867,
                -1.3423650169311512,
                2.3572736267762457,
                -0.9854421236487979,
                1.0831390361311724,
                -3.117877996231247
            ]
        },
        {
            "positions": [
                -0.3372305372916765,
                -1.3761783028304886,
                2.42156127718886,
                -1.0196042029407946,
                1.242064462074867,
                -3.1054424481536027
            ]
        }
    ]
}