{
    "goal": {
        "global_pose": {
            "orientation": {
                "w": 0.7047431468963623,
                "x": -0.7094548344612122,
                "y": 0.0024358443915843964,
                "z": -0.0022348060738295317
            },
            "position": {
                "x": 0.6094750761985779,
                "y": 0.3671506643295288,
                "z": 0.19426114857196808
            }
        },
        "name": "move_to_magneteinheit_A"
    },
    "id": "TRRT_move_to_magneteinheit_A_16",
    "joint_names": [
        "shoulder_pan_joint",
        "shoulder_lift_joint",
        "elbow_joint",
        "wrist_1_joint",
        "wrist_2_joint",
        "wrist_3_joint"
    ],
    "metrics": {
        "cart_traj_len": 3.4585256458228977,
        "distance_elbow_joint": 3.9176532251750436,
        "distance_shoulder_lift_joint": 1.435253326753642,
        "distance_shoulder_pan_joint": 3.2088389436298708,
        "distance_wrist_1_joint": 1.0482783852176372,
        "distance_wrist_2_joint": 1.858313235849087,
        "distance_wrist_3_joint": 3.610292255489717,
        "smoothness": 0.3775103628748499,
        "time": 0.083365905,
        "traj_len": 3.8831210864606063,
        "weighted_distance": 5.0205383679602695
    },
    "planner": "TRRT",
    "start": {
        "state": {
            "elbow_joint": -1.919618573717145,
            "shoulder_lift_joint": -1.2443395971678275,
            "shoulder_pan_joint": 2.6996025300909787,
            "wrist_1_joint": -1.548550951253194,
            "wrist_2_joint": -1.5709469090946802,
            "wrist_3_joint": 0.4420197732051276
        }
    },
    "waypoints": [
        {
            "positions": [
                2.6996025300909787,
                -1.2443395971678275,
                -1.919618573717145,
                -1.548550951253194,
                -1.5709469090946802,
                0.4420197732051276
            ]
        },
        {
            "positions": [
                2.609618732740581,
                -1.2642244099036914,
                -1.796589624103399,
                -1.52310326497959,
                -1.5082505442103153,
                0.3722656944227039
            ]
        },
        {
            "positions": [
                2.519634935390183,
                -1.2841092226395556,
                -1.6735606744896527,
                -1.4976555787059855,
                -1.4455541793259503,
                0.30251161564028023
            ]
        },
        {
            "positions": [
                2.4296511380397847,
                -1.3039940353754196,
                -1.5505317248759067,
                -1.4722078924323814,
                -1.3828578144415855,
                0.23275753685785655
            ]
        },
        {
            "positions": [
                2.339667340689387,
                -1.3238788481112838,
                -1.4275027752621607,
                -1.4467602061587772,
                -1.3201614495572207,
                0.16300345807543287
            ]
        },
        {
            "positions": [
                2.249683543338989,
                -1.3437636608471477,
                -1.3044738256484147,
                -1.421312519885173,
                -1.2574650846728557,
                0.0932493792930092
            ]
        },
        {
            "positions": [
                2.159699745988591,
                -1.3636484735830117,
                -1.1814448760346687,
                -1.3958648336115687,
                -1.1947687197884909,
                0.023495300510585515
            ]
        },
        {
            "positions": [
                2.0697159486381933,
                -1.3835332863188758,
                -1.0584159264209225,
                -1.3704171473379645,
                -1.132072354904126,
                -0.046258778271838163
            ]
        },
        {
            "positions": [
                1.9797321512877954,
                -1.4034180990547398,
                -0.9353869768071765,
                -1.3449694610643603,
                -1.0693759900197612,
                -0.11601285705426184
            ]
        },
        {
            "positions": [
                1.8897483539373972,
                -1.423302911790604,
                -0.8123580271934303,
                -1.319521774790756,
                -1.0066796251353962,
                -0.18576693583668552
            ]
        },
        {
            "positions": [
                1.7997645565869993,
                -1.443187724526468,
                -0.6893290775796843,
                -1.2940740885171518,
                -0.9439832602510313,
                -0.2555210146191092
            ]
        },
        {
            "positions": [
                1.7097807592366014,
                -1.4630725372623319,
                -0.5663001279659383,
                -1.2686264022435476,
                -0.8812868953666665,
                -0.3252750934015329
            ]
        },
        {
            "positions": [
                1.6197969618862036,
                -1.482957349998196,
                -0.4432711783521923,
                -1.2431787159699432,
                -0.8185905304823017,
                -0.39502917218395656
            ]
        },
        {
            "positions": [
                1.5298131645358055,
                -1.50284216273406,
                -0.3202422287384461,
                -1.217731029696339,
                -0.7558941655979367,
                -0.46478325096638023
            ]
        },
        {
            "positions": [
                1.4398293671854077,
                -1.522726975469924,
                -0.1972132791247001,
                -1.192283343422735,
                -0.6931978007135718,
                -0.5345373297488039
            ]
        },
        {
            "positions": [
                1.3498455698350098,
                -1.5426117882057881,
                -0.0741843295109541,
                -1.1668356571491305,
                -0.630501435829207,
                -0.6042914085312274
            ]
        },
        {
            "positions": [
                1.259861772484612,
                -1.562496600941652,
                0.04884462010279189,
                -1.1413879708755263,
                -0.5678050709448421,
                -0.6740454873136512
            ]
        },
        {
            "positions": [
                1.1698779751342139,
                -1.582381413677516,
                0.1718735697165379,
                -1.1159402846019222,
                -0.5051087060604773,
                -0.7437995660960748
            ]
        },
        {
            "positions": [
                1.0798941777838158,
                -1.6022662264133802,
                0.29490251933028433,
                -1.0904925983283178,
                -0.4424123411761123,
                -0.8135536448784986
            ]
        },
        {
            "positions": [
                0.989910380433418,
                -1.6221510391492444,
                0.4179314689440303,
                -1.0650449120547136,
                -0.37971597629174747,
                -0.8833077236609224
            ]
        },
        {
            "positions": [
                0.8999265830830201,
                -1.6420358518851084,
                0.5409604185577763,
                -1.0395972257811095,
                -0.31701961140738244,
                -0.9530618024433459
            ]
        },
        {
            "positions": [
                0.809942785732622,
                -1.6619206646209723,
                0.6639893681715223,
                -1.014149539507505,
                -0.25432324652301763,
                -1.0228158812257697
            ]
        },
        {
            "positions": [
                0.7199589883822242,
                -1.6818054773568365,
                0.7870183177852683,
                -0.988701853233901,
                -0.19162688163865282,
                -1.0925699600081933
            ]
        },
        {
            "positions": [
                0.6299751910318263,
                -1.7016902900927005,
                0.9100472673990143,
                -0.9632541669602968,
                -0.12893051675428802,
                -1.1623240387906169
            ]
        },
        {
            "positions": [
                0.5399913936814285,
                -1.7215751028285644,
                1.0330762170127603,
                -0.9378064806866926,
                -0.06623415186992321,
                -1.2320781175730406
            ]
        },
        {
            "positions": [
                0.45000759633103016,
                -1.7414599155644286,
                1.1561051666265068,
                -0.9123587944130883,
                -0.003537786985558178,
                -1.3018321963554644
            ]
        },
        {
            "positions": [
                0.3600237989806323,
                -1.7613447283002928,
                1.2791341162402527,
                -0.886911108139484,
                0.05915857789880685,
                -1.371586275137888
            ]
        },
        {
            "positions": [
                0.27004000163023445,
                -1.7812295410361565,
                1.4021630658539987,
                -0.8614634218658799,
                0.12185494278317166,
                -1.4413403539203118
            ]
        },
        {
            "positions": [
                0.1800562042798364,
                -1.8011143537720207,
                1.525192015467745,
                -0.8360157355922756,
                0.18455130766753655,
                -1.5110944327027354
            ]
        },
        {
            "positions": [
                0.1385920972107901,
                -1.715731776131022,
                1.5765923978074086,
                -0.8154649598271062,
                0.17579384049766478,
                -1.6911224929566686
            ]
        },
        {
            "positions": [
                0.09712799014174382,
                -1.6303491984900234,
                1.6279927801470722,
                -0.7949141840619367,
                0.167036373327793,
                -1.8711505532106016
            ]
        },
        {
            "positions": [
                0.05566388307269754,
                -1.5449666208490247,
                1.679393162486736,
                -0.7743634082967673,
                0.1582789061579212,
                -2.051178613464535
            ]
        },
        {
            "positions": [
                0.014199776003651243,
                -1.459584043208026,
                1.7307935448263996,
                -0.7538126325315978,
                0.14952143898804943,
                -2.231206673718468
            ]
        },
        {
            "positions": [
                -0.027264331065395053,
                -1.3742014655670274,
                1.7821939271660632,
                -0.7332618567664284,
                0.14076397181817765,
                -2.4112347339724014
            ]
        },
        {
            "positions": [
                -0.06872843813444132,
                -1.2888188879260287,
                1.8335943095057268,
                -0.7127110810012589,
                0.13200650464830588,
                -2.5912627942263344
            ]
        },
        {
            "positions": [
                -0.11019254520348762,
                -1.20343631028503,
                1.8849946918453906,
                -0.6921603052360895,
                0.12324903747843409,
                -2.7712908544802675
            ]
        },
        {
            "positions": [
                -0.15165665227253392,
                -1.1180537326440314,
                1.9363950741850542,
                -0.6716095294709201,
                0.11449157030856232,
                -2.951318914734201
            ]
        },
        {
            "positions": [
                -0.19312075934158018,
                -1.0326711550030327,
                1.9877954565247178,
                -0.6510587537057506,
                0.10573410313869053,
                -3.131346974988134
            ]
        },
        {
            "positions": [
                -0.035062932242924894,
                -1.0876888406932632,
                1.9826758590581273,
                -0.7264518475408475,
                0.11773301041770254,
                -3.149809728636362
            ]
        },
        {
            "positions": [
                0.12299489485573037,
                -1.1427065263834937,
                1.9775562615915367,
                -0.8018449413759444,
                0.12973191769671455,
                -3.16827248228459
            ]
        }
    ]
}{
    "goal": {
        "global_pose": {
            "orientation": {
                "w": 0.7047431468963623,
                "x": -0.7094548344612122,
                "y": 0.0024358443915843964,
                "z": -0.0022348060738295317
            },
            "position": {
                "x": 0.6094750761985779,
                "y": 0.3671506643295288,
                "z": 0.19426114857196808
            }
        },
        "name": "move_to_magneteinheit_A"
    },
    "id": "TRRT_move_to_magneteinheit_A_16",
    "joint_names": [
        "shoulder_pan_joint",
        "shoulder_lift_joint",
        "elbow_joint",
        "wrist_1_joint",
        "wrist_2_joint",
        "wrist_3_joint"
    ],
    "metrics": {
        "cart_traj_len": 1.2230430693534913,
        "distance_elbow_joint": 0.043608163244706954,
        "distance_shoulder_lift_joint": 0.7664746492336043,
        "distance_shoulder_pan_joint": 1.2412309973432065,
        "distance_wrist_1_joint": 0.9677714200189982,
        "distance_wrist_2_joint": 1.4548166176739512,
        "distance_wrist_3_joint": 4.369660810071947,
        "smoothness": 0.09316465029729988,
        "time": 0.065863082,
        "traj_len": 2.9738128148197918,
        "weighted_distance": 4.472747736618203
    },
    "planner": "TRRT",
    "start": {
        "state": {
            "elbow_joint": 1.919643534880228,
            "shoulder_lift_joint": -1.8972525353963687,
            "shoulder_pan_joint": -1.1188672234189438,
            "wrist_1_joint": -1.5931878212786155,
            "wrist_2_joint": 1.5706036197970081,
            "wrist_3_joint": 1.118896926603594
        }
    },
    "waypoints": [
        {
            "positions": [
                -1.1188672234189438,
                -1.8972525353963687,
                1.919643534880228,
                -1.5931878212786155,
                1.5706036197970081,
                1.118896926603594
            ]
        },
        {
            "positions": [
                -1.066703021391376,
                -1.8616323199803313,
                1.91951711004918,
                -1.5491707538822013,
                1.5017462679792086,
                0.9342329701147762
            ]
        },
        {
            "positions": [
                -1.014538819363808,
                -1.8260121045642939,
                1.9193906852181317,
                -1.5051536864857868,
                1.4328889161614091,
                0.7495690136259585
            ]
        },
        {
            "positions": [
                -0.9623746173362403,
                -1.7903918891482562,
                1.9192642603870833,
                -1.4611366190893726,
                1.3640315643436094,
                0.5649050571371407
            ]
        },
        {
            "positions": [
                -0.9102104153086724,
                -1.7547716737322188,
                1.9191378355560351,
                -1.4171195516929582,
                1.2951742125258099,
                0.38024110064832295
            ]
        },
        {
            "positions": [
                -0.8580462132811045,
                -1.7191514583161813,
                1.919011410724987,
                -1.373102484296544,
                1.2263168607080104,
                0.19557714415950522
            ]
        },
        {
            "positions": [
                -0.8058820112535368,
                -1.6835312429001439,
                1.9188849858939387,
                -1.3290854169001298,
                1.1574595088902109,
                0.010913187670687385
            ]
        },
        {
            "positions": [
                -0.7537178092259689,
                -1.6479110274841064,
                1.9187585610628906,
                -1.2850683495037154,
                1.0886021570724114,
                -0.17375076881813034
            ]
        },
        {
            "positions": [
                -0.701553607198401,
                -1.612290812068069,
                1.9186321362318421,
                -1.2410512821073012,
                1.0197448052546116,
                -0.35841472530694807
            ]
        },
        {
            "positions": [
                -0.6493894051708331,
                -1.5766705966520314,
                1.918505711400794,
                -1.1970342147108868,
                0.9508874534368121,
                -0.5430786817957658
            ]
        },
        {
            "positions": [
                -0.5972252031432652,
                -1.541050381235994,
                1.9183792865697458,
                -1.1530171473144726,
                0.8820301016190126,
                -0.7277426382845835
            ]
        },
        {
            "positions": [
                -0.5450610011156973,
                -1.5054301658199565,
                1.9182528617386976,
                -1.1090000799180584,
                0.8131727498012129,
                -0.9124065947734017
            ]
        },
        {
            "positions": [
                -0.49289679908812956,
                -1.469809950403919,
                1.9181264369076494,
                -1.064983012521644,
                0.7443153979834135,
                -1.0970705512622192
            ]
        },
        {
            "positions": [
                -0.44073259706056156,
                -1.4341897349878816,
                1.9180000120766012,
                -1.0209659451252295,
                0.6754580461656139,
                -1.2817345077510371
            ]
        },
        {
            "positions": [
                -0.3885683950329938,
                -1.398569519571844,
                1.9178735872455528,
                -0.9769488777288154,
                0.6066006943478144,
                -1.4663984642398546
            ]
        },
        {
            "positions": [
                -0.3364041930054259,
                -1.3629493041558065,
                1.9177471624145046,
                -0.9329318103324011,
                0.5377433425300147,
                -1.6510624207286726
            ]
        },
        {
            "positions": [
                -0.284239990977858,
                -1.327329088739769,
                1.9176207375834564,
                -0.8889147429359868,
                0.46888599071221515,
                -1.83572637721749
            ]
        },
        {
            "positions": [
                -0.23207578895029013,
                -1.2917088733237314,
                1.9174943127524082,
                -0.8448976755395725,
                0.40002863889441564,
                -2.020390333706308
            ]
        },
        {
            "positions": [
                -0.17991158692272236,
                -1.2560886579076942,
                1.91736788792136,
                -0.8008806081431583,
                0.33117128707661614,
                -2.2050542901951253
            ]
        },
        {
            "positions": [
                -0.12774738489515447,
                -1.2204684424916565,
                1.9172414630903116,
                -0.756863540746744,
                0.2623139352588164,
                -2.3897182466839437
            ]
        },
        {
            "positions": [
                -0.07558318286758658,
                -1.1848482270756193,
                1.9171150382592634,
                -0.7128464733503297,
                0.19345658344101713,
                -2.5743822031727612
            ]
        },
        {
            "positions": [
                -0.02341898084001859,
                -1.1492280116595817,
                1.9169886134282152,
                -0.6688294059539154,
                0.12459923162321748,
                -2.7590461596615787
            ]
        },
        {
            "positions": [
                0.04947239654212218,
                -1.1400029489111732,
                1.9374652343245624,
                -0.6905359083010645,
                0.1290053463732978,
                -3.0049050215649658
            ]
        },
        {
            "positions": [
                0.12236377392426294,
                -1.1307778861627644,
                1.9579418552209094,
                -0.7122424106482135,
                0.1334114611233781,
                -3.2507638834683523
            ]
        }
    ]
}