{
    "goal": {
        "global_pose": {
            "orientation": {
                "w": 0.7047431468963623,
                "x": -0.7094548344612122,
                "y": 0.0024358443915843964,
                "z": -0.0022348060738295317
            },
            "position": {
                "x": 0.6094750761985779,
                "y": 0.3671506643295288,
                "z": 0.19426114857196808
            }
        },
        "name": "move_to_magneteinheit_A"
    },
    "id": "TRRT_move_to_magneteinheit_A_108",
    "joint_names": [
        "shoulder_pan_joint",
        "shoulder_lift_joint",
        "elbow_joint",
        "wrist_1_joint",
        "wrist_2_joint",
        "wrist_3_joint"
    ],
    "metrics": {
        "cart_traj_len": 3.5767063087398676,
        "distance_elbow_joint": 3.9148635187578487,
        "distance_shoulder_lift_joint": 0.6372166379953565,
        "distance_shoulder_pan_joint": 2.576764061442735,
        "distance_wrist_1_joint": 3.483101451352421,
        "distance_wrist_2_joint": 2.058190287453622,
        "distance_wrist_3_joint": 0.44397956798151317,
        "smoothness": 0.0948125212837531,
        "time": 0.087481427,
        "traj_len": 3.6213416747089044,
        "weighted_distance": 4.420787984030964
    },
    "planner": "TRRT",
    "start": {
        "state": {
            "elbow_joint": -1.919618573717145,
            "shoulder_lift_joint": -1.2443395971678275,
            "shoulder_pan_joint": 2.6996025300909787,
            "wrist_1_joint": -1.548550951253194,
            "wrist_2_joint": -1.5709469090946802,
            "wrist_3_joint": 0.4420197732051276
        }
    },
    "waypoints": [
        {
            "positions": [
                2.6996025300909787,
                -1.2443395971678275,
                -1.919618573717145,
                -1.548550951253194,
                -1.5709469090946802,
                0.4420197732051276
            ]
        },
        {
            "positions": [
                2.598645909224671,
                -1.2213383579685966,
                -1.814743696077452,
                -1.4791649314636575,
                -1.4979391058439335,
                0.4249107150687751
            ]
        },
        {
            "positions": [
                2.4976892883583632,
                -1.1983371187693659,
                -1.7098688184377586,
                -1.4097789116741208,
                -1.424931302593187,
                0.40780165693242254
            ]
        },
        {
            "positions": [
                2.3967326674920555,
                -1.175335879570135,
                -1.6049939407980656,
                -1.3403928918845842,
                -1.3519234993424405,
                0.39069259879607005
            ]
        },
        {
            "positions": [
                2.2957760466257477,
                -1.1523346403709043,
                -1.5001190631583725,
                -1.2710068720950476,
                -1.2789156960916939,
                0.37358354065971755
            ]
        },
        {
            "positions": [
                2.19481942575944,
                -1.1293334011716734,
                -1.3952441855186792,
                -1.2016208523055107,
                -1.2059078928409472,
                0.356474482523365
            ]
        },
        {
            "positions": [
                2.0938628048931323,
                -1.1063321619724427,
                -1.2903693078789862,
                -1.1322348325159743,
                -1.1329000895902008,
                0.33936542438701245
            ]
        },
        {
            "positions": [
                1.9929061840268247,
                -1.0833309227732117,
                -1.185494430239293,
                -1.0628488127264375,
                -1.059892286339454,
                0.32225636625065995
            ]
        },
        {
            "positions": [
                1.8919495631605172,
                -1.060329683573981,
                -1.0806195525995999,
                -0.993462792936901,
                -0.9868844830887076,
                0.30514730811430746
            ]
        },
        {
            "positions": [
                1.7909929422942095,
                -1.0373284443747501,
                -0.9757446749599068,
                -0.9240767731473642,
                -0.913876679837961,
                0.2880382499779549
            ]
        },
        {
            "positions": [
                1.6900363214279015,
                -1.0143272051755194,
                -0.8708697973202135,
                -0.8546907533578276,
                -0.8408688765872144,
                0.27092919184160236
            ]
        },
        {
            "positions": [
                1.589079700561594,
                -0.9913259659762885,
                -0.7659949196805207,
                -0.785304733568291,
                -0.7678610733364679,
                0.2538201337052499
            ]
        },
        {
            "positions": [
                1.4881230796952862,
                -0.9683247267770577,
                -0.6611200420408274,
                -0.7159187137787544,
                -0.6948532700857213,
                0.23671107556889737
            ]
        },
        {
            "positions": [
                1.3871664588289787,
                -0.9453234875778269,
                -0.5562451644011344,
                -0.6465326939892178,
                -0.6218454668349748,
                0.21960201743254487
            ]
        },
        {
            "positions": [
                1.2862098379626707,
                -0.922322248378596,
                -0.4513702867614411,
                -0.577146674199681,
                -0.548837663584228,
                0.20249295929619232
            ]
        },
        {
            "positions": [
                1.185253217096363,
                -0.8993210091793653,
                -0.34649540912174803,
                -0.5077606544101445,
                -0.4758298603334816,
                0.18538390115983983
            ]
        },
        {
            "positions": [
                1.0842965962300555,
                -0.8763197699801345,
                -0.24162053148205498,
                -0.4383746346206079,
                -0.402822057082735,
                0.16827484302348733
            ]
        },
        {
            "positions": [
                0.9833399753637475,
                -0.8533185307809037,
                -0.1367456538423617,
                -0.36898861483107104,
                -0.32981425383198837,
                0.15116578488713478
            ]
        },
        {
            "positions": [
                0.88238335449744,
                -0.8303172915816728,
                -0.03187077620266865,
                -0.2996025950415344,
                -0.25680645058124174,
                0.13405672675078223
            ]
        },
        {
            "positions": [
                0.7814267336311325,
                -0.8073160523824421,
                0.0730041014370244,
                -0.230216575251998,
                -0.18379864733049533,
                0.11694766861442973
            ]
        },
        {
            "positions": [
                0.6804701127648243,
                -0.7843148131832112,
                0.1778789790767179,
                -0.16083055546246117,
                -0.11079084407974871,
                0.09983861047807718
            ]
        },
        {
            "positions": [
                0.579513491898517,
                -0.7613135739839804,
                0.28275385671641096,
                -0.09144453567292454,
                -0.03778304082900208,
                0.08272955234172469
            ]
        },
        {
            "positions": [
                0.47855687103220923,
                -0.7383123347847496,
                0.38762873435610357,
                -0.02205851588338792,
                0.03522476242174433,
                0.06562049420537219
            ]
        },
        {
            "positions": [
                0.3776002501659015,
                -0.7153110955855188,
                0.49250361199579706,
                0.047327503906148705,
                0.10823256567249118,
                0.04851143606901964
            ]
        },
        {
            "positions": [
                0.27664362929959396,
                -0.692309856386288,
                0.5973784896354901,
                0.11671352369568526,
                0.1812403689232375,
                0.031402377932667175
            ]
        },
        {
            "positions": [
                0.26126311323445917,
                -0.7008285461076696,
                0.7371651351760115,
                0.29849722133603945,
                0.1506400679796671,
                0.02806616066176191
            ]
        },
        {
            "positions": [
                0.24588259716932437,
                -0.7093472358290513,
                0.8769517807165328,
                0.48028091897639363,
                0.12003976703609671,
                0.024729943390856643
            ]
        },
        {
            "positions": [
                0.23050208110418957,
                -0.717865925550433,
                1.016738426257054,
                0.6620646166167476,
                0.08943946609252633,
                0.021393726119951377
            ]
        },
        {
            "positions": [
                0.21512156503905477,
                -0.7263846152718147,
                1.1565250717975752,
                0.8438483142571019,
                0.05883916514895593,
                0.018057508849046108
            ]
        },
        {
            "positions": [
                0.19974104897391998,
                -0.7349033049931964,
                1.2963117173380967,
                1.025632011897456,
                0.028238864205385544,
                0.014721291578140842
            ]
        },
        {
            "positions": [
                0.18436053290878518,
                -0.7434219947145781,
                1.4360983628786177,
                1.2074157095378102,
                -0.002361436738184841,
                0.011385074307235576
            ]
        },
        {
            "positions": [
                0.16898001684365038,
                -0.7519406844359598,
                1.5758850084191391,
                1.3891994071781644,
                -0.03296173768175523,
                0.00804885703633031
            ]
        },
        {
            "positions": [
                0.15359950077851559,
                -0.7604593741573415,
                1.7156716539596606,
                1.5709831048185188,
                -0.06356203862532564,
                0.00471263976542504
            ]
        },
        {
            "positions": [
                0.1382189847133808,
                -0.7689780638787233,
                1.8554582995001818,
                1.7527668024588727,
                -0.09416233956889605,
                0.0013764224945197745
            ]
        },
        {
            "positions": [
                0.12283846864824598,
                -0.777496753600105,
                1.995244945040703,
                1.934550500099227,
                -0.12476264051246638,
                -0.001959794776385489
            ]
        }
    ]
}