{
    "goal": {
        "global_pose": {
            "orientation": {
                "w": 0.7047431468963623,
                "x": -0.7094548344612122,
                "y": 0.0024358443915843964,
                "z": -0.0022348060738295317
            },
            "position": {
                "x": 0.6094750761985779,
                "y": 0.3671506643295288,
                "z": 0.19426114857196808
            }
        },
        "name": "move_to_magneteinheit_A"
    },
    "id": "TRRT_move_to_magneteinheit_A_116",
    "joint_names": [
        "shoulder_pan_joint",
        "shoulder_lift_joint",
        "elbow_joint",
        "wrist_1_joint",
        "wrist_2_joint",
        "wrist_3_joint"
    ],
    "metrics": {
        "cart_traj_len": 3.572044192282432,
        "distance_elbow_joint": 3.9110983121729648,
        "distance_shoulder_lift_joint": 1.0554881802494391,
        "distance_shoulder_pan_joint": 2.576445927217332,
        "distance_wrist_1_joint": 3.4576783993596183,
        "distance_wrist_2_joint": 1.58643797358738,
        "distance_wrist_3_joint": 0.41799987679175044,
        "smoothness": 0.1687322510716217,
        "time": 0.087863524,
        "traj_len": 3.606265196762224,
        "weighted_distance": 4.345717983936484
    },
    "planner": "TRRT",
    "start": {
        "state": {
            "elbow_joint": -1.919618573717145,
            "shoulder_lift_joint": -1.2443395971678275,
            "shoulder_pan_joint": 2.6996025300909787,
            "wrist_1_joint": -1.548550951253194,
            "wrist_2_joint": -1.5709469090946802,
            "wrist_3_joint": 0.4420197732051276
        }
    },
    "waypoints": [
        {
            "positions": [
                2.6996025300909787,
                -1.2443395971678275,
                -1.919618573717145,
                -1.548550951253194,
                -1.5709469090946802,
                0.4420197732051276
            ]
        },
        {
            "positions": [
                2.589623685425214,
                -1.209465837383199,
                -1.824419201732681,
                -1.4861625739549784,
                -1.5056956625355462,
                0.4293909260375863
            ]
        },
        {
            "positions": [
                2.479644840759449,
                -1.1745920775985705,
                -1.7292198297482169,
                -1.4237741966567627,
                -1.440444415976412,
                0.416762078870045
            ]
        },
        {
            "positions": [
                2.3696659960936843,
                -1.139718317813942,
                -1.6340204577637527,
                -1.3613858193585469,
                -1.375193169417278,
                0.4041332317025037
            ]
        },
        {
            "positions": [
                2.2596871514279195,
                -1.1048445580293134,
                -1.5388210857792888,
                -1.2989974420603312,
                -1.309941922858144,
                0.3915043845349624
            ]
        },
        {
            "positions": [
                2.1497083067621547,
                -1.0699707982446849,
                -1.4436217137948248,
                -1.2366090647621155,
                -1.24469067629901,
                0.37887553736742113
            ]
        },
        {
            "positions": [
                2.03972946209639,
                -1.0350970384600564,
                -1.3484223418103607,
                -1.1742206874638998,
                -1.179439429739876,
                0.3662466901998798
            ]
        },
        {
            "positions": [
                1.9297506174306251,
                -1.000223278675428,
                -1.2532229698258965,
                -1.1118323101656842,
                -1.1141881831807419,
                0.35361784303233856
            ]
        },
        {
            "positions": [
                1.8197717727648604,
                -0.9653495188907993,
                -1.1580235978414326,
                -1.0494439328674683,
                -1.0489369366216077,
                0.34098899586479725
            ]
        },
        {
            "positions": [
                1.7097929280990956,
                -0.9304757591061709,
                -1.0628242258569687,
                -0.9870555555692526,
                -0.9836856900624739,
                0.32836014869725594
            ]
        },
        {
            "positions": [
                1.5998140834333308,
                -0.8956019993215423,
                -0.9676248538725045,
                -0.924667178271037,
                -0.9184344435033398,
                0.3157313015297146
            ]
        },
        {
            "positions": [
                1.489835238767566,
                -0.8607282395369138,
                -0.8724254818880404,
                -0.8622788009728212,
                -0.8531831969442057,
                0.3031024543621733
            ]
        },
        {
            "positions": [
                1.3798563941018012,
                -0.8258544797522853,
                -0.7772261099035764,
                -0.7998904236746055,
                -0.7879319503850718,
                0.2904736071946321
            ]
        },
        {
            "positions": [
                1.2698775494360364,
                -0.7909807199676568,
                -0.6820267379191123,
                -0.7375020463763898,
                -0.7226807038259376,
                0.2778447600270908
            ]
        },
        {
            "positions": [
                1.1598987047702716,
                -0.7561069601830284,
                -0.5868273659346483,
                -0.6751136690781742,
                -0.6574294572668037,
                0.2652159128595495
            ]
        },
        {
            "positions": [
                1.0499198601045068,
                -0.7212332003983998,
                -0.4916279939501844,
                -0.6127252917799584,
                -0.5921782107076696,
                0.2525870656920082
            ]
        },
        {
            "positions": [
                0.939941015438742,
                -0.6863594406137712,
                -0.39642862196572026,
                -0.5503369144817426,
                -0.5269269641485355,
                0.2399582185244669
            ]
        },
        {
            "positions": [
                0.8299621707729772,
                -0.6514856808291427,
                -0.30122924998125633,
                -0.48794853718352704,
                -0.4616757175894015,
                0.2273293713569256
            ]
        },
        {
            "positions": [
                0.7199833261072124,
                -0.6166119210445142,
                -0.20602987799679218,
                -0.42556015988531115,
                -0.39642447103026757,
                0.2147005241893843
            ]
        },
        {
            "positions": [
                0.6100044814414476,
                -0.5817381612598858,
                -0.11083050601232824,
                -0.3631717825870955,
                -0.3311732244711336,
                0.20207167702184303
            ]
        },
        {
            "positions": [
                0.5000256367756829,
                -0.5468644014752572,
                -0.015631134027864174,
                -0.3007834052888798,
                -0.26592197791199934,
                0.18944282985430172
            ]
        },
        {
            "positions": [
                0.4339351695887902,
                -0.5254036687974672,
                0.07562702614515684,
                -0.20594717449787442,
                -0.29160704503516505,
                0.1708273763606875
            ]
        },
        {
            "positions": [
                0.3678447024018975,
                -0.5039429361196772,
                0.16688518631817786,
                -0.111110943706869,
                -0.3172921121583307,
                0.1522119228670733
            ]
        },
        {
            "positions": [
                0.3017542352150048,
                -0.4824822034418873,
                0.25814334649119886,
                -0.016274712915863583,
                -0.3429771792814964,
                0.1335964693734591
            ]
        },
        {
            "positions": [
                0.2868710991865584,
                -0.5069514356521789,
                0.40258804582158386,
                0.1441754671693271,
                -0.32594735919522955,
                0.12446508829345226
            ]
        },
        {
            "positions": [
                0.2719879631581121,
                -0.5314206678624704,
                0.5470327451519689,
                0.3046256472545178,
                -0.30891753910896275,
                0.11533370721344544
            ]
        },
        {
            "positions": [
                0.2571048271296657,
                -0.5558899000727621,
                0.6914774444823539,
                0.4650758273397085,
                -0.29188771902269595,
                0.1062023261334386
            ]
        },
        {
            "positions": [
                0.24222169110121938,
                -0.5803591322830536,
                0.8359221438127389,
                0.6255260074248992,
                -0.2748578989364291,
                0.09707094505343176
            ]
        },
        {
            "positions": [
                0.227338555072773,
                -0.6048283644933452,
                0.9803668431431241,
                0.7859761875100899,
                -0.25782807885016223,
                0.08793956397342492
            ]
        },
        {
            "positions": [
                0.21245541904432666,
                -0.6292975967036367,
                1.124811542473509,
                0.9464263675952805,
                -0.24079825876389543,
                0.0788081828934181
            ]
        },
        {
            "positions": [
                0.1975722830158803,
                -0.6537668289139283,
                1.2692562418038942,
                1.1068765476804714,
                -0.22376843867762858,
                0.06967680181341125
            ]
        },
        {
            "positions": [
                0.18268914698743396,
                -0.67823606112422,
                1.413700941134279,
                1.267326727765662,
                -0.20673861859136178,
                0.06054542073340444
            ]
        },
        {
            "positions": [
                0.16780601095898762,
                -0.7027052933345115,
                1.558145640464664,
                1.4277769078508527,
                -0.18970879850509495,
                0.051414039653397595
            ]
        },
        {
            "positions": [
                0.15292287493054124,
                -0.7271745255448031,
                1.7025903397950493,
                1.5882270879360434,
                -0.17267897841882812,
                0.04228265857339075
            ]
        },
        {
            "positions": [
                0.1380397389020949,
                -0.7516437577550947,
                1.847035039125434,
                1.748677268021234,
                -0.1556491583325613,
                0.03315127749338394
            ]
        },
        {
            "positions": [
                0.12315660287364855,
                -0.7761129899653862,
                1.9914797384558192,
                1.9091274481064247,
                -0.13861933824629447,
                0.0240198964133771
            ]
        }
    ]
}