{
    "goal": {
        "global_pose": {
            "orientation": {
                "w": 0.5084816217422485,
                "x": -0.49083608388900757,
                "y": 0.5182115435600281,
                "z": -0.4816462993621826
            },
            "position": {
                "x": 0.5540239810943604,
                "y": 0.030875300988554955,
                "z": 0.16403168439865112
            }
        },
        "name": "move_to_storage_A"
    },
    "id": "TRRT_move_to_storage_A_13",
    "joint_names": [
        "shoulder_pan_joint",
        "shoulder_lift_joint",
        "elbow_joint",
        "wrist_1_joint",
        "wrist_2_joint",
        "wrist_3_joint"
    ],
    "metrics": {
        "cart_traj_len": 0.35304837233304753,
        "distance_elbow_joint": 0.4495626858216131,
        "distance_shoulder_lift_joint": 0.23343331186689098,
        "distance_shoulder_pan_joint": 0.46328900870558615,
        "distance_wrist_1_joint": 0.24527727306038882,
        "distance_wrist_2_joint": 1.090917925713606,
        "distance_wrist_3_joint": 0.10187234015997015,
        "smoothness": 2.5535129483646423e-15,
        "time": 0.01344783,
        "traj_len": 1.6075921576469747,
        "weighted_distance": 2.0308354006226086
    },
    "planner": "TRRT",
    "start": {
        "state": {
            "elbow_joint": 1.9715477243005601,
            "shoulder_lift_joint": -1.1394853015351272,
            "shoulder_pan_joint": 0.12281154014795169,
            "wrist_1_joint": -0.7804696478968182,
            "wrist_2_joint": 0.12958648046900423,
            "wrist_3_joint": -3.192491284697111
        }
    },
    "waypoints": [
        {
            "positions": [
                0.12281154014795169,
                -1.1394853015351272,
                1.9715477243005601,
                -0.7804696478968182,
                0.12958648046900423,
                -3.192491284697111
            ]
        },
        {
            "positions": [
                0.056627396047153666,
                -1.1728329175161116,
                2.0357709651322193,
                -0.8155092583340166,
                0.2854318984280908,
                -3.177938093245687
            ]
        },
        {
            "positions": [
                -0.009556748053644357,
                -1.206180533497096,
                2.099994205963878,
                -0.8505488687712149,
                0.4412773163871773,
                -3.1633849017942626
            ]
        },
        {
            "positions": [
                -0.07574089215444237,
                -1.2395281494780805,
                2.1642174467955373,
                -0.8855884792084133,
                0.597122734346264,
                -3.1488317103428383
            ]
        },
        {
            "positions": [
                -0.1419250362552404,
                -1.2728757654590648,
                2.228440687627196,
                -0.9206280896456118,
                0.7529681523053504,
                -3.134278518891414
            ]
        },
        {
            "positions": [
                -0.20810918035603843,
                -1.3062233814400492,
                2.2926639284588552,
                -0.9556677000828102,
                0.908813570264437,
                -3.1197253274399896
            ]
        },
        {
            "positions": [
                -0.2742933244568364,
                -1.3395709974210337,
                2.356887169290514,
                -0.9907073105200086,
                1.0646589882235236,
                -3.1051721359885653
            ]
        },
        {
            "positions": [
                -0.34047746855763444,
                -1.3729186134020182,
                2.421110410122173,
                -1.025746920957207,
                1.2205044061826102,
                -3.090618944537141
            ]
        }
    ]
}