{
    "goal": {
        "global_pose": {
            "orientation": {
                "w": 0.7047431468963623,
                "x": -0.7094548344612122,
                "y": 0.0024358443915843964,
                "z": -0.0022348060738295317
            },
            "position": {
                "x": 0.6094750761985779,
                "y": 0.3671506643295288,
                "z": 0.19426114857196808
            }
        },
        "name": "move_to_magneteinheit_A"
    },
    "id": "TRRT_move_to_magneteinheit_A_99",
    "joint_names": [
        "shoulder_pan_joint",
        "shoulder_lift_joint",
        "elbow_joint",
        "wrist_1_joint",
        "wrist_2_joint",
        "wrist_3_joint"
    ],
    "metrics": {
        "cart_traj_len": 3.8559803648891804,
        "distance_elbow_joint": 3.9042128532333407,
        "distance_shoulder_lift_joint": 0.0984305777301504,
        "distance_shoulder_pan_joint": 3.272831233729551,
        "distance_wrist_1_joint": 0.7099170308802365,
        "distance_wrist_2_joint": 2.405535831675236,
        "distance_wrist_3_joint": 3.5879835101138404,
        "smoothness": 0.1790294681662796,
        "time": 0.067790443,
        "traj_len": 3.738838193525143,
        "weighted_distance": 4.926492760589983
    },
    "planner": "TRRT",
    "start": {
        "state": {
            "elbow_joint": -1.919618573717145,
            "shoulder_lift_joint": -1.2443395971678275,
            "shoulder_pan_joint": 2.6996025300909787,
            "wrist_1_joint": -1.548550951253194,
            "wrist_2_joint": -1.5709469090946802,
            "wrist_3_joint": 0.4420197732051276
        }
    },
    "waypoints": [
        {
            "positions": [
                2.6996025300909787,
                -1.2443395971678275,
                -1.919618573717145,
                -1.548550951253194,
                -1.5709469090946802,
                0.4420197732051276
            ]
        },
        {
            "positions": [
                2.5912649000171224,
                -1.241935702179789,
                -1.8157772593474832,
                -1.5394694163671414,
                -1.4949775338247095,
                0.3552106056091734
            ]
        },
        {
            "positions": [
                2.482927269943266,
                -1.2395318071917507,
                -1.7119359449778218,
                -1.5303878814810887,
                -1.4190081585547387,
                0.26840143801321925
            ]
        },
        {
            "positions": [
                2.37458963986941,
                -1.2371279122037122,
                -1.60809463060816,
                -1.5213063465950358,
                -1.3430387832847681,
                0.18159227041726506
            ]
        },
        {
            "positions": [
                2.266252009795554,
                -1.2347240172156737,
                -1.5042533162384983,
                -1.5122248117089832,
                -1.2670694080147975,
                0.09478310282131086
            ]
        },
        {
            "positions": [
                2.1579143797216975,
                -1.2323201222276354,
                -1.4004120018688369,
                -1.5031432768229305,
                -1.191100032744827,
                0.007973935225356665
            ]
        },
        {
            "positions": [
                2.049576749647841,
                -1.229916227239597,
                -1.2965706874991751,
                -1.4940617419368778,
                -1.115130657474856,
                -0.07883523237059747
            ]
        },
        {
            "positions": [
                1.9412391195739849,
                -1.2275123322515586,
                -1.1927293731295134,
                -1.484980207050825,
                -1.0391612822048855,
                -0.16564439996655173
            ]
        },
        {
            "positions": [
                1.8329014895001285,
                -1.2251084372635201,
                -1.088888058759852,
                -1.4758986721647722,
                -0.9631919069349147,
                -0.25245356756250587
            ]
        },
        {
            "positions": [
                1.7245638594262724,
                -1.2227045422754816,
                -0.9850467443901902,
                -1.4668171372787195,
                -0.887222531664944,
                -0.3392627351584601
            ]
        },
        {
            "positions": [
                1.616226229352416,
                -1.2203006472874434,
                -0.8812054300205288,
                -1.4577356023926669,
                -0.8112531563949734,
                -0.42607190275441426
            ]
        },
        {
            "positions": [
                1.50788859927856,
                -1.2178967522994049,
                -0.777364115650867,
                -1.4486540675066142,
                -0.7352837811250027,
                -0.5128810703503683
            ]
        },
        {
            "positions": [
                1.3995509692047037,
                -1.2154928573113664,
                -0.6735228012812053,
                -1.4395725326205613,
                -0.659314405855032,
                -0.5996902379463225
            ]
        },
        {
            "positions": [
                1.2912133391308473,
                -1.213088962323328,
                -0.5696814869115439,
                -1.4304909977345086,
                -0.5833450305850614,
                -0.6864994055422768
            ]
        },
        {
            "positions": [
                1.1828757090569912,
                -1.2106850673352896,
                -0.46584017254188215,
                -1.421409462848456,
                -0.5073756553150908,
                -0.773308573138231
            ]
        },
        {
            "positions": [
                1.0745380789831347,
                -1.2082811723472513,
                -0.36199885817222044,
                -1.4123279279624033,
                -0.43140628004511994,
                -0.8601177407341853
            ]
        },
        {
            "positions": [
                0.9662004489092786,
                -1.2058772773592128,
                -0.25815754380255895,
                -1.4032463930763504,
                -0.35543690477514933,
                -0.9469269083301393
            ]
        },
        {
            "positions": [
                0.8578628188354223,
                -1.2034733823711743,
                -0.15431622943289702,
                -1.3941648581902977,
                -0.2794675295051785,
                -1.0337360759260936
            ]
        },
        {
            "positions": [
                0.7495251887615662,
                -1.201069487383136,
                -0.05047491506323554,
                -1.385083323304245,
                -0.2034981542352079,
                -1.1205452435220478
            ]
        },
        {
            "positions": [
                0.6411875586877098,
                -1.1986655923950975,
                0.05336639930642617,
                -1.3760017884181923,
                -0.1275287789652373,
                -1.207354411118002
            ]
        },
        {
            "positions": [
                0.5328499286138535,
                -1.196261697407059,
                0.15720771367608743,
                -1.3669202535321396,
                -0.05155940369526668,
                -1.294163578713956
            ]
        },
        {
            "positions": [
                0.42451229853999717,
                -1.1938578024190207,
                0.26104902804574937,
                -1.3578387186460867,
                0.024409971574704148,
                -1.3809727463099104
            ]
        },
        {
            "positions": [
                0.3161746684661413,
                -1.1914539074309822,
                0.36489034241541085,
                -1.348757183760034,
                0.10037934684467475,
                -1.4677819139058643
            ]
        },
        {
            "positions": [
                0.2078370383922845,
                -1.189050012442944,
                0.4687316567850728,
                -1.3396756488739814,
                0.17634872211464558,
                -1.5545910815018187
            ]
        },
        {
            "positions": [
                0.09949940831842863,
                -1.1866461174549054,
                0.5725729711547343,
                -1.3305941139879287,
                0.2523180973846162,
                -1.6414002490977726
            ]
        },
        {
            "positions": [
                -0.0088382217554277,
                -1.184242222466867,
                0.6764142855243958,
                -1.321512579101876,
                0.3282874726545868,
                -1.7282094166937272
            ]
        },
        {
            "positions": [
                -0.11717585182928403,
                -1.1818383274788287,
                0.7802555998940572,
                -1.3124310442158231,
                0.4042568479245574,
                -1.8150185842896813
            ]
        },
        {
            "positions": [
                -0.22551348190314036,
                -1.1794344324907902,
                0.8840969142637194,
                -1.3033495093297705,
                0.48022622319452846,
                -1.9018277518856357
            ]
        },
        {
            "positions": [
                -0.18687845726587027,
                -1.1757093865959998,
                1.0063743992917724,
                -1.2517144438901247,
                0.44085258992941423,
                -2.0400650835548664
            ]
        },
        {
            "positions": [
                -0.14824343262860015,
                -1.1719843407012094,
                1.1286518843198254,
                -1.2000793784504786,
                0.4014789566643,
                -2.1783024152240973
            ]
        },
        {
            "positions": [
                -0.10960840799133004,
                -1.1682592948064192,
                1.2509293693478785,
                -1.1484443130108328,
                0.36210532339918583,
                -2.316539746893328
            ]
        },
        {
            "positions": [
                -0.07097338335405995,
                -1.1645342489116288,
                1.3732068543759315,
                -1.096809247571187,
                0.3227316901340716,
                -2.4547770785625587
            ]
        },
        {
            "positions": [
                -0.032338358716789806,
                -1.1608092030168384,
                1.4954843394039847,
                -1.045174182131541,
                0.2833580568689574,
                -2.5930144102317896
            ]
        },
        {
            "positions": [
                0.006296665920480282,
                -1.157084157122048,
                1.6177618244320375,
                -0.9935391166918952,
                0.24398442360384318,
                -2.7312517419010205
            ]
        },
        {
            "positions": [
                0.04493169055775037,
                -1.1533591112272579,
                1.7400393094600908,
                -0.9419040512522494,
                0.20461079033872892,
                -2.869489073570251
            ]
        },
        {
            "positions": [
                0.08356671519502046,
                -1.1496340653324675,
                1.8623167944881436,
                -0.8902689858126035,
                0.16523715707361475,
                -3.007726405239482
            ]
        },
        {
            "positions": [
                0.1222017398322906,
                -1.145909019437677,
                1.9845942795161968,
                -0.8386339203729576,
                0.12586352380850055,
                -3.145963736908713
            ]
        }
    ]
}{
    "goal": {
        "global_pose": {
            "orientation": {
                "w": 0.7047431468963623,
                "x": -0.7094548344612122,
                "y": 0.0024358443915843964,
                "z": -0.0022348060738295317
            },
            "position": {
                "x": 0.6094750761985779,
                "y": 0.3671506643295288,
                "z": 0.19426114857196808
            }
        },
        "name": "move_to_magneteinheit_A"
    },
    "id": "TRRT_move_to_magneteinheit_A_99",
    "joint_names": [
        "shoulder_pan_joint",
        "shoulder_lift_joint",
        "elbow_joint",
        "wrist_1_joint",
        "wrist_2_joint",
        "wrist_3_joint"
    ],
    "metrics": {
        "cart_traj_len": 1.3319987882912108,
        "distance_elbow_joint": 0.9446979358914038,
        "distance_shoulder_lift_joint": 0.7480638806291431,
        "distance_shoulder_pan_joint": 1.2424769216567069,
        "distance_wrist_1_joint": 1.2706132537560388,
        "distance_wrist_2_joint": 1.4392725437599911,
        "distance_wrist_3_joint": 4.231466657563303,
        "smoothness": 0.2375918232337515,
        "time": 0.692737219,
        "traj_len": 3.1427044393732904,
        "weighted_distance": 4.587963633890227
    },
    "planner": "TRRT",
    "start": {
        "state": {
            "elbow_joint": 1.919643534880228,
            "shoulder_lift_joint": -1.8972525353963687,
            "shoulder_pan_joint": -1.1188672234189438,
            "wrist_1_joint": -1.5931878212786155,
            "wrist_2_joint": 1.5706036197970081,
            "wrist_3_joint": 1.118896926603594
        }
    },
    "waypoints": [
        {
            "positions": [
                -1.1188672234189438,
                -1.8972525353963687,
                1.919643534880228,
                -1.5931878212786155,
                1.5706036197970081,
                1.118896926603594
            ]
        },
        {
            "positions": [
                -1.0749780715563937,
                -1.870784532268655,
                1.9438292319509272,
                -1.545536176650407,
                1.519782514490436,
                0.9266055868436851
            ]
        },
        {
            "positions": [
                -1.0310889196938433,
                -1.8443165291409414,
                1.9680149290216262,
                -1.4978845320221987,
                1.4689614091838639,
                0.7343142470837761
            ]
        },
        {
            "positions": [
                -0.9871997678312932,
                -1.8178485260132276,
                1.9922006260923253,
                -1.4502328873939903,
                1.4181403038772917,
                0.5420229073238673
            ]
        },
        {
            "positions": [
                -0.9433106159687429,
                -1.791380522885514,
                2.016386323163024,
                -1.4025812427657818,
                1.3673191985707196,
                0.3497315675639583
            ]
        },
        {
            "positions": [
                -0.8994214641061926,
                -1.7649125197578002,
                2.040572020233723,
                -1.3549295981375735,
                1.3164980932641475,
                0.15744022780404943
            ]
        },
        {
            "positions": [
                -0.8555323122436425,
                -1.7384445166300864,
                2.0647577173044223,
                -1.307277953509365,
                1.2656769879575753,
                -0.03485111195585944
            ]
        },
        {
            "positions": [
                -0.8116431603810921,
                -1.7119765135023728,
                2.0889434143751213,
                -1.2596263088811566,
                1.2148558826510032,
                -0.2271424517157683
            ]
        },
        {
            "positions": [
                -0.7677540085185419,
                -1.685508510374659,
                2.1131291114458204,
                -1.2119746642529483,
                1.164034777344431,
                -0.4194337914756774
            ]
        },
        {
            "positions": [
                -0.7238648566559917,
                -1.6590405072469454,
                2.1373148085165194,
                -1.1643230196247398,
                1.113213672037859,
                -0.6117251312355863
            ]
        },
        {
            "positions": [
                -0.6799757047934414,
                -1.6325725041192316,
                2.1615005055872185,
                -1.1166713749965314,
                1.0623925667312868,
                -0.8040164709954951
            ]
        },
        {
            "positions": [
                -0.6360865529308911,
                -1.6061045009915178,
                2.1856862026579176,
                -1.0690197303683229,
                1.0115714614247144,
                -0.9963078107554042
            ]
        },
        {
            "positions": [
                -0.592197401068341,
                -1.5796364978638042,
                2.2098718997286166,
                -1.0213680857401144,
                0.9607503561181424,
                -1.1885991505153128
            ]
        },
        {
            "positions": [
                -0.5483082492057906,
                -1.5531684947360904,
                2.2340575967993157,
                -0.973716441111906,
                0.9099292508115703,
                -1.380890490275222
            ]
        },
        {
            "positions": [
                -0.5044190973432404,
                -1.5267004916083766,
                2.2582432938700148,
                -0.9260647964836977,
                0.8591081455049981,
                -1.5731818300351306
            ]
        },
        {
            "positions": [
                -0.46052994548069015,
                -1.500232488480663,
                2.282428990940714,
                -0.8784131518554892,
                0.8082870401984259,
                -1.7654731697950397
            ]
        },
        {
            "positions": [
                -0.4166407936181399,
                -1.4737644853529492,
                2.306614688011413,
                -0.8307615072272809,
                0.7574659348918539,
                -1.9577645095549487
            ]
        },
        {
            "positions": [
                -0.3727516417555896,
                -1.4472964822252354,
                2.330800385082112,
                -0.7831098625990724,
                0.7066448295852816,
                -2.1500558493148576
            ]
        },
        {
            "positions": [
                -0.32886248989303946,
                -1.4208284790975219,
                2.354986082152811,
                -0.7354582179708641,
                0.6558237242787096,
                -2.3423471890747667
            ]
        },
        {
            "positions": [
                -0.2849733380304892,
                -1.394360475969808,
                2.37917177922351,
                -0.6878065733426556,
                0.6050026189721374,
                -2.5346385288346758
            ]
        },
        {
            "positions": [
                -0.24108418616793892,
                -1.3678924728420945,
                2.403357476294209,
                -0.6401549287144472,
                0.5541815136655652,
                -2.726929868594584
            ]
        },
        {
            "positions": [
                -0.19719503430538862,
                -1.3414244697143807,
                2.427543173364908,
                -0.5925032840862388,
                0.5033604083589931,
                -2.9192212083544935
            ]
        },
        {
            "positions": [
                -0.1330340877967583,
                -1.3029773067249497,
                2.3401835138835634,
                -0.6464890273989712,
                0.42895454189459786,
                -2.9578909128755364
            ]
        },
        {
            "positions": [
                -0.06887314128812794,
                -1.2645301437355188,
                2.2528238544022186,
                -0.7004747707117036,
                0.35454867543020263,
                -2.9965606173965793
            ]
        },
        {
            "positions": [
                -0.0047121947794975805,
                -1.2260829807460876,
                2.165464194920874,
                -0.7544605140244359,
                0.28014280896580734,
                -3.035230321917622
            ]
        },
        {
            "positions": [
                0.05944875172913275,
                -1.1876358177566566,
                2.0781045354395293,
                -0.8084462573371684,
                0.2057369425014121,
                -3.073900026438665
            ]
        },
        {
            "positions": [
                0.1236096982377631,
                -1.1491886547672256,
                1.9907448759581845,
                -0.8624320006499008,
                0.13133107603701685,
                -3.112569730959708
            ]
        }
    ]
}