{
    "goal": {
        "global_pose": {
            "orientation": {
                "w": 0.7047431468963623,
                "x": -0.7094548344612122,
                "y": 0.0024358443915843964,
                "z": -0.0022348060738295317
            },
            "position": {
                "x": 0.6094750761985779,
                "y": 0.3671506643295288,
                "z": 0.19426114857196808
            }
        },
        "name": "move_to_magneteinheit_A"
    },
    "id": "TRRT_move_to_magneteinheit_A_26",
    "joint_names": [
        "shoulder_pan_joint",
        "shoulder_lift_joint",
        "elbow_joint",
        "wrist_1_joint",
        "wrist_2_joint",
        "wrist_3_joint"
    ],
    "metrics": {
        "cart_traj_len": 3.196310669535105,
        "distance_elbow_joint": 3.8871213903232102,
        "distance_shoulder_lift_joint": 0.6169060381859364,
        "distance_shoulder_pan_joint": 2.8421471666427918,
        "distance_wrist_1_joint": 1.1009320326239842,
        "distance_wrist_2_joint": 1.691587361319483,
        "distance_wrist_3_joint": 2.640419793130248,
        "smoothness": 0.11743932070000349,
        "time": 0.09572398900000001,
        "traj_len": 3.5747886346224242,
        "weighted_distance": 4.566450783971028
    },
    "planner": "TRRT",
    "start": {
        "state": {
            "elbow_joint": -1.919618573717145,
            "shoulder_lift_joint": -1.2443395971678275,
            "shoulder_pan_joint": 2.6996025300909787,
            "wrist_1_joint": -1.548550951253194,
            "wrist_2_joint": -1.5709469090946802,
            "wrist_3_joint": 0.4420197732051276
        }
    },
    "waypoints": [
        {
            "positions": [
                2.6996025300909787,
                -1.2443395971678275,
                -1.919618573717145,
                -1.548550951253194,
                -1.5709469090946802,
                0.4420197732051276
            ]
        },
        {
            "positions": [
                2.6059691681302657,
                -1.255436662048819,
                -1.7888182306507379,
                -1.5158008295843903,
                -1.5240271622364459,
                0.5077182390600548
            ]
        },
        {
            "positions": [
                2.5123358061695527,
                -1.2665337269298107,
                -1.6580178875843308,
                -1.4830507079155866,
                -1.4771074153782116,
                0.573416704914982
            ]
        },
        {
            "positions": [
                2.418702444208839,
                -1.277630791810802,
                -1.5272175445179237,
                -1.450300586246783,
                -1.4301876685199773,
                0.6391151707699091
            ]
        },
        {
            "positions": [
                2.325069082248126,
                -1.2887278566917937,
                -1.3964172014515166,
                -1.4175504645779793,
                -1.3832679216617427,
                0.7048136366248363
            ]
        },
        {
            "positions": [
                2.231435720287413,
                -1.2998249215727853,
                -1.2656168583851095,
                -1.3848003429091755,
                -1.3363481748035084,
                0.7705121024797634
            ]
        },
        {
            "positions": [
                2.1378023583267,
                -1.3109219864537769,
                -1.1348165153187024,
                -1.352050221240372,
                -1.2894284279452741,
                0.8362105683346907
            ]
        },
        {
            "positions": [
                2.044168996365987,
                -1.3220190513347685,
                -1.0040161722522951,
                -1.3193000995715682,
                -1.2425086810870398,
                0.9019090341896179
            ]
        },
        {
            "positions": [
                1.950535634405274,
                -1.3331161162157599,
                -0.8732158291858882,
                -1.2865499779027645,
                -1.1955889342288055,
                0.967607500044545
            ]
        },
        {
            "positions": [
                1.8569022724445605,
                -1.3442131810967515,
                -0.7424154861194812,
                -1.2537998562339607,
                -1.148669187370571,
                1.0333059658994723
            ]
        },
        {
            "positions": [
                1.7632689104838475,
                -1.355310245977743,
                -0.6116151430530741,
                -1.2210497345651572,
                -1.1017494405123367,
                1.0990044317543994
            ]
        },
        {
            "positions": [
                1.6696355485231344,
                -1.3664073108587347,
                -0.480814799986667,
                -1.1882996128963534,
                -1.0548296936541024,
                1.1647028976093265
            ]
        },
        {
            "positions": [
                1.5760021865624214,
                -1.377504375739726,
                -0.3500144569202599,
                -1.1555494912275497,
                -1.007909946795868,
                1.2304013634642537
            ]
        },
        {
            "positions": [
                1.4823688246017084,
                -1.3886014406207177,
                -0.21921411385385303,
                -1.122799369558746,
                -0.9609901999376338,
                1.2960998293191808
            ]
        },
        {
            "positions": [
                1.3887354626409951,
                -1.3996985055017093,
                -0.0884137707874455,
                -1.0900492478899424,
                -0.9140704530793994,
                1.361798295174108
            ]
        },
        {
            "positions": [
                1.295102100680282,
                -1.4107955703827009,
                0.042386572278961365,
                -1.0572991262211386,
                -0.8671507062211651,
                1.4274967610290352
            ]
        },
        {
            "positions": [
                1.201468738719569,
                -1.4218926352636925,
                0.17318691534536845,
                -1.0245490045523349,
                -0.8202309593629308,
                1.4931952268839626
            ]
        },
        {
            "positions": [
                1.107835376758856,
                -1.4329897001446839,
                0.30398725841177554,
                -0.9917988828835312,
                -0.7733112125046965,
                1.5588936927388897
            ]
        },
        {
            "positions": [
                1.0142020147981425,
                -1.4440867650256755,
                0.43478760147818263,
                -0.9590487612147275,
                -0.726391465646462,
                1.624592158593817
            ]
        },
        {
            "positions": [
                0.9205686528374295,
                -1.455183829906667,
                0.5655879445445897,
                -0.9262986395459238,
                -0.6794717187882277,
                1.6902906244487441
            ]
        },
        {
            "positions": [
                0.8269352908767165,
                -1.4662808947876587,
                0.6963882876109968,
                -0.8935485178771202,
                -0.6325519719299934,
                1.7559890903036712
            ]
        },
        {
            "positions": [
                0.7333019289160034,
                -1.47737795966865,
                0.8271886306774039,
                -0.8607983962083164,
                -0.585632225071759,
                1.8216875561585983
            ]
        },
        {
            "positions": [
                0.6396685669552902,
                -1.4884750245496416,
                0.957988973743811,
                -0.8280482745395127,
                -0.5387124782135246,
                1.8873860220135257
            ]
        },
        {
            "positions": [
                0.5460352049945773,
                -1.4995720894306332,
                1.0887893168102183,
                -0.795298152870709,
                -0.4917927313552903,
                1.9530844878684528
            ]
        },
        {
            "positions": [
                0.4292383666940607,
                -1.4848390895844852,
                1.1989361018491396,
                -0.7547682051140923,
                -0.4884294594229687,
                2.039534469176344
            ]
        },
        {
            "positions": [
                0.31244152839354417,
                -1.4701060897383371,
                1.3090828868880608,
                -0.7142382573574755,
                -0.4850661874906472,
                2.1259844504842356
            ]
        },
        {
            "positions": [
                0.19564469009302765,
                -1.455373089892189,
                1.419229671926982,
                -0.6737083096008587,
                -0.4817029155583257,
                2.212434431792127
            ]
        },
        {
            "positions": [
                0.07884785179251107,
                -1.440640090046041,
                1.5293764569659032,
                -0.6331783618442419,
                -0.4783396436260041,
                2.2988844131000183
            ]
        },
        {
            "positions": [
                0.034297143419710234,
                -1.4037064234499455,
                1.5948991690865495,
                -0.6217533300069363,
                -0.43048882695674523,
                2.380318357754896
            ]
        },
        {
            "positions": [
                -0.010253564953090603,
                -1.36677275685385,
                1.6604218812071958,
                -0.6103282981696307,
                -0.38263801028748634,
                2.461752302409774
            ]
        },
        {
            "positions": [
                0.00695121076057351,
                -1.3330220398752717,
                1.7054402463949743,
                -0.6327216969599363,
                -0.310060728474122,
                2.5515005314402917
            ]
        },
        {
            "positions": [
                0.024155986474237622,
                -1.2992713228966934,
                1.7504586115827527,
                -0.6551150957502417,
                -0.23748344666075777,
                2.6412487604708095
            ]
        },
        {
            "positions": [
                0.041360762187901745,
                -1.2655206059181152,
                1.7954769767705312,
                -0.6775084945405473,
                -0.16490616484739345,
                2.7309969895013273
            ]
        },
        {
            "positions": [
                0.06825301034047881,
                -1.222979918447911,
                1.8528189233823757,
                -0.7093515555970488,
                -0.0697239591566614,
                2.848144515112677
            ]
        },
        {
            "positions": [
                0.09514525849305587,
                -1.1804392309777068,
                1.9101608699942205,
                -0.7411946166535502,
                0.025458246534070667,
                2.965292040724026
            ]
        },
        {
            "positions": [
                0.12203750664563294,
                -1.1378985435075026,
                1.967502816606065,
                -0.7730376777100517,
                0.12064045222480275,
                3.082439566335376
            ]
        }
    ]
}{
    "goal": {
        "global_pose": {
            "orientation": {
                "w": 0.7047431468963623,
                "x": -0.7094548344612122,
                "y": 0.0024358443915843964,
                "z": -0.0022348060738295317
            },
            "position": {
                "x": 0.6094750761985779,
                "y": 0.3671506643295288,
                "z": 0.19426114857196808
            }
        },
        "name": "move_to_magneteinheit_A"
    },
    "id": "TRRT_move_to_magneteinheit_A_26",
    "joint_names": [
        "shoulder_pan_joint",
        "shoulder_lift_joint",
        "elbow_joint",
        "wrist_1_joint",
        "wrist_2_joint",
        "wrist_3_joint"
    ],
    "metrics": {
        "cart_traj_len": 1.3349227859757513,
        "distance_elbow_joint": 0.6721084203835175,
        "distance_shoulder_lift_joint": 0.7496420933403798,
        "distance_shoulder_pan_joint": 1.2413789588999162,
        "distance_wrist_1_joint": 0.7367814996997833,
        "distance_wrist_2_joint": 1.4504186513569917,
        "distance_wrist_3_joint": 4.243398276625486,
        "smoothness": 0.051808045379261335,
        "time": 0.058046628,
        "traj_len": 3.0155808562043354,
        "weighted_distance": 4.4460909352614255
    },
    "planner": "TRRT",
    "start": {
        "state": {
            "elbow_joint": 1.919643534880228,
            "shoulder_lift_joint": -1.8972525353963687,
            "shoulder_pan_joint": -1.1188672234189438,
            "wrist_1_joint": -1.5931878212786155,
            "wrist_2_joint": 1.5706036197970081,
            "wrist_3_joint": 1.118896926603594
        }
    },
    "waypoints": [
        {
            "positions": [
                -1.1188672234189438,
                -1.8972525353963687,
                1.919643534880228,
                -1.5931878212786155,
                1.5706036197970081,
                1.118896926603594
            ]
        },
        {
            "positions": [
                -1.082009525451202,
                -1.864251733157448,
                1.9045154004334928,
                -1.5627851286272787,
                1.5008177031560368,
                0.9238824016923524
            ]
        },
        {
            "positions": [
                -1.0451518274834604,
                -1.8312509309185272,
                1.8893872659867574,
                -1.5323824359759417,
                1.4310317865150655,
                0.7288678767811108
            ]
        },
        {
            "positions": [
                -1.0082941295157186,
                -1.7982501286796064,
                1.874259131540022,
                -1.501979743324605,
                1.361245869874094,
                0.5338533518698692
            ]
        },
        {
            "positions": [
                -0.971436431547977,
                -1.7652493264406854,
                1.8591309970932868,
                -1.4715770506732682,
                1.2914599532331226,
                0.33883882695862755
            ]
        },
        {
            "positions": [
                -0.9345787335802354,
                -1.7322485242017647,
                1.8440028626465514,
                -1.4411743580219314,
                1.2216740365921512,
                0.14382430204738594
            ]
        },
        {
            "positions": [
                -0.8977210356124936,
                -1.699247721962844,
                1.8288747281998161,
                -1.4107716653705946,
                1.1518881199511797,
                -0.05119022286385566
            ]
        },
        {
            "positions": [
                -0.8608633376447519,
                -1.6662469197239231,
                1.8137465937530808,
                -1.3803689727192576,
                1.0821022033102086,
                -0.24620474777509727
            ]
        },
        {
            "positions": [
                -0.8240056396770101,
                -1.6332461174850024,
                1.7986184593063455,
                -1.3499662800679209,
                1.012316286669237,
                -0.44121927268633887
            ]
        },
        {
            "positions": [
                -0.7871479417092684,
                -1.6002453152460814,
                1.78349032485961,
                -1.319563587416584,
                0.9425303700282656,
                -0.6362337975975805
            ]
        },
        {
            "positions": [
                -0.7502902437415268,
                -1.5672445130071608,
                1.7683621904128746,
                -1.289160894765247,
                0.8727444533872942,
                -0.8312483225088221
            ]
        },
        {
            "positions": [
                -0.713432545773785,
                -1.5342437107682398,
                1.7532340559661392,
                -1.2587582021139103,
                0.8029585367463228,
                -1.0262628474200637
            ]
        },
        {
            "positions": [
                -0.6765748478060434,
                -1.501242908529319,
                1.738105921519404,
                -1.2283555094625735,
                0.7331726201053514,
                -1.2212773723313053
            ]
        },
        {
            "positions": [
                -0.6397171498383016,
                -1.4682421062903983,
                1.7229777870726686,
                -1.1979528168112368,
                0.66338670346438,
                -1.416291897242547
            ]
        },
        {
            "positions": [
                -0.6028594518705599,
                -1.4352413040514775,
                1.7078496526259332,
                -1.1675501241599,
                0.5936007868234088,
                -1.6113064221537885
            ]
        },
        {
            "positions": [
                -0.5660017539028181,
                -1.4022405018125568,
                1.692721518179198,
                -1.137147431508563,
                0.5238148701824372,
                -1.80632094706503
            ]
        },
        {
            "positions": [
                -0.5291440559350765,
                -1.3692396995736358,
                1.6775933837324626,
                -1.1067447388572262,
                0.4540289535414659,
                -2.0013354719762715
            ]
        },
        {
            "positions": [
                -0.4922863579673348,
                -1.3362388973347152,
                1.6624652492857273,
                -1.0763420462058895,
                0.38424303690049455,
                -2.1963499968875135
            ]
        },
        {
            "positions": [
                -0.45542865999959303,
                -1.3032380950957942,
                1.647337114838992,
                -1.0459393535545525,
                0.314457120259523,
                -2.3913645217987547
            ]
        },
        {
            "positions": [
                -0.4185709620318514,
                -1.2702372928568737,
                1.6322089803922566,
                -1.0155366609032157,
                0.24467120361855188,
                -2.5863790467099967
            ]
        },
        {
            "positions": [
                -0.38171326406410966,
                -1.2372364906179527,
                1.6170808459455213,
                -0.9851339682518789,
                0.17488528697758032,
                -2.7813935716212383
            ]
        },
        {
            "positions": [
                -0.2556570141778392,
                -1.2148299784774617,
                1.7094672788077239,
                -0.9529520565836173,
                0.16121020734318942,
                -2.8671705162214014
            ]
        },
        {
            "positions": [
                -0.12960076429156875,
                -1.1924234663369708,
                1.8018537116699265,
                -0.9207701449153556,
                0.14753512770879854,
                -2.952947460821565
            ]
        },
        {
            "positions": [
                -0.0035445144052982935,
                -1.17001695419648,
                1.8942401445321293,
                -0.8885882332470938,
                0.13386004807440766,
                -3.0387244054217284
            ]
        },
        {
            "positions": [
                0.12251173548097213,
                -1.147610442055989,
                1.986626577394332,
                -0.8564063215788321,
                0.12018496844001675,
                -3.1245013500218914
            ]
        }
    ]
}