{
    "goal": {
        "global_pose": {
            "orientation": {
                "w": 0.7047431468963623,
                "x": -0.7094548344612122,
                "y": 0.0024358443915843964,
                "z": -0.0022348060738295317
            },
            "position": {
                "x": 0.6094750761985779,
                "y": 0.3671506643295288,
                "z": 0.19426114857196808
            }
        },
        "name": "move_to_magneteinheit_A"
    },
    "id": "TRRT_move_to_magneteinheit_A_71",
    "joint_names": [
        "shoulder_pan_joint",
        "shoulder_lift_joint",
        "elbow_joint",
        "wrist_1_joint",
        "wrist_2_joint",
        "wrist_3_joint"
    ],
    "metrics": {
        "cart_traj_len": 3.671397505993631,
        "distance_elbow_joint": 3.874458904328571,
        "distance_shoulder_lift_joint": 0.5349991920082957,
        "distance_shoulder_pan_joint": 3.441009318782398,
        "distance_wrist_1_joint": 0.913474020886805,
        "distance_wrist_2_joint": 2.7323805892683253,
        "distance_wrist_3_joint": 3.9368516051842826,
        "smoothness": 0.4344467860909343,
        "time": 0.075930731,
        "traj_len": 3.9285078121926498,
        "weighted_distance": 5.191602011998068
    },
    "planner": "TRRT",
    "start": {
        "state": {
            "elbow_joint": -1.919618573717145,
            "shoulder_lift_joint": -1.2443395971678275,
            "shoulder_pan_joint": 2.6996025300909787,
            "wrist_1_joint": -1.548550951253194,
            "wrist_2_joint": -1.5709469090946802,
            "wrist_3_joint": 0.4420197732051276
        }
    },
    "waypoints": [
        {
            "positions": [
                2.6996025300909787,
                -1.2443395971678275,
                -1.919618573717145,
                -1.548550951253194,
                -1.5709469090946802,
                0.4420197732051276
            ]
        },
        {
            "positions": [
                2.6136189812786688,
                -1.2503529631037833,
                -1.8176664752578333,
                -1.523487037856506,
                -1.5077682748845807,
                0.3329546841288007
            ]
        },
        {
            "positions": [
                2.527635432466359,
                -1.256366329039739,
                -1.7157143767985217,
                -1.498423124459818,
                -1.4445896406744811,
                0.22388959505247383
            ]
        },
        {
            "positions": [
                2.441651883654049,
                -1.2623796949756947,
                -1.61376227833921,
                -1.47335921106313,
                -1.3814110064643816,
                0.1148245059761469
            ]
        },
        {
            "positions": [
                2.3556683348417384,
                -1.2683930609116505,
                -1.5118101798798986,
                -1.448295297666442,
                -1.3182323722542821,
                0.005759416899820069
            ]
        },
        {
            "positions": [
                2.2696847860294285,
                -1.2744064268476063,
                -1.409858081420587,
                -1.423231384269754,
                -1.2550537380441826,
                -0.10330567217650682
            ]
        },
        {
            "positions": [
                2.1837012372171185,
                -1.280419792783562,
                -1.3079059829612754,
                -1.3981674708730658,
                -1.1918751038340831,
                -0.21237076125283377
            ]
        },
        {
            "positions": [
                2.0977176884048085,
                -1.2864331587195177,
                -1.2059538845019637,
                -1.373103557476378,
                -1.1286964696239836,
                -0.3214358503291606
            ]
        },
        {
            "positions": [
                2.0117341395924986,
                -1.2924465246554735,
                -1.104001786042652,
                -1.3480396440796898,
                -1.0655178354138841,
                -0.43050093940548745
            ]
        },
        {
            "positions": [
                1.9257505907801886,
                -1.2984598905914293,
                -1.0020496875833405,
                -1.322975730683002,
                -1.0023392012037846,
                -0.5395660284818142
            ]
        },
        {
            "positions": [
                1.8397670419678784,
                -1.304473256527385,
                -0.9000975891240288,
                -1.2979118172863138,
                -0.9391605669936851,
                -0.6486311175581412
            ]
        },
        {
            "positions": [
                1.7537834931555683,
                -1.310486622463341,
                -0.7981454906647172,
                -1.2728479038896259,
                -0.8759819327835855,
                -0.7576962066344681
            ]
        },
        {
            "positions": [
                1.6677999443432583,
                -1.3164999883992965,
                -0.6961933922054055,
                -1.2477839904929378,
                -0.812803298573486,
                -0.8667612957107951
            ]
        },
        {
            "positions": [
                1.581816395530948,
                -1.3225133543352523,
                -0.5942412937460939,
                -1.2227200770962496,
                -0.7496246643633865,
                -0.975826384787122
            ]
        },
        {
            "positions": [
                1.4958328467186381,
                -1.328526720271208,
                -0.4922891952867823,
                -1.1976561636995617,
                -0.686446030153287,
                -1.0848914738634488
            ]
        },
        {
            "positions": [
                1.4098492979063282,
                -1.334540086207164,
                -0.39033709682747086,
                -1.1725922503028736,
                -0.6232673959431876,
                -1.1939565629397755
            ]
        },
        {
            "positions": [
                1.3238657490940182,
                -1.3405534521431195,
                -0.28838499836815923,
                -1.1475283369061857,
                -0.5600887617330881,
                -1.3030216520161024
            ]
        },
        {
            "positions": [
                1.237882200281708,
                -1.3465668180790753,
                -0.1864328999088476,
                -1.1224644235094976,
                -0.4969101275229886,
                -1.4120867410924294
            ]
        },
        {
            "positions": [
                1.1518986514693983,
                -1.352580184015031,
                -0.08448080144953618,
                -1.0974005101128097,
                -0.43373149331288907,
                -1.521151830168756
            ]
        },
        {
            "positions": [
                1.065915102657088,
                -1.358593549950987,
                0.017471297009775455,
                -1.0723365967161216,
                -0.37055285910278957,
                -1.630216919245083
            ]
        },
        {
            "positions": [
                0.9799315538447781,
                -1.3646069158869425,
                0.11942339546908731,
                -1.0472726833194335,
                -0.30737422489269006,
                -1.73928200832141
            ]
        },
        {
            "positions": [
                0.893948005032468,
                -1.3706202818228983,
                0.22137549392839895,
                -1.0222087699227456,
                -0.24419559068259056,
                -1.848347097397737
            ]
        },
        {
            "positions": [
                0.807964456220158,
                -1.376633647758854,
                0.3233275923877106,
                -0.9971448565260574,
                -0.18101695647249083,
                -1.957412186474064
            ]
        },
        {
            "positions": [
                0.7219809074078478,
                -1.38264701369481,
                0.4252796908470222,
                -0.9720809431293694,
                -0.11783832226239133,
                -2.066477275550391
            ]
        },
        {
            "positions": [
                0.6359973585955379,
                -1.3886603796307657,
                0.5272317893063339,
                -0.9470170297326814,
                -0.05465968805229182,
                -2.175542364626718
            ]
        },
        {
            "positions": [
                0.5500138097832279,
                -1.3946737455667213,
                0.6291838877656455,
                -0.9219531163359934,
                0.008518946157807683,
                -2.2846074537030447
            ]
        },
        {
            "positions": [
                0.4640302609709175,
                -1.400687111502677,
                0.7311359862249571,
                -0.8968892029393053,
                0.07169758036790719,
                -2.3936725427793717
            ]
        },
        {
            "positions": [
                0.3780467121586075,
                -1.406700477438633,
                0.8330880846842688,
                -0.8718252895426173,
                0.1348762145780067,
                -2.502737631855698
            ]
        },
        {
            "positions": [
                0.29206316334629756,
                -1.4127138433745887,
                0.9350401831435804,
                -0.8467613761459293,
                0.1980548487881062,
                -2.611802720932025
            ]
        },
        {
            "positions": [
                0.2060796145339876,
                -1.4187272093105443,
                1.036992281602892,
                -0.8216974627492413,
                0.2612334829982057,
                -2.720867810008352
            ]
        },
        {
            "positions": [
                0.12009606572167764,
                -1.4247405752465,
                1.1389443800622032,
                -0.7966335493525533,
                0.324412117208305,
                -2.8299328990846786
            ]
        },
        {
            "positions": [
                0.034112516909367674,
                -1.430753941182456,
                1.2408964785215149,
                -0.7715696359558653,
                0.3875907514184047,
                -2.9389979881610055
            ]
        },
        {
            "positions": [
                -0.05187103190294229,
                -1.4367673071184117,
                1.3428485769808265,
                -0.7465057225591772,
                0.450769385628504,
                -3.0480630772373325
            ]
        },
        {
            "positions": [
                -0.1378545807152527,
                -1.4427806730543673,
                1.4448006754401381,
                -0.7214418091624891,
                0.5139480198386037,
                -3.1571281663136594
            ]
        },
        {
            "positions": [
                -0.22383812952756266,
                -1.448794038990323,
                1.5467527738994498,
                -0.6963778957658011,
                0.577126654048703,
                -3.2661932553899864
            ]
        },
        {
            "positions": [
                -0.3098216783398725,
                -1.454807404926279,
                1.6487048723587612,
                -0.6713139823691131,
                0.6403052882588027,
                -3.3752583444663133
            ]
        },
        {
            "positions": [
                -0.22350465626956317,
                -1.38990112807631,
                1.709931964009294,
                -0.6785613927696579,
                0.5360796098758344,
                -3.351343646963745
            ]
        },
        {
            "positions": [
                -0.13718763419925387,
                -1.3249948512263412,
                1.771159055659827,
                -0.6858088031702027,
                0.431853931492866,
                -3.3274289494611766
            ]
        },
        {
            "positions": [
                -0.05087061212894456,
                -1.2600885743763723,
                1.8323861473103595,
                -0.6930562135707475,
                0.3276282531098976,
                -3.3035142519586085
            ]
        },
        {
            "positions": [
                0.035446409941364776,
                -1.1951822975264035,
                1.8936132389608924,
                -0.7003036239712923,
                0.22340257472692926,
                -3.27959955445604
            ]
        },
        {
            "positions": [
                0.12176343201167404,
                -1.1302760206764346,
                1.9548403306114253,
                -0.7075510343718371,
                0.11917689634396088,
                -3.2556848569534718
            ]
        }
    ]
}{
    "goal": {
        "global_pose": {
            "orientation": {
                "w": 0.7047431468963623,
                "x": -0.7094548344612122,
                "y": 0.0024358443915843964,
                "z": -0.0022348060738295317
            },
            "position": {
                "x": 0.6094750761985779,
                "y": 0.3671506643295288,
                "z": 0.19426114857196808
            }
        },
        "name": "move_to_magneteinheit_A"
    },
    "id": "TRRT_move_to_magneteinheit_A_71",
    "joint_names": [
        "shoulder_pan_joint",
        "shoulder_lift_joint",
        "elbow_joint",
        "wrist_1_joint",
        "wrist_2_joint",
        "wrist_3_joint"
    ],
    "metrics": {
        "cart_traj_len": 1.1960811434270544,
        "distance_elbow_joint": 0.09050340284806113,
        "distance_shoulder_lift_joint": 0.756879427539568,
        "distance_shoulder_pan_joint": 1.2430655216441473,
        "distance_wrist_1_joint": 0.903130454400409,
        "distance_wrist_2_joint": 1.4306483706344006,
        "distance_wrist_3_joint": 4.317093261556272,
        "smoothness": 0.11463167611038788,
        "time": 0.45106916,
        "traj_len": 2.9565724138980354,
        "weighted_distance": 4.439514138593345
    },
    "planner": "TRRT",
    "start": {
        "state": {
            "elbow_joint": 1.919643534880228,
            "shoulder_lift_joint": -1.8972525353963687,
            "shoulder_pan_joint": -1.1188672234189438,
            "wrist_1_joint": -1.5931878212786155,
            "wrist_2_joint": 1.5706036197970081,
            "wrist_3_joint": 1.118896926603594
        }
    },
    "waypoints": [
        {
            "positions": [
                -1.1188672234189438,
                -1.8972525353963687,
                1.919643534880228,
                -1.5931878212786155,
                1.5706036197970081,
                1.118896926603594
            ]
        },
        {
            "positions": [
                -1.0607734344669295,
                -1.8628883594505246,
                1.923079729228377,
                -1.5523239597345806,
                1.504021844280402,
                0.9299548273386793
            ]
        },
        {
            "positions": [
                -1.002679645514915,
                -1.8285241835046802,
                1.926515923576526,
                -1.5114600981905455,
                1.437440068763796,
                0.7410127280737645
            ]
        },
        {
            "positions": [
                -0.9445858565629006,
                -1.794160007558836,
                1.9299521179246746,
                -1.4705962366465106,
                1.37085829324719,
                0.5520706288088497
            ]
        },
        {
            "positions": [
                -0.8864920676108863,
                -1.7597958316129918,
                1.9333883122728235,
                -1.4297323751024757,
                1.304276517730584,
                0.36312852954393504
            ]
        },
        {
            "positions": [
                -0.8283982786588718,
                -1.7254316556671474,
                1.9368245066209724,
                -1.3888685135584407,
                1.237694742213978,
                0.17418643027902025
            ]
        },
        {
            "positions": [
                -0.7703044897068574,
                -1.6910674797213032,
                1.9402607009691213,
                -1.3480046520144058,
                1.1711129666973719,
                -0.014755668985894532
            ]
        },
        {
            "positions": [
                -0.712210700754843,
                -1.656703303775459,
                1.9436968953172702,
                -1.307140790470371,
                1.1045311911807658,
                -0.2036977682508092
            ]
        },
        {
            "positions": [
                -0.6541169118028286,
                -1.6223391278296146,
                1.9471330896654189,
                -1.2662769289263358,
                1.0379494156641598,
                -0.3926398675157239
            ]
        },
        {
            "positions": [
                -0.5960231228508142,
                -1.5879749518837705,
                1.9505692840135678,
                -1.225413067382301,
                0.9713676401475536,
                -0.5815819667806388
            ]
        },
        {
            "positions": [
                -0.5379293338987998,
                -1.5536107759379263,
                1.9540054783617167,
                -1.184549205838266,
                0.9047858646309476,
                -0.7705240660455535
            ]
        },
        {
            "positions": [
                -0.47983554494678526,
                -1.519246599992082,
                1.9574416727098656,
                -1.143685344294231,
                0.8382040891143415,
                -0.9594661653104686
            ]
        },
        {
            "positions": [
                -0.42174175599477093,
                -1.4848824240462377,
                1.9608778670580145,
                -1.1028214827501963,
                0.7716223135977355,
                -1.148408264575383
            ]
        },
        {
            "positions": [
                -0.3636479670427565,
                -1.4505182481003933,
                1.9643140614061634,
                -1.0619576212061612,
                0.7050405380811293,
                -1.337350363840298
            ]
        },
        {
            "positions": [
                -0.30555417809074215,
                -1.4161540721545491,
                1.967750255754312,
                -1.0210937596621263,
                0.6384587625645234,
                -1.5262924631052124
            ]
        },
        {
            "positions": [
                -0.2474603891387277,
                -1.381789896208705,
                1.971186450102461,
                -0.9802298981180914,
                0.5718769870479172,
                -1.7152345623701273
            ]
        },
        {
            "positions": [
                -0.18936660018671336,
                -1.3474257202628608,
                1.9746226444506099,
                -0.9393660365740564,
                0.5052952115313114,
                -1.9041766616350417
            ]
        },
        {
            "positions": [
                -0.13127281123469892,
                -1.3130615443170166,
                1.9780588387987588,
                -0.8985021750300214,
                0.43871343601470514,
                -2.093118760899957
            ]
        },
        {
            "positions": [
                -0.07317902228268447,
                -1.2786973683711722,
                1.9814950331469077,
                -0.8576383134859865,
                0.3721316604980991,
                -2.2820608601648713
            ]
        },
        {
            "positions": [
                -0.015085233330670134,
                -1.2443331924253278,
                1.9849312274950563,
                -0.8167744519419515,
                0.30554988498149305,
                -2.4710029594297866
            ]
        },
        {
            "positions": [
                0.0430085556213442,
                -1.2099690164794836,
                1.9883674218432053,
                -0.7759105903979167,
                0.238968109464887,
                -2.659945058694701
            ]
        },
        {
            "positions": [
                0.10110234457335877,
                -1.1756048405336395,
                1.9918036161913542,
                -0.7350467288538817,
                0.17238633394828107,
                -2.8488871579596156
            ]
        },
        {
            "positions": [
                0.11265032139928116,
                -1.15798897419522,
                1.9826319554228866,
                -0.7575414098417192,
                0.1561707915554444,
                -3.0235417464561465
            ]
        },
        {
            "positions": [
                0.12419829822520355,
                -1.1403731078568007,
                1.973460294654419,
                -0.7800360908295568,
                0.13995524916260768,
                -3.198196334952677
            ]
        }
    ]
}