{
    "goal": {
        "global_pose": {
            "orientation": {
                "w": 0.5084816217422485,
                "x": -0.49083608388900757,
                "y": 0.5182115435600281,
                "z": -0.4816462993621826
            },
            "position": {
                "x": 0.5540239810943604,
                "y": 0.030875300988554955,
                "z": 0.16403168439865112
            }
        },
        "name": "move_to_storage_A"
    },
    "id": "TRRT_move_to_storage_A_93",
    "joint_names": [
        "shoulder_pan_joint",
        "shoulder_lift_joint",
        "elbow_joint",
        "wrist_1_joint",
        "wrist_2_joint",
        "wrist_3_joint"
    ],
    "metrics": {
        "cart_traj_len": 0.35352388900375414,
        "distance_elbow_joint": 0.4517031389095436,
        "distance_shoulder_lift_joint": 0.2326607928437201,
        "distance_shoulder_pan_joint": 0.46428142323588645,
        "distance_wrist_1_joint": 0.2501032734060572,
        "distance_wrist_2_joint": 1.0905893359823446,
        "distance_wrist_3_joint": 0.09408890215251287,
        "smoothness": 1.1102230263833737e-15,
        "time": 0.038103687,
        "traj_len": 1.6073042233908503,
        "weighted_distance": 2.0278799965045993
    },
    "planner": "TRRT",
    "start": {
        "state": {
            "elbow_joint": 1.9715477243005601,
            "shoulder_lift_joint": -1.1394853015351272,
            "shoulder_pan_joint": 0.12281154014795169,
            "wrist_1_joint": -0.7804696478968182,
            "wrist_2_joint": 0.12958648046900423,
            "wrist_3_joint": -3.192491284697111
        }
    },
    "waypoints": [
        {
            "positions": [
                0.12281154014795169,
                -1.1394853015351272,
                1.9715477243005601,
                -0.7804696478968182,
                0.12958648046900423,
                -3.192491284697111
            ]
        },
        {
            "positions": [
                0.05648562254282506,
                -1.1727225576556586,
                2.0360767441447805,
                -0.8161986869548263,
                0.28538495703791056,
                -3.1790500129610377
            ]
        },
        {
            "positions": [
                -0.009840295062301566,
                -1.20595981377619,
                2.1006057639890012,
                -0.8519277260128345,
                0.44118343360681694,
                -3.1656087412249647
            ]
        },
        {
            "positions": [
                -0.0761662126674282,
                -1.2391970698967214,
                2.1651347838332216,
                -0.8876567650708427,
                0.5969819101757233,
                -3.1521674694888913
            ]
        },
        {
            "positions": [
                -0.1424921302725548,
                -1.2724343260172528,
                2.2296638036774423,
                -0.9233858041288509,
                0.7527803867446297,
                -3.1387261977528182
            ]
        },
        {
            "positions": [
                -0.2088180478776815,
                -1.3056715821377844,
                2.2941928235216626,
                -0.959114843186859,
                0.9085788633135361,
                -3.125284926016745
            ]
        },
        {
            "positions": [
                -0.27514396548280806,
                -1.3389088382583159,
                2.358721843365883,
                -0.9948438822448672,
                1.0643773398824425,
                -3.1118436542806718
            ]
        },
        {
            "positions": [
                -0.34146988308793474,
                -1.3721460943788473,
                2.4232508632101037,
                -1.0305729213028754,
                1.220175816451349,
                -3.0984023825445983
            ]
        }
    ]
}