{
    "goal": {
        "global_pose": {
            "orientation": {
                "w": 0.5084816217422485,
                "x": -0.49083608388900757,
                "y": 0.5182115435600281,
                "z": -0.4816462993621826
            },
            "position": {
                "x": 0.5540239810943604,
                "y": 0.030875300988554955,
                "z": 0.16403168439865112
            }
        },
        "name": "move_to_storage_A"
    },
    "id": "TRRT_move_to_storage_A_110",
    "joint_names": [
        "shoulder_pan_joint",
        "shoulder_lift_joint",
        "elbow_joint",
        "wrist_1_joint",
        "wrist_2_joint",
        "wrist_3_joint"
    ],
    "metrics": {
        "cart_traj_len": 0.35254241239593265,
        "distance_elbow_joint": 0.44915760199375176,
        "distance_shoulder_lift_joint": 0.233575220630154,
        "distance_shoulder_pan_joint": 0.4615584962173643,
        "distance_wrist_1_joint": 0.23992909025701026,
        "distance_wrist_2_joint": 1.0949749332746928,
        "distance_wrist_3_joint": 0.09095911937902068,
        "smoothness": 1.5543122343307022e-15,
        "time": 0.014904254,
        "traj_len": 1.6031701287611348,
        "weighted_distance": 2.0216272465619713
    },
    "planner": "TRRT",
    "start": {
        "state": {
            "elbow_joint": 1.9715477243005601,
            "shoulder_lift_joint": -1.1394853015351272,
            "shoulder_pan_joint": 0.12281154014795169,
            "wrist_1_joint": -0.7804696478968182,
            "wrist_2_joint": 0.12958648046900423,
            "wrist_3_joint": -3.192491284697111
        }
    },
    "waypoints": [
        {
            "positions": [
                0.12281154014795169,
                -1.1394853015351272,
                1.9715477243005601,
                -0.7804696478968182,
                0.12958648046900423,
                -3.192491284697111
            ]
        },
        {
            "positions": [
                0.05687461211689965,
                -1.1728531901965777,
                2.035713096013953,
                -0.8147452322192482,
                0.28601147093681745,
                -3.1794971247858226
            ]
        },
        {
            "positions": [
                -0.009062315914152394,
                -1.2062210788580283,
                2.0998784677273465,
                -0.8490208165416783,
                0.4424364614046307,
                -3.166502964874534
            ]
        },
        {
            "positions": [
                -0.07499924394520442,
                -1.239588967519479,
                2.1640438394407395,
                -0.8832964008641082,
                0.598861451872444,
                -3.1535088049632454
            ]
        },
        {
            "positions": [
                -0.14093617197625646,
                -1.2729568561809295,
                2.2282092111541325,
                -0.9175719851865383,
                0.7552864423402572,
                -3.1405146450519563
            ]
        },
        {
            "positions": [
                -0.20687310000730852,
                -1.30632474484238,
                2.2923745828675255,
                -0.9518475695089683,
                0.9117114328080705,
                -3.1275204851406677
            ]
        },
        {
            "positions": [
                -0.2728100280383605,
                -1.3396926335038306,
                2.356539954580919,
                -0.9861231538313984,
                1.0681364232758837,
                -3.114526325229379
            ]
        },
        {
            "positions": [
                -0.3387469560694126,
                -1.3730605221652812,
                2.420705326294312,
                -1.0203987381538284,
                1.2245614137436969,
                -3.1015321653180905
            ]
        }
    ]
}