{
    "goal": {
        "global_pose": {
            "orientation": {
                "w": 0.7047431468963623,
                "x": -0.7094548344612122,
                "y": 0.0024358443915843964,
                "z": -0.0022348060738295317
            },
            "position": {
                "x": 0.6094750761985779,
                "y": 0.3671506643295288,
                "z": 0.19426114857196808
            }
        },
        "name": "move_to_magneteinheit_A"
    },
    "id": "TRRT_move_to_magneteinheit_A_73",
    "joint_names": [
        "shoulder_pan_joint",
        "shoulder_lift_joint",
        "elbow_joint",
        "wrist_1_joint",
        "wrist_2_joint",
        "wrist_3_joint"
    ],
    "metrics": {
        "cart_traj_len": 3.3108332051138523,
        "distance_elbow_joint": 3.9353599004017354,
        "distance_shoulder_lift_joint": 0.5192378675358843,
        "distance_shoulder_pan_joint": 2.970506628136544,
        "distance_wrist_1_joint": 3.5570760906757113,
        "distance_wrist_2_joint": 2.949715792962132,
        "distance_wrist_3_joint": 1.0401317427181653,
        "smoothness": 0.23291219962031723,
        "time": 0.105516556,
        "traj_len": 3.869370494334986,
        "weighted_distance": 4.853770018398519
    },
    "planner": "TRRT",
    "start": {
        "state": {
            "elbow_joint": -1.919618573717145,
            "shoulder_lift_joint": -1.2443395971678275,
            "shoulder_pan_joint": 2.6996025300909787,
            "wrist_1_joint": -1.548550951253194,
            "wrist_2_joint": -1.5709469090946802,
            "wrist_3_joint": 0.4420197732051276
        }
    },
    "waypoints": [
        {
            "positions": [
                2.6996025300909787,
                -1.2443395971678275,
                -1.919618573717145,
                -1.548550951253194,
                -1.5709469090946802,
                0.4420197732051276
            ]
        },
        {
            "positions": [
                2.606733605176709,
                -1.2455005641338384,
                -1.809346601350194,
                -1.4647541574678324,
                -1.4960159937872641,
                0.421678202989428
            ]
        },
        {
            "positions": [
                2.5138646802624396,
                -1.2466615310998492,
                -1.699074628983243,
                -1.3809573636824708,
                -1.421085078479848,
                0.4013366327737284
            ]
        },
        {
            "positions": [
                2.42099575534817,
                -1.2478224980658603,
                -1.588802656616292,
                -1.297160569897109,
                -1.346154163172432,
                0.3809950625580288
            ]
        },
        {
            "positions": [
                2.3281268304339005,
                -1.2489834650318712,
                -1.478530684249341,
                -1.2133637761117473,
                -1.271223247865016,
                0.36065349234232913
            ]
        },
        {
            "positions": [
                2.2352579055196307,
                -1.250144431997882,
                -1.3682587118823901,
                -1.1295669823263856,
                -1.1962923325576,
                0.34031192212662953
            ]
        },
        {
            "positions": [
                2.1423889806053613,
                -1.251305398963893,
                -1.257986739515439,
                -1.045770188541024,
                -1.121361417250184,
                0.31997035191092993
            ]
        },
        {
            "positions": [
                2.0495200556910915,
                -1.2524663659299038,
                -1.147714767148488,
                -0.9619733947556623,
                -1.046430501942768,
                0.29962878169523033
            ]
        },
        {
            "positions": [
                1.9566511307768222,
                -1.2536273328959147,
                -1.037442794781537,
                -0.8781766009703006,
                -0.971499586635352,
                0.27928721147953073
            ]
        },
        {
            "positions": [
                1.8637822058625524,
                -1.2547882998619257,
                -0.9271708224145861,
                -0.794379807184939,
                -0.8965686713279359,
                0.25894564126383113
            ]
        },
        {
            "positions": [
                1.7709132809482828,
                -1.2559492668279366,
                -0.8168988500476353,
                -0.7105830133995773,
                -0.8216377560205199,
                0.2386040710481315
            ]
        },
        {
            "positions": [
                1.6780443560340133,
                -1.2571102337939475,
                -0.7066268776806841,
                -0.6267862196142155,
                -0.7467068407131039,
                0.2182625008324319
            ]
        },
        {
            "positions": [
                1.5851754311197437,
                -1.2582712007599584,
                -0.5963549053137331,
                -0.5429894258288539,
                -0.6717759254056879,
                0.1979209306167323
            ]
        },
        {
            "positions": [
                1.4923065062054741,
                -1.2594321677259692,
                -0.4860829329467822,
                -0.45919263204349225,
                -0.5968450100982718,
                0.17757936040103267
            ]
        },
        {
            "positions": [
                1.3994375812912045,
                -1.2605931346919803,
                -0.3758109605798312,
                -0.3753958382581306,
                -0.5219140947908558,
                0.15723779018533307
            ]
        },
        {
            "positions": [
                1.3065686563769348,
                -1.2617541016579912,
                -0.26553898821288024,
                -0.29159904447276874,
                -0.4469831794834396,
                0.13689621996963347
            ]
        },
        {
            "positions": [
                1.2136997314626654,
                -1.262915068624002,
                -0.15526701584592928,
                -0.2078022506874071,
                -0.3720522641760238,
                0.11655464975393387
            ]
        },
        {
            "positions": [
                1.1208308065483956,
                -1.264076035590013,
                -0.04499504347897809,
                -0.12400545690204545,
                -0.2971213488686075,
                0.09621307953823421
            ]
        },
        {
            "positions": [
                1.027961881634126,
                -1.2652370025560238,
                0.06527692888797265,
                -0.04020866311668381,
                -0.22219043356119172,
                0.07587150932253467
            ]
        },
        {
            "positions": [
                0.9350929567198565,
                -1.2663979695220349,
                0.17554890125492384,
                0.04358813066867806,
                -0.14725951825377548,
                0.05552993910683501
            ]
        },
        {
            "positions": [
                0.8422240318055869,
                -1.2675589364880457,
                0.28582087362187436,
                0.12738492445403948,
                -0.07232860294635968,
                0.03518836889113541
            ]
        },
        {
            "positions": [
                0.7493551068913173,
                -1.2687199034540566,
                0.39609284598882577,
                0.21118171823940135,
                0.002602312361056569,
                0.014846798675435813
            ]
        },
        {
            "positions": [
                0.6564861819770478,
                -1.2698808704200675,
                0.5063648183557767,
                0.294978512024763,
                0.07753322766847237,
                -0.0054947715402637876
            ]
        },
        {
            "positions": [
                0.563617257062778,
                -1.2710418373860783,
                0.6166367907227277,
                0.37877530581012464,
                0.15246414297588862,
                -0.025836341755963388
            ]
        },
        {
            "positions": [
                0.47074833214850864,
                -1.2722028043520892,
                0.7269087630896787,
                0.4625720995954863,
                0.22739505828330442,
                -0.04617791197166299
            ]
        },
        {
            "positions": [
                0.37787940723423885,
                -1.2733637713181003,
                0.8371807354566296,
                0.5463688933808482,
                0.30232597359072066,
                -0.06651948218736264
            ]
        },
        {
            "positions": [
                0.2850104823199695,
                -1.2745247382841112,
                0.9474527078235806,
                0.6301656871662096,
                0.37725688889813647,
                -0.08686105240306224
            ]
        },
        {
            "positions": [
                0.19214155740569971,
                -1.275685705250122,
                1.0577246801905313,
                0.7139624809515717,
                0.4521878042055526,
                -0.10720262261876183
            ]
        },
        {
            "positions": [
                0.127867932907373,
                -1.2643377767398705,
                1.1457878971521758,
                0.7920465220649379,
                0.5110360045649378,
                -0.1298601688303625
            ]
        },
        {
            "positions": [
                0.06359430840904629,
                -1.2529898482296187,
                1.2338511141138204,
                0.870130563178304,
                0.5698842049243229,
                -0.15251771504196315
            ]
        },
        {
            "positions": [
                -0.0006793160892804573,
                -1.241641919719367,
                1.3219143310754649,
                0.9482146042916701,
                0.6287324052837081,
                -0.17517526125356384
            ]
        },
        {
            "positions": [
                -0.012873751190067237,
                -1.185591962187027,
                1.3552764864698346,
                1.0987468491738668,
                0.5602903664395268,
                -0.20432823464577288
            ]
        },
        {
            "positions": [
                -0.025068186290854017,
                -1.1295420046546871,
                1.3886386418642043,
                1.2492790940560634,
                0.4918483275953455,
                -0.2334812080379819
            ]
        },
        {
            "positions": [
                -0.0372626213916408,
                -1.073492047122347,
                1.422000797258574,
                1.39981133893826,
                0.4234062887511642,
                -0.2626341814301909
            ]
        },
        {
            "positions": [
                -0.04945705649242758,
                -1.017442089590007,
                1.4553629526529435,
                1.5503435838204567,
                0.35496424990698294,
                -0.2917871548223999
            ]
        },
        {
            "positions": [
                -0.06165149159321436,
                -0.9613921320576669,
                1.4887251080473132,
                1.7008758287026533,
                0.28652221106280157,
                -0.320940128214609
            ]
        },
        {
            "positions": [
                -0.07384592669400114,
                -0.905342174525327,
                1.5220872634416829,
                1.85140807358485,
                0.2180801722186203,
                -0.350093101606818
            ]
        },
        {
            "positions": [
                -0.024581383856110584,
                -0.8759551173431283,
                1.64550077925241,
                1.8906873400442672,
                0.13323411083895662,
                -0.2880883846302631
            ]
        },
        {
            "positions": [
                0.024683158981779973,
                -0.8465680601609296,
                1.7689142950631367,
                1.9299666065036842,
                0.048388049459292926,
                -0.22608366765370816
            ]
        },
        {
            "positions": [
                0.07394770181967053,
                -0.817181002978731,
                1.8923278108738637,
                1.9692458729631013,
                -0.03645801192037079,
                -0.16407895067715322
            ]
        },
        {
            "positions": [
                0.1232122446575611,
                -0.7877939457965323,
                2.0157413266845907,
                2.0085251394225185,
                -0.12130407330003443,
                -0.10207423370059832
            ]
        }
    ]
}{
    "goal": {
        "global_pose": {
            "orientation": {
                "w": 0.7047431468963623,
                "x": -0.7094548344612122,
                "y": 0.0024358443915843964,
                "z": -0.0022348060738295317
            },
            "position": {
                "x": 0.6094750761985779,
                "y": 0.3671506643295288,
                "z": 0.19426114857196808
            }
        },
        "name": "move_to_magneteinheit_A"
    },
    "id": "TRRT_move_to_magneteinheit_A_73",
    "joint_names": [
        "shoulder_pan_joint",
        "shoulder_lift_joint",
        "elbow_joint",
        "wrist_1_joint",
        "wrist_2_joint",
        "wrist_3_joint"
    ],
    "metrics": {
        "cart_traj_len": 1.221754365904478,
        "distance_elbow_joint": 0.07518349147244763,
        "distance_shoulder_lift_joint": 0.7638420484880848,
        "distance_shoulder_pan_joint": 1.241899380331796,
        "distance_wrist_1_joint": 0.8642086763186608,
        "distance_wrist_2_joint": 1.4396230778332473,
        "distance_wrist_3_joint": 4.351193407042584,
        "smoothness": 0.0028723744371115596,
        "time": 1.0792423070000001,
        "traj_len": 2.955664067766637,
        "weighted_distance": 4.443216025552201
    },
    "planner": "TRRT",
    "start": {
        "state": {
            "elbow_joint": 1.919643534880228,
            "shoulder_lift_joint": -1.8972525353963687,
            "shoulder_pan_joint": -1.1188672234189438,
            "wrist_1_joint": -1.5931878212786155,
            "wrist_2_joint": 1.5706036197970081,
            "wrist_3_joint": 1.118896926603594
        }
    },
    "waypoints": [
        {
            "positions": [
                -1.1188672234189438,
                -1.8972525353963687,
                1.919643534880228,
                -1.5931878212786155,
                1.5706036197970081,
                1.118896926603594
            ]
        },
        {
            "positions": [
                -1.0658938696423719,
                -1.8642517513230545,
                1.9188494556655815,
                -1.5548438268417382,
                1.5089022528095484,
                0.9248663102545689
            ]
        },
        {
            "positions": [
                -1.0129205158657997,
                -1.8312509672497406,
                1.9180553764509347,
                -1.5164998324048609,
                1.4472008858220884,
                0.7308356939055437
            ]
        },
        {
            "positions": [
                -0.9599471620892277,
                -1.7982501831764264,
                1.9172612972362881,
                -1.4781558379679836,
                1.3854995188346284,
                0.5368050775565186
            ]
        },
        {
            "positions": [
                -0.9069738083126555,
                -1.7652493991031122,
                1.9164672180216415,
                -1.439811843531106,
                1.3237981518471686,
                0.34277446120749344
            ]
        },
        {
            "positions": [
                -0.8540004545360835,
                -1.732248615029798,
                1.9156731388069947,
                -1.4014678490942287,
                1.2620967848597089,
                0.14874384485846837
            ]
        },
        {
            "positions": [
                -0.8010271007595114,
                -1.699247830956484,
                1.9148790595923482,
                -1.3631238546573514,
                1.200395417872249,
                -0.04528677149055671
            ]
        },
        {
            "positions": [
                -0.7480537469829394,
                -1.6662470468831698,
                1.9140849803777016,
                -1.3247798602204741,
                1.138694050884789,
                -0.239317387839582
            ]
        },
        {
            "positions": [
                -0.6950803932063672,
                -1.6332462628098556,
                1.9132909011630548,
                -1.2864358657835968,
                1.0769926838973292,
                -0.4333480041886071
            ]
        },
        {
            "positions": [
                -0.6421070394297952,
                -1.6002454787365414,
                1.9124968219484082,
                -1.2480918713467193,
                1.0152913169098694,
                -0.6273786205376324
            ]
        },
        {
            "positions": [
                -0.5891336856532231,
                -1.5672446946632275,
                1.9117027427337616,
                -1.2097478769098422,
                0.9535899499224094,
                -0.8214092368866572
            ]
        },
        {
            "positions": [
                -0.536160331876651,
                -1.5342439105899133,
                1.9109086635191148,
                -1.1714038824729647,
                0.8918885829349495,
                -1.0154398532356825
            ]
        },
        {
            "positions": [
                -0.48318697810007905,
                -1.501243126516599,
                1.9101145843044682,
                -1.1330598880360874,
                0.8301872159474897,
                -1.2094704695847074
            ]
        },
        {
            "positions": [
                -0.43021362432350685,
                -1.4682423424432849,
                1.9093205050898217,
                -1.09471589359921,
                0.7684858489600298,
                -1.4035010859337331
            ]
        },
        {
            "positions": [
                -0.37724027054693476,
                -1.435241558369971,
                1.908526425875175,
                -1.0563718991623328,
                0.7067844819725699,
                -1.597531702282758
            ]
        },
        {
            "positions": [
                -0.3242669167703628,
                -1.4022407742966567,
                1.9077323466605283,
                -1.0180279047254555,
                0.6450831149851102,
                -1.7915623186317828
            ]
        },
        {
            "positions": [
                -0.2712935629937906,
                -1.3692399902233428,
                1.9069382674458817,
                -0.979683910288578,
                0.5833817479976502,
                -1.9855929349808081
            ]
        },
        {
            "positions": [
                -0.21832020921721862,
                -1.3362392061500286,
                1.906144188231235,
                -0.9413399158517007,
                0.5216803810101904,
                -2.1796235513298337
            ]
        },
        {
            "positions": [
                -0.16534685544064642,
                -1.3032384220767144,
                1.9053501090165883,
                -0.9029959214148233,
                0.45997901402273045,
                -2.3736541676788585
            ]
        },
        {
            "positions": [
                -0.11237350166407434,
                -1.2702376380034002,
                1.9045560298019417,
                -0.864651926977946,
                0.39827764703527047,
                -2.5676847840278834
            ]
        },
        {
            "positions": [
                -0.059400147887502364,
                -1.237236853930086,
                1.9037619505872951,
                -0.8263079325410687,
                0.3365762800478107,
                -2.761715400376908
            ]
        },
        {
            "positions": [
                -0.006426794110930167,
                -1.2042360698567718,
                1.9029678713726483,
                -0.7879639381041913,
                0.2748749130603507,
                -2.955746016725934
            ]
        },
        {
            "positions": [
                0.0465465596656419,
                -1.1712352857834578,
                1.9021737921580018,
                -0.749619943667314,
                0.2131735460728909,
                -3.1497766330749593
            ]
        },
        {
            "positions": [
                0.12303215691285223,
                -1.133410486908284,
                1.959887540908223,
                -0.7289791449599546,
                0.13098054196376088,
                -3.2322964804389893
            ]
        }
    ]
}