{
    "goal": {
        "global_pose": {
            "orientation": {
                "w": 0.5084816217422485,
                "x": -0.49083608388900757,
                "y": 0.5182115435600281,
                "z": -0.4816462993621826
            },
            "position": {
                "x": 0.5540239810943604,
                "y": 0.030875300988554955,
                "z": 0.16403168439865112
            }
        },
        "name": "move_to_storage_A"
    },
    "id": "TRRT_move_to_storage_A_55",
    "joint_names": [
        "shoulder_pan_joint",
        "shoulder_lift_joint",
        "elbow_joint",
        "wrist_1_joint",
        "wrist_2_joint",
        "wrist_3_joint"
    ],
    "metrics": {
        "cart_traj_len": 0.3527927845676975,
        "distance_elbow_joint": 0.4489877222158891,
        "distance_shoulder_lift_joint": 0.23260143580734427,
        "distance_shoulder_pan_joint": 0.46222615322310423,
        "distance_wrist_1_joint": 0.24054207744236245,
        "distance_wrist_2_joint": 1.0934820420894096,
        "distance_wrist_3_joint": 0.09252025737185354,
        "smoothness": 0.0,
        "time": 0.024179100000000002,
        "traj_len": 1.6032341339149323,
        "weighted_distance": 2.02223250948684
    },
    "planner": "TRRT",
    "start": {
        "state": {
            "elbow_joint": 1.9715477243005601,
            "shoulder_lift_joint": -1.1394853015351272,
            "shoulder_pan_joint": 0.12281154014795169,
            "wrist_1_joint": -0.7804696478968182,
            "wrist_2_joint": 0.12958648046900423,
            "wrist_3_joint": -3.192491284697111
        }
    },
    "waypoints": [
        {
            "positions": [
                0.12281154014795169,
                -1.1394853015351272,
                1.9715477243005601,
                -0.7804696478968182,
                0.12958648046900423,
                -3.192491284697111
            ]
        },
        {
            "positions": [
                0.05677923254465109,
                -1.1727140780790335,
                2.0356888274742584,
                -0.8148328018171557,
                0.2857982007674913,
                -3.179274105072561
            ]
        },
        {
            "positions": [
                -0.009253075058649515,
                -1.2059428546229398,
                2.099829930647957,
                -0.8491959557374932,
                0.44200992106597836,
                -3.16605692544801
            ]
        },
        {
            "positions": [
                -0.0752853826619501,
                -1.2391716311668461,
                2.1639710338216553,
                -0.8835591096578306,
                0.5982216413644654,
                -3.1528397458234596
            ]
        },
        {
            "positions": [
                -0.1413176902652507,
                -1.2724004077107525,
                2.228112136995354,
                -0.9179222635781681,
                0.7544333616629525,
                -3.1396225661989092
            ]
        },
        {
            "positions": [
                -0.20734999786855135,
                -1.3056291842546588,
                2.2922532401690523,
                -0.9522854174985056,
                0.9106450819614397,
                -3.126405386574359
            ]
        },
        {
            "positions": [
                -0.2733823054718519,
                -1.3388579607985651,
                2.3563943433427506,
                -0.9866485714188431,
                1.0668568022599265,
                -3.113188206949808
            ]
        },
        {
            "positions": [
                -0.3394146130751525,
                -1.3720867373424714,
                2.4205354465164493,
                -1.0210117253391806,
                1.2230685225584137,
                -3.0999710273252576
            ]
        }
    ]
}