{
    "goal": {
        "global_pose": {
            "orientation": {
                "w": 0.7047431468963623,
                "x": -0.7094548344612122,
                "y": 0.0024358443915843964,
                "z": -0.0022348060738295317
            },
            "position": {
                "x": 0.6094750761985779,
                "y": 0.3671506643295288,
                "z": 0.19426114857196808
            }
        },
        "name": "move_to_magneteinheit_A"
    },
    "id": "TRRT_move_to_magneteinheit_A_121",
    "joint_names": [
        "shoulder_pan_joint",
        "shoulder_lift_joint",
        "elbow_joint",
        "wrist_1_joint",
        "wrist_2_joint",
        "wrist_3_joint"
    ],
    "metrics": {
        "cart_traj_len": 1.3553330703194912,
        "distance_elbow_joint": 0.5719096169476676,
        "distance_shoulder_lift_joint": 0.7499065681120831,
        "distance_shoulder_pan_joint": 1.2418982133508376,
        "distance_wrist_1_joint": 0.7463917750845309,
        "distance_wrist_2_joint": 1.44197771321458,
        "distance_wrist_3_joint": 4.256792764076251,
        "smoothness": 0.06164117291268493,
        "time": 0.067950757,
        "traj_len": 3.001479077186105,
        "weighted_distance": 4.439688239869728
    },
    "planner": "TRRT",
    "start": {
        "state": {
            "elbow_joint": 1.919643534880228,
            "shoulder_lift_joint": -1.8972525353963687,
            "shoulder_pan_joint": -1.1188672234189438,
            "wrist_1_joint": -1.5931878212786155,
            "wrist_2_joint": 1.5706036197970081,
            "wrist_3_joint": 1.118896926603594
        }
    },
    "waypoints": [
        {
            "positions": [
                -1.1188672234189438,
                -1.8972525353963687,
                1.919643534880228,
                -1.5931878212786155,
                1.5706036197970081,
                1.118896926603594
            ]
        },
        {
            "positions": [
                -1.1031270063099312,
                -1.8554380419874021,
                1.8691960532197909,
                -1.4942758651394041,
                1.50407021513109,
                1.012856715158286
            ]
        },
        {
            "positions": [
                -1.0873867892009186,
                -1.8136235485784356,
                1.8187485715593539,
                -1.3953639090001926,
                1.437536810465172,
                0.9068165037129776
            ]
        },
        {
            "positions": [
                -1.0716465720919062,
                -1.7718090551694692,
                1.7683010898989167,
                -1.2964519528609812,
                1.3710034057992537,
                0.8007762922676696
            ]
        },
        {
            "positions": [
                -1.0559063549828935,
                -1.7299945617605026,
                1.7178536082384794,
                -1.1975399967217697,
                1.3044700011333357,
                0.6947360808223613
            ]
        },
        {
            "positions": [
                -1.040166137873881,
                -1.688180068351536,
                1.6674061265780424,
                -1.0986280405825584,
                1.2379365964674176,
                0.5886958693770532
            ]
        },
        {
            "positions": [
                -0.9755440752180046,
                -1.6581337294033553,
                1.6851656937250137,
                -1.0846373742276432,
                1.1763082248071404,
                0.3816629967742915
            ]
        },
        {
            "positions": [
                -0.9109220125621282,
                -1.628087390455175,
                1.702925260871985,
                -1.070646707872728,
                1.1146798531468631,
                0.17463012417152984
            ]
        },
        {
            "positions": [
                -0.8462999499062518,
                -1.5980410515069943,
                1.7206848280189562,
                -1.0566560415178128,
                1.0530514814865861,
                -0.03240274843123181
            ]
        },
        {
            "positions": [
                -0.7816778872503755,
                -1.5679947125588136,
                1.7384443951659274,
                -1.0426653751628976,
                0.9914231098263089,
                -0.23943562103399352
            ]
        },
        {
            "positions": [
                -0.7170558245944991,
                -1.5379483736106332,
                1.7562039623128984,
                -1.0286747088079824,
                0.9297947381660316,
                -0.44646849363675534
            ]
        },
        {
            "positions": [
                -0.6524337619386228,
                -1.5079020346624525,
                1.7739635294598697,
                -1.0146840424530672,
                0.8681663665057545,
                -0.6535013662395168
            ]
        },
        {
            "positions": [
                -0.5878116992827465,
                -1.4778556957142719,
                1.791723096606841,
                -1.0006933760981518,
                0.8065379948454773,
                -0.8605342388422785
            ]
        },
        {
            "positions": [
                -0.52318963662687,
                -1.4478093567660915,
                1.8094826637538122,
                -0.9867027097432367,
                0.7449096231852002,
                -1.0675671114450402
            ]
        },
        {
            "positions": [
                -0.4585675739709937,
                -1.4177630178179108,
                1.8272422309007834,
                -0.9727120433883214,
                0.6832812515249229,
                -1.274599984047802
            ]
        },
        {
            "positions": [
                -0.39394551131511735,
                -1.3877166788697302,
                1.8450017980477547,
                -0.9587213770334062,
                0.6216528798646457,
                -1.4816328566505639
            ]
        },
        {
            "positions": [
                -0.3293234486592409,
                -1.3576703399215497,
                1.862761365194726,
                -0.944730710678491,
                0.5600245082043684,
                -1.6886657292533254
            ]
        },
        {
            "positions": [
                -0.2647013860033647,
                -1.327624000973369,
                1.8805209323416971,
                -0.9307400443235758,
                0.49839613654409143,
                -1.8956986018560869
            ]
        },
        {
            "positions": [
                -0.20007932334748824,
                -1.2975776620251884,
                1.8982804994886684,
                -0.9167493779686606,
                0.4367677648838142,
                -2.1027314744588486
            ]
        },
        {
            "positions": [
                -0.1354572606916119,
                -1.267531323077008,
                1.9160400666356394,
                -0.9027587116137454,
                0.37513939322353695,
                -2.30976434706161
            ]
        },
        {
            "positions": [
                -0.07083519803573546,
                -1.2374849841288273,
                1.9337996337826109,
                -0.8887680452588302,
                0.3135110215632597,
                -2.5167972196643724
            ]
        },
        {
            "positions": [
                -0.006213135379859125,
                -1.207438645180647,
                1.951559200929582,
                -0.874777378903915,
                0.2518826499029827,
                -2.723830092267134
            ]
        },
        {
            "positions": [
                0.0584089272760171,
                -1.1773923062324663,
                1.9693187680765531,
                -0.8607867125489997,
                0.19025427824270547,
                -2.9308629648698954
            ]
        },
        {
            "positions": [
                0.12303098993189347,
                -1.1473459672842856,
                1.9870783352235244,
                -0.8467960461940846,
                0.1286259065824283,
                -3.137895837472657
            ]
        }
    ]
}