{
    "goal": {
        "global_pose": {
            "orientation": {
                "w": 0.5084816217422485,
                "x": -0.49083608388900757,
                "y": 0.5182115435600281,
                "z": -0.4816462993621826
            },
            "position": {
                "x": 0.5540239810943604,
                "y": 0.030875300988554955,
                "z": 0.16403168439865112
            }
        },
        "name": "move_to_storage_A"
    },
    "id": "TRRT_move_to_storage_A_79",
    "joint_names": [
        "shoulder_pan_joint",
        "shoulder_lift_joint",
        "elbow_joint",
        "wrist_1_joint",
        "wrist_2_joint",
        "wrist_3_joint"
    ],
    "metrics": {
        "cart_traj_len": 0.3539301067616575,
        "distance_elbow_joint": 0.4507553673147262,
        "distance_shoulder_lift_joint": 0.23453064520308864,
        "distance_shoulder_pan_joint": 0.4649958467523085,
        "distance_wrist_1_joint": 0.24407646593197774,
        "distance_wrist_2_joint": 1.0913182229177694,
        "distance_wrist_3_joint": 0.10346811360264851,
        "smoothness": 6.661338165333112e-16,
        "time": 0.027454386,
        "traj_len": 1.6090819313268419,
        "weighted_distance": 2.0326031530472353
    },
    "planner": "TRRT",
    "start": {
        "state": {
            "elbow_joint": 1.9715477243005601,
            "shoulder_lift_joint": -1.1394853015351272,
            "shoulder_pan_joint": 0.12281154014795169,
            "wrist_1_joint": -0.7804696478968182,
            "wrist_2_joint": 0.12958648046900423,
            "wrist_3_joint": -3.192491284697111
        }
    },
    "waypoints": [
        {
            "positions": [
                0.12281154014795169,
                -1.1394853015351272,
                1.9715477243005601,
                -0.7804696478968182,
                0.12958648046900423,
                -3.192491284697111
            ]
        },
        {
            "positions": [
                0.05638356204047905,
                -1.1729896794212826,
                2.035941348202664,
                -0.8153377144585293,
                0.2854890837429713,
                -3.1777101256110187
            ]
        },
        {
            "positions": [
                -0.010044416066993592,
                -1.2064940573074383,
                2.1003349721047675,
                -0.8502057810202404,
                0.4413916870169383,
                -3.162928966524926
            ]
        },
        {
            "positions": [
                -0.07647239417446623,
                -1.2399984351935938,
                2.164728596006871,
                -0.8850738475819515,
                0.5972942902909053,
                -3.1481478074388334
            ]
        },
        {
            "positions": [
                -0.14290037228193886,
                -1.2735028130797492,
                2.229122219908975,
                -0.9199419141436626,
                0.7531968935648724,
                -3.1333666483527405
            ]
        },
        {
            "positions": [
                -0.2093283503894115,
                -1.307007190965905,
                2.293515843811079,
                -0.9548099807053737,
                0.9090994968388395,
                -3.118585489266648
            ]
        },
        {
            "positions": [
                -0.27575632849688414,
                -1.3405115688520604,
                2.3579094677131827,
                -0.9896780472670847,
                1.0650021001128065,
                -3.103804330180555
            ]
        },
        {
            "positions": [
                -0.3421843066043568,
                -1.3740159467382158,
                2.4223030916152863,
                -1.024546113828796,
                1.2209047033867737,
                -3.0890231710944627
            ]
        }
    ]
}