{
    "goal": {
        "global_pose": {
            "orientation": {
                "w": 0.7047431468963623,
                "x": -0.7094548344612122,
                "y": 0.0024358443915843964,
                "z": -0.0022348060738295317
            },
            "position": {
                "x": 0.6094750761985779,
                "y": 0.3671506643295288,
                "z": 0.19426114857196808
            }
        },
        "name": "move_to_magneteinheit_A"
    },
    "id": "TRRT_move_to_magneteinheit_A_39",
    "joint_names": [
        "shoulder_pan_joint",
        "shoulder_lift_joint",
        "elbow_joint",
        "wrist_1_joint",
        "wrist_2_joint",
        "wrist_3_joint"
    ],
    "metrics": {
        "cart_traj_len": 3.1930593820172195,
        "distance_elbow_joint": 3.913711636636572,
        "distance_shoulder_lift_joint": 1.2170979130590482,
        "distance_shoulder_pan_joint": 2.5786632053559213,
        "distance_wrist_1_joint": 3.492166392233191,
        "distance_wrist_2_joint": 1.8172963996975515,
        "distance_wrist_3_joint": 1.40655042120563,
        "smoothness": 0.17624998711882567,
        "time": 0.083875278,
        "traj_len": 3.798089778847771,
        "weighted_distance": 4.7484786619010855
    },
    "planner": "TRRT",
    "start": {
        "state": {
            "elbow_joint": -1.919618573717145,
            "shoulder_lift_joint": -1.2443395971678275,
            "shoulder_pan_joint": 2.6996025300909787,
            "wrist_1_joint": -1.548550951253194,
            "wrist_2_joint": -1.5709469090946802,
            "wrist_3_joint": 0.4420197732051276
        }
    },
    "waypoints": [
        {
            "positions": [
                2.6996025300909787,
                -1.2443395971678275,
                -1.919618573717145,
                -1.548550951253194,
                -1.5709469090946802,
                0.4420197732051276
            ]
        },
        {
            "positions": [
                2.6046836364526693,
                -1.2119454791160469,
                -1.8661907439043228,
                -1.422191855428739,
                -1.508301342613569,
                0.46082948605273655
            ]
        },
        {
            "positions": [
                2.50976474281436,
                -1.179551361064266,
                -1.8127629140915007,
                -1.2958327596042838,
                -1.4456557761324578,
                0.47963919890034556
            ]
        },
        {
            "positions": [
                2.4148458491760505,
                -1.1471572430124855,
                -1.7593350842786786,
                -1.1694736637798289,
                -1.3830102096513464,
                0.4984489117479545
            ]
        },
        {
            "positions": [
                2.319926955537741,
                -1.1147631249607046,
                -1.7059072544658564,
                -1.0431145679553737,
                -1.3203646431702352,
                0.5172586245955635
            ]
        },
        {
            "positions": [
                2.2250080618994312,
                -1.082369006908924,
                -1.6524794246530343,
                -0.9167554721309186,
                -1.257719076689124,
                0.5360683374431725
            ]
        },
        {
            "positions": [
                2.1300891682611223,
                -1.0499748888571432,
                -1.5990515948402124,
                -0.7903963763064634,
                -1.1950735102080126,
                0.5548780502907814
            ]
        },
        {
            "positions": [
                2.0351702746228124,
                -1.0175807708053626,
                -1.5456237650273903,
                -0.6640372804820085,
                -1.1324279437269014,
                0.5736877631383904
            ]
        },
        {
            "positions": [
                1.940251380984503,
                -0.9851866527535819,
                -1.4921959352145682,
                -0.5376781846575533,
                -1.0697823772457902,
                0.5924974759859994
            ]
        },
        {
            "positions": [
                1.8453324873461936,
                -0.9527925347018011,
                -1.438768105401746,
                -0.4113190888330982,
                -1.007136810764679,
                0.6113071888336084
            ]
        },
        {
            "positions": [
                1.7504135937078842,
                -0.9203984166500204,
                -1.385340275588924,
                -0.28495999300864305,
                -0.9444912442835677,
                0.6301169016812174
            ]
        },
        {
            "positions": [
                1.6554947000695748,
                -0.8880042985982397,
                -1.3319124457761018,
                -0.15860089718418813,
                -0.8818456778024565,
                0.6489266145288264
            ]
        },
        {
            "positions": [
                1.5605758064312654,
                -0.855610180546459,
                -1.2784846159632797,
                -0.03224180135973276,
                -0.8192001113213452,
                0.6677363273764353
            ]
        },
        {
            "positions": [
                1.465656912792956,
                -0.8232160624946783,
                -1.2250567861504575,
                0.09411729446472217,
                -0.756554544840234,
                0.6865460402240443
            ]
        },
        {
            "positions": [
                1.3707380191546465,
                -0.7908219444428977,
                -1.1716289563376354,
                0.2204763902891771,
                -0.6939089783591228,
                0.7053557530716532
            ]
        },
        {
            "positions": [
                1.2758191255163371,
                -0.7584278263911169,
                -1.1182011265248133,
                0.34683548611363224,
                -0.6312634118780116,
                0.7241654659192622
            ]
        },
        {
            "positions": [
                1.1809002318780275,
                -0.7260337083393362,
                -1.0647732967119912,
                0.4731945819380874,
                -0.5686178453969002,
                0.7429751787668712
            ]
        },
        {
            "positions": [
                1.085981338239718,
                -0.6936395902875555,
                -1.011345466899169,
                0.5995536777625428,
                -0.505972278915789,
                0.7617848916144803
            ]
        },
        {
            "positions": [
                0.9910624446014087,
                -0.6612454722357748,
                -0.957917637086347,
                0.7259127735869977,
                -0.4433267124346778,
                0.7805946044620892
            ]
        },
        {
            "positions": [
                0.8961435509630995,
                -0.6288513541839942,
                -0.904489807273525,
                0.8522718694114526,
                -0.3806811459535666,
                0.7994043173096981
            ]
        },
        {
            "positions": [
                0.8012246573247896,
                -0.5964572361322134,
                -0.8510619774607027,
                0.978630965235908,
                -0.3180355794724552,
                0.8182140301573071
            ]
        },
        {
            "positions": [
                0.7063057636864805,
                -0.5640631180804326,
                -0.7976341476478808,
                1.104990061060363,
                -0.255390012991344,
                0.8370237430049161
            ]
        },
        {
            "positions": [
                0.6113868700481708,
                -0.531669000028652,
                -0.7442063178350586,
                1.2313491568848178,
                -0.19274444651023281,
                0.8558334558525251
            ]
        },
        {
            "positions": [
                0.5164679764098614,
                -0.4992748819768713,
                -0.6907784880222365,
                1.3577082527092732,
                -0.13009888002912162,
                0.874643168700134
            ]
        },
        {
            "positions": [
                0.421549082771552,
                -0.4668807639250905,
                -0.6373506582094144,
                1.4840673485337286,
                -0.06745331354801021,
                0.893452881547743
            ]
        },
        {
            "positions": [
                0.3266301891332426,
                -0.4344866458733099,
                -0.5839228283965923,
                1.6104264443581835,
                -0.004807747066899015,
                0.912262594395352
            ]
        },
        {
            "positions": [
                0.2317112954949332,
                -0.40209252782152916,
                -0.53049499858377,
                1.7367855401826382,
                0.057837819414212094,
                0.931072307242961
            ]
        },
        {
            "positions": [
                0.22169674881096174,
                -0.43231734119253373,
                -0.31545065312298043,
                1.754417158229461,
                0.04341734064424754,
                0.8523075956419449
            ]
        },
        {
            "positions": [
                0.2116822021269903,
                -0.46254215456353837,
                -0.10040630766219083,
                1.7720487762762835,
                0.028996861874282992,
                0.7735428840409289
            ]
        },
        {
            "positions": [
                0.20166765544301885,
                -0.49276696793454294,
                0.11463803779859871,
                1.7896803943231063,
                0.014576383104318441,
                0.6947781724399127
            ]
        },
        {
            "positions": [
                0.1916531087590474,
                -0.5229917813055476,
                0.32968238325938837,
                1.807312012369929,
                0.00015590433435389017,
                0.6160134608388966
            ]
        },
        {
            "positions": [
                0.18163856207507595,
                -0.5532165946765522,
                0.5447267287201779,
                1.824943630416752,
                -0.01426457443561066,
                0.5372487492378806
            ]
        },
        {
            "positions": [
                0.1716240153911045,
                -0.5834414080475567,
                0.7597710741809675,
                1.8425752484635745,
                -0.02868505320557521,
                0.45848403763686446
            ]
        },
        {
            "positions": [
                0.16160946870713305,
                -0.6136662214185613,
                0.974815419641757,
                1.8602068665103972,
                -0.04310553197553976,
                0.37971932603584835
            ]
        },
        {
            "positions": [
                0.1515949220231616,
                -0.6438910347895659,
                1.1898597651025469,
                1.87783848455722,
                -0.057526010745504313,
                0.3009546144348323
            ]
        },
        {
            "positions": [
                0.14158037533919016,
                -0.6741158481605706,
                1.4049041105633364,
                1.8954701026040428,
                -0.07194648951546886,
                0.22218990283381612
            ]
        },
        {
            "positions": [
                0.1315658286552187,
                -0.704340661531575,
                1.619948456024126,
                1.9131017206508654,
                -0.08636696828543342,
                0.14342519123280018
            ]
        },
        {
            "positions": [
                0.12155128197124726,
                -0.7345654749025797,
                1.8349928014849155,
                1.9307333386976882,
                -0.10078744705539797,
                0.06466047963178403
            ]
        },
        {
            "positions": [
                0.1221632392074376,
                -0.7769433715342788,
                1.9940930629194273,
                1.9178512364153801,
                -0.13067385177444824,
                0.0135744200751645
            ]
        }
    ]
}{
    "goal": {
        "global_pose": {
            "orientation": {
                "w": 0.7047431468963623,
                "x": -0.7094548344612122,
                "y": 0.0024358443915843964,
                "z": -0.0022348060738295317
            },
            "position": {
                "x": 0.6094750761985779,
                "y": 0.3671506643295288,
                "z": 0.19426114857196808
            }
        },
        "name": "move_to_magneteinheit_A"
    },
    "id": "TRRT_move_to_magneteinheit_A_39",
    "joint_names": [
        "shoulder_pan_joint",
        "shoulder_lift_joint",
        "elbow_joint",
        "wrist_1_joint",
        "wrist_2_joint",
        "wrist_3_joint"
    ],
    "metrics": {
        "cart_traj_len": 1.2013664623060227,
        "distance_elbow_joint": 0.06581595074266966,
        "distance_shoulder_lift_joint": 0.7497004626777177,
        "distance_shoulder_pan_joint": 1.2412527087099952,
        "distance_wrist_1_joint": 0.7465489709595481,
        "distance_wrist_2_joint": 1.5853954215577235,
        "distance_wrist_3_joint": 4.249566203025308,
        "smoothness": 0.1490157686280459,
        "time": 0.118358856,
        "traj_len": 2.9390950508061087,
        "weighted_distance": 4.4124093776802775
    },
    "planner": "TRRT",
    "start": {
        "state": {
            "elbow_joint": 1.919643534880228,
            "shoulder_lift_joint": -1.8972525353963687,
            "shoulder_pan_joint": -1.1188672234189438,
            "wrist_1_joint": -1.5931878212786155,
            "wrist_2_joint": 1.5706036197970081,
            "wrist_3_joint": 1.118896926603594
        }
    },
    "waypoints": [
        {
            "positions": [
                -1.1188672234189438,
                -1.8972525353963687,
                1.919643534880228,
                -1.5931878212786155,
                1.5706036197970081,
                1.118896926603594
            ]
        },
        {
            "positions": [
                -1.0611242847917113,
                -1.8668745919900667,
                1.921320557718684,
                -1.5618117213162828,
                1.4985689667975257,
                0.928573393436725
            ]
        },
        {
            "positions": [
                -1.0033813461644787,
                -1.8364966485837646,
                1.92299758055714,
                -1.53043562135395,
                1.4265343137980433,
                0.738249860269856
            ]
        },
        {
            "positions": [
                -0.9456384075372462,
                -1.8061187051774625,
                1.9246746033955957,
                -1.4990595213916174,
                1.3544996607985609,
                0.5479263271029869
            ]
        },
        {
            "positions": [
                -0.8878954689100136,
                -1.7757407617711602,
                1.9263516262340517,
                -1.4676834214292847,
                1.2824650077990782,
                0.3576027939361178
            ]
        },
        {
            "positions": [
                -0.830152530282781,
                -1.7453628183648582,
                1.9280286490725076,
                -1.436307321466952,
                1.2104303547995958,
                0.16727926076924882
            ]
        },
        {
            "positions": [
                -0.7724095916555485,
                -1.7149848749585561,
                1.9297056719109635,
                -1.4049312215046195,
                1.1383957018001134,
                -0.02304427239762008
            ]
        },
        {
            "positions": [
                -0.714666653028316,
                -1.684606931552254,
                1.9313826947494193,
                -1.3735551215422865,
                1.066361048800631,
                -0.2133678055644892
            ]
        },
        {
            "positions": [
                -0.6569237144010834,
                -1.654228988145952,
                1.9330597175878752,
                -1.342179021579954,
                0.9943263958011485,
                -0.4036913387313583
            ]
        },
        {
            "positions": [
                -0.5991807757738509,
                -1.62385104473965,
                1.9347367404263311,
                -1.3108029216176214,
                0.922291742801666,
                -0.5940148718982272
            ]
        },
        {
            "positions": [
                -0.5414378371466183,
                -1.5934731013333479,
                1.936413763264787,
                -1.2794268216552886,
                0.8502570898021836,
                -0.7843384050650963
            ]
        },
        {
            "positions": [
                -0.48369489851938574,
                -1.5630951579270456,
                1.9380907861032428,
                -1.248050721692956,
                0.778222436802701,
                -0.9746619382319655
            ]
        },
        {
            "positions": [
                -0.4259519598921532,
                -1.5327172145207437,
                1.9397678089416988,
                -1.2166746217306232,
                0.7061877838032187,
                -1.1649854713988341
            ]
        },
        {
            "positions": [
                -0.3682090212649206,
                -1.5023392711144414,
                1.9414448317801547,
                -1.1852985217682905,
                0.6341531308037361,
                -1.3553090045657037
            ]
        },
        {
            "positions": [
                -0.31046608263768816,
                -1.4719613277081394,
                1.9431218546186106,
                -1.1539224218059578,
                0.5621184778042538,
                -1.5456325377325724
            ]
        },
        {
            "positions": [
                -0.2527231440104555,
                -1.4415833843018373,
                1.9447988774570664,
                -1.1225463218436251,
                0.4900838248047712,
                -1.7359560708994415
            ]
        },
        {
            "positions": [
                -0.19498020538322303,
                -1.4112054408955352,
                1.9464759002955223,
                -1.0911702218812924,
                0.4180491718052888,
                -1.9262796040663106
            ]
        },
        {
            "positions": [
                -0.13723726675599046,
                -1.380827497489233,
                1.9481529231339783,
                -1.0597941219189597,
                0.34601451880580636,
                -2.11660313723318
            ]
        },
        {
            "positions": [
                -0.0794943281287579,
                -1.3504495540829309,
                1.9498299459724342,
                -1.028418021956627,
                0.27397986580632394,
                -2.306926670400048
            ]
        },
        {
            "positions": [
                -0.02175138950152533,
                -1.3200716106766288,
                1.95150696881089,
                -0.9970419219942944,
                0.2019452128068413,
                -2.4972502035669173
            ]
        },
        {
            "positions": [
                0.035991549125707234,
                -1.2896936672703267,
                1.9531839916493459,
                -0.9656658220319617,
                0.1299105598073591,
                -2.6875737367337864
            ]
        },
        {
            "positions": [
                0.09373448775293985,
                -1.2593157238640247,
                1.9548610144878018,
                -0.934289722069629,
                0.057875906807876555,
                -2.8778972699006555
            ]
        },
        {
            "positions": [
                0.1080599865219956,
                -1.2034338982913377,
                1.9701602500553497,
                -0.8904642861943481,
                0.09420976109217258,
                -3.0042832731611853
            ]
        },
        {
            "positions": [
                0.12238548529105134,
                -1.147552072718651,
                1.9854594856228978,
                -0.8466388503190674,
                0.13054361537646858,
                -3.1306692764217146
            ]
        }
    ]
}