{
    "goal": {
        "global_pose": {
            "orientation": {
                "w": 0.5084816217422485,
                "x": -0.49083608388900757,
                "y": 0.5182115435600281,
                "z": -0.4816462993621826
            },
            "position": {
                "x": 0.5540239810943604,
                "y": 0.030875300988554955,
                "z": 0.16403168439865112
            }
        },
        "name": "move_to_storage_A"
    },
    "id": "TRRT_move_to_storage_A_121",
    "joint_names": [
        "shoulder_pan_joint",
        "shoulder_lift_joint",
        "elbow_joint",
        "wrist_1_joint",
        "wrist_2_joint",
        "wrist_3_joint"
    ],
    "metrics": {
        "cart_traj_len": 0.3533238755665422,
        "distance_elbow_joint": 0.45102085816859283,
        "distance_shoulder_lift_joint": 0.2330624478237926,
        "distance_shoulder_pan_joint": 0.4627219237062549,
        "distance_wrist_1_joint": 0.24872622702435432,
        "distance_wrist_2_joint": 1.095749821626062,
        "distance_wrist_3_joint": 0.09155606709090236,
        "smoothness": 4.440892133664971e-16,
        "time": 0.043717185000000006,
        "traj_len": 1.6071208247795057,
        "weighted_distance": 2.027418439363759
    },
    "planner": "TRRT",
    "start": {
        "state": {
            "elbow_joint": 1.9715477243005601,
            "shoulder_lift_joint": -1.1394853015351272,
            "shoulder_pan_joint": 0.12281154014795169,
            "wrist_1_joint": -0.7804696478968182,
            "wrist_2_joint": 0.12958648046900423,
            "wrist_3_joint": -3.192491284697111
        }
    },
    "waypoints": [
        {
            "positions": [
                0.12281154014795169,
                -1.1394853015351272,
                1.9715477243005601,
                -0.7804696478968182,
                0.12958648046900423,
                -3.192491284697111
            ]
        },
        {
            "positions": [
                0.05670840818991528,
                -1.1727799369385261,
                2.035979275467502,
                -0.8160019660431544,
                0.2861221692727274,
                -3.179411846541268
            ]
        },
        {
            "positions": [
                -0.00939472376812113,
                -1.206074572341925,
                2.1004108266344437,
                -0.8515342841894908,
                0.44265785807645047,
                -3.1663324083854247
            ]
        },
        {
            "positions": [
                -0.07549785572615754,
                -1.239369207745324,
                2.1648423778013854,
                -0.8870666023358271,
                0.5991935468801737,
                -3.1532529702295817
            ]
        },
        {
            "positions": [
                -0.14160098768419394,
                -1.272663843148723,
                2.229273928968327,
                -0.9225989204821635,
                0.7557292356838967,
                -3.1401735320737383
            ]
        },
        {
            "positions": [
                -0.2077041196422304,
                -1.3059584785521219,
                2.2937054801352694,
                -0.9581312386284998,
                0.9122649244876199,
                -3.1270940939178953
            ]
        },
        {
            "positions": [
                -0.27380725160026675,
                -1.3392531139555208,
                2.358137031302211,
                -0.9936635567748362,
                1.068800613291343,
                -3.114014655762052
            ]
        },
        {
            "positions": [
                -0.3399103835583032,
                -1.3725477493589198,
                2.422568582469153,
                -1.0291958749211725,
                1.2253363020950663,
                -3.100935217606209
            ]
        }
    ]
}