{
    "goal": {
        "global_pose": {
            "orientation": {
                "w": 0.5084816217422485,
                "x": -0.49083608388900757,
                "y": 0.5182115435600281,
                "z": -0.4816462993621826
            },
            "position": {
                "x": 0.5540239810943604,
                "y": 0.030875300988554955,
                "z": 0.16403168439865112
            }
        },
        "name": "move_to_storage_A"
    },
    "id": "TRRT_move_to_storage_A_108",
    "joint_names": [
        "shoulder_pan_joint",
        "shoulder_lift_joint",
        "elbow_joint",
        "wrist_1_joint",
        "wrist_2_joint",
        "wrist_3_joint"
    ],
    "metrics": {
        "cart_traj_len": 0.3524801620108302,
        "distance_elbow_joint": 0.4504797548928985,
        "distance_shoulder_lift_joint": 0.23275341136187966,
        "distance_shoulder_pan_joint": 0.45904209065114815,
        "distance_wrist_1_joint": 0.2525510347068981,
        "distance_wrist_2_joint": 1.1045385523568925,
        "distance_wrist_3_joint": 0.10066044081120173,
        "smoothness": 1.3322676295501878e-15,
        "time": 0.021279988,
        "traj_len": 1.612459390118374,
        "weighted_distance": 2.0392243019018563
    },
    "planner": "TRRT",
    "start": {
        "state": {
            "elbow_joint": 1.9715477243005601,
            "shoulder_lift_joint": -1.1394853015351272,
            "shoulder_pan_joint": 0.12281154014795169,
            "wrist_1_joint": -0.7804696478968182,
            "wrist_2_joint": 0.12958648046900423,
            "wrist_3_joint": -3.192491284697111
        }
    },
    "waypoints": [
        {
            "positions": [
                0.12281154014795169,
                -1.1394853015351272,
                1.9715477243005601,
                -0.7804696478968182,
                0.12958648046900423,
                -3.192491284697111
            ]
        },
        {
            "positions": [
                0.0572340986263591,
                -1.1727357888725385,
                2.0359019749995455,
                -0.8165483671406607,
                0.2873777022342746,
                -3.1781112217240826
            ]
        },
        {
            "positions": [
                -0.008343342895233488,
                -1.20598627620995,
                2.1002562256985313,
                -0.8526270863845034,
                0.44516892399954494,
                -3.1637311587510535
            ]
        },
        {
            "positions": [
                -0.07392078441682608,
                -1.2392367635473613,
                2.1646104763975167,
                -0.8887058056283459,
                0.6029601457648153,
                -3.149351095778025
            ]
        },
        {
            "positions": [
                -0.13949822593841865,
                -1.2724872508847727,
                2.228964727096502,
                -0.9247845248721885,
                0.7607513675300857,
                -3.134971032804996
            ]
        },
        {
            "positions": [
                -0.20507566746001127,
                -1.305737738222184,
                2.2933189777954874,
                -0.9608632441160311,
                0.918542589295356,
                -3.120590969831967
            ]
        },
        {
            "positions": [
                -0.27065310898160383,
                -1.3389882255595955,
                2.3576732284944732,
                -0.9969419633598737,
                1.0763338110606262,
                -3.106210906858938
            ]
        },
        {
            "positions": [
                -0.33623055050319645,
                -1.3722387128970068,
                2.4220274791934586,
                -1.0330206826037163,
                1.2341250328258966,
                -3.0918308438859095
            ]
        }
    ]
}