{
    "goal": {
        "global_pose": {
            "orientation": {
                "w": 0.5084816217422485,
                "x": -0.49083608388900757,
                "y": 0.5182115435600281,
                "z": -0.4816462993621826
            },
            "position": {
                "x": 0.5540239810943604,
                "y": 0.030875300988554955,
                "z": 0.16403168439865112
            }
        },
        "name": "move_to_storage_A"
    },
    "id": "TRRT_move_to_storage_A_14",
    "joint_names": [
        "shoulder_pan_joint",
        "shoulder_lift_joint",
        "elbow_joint",
        "wrist_1_joint",
        "wrist_2_joint",
        "wrist_3_joint"
    ],
    "metrics": {
        "cart_traj_len": 0.3538047248486869,
        "distance_elbow_joint": 0.4485254554720419,
        "distance_shoulder_lift_joint": 0.23495886973011593,
        "distance_shoulder_pan_joint": 0.4635886606159845,
        "distance_wrist_1_joint": 0.23760371544731462,
        "distance_wrist_2_joint": 1.0960761974727289,
        "distance_wrist_3_joint": 0.10582974837937176,
        "smoothness": 5.551115138160447e-16,
        "time": 0.025389270999999998,
        "traj_len": 1.608285623612161,
        "weighted_distance": 2.0327129794430756
    },
    "planner": "TRRT",
    "start": {
        "state": {
            "elbow_joint": 1.9715477243005601,
            "shoulder_lift_joint": -1.1394853015351272,
            "shoulder_pan_joint": 0.12281154014795169,
            "wrist_1_joint": -0.7804696478968182,
            "wrist_2_joint": 0.12958648046900423,
            "wrist_3_joint": -3.192491284697111
        }
    },
    "waypoints": [
        {
            "positions": [
                0.12281154014795169,
                -1.1394853015351272,
                1.9715477243005601,
                -0.7804696478968182,
                0.12958648046900423,
                -3.192491284697111
            ]
        },
        {
            "positions": [
                0.05658458863138248,
                -1.1730508543537153,
                2.0356227893679946,
                -0.8144130358178631,
                0.2861687943936798,
                -3.177372749214344
            ]
        },
        {
            "positions": [
                -0.009642362885186731,
                -1.2066164071723031,
                2.0996978544354294,
                -0.8483564237389081,
                0.44275110831835535,
                -3.1622542137315763
            ]
        },
        {
            "positions": [
                -0.07586931440175594,
                -1.2401819599908912,
                2.163772919502864,
                -0.882299811659953,
                0.5993334222430309,
                -3.147135678248809
            ]
        },
        {
            "positions": [
                -0.14209626591832514,
                -1.273747512809479,
                2.2278479845702983,
                -0.916243199580998,
                0.7559157361677065,
                -3.1320171427660415
            ]
        },
        {
            "positions": [
                -0.2083232174348944,
                -1.3073130656280672,
                2.2919230496377327,
                -0.9501865875020429,
                0.912498050092382,
                -3.1168986072832743
            ]
        },
        {
            "positions": [
                -0.27455016895146356,
                -1.340878618446655,
                2.3559981147051676,
                -0.9841299754230879,
                1.0690803640170574,
                -3.1017800718005066
            ]
        },
        {
            "positions": [
                -0.3407771204680328,
                -1.374444171265243,
                2.420073179772602,
                -1.0180733633441328,
                1.2256626779417332,
                -3.0866615363177394
            ]
        }
    ]
}