{
    "goal": {
        "global_pose": {
            "orientation": {
                "w": 0.7047431468963623,
                "x": -0.7094548344612122,
                "y": 0.0024358443915843964,
                "z": -0.0022348060738295317
            },
            "position": {
                "x": 0.6094750761985779,
                "y": 0.3671506643295288,
                "z": 0.19426114857196808
            }
        },
        "name": "move_to_magneteinheit_A"
    },
    "id": "TRRT_move_to_magneteinheit_A_38",
    "joint_names": [
        "shoulder_pan_joint",
        "shoulder_lift_joint",
        "elbow_joint",
        "wrist_1_joint",
        "wrist_2_joint",
        "wrist_3_joint"
    ],
    "metrics": {
        "cart_traj_len": 1.2039376500056014,
        "distance_elbow_joint": 0.06140539053177174,
        "distance_shoulder_lift_joint": 0.7519848948947854,
        "distance_shoulder_pan_joint": 1.2421305189233987,
        "distance_wrist_1_joint": 0.7650285561401419,
        "distance_wrist_2_joint": 1.444504712488303,
        "distance_wrist_3_joint": 4.268844654857412,
        "smoothness": 7.723290667243427e-17,
        "time": 0.200246607,
        "traj_len": 2.921283746546339,
        "weighted_distance": 4.391027363405867
    },
    "planner": "TRRT",
    "start": {
        "state": {
            "elbow_joint": 1.919643534880228,
            "shoulder_lift_joint": -1.8972525353963687,
            "shoulder_pan_joint": -1.1188672234189438,
            "wrist_1_joint": -1.5931878212786155,
            "wrist_2_joint": 1.5706036197970081,
            "wrist_3_joint": 1.118896926603594
        }
    },
    "waypoints": [
        {
            "positions": [
                -1.1188672234189438,
                -1.8972525353963687,
                1.919643534880228,
                -1.5931878212786155,
                1.5706036197970081,
                1.118896926603594
            ]
        },
        {
            "positions": [
                -1.0612206634250643,
                -1.8619313626736331,
                1.9223896045016238,
                -1.5573927756592116,
                1.5043857688994073,
                0.9224967979054974
            ]
        },
        {
            "positions": [
                -1.0035741034311847,
                -1.8266101899508975,
                1.9251356741230192,
                -1.521597730039808,
                1.4381679180018065,
                0.7260966692074009
            ]
        },
        {
            "positions": [
                -0.9459275434373052,
                -1.7912890172281617,
                1.927881743744415,
                -1.4858026844204042,
                1.3719500671042055,
                0.5296965405093045
            ]
        },
        {
            "positions": [
                -0.8882809834434257,
                -1.755967844505426,
                1.9306278133658106,
                -1.4500076388010004,
                1.3057322162066047,
                0.33329641181120795
            ]
        },
        {
            "positions": [
                -0.8306344234495462,
                -1.7206466717826905,
                1.9333738829872062,
                -1.4142125931815965,
                1.239514365309004,
                0.13689628311311142
            ]
        },
        {
            "positions": [
                -0.7729878634556666,
                -1.6853254990599549,
                1.9361199526086017,
                -1.3784175475621927,
                1.173296514411403,
                -0.059503845584985005
            ]
        },
        {
            "positions": [
                -0.715341303461787,
                -1.6500043263372193,
                1.9388660222299974,
                -1.342622501942789,
                1.1070786635138021,
                -0.25590397428308154
            ]
        },
        {
            "positions": [
                -0.6576947434679075,
                -1.6146831536144837,
                1.941612091851393,
                -1.3068274563233853,
                1.0408608126162013,
                -0.45230410298117807
            ]
        },
        {
            "positions": [
                -0.600048183474028,
                -1.5793619808917478,
                1.9443581614727885,
                -1.2710324107039814,
                0.9746429617186004,
                -0.6487042316792746
            ]
        },
        {
            "positions": [
                -0.5424016234801484,
                -1.5440408081690122,
                1.9471042310941842,
                -1.2352373650845778,
                0.9084251108209996,
                -0.8451043603773711
            ]
        },
        {
            "positions": [
                -0.48475506348626884,
                -1.5087196354462766,
                1.9498503007155799,
                -1.1994423194651738,
                0.8422072599233986,
                -1.0415044890754677
            ]
        },
        {
            "positions": [
                -0.4271085034923894,
                -1.473398462723541,
                1.9525963703369755,
                -1.1636472738457702,
                0.7759894090257979,
                -1.237904617773564
            ]
        },
        {
            "positions": [
                -0.3694619434985097,
                -1.4380772900008054,
                1.955342439958371,
                -1.1278522282263663,
                0.7097715581281969,
                -1.4343047464716607
            ]
        },
        {
            "positions": [
                -0.31181538350463023,
                -1.4027561172780696,
                1.9580885095797667,
                -1.0920571826069625,
                0.6435537072305961,
                -1.630704875169757
            ]
        },
        {
            "positions": [
                -0.25416882351075065,
                -1.367434944555334,
                1.9608345792011623,
                -1.0562621369875589,
                0.5773358563329952,
                -1.8271050038678538
            ]
        },
        {
            "positions": [
                -0.1965222635168712,
                -1.3321137718325984,
                1.9635806488225578,
                -1.020467091368155,
                0.5111180054353945,
                -2.0235051325659503
            ]
        },
        {
            "positions": [
                -0.1388757035229916,
                -1.2967925991098626,
                1.9663267184439535,
                -0.9846720457487512,
                0.4449001545377935,
                -2.2199052612640466
            ]
        },
        {
            "positions": [
                -0.08122914352911215,
                -1.2614714263871272,
                1.9690727880653491,
                -0.9488770001293475,
                0.37868230364019273,
                -2.416305389962143
            ]
        },
        {
            "positions": [
                -0.02358258353523257,
                -1.2261502536643913,
                1.9718188576867448,
                -0.9130819545099437,
                0.31246445274259194,
                -2.61270551866024
            ]
        },
        {
            "positions": [
                0.034063976458647005,
                -1.190829080941656,
                1.9745649273081403,
                -0.87728690889054,
                0.24624660184499114,
                -2.8091056473583365
            ]
        },
        {
            "positions": [
                0.0917105364525265,
                -1.1555079082189201,
                1.977310996929536,
                -0.8414918632711361,
                0.18002875094739001,
                -3.0055057760564328
            ]
        },
        {
            "positions": [
                0.12326329550445476,
                -1.1452676405015834,
                1.9810489254119998,
                -0.8281592651384736,
                0.126098907308705,
                -3.149947728253818
            ]
        }
    ]
}