{
    "goal": {
        "global_pose": {
            "orientation": {
                "w": 0.5084816217422485,
                "x": -0.49083608388900757,
                "y": 0.5182115435600281,
                "z": -0.4816462993621826
            },
            "position": {
                "x": 0.5540239810943604,
                "y": 0.030875300988554955,
                "z": 0.16403168439865112
            }
        },
        "name": "move_to_storage_A"
    },
    "id": "TRRT_move_to_storage_A_142",
    "joint_names": [
        "shoulder_pan_joint",
        "shoulder_lift_joint",
        "elbow_joint",
        "wrist_1_joint",
        "wrist_2_joint",
        "wrist_3_joint"
    ],
    "metrics": {
        "cart_traj_len": 0.35280205327357506,
        "distance_elbow_joint": 0.4494027777737921,
        "distance_shoulder_lift_joint": 0.23427294235849616,
        "distance_shoulder_pan_joint": 0.4614534418883341,
        "distance_wrist_1_joint": 0.238385943227701,
        "distance_wrist_2_joint": 1.0979094202894748,
        "distance_wrist_3_joint": 0.10125437657352743,
        "smoothness": 8.881784197001252e-16,
        "time": 0.019483238,
        "traj_len": 1.6070715298677047,
        "weighted_distance": 2.030143595604891
    },
    "planner": "TRRT",
    "start": {
        "state": {
            "elbow_joint": 1.9715477243005601,
            "shoulder_lift_joint": -1.1394853015351272,
            "shoulder_pan_joint": 0.12281154014795169,
            "wrist_1_joint": -0.7804696478968182,
            "wrist_2_joint": 0.12958648046900423,
            "wrist_3_joint": -3.192491284697111
        }
    },
    "waypoints": [
        {
            "positions": [
                0.12281154014795169,
                -1.1394853015351272,
                1.9715477243005601,
                -0.7804696478968182,
                0.12958648046900423,
                -3.192491284697111
            ]
        },
        {
            "positions": [
                0.056889619878189676,
                -1.172952864729198,
                2.0357481211253874,
                -0.8145247826436326,
                0.28643068336750066,
                -3.1780263737580356
            ]
        },
        {
            "positions": [
                -0.009032300391572337,
                -1.2064204279232689,
                2.099948517950215,
                -0.848579917390447,
                0.44327488626599704,
                -3.1635614628189606
            ]
        },
        {
            "positions": [
                -0.07495422066133435,
                -1.2398879911173397,
                2.1641489147750423,
                -0.8826350521372615,
                0.6001190891644934,
                -3.149096551879885
            ]
        },
        {
            "positions": [
                -0.14087614093109635,
                -1.2733555543114106,
                2.22834931159987,
                -0.9166901868840759,
                0.7569632920629898,
                -3.13463164094081
            ]
        },
        {
            "positions": [
                -0.20679806120085836,
                -1.3068231175054816,
                2.2925497084246973,
                -0.9507453216308903,
                0.9138074949614863,
                -3.1201667300017344
            ]
        },
        {
            "positions": [
                -0.2727199814706204,
                -1.3402906806995525,
                2.3567501052495246,
                -0.9848004563777047,
                1.0706516978599825,
                -3.1057018190626593
            ]
        },
        {
            "positions": [
                -0.3386419017403824,
                -1.3737582438936233,
                2.4209505020743523,
                -1.0188555911245192,
                1.227495900758479,
                -3.0912369081235838
            ]
        }
    ]
}