{
    "goal": {
        "global_pose": {
            "orientation": {
                "w": 0.5084816217422485,
                "x": -0.49083608388900757,
                "y": 0.5182115435600281,
                "z": -0.4816462993621826
            },
            "position": {
                "x": 0.5540239810943604,
                "y": 0.030875300988554955,
                "z": 0.16403168439865112
            }
        },
        "name": "move_to_storage_A"
    },
    "id": "TRRT_move_to_storage_A_20",
    "joint_names": [
        "shoulder_pan_joint",
        "shoulder_lift_joint",
        "elbow_joint",
        "wrist_1_joint",
        "wrist_2_joint",
        "wrist_3_joint"
    ],
    "metrics": {
        "cart_traj_len": 0.3533428417790736,
        "distance_elbow_joint": 0.4507358158132715,
        "distance_shoulder_lift_joint": 0.23614098343393186,
        "distance_shoulder_pan_joint": 0.462849444571574,
        "distance_wrist_1_joint": 0.24493746548520223,
        "distance_wrist_2_joint": 1.096623591747711,
        "distance_wrist_3_joint": 0.09575450854331402,
        "smoothness": 4.440892133664971e-16,
        "time": 0.018208518,
        "traj_len": 1.6084283663237864,
        "weighted_distance": 2.0298058734555244
    },
    "planner": "TRRT",
    "start": {
        "state": {
            "elbow_joint": 1.9715477243005601,
            "shoulder_lift_joint": -1.1394853015351272,
            "shoulder_pan_joint": 0.12281154014795169,
            "wrist_1_joint": -0.7804696478968182,
            "wrist_2_joint": 0.12958648046900423,
            "wrist_3_joint": -3.192491284697111
        }
    },
    "waypoints": [
        {
            "positions": [
                0.12281154014795169,
                -1.1394853015351272,
                1.9715477243005601,
                -0.7804696478968182,
                0.12958648046900423,
                -3.192491284697111
            ]
        },
        {
            "positions": [
                0.05669019092344112,
                -1.1732197277399745,
                2.0359385551310276,
                -0.8154607143947042,
                0.28624699357582006,
                -3.1788120691909234
            ]
        },
        {
            "positions": [
                -0.009431158301069456,
                -1.206954153944822,
                2.1003293859614947,
                -0.8504517808925902,
                0.4429075066826359,
                -3.1651328536847356
            ]
        },
        {
            "positions": [
                -0.07555250752558003,
                -1.2406885801496694,
                2.164720216791962,
                -0.8854428473904763,
                0.5995680197894517,
                -3.151453638178548
            ]
        },
        {
            "positions": [
                -0.1416738567500906,
                -1.2744230063545168,
                2.2291110476224296,
                -0.9204339138883623,
                0.7562285328962676,
                -3.1377744226723605
            ]
        },
        {
            "positions": [
                -0.20779520597460116,
                -1.3081574325593643,
                2.293501878452897,
                -0.9554249803862483,
                0.9128890460030835,
                -3.1240952071661727
            ]
        },
        {
            "positions": [
                -0.27391655519911173,
                -1.3418918587642117,
                2.357892709283364,
                -0.9904160468841343,
                1.0695495591098991,
                -3.110415991659985
            ]
        },
        {
            "positions": [
                -0.3400379044236223,
                -1.375626284969059,
                2.4222835401138316,
                -1.0254071133820204,
                1.226210072216715,
                -3.096736776153797
            ]
        }
    ]
}