{
    "goal": {
        "global_pose": {
            "orientation": {
                "w": 0.7047431468963623,
                "x": -0.7094548344612122,
                "y": 0.0024358443915843964,
                "z": -0.0022348060738295317
            },
            "position": {
                "x": 0.6094750761985779,
                "y": 0.3671506643295288,
                "z": 0.19426114857196808
            }
        },
        "name": "move_to_magneteinheit_A"
    },
    "id": "TRRT_move_to_magneteinheit_A_110",
    "joint_names": [
        "shoulder_pan_joint",
        "shoulder_lift_joint",
        "elbow_joint",
        "wrist_1_joint",
        "wrist_2_joint",
        "wrist_3_joint"
    ],
    "metrics": {
        "cart_traj_len": 1.375070763544494,
        "distance_elbow_joint": 0.9129041816667598,
        "distance_shoulder_lift_joint": 0.7497334698870117,
        "distance_shoulder_pan_joint": 1.242382893879261,
        "distance_wrist_1_joint": 0.7407287576866334,
        "distance_wrist_2_joint": 1.4325392137482047,
        "distance_wrist_3_joint": 4.2457943617605975,
        "smoothness": 0.10127447521773483,
        "time": 0.087032584,
        "traj_len": 3.053536126956495,
        "weighted_distance": 4.47089919072042
    },
    "planner": "TRRT",
    "start": {
        "state": {
            "elbow_joint": 1.919643534880228,
            "shoulder_lift_joint": -1.8972525353963687,
            "shoulder_pan_joint": -1.1188672234189438,
            "wrist_1_joint": -1.5931878212786155,
            "wrist_2_joint": 1.5706036197970081,
            "wrist_3_joint": 1.118896926603594
        }
    },
    "waypoints": [
        {
            "positions": [
                -1.1188672234189438,
                -1.8972525353963687,
                1.919643534880228,
                -1.5931878212786155,
                1.5706036197970081,
                1.118896926603594
            ]
        },
        {
            "positions": [
                -1.0858473352990223,
                -1.864616989866244,
                1.8894834890486558,
                -1.570433186100723,
                1.491581014090768,
                0.935307085440637
            ]
        },
        {
            "positions": [
                -1.0528274471791006,
                -1.8319814443361189,
                1.8593234432170838,
                -1.5476785509228306,
                1.4125584083845277,
                0.75171724427768
            ]
        },
        {
            "positions": [
                -1.019807559059179,
                -1.799345898805994,
                1.8291633973855115,
                -1.5249239157449381,
                1.3335358026782878,
                0.5681274031147232
            ]
        },
        {
            "positions": [
                -0.9867876709392575,
                -1.7667103532758692,
                1.7990033515539392,
                -1.5021692805670457,
                1.2545131969720476,
                0.38453756195176625
            ]
        },
        {
            "positions": [
                -0.9537677828193358,
                -1.7340748077457442,
                1.7688433057223671,
                -1.4794146453891532,
                1.1754905912658073,
                0.2009477207888093
            ]
        },
        {
            "positions": [
                -0.9207478946994143,
                -1.7014392622156194,
                1.7386832598907949,
                -1.456660010211261,
                1.0964679855595671,
                0.017357879625852446
            ]
        },
        {
            "positions": [
                -0.8877280065794927,
                -1.6688037166854945,
                1.7085232140592228,
                -1.4339053750333686,
                1.017445379853327,
                -0.16623196153710462
            ]
        },
        {
            "positions": [
                -0.8547081184595711,
                -1.6361681711553695,
                1.6783631682276505,
                -1.4111507398554761,
                0.9384227741470869,
                -0.34982180270006147
            ]
        },
        {
            "positions": [
                -0.8216882303396496,
                -1.6035326256252447,
                1.6482031223960782,
                -1.3883961046775837,
                0.8594001684408465,
                -0.5334116438630185
            ]
        },
        {
            "positions": [
                -0.7886683422197279,
                -1.5708970800951199,
                1.618043076564506,
                -1.3656414694996912,
                0.7803775627346065,
                -0.7170014850259754
            ]
        },
        {
            "positions": [
                -0.7556484540998063,
                -1.5382615345649948,
                1.587883030732934,
                -1.3428868343217988,
                0.7013549570283663,
                -0.9005913261889325
            ]
        },
        {
            "positions": [
                -0.7226285659798848,
                -1.50562598903487,
                1.5577229849013619,
                -1.3201321991439063,
                0.6223323513221262,
                -1.084181167351889
            ]
        },
        {
            "positions": [
                -0.689608677859963,
                -1.472990443504745,
                1.5275629390697896,
                -1.297377563966014,
                0.543309745615886,
                -1.2677710085148461
            ]
        },
        {
            "positions": [
                -0.6565887897400415,
                -1.4403548979746201,
                1.4974028932382173,
                -1.2746229287881214,
                0.4642871399096459,
                -1.4513608496778034
            ]
        },
        {
            "positions": [
                -0.5856702024490998,
                -1.4137334586595962,
                1.5420086696041035,
                -1.2362443955884723,
                0.43463052774047833,
                -1.6036823574486399
            ]
        },
        {
            "positions": [
                -0.5147516151581581,
                -1.3871120193445723,
                1.5866144459699898,
                -1.1978658623888234,
                0.4049739155713108,
                -1.7560038652194763
            ]
        },
        {
            "positions": [
                -0.44383302786721646,
                -1.3604905800295484,
                1.631220222335876,
                -1.1594873291891743,
                0.37531730340214325,
                -1.9083253729903125
            ]
        },
        {
            "positions": [
                -0.37291444057627476,
                -1.3338691407145244,
                1.6758259987017623,
                -1.1211087959895254,
                0.3456606912329757,
                -2.0606468807611487
            ]
        },
        {
            "positions": [
                -0.30199585328533307,
                -1.3072477013995005,
                1.7204317750676485,
                -1.0827302627898763,
                0.3160040790638081,
                -2.2129683885319853
            ]
        },
        {
            "positions": [
                -0.23107726599439143,
                -1.2806262620844766,
                1.7650375514335348,
                -1.0443517295902272,
                0.28634746689464063,
                -2.3652898963028215
            ]
        },
        {
            "positions": [
                -0.1601586787034497,
                -1.2540048227694527,
                1.8096433277994213,
                -1.0059731963905783,
                0.25669085472547304,
                -2.5176114040736577
            ]
        },
        {
            "positions": [
                -0.089240091412508,
                -1.2273833834544288,
                1.8542491041653075,
                -0.9675946631909291,
                0.2270342425563055,
                -2.6699329118444943
            ]
        },
        {
            "positions": [
                -0.0183215041215663,
                -1.2007619441394048,
                1.8988548805311938,
                -0.9292161299912801,
                0.19737763038713796,
                -2.822254419615331
            ]
        },
        {
            "positions": [
                0.05259708316937539,
                -1.174140504824381,
                1.94346065689708,
                -0.8908375967916311,
                0.16772101821797042,
                -2.9745759273861667
            ]
        },
        {
            "positions": [
                0.12351567046031713,
                -1.147519065509357,
                1.9880664332629663,
                -0.8524590635919821,
                0.13806440604880285,
                -3.1268974351570034
            ]
        }
    ]
}