{
    "goal": {
        "global_pose": {
            "orientation": {
                "w": 0.7047431468963623,
                "x": -0.7094548344612122,
                "y": 0.0024358443915843964,
                "z": -0.0022348060738295317
            },
            "position": {
                "x": 0.6094750761985779,
                "y": 0.3671506643295288,
                "z": 0.19426114857196808
            }
        },
        "name": "move_to_magneteinheit_A"
    },
    "id": "TRRT_move_to_magneteinheit_A_62",
    "joint_names": [
        "shoulder_pan_joint",
        "shoulder_lift_joint",
        "elbow_joint",
        "wrist_1_joint",
        "wrist_2_joint",
        "wrist_3_joint"
    ],
    "metrics": {
        "cart_traj_len": 1.2114530444368454,
        "distance_elbow_joint": 0.06926766461777323,
        "distance_shoulder_lift_joint": 0.7490418481204215,
        "distance_shoulder_pan_joint": 1.2426812526651965,
        "distance_wrist_1_joint": 0.7405293397074634,
        "distance_wrist_2_joint": 1.4721774914519703,
        "distance_wrist_3_joint": 4.24120696059808,
        "smoothness": 0.12960679790114815,
        "time": 0.598523982,
        "traj_len": 2.9180309383488217,
        "weighted_distance": 4.382924287449704
    },
    "planner": "TRRT",
    "start": {
        "state": {
            "elbow_joint": 1.919643534880228,
            "shoulder_lift_joint": -1.8972525353963687,
            "shoulder_pan_joint": -1.1188672234189438,
            "wrist_1_joint": -1.5931878212786155,
            "wrist_2_joint": 1.5706036197970081,
            "wrist_3_joint": 1.118896926603594
        }
    },
    "waypoints": [
        {
            "positions": [
                -1.1188672234189438,
                -1.8972525353963687,
                1.919643534880228,
                -1.5931878212786155,
                1.5706036197970081,
                1.118896926603594
            ]
        },
        {
            "positions": [
                -1.0633817557772824,
                -1.8636040141548451,
                1.9208463356254297,
                -1.559764186992893,
                1.5045893447628254,
                0.9282170046834668
            ]
        },
        {
            "positions": [
                -1.007896288135621,
                -1.8299554929133217,
                1.9220491363706316,
                -1.5263405527071705,
                1.4385750697286428,
                0.7375370827633396
            ]
        },
        {
            "positions": [
                -0.9524108204939598,
                -1.796306971671798,
                1.9232519371158332,
                -1.4929169184214481,
                1.37256079469446,
                0.5468571608432125
            ]
        },
        {
            "positions": [
                -0.8969253528522984,
                -1.7626584504302747,
                1.924454737861035,
                -1.4594932841357258,
                1.3065465196602772,
                0.3561772389230853
            ]
        },
        {
            "positions": [
                -0.8414398852106371,
                -1.729009929188751,
                1.9256575386062367,
                -1.4260696498500034,
                1.2405322446260947,
                0.1654973170029581
            ]
        },
        {
            "positions": [
                -0.7859544175689757,
                -1.6953614079472277,
                1.9268603393514385,
                -1.3926460155642808,
                1.174517969591912,
                -0.02518260491716906
            ]
        },
        {
            "positions": [
                -0.7304689499273143,
                -1.661712886705704,
                1.9280631400966404,
                -1.3592223812785584,
                1.1085036945577291,
                -0.21586252683729623
            ]
        },
        {
            "positions": [
                -0.6749834822856529,
                -1.6280643654641804,
                1.929265940841842,
                -1.325798746992836,
                1.0424894195235463,
                -0.4065424487574234
            ]
        },
        {
            "positions": [
                -0.6194980146439915,
                -1.5944158442226568,
                1.9304687415870436,
                -1.2923751127071137,
                0.9764751444893637,
                -0.5972223706775506
            ]
        },
        {
            "positions": [
                -0.5640125470023302,
                -1.5607673229811334,
                1.9316715423322455,
                -1.258951478421391,
                0.9104608694551811,
                -0.7879022925976777
            ]
        },
        {
            "positions": [
                -0.5085270793606688,
                -1.52711880173961,
                1.9328743430774473,
                -1.2255278441356687,
                0.8444465944209983,
                -0.9785822145178049
            ]
        },
        {
            "positions": [
                -0.4530416117190075,
                -1.4934702804980864,
                1.934077143822649,
                -1.1921042098499464,
                0.7784323193868157,
                -1.169262136437932
            ]
        },
        {
            "positions": [
                -0.39755614407734596,
                -1.4598217592565628,
                1.9352799445678506,
                -1.1586805755642238,
                0.7124180443526329,
                -1.3599420583580593
            ]
        },
        {
            "positions": [
                -0.3420706764356847,
                -1.4261732380150394,
                1.9364827453130524,
                -1.1252569412785014,
                0.6464037693184502,
                -1.5506219802781864
            ]
        },
        {
            "positions": [
                -0.2865852087940234,
                -1.392524716773516,
                1.9376855460582543,
                -1.091833306992779,
                0.5803894942842676,
                -1.7413019021983136
            ]
        },
        {
            "positions": [
                -0.23109974115236187,
                -1.3588761955319923,
                1.938888346803456,
                -1.0584096727070564,
                0.5143752192500848,
                -1.9319818241184408
            ]
        },
        {
            "positions": [
                -0.17561427351070058,
                -1.3252276742904687,
                1.9400911475486575,
                -1.0249860384213343,
                0.4483609442159022,
                -2.1226617460385677
            ]
        },
        {
            "positions": [
                -0.12012880586903907,
                -1.291579153048945,
                1.9412939482938594,
                -0.9915624041356117,
                0.3823466691817192,
                -2.313341667958695
            ]
        },
        {
            "positions": [
                -0.06464333822737789,
                -1.2579306318074215,
                1.9424967490390612,
                -0.9581387698498893,
                0.31633239414753667,
                -2.504021589878822
            ]
        },
        {
            "positions": [
                -0.009157870585716488,
                -1.2242821105658983,
                1.9436995497842628,
                -0.9247151355641668,
                0.2503181191133541,
                -2.6947015117989492
            ]
        },
        {
            "positions": [
                0.046327597055944914,
                -1.1906335893243747,
                1.9449023505294645,
                -0.8912915012784444,
                0.1843038440791711,
                -2.8853814337190764
            ]
        },
        {
            "positions": [
                0.10181306469760631,
                -1.156985068082851,
                1.9461051512746663,
                -0.857867866992722,
                0.11828956904498864,
                -3.0760613556392036
            ]
        },
        {
            "positions": [
                0.12381402924625251,
                -1.1482106872759472,
                1.9889111994980013,
                -0.8526584815711521,
                0.13815300974493935,
                -3.122310033994486
            ]
        }
    ]
}