{
    "goal": {
        "global_pose": {
            "orientation": {
                "w": 0.5084816217422485,
                "x": -0.49083608388900757,
                "y": 0.5182115435600281,
                "z": -0.4816462993621826
            },
            "position": {
                "x": 0.5540239810943604,
                "y": 0.030875300988554955,
                "z": 0.16403168439865112
            }
        },
        "name": "move_to_storage_A"
    },
    "id": "TRRT_move_to_storage_A_106",
    "joint_names": [
        "shoulder_pan_joint",
        "shoulder_lift_joint",
        "elbow_joint",
        "wrist_1_joint",
        "wrist_2_joint",
        "wrist_3_joint"
    ],
    "metrics": {
        "cart_traj_len": 0.3537483671095968,
        "distance_elbow_joint": 0.4492481465919598,
        "distance_shoulder_lift_joint": 0.23470480248320236,
        "distance_shoulder_pan_joint": 0.4614925304103746,
        "distance_wrist_1_joint": 0.2393652701025789,
        "distance_wrist_2_joint": 1.1048305991314389,
        "distance_wrist_3_joint": 0.0872633087032817,
        "smoothness": 1.1102230263833737e-15,
        "time": 0.022184922,
        "traj_len": 1.605274013189909,
        "weighted_distance": 2.0237655852552234
    },
    "planner": "TRRT",
    "start": {
        "state": {
            "elbow_joint": 1.9715477243005601,
            "shoulder_lift_joint": -1.1394853015351272,
            "shoulder_pan_joint": 0.12281154014795169,
            "wrist_1_joint": -0.7804696478968182,
            "wrist_2_joint": 0.12958648046900423,
            "wrist_3_joint": -3.192491284697111
        }
    },
    "waypoints": [
        {
            "positions": [
                0.12281154014795169,
                -1.1394853015351272,
                1.9715477243005601,
                -0.7804696478968182,
                0.12958648046900423,
                -3.192491284697111
            ]
        },
        {
            "positions": [
                0.05688403580361247,
                -1.1730145590327274,
                2.0357260309565546,
                -0.8146646864829009,
                0.2874194232020669,
                -3.1800250977394997
            ]
        },
        {
            "positions": [
                -0.009043468540726754,
                -1.206543816530328,
                2.0999043376125486,
                -0.8488597250689836,
                0.4452523659351296,
                -3.167558910781888
            ]
        },
        {
            "positions": [
                -0.07497097288506598,
                -1.2400730740279282,
                2.164082644268543,
                -0.8830547636550663,
                0.6030853086681923,
                -3.1550927238242763
            ]
        },
        {
            "positions": [
                -0.14089847722940518,
                -1.2736023315255285,
                2.228260950924537,
                -0.9172498022411489,
                0.760918251401255,
                -3.1426265368666644
            ]
        },
        {
            "positions": [
                -0.20682598157374443,
                -1.307131589023129,
                2.2924392575805315,
                -0.9514448408272317,
                0.9187511941343177,
                -3.130160349909053
            ]
        },
        {
            "positions": [
                -0.2727534859180836,
                -1.3406608465207293,
                2.3566175642365255,
                -0.9856398794133143,
                1.0765841368673805,
                -3.117694162951441
            ]
        },
        {
            "positions": [
                -0.3386809902624229,
                -1.3741901040183295,
                2.42079587089252,
                -1.019834917999397,
                1.234417079600443,
                -3.1052279759938295
            ]
        }
    ]
}