{
    "goal": {
        "global_pose": {
            "orientation": {
                "w": 0.5084816217422485,
                "x": -0.49083608388900757,
                "y": 0.5182115435600281,
                "z": -0.4816462993621826
            },
            "position": {
                "x": 0.5540239810943604,
                "y": 0.030875300988554955,
                "z": 0.16403168439865112
            }
        },
        "name": "move_to_storage_A"
    },
    "id": "TRRT_move_to_storage_A_115",
    "joint_names": [
        "shoulder_pan_joint",
        "shoulder_lift_joint",
        "elbow_joint",
        "wrist_1_joint",
        "wrist_2_joint",
        "wrist_3_joint"
    ],
    "metrics": {
        "cart_traj_len": 0.3534902398008238,
        "distance_elbow_joint": 0.44734603054622424,
        "distance_shoulder_lift_joint": 0.2343441165036937,
        "distance_shoulder_pan_joint": 0.46028948928682023,
        "distance_wrist_1_joint": 0.2361673687773832,
        "distance_wrist_2_joint": 1.10728272282469,
        "distance_wrist_3_joint": 0.10059985619961198,
        "smoothness": 4.440892098500626e-16,
        "time": 0.030737344,
        "traj_len": 1.6081136726420877,
        "weighted_distance": 2.032407288940807
    },
    "planner": "TRRT",
    "start": {
        "state": {
            "elbow_joint": 1.9715477243005601,
            "shoulder_lift_joint": -1.1394853015351272,
            "shoulder_pan_joint": 0.12281154014795169,
            "wrist_1_joint": -0.7804696478968182,
            "wrist_2_joint": 0.12958648046900423,
            "wrist_3_joint": -3.192491284697111
        }
    },
    "waypoints": [
        {
            "positions": [
                0.12281154014795169,
                -1.1394853015351272,
                1.9715477243005601,
                -0.7804696478968182,
                0.12958648046900423,
                -3.192491284697111
            ]
        },
        {
            "positions": [
                0.05705589882126309,
                -1.1729630324642262,
                2.0354543000928778,
                -0.8142078434364444,
                0.2877697265868171,
                -3.178119876668595
            ]
        },
        {
            "positions": [
                -0.008699742505425503,
                -1.2064407633933254,
                2.099360875885196,
                -0.8479460389760705,
                0.4459529727046299,
                -3.163748468640079
            ]
        },
        {
            "positions": [
                -0.0744553838321141,
                -1.2399184943224244,
                2.1632674516775134,
                -0.8816842345156967,
                0.6041362188224428,
                -3.149377060611563
            ]
        },
        {
            "positions": [
                -0.14021102515880268,
                -1.2733962252515236,
                2.227174027469831,
                -0.9154224300553229,
                0.7623194649402556,
                -3.135005652583047
            ]
        },
        {
            "positions": [
                -0.20596666648549133,
                -1.3068739561806226,
                2.2910806032621487,
                -0.949160625594949,
                0.9205027110580685,
                -3.120634244554531
            ]
        },
        {
            "positions": [
                -0.2717223078121799,
                -1.3403516871097216,
                2.3549871790544668,
                -0.9828988211345752,
                1.0786859571758813,
                -3.106262836526015
            ]
        },
        {
            "positions": [
                -0.3374779491388685,
                -1.3738294180388209,
                2.4188937548467844,
                -1.0166370166742014,
                1.236869203293694,
                -3.091891428497499
            ]
        }
    ]
}