{
    "goal": {
        "global_pose": {
            "orientation": {
                "w": 0.7047431468963623,
                "x": -0.7094548344612122,
                "y": 0.0024358443915843964,
                "z": -0.0022348060738295317
            },
            "position": {
                "x": 0.6094750761985779,
                "y": 0.3671506643295288,
                "z": 0.19426114857196808
            }
        },
        "name": "move_to_magneteinheit_A"
    },
    "id": "TRRT_move_to_magneteinheit_A_57",
    "joint_names": [
        "shoulder_pan_joint",
        "shoulder_lift_joint",
        "elbow_joint",
        "wrist_1_joint",
        "wrist_2_joint",
        "wrist_3_joint"
    ],
    "metrics": {
        "cart_traj_len": 3.3075789752122278,
        "distance_elbow_joint": 3.895058153002706,
        "distance_shoulder_lift_joint": 0.5411601521546101,
        "distance_shoulder_pan_joint": 3.229381381952728,
        "distance_wrist_1_joint": 2.2307517259769214,
        "distance_wrist_2_joint": 1.8176115446955114,
        "distance_wrist_3_joint": 3.6275759272303696,
        "smoothness": 0.26059546790985855,
        "time": 0.178753852,
        "traj_len": 3.916827655771039,
        "weighted_distance": 5.161884734294832
    },
    "planner": "TRRT",
    "start": {
        "state": {
            "elbow_joint": -1.919618573717145,
            "shoulder_lift_joint": -1.2443395971678275,
            "shoulder_pan_joint": 2.6996025300909787,
            "wrist_1_joint": -1.548550951253194,
            "wrist_2_joint": -1.5709469090946802,
            "wrist_3_joint": 0.4420197732051276
        }
    },
    "waypoints": [
        {
            "positions": [
                2.6996025300909787,
                -1.2443395971678275,
                -1.919618573717145,
                -1.548550951253194,
                -1.5709469090946802,
                0.4420197732051276
            ]
        },
        {
            "positions": [
                2.6116400332626903,
                -1.2510033987931748,
                -1.8211338286055596,
                -1.503250954297568,
                -1.5226907697209846,
                0.3428810843901181
            ]
        },
        {
            "positions": [
                2.523677536434402,
                -1.257667200418522,
                -1.7226490834939743,
                -1.4579509573419418,
                -1.4744346303472888,
                0.24374239557510868
            ]
        },
        {
            "positions": [
                2.435715039606114,
                -1.2643310020438696,
                -1.6241643383823892,
                -1.4126509603863158,
                -1.4261784909735933,
                0.1446037067600992
            ]
        },
        {
            "positions": [
                2.3477525427778256,
                -1.270994803669217,
                -1.5256795932708038,
                -1.3673509634306895,
                -1.3779223515998977,
                0.04546501794508978
            ]
        },
        {
            "positions": [
                2.2597900459495373,
                -1.2776586052945642,
                -1.4271948481592185,
                -1.3220509664750635,
                -1.329666212226202,
                -0.0536736708699197
            ]
        },
        {
            "positions": [
                2.171827549121249,
                -1.2843224069199115,
                -1.3287101030476332,
                -1.2767509695194375,
                -1.2814100728525064,
                -0.15281235968492918
            ]
        },
        {
            "positions": [
                2.0838650522929605,
                -1.290986208545259,
                -1.2302253579360478,
                -1.2314509725638112,
                -1.2331539334788109,
                -0.2519510484999386
            ]
        },
        {
            "positions": [
                1.9959025554646725,
                -1.2976500101706063,
                -1.1317406128244625,
                -1.1861509756081852,
                -1.1848977941051153,
                -0.351089737314948
            ]
        },
        {
            "positions": [
                1.9079400586363842,
                -1.3043138117959536,
                -1.0332558677128774,
                -1.140850978652559,
                -1.1366416547314198,
                -0.45022842612995745
            ]
        },
        {
            "positions": [
                1.8199775618080958,
                -1.310977613421301,
                -0.9347711226012919,
                -1.0955509816969329,
                -1.088385515357724,
                -0.549367114944967
            ]
        },
        {
            "positions": [
                1.7320150649798076,
                -1.3176414150466484,
                -0.8362863774897067,
                -1.0502509847413068,
                -1.0401293759840284,
                -0.6485058037599762
            ]
        },
        {
            "positions": [
                1.6440525681515192,
                -1.3243052166719957,
                -0.7378016323781214,
                -1.0049509877856806,
                -0.9918732366103328,
                -0.7476444925749859
            ]
        },
        {
            "positions": [
                1.556090071323231,
                -1.330969018297343,
                -0.6393168872665362,
                -0.9596509908300546,
                -0.9436170972366371,
                -0.8467831813899951
            ]
        },
        {
            "positions": [
                1.4681275744949427,
                -1.3376328199226903,
                -0.5408321421549507,
                -0.9143509938744284,
                -0.8953609578629415,
                -0.9459218702050047
            ]
        },
        {
            "positions": [
                1.3801650776666545,
                -1.3442966215480379,
                -0.44234739704336556,
                -0.8690509969188023,
                -0.8471048184892459,
                -1.0450605590200142
            ]
        },
        {
            "positions": [
                1.2922025808383661,
                -1.3509604231733852,
                -0.3438626519317802,
                -0.8237509999631761,
                -0.7988486791155502,
                -1.1441992478350236
            ]
        },
        {
            "positions": [
                1.2042400840100778,
                -1.3576242247987325,
                -0.2453779068201949,
                -0.7784510030075501,
                -0.7505925397418547,
                -1.243337936650033
            ]
        },
        {
            "positions": [
                1.1162775871817896,
                -1.3642880264240798,
                -0.14689316170860978,
                -0.733151006051924,
                -0.7023364003681591,
                -1.3424766254650424
            ]
        },
        {
            "positions": [
                1.028315090353501,
                -1.3709518280494273,
                -0.04840841659702422,
                -0.6878510090962977,
                -0.6540802609944634,
                -1.441615314280052
            ]
        },
        {
            "positions": [
                0.9403525935252128,
                -1.3776156296747746,
                0.05007632851456112,
                -0.6425510121406717,
                -0.6058241216207678,
                -1.5407540030950615
            ]
        },
        {
            "positions": [
                0.8523900966969247,
                -1.3842794313001219,
                0.14856107362614623,
                -0.5972510151850456,
                -0.5575679822470723,
                -1.6398926919100707
            ]
        },
        {
            "positions": [
                0.7644275998686365,
                -1.3909432329254692,
                0.24704581873773157,
                -0.5519510182294195,
                -0.5093118428733767,
                -1.7390313807250801
            ]
        },
        {
            "positions": [
                0.6764651030403481,
                -1.3976070345508167,
                0.3455305638493169,
                -0.5066510212737934,
                -0.46105570349968095,
                -1.83817006954009
            ]
        },
        {
            "positions": [
                0.5885026062120597,
                -1.404270836176164,
                0.44401530896090224,
                -0.4613510243181671,
                -0.4127995641259854,
                -1.9373087583550994
            ]
        },
        {
            "positions": [
                0.5005401093837714,
                -1.4109346378015113,
                0.5425000540724876,
                -0.41605102736254107,
                -0.3645434247522896,
                -2.0364474471701084
            ]
        },
        {
            "positions": [
                0.4125776125554834,
                -1.4175984394268586,
                0.6409847991840725,
                -0.37075103040691504,
                -0.3162872853785941,
                -2.135586135985118
            ]
        },
        {
            "positions": [
                0.3246151157271946,
                -1.4242622410522061,
                0.7394695442956583,
                -0.3254510334512888,
                -0.2680311460048983,
                -2.2347248248001277
            ]
        },
        {
            "positions": [
                0.23665261889890665,
                -1.4309260426775534,
                0.8379542894072436,
                -0.28015103649566275,
                -0.21977500663120275,
                -2.333863513615137
            ]
        },
        {
            "positions": [
                0.14869012207061827,
                -1.4375898443029007,
                0.9364390345188285,
                -0.23485103954003672,
                -0.1715188672575072,
                -2.4330022024301465
            ]
        },
        {
            "positions": [
                0.06072762524233033,
                -1.444253645928248,
                1.0349237796304138,
                -0.18955104258441047,
                -0.12326272788381165,
                -2.532140891245156
            ]
        },
        {
            "positions": [
                -0.027234871585958498,
                -1.4509174475535955,
                1.1334085247419996,
                -0.1442510456287842,
                -0.07500658851011588,
                -2.6312795800601654
            ]
        },
        {
            "positions": [
                -0.11519736841424644,
                -1.4575812491789428,
                1.2318932698535845,
                -0.09895104867315818,
                -0.02675044913642033,
                -2.730418268875175
            ]
        },
        {
            "positions": [
                -0.20315986524253465,
                -1.4642450508042901,
                1.3303780149651696,
                -0.05365105171753215,
                0.02150569023727511,
                -2.8295569576901842
            ]
        },
        {
            "positions": [
                -0.16083086219599757,
                -1.4253294412458262,
                1.436252934554556,
                -0.18194730746930002,
                0.055747882155733654,
                -2.848756456979638
            ]
        },
        {
            "positions": [
                -0.11850185914946049,
                -1.3864138316873622,
                1.5421278541439425,
                -0.3102435632210679,
                0.0899900740741922,
                -2.8679559562690913
            ]
        },
        {
            "positions": [
                -0.0761728561029234,
                -1.3474982221288982,
                1.648002773733329,
                -0.4385398189728357,
                0.12423226599265073,
                -2.887155455558545
            ]
        },
        {
            "positions": [
                -0.03384385305638632,
                -1.3085826125704343,
                1.7538776933227156,
                -0.5668360747246036,
                0.15847445791110928,
                -2.9063549548479983
            ]
        },
        {
            "positions": [
                0.008485149990150764,
                -1.2696670030119703,
                1.859752612912102,
                -0.6951323304763715,
                0.19271664982956782,
                -2.925554454137452
            ]
        },
        {
            "positions": [
                0.06597213568341587,
                -1.2063286776490565,
                1.9175960960988316,
                -0.7423176043175814,
                0.16574265694393617,
                -3.055555304081347
            ]
        },
        {
            "positions": [
                0.12345912137668096,
                -1.1429903522861427,
                1.9754395792855615,
                -0.7895028781587914,
                0.13876866405830451,
                -3.185556154025242
            ]
        }
    ]
}{
    "goal": {
        "global_pose": {
            "orientation": {
                "w": 0.7047431468963623,
                "x": -0.7094548344612122,
                "y": 0.0024358443915843964,
                "z": -0.0022348060738295317
            },
            "position": {
                "x": 0.6094750761985779,
                "y": 0.3671506643295288,
                "z": 0.19426114857196808
            }
        },
        "name": "move_to_magneteinheit_A"
    },
    "id": "TRRT_move_to_magneteinheit_A_57",
    "joint_names": [
        "shoulder_pan_joint",
        "shoulder_lift_joint",
        "elbow_joint",
        "wrist_1_joint",
        "wrist_2_joint",
        "wrist_3_joint"
    ],
    "metrics": {
        "cart_traj_len": 1.1502163366038507,
        "distance_elbow_joint": 0.1318214804225608,
        "distance_shoulder_lift_joint": 0.7685060691358814,
        "distance_shoulder_pan_joint": 1.2429054020270784,
        "distance_wrist_1_joint": 1.0175951156831418,
        "distance_wrist_2_joint": 1.4411375547013143,
        "distance_wrist_3_joint": 4.375465258576067,
        "smoothness": 0.032393570714485544,
        "time": 0.057127665999999994,
        "traj_len": 2.99623611895759,
        "weighted_distance": 4.493005015363619
    },
    "planner": "TRRT",
    "start": {
        "state": {
            "elbow_joint": 1.919643534880228,
            "shoulder_lift_joint": -1.8972525353963687,
            "shoulder_pan_joint": -1.1188672234189438,
            "wrist_1_joint": -1.5931878212786155,
            "wrist_2_joint": 1.5706036197970081,
            "wrist_3_joint": 1.118896926603594
        }
    },
    "waypoints": [
        {
            "positions": [
                -1.1188672234189438,
                -1.8972525353963687,
                1.919643534880228,
                -1.5931878212786155,
                1.5706036197970081,
                1.118896926603594
            ]
        },
        {
            "positions": [
                -1.0844545499119849,
                -1.880087532259314,
                1.9155942236507733,
                -1.5137653866738856,
                1.4743939872257261,
                0.9744991638294118
            ]
        },
        {
            "positions": [
                -1.050041876405026,
                -1.862922529122259,
                1.9115449124213182,
                -1.4343429520691555,
                1.378184354654444,
                0.8301014010552298
            ]
        },
        {
            "positions": [
                -1.0156292028980671,
                -1.8457575259852044,
                1.9074956011918633,
                -1.3549205174644257,
                1.281974722083162,
                0.6857036382810476
            ]
        },
        {
            "positions": [
                -0.9812165293911081,
                -1.8285925228481497,
                1.9034462899624083,
                -1.2754980828596958,
                1.18576508951188,
                0.5413058755068656
            ]
        },
        {
            "positions": [
                -0.9468038558841493,
                -1.811427519711095,
                1.8993969787329534,
                -1.1960756482549657,
                1.0895554569405979,
                0.39690811273268334
            ]
        },
        {
            "positions": [
                -0.9123911823771904,
                -1.7942625165740402,
                1.8953476675034984,
                -1.1166532136502356,
                0.9933458243693158,
                0.2525103499585013
            ]
        },
        {
            "positions": [
                -0.8779785088702314,
                -1.7770975134369853,
                1.8912983562740435,
                -1.0372307790455058,
                0.8971361917980337,
                0.10811258718431915
            ]
        },
        {
            "positions": [
                -0.8435658353632726,
                -1.7599325102999306,
                1.8872490450445887,
                -0.9578083444407759,
                0.8009265592267518,
                -0.03628517558986277
            ]
        },
        {
            "positions": [
                -0.8091531618563136,
                -1.7427675071628759,
                1.8831997338151336,
                -0.8783859098360458,
                0.7047169266554697,
                -0.18068293836404492
            ]
        },
        {
            "positions": [
                -0.7747404883493547,
                -1.725602504025821,
                1.8791504225856788,
                -0.7989634752313158,
                0.6085072940841876,
                -0.3250807011382273
            ]
        },
        {
            "positions": [
                -0.7403278148423957,
                -1.7084375008887662,
                1.8751011113562237,
                -0.719541040626586,
                0.5122976615129056,
                -0.4694784639124092
            ]
        },
        {
            "positions": [
                -0.7059151413354369,
                -1.6912724977517115,
                1.8710518001267689,
                -0.640118606021856,
                0.41608802894162367,
                -0.6138762266865914
            ]
        },
        {
            "positions": [
                -0.6367523646734726,
                -1.6443953284607762,
                1.8779876122658608,
                -0.6454957643907212,
                0.39220286528779624,
                -0.8341005687937482
            ]
        },
        {
            "positions": [
                -0.5675895880115083,
                -1.5975181591698409,
                1.8849234244049524,
                -0.6508729227595864,
                0.36831770163396876,
                -1.0543249109009052
            ]
        },
        {
            "positions": [
                -0.49842681134954403,
                -1.5506409898789055,
                1.8918592365440443,
                -0.6562500811284515,
                0.34443253798014134,
                -1.274549253008062
            ]
        },
        {
            "positions": [
                -0.4292640346875798,
                -1.5037638205879702,
                1.898795048683136,
                -0.6616272394973167,
                0.3205473743263139,
                -1.4947735951152188
            ]
        },
        {
            "positions": [
                -0.36010125802561543,
                -1.4568866512970349,
                1.9057308608222279,
                -0.6670043978661819,
                0.29666221067248644,
                -1.7149979372223758
            ]
        },
        {
            "positions": [
                -0.2909384813636512,
                -1.4100094820060995,
                1.9126666729613198,
                -0.6723815562350471,
                0.272777047018659,
                -1.9352222793295326
            ]
        },
        {
            "positions": [
                -0.2217757047016869,
                -1.363132312715164,
                1.9196024851004114,
                -0.6777587146039123,
                0.24889188336483156,
                -2.1554466214366896
            ]
        },
        {
            "positions": [
                -0.1526129280397227,
                -1.316255143424229,
                1.9265382972395033,
                -0.6831358729727776,
                0.22500671971100414,
                -2.375670963543846
            ]
        },
        {
            "positions": [
                -0.08345015137775835,
                -1.2693779741332933,
                1.933474109378595,
                -0.6885130313416428,
                0.2011215560571767,
                -2.5958953056510032
            ]
        },
        {
            "positions": [
                -0.014287374715793999,
                -1.222500804842358,
                1.9404099215176869,
                -0.6938901897105079,
                0.17723639240334924,
                -2.8161196477581605
            ]
        },
        {
            "positions": [
                0.05487540194617013,
                -1.1756236355514227,
                1.9473457336567785,
                -0.6992673480793731,
                0.15335122874952184,
                -3.0363439898653173
            ]
        },
        {
            "positions": [
                0.12403817860813446,
                -1.1287464662604874,
                1.9542815457958704,
                -0.7046445064482383,
                0.12946606509569433,
                -3.2565683319724736
            ]
        }
    ]
}