{
    "goal": {
        "global_pose": {
            "orientation": {
                "w": 0.7047431468963623,
                "x": -0.7094548344612122,
                "y": 0.0024358443915843964,
                "z": -0.0022348060738295317
            },
            "position": {
                "x": 0.6094750761985779,
                "y": 0.3671506643295288,
                "z": 0.19426114857196808
            }
        },
        "name": "move_to_magneteinheit_A"
    },
    "id": "TRRT_move_to_magneteinheit_A_55",
    "joint_names": [
        "shoulder_pan_joint",
        "shoulder_lift_joint",
        "elbow_joint",
        "wrist_1_joint",
        "wrist_2_joint",
        "wrist_3_joint"
    ],
    "metrics": {
        "cart_traj_len": 3.266303040554414,
        "distance_elbow_joint": 3.9251807279079847,
        "distance_shoulder_lift_joint": 0.7734595915739746,
        "distance_shoulder_pan_joint": 2.625302616815976,
        "distance_wrist_1_joint": 3.515049780142145,
        "distance_wrist_2_joint": 1.4449970320728092,
        "distance_wrist_3_joint": 0.4825565445716138,
        "smoothness": 0.13884086634042608,
        "time": 0.089995982,
        "traj_len": 3.5730304075230737,
        "weighted_distance": 4.323390590085827
    },
    "planner": "TRRT",
    "start": {
        "state": {
            "elbow_joint": -1.919618573717145,
            "shoulder_lift_joint": -1.2443395971678275,
            "shoulder_pan_joint": 2.6996025300909787,
            "wrist_1_joint": -1.548550951253194,
            "wrist_2_joint": -1.5709469090946802,
            "wrist_3_joint": 0.4420197732051276
        }
    },
    "waypoints": [
        {
            "positions": [
                2.6996025300909787,
                -1.2443395971678275,
                -1.919618573717145,
                -1.548550951253194,
                -1.5709469090946802,
                0.4420197732051276
            ]
        },
        {
            "positions": [
                2.6009170926992136,
                -1.2291992971419137,
                -1.8181977910932958,
                -1.4226944675640159,
                -1.5345790389694078,
                0.43384817033323214
            ]
        },
        {
            "positions": [
                2.5022316553074484,
                -1.2140589971159996,
                -1.716777008469447,
                -1.2968379838748376,
                -1.4982111688441355,
                0.42567656746133675
            ]
        },
        {
            "positions": [
                2.4035462179156837,
                -1.1989186970900858,
                -1.6153562258455978,
                -1.1709815001856594,
                -1.4618432987188634,
                0.4175049645894413
            ]
        },
        {
            "positions": [
                2.3048607805239185,
                -1.1837783970641718,
                -1.5139354432217487,
                -1.0451250164964814,
                -1.425475428593591,
                0.40933336171754586
            ]
        },
        {
            "positions": [
                2.2061753431321534,
                -1.168638097038258,
                -1.4125146605978998,
                -0.9192685328073031,
                -1.3891075584683188,
                0.4011617588456504
            ]
        },
        {
            "positions": [
                2.1074899057403886,
                -1.1534977970123441,
                -1.3110938779740506,
                -0.7934120491181249,
                -1.3527396883430465,
                0.39299015597375503
            ]
        },
        {
            "positions": [
                2.0088044683486235,
                -1.13835749698643,
                -1.2096730953502017,
                -0.6675555654289469,
                -1.3163718182177742,
                0.3848185531018596
            ]
        },
        {
            "positions": [
                1.9101190309568583,
                -1.1232171969605163,
                -1.1082523127263526,
                -0.5416990817397687,
                -1.280003948092502,
                0.37664695022996414
            ]
        },
        {
            "positions": [
                1.8114335935650934,
                -1.1080768969346022,
                -1.0068315301025037,
                -0.41584259805059043,
                -1.2436360779672297,
                0.36847534735806875
            ]
        },
        {
            "positions": [
                1.7127481561733282,
                -1.0929365969086884,
                -0.9054107474786546,
                -0.2899861143614122,
                -1.2072682078419574,
                0.3603037444861733
            ]
        },
        {
            "positions": [
                1.6140627187815633,
                -1.0777962968827746,
                -0.8039899648548055,
                -0.16412963067223418,
                -1.1709003377166851,
                0.35213214161427786
            ]
        },
        {
            "positions": [
                1.515377281389798,
                -1.0626559968568605,
                -0.7025691822309563,
                -0.03827314698305573,
                -1.1345324675914128,
                0.3439605387423824
            ]
        },
        {
            "positions": [
                1.4166918439980332,
                -1.0475156968309467,
                -0.6011483996071074,
                0.08758333670612228,
                -1.0981645974661407,
                0.33578893587048697
            ]
        },
        {
            "positions": [
                1.3180064066062682,
                -1.0323753968050327,
                -0.4997276169832585,
                0.2134398203953003,
                -1.0617967273408684,
                0.3276173329985916
            ]
        },
        {
            "positions": [
                1.2193209692145033,
                -1.0172350967791188,
                -0.3983068343594094,
                0.33929630408447853,
                -1.025428857215596,
                0.31944573012669614
            ]
        },
        {
            "positions": [
                1.120635531822738,
                -1.0020947967532048,
                -0.29688605173556026,
                0.46515278777365676,
                -0.9890609870903238,
                0.3112741272548007
            ]
        },
        {
            "positions": [
                1.021950094430973,
                -0.986954496727291,
                -0.19546526911171114,
                0.591009271462835,
                -0.9526931169650514,
                0.3031025243829053
            ]
        },
        {
            "positions": [
                0.923264657039208,
                -0.9718141967013771,
                -0.09404448648786223,
                0.7168657551520132,
                -0.9163252468397792,
                0.29493092151100986
            ]
        },
        {
            "positions": [
                0.8245792196474431,
                -0.9566738966754632,
                0.007376296135986671,
                0.842722238841191,
                -0.879957376714507,
                0.2867593186391144
            ]
        },
        {
            "positions": [
                0.7258937822556777,
                -0.9415335966495493,
                0.1087970787598358,
                0.9685787225303697,
                -0.8435895065892346,
                0.27858771576721897
            ]
        },
        {
            "positions": [
                0.627208344863913,
                -0.9263932966236353,
                0.21021786138368515,
                1.094435206219548,
                -0.8072216364639624,
                0.2704161128953235
            ]
        },
        {
            "positions": [
                0.5285229074721478,
                -0.9112529965977214,
                0.31163864400753405,
                1.2202916899087257,
                -0.7708537663386902,
                0.26224451002342813
            ]
        },
        {
            "positions": [
                0.42983747008038264,
                -0.8961126965718076,
                0.41305942663138295,
                1.346148173597904,
                -0.7344858962134179,
                0.25407290715153275
            ]
        },
        {
            "positions": [
                0.3311520326886175,
                -0.8809723965458935,
                0.5144802092552323,
                1.4720046572870826,
                -0.6981180260881455,
                0.24590130427963727
            ]
        },
        {
            "positions": [
                0.23246659529685276,
                -0.8658320965199797,
                0.6159009918790812,
                1.5978611409762604,
                -0.6617501559628732,
                0.23772970140774183
            ]
        },
        {
            "positions": [
                0.13378115790508777,
                -0.8506917964940658,
                0.7173217745029299,
                1.7237176246654387,
                -0.625382285837601,
                0.2295580985358464
            ]
        },
        {
            "positions": [
                0.13975391857353486,
                -0.7945588092480089,
                0.8578515884529865,
                1.7413717040012706,
                -0.5360057702268868,
                0.2230439116293699
            ]
        },
        {
            "positions": [
                0.145726679241982,
                -0.7384258220019521,
                0.9983814024030431,
                1.7590257833371028,
                -0.44662925461617264,
                0.2165297247228934
            ]
        },
        {
            "positions": [
                0.1516994399104291,
                -0.6822928347558952,
                1.1389112163530997,
                1.776679862672935,
                -0.35725273900545845,
                0.2100155378164169
            ]
        },
        {
            "positions": [
                0.1576722005788762,
                -0.6261598475098383,
                1.2794410303031563,
                1.794333942008767,
                -0.26787622339474426,
                0.2035013509099404
            ]
        },
        {
            "positions": [
                0.1487746500898021,
                -0.6649798079888347,
                1.460971311275077,
                1.8373751637288127,
                -0.23239463680152603,
                0.14249182034083374
            ]
        },
        {
            "positions": [
                0.13987709960072797,
                -0.703799768467831,
                1.6425015922469979,
                1.8804163854488585,
                -0.1969130502083078,
                0.08148228977172711
            ]
        },
        {
            "positions": [
                0.13097954911165383,
                -0.7426197289468274,
                1.8240318732189187,
                1.9234576071689045,
                -0.16143146361508956,
                0.020472759202620455
            ]
        },
        {
            "positions": [
                0.12208199862257971,
                -0.7814396894258238,
                2.0055621541908395,
                1.9664988288889502,
                -0.12594987702187133,
                -0.04053677136648619
            ]
        }
    ]
}{
    "goal": {
        "global_pose": {
            "orientation": {
                "w": 0.7047431468963623,
                "x": -0.7094548344612122,
                "y": 0.0024358443915843964,
                "z": -0.0022348060738295317
            },
            "position": {
                "x": 0.6094750761985779,
                "y": 0.3671506643295288,
                "z": 0.19426114857196808
            }
        },
        "name": "move_to_magneteinheit_A"
    },
    "id": "TRRT_move_to_magneteinheit_A_55",
    "joint_names": [
        "shoulder_pan_joint",
        "shoulder_lift_joint",
        "elbow_joint",
        "wrist_1_joint",
        "wrist_2_joint",
        "wrist_3_joint"
    ],
    "metrics": {
        "cart_traj_len": 1.35973650077273,
        "distance_elbow_joint": 0.4963236183617348,
        "distance_shoulder_lift_joint": 0.7895854755836977,
        "distance_shoulder_pan_joint": 1.2421678039267956,
        "distance_wrist_1_joint": 0.8358105343891381,
        "distance_wrist_2_joint": 1.4344492251443572,
        "distance_wrist_3_joint": 4.33848636074032,
        "smoothness": 0.05286905052753708,
        "time": 0.095106477,
        "traj_len": 3.022717819801585,
        "weighted_distance": 4.4815237921002025
    },
    "planner": "TRRT",
    "start": {
        "state": {
            "elbow_joint": 1.919643534880228,
            "shoulder_lift_joint": -1.8972525353963687,
            "shoulder_pan_joint": -1.1188672234189438,
            "wrist_1_joint": -1.5931878212786155,
            "wrist_2_joint": 1.5706036197970081,
            "wrist_3_joint": 1.118896926603594
        }
    },
    "waypoints": [
        {
            "positions": [
                -1.1188672234189438,
                -1.8972525353963687,
                1.919643534880228,
                -1.5931878212786155,
                1.5706036197970081,
                1.118896926603594
            ]
        },
        {
            "positions": [
                -1.0719804701025073,
                -1.8516756572144581,
                1.9064423285361927,
                -1.5456293876227873,
                1.4949427581405752,
                0.9576924011828926
            ]
        },
        {
            "positions": [
                -1.025093716786071,
                -1.8060987790325478,
                1.8932411221921572,
                -1.4980709539669592,
                1.419281896484142,
                0.7964878757621912
            ]
        },
        {
            "positions": [
                -0.9782069634696344,
                -1.7605219008506372,
                1.8800399158481218,
                -1.450512520311131,
                1.3436210348277091,
                0.6352833503414897
            ]
        },
        {
            "positions": [
                -0.931320210153198,
                -1.7149450226687266,
                1.8668387095040864,
                -1.402954086655303,
                1.267960173171276,
                0.47407882492078834
            ]
        },
        {
            "positions": [
                -0.8844334568367616,
                -1.669368144486816,
                1.853637503160051,
                -1.3553956529994748,
                1.192299311514843,
                0.31287429950008694
            ]
        },
        {
            "positions": [
                -0.837546703520325,
                -1.6237912663049054,
                1.8404362968160155,
                -1.307837219343647,
                1.11663844985841,
                0.15166977407938553
            ]
        },
        {
            "positions": [
                -0.7906599502038886,
                -1.578214388122995,
                1.82723509047198,
                -1.2602787856878188,
                1.0409775882019772,
                -0.009534751341315761
            ]
        },
        {
            "positions": [
                -0.7437731968874521,
                -1.5326375099410845,
                1.8140338841279446,
                -1.2127203520319907,
                0.965316726545544,
                -0.17073927676201728
            ]
        },
        {
            "positions": [
                -0.6968864435710156,
                -1.487060631759174,
                1.8008326777839092,
                -1.1651619183761626,
                0.8896558648891111,
                -0.3319438021827186
            ]
        },
        {
            "positions": [
                -0.6499996902545792,
                -1.4414837535772633,
                1.7876314714398738,
                -1.1176034847203344,
                0.813995003232678,
                -0.4931483276034201
            ]
        },
        {
            "positions": [
                -0.6031129369381427,
                -1.3959068753953527,
                1.7744302650958383,
                -1.0700450510645063,
                0.738334141576245,
                -0.6543528530241216
            ]
        },
        {
            "positions": [
                -0.5562261836217062,
                -1.3503299972134424,
                1.761229058751803,
                -1.0224866174086782,
                0.662673279919812,
                -0.8155573784448229
            ]
        },
        {
            "positions": [
                -0.5093394303052698,
                -1.3047531190315318,
                1.7480278524077675,
                -0.9749281837528502,
                0.587012418263379,
                -0.9767619038655242
            ]
        },
        {
            "positions": [
                -0.4624526769888333,
                -1.2591762408496212,
                1.734826646063732,
                -0.927369750097022,
                0.511351556606946,
                -1.1379664292862255
            ]
        },
        {
            "positions": [
                -0.41556592367239686,
                -1.2135993626677108,
                1.7216254397196966,
                -0.8798113164411939,
                0.43569069495051305,
                -1.2991709547069268
            ]
        },
        {
            "positions": [
                -0.3686791703559603,
                -1.1680224844858003,
                1.7084242333756612,
                -0.8322528827853658,
                0.3600298332940799,
                -1.4603754801276285
            ]
        },
        {
            "positions": [
                -0.32179241703952394,
                -1.1224456063038897,
                1.6952230270316258,
                -0.7846944491295377,
                0.28436897163764685,
                -1.6215800055483296
            ]
        },
        {
            "positions": [
                -0.2582077031041845,
                -1.1245568272312065,
                1.7340663285335018,
                -0.7807919973809576,
                0.2631954606397903,
                -1.8498670667752433
            ]
        },
        {
            "positions": [
                -0.1946229891688451,
                -1.1266680481585236,
                1.772909630035378,
                -0.7768895456323776,
                0.24202194964193377,
                -2.078154128002157
            ]
        },
        {
            "positions": [
                -0.1310382752335057,
                -1.1287792690858405,
                1.811752931537254,
                -0.7729870938837975,
                0.22084843864407722,
                -2.3064411892290706
            ]
        },
        {
            "positions": [
                -0.06745356129816626,
                -1.1308904900131576,
                1.85059623303913,
                -0.7690846421352175,
                0.1996749276462207,
                -2.5347282504559843
            ]
        },
        {
            "positions": [
                -0.0038688473628268327,
                -1.1330017109404744,
                1.889439534541006,
                -0.7651821903866375,
                0.1785014166483641,
                -2.7630153116828984
            ]
        },
        {
            "positions": [
                0.059715866572512544,
                -1.1351129318677915,
                1.928282836042882,
                -0.7612797386380574,
                0.15732790565050758,
                -2.9913023729098116
            ]
        },
        {
            "positions": [
                0.12330058050785199,
                -1.1372241527951084,
                1.9671261375447582,
                -0.7573772868894774,
                0.13615439465265103,
                -3.2195894341367257
            ]
        }
    ]
}