{
    "goal": {
        "global_pose": {
            "orientation": {
                "w": 0.5084816217422485,
                "x": -0.49083608388900757,
                "y": 0.5182115435600281,
                "z": -0.4816462993621826
            },
            "position": {
                "x": 0.5540239810943604,
                "y": 0.030875300988554955,
                "z": 0.16403168439865112
            }
        },
        "name": "move_to_storage_A"
    },
    "id": "TRRT_move_to_storage_A_34",
    "joint_names": [
        "shoulder_pan_joint",
        "shoulder_lift_joint",
        "elbow_joint",
        "wrist_1_joint",
        "wrist_2_joint",
        "wrist_3_joint"
    ],
    "metrics": {
        "cart_traj_len": 0.3534340164484257,
        "distance_elbow_joint": 0.44998779388790533,
        "distance_shoulder_lift_joint": 0.23486148036336152,
        "distance_shoulder_pan_joint": 0.46236744912718764,
        "distance_wrist_1_joint": 0.2440716518243372,
        "distance_wrist_2_joint": 1.0986540666490567,
        "distance_wrist_3_joint": 0.08873240267228821,
        "smoothness": 1.5543122343307022e-15,
        "time": 0.01982894,
        "traj_len": 1.6058252845574879,
        "weighted_distance": 2.0245654764274996
    },
    "planner": "TRRT",
    "start": {
        "state": {
            "elbow_joint": 1.9715477243005601,
            "shoulder_lift_joint": -1.1394853015351272,
            "shoulder_pan_joint": 0.12281154014795169,
            "wrist_1_joint": -0.7804696478968182,
            "wrist_2_joint": 0.12958648046900423,
            "wrist_3_joint": -3.192491284697111
        }
    },
    "waypoints": [
        {
            "positions": [
                0.12281154014795169,
                -1.1394853015351272,
                1.9715477243005601,
                -0.7804696478968182,
                0.12958648046900423,
                -3.192491284697111
            ]
        },
        {
            "positions": [
                0.05675904741549631,
                -1.1730369415870359,
                2.0358316948559754,
                -0.8153370267288663,
                0.2865370614188695,
                -3.1798152271724986
            ]
        },
        {
            "positions": [
                -0.009293445316959068,
                -1.2065885816389448,
                2.10011566541139,
                -0.8502044055609145,
                0.4434876423687347,
                -3.167139169647886
            ]
        },
        {
            "positions": [
                -0.07534593804941443,
                -1.2401402216908535,
                2.1643996359668054,
                -0.8850717843929626,
                0.6004382233186,
                -3.1544631121232736
            ]
        },
        {
            "positions": [
                -0.1413984307818698,
                -1.2736918617427624,
                2.22868360652222,
                -0.9199391632250109,
                0.7573888042684652,
                -3.1417870545986606
            ]
        },
        {
            "positions": [
                -0.2074509235143252,
                -1.307243501794671,
                2.2929675770776354,
                -0.9548065420570591,
                0.9143393852183305,
                -3.129110997074048
            ]
        },
        {
            "positions": [
                -0.27350341624678054,
                -1.3407951418465798,
                2.3572515476330502,
                -0.9896739208891072,
                1.0712899661681958,
                -3.1164349395494355
            ]
        },
        {
            "positions": [
                -0.33955590897923593,
                -1.3743467818984887,
                2.4215355181884655,
                -1.0245412997211554,
                1.228240547118061,
                -3.103758882024823
            ]
        }
    ]
}