{
    "goal": {
        "global_pose": {
            "orientation": {
                "w": 0.5084816217422485,
                "x": -0.49083608388900757,
                "y": 0.5182115435600281,
                "z": -0.4816462993621826
            },
            "position": {
                "x": 0.5540239810943604,
                "y": 0.030875300988554955,
                "z": 0.16403168439865112
            }
        },
        "name": "move_to_storage_A"
    },
    "id": "TRRT_move_to_storage_A_49",
    "joint_names": [
        "shoulder_pan_joint",
        "shoulder_lift_joint",
        "elbow_joint",
        "wrist_1_joint",
        "wrist_2_joint",
        "wrist_3_joint"
    ],
    "metrics": {
        "cart_traj_len": 0.3534766541866884,
        "distance_elbow_joint": 0.4512755436681113,
        "distance_shoulder_lift_joint": 0.23386994660472582,
        "distance_shoulder_pan_joint": 0.4608561625791615,
        "distance_wrist_1_joint": 0.24418080097905503,
        "distance_wrist_2_joint": 1.1058180435313214,
        "distance_wrist_3_joint": 0.10079367815117424,
        "smoothness": 4.440892133664971e-16,
        "time": 0.022329632000000002,
        "traj_len": 1.611457159068633,
        "weighted_distance": 2.036757318957336
    },
    "planner": "TRRT",
    "start": {
        "state": {
            "elbow_joint": 1.9715477243005601,
            "shoulder_lift_joint": -1.1394853015351272,
            "shoulder_pan_joint": 0.12281154014795169,
            "wrist_1_joint": -0.7804696478968182,
            "wrist_2_joint": 0.12958648046900423,
            "wrist_3_joint": -3.192491284697111
        }
    },
    "waypoints": [
        {
            "positions": [
                0.12281154014795169,
                -1.1394853015351272,
                1.9715477243005601,
                -0.7804696478968182,
                0.12958648046900423,
                -3.192491284697111
            ]
        },
        {
            "positions": [
                0.05697494549378576,
                -1.1728952939072308,
                2.0360156591102903,
                -0.8153526194652546,
                0.28756048668776446,
                -3.178092187818372
            ]
        },
        {
            "positions": [
                -0.008861649160380167,
                -1.2063052862793346,
                2.1004835939200204,
                -0.8502355910336911,
                0.44553449290652464,
                -3.163693090939633
            ]
        },
        {
            "positions": [
                -0.07469824381454608,
                -1.2397152786514383,
                2.1649515287297505,
                -0.8851185626021274,
                0.6035084991252848,
                -3.1492939940608937
            ]
        },
        {
            "positions": [
                -0.140534838468712,
                -1.273125271023542,
                2.2294194635394806,
                -0.9200015341705639,
                0.761482505344045,
                -3.1348948971821544
            ]
        },
        {
            "positions": [
                -0.20637143312287798,
                -1.3065352633956455,
                2.293887398349211,
                -0.9548845057390003,
                0.9194565115628053,
                -3.120495800303415
            ]
        },
        {
            "positions": [
                -0.27220802777704384,
                -1.3399452557677494,
                2.3583553331589413,
                -0.9897674773074367,
                1.0774305177815653,
                -3.1060967034246763
            ]
        },
        {
            "positions": [
                -0.3380446224312098,
                -1.373355248139853,
                2.4228232679686714,
                -1.0246504488758732,
                1.2354045240003257,
                -3.091697606545937
            ]
        }
    ]
}