{
    "goal": {
        "global_pose": {
            "orientation": {
                "w": 0.7047431468963623,
                "x": -0.7094548344612122,
                "y": 0.0024358443915843964,
                "z": -0.0022348060738295317
            },
            "position": {
                "x": 0.6094750761985779,
                "y": 0.3671506643295288,
                "z": 0.19426114857196808
            }
        },
        "name": "move_to_magneteinheit_A"
    },
    "id": "TRRT_move_to_magneteinheit_A_141",
    "joint_names": [
        "shoulder_pan_joint",
        "shoulder_lift_joint",
        "elbow_joint",
        "wrist_1_joint",
        "wrist_2_joint",
        "wrist_3_joint"
    ],
    "metrics": {
        "cart_traj_len": 5.065773365560419,
        "distance_elbow_joint": 3.910971565253806,
        "distance_shoulder_lift_joint": 1.2200538948147903,
        "distance_shoulder_pan_joint": 7.739437526341985,
        "distance_wrist_1_joint": 6.75744063760682,
        "distance_wrist_2_joint": 1.4341095640765205,
        "distance_wrist_3_joint": 5.6146795604551025,
        "smoothness": 0.29256380782207336,
        "time": 0.13660043700000002,
        "traj_len": 5.164948474917152,
        "weighted_distance": 6.78952149058699
    },
    "planner": "TRRT",
    "start": {
        "state": {
            "elbow_joint": -1.919618573717145,
            "shoulder_lift_joint": -1.2443395971678275,
            "shoulder_pan_joint": 2.6996025300909787,
            "wrist_1_joint": -1.548550951253194,
            "wrist_2_joint": -1.5709469090946802,
            "wrist_3_joint": 0.4420197732051276
        }
    },
    "waypoints": [
        {
            "positions": [
                2.6996025300909787,
                -1.2443395971678275,
                -1.919618573717145,
                -1.548550951253194,
                -1.5709469090946802,
                0.4420197732051276
            ]
        },
        {
            "positions": [
                2.5183597052620246,
                -1.2142033086721724,
                -1.9182013262197255,
                -1.6074177032391934,
                -1.5568670742128567,
                0.33429480649821464
            ]
        },
        {
            "positions": [
                2.3371168804330704,
                -1.1840670201765173,
                -1.916784078722306,
                -1.6662844552251928,
                -1.5427872393310331,
                0.22656983979130163
            ]
        },
        {
            "positions": [
                2.1558740556041163,
                -1.1539307316808622,
                -1.9153668312248866,
                -1.725151207211192,
                -1.5287074044492095,
                0.11884487308438862
            ]
        },
        {
            "positions": [
                1.9746312307751621,
                -1.1237944431852072,
                -1.9139495837274672,
                -1.7840179591971914,
                -1.514627569567386,
                0.011119906377475675
            ]
        },
        {
            "positions": [
                1.7933884059462077,
                -1.0936581546895519,
                -1.9125323362300477,
                -1.8428847111831907,
                -1.5005477346855627,
                -0.09660506032943733
            ]
        },
        {
            "positions": [
                1.6121455811172536,
                -1.0635218661938968,
                -1.9111150887326283,
                -1.90175146316919,
                -1.486467899803739,
                -0.20433002703635034
            ]
        },
        {
            "positions": [
                1.4309027562882994,
                -1.0333855776982417,
                -1.9096978412352088,
                -1.9606182151551894,
                -1.4723880649219154,
                -0.31205499374326334
            ]
        },
        {
            "positions": [
                1.2496599314593453,
                -1.0032492892025866,
                -1.9082805937377894,
                -2.0194849671411887,
                -1.458308230040092,
                -0.41977996045017624
            ]
        },
        {
            "positions": [
                1.068417106630391,
                -0.9731130007069315,
                -1.90686334624037,
                -2.078351719127188,
                -1.4442283951582686,
                -0.5275049271570893
            ]
        },
        {
            "positions": [
                0.8871742818014368,
                -0.9429767122112764,
                -1.9054460987429505,
                -2.1372184711131874,
                -1.430148560276445,
                -0.6352298938640022
            ]
        },
        {
            "positions": [
                0.7059314569724828,
                -0.9128404237156214,
                -1.904028851245531,
                -2.1960852230991863,
                -1.4160687253946214,
                -0.7429548605709153
            ]
        },
        {
            "positions": [
                0.5246886321435285,
                -0.8827041352199663,
                -1.9026116037481116,
                -2.254951975085186,
                -1.401988890512798,
                -0.8506798272778282
            ]
        },
        {
            "positions": [
                0.3434458073145743,
                -0.8525678467243111,
                -1.901194356250692,
                -2.313818727071185,
                -1.3879090556309746,
                -0.9584047939847413
            ]
        },
        {
            "positions": [
                0.16220298248562015,
                -0.822431558228656,
                -1.8997771087532727,
                -2.3726854790571847,
                -1.373829220749151,
                -1.0661297606916542
            ]
        },
        {
            "positions": [
                -0.019039842343334,
                -0.7922952697330009,
                -1.8983598612558532,
                -2.4315522310431836,
                -1.3597493858673273,
                -1.173854727398567
            ]
        },
        {
            "positions": [
                -0.20028266717228815,
                -0.7621589812373458,
                -1.8969426137584338,
                -2.490418983029183,
                -1.345669550985504,
                -1.28157969410548
            ]
        },
        {
            "positions": [
                -0.3815254920012423,
                -0.7320226927416907,
                -1.8955253662610143,
                -2.5492857350151823,
                -1.3315897161036805,
                -1.3893046608123931
            ]
        },
        {
            "positions": [
                -0.5627683168301969,
                -0.7018864042460355,
                -1.8941081187635949,
                -2.608152487001182,
                -1.3175098812218569,
                -1.4970296275193062
            ]
        },
        {
            "positions": [
                -0.744011141659151,
                -0.6717501157503805,
                -1.8926908712661754,
                -2.667019238987181,
                -1.3034300463400332,
                -1.6047545942262191
            ]
        },
        {
            "positions": [
                -0.9252539664881052,
                -0.6416138272547254,
                -1.891273623768756,
                -2.7258859909731807,
                -1.2893502114582098,
                -1.712479560933132
            ]
        },
        {
            "positions": [
                -1.106496791317059,
                -0.6114775387590703,
                -1.8898563762713365,
                -2.7847527429591796,
                -1.2752703765763864,
                -1.820204527640045
            ]
        },
        {
            "positions": [
                -1.287739616146013,
                -0.5813412502634151,
                -1.888439128773917,
                -2.843619494945179,
                -1.2611905416945628,
                -1.9279294943469583
            ]
        },
        {
            "positions": [
                -1.4689824409749672,
                -0.55120496176776,
                -1.8870218812764976,
                -2.9024862469311783,
                -1.2471107068127392,
                -2.035654461053871
            ]
        },
        {
            "positions": [
                -1.6502252658039218,
                -0.5210686732721049,
                -1.8856046337790782,
                -2.9613529989171776,
                -1.2330308719309158,
                -2.143379427760784
            ]
        },
        {
            "positions": [
                -1.8314680906328764,
                -0.49093238477644974,
                -1.8841873862816587,
                -3.020219750903177,
                -1.2189510370490924,
                -2.2511043944676974
            ]
        },
        {
            "positions": [
                -2.01271091546183,
                -0.46079609628079465,
                -1.8827701387842393,
                -3.0790865028891763,
                -1.2048712021672687,
                -2.3588293611746103
            ]
        },
        {
            "positions": [
                -2.1939537402907847,
                -0.43065980778513957,
                -1.8813528912868198,
                -3.1379532548751756,
                -1.190791367285445,
                -2.466554327881523
            ]
        },
        {
            "positions": [
                -2.3751965651197384,
                -0.4005235192894845,
                -1.8799356437894004,
                -3.196820006861175,
                -1.1767115324036217,
                -2.574279294588436
            ]
        },
        {
            "positions": [
                -2.2945192306703666,
                -0.4047055527923604,
                -1.810733764929573,
                -3.0644857279479156,
                -1.1452506235636333,
                -2.5014045555485263
            ]
        },
        {
            "positions": [
                -2.213841896220995,
                -0.4088875862952363,
                -1.7415318860697455,
                -2.9321514490346563,
                -1.1137897147236449,
                -2.4285298165086164
            ]
        },
        {
            "positions": [
                -2.1331645617716233,
                -0.41306961979811224,
                -1.672330007209918,
                -2.799817170121397,
                -1.0823288058836564,
                -2.355655077468706
            ]
        },
        {
            "positions": [
                -2.0524872273222514,
                -0.4172516533009881,
                -1.6031281283500904,
                -2.6674828912081376,
                -1.050867897043668,
                -2.2827803384287964
            ]
        },
        {
            "positions": [
                -1.9718098928728798,
                -0.42143368680386406,
                -1.533926249490263,
                -2.5351486122948783,
                -1.0194069882036798,
                -2.2099055993888865
            ]
        },
        {
            "positions": [
                -1.8911325584235081,
                -0.42561572030674,
                -1.4647243706304356,
                -2.4028143333816185,
                -0.9879460793636914,
                -2.1370308603489763
            ]
        },
        {
            "positions": [
                -1.8104552239741363,
                -0.4297977538096159,
                -1.3955224917706082,
                -2.2704800544683597,
                -0.956485170523703,
                -2.0641561213090664
            ]
        },
        {
            "positions": [
                -1.7297778895247646,
                -0.4339797873124918,
                -1.3263206129107807,
                -2.1381457755551,
                -0.9250242616837145,
                -1.9912813822691566
            ]
        },
        {
            "positions": [
                -1.649100555075393,
                -0.43816182081536775,
                -1.257118734050953,
                -2.005811496641841,
                -0.8935633528437261,
                -1.9184066432292468
            ]
        },
        {
            "positions": [
                -1.5684232206260211,
                -0.44234385431824363,
                -1.1879168551911257,
                -1.8734772177285814,
                -0.8621024440037377,
                -1.8455319041893368
            ]
        },
        {
            "positions": [
                -1.4877458861766495,
                -0.44652588782111957,
                -1.1187149763312982,
                -1.7411429388153221,
                -0.8306415351637494,
                -1.7726571651494267
            ]
        },
        {
            "positions": [
                -1.4070685517272778,
                -0.4507079213239955,
                -1.0495130974714708,
                -1.6088086599020626,
                -0.799180626323761,
                -1.699782426109517
            ]
        },
        {
            "positions": [
                -1.326391217277906,
                -0.4548899548268714,
                -0.9803112186116433,
                -1.4764743809888032,
                -0.7677197174837725,
                -1.626907687069607
            ]
        },
        {
            "positions": [
                -1.2457138828285343,
                -0.4590719883297473,
                -0.9111093397518158,
                -1.344140102075544,
                -0.7362588086437842,
                -1.554032948029697
            ]
        },
        {
            "positions": [
                -1.1650365483791625,
                -0.4632540218326232,
                -0.8419074608919883,
                -1.2118058231622846,
                -0.7047978998037958,
                -1.481158208989787
            ]
        },
        {
            "positions": [
                -1.0843592139297908,
                -0.46743605533549915,
                -0.7727055820321609,
                -1.0794715442490252,
                -0.6733369909638074,
                -1.4082834699498772
            ]
        },
        {
            "positions": [
                -1.0036818794804192,
                -0.4716180888383751,
                -0.7035037031723335,
                -0.9471372653357659,
                -0.641876082123819,
                -1.3354087309099674
            ]
        },
        {
            "positions": [
                -0.9230045450310473,
                -0.47580012234125096,
                -0.634301824312506,
                -0.8148029864225066,
                -0.6104151732838305,
                -1.2625339918700573
            ]
        },
        {
            "positions": [
                -0.8423272105816757,
                -0.4799821558441269,
                -0.5650999454526784,
                -0.6824687075092473,
                -0.5789542644438422,
                -1.1896592528301473
            ]
        },
        {
            "positions": [
                -0.7616498761323038,
                -0.4841641893470028,
                -0.49589806659285096,
                -0.5501344285959879,
                -0.5474933556038538,
                -1.1167845137902375
            ]
        },
        {
            "positions": [
                -0.6809725416829322,
                -0.4883462228498787,
                -0.42669618773302354,
                -0.4178001496827286,
                -0.5160324467638654,
                -1.0439097747503276
            ]
        },
        {
            "positions": [
                -0.6002952072335606,
                -0.49252825635275466,
                -0.3574943088731961,
                -0.2854658707694693,
                -0.4845715379238771,
                -0.9710350357104176
            ]
        },
        {
            "positions": [
                -0.5196178727841887,
                -0.4967102898556306,
                -0.2882924300133687,
                -0.15313159185620995,
                -0.45311062908388866,
                -0.8981602966705076
            ]
        },
        {
            "positions": [
                -0.43894053833481705,
                -0.5008923233585065,
                -0.21909055115354126,
                -0.020797312942950175,
                -0.42164972024390024,
                -0.8252855576305977
            ]
        },
        {
            "positions": [
                -0.3582632038854454,
                -0.5050743568613824,
                -0.1498886722937136,
                0.11153696597030915,
                -0.3901888114039118,
                -0.7524108185906879
            ]
        },
        {
            "positions": [
                -0.27758586943607355,
                -0.5092563903642583,
                -0.08068679343388618,
                0.24387124488356848,
                -0.3587279025639234,
                -0.6795360795507779
            ]
        },
        {
            "positions": [
                -0.1969085349867017,
                -0.5134384238671342,
                -0.011484914574058758,
                0.3762055237968278,
                -0.3272669937239351,
                -0.6066613405108678
            ]
        },
        {
            "positions": [
                -0.11623120053733027,
                -0.5176204573700102,
                0.05771696428576867,
                0.5085398027100871,
                -0.29580608488394666,
                -0.533786601470958
            ]
        },
        {
            "positions": [
                -0.03555386608795841,
                -0.521802490872886,
                0.1269188431455961,
                0.6408740816233465,
                -0.26434517604395824,
                -0.4609118624310482
            ]
        },
        {
            "positions": [
                0.045123468361413455,
                -0.5259845243757619,
                0.19612072200542374,
                0.7732083605366058,
                -0.23288426720396993,
                -0.38803712339113794
            ]
        },
        {
            "positions": [
                0.12580080281078487,
                -0.5301665578786379,
                0.26532260086525095,
                0.9055426394498647,
                -0.2014233583639815,
                -0.3151623843512281
            ]
        },
        {
            "positions": [
                0.20647813726015668,
                -0.5343485913815138,
                0.3345244797250786,
                1.0378769183631245,
                -0.16996244952399298,
                -0.2422876453113183
            ]
        },
        {
            "positions": [
                0.19637353912443736,
                -0.5615129943048454,
                0.5182544491986177,
                1.141036012430797,
                -0.16650079168073112,
                -0.2211159934681928
            ]
        },
        {
            "positions": [
                0.18626894098871805,
                -0.588677397228177,
                0.7019844186721569,
                1.2441951064984695,
                -0.1630391338374693,
                -0.1999443416250673
            ]
        },
        {
            "positions": [
                0.17616434285299873,
                -0.6158418001515086,
                0.885714388145696,
                1.347354200566142,
                -0.15957747599420744,
                -0.1787726897819418
            ]
        },
        {
            "positions": [
                0.1660597447172794,
                -0.6430062030748401,
                1.0694443576192352,
                1.4505132946338146,
                -0.1561158181509456,
                -0.1576010379388163
            ]
        },
        {
            "positions": [
                0.1559551465815601,
                -0.6701706059981718,
                1.2531743270927744,
                1.5536723887014872,
                -0.15265416030768375,
                -0.1364293860956908
            ]
        },
        {
            "positions": [
                0.14585054844584078,
                -0.6973350089215034,
                1.4369042965663135,
                1.6568314827691597,
                -0.14919250246442192,
                -0.1152577342525653
            ]
        },
        {
            "positions": [
                0.13574595031012146,
                -0.7244994118448349,
                1.6206342660398527,
                1.7599905768368322,
                -0.14573084462116007,
                -0.0940860824094398
            ]
        },
        {
            "positions": [
                0.12683954892368066,
                -0.755832786297124,
                1.8279820449805901,
                1.8721123703658422,
                -0.1414740090314312,
                -0.07002099764506604
            ]
        },
        {
            "positions": [
                0.12351440850879039,
                -0.7767613362259316,
                1.991352991536661,
                1.9123515751376667,
                -0.1368373450181591,
                0.02410119807310842
            ]
        }
    ]
}{
    "goal": {
        "global_pose": {
            "orientation": {
                "w": 0.7047431468963623,
                "x": -0.7094548344612122,
                "y": 0.0024358443915843964,
                "z": -0.0022348060738295317
            },
            "position": {
                "x": 0.6094750761985779,
                "y": 0.3671506643295288,
                "z": 0.19426114857196808
            }
        },
        "name": "move_to_magneteinheit_A"
    },
    "id": "TRRT_move_to_magneteinheit_A_141",
    "joint_names": [
        "shoulder_pan_joint",
        "shoulder_lift_joint",
        "elbow_joint",
        "wrist_1_joint",
        "wrist_2_joint",
        "wrist_3_joint"
    ],
    "metrics": {
        "cart_traj_len": 1.371063776367895,
        "distance_elbow_joint": 0.746577090602464,
        "distance_shoulder_lift_joint": 0.814174797912881,
        "distance_shoulder_pan_joint": 1.2417183366904323,
        "distance_wrist_1_joint": 0.7365134077821798,
        "distance_wrist_2_joint": 1.4374047793719251,
        "distance_wrist_3_joint": 4.229781912310518,
        "smoothness": 0.09519072194115155,
        "time": 0.11736252,
        "traj_len": 3.034167155031245,
        "weighted_distance": 4.454172463706983
    },
    "planner": "TRRT",
    "start": {
        "state": {
            "elbow_joint": 1.919643534880228,
            "shoulder_lift_joint": -1.8972525353963687,
            "shoulder_pan_joint": -1.1188672234189438,
            "wrist_1_joint": -1.5931878212786155,
            "wrist_2_joint": 1.5706036197970081,
            "wrist_3_joint": 1.118896926603594
        }
    },
    "waypoints": [
        {
            "positions": [
                -1.1188672234189438,
                -1.8972525353963687,
                1.919643534880228,
                -1.5931878212786155,
                1.5706036197970081,
                1.118896926603594
            ]
        },
        {
            "positions": [
                -1.0664781566877364,
                -1.8600776848102238,
                1.9035690799345713,
                -1.558269626201512,
                1.5035834468095846,
                0.9435442749460403
            ]
        },
        {
            "positions": [
                -1.0140890899565287,
                -1.8229028342240792,
                1.8874946249889146,
                -1.5233514311244087,
                1.436563273822161,
                0.7681916232884867
            ]
        },
        {
            "positions": [
                -0.9617000232253212,
                -1.7857279836379343,
                1.8714201700432578,
                -1.4884332360473054,
                1.3695431008347376,
                0.592838971630933
            ]
        },
        {
            "positions": [
                -0.9093109564941136,
                -1.7485531330517894,
                1.855345715097601,
                -1.453515040970202,
                1.302522927847314,
                0.41748631997337937
            ]
        },
        {
            "positions": [
                -0.8569218897629061,
                -1.7113782824656445,
                1.8392712601519443,
                -1.4185968458930986,
                1.2355027548598905,
                0.24213366831582572
            ]
        },
        {
            "positions": [
                -0.8045328230316986,
                -1.6742034318794998,
                1.8231968052062875,
                -1.3836786508159953,
                1.1684825818724671,
                0.06678101665827207
            ]
        },
        {
            "positions": [
                -0.752143756300491,
                -1.637028581293355,
                1.8071223502606306,
                -1.348760455738892,
                1.1014624088850435,
                -0.10857163499928157
            ]
        },
        {
            "positions": [
                -0.6997546895692834,
                -1.59985373070721,
                1.791047895314974,
                -1.3138422606617886,
                1.03444223589762,
                -0.2839242866568352
            ]
        },
        {
            "positions": [
                -0.647365622838076,
                -1.5626788801210654,
                1.7749734403693171,
                -1.2789240655846852,
                0.9674220629101965,
                -0.45927693831438887
            ]
        },
        {
            "positions": [
                -0.5949765561068684,
                -1.5255040295349205,
                1.7588989854236603,
                -1.2440058705075816,
                0.9004018899227729,
                -0.6346295899719425
            ]
        },
        {
            "positions": [
                -0.5425874893756607,
                -1.4883291789487756,
                1.7428245304780037,
                -1.2090876754304785,
                0.8333817169353493,
                -0.8099822416294964
            ]
        },
        {
            "positions": [
                -0.49019842264445324,
                -1.4511543283626307,
                1.7267500755323468,
                -1.1741694803533749,
                0.7663615439479259,
                -0.9853348932870498
            ]
        },
        {
            "positions": [
                -0.43780935591324566,
                -1.413979477776486,
                1.71067562058669,
                -1.1392512852762715,
                0.6993413709605023,
                -1.1606875449446037
            ]
        },
        {
            "positions": [
                -0.3854202891820382,
                -1.3768046271903411,
                1.6946011656410334,
                -1.1043330901991681,
                0.6323211979730788,
                -1.3360401966021571
            ]
        },
        {
            "positions": [
                -0.3330312224508305,
                -1.3396297766041962,
                1.6785267106953765,
                -1.0694148951220648,
                0.5653010249856552,
                -1.511392848259711
            ]
        },
        {
            "positions": [
                -0.28064215571962303,
                -1.3024549260180516,
                1.6624522557497197,
                -1.0344967000449614,
                0.4982808519982318,
                -1.6867454999172644
            ]
        },
        {
            "positions": [
                -0.22825308898841545,
                -1.2652800754319067,
                1.646377800804063,
                -0.999578504967858,
                0.4312606790108082,
                -1.8620981515748183
            ]
        },
        {
            "positions": [
                -0.17586402225720799,
                -1.2281052248457618,
                1.6303033458584062,
                -0.9646603098907548,
                0.36424050602338487,
                -2.037450803232372
            ]
        },
        {
            "positions": [
                -0.1234749555260003,
                -1.190930374259617,
                1.6142288909127493,
                -0.9297421148136513,
                0.29722033303596107,
                -2.212803454889926
            ]
        },
        {
            "positions": [
                -0.07108588879479294,
                -1.1537555236734722,
                1.5981544359670927,
                -0.894823919736548,
                0.23020016004853772,
                -2.388156106547479
            ]
        },
        {
            "positions": [
                -0.018696822063585278,
                -1.1165806730873273,
                1.5820799810214359,
                -0.8599057246594446,
                0.16317998706111422,
                -2.563508758205033
            ]
        },
        {
            "positions": [
                0.028485823048106013,
                -1.1277483182886072,
                1.7184178266026597,
                -0.8609828283804476,
                0.15318627151577055,
                -2.745967500705663
            ]
        },
        {
            "positions": [
                0.0756684681597973,
                -1.138915963489887,
                1.8547556721838836,
                -0.8620599321014505,
                0.14319255597042685,
                -2.928426243206293
            ]
        },
        {
            "positions": [
                0.1228511132714886,
                -1.150083608691167,
                1.9910935177651077,
                -0.8631370358224535,
                0.13319884042508318,
                -3.1108849857069227
            ]
        }
    ]
}