{
    "goal": {
        "global_pose": {
            "orientation": {
                "w": 0.7047431468963623,
                "x": -0.7094548344612122,
                "y": 0.0024358443915843964,
                "z": -0.0022348060738295317
            },
            "position": {
                "x": 0.6094750761985779,
                "y": 0.3671506643295288,
                "z": 0.19426114857196808
            }
        },
        "name": "move_to_magneteinheit_A"
    },
    "id": "TRRT_move_to_magneteinheit_A_106",
    "joint_names": [
        "shoulder_pan_joint",
        "shoulder_lift_joint",
        "elbow_joint",
        "wrist_1_joint",
        "wrist_2_joint",
        "wrist_3_joint"
    ],
    "metrics": {
        "cart_traj_len": 4.352011188506717,
        "distance_elbow_joint": 3.911362265990917,
        "distance_shoulder_lift_joint": 0.9303053591667646,
        "distance_shoulder_pan_joint": 4.115062448736057,
        "distance_wrist_1_joint": 3.459114066252358,
        "distance_wrist_2_joint": 1.7855954314808078,
        "distance_wrist_3_joint": 1.0277095359877906,
        "smoothness": 0.41298344993092795,
        "time": 0.747013366,
        "traj_len": 3.9024542415785857,
        "weighted_distance": 4.746501625125966
    },
    "planner": "TRRT",
    "start": {
        "state": {
            "elbow_joint": -1.919618573717145,
            "shoulder_lift_joint": -1.2443395971678275,
            "shoulder_pan_joint": 2.6996025300909787,
            "wrist_1_joint": -1.548550951253194,
            "wrist_2_joint": -1.5709469090946802,
            "wrist_3_joint": 0.4420197732051276
        }
    },
    "waypoints": [
        {
            "positions": [
                2.6996025300909787,
                -1.2443395971678275,
                -1.919618573717145,
                -1.548550951253194,
                -1.5709469090946802,
                0.4420197732051276
            ]
        },
        {
            "positions": [
                2.603001468823898,
                -1.2219698377770718,
                -1.8387006737861624,
                -1.4485184987407405,
                -1.5087460149156628,
                0.41851528125608556
            ]
        },
        {
            "positions": [
                2.506400407556817,
                -1.1996000783863159,
                -1.7577827738551801,
                -1.348486046228287,
                -1.4465451207366455,
                0.39501078930704353
            ]
        },
        {
            "positions": [
                2.409799346289736,
                -1.1772303189955602,
                -1.6768648739241976,
                -1.2484535937158334,
                -1.3843442265576282,
                0.37150629735800145
            ]
        },
        {
            "positions": [
                2.313198285022655,
                -1.1548605596048045,
                -1.595946973993215,
                -1.14842114120338,
                -1.322143332378611,
                0.3480018054089594
            ]
        },
        {
            "positions": [
                2.2165972237555738,
                -1.1324908002140486,
                -1.5150290740622325,
                -1.0483886886909264,
                -1.2599424381995936,
                0.3244973134599174
            ]
        },
        {
            "positions": [
                2.119996162488493,
                -1.1101210408232929,
                -1.43411117413125,
                -0.9483562361784729,
                -1.1977415440205763,
                0.30099282151087536
            ]
        },
        {
            "positions": [
                2.023395101221412,
                -1.0877512814325372,
                -1.3531932742002675,
                -0.8483237836660192,
                -1.135540649841559,
                0.27748832956183334
            ]
        },
        {
            "positions": [
                1.926794039954331,
                -1.0653815220417815,
                -1.2722753742692852,
                -0.7482913311535658,
                -1.073339755662542,
                0.2539838376127913
            ]
        },
        {
            "positions": [
                1.8301929786872502,
                -1.0430117626510256,
                -1.1913574743383026,
                -0.6482588786411123,
                -1.0111388614835246,
                0.23047934566374925
            ]
        },
        {
            "positions": [
                1.7335919174201693,
                -1.0206420032602699,
                -1.11043957440732,
                -0.5482264261286587,
                -0.9489379673045072,
                0.2069748537147072
            ]
        },
        {
            "positions": [
                1.6369908561530881,
                -0.9982722438695142,
                -1.0295216744763378,
                -0.4481939736162053,
                -0.88673707312549,
                0.18347036176566517
            ]
        },
        {
            "positions": [
                1.5403897948860072,
                -0.9759024844787584,
                -0.9486037745453552,
                -0.34816152110375165,
                -0.8245361789464727,
                0.15996586981662314
            ]
        },
        {
            "positions": [
                1.4437887336189263,
                -0.9535327250880026,
                -0.8676858746143727,
                -0.24812906859129824,
                -0.7623352847674555,
                0.1364613778675811
            ]
        },
        {
            "positions": [
                1.3471876723518452,
                -0.9311629656972469,
                -0.7867679746833902,
                -0.1480966160788444,
                -0.7001343905884381,
                0.11295688591853903
            ]
        },
        {
            "positions": [
                1.2505866110847643,
                -0.9087932063064911,
                -0.7058500747524077,
                -0.04806416356639098,
                -0.6379334964094208,
                0.08945239396949706
            ]
        },
        {
            "positions": [
                1.1539855498176834,
                -0.8864234469157354,
                -0.6249321748214254,
                0.051968288946062424,
                -0.5757326022304036,
                0.06594790202045503
            ]
        },
        {
            "positions": [
                1.0573844885506023,
                -0.8640536875249796,
                -0.5440142748904426,
                0.15200074145851605,
                -0.5135317080513861,
                0.042443410071412946
            ]
        },
        {
            "positions": [
                0.9607834272835216,
                -0.8416839281342239,
                -0.4630963749594603,
                0.25203319397096946,
                -0.45133081387236906,
                0.018938918122370918
            ]
        },
        {
            "positions": [
                0.8641823660164407,
                -0.8193141687434681,
                -0.3821784750284778,
                0.3520656464834231,
                -0.38912991969335176,
                -0.00456557382667111
            ]
        },
        {
            "positions": [
                0.7675813047493596,
                -0.7969444093527123,
                -0.30126057509749526,
                0.4520980989958767,
                -0.3269290255143342,
                -0.028070065775713193
            ]
        },
        {
            "positions": [
                0.6709802434822785,
                -0.7745746499619566,
                -0.22034267516651274,
                0.5521305515083301,
                -0.26472813133531714,
                -0.05157455772475522
            ]
        },
        {
            "positions": [
                0.5743791822151976,
                -0.7522048905712009,
                -0.13942477523553043,
                0.6521630040207835,
                -0.20252723715629983,
                -0.07507904967379725
            ]
        },
        {
            "positions": [
                0.47777812094811667,
                -0.729835131180445,
                -0.05850687530454768,
                0.7521954565332374,
                -0.14032634297728253,
                -0.09858354162283928
            ]
        },
        {
            "positions": [
                0.38117705968103577,
                -0.7074653717896893,
                0.022411024626434586,
                0.8522279090456907,
                -0.07812544879826522,
                -0.12208803357188133
            ]
        },
        {
            "positions": [
                0.26693945799264635,
                -0.6894300412265837,
                0.17229310749040921,
                0.9227776938155713,
                -0.09725420166818491,
                -0.14050380089848385
            ]
        },
        {
            "positions": [
                0.15270185630425692,
                -0.6713947106634781,
                0.3221751903543838,
                0.9933274785854519,
                -0.11638295453810461,
                -0.15891956822508638
            ]
        },
        {
            "positions": [
                0.0384642546158675,
                -0.6533593801003724,
                0.4720572732183584,
                1.0638772633553324,
                -0.13551170740802432,
                -0.1773353355516889
            ]
        },
        {
            "positions": [
                -0.07577334707252192,
                -0.6353240495372668,
                0.6219393560823331,
                1.134427048125213,
                -0.154640460277944,
                -0.19575110287829145
            ]
        },
        {
            "positions": [
                -0.1900109487609114,
                -0.6172887189741613,
                0.7718214389463077,
                1.2049768328950936,
                -0.17376921314786373,
                -0.214166870204894
            ]
        },
        {
            "positions": [
                -0.30424855044930077,
                -0.5992533884110557,
                0.9217035218102823,
                1.2755266176649742,
                -0.19289796601778342,
                -0.2325826375314965
            ]
        },
        {
            "positions": [
                -0.41848615213769025,
                -0.58121805784795,
                1.071585604674257,
                1.3460764024348548,
                -0.2120267188877031,
                -0.25099840485809904
            ]
        },
        {
            "positions": [
                -0.5327237538260796,
                -0.5631827272848444,
                1.2214676875382315,
                1.4166261872047354,
                -0.2311554717576228,
                -0.26941417218470154
            ]
        },
        {
            "positions": [
                -0.646961355514469,
                -0.5451473967217388,
                1.3713497704022062,
                1.487175971974616,
                -0.2502842246275425,
                -0.2878299395113041
            ]
        },
        {
            "positions": [
                -0.5371758464958105,
                -0.5781635622532639,
                1.4599774735267155,
                1.5476598495495513,
                -0.23305348243395463,
                -0.24527853618682427
            ]
        },
        {
            "positions": [
                -0.42739033747715205,
                -0.6111797277847891,
                1.5486051766512248,
                1.6081437271244867,
                -0.21582274024036677,
                -0.20272713286234442
            ]
        },
        {
            "positions": [
                -0.3176048284584935,
                -0.6441958933163142,
                1.637232879775734,
                1.668627604699422,
                -0.1985919980467789,
                -0.1601757295378646
            ]
        },
        {
            "positions": [
                -0.20781931943983506,
                -0.6772120588478394,
                1.7258605829002431,
                1.7291114822743572,
                -0.18136125585319102,
                -0.11762432621338476
            ]
        },
        {
            "positions": [
                -0.09803381042117654,
                -0.7102282243793645,
                1.8144882860247524,
                1.7895953598492924,
                -0.16413051365960313,
                -0.07507292288890491
            ]
        },
        {
            "positions": [
                0.01175169859748193,
                -0.7432443899108896,
                1.9031159891492617,
                1.8500792374242279,
                -0.14689977146601527,
                -0.032521519564425116
            ]
        },
        {
            "positions": [
                0.1215372076161404,
                -0.7762605554424148,
                1.991743692273771,
                1.910563114999163,
                -0.12966902927242738,
                0.010029883760054752
            ]
        }
    ]
}