{
    "goal": {
        "global_pose": {
            "orientation": {
                "w": 0.5084816217422485,
                "x": -0.49083608388900757,
                "y": 0.5182115435600281,
                "z": -0.4816462993621826
            },
            "position": {
                "x": 0.5540239810943604,
                "y": 0.030875300988554955,
                "z": 0.16403168439865112
            }
        },
        "name": "move_to_storage_A"
    },
    "id": "TRRT_move_to_storage_A_47",
    "joint_names": [
        "shoulder_pan_joint",
        "shoulder_lift_joint",
        "elbow_joint",
        "wrist_1_joint",
        "wrist_2_joint",
        "wrist_3_joint"
    ],
    "metrics": {
        "cart_traj_len": 0.3526351402978763,
        "distance_elbow_joint": 0.4518041402533437,
        "distance_shoulder_lift_joint": 0.23578687850328706,
        "distance_shoulder_pan_joint": 0.4598355080803399,
        "distance_wrist_1_joint": 0.24973847604305843,
        "distance_wrist_2_joint": 1.1042755446968666,
        "distance_wrist_3_joint": 0.09891232316591303,
        "smoothness": 8.881784232165597e-16,
        "time": 0.027783791,
        "traj_len": 1.6125609665196565,
        "weighted_distance": 2.037692699553728
    },
    "planner": "TRRT",
    "start": {
        "state": {
            "elbow_joint": 1.9715477243005601,
            "shoulder_lift_joint": -1.1394853015351272,
            "shoulder_pan_joint": 0.12281154014795169,
            "wrist_1_joint": -0.7804696478968182,
            "wrist_2_joint": 0.12958648046900423,
            "wrist_3_joint": -3.192491284697111
        }
    },
    "waypoints": [
        {
            "positions": [
                0.12281154014795169,
                -1.1394853015351272,
                1.9715477243005601,
                -0.7804696478968182,
                0.12958648046900423,
                -3.192491284697111
            ]
        },
        {
            "positions": [
                0.05712075327933171,
                -1.173169141321311,
                2.0360911729081805,
                -0.8161465730458265,
                0.28734012971141376,
                -3.1783609528162664
            ]
        },
        {
            "positions": [
                -0.008570033589288276,
                -1.2068529811074948,
                2.1006346215158014,
                -0.8518234981948348,
                0.44509377895382324,
                -3.1642306209354216
            ]
        },
        {
            "positions": [
                -0.07426082045790826,
                -1.2405368208936787,
                2.165178070123422,
                -0.8875004233438432,
                0.6028474281962328,
                -3.150100289054577
            ]
        },
        {
            "positions": [
                -0.13995160732652823,
                -1.2742206606798625,
                2.229721518731042,
                -0.9231773484928516,
                0.7606010774386422,
                -3.1359699571737325
            ]
        },
        {
            "positions": [
                -0.20564239419514824,
                -1.3079045004660466,
                2.2942649673386626,
                -0.9588542736418599,
                0.9183547266810518,
                -3.1218396252928877
            ]
        },
        {
            "positions": [
                -0.2713331810637682,
                -1.3415883402522304,
                2.3588084159462834,
                -0.9945311987908683,
                1.0761083759234613,
                -3.107709293412043
            ]
        },
        {
            "positions": [
                -0.3370239679323882,
                -1.3752721800384142,
                2.423351864553904,
                -1.0302081239398766,
                1.233862025165871,
                -3.093578961531198
            ]
        }
    ]
}