{
    "goal": {
        "global_pose": {
            "orientation": {
                "w": 0.5084816217422485,
                "x": -0.49083608388900757,
                "y": 0.5182115435600281,
                "z": -0.4816462993621826
            },
            "position": {
                "x": 0.5540239810943604,
                "y": 0.030875300988554955,
                "z": 0.16403168439865112
            }
        },
        "name": "move_to_storage_A"
    },
    "id": "TRRT_move_to_storage_A_100",
    "joint_names": [
        "shoulder_pan_joint",
        "shoulder_lift_joint",
        "elbow_joint",
        "wrist_1_joint",
        "wrist_2_joint",
        "wrist_3_joint"
    ],
    "metrics": {
        "cart_traj_len": 0.35312896330150456,
        "distance_elbow_joint": 0.44838736024937464,
        "distance_shoulder_lift_joint": 0.23397278739986205,
        "distance_shoulder_pan_joint": 0.4634709212433797,
        "distance_wrist_1_joint": 0.24067703458628598,
        "distance_wrist_2_joint": 1.0907627230579746,
        "distance_wrist_3_joint": 0.09326866643532883,
        "smoothness": 1.3322676330666221e-15,
        "time": 0.038577673,
        "traj_len": 1.60329020859363,
        "weighted_distance": 2.0220080572260644
    },
    "planner": "TRRT",
    "start": {
        "state": {
            "elbow_joint": 1.9715477243005601,
            "shoulder_lift_joint": -1.1394853015351272,
            "shoulder_pan_joint": 0.12281154014795169,
            "wrist_1_joint": -0.7804696478968182,
            "wrist_2_joint": 0.12958648046900423,
            "wrist_3_joint": -3.192491284697111
        }
    },
    "waypoints": [
        {
            "positions": [
                0.12281154014795169,
                -1.1394853015351272,
                1.9715477243005601,
                -0.7804696478968182,
                0.12958648046900423,
                -3.192491284697111
            ]
        },
        {
            "positions": [
                0.05660140854175459,
                -1.1729099854493932,
                2.0356030614790424,
                -0.8148520814091448,
                0.2854097266201434,
                -3.1791671894920643
            ]
        },
        {
            "positions": [
                -0.009608723064442506,
                -1.2063346693636592,
                2.099658398657524,
                -0.8492345149214713,
                0.44123297277128265,
                -3.165843094287017
            ]
        },
        {
            "positions": [
                -0.0758188546706396,
                -1.2397593532779252,
                2.1637137358360063,
                -0.8836169484337979,
                0.5970562189224219,
                -3.15251899908197
            ]
        },
        {
            "positions": [
                -0.1420289862768367,
                -1.2731840371921912,
                2.2277690730144886,
                -0.9179993819461244,
                0.7528794650735611,
                -3.1391949038769233
            ]
        },
        {
            "positions": [
                -0.2082391178830338,
                -1.3066087211064572,
                2.291824410192971,
                -0.952381815458451,
                0.9087027112247004,
                -3.1258708086718765
            ]
        },
        {
            "positions": [
                -0.2744492494892309,
                -1.3400334050207232,
                2.3558797473714526,
                -0.9867642489707775,
                1.0645259573758397,
                -3.112546713466829
            ]
        },
        {
            "positions": [
                -0.340659381095428,
                -1.3734580889349892,
                2.419935084549935,
                -1.0211466824831041,
                1.220349203526979,
                -3.0992226182617824
            ]
        }
    ]
}