{
    "goal": {
        "global_pose": {
            "orientation": {
                "w": 0.5084816217422485,
                "x": -0.49083608388900757,
                "y": 0.5182115435600281,
                "z": -0.4816462993621826
            },
            "position": {
                "x": 0.5540239810943604,
                "y": 0.030875300988554955,
                "z": 0.16403168439865112
            }
        },
        "name": "move_to_storage_A"
    },
    "id": "TRRT_move_to_storage_A_23",
    "joint_names": [
        "shoulder_pan_joint",
        "shoulder_lift_joint",
        "elbow_joint",
        "wrist_1_joint",
        "wrist_2_joint",
        "wrist_3_joint"
    ],
    "metrics": {
        "cart_traj_len": 0.3529062909144272,
        "distance_elbow_joint": 0.44939935925813,
        "distance_shoulder_lift_joint": 0.23672506411389604,
        "distance_shoulder_pan_joint": 0.46124909821771,
        "distance_wrist_1_joint": 0.2344891806637147,
        "distance_wrist_2_joint": 1.1007980274835605,
        "distance_wrist_3_joint": 0.0907382382444406,
        "smoothness": 6.661338165333112e-16,
        "time": 0.029187008,
        "traj_len": 1.6041817128933529,
        "weighted_distance": 2.022415054487483
    },
    "planner": "TRRT",
    "start": {
        "state": {
            "elbow_joint": 1.9715477243005601,
            "shoulder_lift_joint": -1.1394853015351272,
            "shoulder_pan_joint": 0.12281154014795169,
            "wrist_1_joint": -0.7804696478968182,
            "wrist_2_joint": 0.12958648046900423,
            "wrist_3_joint": -3.192491284697111
        }
    },
    "waypoints": [
        {
            "positions": [
                0.12281154014795169,
                -1.1394853015351272,
                1.9715477243005601,
                -0.7804696478968182,
                0.12958648046900423,
                -3.192491284697111
            ]
        },
        {
            "positions": [
                0.05691881183113598,
                -1.1733031678371124,
                2.0357476327660073,
                -0.8139681022773488,
                0.28684334153808433,
                -3.1795286792336195
            ]
        },
        {
            "positions": [
                -0.008973916485679731,
                -1.2071210341390974,
                2.0999475412314546,
                -0.8474665566578795,
                0.4441002026071644,
                -3.166566073770128
            ]
        },
        {
            "positions": [
                -0.07486664480249543,
                -1.2409389004410827,
                2.1641474496969018,
                -0.8809650110384102,
                0.6013570636762444,
                -3.1536034683066365
            ]
        },
        {
            "positions": [
                -0.14075937311931114,
                -1.2747567667430677,
                2.2283473581623485,
                -0.9144634654189409,
                0.7586139247453245,
                -3.1406408628431453
            ]
        },
        {
            "positions": [
                -0.2066521014361269,
                -1.308574633045053,
                2.2925472666277957,
                -0.9479619197994715,
                0.9158707858144046,
                -3.1276782573796535
            ]
        },
        {
            "positions": [
                -0.27254482975294253,
                -1.342392499347038,
                2.356747175093243,
                -0.9814603741800022,
                1.0731276468834845,
                -3.1147156519161623
            ]
        },
        {
            "positions": [
                -0.3384375580697583,
                -1.3762103656490232,
                2.42094708355869,
                -1.0149588285605329,
                1.2303845079525646,
                -3.1017530464526706
            ]
        }
    ]
}