{
    "goal": {
        "global_pose": {
            "orientation": {
                "w": 0.7047431468963623,
                "x": -0.7094548344612122,
                "y": 0.0024358443915843964,
                "z": -0.0022348060738295317
            },
            "position": {
                "x": 0.6094750761985779,
                "y": 0.3671506643295288,
                "z": 0.19426114857196808
            }
        },
        "name": "move_to_magneteinheit_A"
    },
    "id": "TRRT_move_to_magneteinheit_A_148",
    "joint_names": [
        "shoulder_pan_joint",
        "shoulder_lift_joint",
        "elbow_joint",
        "wrist_1_joint",
        "wrist_2_joint",
        "wrist_3_joint"
    ],
    "metrics": {
        "cart_traj_len": 1.2482580876310259,
        "distance_elbow_joint": 0.23663345796618196,
        "distance_shoulder_lift_joint": 0.7737755472298316,
        "distance_shoulder_pan_joint": 1.2417640289654481,
        "distance_wrist_1_joint": 0.7431807939888923,
        "distance_wrist_2_joint": 1.7192976780106761,
        "distance_wrist_3_joint": 4.247926670729731,
        "smoothness": 0.2951765778874103,
        "time": 0.06975075,
        "traj_len": 2.9937565326677382,
        "weighted_distance": 4.463284663826607
    },
    "planner": "TRRT",
    "start": {
        "state": {
            "elbow_joint": 1.919643534880228,
            "shoulder_lift_joint": -1.8972525353963687,
            "shoulder_pan_joint": -1.1188672234189438,
            "wrist_1_joint": -1.5931878212786155,
            "wrist_2_joint": 1.5706036197970081,
            "wrist_3_joint": 1.118896926603594
        }
    },
    "waypoints": [
        {
            "positions": [
                -1.1188672234189438,
                -1.8972525353963687,
                1.919643534880228,
                -1.5931878212786155,
                1.5706036197970081,
                1.118896926603594
            ]
        },
        {
            "positions": [
                -1.0621638319937832,
                -1.8609590213494407,
                1.9155867931977573,
                -1.5578095229261704,
                1.495400911772546,
                0.9339435696301798
            ]
        },
        {
            "positions": [
                -1.0054604405686225,
                -1.8246655073025129,
                1.9115300515152864,
                -1.5224312245737253,
                1.4201982037480838,
                0.7489902126567656
            ]
        },
        {
            "positions": [
                -0.9487570491434619,
                -1.7883719932555848,
                1.9074733098328158,
                -1.4870529262212802,
                1.3449954957236216,
                0.5640368556833514
            ]
        },
        {
            "positions": [
                -0.8920536577183013,
                -1.752078479208657,
                1.903416568150345,
                -1.4516746278688353,
                1.2697927876991593,
                0.3790834987099373
            ]
        },
        {
            "positions": [
                -0.8353502662931407,
                -1.715784965161729,
                1.8993598264678742,
                -1.4162963295163902,
                1.194590079674697,
                0.1941301417365231
            ]
        },
        {
            "positions": [
                -0.77864687486798,
                -1.6794914511148011,
                1.8953030847854033,
                -1.380918031163945,
                1.119387371650235,
                0.009176784763108792
            ]
        },
        {
            "positions": [
                -0.7219434834428193,
                -1.643197937067873,
                1.8912463431029327,
                -1.3455397328115,
                1.0441846636257728,
                -0.1757765722103053
            ]
        },
        {
            "positions": [
                -0.6652400920176587,
                -1.606904423020945,
                1.8871896014204619,
                -1.3101614344590549,
                0.9689819556013105,
                -0.3607299291837194
            ]
        },
        {
            "positions": [
                -0.6085367005924981,
                -1.5706109089740172,
                1.883132859737991,
                -1.2747831361066098,
                0.8937792475768483,
                -0.5456832861571337
            ]
        },
        {
            "positions": [
                -0.5518333091673374,
                -1.5343173949270894,
                1.8790761180555202,
                -1.2394048377541647,
                0.8185765395523862,
                -0.7306366431305478
            ]
        },
        {
            "positions": [
                -0.49512991774217674,
                -1.4980238808801611,
                1.8750193763730496,
                -1.2040265394017196,
                0.7433738315279238,
                -0.9155900001039623
            ]
        },
        {
            "positions": [
                -0.4384265263170162,
                -1.4617303668332333,
                1.8709626346905788,
                -1.1686482410492747,
                0.6681711235034618,
                -1.1005433570773764
            ]
        },
        {
            "positions": [
                -0.3817231348918554,
                -1.4254368527863055,
                1.866905893008108,
                -1.1332699426968296,
                0.5929684154789995,
                -1.2854967140507905
            ]
        },
        {
            "positions": [
                -0.3250197434666948,
                -1.3891433387393775,
                1.862849151325637,
                -1.0978916443443845,
                0.5177657074545374,
                -1.4704500710242046
            ]
        },
        {
            "positions": [
                -0.26831635204153415,
                -1.3528498246924494,
                1.8587924096431665,
                -1.0625133459919394,
                0.44256299943007504,
                -1.655403427997619
            ]
        },
        {
            "positions": [
                -0.21161296061637358,
                -1.3165563106455216,
                1.8547356679606957,
                -1.0271350476394945,
                0.3673602914056129,
                -1.8403567849710327
            ]
        },
        {
            "positions": [
                -0.1549095691912129,
                -1.2802627965985935,
                1.8506789262782248,
                -0.9917567492870493,
                0.2921575833811507,
                -2.0253101419444475
            ]
        },
        {
            "positions": [
                -0.09820617776605234,
                -1.2439692825516657,
                1.846622184595754,
                -0.9563784509346042,
                0.21695487535668856,
                -2.210263498917861
            ]
        },
        {
            "positions": [
                -0.04150278634089166,
                -1.2076757685047377,
                1.8425654429132834,
                -0.9210001525821591,
                0.14175216733222618,
                -2.3952168558912756
            ]
        },
        {
            "positions": [
                0.015200605084269014,
                -1.1713822544578099,
                1.8385087012308126,
                -0.8856218542297141,
                0.06654945930776424,
                -2.5801702128646893
            ]
        },
        {
            "positions": [
                0.0719039965094298,
                -1.1350887404108818,
                1.8344519595483417,
                -0.850243555877269,
                -0.008653248716698217,
                -2.765123569838104
            ]
        },
        {
            "positions": [
                0.09740040102796711,
                -1.1408946165330542,
                1.9101729008654895,
                -0.8503618201710419,
                0.06136715603178662,
                -2.9470766569821203
            ]
        },
        {
            "positions": [
                0.12289680554650442,
                -1.1467004926552264,
                1.9858938421826373,
                -0.8504800844648147,
                0.13138756078027147,
                -3.1290297441261363
            ]
        }
    ]
}