{
    "goal": {
        "global_pose": {
            "orientation": {
                "w": 0.7047431468963623,
                "x": -0.7094548344612122,
                "y": 0.0024358443915843964,
                "z": -0.0022348060738295317
            },
            "position": {
                "x": 0.6094750761985779,
                "y": 0.3671506643295288,
                "z": 0.19426114857196808
            }
        },
        "name": "move_to_magneteinheit_A"
    },
    "id": "TRRT_move_to_magneteinheit_A_145",
    "joint_names": [
        "shoulder_pan_joint",
        "shoulder_lift_joint",
        "elbow_joint",
        "wrist_1_joint",
        "wrist_2_joint",
        "wrist_3_joint"
    ],
    "metrics": {
        "cart_traj_len": 4.552818353738316,
        "distance_elbow_joint": 3.884575033358675,
        "distance_shoulder_lift_joint": 0.190708465834047,
        "distance_shoulder_pan_joint": 8.795905170169902,
        "distance_wrist_1_joint": 8.460119453011659,
        "distance_wrist_2_joint": 1.7094052221496856,
        "distance_wrist_3_joint": 4.983410759522565,
        "smoothness": 0.2690807991169091,
        "time": 0.086531736,
        "traj_len": 5.293781644915716,
        "weighted_distance": 6.939774513502076
    },
    "planner": "TRRT",
    "start": {
        "state": {
            "elbow_joint": -1.919618573717145,
            "shoulder_lift_joint": -1.2443395971678275,
            "shoulder_pan_joint": 2.6996025300909787,
            "wrist_1_joint": -1.548550951253194,
            "wrist_2_joint": -1.5709469090946802,
            "wrist_3_joint": 0.4420197732051276
        }
    },
    "waypoints": [
        {
            "positions": [
                2.6996025300909787,
                -1.2443395971678275,
                -1.919618573717145,
                -1.548550951253194,
                -1.5709469090946802,
                0.4420197732051276
            ]
        },
        {
            "positions": [
                2.52190609249791,
                -1.2396837802399139,
                -1.9083402283807211,
                -1.403820901142162,
                -1.5513853442764987,
                0.40518734889436747
            ]
        },
        {
            "positions": [
                2.344209654904842,
                -1.2350279633120003,
                -1.8970618830442973,
                -1.25909085103113,
                -1.5318237794583172,
                0.3683549245836073
            ]
        },
        {
            "positions": [
                2.166513217311774,
                -1.2303721463840864,
                -1.8857835377078735,
                -1.114360800920098,
                -1.5122622146401354,
                0.3315225002728472
            ]
        },
        {
            "positions": [
                1.9888167797187055,
                -1.2257163294561728,
                -1.87450519237145,
                -0.969630750809066,
                -1.492700649821954,
                0.2946900759620871
            ]
        },
        {
            "positions": [
                1.8111203421256372,
                -1.2210605125282592,
                -1.8632268470350262,
                -0.824900700698034,
                -1.4731390850037724,
                0.25785765165132696
            ]
        },
        {
            "positions": [
                1.633423904532569,
                -1.2164046956003456,
                -1.8519485016986024,
                -0.680170650587002,
                -1.453577520185591,
                0.22102522734056682
            ]
        },
        {
            "positions": [
                1.4557274669395006,
                -1.2117488786724318,
                -1.8406701563621786,
                -0.53544060047597,
                -1.4340159553674094,
                0.18419280302980667
            ]
        },
        {
            "positions": [
                1.2780310293464323,
                -1.2070930617445181,
                -1.8293918110257548,
                -0.39071055036493796,
                -1.4144543905492277,
                0.14736037871904656
            ]
        },
        {
            "positions": [
                1.100334591753364,
                -1.2024372448166045,
                -1.818113465689331,
                -0.24598050025390594,
                -1.3948928257310462,
                0.11052795440828644
            ]
        },
        {
            "positions": [
                0.9226381541602957,
                -1.197781427888691,
                -1.8068351203529072,
                -0.10125045014287393,
                -1.3753312609128647,
                0.07369553009752633
            ]
        },
        {
            "positions": [
                0.7449417165672274,
                -1.1931256109607773,
                -1.7955567750164834,
                0.04347959996815809,
                -1.3557696960946832,
                0.03686310578676616
            ]
        },
        {
            "positions": [
                0.5672452789741591,
                -1.1884697940328635,
                -1.7842784296800596,
                0.1882096500791901,
                -1.3362081312765017,
                3.068147600604476e-05
            ]
        },
        {
            "positions": [
                0.3895488413810906,
                -1.1838139771049498,
                -1.773000084343636,
                0.3329397001902221,
                -1.3166465664583202,
                -0.03680174283475407
            ]
        },
        {
            "positions": [
                0.2118524037880225,
                -1.1791581601770362,
                -1.7617217390072122,
                0.47766975030125414,
                -1.2970850016401387,
                -0.07363416714551424
            ]
        },
        {
            "positions": [
                0.034155966194954424,
                -1.1745023432491226,
                -1.7504433936707884,
                0.6223998004122864,
                -1.277523436821957,
                -0.1104665914562743
            ]
        },
        {
            "positions": [
                -0.1435404713981141,
                -1.169846526321209,
                -1.7391650483343646,
                0.7671298505233182,
                -1.2579618720037755,
                -0.14729901576703447
            ]
        },
        {
            "positions": [
                -0.3212369089911826,
                -1.1651907093932952,
                -1.7278867029979408,
                0.91185990063435,
                -1.238400307185594,
                -0.18413144007779464
            ]
        },
        {
            "positions": [
                -0.4989333465842507,
                -1.1605348924653816,
                -1.716608357661517,
                1.0565899507453822,
                -1.2188387423674123,
                -0.2209638643885547
            ]
        },
        {
            "positions": [
                -0.6766297841773188,
                -1.155879075537468,
                -1.7053300123250932,
                1.2013200008564144,
                -1.1992771775492308,
                -0.25779628869931487
            ]
        },
        {
            "positions": [
                -0.8543262217703873,
                -1.1512232586095543,
                -1.6940516669886696,
                1.3460500509674462,
                -1.1797156127310493,
                -0.2946287130100749
            ]
        },
        {
            "positions": [
                -1.0320226593634558,
                -1.1465674416816405,
                -1.6827733216522458,
                1.490780101078478,
                -1.1601540479128678,
                -0.3314611373208351
            ]
        },
        {
            "positions": [
                -1.209719096956524,
                -1.1419116247537269,
                -1.671494976315822,
                1.6355101511895103,
                -1.1405924830946863,
                -0.36829356163159527
            ]
        },
        {
            "positions": [
                -1.387415534549592,
                -1.1372558078258133,
                -1.6602166309793982,
                1.7802402013005425,
                -1.1210309182765048,
                -0.4051259859423553
            ]
        },
        {
            "positions": [
                -1.5651119721426605,
                -1.1325999908978996,
                -1.6489382856429744,
                1.9249702514115743,
                -1.1014693534583233,
                -0.4419584102531155
            ]
        },
        {
            "positions": [
                -1.742808409735729,
                -1.1279441739699858,
                -1.6376599403065506,
                2.069700301522606,
                -1.0819077886401416,
                -0.47879083456387567
            ]
        },
        {
            "positions": [
                -1.9205048473287976,
                -1.1232883570420722,
                -1.6263815949701268,
                2.2144303516336383,
                -1.06234622382196,
                -0.5156232588746357
            ]
        },
        {
            "positions": [
                -2.098201284921865,
                -1.1186325401141586,
                -1.615103249633703,
                2.3591604017446706,
                -1.0427846590037786,
                -0.552455683185396
            ]
        },
        {
            "positions": [
                -2.2758977225149337,
                -1.113976723186245,
                -1.6038249042972792,
                2.5038904518557024,
                -1.023223094185597,
                -0.589288107496156
            ]
        },
        {
            "positions": [
                -2.4535941601080022,
                -1.1093209062583314,
                -1.5925465589608554,
                2.648620501966734,
                -1.0036615293674154,
                -0.6261205318069161
            ]
        },
        {
            "positions": [
                -2.63129059770107,
                -1.1046650893304175,
                -1.5812682136244318,
                2.793350552077767,
                -0.984099964549234,
                -0.6629529561176761
            ]
        },
        {
            "positions": [
                -2.8089870352941384,
                -1.100009272402504,
                -1.569989868288008,
                2.9380806021887986,
                -0.9645383997310524,
                -0.6997853804284364
            ]
        },
        {
            "positions": [
                -2.986683472887207,
                -1.0953534554745903,
                -1.5587115229515842,
                3.08281065229983,
                -0.9449768349128709,
                -0.7366178047391965
            ]
        },
        {
            "positions": [
                -2.9069496480874193,
                -1.096423258657688,
                -1.4683610618594531,
                2.9846373741085825,
                -0.9171964465034381,
                -0.6390595180320621
            ]
        },
        {
            "positions": [
                -2.827215823287632,
                -1.0974930618407857,
                -1.378010600767322,
                2.8864640959173355,
                -0.8894160580940054,
                -0.5415012313249277
            ]
        },
        {
            "positions": [
                -2.7474819984878445,
                -1.0985628650238835,
                -1.2876601396751908,
                2.788290817726088,
                -0.8616356696845726,
                -0.4439429446177933
            ]
        },
        {
            "positions": [
                -2.667748173688057,
                -1.099632668206981,
                -1.1973096785830597,
                2.6901175395348407,
                -0.83385528127514,
                -0.346384657910659
            ]
        },
        {
            "positions": [
                -2.5880143488882696,
                -1.1007024713900788,
                -1.1069592174909286,
                2.5919442613435937,
                -0.8060748928657072,
                -0.24882637120352463
            ]
        },
        {
            "positions": [
                -2.508280524088482,
                -1.1017722745731764,
                -1.0166087563987976,
                2.4937709831523462,
                -0.7782945044562745,
                -0.15126808449639018
            ]
        },
        {
            "positions": [
                -2.4285466992886944,
                -1.1028420777562742,
                -0.9262582953066664,
                2.395597704961099,
                -0.7505141160468417,
                -0.053709797789255775
            ]
        },
        {
            "positions": [
                -2.348812874488907,
                -1.1039118809393718,
                -0.8359078342145353,
                2.297424426769852,
                -0.722733727637409,
                0.043848488917878514
            ]
        },
        {
            "positions": [
                -2.2690790496891196,
                -1.1049816841224696,
                -0.7455573731224041,
                2.1992511485786044,
                -0.6949533392279763,
                0.14140677562501303
            ]
        },
        {
            "positions": [
                -2.1893452248893324,
                -1.1060514873055671,
                -0.6552069120302731,
                2.101077870387357,
                -0.6671729508185436,
                0.2389650623321472
            ]
        },
        {
            "positions": [
                -2.1096114000895447,
                -1.107121290488665,
                -0.564856450938142,
                2.00290459219611,
                -0.6393925624091108,
                0.3365233490392816
            ]
        },
        {
            "positions": [
                -2.029877575289757,
                -1.1081910936717625,
                -0.47450598984601067,
                1.9047313140048623,
                -0.611612173999678,
                0.4340816357464161
            ]
        },
        {
            "positions": [
                -1.9501437504899697,
                -1.1092608968548603,
                -0.3841555287538798,
                1.806558035813615,
                -0.5838317855902453,
                0.5316399224535504
            ]
        },
        {
            "positions": [
                -1.870409925690182,
                -1.1103307000379579,
                -0.2938050676617485,
                1.7083847576223679,
                -0.5560513971808125,
                0.6291982091606849
            ]
        },
        {
            "positions": [
                -1.7906761008903946,
                -1.1114005032210557,
                -0.20345460656961745,
                1.6102114794311204,
                -0.5282710087713798,
                0.7267564958678194
            ]
        },
        {
            "positions": [
                -1.7109422760906072,
                -1.1124703064041532,
                -0.11310414547748637,
                1.5120382012398732,
                -0.500490620361947,
                0.8243147825749535
            ]
        },
        {
            "positions": [
                -1.6312084512908196,
                -1.113540109587251,
                -0.022753684385355077,
                1.4138649230486258,
                -0.4727102319525143,
                0.921873069282088
            ]
        },
        {
            "positions": [
                -1.5514746264910322,
                -1.1146099127703486,
                0.067596776706776,
                1.3156916448573786,
                -0.4449298435430816,
                1.0194313559892225
            ]
        },
        {
            "positions": [
                -1.4717408016912448,
                -1.1156797159534464,
                0.15794723779890707,
                1.2175183666661313,
                -0.41714945513364887,
                1.1169896426963568
            ]
        },
        {
            "positions": [
                -1.3920069768914574,
                -1.116749519136544,
                0.24829769889103792,
                1.1193450884748841,
                -0.38936906672421623,
                1.2145479294034909
            ]
        },
        {
            "positions": [
                -1.3122731520916697,
                -1.1178193223196418,
                0.3386481599831692,
                1.021171810283637,
                -0.36158867831478336,
                1.3121062161106254
            ]
        },
        {
            "positions": [
                -1.2325393272918823,
                -1.1188891255027393,
                0.4289986210753003,
                0.9229985320923895,
                -0.3338082899053506,
                1.4096645028177597
            ]
        },
        {
            "positions": [
                -1.1528055024920947,
                -1.1199589286858371,
                0.5193490821674314,
                0.824825253901142,
                -0.30602790149591785,
                1.5072227895248944
            ]
        },
        {
            "positions": [
                -1.0730716776923073,
                -1.1210287318689347,
                0.6096995432595629,
                0.7266519757098946,
                -0.2782475130864851,
                1.6047810762320287
            ]
        },
        {
            "positions": [
                -0.9933378528925196,
                -1.1220985350520325,
                0.700050004351694,
                0.6284786975186472,
                -0.25046712467705234,
                1.7023393629391634
            ]
        },
        {
            "positions": [
                -0.9136040280927324,
                -1.12316833823513,
                0.7904004654438246,
                0.5303054193274002,
                -0.2226867362676197,
                1.7998976496462973
            ]
        },
        {
            "positions": [
                -0.8338702032929448,
                -1.1242381414182279,
                0.8807509265359561,
                0.4321321411361527,
                -0.19490634785818695,
                1.8974559363534316
            ]
        },
        {
            "positions": [
                -0.7541363784931572,
                -1.1253079446013254,
                0.9711013876280872,
                0.33395886294490573,
                -0.1671259594487542,
                1.9950142230605663
            ]
        },
        {
            "positions": [
                -0.67440255369337,
                -1.1263777477844232,
                1.0614518487202182,
                0.2357855847536583,
                -0.13934557103932144,
                2.0925725097677006
            ]
        },
        {
            "positions": [
                -0.5946687288935824,
                -1.1274475509675208,
                1.1518023098123493,
                0.13761230656241086,
                -0.11156518262988868,
                2.1901307964748353
            ]
        },
        {
            "positions": [
                -0.5149349040937952,
                -1.1285173541506186,
                1.2421527709044804,
                0.039439028371163865,
                -0.08378479422045604,
                2.287689083181969
            ]
        },
        {
            "positions": [
                -0.43520107929400753,
                -1.1295871573337162,
                1.3325032319966115,
                -0.05873424982008357,
                -0.05600440581102328,
                2.3852473698891035
            ]
        },
        {
            "positions": [
                -0.3554672544942199,
                -1.130656960516814,
                1.4228536930887425,
                -0.156907528011331,
                -0.02822401740159053,
                2.482805656596238
            ]
        },
        {
            "positions": [
                -0.27573342969443226,
                -1.1317267636999115,
                1.513204154180874,
                -0.25508080620257845,
                -0.00044362899215777407,
                2.5803639433033725
            ]
        },
        {
            "positions": [
                -0.19599960489464463,
                -1.1327965668830093,
                1.6035546152730051,
                -0.3532540843938259,
                0.02733675941727498,
                2.6779222300105068
            ]
        },
        {
            "positions": [
                -0.11626578009485744,
                -1.133866370066107,
                1.6939050763651362,
                -0.4514273625850729,
                0.055117147826707624,
                2.7754805167176415
            ]
        },
        {
            "positions": [
                -0.03653195529507025,
                -1.1349361732492047,
                1.7842555374572668,
                -0.5496006407763199,
                0.08289753623614038,
                2.8730388034247754
            ]
        },
        {
            "positions": [
                0.04320186950471738,
                -1.1360059764323023,
                1.8746059985493984,
                -0.6477739189675673,
                0.11067792464557313,
                2.97059709013191
            ]
        },
        {
            "positions": [
                0.12293569430450516,
                -1.1370757796154,
                1.9649564596415294,
                -0.7459471971588149,
                0.13845831305500578,
                3.0681553768390444
            ]
        }
    ]
}