{
    "goal": {
        "global_pose": {
            "orientation": {
                "w": 0.7047431468963623,
                "x": -0.7094548344612122,
                "y": 0.0024358443915843964,
                "z": -0.0022348060738295317
            },
            "position": {
                "x": 0.6094750761985779,
                "y": 0.3671506643295288,
                "z": 0.19426114857196808
            }
        },
        "name": "move_to_magneteinheit_A"
    },
    "id": "TRRT_move_to_magneteinheit_A_83",
    "joint_names": [
        "shoulder_pan_joint",
        "shoulder_lift_joint",
        "elbow_joint",
        "wrist_1_joint",
        "wrist_2_joint",
        "wrist_3_joint"
    ],
    "metrics": {
        "cart_traj_len": 3.438820630069285,
        "distance_elbow_joint": 3.874507440346666,
        "distance_shoulder_lift_joint": 0.4262267118559253,
        "distance_shoulder_pan_joint": 2.6558056185698593,
        "distance_wrist_1_joint": 0.8417217244492746,
        "distance_wrist_2_joint": 1.7175422309661683,
        "distance_wrist_3_joint": 2.5875914808386935,
        "smoothness": 0.14666998384478092,
        "time": 0.508205553,
        "traj_len": 3.4789934186523817,
        "weighted_distance": 4.453969254958931
    },
    "planner": "TRRT",
    "start": {
        "state": {
            "elbow_joint": -1.919618573717145,
            "shoulder_lift_joint": -1.2443395971678275,
            "shoulder_pan_joint": 2.6996025300909787,
            "wrist_1_joint": -1.548550951253194,
            "wrist_2_joint": -1.5709469090946802,
            "wrist_3_joint": 0.4420197732051276
        }
    },
    "waypoints": [
        {
            "positions": [
                2.6996025300909787,
                -1.2443395971678275,
                -1.919618573717145,
                -1.548550951253194,
                -1.5709469090946802,
                0.4420197732051276
            ]
        },
        {
            "positions": [
                2.597625732309957,
                -1.2471378338710293,
                -1.7970926534998581,
                -1.524439030581679,
                -1.5079780273364005,
                0.5230262574957952
            ]
        },
        {
            "positions": [
                2.495648934528935,
                -1.2499360705742313,
                -1.6745667332825716,
                -1.5003271099101638,
                -1.4450091455781207,
                0.6040327417864628
            ]
        },
        {
            "positions": [
                2.393672136747913,
                -1.252734307277433,
                -1.5520408130652847,
                -1.4762151892386488,
                -1.382040263819841,
                0.6850392260771305
            ]
        },
        {
            "positions": [
                2.2916953389668913,
                -1.2555325439806349,
                -1.429514892847998,
                -1.4521032685671338,
                -1.3190713820615612,
                0.7660457103677982
            ]
        },
        {
            "positions": [
                2.1897185411858695,
                -1.2583307806838369,
                -1.3069889726307111,
                -1.4279913478956185,
                -1.2561025003032815,
                0.8470521946584657
            ]
        },
        {
            "positions": [
                2.0877417434048477,
                -1.2611290173870386,
                -1.1844630524134245,
                -1.4038794272241035,
                -1.1931336185450019,
                0.9280586789491334
            ]
        },
        {
            "positions": [
                1.985764945623826,
                -1.2639272540902404,
                -1.0619371321961377,
                -1.3797675065525885,
                -1.130164736786722,
                1.009065163239801
            ]
        },
        {
            "positions": [
                1.883788147842804,
                -1.2667254907934424,
                -0.9394112119788509,
                -1.3556555858810733,
                -1.0671958550284422,
                1.0900716475304688
            ]
        },
        {
            "positions": [
                1.781811350061782,
                -1.2695237274966442,
                -0.8168852917615641,
                -1.3315436652095582,
                -1.0042269732701625,
                1.1710781318211363
            ]
        },
        {
            "positions": [
                1.6798345522807605,
                -1.272321964199846,
                -0.6943593715442775,
                -1.3074317445380432,
                -0.9412580915118828,
                1.252084616111804
            ]
        },
        {
            "positions": [
                1.5778577544997385,
                -1.2751202009030478,
                -0.5718334513269907,
                -1.283319823866528,
                -0.878289209753603,
                1.3330911004024717
            ]
        },
        {
            "positions": [
                1.4758809567187168,
                -1.2779184376062498,
                -0.4493075311097041,
                -1.259207903195013,
                -0.8153203279953234,
                1.4140975846931392
            ]
        },
        {
            "positions": [
                1.3739041589376948,
                -1.2807166743094516,
                -0.3267816108924171,
                -1.235095982523498,
                -0.7523514462370435,
                1.495104068983807
            ]
        },
        {
            "positions": [
                1.271927361156673,
                -1.2835149110126534,
                -0.2042556906751305,
                -1.210984061851983,
                -0.6893825644787638,
                1.5761105532744746
            ]
        },
        {
            "positions": [
                1.1699505633756513,
                -1.2863131477158554,
                -0.08172977045784391,
                -1.1868721411804677,
                -0.6264136827204841,
                1.6571170375651423
            ]
        },
        {
            "positions": [
                1.0679737655946293,
                -1.2891113844190571,
                0.04079614975944312,
                -1.1627602205089527,
                -0.5634448009622044,
                1.73812352185581
            ]
        },
        {
            "positions": [
                0.9659969678136076,
                -1.291909621122259,
                0.16332206997672993,
                -1.1386482998374376,
                -0.5004759192039245,
                1.8191300061464775
            ]
        },
        {
            "positions": [
                0.8640201700325856,
                -1.294707857825461,
                0.28584799019401674,
                -1.1145363791659224,
                -0.4375070374456449,
                1.9001364904371452
            ]
        },
        {
            "positions": [
                0.7620433722515638,
                -1.2975060945286627,
                0.4083739104113031,
                -1.0904244584944074,
                -0.37453815568736504,
                1.9811429747278129
            ]
        },
        {
            "positions": [
                0.6600665744705423,
                -1.3003043312318645,
                0.5308998306285899,
                -1.0663125378228924,
                -0.3115692739290854,
                2.0621494590184803
            ]
        },
        {
            "positions": [
                0.5580897766895201,
                -1.3031025679350665,
                0.6534257508458767,
                -1.0422006171513771,
                -0.24860039217080554,
                2.1431559433091483
            ]
        },
        {
            "positions": [
                0.4561129789084984,
                -1.3059008046382683,
                0.7759516710631635,
                -1.018088696479862,
                -0.18563151041252585,
                2.2241624275998158
            ]
        },
        {
            "positions": [
                0.39810501014947824,
                -1.2590915137827636,
                0.8784854755779608,
                -0.9845826642922042,
                -0.16287001310230484,
                2.282811590121558
            ]
        },
        {
            "positions": [
                0.34009704139045815,
                -1.212282222927259,
                0.9810192800927579,
                -0.9510766321045463,
                -0.14010851579208383,
                2.3414607526433002
            ]
        },
        {
            "positions": [
                0.282089072631438,
                -1.1654729320717543,
                1.083553084607555,
                -0.9175705999168885,
                -0.11734701848186285,
                2.4001099151650425
            ]
        },
        {
            "positions": [
                0.22408110387241786,
                -1.1186636412162496,
                1.1860868891223522,
                -0.8840645677292306,
                -0.09458552117164185,
                2.4587590776867847
            ]
        },
        {
            "positions": [
                0.1770102262808479,
                -1.0910769044998925,
                1.3456697631993362,
                -0.8432102096095183,
                -0.0987637371582866,
                2.507643396549166
            ]
        },
        {
            "positions": [
                0.12993934868927792,
                -1.0634901677835353,
                1.50525263727632,
                -0.802355851489806,
                -0.10294195314493133,
                2.5565277154115464
            ]
        },
        {
            "positions": [
                0.08286847109770795,
                -1.0359034310671782,
                1.664835511353304,
                -0.7615014933700938,
                -0.10712016913157608,
                2.6054120342739275
            ]
        },
        {
            "positions": [
                0.0958923242899044,
                -1.0674594746719763,
                1.761519963112043,
                -0.7432774045147024,
                -0.030904770770510917,
                2.7468117741972256
            ]
        },
        {
            "positions": [
                0.10891617748210083,
                -1.0990155182767745,
                1.8582044148707821,
                -0.7250533156593109,
                0.04531062759055425,
                2.888211514120523
            ]
        },
        {
            "positions": [
                0.12194003067429729,
                -1.1305715618815726,
                1.9548888666295212,
                -0.7068292268039195,
                0.12152602595161945,
                3.029611254043821
            ]
        }
    ]
}{
    "goal": {
        "global_pose": {
            "orientation": {
                "w": 0.7047431468963623,
                "x": -0.7094548344612122,
                "y": 0.0024358443915843964,
                "z": -0.0022348060738295317
            },
            "position": {
                "x": 0.6094750761985779,
                "y": 0.3671506643295288,
                "z": 0.19426114857196808
            }
        },
        "name": "move_to_magneteinheit_A"
    },
    "id": "TRRT_move_to_magneteinheit_A_83",
    "joint_names": [
        "shoulder_pan_joint",
        "shoulder_lift_joint",
        "elbow_joint",
        "wrist_1_joint",
        "wrist_2_joint",
        "wrist_3_joint"
    ],
    "metrics": {
        "cart_traj_len": 1.2279005650937134,
        "distance_elbow_joint": 0.05981920784561501,
        "distance_shoulder_lift_joint": 0.7907719949675267,
        "distance_shoulder_pan_joint": 1.2420141622944216,
        "distance_wrist_1_joint": 0.7647861269806772,
        "distance_wrist_2_joint": 1.4486444354708548,
        "distance_wrist_3_joint": 4.2663969693558315,
        "smoothness": 0.07418129731524226,
        "time": 0.067609081,
        "traj_len": 2.927871735051747,
        "weighted_distance": 4.395299466256892
    },
    "planner": "TRRT",
    "start": {
        "state": {
            "elbow_joint": 1.919643534880228,
            "shoulder_lift_joint": -1.8972525353963687,
            "shoulder_pan_joint": -1.1188672234189438,
            "wrist_1_joint": -1.5931878212786155,
            "wrist_2_joint": 1.5706036197970081,
            "wrist_3_joint": 1.118896926603594
        }
    },
    "waypoints": [
        {
            "positions": [
                -1.1188672234189438,
                -1.8972525353963687,
                1.919643534880228,
                -1.5931878212786155,
                1.5706036197970081,
                1.118896926603594
            ]
        },
        {
            "positions": [
                -1.0612308608290146,
                -1.8604828423608208,
                1.920438062012974,
                -1.5567784626194856,
                1.503681769623495,
                0.9244138213751086
            ]
        },
        {
            "positions": [
                -1.0035944982390852,
                -1.8237131493252732,
                1.9212325891457198,
                -1.5203691039603557,
                1.436759919449982,
                0.7299307161466233
            ]
        },
        {
            "positions": [
                -0.945958135649156,
                -1.7869434562897253,
                1.9220271162784657,
                -1.4839597453012259,
                1.3698380692764691,
                0.5354476109181381
            ]
        },
        {
            "positions": [
                -0.8883217730592267,
                -1.7501737632541774,
                1.9228216434112115,
                -1.447550386642096,
                1.302916219102956,
                0.34096450568965275
            ]
        },
        {
            "positions": [
                -0.8306854104692973,
                -1.7134040702186297,
                1.9236161705439574,
                -1.4111410279829664,
                1.2359943689294428,
                0.14648140046116742
            ]
        },
        {
            "positions": [
                -0.7730490478793681,
                -1.6766343771830818,
                1.9244106976767033,
                -1.3747316693238365,
                1.1690725187559299,
                -0.0480017047673178
            ]
        },
        {
            "positions": [
                -0.7154126852894388,
                -1.639864684147534,
                1.9252052248094491,
                -1.3383223106647066,
                1.102150668582417,
                -0.24248480999580324
            ]
        },
        {
            "positions": [
                -0.6577763226995095,
                -1.6030949911119863,
                1.925999751942195,
                -1.3019129520055768,
                1.0352288184089038,
                -0.43696791522428846
            ]
        },
        {
            "positions": [
                -0.6001399601095802,
                -1.5663252980764384,
                1.9267942790749408,
                -1.265503593346447,
                0.9683069682353908,
                -0.6314510204527737
            ]
        },
        {
            "positions": [
                -0.5425035975196509,
                -1.5295556050408905,
                1.9275888062076867,
                -1.229094234687317,
                0.9013851180618777,
                -0.8259341256812591
            ]
        },
        {
            "positions": [
                -0.4848672349297215,
                -1.4927859120053428,
                1.9283833333404328,
                -1.1926848760281872,
                0.8344632678883646,
                -1.0204172309097446
            ]
        },
        {
            "positions": [
                -0.4272308723397923,
                -1.456016218969795,
                1.9291778604731786,
                -1.1562755173690573,
                0.7675414177148516,
                -1.2149003361382296
            ]
        },
        {
            "positions": [
                -0.36959450974986297,
                -1.419246525934247,
                1.9299723876059245,
                -1.1198661587099275,
                0.7006195675413385,
                -1.409383441366715
            ]
        },
        {
            "positions": [
                -0.31195814715993375,
                -1.3824768328986994,
                1.9307669147386703,
                -1.0834568000507976,
                0.6336977173678255,
                -1.6038665465952004
            ]
        },
        {
            "positions": [
                -0.2543217845700043,
                -1.3457071398631515,
                1.9315614418714162,
                -1.0470474413916677,
                0.5667758671943124,
                -1.798349651823686
            ]
        },
        {
            "positions": [
                -0.1966854219800751,
                -1.3089374468276036,
                1.932355969004162,
                -1.0106380827325379,
                0.49985401702079946,
                -1.9928327570521709
            ]
        },
        {
            "positions": [
                -0.13904905939014578,
                -1.272167753792056,
                1.933150496136908,
                -0.9742287240734081,
                0.4329321668472863,
                -2.1873158622806566
            ]
        },
        {
            "positions": [
                -0.08141269680021646,
                -1.235398060756508,
                1.9339450232696538,
                -0.9378193654142783,
                0.3660103166737734,
                -2.381798967509141
            ]
        },
        {
            "positions": [
                -0.023776334210287242,
                -1.1986283677209602,
                1.9347395504023996,
                -0.9014100067551485,
                0.2990884665002602,
                -2.5762820727376274
            ]
        },
        {
            "positions": [
                0.03386002837964197,
                -1.1618586746854125,
                1.9355340775351455,
                -0.8650006480960186,
                0.2321666163267473,
                -2.770765177966112
            ]
        },
        {
            "positions": [
                0.09149639096957146,
                -1.1250889816498646,
                1.9363286046678914,
                -0.8285912894368888,
                0.16524476615323413,
                -2.965248283194598
            ]
        },
        {
            "positions": [
                0.12314693887547791,
                -1.1436974228708872,
                1.979462742725843,
                -0.8284016942979383,
                0.12195918432615332,
                -3.147500042752237
            ]
        }
    ]
}