Planner,Run,Success,Length_In_Joint_Space,Length_In_Cartesian_Space(Endeffector),Smoothness,Time,Weighted_Length,Shoulder_Pan_Joint,Shoulder_Lift_Joint,Elbow_Joint,Wrist_1_Joint,Wrist_2_Joint,Wrist_3_Joint
LBKPIECE,1,true,2.669202,1.053958,0.000000,2.283110,3.677451,1.241611,0.371019,0.375160,2.182293,1.692396,1.262159
LBKPIECE,2,true,2.667427,1.053608,0.000000,2.798151,3.665257,1.240690,0.365468,0.386818,2.234879,1.690562,1.196749
LBKPIECE,3,true,2.669204,1.053904,0.000000,1.245498,3.667789,1.242569,0.363645,0.388002,2.240401,1.692447,1.197588
LBKPIECE,4,true,2.669413,1.054122,0.000000,2.645124,3.675911,1.242149,0.369371,0.378691,2.187229,1.697322,1.251003
LBKPIECE,5,true,2.668990,1.054411,0.000000,3.022980,3.672863,1.242069,0.368946,0.380014,2.195853,1.702684,1.233940
LBKPIECE,6,true,2.669486,1.053640,0.000000,3.298744,3.661659,1.241725,0.359333,0.397468,2.282271,1.691391,1.153967
LBKPIECE,7,true,2.669472,1.053885,0.000000,3.362223,3.673565,1.241824,0.367840,0.380343,2.211448,1.691691,1.232933
LBKPIECE,8,true,2.677001,1.052593,0.000000,5.199762,3.666424,1.241254,0.349558,0.414569,2.341237,1.704346,1.115372
LBKPIECE,9,true,2.667378,1.053166,0.000000,4.246118,3.666122,1.241227,0.364557,0.385689,2.227841,1.693474,1.202115
LBKPIECE,10,false,0,0,0,0,0,0,0,0,0,0,0
LBKPIECE,11,true,2.669314,1.052692,0.000000,1.988996,3.664765,1.241431,0.359598,0.393272,2.262768,1.693842,1.174327
LBKPIECE,12,true,2.668510,1.053340,0.000000,3.252701,3.670289,1.240495,0.366719,0.383635,2.219368,1.690757,1.219974
LBKPIECE,13,true,2.669754,1.052496,0.000000,2.024857,3.658455,1.240634,0.355189,0.402823,2.310489,1.690688,1.127763
LBKPIECE,14,true,2.669001,1.052626,0.000000,5.057476,3.669387,1.241174,0.362983,0.386874,2.220621,1.703615,1.208299
LBKPIECE,15,true,2.670605,1.053358,0.000000,4.798015,3.672153,1.241733,0.363792,0.387305,2.233978,1.692047,1.213276
LBKPIECE,16,true,2.667658,1.053199,0.000000,1.867512,3.668921,1.241279,0.365855,0.383788,2.216086,1.690294,1.219099
LBKPIECE,17,true,2.669607,1.054752,0.000000,2.626089,3.674382,1.242547,0.369562,0.379263,2.203057,1.693524,1.238849
LBKPIECE,18,true,2.667906,1.053482,0.000000,3.031941,3.667754,1.241048,0.365783,0.385003,2.226689,1.690395,1.208806
LBKPIECE,19,true,2.669690,1.053404,0.000000,2.133539,3.673219,1.241040,0.366743,0.381953,2.205221,1.704496,1.227790
LBKPIECE,20,true,2.669098,1.053897,0.000000,3.074496,3.666203,1.242182,0.363249,0.388875,2.244163,1.698425,1.187187
LBKPIECE,21,false,0,0,0,0,0,0,0,0,0,0,0
LBKPIECE,22,true,2.669602,1.054260,0.000000,3.289833,3.672659,1.241974,0.367678,0.382240,2.210071,1.698043,1.226767
LBKPIECE,23,true,2.671188,1.054099,0.000000,2.419830,3.670086,1.242143,0.363240,0.389923,2.245555,1.700042,1.194343
LBKPIECE,24,true,2.670464,1.053307,0.000000,3.459931,3.674385,1.241214,0.365871,0.383431,2.207417,1.704590,1.228857
LBKPIECE,25,true,2.668320,1.053712,0.000000,3.886017,3.672819,1.241084,0.369160,0.378720,2.201349,1.690930,1.238692
LBKPIECE,26,false,0,0,0,0,0,0,0,0,0,0,0
LBKPIECE,27,true,2.665328,1.053790,0.000000,0.759290,3.668114,1.241848,0.369932,0.375778,2.189449,1.692297,1.234669
LBKPIECE,28,true,2.667800,1.053499,0.000000,3.310756,3.667399,1.240685,0.366075,0.385017,2.223021,1.695083,1.207277
LBKPIECE,29,true,2.667365,1.052854,0.000000,3.087903,3.668043,1.240441,0.365710,0.383771,2.215574,1.694554,1.214787
LBKPIECE,30,true,2.668653,1.052991,0.000000,2.178369,3.668984,1.240228,0.365000,0.386121,2.223549,1.697436,1.209375
LBKPIECE,31,true,2.668878,1.053922,0.000000,4.314721,3.670431,1.241277,0.367067,0.383390,2.215671,1.697538,1.217970
LBKPIECE,32,true,2.668600,1.054211,0.000000,2.142997,3.670439,1.241946,0.367489,0.382622,2.207366,1.700675,1.221327
LBKPIECE,33,true,2.668786,1.054066,0.000000,4.269993,3.671142,1.241746,0.367706,0.381299,2.207259,1.701201,1.223205
LBKPIECE,34,false,0,0,0,0,0,0,0,0,0,0,0
LBKPIECE,35,true,2.667523,1.053507,0.000000,4.741278,3.669604,1.241449,0.367301,0.381012,2.207847,1.693675,1.224395
LBKPIECE,36,true,2.667192,1.053687,0.000000,3.485872,3.671950,1.241040,0.370060,0.377207,2.188041,1.693866,1.243700
LBKPIECE,37,true,2.665536,1.053908,0.000000,3.777625,3.668812,1.241437,0.370760,0.375334,2.187679,1.692328,1.237544
LBKPIECE,38,false,0,0,0,0,0,0,0,0,0,0,0
LBKPIECE,39,true,2.669070,1.053883,0.000000,3.203140,3.671325,1.241596,0.367038,0.382669,2.217058,1.693511,1.222063
LBKPIECE,40,false,0,0,0,0,0,0,0,0,0,0,0
LBKPIECE,41,false,0,0,0,0,0,0,0,0,0,0,0
LBKPIECE,42,false,0,0,0,0,0,0,0,0,0,0,0
LBKPIECE,43,true,2.670942,1.053937,0.000000,3.840155,3.669076,1.241603,0.363083,0.390541,2.256723,1.692502,1.189480
LBKPIECE,44,true,2.667083,1.052999,0.000000,2.102769,3.670780,1.240452,0.368218,0.379496,2.195764,1.693270,1.236131
LBKPIECE,45,true,2.668149,1.053529,0.000000,4.060967,3.671014,1.241364,0.367489,0.380827,2.208442,1.692909,1.227988
LBKPIECE,46,true,2.668651,1.054670,0.000000,2.487331,3.670487,1.242827,0.367780,0.382247,2.207125,1.699785,1.221934
LBKPIECE,47,true,2.669227,1.053938,0.000000,1.070145,3.674250,1.241781,0.368672,0.379184,2.196434,1.698501,1.240202
LBKPIECE,48,true,2.671818,1.053131,0.000000,0.509042,3.670931,1.241952,0.360631,0.391688,2.243024,1.708536,1.192780
LBKPIECE,49,true,2.668556,1.053420,0.000000,1.927197,3.670269,1.241081,0.366322,0.383299,2.211321,1.699975,1.219192
LBKPIECE,50,true,2.669160,1.054247,0.000000,2.117164,3.674074,1.241802,0.369418,0.379074,2.202547,1.691290,1.240283
LBKPIECE,51,true,2.666564,1.053273,0.000000,2.372370,3.667927,1.240631,0.367527,0.381999,2.207850,1.689843,1.222715
LBKPIECE,52,true,2.667119,1.053674,0.000000,2.851296,3.669925,1.240798,0.369087,0.379429,2.202712,1.690885,1.230614
LBKPIECE,53,true,2.670873,1.053350,0.000000,3.030716,3.671004,1.242108,0.362267,0.389678,2.241239,1.695071,1.203198
LBKPIECE,54,true,2.666304,1.053467,0.000000,3.918731,3.666808,1.242107,0.366480,0.381475,2.210586,1.691340,1.217188
LBKPIECE,55,true,2.667941,1.054555,0.000000,3.566027,3.673136,1.241456,0.371527,0.376886,2.187356,1.694704,1.245980
LBKPIECE,56,true,2.670592,1.053292,0.000000,1.337873,3.671184,1.241061,0.363605,0.388463,2.228444,1.703881,1.206605
LBKPIECE,57,true,2.668768,1.052525,0.000000,4.723869,3.664337,1.240290,0.360441,0.393974,2.257135,1.693058,1.177425
LBKPIECE,58,false,0,0,0,0,0,0,0,0,0,0,0
LBKPIECE,59,true,2.668264,1.053045,0.000000,1.599348,3.670353,1.240846,0.365994,0.383279,2.209985,1.697181,1.222348
LBKPIECE,60,true,2.666701,1.054891,0.000000,1.850213,3.671168,1.242071,0.372346,0.375354,2.185284,1.691590,1.244650
LBKPIECE,61,true,2.668316,1.053817,0.000000,2.867100,3.668732,1.242660,0.365092,0.384887,2.217571,1.697294,1.212408
LBKPIECE,62,true,2.667484,1.053110,0.000000,3.520175,3.665345,1.241446,0.363341,0.388288,2.234196,1.691321,1.196881
LBKPIECE,63,false,0,0,0,0,0,0,0,0,0,0,0
LBKPIECE,64,true,2.668991,1.053602,0.000000,3.352213,3.669541,1.241548,0.365296,0.385117,2.222032,1.699050,1.210470
LBKPIECE,65,true,2.668560,1.053858,0.000000,1.417670,3.674751,1.241401,0.370136,0.376744,2.189886,1.693389,1.249655
LBKPIECE,66,false,0,0,0,0,0,0,0,0,0,0,0
LBKPIECE,67,true,2.669636,1.054275,0.000000,3.014801,3.674089,1.242849,0.367809,0.380234,2.197652,1.702499,1.235913
LBKPIECE,68,true,2.671101,1.053185,0.000000,0.408369,3.667984,1.241901,0.359940,0.393428,2.256331,1.703375,1.179808
LBKPIECE,69,true,2.667794,1.053438,0.000000,1.516332,3.672915,1.240843,0.369362,0.378094,2.190211,1.694256,1.244357
LBKPIECE,70,true,2.668415,1.053910,0.000000,3.555486,3.667218,1.241969,0.364901,0.386796,2.232552,1.692943,1.201278
LBKPIECE,71,false,0,0,0,0,0,0,0,0,0,0,0
LBKPIECE,72,true,2.669720,1.053754,0.000000,1.833232,3.672924,1.242193,0.366090,0.383313,2.205035,1.703616,1.227157
LBKPIECE,73,true,2.668639,1.053283,0.000000,3.337916,3.672165,1.241168,0.366772,0.382842,2.207223,1.691319,1.232311
LBKPIECE,74,true,2.668199,1.053335,0.000000,4.111751,3.665965,1.242231,0.362754,0.388220,2.238085,1.694060,1.193935
LBKPIECE,75,true,2.670090,1.054096,0.000000,4.574423,3.669486,1.242370,0.364140,0.388002,2.234102,1.699895,1.200873
LBKPIECE,76,true,2.667188,1.052961,0.000000,4.446117,3.666084,1.241235,0.364232,0.385707,2.226117,1.693034,1.203564
LBKPIECE,77,true,2.670932,1.052938,0.000000,2.915113,3.666740,1.240312,0.360106,0.395553,2.270595,1.694111,1.173200
LBKPIECE,78,true,2.666189,1.054206,0.000000,2.552833,3.669420,1.242032,0.370348,0.376358,2.188931,1.694639,1.236254
LBKPIECE,79,true,2.669507,1.053755,0.000000,0.700589,3.670529,1.241993,0.364967,0.386346,2.223034,1.696380,1.213550
LBKPIECE,80,true,2.668681,1.053805,0.000000,4.267963,3.667575,1.242079,0.364299,0.387651,2.231178,1.695228,1.201422
LBKPIECE,81,true,2.667096,1.053999,0.000000,1.993559,3.667838,1.240925,0.368325,0.382390,2.213381,1.690505,1.217873
LBKPIECE,82,true,2.666713,1.052932,0.000000,3.154948,3.665586,1.240465,0.365323,0.384500,2.225168,1.691806,1.204095
LBKPIECE,83,true,2.669280,1.053177,0.000000,3.398577,3.670616,1.242075,0.363915,0.385729,2.220657,1.697652,1.215028
LBKPIECE,84,true,2.669767,1.053097,0.000000,1.612215,3.674430,1.240801,0.366715,0.381779,2.198354,1.704580,1.235424
LBKPIECE,85,false,0,0,0,0,0,0,0,0,0,0,0
LBKPIECE,86,true,2.669776,1.053201,0.000000,3.169351,3.671788,1.241429,0.364845,0.384578,2.227532,1.691840,1.217477
LBKPIECE,87,true,2.669811,1.052744,0.000000,2.475764,3.668156,1.240541,0.361893,0.390988,2.247627,1.693837,1.193005
LBKPIECE,88,true,2.668654,1.053764,0.000000,2.451674,3.671523,1.241932,0.367172,0.381177,2.207760,1.696735,1.226936
LBKPIECE,89,true,2.669842,1.053996,0.000000,1.380887,3.675602,1.242297,0.368220,0.380052,2.200702,1.692272,1.244511
LBKPIECE,90,true,2.670028,1.053922,0.000000,1.347007,3.669315,1.241428,0.364684,0.387705,2.244962,1.690684,1.199588
LBKPIECE,91,true,2.671135,1.052637,0.000000,4.509799,3.665153,1.241436,0.357117,0.397915,2.275085,1.703525,1.159887
LBKPIECE,92,true,2.668198,1.053784,0.000000,2.212752,3.670447,1.241801,0.366948,0.383205,2.208706,1.693044,1.225575
LBKPIECE,93,true,2.666086,1.053886,0.000000,2.123918,3.670184,1.242091,0.370026,0.376225,2.185352,1.691752,1.242567
LBKPIECE,94,true,2.667749,1.053416,0.000000,4.298187,3.671785,1.242030,0.367503,0.379768,2.197767,1.692279,1.237537
LBKPIECE,95,false,0,0,0,0,0,0,0,0,0,0,0
LBKPIECE,96,true,2.667590,1.054876,0.000000,1.564922,3.671018,1.242523,0.370421,0.378474,2.192945,1.695957,1.235717
LBKPIECE,97,true,2.668192,1.053762,0.000000,2.406910,3.670942,1.241072,0.368185,0.380967,2.207517,1.693965,1.227543
LBKPIECE,98,true,2.668128,1.053988,0.000000,2.884518,3.665062,1.241928,0.364389,0.387387,2.245146,1.691486,1.188572
LBKPIECE,99,true,2.668009,1.053272,0.000000,1.240445,3.667521,1.242136,0.363951,0.385825,2.227159,1.693125,1.206077
LBKPIECE,100,true,2.665749,1.053166,0.000000,2.325169,3.668595,1.241067,0.368552,0.378414,2.192077,1.691915,1.234191
LBKPIECE,101,true,2.670143,1.052130,0.000000,4.792505,3.659469,1.240748,0.354163,0.403588,2.307327,1.692948,1.130888
LBKPIECE,102,true,2.669739,1.053715,0.000000,4.093104,3.669975,1.241407,0.364845,0.387168,2.233939,1.693015,1.207130
LBKPIECE,103,false,0,0,0,0,0,0,0,0,0,0,0
LBKPIECE,104,true,2.673344,1.052326,0.000000,5.133353,3.658317,1.240685,0.349484,0.413939,2.358238,1.690572,1.093853
LBKPIECE,105,true,2.671814,1.053214,0.000000,2.230726,3.658281,1.241680,0.353117,0.407578,2.333802,1.694205,1.108209
LBKPIECE,106,true,2.666172,1.053806,0.000000,2.656096,3.669290,1.241708,0.369284,0.378667,2.190352,1.692065,1.236398
LBKPIECE,107,true,2.667057,1.054352,0.000000,1.869931,3.672121,1.241025,0.372044,0.375807,2.183554,1.693799,1.246963
LBKPIECE,108,true,2.667582,1.053568,0.000000,1.580342,3.671766,1.241315,0.368716,0.379381,2.194968,1.692314,1.239297
LBKPIECE,109,true,2.671979,1.053376,0.000000,1.760148,3.669057,1.241417,0.360018,0.396056,2.269244,1.692208,1.180528
LBKPIECE,110,true,2.669068,1.053342,0.000000,2.692185,3.671763,1.241030,0.366428,0.382899,2.210733,1.698477,1.224356
LBKPIECE,111,true,2.673301,1.052225,0.000000,4.005243,3.667100,1.241268,0.354243,0.403150,2.285892,1.708783,1.153203
LBKPIECE,112,true,2.667179,1.053281,0.000000,3.812997,3.672997,1.240671,0.370127,0.376169,2.184493,1.692203,1.250183
LBKPIECE,113,true,2.668965,1.053363,0.000000,2.323785,3.672342,1.240919,0.367140,0.381694,2.207038,1.697478,1.229105
LBKPIECE,114,true,2.670692,1.053056,0.000000,2.025473,3.668504,1.240853,0.361182,0.393557,2.257260,1.691428,1.188318
LBKPIECE,115,true,2.666451,1.053065,0.000000,1.915596,3.667337,1.241319,0.366285,0.381948,2.210702,1.690716,1.218990
LBKPIECE,116,true,2.669660,1.052823,0.000000,3.600355,3.673960,1.241089,0.365659,0.382434,2.208425,1.696488,1.232991
LBKPIECE,117,true,2.671026,1.052362,0.000000,1.902324,3.667956,1.240794,0.358806,0.395069,2.253897,1.706004,1.179810
LBKPIECE,118,true,2.666814,1.052849,0.000000,1.816144,3.665381,1.241286,0.363956,0.385844,2.226449,1.692054,1.202309
LBKPIECE,119,true,2.668690,1.053547,0.000000,2.325057,3.670797,1.241317,0.366743,0.382219,2.218402,1.692007,1.221219
LBKPIECE,120,true,2.668170,1.054164,0.000000,3.065320,3.669708,1.242611,0.366931,0.382495,2.213421,1.693141,1.220533
LBKPIECE,121,false,0,0,0,0,0,0,0,0,0,0,0
LBKPIECE,122,true,2.670313,1.053437,0.000000,3.269396,3.663700,1.241246,0.359624,0.396243,2.282102,1.692693,1.158665
LBKPIECE,123,true,2.677372,1.053651,0.000000,5.084248,3.663397,1.242474,0.349165,0.416069,2.358677,1.710391,1.091545
LBKPIECE,124,true,2.672939,1.052665,0.000000,5.168589,3.664901,1.240793,0.354831,0.404786,2.305193,1.696298,1.142702
LBKPIECE,125,true,2.668464,1.053395,0.000000,2.832795,3.671298,1.241121,0.366990,0.381999,2.205979,1.697473,1.227139
LBKPIECE,126,true,2.667769,1.053879,0.000000,3.283314,3.670814,1.242639,0.367480,0.380087,2.197185,1.698508,1.231093
LBKPIECE,127,true,2.668598,1.053477,0.000000,1.161827,3.673607,1.241063,0.368725,0.378607,2.199321,1.692749,1.240951
LBKPIECE,128,true,2.674226,1.053098,0.000000,0.848882,3.659507,1.242269,0.349328,0.414991,2.356537,1.692758,1.095603
LBKPIECE,129,true,2.668314,1.053932,0.000000,4.011539,3.672191,1.242624,0.367731,0.379762,2.193257,1.701228,1.235300
LBKPIECE,130,true,2.669007,1.054342,0.000000,4.352941,3.670530,1.241956,0.367217,0.383935,2.212134,1.699654,1.218703
LBKPIECE,131,false,0,0,0,0,0,0,0,0,0,0,0
LBKPIECE,132,true,2.666057,1.054448,0.000000,2.333339,3.670028,1.242610,0.370848,0.375874,2.182857,1.692951,1.242720
LBKPIECE,133,true,2.669710,1.053221,0.000000,4.307674,3.668744,1.241429,0.363044,0.388038,2.241143,1.696204,1.197493
LBKPIECE,134,true,2.667846,1.053377,0.000000,2.850990,3.670999,1.241366,0.367307,0.381411,2.204466,1.691345,1.231509
LBKPIECE,135,true,2.666887,1.054010,0.000000,3.098504,3.671148,1.242326,0.369618,0.376866,2.186489,1.695430,1.241559
LBKPIECE,136,true,2.667108,1.052475,0.000000,3.681958,3.664931,1.240644,0.362871,0.387798,2.233478,1.692582,1.196095
LBKPIECE,137,true,2.668327,1.053814,0.000000,1.715878,3.671160,1.242037,0.367229,0.381699,2.202991,1.697562,1.228448
LBKPIECE,138,true,2.671856,1.053535,0.000000,0.280314,3.671851,1.241230,0.362661,0.391042,2.234152,1.709942,1.199788
LBKPIECE,139,true,2.670972,1.054008,0.000000,3.397307,3.676519,1.242125,0.367373,0.381622,2.200617,1.702631,1.239726
LBKPIECE,140,true,2.669828,1.053121,0.000000,3.740147,3.665893,1.240713,0.361272,0.393148,2.262209,1.692706,1.177935
LBKPIECE,141,true,2.667577,1.053764,0.000000,1.123598,3.672761,1.241535,0.369812,0.376978,2.187561,1.694512,1.245569
LBKPIECE,142,true,2.669488,1.053025,0.000000,4.276322,3.664951,1.241783,0.360052,0.392728,2.258802,1.698711,1.174091
LBKPIECE,143,true,2.666389,1.053876,0.000000,4.641379,3.670388,1.242027,0.369629,0.377361,2.183817,1.695281,1.241512
LBKPIECE,144,true,2.668401,1.053878,0.000000,3.606169,3.667329,1.241276,0.365663,0.386046,2.233599,1.692220,1.201561
LBKPIECE,145,true,2.668319,1.052725,0.000000,4.228589,3.668256,1.240946,0.363540,0.387322,2.228064,1.691989,1.208063
LBKPIECE,146,true,2.667422,1.053312,0.000000,4.344065,3.670975,1.240247,0.368776,0.380022,2.195130,1.696146,1.234820
LBKPIECE,147,true,2.668168,1.054308,0.000000,2.799028,3.674024,1.241393,0.371424,0.375735,2.190280,1.691522,1.248767
LBKPIECE,148,true,2.667071,1.053058,0.000000,1.894519,3.669382,1.240742,0.367324,0.380432,2.201562,1.696879,1.226329
LBKPIECE,149,true,2.668687,1.053726,0.000000,4.623064,3.669426,1.241664,0.365712,0.385266,2.224714,1.690984,1.213549
LBKPIECE,150,false,0,0,0,0,0,0,0,0,0,0,0
BKPIECE,1,true,2.667785,1.054041,0.000000,0.930492,3.666417,1.241255,0.366251,0.385986,2.231026,1.690606,1.201952
BKPIECE,2,true,2.670865,1.054210,0.000000,0.139678,3.672051,1.242121,0.365311,0.386143,2.233332,1.696120,1.210492
BKPIECE,3,true,2.670324,1.053122,0.000000,1.904712,3.677613,1.241068,0.367699,0.380065,2.191489,1.697908,1.252403
BKPIECE,4,true,2.670483,1.054138,0.000000,0.852848,3.676767,1.241774,0.369044,0.379060,2.198907,1.697165,1.245531
BKPIECE,5,true,2.665945,1.053463,0.000000,0.899236,3.669604,1.241424,0.369561,0.376106,2.188069,1.693543,1.238559
BKPIECE,6,true,2.669197,1.053028,0.000000,1.970922,3.667440,1.240246,0.363232,0.390093,2.241890,1.694681,1.194468
BKPIECE,7,true,2.673104,1.052909,0.000000,0.373833,3.664711,1.242160,0.354144,0.403620,2.302391,1.704105,1.139064
BKPIECE,8,true,2.668344,1.053022,0.000000,0.911911,3.667157,1.240484,0.364019,0.388055,2.231674,1.695349,1.200479
BKPIECE,9,true,2.669212,1.053309,0.000000,0.620323,3.670585,1.240715,0.365755,0.384565,2.226305,1.692505,1.214847
BKPIECE,10,true,2.667449,1.053060,0.000000,0.676196,3.674019,1.240551,0.369845,0.376585,2.182493,1.690978,1.254831
BKPIECE,11,true,2.669812,1.052400,0.000000,1.621108,3.664010,1.240970,0.358073,0.396174,2.278346,1.689938,1.164395
BKPIECE,12,true,2.669634,1.052470,0.000000,0.442649,3.662884,1.240882,0.357928,0.396662,2.283639,1.689535,1.158300
BKPIECE,13,true,2.669740,1.054051,0.000000,1.275947,3.668949,1.242398,0.364327,0.386904,2.239392,1.694698,1.199792
BKPIECE,14,true,2.668847,1.053515,0.000000,1.228568,3.672511,1.241533,0.367269,0.380847,2.206068,1.695533,1.231495
BKPIECE,15,true,2.670492,1.053009,0.000000,0.810511,3.673194,1.240337,0.365020,0.385755,2.215356,1.704655,1.220407
BKPIECE,16,true,2.669050,1.052381,0.000000,1.588880,3.664276,1.240244,0.359754,0.394712,2.266053,1.689091,1.173975
BKPIECE,17,true,2.668514,1.053941,0.000000,0.859521,3.666356,1.242249,0.364092,0.387805,2.240177,1.692264,1.194378
BKPIECE,18,true,2.667406,1.053486,0.000000,1.056438,3.666960,1.240544,0.366297,0.385367,2.221913,1.692248,1.208688
BKPIECE,19,true,2.667552,1.053602,0.000000,1.621034,3.671343,1.241985,0.368059,0.379093,2.194284,1.696175,1.236236
BKPIECE,20,true,2.670642,1.054189,0.000000,0.702679,3.674349,1.242254,0.366762,0.383344,2.209467,1.701965,1.228539
BKPIECE,21,true,2.673530,1.052747,0.000000,0.675661,3.669914,1.242091,0.356390,0.398930,2.277204,1.702985,1.170160
BKPIECE,22,true,2.670528,1.054367,0.000000,1.403581,3.678199,1.242544,0.369823,0.376816,2.189382,1.698272,1.254886
BKPIECE,23,true,2.671474,1.054031,0.000000,0.466443,3.673417,1.242805,0.364144,0.386932,2.232670,1.695897,1.214325
BKPIECE,24,true,2.669612,1.053932,0.000000,1.241898,3.668101,1.241236,0.364619,0.388388,2.243790,1.693250,1.195547
BKPIECE,25,true,2.668622,1.053360,0.000000,0.651081,3.671028,1.242071,0.365609,0.383091,2.213059,1.693586,1.224129
BKPIECE,26,true,2.669111,1.053451,0.000000,1.319094,3.669188,1.241709,0.364431,0.385850,2.229444,1.696102,1.206619
BKPIECE,27,true,2.668620,1.053148,0.000000,1.291973,3.671369,1.241192,0.365979,0.383551,2.209774,1.694428,1.226608
BKPIECE,28,true,2.671289,1.052991,0.000000,0.633244,3.668354,1.241864,0.359531,0.393293,2.253234,1.707920,1.179942
BKPIECE,29,true,2.667584,1.053218,0.000000,0.834631,3.671025,1.241313,0.367427,0.380090,2.194423,1.699509,1.233244
BKPIECE,30,true,2.674907,1.054111,0.000000,0.424009,3.674887,1.242756,0.360563,0.394182,2.255634,1.709961,1.192034
BKPIECE,31,true,2.668476,1.053490,0.000000,0.580127,3.669089,1.242451,0.364661,0.384116,2.216444,1.701184,1.211911
BKPIECE,32,true,2.668119,1.054182,0.000000,0.541886,3.669622,1.241627,0.367766,0.383018,2.209956,1.695677,1.220816
BKPIECE,33,true,2.668398,1.054439,0.000000,1.580005,3.669872,1.242619,0.367447,0.382334,2.215675,1.692616,1.219659
BKPIECE,34,true,2.669310,1.053863,0.000000,0.637728,3.675708,1.241821,0.369234,0.378068,2.192713,1.693856,1.249524
BKPIECE,35,true,2.669053,1.053184,0.000000,0.379352,3.674576,1.241403,0.367504,0.379538,2.191313,1.700814,1.243270
BKPIECE,36,true,2.670102,1.053460,0.000000,1.014551,3.671489,1.241023,0.365068,0.386348,2.232246,1.691378,1.213382
BKPIECE,37,true,2.668539,1.054124,0.000000,0.563994,3.669150,1.241921,0.366456,0.384976,2.221664,1.692262,1.213819
BKPIECE,38,true,2.668682,1.053138,0.000000,0.525441,3.675787,1.241063,0.369042,0.377112,2.184896,1.694853,1.254898
BKPIECE,39,true,2.669811,1.052761,0.000000,1.088392,3.670933,1.241015,0.363304,0.387251,2.226586,1.698206,1.211531
BKPIECE,40,true,2.673063,1.053867,0.000000,0.566132,3.672328,1.242419,0.361010,0.393621,2.251268,1.704440,1.192508
BKPIECE,41,true,2.670478,1.053110,0.000000,0.359153,3.664530,1.241341,0.358723,0.397374,2.273549,1.697149,1.163315
BKPIECE,42,true,2.669396,1.054294,0.000000,0.855238,3.664867,1.242198,0.362834,0.391740,2.261225,1.691007,1.176671
BKPIECE,43,true,2.667625,1.053415,0.000000,0.423457,3.668830,1.241523,0.366450,0.381869,2.213939,1.694731,1.217711
BKPIECE,44,true,2.668864,1.053150,0.000000,1.126821,3.673724,1.240966,0.367518,0.380393,2.198372,1.696127,1.239457
BKPIECE,45,true,2.667360,1.054108,0.000000,0.741820,3.672107,1.240964,0.371015,0.377230,2.189732,1.691914,1.243956
BKPIECE,46,true,2.668601,1.053010,0.000000,1.203878,3.675617,1.240867,0.368888,0.377440,2.187116,1.692635,1.254487
BKPIECE,47,true,2.667247,1.053766,0.000000,0.707673,3.670400,1.241560,0.368744,0.378825,2.194605,1.697927,1.232548
BKPIECE,48,true,2.668958,1.053464,0.000000,1.241732,3.668271,1.240840,0.364825,0.386831,2.230452,1.698359,1.202030
BKPIECE,49,true,2.666531,1.052904,0.000000,0.886457,3.665529,1.240950,0.365047,0.384041,2.224254,1.690734,1.205363
BKPIECE,50,true,2.668678,1.054643,0.000000,0.662777,3.676163,1.242664,0.371766,0.374040,2.182082,1.692336,1.258956
BKPIECE,51,true,2.670521,1.053017,0.000000,1.156470,3.668689,1.241383,0.361105,0.391869,2.243036,1.704028,1.190264
BKPIECE,52,true,2.667153,1.053983,0.000000,0.790703,3.669988,1.241828,0.368982,0.378611,2.200082,1.693379,1.230824
BKPIECE,53,true,2.669311,1.053502,0.000000,0.299272,3.671757,1.240891,0.366443,0.384111,2.207501,1.703463,1.222809
BKPIECE,54,true,2.670176,1.053458,0.000000,1.517118,3.669512,1.242156,0.362762,0.388237,2.237081,1.700811,1.198792
BKPIECE,55,true,2.666798,1.054584,0.000000,2.044932,3.671485,1.242387,0.371268,0.375994,2.182594,1.693732,1.245834
BKPIECE,56,true,2.669364,1.053753,0.000000,1.208585,3.667672,1.242394,0.363100,0.388912,2.243603,1.692287,1.195209
BKPIECE,57,true,2.668628,1.053571,0.000000,0.723691,3.671692,1.241125,0.367431,0.382087,2.211297,1.690818,1.228817
BKPIECE,58,true,2.668041,1.052929,0.000000,0.380310,3.670283,1.240842,0.366049,0.382471,2.207477,1.698155,1.223450
BKPIECE,59,true,2.671729,1.053352,0.000000,2.496191,3.669430,1.241730,0.360623,0.392968,2.267960,1.691086,1.183768
BKPIECE,60,true,2.667529,1.053364,0.000000,1.327495,3.665224,1.241455,0.364142,0.386521,2.235110,1.693914,1.194566
BKPIECE,61,true,2.668891,1.052829,0.000000,1.420738,3.662587,1.241219,0.359201,0.395477,2.272619,1.689985,1.164478
BKPIECE,62,true,2.670013,1.053089,0.000000,0.691191,3.676624,1.241324,0.367269,0.380076,2.195054,1.696944,1.248301
BKPIECE,63,true,2.668482,1.053542,0.000000,0.695903,3.666911,1.241671,0.363930,0.387933,2.235172,1.693919,1.198174
BKPIECE,64,true,2.671169,1.053146,0.000000,1.555008,3.659489,1.242541,0.353573,0.405546,2.316881,1.693378,1.123226
BKPIECE,65,true,2.669063,1.053478,0.000000,1.066626,3.673359,1.241272,0.367645,0.380188,2.195873,1.704039,1.234879
BKPIECE,66,true,2.669300,1.053767,0.000000,0.849810,3.670090,1.241811,0.365365,0.385218,2.222451,1.698686,1.211630
BKPIECE,67,true,2.669992,1.053364,0.000000,0.760127,3.671440,1.240808,0.365209,0.385492,2.218118,1.705958,1.213270
BKPIECE,68,true,2.668527,1.054606,0.000000,1.078887,3.674983,1.241680,0.371712,0.376725,2.183575,1.693796,1.253548
BKPIECE,69,true,2.669776,1.052442,0.000000,0.787826,3.666094,1.240159,0.360247,0.393691,2.261564,1.693106,1.178937
BKPIECE,70,true,2.666782,1.053302,0.000000,1.794145,3.670600,1.241029,0.368591,0.379507,2.191920,1.691695,1.238983
BKPIECE,71,true,2.673501,1.052986,0.000000,0.499721,3.657526,1.241402,0.349775,0.414733,2.360024,1.693478,1.088195
BKPIECE,72,true,2.670382,1.053200,0.000000,1.235301,3.676395,1.240583,0.367666,0.380430,2.196588,1.702996,1.242679
BKPIECE,73,true,2.667915,1.054554,0.000000,0.743431,3.668742,1.242578,0.367736,0.382106,2.212726,1.696079,1.216546
BKPIECE,74,true,2.667483,1.052782,0.000000,1.117310,3.666159,1.240756,0.363826,0.386861,2.232266,1.690530,1.201229
BKPIECE,75,true,2.668942,1.053675,0.000000,1.608606,3.668140,1.242191,0.364103,0.386414,2.228712,1.700365,1.201464
BKPIECE,76,true,2.666979,1.053361,0.000000,1.492361,3.669623,1.241178,0.367769,0.380753,2.200505,1.692295,1.230276
BKPIECE,77,true,2.668811,1.053057,0.000000,0.432692,3.671356,1.241778,0.365165,0.383101,2.217708,1.690997,1.223801
BKPIECE,78,true,2.667276,1.053427,0.000000,0.902850,3.669110,1.240424,0.367950,0.381809,2.210349,1.689997,1.223831
BKPIECE,79,true,2.673566,1.054025,0.000000,0.357454,3.670234,1.242243,0.359736,0.396502,2.271796,1.704490,1.173188
BKPIECE,80,true,2.670544,1.053936,0.000000,0.916305,3.674731,1.241097,0.367621,0.382900,2.215136,1.693392,1.231659
BKPIECE,81,true,2.668566,1.053745,0.000000,2.335080,3.672499,1.241379,0.368150,0.380813,2.194959,1.700838,1.235105
BKPIECE,82,true,2.668716,1.053492,0.000000,1.339879,3.671372,1.242128,0.366002,0.382572,2.210607,1.695154,1.225583
BKPIECE,83,true,2.667746,1.054463,0.000000,0.682642,3.672383,1.242597,0.370120,0.376935,2.188433,1.696466,1.242316
BKPIECE,84,true,2.668931,1.054228,0.000000,1.709669,3.670406,1.241671,0.367436,0.383129,2.222384,1.690836,1.217735
BKPIECE,85,true,2.669004,1.053566,0.000000,1.120798,3.662071,1.241448,0.360577,0.394383,2.276139,1.691035,1.160003
BKPIECE,86,true,2.671392,1.053095,0.000000,0.377617,3.662742,1.241650,0.355995,0.402229,2.296758,1.696821,1.142883
BKPIECE,87,true,2.668551,1.053211,0.000000,1.006694,3.669123,1.241896,0.364269,0.385311,2.219530,1.698553,1.211608
BKPIECE,88,true,2.667059,1.054346,0.000000,0.400032,3.670251,1.242042,0.369854,0.378358,2.194889,1.693475,1.234588
BKPIECE,89,true,2.673970,1.052495,0.000000,0.517853,3.658874,1.240943,0.349341,0.413943,2.358925,1.695610,1.091354
BKPIECE,90,true,2.668201,1.053049,0.000000,1.193959,3.669677,1.240854,0.365463,0.385099,2.215958,1.692565,1.219356
BKPIECE,91,true,2.669955,1.052807,0.000000,0.961315,3.675873,1.241135,0.366263,0.381337,2.193910,1.702564,1.243452
BKPIECE,92,true,2.667828,1.053158,0.000000,0.522734,3.667330,1.241298,0.364364,0.386740,2.223416,1.694382,1.207104
BKPIECE,93,true,2.669547,1.052485,0.000000,1.181230,3.660624,1.241028,0.356165,0.401113,2.292303,1.690361,1.145510
BKPIECE,94,true,2.667053,1.053095,0.000000,0.417643,3.668332,1.240900,0.366430,0.382780,2.209062,1.693573,1.220426
BKPIECE,95,true,2.673580,1.052439,0.000000,0.393468,3.673634,1.241158,0.358619,0.395456,2.253568,1.704464,1.194762
BKPIECE,96,true,2.670256,1.053880,0.000000,1.089836,3.673202,1.241922,0.365962,0.385082,2.213928,1.698532,1.224841
BKPIECE,97,true,2.668516,1.054462,0.000000,1.450573,3.673363,1.241805,0.370134,0.379110,2.189584,1.697655,1.242690
BKPIECE,98,true,2.667076,1.054320,0.000000,0.614271,3.671524,1.240987,0.371608,0.376607,2.189621,1.691779,1.242695
BKPIECE,99,true,2.667892,1.053665,0.000000,0.717382,3.674450,1.240261,0.371237,0.376683,2.182869,1.692123,1.254472
BKPIECE,100,true,2.668130,1.053444,0.000000,1.915955,3.666430,1.242076,0.363750,0.386359,2.237350,1.692327,1.197058
BKPIECE,101,true,2.670977,1.051991,0.000000,0.576104,3.658776,1.240346,0.352551,0.406926,2.326327,1.689731,1.118235
BKPIECE,102,true,2.667481,1.054752,0.000000,0.106158,3.669972,1.242696,0.369554,0.379027,2.200389,1.694725,1.229063
BKPIECE,103,true,2.668693,1.053767,0.000000,0.715503,3.675547,1.240989,0.370621,0.376056,2.184578,1.696202,1.253474
BKPIECE,104,true,2.667818,1.054128,0.000000,0.860756,3.669082,1.241213,0.368162,0.382584,2.211695,1.693989,1.219612
BKPIECE,105,true,2.668977,1.053428,0.000000,0.770413,3.671473,1.241124,0.366483,0.382981,2.210407,1.699018,1.223426
BKPIECE,106,true,2.667565,1.053133,0.000000,0.109674,3.672936,1.240921,0.368982,0.377240,2.190254,1.692709,1.245796
BKPIECE,107,true,2.670840,1.053415,0.000000,0.674964,3.667427,1.241995,0.360125,0.394870,2.257010,1.699156,1.180232
BKPIECE,108,true,2.667670,1.053312,0.000000,1.073443,3.669650,1.240412,0.367503,0.381982,2.208400,1.694856,1.223309
BKPIECE,109,true,2.669799,1.052847,0.000000,1.752832,3.664511,1.241250,0.359338,0.394604,2.267459,1.696990,1.168184
BKPIECE,110,true,2.666915,1.053828,0.000000,0.910332,3.668881,1.241393,0.368580,0.379798,2.206217,1.690863,1.225586
BKPIECE,111,true,2.669310,1.054091,0.000000,0.709643,3.667572,1.242600,0.363844,0.388102,2.242979,1.692491,1.195198
BKPIECE,112,true,2.669603,1.053227,0.000000,0.518577,3.667596,1.241049,0.362383,0.391553,2.244191,1.694925,1.192682
BKPIECE,113,true,2.669408,1.052937,0.000000,0.942572,3.670349,1.240454,0.364421,0.386765,2.222414,1.700066,1.211621
BKPIECE,114,true,2.671913,1.053481,0.000000,1.926739,3.667211,1.242150,0.358811,0.396477,2.270223,1.703827,1.167632
BKPIECE,115,true,2.668259,1.053094,0.000000,1.234517,3.670556,1.240904,0.366218,0.382794,2.206586,1.699412,1.223690
BKPIECE,116,true,2.676300,1.052624,0.000000,0.339089,3.672192,1.240864,0.354724,0.404439,2.296144,1.706546,1.159863
BKPIECE,117,true,2.669517,1.054342,0.000000,1.141868,3.672134,1.242273,0.367330,0.383097,2.216840,1.692149,1.224629
BKPIECE,118,true,2.667709,1.053431,0.000000,1.042366,3.671503,1.240500,0.368849,0.379749,2.198621,1.693264,1.235688
BKPIECE,119,true,2.668841,1.053922,0.000000,0.872189,3.671251,1.242682,0.366228,0.382868,2.206093,1.700410,1.224433
BKPIECE,120,true,2.669610,1.053417,0.000000,1.394910,3.669774,1.242387,0.363140,0.387722,2.222991,1.703714,1.206862
BKPIECE,121,true,2.670419,1.052629,0.000000,0.977370,3.666448,1.240657,0.359417,0.395664,2.262771,1.696330,1.176301
BKPIECE,122,true,2.668520,1.053064,0.000000,1.149333,3.668369,1.240522,0.364654,0.386736,2.225011,1.697233,1.206844
BKPIECE,123,true,2.668954,1.053843,0.000000,0.799081,3.671913,1.241314,0.367635,0.382182,2.210178,1.694565,1.227443
BKPIECE,124,true,2.668457,1.054142,0.000000,1.144172,3.673473,1.242699,0.368793,0.378595,2.190824,1.696589,1.243163
BKPIECE,125,true,2.668990,1.053140,0.000000,1.339357,3.668943,1.240253,0.364772,0.387469,2.231075,1.693325,1.206617
BKPIECE,126,true,2.667488,1.052913,0.000000,0.236511,3.669563,1.240607,0.366527,0.382174,2.210775,1.691390,1.224019
BKPIECE,127,true,2.668703,1.053687,0.000000,1.574305,3.670603,1.241042,0.367032,0.383262,2.218744,1.691189,1.220708
BKPIECE,128,true,2.668097,1.053071,0.000000,0.608688,3.668551,1.241195,0.364617,0.386189,2.219326,1.694635,1.212781
BKPIECE,129,true,2.670077,1.052782,0.000000,0.847098,3.674542,1.240414,0.365754,0.383817,2.203831,1.701867,1.233626
BKPIECE,130,true,2.670640,1.053072,0.000000,0.403309,3.668063,1.241026,0.361141,0.392338,2.257175,1.696075,1.184561
BKPIECE,131,true,2.673122,1.053455,0.000000,0.650219,3.664777,1.241390,0.356157,0.403413,2.304935,1.699299,1.140387
BKPIECE,132,true,2.666971,1.054693,0.000000,0.760914,3.669413,1.242380,0.370014,0.378620,2.197027,1.694549,1.230142
BKPIECE,133,true,2.671274,1.053067,0.000000,1.398195,3.663889,1.241535,0.357116,0.399415,2.286771,1.700136,1.150734
BKPIECE,134,true,2.671912,1.052497,0.000000,1.274109,3.657431,1.240412,0.351400,0.411908,2.342094,1.690997,1.102301
BKPIECE,135,true,2.674154,1.052253,0.000000,0.722241,3.658967,1.241690,0.347699,0.415505,2.354904,1.700576,1.090728
BKPIECE,136,true,2.670002,1.053244,0.000000,1.087853,3.669062,1.240808,0.363078,0.390571,2.243212,1.692589,1.198652
BKPIECE,137,true,2.669541,1.052606,0.000000,1.924707,3.667298,1.240063,0.361747,0.391831,2.248730,1.694264,1.189815
BKPIECE,138,true,2.669133,1.053787,0.000000,1.429338,3.675606,1.241852,0.369059,0.378640,2.191616,1.692006,1.251096
BKPIECE,139,true,2.669976,1.053230,0.000000,1.648404,3.667140,1.242219,0.360627,0.392556,2.255995,1.691600,1.185776
BKPIECE,140,true,2.669456,1.054183,0.000000,0.892338,3.672349,1.242402,0.367201,0.381687,2.208552,1.700711,1.225443
BKPIECE,141,true,2.669017,1.053433,0.000000,1.204045,3.671023,1.242135,0.365354,0.383167,2.220869,1.692359,1.219766
BKPIECE,142,true,2.669795,1.053228,0.000000,0.648753,3.672805,1.240621,0.365945,0.384727,2.207772,1.703569,1.225173
BKPIECE,143,true,2.670772,1.053280,0.000000,1.769868,3.670781,1.241347,0.363021,0.388290,2.232858,1.706260,1.201247
BKPIECE,144,true,2.670073,1.052599,0.000000,1.734777,3.668477,1.240821,0.361037,0.391939,2.252341,1.690211,1.192941
BKPIECE,145,true,2.669052,1.053837,0.000000,1.097260,3.672735,1.241107,0.368043,0.382382,2.208089,1.691388,1.232831
BKPIECE,146,true,2.665611,1.053790,0.000000,0.685690,3.667239,1.241771,0.368991,0.377914,2.199035,1.691423,1.226348
BKPIECE,147,true,2.667813,1.054555,0.000000,0.801980,3.668372,1.242476,0.367680,0.382660,2.214654,1.694442,1.215314
BKPIECE,148,true,2.668627,1.053514,0.000000,2.729322,3.670392,1.242126,0.365734,0.382613,2.218125,1.693856,1.219114
BKPIECE,149,true,2.669020,1.054852,0.000000,0.777082,3.675331,1.242572,0.371300,0.375799,2.186047,1.697557,1.250394
BKPIECE,150,true,2.666807,1.053275,0.000000,1.107129,3.669694,1.240337,0.368764,0.379455,2.198727,1.693083,1.231491
KPIECE,1,true,2.673151,1.053771,0.000000,0.012402,3.662718,1.242849,0.354279,0.405660,2.319829,1.696305,1.126816
KPIECE,2,true,2.668007,1.053002,0.000000,0.202802,3.663640,1.241596,0.361222,0.391362,2.252723,1.691446,1.179913
KPIECE,3,true,2.673589,1.054073,0.000000,0.050581,3.673138,1.242774,0.361250,0.392444,2.257541,1.701820,1.192251
KPIECE,4,true,2.666619,1.054435,0.000000,0.149409,3.670254,1.242477,0.370225,0.377508,2.188867,1.692515,1.239264
KPIECE,5,true,2.673784,1.052018,0.000000,0.125946,3.658536,1.241124,0.347886,0.415237,2.352061,1.701917,1.090895
KPIECE,6,true,2.672638,1.054039,0.000000,0.062515,3.674337,1.243059,0.362960,0.388315,2.229259,1.710296,1.209104
KPIECE,7,true,2.668584,1.053211,0.000000,0.129744,3.665437,1.241086,0.362597,0.390191,2.246708,1.694132,1.186626
KPIECE,8,true,2.675688,1.053089,0.000000,0.209616,3.660336,1.242328,0.347957,0.417385,2.359563,1.704955,1.087117
KPIECE,9,true,2.668908,1.053606,0.000000,0.041126,3.668825,1.242044,0.364561,0.385452,2.223586,1.701225,1.206199
KPIECE,10,true,2.670132,1.053740,0.000000,0.016013,3.672284,1.241778,0.365420,0.385347,2.212038,1.706020,1.219004
KPIECE,11,true,2.670812,1.053288,0.000000,0.144611,3.660101,1.240995,0.356214,0.403770,2.308622,1.692781,1.130852
KPIECE,12,true,2.672025,1.053229,0.000000,0.086276,3.675129,1.241626,0.363352,0.387907,2.218160,1.708642,1.220029
KPIECE,13,true,2.670605,1.053560,0.000000,0.160792,3.670787,1.242240,0.363021,0.388117,2.228356,1.706608,1.203791
KPIECE,14,true,2.672148,1.054164,0.000000,0.109998,3.673146,1.242669,0.363570,0.388440,2.239758,1.700008,1.205930
KPIECE,15,true,2.665463,1.053056,0.000000,0.064050,3.668385,1.240071,0.369436,0.378194,2.191459,1.690180,1.235355
KPIECE,16,true,2.669183,1.053069,0.000000,0.205529,3.674145,1.240253,0.367778,0.380909,2.200592,1.695800,1.239205
KPIECE,17,true,2.675640,1.052524,0.000000,0.296366,3.662743,1.240550,0.349871,0.413929,2.354731,1.698031,1.101937
KPIECE,18,true,2.671687,1.053480,0.000000,0.037349,3.676257,1.242444,0.364625,0.384130,2.205778,1.710696,1.230239
KPIECE,19,true,2.674534,1.052714,0.000000,0.221899,3.674072,1.240368,0.359066,0.396860,2.265436,1.702568,1.188835
KPIECE,20,true,2.674722,1.052775,0.000000,0.075690,3.668090,1.241121,0.354526,0.404745,2.297415,1.709337,1.146995
KPIECE,21,true,2.671792,1.052512,0.000000,0.166646,3.670617,1.240965,0.359642,0.393741,2.249153,1.704142,1.190831
KPIECE,22,true,2.671201,1.053677,0.000000,0.240466,3.675775,1.241751,0.365943,0.384280,2.206041,1.704629,1.232668
KPIECE,23,true,2.669266,1.052906,0.000000,0.143060,3.670869,1.240706,0.364740,0.385245,2.217866,1.700411,1.216012
KPIECE,24,true,2.671294,1.052882,0.000000,0.230221,3.674391,1.240411,0.364312,0.386473,2.220667,1.703235,1.220716
KPIECE,25,true,2.667996,1.052838,0.000000,0.015338,3.662754,1.241251,0.360605,0.392484,2.258841,1.691327,1.173698
KPIECE,26,true,2.671511,1.054041,0.000000,0.041946,3.677405,1.241641,0.367892,0.380910,2.201582,1.705131,1.239814
KPIECE,27,true,2.668514,1.053846,0.000000,0.146155,3.669560,1.241811,0.366225,0.384175,2.214908,1.697902,1.215948
KPIECE,28,true,2.670371,1.053116,0.000000,0.096935,3.663509,1.241450,0.358079,0.398882,2.281081,1.693445,1.157945
KPIECE,29,true,2.668768,1.053890,0.000000,0.127504,3.672184,1.242807,0.366782,0.381114,2.195449,1.705180,1.230992
KPIECE,30,true,2.667217,1.054756,0.000000,0.107271,3.671358,1.242113,0.371378,0.376535,2.189678,1.693542,1.240800
KPIECE,31,true,2.672083,1.052949,0.000000,0.105343,3.665653,1.241884,0.356400,0.400066,2.290430,1.695949,1.155302
KPIECE,32,true,2.675032,1.053778,0.000000,0.148461,3.668644,1.241885,0.356270,0.403702,2.304606,1.700128,1.149208
KPIECE,33,true,2.668245,1.053106,0.000000,0.207243,3.672630,1.240702,0.367749,0.380550,2.198376,1.694009,1.238147
KPIECE,34,true,2.675412,1.053542,0.000000,0.122384,3.663008,1.242827,0.350632,0.412812,2.343198,1.700127,1.108236
KPIECE,35,true,2.670335,1.052345,0.000000,0.051029,3.660226,1.241407,0.354173,0.403641,2.305339,1.691022,1.135104
KPIECE,36,true,2.676327,1.052811,0.000000,0.132398,3.667550,1.242092,0.351006,0.410773,2.323173,1.706350,1.129335
KPIECE,37,true,2.670124,1.052746,0.000000,0.162455,3.661586,1.241870,0.356100,0.399876,2.291565,1.694214,1.145935
KPIECE,38,true,2.668266,1.052834,0.000000,0.062804,3.673825,1.240433,0.368044,0.379629,2.194509,1.691213,1.245814
KPIECE,39,true,2.671549,1.052882,0.000000,0.041178,3.658277,1.240679,0.353354,0.408356,2.331478,1.692275,1.111033
KPIECE,40,true,2.670967,1.053815,0.000000,0.347229,3.677039,1.240839,0.368479,0.380717,2.196785,1.704723,1.242523
KPIECE,41,true,2.668197,1.054355,0.000000,0.138006,3.667448,1.242589,0.365960,0.385041,2.226662,1.693805,1.205216
KPIECE,42,true,2.675759,1.053957,0.000000,0.252208,3.661758,1.242593,0.350848,0.413715,2.359130,1.697137,1.096261
KPIECE,43,true,2.668138,1.053426,0.000000,0.070668,3.666170,1.241507,0.363725,0.388485,2.236500,1.692139,1.196603
KPIECE,44,true,2.671934,1.052457,0.000000,0.317707,3.656376,1.241605,0.349827,0.411584,2.350302,1.692278,1.093638
KPIECE,45,true,2.672576,1.053279,0.000000,0.108837,3.657046,1.242366,0.350669,0.411972,2.351766,1.692219,1.093670
KPIECE,46,true,2.668694,1.054093,0.000000,0.137993,3.674205,1.242033,0.369422,0.378321,2.188743,1.697710,1.245701
KPIECE,47,true,2.670468,1.053781,0.000000,0.023315,3.667980,1.241824,0.362334,0.391628,2.257463,1.691081,1.187066
KPIECE,48,true,2.670425,1.053815,0.000000,0.181456,3.671049,1.241601,0.364547,0.387820,2.224923,1.704056,1.208225
KPIECE,49,true,2.670742,1.053277,0.000000,0.081980,3.662303,1.240802,0.357875,0.400691,2.297684,1.689699,1.146109
KPIECE,50,true,2.670423,1.052460,0.000000,0.135749,3.670054,1.240832,0.361306,0.390434,2.245521,1.693517,1.199549
KPIECE,51,true,2.675321,1.053841,0.000000,0.134226,3.665635,1.242493,0.353792,0.407219,2.321619,1.706520,1.125700
KPIECE,52,true,2.670301,1.053418,0.000000,0.052968,3.664854,1.242531,0.358877,0.396219,2.272610,1.692505,1.167766
KPIECE,53,true,2.676085,1.052852,0.000000,0.067358,3.673535,1.242345,0.355127,0.401576,2.284608,1.706726,1.171047
KPIECE,54,true,2.671402,1.052596,0.000000,0.059506,3.671831,1.241036,0.361140,0.390854,2.237824,1.702935,1.202598
KPIECE,55,true,2.667131,1.054056,0.000000,0.104975,3.671022,1.241512,0.369935,0.378192,2.188200,1.696877,1.238870
KPIECE,56,true,2.667262,1.054005,0.000000,0.067814,3.670935,1.241741,0.369248,0.379363,2.191045,1.695352,1.237539
KPIECE,57,true,2.669368,1.053656,0.000000,0.175208,3.668456,1.241469,0.364063,0.388692,2.233997,1.696559,1.200744
KPIECE,58,true,2.674263,1.052952,0.000000,0.092313,3.658792,1.241074,0.349828,0.415022,2.355543,1.700908,1.089310
KPIECE,59,true,2.674206,1.052944,0.000000,0.084340,3.659315,1.241790,0.349429,0.414720,2.354853,1.696822,1.093765
KPIECE,60,true,2.674524,1.053148,0.000000,0.201335,3.672942,1.242147,0.357999,0.396786,2.270259,1.704606,1.181279
KPIECE,61,true,2.669525,1.053928,0.000000,0.235470,3.669976,1.242214,0.364877,0.386475,2.223143,1.700087,1.209566
KPIECE,62,true,2.666964,1.052932,0.000000,0.129523,3.672233,1.240485,0.369061,0.377943,2.187565,1.690251,1.247392
KPIECE,63,true,2.673905,1.052992,0.000000,0.030520,3.661519,1.240892,0.352286,0.410294,2.346036,1.689607,1.110655
KPIECE,64,true,2.667668,1.054279,0.000000,0.124726,3.672293,1.241982,0.370093,0.378234,2.191554,1.691445,1.243144
KPIECE,65,true,2.676031,1.053155,0.000000,0.117797,3.664048,1.241647,0.350732,0.412571,2.352246,1.696037,1.107910
KPIECE,66,true,2.670032,1.053057,0.000000,0.043200,3.671785,1.240682,0.364470,0.386853,2.215611,1.705591,1.215865
KPIECE,67,true,2.672373,1.053724,0.000000,0.169312,3.672212,1.242440,0.361843,0.390188,2.240120,1.710528,1.196457
KPIECE,68,true,2.668345,1.053745,0.000000,0.061104,3.669350,1.241366,0.366394,0.384778,2.219792,1.691192,1.216541
KPIECE,69,true,2.675420,1.052793,0.000000,0.026948,3.666580,1.241794,0.351999,0.408740,2.324200,1.700548,1.130593
KPIECE,70,true,2.673698,1.053597,0.000000,0.154912,3.680085,1.242003,0.365076,0.384108,2.209688,1.710901,1.236886
KPIECE,71,true,2.671903,1.053403,0.000000,0.271831,3.661202,1.242000,0.354748,0.405369,2.311369,1.697200,1.128381
KPIECE,72,true,2.671622,1.053263,0.000000,0.118906,3.670687,1.240828,0.362125,0.391278,2.245089,1.705203,1.193044
KPIECE,73,true,2.667225,1.054415,0.000000,0.227307,3.670175,1.242179,0.369686,0.378392,2.196124,1.695448,1.232261
KPIECE,74,true,2.670618,1.054347,0.000000,0.180504,3.674095,1.242891,0.366508,0.383073,2.210869,1.701817,1.227043
KPIECE,75,true,2.673898,1.052923,0.000000,0.185055,3.661159,1.240991,0.351760,0.411160,2.342114,1.695170,1.108535
KPIECE,76,true,2.675437,1.052067,0.000000,0.112155,3.663551,1.240305,0.349643,0.413446,2.341488,1.704009,1.109073
KPIECE,77,true,2.669412,1.052862,0.000000,0.030812,3.673018,1.241212,0.365183,0.383792,2.204369,1.701482,1.229723
KPIECE,78,true,2.674023,1.052129,0.000000,0.048161,3.662609,1.240506,0.351036,0.410089,2.336344,1.696876,1.115545
KPIECE,79,true,2.672684,1.052503,0.000000,0.051383,3.656885,1.241598,0.348936,0.414624,2.353720,1.692870,1.091490
KPIECE,80,true,2.669830,1.053769,0.000000,0.063467,3.669428,1.242645,0.363255,0.388505,2.231843,1.698622,1.203123
KPIECE,81,true,2.667405,1.053634,0.000000,0.139731,3.667547,1.241536,0.366257,0.383773,2.217208,1.693907,1.212370
KPIECE,82,true,2.673062,1.052744,0.000000,0.277657,3.659829,1.242186,0.350523,0.410712,2.337424,1.697173,1.107244
KPIECE,83,true,2.670044,1.053411,0.000000,0.037711,3.677648,1.240198,0.369749,0.378339,2.188790,1.696947,1.255112
KPIECE,84,true,2.673217,1.053182,0.000000,0.148431,3.677012,1.240918,0.363516,0.388385,2.223289,1.708928,1.221055
KPIECE,85,true,2.678365,1.053220,0.000000,0.075888,3.668715,1.241752,0.350692,0.412451,2.344326,1.707341,1.117080
KPIECE,86,true,2.669124,1.052929,0.000000,0.128544,3.672812,1.240885,0.366071,0.382740,2.211957,1.691769,1.230799
KPIECE,87,true,2.669574,1.053986,0.000000,0.104063,3.665530,1.242021,0.362243,0.392603,2.259114,1.690925,1.179721
KPIECE,88,true,2.667359,1.053827,0.000000,0.042315,3.667082,1.242157,0.366011,0.383638,2.220177,1.693128,1.209691
KPIECE,89,true,2.666878,1.053692,0.000000,0.098010,3.668138,1.240779,0.368344,0.380807,2.207073,1.694543,1.220690
KPIECE,90,true,2.672749,1.054509,0.000000,0.101604,3.676034,1.242929,0.365145,0.386251,2.224644,1.704236,1.220380
KPIECE,91,true,2.672064,1.053784,0.000000,0.062351,3.674689,1.241896,0.364443,0.386537,2.226568,1.704118,1.216363
KPIECE,92,true,2.668859,1.053216,0.000000,0.077638,3.671580,1.240899,0.366325,0.383386,2.215230,1.691470,1.225497
KPIECE,93,true,2.671458,1.052180,0.000000,0.119871,3.668227,1.240612,0.358040,0.396502,2.267758,1.696108,1.177667
KPIECE,94,true,2.673797,1.053186,0.000000,0.099919,3.664515,1.241223,0.354560,0.405896,2.308778,1.706769,1.131965
KPIECE,95,true,2.675469,1.053155,0.000000,0.040252,3.662180,1.242472,0.349402,0.414217,2.356571,1.694083,1.101388
KPIECE,96,true,2.666563,1.053595,0.000000,0.092563,3.669279,1.240900,0.369298,0.378104,2.200873,1.690585,1.230797
KPIECE,97,true,2.669948,1.053015,0.000000,0.056609,3.670660,1.240525,0.364065,0.387670,2.237616,1.689980,1.208764
KPIECE,98,true,2.671378,1.052986,0.000000,0.180383,3.676226,1.240396,0.365583,0.384468,2.206056,1.707200,1.232559
KPIECE,99,true,2.671549,1.053769,0.000000,0.073786,3.672462,1.242908,0.362682,0.388595,2.239404,1.696769,1.206816
KPIECE,100,true,2.675766,1.052641,0.000000,0.269123,3.663472,1.240958,0.349900,0.414274,2.344707,1.703165,1.106718
KPIECE,101,true,2.670260,1.053280,0.000000,0.129362,3.659597,1.242333,0.355699,0.401454,2.306994,1.692250,1.131559
KPIECE,102,true,2.670957,1.054061,0.000000,0.103576,3.672135,1.242733,0.364147,0.387004,2.221617,1.708082,1.210431
KPIECE,103,true,2.671808,1.053005,0.000000,0.104848,3.665857,1.240983,0.357797,0.399420,2.278743,1.702029,1.159587
KPIECE,104,true,2.672973,1.054093,0.000000,0.109173,3.676080,1.242044,0.364666,0.387037,2.225687,1.707603,1.217745
KPIECE,105,true,2.671068,1.053433,0.000000,0.107177,3.665869,1.242479,0.358577,0.396618,2.271195,1.698678,1.167059
KPIECE,106,true,2.668649,1.053078,0.000000,0.029924,3.671483,1.241410,0.365573,0.383668,2.202894,1.701084,1.227060
KPIECE,107,true,2.669863,1.054060,0.000000,0.043075,3.668602,1.242365,0.363933,0.387909,2.240474,1.696971,1.196515
KPIECE,108,true,2.668776,1.054187,0.000000,0.040384,3.671137,1.241539,0.368010,0.382177,2.204846,1.701548,1.224245
KPIECE,109,true,2.672080,1.052990,0.000000,0.072989,3.663792,1.241847,0.355581,0.401235,2.296223,1.703112,1.142014
KPIECE,110,true,2.671201,1.052456,0.000000,0.058059,3.671178,1.240887,0.360927,0.390532,2.239121,1.704584,1.199263
KPIECE,111,true,2.671934,1.054081,0.000000,0.097501,3.661968,1.242707,0.356359,0.403055,2.310691,1.692755,1.133665
KPIECE,112,true,2.674343,1.052727,0.000000,0.147392,3.664928,1.241638,0.352593,0.406871,2.329311,1.693122,1.128578
KPIECE,113,true,2.675033,1.052499,0.000000,0.070749,3.667693,1.240978,0.353124,0.407223,2.311890,1.700887,1.141698
KPIECE,114,true,2.671075,1.052854,0.000000,0.120718,3.672497,1.241250,0.362390,0.389115,2.223461,1.707721,1.210704
KPIECE,115,true,2.670821,1.053790,0.000000,0.086293,3.664451,1.242886,0.358727,0.396317,2.274705,1.701077,1.159570
KPIECE,116,true,2.668231,1.053757,0.000000,0.175152,3.672235,1.241792,0.368343,0.379304,2.202993,1.691192,1.235834
KPIECE,117,true,2.668699,1.054285,0.000000,0.069213,3.671210,1.242495,0.367473,0.382137,2.203169,1.700705,1.225976
KPIECE,118,true,2.670293,1.053257,0.000000,0.011501,3.671962,1.242306,0.363419,0.386244,2.222410,1.701742,1.214344
KPIECE,119,true,2.672653,1.053274,0.000000,0.013003,3.665183,1.241159,0.356890,0.401385,2.304949,1.691842,1.146849
KPIECE,120,true,2.677956,1.052979,0.000000,0.030278,3.666513,1.241424,0.349203,0.416393,2.349427,1.707561,1.107439
KPIECE,121,true,2.670018,1.052641,0.000000,0.200667,3.665307,1.240950,0.358997,0.396079,2.265528,1.694939,1.172506
KPIECE,122,true,2.667561,1.053144,0.000000,0.024718,3.670808,1.241672,0.366814,0.380639,2.202886,1.691681,1.232192
KPIECE,123,true,2.668554,1.054227,0.000000,0.145725,3.671630,1.241648,0.368645,0.380953,2.201154,1.699033,1.229750
KPIECE,124,true,2.672871,1.052623,0.000000,0.148553,3.664340,1.241474,0.353939,0.404833,2.304478,1.700357,1.139157
KPIECE,125,true,2.668381,1.053724,0.000000,0.037314,3.668853,1.241634,0.365790,0.384962,2.217369,1.698150,1.212352
KPIECE,126,true,2.673942,1.053485,0.000000,0.025772,3.662823,1.242050,0.353210,0.408349,2.333168,1.693242,1.119947
KPIECE,127,true,2.673981,1.052779,0.000000,0.119819,3.675228,1.241217,0.360057,0.393122,2.244800,1.709635,1.201346
KPIECE,128,true,2.668496,1.052795,0.000000,0.115174,3.673167,1.240236,0.367428,0.380504,2.194282,1.699846,1.238577
KPIECE,129,true,2.667676,1.053193,0.000000,0.108181,3.668156,1.241112,0.365563,0.384326,2.221954,1.690160,1.213381
KPIECE,130,true,2.672782,1.052922,0.000000,0.190429,3.665347,1.241854,0.355044,0.403267,2.293069,1.703132,1.147399
KPIECE,131,true,2.671636,1.052784,0.000000,0.111878,3.664863,1.241360,0.356432,0.400853,2.290914,1.693491,1.154589
KPIECE,132,true,2.669850,1.052793,0.000000,0.140311,3.672583,1.240533,0.364860,0.384894,2.211419,1.704436,1.221956
KPIECE,133,true,2.674978,1.053638,0.000000,0.079069,3.668116,1.241895,0.355668,0.404284,2.308099,1.699650,1.145911
KPIECE,134,true,2.671120,1.052545,0.000000,0.033043,3.669021,1.241296,0.359260,0.394401,2.257070,1.695943,1.186912
KPIECE,135,true,2.672530,1.053264,0.000000,0.152436,3.672548,1.242580,0.360226,0.392510,2.240630,1.708383,1.198088
KPIECE,136,true,2.669481,1.053864,0.000000,0.056347,3.672565,1.242769,0.365971,0.382983,2.208311,1.698896,1.227199
KPIECE,137,true,2.674187,1.052215,0.000000,0.042810,3.661284,1.241148,0.349591,0.412381,2.337012,1.705574,1.105568
KPIECE,138,true,2.672631,1.053616,0.000000,0.108915,3.664754,1.242233,0.356451,0.401865,2.298205,1.699145,1.145057
KPIECE,139,true,2.669061,1.053622,0.000000,0.093208,3.669901,1.240685,0.366250,0.385182,2.228562,1.690686,1.212521
KPIECE,140,true,2.676218,1.052814,0.000000,0.068198,3.665734,1.241608,0.350805,0.410899,2.342180,1.700022,1.116630
KPIECE,141,true,2.668889,1.054019,0.000000,0.084423,3.668562,1.242649,0.364755,0.386271,2.231198,1.692010,1.206085
KPIECE,142,true,2.668105,1.052710,0.000000,0.316423,3.667261,1.240231,0.363887,0.387638,2.232312,1.691723,1.202992
KPIECE,143,true,2.672529,1.053893,0.000000,0.011771,3.677328,1.242714,0.364839,0.385217,2.214100,1.704854,1.230687
KPIECE,144,true,2.674983,1.054035,0.000000,0.048838,3.678672,1.241664,0.363651,0.389751,2.234389,1.709458,1.216622
KPIECE,145,true,2.672129,1.053527,0.000000,0.132532,3.668314,1.242918,0.358530,0.396060,2.262847,1.706426,1.173493
KPIECE,146,true,2.672039,1.053697,0.000000,0.226405,3.668510,1.242166,0.359785,0.396044,2.266710,1.698717,1.176372
KPIECE,147,true,2.668440,1.053166,0.000000,0.081277,3.664596,1.241130,0.362234,0.390276,2.253852,1.691312,1.181765
KPIECE,148,true,2.678003,1.053192,0.000000,0.210367,3.666904,1.241308,0.349972,0.415906,2.353457,1.701094,1.109965
KPIECE,149,true,2.672748,1.052754,0.000000,0.012919,3.660579,1.241808,0.351816,0.408808,2.328502,1.697544,1.115104
KPIECE,150,true,2.674700,1.052636,0.000000,0.071792,3.662110,1.240392,0.351132,0.412320,2.345725,1.697590,1.106859
ProjEST,1,true,2.675637,1.053476,0.000000,0.194555,3.666564,1.241955,0.353197,0.408867,2.330885,1.694493,1.129639
ProjEST,2,true,2.668656,1.053630,0.000000,0.037164,3.672424,1.241361,0.367741,0.381436,2.205601,1.691809,1.233780
ProjEST,3,true,2.672470,1.053302,0.000000,0.043910,3.658781,1.242363,0.352076,0.408954,2.335552,1.697281,1.105873
ProjEST,4,true,2.672888,1.054552,0.000000,0.265926,3.677926,1.242449,0.366640,0.384564,2.215173,1.703378,1.232127
ProjEST,5,true,2.674735,1.052595,0.000000,0.315900,3.664015,1.241425,0.351180,0.410439,2.322275,1.709253,1.119634
ProjEST,6,true,2.673947,1.054069,0.000000,0.160257,3.666718,1.242273,0.356992,0.402439,2.300984,1.700758,1.146545
ProjEST,7,true,2.671958,1.052337,0.000000,0.167803,3.657892,1.241360,0.350596,0.410295,2.340575,1.692826,1.103706
ProjEST,8,true,2.676227,1.053720,0.000000,0.149379,3.674526,1.242180,0.358031,0.398974,2.277599,1.708458,1.176947
ProjEST,9,true,2.676541,1.053505,0.000000,0.200945,3.662623,1.242200,0.349333,0.416470,2.362491,1.698306,1.095071
ProjEST,10,true,2.666662,1.053689,0.000000,0.212392,3.671178,1.241234,0.370176,0.376657,2.188654,1.690918,1.243446
ProjEST,11,true,2.675383,1.052593,0.000000,0.164606,3.663037,1.240940,0.350210,0.412729,2.352893,1.694528,1.106372
ProjEST,12,true,2.667892,1.053572,0.000000,0.238397,3.665593,1.240737,0.364750,0.388509,2.237981,1.690400,1.195271
ProjEST,13,true,2.672329,1.053658,0.000000,0.055469,3.673710,1.242093,0.362994,0.388361,2.233228,1.707759,1.206908
ProjEST,14,true,2.675377,1.053185,0.000000,0.243634,3.667930,1.241362,0.354372,0.406120,2.308845,1.706659,1.140283
ProjEST,15,true,2.670514,1.053037,0.000000,0.109222,3.662796,1.240643,0.358033,0.399776,2.291826,1.690134,1.151235
ProjEST,16,true,2.670098,1.054497,0.000000,0.134320,3.673675,1.242601,0.367680,0.381533,2.199438,1.709309,1.228859
ProjEST,17,true,2.673279,1.052818,0.000000,0.105869,3.678918,1.241073,0.363506,0.386977,2.211480,1.710242,1.233145
ProjEST,18,true,2.675597,1.053324,0.000000,0.033901,3.662538,1.242805,0.349771,0.413202,2.343548,1.707173,1.102323
ProjEST,19,true,2.672935,1.052665,0.000000,0.078687,3.659200,1.241614,0.350496,0.411985,2.338652,1.697160,1.104675
ProjEST,20,true,2.676948,1.053613,0.000000,0.127238,3.667935,1.242410,0.352445,0.409323,2.334364,1.701680,1.125828
ProjEST,21,true,2.670667,1.054095,0.000000,0.196800,3.670492,1.242657,0.363775,0.387915,2.241068,1.695109,1.201938
ProjEST,22,true,2.667632,1.053629,0.000000,0.051766,3.666573,1.241760,0.365036,0.385968,2.226488,1.693002,1.204005
ProjEST,23,true,2.671698,1.053667,0.000000,0.047801,3.672356,1.242324,0.362427,0.390382,2.229429,1.708019,1.205390
ProjEST,24,true,2.672680,1.053571,0.000000,0.087677,3.673857,1.241938,0.362103,0.391456,2.232952,1.708476,1.206290
ProjEST,25,true,2.670172,1.053977,0.000000,0.163755,3.674525,1.241782,0.367318,0.383091,2.207317,1.695617,1.234692
ProjEST,26,true,2.674590,1.052133,0.000000,0.090845,3.665372,1.241622,0.350852,0.408897,2.317056,1.705543,1.129461
ProjEST,27,true,2.672968,1.053147,0.000000,0.295863,3.665079,1.242372,0.354993,0.402346,2.299319,1.702733,1.142996
ProjEST,28,true,2.677734,1.053723,0.000000,0.294055,3.665922,1.242778,0.349800,0.415275,2.355829,1.700258,1.106318
ProjEST,29,true,2.666903,1.054093,0.000000,0.139923,3.671525,1.242112,0.370116,0.377070,2.184182,1.694244,1.244650
ProjEST,30,true,2.667562,1.053622,0.000000,0.118036,3.674232,1.240821,0.370957,0.376117,2.181336,1.690557,1.256101
ProjEST,31,true,2.671205,1.053674,0.000000,0.029856,3.672091,1.242143,0.363360,0.388288,2.232923,1.701245,1.207375
ProjEST,32,true,2.671160,1.053976,0.000000,0.117110,3.669318,1.242001,0.362630,0.390761,2.243776,1.706834,1.189094
ProjEST,33,true,2.673089,1.053013,0.000000,0.073829,3.673312,1.242291,0.359658,0.392979,2.247762,1.705375,1.197341
ProjEST,34,true,2.673495,1.052466,0.000000,0.097487,3.664148,1.240588,0.353531,0.406250,2.310618,1.705384,1.131202
ProjEST,35,true,2.670134,1.053631,0.000000,0.028790,3.668399,1.241126,0.363413,0.389884,2.250033,1.692820,1.192341
ProjEST,36,true,2.672314,1.052863,0.000000,0.044264,3.656637,1.242278,0.349887,0.411860,2.348823,1.695916,1.092497
ProjEST,37,true,2.673272,1.052603,0.000000,0.153081,3.664526,1.240736,0.354219,0.405316,2.305776,1.704088,1.136250
ProjEST,38,true,2.678161,1.052929,0.000000,0.130003,3.665733,1.241493,0.348202,0.418138,2.361179,1.703194,1.100339
ProjEST,39,true,2.671491,1.053555,0.000000,0.059761,3.665238,1.242355,0.358030,0.398329,2.276553,1.702643,1.158955
ProjEST,40,true,2.669819,1.053421,0.000000,0.036846,3.665606,1.241103,0.361619,0.392499,2.265170,1.691517,1.176025
ProjEST,41,true,2.675911,1.052712,0.000000,0.170895,3.663519,1.240650,0.350173,0.414422,2.356039,1.693602,1.105615
ProjEST,42,true,2.669961,1.054040,0.000000,0.069288,3.673099,1.242086,0.366520,0.384155,2.202534,1.706360,1.227035
ProjEST,43,true,2.670337,1.054113,0.000000,0.041022,3.672497,1.242138,0.366133,0.384178,2.225723,1.694236,1.218290
ProjEST,44,true,2.668030,1.053120,0.000000,0.093770,3.665298,1.240579,0.363419,0.389506,2.240705,1.693034,1.191141
ProjEST,45,true,2.673996,1.052677,0.000000,0.173974,3.658694,1.242318,0.348144,0.415299,2.357003,1.696199,1.091291
ProjEST,46,true,2.669628,1.054144,0.000000,0.304832,3.666480,1.241782,0.363458,0.390975,2.252686,1.692555,1.185460
ProjEST,47,true,2.668792,1.053231,0.000000,0.188907,3.666964,1.242292,0.362226,0.388889,2.242341,1.691565,1.195136
ProjEST,48,true,2.669802,1.053286,0.000000,0.030801,3.675250,1.241097,0.367534,0.379976,2.196863,1.701995,1.240378
ProjEST,49,true,2.676097,1.053296,0.000000,0.146558,3.661854,1.241806,0.349540,0.415380,2.355876,1.705987,1.092908
ProjEST,50,true,2.675355,1.053349,0.000000,0.054692,3.664889,1.241415,0.352695,0.410586,2.329860,1.701910,1.121058
ProjEST,51,true,2.667324,1.053781,0.000000,0.087517,3.671393,1.241353,0.369282,0.379140,2.191856,1.693325,1.239663
ProjEST,52,true,2.672557,1.053281,0.000000,0.152595,3.656415,1.242141,0.350418,0.413236,2.354699,1.692020,1.090045
ProjEST,53,true,2.674284,1.053230,0.000000,0.049652,3.674340,1.242140,0.359551,0.393585,2.256703,1.707356,1.192459
ProjEST,54,true,2.671798,1.053499,0.000000,0.035229,3.659414,1.241712,0.354322,0.406915,2.327741,1.690560,1.117252
ProjEST,55,true,2.671929,1.053835,0.000000,0.281721,3.664483,1.242097,0.358061,0.399271,2.295826,1.694491,1.149458
ProjEST,56,true,2.673201,1.053806,0.000000,0.192789,3.663919,1.242264,0.355606,0.404127,2.318593,1.691111,1.134300
ProjEST,57,true,2.673740,1.052796,0.000000,0.074958,3.660833,1.242325,0.350279,0.411100,2.333975,1.703573,1.107632
ProjEST,58,true,2.669077,1.052780,0.000000,0.036051,3.666929,1.240707,0.362015,0.390766,2.244134,1.694432,1.191917
ProjEST,59,true,2.670016,1.053668,0.000000,0.020711,3.666471,1.241641,0.361687,0.393471,2.258330,1.692023,1.181834
ProjEST,60,true,2.674693,1.052678,0.000000,0.094424,3.675894,1.240741,0.359636,0.394628,2.252961,1.706773,1.199241
ProjEST,61,true,2.670707,1.053620,0.000000,0.043567,3.669495,1.242523,0.361946,0.390075,2.242832,1.700907,1.194390
ProjEST,62,true,2.675505,1.053745,0.000000,0.181404,3.667351,1.242962,0.353825,0.406252,2.313282,1.706162,1.135847
ProjEST,63,true,2.669626,1.053367,0.000000,0.083760,3.673481,1.241592,0.366234,0.382319,2.199606,1.706352,1.230802
ProjEST,64,true,2.671001,1.053077,0.000000,0.429023,3.675492,1.240441,0.365876,0.383923,2.203931,1.709087,1.230989
ProjEST,65,true,2.676175,1.053460,0.000000,0.085200,3.670521,1.241823,0.355257,0.404283,2.300168,1.710117,1.150263
ProjEST,66,true,2.666018,1.052759,0.000000,0.372541,3.664720,1.240601,0.365165,0.384051,2.223409,1.689741,1.204684
ProjEST,67,true,2.678068,1.053797,0.000000,0.073915,3.671202,1.242574,0.353163,0.408752,2.321237,1.708204,1.138117
ProjEST,68,true,2.670339,1.052790,0.000000,0.130845,3.674351,1.240618,0.365327,0.383813,2.218181,1.693573,1.229196
ProjEST,69,true,2.667628,1.054692,0.000000,0.084989,3.670984,1.242226,0.370121,0.379068,2.194665,1.695105,1.235056
ProjEST,70,true,2.667603,1.054258,0.000000,0.059445,3.672454,1.240999,0.371242,0.377170,2.188678,1.693902,1.244116
ProjEST,71,true,2.669341,1.053082,0.000000,0.387638,3.667042,1.240930,0.362238,0.391236,2.247908,1.692234,1.190837
ProjEST,72,true,2.669896,1.053220,0.000000,0.034049,3.664673,1.240890,0.360368,0.395386,2.267650,1.694261,1.169788
ProjEST,73,true,2.668679,1.053512,0.000000,0.059014,3.668842,1.241956,0.364449,0.386577,2.222614,1.696556,1.209693
ProjEST,74,true,2.671472,1.053184,0.000000,0.074950,3.673925,1.241897,0.362982,0.387974,2.217149,1.709708,1.217053
ProjEST,75,true,2.674005,1.053804,0.000000,0.112549,3.658521,1.242859,0.350552,0.413199,2.360431,1.692490,1.090774
ProjEST,76,true,2.670037,1.052682,0.000000,0.118392,3.671946,1.241115,0.363342,0.386674,2.222292,1.699557,1.216119
ProjEST,77,true,2.666344,1.053003,0.000000,0.037854,3.671019,1.240957,0.368939,0.377266,2.182764,1.694708,1.244758
ProjEST,78,true,2.675387,1.052747,0.000000,0.045819,3.661751,1.241573,0.349209,0.414408,2.350751,1.703531,1.098222
ProjEST,79,true,2.667737,1.054232,0.000000,0.086034,3.666895,1.242806,0.365733,0.384718,2.225654,1.692173,1.205736
ProjEST,80,true,2.674665,1.053882,0.000000,0.017475,3.672256,1.242051,0.359383,0.396787,2.276724,1.702873,1.176016
ProjEST,81,true,2.671495,1.053148,0.000000,0.064490,3.669559,1.241041,0.361029,0.392871,2.250110,1.704995,1.186838
ProjEST,82,true,2.673943,1.053451,0.000000,0.178900,3.671565,1.242795,0.357943,0.397376,2.267994,1.705299,1.178563
ProjEST,83,true,2.667840,1.053671,0.000000,0.183149,3.672084,1.242131,0.368049,0.379643,2.194860,1.693409,1.239280
ProjEST,84,true,2.674023,1.052723,0.000000,0.038934,3.666156,1.241437,0.353590,0.406560,2.316578,1.690739,1.141494
ProjEST,85,true,2.668463,1.052979,0.000000,0.061747,3.672060,1.241277,0.366351,0.380966,2.195503,1.705371,1.231229
ProjEST,86,true,2.676451,1.052914,0.000000,0.109305,3.669944,1.241784,0.353231,0.406103,2.311695,1.707755,1.142822
ProjEST,87,true,2.675121,1.052631,0.000000,0.073442,3.660262,1.241482,0.348445,0.415533,2.360304,1.700071,1.090437
ProjEST,88,true,2.668341,1.054422,0.000000,0.049160,3.672839,1.242226,0.369779,0.378090,2.190629,1.699559,1.239759
ProjEST,89,true,2.671362,1.053211,0.000000,0.090188,3.676303,1.242175,0.364751,0.383202,2.205399,1.707674,1.232976
ProjEST,90,true,2.672489,1.052175,0.000000,0.156478,3.664049,1.240204,0.354244,0.405068,2.305454,1.696854,1.140374
ProjEST,91,true,2.674073,1.053024,0.000000,0.113894,3.662094,1.240932,0.352423,0.410405,2.333530,1.700024,1.113354
ProjEST,92,true,2.673917,1.053470,0.000000,0.180947,3.660283,1.241391,0.352111,0.412230,2.343002,1.697357,1.103741
ProjEST,93,true,2.670392,1.052661,0.000000,0.396009,3.669292,1.241333,0.361040,0.390264,2.244415,1.699581,1.194358
ProjEST,94,true,2.674487,1.053143,0.000000,0.060565,3.671397,1.242486,0.356644,0.399199,2.274381,1.708438,1.171730
ProjEST,95,true,2.669120,1.052285,0.000000,0.057863,3.662664,1.240028,0.358648,0.396673,2.275550,1.691251,1.162052
ProjEST,96,true,2.675301,1.051968,0.000000,0.038963,3.666650,1.240952,0.351003,0.408803,2.320411,1.705458,1.130608
ProjEST,97,true,2.669861,1.053683,0.000000,0.058650,3.670289,1.241256,0.365029,0.386505,2.229545,1.698323,1.207498
ProjEST,98,true,2.671520,1.053575,0.000000,0.231158,3.662205,1.241440,0.356869,0.402779,2.306693,1.690437,1.138800
ProjEST,99,true,2.673784,1.053211,0.000000,0.012779,3.674524,1.240757,0.361362,0.393214,2.251003,1.703560,1.199224
ProjEST,100,true,2.674872,1.053107,0.000000,0.027575,3.671287,1.241458,0.356670,0.401671,2.284978,1.701887,1.168273
ProjEST,101,true,2.673703,1.052741,0.000000,0.022117,3.667708,1.241680,0.355160,0.401995,2.297587,1.698725,1.153542
ProjEST,102,true,2.504300,1.194003,0.000000,0.080587,3.476338,1.242524,0.711231,0.442031,0.506647,1.431414,1.937672
ProjEST,103,true,2.673627,1.052661,0.000000,0.078985,3.659949,1.241803,0.349953,0.412188,2.349274,1.692464,1.102602
ProjEST,104,true,2.666865,1.054657,0.000000,0.158358,3.671653,1.241697,0.372003,0.376427,2.182858,1.692364,1.246823
ProjEST,105,true,2.678057,1.053511,0.000000,0.105576,3.666586,1.242154,0.349881,0.415306,2.354177,1.703253,1.107218
ProjEST,106,true,2.672977,1.054042,0.000000,0.011784,3.674008,1.242116,0.362956,0.390875,2.241994,1.702191,1.204672
ProjEST,107,true,2.670215,1.053284,0.000000,0.125571,3.670575,1.242456,0.362500,0.387999,2.224294,1.706830,1.205972
ProjEST,108,true,2.669120,1.053046,0.000000,0.109585,3.662384,1.240797,0.359787,0.395558,2.275593,1.691667,1.160798
ProjEST,109,true,2.668238,1.053450,0.000000,0.078520,3.668568,1.241823,0.364927,0.385383,2.218561,1.697257,1.211541
ProjEST,110,true,2.675320,1.053708,0.000000,0.043506,3.665715,1.242009,0.353817,0.407978,2.322828,1.704108,1.126596
ProjEST,111,true,2.669865,1.053837,0.000000,0.106262,3.668132,1.243029,0.362424,0.388855,2.237996,1.702733,1.193142
ProjEST,112,true,2.672309,1.052156,0.000000,0.080129,3.656581,1.240037,0.349906,0.413854,2.356870,1.688661,1.091909
ProjEST,113,true,2.674380,1.054001,0.000000,0.070020,3.672948,1.242370,0.360102,0.395540,2.259404,1.710947,1.183945
ProjEST,114,true,2.673038,1.053058,0.000000,0.032714,3.678468,1.240979,0.364204,0.386874,2.212808,1.707338,1.232926
ProjEST,115,true,2.672119,1.052753,0.000000,0.029065,3.665843,1.241515,0.356325,0.400118,2.289025,1.697312,1.155925
ProjEST,116,true,2.674413,1.052323,0.000000,0.049245,3.666434,1.241557,0.352380,0.406457,2.304664,1.709255,1.138170
ProjEST,117,true,2.670060,1.053334,0.000000,0.063126,3.665880,1.240986,0.361220,0.393557,2.262556,1.694900,1.176000
ProjEST,118,true,2.671499,1.052553,0.000000,0.153210,3.658438,1.241575,0.351658,0.409451,2.331153,1.690035,1.113035
ProjEST,119,true,2.675902,1.052083,0.000000,0.127294,3.671362,1.241282,0.352979,0.405115,2.295620,1.708089,1.157369
ProjEST,120,true,2.670021,1.053993,0.000000,0.060752,3.670619,1.241452,0.365436,0.387204,2.230495,1.694923,1.209504
ProjEST,121,true,2.668901,1.053505,0.000000,0.091739,3.667028,1.242540,0.362709,0.387986,2.240870,1.694662,1.194266
ProjEST,122,true,2.670168,1.053246,0.000000,0.083248,3.669046,1.241201,0.362645,0.390035,2.241208,1.698522,1.196187
ProjEST,123,true,2.677218,1.053260,0.000000,0.383488,3.664798,1.241914,0.349381,0.416197,2.352572,1.704196,1.103239
ProjEST,124,true,2.674047,1.053446,0.000000,0.143959,3.661603,1.242153,0.352005,0.410956,2.331120,1.702899,1.111396
ProjEST,125,true,2.669030,1.054884,0.000000,0.067552,3.675167,1.242401,0.371202,0.377244,2.187270,1.695342,1.250261
ProjEST,126,true,2.674868,1.052588,0.000000,0.030227,3.661599,1.241351,0.349679,0.412941,2.349888,1.699626,1.101436
ProjEST,127,true,2.674724,1.053498,0.000000,0.043295,3.665604,1.242711,0.353192,0.407731,2.312744,1.705784,1.131988
ProjEST,128,true,2.673770,1.053763,0.000000,0.100175,3.672176,1.243086,0.359304,0.394540,2.257378,1.711028,1.183712
ProjEST,129,true,2.673507,1.053746,0.000000,0.021382,3.664536,1.242341,0.355305,0.404520,2.317576,1.692193,1.135707
ProjEST,130,true,2.672997,1.052535,0.000000,0.146950,3.672208,1.241000,0.358885,0.395641,2.252714,1.705861,1.190813
ProjEST,131,true,2.675844,1.052120,0.000000,0.179213,3.665577,1.240774,0.349899,0.412662,2.337415,1.699885,1.119506
ProjEST,132,true,2.668342,1.052863,0.000000,0.054686,3.667830,1.240866,0.363925,0.386217,2.230142,1.695014,1.203886
ProjEST,133,true,2.675518,1.053538,0.000000,0.084027,3.663989,1.241901,0.351963,0.411794,2.338901,1.700159,1.113679
ProjEST,134,true,2.675602,1.052701,0.000000,0.025880,3.662533,1.241888,0.348886,0.414736,2.343923,1.707446,1.101967
ProjEST,135,true,2.675488,1.052837,0.000000,0.031750,3.667124,1.241853,0.352502,0.407160,2.321181,1.702696,1.132844
ProjEST,136,true,2.677243,1.053258,0.000000,0.045744,3.670741,1.243136,0.352183,0.407324,2.314775,1.708494,1.141720
ProjEST,137,true,2.671191,1.052937,0.000000,0.084654,3.658029,1.241075,0.353505,0.407389,2.328481,1.692196,1.112617
ProjEST,138,true,2.675649,1.053546,0.000000,0.103813,3.663398,1.242316,0.351239,0.411894,2.345149,1.700771,1.107731
ProjEST,139,true,2.667507,1.053976,0.000000,0.076035,3.671598,1.241668,0.369406,0.378883,2.192573,1.693654,1.239408
ProjEST,140,true,2.674379,1.053509,0.000000,0.081018,3.673409,1.243097,0.358446,0.395781,2.261321,1.707001,1.186656
ProjEST,141,true,2.674325,1.053462,0.000000,0.055452,3.663229,1.241586,0.353471,0.408298,2.323333,1.706751,1.118573
ProjEST,142,true,2.671043,1.054457,0.000000,0.138298,3.676199,1.242032,0.368158,0.382262,2.199835,1.704229,1.237954
ProjEST,143,true,2.671959,1.053315,0.000000,0.101252,3.671977,1.241591,0.361675,0.391703,2.237701,1.707037,1.199658
ProjEST,144,true,2.677967,1.052288,0.000000,0.034943,3.665651,1.241706,0.346678,0.418093,2.357469,1.707092,1.100467
ProjEST,145,true,2.666018,1.053320,0.000000,0.014467,3.670503,1.240710,0.370215,0.375949,2.182181,1.694434,1.244163
ProjEST,146,true,2.673400,1.053536,0.000000,0.138101,3.660384,1.242276,0.352345,0.409973,2.335181,1.698420,1.108872
ProjEST,147,true,2.676010,1.053036,0.000000,0.014610,3.663168,1.241373,0.349965,0.414844,2.356239,1.695684,1.102925
ProjEST,148,true,2.667377,1.053557,0.000000,0.053442,3.668513,1.240967,0.367368,0.381884,2.211532,1.694749,1.218401
ProjEST,149,true,2.675028,1.052845,0.000000,0.311412,3.666253,1.240922,0.353410,0.407286,2.320564,1.702124,1.131472
ProjEST,150,true,2.673004,1.054099,0.000000,0.096028,3.671873,1.242505,0.361542,0.392449,2.249662,1.709550,1.189242
