Planner,Run,Success,Length_In_Joint_Space,Length_In_Cartesian_Space(Endeffector),Smoothness,Time,Weighted_Length,Shoulder_Pan_Joint,Shoulder_Lift_Joint,Elbow_Joint,Wrist_1_Joint,Wrist_2_Joint,Wrist_3_Joint
LBKPIECE,1,true,1.468325,0.576147,0.000000,1.502856,1.851419,0.493755,0.189189,0.259882,0.084983,1.069550,0.058621
LBKPIECE,2,false,0,0,0,0,0,0,0,0,0,0,0
LBKPIECE,3,true,1.469278,0.576191,0.000000,1.384458,1.853035,0.493366,0.189759,0.259013,0.083277,1.075042,0.058321
LBKPIECE,4,true,1.467768,0.577285,0.000000,3.979988,1.851302,0.496583,0.188932,0.258915,0.085379,1.061470,0.063064
LBKPIECE,5,true,1.457521,0.576598,0.000000,3.935240,1.834779,0.495205,0.188404,0.255223,0.065942,1.063084,0.056510
LBKPIECE,6,true,1.474105,0.577071,0.000000,1.552165,1.864023,0.495237,0.189659,0.261569,0.088341,1.063106,0.075074
LBKPIECE,7,false,0,0,0,0,0,0,0,0,0,0,0
LBKPIECE,8,true,1.466350,0.577152,0.000000,4.909203,1.847159,0.495103,0.190096,0.260060,0.082480,1.065553,0.056890
LBKPIECE,9,true,1.461934,0.576796,0.000000,1.871615,1.840540,0.495963,0.189592,0.257678,0.078171,1.059530,0.056317
LBKPIECE,10,false,0,0,0,0,0,0,0,0,0,0,0
LBKPIECE,11,true,1.469912,0.576873,0.000000,2.360954,1.855266,0.495671,0.189653,0.259722,0.086927,1.062891,0.065777
LBKPIECE,12,true,1.467681,0.576660,0.000000,1.514543,1.850217,0.495110,0.189862,0.261298,0.086998,1.059418,0.061401
LBKPIECE,13,true,1.462317,0.577482,0.000000,0.898778,1.843742,0.495056,0.190077,0.256608,0.064928,1.067317,0.064383
LBKPIECE,14,true,1.473800,0.576518,0.000000,5.147567,1.861610,0.494014,0.189275,0.260399,0.089695,1.073591,0.065110
LBKPIECE,15,true,1.465199,0.577116,0.000000,3.060741,1.846733,0.495565,0.189443,0.259498,0.079829,1.061159,0.061314
LBKPIECE,16,true,1.468714,0.576596,0.000000,3.983345,1.853217,0.495832,0.187719,0.259377,0.088839,1.062254,0.063100
LBKPIECE,17,true,1.463143,0.575622,0.000000,3.083177,1.845339,0.493451,0.188845,0.255689,0.070976,1.070137,0.061688
LBKPIECE,18,true,1.466121,0.577166,0.000000,1.858774,1.847051,0.495601,0.190061,0.260386,0.083682,1.061159,0.058622
LBKPIECE,19,true,1.466313,0.576254,0.000000,2.650935,1.847401,0.494688,0.189425,0.260352,0.086458,1.061941,0.057209
LBKPIECE,20,true,1.468433,0.576994,0.000000,3.410532,1.851299,0.494295,0.189768,0.259567,0.081895,1.072423,0.058347
LBKPIECE,21,true,1.456217,0.576693,0.000000,3.945949,1.831847,0.496254,0.189227,0.254568,0.067493,1.058452,0.054574
LBKPIECE,22,true,1.468636,0.577099,0.000000,4.159875,1.852365,0.495987,0.189232,0.259660,0.086768,1.062895,0.062350
LBKPIECE,23,true,1.460861,0.576921,0.000000,4.545357,1.843199,0.495709,0.189529,0.255400,0.064157,1.059530,0.069791
LBKPIECE,24,true,1.470745,0.575772,0.000000,2.481783,1.856126,0.493739,0.188607,0.260366,0.090141,1.068506,0.061733
LBKPIECE,25,true,1.467224,0.577092,0.000000,2.453031,1.848836,0.496148,0.189868,0.259636,0.087161,1.061579,0.058354
LBKPIECE,26,false,0,0,0,0,0,0,0,0,0,0,0
LBKPIECE,27,true,1.462245,0.576312,0.000000,3.135119,1.841905,0.493245,0.190549,0.257013,0.068549,1.071708,0.057098
LBKPIECE,28,true,1.459440,0.576341,0.000000,2.013231,1.839211,0.494885,0.189170,0.254246,0.064985,1.065611,0.061068
LBKPIECE,29,true,1.468350,0.576087,0.000000,3.165517,1.850754,0.493810,0.189972,0.260679,0.087072,1.066868,0.057650
LBKPIECE,30,true,1.464822,0.576366,0.000000,3.426341,1.845629,0.495700,0.187792,0.258787,0.085821,1.060390,0.057214
LBKPIECE,31,true,1.470953,0.576356,0.000000,0.990966,1.858050,0.493429,0.189484,0.258655,0.080388,1.075236,0.066511
LBKPIECE,32,true,1.460296,0.576582,0.000000,2.490205,1.839093,0.495280,0.189178,0.256999,0.071862,1.060353,0.058792
LBKPIECE,33,false,0,0,0,0,0,0,0,0,0,0,0
LBKPIECE,34,true,1.466432,0.576603,0.000000,1.176420,1.848909,0.496074,0.188699,0.259202,0.086485,1.058366,0.061596
LBKPIECE,35,true,1.471048,0.576727,0.000000,0.923690,1.855888,0.493912,0.190071,0.259587,0.085045,1.075440,0.059927
LBKPIECE,36,true,1.463850,0.577501,0.000000,4.789813,1.848488,0.496562,0.189656,0.256445,0.068284,1.058054,0.073856
LBKPIECE,37,true,1.460034,0.576859,0.000000,2.846352,1.837774,0.493834,0.190401,0.257017,0.065344,1.069831,0.055271
LBKPIECE,38,true,1.458910,0.577016,0.000000,2.956711,1.837082,0.496198,0.189488,0.255312,0.068195,1.060192,0.059033
LBKPIECE,39,true,1.464817,0.576565,0.000000,5.223188,1.850017,0.495024,0.189758,0.256874,0.070102,1.061095,0.072839
LBKPIECE,40,false,0,0,0,0,0,0,0,0,0,0,0
LBKPIECE,41,true,1.461032,0.575778,0.000000,3.528759,1.842522,0.494146,0.189057,0.254486,0.066900,1.066676,0.063350
LBKPIECE,42,true,1.456235,0.576386,0.000000,2.386123,1.833314,0.495635,0.188896,0.253813,0.063840,1.060296,0.058141
LBKPIECE,43,true,1.474456,0.576121,0.000000,4.367258,1.861007,0.492125,0.189711,0.262231,0.090866,1.079720,0.059369
LBKPIECE,44,true,1.459771,0.576868,0.000000,4.128121,1.838017,0.494584,0.189127,0.255634,0.066033,1.069762,0.055791
LBKPIECE,45,true,1.460525,0.576482,0.000000,3.012439,1.839838,0.496232,0.188608,0.255462,0.074481,1.059310,0.059040
LBKPIECE,46,false,0,0,0,0,0,0,0,0,0,0,0
LBKPIECE,47,false,0,0,0,0,0,0,0,0,0,0,0
LBKPIECE,48,true,1.462447,0.575902,0.000000,2.641295,1.842936,0.494718,0.188886,0.257440,0.077016,1.060733,0.059956
LBKPIECE,49,false,0,0,0,0,0,0,0,0,0,0,0
LBKPIECE,50,true,1.477834,0.576348,0.000000,2.195934,1.868418,0.492202,0.190966,0.262105,0.089842,1.080605,0.068272
LBKPIECE,51,true,1.464374,0.576852,0.000000,4.917924,1.845031,0.495642,0.189143,0.258627,0.080559,1.061651,0.058769
LBKPIECE,52,true,1.471643,0.576872,0.000000,2.483765,1.856938,0.494869,0.188468,0.260452,0.090532,1.070873,0.060539
LBKPIECE,53,true,1.468903,0.577119,0.000000,2.550961,1.852539,0.494954,0.190539,0.259728,0.082818,1.067867,0.061770
LBKPIECE,54,true,1.460092,0.577290,0.000000,4.626006,1.837633,0.495735,0.190334,0.257590,0.070841,1.060553,0.056816
LBKPIECE,55,true,1.467076,0.576593,0.000000,3.525590,1.848978,0.494635,0.189975,0.260061,0.084013,1.064864,0.058765
LBKPIECE,56,true,1.462237,0.576598,0.000000,4.948194,1.846327,0.495206,0.188910,0.255537,0.065185,1.061001,0.072299
LBKPIECE,57,false,0,0,0,0,0,0,0,0,0,0,0
LBKPIECE,58,true,1.461594,0.575990,0.000000,4.333103,1.840367,0.495218,0.188755,0.257642,0.079647,1.058940,0.056054
LBKPIECE,59,true,1.469262,0.577475,0.000000,2.210316,1.853366,0.493512,0.189854,0.259701,0.076078,1.079017,0.060570
LBKPIECE,60,true,1.463460,0.576372,0.000000,4.299554,1.845976,0.495199,0.189865,0.257209,0.073702,1.059270,0.066470
LBKPIECE,61,true,1.461957,0.576511,0.000000,4.322544,1.842105,0.493247,0.188513,0.255228,0.065588,1.079037,0.055705
LBKPIECE,62,false,0,0,0,0,0,0,0,0,0,0,0
LBKPIECE,63,true,1.467796,0.576096,0.000000,2.617230,1.853168,0.495085,0.189355,0.258935,0.083121,1.059176,0.068755
LBKPIECE,64,true,1.461042,0.576493,0.000000,1.906052,1.840952,0.496334,0.188318,0.255653,0.075441,1.058777,0.060121
LBKPIECE,65,true,1.459328,0.576454,0.000000,4.676165,1.837880,0.494170,0.189020,0.254419,0.064102,1.071795,0.056134
LBKPIECE,66,true,1.463898,0.576663,0.000000,2.480949,1.845205,0.495750,0.189903,0.257590,0.077869,1.059856,0.062029
LBKPIECE,67,true,1.460855,0.577553,0.000000,3.397937,1.838745,0.495998,0.189658,0.257092,0.071697,1.064112,0.055539
LBKPIECE,68,true,1.463459,0.576681,0.000000,2.800649,1.843372,0.495833,0.189400,0.257279,0.079724,1.062368,0.057109
LBKPIECE,69,true,1.470904,0.576373,0.000000,4.444104,1.857064,0.494663,0.189201,0.261213,0.089150,1.062683,0.066647
LBKPIECE,70,true,1.468659,0.575937,0.000000,1.542025,1.853530,0.494980,0.189462,0.259739,0.087671,1.059275,0.065834
LBKPIECE,71,true,1.468247,0.576826,0.000000,3.913470,1.853430,0.495979,0.188173,0.258871,0.084561,1.061444,0.066723
LBKPIECE,72,true,1.469469,0.576885,0.000000,3.756158,1.852366,0.495170,0.188799,0.260863,0.090483,1.066614,0.057412
LBKPIECE,73,true,1.465270,0.577028,0.000000,4.528723,1.845624,0.493928,0.190778,0.259083,0.075425,1.071714,0.056086
LBKPIECE,74,true,1.475647,0.577345,0.000000,3.949184,1.865134,0.494946,0.189406,0.261369,0.090713,1.071724,0.069377
LBKPIECE,75,true,1.465938,0.577316,0.000000,1.440924,1.848176,0.495953,0.189701,0.258048,0.079053,1.064708,0.061511
LBKPIECE,76,true,1.474042,0.577227,0.000000,1.952401,1.861185,0.494600,0.189591,0.261710,0.090603,1.071984,0.064312
LBKPIECE,77,true,1.472001,0.577690,0.000000,1.768554,1.856851,0.494880,0.190363,0.261710,0.087236,1.071325,0.061274
LBKPIECE,78,false,0,0,0,0,0,0,0,0,0,0,0
LBKPIECE,79,true,1.464305,0.577261,0.000000,3.698448,1.845187,0.495722,0.189842,0.258379,0.076988,1.062981,0.060278
LBKPIECE,80,true,1.461720,0.576964,0.000000,1.643661,1.843355,0.494858,0.189867,0.255347,0.064195,1.067579,0.064780
LBKPIECE,81,true,1.460662,0.576555,0.000000,1.397653,1.839202,0.495580,0.188418,0.256501,0.074748,1.062190,0.056096
LBKPIECE,82,true,1.465304,0.576362,0.000000,2.447322,1.850801,0.494798,0.190111,0.257281,0.071310,1.060192,0.073424
LBKPIECE,83,false,0,0,0,0,0,0,0,0,0,0,0
LBKPIECE,84,true,1.462772,0.576611,0.000000,4.679228,1.842051,0.495464,0.188650,0.258215,0.079718,1.061580,0.056075
LBKPIECE,85,true,1.470039,0.576696,0.000000,3.123827,1.856455,0.495359,0.188070,0.259260,0.085981,1.065259,0.067086
LBKPIECE,86,false,0,0,0,0,0,0,0,0,0,0,0
LBKPIECE,87,true,1.461195,0.576950,0.000000,3.993452,1.840367,0.495532,0.189318,0.257108,0.072288,1.062117,0.058727
LBKPIECE,88,true,1.462243,0.576782,0.000000,1.717209,1.841275,0.495082,0.189973,0.258206,0.075278,1.062373,0.057244
LBKPIECE,89,true,1.459947,0.576791,0.000000,3.399920,1.839669,0.496477,0.189002,0.255148,0.070552,1.058150,0.062116
LBKPIECE,90,true,1.468531,0.576314,0.000000,4.789428,1.852224,0.494665,0.189111,0.259832,0.086672,1.065125,0.061177
LBKPIECE,91,true,1.470286,0.576409,0.000000,5.064766,1.855718,0.494755,0.188755,0.258588,0.086870,1.070466,0.062307
LBKPIECE,92,true,1.463891,0.576659,0.000000,1.657407,1.843848,0.494239,0.189663,0.259061,0.076690,1.066539,0.056785
LBKPIECE,93,true,1.458738,0.577253,0.000000,4.629576,1.835990,0.495435,0.189182,0.254500,0.064846,1.069809,0.054143
LBKPIECE,94,true,1.460097,0.576810,0.000000,2.315896,1.838726,0.495680,0.190001,0.256259,0.070343,1.060511,0.059089
LBKPIECE,95,true,1.463893,0.576601,0.000000,2.303749,1.844289,0.495452,0.190150,0.257827,0.078953,1.061738,0.058865
LBKPIECE,96,true,1.465724,0.577334,0.000000,2.645157,1.846961,0.496672,0.189494,0.259660,0.084634,1.057491,0.060395
LBKPIECE,97,true,1.463717,0.576409,0.000000,4.583401,1.848772,0.494536,0.188490,0.254029,0.064871,1.070462,0.070079
LBKPIECE,98,true,1.462462,0.576516,0.000000,2.698923,1.844590,0.495260,0.188250,0.256364,0.071683,1.062447,0.064792
LBKPIECE,99,true,1.468098,0.576867,0.000000,1.772142,1.850800,0.493926,0.189257,0.259415,0.081001,1.074274,0.057438
LBKPIECE,100,false,0,0,0,0,0,0,0,0,0,0,0
LBKPIECE,101,true,1.455514,0.575862,0.000000,1.028577,1.831929,0.494978,0.188377,0.253006,0.063567,1.063308,0.055285
LBKPIECE,102,true,1.468649,0.575711,0.000000,0.371162,1.853201,0.493432,0.188562,0.258649,0.083736,1.071414,0.061137
LBKPIECE,103,true,1.460575,0.576645,0.000000,3.623256,1.841222,0.496267,0.188359,0.255007,0.070938,1.059535,0.063174
LBKPIECE,104,true,1.466363,0.576887,0.000000,2.997189,1.847521,0.495849,0.189269,0.260843,0.087509,1.057894,0.058855
LBKPIECE,105,true,1.475553,0.576078,0.000000,4.996142,1.865077,0.492964,0.188866,0.261589,0.091354,1.075065,0.067418
LBKPIECE,106,true,1.462261,0.576039,0.000000,3.867792,1.843229,0.493803,0.188257,0.255042,0.069669,1.073257,0.058180
LBKPIECE,107,true,1.458034,0.576047,0.000000,1.127894,1.835441,0.494935,0.187851,0.255238,0.069793,1.062902,0.055143
LBKPIECE,108,true,1.467474,0.576817,0.000000,1.809181,1.849798,0.494350,0.190614,0.260236,0.081557,1.066736,0.059988
LBKPIECE,109,true,1.461570,0.576310,0.000000,1.374538,1.841684,0.495666,0.188234,0.255441,0.075010,1.063068,0.058768
LBKPIECE,110,true,1.475236,0.576969,0.000000,5.028568,1.863503,0.493729,0.189804,0.262448,0.090535,1.073824,0.065982
LBKPIECE,111,true,1.460314,0.576241,0.000000,4.604376,1.840456,0.493994,0.188213,0.254504,0.065040,1.071814,0.058953
LBKPIECE,112,true,1.468070,0.577519,0.000000,3.021071,1.855187,0.494879,0.189116,0.256623,0.069260,1.073472,0.071878
LBKPIECE,113,true,1.462811,0.576218,0.000000,3.832989,1.844357,0.493368,0.188760,0.256379,0.068259,1.072516,0.060532
LBKPIECE,114,true,1.470967,0.577064,0.000000,3.083830,1.855113,0.493894,0.190010,0.260605,0.085174,1.075595,0.058466
LBKPIECE,115,true,1.458883,0.577479,0.000000,3.364654,1.836330,0.496374,0.189200,0.256126,0.068474,1.061036,0.057129
LBKPIECE,116,true,1.463925,0.577487,0.000000,4.800077,1.843844,0.495969,0.190045,0.259260,0.078090,1.060836,0.058879
LBKPIECE,117,true,1.461566,0.575951,0.000000,4.934083,1.843454,0.495341,0.187412,0.255267,0.072997,1.061166,0.063992
LBKPIECE,118,true,1.469813,0.576980,0.000000,3.918032,1.854122,0.495804,0.188397,0.260580,0.090425,1.063295,0.061849
LBKPIECE,119,true,1.459672,0.577456,0.000000,3.143033,1.838188,0.496211,0.189580,0.256751,0.068351,1.059557,0.060192
LBKPIECE,120,true,1.457226,0.577024,0.000000,2.529796,1.834488,0.495923,0.189302,0.254814,0.064061,1.061037,0.058371
LBKPIECE,121,true,1.463044,0.577447,0.000000,3.163899,1.844214,0.495190,0.190272,0.257266,0.068561,1.066346,0.062861
LBKPIECE,122,true,1.471013,0.576681,0.000000,3.282615,1.857919,0.495623,0.189316,0.260709,0.089036,1.059443,0.069752
LBKPIECE,123,true,1.467602,0.576943,0.000000,4.100565,1.849303,0.494609,0.190132,0.260079,0.083556,1.068447,0.057031
LBKPIECE,124,true,1.472466,0.576653,0.000000,4.294067,1.860019,0.494660,0.189026,0.261010,0.088931,1.066471,0.068058
LBKPIECE,125,true,1.457477,0.576769,0.000000,3.974225,1.833820,0.495138,0.189586,0.254995,0.065142,1.065245,0.054134
LBKPIECE,126,true,1.468359,0.576693,0.000000,5.039239,1.850933,0.494290,0.189491,0.259741,0.084416,1.070817,0.057322
LBKPIECE,127,true,1.460220,0.576096,0.000000,3.317227,1.839460,0.494540,0.188862,0.254555,0.068894,1.068307,0.057085
LBKPIECE,128,true,1.465964,0.576607,0.000000,3.801080,1.848102,0.493230,0.188871,0.257594,0.073901,1.078375,0.057079
LBKPIECE,129,true,1.472656,0.576445,0.000000,2.488581,1.858400,0.493327,0.189855,0.262319,0.089989,1.071508,0.061719
LBKPIECE,130,true,1.462793,0.575829,0.000000,1.528420,1.843424,0.494226,0.188441,0.256970,0.076256,1.065552,0.058320
LBKPIECE,131,true,1.460576,0.575844,0.000000,3.460770,1.842415,0.494222,0.188510,0.254591,0.065430,1.065276,0.065253
LBKPIECE,132,true,1.462976,0.577072,0.000000,3.785405,1.845032,0.494885,0.189196,0.256211,0.067631,1.068538,0.063837
LBKPIECE,133,true,1.472084,0.576655,0.000000,2.194076,1.857942,0.494121,0.190080,0.261894,0.089250,1.067702,0.063983
LBKPIECE,134,true,1.468462,0.577007,0.000000,2.394715,1.850938,0.495783,0.189357,0.261163,0.089898,1.060670,0.059510
LBKPIECE,135,true,1.462643,0.575955,0.000000,3.121426,1.843310,0.493510,0.189142,0.256985,0.071875,1.069035,0.058778
LBKPIECE,136,true,1.469054,0.576765,0.000000,0.830145,1.851975,0.493595,0.189680,0.260666,0.083419,1.073253,0.057509
LBKPIECE,137,true,1.469024,0.576715,0.000000,3.183417,1.852837,0.494906,0.189989,0.260870,0.086552,1.063007,0.062707
LBKPIECE,138,true,1.464943,0.576690,0.000000,5.057515,1.846965,0.493432,0.190281,0.256960,0.069820,1.075724,0.059840
LBKPIECE,139,true,1.462623,0.576452,0.000000,2.724489,1.843616,0.494138,0.188977,0.257006,0.070677,1.067962,0.060508
LBKPIECE,140,true,1.467310,0.576768,0.000000,3.067956,1.850238,0.495502,0.188490,0.259163,0.085092,1.064210,0.060541
LBKPIECE,141,true,1.468478,0.576036,0.000000,2.020515,1.854344,0.495532,0.187927,0.258706,0.086922,1.059437,0.067903
LBKPIECE,142,true,1.462899,0.577193,0.000000,4.788738,1.843723,0.495733,0.189493,0.256158,0.071891,1.066249,0.060550
LBKPIECE,143,true,1.466628,0.576781,0.000000,4.454099,1.850759,0.493283,0.189337,0.257902,0.070866,1.075776,0.063833
LBKPIECE,144,false,0,0,0,0,0,0,0,0,0,0,0
LBKPIECE,145,false,0,0,0,0,0,0,0,0,0,0,0
LBKPIECE,146,true,1.469080,0.577064,0.000000,1.480369,1.852196,0.495002,0.189937,0.259700,0.085279,1.069404,0.058876
LBKPIECE,147,true,1.467133,0.577146,0.000000,4.014663,1.849166,0.496073,0.189448,0.260341,0.086534,1.059761,0.060321
LBKPIECE,148,true,1.472648,0.576784,0.000000,2.908096,1.857963,0.492482,0.190640,0.261239,0.084047,1.081282,0.059003
LBKPIECE,149,true,1.470136,0.577036,0.000000,1.833095,1.854779,0.495705,0.189601,0.261049,0.089410,1.061573,0.063962
LBKPIECE,150,false,0,0,0,0,0,0,0,0,0,0,0
BKPIECE,1,true,1.473495,0.577649,0.000000,0.786787,1.860295,0.494409,0.190621,0.261662,0.085723,1.073760,0.065013
BKPIECE,2,true,1.470773,0.576626,0.000000,1.221436,1.856036,0.493802,0.190296,0.261481,0.085323,1.068172,0.064101
BKPIECE,3,true,1.457174,0.576639,0.000000,0.931713,1.833199,0.495049,0.190411,0.255696,0.065380,1.061757,0.055062
BKPIECE,4,true,1.475015,0.576846,0.000000,0.874354,1.863941,0.494232,0.189195,0.262198,0.091451,1.070032,0.068561
BKPIECE,5,true,1.475822,0.576950,0.000000,0.784625,1.864511,0.493364,0.190733,0.262834,0.089685,1.074204,0.067231
BKPIECE,6,true,1.468755,0.577023,0.000000,0.874794,1.852991,0.496188,0.190083,0.259846,0.086727,1.059183,0.065213
BKPIECE,7,true,1.467274,0.576354,0.000000,1.439537,1.850190,0.495785,0.187724,0.259732,0.089647,1.059345,0.060659
BKPIECE,8,true,1.466339,0.575630,0.000000,1.486274,1.848881,0.495061,0.188676,0.258848,0.087865,1.059057,0.060643
BKPIECE,9,true,1.461568,0.577082,0.000000,0.447164,1.844028,0.495868,0.188926,0.254310,0.064903,1.064991,0.067183
BKPIECE,10,true,1.468529,0.576210,0.000000,0.965647,1.853173,0.495340,0.189520,0.259917,0.087573,1.058352,0.065875
BKPIECE,11,true,1.465923,0.576947,0.000000,0.997152,1.847187,0.496200,0.188982,0.259829,0.086286,1.058383,0.059250
BKPIECE,12,true,1.473885,0.577450,0.000000,0.822484,1.861978,0.495605,0.190116,0.260985,0.089490,1.067152,0.068990
BKPIECE,13,true,1.473736,0.577231,0.000000,1.089915,1.863000,0.493421,0.189495,0.260386,0.080117,1.078208,0.070272
BKPIECE,14,true,1.464387,0.576720,0.000000,0.654824,1.847019,0.496300,0.187881,0.257195,0.079541,1.059516,0.063996
BKPIECE,15,true,1.469027,0.576954,0.000000,0.401854,1.852988,0.495873,0.189707,0.259762,0.087514,1.062359,0.062826
BKPIECE,16,true,1.461276,0.576526,0.000000,0.892941,1.842605,0.494731,0.189614,0.256714,0.067262,1.061408,0.065597
BKPIECE,17,true,1.473815,0.576269,0.000000,0.339429,1.861359,0.492260,0.190294,0.260776,0.084902,1.080176,0.063724
BKPIECE,18,true,1.469321,0.577173,0.000000,1.123494,1.852160,0.495229,0.189961,0.259768,0.086696,1.069603,0.057648
BKPIECE,19,true,1.460514,0.576800,0.000000,1.838624,1.839481,0.495053,0.188615,0.256768,0.070266,1.064473,0.057925
BKPIECE,20,true,1.462951,0.577251,0.000000,0.757337,1.842269,0.496764,0.189627,0.257827,0.079839,1.058442,0.057725
BKPIECE,21,true,1.469656,0.576791,0.000000,1.640290,1.853873,0.493918,0.189701,0.260316,0.083163,1.071787,0.061004
BKPIECE,22,true,1.459194,0.576331,0.000000,0.637473,1.838322,0.495195,0.188416,0.253904,0.067061,1.066224,0.058448
BKPIECE,23,true,1.457324,0.576229,0.000000,0.513915,1.834226,0.494754,0.188406,0.255036,0.066469,1.064135,0.054994
BKPIECE,24,true,1.472653,0.577581,0.000000,1.205707,1.858968,0.494146,0.190769,0.260699,0.082791,1.076337,0.063965
BKPIECE,25,true,1.462809,0.577309,0.000000,0.508479,1.844476,0.496097,0.189311,0.257372,0.071945,1.059832,0.065253
BKPIECE,26,true,1.474182,0.577335,0.000000,0.601003,1.862464,0.495259,0.190596,0.261083,0.089053,1.067942,0.069281
BKPIECE,27,true,1.468767,0.577097,0.000000,0.736211,1.851352,0.495223,0.190647,0.261719,0.087430,1.061723,0.060536
BKPIECE,28,true,1.462093,0.576032,0.000000,0.735916,1.843798,0.494254,0.188317,0.256268,0.070585,1.065295,0.062997
BKPIECE,29,true,1.464269,0.577278,0.000000,0.738981,1.844161,0.495743,0.190231,0.258383,0.078488,1.064125,0.057116
BKPIECE,30,true,1.460994,0.577066,0.000000,0.878209,1.839259,0.496137,0.189510,0.257568,0.075294,1.058914,0.057082
BKPIECE,31,true,1.465935,0.577433,0.000000,1.691842,1.846556,0.495614,0.189980,0.259104,0.081088,1.066639,0.056539
BKPIECE,32,true,1.472338,0.577594,0.000000,1.976242,1.857322,0.494632,0.190034,0.262218,0.088321,1.071601,0.060971
BKPIECE,33,true,1.471453,0.576106,0.000000,0.926962,1.858259,0.494242,0.188085,0.259485,0.088688,1.070085,0.064589
BKPIECE,34,true,1.468500,0.575846,0.000000,1.602741,1.852400,0.493502,0.189675,0.259382,0.083855,1.069119,0.060959
BKPIECE,35,true,1.461741,0.576367,0.000000,0.567747,1.840260,0.494955,0.189638,0.258608,0.077569,1.059531,0.056385
BKPIECE,36,true,1.460825,0.576199,0.000000,1.479284,1.840064,0.494339,0.188440,0.254715,0.069695,1.071504,0.055315
BKPIECE,37,true,1.455837,0.576409,0.000000,1.108544,1.831567,0.495684,0.189681,0.254099,0.065058,1.059765,0.055177
BKPIECE,38,true,1.459449,0.576827,0.000000,0.477367,1.837471,0.494382,0.190387,0.255925,0.064344,1.067939,0.057013
BKPIECE,39,true,1.458987,0.577513,0.000000,1.655224,1.838012,0.496516,0.189094,0.255413,0.065378,1.060214,0.062027
BKPIECE,40,true,1.469648,0.576489,0.000000,1.130172,1.855747,0.492777,0.188686,0.258118,0.075801,1.080839,0.063645
BKPIECE,41,true,1.475404,0.576506,0.000000,1.652755,1.863168,0.492641,0.190272,0.262724,0.090652,1.077129,0.063398
BKPIECE,42,true,1.462339,0.577271,0.000000,0.635679,1.843238,0.495516,0.190014,0.256651,0.069022,1.064396,0.062837
BKPIECE,43,true,1.471329,0.576920,0.000000,2.438043,1.858401,0.495635,0.190334,0.260737,0.087385,1.059975,0.070744
BKPIECE,44,true,1.468024,0.576374,0.000000,0.736187,1.850652,0.494966,0.190371,0.261024,0.088216,1.059426,0.061090
BKPIECE,45,true,1.460453,0.576273,0.000000,0.965713,1.839592,0.495361,0.188017,0.254952,0.072731,1.065279,0.056583
BKPIECE,46,true,1.470217,0.576577,0.000000,0.809825,1.856702,0.494910,0.188509,0.259386,0.085165,1.066496,0.067072
BKPIECE,47,true,1.465584,0.576462,0.000000,0.600566,1.847195,0.494897,0.189466,0.258089,0.080789,1.065989,0.058707
BKPIECE,48,true,1.467311,0.576686,0.000000,0.565912,1.849692,0.495801,0.189282,0.260366,0.088217,1.058528,0.060807
BKPIECE,49,true,1.462284,0.577027,0.000000,0.932701,1.842678,0.495564,0.188862,0.256082,0.071891,1.066451,0.059423
BKPIECE,50,true,1.470054,0.576710,0.000000,0.765884,1.856275,0.495490,0.190263,0.260644,0.086288,1.058335,0.070038
BKPIECE,51,true,1.464347,0.577018,0.000000,1.504061,1.845458,0.495619,0.188351,0.258257,0.078841,1.063924,0.059320
BKPIECE,52,true,1.459480,0.576099,0.000000,1.818063,1.838429,0.493678,0.188652,0.255423,0.065337,1.069583,0.057410
BKPIECE,53,true,1.467472,0.576709,0.000000,1.241629,1.849089,0.495203,0.189795,0.260938,0.087987,1.061435,0.058117
BKPIECE,54,true,1.475444,0.576990,0.000000,0.861108,1.861587,0.492687,0.191508,0.263386,0.090868,1.079268,0.059218
BKPIECE,55,true,1.456442,0.576897,0.000000,0.960791,1.832330,0.495700,0.189220,0.254702,0.064533,1.062458,0.054610
BKPIECE,56,true,1.472697,0.576648,0.000000,1.017475,1.860130,0.494750,0.188994,0.260656,0.089830,1.067797,0.066810
BKPIECE,57,true,1.463140,0.576747,0.000000,0.505878,1.842604,0.495600,0.189359,0.257974,0.079213,1.062068,0.056565
BKPIECE,58,true,1.458130,0.576293,0.000000,0.738556,1.839200,0.496258,0.187792,0.252607,0.063706,1.058754,0.067026
BKPIECE,59,true,1.467293,0.576344,0.000000,1.538009,1.850589,0.495611,0.187969,0.259083,0.087563,1.061274,0.061448
BKPIECE,60,true,1.455773,0.576160,0.000000,0.791206,1.832787,0.495395,0.188822,0.253740,0.063178,1.059623,0.058516
BKPIECE,61,true,1.462210,0.577252,0.000000,0.735680,1.844632,0.495564,0.190011,0.255738,0.065089,1.063798,0.067860
BKPIECE,62,true,1.467889,0.576813,0.000000,1.294111,1.850161,0.494998,0.189520,0.259772,0.085589,1.066825,0.057992
BKPIECE,63,true,1.469292,0.576878,0.000000,1.887966,1.852114,0.494849,0.190578,0.260783,0.087479,1.066227,0.058902
BKPIECE,64,true,1.463680,0.576519,0.000000,0.506022,1.847066,0.496414,0.188305,0.255608,0.075860,1.058910,0.067262
BKPIECE,65,true,1.468082,0.575999,0.000000,1.464768,1.851824,0.494374,0.189915,0.259046,0.084750,1.065121,0.062058
BKPIECE,66,true,1.463167,0.576420,0.000000,1.081658,1.843398,0.495488,0.188837,0.256654,0.078473,1.064026,0.057380
BKPIECE,67,true,1.469619,0.576066,0.000000,0.804835,1.854487,0.494146,0.188298,0.258476,0.086273,1.072109,0.060479
BKPIECE,68,true,1.468056,0.576877,0.000000,0.579824,1.852298,0.495333,0.189287,0.260071,0.083499,1.061678,0.065320
BKPIECE,69,true,1.457221,0.576612,0.000000,0.714126,1.833807,0.494902,0.190380,0.255312,0.063695,1.062753,0.056453
BKPIECE,70,true,1.469190,0.576759,0.000000,0.772672,1.853826,0.495615,0.189159,0.259426,0.086979,1.063514,0.063828
BKPIECE,71,true,1.472826,0.576161,0.000000,1.275297,1.861754,0.494124,0.189913,0.260188,0.086635,1.066436,0.071921
BKPIECE,72,true,1.470173,0.577400,0.000000,1.347398,1.853712,0.494097,0.189899,0.260954,0.083397,1.074681,0.058380
BKPIECE,73,true,1.472411,0.577126,0.000000,0.895546,1.858862,0.495206,0.189726,0.261023,0.089564,1.067141,0.065334
BKPIECE,74,true,1.468426,0.577313,0.000000,0.667840,1.852735,0.496232,0.188979,0.258762,0.084025,1.064224,0.064052
BKPIECE,75,true,1.459190,0.576611,0.000000,1.088131,1.836954,0.494738,0.190061,0.254929,0.066027,1.067823,0.055657
BKPIECE,76,true,1.467805,0.576632,0.000000,1.014817,1.851138,0.495546,0.189737,0.260364,0.086709,1.058643,0.063454
BKPIECE,77,true,1.462842,0.577605,0.000000,1.068834,1.843744,0.496218,0.189371,0.256941,0.071761,1.063506,0.062109
BKPIECE,78,true,1.464800,0.576381,0.000000,0.269947,1.845903,0.496370,0.187791,0.258239,0.086965,1.057793,0.058480
BKPIECE,79,true,1.464650,0.577276,0.000000,1.025162,1.845024,0.496385,0.189815,0.259269,0.082087,1.058458,0.059184
BKPIECE,80,true,1.471295,0.577252,0.000000,0.412950,1.854964,0.494000,0.190719,0.262302,0.087324,1.071869,0.058496
BKPIECE,81,true,1.465844,0.576692,0.000000,1.393587,1.848362,0.496379,0.188492,0.257484,0.083913,1.061032,0.061400
BKPIECE,82,true,1.468369,0.576255,0.000000,1.282189,1.853391,0.494862,0.190093,0.259802,0.083841,1.059909,0.067600
BKPIECE,83,true,1.470549,0.576988,0.000000,0.436345,1.856626,0.495611,0.189451,0.258926,0.085740,1.066765,0.066020
BKPIECE,84,true,1.457263,0.576633,0.000000,0.892701,1.833333,0.495664,0.189457,0.255732,0.068613,1.059413,0.054735
BKPIECE,85,true,1.467034,0.577017,0.000000,0.825238,1.849544,0.495316,0.189113,0.259840,0.083173,1.064043,0.060704
BKPIECE,86,true,1.460279,0.575719,0.000000,0.584336,1.842861,0.494306,0.188547,0.253333,0.062961,1.065781,0.067488
BKPIECE,87,true,1.467744,0.577179,0.000000,0.816610,1.850436,0.496405,0.188909,0.259666,0.087692,1.061055,0.060547
BKPIECE,88,true,1.466667,0.576049,0.000000,0.785264,1.848937,0.495078,0.188010,0.259185,0.087766,1.062463,0.058612
BKPIECE,89,true,1.457701,0.576423,0.000000,1.035221,1.835190,0.494814,0.188975,0.255361,0.065246,1.063203,0.057292
BKPIECE,90,true,1.467545,0.576108,0.000000,1.218098,1.850529,0.494564,0.188419,0.259088,0.086119,1.066351,0.059148
BKPIECE,91,true,1.464557,0.576412,0.000000,0.807208,1.845461,0.495774,0.188464,0.257619,0.083224,1.062116,0.057729
BKPIECE,92,true,1.464046,0.577592,0.000000,1.109035,1.843584,0.495212,0.189792,0.258853,0.075629,1.068149,0.055797
BKPIECE,93,true,1.469548,0.577444,0.000000,2.026509,1.854809,0.496383,0.189888,0.260446,0.085827,1.059140,0.067888
BKPIECE,94,true,1.460024,0.575882,0.000000,1.104730,1.839170,0.493882,0.188895,0.255366,0.068189,1.067991,0.057347
BKPIECE,95,true,1.467601,0.576440,0.000000,1.330393,1.850770,0.495771,0.189118,0.258504,0.087138,1.062284,0.061038
BKPIECE,96,true,1.470445,0.575698,0.000000,0.737158,1.858880,0.494921,0.188193,0.259325,0.087353,1.058962,0.073455
BKPIECE,97,true,1.459728,0.577373,0.000000,1.229139,1.836887,0.496039,0.189971,0.256618,0.070570,1.062441,0.055167
BKPIECE,98,true,1.459823,0.576646,0.000000,0.798075,1.839033,0.494568,0.190629,0.255777,0.064431,1.064830,0.060848
BKPIECE,99,true,1.458129,0.577065,0.000000,1.006860,1.836853,0.496301,0.189138,0.253958,0.064076,1.061523,0.061145
BKPIECE,100,true,1.465937,0.577177,0.000000,0.484834,1.848017,0.493242,0.190273,0.258346,0.070170,1.077855,0.059085
BKPIECE,101,true,1.468791,0.576314,0.000000,1.199766,1.851380,0.494356,0.188919,0.261161,0.089873,1.065692,0.057347
BKPIECE,102,true,1.465657,0.576850,0.000000,1.505279,1.846291,0.494352,0.190311,0.259809,0.079600,1.067120,0.056959
BKPIECE,103,true,1.469549,0.576529,0.000000,1.654950,1.853145,0.494280,0.189563,0.260107,0.086860,1.069815,0.058949
BKPIECE,104,true,1.463360,0.577316,0.000000,0.910361,1.844780,0.494142,0.190870,0.256867,0.065009,1.072288,0.062247
BKPIECE,105,true,1.463979,0.577401,0.000000,0.634851,1.845903,0.495214,0.189117,0.257265,0.070935,1.068215,0.062487
BKPIECE,106,true,1.467993,0.576494,0.000000,1.569434,1.850863,0.495115,0.188019,0.260070,0.088540,1.064374,0.058887
BKPIECE,107,true,1.459728,0.576234,0.000000,1.150140,1.838896,0.496431,0.187552,0.254850,0.075083,1.058128,0.058762
BKPIECE,108,true,1.471705,0.576323,0.000000,0.213062,1.858327,0.494286,0.188938,0.260877,0.089243,1.066923,0.065648
BKPIECE,109,true,1.476428,0.575938,0.000000,0.519723,1.866062,0.492235,0.189441,0.261933,0.091546,1.078567,0.066117
BKPIECE,110,true,1.472051,0.577239,0.000000,1.174517,1.858477,0.495177,0.190322,0.260365,0.086740,1.068398,0.065932
BKPIECE,111,true,1.472384,0.575780,0.000000,2.092652,1.862318,0.494430,0.189250,0.258765,0.085977,1.064652,0.074842
BKPIECE,112,true,1.467337,0.576974,0.000000,0.246211,1.849606,0.495639,0.189014,0.260433,0.086528,1.061488,0.059975
BKPIECE,113,true,1.462720,0.576957,0.000000,0.778279,1.846683,0.495348,0.188692,0.255874,0.065643,1.062940,0.071053
BKPIECE,114,true,1.474697,0.576928,0.000000,1.562172,1.863357,0.494504,0.189068,0.261366,0.090914,1.071308,0.067573
BKPIECE,115,true,1.468841,0.577133,0.000000,0.402403,1.852373,0.495857,0.189093,0.260693,0.088146,1.061761,0.061943
BKPIECE,116,true,1.470099,0.577308,0.000000,0.311713,1.853211,0.494185,0.191226,0.261091,0.083930,1.072243,0.058515
BKPIECE,117,true,1.472178,0.576228,0.000000,2.318561,1.857829,0.493534,0.188355,0.260751,0.090635,1.074476,0.059556
BKPIECE,118,true,1.464886,0.576757,0.000000,1.230574,1.849343,0.494864,0.188683,0.257189,0.071247,1.064888,0.069021
BKPIECE,119,true,1.471587,0.577495,0.000000,0.367680,1.858223,0.494294,0.190933,0.260221,0.079730,1.073086,0.067305
BKPIECE,120,true,1.462791,0.577010,0.000000,0.750924,1.843509,0.495069,0.188702,0.256030,0.071022,1.070127,0.058810
BKPIECE,121,true,1.463708,0.576030,0.000000,1.974313,1.845463,0.495889,0.188063,0.256292,0.080979,1.060121,0.061097
BKPIECE,122,true,1.465971,0.576746,0.000000,1.055309,1.847079,0.494782,0.190083,0.259662,0.081733,1.064722,0.058089
BKPIECE,123,true,1.458124,0.575749,0.000000,1.441547,1.839192,0.495322,0.188357,0.252406,0.062862,1.060717,0.066461
BKPIECE,124,true,1.464587,0.576972,0.000000,0.526383,1.845613,0.496303,0.189408,0.258752,0.081976,1.057855,0.060720
BKPIECE,125,true,1.459293,0.577015,0.000000,1.022743,1.837438,0.494971,0.190440,0.255163,0.063914,1.067363,0.057684
BKPIECE,126,true,1.469384,0.576701,0.000000,1.152277,1.854514,0.495635,0.189107,0.259262,0.086831,1.063204,0.065049
BKPIECE,127,true,1.460445,0.576661,0.000000,0.767435,1.840887,0.496146,0.187880,0.255601,0.071439,1.059140,0.062694
BKPIECE,128,true,1.460197,0.575696,0.000000,1.083363,1.838987,0.495544,0.187541,0.255854,0.078034,1.058740,0.056462
BKPIECE,129,true,1.460858,0.577363,0.000000,0.988325,1.838920,0.496110,0.189038,0.257819,0.074114,1.060640,0.056384
BKPIECE,130,true,1.465125,0.575787,0.000000,1.159536,1.848959,0.494354,0.188203,0.256986,0.077198,1.064838,0.065012
BKPIECE,131,true,1.465288,0.576108,0.000000,1.700842,1.846904,0.495037,0.190054,0.258862,0.082817,1.059433,0.060867
BKPIECE,132,true,1.463905,0.576675,0.000000,0.685797,1.845956,0.496332,0.188836,0.256648,0.078426,1.059440,0.063335
BKPIECE,133,true,1.469554,0.576570,0.000000,0.951926,1.853546,0.494823,0.188932,0.259234,0.087496,1.069663,0.059442
BKPIECE,134,true,1.458222,0.575896,0.000000,1.141993,1.837246,0.495456,0.187340,0.254135,0.069274,1.060631,0.059578
BKPIECE,135,true,1.468184,0.577025,0.000000,0.963495,1.851336,0.494698,0.188460,0.258757,0.082236,1.073179,0.058233
BKPIECE,136,true,1.460827,0.576273,0.000000,0.568829,1.840166,0.494628,0.189741,0.256260,0.070519,1.064053,0.058813
BKPIECE,137,true,1.459640,0.575805,0.000000,1.440852,1.838301,0.493541,0.188323,0.255327,0.067759,1.070156,0.055443
BKPIECE,138,true,1.457982,0.575883,0.000000,0.627117,1.836087,0.494521,0.189065,0.254006,0.065553,1.065180,0.057386
BKPIECE,139,true,1.467046,0.576546,0.000000,0.295848,1.851130,0.495818,0.188170,0.257914,0.083622,1.062567,0.064134
BKPIECE,140,true,1.465161,0.575779,0.000000,0.956537,1.846664,0.494046,0.188148,0.257841,0.081670,1.068183,0.056810
BKPIECE,141,true,1.464857,0.576832,0.000000,0.912433,1.847746,0.493242,0.190536,0.256504,0.065692,1.076998,0.062834
BKPIECE,142,true,1.468303,0.576146,0.000000,0.403001,1.852145,0.493762,0.188595,0.259546,0.083663,1.069830,0.060517
BKPIECE,143,true,1.467631,0.576051,0.000000,0.673520,1.852184,0.494593,0.189278,0.258807,0.082720,1.063160,0.065382
BKPIECE,144,true,1.471910,0.577085,0.000000,0.300188,1.858571,0.494301,0.189240,0.259808,0.084000,1.074568,0.064600
BKPIECE,145,true,1.467414,0.577537,0.000000,1.052578,1.848809,0.494954,0.190297,0.260506,0.081672,1.068636,0.057241
BKPIECE,146,true,1.471481,0.576148,0.000000,0.253258,1.860366,0.495621,0.188099,0.259425,0.089304,1.059212,0.073594
BKPIECE,147,true,1.462802,0.577260,0.000000,0.989339,1.842586,0.495489,0.190567,0.257501,0.072785,1.064343,0.059103
BKPIECE,148,true,1.461122,0.576307,0.000000,0.948340,1.840870,0.494891,0.189618,0.256796,0.071886,1.061330,0.060356
BKPIECE,149,true,1.461725,0.576161,0.000000,0.407911,1.841157,0.495785,0.187785,0.256294,0.079262,1.061069,0.056445
BKPIECE,150,true,1.465594,0.576636,0.000000,1.129028,1.847018,0.493085,0.190294,0.256740,0.071581,1.080603,0.055663
KPIECE,1,true,1.468328,0.576307,0.000000,0.011462,1.855354,0.493539,0.188681,0.257414,0.073584,1.072773,0.069997
KPIECE,2,true,1.462011,0.576644,0.000000,0.011405,1.843640,0.494652,0.188867,0.254461,0.066116,1.071345,0.062036
KPIECE,3,true,1.476222,0.576437,0.000000,0.011168,1.867898,0.492393,0.190808,0.260958,0.082516,1.077823,0.074735
KPIECE,4,true,1.466966,0.576206,0.000000,0.011219,1.852151,0.494543,0.189209,0.257462,0.077353,1.065722,0.067700
KPIECE,5,true,1.475695,0.577355,0.000000,0.013280,1.862930,0.493545,0.191156,0.262874,0.090151,1.077214,0.062735
KPIECE,6,true,1.472780,0.577611,0.000000,0.125661,1.857749,0.495001,0.189974,0.262471,0.091071,1.070049,0.060515
KPIECE,7,true,1.465414,0.577031,0.000000,0.011036,1.848004,0.494253,0.190537,0.256663,0.070438,1.073849,0.061697
KPIECE,8,true,1.463027,0.576137,0.000000,0.297258,1.843316,0.494976,0.189911,0.257475,0.077700,1.061105,0.059281
KPIECE,9,true,1.462503,0.576116,0.000000,0.017848,1.845284,0.493886,0.188739,0.255348,0.066506,1.069218,0.065217
KPIECE,10,true,1.472538,0.576510,0.000000,0.219739,1.861459,0.494464,0.188701,0.260552,0.086403,1.066237,0.072011
KPIECE,11,true,1.468167,0.576174,0.000000,0.097099,1.852221,0.494488,0.189792,0.259734,0.084514,1.063278,0.063708
KPIECE,12,true,1.468442,0.577269,0.000000,0.097621,1.851823,0.495363,0.189099,0.260271,0.084383,1.065866,0.061340
KPIECE,13,true,1.470310,0.576618,0.000000,0.018594,1.853554,0.494136,0.190225,0.261238,0.089104,1.069474,0.057635
KPIECE,14,true,1.465127,0.577254,0.000000,0.093997,1.851433,0.495987,0.188598,0.254990,0.067323,1.065516,0.074184
KPIECE,15,true,1.460036,0.576471,0.000000,0.115491,1.841619,0.495814,0.188382,0.254518,0.066553,1.059571,0.066866
KPIECE,16,true,1.461277,0.576642,0.000000,0.054738,1.843051,0.495601,0.188556,0.256104,0.069144,1.059484,0.066440
KPIECE,17,true,1.464935,0.577181,0.000000,0.060545,1.845642,0.494603,0.190368,0.258723,0.075358,1.068961,0.058021
KPIECE,18,true,1.473114,0.577267,0.000000,0.020967,1.861342,0.493495,0.190834,0.260799,0.079818,1.075520,0.069597
KPIECE,19,true,1.463300,0.576480,0.000000,0.022515,1.844045,0.493314,0.188858,0.255600,0.068554,1.079144,0.055778
KPIECE,20,true,1.469951,0.577625,0.000000,0.014852,1.857134,0.495275,0.189917,0.258921,0.076593,1.068500,0.071549
KPIECE,21,true,1.459763,0.576398,0.000000,0.154532,1.838578,0.496423,0.188076,0.255157,0.074730,1.058314,0.058209
KPIECE,22,true,1.466413,0.576169,0.000000,0.070867,1.849865,0.494988,0.189615,0.258796,0.082024,1.060278,0.064666
KPIECE,23,true,1.473259,0.576249,0.000000,0.106363,1.860993,0.493658,0.189530,0.260449,0.088525,1.072384,0.065947
KPIECE,24,true,1.475173,0.576660,0.000000,0.259929,1.863411,0.493332,0.190108,0.261631,0.089765,1.076199,0.065100
KPIECE,25,true,1.460864,0.576385,0.000000,0.237323,1.839382,0.493976,0.189212,0.256817,0.070195,1.068838,0.055085
KPIECE,26,true,1.460012,0.576793,0.000000,0.044144,1.838827,0.495839,0.188503,0.255376,0.070828,1.063355,0.057734
KPIECE,27,true,1.472932,0.575908,0.000000,0.205010,1.859945,0.493167,0.189876,0.261402,0.089927,1.070374,0.064783
KPIECE,28,true,1.472151,0.576151,0.000000,0.015972,1.862187,0.495370,0.188216,0.258572,0.087020,1.062607,0.075442
KPIECE,29,true,1.467972,0.576931,0.000000,0.116999,1.850650,0.495114,0.189067,0.260690,0.086010,1.064169,0.059893
KPIECE,30,true,1.464338,0.577109,0.000000,0.012584,1.847205,0.495096,0.189364,0.256953,0.070840,1.067024,0.065009
KPIECE,31,true,1.465256,0.576424,0.000000,0.012443,1.847601,0.493385,0.190246,0.257656,0.072154,1.072569,0.060965
KPIECE,32,true,1.468135,0.576135,0.000000,0.095785,1.854967,0.495112,0.188255,0.258438,0.081479,1.060270,0.071867
KPIECE,33,true,1.459067,0.576692,0.000000,0.010606,1.837025,0.494715,0.189072,0.254502,0.065159,1.070234,0.055195
KPIECE,34,true,1.463176,0.576819,0.000000,0.039981,1.847116,0.495290,0.188489,0.255555,0.067390,1.064754,0.069404
KPIECE,35,true,1.469047,0.576553,0.000000,0.011156,1.852557,0.492606,0.190152,0.259702,0.078586,1.078824,0.058229
KPIECE,36,true,1.461697,0.576994,0.000000,0.011332,1.841948,0.495351,0.190373,0.257568,0.070183,1.060138,0.062946
KPIECE,37,true,1.477368,0.576360,0.000000,0.012624,1.870452,0.493467,0.189961,0.260288,0.087231,1.074593,0.077076
KPIECE,38,true,1.463839,0.577258,0.000000,0.011721,1.846947,0.496185,0.189744,0.256448,0.071265,1.061240,0.067942
KPIECE,39,true,1.456347,0.576585,0.000000,0.014491,1.832788,0.496210,0.187517,0.253843,0.067478,1.061113,0.054786
KPIECE,40,true,1.462179,0.577041,0.000000,0.090971,1.844298,0.495024,0.189999,0.256782,0.065922,1.062938,0.067303
KPIECE,41,true,1.467041,0.576999,0.000000,0.153759,1.848995,0.495591,0.189689,0.260051,0.085095,1.062087,0.059696
KPIECE,42,true,1.463766,0.576140,0.000000,0.013055,1.845498,0.492210,0.188914,0.255925,0.066147,1.081731,0.057687
KPIECE,43,true,1.458164,0.576807,0.000000,0.016539,1.834958,0.495004,0.189782,0.255641,0.065870,1.064934,0.055012
KPIECE,44,true,1.467267,0.576624,0.000000,0.058913,1.852921,0.494150,0.190580,0.257642,0.072389,1.068164,0.069947
KPIECE,45,true,1.477673,0.576858,0.000000,0.197685,1.870984,0.494319,0.188491,0.260027,0.088716,1.075583,0.076383
KPIECE,46,true,1.469174,0.577246,0.000000,0.011246,1.854128,0.494303,0.190683,0.259856,0.077863,1.070082,0.065686
KPIECE,47,true,1.473333,0.576856,0.000000,0.089674,1.859634,0.492706,0.189998,0.262023,0.085642,1.078793,0.061546
KPIECE,48,true,1.467606,0.575689,0.000000,0.011780,1.853871,0.493731,0.188339,0.256795,0.077158,1.069874,0.067970
KPIECE,49,true,1.469278,0.576700,0.000000,0.051323,1.854547,0.495128,0.190201,0.260736,0.084964,1.059895,0.067854
KPIECE,50,true,1.461153,0.577233,0.000000,0.012673,1.840840,0.496271,0.189755,0.256008,0.070732,1.061411,0.060791
KPIECE,51,true,1.462755,0.575921,0.000000,0.011360,1.845087,0.493056,0.189005,0.255355,0.065993,1.073785,0.062458
KPIECE,52,true,1.458773,0.577110,0.000000,0.028455,1.835762,0.495799,0.189641,0.255764,0.068455,1.063170,0.055189
KPIECE,53,true,1.464758,0.576680,0.000000,0.011538,1.849190,0.494528,0.189959,0.256420,0.068374,1.066856,0.069378
KPIECE,54,true,1.465385,0.576705,0.000000,0.013925,1.847257,0.493956,0.189709,0.257334,0.073966,1.073734,0.058653
KPIECE,55,true,1.475513,0.576991,0.000000,0.059942,1.863467,0.493299,0.190107,0.263010,0.090510,1.075566,0.064647
KPIECE,56,true,1.460556,0.575973,0.000000,0.020489,1.841090,0.495223,0.188245,0.254665,0.071080,1.062710,0.061300
KPIECE,57,true,1.461973,0.576469,0.000000,0.011100,1.842252,0.495372,0.188000,0.255700,0.074228,1.065826,0.058238
KPIECE,58,true,1.466625,0.575967,0.000000,0.065582,1.848659,0.495077,0.187905,0.259167,0.088664,1.062469,0.057708
KPIECE,59,true,1.471058,0.575861,0.000000,0.010871,1.857504,0.493629,0.189466,0.259795,0.086713,1.069222,0.065187
KPIECE,60,true,1.463167,0.577395,0.000000,0.106594,1.842517,0.496170,0.189779,0.257677,0.077111,1.063343,0.056778
KPIECE,61,true,1.466175,0.577741,0.000000,0.073270,1.848088,0.494496,0.190241,0.258559,0.072599,1.074389,0.059386
KPIECE,62,true,1.462483,0.576177,0.000000,0.042709,1.842385,0.495624,0.187479,0.257230,0.080872,1.060652,0.057000
KPIECE,63,true,1.465113,0.576644,0.000000,0.082498,1.846950,0.494237,0.189217,0.258546,0.076264,1.068176,0.060115
KPIECE,64,true,1.460341,0.576328,0.000000,0.120418,1.839140,0.493599,0.189631,0.255959,0.066018,1.070959,0.056432
KPIECE,65,true,1.467457,0.576064,0.000000,0.053378,1.851157,0.495724,0.188005,0.258080,0.088275,1.061620,0.061727
KPIECE,66,true,1.476084,0.576980,0.000000,0.061017,1.864949,0.493373,0.189462,0.261748,0.089899,1.079374,0.064968
KPIECE,67,true,1.468293,0.576242,0.000000,0.014815,1.851917,0.492616,0.189081,0.258860,0.078274,1.078672,0.058383
KPIECE,68,true,1.470689,0.576695,0.000000,0.011575,1.855476,0.493307,0.189826,0.260270,0.083041,1.076137,0.060345
KPIECE,69,true,1.466829,0.575832,0.000000,0.137271,1.850029,0.494424,0.189544,0.258533,0.083404,1.063748,0.061934
KPIECE,70,true,1.469858,0.576421,0.000000,0.076428,1.854626,0.494786,0.189224,0.261500,0.089469,1.061318,0.064185
KPIECE,71,true,1.466200,0.575783,0.000000,0.342952,1.847929,0.493973,0.188995,0.259229,0.084379,1.065610,0.057556
KPIECE,72,true,1.459887,0.576334,0.000000,0.011134,1.839926,0.494976,0.188262,0.253667,0.066238,1.068436,0.059691
KPIECE,73,true,1.471386,0.577057,0.000000,0.011501,1.858244,0.494564,0.190549,0.259630,0.082053,1.070316,0.067863
KPIECE,74,true,1.462045,0.576843,0.000000,0.178500,1.842136,0.495424,0.190334,0.257318,0.072385,1.060726,0.061389
KPIECE,75,true,1.469512,0.577172,0.000000,0.119176,1.854875,0.493653,0.189512,0.258178,0.075388,1.079761,0.062973
KPIECE,76,true,1.462817,0.576761,0.000000,0.110483,1.843088,0.493866,0.188506,0.256221,0.069424,1.075919,0.055898
KPIECE,77,true,1.469167,0.576668,0.000000,0.014600,1.855445,0.493857,0.189587,0.257040,0.075220,1.076494,0.066255
KPIECE,78,true,1.467373,0.577140,0.000000,0.011435,1.851614,0.496645,0.189195,0.258655,0.083531,1.058558,0.066600
KPIECE,79,true,1.464906,0.576984,0.000000,0.012150,1.846022,0.493922,0.189414,0.258002,0.073275,1.074096,0.057239
KPIECE,80,true,1.471996,0.576263,0.000000,0.076614,1.858453,0.494132,0.188945,0.260973,0.090238,1.068135,0.064351
KPIECE,81,true,1.475289,0.577439,0.000000,0.028514,1.865662,0.493556,0.190737,0.261218,0.081168,1.076545,0.073252
KPIECE,82,true,1.463573,0.576210,0.000000,0.010662,1.845144,0.495497,0.187970,0.256780,0.079061,1.062026,0.060712
KPIECE,83,true,1.463864,0.575992,0.000000,0.010820,1.846721,0.492678,0.190140,0.256057,0.065904,1.074665,0.063456
KPIECE,84,true,1.461172,0.576227,0.000000,0.045091,1.840115,0.494901,0.190168,0.257409,0.074237,1.059849,0.058457
KPIECE,85,true,1.457448,0.575656,0.000000,0.177773,1.837265,0.494874,0.187652,0.252744,0.063341,1.063042,0.062502
KPIECE,86,true,1.463196,0.576616,0.000000,0.011276,1.848324,0.495870,0.187804,0.253841,0.067315,1.064181,0.071932
KPIECE,87,true,1.466443,0.576748,0.000000,0.184921,1.848998,0.496617,0.189026,0.258369,0.086386,1.058163,0.061895
KPIECE,88,true,1.470630,0.576531,0.000000,0.097349,1.856530,0.494181,0.188279,0.258732,0.084630,1.074538,0.062392
KPIECE,89,true,1.461275,0.576176,0.000000,0.252086,1.841703,0.495704,0.188071,0.255125,0.074358,1.061950,0.060117
KPIECE,90,true,1.463694,0.577312,0.000000,0.011995,1.845249,0.495636,0.189443,0.257726,0.073111,1.063537,0.062947
KPIECE,91,true,1.465370,0.577030,0.000000,0.057011,1.846755,0.493794,0.189906,0.258683,0.073512,1.073139,0.058273
KPIECE,92,true,1.471517,0.576888,0.000000,0.014507,1.856096,0.494452,0.189014,0.260799,0.089879,1.072588,0.058631
KPIECE,93,true,1.462030,0.575869,0.000000,0.081041,1.842853,0.494116,0.188990,0.256225,0.072003,1.065824,0.060374
KPIECE,94,true,1.472790,0.576183,0.000000,0.024800,1.860462,0.492801,0.189461,0.258747,0.083067,1.080928,0.064106
KPIECE,95,true,1.472044,0.575995,0.000000,0.012265,1.862039,0.494616,0.188500,0.258022,0.084260,1.067018,0.074498
KPIECE,96,true,1.469710,0.576119,0.000000,0.080455,1.858115,0.493011,0.189528,0.256034,0.071749,1.078651,0.071072
KPIECE,97,true,1.467053,0.575770,0.000000,0.011039,1.851965,0.493050,0.188606,0.256454,0.074830,1.075914,0.063392
KPIECE,98,true,1.471895,0.575896,0.000000,0.021086,1.862202,0.494773,0.188306,0.258202,0.084720,1.064350,0.076125
KPIECE,99,true,1.463262,0.576916,0.000000,0.021681,1.843551,0.495662,0.189141,0.257221,0.076613,1.064068,0.058431
KPIECE,100,true,1.465588,0.575870,0.000000,0.013272,1.850589,0.492347,0.189279,0.254730,0.065290,1.081166,0.065137
KPIECE,101,true,1.468711,0.576513,0.000000,0.016364,1.851369,0.494435,0.190347,0.259751,0.086091,1.068616,0.057873
KPIECE,102,true,1.473714,0.576748,0.000000,0.092789,1.859292,0.492867,0.190672,0.262554,0.089270,1.077070,0.059398
KPIECE,103,true,1.469506,0.575875,0.000000,0.021698,1.858144,0.493863,0.189571,0.257917,0.077067,1.065878,0.075152
KPIECE,104,true,1.465768,0.576102,0.000000,0.012337,1.848256,0.493918,0.188756,0.257888,0.078552,1.069701,0.059661
KPIECE,105,true,1.468487,0.576799,0.000000,0.014887,1.856049,0.493250,0.188507,0.256066,0.067813,1.080985,0.069832
KPIECE,106,true,1.474490,0.577657,0.000000,0.014005,1.864019,0.494261,0.189938,0.259846,0.081259,1.078442,0.070373
KPIECE,107,true,1.469354,0.577291,0.000000,0.116538,1.853442,0.495020,0.189442,0.260083,0.083621,1.069045,0.061790
KPIECE,108,true,1.466590,0.576389,0.000000,0.033018,1.852824,0.492886,0.190762,0.256105,0.064570,1.075627,0.070936
KPIECE,109,true,1.464339,0.576566,0.000000,0.011353,1.848162,0.494579,0.188759,0.255891,0.069780,1.068923,0.066356
KPIECE,110,true,1.467946,0.576770,0.000000,0.014371,1.850868,0.493746,0.189693,0.258887,0.079205,1.075029,0.058306
KPIECE,111,true,1.466772,0.576828,0.000000,0.010673,1.848770,0.494991,0.189074,0.258787,0.082418,1.068187,0.057963
KPIECE,112,true,1.468716,0.576952,0.000000,0.012383,1.853901,0.493062,0.189092,0.258167,0.073077,1.080713,0.063016
KPIECE,113,true,1.459221,0.576555,0.000000,0.015647,1.837387,0.494658,0.188458,0.256186,0.067924,1.065457,0.056642
KPIECE,114,true,1.472208,0.576799,0.000000,0.011140,1.859583,0.493934,0.189383,0.259023,0.082882,1.076580,0.065595
KPIECE,115,true,1.471747,0.576906,0.000000,0.059558,1.857674,0.493868,0.190574,0.259560,0.083140,1.076021,0.062877
KPIECE,116,true,1.467000,0.576726,0.000000,0.011175,1.849698,0.493701,0.188994,0.259113,0.077990,1.073277,0.059013
KPIECE,117,true,1.468193,0.576977,0.000000,0.086529,1.852177,0.495700,0.189823,0.259584,0.084185,1.061812,0.064486
KPIECE,118,true,1.465710,0.577405,0.000000,0.123865,1.846252,0.496164,0.190237,0.259767,0.083199,1.060731,0.058206
KPIECE,119,true,1.466209,0.577100,0.000000,0.013657,1.852073,0.494123,0.188759,0.255262,0.065394,1.077452,0.068779
KPIECE,120,true,1.459819,0.576591,0.000000,0.035890,1.838189,0.494968,0.188297,0.255324,0.069350,1.067743,0.055388
KPIECE,121,true,1.463699,0.576237,0.000000,0.169922,1.844099,0.495569,0.188359,0.257115,0.081792,1.062666,0.056913
KPIECE,122,true,1.473810,0.577299,0.000000,0.132668,1.858797,0.493208,0.191267,0.262812,0.088427,1.078225,0.058179
KPIECE,123,true,1.466662,0.575908,0.000000,0.010983,1.850501,0.493904,0.188329,0.257109,0.079018,1.071236,0.061502
KPIECE,124,true,1.462277,0.577117,0.000000,0.012074,1.842451,0.495641,0.189948,0.256625,0.071672,1.064041,0.060328
KPIECE,125,true,1.463233,0.576585,0.000000,0.064309,1.843232,0.495618,0.189129,0.257959,0.079611,1.060626,0.058107
KPIECE,126,true,1.465575,0.576979,0.000000,0.061446,1.846535,0.495040,0.189120,0.259394,0.081058,1.065872,0.057425
KPIECE,127,true,1.468147,0.577103,0.000000,0.011297,1.850363,0.493689,0.189502,0.260365,0.080548,1.074861,0.056489
KPIECE,128,true,1.455668,0.576609,0.000000,0.011379,1.831634,0.496086,0.187910,0.253737,0.065547,1.061017,0.054675
KPIECE,129,true,1.463025,0.576812,0.000000,0.014842,1.843311,0.493003,0.191186,0.256890,0.064925,1.076448,0.057990
KPIECE,130,true,1.466217,0.576924,0.000000,0.011335,1.848019,0.494560,0.188555,0.258316,0.079157,1.072183,0.057021
KPIECE,131,true,1.467673,0.576656,0.000000,0.238693,1.851496,0.495451,0.188440,0.259341,0.085008,1.062683,0.063141
KPIECE,132,true,1.461568,0.577235,0.000000,0.106091,1.840461,0.496288,0.188555,0.257559,0.075961,1.060481,0.057337
KPIECE,133,true,1.463760,0.575855,0.000000,0.160169,1.845870,0.495185,0.187808,0.256303,0.079150,1.062800,0.061346
KPIECE,134,true,1.468709,0.576310,0.000000,0.012256,1.853905,0.493155,0.189336,0.256891,0.075744,1.079850,0.062132
KPIECE,135,true,1.465481,0.577024,0.000000,0.115358,1.848285,0.496629,0.188714,0.257645,0.081291,1.059483,0.063873
KPIECE,136,true,1.464318,0.577117,0.000000,0.104645,1.846512,0.494109,0.190456,0.255827,0.066474,1.075813,0.061547
KPIECE,137,true,1.461435,0.577033,0.000000,0.415557,1.841185,0.495187,0.190489,0.257389,0.069362,1.061921,0.061444
KPIECE,138,true,1.460678,0.576028,0.000000,0.010636,1.841248,0.494225,0.189206,0.254553,0.066496,1.068087,0.061015
KPIECE,139,true,1.471687,0.576618,0.000000,0.045873,1.859261,0.494889,0.188223,0.258899,0.086447,1.070263,0.067139
KPIECE,140,true,1.472456,0.576991,0.000000,0.010771,1.861780,0.494078,0.189480,0.257679,0.077720,1.077968,0.071204
KPIECE,141,true,1.465238,0.575839,0.000000,0.218790,1.848102,0.494295,0.188455,0.257301,0.078977,1.066203,0.061690
KPIECE,142,true,1.460487,0.577201,0.000000,0.076426,1.840996,0.495687,0.190281,0.255107,0.064088,1.063560,0.064299
KPIECE,143,true,1.467538,0.576841,0.000000,0.067117,1.850565,0.495335,0.188770,0.258449,0.083566,1.067741,0.059808
KPIECE,144,true,1.462442,0.576411,0.000000,0.038551,1.843056,0.494616,0.188884,0.256978,0.072951,1.065453,0.059856
KPIECE,145,true,1.467478,0.577025,0.000000,0.027867,1.850083,0.492998,0.189922,0.259428,0.074668,1.078305,0.058171
KPIECE,146,true,1.468001,0.576419,0.000000,0.011733,1.852838,0.494851,0.190031,0.258972,0.081465,1.062901,0.066807
KPIECE,147,true,1.464871,0.576292,0.000000,0.011404,1.848702,0.493454,0.190443,0.256935,0.068359,1.069814,0.066839
KPIECE,148,true,1.470867,0.577277,0.000000,0.023011,1.856786,0.496180,0.189475,0.260784,0.089022,1.060792,0.067196
KPIECE,149,true,1.468309,0.576992,0.000000,0.070130,1.851393,0.495546,0.188467,0.260292,0.087438,1.064093,0.060096
KPIECE,150,true,1.468440,0.576059,0.000000,0.164205,1.854171,0.494348,0.189327,0.258682,0.081504,1.064780,0.067675
ProjEST,1,true,1.460651,0.576762,0.000000,0.405820,1.839521,0.494145,0.190283,0.256005,0.065630,1.070172,0.057267
ProjEST,2,true,1.461361,0.577367,0.000000,0.012971,1.841106,0.495479,0.190136,0.256004,0.067211,1.066603,0.060141
ProjEST,3,true,1.464588,0.576138,0.000000,0.129044,1.845804,0.496114,0.188089,0.257897,0.086103,1.057760,0.059056
ProjEST,4,true,1.462123,0.576094,0.000000,0.031294,1.842386,0.493342,0.189029,0.255034,0.068021,1.076197,0.056183
ProjEST,5,true,1.469719,0.577210,0.000000,0.028920,1.854652,0.493074,0.190378,0.259636,0.075164,1.079141,0.062679
ProjEST,6,true,1.469892,0.576265,0.000000,0.062309,1.855527,0.494913,0.188943,0.260714,0.088712,1.060920,0.066382
ProjEST,7,true,1.471193,0.577616,0.000000,0.027564,1.855644,0.493775,0.190080,0.260848,0.081665,1.078742,0.059299
ProjEST,8,true,1.467276,0.576770,0.000000,0.017236,1.849948,0.496178,0.188732,0.259831,0.088350,1.058551,0.061255
ProjEST,9,true,1.464986,0.576854,0.000000,0.028900,1.846929,0.493601,0.189672,0.256735,0.070022,1.077364,0.058788
ProjEST,10,true,1.472591,0.576936,0.000000,0.027796,1.861022,0.494196,0.188800,0.258921,0.082368,1.075970,0.068270
ProjEST,11,true,1.463411,0.576184,0.000000,0.154125,1.843013,0.494382,0.189626,0.258968,0.079339,1.062723,0.056532
ProjEST,12,true,1.463080,0.576517,0.000000,0.081603,1.848444,0.495709,0.187884,0.254317,0.066932,1.062307,0.073452
ProjEST,13,true,1.478858,0.577611,0.000000,0.027964,1.871139,0.494010,0.189703,0.262314,0.089607,1.078241,0.073146
ProjEST,14,true,1.467854,0.575753,0.000000,0.155405,1.853253,0.494734,0.188349,0.258575,0.084471,1.061457,0.067011
ProjEST,15,true,1.458373,0.577011,0.000000,0.175027,1.835238,0.496295,0.189805,0.255657,0.069750,1.059196,0.056151
ProjEST,16,true,1.474524,0.577152,0.000000,0.012673,1.862050,0.493897,0.190384,0.260827,0.087542,1.077674,0.063896
ProjEST,17,true,1.458243,0.575952,0.000000,0.158754,1.837234,0.494914,0.187697,0.254295,0.066963,1.063213,0.059391
ProjEST,18,true,1.459951,0.576505,0.000000,0.013845,1.838471,0.494288,0.189852,0.254972,0.065814,1.070362,0.056170
ProjEST,19,true,1.466031,0.575985,0.000000,0.014237,1.850549,0.494834,0.188950,0.257659,0.078887,1.061432,0.067483
ProjEST,20,true,1.460007,0.577125,0.000000,0.041003,1.838315,0.494953,0.190156,0.255910,0.065776,1.067646,0.057179
ProjEST,21,true,1.472188,0.576657,0.000000,0.041417,1.861466,0.495120,0.188526,0.258022,0.083952,1.069670,0.072048
ProjEST,22,true,1.456279,0.576046,0.000000,0.043733,1.832284,0.495098,0.188880,0.254885,0.067173,1.060088,0.054627
ProjEST,23,true,1.465700,0.577106,0.000000,0.011593,1.851096,0.494814,0.189971,0.256519,0.067626,1.068037,0.071309
ProjEST,24,true,1.465746,0.577449,0.000000,0.021066,1.850711,0.496359,0.189712,0.256688,0.072538,1.062046,0.071068
ProjEST,25,true,1.460027,0.576915,0.000000,0.105723,1.841761,0.496107,0.189747,0.254348,0.063357,1.059196,0.068925
ProjEST,26,true,1.461935,0.577127,0.000000,0.187546,1.844796,0.495795,0.189772,0.255592,0.065110,1.061058,0.069926
ProjEST,27,true,1.466582,0.576489,0.000000,0.017500,1.851954,0.493271,0.190084,0.255539,0.067067,1.078001,0.066902
ProjEST,28,true,1.470343,0.576677,0.000000,0.016585,1.857070,0.493277,0.189882,0.259250,0.077265,1.074938,0.067298
ProjEST,29,true,1.478834,0.577157,0.000000,0.053648,1.870197,0.493230,0.190437,0.263550,0.091795,1.076985,0.070954
ProjEST,30,true,1.473682,0.576985,0.000000,0.149764,1.859500,0.493813,0.190177,0.260617,0.089271,1.078990,0.058870
ProjEST,31,true,1.469753,0.577412,0.000000,0.050370,1.855879,0.495761,0.190473,0.259594,0.081327,1.063247,0.069770
ProjEST,32,true,1.463713,0.576404,0.000000,0.011242,1.846634,0.493233,0.188908,0.255959,0.065875,1.075236,0.063245
ProjEST,33,true,1.466479,0.576959,0.000000,0.065012,1.848226,0.496229,0.188395,0.258503,0.086092,1.063398,0.057945
ProjEST,34,true,1.466583,0.577249,0.000000,0.022235,1.851336,0.496077,0.189971,0.257272,0.075727,1.062783,0.069035
ProjEST,35,true,1.464290,0.577004,0.000000,0.140921,1.844721,0.495526,0.188470,0.258283,0.079691,1.065191,0.056984
ProjEST,36,true,1.467142,0.576458,0.000000,0.031417,1.849610,0.492069,0.190892,0.258296,0.072094,1.081853,0.057301
ProjEST,37,true,1.474326,0.577076,0.000000,0.015915,1.864543,0.495055,0.188982,0.259921,0.086635,1.069845,0.073201
ProjEST,38,true,1.459280,0.575907,0.000000,0.257717,1.837260,0.494183,0.188669,0.256157,0.070350,1.064598,0.055540
ProjEST,39,true,1.467249,0.577538,0.000000,0.019251,1.849016,0.494917,0.189643,0.259555,0.079976,1.071391,0.057337
ProjEST,40,true,1.465676,0.576047,0.000000,0.015297,1.851437,0.495698,0.187789,0.255889,0.077497,1.060548,0.070785
ProjEST,41,true,1.458607,0.576226,0.000000,0.047635,1.836443,0.496011,0.188093,0.254667,0.072566,1.059974,0.056224
ProjEST,42,true,1.463209,0.577027,0.000000,0.035890,1.844200,0.493640,0.190140,0.255898,0.064988,1.077526,0.058789
ProjEST,43,true,1.460851,0.576419,0.000000,0.063931,1.840052,0.495627,0.187766,0.256308,0.075298,1.061763,0.057323
ProjEST,44,true,1.471128,0.576017,0.000000,0.065374,1.857056,0.493994,0.189440,0.259559,0.088108,1.069905,0.063213
ProjEST,45,true,1.465836,0.576391,0.000000,0.013198,1.850201,0.496514,0.187780,0.257028,0.082678,1.057462,0.067214
ProjEST,46,true,1.473385,0.576715,0.000000,0.028663,1.861796,0.493262,0.189351,0.259844,0.082913,1.078478,0.067014
ProjEST,47,true,1.464994,0.575951,0.000000,0.177617,1.847197,0.494389,0.188933,0.258745,0.080287,1.062064,0.061789
ProjEST,48,true,1.467573,0.577134,0.000000,0.015588,1.854195,0.494180,0.189834,0.255697,0.067126,1.076726,0.070208
ProjEST,49,true,1.467973,0.576056,0.000000,0.011092,1.854266,0.494765,0.188430,0.257269,0.080050,1.065556,0.068875
ProjEST,50,true,1.466779,0.577021,0.000000,0.013745,1.850026,0.492851,0.190928,0.258091,0.068862,1.079122,0.061585
ProjEST,51,true,1.460138,0.577071,0.000000,0.013037,1.839281,0.495524,0.188767,0.255392,0.067545,1.066142,0.058633
ProjEST,52,true,1.474592,0.575961,0.000000,0.038511,1.864728,0.492995,0.189743,0.260455,0.086535,1.073136,0.071559
ProjEST,53,true,1.462014,0.576212,0.000000,0.034038,1.843800,0.494508,0.189661,0.255649,0.068344,1.064874,0.064448
ProjEST,54,true,1.472246,0.576707,0.000000,0.015137,1.861722,0.495653,0.190054,0.259596,0.085585,1.060324,0.076296
ProjEST,55,true,1.471212,0.577517,0.000000,0.074497,1.857631,0.495845,0.190073,0.260470,0.085565,1.064266,0.068248
ProjEST,56,true,1.467166,0.576864,0.000000,0.025305,1.849387,0.493036,0.188995,0.258812,0.075837,1.079968,0.055927
ProjEST,57,true,1.469146,0.576667,0.000000,0.025081,1.854973,0.495815,0.189248,0.258611,0.084929,1.061971,0.067816
ProjEST,58,true,1.477358,0.577301,0.000000,0.018511,1.867882,0.494150,0.190263,0.262043,0.090621,1.075245,0.070265
ProjEST,59,true,1.474226,0.576972,0.000000,0.017963,1.863871,0.494323,0.190214,0.261251,0.085724,1.068708,0.073121
ProjEST,60,true,1.471460,0.576256,0.000000,0.032044,1.857531,0.493487,0.190374,0.260821,0.085934,1.069865,0.064713
ProjEST,61,true,1.472042,0.577113,0.000000,0.143780,1.859702,0.495335,0.189678,0.260204,0.085981,1.065818,0.069892
ProjEST,62,true,1.476122,0.576361,0.000000,0.174723,1.868544,0.492335,0.189561,0.259876,0.080988,1.080821,0.075356
ProjEST,63,true,1.463642,0.575899,0.000000,0.020164,1.848535,0.494338,0.188877,0.255623,0.068511,1.063478,0.071422
ProjEST,64,true,1.470049,0.577465,0.000000,0.147690,1.853922,0.495331,0.190151,0.261367,0.086673,1.065739,0.061785
ProjEST,65,true,1.461768,0.575782,0.000000,0.058652,1.841954,0.494391,0.189361,0.256588,0.074090,1.062731,0.059604
ProjEST,66,true,1.467280,0.576043,0.000000,0.018805,1.850637,0.492274,0.190162,0.258459,0.074704,1.077379,0.059932
ProjEST,67,true,1.466610,0.577171,0.000000,0.012792,1.851180,0.495500,0.190294,0.257721,0.074705,1.064231,0.068494
ProjEST,68,true,1.473356,0.576395,0.000000,0.019522,1.861981,0.493324,0.190077,0.260428,0.084491,1.073214,0.069245
ProjEST,69,true,1.465770,0.577029,0.000000,0.017574,1.851242,0.496092,0.188503,0.256591,0.074036,1.061941,0.071318
ProjEST,70,true,1.474183,0.577387,0.000000,0.011554,1.864934,0.493703,0.189460,0.259401,0.077562,1.078980,0.074111
ProjEST,71,true,1.472971,0.577005,0.000000,0.304275,1.861779,0.494964,0.188614,0.259772,0.086000,1.070016,0.070279
ProjEST,72,true,1.469450,0.576668,0.000000,0.018406,1.855432,0.494058,0.190911,0.259132,0.078231,1.068790,0.068161
ProjEST,73,true,1.476204,0.576745,0.000000,0.025003,1.865956,0.493493,0.189046,0.261550,0.090457,1.077105,0.067526
ProjEST,74,true,1.473304,0.576251,0.000000,0.092861,1.859519,0.492301,0.189479,0.261493,0.087756,1.079762,0.059835
ProjEST,75,true,1.472483,0.576551,0.000000,0.011060,1.859270,0.493291,0.189392,0.259648,0.084513,1.078558,0.062804
ProjEST,76,true,1.467388,0.577139,0.000000,0.016118,1.853701,0.495558,0.189890,0.257226,0.073640,1.064487,0.072427
ProjEST,77,true,1.459370,0.576440,0.000000,0.081791,1.838171,0.495788,0.188878,0.255318,0.070650,1.059789,0.059336
ProjEST,78,true,1.466350,0.576702,0.000000,0.025720,1.851770,0.494773,0.190377,0.257045,0.071758,1.065349,0.070880
ProjEST,79,true,1.467173,0.576335,0.000000,0.162230,1.854710,0.493060,0.188830,0.255759,0.065807,1.076738,0.072403
ProjEST,80,true,1.464807,0.576580,0.000000,0.053274,1.845171,0.493479,0.190810,0.258434,0.074515,1.072357,0.056063
ProjEST,81,true,1.471823,0.577241,0.000000,0.010980,1.860592,0.495223,0.189665,0.259402,0.081280,1.067122,0.073569
ProjEST,82,true,1.471927,0.577352,0.000000,0.081001,1.858098,0.493542,0.189759,0.260751,0.081162,1.077915,0.063440
ProjEST,83,true,1.470015,0.577360,0.000000,0.034261,1.853520,0.494390,0.190101,0.259843,0.083091,1.075535,0.057984
ProjEST,84,true,1.463679,0.576805,0.000000,0.188934,1.842907,0.495172,0.190356,0.259006,0.079409,1.062280,0.056132
ProjEST,85,true,1.463751,0.576399,0.000000,0.087105,1.847759,0.495267,0.189097,0.255134,0.070287,1.064205,0.068577
ProjEST,86,true,1.473386,0.577660,0.000000,0.010761,1.863537,0.494142,0.189952,0.259362,0.076126,1.076797,0.074490
ProjEST,87,true,1.458136,0.576060,0.000000,0.017431,1.838852,0.495831,0.188045,0.252480,0.063917,1.060472,0.065414
ProjEST,88,true,1.463939,0.576397,0.000000,0.107291,1.844631,0.494003,0.189098,0.255985,0.073562,1.074958,0.055513
ProjEST,89,true,1.461501,0.576853,0.000000,0.033086,1.840124,0.496864,0.188480,0.256662,0.079817,1.058068,0.056092
ProjEST,90,true,1.472272,0.576425,0.000000,0.010770,1.859744,0.494584,0.189660,0.260489,0.088601,1.066038,0.068212
ProjEST,91,true,1.460684,0.576491,0.000000,0.021573,1.842385,0.495659,0.187673,0.254867,0.068330,1.061685,0.065384
ProjEST,92,true,1.467095,0.577440,0.000000,0.011685,1.848774,0.494060,0.190300,0.258290,0.075427,1.078405,0.055884
ProjEST,93,true,1.469231,0.577105,0.000000,0.063635,1.852699,0.495456,0.189995,0.261872,0.088437,1.060346,0.062535
ProjEST,94,true,1.473034,0.576661,0.000000,0.013751,1.861779,0.492680,0.190861,0.259170,0.077594,1.080249,0.069275
ProjEST,95,true,1.468653,0.575959,0.000000,0.117492,1.855080,0.495156,0.188528,0.258991,0.085163,1.058990,0.070114
ProjEST,96,true,1.457401,0.576415,0.000000,0.014560,1.834709,0.494699,0.189627,0.254588,0.063124,1.064945,0.057035
ProjEST,97,true,1.473061,0.576537,0.000000,0.026209,1.863018,0.493689,0.189670,0.259512,0.081004,1.072142,0.073891
ProjEST,98,true,1.469610,0.576709,0.000000,0.041847,1.857602,0.494255,0.188758,0.257567,0.075446,1.071965,0.071761
ProjEST,99,true,1.467645,0.576799,0.000000,0.175017,1.850088,0.495155,0.190605,0.259793,0.084366,1.063648,0.060414
ProjEST,100,true,1.464619,0.575892,0.000000,0.015853,1.846404,0.494772,0.188741,0.257171,0.080461,1.064286,0.059677
ProjEST,101,true,1.470839,0.577113,0.000000,0.030658,1.855054,0.495177,0.189581,0.260707,0.089485,1.068461,0.059957
ProjEST,102,true,1.470977,0.576775,0.000000,0.046873,1.859995,0.495661,0.188425,0.258810,0.083288,1.062659,0.074931
ProjEST,103,true,1.473413,0.575766,0.000000,0.157999,1.864240,0.494360,0.189351,0.259414,0.087371,1.063826,0.076623
ProjEST,104,true,1.479019,0.576675,0.000000,0.011180,1.870617,0.492577,0.189916,0.263130,0.092340,1.079700,0.069835
ProjEST,105,true,1.463958,0.576273,0.000000,0.021559,1.847966,0.494753,0.189725,0.257074,0.071086,1.060348,0.070187
ProjEST,106,true,1.474163,0.577270,0.000000,0.220663,1.863839,0.494629,0.190302,0.261500,0.085017,1.067694,0.074014
ProjEST,107,true,1.467171,0.577202,0.000000,0.013475,1.850675,0.496013,0.189767,0.259818,0.082440,1.059143,0.065412
ProjEST,108,true,1.465956,0.577134,0.000000,0.014251,1.846896,0.494875,0.190300,0.259171,0.079411,1.067948,0.057320
ProjEST,109,true,1.466863,0.576879,0.000000,0.021221,1.854051,0.494688,0.190237,0.255352,0.066781,1.070221,0.074409
ProjEST,110,true,1.469897,0.576106,0.000000,0.172703,1.856151,0.495191,0.189149,0.259742,0.088334,1.059997,0.068185
ProjEST,111,true,1.469376,0.576943,0.000000,0.012228,1.853652,0.493262,0.188996,0.258888,0.078208,1.080674,0.059038
ProjEST,112,true,1.465925,0.576714,0.000000,0.211237,1.847129,0.495933,0.189762,0.258955,0.085332,1.060292,0.058662
ProjEST,113,true,1.471711,0.577608,0.000000,0.154188,1.856119,0.495249,0.189812,0.261917,0.089791,1.068876,0.060288
ProjEST,114,true,1.469830,0.576491,0.000000,0.015794,1.855240,0.493971,0.190676,0.259896,0.082039,1.068164,0.065655
ProjEST,115,true,1.470663,0.576805,0.000000,0.037620,1.857266,0.493343,0.190623,0.259982,0.077953,1.073264,0.067684
ProjEST,116,true,1.465704,0.576876,0.000000,0.019767,1.848482,0.494345,0.189653,0.257956,0.074106,1.069966,0.062262
ProjEST,117,true,1.456391,0.576204,0.000000,0.012319,1.832828,0.494835,0.189311,0.255300,0.064796,1.060279,0.056555
ProjEST,118,true,1.468590,0.575776,0.000000,0.023840,1.855505,0.494674,0.188719,0.257875,0.082150,1.062684,0.070654
ProjEST,119,true,1.465691,0.576746,0.000000,0.013210,1.851517,0.495340,0.189628,0.256232,0.070792,1.063442,0.072816
ProjEST,120,true,1.457654,0.576037,0.000000,0.013977,1.836226,0.495783,0.187393,0.253955,0.068748,1.059533,0.059344
ProjEST,121,true,1.460338,0.576101,0.000000,0.022614,1.838831,0.493998,0.188377,0.256390,0.070862,1.068065,0.054894
ProjEST,122,true,1.471365,0.577464,0.000000,0.010937,1.860347,0.493581,0.190755,0.258362,0.070434,1.078025,0.073758
ProjEST,123,true,1.472226,0.577185,0.000000,0.013023,1.858040,0.494918,0.189252,0.260784,0.089090,1.071037,0.062368
ProjEST,124,true,1.463041,0.576816,0.000000,0.062701,1.844935,0.494783,0.189948,0.256533,0.068952,1.066202,0.064071
ProjEST,125,true,1.472803,0.577467,0.000000,0.015718,1.857998,0.493664,0.191190,0.261592,0.084844,1.077558,0.060301
ProjEST,126,true,1.467879,0.575886,0.000000,0.020729,1.852229,0.493958,0.188684,0.258334,0.082513,1.068787,0.062392
ProjEST,127,true,1.460045,0.576154,0.000000,0.108238,1.838691,0.494709,0.189535,0.256580,0.071245,1.061518,0.058145
ProjEST,128,true,1.465934,0.577057,0.000000,0.124810,1.852567,0.494832,0.188697,0.254885,0.065655,1.072399,0.072494
ProjEST,129,true,1.467426,0.577332,0.000000,0.021762,1.850011,0.494756,0.189907,0.258450,0.078194,1.073054,0.058977
ProjEST,130,true,1.455669,0.576537,0.000000,0.122701,1.831967,0.496090,0.188726,0.253388,0.064319,1.060090,0.056360
ProjEST,131,true,1.466124,0.576121,0.000000,0.013542,1.851861,0.493143,0.188219,0.255286,0.068139,1.077734,0.066998
ProjEST,132,true,1.464167,0.577048,0.000000,0.018215,1.846716,0.494538,0.189111,0.256471,0.069087,1.071665,0.062912
ProjEST,133,true,1.460410,0.576633,0.000000,0.014287,1.839796,0.494529,0.189850,0.255393,0.065889,1.068111,0.059026
ProjEST,134,true,1.468119,0.576672,0.000000,0.043048,1.851566,0.495804,0.188529,0.260593,0.089245,1.058726,0.062476
ProjEST,135,true,1.460357,0.577047,0.000000,0.219399,1.841239,0.495563,0.190148,0.255820,0.064269,1.060438,0.066406
ProjEST,136,true,1.470345,0.577119,0.000000,0.015927,1.858994,0.495523,0.188795,0.257605,0.078315,1.067726,0.073952
ProjEST,137,true,1.459811,0.576277,0.000000,0.137615,1.838954,0.494787,0.187895,0.254991,0.069034,1.067014,0.057327
ProjEST,138,true,1.469236,0.576089,0.000000,0.016752,1.854561,0.494320,0.188136,0.258686,0.085172,1.069108,0.063231
ProjEST,139,true,1.469488,0.577399,0.000000,0.013956,1.856530,0.496303,0.189882,0.259706,0.081433,1.058269,0.073804
ProjEST,140,true,1.468892,0.576695,0.000000,0.064931,1.853292,0.495047,0.189400,0.258433,0.083815,1.068662,0.062286
ProjEST,141,true,1.458945,0.576891,0.000000,0.015555,1.837804,0.495558,0.188421,0.254655,0.065642,1.065130,0.059115
ProjEST,142,true,1.471773,0.577530,0.000000,0.014323,1.860479,0.496082,0.190159,0.260084,0.082916,1.061404,0.075472
ProjEST,143,true,1.472948,0.576783,0.000000,0.014583,1.860337,0.493968,0.189300,0.261560,0.087602,1.070616,0.066530
ProjEST,144,true,1.470841,0.577076,0.000000,0.191595,1.856340,0.493207,0.191163,0.260533,0.078592,1.075729,0.064152
ProjEST,145,true,1.469922,0.576700,0.000000,0.013402,1.855050,0.495168,0.190466,0.260307,0.086491,1.062427,0.065811
ProjEST,146,true,1.471448,0.577215,0.000000,0.090690,1.856127,0.494348,0.191033,0.261171,0.085877,1.071287,0.061442
ProjEST,147,true,1.474123,0.576324,0.000000,0.108642,1.859767,0.492146,0.189971,0.262800,0.090954,1.079594,0.057574
ProjEST,148,true,1.464248,0.576811,0.000000,0.059644,1.844254,0.495994,0.188290,0.259106,0.084170,1.059842,0.056619
ProjEST,149,true,1.466068,0.576692,0.000000,0.393071,1.847803,0.493679,0.188955,0.257738,0.076171,1.076772,0.056039
ProjEST,150,true,1.468181,0.575911,0.000000,0.102601,1.853063,0.494504,0.189485,0.258541,0.083642,1.064126,0.065258
