Planner,Run,Success,Length_In_Joint_Space,Length_In_Cartesian_Space(Endeffector),Smoothness,Time,Weighted_Length,Shoulder_Pan_Joint,Shoulder_Lift_Joint,Elbow_Joint,Wrist_1_Joint,Wrist_2_Joint,Wrist_3_Joint
LBKPIECE,1,true,3.487597,3.878131,0.462833,2.677714,4.172542,2.515709,0.617440,4.318226,2.547037,1.630107,0.534813
LBKPIECE,2,true,5.140430,3.790964,0.518005,1.188183,7.024168,2.714895,3.294281,5.741866,2.913277,3.517772,8.241931
LBKPIECE,3,false,0,0,0,0,0,0,0,0,0,0,0
LBKPIECE,4,true,3.554534,3.936598,0.810529,2.771098,4.338847,2.470819,0.466380,4.575372,2.476587,1.576808,1.068745
LBKPIECE,5,true,4.251507,3.925802,0.301169,4.394782,5.929035,2.240942,0.515204,4.516554,2.515239,2.011849,6.275527
LBKPIECE,6,true,3.506155,1.453837,0.000000,3.164289,4.911066,1.621080,1.250530,0.732880,2.603553,2.948273,3.136809
LBKPIECE,7,true,5.104546,3.508778,0.288769,2.317739,7.050960,2.434878,4.059668,4.855289,2.931926,2.821532,8.953094
LBKPIECE,8,false,0,0,0,0,0,0,0,0,0,0,0
LBKPIECE,9,true,4.506177,3.980923,0.373857,4.841367,6.285513,2.130392,0.670813,4.825592,4.016844,2.138769,6.523218
LBKPIECE,10,false,0,0,0,0,0,0,0,0,0,0,0
LBKPIECE,11,true,4.778365,4.068360,0.429460,4.408135,6.465122,1.954756,2.258559,6.128923,3.743986,2.272047,6.474500
LBKPIECE,12,false,0,0,0,0,0,0,0,0,0,0,0
LBKPIECE,13,false,0,0,0,0,0,0,0,0,0,0,0
LBKPIECE,14,false,0,0,0,0,0,0,0,0,0,0,0
LBKPIECE,15,true,5.053275,4.586837,0.615895,4.539837,6.933932,3.032705,2.318298,5.352690,3.107172,4.012779,7.711941
LBKPIECE,16,true,4.416653,4.438002,0.656278,1.732618,6.055760,3.009236,0.717244,4.886334,2.267833,2.354790,6.271388
LBKPIECE,17,true,3.503702,1.452653,0.000000,4.131169,4.907564,1.621384,1.247445,0.730016,2.606077,2.939822,3.131182
LBKPIECE,18,true,3.504855,1.452275,0.000000,2.758706,4.910159,1.620482,1.246761,0.729183,2.608668,2.940845,3.138069
LBKPIECE,19,true,3.503131,1.452925,0.000000,1.527045,4.907292,1.622531,1.246107,0.727214,2.610480,2.932072,3.133520
LBKPIECE,20,true,4.633200,3.837611,0.653464,4.603499,6.133148,2.367663,2.647125,5.896825,1.666742,3.294165,5.594027
LBKPIECE,21,true,5.651534,4.689015,0.352839,3.039270,7.325278,8.699385,3.234482,5.105810,4.749098,3.331370,6.819694
LBKPIECE,22,true,3.504240,1.452681,0.000000,1.935867,4.908359,1.620666,1.249285,0.729913,2.605557,2.941819,3.132457
LBKPIECE,23,true,4.386335,3.446170,0.229886,3.251054,6.089721,2.377081,1.132078,4.167780,4.010327,1.270905,6.281766
LBKPIECE,24,true,4.210667,4.178057,0.691367,2.640406,5.563025,2.889474,0.570644,4.754396,4.747479,1.065405,3.702320
LBKPIECE,25,true,6.016107,5.815967,0.458657,1.557619,8.096570,6.614165,3.779232,5.281557,9.749027,1.927256,8.842310
LBKPIECE,26,true,3.503848,1.454016,0.000000,4.931505,4.907257,1.621495,1.250118,0.732596,2.604291,2.936966,3.131482
LBKPIECE,27,true,5.106541,4.844630,0.525455,3.046734,7.369993,3.240609,0.527101,6.271541,2.364223,1.470744,12.202539
LBKPIECE,28,false,0,0,0,0,0,0,0,0,0,0,0
LBKPIECE,29,true,4.384521,3.282113,0.318396,4.022993,5.772915,3.010936,1.206317,4.066999,4.497668,3.279348,3.162755
LBKPIECE,30,true,4.527909,3.725078,0.426553,3.271663,6.176886,2.611947,2.425945,4.098762,2.265533,2.813105,6.286664
LBKPIECE,31,true,3.504716,1.453436,0.000000,0.854209,4.910205,1.622073,1.246250,0.728367,2.611863,2.933739,3.140738
LBKPIECE,32,true,5.003599,4.996730,0.547398,4.238827,6.495879,4.046865,1.250083,5.932999,3.877194,6.574469,3.354392
LBKPIECE,33,true,3.503812,1.453026,0.000000,2.485915,4.908494,1.621628,1.245971,0.727491,2.612946,2.933662,3.135004
LBKPIECE,34,true,3.505038,1.452746,0.000000,3.913156,4.909198,1.619392,1.248876,0.731235,2.607566,2.949085,3.129140
LBKPIECE,35,true,3.503429,1.453117,0.000000,2.748835,4.906804,1.621433,1.249076,0.730374,2.605195,2.938361,3.129576
LBKPIECE,36,false,0,0,0,0,0,0,0,0,0,0,0
LBKPIECE,37,true,3.503498,1.452815,0.000000,2.614456,4.907527,1.620645,1.248546,0.729664,2.607521,2.934434,3.133686
LBKPIECE,38,true,4.000381,3.878610,0.316733,3.046139,5.198279,2.474220,0.928926,5.008660,1.988553,2.174872,3.427814
LBKPIECE,39,true,3.504173,1.452747,0.000000,3.050980,4.907721,1.620347,1.249024,0.732330,2.603439,2.945126,3.128965
LBKPIECE,40,false,0,0,0,0,0,0,0,0,0,0,0
LBKPIECE,41,true,3.501684,1.452494,0.000000,1.327348,4.904198,1.622286,1.247618,0.728740,2.604714,2.932227,3.126209
LBKPIECE,42,true,4.656528,3.713819,0.409147,2.108644,5.779888,3.923681,5.089307,4.103994,2.304684,3.104007,3.157580
LBKPIECE,43,false,0,0,0,0,0,0,0,0,0,0,0
LBKPIECE,44,true,4.807818,4.652464,0.625943,4.985767,6.502874,3.288876,2.606866,4.861864,3.239690,2.303079,6.814741
LBKPIECE,45,false,0,0,0,0,0,0,0,0,0,0,0
LBKPIECE,46,true,3.501527,1.452308,0.000000,3.653847,4.903485,1.621826,1.249139,0.729960,2.601060,2.934993,3.123711
LBKPIECE,47,true,3.503491,1.452525,0.000000,2.932091,4.907477,1.620844,1.247350,0.727835,2.610197,2.937759,3.130464
LBKPIECE,48,true,3.504520,1.452453,0.000000,2.497589,4.909501,1.621397,1.249014,0.729562,2.603587,2.938244,3.139856
LBKPIECE,49,true,3.504930,1.453972,0.000000,2.765386,4.910256,1.621668,1.246356,0.728493,2.614959,2.935006,3.138055
LBKPIECE,50,true,4.282904,3.862230,0.819324,1.902158,5.702075,1.992903,0.927491,5.335616,4.383839,1.620277,4.083137
LBKPIECE,51,true,3.503102,1.453133,0.000000,3.174241,4.906384,1.621235,1.248764,0.731522,2.604425,2.935109,3.130672
LBKPIECE,52,true,3.953339,3.679063,1.023806,2.533226,5.282237,2.636822,0.901948,4.373765,1.609529,1.550036,4.556786
LBKPIECE,53,true,4.023839,4.180287,1.463125,2.935592,5.063021,3.053574,1.403130,4.514106,3.163410,1.834617,2.222438
LBKPIECE,54,true,3.349339,3.611567,0.328544,3.238845,3.968323,2.075477,0.956328,4.262061,2.005742,1.313144,0.605318
LBKPIECE,55,true,3.904891,3.651893,1.173212,2.207537,5.011660,2.909692,1.292178,4.340455,1.917563,1.625557,3.162725
LBKPIECE,56,true,3.503181,1.452494,0.000000,1.046325,4.906926,1.621178,1.247474,0.728539,2.607985,2.936540,3.130560
LBKPIECE,57,true,3.509075,1.453608,0.000000,5.250075,4.916915,1.619043,1.248577,0.731418,2.612589,2.954101,3.147878
LBKPIECE,58,true,4.073019,4.588116,0.750425,4.214029,5.000420,3.327016,0.918528,6.516561,2.032421,1.207618,2.587339
LBKPIECE,59,true,5.935904,5.342960,0.377151,3.513922,7.696654,8.994201,2.274251,6.240491,5.932737,5.515751,6.277523
LBKPIECE,60,true,3.505192,1.454168,0.000000,0.993628,4.909330,1.621016,1.249826,0.733169,2.605681,2.943903,3.132779
LBKPIECE,61,true,3.502840,1.452547,0.000000,2.995652,4.906006,1.621145,1.248466,0.730013,2.604700,2.936820,3.128744
LBKPIECE,62,false,0,0,0,0,0,0,0,0,0,0,0
LBKPIECE,63,true,4.572822,4.185684,0.548289,1.378680,6.233924,3.057880,1.233896,5.072156,3.015051,2.127382,6.404339
LBKPIECE,64,true,5.127361,7.911395,0.775692,1.352237,6.917330,2.696778,2.731695,7.153839,3.478990,2.376416,7.852111
LBKPIECE,65,true,3.503711,1.453020,0.000000,4.539939,4.907286,1.620562,1.249391,0.731867,2.604216,2.938657,3.131297
LBKPIECE,66,true,3.504042,1.452482,0.000000,0.836647,4.908795,1.620976,1.245654,0.726435,2.614180,2.938343,3.132719
LBKPIECE,67,true,3.501893,1.453341,0.000000,3.894328,4.904180,1.622783,1.248972,0.729562,2.604183,2.931971,3.125785
LBKPIECE,68,true,3.504574,1.453521,0.000000,3.916012,4.908130,1.621311,1.248746,0.731274,2.606460,2.947248,3.126997
LBKPIECE,69,true,4.233543,4.333404,1.104745,4.616199,5.278783,3.191381,0.684696,5.582769,4.896490,2.088927,1.478625
LBKPIECE,70,true,3.502023,1.452465,0.000000,4.829861,4.904150,1.620915,1.249949,0.730931,2.601426,2.936779,3.124161
LBKPIECE,71,true,3.504881,1.453367,0.000000,2.229653,4.909497,1.620632,1.247471,0.729000,2.612548,2.942666,3.131876
LBKPIECE,72,true,4.709878,4.183763,0.778655,3.638854,6.636908,3.137450,1.062199,4.779102,2.481779,2.061007,8.661409
LBKPIECE,73,true,3.504149,1.453250,0.000000,1.154380,4.908774,1.621699,1.246479,0.729017,2.610811,2.935912,3.135141
LBKPIECE,74,false,0,0,0,0,0,0,0,0,0,0,0
LBKPIECE,75,true,3.502972,1.452328,0.000000,2.455581,4.906608,1.621417,1.246265,0.728233,2.608821,2.936990,3.129089
LBKPIECE,76,false,0,0,0,0,0,0,0,0,0,0,0
LBKPIECE,77,true,3.504942,1.454395,0.000000,2.783808,4.908204,1.620595,1.249885,0.734435,2.605837,2.947728,3.126141
LBKPIECE,78,false,0,0,0,0,0,0,0,0,0,0,0
LBKPIECE,79,false,0,0,0,0,0,0,0,0,0,0,0
LBKPIECE,80,false,0,0,0,0,0,0,0,0,0,0,0
LBKPIECE,81,true,4.943446,4.453162,0.689557,3.020067,6.706535,3.458619,1.505353,5.207239,4.002219,3.990728,6.273500
LBKPIECE,82,true,4.242108,4.035098,0.277519,0.993807,5.876058,2.783282,0.530989,4.421710,2.801978,1.184440,6.273080
LBKPIECE,83,true,5.012826,3.919904,0.691120,4.304071,6.627176,2.559718,4.584305,6.180088,2.835651,1.981938,6.986724
LBKPIECE,84,true,3.504876,1.454325,0.000000,4.629332,4.908420,1.620837,1.250372,0.733975,2.604866,2.944645,3.129459
LBKPIECE,85,true,3.502728,1.452108,0.000000,2.110220,4.905812,1.621128,1.247173,0.729427,2.605493,2.939378,3.126507
LBKPIECE,86,false,0,0,0,0,0,0,0,0,0,0,0
LBKPIECE,87,true,3.504589,1.452408,0.000000,3.926396,4.909475,1.620683,1.246424,0.726514,2.613297,2.942942,3.132282
LBKPIECE,88,true,4.188922,4.938398,0.744447,1.432575,5.363725,3.706299,1.619590,4.173053,2.178718,2.695061,3.174350
LBKPIECE,89,false,0,0,0,0,0,0,0,0,0,0,0
LBKPIECE,90,false,0,0,0,0,0,0,0,0,0,0,0
LBKPIECE,91,false,0,0,0,0,0,0,0,0,0,0,0
LBKPIECE,92,false,0,0,0,0,0,0,0,0,0,0,0
LBKPIECE,93,true,4.549495,3.645904,0.668921,4.403081,5.667420,4.296652,3.120787,4.994864,2.999293,2.150173,3.136138
LBKPIECE,94,true,5.192486,4.654408,0.548955,1.731263,7.172311,3.439639,0.711171,6.406674,6.334912,1.993793,8.075718
LBKPIECE,95,true,3.503221,1.451756,0.000000,1.462041,4.906809,1.620236,1.248663,0.730560,2.602291,2.939677,3.131127
LBKPIECE,96,true,3.502947,1.451908,0.000000,4.428332,4.906354,1.621237,1.247399,0.727868,2.606359,2.940232,3.127542
LBKPIECE,97,true,6.093272,8.584131,0.533291,3.267403,8.058228,2.906292,2.465552,11.958727,5.067489,6.720222,8.009680
LBKPIECE,98,true,3.502571,1.451880,0.000000,0.308406,4.905994,1.621522,1.248231,0.727920,2.604220,2.935679,3.130435
LBKPIECE,99,false,0,0,0,0,0,0,0,0,0,0,0
LBKPIECE,100,false,0,0,0,0,0,0,0,0,0,0,0
LBKPIECE,101,true,3.502503,1.452123,0.000000,0.590483,4.905858,1.622159,1.247271,0.727929,2.605092,2.935333,3.129745
LBKPIECE,102,true,3.503741,1.452365,0.000000,3.624507,4.907278,1.620236,1.250015,0.731400,2.601922,2.942011,3.130619
LBKPIECE,103,true,5.471082,8.049413,0.596464,2.647173,6.913112,4.701221,2.185990,9.630686,3.614171,5.357137,4.443535
LBKPIECE,104,true,4.372738,3.512636,0.848491,3.439620,5.861750,3.163642,1.540146,4.773046,1.985200,2.063514,5.595285
LBKPIECE,105,true,3.503521,1.453466,0.000000,1.266412,4.906243,1.621189,1.250068,0.732086,2.603472,2.942602,3.125242
LBKPIECE,106,true,5.052707,3.807304,0.486747,3.701068,7.033691,3.152934,2.282725,4.869303,4.277617,2.229190,8.718079
LBKPIECE,107,true,4.991965,4.883859,0.796834,0.858790,6.916844,2.059807,1.696324,5.092684,6.210188,3.008603,6.852109
LBKPIECE,108,true,4.958347,3.975509,0.386680,4.603276,6.614251,3.118494,2.458344,6.190521,2.354996,4.117590,6.345263
LBKPIECE,109,true,3.504025,1.452244,0.000000,1.460897,4.907826,1.620637,1.248114,0.730576,2.604357,2.944809,3.129699
LBKPIECE,110,false,0,0,0,0,0,0,0,0,0,0,0
LBKPIECE,111,true,3.503461,1.453869,0.000000,4.719491,4.906253,1.621207,1.250049,0.733200,2.603551,2.938927,3.127303
LBKPIECE,112,true,3.502375,1.451836,0.000000,4.258170,4.905321,1.620594,1.247514,0.729297,2.605261,2.937648,3.126319
LBKPIECE,113,true,3.503022,1.452337,0.000000,2.405762,4.906119,1.621524,1.248330,0.729693,2.603558,2.940848,3.127213
LBKPIECE,114,true,4.807836,4.602164,0.648778,3.808609,6.474427,2.955114,1.280512,6.103108,2.602828,4.147360,6.026364
LBKPIECE,115,true,3.504767,1.452684,0.000000,3.574505,4.910233,1.620618,1.248809,0.730516,2.605208,2.934697,3.143546
LBKPIECE,116,true,3.503051,1.452064,0.000000,0.832406,4.906872,1.621259,1.246799,0.727278,2.608697,2.937340,3.129996
LBKPIECE,117,false,0,0,0,0,0,0,0,0,0,0,0
LBKPIECE,118,true,4.603684,3.547007,0.556249,4.194393,5.799449,2.958668,2.907380,6.057943,5.122064,0.978057,3.169794
LBKPIECE,119,true,4.212266,3.541249,0.272554,3.412499,5.887235,1.953053,0.376829,4.769454,2.232741,2.138614,6.272497
LBKPIECE,120,true,4.257459,3.444306,0.608668,3.399403,5.227424,2.840057,4.323269,4.922981,1.452762,1.426534,3.160353
LBKPIECE,121,true,4.727888,3.867288,0.587655,1.401113,6.070260,5.520436,1.760485,4.625421,5.110968,1.287069,4.048545
LBKPIECE,122,true,4.189863,3.644842,0.318630,3.805384,5.852550,2.055407,0.492592,4.599454,2.736436,1.381191,6.289877
LBKPIECE,123,true,3.504114,1.452046,0.000000,1.709967,4.908917,1.620460,1.246220,0.726459,2.612664,2.940041,3.132972
LBKPIECE,124,true,3.602192,3.577038,0.410744,1.229778,4.345793,2.529232,0.760375,4.265318,3.632342,1.299262,0.489260
LBKPIECE,125,true,3.504990,1.451742,0.000000,3.175506,4.911452,1.621134,1.245883,0.726212,2.610278,2.935769,3.145679
LBKPIECE,126,true,3.504300,1.453207,0.000000,3.675557,4.908644,1.620696,1.248181,0.729571,2.609883,2.938791,3.132997
LBKPIECE,127,true,4.823182,3.586469,0.479591,2.532849,6.611261,2.336142,2.068975,5.236576,1.970068,4.827024,6.824300
LBKPIECE,128,true,3.504058,1.453435,0.000000,2.677101,4.908251,1.622126,1.247634,0.730018,2.607485,2.937286,3.133871
LBKPIECE,129,true,4.350251,3.549315,0.467956,2.258531,5.293089,3.566382,3.736813,5.503528,1.970773,1.173036,2.974150
LBKPIECE,130,true,3.503304,1.453000,0.000000,4.918747,4.906413,1.621316,1.248118,0.731101,2.605240,2.940208,3.127152
LBKPIECE,131,true,3.504559,1.454041,0.000000,4.145434,4.909576,1.621861,1.245834,0.727669,2.616762,2.934380,3.135428
LBKPIECE,132,true,3.503226,1.452754,0.000000,1.800734,4.906121,1.621503,1.248540,0.731176,2.602998,2.942325,3.126054
LBKPIECE,133,true,3.909565,3.723665,0.670384,0.874404,4.983521,2.365282,1.536843,5.593148,1.771815,0.256251,3.761360
LBKPIECE,134,true,3.503638,1.452789,0.000000,4.021812,4.907372,1.620359,1.247315,0.729837,2.609651,2.939471,3.128847
LBKPIECE,135,true,3.502696,1.452049,0.000000,4.880987,4.906611,1.621889,1.245533,0.726627,2.609801,2.933902,3.131127
LBKPIECE,136,false,0,0,0,0,0,0,0,0,0,0,0
LBKPIECE,137,true,3.791493,3.641801,0.593801,3.352755,4.759260,3.381780,1.373542,4.478187,1.483269,0.525413,3.133229
LBKPIECE,138,true,5.101535,4.683268,0.489969,2.861932,7.022996,3.516220,1.442316,4.047769,3.799940,6.941969,6.277449
LBKPIECE,139,true,3.504355,1.454103,0.000000,4.349453,4.908289,1.620968,1.248516,0.730832,2.610909,2.938664,3.130615
LBKPIECE,140,true,3.504384,1.452442,0.000000,2.320631,4.909463,1.621970,1.247815,0.728329,2.605660,2.937400,3.139531
LBKPIECE,141,false,0,0,0,0,0,0,0,0,0,0,0
LBKPIECE,142,false,0,0,0,0,0,0,0,0,0,0,0
LBKPIECE,143,false,0,0,0,0,0,0,0,0,0,0,0
LBKPIECE,144,true,4.875628,4.085899,0.465913,2.504090,6.737149,2.616436,0.965490,6.247207,2.018106,4.249717,7.674797
LBKPIECE,145,true,4.796645,4.081131,0.216473,2.231372,6.570163,2.266487,1.449752,5.400602,2.847684,4.775008,6.268271
LBKPIECE,146,true,3.505356,1.454506,0.000000,0.840972,4.909090,1.620879,1.250669,0.734036,2.605117,2.947118,3.129702
LBKPIECE,147,true,4.701966,5.852724,0.546187,5.246022,5.935914,3.649698,4.271626,4.373220,3.971009,2.530288,3.312645
LBKPIECE,148,true,3.503593,1.452130,0.000000,2.853796,4.908209,1.620753,1.245415,0.726430,2.613445,2.936338,3.132783
LBKPIECE,149,true,4.445571,4.075371,0.171575,1.296249,6.105871,2.860466,1.248780,4.410174,3.570554,1.398256,6.274873
LBKPIECE,150,true,5.937632,7.474042,0.500078,4.054870,7.958501,2.558489,3.898965,9.046986,8.932886,2.486910,8.331236
BKPIECE,1,true,4.414872,3.220732,0.498693,0.634411,5.739097,2.481888,1.807894,4.920358,5.724990,1.390777,3.165188
BKPIECE,2,true,4.412753,3.486106,0.315045,0.782461,6.139192,2.398746,1.012415,4.117155,3.704622,1.966225,6.273224
BKPIECE,3,true,4.241499,3.864807,0.425950,0.780527,5.761339,2.624618,0.739125,4.688854,2.877231,1.795487,5.264998
BKPIECE,4,true,4.919845,3.636542,0.249063,0.669577,6.559401,3.072451,2.104687,6.471786,3.138207,3.152831,6.264913
BKPIECE,5,true,3.930822,3.687561,0.239814,1.230649,5.242891,2.850796,0.568250,4.085233,2.587173,1.270439,4.089468
BKPIECE,6,true,4.398312,3.482386,0.335685,1.269321,6.110015,2.275592,1.301691,4.082396,3.783446,1.600349,6.301672
BKPIECE,7,true,3.504811,1.453174,0.000000,1.616057,4.909579,1.621292,1.249637,0.731339,2.603434,2.939167,3.138831
BKPIECE,8,true,3.503493,1.453843,0.000000,1.281368,4.906929,1.622074,1.249018,0.730354,2.606984,2.935557,3.130476
BKPIECE,9,true,3.504591,1.453882,0.000000,0.964213,4.908156,1.620641,1.249709,0.733087,2.605592,2.944024,3.129108
BKPIECE,10,true,3.503720,1.451773,0.000000,0.684060,4.908369,1.621666,1.247459,0.728323,2.603885,2.937302,3.137420
BKPIECE,11,true,4.155094,3.845475,0.230355,1.414580,5.799838,2.534313,0.576229,4.046517,2.133567,1.708611,6.265568
BKPIECE,12,true,3.502067,1.451678,0.000000,1.084753,4.905245,1.620759,1.247298,0.727557,2.607005,2.933743,3.128108
BKPIECE,13,true,3.451898,4.173987,0.409153,1.314356,4.105803,2.993854,0.573554,4.051878,2.040284,1.610334,0.645698
BKPIECE,14,true,3.505560,1.452773,0.000000,0.428224,4.910125,1.619569,1.248876,0.731740,2.606532,2.950611,3.131620
BKPIECE,15,true,3.504001,1.452351,0.000000,1.424343,4.907911,1.620084,1.247380,0.729247,2.609211,2.943848,3.128253
BKPIECE,16,true,3.504641,1.453514,0.000000,1.302502,4.909274,1.621725,1.249124,0.731664,2.604122,2.937395,3.138476
BKPIECE,17,true,4.110791,3.820680,0.061868,0.486359,5.735832,2.482109,0.607399,4.085847,2.240365,1.204959,6.277922
BKPIECE,18,true,3.984142,3.835379,0.431543,0.754976,5.249802,2.611084,0.648661,4.056715,1.807266,3.619552,3.130109
BKPIECE,19,true,3.502226,1.452213,0.000000,1.154668,4.905503,1.621600,1.246765,0.727357,2.608408,2.932956,3.128503
BKPIECE,20,true,3.503371,1.453057,0.000000,1.303195,4.907050,1.621217,1.248166,0.731010,2.605736,2.935177,3.132305
BKPIECE,21,true,3.796418,3.582989,0.295990,1.554780,4.917791,2.611596,0.987517,4.195388,1.570735,1.893969,3.153586
BKPIECE,22,true,3.505052,1.453585,0.000000,0.877251,4.908925,1.620457,1.249627,0.731875,2.606712,2.948007,3.128715
BKPIECE,23,true,3.503492,1.453060,0.000000,1.142889,4.907784,1.622192,1.247712,0.727632,2.609044,2.932912,3.134964
BKPIECE,24,true,3.503123,1.452345,0.000000,2.707722,4.906029,1.621034,1.248484,0.731003,2.602642,2.942819,3.125892
BKPIECE,25,true,6.855234,8.475794,0.573631,0.923233,9.277526,11.449670,2.313762,5.090325,12.490700,4.712001,10.937777
BKPIECE,26,true,4.462186,4.157137,0.608782,1.188566,6.127431,2.463240,1.340482,4.887886,2.951759,1.852925,6.414811
BKPIECE,27,true,3.502862,1.453233,0.000000,0.817523,4.906225,1.621333,1.247004,0.729355,2.610345,2.933353,3.128653
BKPIECE,28,true,3.504540,1.451952,0.000000,1.230011,4.909156,1.620326,1.247748,0.729523,2.605889,2.944509,3.133806
BKPIECE,29,true,3.503871,1.453049,0.000000,1.283575,4.908286,1.621687,1.249934,0.730317,2.603077,2.933103,3.138991
BKPIECE,30,true,3.982549,3.792535,0.365212,1.237920,5.145757,2.971998,0.849703,4.795526,1.438560,2.430253,3.374654
BKPIECE,31,true,4.661756,3.994696,0.929813,1.042330,5.750869,3.328923,4.081542,6.563758,2.300330,1.874626,3.582786
BKPIECE,32,true,4.150423,3.646190,0.306947,0.899939,5.230439,3.110628,1.800470,5.332462,2.756834,1.076598,3.149022
BKPIECE,33,true,3.679025,3.543548,0.235853,1.488805,4.813040,2.666334,0.568063,4.063654,1.444901,1.399321,3.392954
BKPIECE,34,true,4.201237,3.616164,0.204739,0.480315,5.877109,2.073151,0.756974,4.203606,2.616105,1.727215,6.273346
BKPIECE,35,true,3.505473,1.452946,0.000000,0.462696,4.910992,1.620077,1.246881,0.728000,2.614338,2.942938,3.136110
BKPIECE,36,true,4.600555,4.461072,0.537125,0.565879,6.443470,2.405015,2.461999,4.141937,2.061861,1.897253,8.197042
BKPIECE,37,true,3.504279,1.453434,0.000000,2.020416,4.908468,1.621778,1.248832,0.731840,2.603921,2.938033,3.135568
BKPIECE,38,true,3.503076,1.452527,0.000000,1.502761,4.906888,1.622276,1.247054,0.727709,2.607275,2.935720,3.131505
BKPIECE,39,true,3.505414,1.453914,0.000000,1.264708,4.910626,1.620485,1.246386,0.728706,2.617330,2.941053,3.133968
BKPIECE,40,true,4.054937,3.617707,0.264027,0.549307,5.485973,2.780375,0.751153,4.413171,1.608856,1.733382,5.155574
BKPIECE,41,true,3.504473,1.453442,0.000000,0.434829,4.908138,1.621264,1.250448,0.732426,2.602157,2.943738,3.131296
BKPIECE,42,true,3.503588,1.453035,0.000000,1.384533,4.906431,1.620519,1.248904,0.732504,2.604212,2.944249,3.124739
BKPIECE,43,true,3.506383,1.452969,0.000000,0.518427,4.912727,1.620411,1.246036,0.728974,2.613399,2.945031,3.140869
BKPIECE,44,true,3.504181,1.453681,0.000000,0.833229,4.908139,1.622119,1.248782,0.731334,2.605043,2.938507,3.133499
BKPIECE,45,true,3.527880,3.603326,0.238494,0.825014,4.525947,2.313543,0.751236,4.504662,1.448230,0.266506,3.161760
BKPIECE,46,true,3.977429,3.563339,0.919394,1.089984,5.238207,3.364794,1.107333,4.080759,2.315060,0.600185,4.351812
BKPIECE,47,true,3.502083,1.451856,0.000000,0.735802,4.904927,1.621317,1.247993,0.729442,2.602656,2.935287,3.127893
BKPIECE,48,true,3.504448,1.452383,0.000000,1.466256,4.909211,1.621000,1.247396,0.729562,2.606559,2.940640,3.136000
BKPIECE,49,true,3.505781,1.452699,0.000000,0.385372,4.911975,1.620251,1.246401,0.727952,2.613514,2.941286,3.141098
BKPIECE,50,true,3.506616,1.453695,0.000000,0.831049,4.914255,1.621939,1.243653,0.725253,2.621730,2.935745,3.148036
BKPIECE,51,true,3.503069,1.452011,0.000000,1.497284,4.906211,1.620642,1.248658,0.729914,2.603461,2.941687,3.127132
BKPIECE,52,true,3.503533,1.453480,0.000000,1.095318,4.907821,1.622943,1.247525,0.728204,2.608496,2.931678,3.135894
BKPIECE,53,true,3.504039,1.452218,0.000000,0.883701,4.908354,1.620858,1.249303,0.730264,2.602403,2.939680,3.135781
BKPIECE,54,true,3.504674,1.453271,0.000000,0.704036,4.908567,1.620826,1.248663,0.731365,2.606473,2.946014,3.129400
BKPIECE,55,true,3.501815,1.451855,0.000000,0.420989,4.904536,1.621478,1.248511,0.728898,2.602325,2.933552,3.127946
BKPIECE,56,true,3.507620,1.452791,0.000000,0.706764,4.915766,1.619834,1.246027,0.727772,2.615769,2.942398,3.151597
BKPIECE,57,true,3.503984,1.452380,0.000000,0.542862,4.908617,1.620906,1.247329,0.728574,2.608300,2.937278,3.135519
BKPIECE,58,true,3.504506,1.453212,0.000000,1.687524,4.909475,1.621607,1.247054,0.729894,2.608735,2.935896,3.138376
BKPIECE,59,true,3.505019,1.453704,0.000000,1.303463,4.910333,1.621983,1.248363,0.730220,2.607559,2.935417,3.141620
BKPIECE,60,true,3.505252,1.453934,0.000000,1.071601,4.909488,1.620933,1.248458,0.731320,2.609573,2.946309,3.130200
BKPIECE,61,true,4.680362,4.059003,0.760935,2.351190,5.892240,2.961380,3.931123,6.009829,1.892745,3.301461,3.809250
BKPIECE,62,true,3.503216,1.453241,0.000000,0.567141,4.906258,1.621985,1.248309,0.730180,2.605794,2.939468,3.126789
BKPIECE,63,true,4.105773,4.086251,0.735845,0.966663,5.145641,3.513093,1.357994,5.056109,3.055709,1.184402,2.690070
BKPIECE,64,true,4.226890,3.720286,0.147963,0.500547,5.868170,2.409734,0.543530,4.612329,2.827664,1.205534,6.267809
BKPIECE,65,true,4.462318,4.172309,0.565403,0.901215,5.810025,3.868225,0.858346,4.637182,4.929257,2.323691,3.295582
BKPIECE,66,true,3.927996,4.252070,0.321045,1.652785,5.107485,3.467125,0.786959,4.064235,1.462337,2.102090,3.546410
BKPIECE,67,true,4.004549,3.320914,0.219050,1.065452,5.569308,2.062714,0.633239,4.281930,1.544348,1.591935,5.922247
BKPIECE,68,true,5.149391,4.941802,0.753130,0.749516,6.607839,2.462261,3.443735,5.956234,8.056350,4.104316,2.493327
BKPIECE,69,true,5.414653,5.156933,0.509470,1.699394,7.175567,6.100039,1.493839,4.053753,7.563187,5.608182,4.499464
BKPIECE,70,true,3.504230,1.453140,0.000000,1.516470,4.907616,1.621105,1.250093,0.731898,2.602505,2.945494,3.128532
BKPIECE,71,true,3.576347,3.595454,0.160854,1.592602,4.627137,2.338887,0.601181,4.385417,1.439720,0.869682,3.155368
BKPIECE,72,true,3.504506,1.452915,0.000000,1.261666,4.909412,1.620814,1.246507,0.726533,2.615205,2.939450,3.133054
BKPIECE,73,true,3.503928,1.453669,0.000000,1.476235,4.907118,1.621612,1.249527,0.732176,2.603979,2.942121,3.128096
BKPIECE,74,true,3.503746,1.452642,0.000000,1.014530,4.908563,1.622228,1.246945,0.726740,2.609491,2.933415,3.137421
BKPIECE,75,true,3.503109,1.452516,0.000000,0.434245,4.906092,1.620295,1.248508,0.731008,2.605153,2.940811,3.126000
BKPIECE,76,true,4.060182,3.778941,0.230682,0.374988,5.325348,2.859123,0.812888,4.095097,3.702577,1.859123,3.156273
BKPIECE,77,true,3.503901,1.452550,0.000000,1.706718,4.907751,1.621138,1.249579,0.730204,2.602942,2.941166,3.132294
BKPIECE,78,true,4.157496,3.841795,0.704189,1.634855,5.262565,3.834467,1.252602,5.042000,2.458616,1.442984,3.254106
BKPIECE,79,true,4.292490,4.080304,0.464690,1.255314,5.920038,2.855224,0.748235,4.584199,2.668677,1.185583,6.383555
BKPIECE,80,true,3.503722,1.453251,0.000000,1.026380,4.907628,1.622007,1.248361,0.729618,2.606519,2.936894,3.132667
BKPIECE,81,true,3.503270,1.453140,0.000000,1.020155,4.906485,1.620574,1.248741,0.730890,2.607095,2.937596,3.128004
BKPIECE,82,true,3.505557,1.453135,0.000000,1.321420,4.910592,1.619633,1.247446,0.728739,2.614454,2.946779,3.131877
BKPIECE,83,true,3.505303,1.452913,0.000000,0.160234,4.909680,1.619528,1.249787,0.731982,2.605568,2.948331,3.131954
BKPIECE,84,true,3.504052,1.451780,0.000000,1.067377,4.909329,1.621176,1.247460,0.728104,2.605408,2.934740,3.141493
BKPIECE,85,true,3.503709,1.452652,0.000000,1.843230,4.907909,1.621884,1.248051,0.728365,2.606434,2.937337,3.133909
BKPIECE,86,true,3.503768,1.451982,0.000000,0.801156,4.908599,1.621417,1.246893,0.727720,2.607118,2.935655,3.137589
BKPIECE,87,true,3.894239,4.130410,0.587645,0.727572,5.028279,2.898589,0.603440,4.608893,2.455715,1.534139,3.064321
BKPIECE,88,true,3.503657,1.452836,0.000000,0.520794,4.907135,1.621532,1.249338,0.730789,2.602726,2.940814,3.130413
BKPIECE,89,true,3.503285,1.453487,0.000000,0.519846,4.906391,1.620970,1.249541,0.731163,2.606145,2.936861,3.128329
BKPIECE,90,true,3.503354,1.451838,0.000000,0.713065,4.907954,1.621219,1.246240,0.727610,2.608021,2.934288,3.136109
BKPIECE,91,true,4.386147,4.008570,0.353824,1.585121,6.088683,2.686390,1.062202,4.038361,2.815472,2.253406,6.382450
BKPIECE,92,true,3.503492,1.453504,0.000000,1.877330,4.907120,1.621792,1.249359,0.730917,2.604801,2.934605,3.132983
BKPIECE,93,true,4.770754,5.356468,0.461468,1.627910,6.230555,3.432614,0.844897,5.675864,5.056050,4.497663,3.253003
BKPIECE,94,true,3.503631,1.452648,0.000000,1.369915,4.907214,1.620159,1.248908,0.731877,2.604197,2.939462,3.130831
BKPIECE,95,true,3.861609,3.505647,0.321420,0.955961,4.868113,2.044167,1.686925,5.563026,1.439344,1.009955,3.168604
BKPIECE,96,true,3.506115,1.452717,0.000000,0.840007,4.911989,1.619543,1.245488,0.727148,2.617972,2.948558,3.134132
BKPIECE,97,true,4.489195,4.373207,0.587715,1.567834,6.059044,2.862859,1.376823,5.642533,2.000426,1.981747,6.288483
BKPIECE,98,true,3.852663,3.661998,0.730098,0.663101,4.994348,2.294047,0.634891,4.968359,2.586162,1.204764,3.154789
BKPIECE,99,true,3.746855,3.626372,0.176602,0.192808,4.854265,2.151347,1.145896,4.371117,1.465690,1.750475,3.154399
BKPIECE,100,true,3.506176,1.454207,0.000000,0.680422,4.910600,1.619779,1.249612,0.732227,2.610767,2.951816,3.129069
BKPIECE,101,true,3.816290,3.557239,0.450345,0.651654,4.988286,2.760757,0.801876,4.229330,2.438356,0.786928,3.546824
BKPIECE,102,true,3.504993,1.452490,0.000000,0.580095,4.910198,1.621114,1.248003,0.729364,2.606089,2.941828,3.138578
BKPIECE,103,true,3.502985,1.452936,0.000000,1.196005,4.906794,1.622764,1.247649,0.729045,2.605040,2.932134,3.134275
BKPIECE,104,true,4.399038,4.226126,0.573793,1.376982,6.050103,2.351021,0.885647,5.150372,2.960421,1.716353,6.287722
BKPIECE,105,true,3.505961,1.452923,0.000000,0.726424,4.912509,1.620479,1.246348,0.728059,2.613845,2.938922,3.144107
BKPIECE,106,true,6.706916,6.617102,0.543285,1.971814,9.336922,7.631033,0.747586,5.752758,13.456807,6.050472,11.344060
BKPIECE,107,true,3.504846,1.452423,0.000000,1.083533,4.909598,1.620783,1.247389,0.728501,2.608824,2.945516,3.132933
BKPIECE,108,true,3.503486,1.453036,0.000000,1.305274,4.906219,1.619684,1.250132,0.732874,2.603951,2.942931,3.124844
BKPIECE,109,false,0,0,0,0,0,0,0,0,0,0,0
BKPIECE,110,true,4.572122,4.006355,0.578642,2.162609,6.307802,2.266409,1.075014,6.284363,1.442945,2.230023,7.605547
BKPIECE,111,true,3.902278,3.471274,0.386079,0.538142,5.110276,2.602113,0.723703,4.418316,2.006792,2.073338,3.403509
BKPIECE,112,true,3.503882,1.452285,0.000000,1.065267,4.909171,1.621696,1.244533,0.725594,2.614300,2.933657,3.137409
BKPIECE,113,true,4.148507,3.939847,0.368195,1.644396,5.784712,2.721945,0.519925,4.046522,2.307280,1.283373,6.331067
BKPIECE,114,true,5.214918,4.012059,0.483155,1.527007,6.969125,3.083354,3.071976,6.090268,3.370039,5.156183,6.423552
BKPIECE,115,true,4.632048,3.262127,0.462244,1.703916,6.377555,2.717871,2.036496,5.032028,2.470180,1.651426,7.547868
BKPIECE,116,true,3.504865,1.454161,0.000000,0.993450,4.908399,1.620212,1.250892,0.733911,2.605024,2.944803,3.129238
BKPIECE,117,false,0,0,0,0,0,0,0,0,0,0,0
BKPIECE,118,true,3.502878,1.453236,0.000000,2.022506,4.906387,1.622417,1.247144,0.727840,2.609779,2.933256,3.129722
BKPIECE,119,true,3.530961,3.298998,0.233133,1.582970,4.577116,1.959803,0.572123,4.589818,1.509904,0.699676,3.136363
BKPIECE,120,true,7.200847,8.473234,0.672588,2.500853,9.278256,11.083144,1.282259,10.386835,9.796665,14.169401,5.133890
BKPIECE,121,true,4.477739,4.922585,0.702367,0.776219,5.756260,3.886135,2.505776,4.308133,3.045270,2.570549,3.734282
BKPIECE,122,true,3.502977,1.452425,0.000000,1.040930,4.906644,1.621467,1.248645,0.728378,2.605542,2.934856,3.131958
BKPIECE,123,true,3.504679,1.453033,0.000000,0.526591,4.908753,1.620429,1.250174,0.731557,2.603915,2.944219,3.132477
BKPIECE,124,true,3.505685,1.453505,0.000000,0.596416,4.911970,1.622247,1.245669,0.725984,2.616213,2.938013,3.141699
BKPIECE,125,true,3.504709,1.452886,0.000000,0.442490,4.909838,1.620459,1.246280,0.726706,2.615866,2.939697,3.133981
BKPIECE,126,true,3.504217,1.453118,0.000000,1.016404,4.908490,1.621208,1.249543,0.730249,2.605278,2.938067,3.135193
BKPIECE,127,true,5.389395,7.508360,0.775845,0.616538,7.374394,4.845593,2.946610,4.608433,5.491771,2.461986,8.691181
BKPIECE,128,true,3.887235,4.406300,0.189645,1.833119,4.875835,3.764292,1.767367,4.059401,1.450848,0.925045,3.143641
BKPIECE,129,true,3.505905,1.451976,0.000000,0.664635,4.912508,1.620549,1.246560,0.728128,2.609034,2.941873,3.145229
BKPIECE,130,true,6.756670,9.542348,0.455951,0.862807,8.967816,9.133901,6.348296,4.109783,11.239599,6.112501,8.708514
BKPIECE,131,true,5.478290,7.010894,1.021817,0.892512,7.498726,2.570675,1.138755,9.175163,5.769033,2.265855,9.092175
BKPIECE,132,true,4.495678,4.293386,0.579028,0.574404,6.172362,3.717791,1.068154,4.451547,1.975513,2.084823,6.913296
BKPIECE,133,true,3.503134,1.452930,0.000000,0.648199,4.906791,1.622112,1.247373,0.728813,2.607384,2.935259,3.131005
BKPIECE,134,true,3.504475,1.452350,0.000000,1.204412,4.909537,1.620709,1.245236,0.726218,2.615196,2.940967,3.133021
BKPIECE,135,true,3.504552,1.453252,0.000000,0.974362,4.908612,1.620115,1.249420,0.732927,2.604773,2.941479,3.133167
BKPIECE,136,true,3.968520,3.810075,0.367434,0.726686,5.244256,2.943969,0.818615,4.060713,2.403468,1.695174,3.827213
BKPIECE,137,true,3.503400,1.453685,0.000000,2.097448,4.906206,1.620642,1.250507,0.733347,2.603232,2.938361,3.127725
BKPIECE,138,true,3.666630,3.467228,0.162228,0.721202,4.776223,2.059710,0.844419,4.337507,1.436766,1.600178,3.165595
BKPIECE,139,true,3.504538,1.453019,0.000000,0.514721,4.908000,1.619461,1.250513,0.733199,2.603477,2.947071,3.128066
BKPIECE,140,true,3.505313,1.453793,0.000000,0.917324,4.910744,1.621451,1.248721,0.731257,2.607217,2.936186,3.142390
BKPIECE,141,true,3.504187,1.453460,0.000000,0.732367,4.908915,1.622253,1.245955,0.727891,2.612825,2.935510,3.134892
BKPIECE,142,true,4.649179,4.438273,0.477154,1.608505,6.155656,2.961730,3.809305,4.186027,2.530920,2.507441,5.619439
BKPIECE,143,true,3.505098,1.454397,0.000000,0.651889,4.908709,1.620453,1.250620,0.734469,2.605062,2.945566,3.129542
BKPIECE,144,true,4.116414,3.755416,1.073265,1.202929,5.487886,2.702185,1.140973,4.199379,2.299858,2.332763,4.269703
BKPIECE,145,true,4.309687,4.190992,0.587651,1.698891,5.981371,2.988985,1.118751,4.046594,2.351682,1.283069,6.784322
BKPIECE,146,true,3.502777,1.452810,0.000000,0.974371,4.905795,1.620598,1.249144,0.730972,2.604813,2.935261,3.128655
BKPIECE,147,true,4.023077,4.204548,0.819823,1.055923,5.161657,3.274958,1.092098,4.041821,2.804764,2.290233,2.681277
BKPIECE,148,true,3.506121,1.454091,0.000000,0.881778,4.911672,1.620971,1.249889,0.731646,2.607592,2.941523,3.141261
BKPIECE,149,true,3.506032,1.453404,0.000000,1.544935,4.911473,1.620357,1.246389,0.728859,2.615232,2.947763,3.133657
BKPIECE,150,true,7.223885,5.252860,0.493130,1.121157,10.072727,4.677924,4.876467,4.985668,15.819403,10.194183,11.630867
KPIECE,1,true,3.507233,4.017099,0.624455,4.136306,4.194285,2.489020,0.793684,4.509352,2.149593,1.576315,0.782719
KPIECE,2,true,3.865555,3.629104,0.509027,0.646916,5.072010,1.956533,0.793698,4.478125,2.781014,1.864536,3.068610
KPIECE,3,true,3.505846,1.454144,0.000000,0.068573,4.911375,1.621631,1.249218,0.731013,2.608081,2.939457,3.141554
KPIECE,4,false,0,0,0,0,0,0,0,0,0,0,0
KPIECE,5,true,3.504762,1.454047,0.000000,0.281222,4.909673,1.621285,1.248139,0.730096,2.611316,2.934834,3.137691
KPIECE,6,true,3.928460,4.314001,0.674847,4.331106,4.982047,3.791373,1.144166,4.291097,2.337053,0.687287,3.181824
KPIECE,7,true,3.505391,1.453352,0.000000,0.285491,4.911112,1.621823,1.248055,0.729861,2.607359,2.937439,3.143227
KPIECE,8,true,3.504794,1.452749,0.000000,0.122002,4.910664,1.622340,1.247733,0.728324,2.606070,2.933257,3.145857
KPIECE,9,true,3.997099,3.428336,0.261614,5.108207,5.092118,3.321707,1.796630,4.064964,1.938210,1.695922,3.159368
KPIECE,10,true,3.503575,1.453647,0.000000,0.325769,4.906557,1.621024,1.249281,0.731759,2.606263,2.940418,3.126291
KPIECE,11,false,0,0,0,0,0,0,0,0,0,0,0
KPIECE,12,true,3.507180,1.452154,0.000000,1.143870,4.915896,1.620736,1.244098,0.724350,2.618465,2.938077,3.154588
KPIECE,13,true,4.428192,4.183130,0.239836,1.594578,6.131003,2.994946,0.855447,4.045448,2.114450,3.331336,6.267260
KPIECE,14,false,0,0,0,0,0,0,0,0,0,0,0
KPIECE,15,true,3.504107,1.452492,0.000000,0.411614,4.908509,1.620633,1.248229,0.730083,2.605968,2.938987,3.134867
KPIECE,16,true,3.503994,1.453351,0.000000,0.043379,4.907987,1.620984,1.248102,0.729912,2.609421,2.938165,3.131390
KPIECE,17,false,0,0,0,0,0,0,0,0,0,0,0
KPIECE,18,true,3.892548,3.789890,0.223426,4.559522,5.108978,2.264273,0.859646,4.756899,1.761708,1.830776,3.678626
KPIECE,19,true,4.221963,3.757207,0.167565,1.704952,5.890877,2.142113,0.801452,4.278224,2.504737,1.824156,6.274287
KPIECE,20,true,3.591166,3.296996,0.356333,1.998441,4.709194,1.972443,0.612160,4.194723,2.267940,0.686325,3.162885
KPIECE,21,false,0,0,0,0,0,0,0,0,0,0,0
KPIECE,22,true,4.140097,4.254334,0.287740,0.467184,5.426036,3.245442,0.667971,4.055150,3.007263,3.034946,3.129629
KPIECE,23,true,3.503282,1.452303,0.000000,0.672629,4.906640,1.621221,1.247176,0.729268,2.606431,2.942083,3.126807
KPIECE,24,true,4.109515,4.405796,0.515280,0.542663,5.395900,3.674769,0.548139,4.034638,2.401024,2.632479,3.597062
KPIECE,25,true,4.583243,3.738378,0.247350,4.026829,6.219602,2.347853,1.816673,5.431031,2.250407,2.893368,6.266781
KPIECE,26,false,0,0,0,0,0,0,0,0,0,0,0
KPIECE,27,true,4.514727,3.866241,0.256352,0.647951,6.326907,2.103934,0.552620,4.363683,2.040029,5.038038,6.284460
KPIECE,28,true,3.504559,1.451596,0.000000,0.201942,4.910565,1.621184,1.247068,0.727967,2.605172,2.934554,3.145991
KPIECE,29,true,3.505176,1.453869,0.000000,0.096966,4.910459,1.621547,1.245933,0.728043,2.616121,2.939009,3.135608
KPIECE,30,true,3.502872,1.452110,0.000000,0.361063,4.906644,1.621097,1.247582,0.729697,2.604521,2.933917,3.133299
KPIECE,31,true,3.502618,1.452146,0.000000,0.391246,4.905977,1.621548,1.247227,0.727429,2.607519,2.936450,3.128157
KPIECE,32,false,0,0,0,0,0,0,0,0,0,0,0
KPIECE,33,true,3.502197,1.453179,0.000000,0.076115,4.904381,1.621808,1.249716,0.731059,2.602588,2.935439,3.124773
KPIECE,34,true,3.505418,1.452749,0.000000,0.297289,4.911344,1.621753,1.247085,0.729171,2.607236,2.939304,3.143404
KPIECE,35,false,0,0,0,0,0,0,0,0,0,0,0
KPIECE,36,true,3.504093,1.452093,0.000000,0.065924,4.908593,1.620516,1.246660,0.727956,2.609896,2.941554,3.132084
KPIECE,37,true,4.351143,4.581053,0.607431,2.718669,5.959797,2.718659,0.631931,5.277384,2.331073,1.691146,6.282256
KPIECE,38,false,0,0,0,0,0,0,0,0,0,0,0
KPIECE,39,true,3.505104,1.453278,0.000000,0.158218,4.911174,1.621962,1.244935,0.725761,2.617205,2.935113,3.140780
KPIECE,40,true,3.505826,1.452232,0.000000,0.313009,4.911986,1.620797,1.247921,0.729359,2.605836,2.942864,3.144042
KPIECE,41,true,4.032346,3.858026,0.359620,0.364500,5.211852,3.289715,1.005155,4.216005,2.701851,1.892450,3.154642
KPIECE,42,true,4.462832,4.142420,1.521195,2.858060,5.904231,2.596535,1.277550,5.610567,2.247250,3.674115,4.510854
KPIECE,43,true,3.504480,1.451826,0.000000,0.015767,4.910228,1.621852,1.247507,0.728226,2.603713,2.934915,3.145166
KPIECE,44,true,3.504328,1.451859,0.000000,0.124585,4.909654,1.621140,1.246449,0.727670,2.607973,2.937746,3.139335
KPIECE,45,true,3.502956,1.452417,0.000000,0.366686,4.906563,1.621669,1.248663,0.729970,2.602586,2.934564,3.133252
KPIECE,46,true,3.557421,3.671404,0.100218,1.926684,4.578768,2.319450,0.754038,4.412692,1.459433,0.568830,3.140802
KPIECE,47,true,3.502654,1.452826,0.000000,0.219730,4.905769,1.622479,1.248247,0.728807,2.604793,2.935318,3.128939
KPIECE,48,true,3.504628,1.452217,0.000000,0.238137,4.909862,1.621210,1.247211,0.727539,2.608446,2.940148,3.137865
KPIECE,49,true,3.503735,1.453128,0.000000,0.348472,4.907805,1.622419,1.248361,0.729906,2.604504,2.936040,3.134925
KPIECE,50,false,0,0,0,0,0,0,0,0,0,0,0
KPIECE,51,true,3.504746,1.451818,0.000000,0.369008,4.910713,1.620854,1.246896,0.727321,2.608222,2.936271,3.143682
KPIECE,52,true,3.727895,3.695042,0.303817,4.800005,4.762216,3.213742,0.788663,4.270065,1.441645,1.026317,3.156771
KPIECE,53,true,3.502752,1.452719,0.000000,0.062363,4.906132,1.621175,1.247504,0.728838,2.608493,2.934153,3.129108
KPIECE,54,true,3.505247,1.453571,0.000000,0.142389,4.910047,1.621178,1.249209,0.731420,2.606040,2.942058,3.136854
KPIECE,55,true,4.508486,3.778778,0.367400,4.096263,6.131121,3.085461,1.649919,4.633185,3.226556,1.425022,6.306306
KPIECE,56,true,4.136289,3.688436,0.166342,1.268505,5.772470,2.246397,0.748832,4.172487,1.976856,1.692951,6.271361
KPIECE,57,true,3.503372,1.454068,0.000000,0.621454,4.906145,1.621373,1.249619,0.732434,2.605785,2.937946,3.126458
KPIECE,58,true,4.657336,4.023968,0.538253,0.383762,6.399812,2.577911,1.340678,4.798323,3.576918,3.103996,6.292952
KPIECE,59,true,4.981336,4.478343,0.418131,1.015367,6.845576,3.846635,1.490829,4.048370,7.474880,1.332670,6.620328
KPIECE,60,true,3.509942,1.455029,0.000000,0.014528,4.919391,1.620584,1.244137,0.726986,2.628014,2.947241,3.152728
KPIECE,61,true,4.581143,3.876989,0.403201,1.924668,6.281735,3.049500,1.801946,4.059140,2.979790,2.699467,6.397030
KPIECE,62,true,3.507577,1.453587,0.000000,0.037166,4.916095,1.621695,1.245382,0.725280,2.619381,2.937210,3.154149
KPIECE,63,true,3.507331,1.454140,0.000000,0.171898,4.915439,1.621599,1.244944,0.727136,2.619917,2.935306,3.152470
KPIECE,64,true,4.265049,3.744360,0.115580,1.734182,5.916696,2.275702,0.812079,4.570433,2.715354,1.532861,6.284214
KPIECE,65,true,3.454161,3.281726,0.166665,2.093883,4.469429,2.068472,0.733192,4.223353,1.460478,0.307373,3.138359
KPIECE,66,true,4.113129,3.632336,0.230551,3.422062,5.446195,2.397932,0.667373,4.265135,1.948872,4.482700,3.155819
KPIECE,67,true,3.735824,4.291464,0.219239,0.597078,4.653421,3.378205,0.844413,4.073657,2.447313,1.174958,2.037837
KPIECE,68,true,3.506849,1.453726,0.000000,0.158669,4.912782,1.619654,1.249982,0.733124,2.606907,2.946129,3.142197
KPIECE,69,true,4.362178,3.913912,0.227384,0.418688,5.921696,2.521034,1.502910,5.246603,1.979788,1.498423,6.279839
KPIECE,70,false,0,0,0,0,0,0,0,0,0,0,0
KPIECE,71,false,0,0,0,0,0,0,0,0,0,0,0
KPIECE,72,true,3.507370,1.453557,0.000000,0.221481,4.915733,1.622093,1.244075,0.724072,2.621947,2.938074,3.151383
KPIECE,73,true,4.299619,4.374587,0.245049,0.322121,5.882279,4.048826,0.538289,4.047409,2.019526,1.570386,6.262285
KPIECE,74,true,3.503960,1.452676,0.000000,0.172688,4.908051,1.621895,1.249091,0.730073,2.602519,2.939598,3.134559
KPIECE,75,true,3.506147,1.452876,0.000000,0.121011,4.912252,1.620865,1.249412,0.730795,2.604321,2.942512,3.145162
KPIECE,76,true,3.687605,3.579761,0.274760,3.893744,4.814172,2.278713,0.659215,4.232675,1.453062,1.824779,3.149991
KPIECE,77,true,3.504172,1.452705,0.000000,0.055232,4.909052,1.621457,1.248171,0.729070,2.606457,2.935021,3.139044
KPIECE,78,true,3.502866,1.452105,0.000000,0.320175,4.906370,1.621153,1.247034,0.729129,2.606027,2.937091,3.129639
KPIECE,79,true,4.825349,3.582611,0.653826,5.263815,6.214414,2.922866,2.521613,6.525716,6.505520,0.787121,4.021155
KPIECE,80,true,3.503857,1.452450,0.000000,0.263460,4.907414,1.620313,1.247518,0.730514,2.607017,2.944621,3.127031
KPIECE,81,false,0,0,0,0,0,0,0,0,0,0,0
KPIECE,82,true,3.508185,1.454712,0.000000,0.358913,4.916044,1.621292,1.246044,0.728432,2.619893,2.943174,3.148528
KPIECE,83,true,3.504610,1.452281,0.000000,0.041596,4.910847,1.621876,1.244479,0.724640,2.615208,2.933267,3.142823
KPIECE,84,true,3.644998,3.319820,0.444339,3.665092,4.797741,1.995934,0.567214,4.323496,1.945006,1.121414,3.332943
KPIECE,85,true,3.502824,1.451962,0.000000,0.182293,4.906039,1.620944,1.249053,0.729325,2.602780,2.938685,3.128988
KPIECE,86,true,3.503639,1.452605,0.000000,0.102800,4.908118,1.621176,1.247389,0.727710,2.609833,2.934445,3.134931
KPIECE,87,false,0,0,0,0,0,0,0,0,0,0,0
KPIECE,88,true,3.505006,1.453785,0.000000,0.372248,4.910298,1.621632,1.248265,0.731152,2.607515,2.934563,3.141941
KPIECE,89,true,3.509210,1.454348,0.000000,0.081488,4.917224,1.619469,1.246182,0.728497,2.622656,2.953614,3.144133
KPIECE,90,false,0,0,0,0,0,0,0,0,0,0,0
KPIECE,91,true,3.507145,1.452674,0.000000,0.055554,4.916062,1.621415,1.243682,0.723553,2.620886,2.934341,3.156189
KPIECE,92,false,0,0,0,0,0,0,0,0,0,0,0
KPIECE,93,true,3.503497,1.452280,0.000000,0.323585,4.907706,1.621891,1.247925,0.729752,2.602804,2.935949,3.136167
KPIECE,94,true,3.883575,4.002092,0.447470,0.189987,4.703161,2.635371,2.175463,5.015083,2.294154,1.180752,1.781331
KPIECE,95,true,3.503569,1.451637,0.000000,0.131572,4.908115,1.621134,1.248549,0.729190,2.601716,2.935924,3.138481
KPIECE,96,true,4.152405,3.861968,0.273788,0.251029,5.565100,3.044882,1.119139,4.957966,1.447008,1.066087,5.607386
KPIECE,97,true,3.504224,1.453525,0.000000,0.169637,4.909020,1.622598,1.248823,0.729693,2.605490,2.932563,3.140420
KPIECE,98,false,0,0,0,0,0,0,0,0,0,0,0
KPIECE,99,true,3.502674,1.453067,0.000000,0.061025,4.905786,1.621393,1.248705,0.728875,2.607778,2.933711,3.128263
KPIECE,100,true,4.382966,3.624952,0.332798,1.225949,6.115281,2.808359,0.659161,4.767671,1.622330,2.141807,7.211065
KPIECE,101,true,3.508876,1.454440,0.000000,0.181575,4.918013,1.620611,1.245403,0.725848,2.625075,2.940975,3.154296
KPIECE,102,true,3.505598,1.452792,0.000000,0.434296,4.910872,1.620182,1.249145,0.731801,2.604511,2.944211,3.139366
KPIECE,103,true,3.505215,1.452884,0.000000,0.257826,4.911030,1.622094,1.247619,0.729843,2.605212,2.937063,3.144703
KPIECE,104,true,3.509368,1.453812,0.000000,0.248605,4.919115,1.620671,1.243723,0.725932,2.624397,2.944255,3.156686
KPIECE,105,true,3.507510,1.453566,0.000000,0.164149,4.916459,1.622540,1.244077,0.723580,2.621572,2.934354,3.156505
KPIECE,106,true,4.040756,3.886937,0.404154,0.182708,5.284934,2.722126,0.960368,4.506127,2.059747,2.615608,3.463734
KPIECE,107,true,3.591100,3.598230,0.332161,3.625775,4.629241,2.212627,0.642029,4.714873,1.443632,0.675433,3.207404
KPIECE,108,true,3.501592,1.452823,0.000000,0.211970,4.903594,1.621968,1.249531,0.730335,2.601897,2.932637,3.124779
KPIECE,109,false,0,0,0,0,0,0,0,0,0,0,0
KPIECE,110,true,3.875250,3.608840,0.669063,1.250170,5.139158,2.347419,0.628776,4.401543,1.721140,2.165117,3.753565
KPIECE,111,true,3.504076,1.453585,0.000000,0.044023,4.907714,1.621570,1.248850,0.731971,2.604930,2.940273,3.130954
KPIECE,112,false,0,0,0,0,0,0,0,0,0,0,0
KPIECE,113,true,3.504228,1.452700,0.000000,0.033862,4.908700,1.621086,1.248218,0.729839,2.606180,2.939050,3.135243
KPIECE,114,false,0,0,0,0,0,0,0,0,0,0,0
KPIECE,115,true,3.473263,3.288417,0.216263,4.350176,4.533453,1.989734,0.572450,4.143188,1.804313,0.423410,3.130459
KPIECE,116,true,3.505420,1.453374,0.000000,0.755159,4.910740,1.621033,1.247531,0.729213,2.611176,2.941804,3.137210
KPIECE,117,true,3.507821,1.455171,0.000000,0.348926,4.914081,1.620118,1.246236,0.730102,2.622249,2.951084,3.135023
KPIECE,118,true,3.506886,1.453834,0.000000,0.193129,4.912461,1.619448,1.249458,0.733499,2.608151,2.949518,3.138175
KPIECE,119,true,3.736688,3.665365,0.233247,2.531701,4.938550,2.572199,0.816406,4.084816,1.453989,1.098405,3.937022
KPIECE,120,true,4.066326,3.703189,0.401038,3.339609,5.130731,2.551763,1.600752,4.699423,2.357598,3.219149,2.106324
KPIECE,121,true,5.501724,3.809429,0.607006,0.760540,7.516974,3.131576,2.414479,6.287766,4.416422,6.217950,7.800778
KPIECE,122,true,4.380363,3.769975,0.518281,1.104491,6.067224,2.076425,0.461690,5.354779,2.523283,2.442462,6.328940
KPIECE,123,true,3.505205,1.452988,0.000000,0.065817,4.910393,1.620768,1.249408,0.731567,2.603871,2.940074,3.140774
KPIECE,124,true,4.246664,3.644530,0.131773,0.816326,5.898125,2.544965,0.298525,4.719975,2.882632,1.305018,6.283038
KPIECE,125,true,3.811649,3.611735,0.238657,3.468322,4.924153,2.279428,1.415323,4.275558,1.637759,1.760356,3.160246
KPIECE,126,true,4.271654,4.433269,0.550783,0.193944,5.501913,3.431583,1.256220,4.743571,2.920830,2.686469,3.208359
KPIECE,127,false,0,0,0,0,0,0,0,0,0,0,0
KPIECE,128,true,3.503025,1.452979,0.000000,0.095487,4.906582,1.622042,1.247233,0.728968,2.607737,2.934787,3.130420
KPIECE,129,true,3.507570,1.453857,0.000000,0.700354,4.914528,1.620495,1.246212,0.728127,2.618308,2.948574,3.141328
KPIECE,130,true,3.776657,4.223480,0.271636,2.466243,4.744319,2.753757,0.787056,4.480963,2.468557,1.768731,2.004070
KPIECE,131,true,4.570660,4.236992,0.485204,0.453884,6.209079,3.792835,0.908469,4.822654,2.736626,2.335603,6.294750
KPIECE,132,true,4.623203,4.553653,0.362475,1.068033,6.209524,3.401718,1.142940,5.914446,2.162068,2.483568,6.269271
KPIECE,133,true,3.504461,1.454114,0.000000,0.097210,4.908530,1.621374,1.249558,0.732194,2.606427,2.937396,3.134297
KPIECE,134,true,3.505065,1.452530,0.000000,0.154011,4.910897,1.621768,1.247132,0.729206,2.606054,2.937273,3.144050
KPIECE,135,true,3.853303,3.729083,0.124630,5.034539,5.006566,2.253855,0.663981,4.843747,2.662759,1.292203,3.131397
KPIECE,136,true,3.504653,1.453406,0.000000,0.685750,4.908813,1.621127,1.249153,0.732578,2.603755,2.941861,3.134120
KPIECE,137,true,3.504809,1.453275,0.000000,0.042891,4.910579,1.621279,1.245888,0.726416,2.616519,2.933580,3.140002
KPIECE,138,true,3.504505,1.451758,0.000000,0.329718,4.909739,1.620750,1.247986,0.729534,2.603525,2.939069,3.140692
KPIECE,139,true,3.502910,1.451688,0.000000,0.287823,4.906707,1.620964,1.248478,0.729588,2.601860,2.935448,3.134044
KPIECE,140,true,3.504493,1.453033,0.000000,0.781704,4.908882,1.620527,1.250307,0.731832,2.603122,2.938829,3.136851
KPIECE,141,true,3.503228,1.452073,0.000000,0.574860,4.906664,1.620324,1.247747,0.729359,2.606627,2.940988,3.127562
KPIECE,142,true,3.503926,1.452521,0.000000,0.242661,4.907307,1.620249,1.248903,0.731253,2.604450,2.945563,3.127077
KPIECE,143,true,3.829529,3.656442,0.242673,1.491584,4.949719,1.954093,1.142008,4.892926,2.163738,1.354369,3.158158
KPIECE,144,true,3.504939,1.453130,0.000000,0.196545,4.908698,1.619632,1.248667,0.732585,2.607005,2.949702,3.127006
KPIECE,145,true,3.504581,1.453890,0.000000,0.110296,4.908894,1.621615,1.249595,0.732362,2.604384,2.937492,3.136640
KPIECE,146,true,4.291964,3.432415,0.446226,3.317529,5.749278,3.006243,0.735617,4.057250,3.221043,3.389400,4.011401
KPIECE,147,false,0,0,0,0,0,0,0,0,0,0,0
KPIECE,148,true,3.505527,1.453532,0.000000,0.198204,4.911776,1.621185,1.247327,0.728646,2.612536,2.933767,3.145260
KPIECE,149,true,3.504839,1.454283,0.000000,0.506099,4.907821,1.620548,1.250651,0.734497,2.604300,2.949285,3.124615
KPIECE,150,true,3.506645,1.454382,0.000000,0.061006,4.911708,1.620418,1.249189,0.733751,2.608261,2.949829,3.135111
ProjEST,1,true,3.916785,3.950373,0.750412,1.037999,5.053637,2.562669,0.793248,4.919904,1.541574,2.391159,3.132653
ProjEST,2,true,4.481604,3.711819,0.213886,2.338570,6.228915,1.953221,0.906860,4.792060,4.793902,1.356753,6.281976
ProjEST,3,false,0,0,0,0,0,0,0,0,0,0,0
ProjEST,4,true,3.502769,1.452651,0.000000,0.198677,4.906582,1.622600,1.246293,0.727568,2.608283,2.932424,3.132223
ProjEST,5,true,4.278650,3.561498,0.167036,3.106883,5.918707,2.254498,1.127817,4.475367,2.992660,1.181416,6.275087
ProjEST,6,true,3.505376,1.453544,0.000000,0.115612,4.911436,1.621341,1.247766,0.729195,2.610760,2.933412,3.145187
ProjEST,7,true,4.810918,3.539879,0.434944,0.868495,6.100828,2.640429,3.104262,5.834073,4.864182,4.192998,2.508991
ProjEST,8,false,0,0,0,0,0,0,0,0,0,0,0
ProjEST,9,true,3.505432,1.453882,0.000000,0.412261,4.911058,1.621016,1.247677,0.729284,2.613124,2.936604,3.140352
ProjEST,10,false,0,0,0,0,0,0,0,0,0,0,0
ProjEST,11,true,3.507772,1.454858,0.000000,0.095798,4.914675,1.620977,1.248066,0.730191,2.615872,2.945020,3.144337
ProjEST,12,true,3.505638,1.454093,0.000000,0.666938,4.912198,1.622374,1.245457,0.726257,2.618366,2.932249,3.144792
ProjEST,13,true,4.224665,3.871930,0.182910,0.361425,5.946808,2.240179,0.312490,4.048392,2.430079,2.546668,6.269988
ProjEST,14,true,3.539081,3.317412,0.221193,0.948338,4.612614,2.281615,0.574985,4.052077,1.598631,0.883098,3.134690
ProjEST,15,true,3.504164,1.453712,0.000000,0.758386,4.908417,1.621468,1.249351,0.731711,2.605356,2.934529,3.136751
ProjEST,16,true,3.913795,3.197899,0.601092,2.012164,5.200086,2.217455,1.349507,4.373865,2.548361,0.482478,4.346129
ProjEST,17,true,3.506440,1.454115,0.000000,0.015518,4.910908,1.619830,1.249411,0.732645,2.609957,2.954615,3.128663
ProjEST,18,true,4.283297,3.494324,0.350143,2.323011,5.840009,2.481053,1.903274,4.470490,2.036112,1.188442,6.267260
ProjEST,19,true,3.666205,3.103381,0.410854,1.271380,4.826285,1.954294,0.575436,4.288690,2.013397,1.379916,3.229327
ProjEST,20,true,3.505524,1.453005,0.000000,0.079237,4.911361,1.620346,1.244554,0.726013,2.620208,2.942599,3.134978
ProjEST,21,true,4.689233,4.173322,0.282560,1.051802,6.275408,3.309825,0.752706,4.061830,5.180930,5.156318,3.527294
ProjEST,22,true,3.504359,1.453507,0.000000,0.143576,4.909199,1.621987,1.248547,0.730842,2.605575,2.933037,3.140544
ProjEST,23,true,3.893303,3.077696,0.424441,3.051175,5.097480,2.522265,0.774194,4.240350,2.244790,2.170710,3.205497
ProjEST,24,true,4.339795,3.702507,0.399137,4.104533,6.028276,2.233509,1.015403,4.489420,2.800434,1.884247,6.410804
ProjEST,25,true,3.503908,1.452196,0.000000,0.083680,4.908501,1.620506,1.246866,0.727173,2.611218,2.938421,3.133186
ProjEST,26,true,3.507162,1.454187,0.000000,0.031320,4.913993,1.620325,1.247907,0.729443,2.615723,2.942164,3.144625
ProjEST,27,true,3.503373,1.452068,0.000000,0.208578,4.906891,1.620112,1.248690,0.730128,2.604636,2.940796,3.129261
ProjEST,28,false,0,0,0,0,0,0,0,0,0,0,0
ProjEST,29,true,3.659904,3.664929,0.486077,1.235695,4.796817,2.641219,0.577041,4.516424,1.440056,0.265822,3.954337
ProjEST,30,true,3.503505,1.452706,0.000000,0.611816,4.906829,1.621480,1.248201,0.730040,2.605017,2.942216,3.127595
ProjEST,31,true,4.439216,4.184523,0.260934,1.003695,6.101364,2.700195,0.719425,5.071831,3.733668,1.176712,6.304812
ProjEST,32,true,3.506367,1.453837,0.000000,0.023258,4.912207,1.620883,1.246961,0.727881,2.616526,2.946074,3.136285
ProjEST,33,false,0,0,0,0,0,0,0,0,0,0,0
ProjEST,34,true,4.545784,4.301351,0.295401,2.792040,5.966130,3.188546,0.889771,4.820937,5.496177,3.103059,3.165661
ProjEST,35,false,0,0,0,0,0,0,0,0,0,0,0
ProjEST,36,true,4.123946,3.885133,0.406068,3.239677,5.298011,3.217667,1.373997,4.514586,4.086294,0.653076,3.161311
ProjEST,37,true,3.508373,1.453084,0.000000,0.163109,4.916488,1.619687,1.243330,0.724560,2.626316,2.952716,3.142071
ProjEST,38,true,3.507939,1.453388,0.000000,0.093713,4.916617,1.620570,1.244812,0.724696,2.622973,2.940657,3.151928
ProjEST,39,true,3.506484,1.452976,0.000000,0.047728,4.912553,1.619964,1.248303,0.731295,2.607864,2.946114,3.141887
ProjEST,40,true,3.508275,1.454550,0.000000,0.041671,4.915628,1.620635,1.246504,0.729162,2.619148,2.948843,3.143704
ProjEST,41,true,4.580328,4.262562,0.523986,0.960149,6.419531,3.010600,0.998650,4.036494,2.892167,2.744198,7.297300
ProjEST,42,true,3.505827,1.453821,0.000000,0.022875,4.912621,1.621681,1.244932,0.725118,2.621304,2.933867,3.143923
ProjEST,43,true,4.382098,3.837442,0.512263,1.160383,6.021925,2.384640,1.382510,4.637876,3.360984,1.173733,6.263038
ProjEST,44,true,3.503777,1.452402,0.000000,0.524587,4.907941,1.621479,1.248926,0.729532,2.603323,2.938277,3.134917
ProjEST,45,false,0,0,0,0,0,0,0,0,0,0,0
ProjEST,46,true,3.506339,1.453556,0.000000,0.358003,4.911907,1.619900,1.250597,0.733461,2.604128,2.944373,3.141955
ProjEST,47,true,3.504337,1.452011,0.000000,0.976934,4.908732,1.620065,1.247672,0.729488,2.606946,2.944089,3.132118
ProjEST,48,true,3.504410,1.453170,0.000000,0.142225,4.908494,1.620688,1.248359,0.729614,2.609484,2.942559,3.130189
ProjEST,49,true,3.506854,1.453300,0.000000,0.052882,4.915191,1.622086,1.242749,0.723205,2.623925,2.934968,3.151091
ProjEST,50,true,3.503852,1.453010,0.000000,0.135396,4.907608,1.621078,1.247649,0.730710,2.607120,2.940335,3.130089
ProjEST,51,true,3.505431,1.453414,0.000000,0.233075,4.910438,1.620469,1.249939,0.731279,2.606252,2.942110,3.137996
ProjEST,52,true,4.232531,3.834945,0.316917,2.706364,5.942643,2.457584,0.278180,4.046294,2.129126,2.734723,6.268415
ProjEST,53,true,3.756675,3.939186,0.399422,2.198140,4.752630,2.328937,2.097645,4.367403,1.582646,0.579722,3.156257
ProjEST,54,false,0,0,0,0,0,0,0,0,0,0,0
ProjEST,55,true,3.504840,1.453091,0.000000,0.171869,4.908714,1.619576,1.250696,0.733309,2.602939,2.946137,3.131245
ProjEST,56,true,3.508478,1.454896,0.000000,0.033369,4.914879,1.619904,1.250627,0.735330,2.607527,2.952967,3.143062
ProjEST,57,true,3.508213,1.454174,0.000000,0.149499,4.916376,1.620716,1.246644,0.728486,2.617925,2.942314,3.151476
ProjEST,58,false,0,0,0,0,0,0,0,0,0,0,0
ProjEST,59,true,4.598931,3.719193,0.316897,1.461730,6.327293,3.013677,1.037883,4.486439,3.540188,2.799666,6.272311
ProjEST,60,false,0,0,0,0,0,0,0,0,0,0,0
ProjEST,61,true,3.504087,1.452661,0.000000,0.020486,4.908534,1.621639,1.248862,0.730625,2.602541,2.937378,3.137581
ProjEST,62,true,4.115693,3.996708,0.290837,1.127902,5.511979,2.576478,0.797762,4.980549,2.551338,1.173950,4.858847
ProjEST,63,true,3.504476,1.452696,0.000000,0.212006,4.908935,1.620140,1.248996,0.731806,2.604453,2.940080,3.135877
ProjEST,64,true,3.503715,1.452653,0.000000,0.194890,4.907781,1.621566,1.247648,0.728058,2.608267,2.938938,3.131543
ProjEST,65,true,3.505971,1.453437,0.000000,0.497193,4.912812,1.621929,1.245673,0.727760,2.613963,2.935079,3.147426
ProjEST,66,true,3.504715,1.454193,0.000000,0.059700,4.909440,1.621727,1.248833,0.730549,2.609238,2.935031,3.137650
ProjEST,67,false,0,0,0,0,0,0,0,0,0,0,0
ProjEST,68,true,3.503937,1.451790,0.000000,0.113744,4.908988,1.621084,1.247166,0.726999,2.607775,2.936275,3.138272
ProjEST,69,true,4.122629,3.596569,0.166561,2.116100,5.791394,2.059054,0.600064,4.125420,2.599706,1.279173,6.332650
ProjEST,70,true,3.916156,3.895282,0.211973,1.706094,5.065016,2.810528,0.993726,4.371631,2.787206,1.215478,3.157712
ProjEST,71,true,3.504570,1.452828,0.000000,0.215005,4.909870,1.622333,1.248600,0.729161,2.603994,2.935044,3.142883
ProjEST,72,true,4.580042,4.931184,0.253054,5.030618,6.187896,4.382073,0.654418,4.892930,2.756193,2.025270,6.265905
ProjEST,73,true,3.504280,1.452712,0.000000,0.326837,4.908512,1.620712,1.248771,0.729232,2.607328,2.941694,3.132243
ProjEST,74,true,4.256195,3.167703,0.539079,0.392020,5.494235,1.954181,2.855949,4.684634,1.639658,3.529787,3.450987
ProjEST,75,true,4.670181,4.080336,0.372655,3.172783,6.321155,3.079549,1.113817,5.762487,2.788670,2.774392,6.291675
ProjEST,76,false,0,0,0,0,0,0,0,0,0,0,0
ProjEST,77,true,3.998492,3.917808,0.613166,1.617218,5.301651,1.953650,0.896035,4.651534,3.376982,1.476879,3.632855
ProjEST,78,true,4.558251,6.073066,0.870888,1.846837,5.788635,5.924106,1.900039,4.088995,4.335136,0.663251,3.866127
ProjEST,79,false,0,0,0,0,0,0,0,0,0,0,0
ProjEST,80,true,3.896624,4.333377,0.531245,4.068702,4.910056,3.808508,0.539796,4.415758,2.163945,1.750325,2.505349
ProjEST,81,true,3.507614,1.454738,0.000000,0.138056,4.912834,1.619077,1.251249,0.735994,2.607008,2.954490,3.135541
ProjEST,82,false,0,0,0,0,0,0,0,0,0,0,0
ProjEST,83,true,4.805532,4.125906,0.317197,0.602546,6.483984,3.221634,2.024952,5.185185,3.189701,3.184132,6.287536
ProjEST,84,true,3.506064,1.454469,0.000000,0.037912,4.910641,1.620746,1.250638,0.734260,2.604981,2.946802,3.135061
ProjEST,85,true,4.496603,3.999436,0.323926,0.845855,6.152713,3.464899,0.744396,4.647180,3.904455,1.185020,6.273485
ProjEST,86,true,3.848427,3.498286,0.396973,2.530743,5.033373,1.954556,1.378173,4.610670,1.444092,1.765440,3.657460
ProjEST,87,true,3.508635,1.454301,0.000000,0.292567,4.916694,1.620133,1.245434,0.727788,2.622805,2.948152,3.146205
ProjEST,88,true,4.229536,3.934748,0.957459,4.550087,5.482330,2.521700,1.745878,5.295327,2.977524,1.507639,3.840904
ProjEST,89,true,3.787815,3.884287,0.549612,0.542037,4.740512,2.968344,0.597516,4.117421,4.012499,1.191122,1.460644
ProjEST,90,true,3.504844,1.452862,0.000000,0.293209,4.908821,1.619302,1.249128,0.732783,2.605600,2.947255,3.129865
ProjEST,91,true,4.674280,4.109379,0.429863,0.928960,6.725934,1.954452,0.654031,5.516455,2.624803,1.433828,9.665328
ProjEST,92,true,4.542664,3.740292,0.227697,0.493279,6.266421,2.750056,0.593778,4.939365,4.410155,1.662808,6.279637
ProjEST,93,true,4.266759,3.934343,0.842657,0.770010,6.000326,2.700302,0.405152,4.185200,2.265741,1.764735,6.884101
ProjEST,94,true,5.592033,4.996432,0.425132,2.001134,7.333853,5.254613,1.681191,5.772283,6.939459,7.671452,3.951832
ProjEST,95,true,4.366801,4.067854,0.297084,0.216456,6.032404,3.258433,0.580522,4.191256,3.261856,1.494665,6.282217
ProjEST,96,true,4.311649,3.903838,0.227896,4.759793,5.968638,1.954052,1.243000,4.633671,2.702057,1.782815,6.274725
ProjEST,97,false,0,0,0,0,0,0,0,0,0,0,0
ProjEST,98,true,3.730042,3.567184,0.420076,1.938659,4.783729,2.931744,0.630690,4.508069,1.675539,1.039039,3.128134
ProjEST,99,false,0,0,0,0,0,0,0,0,0,0,0
ProjEST,100,true,4.123946,4.360576,0.385995,2.106120,5.176531,4.033123,1.215768,5.114635,1.461258,2.036008,3.146139
ProjEST,101,true,3.871503,3.639362,0.622527,1.665096,5.171367,3.063268,0.658159,4.066653,2.087338,0.559073,4.554044
ProjEST,102,false,0,0,0,0,0,0,0,0,0,0,0
ProjEST,103,true,3.510372,1.455181,0.000000,0.023010,4.919441,1.619991,1.245446,0.728997,2.625424,2.952942,3.149911
ProjEST,104,true,4.043110,3.815371,0.428216,4.132049,5.355799,2.357856,1.089118,5.006066,1.437549,2.012001,4.444147
ProjEST,105,true,4.380278,3.795384,0.344038,2.529787,6.044644,2.559051,0.881858,4.353269,3.495699,1.938726,5.958232
ProjEST,106,true,3.504320,1.453378,0.000000,0.150936,4.909465,1.622158,1.246999,0.726625,2.613086,2.933287,3.138105
ProjEST,107,true,3.506562,1.453905,0.000000,0.269061,4.912871,1.620445,1.248443,0.730511,2.611773,2.941049,3.143753
ProjEST,108,true,3.505090,1.452478,0.000000,0.026183,4.910690,1.620696,1.248487,0.729844,2.605598,2.938434,3.142596
ProjEST,109,true,3.630312,3.418023,0.369363,2.147488,4.693584,1.953686,0.845960,4.688349,1.657688,0.874082,3.159399
ProjEST,110,false,0,0,0,0,0,0,0,0,0,0,0
ProjEST,111,true,3.503365,1.453111,0.000000,0.223896,4.907376,1.622387,1.246674,0.728328,2.609232,2.934341,3.132602
ProjEST,112,true,3.506803,1.454391,0.000000,0.031908,4.912744,1.621347,1.247949,0.729873,2.613514,2.946093,3.138889
ProjEST,113,true,3.503884,1.452258,0.000000,0.188294,4.908997,1.622133,1.248235,0.728065,2.604166,2.932329,3.142276
ProjEST,114,true,3.506125,1.452681,0.000000,0.031382,4.912542,1.620365,1.246574,0.728013,2.612847,2.942916,3.142196
ProjEST,115,true,3.999353,3.599313,0.420289,1.477769,5.199001,3.383759,0.650220,4.053020,3.293930,1.486940,3.126957
ProjEST,116,true,3.534817,3.231070,0.200910,4.983838,4.593444,2.393425,0.573984,4.057349,1.866700,0.468857,3.134619
ProjEST,117,true,4.140191,4.448154,0.481566,2.368667,5.279173,4.739465,0.997926,4.595281,1.568174,1.320366,3.919973
ProjEST,118,true,3.503739,1.452440,0.000000,0.543043,4.907405,1.620152,1.249490,0.731707,2.602720,2.940514,3.131602
ProjEST,119,true,3.504451,1.452803,0.000000,0.304452,4.908887,1.620710,1.249283,0.731130,2.604145,2.939972,3.135940
ProjEST,120,true,3.505310,1.452184,0.000000,0.018390,4.910277,1.620151,1.248866,0.731343,2.602972,2.947088,3.136779
ProjEST,121,false,0,0,0,0,0,0,0,0,0,0,0
ProjEST,122,true,3.510588,1.454669,0.000000,0.137482,4.920316,1.620467,1.246204,0.728100,2.622178,2.951464,3.155817
ProjEST,123,true,4.151776,4.172153,0.164544,2.932170,5.749449,2.516957,0.714096,4.519230,1.970965,1.184039,6.331957
ProjEST,124,true,3.505866,1.453478,0.000000,0.020910,4.911266,1.620783,1.248592,0.729647,2.610164,2.944546,3.137363
ProjEST,125,true,3.506359,1.453348,0.000000,0.020270,4.913136,1.621286,1.247911,0.728216,2.611350,2.938592,3.147202
ProjEST,126,true,3.503242,1.453264,0.000000,0.274535,4.906803,1.621972,1.247989,0.728619,2.608668,2.935580,3.129878
ProjEST,127,false,0,0,0,0,0,0,0,0,0,0,0
ProjEST,128,true,3.751055,3.504337,0.273168,1.017422,4.884052,1.954078,0.860650,4.778168,1.720302,1.451188,3.306029
ProjEST,129,true,4.119054,3.510943,0.133614,1.265795,5.736236,2.176582,0.764002,4.386699,2.000746,1.340109,6.298471
ProjEST,130,true,3.502606,1.451469,0.000000,0.016668,4.906632,1.621517,1.246909,0.727243,2.605218,2.933147,3.134212
ProjEST,131,true,3.504301,1.451930,0.000000,0.218603,4.909432,1.620884,1.248566,0.728854,2.604154,2.937084,3.140581
ProjEST,132,true,3.506522,1.454462,0.000000,0.081993,4.913529,1.621956,1.246591,0.727537,2.617569,2.934593,3.147453
ProjEST,133,true,3.698269,3.664741,0.282486,1.874961,4.687374,2.547683,1.270430,4.717791,1.449287,0.539017,3.152987
ProjEST,134,true,4.353793,4.398571,0.311360,4.354540,5.913099,3.281428,1.392309,4.210694,2.723582,1.409373,5.938132
ProjEST,135,true,3.509836,1.453640,0.000000,0.256647,4.919069,1.620239,1.245472,0.727171,2.620546,2.953302,3.152219
ProjEST,136,false,0,0,0,0,0,0,0,0,0,0,0
ProjEST,137,true,3.503334,1.453725,0.000000,0.089639,4.906584,1.621464,1.249003,0.730349,2.607978,2.935865,3.128688
ProjEST,138,true,4.032128,3.377062,0.554167,1.471112,5.298850,2.743526,0.623701,4.347156,3.205682,2.061914,3.276080
ProjEST,139,true,4.176597,3.962672,0.296005,3.067865,5.789050,3.123700,0.473318,4.046304,2.357134,1.175002,6.268500
ProjEST,140,false,0,0,0,0,0,0,0,0,0,0,0
ProjEST,141,true,3.943929,4.478433,0.452438,0.256497,4.945460,4.165807,0.513627,4.835261,1.989022,1.187737,2.863120
ProjEST,142,true,3.503250,1.453584,0.000000,0.327314,4.906267,1.621094,1.249997,0.732732,2.603273,2.935905,3.129761
ProjEST,143,true,3.508077,1.454118,0.000000,0.048629,4.916651,1.621430,1.244573,0.726362,2.621988,2.939629,3.152621
ProjEST,144,true,3.503697,1.452322,0.000000,0.050886,4.907419,1.620650,1.247810,0.730070,2.605818,2.942051,3.129496
ProjEST,145,true,4.331958,3.885393,0.478654,1.684207,5.820943,3.143327,1.830760,4.063822,1.444447,2.893950,5.389558
ProjEST,146,true,3.946859,3.634817,0.184059,3.561333,5.129001,2.507971,1.177792,4.324462,1.531993,2.874002,3.161478
ProjEST,147,true,3.504930,1.453209,0.000000,0.297849,4.910070,1.621136,1.250194,0.732047,2.602084,2.935970,3.143101
ProjEST,148,true,3.506061,1.453526,0.000000,0.082674,4.912736,1.620460,1.245705,0.727200,2.618785,2.936909,3.143407
ProjEST,149,true,3.505156,1.453709,0.000000,0.355671,4.909734,1.621405,1.248248,0.730706,2.608563,2.943591,3.133606
ProjEST,150,true,3.819697,3.607571,0.316278,0.985523,4.977019,2.782194,0.566954,4.219520,1.440450,2.421736,3.159227
