{
    "goal": {
        "global_pose": {
            "orientation": {
                "w": 0.7047431468963623,
                "x": -0.7094548344612122,
                "y": 0.0024358443915843964,
                "z": -0.0022348060738295317
            },
            "position": {
                "x": 0.6094750761985779,
                "y": 0.3671506643295288,
                "z": 0.19426114857196808
            }
        },
        "name": "move_to_magneteinheit_A"
    },
    "id": "BFMT_move_to_magneteinheit_A_63",
    "joint_names": [
        "shoulder_pan_joint",
        "shoulder_lift_joint",
        "elbow_joint",
        "wrist_1_joint",
        "wrist_2_joint",
        "wrist_3_joint"
    ],
    "metrics": {
        "cart_traj_len": 2.0256251039470943,
        "distance_elbow_joint": 3.904786850675684,
        "distance_shoulder_lift_joint": 1.0710051954555206,
        "distance_shoulder_pan_joint": 1.2416050887194368,
        "distance_wrist_1_joint": 1.3062077741084792,
        "distance_wrist_2_joint": 1.4405918418789574,
        "distance_wrist_3_joint": 4.258215520111536,
        "smoothness": 0.016421830809011426,
        "time": 0.775425732,
        "traj_len": 3.6362635040587494,
        "weighted_distance": 4.948296972409813
    },
    "planner": "BFMT",
    "start": {
        "state": {
            "elbow_joint": -1.919643507792019,
            "shoulder_lift_joint": -0.07675430207160344,
            "shoulder_pan_joint": -1.1188671864651873,
            "wrist_1_joint": 0.42560062535961957,
            "wrist_2_joint": 1.5706038300724876,
            "wrist_3_joint": 1.1188968870953055
        }
    },
    "waypoints": [
        {
            "positions": [
                -1.1188671864651873,
                -0.07675430207160344,
                -1.919643507792019,
                0.42560062535961957,
                1.5706038300724876,
                1.1188968870953055
            ]
        },
        {
            "positions": [
                -1.0848904956475616,
                -0.1104210574047644,
                -1.808104744946562,
                0.3841325264961374,
                1.5265596909944954,
                0.9939262619994086
            ]
        },
        {
            "positions": [
                -1.0509138048299356,
                -0.14408781273792537,
                -1.6965659821011048,
                0.34266442763265514,
                1.4825155519165034,
                0.8689556369035116
            ]
        },
        {
            "positions": [
                -1.0169371140123098,
                -0.17775456807108633,
                -1.5850272192556476,
                0.30119632876917296,
                1.4384714128385112,
                0.7439850118076148
            ]
        },
        {
            "positions": [
                -0.9829604231946838,
                -0.2114213234042473,
                -1.4734884564101907,
                0.2597282299056908,
                1.3944272737605192,
                0.6190143867117178
            ]
        },
        {
            "positions": [
                -0.9489837323770579,
                -0.24508807873740826,
                -1.3619496935647335,
                0.21826013104220854,
                1.350383134682527,
                0.49404376161582086
            ]
        },
        {
            "positions": [
                -0.915007041559432,
                -0.2787548340705692,
                -1.2504109307192763,
                0.17679203217872633,
                1.306338995604535,
                0.3690731365199239
            ]
        },
        {
            "positions": [
                -0.8810303507418061,
                -0.3124215894037302,
                -1.1388721678738192,
                0.13532393331524412,
                1.2622948565265428,
                0.24410251142402695
            ]
        },
        {
            "positions": [
                -0.8470536599241802,
                -0.34608834473689115,
                -1.027333405028362,
                0.09385583445176193,
                1.2182507174485506,
                0.1191318863281301
            ]
        },
        {
            "positions": [
                -0.8130769691065544,
                -0.37975510007005214,
                -0.9157946421829049,
                0.052387735588279694,
                1.1742065783705586,
                -0.005838738767766971
            ]
        },
        {
            "positions": [
                -0.7791002782889285,
                -0.4134218554032131,
                -0.8042558793374479,
                0.01091963672479751,
                1.1301624392925664,
                -0.13080936386366382
            ]
        },
        {
            "positions": [
                -0.7451235874713026,
                -0.44708861073637407,
                -0.6927171164919905,
                -0.03054846213868473,
                1.0861183002145745,
                -0.2557799889595609
            ]
        },
        {
            "positions": [
                -0.7111468966536767,
                -0.480755366069535,
                -0.5811783536465336,
                -0.07201656100216691,
                1.0420741611365822,
                -0.38075061405545774
            ]
        },
        {
            "positions": [
                -0.6771702058360509,
                -0.514422121402696,
                -0.4696395908010764,
                -0.1134846598656491,
                0.9980300220585901,
                -0.5057212391513548
            ]
        },
        {
            "positions": [
                -0.6431935150184249,
                -0.5480888767358569,
                -0.35810082795561926,
                -0.15495275872913133,
                0.953985882980598,
                -0.6306918642472517
            ]
        },
        {
            "positions": [
                -0.609216824200799,
                -0.581755632069018,
                -0.2465620651101621,
                -0.19642085759261357,
                0.9099417439026058,
                -0.7556624893431487
            ]
        },
        {
            "positions": [
                -0.5752401333831733,
                -0.6154223874021789,
                -0.13502330226470516,
                -0.2378889564560957,
                0.8658976048246139,
                -0.8806331144390454
            ]
        },
        {
            "positions": [
                -0.5412634425655474,
                -0.6490891427353398,
                -0.023484539419247996,
                -0.27935705531957794,
                0.8218534657466218,
                -1.0056037395349424
            ]
        },
        {
            "positions": [
                -0.5072867517479214,
                -0.6827558980685009,
                0.08805422342620939,
                -0.3208251541830602,
                0.7778093266686296,
                -1.1305743646308395
            ]
        },
        {
            "positions": [
                -0.4733100609302956,
                -0.7164226534016618,
                0.19959298627166633,
                -0.3622932530465424,
                0.7337651875906375,
                -1.2555449897267366
            ]
        },
        {
            "positions": [
                -0.4393333701126697,
                -0.7500894087348227,
                0.31113174911712327,
                -0.40376135191002455,
                0.6897210485126454,
                -1.3805156148226332
            ]
        },
        {
            "positions": [
                -0.4053566792950438,
                -0.7837561640679838,
                0.4226705119625802,
                -0.4452294507735067,
                0.6456769094346533,
                -1.5054862399185298
            ]
        },
        {
            "positions": [
                -0.3713799884774178,
                -0.8174229194011446,
                0.534209274808038,
                -0.486697549636989,
                0.6016327703566611,
                -1.6304568650144273
            ]
        },
        {
            "positions": [
                -0.33740329765979205,
                -0.8510896747343057,
                0.645748037653495,
                -0.5281656485004711,
                0.5575886312786691,
                -1.755427490110324
            ]
        },
        {
            "positions": [
                -0.30342660684216616,
                -0.8847564300674666,
                0.7572868004989519,
                -0.5696337473639534,
                0.5135444922006769,
                -1.880398115206221
            ]
        },
        {
            "positions": [
                -0.26944991602454027,
                -0.9184231854006275,
                0.8688255633444089,
                -0.6111018462274356,
                0.4695003531226849,
                -2.0053687403021176
            ]
        },
        {
            "positions": [
                -0.23547322520691438,
                -0.9520899407337886,
                0.9803643261898662,
                -0.6525699450909177,
                0.4254562140446927,
                -2.130339365398015
            ]
        },
        {
            "positions": [
                -0.2014965343892885,
                -0.9857566960669495,
                1.0919030890353232,
                -0.6940380439544,
                0.3814120749667005,
                -2.255309990493912
            ]
        },
        {
            "positions": [
                -0.1675198435716626,
                -1.0194234514001104,
                1.2034418518807806,
                -0.7355061428178822,
                0.3373679358887085,
                -2.380280615589809
            ]
        },
        {
            "positions": [
                -0.13354315275403672,
                -1.0530902067332715,
                1.3149806147262375,
                -0.7769742416813643,
                0.2933237968107163,
                -2.5052512406857055
            ]
        },
        {
            "positions": [
                -0.09956646193641072,
                -1.0867569620664326,
                1.426519377571695,
                -0.8184423405448467,
                0.2492796577327241,
                -2.630221865781603
            ]
        },
        {
            "positions": [
                -0.0655897711187849,
                -1.1204237173995935,
                1.5380581404171516,
                -0.8599104394083288,
                0.20523551865473205,
                -2.7551924908774996
            ]
        },
        {
            "positions": [
                -0.0028138799944401605,
                -1.1295356441087703,
                1.6870865412393226,
                -0.8530115362948185,
                0.1801610085009981,
                -2.8832345382570765
            ]
        },
        {
            "positions": [
                0.05996201112990458,
                -1.1386475708179473,
                1.8361149420614935,
                -0.8461126331813082,
                0.15508649834726412,
                -3.011276585636653
            ]
        },
        {
            "positions": [
                0.12273790225424934,
                -1.1477594975271241,
                1.9851433428836647,
                -0.839213730067798,
                0.13001198819353013,
                -3.13931863301623
            ]
        }
    ]
}