{
    "goal": {
        "global_pose": {
            "orientation": {
                "w": 0.5084816217422485,
                "x": -0.49083608388900757,
                "y": 0.5182115435600281,
                "z": -0.4816462993621826
            },
            "position": {
                "x": 0.5540239810943604,
                "y": 0.030875300988554955,
                "z": 0.16403168439865112
            }
        },
        "name": "move_to_storage_A"
    },
    "id": "BFMT_move_to_storage_A_134",
    "joint_names": [
        "shoulder_pan_joint",
        "shoulder_lift_joint",
        "elbow_joint",
        "wrist_1_joint",
        "wrist_2_joint",
        "wrist_3_joint"
    ],
    "metrics": {
        "cart_traj_len": 0.3526699596520396,
        "distance_elbow_joint": 0.45312264963512394,
        "distance_shoulder_lift_joint": 0.23513573308625135,
        "distance_shoulder_pan_joint": 0.4576984740442084,
        "distance_wrist_1_joint": 0.25543601985719666,
        "distance_wrist_2_joint": 1.1136428448471334,
        "distance_wrist_3_joint": 0.10375618723488111,
        "smoothness": 6.661338165333112e-16,
        "time": 0.487214367,
        "traj_len": 1.6182681819478484,
        "weighted_distance": 2.0482634468932184
    },
    "planner": "BFMT",
    "start": {
        "state": {
            "elbow_joint": 1.9715463870305268,
            "shoulder_lift_joint": -1.1394903361783484,
            "shoulder_pan_joint": 0.12281147578464417,
            "wrist_1_joint": -0.7804599489681411,
            "wrist_2_joint": 0.12958660307563738,
            "wrist_3_joint": -3.1924946282119055
        }
    },
    "waypoints": [
        {
            "positions": [
                0.12281147578464417,
                -1.1394903361783484,
                1.9715463870305268,
                -0.7804599489681411,
                0.12958660307563738,
                -3.1924946282119055
            ]
        },
        {
            "positions": [
                0.05742597949261441,
                -1.17308115519067,
                2.036278194121259,
                -0.8169508089477406,
                0.2886784380537993,
                -3.1776723157497795
            ]
        },
        {
            "positions": [
                -0.007959516799415353,
                -1.2066719742029917,
                2.1010100012119906,
                -0.8534416689273401,
                0.44777027303196115,
                -3.162850003287654
            ]
        },
        {
            "positions": [
                -0.07334501309144513,
                -1.2402627932153132,
                2.1657418083027227,
                -0.8899325289069396,
                0.6068621080101231,
                -3.148027690825528
            ]
        },
        {
            "positions": [
                -0.13873050938347486,
                -1.273853612227635,
                2.230473615393455,
                -0.9264233888865392,
                0.765953942988285,
                -3.133205378363402
            ]
        },
        {
            "positions": [
                -0.20411600567550464,
                -1.3074444312399565,
                2.295205422484187,
                -0.9629142488661386,
                0.9250457779664469,
                -3.118383065901276
            ]
        },
        {
            "positions": [
                -0.2695015019675344,
                -1.3410352502522782,
                2.3599372295749186,
                -0.9994051088457382,
                1.0841376129446088,
                -3.1035607534391505
            ]
        },
        {
            "positions": [
                -0.3348869982595642,
                -1.3746260692645997,
                2.4246690366656507,
                -1.0358959688253377,
                1.2432294479227708,
                -3.0887384409770244
            ]
        }
    ]
}