{
    "goal": {
        "global_pose": {
            "orientation": {
                "w": 0.5084816217422485,
                "x": -0.49083608388900757,
                "y": 0.5182115435600281,
                "z": -0.4816462993621826
            },
            "position": {
                "x": 0.5540239810943604,
                "y": 0.030875300988554955,
                "z": 0.16403168439865112
            }
        },
        "name": "move_to_storage_A"
    },
    "id": "BFMT_move_to_storage_A_48",
    "joint_names": [
        "shoulder_pan_joint",
        "shoulder_lift_joint",
        "elbow_joint",
        "wrist_1_joint",
        "wrist_2_joint",
        "wrist_3_joint"
    ],
    "metrics": {
        "cart_traj_len": 0.3524627955407658,
        "distance_elbow_joint": 0.45338861868986235,
        "distance_shoulder_lift_joint": 0.23457151447126234,
        "distance_shoulder_pan_joint": 0.45889074944255975,
        "distance_wrist_1_joint": 0.2604134408632678,
        "distance_wrist_2_joint": 1.106410096363868,
        "distance_wrist_3_joint": 0.10992900860170796,
        "smoothness": 1.7763568394002505e-15,
        "time": 0.508592656,
        "traj_len": 1.6197541259192791,
        "weighted_distance": 2.051897897767596
    },
    "planner": "BFMT",
    "start": {
        "state": {
            "elbow_joint": 1.9715463870305268,
            "shoulder_lift_joint": -1.1394903361783484,
            "shoulder_pan_joint": 0.12281147578464417,
            "wrist_1_joint": -0.7804599489681411,
            "wrist_2_joint": 0.12958660307563738,
            "wrist_3_joint": -3.1924946282119055
        }
    },
    "waypoints": [
        {
            "positions": [
                0.12281147578464417,
                -1.1394903361783484,
                1.9715463870305268,
                -0.7804599489681411,
                0.12958660307563738,
                -3.1924946282119055
            ]
        },
        {
            "positions": [
                0.05725565443570707,
                -1.1730005525313858,
                2.036316189700507,
                -0.8176618690914651,
                0.28764518827047564,
                -3.1767904841259473
            ]
        },
        {
            "positions": [
                -0.008300166913230031,
                -1.2065107688844234,
                2.1010859923704874,
                -0.854863789214789,
                0.44570377346531387,
                -3.161086340039989
            ]
        },
        {
            "positions": [
                -0.07385598826216715,
                -1.2400209852374608,
                2.1658557950404678,
                -0.892065709338113,
                0.6037623586601522,
                -3.145382195954031
            ]
        },
        {
            "positions": [
                -0.13941180961110422,
                -1.2735312015904983,
                2.230625597710448,
                -0.9292676294614369,
                0.7618209438549904,
                -3.1296780518680722
            ]
        },
        {
            "positions": [
                -0.20496763096004134,
                -1.3070414179435357,
                2.2953954003804284,
                -0.966469549584761,
                0.9198795290498287,
                -3.113973907782114
            ]
        },
        {
            "positions": [
                -0.27052345230897845,
                -1.3405516342965733,
                2.3601652030504088,
                -1.0036714697080849,
                1.077938114244667,
                -3.098269763696156
            ]
        },
        {
            "positions": [
                -0.33607927365791557,
                -1.3740618506496107,
                2.424935005720389,
                -1.0408733898314089,
                1.2359966994395053,
                -3.0825656196101976
            ]
        }
    ]
}