{
    "goal": {
        "global_pose": {
            "orientation": {
                "w": 0.7031023502349854,
                "x": -0.7110244035720825,
                "y": 0.007748599164187908,
                "z": 0.005598929710686207
            },
            "position": {
                "x": 0.11585023208521307,
                "y": 0.44412534475326537,
                "z": 0.3711530566215515
            }
        },
        "name": "move_to_auspresseinheit_A"
    },
    "id": "BFMT_move_to_auspresseinheit_A_96",
    "joint_names": [
        "shoulder_pan_joint",
        "shoulder_lift_joint",
        "elbow_joint",
        "wrist_1_joint",
        "wrist_2_joint",
        "wrist_3_joint"
    ],
    "metrics": {
        "cart_traj_len": 0.8057691502417151,
        "distance_elbow_joint": 0.07346219510827279,
        "distance_shoulder_lift_joint": 0.5379799564336185,
        "distance_shoulder_pan_joint": 1.0416943637223377,
        "distance_wrist_1_joint": 1.8806107234793088,
        "distance_wrist_2_joint": 0.5283265027019639,
        "distance_wrist_3_joint": 0.2334106233960731,
        "smoothness": 0.996083811041925,
        "time": 0.537457521,
        "traj_len": 2.0725550330067413,
        "weighted_distance": 2.6779176308869164
    },
    "planner": "BFMT",
    "start": {
        "state": {
            "elbow_joint": 2.422574709923281,
            "shoulder_lift_joint": -1.3736533754116391,
            "shoulder_pan_joint": -0.33786336945926293,
            "wrist_1_joint": -1.0288603412921917,
            "wrist_2_joint": 1.2330224858903978,
            "wrist_3_joint": -3.094022268022082
        }
    },
    "waypoints": [
        {
            "positions": [
                -0.33786336945926293,
                -1.3736533754116391,
                2.422574709923281,
                -1.0288603412921917,
                1.2330224858903978,
                -3.094022268022082
            ]
        },
        {
            "positions": [
                -0.2752999923133303,
                -1.4474919173886212,
                2.4265575687837564,
                -1.1396032460811112,
                1.165882806690356,
                -3.076937991234873
            ]
        },
        {
            "positions": [
                -0.21273661516739764,
                -1.5213304593656032,
                2.4305404276442313,
                -1.2503461508700306,
                1.0987431274903143,
                -3.0598537144476636
            ]
        },
        {
            "positions": [
                -0.15017323802146498,
                -1.5951690013425852,
                2.4345232865047066,
                -1.36108905565895,
                1.0316034482902725,
                -3.0427694376604544
            ]
        },
        {
            "positions": [
                -0.08760986087553235,
                -1.6690075433195672,
                2.438506145365182,
                -1.4718319604478696,
                0.9644637690902308,
                -3.0256851608732456
            ]
        },
        {
            "positions": [
                -0.025046483729599667,
                -1.7428460852965493,
                2.442489004225657,
                -1.582574865236789,
                0.897324089890189,
                -3.0086008840860363
            ]
        },
        {
            "positions": [
                0.03751689341633299,
                -1.8166846272735313,
                2.446471863086132,
                -1.6933177700257085,
                0.8301844106901473,
                -2.991516607298827
            ]
        },
        {
            "positions": [
                0.1321006302926192,
                -1.8341082272877225,
                2.4397520861663446,
                -1.5340188851797476,
                0.8096756786601473,
                -3.0092295819987736
            ]
        },
        {
            "positions": [
                0.22668436716890542,
                -1.8515318273019137,
                2.433032309246557,
                -1.3747200003337867,
                0.7891669466301474,
                -3.02694255669872
            ]
        },
        {
            "positions": [
                0.3212681040451917,
                -1.868955427316105,
                2.4263125323267696,
                -1.2154211154878258,
                0.7686582146001475,
                -3.044655531398666
            ]
        },
        {
            "positions": [
                0.41585184092147787,
                -1.8863790273302963,
                2.419592755406982,
                -1.056122230641865,
                0.7481494825701476,
                -3.0623685060986126
            ]
        },
        {
            "positions": [
                0.5118448920353434,
                -1.8947971288352834,
                2.412030777318225,
                -0.8631363121878821,
                0.733664982776243,
                -3.08238619405629
            ]
        },
        {
            "positions": [
                0.6078379431492091,
                -1.9032152303402705,
                2.4044687992294675,
                -0.6701503937338992,
                0.7191804829823384,
                -3.1024038820139674
            ]
        },
        {
            "positions": [
                0.7038309942630747,
                -1.9116333318452576,
                2.3969068211407105,
                -0.4771644752799163,
                0.7046959831884338,
                -3.122421569971645
            ]
        }
    ]
}