{
    "goal": {
        "global_pose": {
            "orientation": {
                "w": 0.5084816217422485,
                "x": -0.49083608388900757,
                "y": 0.5182115435600281,
                "z": -0.4816462993621826
            },
            "position": {
                "x": 0.5540239810943604,
                "y": 0.030875300988554955,
                "z": 0.16403168439865112
            }
        },
        "name": "move_to_storage_A"
    },
    "id": "BFMT_move_to_storage_A_13",
    "joint_names": [
        "shoulder_pan_joint",
        "shoulder_lift_joint",
        "elbow_joint",
        "wrist_1_joint",
        "wrist_2_joint",
        "wrist_3_joint"
    ],
    "metrics": {
        "cart_traj_len": 0.35309249741786053,
        "distance_elbow_joint": 0.45116617415493865,
        "distance_shoulder_lift_joint": 0.23215820220014294,
        "distance_shoulder_pan_joint": 0.4613256817283949,
        "distance_wrist_1_joint": 0.2562006643794731,
        "distance_wrist_2_joint": 1.0990562725546895,
        "distance_wrist_3_joint": 0.10836963897532259,
        "smoothness": 4.440892098500626e-16,
        "time": 0.464650813,
        "traj_len": 1.6150159856772197,
        "weighted_distance": 2.0445715563114364
    },
    "planner": "BFMT",
    "start": {
        "state": {
            "elbow_joint": 1.9715463870305268,
            "shoulder_lift_joint": -1.1394903361783484,
            "shoulder_pan_joint": 0.12281147578464417,
            "wrist_1_joint": -0.7804599489681411,
            "wrist_2_joint": 0.12958660307563738,
            "wrist_3_joint": -3.1924946282119055
        }
    },
    "waypoints": [
        {
            "positions": [
                0.12281147578464417,
                -1.1394903361783484,
                1.9715463870305268,
                -0.7804599489681411,
                0.12958660307563738,
                -3.1924946282119055
            ]
        },
        {
            "positions": [
                0.056907806966302044,
                -1.1726557936355118,
                2.0359986976240894,
                -0.8170600438794944,
                0.28659464201202156,
                -3.1770132512154308
            ]
        },
        {
            "positions": [
                -0.008995861852040085,
                -1.205821251092675,
                2.100451008217652,
                -0.8536601387908477,
                0.4436026809484058,
                -3.1615318742189564
            ]
        },
        {
            "positions": [
                -0.0748995306703822,
                -1.2389867085498383,
                2.1649033188112146,
                -0.890260233702201,
                0.60061071988479,
                -3.1460504972224816
            ]
        },
        {
            "positions": [
                -0.14080319948872433,
                -1.2721521660070014,
                2.229355629404777,
                -0.9268603286135543,
                0.7576187588211742,
                -3.130569120226007
            ]
        },
        {
            "positions": [
                -0.20670686830706647,
                -1.3053176234641648,
                2.29380793999834,
                -0.9634604235249076,
                0.9146267977575585,
                -3.115087743229532
            ]
        },
        {
            "positions": [
                -0.27261053712540856,
                -1.338483080921328,
                2.358260250591903,
                -1.000060518436261,
                1.0716348366939425,
                -3.0996063662330577
            ]
        },
        {
            "positions": [
                -0.3385142059437507,
                -1.3716485383784913,
                2.4227125611854654,
                -1.0366606133476142,
                1.228642875630327,
                -3.084124989236583
            ]
        }
    ]
}