{
    "goal": {
        "global_pose": {
            "orientation": {
                "w": -0.00223480608172531,
                "x": 0.0024358444001904467,
                "y": 0.7094548369677653,
                "z": -0.704743149386269
            },
            "position": {
                "x": 0.6205249238014221,
                "y": -0.6371506643295288,
                "z": 0.19426114857196808
            }
        },
        "name": "move_to_magneteinheit_B"
    },
    "id": "BFMT_move_to_magneteinheit_B_3",
    "joint_names": [
        "shoulder_pan_joint",
        "shoulder_lift_joint",
        "elbow_joint",
        "wrist_1_joint",
        "wrist_2_joint",
        "wrist_3_joint"
    ],
    "metrics": {
        "cart_traj_len": 3.4788177916381966,
        "distance_elbow_joint": 4.05583722650078,
        "distance_shoulder_lift_joint": 0.5731408721980671,
        "distance_shoulder_pan_joint": 2.537166017639206,
        "distance_wrist_1_joint": 1.4668348162238103,
        "distance_wrist_2_joint": 0.6398809091036954,
        "distance_wrist_3_joint": 3.1327525323003895,
        "smoothness": 0.22950026954479455,
        "time": 1.404795168,
        "traj_len": 3.522160185733458,
        "weighted_distance": 4.558270852406011
    },
    "planner": "BFMT",
    "start": {
        "state": {
            "elbow_joint": 2.39358713078474,
            "shoulder_lift_joint": -1.908514104345545,
            "shoulder_pan_joint": 0.7066247066606129,
            "wrist_1_joint": -0.4678290933515497,
            "wrist_2_joint": 0.7096259083745334,
            "wrist_3_joint": -3.1358149277392293
        }
    },
    "waypoints": [
        {
            "positions": [
                0.7066247066606129,
                -1.908514104345545,
                2.39358713078474,
                -0.4678290933515497,
                0.7096259083745334,
                -3.1358149277392293
            ]
        },
        {
            "positions": [
                0.8193741598981239,
                -1.952769214261335,
                2.365540736054246,
                -0.36509621365611244,
                0.6956395343006363,
                -3.052818362182835
            ]
        },
        {
            "positions": [
                0.9321236131356347,
                -1.9970243241771253,
                2.3374943413237528,
                -0.26236333396067524,
                0.6816531602267393,
                -2.9698217966264404
            ]
        },
        {
            "positions": [
                1.0448730663731456,
                -2.0412794340929157,
                2.3094479465932594,
                -0.15963045426523798,
                0.6676667861528421,
                -2.8868252310700457
            ]
        },
        {
            "positions": [
                1.1576225196106567,
                -2.0855345440087056,
                2.2814015518627655,
                -0.056897574569800706,
                0.653680412078945,
                -2.8038286655136515
            ]
        },
        {
            "positions": [
                1.2323867826252364,
                -2.0947560274459835,
                2.133957735695215,
                -0.020573220468137143,
                0.6377017976599806,
                -2.7014587141513826
            ]
        },
        {
            "positions": [
                1.307151045639816,
                -2.1039775108832615,
                1.9865139195276649,
                0.01575113363352642,
                0.621723183241016,
                -2.5990887627891133
            ]
        },
        {
            "positions": [
                1.3819153086543958,
                -2.1131989943205394,
                1.8390701033601147,
                0.05207548773518999,
                0.6057445688220516,
                -2.4967188114268444
            ]
        },
        {
            "positions": [
                1.4566795716689755,
                -2.1224204777578177,
                1.6916262871925642,
                0.08839984183685354,
                0.5897659544030872,
                -2.394348860064575
            ]
        },
        {
            "positions": [
                1.5314438346835553,
                -2.1316419611950956,
                1.5441824710250138,
                0.12472419593851711,
                0.5737873399841227,
                -2.291978908702306
            ]
        },
        {
            "positions": [
                1.606208097698135,
                -2.1408634446323735,
                1.3967386548574636,
                0.16104855004018068,
                0.5578087255651583,
                -2.189608957340037
            ]
        },
        {
            "positions": [
                1.6809723607127147,
                -2.1500849280696515,
                1.2492948386899132,
                0.19737290414184427,
                0.5418301111461938,
                -2.087239005977768
            ]
        },
        {
            "positions": [
                1.7557366237272944,
                -2.1593064115069294,
                1.101851022522363,
                0.2336972582435078,
                0.5258514967272294,
                -1.9848690546154988
            ]
        },
        {
            "positions": [
                1.8305008867418742,
                -2.1685278949442077,
                0.9544072063548126,
                0.27002161234517136,
                0.5098728823082649,
                -1.8824991032532297
            ]
        },
        {
            "positions": [
                1.905265149756454,
                -2.1777493783814856,
                0.8069633901872624,
                0.3063459664468349,
                0.4938942678893004,
                -1.7801291518909605
            ]
        },
        {
            "positions": [
                1.9800294127710336,
                -2.1869708618187635,
                0.6595195740197122,
                0.3426703205484985,
                0.477915653470336,
                -1.6777592005286914
            ]
        },
        {
            "positions": [
                2.0547936757856133,
                -2.1961923452560415,
                0.5120757578521618,
                0.37899467465016207,
                0.4619370390513715,
                -1.5753892491664223
            ]
        },
        {
            "positions": [
                2.129557938800193,
                -2.2054138286933194,
                0.36463194168461155,
                0.4153190287518256,
                0.4459584246324071,
                -1.4730192978041532
            ]
        },
        {
            "positions": [
                2.204322201814773,
                -2.2146353121305973,
                0.2171881255170609,
                0.45164338285348926,
                0.42997981021344256,
                -1.370649346441884
            ]
        },
        {
            "positions": [
                2.2790864648293523,
                -2.223856795567875,
                0.06974430934951092,
                0.4879677369551527,
                0.41400119579447814,
                -1.268279395079615
            ]
        },
        {
            "positions": [
                2.3538507278439322,
                -2.2330782790051535,
                -0.0776995068180395,
                0.5242920910568163,
                0.3980225813755137,
                -1.165909443717346
            ]
        },
        {
            "positions": [
                2.428614990858512,
                -2.2422997624424315,
                -0.22514332298558992,
                0.56061644515848,
                0.3820439669565492,
                -1.0635394923550767
            ]
        },
        {
            "positions": [
                2.5033792538730917,
                -2.2515212458797094,
                -0.37258713915314035,
                0.5969407992601434,
                0.36606535253758477,
                -0.9611695409928078
            ]
        },
        {
            "positions": [
                2.578143516887671,
                -2.2607427293169873,
                -0.5200309553206903,
                0.633265153361807,
                0.35008673811862034,
                -0.8587995896305387
            ]
        },
        {
            "positions": [
                2.652907779902251,
                -2.269964212754265,
                -0.6674747714882407,
                0.6695895074634706,
                0.3341081236996558,
                -0.7564296382682696
            ]
        },
        {
            "positions": [
                2.727672042916831,
                -2.2791856961915435,
                -0.8149185876557912,
                0.7059138615651341,
                0.3181295092806914,
                -0.6540596869060002
            ]
        },
        {
            "positions": [
                2.8024363059314106,
                -2.2884071796288215,
                -0.9623624038233412,
                0.7422382156667977,
                0.30215089486172697,
                -0.5516897355437314
            ]
        },
        {
            "positions": [
                2.87720056894599,
                -2.2976286630660994,
                -1.109806219990892,
                0.7785625697684613,
                0.28617228044276244,
                -0.449319784181462
            ]
        },
        {
            "positions": [
                2.95196483196057,
                -2.3068501465033773,
                -1.257250036158442,
                0.8148869238701248,
                0.270193666023798,
                -0.3469498328191932
            ]
        },
        {
            "positions": [
                2.88734428134907,
                -2.3149887092379298,
                -1.3481715442436975,
                0.8565406367884091,
                0.3102497302282724,
                -0.2806954276761016
            ]
        },
        {
            "positions": [
                2.82272373073757,
                -2.3231272719724823,
                -1.4390930523289527,
                0.8981943497066933,
                0.3503057944327468,
                -0.21444102253301003
            ]
        },
        {
            "positions": [
                2.7581031801260694,
                -2.3312658347070343,
                -1.530014560414208,
                0.9398480626249776,
                0.39036185863722117,
                -0.14818661738991845
            ]
        },
        {
            "positions": [
                2.6934826295145693,
                -2.339404397441587,
                -1.6209360684994634,
                0.9815017755432618,
                0.43041792284169555,
                -0.08193221224682684
            ]
        },
        {
            "positions": [
                2.660138939621321,
                -2.481654976543612,
                -1.6622500957160409,
                0.9990057228722606,
                0.47064233277675804,
                -0.0030623954388411664
            ]
        }
    ]
}