{
    "goal": {
        "global_pose": {
            "orientation": {
                "w": 0.7031023502349854,
                "x": -0.7110244035720825,
                "y": 0.007748599164187908,
                "z": 0.005598929710686207
            },
            "position": {
                "x": 0.11585023208521307,
                "y": 0.44412534475326537,
                "z": 0.3711530566215515
            }
        },
        "name": "move_to_auspresseinheit_A"
    },
    "id": "BFMT_move_to_auspresseinheit_A_129",
    "joint_names": [
        "shoulder_pan_joint",
        "shoulder_lift_joint",
        "elbow_joint",
        "wrist_1_joint",
        "wrist_2_joint",
        "wrist_3_joint"
    ],
    "metrics": {
        "cart_traj_len": 2.183634164602132,
        "distance_elbow_joint": 1.4425871427404044,
        "distance_shoulder_lift_joint": 0.897732264359915,
        "distance_shoulder_pan_joint": 3.1473207036767477,
        "distance_wrist_1_joint": 0.620742464167872,
        "distance_wrist_2_joint": 0.5159211292298196,
        "distance_wrist_3_joint": 0.1678395622302813,
        "smoothness": 1.122167861366731,
        "time": 0.66597328,
        "traj_len": 2.6061740667892925,
        "weighted_distance": 2.874801903481924
    },
    "planner": "BFMT",
    "start": {
        "state": {
            "elbow_joint": 2.422574709923281,
            "shoulder_lift_joint": -1.3736533754116391,
            "shoulder_pan_joint": -0.33786336945926293,
            "wrist_1_joint": -1.0288603412921917,
            "wrist_2_joint": 1.2330224858903978,
            "wrist_3_joint": -3.094022268022082
        }
    },
    "waypoints": [
        {
            "positions": [
                -0.33786336945926293,
                -1.3736533754116391,
                2.422574709923281,
                -1.0288603412921917,
                1.2330224858903978,
                -3.094022268022082
            ]
        },
        {
            "positions": [
                -0.454699940415101,
                -1.4532864063327622,
                2.340676501704405,
                -0.9622547956817658,
                1.202543075122378,
                -3.1059439847630554
            ]
        },
        {
            "positions": [
                -0.571536511370939,
                -1.5329194372538852,
                2.2587782934855287,
                -0.8956492500713397,
                1.1720636643543583,
                -3.1178657015040283
            ]
        },
        {
            "positions": [
                -0.6883730823267771,
                -1.6125524681750083,
                2.176880085266653,
                -0.8290437044609136,
                1.1415842535863385,
                -3.1297874182450016
            ]
        },
        {
            "positions": [
                -0.8052096532826152,
                -1.6921854990961314,
                2.094981877047777,
                -0.7624381588504876,
                1.111104842818319,
                -3.141709134985975
            ]
        },
        {
            "positions": [
                -0.9220462242384533,
                -1.7718185300172546,
                2.0130836688289007,
                -0.6958326132400615,
                1.0806254320502993,
                -3.153630851726948
            ]
        },
        {
            "positions": [
                -1.0388827951942912,
                -1.8514515609383775,
                1.9311854606100247,
                -0.6292270676296355,
                1.0501460212822795,
                -3.165552568467921
            ]
        },
        {
            "positions": [
                -1.1557193661501293,
                -1.9310845918595008,
                1.8492872523911486,
                -0.5626215220192095,
                1.0196666105142598,
                -3.1774742852088944
            ]
        },
        {
            "positions": [
                -1.2725559371059674,
                -2.0107176227806236,
                1.7673890441722726,
                -0.4960159764087835,
                0.9891871997462401,
                -3.1893960019498673
            ]
        },
        {
            "positions": [
                -1.3893925080618055,
                -2.090350653701747,
                1.6854908359533964,
                -0.4294104307983574,
                0.9587077889782204,
                -3.2013177186908406
            ]
        },
        {
            "positions": [
                -1.156526778609116,
                -2.070235655249546,
                1.7638800880390098,
                -0.4317762700954727,
                0.9318626298318157,
                -3.1945905951840046
            ]
        },
        {
            "positions": [
                -0.9236610491564266,
                -2.050120656797345,
                1.842269340124623,
                -0.434142109392588,
                0.905017470685411,
                -3.187863471677169
            ]
        },
        {
            "positions": [
                -0.6907953197037371,
                -2.0300056583451447,
                1.9206585922102364,
                -0.43650794868970333,
                0.8781723115390063,
                -3.181136348170333
            ]
        },
        {
            "positions": [
                -0.4579295902510476,
                -2.009890659892944,
                1.9990478442958497,
                -0.43887378798681864,
                0.8513271523926016,
                -3.174409224663497
            ]
        },
        {
            "positions": [
                -0.22506386079835794,
                -1.989775661440743,
                2.077437096381463,
                -0.4412396272839339,
                0.8244819932461969,
                -3.1676821011566614
            ]
        },
        {
            "positions": [
                0.007801868654331301,
                -1.969660662988542,
                2.1558263484670763,
                -0.4436054665810492,
                0.7976368340997922,
                -3.1609549776498254
            ]
        },
        {
            "positions": [
                0.24066759810702099,
                -1.9495456645363411,
                2.2342156005526896,
                -0.4459713058781645,
                0.7707916749533875,
                -3.1542278541429893
            ]
        },
        {
            "positions": [
                0.4735333275597102,
                -1.9294306660841405,
                2.312604852638303,
                -0.44833714517527984,
                0.7439465158069829,
                -3.1475007306361538
            ]
        },
        {
            "positions": [
                0.7063990570124,
                -1.9093156676319396,
                2.3909941047239163,
                -0.45070298447239515,
                0.7171013566605782,
                -3.1407736071293177
            ]
        }
    ]
}