{
    "goal": {
        "global_pose": {
            "orientation": {
                "w": 0.5084816217422485,
                "x": -0.49083608388900757,
                "y": 0.5182115435600281,
                "z": -0.4816462993621826
            },
            "position": {
                "x": 0.5540239810943604,
                "y": 0.030875300988554955,
                "z": 0.16403168439865112
            }
        },
        "name": "move_to_storage_A"
    },
    "id": "BFMT_move_to_storage_A_39",
    "joint_names": [
        "shoulder_pan_joint",
        "shoulder_lift_joint",
        "elbow_joint",
        "wrist_1_joint",
        "wrist_2_joint",
        "wrist_3_joint"
    ],
    "metrics": {
        "cart_traj_len": 0.3533501666573913,
        "distance_elbow_joint": 0.45265813953785417,
        "distance_shoulder_lift_joint": 0.23119758517707978,
        "distance_shoulder_pan_joint": 0.46086897064686366,
        "distance_wrist_1_joint": 0.2598545830092235,
        "distance_wrist_2_joint": 1.1030523402125585,
        "distance_wrist_3_joint": 0.0988779148811254,
        "smoothness": 2.2204460668324854e-16,
        "time": 0.49042011100000005,
        "traj_len": 1.6144688084520882,
        "weighted_distance": 2.041365299609244
    },
    "planner": "BFMT",
    "start": {
        "state": {
            "elbow_joint": 1.9715463870305268,
            "shoulder_lift_joint": -1.1394903361783484,
            "shoulder_pan_joint": 0.12281147578464417,
            "wrist_1_joint": -0.7804599489681411,
            "wrist_2_joint": 0.12958660307563738,
            "wrist_3_joint": -3.1924946282119055
        }
    },
    "waypoints": [
        {
            "positions": [
                0.12281147578464417,
                -1.1394903361783484,
                1.9715463870305268,
                -0.7804599489681411,
                0.12958660307563738,
                -3.1924946282119055
            ]
        },
        {
            "positions": [
                0.0569730514065208,
                -1.172518562632217,
                2.0362118355359344,
                -0.817582032255173,
                0.2871655088202886,
                -3.1783692118003164
            ]
        },
        {
            "positions": [
                -0.008865372971602573,
                -1.2055467890860854,
                2.100877284041342,
                -0.8547041155422049,
                0.44474441456493974,
                -3.164243795388727
            ]
        },
        {
            "positions": [
                -0.07470379734972594,
                -1.238575015539954,
                2.16554273254675,
                -0.8918261988292369,
                0.602323320309591,
                -3.1501183789771376
            ]
        },
        {
            "positions": [
                -0.1405422217278493,
                -1.2716032419938226,
                2.2302081810521575,
                -0.9289482821162688,
                0.7599022260542422,
                -3.135992962565548
            ]
        },
        {
            "positions": [
                -0.20638064610597273,
                -1.3046314684476912,
                2.2948736295575656,
                -0.9660703654033007,
                0.9174811317988935,
                -3.121867546153959
            ]
        },
        {
            "positions": [
                -0.27221907048409605,
                -1.3376596949015596,
                2.3595390780629732,
                -1.0031924486903327,
                1.0750600375435446,
                -3.1077421297423693
            ]
        },
        {
            "positions": [
                -0.3380574948622195,
                -1.3706879213554282,
                2.424204526568381,
                -1.0403145319773646,
                1.232638943288196,
                -3.09361671333078
            ]
        }
    ]
}