{
    "goal": {
        "global_pose": {
            "orientation": {
                "w": 0.5084816217422485,
                "x": -0.49083608388900757,
                "y": 0.5182115435600281,
                "z": -0.4816462993621826
            },
            "position": {
                "x": 0.5540239810943604,
                "y": 0.030875300988554955,
                "z": 0.16403168439865112
            }
        },
        "name": "move_to_storage_A"
    },
    "id": "BFMT_move_to_storage_A_125",
    "joint_names": [
        "shoulder_pan_joint",
        "shoulder_lift_joint",
        "elbow_joint",
        "wrist_1_joint",
        "wrist_2_joint",
        "wrist_3_joint"
    ],
    "metrics": {
        "cart_traj_len": 0.3532767987813544,
        "distance_elbow_joint": 0.4484104041827415,
        "distance_shoulder_lift_joint": 0.23730192559994157,
        "distance_shoulder_pan_joint": 0.4605396363705982,
        "distance_wrist_1_joint": 0.232575572361304,
        "distance_wrist_2_joint": 1.1065142613779384,
        "distance_wrist_3_joint": 0.09165400408637003,
        "smoothness": 1.1102230298998083e-15,
        "time": 0.472922624,
        "traj_len": 1.6053024026577964,
        "weighted_distance": 2.0246959391204586
    },
    "planner": "BFMT",
    "start": {
        "state": {
            "elbow_joint": 1.9715463870305268,
            "shoulder_lift_joint": -1.1394903361783484,
            "shoulder_pan_joint": 0.12281147578464417,
            "wrist_1_joint": -0.7804599489681411,
            "wrist_2_joint": 0.12958660307563738,
            "wrist_3_joint": -3.1924946282119055
        }
    },
    "waypoints": [
        {
            "positions": [
                0.12281147578464417,
                -1.1394903361783484,
                1.9715463870305268,
                -0.7804599489681411,
                0.12958660307563738,
                -3.1924946282119055
            ]
        },
        {
            "positions": [
                0.05702009916027301,
                -1.1733906112640544,
                2.0356050161994896,
                -0.8136850307340416,
                0.28766006898677143,
                -3.1794011990567097
            ]
        },
        {
            "positions": [
                -0.008771277464098157,
                -1.2072908863497602,
                2.099663645368453,
                -0.8469101124999422,
                0.44573353489790546,
                -3.1663077699015143
            ]
        },
        {
            "positions": [
                -0.07456265408846934,
                -1.2411911614354663,
                2.163722274537416,
                -0.8801351942658427,
                0.6038070008090395,
                -3.1532143407463185
            ]
        },
        {
            "positions": [
                -0.14035403071284047,
                -1.275091436521172,
                2.227780903706379,
                -0.9133602760317434,
                0.7618804667201736,
                -3.1401209115911226
            ]
        },
        {
            "positions": [
                -0.20614540733721165,
                -1.308991711606878,
                2.291839532875342,
                -0.946585357797644,
                0.9199539326313078,
                -3.1270274824359268
            ]
        },
        {
            "positions": [
                -0.27193678396158283,
                -1.342891986692584,
                2.355898162044305,
                -0.9798104395635445,
                1.0780273985424416,
                -3.1139340532807314
            ]
        },
        {
            "positions": [
                -0.337728160585954,
                -1.37679226177829,
                2.4199567912132682,
                -1.013035521329445,
                1.2361008644535758,
                -3.1008406241255355
            ]
        }
    ]
}