{
    "goal": {
        "global_pose": {
            "orientation": {
                "w": 0.7031023502349854,
                "x": -0.7110244035720825,
                "y": 0.007748599164187908,
                "z": 0.005598929710686207
            },
            "position": {
                "x": 0.11585023208521307,
                "y": 0.44412534475326537,
                "z": 0.3711530566215515
            }
        },
        "name": "move_to_auspresseinheit_A"
    },
    "id": "BFMT_move_to_auspresseinheit_A_146",
    "joint_names": [
        "shoulder_pan_joint",
        "shoulder_lift_joint",
        "elbow_joint",
        "wrist_1_joint",
        "wrist_2_joint",
        "wrist_3_joint"
    ],
    "metrics": {
        "cart_traj_len": 0.6888436292909367,
        "distance_elbow_joint": 0.026487455107913505,
        "distance_shoulder_lift_joint": 0.5350508792747142,
        "distance_shoulder_pan_joint": 1.0435261786456356,
        "distance_wrist_1_joint": 0.5441526073616336,
        "distance_wrist_2_joint": 0.5323694179509304,
        "distance_wrist_3_joint": 0.029664322940926358,
        "smoothness": 7.89491931748053e-16,
        "time": 0.5241700180000001,
        "traj_len": 1.6465876415428828,
        "weighted_distance": 1.9614029500528876
    },
    "planner": "BFMT",
    "start": {
        "state": {
            "elbow_joint": 2.422574709923281,
            "shoulder_lift_joint": -1.3736533754116391,
            "shoulder_pan_joint": -0.33786336945926293,
            "wrist_1_joint": -1.0288603412921917,
            "wrist_2_joint": 1.2330224858903978,
            "wrist_3_joint": -3.094022268022082
        }
    },
    "waypoints": [
        {
            "positions": [
                -0.33786336945926293,
                -1.3736533754116391,
                2.422574709923281,
                -1.0288603412921917,
                1.2330224858903978,
                -3.094022268022082
            ]
        },
        {
            "positions": [
                -0.2164226780543244,
                -1.460082959289715,
                2.4195523570736097,
                -0.9616638695917709,
                1.147012365350877,
                -3.096162935424907
            ]
        },
        {
            "positions": [
                -0.09498198664938587,
                -1.5465125431677909,
                2.416530004223939,
                -0.89446739789135,
                1.0610022448113563,
                -3.0983036028277313
            ]
        },
        {
            "positions": [
                0.026458704755552676,
                -1.6329421270458668,
                2.4135076513742675,
                -0.8272709261909291,
                0.9749921242718355,
                -3.100444270230556
            ]
        },
        {
            "positions": [
                0.1478993961604912,
                -1.7193717109239426,
                2.410485298524596,
                -0.7600744544905083,
                0.8889820037323147,
                -3.102584937633381
            ]
        },
        {
            "positions": [
                0.26934008756542976,
                -1.8058012948020186,
                2.4074629456749252,
                -0.6928779827900874,
                0.8029718831927939,
                -3.1047256050362053
            ]
        },
        {
            "positions": [
                0.3907807789703683,
                -1.8922308786800945,
                2.404440592825254,
                -0.6256815110896665,
                0.7169617626532732,
                -3.10686627243903
            ]
        },
        {
            "positions": [
                0.5482217940783705,
                -1.9004675666832238,
                2.4002639238203107,
                -0.5551946225101123,
                0.7088074152963703,
                -3.1152764317010195
            ]
        },
        {
            "positions": [
                0.7056628091863726,
                -1.9087042546863533,
                2.3960872548153676,
                -0.48470773393055805,
                0.7006530679394674,
                -3.1236865909630085
            ]
        }
    ]
}