{
    "goal": {
        "global_pose": {
            "orientation": {
                "w": 0.5084816217422485,
                "x": -0.49083608388900757,
                "y": 0.5182115435600281,
                "z": -0.4816462993621826
            },
            "position": {
                "x": 0.5540239810943604,
                "y": 0.030875300988554955,
                "z": 0.16403168439865112
            }
        },
        "name": "move_to_storage_A"
    },
    "id": "BFMT_move_to_storage_A_131",
    "joint_names": [
        "shoulder_pan_joint",
        "shoulder_lift_joint",
        "elbow_joint",
        "wrist_1_joint",
        "wrist_2_joint",
        "wrist_3_joint"
    ],
    "metrics": {
        "cart_traj_len": 0.3532780176857887,
        "distance_elbow_joint": 0.45514720280337384,
        "distance_shoulder_lift_joint": 0.2346180580582875,
        "distance_shoulder_pan_joint": 0.46155466979081267,
        "distance_wrist_1_joint": 0.26196854390665647,
        "distance_wrist_2_joint": 1.1018178107186898,
        "distance_wrist_3_joint": 0.09827734339306637,
        "smoothness": 2.2204460668324854e-16,
        "time": 0.452493313,
        "traj_len": 1.616596309741825,
        "weighted_distance": 2.042969571501829
    },
    "planner": "BFMT",
    "start": {
        "state": {
            "elbow_joint": 1.9715463870305268,
            "shoulder_lift_joint": -1.1394903361783484,
            "shoulder_pan_joint": 0.12281147578464417,
            "wrist_1_joint": -0.7804599489681411,
            "wrist_2_joint": 0.12958660307563738,
            "wrist_3_joint": -3.1924946282119055
        }
    },
    "waypoints": [
        {
            "positions": [
                0.12281147578464417,
                -1.1394903361783484,
                1.9715463870305268,
                -0.7804599489681411,
                0.12958660307563738,
                -3.1924946282119055
            ]
        },
        {
            "positions": [
                0.05687509438595666,
                -1.1730072016152466,
                2.036567416002437,
                -0.817884026669092,
                0.2869891474640216,
                -3.1784550077271816
            ]
        },
        {
            "positions": [
                -0.00906128701273086,
                -1.2065240670521449,
                2.101588444974348,
                -0.8553081043700429,
                0.4443916918524059,
                -3.164415387242458
            ]
        },
        {
            "positions": [
                -0.07499766841141838,
                -1.2400409324890431,
                2.1666094739462585,
                -0.8927321820709938,
                0.6017942362407901,
                -3.150375766757734
            ]
        },
        {
            "positions": [
                -0.14093404981010588,
                -1.2735577979259411,
                2.231630502918169,
                -0.9301562597719448,
                0.7591967806291744,
                -3.1363361462730106
            ]
        },
        {
            "positions": [
                -0.20687043120879345,
                -1.3070746633628394,
                2.2966515318900793,
                -0.9675803374728957,
                0.9165993250175587,
                -3.1222965257882866
            ]
        },
        {
            "positions": [
                -0.2728068126074809,
                -1.3405915287997376,
                2.36167256086199,
                -1.0050044151738466,
                1.0740018694059428,
                -3.108256905303563
            ]
        },
        {
            "positions": [
                -0.3387431940061685,
                -1.3741083942366359,
                2.4266935898339006,
                -1.0424284928747976,
                1.2314044137943272,
                -3.094217284818839
            ]
        }
    ]
}