{
    "goal": {
        "global_pose": {
            "orientation": {
                "w": 0.5084816217422485,
                "x": -0.49083608388900757,
                "y": 0.5182115435600281,
                "z": -0.4816462993621826
            },
            "position": {
                "x": 0.5540239810943604,
                "y": 0.030875300988554955,
                "z": 0.16403168439865112
            }
        },
        "name": "move_to_storage_A"
    },
    "id": "BFMT_move_to_storage_A_43",
    "joint_names": [
        "shoulder_pan_joint",
        "shoulder_lift_joint",
        "elbow_joint",
        "wrist_1_joint",
        "wrist_2_joint",
        "wrist_3_joint"
    ],
    "metrics": {
        "cart_traj_len": 0.3531469955469457,
        "distance_elbow_joint": 0.4492738963558631,
        "distance_shoulder_lift_joint": 0.23256199880699913,
        "distance_shoulder_pan_joint": 0.45929371899428306,
        "distance_wrist_1_joint": 0.2425139247434106,
        "distance_wrist_2_joint": 1.108762303260022,
        "distance_wrist_3_joint": 0.09342295795916433,
        "smoothness": 6.661338165333112e-16,
        "time": 0.465642838,
        "traj_len": 1.6080512430018337,
        "weighted_distance": 2.0307513250128646
    },
    "planner": "BFMT",
    "start": {
        "state": {
            "elbow_joint": 1.9715463870305268,
            "shoulder_lift_joint": -1.1394903361783484,
            "shoulder_pan_joint": 0.12281147578464417,
            "wrist_1_joint": -0.7804599489681411,
            "wrist_2_joint": 0.12958660307563738,
            "wrist_3_joint": -3.1924946282119055
        }
    },
    "waypoints": [
        {
            "positions": [
                0.12281147578464417,
                -1.1394903361783484,
                1.9715463870305268,
                -0.7804599489681411,
                0.12958660307563738,
                -3.1924946282119055
            ]
        },
        {
            "positions": [
                0.05719808735688946,
                -1.1727134788650626,
                2.0357283722242214,
                -0.8151047953600569,
                0.2879812178270691,
                -3.1791484913605963
            ]
        },
        {
            "positions": [
                -0.008415301070865258,
                -1.2059366215517766,
                2.099910357417916,
                -0.8497496417519727,
                0.4463758325785008,
                -3.165802354509287
            ]
        },
        {
            "positions": [
                -0.07402868949861997,
                -1.2391597642384908,
                2.1640923426116108,
                -0.8843944881438884,
                0.6047704473299325,
                -3.152456217657978
            ]
        },
        {
            "positions": [
                -0.13964207792637467,
                -1.272382906925205,
                2.2282743278053054,
                -0.9190393345358043,
                0.7631650620813643,
                -3.139110080806669
            ]
        },
        {
            "positions": [
                -0.20525546635412945,
                -1.3056060496119193,
                2.2924563129990005,
                -0.9536841809277201,
                0.921559676832796,
                -3.1257639439553597
            ]
        },
        {
            "positions": [
                -0.2708688547818841,
                -1.3388291922986333,
                2.356638298192695,
                -0.9883290273196359,
                1.0799542915842275,
                -3.1124178071040505
            ]
        },
        {
            "positions": [
                -0.3364822432096389,
                -1.3720523349853475,
                2.42082028338639,
                -1.0229738737115517,
                1.2383489063356594,
                -3.099071670252741
            ]
        }
    ]
}