{
    "goal": {
        "global_pose": {
            "orientation": {
                "w": 0.7031023502349854,
                "x": -0.7110244035720825,
                "y": 0.007748599164187908,
                "z": 0.005598929710686207
            },
            "position": {
                "x": 0.11585023208521307,
                "y": 0.44412534475326537,
                "z": 0.3711530566215515
            }
        },
        "name": "move_to_auspresseinheit_A"
    },
    "id": "BFMT_move_to_auspresseinheit_A_3",
    "joint_names": [
        "shoulder_pan_joint",
        "shoulder_lift_joint",
        "elbow_joint",
        "wrist_1_joint",
        "wrist_2_joint",
        "wrist_3_joint"
    ],
    "metrics": {
        "cart_traj_len": 0.7192883189397509,
        "distance_elbow_joint": 0.05274264028782838,
        "distance_shoulder_lift_joint": 0.9910410865075183,
        "distance_shoulder_pan_joint": 1.0439422995024457,
        "distance_wrist_1_joint": 1.3027983730130233,
        "distance_wrist_2_joint": 0.6344173024303487,
        "distance_wrist_3_joint": 0.14977588413284915,
        "smoothness": 1.7308498833867751,
        "time": 0.7113849569999999,
        "traj_len": 2.043212565024504,
        "weighted_distance": 2.532091038960306
    },
    "planner": "BFMT",
    "start": {
        "state": {
            "elbow_joint": 2.422574709923281,
            "shoulder_lift_joint": -1.3736533754116391,
            "shoulder_pan_joint": -0.33786336945926293,
            "wrist_1_joint": -1.0288603412921917,
            "wrist_2_joint": 1.2330224858903978,
            "wrist_3_joint": -3.094022268022082
        }
    },
    "waypoints": [
        {
            "positions": [
                -0.33786336945926293,
                -1.3736533754116391,
                2.422574709923281,
                -1.0288603412921917,
                1.2330224858903978,
                -3.094022268022082
            ]
        },
        {
            "positions": [
                -0.2592645751257692,
                -1.4689929948185303,
                2.4174075799095056,
                -0.9118446749766971,
                1.1609265960155961,
                -3.0873085128058286
            ]
        },
        {
            "positions": [
                -0.18066578079227552,
                -1.5643326142254215,
                2.4122404498957297,
                -0.7948290086612025,
                1.0888307061407945,
                -3.080594757589575
            ]
        },
        {
            "positions": [
                -0.10206698645878182,
                -1.6596722336323124,
                2.4070733198819543,
                -0.677813342345708,
                1.016734816265993,
                -3.0738810023733216
            ]
        },
        {
            "positions": [
                -0.023468192125288112,
                -1.7550118530392036,
                2.4019061898681784,
                -0.5607976760302134,
                0.9446389263911914,
                -3.067167247157068
            ]
        },
        {
            "positions": [
                0.05513060220820559,
                -1.8503514724460948,
                2.396739059854403,
                -0.4437820097147187,
                0.8725430365163898,
                -3.0604534919408146
            ]
        },
        {
            "positions": [
                0.1337293965416993,
                -1.9456910918529857,
                2.3915719298406275,
                -0.32676634339922417,
                0.8004471466415882,
                -3.053739736724561
            ]
        },
        {
            "positions": [
                0.212328190875193,
                -2.041030711259877,
                2.3864047998268516,
                -0.20975067708372963,
                0.7283512567667867,
                -3.0470259815083076
            ]
        },
        {
            "positions": [
                0.29092698520868665,
                -2.136370330666768,
                2.381237669813076,
                -0.09273501076823501,
                0.656255366891985,
                -3.040312226292054
            ]
        },
        {
            "positions": [
                0.42931096682018527,
                -2.0602622869159717,
                2.3850395365389505,
                -0.2149593582645905,
                0.6754720947026304,
                -3.072334173759661
            ]
        },
        {
            "positions": [
                0.5676949484316839,
                -1.984154243165175,
                2.3888414032648253,
                -0.33718370576094603,
                0.6946888225132757,
                -3.1043561212272683
            ]
        },
        {
            "positions": [
                0.7060789300431826,
                -1.9080461994143787,
                2.3926432699906997,
                -0.4594080532573015,
                0.713905550323921,
                -3.1363780686948752
            ]
        }
    ]
}