{
    "goal": {
        "global_pose": {
            "orientation": {
                "w": 0.7031023502349854,
                "x": -0.7110244035720825,
                "y": 0.007748599164187908,
                "z": 0.005598929710686207
            },
            "position": {
                "x": 0.11585023208521307,
                "y": 0.44412534475326537,
                "z": 0.3711530566215515
            }
        },
        "name": "move_to_auspresseinheit_A"
    },
    "id": "BFMT_move_to_auspresseinheit_A_112",
    "joint_names": [
        "shoulder_pan_joint",
        "shoulder_lift_joint",
        "elbow_joint",
        "wrist_1_joint",
        "wrist_2_joint",
        "wrist_3_joint"
    ],
    "metrics": {
        "cart_traj_len": 0.9026300831034912,
        "distance_elbow_joint": 0.027975433538428796,
        "distance_shoulder_lift_joint": 0.5356186466598436,
        "distance_shoulder_pan_joint": 1.5585216104469772,
        "distance_wrist_1_joint": 1.7439879588833116,
        "distance_wrist_2_joint": 1.8761496361785173,
        "distance_wrist_3_joint": 0.16585203888243338,
        "smoothness": 1.1464782215243878,
        "time": 0.7077030280000001,
        "traj_len": 2.4306594423303136,
        "weighted_distance": 3.140055253879493
    },
    "planner": "BFMT",
    "start": {
        "state": {
            "elbow_joint": 2.422574709923281,
            "shoulder_lift_joint": -1.3736533754116391,
            "shoulder_pan_joint": -0.33786336945926293,
            "wrist_1_joint": -1.0288603412921917,
            "wrist_2_joint": 1.2330224858903978,
            "wrist_3_joint": -3.094022268022082
        }
    },
    "waypoints": [
        {
            "positions": [
                -0.33786336945926293,
                -1.3736533754116391,
                2.422574709923281,
                -1.0288603412921917,
                1.2330224858903978,
                -3.094022268022082
            ]
        },
        {
            "positions": [
                -0.37475145313179115,
                -1.4310241536547101,
                2.419093513307471,
                -1.1132735747494475,
                1.0614375645444603,
                -3.1091674667282807
            ]
        },
        {
            "positions": [
                -0.4116395368043193,
                -1.4883949318977814,
                2.415612316691661,
                -1.1976868082067034,
                0.8898526431985225,
                -3.1243126654344793
            ]
        },
        {
            "positions": [
                -0.4485276204768475,
                -1.5457657101408524,
                2.412131120075851,
                -1.2821000416639592,
                0.718267721852585,
                -3.139457864140678
            ]
        },
        {
            "positions": [
                -0.48541570414937574,
                -1.6031364883839234,
                2.4086499234600414,
                -1.3665132751212148,
                0.5466828005066474,
                -3.154603062846876
            ]
        },
        {
            "positions": [
                -0.5223037878219039,
                -1.6605072666269947,
                2.405168726844231,
                -1.4509265085784706,
                0.3750978791607098,
                -3.1697482615530745
            ]
        },
        {
            "positions": [
                -0.5591918714944322,
                -1.7178780448700657,
                2.4016875302284215,
                -1.5353397420357264,
                0.2035129578147723,
                -3.184893460259273
            ]
        },
        {
            "positions": [
                -0.5960799551669603,
                -1.7752488231131367,
                2.3982063336126114,
                -1.6197529754929822,
                0.03192803646883448,
                -3.2000386589654717
            ]
        },
        {
            "positions": [
                -0.4516016190848181,
                -1.7901402896640641,
                2.397805549476194,
                -1.49163127275048,
                0.10693416833071819,
                -3.193390253638911
            ]
        },
        {
            "positions": [
                -0.30712328300267594,
                -1.8050317562149913,
                2.397404765339776,
                -1.3635095700079776,
                0.18194030019260188,
                -3.1867418483123506
            ]
        },
        {
            "positions": [
                -0.16264494692053377,
                -1.8199232227659188,
                2.3970039812033583,
                -1.2353878672654752,
                0.2569464320544856,
                -3.1800934429857906
            ]
        },
        {
            "positions": [
                -0.01816661083839155,
                -1.834814689316846,
                2.396603197066941,
                -1.1072661645229727,
                0.3319525639163693,
                -3.17344503765923
            ]
        },
        {
            "positions": [
                0.12631172524375067,
                -1.8497061558677734,
                2.396202412930523,
                -0.9791444617804704,
                0.40695869577825305,
                -3.1667966323326695
            ]
        },
        {
            "positions": [
                0.2707900613258928,
                -1.8645976224187006,
                2.3958016287941053,
                -0.8510227590379681,
                0.4819648276401367,
                -3.160148227006109
            ]
        },
        {
            "positions": [
                0.415268397408035,
                -1.879489088969628,
                2.3954008446576878,
                -0.7229010562954656,
                0.5569709595020205,
                -3.153499821679549
            ]
        },
        {
            "positions": [
                0.5597467334901772,
                -1.8943805555205553,
                2.39500006052127,
                -0.5947793535529633,
                0.6319770913639041,
                -3.1468514163529884
            ]
        },
        {
            "positions": [
                0.7042250695723196,
                -1.9092720220714827,
                2.3945992763848523,
                -0.46665765081046107,
                0.7069832232257879,
                -3.140203011026428
            ]
        }
    ]
}