{
    "goal": {
        "global_pose": {
            "orientation": {
                "w": 0.5084816217422485,
                "x": -0.49083608388900757,
                "y": 0.5182115435600281,
                "z": -0.4816462993621826
            },
            "position": {
                "x": 0.5540239810943604,
                "y": 0.030875300988554955,
                "z": 0.16403168439865112
            }
        },
        "name": "move_to_storage_A"
    },
    "id": "BFMT_move_to_storage_A_96",
    "joint_names": [
        "shoulder_pan_joint",
        "shoulder_lift_joint",
        "elbow_joint",
        "wrist_1_joint",
        "wrist_2_joint",
        "wrist_3_joint"
    ],
    "metrics": {
        "cart_traj_len": 0.352441171589241,
        "distance_elbow_joint": 0.4484741716113452,
        "distance_shoulder_lift_joint": 0.2342057310879897,
        "distance_shoulder_pan_joint": 0.4604463327918386,
        "distance_wrist_1_joint": 0.24130133163003842,
        "distance_wrist_2_joint": 1.0987460985084645,
        "distance_wrist_3_joint": 0.08712770613420373,
        "smoothness": 1.9984014457944654e-15,
        "time": 0.485864458,
        "traj_len": 1.603215946703338,
        "weighted_distance": 2.0210403791539617
    },
    "planner": "BFMT",
    "start": {
        "state": {
            "elbow_joint": 1.9715463870305268,
            "shoulder_lift_joint": -1.1394903361783484,
            "shoulder_pan_joint": 0.12281147578464417,
            "wrist_1_joint": -0.7804599489681411,
            "wrist_2_joint": 0.12958660307563738,
            "wrist_3_joint": -3.1924946282119055
        }
    },
    "waypoints": [
        {
            "positions": [
                0.12281147578464417,
                -1.1394903361783484,
                1.9715463870305268,
                -0.7804599489681411,
                0.12958660307563738,
                -3.1924946282119055
            ]
        },
        {
            "positions": [
                0.05703342824295295,
                -1.1729482977623469,
                2.0356141258321476,
                -0.8149315677724323,
                0.28655033143398945,
                -3.1800478130498764
            ]
        },
        {
            "positions": [
                -0.00874461929873828,
                -1.2064062593463454,
                2.099681864633768,
                -0.8494031865767235,
                0.4435140597923415,
                -3.167600997887847
            ]
        },
        {
            "positions": [
                -0.0745226668404295,
                -1.2398642209303439,
                2.163749603435389,
                -0.8838748053810147,
                0.6004777881506935,
                -3.155154182725818
            ]
        },
        {
            "positions": [
                -0.14030071438212072,
                -1.2733221825143426,
                2.22781734223701,
                -0.9183464241853059,
                0.7574415165090457,
                -3.1427073675637893
            ]
        },
        {
            "positions": [
                -0.20607876192381197,
                -1.306780144098341,
                2.2918850810386306,
                -0.9528180429895972,
                0.9144052448673978,
                -3.13026055240176
            ]
        },
        {
            "positions": [
                -0.27185680946550317,
                -1.3402381056823396,
                2.355952819840251,
                -0.9872896617938882,
                1.0713689732257496,
                -3.117813737239731
            ]
        },
        {
            "positions": [
                -0.3376348570071944,
                -1.373696067266338,
                2.420020558641872,
                -1.0217612805981795,
                1.228332701584102,
                -3.105366922077702
            ]
        }
    ]
}