{
    "goal": {
        "global_pose": {
            "orientation": {
                "w": 0.5084816217422485,
                "x": -0.49083608388900757,
                "y": 0.5182115435600281,
                "z": -0.4816462993621826
            },
            "position": {
                "x": 0.5540239810943604,
                "y": 0.030875300988554955,
                "z": 0.16403168439865112
            }
        },
        "name": "move_to_storage_A"
    },
    "id": "BFMT_move_to_storage_A_148",
    "joint_names": [
        "shoulder_pan_joint",
        "shoulder_lift_joint",
        "elbow_joint",
        "wrist_1_joint",
        "wrist_2_joint",
        "wrist_3_joint"
    ],
    "metrics": {
        "cart_traj_len": 0.35254076187603206,
        "distance_elbow_joint": 0.45165714421240777,
        "distance_shoulder_lift_joint": 0.23318847465655068,
        "distance_shoulder_pan_joint": 0.4604686886781762,
        "distance_wrist_1_joint": 0.2526624593468233,
        "distance_wrist_2_joint": 1.09957890634915,
        "distance_wrist_3_joint": 0.09858441584322142,
        "smoothness": 8.881784232165597e-16,
        "time": 0.487985224,
        "traj_len": 1.6112541975387775,
        "weighted_distance": 2.03606244660343
    },
    "planner": "BFMT",
    "start": {
        "state": {
            "elbow_joint": 1.9715463870305268,
            "shoulder_lift_joint": -1.1394903361783484,
            "shoulder_pan_joint": 0.12281147578464417,
            "wrist_1_joint": -0.7804599489681411,
            "wrist_2_joint": 0.12958660307563738,
            "wrist_3_joint": -3.1924946282119055
        }
    },
    "waypoints": [
        {
            "positions": [
                0.12281147578464417,
                -1.1394903361783484,
                1.9715463870305268,
                -0.7804599489681411,
                0.12958660307563738,
                -3.1924946282119055
            ]
        },
        {
            "positions": [
                0.05703023454490472,
                -1.1728029754149984,
                2.036068836203728,
                -0.8165545860176873,
                0.2866693039826588,
                -3.1784111402343025
            ]
        },
        {
            "positions": [
                -0.008751006694834737,
                -1.2061156146516485,
                2.100591285376929,
                -0.8526492230672335,
                0.44375200488968014,
                -3.1643276522566994
            ]
        },
        {
            "positions": [
                -0.07453224793457418,
                -1.2394282538882986,
                2.16511373455013,
                -0.8887438601167796,
                0.6008347057967016,
                -3.1502441642790964
            ]
        },
        {
            "positions": [
                -0.14031348917431363,
                -1.2727408931249489,
                2.229636183723331,
                -0.9248384971663258,
                0.757917406703723,
                -3.1361606763014933
            ]
        },
        {
            "positions": [
                -0.20609473041405313,
                -1.306053532361599,
                2.2941586328965324,
                -0.960933134215872,
                0.9150001076107445,
                -3.1220771883238903
            ]
        },
        {
            "positions": [
                -0.2718759716537925,
                -1.339366171598249,
                2.3586810820697335,
                -0.9970277712654182,
                1.0720828085177658,
                -3.107993700346287
            ]
        },
        {
            "positions": [
                -0.337657212893532,
                -1.372678810834899,
                2.4232035312429345,
                -1.0331224083149644,
                1.2291655094247873,
                -3.093910212368684
            ]
        }
    ]
}