{
    "goal": {
        "global_pose": {
            "orientation": {
                "w": 0.5084816217422485,
                "x": -0.49083608388900757,
                "y": 0.5182115435600281,
                "z": -0.4816462993621826
            },
            "position": {
                "x": 0.5540239810943604,
                "y": 0.030875300988554955,
                "z": 0.16403168439865112
            }
        },
        "name": "move_to_storage_A"
    },
    "id": "BFMT_move_to_storage_A_62",
    "joint_names": [
        "shoulder_pan_joint",
        "shoulder_lift_joint",
        "elbow_joint",
        "wrist_1_joint",
        "wrist_2_joint",
        "wrist_3_joint"
    ],
    "metrics": {
        "cart_traj_len": 0.35407656759613715,
        "distance_elbow_joint": 0.44940546150412386,
        "distance_shoulder_lift_joint": 0.23358669147149458,
        "distance_shoulder_pan_joint": 0.46024386458275623,
        "distance_wrist_1_joint": 0.24308455898491876,
        "distance_wrist_2_joint": 1.112005990415767,
        "distance_wrist_3_joint": 0.09230303923371563,
        "smoothness": 4.440892133664971e-16,
        "time": 0.471698837,
        "traj_len": 1.609543291183178,
        "weighted_distance": 2.032320406348589
    },
    "planner": "BFMT",
    "start": {
        "state": {
            "elbow_joint": 1.9715463870305268,
            "shoulder_lift_joint": -1.1394903361783484,
            "shoulder_pan_joint": 0.12281147578464417,
            "wrist_1_joint": -0.7804599489681411,
            "wrist_2_joint": 0.12958660307563738,
            "wrist_3_joint": -3.1924946282119055
        }
    },
    "waypoints": [
        {
            "positions": [
                0.12281147578464417,
                -1.1394903361783484,
                1.9715463870305268,
                -0.7804599489681411,
                0.12958660307563738,
                -3.1924946282119055
            ]
        },
        {
            "positions": [
                0.05706235227282186,
                -1.1728598635314191,
                2.0357471672454017,
                -0.8151863145374152,
                0.28844460170646125,
                -3.1793084797499462
            ]
        },
        {
            "positions": [
                -0.008686771239000454,
                -1.2062293908844897,
                2.0999479474602762,
                -0.8499126801066893,
                0.4473026003372851,
                -3.166122331287987
            ]
        },
        {
            "positions": [
                -0.07443589475082278,
                -1.2395989182375604,
                2.164148727675151,
                -0.8846390456759634,
                0.6061605989681089,
                -3.1529361828260276
            ]
        },
        {
            "positions": [
                -0.14018501826264507,
                -1.272968445590631,
                2.228349507890026,
                -0.9193654112452375,
                0.7650185975989329,
                -3.139750034364068
            ]
        },
        {
            "positions": [
                -0.2059341417744674,
                -1.3063379729437017,
                2.292550288104901,
                -0.9540917768145116,
                0.9238765962297568,
                -3.1265638859021085
            ]
        },
        {
            "positions": [
                -0.2716832652862897,
                -1.3397075002967722,
                2.3567510683197757,
                -0.9888181423837857,
                1.0827345948605804,
                -3.1133777374401492
            ]
        },
        {
            "positions": [
                -0.33743238879811205,
                -1.373077027649843,
                2.4209518485346506,
                -1.0235445079530598,
                1.2415925934914045,
                -3.10019158897819
            ]
        }
    ]
}