{
    "goal": {
        "global_pose": {
            "orientation": {
                "w": 0.5084816217422485,
                "x": -0.49083608388900757,
                "y": 0.5182115435600281,
                "z": -0.4816462993621826
            },
            "position": {
                "x": 0.5540239810943604,
                "y": 0.030875300988554955,
                "z": 0.16403168439865112
            }
        },
        "name": "move_to_storage_A"
    },
    "id": "BFMT_move_to_storage_A_33",
    "joint_names": [
        "shoulder_pan_joint",
        "shoulder_lift_joint",
        "elbow_joint",
        "wrist_1_joint",
        "wrist_2_joint",
        "wrist_3_joint"
    ],
    "metrics": {
        "cart_traj_len": 0.353158359615605,
        "distance_elbow_joint": 0.4485891080205442,
        "distance_shoulder_lift_joint": 0.23444210169919533,
        "distance_shoulder_pan_joint": 0.45791350113412943,
        "distance_wrist_1_joint": 0.23583846706236622,
        "distance_wrist_2_joint": 1.1157450320315516,
        "distance_wrist_3_joint": 0.08620358945432649,
        "smoothness": 4.440892098500626e-16,
        "time": 0.513394452,
        "traj_len": 1.6058430182935421,
        "weighted_distance": 2.025517829446259
    },
    "planner": "BFMT",
    "start": {
        "state": {
            "elbow_joint": 1.9715463870305268,
            "shoulder_lift_joint": -1.1394903361783484,
            "shoulder_pan_joint": 0.12281147578464417,
            "wrist_1_joint": -0.7804599489681411,
            "wrist_2_joint": 0.12958660307563738,
            "wrist_3_joint": -3.1924946282119055
        }
    },
    "waypoints": [
        {
            "positions": [
                0.12281147578464417,
                -1.1394903361783484,
                1.9715463870305268,
                -0.7804599489681411,
                0.12958660307563738,
                -3.1924946282119055
            ]
        },
        {
            "positions": [
                0.057395261336911405,
                -1.1729820649925191,
                2.035630545319176,
                -0.8141511585484791,
                0.2889787505087162,
                -3.1801798297184303
            ]
        },
        {
            "positions": [
                -0.008020953110821363,
                -1.2064737938066898,
                2.099714703607825,
                -0.8478423681288172,
                0.44837089794179497,
                -3.167865031224955
            ]
        },
        {
            "positions": [
                -0.07343716755855413,
                -1.2399655226208606,
                2.163798861896474,
                -0.8815335777091552,
                0.6077630453748738,
                -3.1555502327314797
            ]
        },
        {
            "positions": [
                -0.13885338200628689,
                -1.2734572514350315,
                2.227883020185123,
                -0.9152247872894932,
                0.7671551928079526,
                -3.143235434238005
            ]
        },
        {
            "positions": [
                -0.2042695964540197,
                -1.3069489802492023,
                2.2919671784737727,
                -0.9489159968698313,
                0.9265473402410315,
                -3.1309206357445296
            ]
        },
        {
            "positions": [
                -0.2696858109017524,
                -1.340440709063373,
                2.356051336762422,
                -0.9826072064501692,
                1.0859394876741102,
                -3.1186058372510543
            ]
        },
        {
            "positions": [
                -0.33510202534948524,
                -1.3739324378775437,
                2.420135495051071,
                -1.0162984160305073,
                1.245331635107189,
                -3.106291038757579
            ]
        }
    ]
}