{
    "goal": {
        "global_pose": {
            "orientation": {
                "w": 0.7031023502349854,
                "x": -0.7110244035720825,
                "y": 0.007748599164187908,
                "z": 0.005598929710686207
            },
            "position": {
                "x": 0.11585023208521307,
                "y": 0.44412534475326537,
                "z": 0.3711530566215515
            }
        },
        "name": "move_to_auspresseinheit_A"
    },
    "id": "BFMT_move_to_auspresseinheit_A_45",
    "joint_names": [
        "shoulder_pan_joint",
        "shoulder_lift_joint",
        "elbow_joint",
        "wrist_1_joint",
        "wrist_2_joint",
        "wrist_3_joint"
    ],
    "metrics": {
        "cart_traj_len": 1.142579799958107,
        "distance_elbow_joint": 0.3323784511511767,
        "distance_shoulder_lift_joint": 0.5328905875906471,
        "distance_shoulder_pan_joint": 1.7378544628768777,
        "distance_wrist_1_joint": 0.5782705325940749,
        "distance_wrist_2_joint": 0.516171228894935,
        "distance_wrist_3_joint": 0.09706974352162678,
        "smoothness": 1.2317157518248893,
        "time": 0.702257491,
        "traj_len": 1.9479822911488025,
        "weighted_distance": 2.254598912259474
    },
    "planner": "BFMT",
    "start": {
        "state": {
            "elbow_joint": 2.422574709923281,
            "shoulder_lift_joint": -1.3736533754116391,
            "shoulder_pan_joint": -0.33786336945926293,
            "wrist_1_joint": -1.0288603412921917,
            "wrist_2_joint": 1.2330224858903978,
            "wrist_3_joint": -3.094022268022082
        }
    },
    "waypoints": [
        {
            "positions": [
                -0.33786336945926293,
                -1.3736533754116391,
                2.422574709923281,
                -1.0288603412921917,
                1.2330224858903978,
                -3.094022268022082
            ]
        },
        {
            "positions": [
                -0.45298803074682426,
                -1.4106304571903145,
                2.361527797201454,
                -0.9218606498575683,
                1.21506686458295,
                -3.0852606044853945
            ]
        },
        {
            "positions": [
                -0.5681126920343856,
                -1.4476075389689902,
                2.300480884479627,
                -0.8148609584229449,
                1.1971112432755022,
                -3.0764989409487065
            ]
        },
        {
            "positions": [
                -0.683237353321947,
                -1.4845846207476656,
                2.2394339717578,
                -0.7078612669883214,
                1.1791556219680546,
                -3.067737277412019
            ]
        },
        {
            "positions": [
                -0.4843115706056337,
                -1.54486452678404,
                2.2607536450414707,
                -0.6711082015182922,
                1.1131121412576843,
                -3.0778493849708135
            ]
        },
        {
            "positions": [
                -0.2853857878893203,
                -1.6051444328204143,
                2.282073318325142,
                -0.634355136048263,
                1.047068660547314,
                -3.0879614925296086
            ]
        },
        {
            "positions": [
                -0.08646000517300689,
                -1.6654243388567886,
                2.3033929916088125,
                -0.5976020705782337,
                0.9810251798369438,
                -3.0980736000884033
            ]
        },
        {
            "positions": [
                0.11246577754330644,
                -1.725704244893163,
                2.324712664892483,
                -0.5608490051082045,
                0.9149816991265736,
                -3.108185707647198
            ]
        },
        {
            "positions": [
                0.3113915602596199,
                -1.7859841509295376,
                2.346032338176154,
                -0.5240959396381752,
                0.8489382184162032,
                -3.1182978152059926
            ]
        },
        {
            "positions": [
                0.5103173429759332,
                -1.846264056965912,
                2.367352011459825,
                -0.48734287416814603,
                0.7828947377058331,
                -3.1284099227647877
            ]
        },
        {
            "positions": [
                0.7092431256922466,
                -1.9065439630022862,
                2.3886716847434957,
                -0.45058980869811677,
                0.7168512569954627,
                -3.1385220303235823
            ]
        }
    ]
}