{
    "goal": {
        "global_pose": {
            "orientation": {
                "w": 0.7047431468963623,
                "x": -0.7094548344612122,
                "y": 0.0024358443915843964,
                "z": -0.0022348060738295317
            },
            "position": {
                "x": 0.6094750761985779,
                "y": 0.3671506643295288,
                "z": 0.19426114857196808
            }
        },
        "name": "move_to_magneteinheit_A"
    },
    "id": "BFMT_move_to_magneteinheit_A_27",
    "joint_names": [
        "shoulder_pan_joint",
        "shoulder_lift_joint",
        "elbow_joint",
        "wrist_1_joint",
        "wrist_2_joint",
        "wrist_3_joint"
    ],
    "metrics": {
        "cart_traj_len": 1.8792446451675158,
        "distance_elbow_joint": 3.9096526752189855,
        "distance_shoulder_lift_joint": 0.6991602498280581,
        "distance_shoulder_pan_joint": 1.2428463249598485,
        "distance_wrist_1_joint": 1.4901137225457861,
        "distance_wrist_2_joint": 1.700036289031558,
        "distance_wrist_3_joint": 1.1098081382335045,
        "smoothness": 4.276414619397388e-16,
        "time": 0.619822467,
        "traj_len": 3.1861602909799975,
        "weighted_distance": 3.9447919701629504
    },
    "planner": "BFMT",
    "start": {
        "state": {
            "elbow_joint": -1.919643507792019,
            "shoulder_lift_joint": -0.07675430207160344,
            "shoulder_pan_joint": -1.1188671864651873,
            "wrist_1_joint": 0.42560062535961957,
            "wrist_2_joint": 1.5706038300724876,
            "wrist_3_joint": 1.1188968870953055
        }
    },
    "waypoints": [
        {
            "positions": [
                -1.1188671864651873,
                -0.07675430207160344,
                -1.919643507792019,
                0.42560062535961957,
                1.5706038300724876,
                1.1188968870953055
            ]
        },
        {
            "positions": [
                -1.0710654047359625,
                -0.10364508091114415,
                -1.7692722510528274,
                0.48291269161138056,
                1.5052178189558891,
                1.0762119587017092
            ]
        },
        {
            "positions": [
                -1.0232636230067373,
                -0.13053585975068485,
                -1.6189009943136354,
                0.5402247578631416,
                1.4398318078392909,
                1.0335270303081128
            ]
        },
        {
            "positions": [
                -0.9754618412775125,
                -0.15742663859022554,
                -1.468529737574444,
                0.5975368241149026,
                1.3744457967226924,
                0.9908421019145166
            ]
        },
        {
            "positions": [
                -0.9276600595482876,
                -0.18431741742976626,
                -1.318158480835252,
                0.6548488903666636,
                1.3090597856060942,
                0.9481571735209202
            ]
        },
        {
            "positions": [
                -0.8798582778190627,
                -0.21120819626930695,
                -1.1677872240960603,
                0.7121609566184246,
                1.2436737744894957,
                0.9054722451273238
            ]
        },
        {
            "positions": [
                -0.8320564960898377,
                -0.23809897510884767,
                -1.0174159673568686,
                0.7694730228701856,
                1.1782877633728974,
                0.8627873167337275
            ]
        },
        {
            "positions": [
                -0.7842547143606128,
                -0.2649897539483883,
                -0.8670447106176769,
                0.8267850891219466,
                1.112901752256299,
                0.8201023883401313
            ]
        },
        {
            "positions": [
                -0.7364529326313878,
                -0.2918805327879291,
                -0.7166734538784849,
                0.8840971553737076,
                1.0475157411397005,
                0.7774174599465349
            ]
        },
        {
            "positions": [
                -0.6886511509021629,
                -0.31877131162746974,
                -0.5663021971392934,
                0.9414092216254686,
                0.9821297300231022,
                0.7347325315529386
            ]
        },
        {
            "positions": [
                -0.6408493691729379,
                -0.34566209046701046,
                -0.4159309404001015,
                0.9987212878772296,
                0.9167437189065037,
                0.6920476031593422
            ]
        },
        {
            "positions": [
                -0.593047587443713,
                -0.3725528693065512,
                -0.26555968366090976,
                1.0560333541289906,
                0.8513577077899054,
                0.6493626747657459
            ]
        },
        {
            "positions": [
                -0.545245805714488,
                -0.3994436481460919,
                -0.11518842692171805,
                1.1133454203807516,
                0.785971696673307,
                0.6066777463721496
            ]
        },
        {
            "positions": [
                -0.4974440239852631,
                -0.42633442698563256,
                0.03518282981747367,
                1.1706574866325126,
                0.7205856855567087,
                0.5639928179785533
            ]
        },
        {
            "positions": [
                -0.4496422422560382,
                -0.4532252058251732,
                0.1855540865566654,
                1.2279695528842736,
                0.6551996744401103,
                0.521307889584957
            ]
        },
        {
            "positions": [
                -0.4018404605268133,
                -0.48011598466471395,
                0.3359253432958569,
                1.2852816191360346,
                0.5898136633235119,
                0.4786229611913607
            ]
        },
        {
            "positions": [
                -0.3540386787975882,
                -0.5070067635042548,
                0.48629660003504926,
                1.3425936853877958,
                0.5244276522069136,
                0.4359380327977642
            ]
        },
        {
            "positions": [
                -0.3062368970683633,
                -0.5338975423437954,
                0.6366678567742408,
                1.3999057516395566,
                0.4590416410903151,
                0.39325310440416794
            ]
        },
        {
            "positions": [
                -0.25843511533913843,
                -0.560788321183336,
                0.7870391135134323,
                1.4572178178913178,
                0.39365562997371684,
                0.35056817601057166
            ]
        },
        {
            "positions": [
                -0.21063333360991354,
                -0.5876791000228767,
                0.9374103702526242,
                1.5145298841430785,
                0.32826961885711836,
                0.3078832476169754
            ]
        },
        {
            "positions": [
                -0.16283155188068843,
                -0.6145698788624174,
                1.0877816269918161,
                1.5718419503948398,
                0.2628836077405199,
                0.2651983192233789
            ]
        },
        {
            "positions": [
                -0.11502977015146354,
                -0.6414606577019581,
                1.2381528837310076,
                1.6291540166466008,
                0.19749759662392163,
                0.2225133908297826
            ]
        },
        {
            "positions": [
                -0.06722798842223865,
                -0.6683514365414989,
                1.3885241404701996,
                1.6864660828983618,
                0.13211158550732316,
                0.17982846243618633
            ]
        },
        {
            "positions": [
                -0.01942620669301376,
                -0.6952422153810396,
                1.538895397209391,
                1.7437781491501227,
                0.0667255743907249,
                0.13714353404259005
            ]
        },
        {
            "positions": [
                0.028375575036211353,
                -0.7221329942205803,
                1.689266653948583,
                1.8010902154018837,
                0.0013395632741264318,
                0.09445860564899355
            ]
        },
        {
            "positions": [
                0.07617735676543624,
                -0.749023773060121,
                1.839637910687775,
                1.8584022816536447,
                -0.06404644784247204,
                0.05177367725539739
            ]
        },
        {
            "positions": [
                0.1239791384946611,
                -0.7759145518996616,
                1.9900091674269664,
                1.9157143479054057,
                -0.12943245895907032,
                0.009088748861801051
            ]
        }
    ]
}