{
    "goal": {
        "global_pose": {
            "orientation": {
                "w": 0.7031023502349854,
                "x": -0.7110244035720825,
                "y": 0.007748599164187908,
                "z": 0.005598929710686207
            },
            "position": {
                "x": 0.11585023208521307,
                "y": 0.44412534475326537,
                "z": 0.3711530566215515
            }
        },
        "name": "move_to_auspresseinheit_A"
    },
    "id": "BFMT_move_to_auspresseinheit_A_100",
    "joint_names": [
        "shoulder_pan_joint",
        "shoulder_lift_joint",
        "elbow_joint",
        "wrist_1_joint",
        "wrist_2_joint",
        "wrist_3_joint"
    ],
    "metrics": {
        "cart_traj_len": 4.7917683644789095,
        "distance_elbow_joint": 3.2978037133012443,
        "distance_shoulder_lift_joint": 1.5956754985660584,
        "distance_shoulder_pan_joint": 6.394856817657069,
        "distance_wrist_1_joint": 6.98003983927578,
        "distance_wrist_2_joint": 5.788511461529426,
        "distance_wrist_3_joint": 6.370425791806765,
        "smoothness": 0.4219276161532478,
        "time": 0.652881607,
        "traj_len": 5.516095822421536,
        "weighted_distance": 7.479085238620769
    },
    "planner": "BFMT",
    "start": {
        "state": {
            "elbow_joint": 2.422574709923281,
            "shoulder_lift_joint": -1.3736533754116391,
            "shoulder_pan_joint": -0.33786336945926293,
            "wrist_1_joint": -1.0288603412921917,
            "wrist_2_joint": 1.2330224858903978,
            "wrist_3_joint": -3.094022268022082
        }
    },
    "waypoints": [
        {
            "positions": [
                -0.33786336945926293,
                -1.3736533754116391,
                2.422574709923281,
                -1.0288603412921917,
                1.2330224858903978,
                -3.094022268022082
            ]
        },
        {
            "positions": [
                -0.38666424529514803,
                -1.3790959044391762,
                2.357650959122568,
                -0.9300729255553561,
                1.162885728665861,
                -3.0043960356616735
            ]
        },
        {
            "positions": [
                -0.43546512113103314,
                -1.3845384334667132,
                2.2927272083218546,
                -0.8312855098185206,
                1.0927489714413239,
                -2.9147698033012652
            ]
        },
        {
            "positions": [
                -0.4842659969669183,
                -1.3899809624942503,
                2.2278034575211416,
                -0.732498094081685,
                1.022612214216787,
                -2.8251435709408566
            ]
        },
        {
            "positions": [
                -0.5330668728028034,
                -1.3954234915217874,
                2.162879706720428,
                -0.6337106783448494,
                0.95247545699225,
                -2.735517338580448
            ]
        },
        {
            "positions": [
                -0.5818677486386885,
                -1.4008660205493244,
                2.097955955919715,
                -0.5349232626080138,
                0.8823386997677132,
                -2.645891106220039
            ]
        },
        {
            "positions": [
                -0.6306686244745736,
                -1.4063085495768615,
                2.033032205119002,
                -0.43613584687117835,
                0.8122019425431762,
                -2.5562648738596305
            ]
        },
        {
            "positions": [
                -0.6794695003104587,
                -1.4117510786043985,
                1.9681084543182887,
                -0.33734843113434276,
                0.7420651853186393,
                -2.4666386414992223
            ]
        },
        {
            "positions": [
                -0.7282703761463438,
                -1.4171936076319356,
                1.9031847035175757,
                -0.23856101539750718,
                0.6719284280941024,
                -2.3770124091388136
            ]
        },
        {
            "positions": [
                -0.7770712519822289,
                -1.4226361366594726,
                1.8382609527168623,
                -0.1397735996606716,
                0.6017916708695655,
                -2.287386176778405
            ]
        },
        {
            "positions": [
                -0.825872127818114,
                -1.4280786656870097,
                1.7733372019161493,
                -0.04098618392383602,
                0.5316549136450286,
                -2.1977599444179967
            ]
        },
        {
            "positions": [
                -0.8746730036539991,
                -1.4335211947145468,
                1.7084134511154359,
                0.057801231812999676,
                0.46151815642049154,
                -2.1081337120575876
            ]
        },
        {
            "positions": [
                -0.9234738794898842,
                -1.4389637237420838,
                1.6434897003147229,
                0.15658864754983504,
                0.3913813991959547,
                -2.0185074796971794
            ]
        },
        {
            "positions": [
                -0.9722747553257693,
                -1.4444062527696209,
                1.5785659495140094,
                0.25537606328667084,
                0.3212446419714178,
                -1.9288812473367707
            ]
        },
        {
            "positions": [
                -1.0210756311616545,
                -1.449848781797158,
                1.5136421987132964,
                0.3541634790235062,
                0.25110788474688084,
                -1.8392550149763622
            ]
        },
        {
            "positions": [
                -1.0698765069975398,
                -1.455291310824695,
                1.4487184479125832,
                0.4529508947603418,
                0.1809711275223438,
                -1.7496287826159536
            ]
        },
        {
            "positions": [
                -1.1186773828334247,
                -1.460733839852232,
                1.3837946971118702,
                0.5517383104971774,
                0.11083437029780696,
                -1.660002550255545
            ]
        },
        {
            "positions": [
                -1.16747825866931,
                -1.466176368879769,
                1.3188709463111568,
                0.650525726234013,
                0.040697613073270134,
                -1.5703763178951364
            ]
        },
        {
            "positions": [
                -1.2162791345051949,
                -1.4716188979073062,
                1.2539471955104438,
                0.7493131419708485,
                -0.029439144151266694,
                -1.480750085534728
            ]
        },
        {
            "positions": [
                -1.2650800103410802,
                -1.4770614269348432,
                1.1890234447097305,
                0.8481005577076841,
                -0.09957590137580374,
                -1.3911238531743193
            ]
        },
        {
            "positions": [
                -1.313880886176965,
                -1.4825039559623803,
                1.1240996939090173,
                0.9468879734445197,
                -0.16971265860034057,
                -1.3014976208139108
            ]
        },
        {
            "positions": [
                -1.3626817620128504,
                -1.4879464849899173,
                1.059175943108304,
                1.0456753891813553,
                -0.23984941582487773,
                -1.2118713884535022
            ]
        },
        {
            "positions": [
                -1.4543812625628698,
                -1.458488634176818,
                1.0960447323539997,
                1.1395561412789832,
                -0.3333786996116667,
                -1.241788444842698
            ]
        },
        {
            "positions": [
                -1.546080763112889,
                -1.4290307833637186,
                1.1329135215996953,
                1.2334368933766113,
                -0.4269079833984557,
                -1.2717055012318936
            ]
        },
        {
            "positions": [
                -1.6377802636629084,
                -1.3995729325506192,
                1.1697823108453906,
                1.3273176454742392,
                -0.5204372671852447,
                -1.3016225576210894
            ]
        },
        {
            "positions": [
                -1.7294797642129276,
                -1.3701150817375198,
                1.2066511000910862,
                1.4211983975718672,
                -0.6139665509720338,
                -1.331539614010285
            ]
        },
        {
            "positions": [
                -1.821179264762947,
                -1.3406572309244205,
                1.2435198893367818,
                1.5150791496694953,
                -0.7074958347588227,
                -1.3614566703994808
            ]
        },
        {
            "positions": [
                -1.9128787653129664,
                -1.311199380111321,
                1.2803886785824774,
                1.6089599017671232,
                -0.8010251185456118,
                -1.3913737267886765
            ]
        },
        {
            "positions": [
                -2.004578265862986,
                -1.2817415292982217,
                1.3172574678281728,
                1.7028406538647514,
                -0.8945544023324008,
                -1.4212907831778723
            ]
        },
        {
            "positions": [
                -2.096277766413005,
                -1.2522836784851223,
                1.3541262570738684,
                1.796721405962379,
                -0.9880836861191897,
                -1.451207839567068
            ]
        },
        {
            "positions": [
                -2.187977266963024,
                -1.2228258276720227,
                1.390995046319564,
                1.8906021580600072,
                -1.0816129699059789,
                -1.4811248959562637
            ]
        },
        {
            "positions": [
                -2.2796767675130436,
                -1.1933679768589234,
                1.4278638355652595,
                1.9844829101576353,
                -1.1751422536927678,
                -1.5110419523454595
            ]
        },
        {
            "positions": [
                -2.371376268063063,
                -1.163910126045824,
                1.4647326248109551,
                2.0783636622552635,
                -1.2686715374795567,
                -1.5409590087346554
            ]
        },
        {
            "positions": [
                -2.4630757686130824,
                -1.1344522752327246,
                1.5016014140566505,
                2.172244414352891,
                -1.3622008212663457,
                -1.570876065123851
            ]
        },
        {
            "positions": [
                -2.554775269163102,
                -1.1049944244196253,
                1.538470203302346,
                2.266125166450519,
                -1.4557301050531346,
                -1.6007931215130469
            ]
        },
        {
            "positions": [
                -2.6464747697131212,
                -1.0755365736065259,
                1.5753389925480417,
                2.360005918548147,
                -1.549259388839924,
                -1.6307101779022426
            ]
        },
        {
            "positions": [
                -2.7381742702631406,
                -1.0460787227934265,
                1.6122077817937372,
                2.453886670645775,
                -1.642788672626713,
                -1.6606272342914383
            ]
        },
        {
            "positions": [
                -2.8298737708131596,
                -1.0166208719803271,
                1.6490765710394326,
                2.5477674227434033,
                -1.7363179564135018,
                -1.690544290680634
            ]
        },
        {
            "positions": [
                -2.921573271363179,
                -0.9871630211672278,
                1.6859453602851282,
                2.641648174841031,
                -1.8298472402002908,
                -1.7204613470698298
            ]
        },
        {
            "positions": [
                -3.0132727719131984,
                -0.9577051703541284,
                1.7228141495308238,
                2.735528926938659,
                -1.9233765239870797,
                -1.7503784034590255
            ]
        },
        {
            "positions": [
                -2.9649292666991465,
                -0.9619443505638348,
                1.797570216813268,
                2.611987533903806,
                -1.9052444437237588,
                -1.65136975195702
            ]
        },
        {
            "positions": [
                -2.9165857614850945,
                -0.9661835307735412,
                1.872326284095712,
                2.4884461408689535,
                -1.8871123634604376,
                -1.5523611004550149
            ]
        },
        {
            "positions": [
                -2.868242256271043,
                -0.9704227109832476,
                1.947082351378156,
                2.3649047478341005,
                -1.8689802831971167,
                -1.4533524489530094
            ]
        },
        {
            "positions": [
                -2.819898751056991,
                -0.974661891192954,
                2.0218384186606,
                2.241363354799248,
                -1.8508482029337956,
                -1.354343797451004
            ]
        },
        {
            "positions": [
                -2.771555245842939,
                -0.9789010714026605,
                2.0965944859430445,
                2.117821961764395,
                -1.8327161226704747,
                -1.2553351459489988
            ]
        },
        {
            "positions": [
                -2.723211740628887,
                -0.9831402516123668,
                2.1713505532254884,
                1.9942805687295424,
                -1.8145840424071538,
                -1.156326494446993
            ]
        },
        {
            "positions": [
                -2.6748682354148356,
                -0.9873794318220732,
                2.2461066205079327,
                1.8707391756946894,
                -1.7964519621438326,
                -1.0573178429449879
            ]
        },
        {
            "positions": [
                -2.6265247302007837,
                -0.9916186120317796,
                2.3208626877903766,
                1.7471977826598366,
                -1.7783198818805117,
                -0.9583091914429825
            ]
        },
        {
            "positions": [
                -2.5781812249867317,
                -0.9958577922414861,
                2.395618755072821,
                1.6236563896249838,
                -1.7601878016171906,
                -0.8593005399409772
            ]
        },
        {
            "positions": [
                -2.52983771977268,
                -1.0000969724511926,
                2.4703748223552653,
                1.500114996590131,
                -1.7420557213538697,
                -0.7602918884389718
            ]
        },
        {
            "positions": [
                -2.4814942145586283,
                -1.004336152660899,
                2.545130889637709,
                1.3765736035552782,
                -1.7239236410905487,
                -0.6612832369369663
            ]
        },
        {
            "positions": [
                -2.4331507093445763,
                -1.0085753328706053,
                2.619886956920153,
                1.2530322105204255,
                -1.7057915608272276,
                -0.5622745854349609
            ]
        },
        {
            "positions": [
                -2.3848072041305244,
                -1.0128145130803117,
                2.6946430242025974,
                1.1294908174855727,
                -1.6876594805639067,
                -0.4632659339329557
            ]
        },
        {
            "positions": [
                -2.2744149952940793,
                -1.0448156463526619,
                2.6839666718671698,
                1.072004658143007,
                -1.602073930270022,
                -0.5583607706367625
            ]
        },
        {
            "positions": [
                -2.1640227864576347,
                -1.0768167796250123,
                2.673290319531742,
                1.014518498800441,
                -1.5164883799761373,
                -0.6534556073405693
            ]
        },
        {
            "positions": [
                -2.0536305776211896,
                -1.1088179128973625,
                2.6626139671963145,
                0.9570323394578752,
                -1.4309028296822526,
                -0.7485504440443761
            ]
        },
        {
            "positions": [
                -1.9432383687847448,
                -1.1408190461697127,
                2.651937614860887,
                0.8995461801153094,
                -1.3453172793883676,
                -0.8436452807481829
            ]
        },
        {
            "positions": [
                -1.8328461599483,
                -1.1728201794420632,
                2.6412612625254592,
                0.8420600207727436,
                -1.259731729094483,
                -0.9387401174519897
            ]
        },
        {
            "positions": [
                -1.7224539511118548,
                -1.2048213127144134,
                2.6305849101900316,
                0.7845738614301777,
                -1.1741461788005982,
                -1.0338349541557965
            ]
        },
        {
            "positions": [
                -1.61206174227541,
                -1.2368224459867636,
                2.619908557854604,
                0.7270877020876119,
                -1.0885606285067135,
                -1.1289297908596034
            ]
        },
        {
            "positions": [
                -1.5016695334389651,
                -1.2688235792591138,
                2.6092322055191763,
                0.6696015427450461,
                -1.0029750782128288,
                -1.2240246275634101
            ]
        },
        {
            "positions": [
                -1.39127732460252,
                -1.3008247125314643,
                2.5985558531837487,
                0.6121153834024802,
                -0.917389527918944,
                -1.319119464267217
            ]
        },
        {
            "positions": [
                -1.2808851157660752,
                -1.3328258458038145,
                2.587879500848321,
                0.5546292240599143,
                -0.8318039776250593,
                -1.4142143009710237
            ]
        },
        {
            "positions": [
                -1.1704929069296304,
                -1.364826979076165,
                2.5772031485128934,
                0.4971430647173486,
                -0.7462184273311746,
                -1.5093091376748304
            ]
        },
        {
            "positions": [
                -1.0601006980931855,
                -1.3968281123485151,
                2.566526796177466,
                0.43965690537478275,
                -0.66063287703729,
                -1.6044039743786374
            ]
        },
        {
            "positions": [
                -0.9497084892567405,
                -1.4288292456208653,
                2.555850443842038,
                0.3821707460322169,
                -0.5750473267434051,
                -1.6994988110824443
            ]
        },
        {
            "positions": [
                -0.8393162804202956,
                -1.4608303788932155,
                2.5451740915066106,
                0.32468458668965106,
                -0.4894617764495204,
                -1.794593647786251
            ]
        },
        {
            "positions": [
                -0.7289240715838508,
                -1.492831512165566,
                2.5344977391711834,
                0.2671984273470852,
                -0.4038762261556357,
                -1.8896884844900577
            ]
        },
        {
            "positions": [
                -0.6185318627474059,
                -1.5248326454379162,
                2.5238213868357557,
                0.20971226800451948,
                -0.31829067586175097,
                -1.9847833211938646
            ]
        },
        {
            "positions": [
                -0.508139653910961,
                -1.5568337787102666,
                2.513145034500328,
                0.15222610866195363,
                -0.23270512556786627,
                -2.0798781578976713
            ]
        },
        {
            "positions": [
                -0.39774744507451576,
                -1.5888349119826168,
                2.5024686821649005,
                0.09473994931938767,
                -0.14711957527398134,
                -2.1749729946014784
            ]
        },
        {
            "positions": [
                -0.28735523623807113,
                -1.620836045254967,
                2.491792329829473,
                0.03725378997682194,
                -0.061534024980096635,
                -2.270067831305285
            ]
        },
        {
            "positions": [
                -0.17696302740162606,
                -1.6528371785273173,
                2.481115977494045,
                -0.02023236936574402,
                0.02405152531378807,
                -2.365162668009092
            ]
        },
        {
            "positions": [
                -0.06657081856518143,
                -1.6848383117996677,
                2.4704396251586176,
                -0.07771852870830975,
                0.10963707560767277,
                -2.4602575047128985
            ]
        },
        {
            "positions": [
                0.04382139027126364,
                -1.716839445072018,
                2.45976327282319,
                -0.1352046880508755,
                0.19522262590155748,
                -2.555352341416705
            ]
        },
        {
            "positions": [
                0.1542135991077087,
                -1.7488405783443683,
                2.4490869204877623,
                -0.19269084739344144,
                0.2808081761954422,
                -2.6504471781205123
            ]
        },
        {
            "positions": [
                0.26460580794415334,
                -1.7808417116167186,
                2.4384105681523347,
                -0.2501770067360072,
                0.36639372648932667,
                -2.745542014824319
            ]
        },
        {
            "positions": [
                0.3749980167805984,
                -1.8128428448890688,
                2.427734215816907,
                -0.30766316607857314,
                0.4519792767832118,
                -2.840636851528126
            ]
        },
        {
            "positions": [
                0.4853902256170435,
                -1.844843978161419,
                2.4170578634814794,
                -0.36514932542113887,
                0.5375648270770965,
                -2.935731688231933
            ]
        },
        {
            "positions": [
                0.5957824344534881,
                -1.8768451114337692,
                2.406381511146052,
                -0.4226354847637048,
                0.6231503773709812,
                -3.0308265249357396
            ]
        },
        {
            "positions": [
                0.7061746432899333,
                -1.9088462447061196,
                2.395705158810624,
                -0.48012164410627056,
                0.7087359276648661,
                -3.1259213616395463
            ]
        }
    ]
}