{
    "goal": {
        "global_pose": {
            "orientation": {
                "w": 0.7047431468963623,
                "x": -0.7094548344612122,
                "y": 0.0024358443915843964,
                "z": -0.0022348060738295317
            },
            "position": {
                "x": 0.6094750761985779,
                "y": 0.3671506643295288,
                "z": 0.19426114857196808
            }
        },
        "name": "move_to_magneteinheit_A"
    },
    "id": "BFMT_move_to_magneteinheit_A_134",
    "joint_names": [
        "shoulder_pan_joint",
        "shoulder_lift_joint",
        "elbow_joint",
        "wrist_1_joint",
        "wrist_2_joint",
        "wrist_3_joint"
    ],
    "metrics": {
        "cart_traj_len": 2.0642802274274703,
        "distance_elbow_joint": 3.8796338776364068,
        "distance_shoulder_lift_joint": 1.0570333994003445,
        "distance_shoulder_pan_joint": 1.2421538492514246,
        "distance_wrist_1_joint": 1.1489924398325033,
        "distance_wrist_2_joint": 1.4388219383994616,
        "distance_wrist_3_joint": 1.9115807008471752,
        "smoothness": 1.5860328959332069e-16,
        "time": 0.666726411,
        "traj_len": 3.2677540001302603,
        "weighted_distance": 4.133907592737606
    },
    "planner": "BFMT",
    "start": {
        "state": {
            "elbow_joint": -1.919643507792019,
            "shoulder_lift_joint": -0.07675430207160344,
            "shoulder_pan_joint": -1.1188671864651873,
            "wrist_1_joint": 0.42560062535961957,
            "wrist_2_joint": 1.5706038300724876,
            "wrist_3_joint": 1.1188968870953055
        }
    },
    "waypoints": [
        {
            "positions": [
                -1.1188671864651873,
                -0.07675430207160344,
                -1.919643507792019,
                0.42560062535961957,
                1.5706038300724876,
                1.1188968870953055
            ]
        },
        {
            "positions": [
                -1.0728614883447642,
                -0.11590368723457917,
                -1.7759533641758558,
                0.3830453498102676,
                1.5173141286502854,
                1.1896961723118675
            ]
        },
        {
            "positions": [
                -1.0268557902243411,
                -0.1550530723975549,
                -1.6322632205596928,
                0.3404900742609156,
                1.4640244272280831,
                1.2604954575284295
            ]
        },
        {
            "positions": [
                -0.9808500921039179,
                -0.19420245756053062,
                -1.4885730769435295,
                0.29793479871156364,
                1.4107347258058809,
                1.3312947427449917
            ]
        },
        {
            "positions": [
                -0.9348443939834948,
                -0.23335184272350631,
                -1.3448829333273662,
                0.2553795231622117,
                1.3574450243836784,
                1.4020940279615537
            ]
        },
        {
            "positions": [
                -0.8888386958630717,
                -0.272501227886482,
                -1.201192789711203,
                0.2128242476128597,
                1.3041553229614762,
                1.472893313178116
            ]
        },
        {
            "positions": [
                -0.8428329977426485,
                -0.31165061304945774,
                -1.0575026460950399,
                0.17026897206350772,
                1.250865621539274,
                1.5436925983946779
            ]
        },
        {
            "positions": [
                -0.7968272996222254,
                -0.35079999821243346,
                -0.9138125024788766,
                0.12771369651415576,
                1.1975759201170717,
                1.6144918836112399
            ]
        },
        {
            "positions": [
                -0.7508216015018023,
                -0.3899493833754092,
                -0.7701223588627135,
                0.0851584209648038,
                1.1442862186948695,
                1.6852911688278018
            ]
        },
        {
            "positions": [
                -0.7048159033813792,
                -0.4290987685383849,
                -0.6264322152465502,
                0.04260314541545179,
                1.090996517272667,
                1.7560904540443638
            ]
        },
        {
            "positions": [
                -0.6588102052609561,
                -0.46824815370136064,
                -0.48274207163038696,
                4.786986609983668e-05,
                1.037706815850465,
                1.826889739260926
            ]
        },
        {
            "positions": [
                -0.6128045071405329,
                -0.5073975388643364,
                -0.3390519280142239,
                -0.04250740568325212,
                0.9844171144282625,
                1.897689024477488
            ]
        },
        {
            "positions": [
                -0.5667988090201098,
                -0.5465469240273121,
                -0.19536178439806062,
                -0.08506268123260413,
                0.9311274130060603,
                1.9684883096940502
            ]
        },
        {
            "positions": [
                -0.5207931108996866,
                -0.5856963091902878,
                -0.05167164078189734,
                -0.12761795678195603,
                0.877837711583858,
                2.039287594910612
            ]
        },
        {
            "positions": [
                -0.4747874127792635,
                -0.6248456943532634,
                0.09201850283426594,
                -0.17017323233130804,
                0.8245480101616557,
                2.110086880127174
            ]
        },
        {
            "positions": [
                -0.4287817146588403,
                -0.6639950795162393,
                0.23570864645042922,
                -0.21272850788066006,
                0.7712583087394533,
                2.180886165343736
            ]
        },
        {
            "positions": [
                -0.3827760165384173,
                -0.7031444646792149,
                0.37939879006659205,
                -0.25528378343001196,
                0.7179686073172512,
                2.251685450560298
            ]
        },
        {
            "positions": [
                -0.3367703184179941,
                -0.7422938498421907,
                0.5230889336827558,
                -0.2978390589793641,
                0.6646789058950487,
                2.32248473577686
            ]
        },
        {
            "positions": [
                -0.290764620297571,
                -0.7814432350051663,
                0.6667790772989186,
                -0.340394334528716,
                0.6113892044728466,
                2.3932840209934225
            ]
        },
        {
            "positions": [
                -0.2447589221771478,
                -0.8205926201681422,
                0.8104692209150819,
                -0.382949610078068,
                0.5580995030506442,
                2.4640833062099845
            ]
        },
        {
            "positions": [
                -0.1987532240567248,
                -0.8597420053311178,
                0.9541593645312452,
                -0.4255048856274199,
                0.5048098016284421,
                2.5348825914265465
            ]
        },
        {
            "positions": [
                -0.1527475259363016,
                -0.8988913904940936,
                1.0978495081474084,
                -0.4680601611767719,
                0.45152010020623967,
                2.6056818766431085
            ]
        },
        {
            "positions": [
                -0.10674182781587849,
                -0.9380407756570692,
                1.2415396517635713,
                -0.5106154367261238,
                0.39823039878403743,
                2.6764811618596704
            ]
        },
        {
            "positions": [
                -0.06073612969545539,
                -0.9771901608200451,
                1.385229795379735,
                -0.5531707122754759,
                0.3449406973618352,
                2.747280447076233
            ]
        },
        {
            "positions": [
                -0.014730431575032288,
                -1.0163395459830207,
                1.5289199389958978,
                -0.5957259878248278,
                0.29165099593963295,
                2.8180797322927944
            ]
        },
        {
            "positions": [
                0.031275266545391034,
                -1.0554889311459965,
                1.6726100826120611,
                -0.6382812633741797,
                0.2383612945174305,
                2.888879017509357
            ]
        },
        {
            "positions": [
                0.07728096466581413,
                -1.0946383163089721,
                1.8163002262282244,
                -0.6808365389235316,
                0.18507159309522847,
                2.9596783027259184
            ]
        },
        {
            "positions": [
                0.12328666278623727,
                -1.133787701471948,
                1.9599903698443877,
                -0.7233918144728837,
                0.13178189167302604,
                3.030477587942481
            ]
        }
    ]
}