{
    "goal": {
        "global_pose": {
            "orientation": {
                "w": 0.5084816217422485,
                "x": -0.49083608388900757,
                "y": 0.5182115435600281,
                "z": -0.4816462993621826
            },
            "position": {
                "x": 0.5540239810943604,
                "y": 0.030875300988554955,
                "z": 0.16403168439865112
            }
        },
        "name": "move_to_storage_A"
    },
    "id": "BFMT_move_to_storage_A_91",
    "joint_names": [
        "shoulder_pan_joint",
        "shoulder_lift_joint",
        "elbow_joint",
        "wrist_1_joint",
        "wrist_2_joint",
        "wrist_3_joint"
    ],
    "metrics": {
        "cart_traj_len": 0.3529601614210125,
        "distance_elbow_joint": 0.45068964957271795,
        "distance_shoulder_lift_joint": 0.2349707958907281,
        "distance_shoulder_pan_joint": 0.4611143768383483,
        "distance_wrist_1_joint": 0.2509595698680299,
        "distance_wrist_2_joint": 1.1002125854761595,
        "distance_wrist_3_joint": 0.09662300106972266,
        "smoothness": 4.440892133664971e-16,
        "time": 0.493006495,
        "traj_len": 1.6107668914885562,
        "weighted_distance": 2.0344503277788184
    },
    "planner": "BFMT",
    "start": {
        "state": {
            "elbow_joint": 1.9715463870305268,
            "shoulder_lift_joint": -1.1394903361783484,
            "shoulder_pan_joint": 0.12281147578464417,
            "wrist_1_joint": -0.7804599489681411,
            "wrist_2_joint": 0.12958660307563738,
            "wrist_3_joint": -3.1924946282119055
        }
    },
    "waypoints": [
        {
            "positions": [
                0.12281147578464417,
                -1.1394903361783484,
                1.9715463870305268,
                -0.7804599489681411,
                0.12958660307563738,
                -3.1924946282119055
            ]
        },
        {
            "positions": [
                0.056937993379165844,
                -1.1730575927341667,
                2.035930622683772,
                -0.8163113160921454,
                0.28675982957223156,
                -3.1786913423448024
            ]
        },
        {
            "positions": [
                -0.008935489026312485,
                -1.206624849289985,
                2.1003148583370175,
                -0.8521626832161496,
                0.4439330560688258,
                -3.164888056477699
            ]
        },
        {
            "positions": [
                -0.07480897143179081,
                -1.2401921058458032,
                2.164699093990263,
                -0.8880140503401539,
                0.60110628256542,
                -3.1510847706105958
            ]
        },
        {
            "positions": [
                -0.14068245383726913,
                -1.2737593624016217,
                2.229083329643508,
                -0.9238654174641582,
                0.7582795090620142,
                -3.1372814847434927
            ]
        },
        {
            "positions": [
                -0.20655593624274748,
                -1.30732661895744,
                2.293467565296754,
                -0.9597167845881625,
                0.9154527355586085,
                -3.1234781988763896
            ]
        },
        {
            "positions": [
                -0.2724294186482258,
                -1.3408938755132582,
                2.3578518009499994,
                -0.9955681517121667,
                1.0726259620552026,
                -3.109674913009286
            ]
        },
        {
            "positions": [
                -0.33830290105370414,
                -1.3744611320690765,
                2.4222360366032447,
                -1.031419518836171,
                1.229799188551797,
                -3.095871627142183
            ]
        }
    ]
}