{
    "goal": {
        "global_pose": {
            "orientation": {
                "w": 0.7031023502349854,
                "x": -0.7110244035720825,
                "y": 0.007748599164187908,
                "z": 0.005598929710686207
            },
            "position": {
                "x": 0.11585023208521307,
                "y": 0.44412534475326537,
                "z": 0.3711530566215515
            }
        },
        "name": "move_to_auspresseinheit_A"
    },
    "id": "BFMT_move_to_auspresseinheit_A_135",
    "joint_names": [
        "shoulder_pan_joint",
        "shoulder_lift_joint",
        "elbow_joint",
        "wrist_1_joint",
        "wrist_2_joint",
        "wrist_3_joint"
    ],
    "metrics": {
        "cart_traj_len": 0.6878244104365558,
        "distance_elbow_joint": 0.06446305851515133,
        "distance_shoulder_lift_joint": 0.5328342765897314,
        "distance_shoulder_pan_joint": 1.0444989413942052,
        "distance_wrist_1_joint": 0.5620253146677603,
        "distance_wrist_2_joint": 0.6962631519783293,
        "distance_wrist_3_joint": 0.08835841545757406,
        "smoothness": 1.019211246856325,
        "time": 0.688628295,
        "traj_len": 1.728711415651193,
        "weighted_distance": 2.1031995759233095
    },
    "planner": "BFMT",
    "start": {
        "state": {
            "elbow_joint": 2.422574709923281,
            "shoulder_lift_joint": -1.3736533754116391,
            "shoulder_pan_joint": -0.33786336945926293,
            "wrist_1_joint": -1.0288603412921917,
            "wrist_2_joint": 1.2330224858903978,
            "wrist_3_joint": -3.094022268022082
        }
    },
    "waypoints": [
        {
            "positions": [
                -0.33786336945926293,
                -1.3736533754116391,
                2.422574709923281,
                -1.0288603412921917,
                1.2330224858903978,
                -3.094022268022082
            ]
        },
        {
            "positions": [
                -0.2122189408772687,
                -1.440232264968794,
                2.4157979255748976,
                -0.9487530395476987,
                1.1452982984098818,
                -3.103486382053456
            ]
        },
        {
            "positions": [
                -0.08657451229527446,
                -1.5068111545259488,
                2.409021141226514,
                -0.8686457378032058,
                1.0575741109293662,
                -3.11295049608483
            ]
        },
        {
            "positions": [
                0.03906991628671974,
                -1.5733900440831037,
                2.4022443568781306,
                -0.7885384360587128,
                0.9698499234488502,
                -3.1224146101162042
            ]
        },
        {
            "positions": [
                0.164714344868714,
                -1.6399689336402585,
                2.3954675725297476,
                -0.7084311343142198,
                0.8821257359683344,
                -3.1318787241475787
            ]
        },
        {
            "positions": [
                0.2903587734507083,
                -1.7065478231974134,
                2.388690788181364,
                -0.6283238325697268,
                0.7944015484878186,
                -3.1413428381789528
            ]
        },
        {
            "positions": [
                0.4160032020327024,
                -1.7731267127545682,
                2.3819140038329807,
                -0.5482165308252338,
                0.7066773610073028,
                -3.150806952210327
            ]
        },
        {
            "positions": [
                0.5416476306146967,
                -1.839705602311723,
                2.375137219484597,
                -0.4681092290807408,
                0.6189531735267869,
                -3.160271066241701
            ]
        },
        {
            "positions": [
                0.7066355719349421,
                -1.9064876520013705,
                2.3921627875610647,
                -0.46938343153705026,
                0.7011470131415054,
                -3.1381614490037455
            ]
        }
    ]
}