{
    "goal": {
        "global_pose": {
            "orientation": {
                "w": 0.7047431468963623,
                "x": -0.7094548344612122,
                "y": 0.0024358443915843964,
                "z": -0.0022348060738295317
            },
            "position": {
                "x": 0.6094750761985779,
                "y": 0.3671506643295288,
                "z": 0.19426114857196808
            }
        },
        "name": "move_to_magneteinheit_A"
    },
    "id": "BFMT_move_to_magneteinheit_A_4",
    "joint_names": [
        "shoulder_pan_joint",
        "shoulder_lift_joint",
        "elbow_joint",
        "wrist_1_joint",
        "wrist_2_joint",
        "wrist_3_joint"
    ],
    "metrics": {
        "cart_traj_len": 1.878938840792022,
        "distance_elbow_joint": 3.907388419712377,
        "distance_shoulder_lift_joint": 0.698049639452514,
        "distance_shoulder_pan_joint": 1.2406390627096506,
        "distance_wrist_1_joint": 1.4864062422937645,
        "distance_wrist_2_joint": 1.6935534333548683,
        "distance_wrist_3_joint": 1.102517388470684,
        "smoothness": 1.644774855041844e-16,
        "time": 0.655197262,
        "traj_len": 3.1825389527850025,
        "weighted_distance": 3.938724239977186
    },
    "planner": "BFMT",
    "start": {
        "state": {
            "elbow_joint": -1.919643507792019,
            "shoulder_lift_joint": -0.07675430207160344,
            "shoulder_pan_joint": -1.1188671864651873,
            "wrist_1_joint": 0.42560062535961957,
            "wrist_2_joint": 1.5706038300724876,
            "wrist_3_joint": 1.1188968870953055
        }
    },
    "waypoints": [
        {
            "positions": [
                -1.1188671864651873,
                -0.07675430207160344,
                -1.919643507792019,
                0.42560062535961957,
                1.5706038300724876,
                1.1188968870953055
            ]
        },
        {
            "positions": [
                -1.0711502994378932,
                -0.10360236512746937,
                -1.7693593378030814,
                0.48277009621707206,
                1.505467159558839,
                1.0764923721541253
            ]
        },
        {
            "positions": [
                -1.0234334124105988,
                -0.1304504281833353,
                -1.619075167814144,
                0.5399395670745245,
                1.44033048904519,
                1.0340878572129453
            ]
        },
        {
            "positions": [
                -0.9757165253833046,
                -0.1572984912392012,
                -1.4687909978252063,
                0.597109037931977,
                1.3751938185315413,
                0.991683342271765
            ]
        },
        {
            "positions": [
                -0.9279996383560103,
                -0.18414655429506716,
                -1.3185068278362686,
                0.6542785087894295,
                1.3100571480178924,
                0.9492788273305849
            ]
        },
        {
            "positions": [
                -0.880282751328716,
                -0.21099461735093306,
                -1.1682226578473311,
                0.711447979646882,
                1.2449204775042437,
                0.9068743123894047
            ]
        },
        {
            "positions": [
                -0.8325658643014218,
                -0.23784268040679898,
                -1.0179384878583937,
                0.7686174505043344,
                1.1797838069905948,
                0.8644697974482246
            ]
        },
        {
            "positions": [
                -0.7848489772741276,
                -0.26469074346266486,
                -0.867654317869456,
                0.825786921361787,
                1.1146471364769461,
                0.8220652825070445
            ]
        },
        {
            "positions": [
                -0.7371320902468332,
                -0.2915388065185308,
                -0.7173701478805183,
                0.8829563922192394,
                1.0495104659632974,
                0.7796607675658642
            ]
        },
        {
            "positions": [
                -0.6894152032195391,
                -0.31838686957439677,
                -0.5670859778915809,
                0.940125863076692,
                0.9843737954496486,
                0.7372562526246842
            ]
        },
        {
            "positions": [
                -0.6416983161922447,
                -0.34523493263026267,
                -0.4168018079026432,
                0.9972953339341444,
                0.9192371249359997,
                0.694851737683504
            ]
        },
        {
            "positions": [
                -0.5939814291649506,
                -0.37208299568612857,
                -0.26651763791370575,
                1.0544648047915968,
                0.854100454422351,
                0.6524472227423239
            ]
        },
        {
            "positions": [
                -0.5462645421376563,
                -0.3989310587419945,
                -0.11623346792476807,
                1.1116342756490494,
                0.7889637839087021,
                0.6100427078011437
            ]
        },
        {
            "positions": [
                -0.49854765511036203,
                -0.4257791217978604,
                0.03405070206416938,
                1.1688037465065018,
                0.7238271133950535,
                0.5676381928599635
            ]
        },
        {
            "positions": [
                -0.45083076808306777,
                -0.4526271848537263,
                0.18433487205310706,
                1.2259732173639544,
                0.6586904428814048,
                0.5252336779187834
            ]
        },
        {
            "positions": [
                -0.4031138810557736,
                -0.47947524790959223,
                0.3346190420420443,
                1.2831426882214068,
                0.593553772367756,
                0.48282916297760325
            ]
        },
        {
            "positions": [
                -0.35539699402847924,
                -0.5063233109654582,
                0.4849032120309824,
                1.3403121590788594,
                0.5284171018541071,
                0.440424648036423
            ]
        },
        {
            "positions": [
                -0.307680107001185,
                -0.5331713740213242,
                0.6351873820199196,
                1.3974816299363118,
                0.4632804313404584,
                0.39802013309524287
            ]
        },
        {
            "positions": [
                -0.2599632199738908,
                -0.56001943707719,
                0.7854715520088573,
                1.4546511007937644,
                0.3981437608268097,
                0.35561561815406273
            ]
        },
        {
            "positions": [
                -0.21224633294659656,
                -0.5868675001330559,
                0.9357557219977946,
                1.5118205716512167,
                0.3330070903131608,
                0.3132111032128827
            ]
        },
        {
            "positions": [
                -0.1645294459193022,
                -0.613715563188922,
                1.0860398919867327,
                1.5689900425086694,
                0.26787041979951187,
                0.27080658827170234
            ]
        },
        {
            "positions": [
                -0.11681255889200792,
                -0.6405636262447878,
                1.23632406197567,
                1.6261595133661217,
                0.20273374928586319,
                0.22840207333052231
            ]
        },
        {
            "positions": [
                -0.06909567186471377,
                -0.6674116893006536,
                1.3866082319646076,
                1.6833289842235741,
                0.1375970787722145,
                0.18599755838934218
            ]
        },
        {
            "positions": [
                -0.021378784837419618,
                -0.6942597523565197,
                1.5368924019535448,
                1.7404984550810267,
                0.07246040825856581,
                0.14359304344816204
            ]
        },
        {
            "positions": [
                0.026338102189874757,
                -0.7211078154123856,
                1.687176571942483,
                1.7976679259384791,
                0.007323737744916681,
                0.10118852850698179
            ]
        },
        {
            "positions": [
                0.07405498921716913,
                -0.7479558784682514,
                1.8374607419314202,
                1.8548373967959317,
                -0.057812932768732006,
                0.05878401356580154
            ]
        },
        {
            "positions": [
                0.12177187624446331,
                -0.7748039415241175,
                1.9877449119203578,
                1.9120068676533841,
                -0.12294960328238076,
                0.01637949862462142
            ]
        }
    ]
}