{
    "goal": {
        "global_pose": {
            "orientation": {
                "w": 0.5084816217422485,
                "x": -0.49083608388900757,
                "y": 0.5182115435600281,
                "z": -0.4816462993621826
            },
            "position": {
                "x": 0.5540239810943604,
                "y": 0.030875300988554955,
                "z": 0.16403168439865112
            }
        },
        "name": "move_to_storage_A"
    },
    "id": "BFMT_move_to_storage_A_35",
    "joint_names": [
        "shoulder_pan_joint",
        "shoulder_lift_joint",
        "elbow_joint",
        "wrist_1_joint",
        "wrist_2_joint",
        "wrist_3_joint"
    ],
    "metrics": {
        "cart_traj_len": 0.3532296553541255,
        "distance_elbow_joint": 0.4533627643588507,
        "distance_shoulder_lift_joint": 0.2325044410271786,
        "distance_shoulder_pan_joint": 0.46013057646801736,
        "distance_wrist_1_joint": 0.2574142726713705,
        "distance_wrist_2_joint": 1.1063931931436428,
        "distance_wrist_3_joint": 0.10250292147135509,
        "smoothness": 0.0,
        "time": 0.491224014,
        "traj_len": 1.6162636446880858,
        "weighted_distance": 2.0447790780175104
    },
    "planner": "BFMT",
    "start": {
        "state": {
            "elbow_joint": 1.9715463870305268,
            "shoulder_lift_joint": -1.1394903361783484,
            "shoulder_pan_joint": 0.12281147578464417,
            "wrist_1_joint": -0.7804599489681411,
            "wrist_2_joint": 0.12958660307563738,
            "wrist_3_joint": -3.1924946282119055
        }
    },
    "waypoints": [
        {
            "positions": [
                0.12281147578464417,
                -1.1394903361783484,
                1.9715463870305268,
                -0.7804599489681411,
                0.12958660307563738,
                -3.1924946282119055
            ]
        },
        {
            "positions": [
                0.057078536289213125,
                -1.1727052563250882,
                2.036312496224648,
                -0.8172334164926226,
                0.2876427735247292,
                -3.177851353715998
            ]
        },
        {
            "positions": [
                -0.008654403206217923,
                -1.205920176471828,
                2.10107860541877,
                -0.8540068840171041,
                0.44569894397382104,
                -3.1632080792200896
            ]
        },
        {
            "positions": [
                -0.07438734270164897,
                -1.2391350966185677,
                2.1658447146128914,
                -0.8907803515415855,
                0.6037551144229129,
                -3.148564804724182
            ]
        },
        {
            "positions": [
                -0.14012028219708,
                -1.2723500167653077,
                2.230610823807013,
                -0.927553819066067,
                0.7618112848720047,
                -3.133921530228274
            ]
        },
        {
            "positions": [
                -0.20585322169251108,
                -1.3055649369120474,
                2.295376933001134,
                -0.9643272865905486,
                0.9198674553210966,
                -3.1192782557323664
            ]
        },
        {
            "positions": [
                -0.2715861611879421,
                -1.3387798570587872,
                2.360143042195256,
                -1.00110075411503,
                1.0779236257701883,
                -3.104634981236458
            ]
        },
        {
            "positions": [
                -0.3373191006833732,
                -1.371994777205527,
                2.4249091513893775,
                -1.0378742216395116,
                1.2359797962192802,
                -3.0899917067405505
            ]
        }
    ]
}