{
    "goal": {
        "global_pose": {
            "orientation": {
                "w": 0.7031023502349854,
                "x": -0.7110244035720825,
                "y": 0.007748599164187908,
                "z": 0.005598929710686207
            },
            "position": {
                "x": 0.11585023208521307,
                "y": 0.44412534475326537,
                "z": 0.3711530566215515
            }
        },
        "name": "move_to_auspresseinheit_A"
    },
    "id": "BFMT_move_to_auspresseinheit_A_13",
    "joint_names": [
        "shoulder_pan_joint",
        "shoulder_lift_joint",
        "elbow_joint",
        "wrist_1_joint",
        "wrist_2_joint",
        "wrist_3_joint"
    ],
    "metrics": {
        "cart_traj_len": 0.6674207506581236,
        "distance_elbow_joint": 0.18345053055242788,
        "distance_shoulder_lift_joint": 0.5388078037689314,
        "distance_shoulder_pan_joint": 1.0450414490639315,
        "distance_wrist_1_joint": 0.61253469109604,
        "distance_wrist_2_joint": 1.0375088063198314,
        "distance_wrist_3_joint": 0.4148838893156386,
        "smoothness": 1.119314717441588,
        "time": 0.49869046100000003,
        "traj_len": 1.957607511764501,
        "weighted_distance": 2.5123770509547225
    },
    "planner": "BFMT",
    "start": {
        "state": {
            "elbow_joint": 2.422574709923281,
            "shoulder_lift_joint": -1.3736533754116391,
            "shoulder_pan_joint": -0.33786336945926293,
            "wrist_1_joint": -1.0288603412921917,
            "wrist_2_joint": 1.2330224858903978,
            "wrist_3_joint": -3.094022268022082
        }
    },
    "waypoints": [
        {
            "positions": [
                -0.33786336945926293,
                -1.3736533754116391,
                2.422574709923281,
                -1.0288603412921917,
                1.2330224858903978,
                -3.094022268022082
            ]
        },
        {
            "positions": [
                -0.2554804069719191,
                -1.432055521530109,
                2.432537582951015,
                -0.9562773202774728,
                1.1359301484719022,
                -3.1225950982013377
            ]
        },
        {
            "positions": [
                -0.17309744448457529,
                -1.490457667648579,
                2.4425004559787484,
                -0.8836942992627539,
                1.0388378110534067,
                -3.1511679283805933
            ]
        },
        {
            "positions": [
                -0.09071448199723148,
                -1.548859813767049,
                2.4524633290064823,
                -0.811111278248035,
                0.9417454736349113,
                -3.179740758559849
            ]
        },
        {
            "positions": [
                -0.008331519509887642,
                -1.607261959885519,
                2.462426202034216,
                -0.738528257233316,
                0.8446531362164158,
                -3.208313588739104
            ]
        },
        {
            "positions": [
                0.0740514429774562,
                -1.6656641060039887,
                2.4723890750619497,
                -0.6659452362185971,
                0.7475607987979203,
                -3.2368864189183597
            ]
        },
        {
            "positions": [
                0.15643440546479997,
                -1.7240662521224588,
                2.4823519480896836,
                -0.5933622152038782,
                0.6504684613794248,
                -3.2654592490976153
            ]
        },
        {
            "positions": [
                0.23881736795214387,
                -1.7824683982409288,
                2.492314821117417,
                -0.5207791941891593,
                0.5533761239609294,
                -3.294032079276871
            ]
        },
        {
            "positions": [
                0.32120033043948765,
                -1.8408705443593987,
                2.502277694145151,
                -0.4481961731744404,
                0.4562837865424338,
                -3.3226049094561265
            ]
        },
        {
            "positions": [
                0.4498595801612146,
                -1.8647340892997892,
                2.4676951787016317,
                -0.4588196808338699,
                0.5432071555330563,
                -3.260504493495595
            ]
        },
        {
            "positions": [
                0.5785188298829416,
                -1.88859763424018,
                2.4331126632581124,
                -0.4694431884932995,
                0.6301305245236788,
                -3.1984040775350637
            ]
        },
        {
            "positions": [
                0.7071780796046685,
                -1.9124611791805706,
                2.398530147814593,
                -0.48006669615272907,
                0.7170538935143013,
                -3.1363036615745323
            ]
        }
    ]
}