{
    "goal": {
        "global_pose": {
            "orientation": {
                "w": 0.7031023502349854,
                "x": -0.7110244035720825,
                "y": 0.007748599164187908,
                "z": 0.005598929710686207
            },
            "position": {
                "x": 0.11585023208521307,
                "y": 0.44412534475326537,
                "z": 0.3711530566215515
            }
        },
        "name": "move_to_auspresseinheit_A"
    },
    "id": "BFMT_move_to_auspresseinheit_A_123",
    "joint_names": [
        "shoulder_pan_joint",
        "shoulder_lift_joint",
        "elbow_joint",
        "wrist_1_joint",
        "wrist_2_joint",
        "wrist_3_joint"
    ],
    "metrics": {
        "cart_traj_len": 0.6640777157955032,
        "distance_elbow_joint": 0.04006831742684458,
        "distance_shoulder_lift_joint": 0.5310515167874204,
        "distance_shoulder_pan_joint": 1.041686148236604,
        "distance_wrist_1_joint": 0.8831560920663829,
        "distance_wrist_2_joint": 0.8717753463969782,
        "distance_wrist_3_joint": 1.05328142138152,
        "smoothness": 0.9889954484323087,
        "time": 0.520497713,
        "traj_len": 2.1026218971312343,
        "weighted_distance": 2.8779355662561574
    },
    "planner": "BFMT",
    "start": {
        "state": {
            "elbow_joint": 2.422574709923281,
            "shoulder_lift_joint": -1.3736533754116391,
            "shoulder_pan_joint": -0.33786336945926293,
            "wrist_1_joint": -1.0288603412921917,
            "wrist_2_joint": 1.2330224858903978,
            "wrist_3_joint": -3.094022268022082
        }
    },
    "waypoints": [
        {
            "positions": [
                -0.33786336945926293,
                -1.3736533754116391,
                2.422574709923281,
                -1.0288603412921917,
                1.2330224858903978,
                -3.094022268022082
            ]
        },
        {
            "positions": [
                -0.2912068638360643,
                -1.4291032331050353,
                2.417249137160328,
                -0.9245754400747542,
                1.1325556823449476,
                -3.0221822835452965
            ]
        },
        {
            "positions": [
                -0.2445503582128657,
                -1.4845530907984312,
                2.411923564397375,
                -0.8202905388573167,
                1.0320888787994975,
                -2.950342299068511
            ]
        },
        {
            "positions": [
                -0.19789385258966705,
                -1.5400029484918274,
                2.406597991634422,
                -0.7160056376398793,
                0.9316220752540474,
                -2.8785023145917252
            ]
        },
        {
            "positions": [
                -0.15123734696646843,
                -1.5954528061852236,
                2.4012724188714683,
                -0.6117207364224418,
                0.8311552717085973,
                -2.8066623301149396
            ]
        },
        {
            "positions": [
                -0.10458084134326978,
                -1.6509026638786195,
                2.395946846108515,
                -0.5074358352050043,
                0.7306884681631471,
                -2.734822345638154
            ]
        },
        {
            "positions": [
                -0.05792433572007116,
                -1.7063525215720157,
                2.390621273345562,
                -0.40315093398756685,
                0.630221664617697,
                -2.6629823611613683
            ]
        },
        {
            "positions": [
                -0.01126783009687253,
                -1.7618023792654118,
                2.385295700582609,
                -0.29886603277012935,
                0.5297548610722469,
                -2.5911423766845827
            ]
        },
        {
            "positions": [
                0.1317502916779702,
                -1.7903828818521415,
                2.3858535621998436,
                -0.32949838947899346,
                0.5634564053880123,
                -2.7012226826933867
            ]
        },
        {
            "positions": [
                0.2747684134528129,
                -1.8189633844388708,
                2.386411423817078,
                -0.3601307461878576,
                0.5971579497037778,
                -2.8113029887021908
            ]
        },
        {
            "positions": [
                0.41778653522765563,
                -1.8475438870256005,
                2.3869692854343123,
                -0.3907631028967217,
                0.6308594940195433,
                -2.9213832947109952
            ]
        },
        {
            "positions": [
                0.5608046570024984,
                -1.8761243896123299,
                2.387527147051547,
                -0.4213954596055859,
                0.6645610383353088,
                -3.0314636007197993
            ]
        },
        {
            "positions": [
                0.7038227787773411,
                -1.9047048921990595,
                2.3880850086687815,
                -0.45202781631445,
                0.6982625826510742,
                -3.1415439067286033
            ]
        }
    ]
}