{
    "goal": {
        "global_pose": {
            "orientation": {
                "w": 0.5084816217422485,
                "x": -0.49083608388900757,
                "y": 0.5182115435600281,
                "z": -0.4816462993621826
            },
            "position": {
                "x": 0.5540239810943604,
                "y": 0.030875300988554955,
                "z": 0.16403168439865112
            }
        },
        "name": "move_to_storage_A"
    },
    "id": "BFMT_move_to_storage_A_4",
    "joint_names": [
        "shoulder_pan_joint",
        "shoulder_lift_joint",
        "elbow_joint",
        "wrist_1_joint",
        "wrist_2_joint",
        "wrist_3_joint"
    ],
    "metrics": {
        "cart_traj_len": 0.35327695248877655,
        "distance_elbow_joint": 0.45348788272525464,
        "distance_shoulder_lift_joint": 0.2358131897186686,
        "distance_shoulder_pan_joint": 0.4598302668984414,
        "distance_wrist_1_joint": 0.25384828730882114,
        "distance_wrist_2_joint": 1.1095905998582642,
        "distance_wrist_3_joint": 0.09594658782457532,
        "smoothness": 6.661338165333112e-16,
        "time": 0.48665620499999995,
        "traj_len": 1.6150903424681933,
        "weighted_distance": 2.0405511209352882
    },
    "planner": "BFMT",
    "start": {
        "state": {
            "elbow_joint": 1.9715463870305268,
            "shoulder_lift_joint": -1.1394903361783484,
            "shoulder_pan_joint": 0.12281147578464417,
            "wrist_1_joint": -0.7804599489681411,
            "wrist_2_joint": 0.12958660307563738,
            "wrist_3_joint": -3.1924946282119055
        }
    },
    "waypoints": [
        {
            "positions": [
                0.12281147578464417,
                -1.1394903361783484,
                1.9715463870305268,
                -0.7804599489681411,
                0.12958660307563738,
                -3.1924946282119055
            ]
        },
        {
            "positions": [
                0.057121437656295404,
                -1.1731779347095868,
                2.0363303702769917,
                -0.8167239900122584,
                0.2880995459125323,
                -3.178787972808395
            ]
        },
        {
            "positions": [
                -0.008568600472053364,
                -1.2068655332408251,
                2.1011143535234567,
                -0.8529880310563757,
                0.44661248874942716,
                -3.165081317404884
            ]
        },
        {
            "positions": [
                -0.07425863860040215,
                -1.2405531317720635,
                2.1658983367699216,
                -0.889252072100493,
                0.605125431586322,
                -3.1513746620013734
            ]
        },
        {
            "positions": [
                -0.1399486767287509,
                -1.2742407303033019,
                2.2306823200163866,
                -0.9255161131446104,
                0.7636383744232169,
                -3.1376680065978624
            ]
        },
        {
            "positions": [
                -0.20563871485709967,
                -1.3079283288345402,
                2.2954663032628515,
                -0.9617801541887276,
                0.9221513172601119,
                -3.123961351194352
            ]
        },
        {
            "positions": [
                -0.27132875298544845,
                -1.3416159273657786,
                2.3602502865093165,
                -0.9980441952328449,
                1.0806642600970067,
                -3.110254695790841
            ]
        },
        {
            "positions": [
                -0.33701879111379723,
                -1.375303525897017,
                2.4250342697557814,
                -1.0343082362769622,
                1.2391772029339017,
                -3.0965480403873302
            ]
        }
    ]
}