{
    "goal": {
        "global_pose": {
            "orientation": {
                "w": 0.7047431468963623,
                "x": -0.7094548344612122,
                "y": 0.0024358443915843964,
                "z": -0.0022348060738295317
            },
            "position": {
                "x": 0.6094750761985779,
                "y": 0.3671506643295288,
                "z": 0.19426114857196808
            }
        },
        "name": "move_to_magneteinheit_A"
    },
    "id": "BFMT_move_to_magneteinheit_A_102",
    "joint_names": [
        "shoulder_pan_joint",
        "shoulder_lift_joint",
        "elbow_joint",
        "wrist_1_joint",
        "wrist_2_joint",
        "wrist_3_joint"
    ],
    "metrics": {
        "cart_traj_len": 2.0637496900196726,
        "distance_elbow_joint": 3.8785206347961703,
        "distance_shoulder_lift_joint": 1.05627890457711,
        "distance_shoulder_pan_joint": 1.2414272461409999,
        "distance_wrist_1_joint": 1.157378228750917,
        "distance_wrist_2_joint": 1.4451856492282267,
        "distance_wrist_3_joint": 1.9237729812744164,
        "smoothness": 7.044173704666774e-16,
        "time": 0.629204865,
        "traj_len": 3.27147728782699,
        "weighted_distance": 4.141578622372853
    },
    "planner": "BFMT",
    "start": {
        "state": {
            "elbow_joint": -1.919643507792019,
            "shoulder_lift_joint": -0.07675430207160344,
            "shoulder_pan_joint": -1.1188671864651873,
            "wrist_1_joint": 0.42560062535961957,
            "wrist_2_joint": 1.5706038300724876,
            "wrist_3_joint": 1.1188968870953055
        }
    },
    "waypoints": [
        {
            "positions": [
                -1.1188671864651873,
                -0.07675430207160344,
                -1.919643507792019,
                0.42560062535961957,
                1.5706038300724876,
                1.1188968870953055
            ]
        },
        {
            "positions": [
                -1.0745304991030087,
                -0.11447854866364307,
                -1.7811249136921559,
                0.3842656886185154,
                1.5189900568857653,
                1.1876030649979632
            ]
        },
        {
            "positions": [
                -1.0301938117408302,
                -0.1522027952556827,
                -1.6426063195922926,
                0.34293075187741123,
                1.467376283699043,
                1.256309242900621
            ]
        },
        {
            "positions": [
                -0.9858571243786517,
                -0.18992704184772236,
                -1.5040877254924294,
                0.30159581513630707,
                1.4157625105123204,
                1.3250154208032787
            ]
        },
        {
            "positions": [
                -0.9415204370164731,
                -0.22765128843976198,
                -1.3655691313925662,
                0.26026087839520284,
                1.364148737325598,
                1.3937215987059364
            ]
        },
        {
            "positions": [
                -0.8971837496542945,
                -0.26537553503180167,
                -1.227050537292703,
                0.21892594165409868,
                1.3125349641388757,
                1.4624277766085942
            ]
        },
        {
            "positions": [
                -0.852847062292116,
                -0.30309978162384127,
                -1.0885319431928397,
                0.17759100491299454,
                1.2609211909521534,
                1.531133954511252
            ]
        },
        {
            "positions": [
                -0.8085103749299374,
                -0.3408240282158809,
                -0.9500133490929765,
                0.13625606817189034,
                1.209307417765431,
                1.5998401324139095
            ]
        },
        {
            "positions": [
                -0.7641736875677588,
                -0.3785482748079205,
                -0.8114947549931133,
                0.09492113143078618,
                1.1576936445787087,
                1.6685463103165672
            ]
        },
        {
            "positions": [
                -0.7198370002055803,
                -0.41627252139996024,
                -0.6729761608932501,
                0.053586194689681954,
                1.1060798713919862,
                1.7372524882192253
            ]
        },
        {
            "positions": [
                -0.6755003128434016,
                -0.45399676799199984,
                -0.5344575667933869,
                0.012251257948577787,
                1.0544660982052638,
                1.805958666121883
            ]
        },
        {
            "positions": [
                -0.6311636254812232,
                -0.4917210145840395,
                -0.3959389726935236,
                -0.029083678792526324,
                1.0028523250185413,
                1.8746648440245406
            ]
        },
        {
            "positions": [
                -0.5868269381190446,
                -0.5294452611760792,
                -0.2574203785936604,
                -0.07041861553363049,
                0.951238551831819,
                1.9433710219271982
            ]
        },
        {
            "positions": [
                -0.542490250756866,
                -0.5671695077681188,
                -0.11890178449379718,
                -0.11175355227473477,
                0.8996247786450966,
                2.0120771998298563
            ]
        },
        {
            "positions": [
                -0.4981535633946874,
                -0.6048937543601585,
                0.019616809606066044,
                -0.15308848901583888,
                0.8480110054583743,
                2.080783377732514
            ]
        },
        {
            "positions": [
                -0.45381687603250886,
                -0.642618000952198,
                0.15813540370592905,
                -0.194423425756943,
                0.7963972322716519,
                2.1494895556351716
            ]
        },
        {
            "positions": [
                -0.4094801886703303,
                -0.6803422475442376,
                0.2966539978057925,
                -0.2357583624980472,
                0.7447834590849296,
                2.2181957335378293
            ]
        },
        {
            "positions": [
                -0.36514350130815176,
                -0.7180664941362773,
                0.4351725919056555,
                -0.2770932992391513,
                0.6931696858982072,
                2.286901911440487
            ]
        },
        {
            "positions": [
                -0.3208068139459731,
                -0.7557907407283171,
                0.5736911860055189,
                -0.31842823598025566,
                0.6415559127114847,
                2.3556080893431446
            ]
        },
        {
            "positions": [
                -0.27647012658379455,
                -0.7935149873203566,
                0.7122097801053824,
                -0.35976317272135977,
                0.5899421395247623,
                2.4243142672458022
            ]
        },
        {
            "positions": [
                -0.232133439221616,
                -0.8312392339123962,
                0.8507283742052454,
                -0.401098109462464,
                0.53832836633804,
                2.49302044514846
            ]
        },
        {
            "positions": [
                -0.18779675185943745,
                -0.868963480504436,
                0.9892469683051084,
                -0.4424330462035681,
                0.4867145931513177,
                2.561726623051118
            ]
        },
        {
            "positions": [
                -0.1434600644972589,
                -0.9066877270964755,
                1.1277655624049718,
                -0.4837679829446722,
                0.43510081996459515,
                2.6304328009537756
            ]
        },
        {
            "positions": [
                -0.09912337713508035,
                -0.944411973688515,
                1.2662841565048348,
                -0.5251029196857764,
                0.3834870467778728,
                2.6991389788564333
            ]
        },
        {
            "positions": [
                -0.05478668977290191,
                -0.9821362202805548,
                1.4048027506046983,
                -0.5664378564268806,
                0.3318732735911505,
                2.767845156759091
            ]
        },
        {
            "positions": [
                -0.010450002410723025,
                -1.0198604668725946,
                1.5433213447045617,
                -0.6077727931679848,
                0.28025950040442793,
                2.836551334661749
            ]
        },
        {
            "positions": [
                0.033886684951455415,
                -1.0575847134646341,
                1.6818399388044247,
                -0.649107729909089,
                0.2286457272177056,
                2.9052575125644067
            ]
        },
        {
            "positions": [
                0.07822337231363408,
                -1.0953089600566739,
                1.8203585329042882,
                -0.690442666650193,
                0.17703195403098326,
                2.9739636904670643
            ]
        },
        {
            "positions": [
                0.12256005967581253,
                -1.1330332066487134,
                1.958877127004151,
                -0.7317776033912974,
                0.1254181808442609,
                3.042669868369722
            ]
        }
    ]
}