{
    "goal": {
        "global_pose": {
            "orientation": {
                "w": 0.7047431468963623,
                "x": -0.7094548344612122,
                "y": 0.0024358443915843964,
                "z": -0.0022348060738295317
            },
            "position": {
                "x": 0.6094750761985779,
                "y": 0.3671506643295288,
                "z": 0.19426114857196808
            }
        },
        "name": "move_to_magneteinheit_A"
    },
    "id": "BFMT_move_to_magneteinheit_A_62",
    "joint_names": [
        "shoulder_pan_joint",
        "shoulder_lift_joint",
        "elbow_joint",
        "wrist_1_joint",
        "wrist_2_joint",
        "wrist_3_joint"
    ],
    "metrics": {
        "cart_traj_len": 1.8792290174721942,
        "distance_elbow_joint": 3.910749524259032,
        "distance_shoulder_lift_joint": 0.7004260883223468,
        "distance_shoulder_pan_joint": 1.2410032709705747,
        "distance_wrist_1_joint": 1.4810210929437169,
        "distance_wrist_2_joint": 1.7026639154818501,
        "distance_wrist_3_joint": 1.1074439653341905,
        "smoothness": 4.605369601539975e-16,
        "time": 0.653828541,
        "traj_len": 3.184856018301567,
        "weighted_distance": 3.9423192154372355
    },
    "planner": "BFMT",
    "start": {
        "state": {
            "elbow_joint": -1.919643507792019,
            "shoulder_lift_joint": -0.07675430207160344,
            "shoulder_pan_joint": -1.1188671864651873,
            "wrist_1_joint": 0.42560062535961957,
            "wrist_2_joint": 1.5706038300724876,
            "wrist_3_joint": 1.1188968870953055
        }
    },
    "waypoints": [
        {
            "positions": [
                -1.1188671864651873,
                -0.07675430207160344,
                -1.919643507792019,
                0.42560062535961957,
                1.5706038300724876,
                1.1188968870953055
            ]
        },
        {
            "positions": [
                -1.0711362914278575,
                -0.10369376700707832,
                -1.769230064551287,
                0.48256297508822404,
                1.5051167564001087,
                1.0763028884286059
            ]
        },
        {
            "positions": [
                -1.0234053963905279,
                -0.1306332319425532,
                -1.618816621310555,
                0.5395253248168286,
                1.43962968272773,
                1.0337088897619062
            ]
        },
        {
            "positions": [
                -0.975674501353198,
                -0.15757269687802808,
                -1.468403178069823,
                0.596487674545433,
                1.374142609055351,
                0.9911148910952067
            ]
        },
        {
            "positions": [
                -0.9279436063158681,
                -0.18451216181350294,
                -1.317989734829091,
                0.6534500242740375,
                1.308655535382972,
                0.948520892428507
            ]
        },
        {
            "positions": [
                -0.8802127112785383,
                -0.21145162674897783,
                -1.167576291588359,
                0.710412374002642,
                1.2431684617105934,
                0.9059268937618074
            ]
        },
        {
            "positions": [
                -0.8324818162412085,
                -0.23839109168445272,
                -1.017162848347627,
                0.7673747237312465,
                1.1776813880382144,
                0.8633328950951078
            ]
        },
        {
            "positions": [
                -0.7847509212038788,
                -0.26533055661992755,
                -0.8667494051068951,
                0.824337073459851,
                1.1121943143658357,
                0.8207388964284081
            ]
        },
        {
            "positions": [
                -0.7370200261665489,
                -0.2922700215554025,
                -0.7163359618661629,
                0.8812994231884556,
                1.0467072406934568,
                0.7781448977617085
            ]
        },
        {
            "positions": [
                -0.6892891311292192,
                -0.3192094864908773,
                -0.5659225186254311,
                0.9382617729170599,
                0.981220167021078,
                0.7355508990950088
            ]
        },
        {
            "positions": [
                -0.6415582360918893,
                -0.3461489514263522,
                -0.41550907538469883,
                0.9952241226456646,
                0.915733093348699,
                0.6929569004283092
            ]
        },
        {
            "positions": [
                -0.5938273410545596,
                -0.37308841636182705,
                -0.26509563214396703,
                1.052186472374269,
                0.8502460196763203,
                0.6503629017616095
            ]
        },
        {
            "positions": [
                -0.5460964460172297,
                -0.400027881297302,
                -0.11468218890323478,
                1.1091488221028736,
                0.7847589460039414,
                0.6077689030949099
            ]
        },
        {
            "positions": [
                -0.4983655509799,
                -0.4269673462327768,
                0.03573125433749702,
                1.166111171831478,
                0.7192718723315625,
                0.5651749044282103
            ]
        },
        {
            "positions": [
                -0.45063465594257024,
                -0.45390681116825166,
                0.18614469757822882,
                1.2230735215600825,
                0.6537847986591837,
                0.5225809057615106
            ]
        },
        {
            "positions": [
                -0.4029037609052405,
                -0.48084627610372654,
                0.33655814081896085,
                1.280035871288687,
                0.5882977249868049,
                0.47998690709481107
            ]
        },
        {
            "positions": [
                -0.3551728658679105,
                -0.5077857410392015,
                0.4869715840596933,
                1.3369982210172915,
                0.522810651314426,
                0.4373929084281113
            ]
        },
        {
            "positions": [
                -0.3074419708305808,
                -0.5347252059746763,
                0.6373850273004249,
                1.393960570745896,
                0.457323577642047,
                0.39479890976141174
            ]
        },
        {
            "positions": [
                -0.25971107579325103,
                -0.5616646709101512,
                0.7877984705411569,
                1.4509229204745004,
                0.3918365039696683,
                0.3522049110947121
            ]
        },
        {
            "positions": [
                -0.2119801807559213,
                -0.588604135845626,
                0.938211913781889,
                1.507885270203105,
                0.3263494302972896,
                0.30961091242801253
            ]
        },
        {
            "positions": [
                -0.16424928571859132,
                -0.615543600781101,
                1.0886253570226214,
                1.5648476199317096,
                0.2608623566249104,
                0.26701691376131276
            ]
        },
        {
            "positions": [
                -0.11651839068126169,
                -0.6424830657165759,
                1.239038800263353,
                1.621809969660314,
                0.1953752829525317,
                0.2244229150946132
            ]
        },
        {
            "positions": [
                -0.06878749564393183,
                -0.6694225306520507,
                1.389452243504085,
                1.6787723193889186,
                0.129888209280153,
                0.18182891642791355
            ]
        },
        {
            "positions": [
                -0.021056600606601972,
                -0.6963619955875255,
                1.539865686744817,
                1.735734669117523,
                0.06440113560777405,
                0.139234917761214
            ]
        },
        {
            "positions": [
                0.026674294430727885,
                -0.7233014605230006,
                1.6902791299855495,
                1.7926970188461275,
                -0.0010859380646048855,
                0.09664091909451433
            ]
        },
        {
            "positions": [
                0.07440518946805752,
                -0.7502409254584754,
                1.840692573226281,
                1.849659368574732,
                -0.06657301173698382,
                0.05404692042781467
            ]
        },
        {
            "positions": [
                0.1221360845053873,
                -0.7771803903939503,
                1.9911060164670131,
                1.9066217183033365,
                -0.13206008540936243,
                0.011452921761115101
            ]
        }
    ]
}