{
    "goal": {
        "global_pose": {
            "orientation": {
                "w": 0.7047431468963623,
                "x": -0.7094548344612122,
                "y": 0.0024358443915843964,
                "z": -0.0022348060738295317
            },
            "position": {
                "x": 0.6094750761985779,
                "y": 0.3671506643295288,
                "z": 0.19426114857196808
            }
        },
        "name": "move_to_magneteinheit_A"
    },
    "id": "BFMT_move_to_magneteinheit_A_5",
    "joint_names": [
        "shoulder_pan_joint",
        "shoulder_lift_joint",
        "elbow_joint",
        "wrist_1_joint",
        "wrist_2_joint",
        "wrist_3_joint"
    ],
    "metrics": {
        "cart_traj_len": 1.8778719777598565,
        "distance_elbow_joint": 3.9113973951846317,
        "distance_shoulder_lift_joint": 0.7008432658717691,
        "distance_shoulder_pan_joint": 1.2423958615426378,
        "distance_wrist_1_joint": 1.4951449897035516,
        "distance_wrist_2_joint": 1.6997613726463714,
        "distance_wrist_3_joint": 1.1199778974167336,
        "smoothness": 6.250144438024787e-16,
        "time": 0.815100218,
        "traj_len": 3.1889686079304225,
        "weighted_distance": 3.9502383395877634
    },
    "planner": "BFMT",
    "start": {
        "state": {
            "elbow_joint": -1.919643507792019,
            "shoulder_lift_joint": -0.07675430207160344,
            "shoulder_pan_joint": -1.1188671864651873,
            "wrist_1_joint": 0.42560062535961957,
            "wrist_2_joint": 1.5706038300724876,
            "wrist_3_joint": 1.1188968870953055
        }
    },
    "waypoints": [
        {
            "positions": [
                -1.1188671864651873,
                -0.07675430207160344,
                -1.919643507792019,
                0.42560062535961957,
                1.5706038300724876,
                1.1188968870953055
            ]
        },
        {
            "positions": [
                -1.071082730252009,
                -0.10370981229744072,
                -1.769205146438764,
                0.48310620188667924,
                1.5052283926630117,
                1.0758208141177388
            ]
        },
        {
            "positions": [
                -1.0232982740388306,
                -0.130665322523278,
                -1.618766785085509,
                0.540611778413739,
                1.439852955253536,
                1.0327447411401722
            ]
        },
        {
            "positions": [
                -0.9755138178256522,
                -0.15762083274911526,
                -1.4683284237322538,
                0.5981173549407985,
                1.3744775178440602,
                0.9896686681626055
            ]
        },
        {
            "positions": [
                -0.9277293616124738,
                -0.18457634297495257,
                -1.3178900623789986,
                0.6556229314678583,
                1.3091020804345843,
                0.9465925951850388
            ]
        },
        {
            "positions": [
                -0.8799449053992955,
                -0.21153185320078982,
                -1.1674517010257437,
                0.7131285079949179,
                1.2437266430251084,
                0.9035165222074721
            ]
        },
        {
            "positions": [
                -0.8321604491861171,
                -0.2384873634266271,
                -1.0170133396724887,
                0.7706340845219777,
                1.1783512056156327,
                0.8604404492299055
            ]
        },
        {
            "positions": [
                -0.7843759929729387,
                -0.26544287365246433,
                -0.8665749783192336,
                0.8281396610490372,
                1.112975768206157,
                0.8173643762523388
            ]
        },
        {
            "positions": [
                -0.7365915367597603,
                -0.29239838387830164,
                -0.7161366169659784,
                0.885645237576097,
                1.047600330796681,
                0.774288303274772
            ]
        },
        {
            "positions": [
                -0.688807080546582,
                -0.31935389410413895,
                -0.5656982556127235,
                0.9431508141031566,
                0.9822248933872052,
                0.7312122302972055
            ]
        },
        {
            "positions": [
                -0.6410226243334036,
                -0.3463094043299762,
                -0.4152598942594683,
                1.0006563906302164,
                0.9168494559777294,
                0.6881361573196387
            ]
        },
        {
            "positions": [
                -0.5932381681202252,
                -0.37326491455581345,
                -0.26482153290621335,
                1.058161967157276,
                0.8514740185682536,
                0.6450600843420722
            ]
        },
        {
            "positions": [
                -0.5454537119070468,
                -0.40022042478165076,
                -0.11438317155295818,
                1.1156675436843357,
                0.7860985811587777,
                0.6019840113645054
            ]
        },
        {
            "positions": [
                -0.49766925569386844,
                -0.427175935007488,
                0.03605518980029676,
                1.1731731202113953,
                0.7207231437493019,
                0.5589079383869388
            ]
        },
        {
            "positions": [
                -0.44988479948069005,
                -0.45413144523332527,
                0.18649355115355193,
                1.230678696738455,
                0.6553477063398261,
                0.5158318654093721
            ]
        },
        {
            "positions": [
                -0.40210034326751176,
                -0.4810869554591625,
                0.33693191250680665,
                1.2881842732655147,
                0.5899722689303504,
                0.47275579243180543
            ]
        },
        {
            "positions": [
                -0.35431588705433326,
                -0.5080424656849999,
                0.48737027386006226,
                1.3456898497925744,
                0.5245968315208744,
                0.42967971945423866
            ]
        },
        {
            "positions": [
                -0.306531430841155,
                -0.5349979759108372,
                0.637808635213317,
                1.403195426319634,
                0.4592213941113985,
                0.386603646476672
            ]
        },
        {
            "positions": [
                -0.2587469746279766,
                -0.5619534861366744,
                0.7882469965665722,
                1.4607010028466938,
                0.3938459567019228,
                0.34352757349910534
            ]
        },
        {
            "positions": [
                -0.21096251841479818,
                -0.5889089963625116,
                0.9386853579198269,
                1.5182065793737534,
                0.3284705192924471,
                0.3004515005215388
            ]
        },
        {
            "positions": [
                -0.1631780622016198,
                -0.615864506588349,
                1.0891237192730825,
                1.5757121559008131,
                0.26309508188297115,
                0.2573754275439719
            ]
        },
        {
            "positions": [
                -0.1153936059884415,
                -0.6428200168141862,
                1.2395620806263372,
                1.633217732427873,
                0.19771964447349522,
                0.21429935456640536
            ]
        },
        {
            "positions": [
                -0.06760914977526311,
                -0.6697755270400234,
                1.3900004419795924,
                1.6907233089549325,
                0.1323442070640195,
                0.1712232815888387
            ]
        },
        {
            "positions": [
                -0.019824693562084716,
                -0.6967310372658608,
                1.540438803332847,
                1.748228885481992,
                0.06696876965454379,
                0.12814720861127205
            ]
        },
        {
            "positions": [
                0.027959762651093678,
                -0.723686547491698,
                1.6908771646861027,
                1.8057344620090519,
                0.0015933322450678578,
                0.08507113563370527
            ]
        },
        {
            "positions": [
                0.07574421886427207,
                -0.7506420577175352,
                1.8413155260393574,
                1.8632400385361116,
                -0.06378210516440808,
                0.041995062656138504
            ]
        },
        {
            "positions": [
                0.12352867507745037,
                -0.7775975679433726,
                1.9917538873926126,
                1.9207456150631712,
                -0.12915754257388387,
                -0.001081010321428035
            ]
        }
    ]
}