{
    "goal": {
        "global_pose": {
            "orientation": {
                "w": 0.7047431468963623,
                "x": -0.7094548344612122,
                "y": 0.0024358443915843964,
                "z": -0.0022348060738295317
            },
            "position": {
                "x": 0.6094750761985779,
                "y": 0.3671506643295288,
                "z": 0.19426114857196808
            }
        },
        "name": "move_to_magneteinheit_A"
    },
    "id": "BFMT_move_to_magneteinheit_A_91",
    "joint_names": [
        "shoulder_pan_joint",
        "shoulder_lift_joint",
        "elbow_joint",
        "wrist_1_joint",
        "wrist_2_joint",
        "wrist_3_joint"
    ],
    "metrics": {
        "cart_traj_len": 2.064287747116618,
        "distance_elbow_joint": 3.873637890777464,
        "distance_shoulder_lift_joint": 1.051912227050899,
        "distance_shoulder_pan_joint": 1.2426162093144633,
        "distance_wrist_1_joint": 1.1293177343812126,
        "distance_wrist_2_joint": 1.4446589998075339,
        "distance_wrist_3_joint": 1.903838500733304,
        "smoothness": 5.075305277722828e-16,
        "time": 0.62805451,
        "traj_len": 3.2628180399870415,
        "weighted_distance": 4.126455536864566
    },
    "planner": "BFMT",
    "start": {
        "state": {
            "elbow_joint": -1.919643507792019,
            "shoulder_lift_joint": -0.07675430207160344,
            "shoulder_pan_joint": -1.1188671864651873,
            "wrist_1_joint": 0.42560062535961957,
            "wrist_2_joint": 1.5706038300724876,
            "wrist_3_joint": 1.1188968870953055
        }
    },
    "waypoints": [
        {
            "positions": [
                -1.1188671864651873,
                -0.07675430207160344,
                -1.919643507792019,
                0.42560062535961957,
                1.5706038300724876,
                1.1188968870953055
            ]
        },
        {
            "positions": [
                -1.072844363897985,
                -0.1157140141845997,
                -1.7761754377632242,
                0.38377404260475984,
                1.517097941190727,
                1.189409424159502
            ]
        },
        {
            "positions": [
                -1.0268215413307826,
                -0.15467372629759596,
                -1.6327073677344293,
                0.3419474598499001,
                1.4635920523089665,
                1.2599219612236985
            ]
        },
        {
            "positions": [
                -0.9807987187635803,
                -0.19363343841059222,
                -1.4892392977056343,
                0.30012087709504043,
                1.4100861634272062,
                1.3304344982878948
            ]
        },
        {
            "positions": [
                -0.934775896196378,
                -0.23259315052358845,
                -1.3457712276768392,
                0.2582942943401807,
                1.3565802745454456,
                1.4009470353520914
            ]
        },
        {
            "positions": [
                -0.8887530736291757,
                -0.27155286263658474,
                -1.2023031576480445,
                0.21646771158532094,
                1.303074385663685,
                1.4714595724162878
            ]
        },
        {
            "positions": [
                -0.8427302510619733,
                -0.31051257474958094,
                -1.0588350876192494,
                0.17464112883046123,
                1.2495684967819245,
                1.5419721094804841
            ]
        },
        {
            "positions": [
                -0.7967074284947709,
                -0.3494722868625772,
                -0.9153670175904545,
                0.1328145460756015,
                1.196062607900164,
                1.6124846465446807
            ]
        },
        {
            "positions": [
                -0.7506846059275687,
                -0.38843199897557346,
                -0.7718989475616596,
                0.09098796332074177,
                1.1425567190184034,
                1.682997183608877
            ]
        },
        {
            "positions": [
                -0.7046617833603663,
                -0.4273917110885697,
                -0.6284308775328646,
                0.04916138056588204,
                1.089050830136643,
                1.7535097206730734
            ]
        },
        {
            "positions": [
                -0.658638960793164,
                -0.466351423201566,
                -0.4849628075040697,
                0.007334797811022309,
                1.0355449412548825,
                1.82402225773727
            ]
        },
        {
            "positions": [
                -0.6126161382259616,
                -0.5053111353145623,
                -0.3414947374752746,
                -0.03449178494383742,
                0.982039052373122,
                1.8945347948014666
            ]
        },
        {
            "positions": [
                -0.5665933156587593,
                -0.5442708474275585,
                -0.19802666744647968,
                -0.0763183676986971,
                0.9285331634913615,
                1.9650473318656627
            ]
        },
        {
            "positions": [
                -0.5205704930915569,
                -0.5832305595405547,
                -0.05455859741768476,
                -0.11814495045355683,
                0.875027274609601,
                2.0355598689298593
            ]
        },
        {
            "positions": [
                -0.47454767052435454,
                -0.622190271653551,
                0.08890947261111015,
                -0.15997153320841656,
                0.8215213857278405,
                2.106072405994056
            ]
        },
        {
            "positions": [
                -0.4285248479571522,
                -0.6611499837665473,
                0.2323775426399053,
                -0.2017981159632764,
                0.7680154968460798,
                2.176584943058252
            ]
        },
        {
            "positions": [
                -0.38250202538994993,
                -0.7001096958795434,
                0.3758456126687,
                -0.24362469871813602,
                0.7145096079643194,
                2.2470974801224486
            ]
        },
        {
            "positions": [
                -0.33647920282274746,
                -0.7390694079925397,
                0.5193136826974951,
                -0.28545128147299587,
                0.6610037190825588,
                2.317610017186645
            ]
        },
        {
            "positions": [
                -0.2904563802555452,
                -0.778029120105536,
                0.6627817527262898,
                -0.3272778642278555,
                0.6074978302007984,
                2.3881225542508417
            ]
        },
        {
            "positions": [
                -0.24443355768834285,
                -0.8169888322185324,
                0.8062498227550849,
                -0.3691044469827152,
                0.5539919413190377,
                2.4586350913150383
            ]
        },
        {
            "positions": [
                -0.1984107351211405,
                -0.8559485443315284,
                0.9497178927838796,
                -0.41093102973757495,
                0.5004860524372774,
                2.5291476283792345
            ]
        },
        {
            "positions": [
                -0.15238791255393813,
                -0.8949082564445248,
                1.0931859628126752,
                -0.4527576124924347,
                0.44698016355551684,
                2.599660165443431
            ]
        },
        {
            "positions": [
                -0.10636508998673588,
                -0.9338679685575211,
                1.23665403284147,
                -0.4945841952472944,
                0.3934742746737563,
                2.670172702507627
            ]
        },
        {
            "positions": [
                -0.060342267419533524,
                -0.9728276806705174,
                1.380122102870265,
                -0.5364107780021541,
                0.33996838579199573,
                2.7406852395718238
            ]
        },
        {
            "positions": [
                -0.014319444852331165,
                -1.0117873927835135,
                1.5235901728990597,
                -0.5782373607570137,
                0.2864624969102354,
                2.8111977766360203
            ]
        },
        {
            "positions": [
                0.031703377714871195,
                -1.0507471048965098,
                1.6670582429278549,
                -0.6200639435118735,
                0.23295660802847484,
                2.881710313700217
            ]
        },
        {
            "positions": [
                0.07772620028207355,
                -1.0897068170095061,
                1.8105263129566496,
                -0.6618905262667332,
                0.1794507191467143,
                2.952222850764413
            ]
        },
        {
            "positions": [
                0.12374902284927583,
                -1.1286665291225024,
                1.9539943829854447,
                -0.7037171090215931,
                0.12594483026495365,
                3.0227353878286096
            ]
        }
    ]
}