{
    "goal": {
        "global_pose": {
            "orientation": {
                "w": 0.7047431468963623,
                "x": -0.7094548344612122,
                "y": 0.0024358443915843964,
                "z": -0.0022348060738295317
            },
            "position": {
                "x": 0.6094750761985779,
                "y": 0.3671506643295288,
                "z": 0.19426114857196808
            }
        },
        "name": "move_to_magneteinheit_A"
    },
    "id": "BFMT_move_to_magneteinheit_A_144",
    "joint_names": [
        "shoulder_pan_joint",
        "shoulder_lift_joint",
        "elbow_joint",
        "wrist_1_joint",
        "wrist_2_joint",
        "wrist_3_joint"
    ],
    "metrics": {
        "cart_traj_len": 2.0629947534754502,
        "distance_elbow_joint": 3.877315074521496,
        "distance_shoulder_lift_joint": 1.0557521704938602,
        "distance_shoulder_pan_joint": 1.2412592040418822,
        "distance_wrist_1_joint": 1.135444809068999,
        "distance_wrist_2_joint": 1.4311866062395813,
        "distance_wrist_3_joint": 1.914951023747105,
        "smoothness": 4.440892115770691e-16,
        "time": 0.5666113979999999,
        "traj_len": 3.264338966485087,
        "weighted_distance": 4.1294602977769035
    },
    "planner": "BFMT",
    "start": {
        "state": {
            "elbow_joint": -1.919643507792019,
            "shoulder_lift_joint": -0.07675430207160344,
            "shoulder_pan_joint": -1.1188671864651873,
            "wrist_1_joint": 0.42560062535961957,
            "wrist_2_joint": 1.5706038300724876,
            "wrist_3_joint": 1.1188968870953055
        }
    },
    "waypoints": [
        {
            "positions": [
                -1.1188671864651873,
                -0.07675430207160344,
                -1.919643507792019,
                0.42560062535961957,
                1.5706038300724876,
                1.1188968870953055
            ]
        },
        {
            "positions": [
                -1.072894623352525,
                -0.11585623431211678,
                -1.7760392457727043,
                0.3835471139126196,
                1.517596918730281,
                1.189820999085939
            ]
        },
        {
            "positions": [
                -1.0269220602398628,
                -0.15495816655263012,
                -1.6324349837533898,
                0.34149360246561966,
                1.4645900073880742,
                1.2607451110765726
            ]
        },
        {
            "positions": [
                -0.9809494971272005,
                -0.19406009879314345,
                -1.488830721734075,
                0.2994400910186197,
                1.4115830960458675,
                1.331669223067206
            ]
        },
        {
            "positions": [
                -0.9349769340145382,
                -0.2331620310336568,
                -1.3452264597147605,
                0.2573865795716197,
                1.3585761847036608,
                1.4025933350578397
            ]
        },
        {
            "positions": [
                -0.8890043709018758,
                -0.27226396327417013,
                -1.2016221976954458,
                0.21533306812461975,
                1.3055692733614541,
                1.473517447048473
            ]
        },
        {
            "positions": [
                -0.8430318077892136,
                -0.31136589551468347,
                -1.0580179356761312,
                0.1732795566776198,
                1.2525623620192474,
                1.5444415590391065
            ]
        },
        {
            "positions": [
                -0.7970592446765512,
                -0.3504678277551968,
                -0.9144136736568165,
                0.13122604523061981,
                1.1995554506770407,
                1.6153656710297402
            ]
        },
        {
            "positions": [
                -0.751086681563889,
                -0.38956975999571014,
                -0.7708094116375019,
                0.08917253378361989,
                1.1465485393348338,
                1.6862897830203738
            ]
        },
        {
            "positions": [
                -0.7051141184512266,
                -0.4286716922362235,
                -0.6272051496181872,
                0.04711902233661991,
                1.0935416279926273,
                1.7572138950110072
            ]
        },
        {
            "positions": [
                -0.6591415553385643,
                -0.4677736244767368,
                -0.48360088759887243,
                0.005065510889619929,
                1.0405347166504204,
                1.8281380070016406
            ]
        },
        {
            "positions": [
                -0.613168992225902,
                -0.5068755567172502,
                -0.3399966255795579,
                -0.036988000557379996,
                0.9875278053082138,
                1.899062118992274
            ]
        },
        {
            "positions": [
                -0.5671964291132398,
                -0.5459774889577635,
                -0.19639236356024314,
                -0.07904151200437998,
                0.9345208939660071,
                1.9699862309829077
            ]
        },
        {
            "positions": [
                -0.5212238660005775,
                -0.5850794211982768,
                -0.05278810154092861,
                -0.12109502345137996,
                0.8815139826238003,
                2.0409103429735413
            ]
        },
        {
            "positions": [
                -0.4752513028879152,
                -0.6241813534387901,
                0.09081616047838614,
                -0.16314853489837994,
                0.8285070712815936,
                2.1118344549641748
            ]
        },
        {
            "positions": [
                -0.42927873977525277,
                -0.6632832856793036,
                0.23442042249770112,
                -0.20520204634537992,
                0.7755001599393868,
                2.182758566954808
            ]
        },
        {
            "positions": [
                -0.3833061766625906,
                -0.7023852179198169,
                0.3780246845170152,
                -0.2472555577923798,
                0.7224932485971802,
                2.2536826789454416
            ]
        },
        {
            "positions": [
                -0.3373336135499282,
                -0.7414871501603302,
                0.5216289465363302,
                -0.2893090692393799,
                0.6694863372549734,
                2.3246067909360755
            ]
        },
        {
            "positions": [
                -0.2913610504372659,
                -0.7805890824008435,
                0.6652332085556447,
                -0.33136258068637975,
                0.6164794259127668,
                2.395530902926709
            ]
        },
        {
            "positions": [
                -0.2453884873246036,
                -0.819691014641357,
                0.8088374705749597,
                -0.37341609213337973,
                0.5634725145705599,
                2.4664550149173428
            ]
        },
        {
            "positions": [
                -0.19941592421194132,
                -0.8587929468818702,
                0.9524417325942742,
                -0.4154696035803797,
                0.5104656032283534,
                2.537379126907976
            ]
        },
        {
            "positions": [
                -0.15344336109927903,
                -0.8978948791223835,
                1.0960459946135888,
                -0.4575231150273797,
                0.4574586918861465,
                2.6083032388986096
            ]
        },
        {
            "positions": [
                -0.10747079798661674,
                -0.9369968113628968,
                1.2396502566329033,
                -0.49957662647437956,
                0.40445178054394004,
                2.679227350889243
            ]
        },
        {
            "positions": [
                -0.06149823487395434,
                -0.9760987436034103,
                1.3832545186522183,
                -0.5416301379213797,
                0.3514448692017331,
                2.7501514628798764
            ]
        },
        {
            "positions": [
                -0.015525671761292159,
                -1.0152006758439236,
                1.5268587806715328,
                -0.5836836493683795,
                0.29843795785952665,
                2.82107557487051
            ]
        },
        {
            "positions": [
                0.030446891351370242,
                -1.0543026080844369,
                1.6704630426908473,
                -0.6257371608153794,
                0.24543104651731973,
                2.8919996868611433
            ]
        },
        {
            "positions": [
                0.07641945446403242,
                -1.0934045403249502,
                1.8140673047101619,
                -0.6677906722623794,
                0.19242413517511303,
                2.9629237988517767
            ]
        },
        {
            "positions": [
                0.12239201757669478,
                -1.1325064725654637,
                1.9576715667294768,
                -0.7098441837093795,
                0.13941722383290625,
                3.0338479108424106
            ]
        }
    ]
}