{
    "goal": {
        "global_pose": {
            "orientation": {
                "w": 0.5084816217422485,
                "x": -0.49083608388900757,
                "y": 0.5182115435600281,
                "z": -0.4816462993621826
            },
            "position": {
                "x": 0.5540239810943604,
                "y": 0.030875300988554955,
                "z": 0.16403168439865112
            }
        },
        "name": "move_to_storage_A"
    },
    "id": "BFMT_move_to_storage_A_137",
    "joint_names": [
        "shoulder_pan_joint",
        "shoulder_lift_joint",
        "elbow_joint",
        "wrist_1_joint",
        "wrist_2_joint",
        "wrist_3_joint"
    ],
    "metrics": {
        "cart_traj_len": 0.35335205950949916,
        "distance_elbow_joint": 0.44937541276830073,
        "distance_shoulder_lift_joint": 0.2329666581679266,
        "distance_shoulder_pan_joint": 0.4591484007204941,
        "distance_wrist_1_joint": 0.24807478114045767,
        "distance_wrist_2_joint": 1.110570151538973,
        "distance_wrist_3_joint": 0.09395221052069536,
        "smoothness": 8.881784197001252e-16,
        "time": 0.47178897799999997,
        "traj_len": 1.6106171534094773,
        "weighted_distance": 2.034855515405865
    },
    "planner": "BFMT",
    "start": {
        "state": {
            "elbow_joint": 1.9715463870305268,
            "shoulder_lift_joint": -1.1394903361783484,
            "shoulder_pan_joint": 0.12281147578464417,
            "wrist_1_joint": -0.7804599489681411,
            "wrist_2_joint": 0.12958660307563738,
            "wrist_3_joint": -3.1924946282119055
        }
    },
    "waypoints": [
        {
            "positions": [
                0.12281147578464417,
                -1.1394903361783484,
                1.9715463870305268,
                -0.7804599489681411,
                0.12958660307563738,
                -3.1924946282119055
            ]
        },
        {
            "positions": [
                0.05721884711028788,
                -1.172771287345195,
                2.0357428745688555,
                -0.8158992034167779,
                0.2882394818669192,
                -3.179072883851806
            ]
        },
        {
            "positions": [
                -0.008373781564068414,
                -1.2060522385120418,
                2.0999393621071842,
                -0.8513384578654147,
                0.44689236065820104,
                -3.165651139491707
            ]
        },
        {
            "positions": [
                -0.07396641023842472,
                -1.2393331896788884,
                2.164135849645513,
                -0.8867777123140514,
                0.6055452394494829,
                -3.1522293951316076
            ]
        },
        {
            "positions": [
                -0.13955903891278099,
                -1.272614140845735,
                2.2283323371838413,
                -0.9222169667626883,
                0.7641981182407648,
                -3.138807650771508
            ]
        },
        {
            "positions": [
                -0.20515166758713732,
                -1.3058950920125816,
                2.29252882472217,
                -0.9576562212113251,
                0.9228509970320466,
                -3.1253859064114087
            ]
        },
        {
            "positions": [
                -0.2707442962614936,
                -1.3391760431794284,
                2.3567253122604988,
                -0.9930954756599619,
                1.0815038758233284,
                -3.1119641620513097
            ]
        },
        {
            "positions": [
                -0.33633692493584993,
                -1.372456994346275,
                2.4209217997988275,
                -1.0285347301085987,
                1.2401567546146104,
                -3.09854241769121
            ]
        }
    ]
}