{
    "goal": {
        "global_pose": {
            "orientation": {
                "w": 0.5084816217422485,
                "x": -0.49083608388900757,
                "y": 0.5182115435600281,
                "z": -0.4816462993621826
            },
            "position": {
                "x": 0.5540239810943604,
                "y": 0.030875300988554955,
                "z": 0.16403168439865112
            }
        },
        "name": "move_to_storage_A"
    },
    "id": "BFMT_move_to_storage_A_118",
    "joint_names": [
        "shoulder_pan_joint",
        "shoulder_lift_joint",
        "elbow_joint",
        "wrist_1_joint",
        "wrist_2_joint",
        "wrist_3_joint"
    ],
    "metrics": {
        "cart_traj_len": 0.35283472639669244,
        "distance_elbow_joint": 0.44989101107082385,
        "distance_shoulder_lift_joint": 0.23348768666111996,
        "distance_shoulder_pan_joint": 0.46064802967353075,
        "distance_wrist_1_joint": 0.2450094328133655,
        "distance_wrist_2_joint": 1.1009619453461532,
        "distance_wrist_3_joint": 0.09217210177988377,
        "smoothness": 1.1102230263833737e-15,
        "time": 0.48605794700000005,
        "traj_len": 1.6069132544555345,
        "weighted_distance": 2.027926475260916
    },
    "planner": "BFMT",
    "start": {
        "state": {
            "elbow_joint": 1.9715463870305268,
            "shoulder_lift_joint": -1.1394903361783484,
            "shoulder_pan_joint": 0.12281147578464417,
            "wrist_1_joint": -0.7804599489681411,
            "wrist_2_joint": 0.12958660307563738,
            "wrist_3_joint": -3.1924946282119055
        }
    },
    "waypoints": [
        {
            "positions": [
                0.12281147578464417,
                -1.1394903361783484,
                1.9715463870305268,
                -0.7804599489681411,
                0.12958660307563738,
                -3.1924946282119055
            ]
        },
        {
            "positions": [
                0.05700461440271121,
                -1.1728457199870799,
                2.035816531469216,
                -0.8154612965129076,
                0.2868668809822307,
                -3.1793271851004934
            ]
        },
        {
            "positions": [
                -0.008802246979221759,
                -1.2062011037958111,
                2.100086675907905,
                -0.8504626440576741,
                0.44414715888882395,
                -3.1661597419890817
            ]
        },
        {
            "positions": [
                -0.07460910836115471,
                -1.2395564876045426,
                2.164356820346594,
                -0.8854639916024406,
                0.6014274367954173,
                -3.1529922988776695
            ]
        },
        {
            "positions": [
                -0.14041596974308768,
                -1.272911871413274,
                2.228626964785283,
                -0.9204653391472071,
                0.7587077147020106,
                -3.139824855766258
            ]
        },
        {
            "positions": [
                -0.20622283112502066,
                -1.3062672552220056,
                2.2928971092239725,
                -0.9554666866919737,
                0.915987992608604,
                -3.1266574126548456
            ]
        },
        {
            "positions": [
                -0.2720296925069536,
                -1.3396226390307369,
                2.3571672536626616,
                -0.99046803423674,
                1.0732682705151972,
                -3.113489969543434
            ]
        },
        {
            "positions": [
                -0.33783655388888656,
                -1.3729780228394683,
                2.4214373981013506,
                -1.0254693817815066,
                1.2305485484217906,
                -3.1003225264320218
            ]
        }
    ]
}