{
    "goal": {
        "global_pose": {
            "orientation": {
                "w": 0.7031023502349854,
                "x": -0.7110244035720825,
                "y": 0.007748599164187908,
                "z": 0.005598929710686207
            },
            "position": {
                "x": 0.11585023208521307,
                "y": 0.44412534475326537,
                "z": 0.3711530566215515
            }
        },
        "name": "move_to_auspresseinheit_A"
    },
    "id": "BFMT_move_to_auspresseinheit_A_113",
    "joint_names": [
        "shoulder_pan_joint",
        "shoulder_lift_joint",
        "elbow_joint",
        "wrist_1_joint",
        "wrist_2_joint",
        "wrist_3_joint"
    ],
    "metrics": {
        "cart_traj_len": 0.9560185483679846,
        "distance_elbow_joint": 0.10121969789180252,
        "distance_shoulder_lift_joint": 0.5329998676762493,
        "distance_shoulder_pan_joint": 1.6293229562956437,
        "distance_wrist_1_joint": 0.5706467741017789,
        "distance_wrist_2_joint": 0.518233041438148,
        "distance_wrist_3_joint": 0.5574971887047013,
        "smoothness": 1.0171210732715517,
        "time": 0.6745004990000001,
        "traj_len": 1.9773516445256578,
        "weighted_distance": 2.4726086870060238
    },
    "planner": "BFMT",
    "start": {
        "state": {
            "elbow_joint": 2.422574709923281,
            "shoulder_lift_joint": -1.3736533754116391,
            "shoulder_pan_joint": -0.33786336945926293,
            "wrist_1_joint": -1.0288603412921917,
            "wrist_2_joint": 1.2330224858903978,
            "wrist_3_joint": -3.094022268022082
        }
    },
    "waypoints": [
        {
            "positions": [
                -0.33786336945926293,
                -1.3736533754116391,
                2.422574709923281,
                -1.0288603412921917,
                1.2330224858903978,
                -3.094022268022082
            ]
        },
        {
            "positions": [
                -0.41086620362938514,
                -1.4723572518064998,
                2.4059232966448123,
                -0.9364422744264207,
                1.189326479615003,
                -3.0296876546824576
            ]
        },
        {
            "positions": [
                -0.4838690377995074,
                -1.5710611282013602,
                2.389271883366343,
                -0.8440242075606498,
                1.145630473339608,
                -2.9653530413428326
            ]
        },
        {
            "positions": [
                -0.5568718719696296,
                -1.6697650045962207,
                2.372620470087874,
                -0.7516061406948789,
                1.101934467064213,
                -2.901018428003208
            ]
        },
        {
            "positions": [
                -0.6298747061397518,
                -1.7684688809910813,
                2.355969056809405,
                -0.6591880738291078,
                1.0582384607888182,
                -2.8366838146635835
            ]
        },
        {
            "positions": [
                -0.4069894362038928,
                -1.7914996080072159,
                2.361738064272393,
                -0.6256923227226586,
                1.000996958066057,
                -2.8867102705546173
            ]
        },
        {
            "positions": [
                -0.18410416626803372,
                -1.8145303350233504,
                2.3675070717353806,
                -0.5921965716162094,
                0.9437554553432954,
                -2.936736726445651
            ]
        },
        {
            "positions": [
                0.03878110366782539,
                -1.8375610620394849,
                2.3732760791983685,
                -0.5587008205097603,
                0.886513952620534,
                -2.986763182336685
            ]
        },
        {
            "positions": [
                0.2616663736036844,
                -1.8605917890556194,
                2.3790450866613564,
                -0.5252050694033111,
                0.8292724498977726,
                -3.036789638227719
            ]
        },
        {
            "positions": [
                0.4845516435395436,
                -1.883622516071754,
                2.384814094124344,
                -0.49170931829686193,
                0.7720309471750112,
                -3.0868160941187526
            ]
        },
        {
            "positions": [
                0.7074369134754027,
                -1.9066532430878884,
                2.390583101587332,
                -0.4582135671904128,
                0.7147894444522498,
                -3.1368425500097863
            ]
        }
    ]
}