{
    "goal": {
        "global_pose": {
            "orientation": {
                "w": 0.7031023502349854,
                "x": -0.7110244035720825,
                "y": 0.007748599164187908,
                "z": 0.005598929710686207
            },
            "position": {
                "x": 0.11585023208521307,
                "y": 0.44412534475326537,
                "z": 0.3711530566215515
            }
        },
        "name": "move_to_auspresseinheit_A"
    },
    "id": "BFMT_move_to_auspresseinheit_A_132",
    "joint_names": [
        "shoulder_pan_joint",
        "shoulder_lift_joint",
        "elbow_joint",
        "wrist_1_joint",
        "wrist_2_joint",
        "wrist_3_joint"
    ],
    "metrics": {
        "cart_traj_len": 0.6869859367455684,
        "distance_elbow_joint": 0.0416793623838303,
        "distance_shoulder_lift_joint": 0.5956437920512376,
        "distance_shoulder_pan_joint": 1.085650148655295,
        "distance_wrist_1_joint": 0.6551946598030352,
        "distance_wrist_2_joint": 0.5852771327618602,
        "distance_wrist_3_joint": 0.4309661313495581,
        "smoothness": 0.6224622252610958,
        "time": 0.628917528,
        "traj_len": 1.8423927993250562,
        "weighted_distance": 2.3445287974919027
    },
    "planner": "BFMT",
    "start": {
        "state": {
            "elbow_joint": 2.422574709923281,
            "shoulder_lift_joint": -1.3736533754116391,
            "shoulder_pan_joint": -0.33786336945926293,
            "wrist_1_joint": -1.0288603412921917,
            "wrist_2_joint": 1.2330224858903978,
            "wrist_3_joint": -3.094022268022082
        }
    },
    "waypoints": [
        {
            "positions": [
                -0.33786336945926293,
                -1.3736533754116391,
                2.422574709923281,
                -1.0288603412921917,
                1.2330224858903978,
                -3.094022268022082
            ]
        },
        {
            "positions": [
                -0.34914802369855374,
                -1.4251072931034823,
                2.425032470280442,
                -0.970682489636255,
                1.1831490792692718,
                -3.01779753863563
            ]
        },
        {
            "positions": [
                -0.36043267793784456,
                -1.4765612107953254,
                2.4274902306376034,
                -0.9125046379803183,
                1.1332756726481459,
                -2.9415728092491786
            ]
        },
        {
            "positions": [
                -0.22855701831565173,
                -1.5535828476916056,
                2.4238337778055827,
                -0.8294618176462474,
                1.056732336123911,
                -2.934625359389931
            ]
        },
        {
            "positions": [
                -0.0966813586934589,
                -1.6306044845878858,
                2.420177324973562,
                -0.7464189973121763,
                0.980188999599676,
                -2.9276779095306837
            ]
        },
        {
            "positions": [
                0.035194300928733935,
                -1.707626121484166,
                2.4165208721415414,
                -0.6633761769781052,
                0.903645663075441,
                -2.9207304596714363
            ]
        },
        {
            "positions": [
                0.16706996055092677,
                -1.784647758380446,
                2.4128644193095203,
                -0.5803333566440343,
                0.8271023265512061,
                -2.913783009812189
            ]
        },
        {
            "positions": [
                0.2989456201731196,
                -1.8616693952767263,
                2.4092079664774997,
                -0.4972905363099633,
                0.750558990026971,
                -2.9068355599529414
            ]
        },
        {
            "positions": [
                0.4308212797953124,
                -1.9386910321730064,
                2.405551513645479,
                -0.41424771597589227,
                0.6740156535027361,
                -2.899888110093694
            ]
        },
        {
            "positions": [
                0.5667347210170905,
                -1.9233879645280711,
                2.3981389513067874,
                -0.4345387332192602,
                0.6871508036898353,
                -3.018304096804279
            ]
        },
        {
            "positions": [
                0.7026481622388686,
                -1.908084896883136,
                2.3907263889680954,
                -0.45482975046262814,
                0.7002859538769346,
                -3.136720083514864
            ]
        }
    ]
}