{
    "goal": {
        "global_pose": {
            "orientation": {
                "w": -0.00223480608172531,
                "x": 0.0024358444001904467,
                "y": 0.7094548369677653,
                "z": -0.704743149386269
            },
            "position": {
                "x": 0.6205249238014221,
                "y": -0.6371506643295288,
                "z": 0.19426114857196808
            }
        },
        "name": "move_to_magneteinheit_B"
    },
    "id": "BFMT_move_to_magneteinheit_B_10",
    "joint_names": [
        "shoulder_pan_joint",
        "shoulder_lift_joint",
        "elbow_joint",
        "wrist_1_joint",
        "wrist_2_joint",
        "wrist_3_joint"
    ],
    "metrics": {
        "cart_traj_len": 3.388760690885511,
        "distance_elbow_joint": 4.365672213687567,
        "distance_shoulder_lift_joint": 0.6488926959536445,
        "distance_shoulder_pan_joint": 2.173865722933702,
        "distance_wrist_1_joint": 3.60038945089838,
        "distance_wrist_2_joint": 1.251570466503292,
        "distance_wrist_3_joint": 1.0549989747956054,
        "smoothness": 0.26199197938071656,
        "time": 1.23129405,
        "traj_len": 3.618755245215154,
        "weighted_distance": 4.478542998762552
    },
    "planner": "BFMT",
    "start": {
        "state": {
            "elbow_joint": 2.39358713078474,
            "shoulder_lift_joint": -1.908514104345545,
            "shoulder_pan_joint": 0.7066247066606129,
            "wrist_1_joint": -0.4678290933515497,
            "wrist_2_joint": 0.7096259083745334,
            "wrist_3_joint": -3.1358149277392293
        }
    },
    "waypoints": [
        {
            "positions": [
                0.7066247066606129,
                -1.908514104345545,
                2.39358713078474,
                -0.4678290933515497,
                0.7096259083745334,
                -3.1358149277392293
            ]
        },
        {
            "positions": [
                0.7883436800839817,
                -1.9593212653350045,
                2.3587713117394657,
                -0.31325275440340955,
                0.6679024687511467,
                -3.1660328931200126
            ]
        },
        {
            "positions": [
                0.8700626535073503,
                -2.010128426324464,
                2.323955492694192,
                -0.1586764154552694,
                0.62617902912776,
                -3.1962508585007963
            ]
        },
        {
            "positions": [
                0.9517816269307191,
                -2.0609355873139235,
                2.2891396736489176,
                -0.0041000765071291904,
                0.5844555895043733,
                -3.2264688238815795
            ]
        },
        {
            "positions": [
                1.0530289894941138,
                -2.0559028826717567,
                2.0747954000865625,
                0.01888555961998998,
                0.5857658870714058,
                -3.195351962445326
            ]
        },
        {
            "positions": [
                1.1542763520575086,
                -2.0508701780295895,
                1.8604511265242074,
                0.04187119574710915,
                0.5870761846384381,
                -3.164235101009073
            ]
        },
        {
            "positions": [
                1.2555237146209033,
                -2.0458374733874227,
                1.6461068529618523,
                0.06485683187422832,
                0.5883864822054706,
                -3.1331182395728194
            ]
        },
        {
            "positions": [
                1.356771077184298,
                -2.0408047687452555,
                1.4317625793994972,
                0.08784246800134748,
                0.589696779772503,
                -3.102001378136566
            ]
        },
        {
            "positions": [
                1.4580184397476925,
                -2.0357720641030888,
                1.2174183058371424,
                0.11082810412846665,
                0.5910070773395355,
                -3.0708845167003127
            ]
        },
        {
            "positions": [
                1.5592658023110875,
                -2.0307393594609215,
                1.003074032274787,
                0.13381374025558584,
                0.5923173749065679,
                -3.0397676552640593
            ]
        },
        {
            "positions": [
                1.660513164874482,
                -2.025706654818755,
                0.7887297587124322,
                0.156799376382705,
                0.5936276724736004,
                -3.008650793827806
            ]
        },
        {
            "positions": [
                1.7617605274378767,
                -2.0206739501765876,
                0.5743854851500771,
                0.17978501250982418,
                0.5949379700406328,
                -2.977533932391553
            ]
        },
        {
            "positions": [
                1.8630078900012714,
                -2.015641245534421,
                0.3600412115877223,
                0.20277064863694333,
                0.5962482676076652,
                -2.9464170709552997
            ]
        },
        {
            "positions": [
                1.9642552525646662,
                -2.0106085408922536,
                0.1456969380253672,
                0.2257562847640625,
                0.5975585651746976,
                -2.9153002095190463
            ]
        },
        {
            "positions": [
                2.065502615128061,
                -2.005575836250087,
                -0.06864733553698787,
                0.24874192089118163,
                0.5988688627417301,
                -2.884183348082793
            ]
        },
        {
            "positions": [
                2.166749977691456,
                -2.0005431316079196,
                -0.2829916090993434,
                0.27172755701830087,
                0.6001791603087625,
                -2.8530664866465396
            ]
        },
        {
            "positions": [
                2.2679973402548503,
                -1.9955104269657529,
                -0.49733588266169804,
                0.29471319314542005,
                0.601489457875795,
                -2.8219496252102862
            ]
        },
        {
            "positions": [
                2.369244702818245,
                -1.9904777223235859,
                -0.7116801562240531,
                0.3176988292725392,
                0.6027997554428274,
                -2.790832763774033
            ]
        },
        {
            "positions": [
                2.47049206538164,
                -1.985445017681419,
                -0.9260244297864084,
                0.34068446539965835,
                0.6041100530098599,
                -2.7597159023377795
            ]
        },
        {
            "positions": [
                2.545673789807445,
                -1.9579311789271576,
                -1.1231160998826129,
                0.3054304639953046,
                0.6090307529686839,
                -2.743682748552775
            ]
        },
        {
            "positions": [
                2.6208555142332504,
                -1.9304173401728963,
                -1.3202077699788175,
                0.27017646259095085,
                0.6139514529275079,
                -2.72764959476777
            ]
        },
        {
            "positions": [
                2.6960372386590556,
                -1.902903501418635,
                -1.5172994400750222,
                0.23492246118659704,
                0.6188721528863319,
                -2.711616440982765
            ]
        },
        {
            "positions": [
                2.771218963084861,
                -1.8753896626643738,
                -1.7143911101712266,
                0.1996684597822433,
                0.623792852845156,
                -2.6955832871977607
            ]
        },
        {
            "positions": [
                2.7686435232945246,
                -1.89300093153801,
                -1.7281998170387942,
                -0.008634712014559925,
                0.5406353990555632,
                -2.731266736094166
            ]
        },
        {
            "positions": [
                2.766068083504188,
                -1.9106122004116466,
                -1.742008523906362,
                -0.21693788381136314,
                0.45747794526597063,
                -2.766950184990571
            ]
        },
        {
            "positions": [
                2.763492643713852,
                -1.9282234692852829,
                -1.7558172307739297,
                -0.42524105560816633,
                0.3743204914763779,
                -2.802633633886976
            ]
        },
        {
            "positions": [
                2.760917203923516,
                -1.9458347381589194,
                -1.7696259376414976,
                -0.6335442274049696,
                0.29116303768678525,
                -2.8383170827833806
            ]
        },
        {
            "positions": [
                2.7583417641331796,
                -1.9634460070325557,
                -1.7834346445090652,
                -0.8418473992017728,
                0.20800558389719254,
                -2.8740005316797856
            ]
        },
        {
            "positions": [
                2.755766324342843,
                -1.9810572759061922,
                -1.797243351376633,
                -1.050150570998576,
                0.12484813010759988,
                -2.9096839805761907
            ]
        },
        {
            "positions": [
                2.753190884552507,
                -1.9986685447798285,
                -1.8110520582442007,
                -1.2584537427953792,
                0.0416906763180071,
                -2.9453674294725958
            ]
        },
        {
            "positions": [
                2.7433675510366733,
                -2.0230448811952164,
                -1.8045445584982824,
                -1.4719578601263266,
                -0.047232068666138896,
                -2.9814140501520487
            ]
        },
        {
            "positions": [
                2.7335442175208393,
                -2.047421217610604,
                -1.7980370587523642,
                -1.6854619774572739,
                -0.1361548136502849,
                -3.017460670831502
            ]
        },
        {
            "positions": [
                2.723720884005006,
                -2.0717975540259923,
                -1.791529559006446,
                -1.8989660947882214,
                -0.2250775586344309,
                -3.053507291510955
            ]
        },
        {
            "positions": [
                2.703129754861806,
                -2.1099700196840248,
                -1.7443593838661566,
                -2.0830412054413188,
                -0.3044750495720184,
                -3.078685804063036
            ]
        },
        {
            "positions": [
                2.682538625718607,
                -2.1481424853420577,
                -1.6971892087258673,
                -2.2671163160944166,
                -0.38387254050960584,
                -3.1038643166151165
            ]
        },
        {
            "positions": [
                2.661947496575407,
                -2.18631495100009,
                -1.650019033585578,
                -2.451191426747514,
                -0.4632700314471933,
                -3.1290428291671972
            ]
        }
    ]
}