{
    "goal": {
        "global_pose": {
            "orientation": {
                "w": 0.7047431468963623,
                "x": -0.7094548344612122,
                "y": 0.0024358443915843964,
                "z": -0.0022348060738295317
            },
            "position": {
                "x": 0.6094750761985779,
                "y": 0.3671506643295288,
                "z": 0.19426114857196808
            }
        },
        "name": "move_to_magneteinheit_A"
    },
    "id": "BFMT_move_to_magneteinheit_A_28",
    "joint_names": [
        "shoulder_pan_joint",
        "shoulder_lift_joint",
        "elbow_joint",
        "wrist_1_joint",
        "wrist_2_joint",
        "wrist_3_joint"
    ],
    "metrics": {
        "cart_traj_len": 1.8783216327324046,
        "distance_elbow_joint": 3.9124119096168775,
        "distance_shoulder_lift_joint": 0.7007096540010957,
        "distance_shoulder_pan_joint": 1.2410681840391498,
        "distance_wrist_1_joint": 1.4937727173063,
        "distance_wrist_2_joint": 1.6963975377533018,
        "distance_wrist_3_joint": 1.1066345643941202,
        "smoothness": 4.934324565125532e-16,
        "time": 0.6388222720000001,
        "traj_len": 3.1860625491522994,
        "weighted_distance": 3.943910996835335
    },
    "planner": "BFMT",
    "start": {
        "state": {
            "elbow_joint": -1.919643507792019,
            "shoulder_lift_joint": -0.07675430207160344,
            "shoulder_pan_joint": -1.1188671864651873,
            "wrist_1_joint": 0.42560062535961957,
            "wrist_2_joint": 1.5706038300724876,
            "wrist_3_joint": 1.1188968870953055
        }
    },
    "waypoints": [
        {
            "positions": [
                -1.1188671864651873,
                -0.07675430207160344,
                -1.919643507792019,
                0.42560062535961957,
                1.5706038300724876,
                1.1188968870953055
            ]
        },
        {
            "positions": [
                -1.071133794771374,
                -0.10370467337933789,
                -1.7691661266529084,
                0.48305342217909264,
                1.5053577709281298,
                1.0763340192339932
            ]
        },
        {
            "positions": [
                -1.0234004030775605,
                -0.13065504468707234,
                -1.6186887455137977,
                0.5405062189985658,
                1.440111711783772,
                1.0337711513726808
            ]
        },
        {
            "positions": [
                -0.975667011383747,
                -0.15760541599480682,
                -1.468211364374687,
                0.5979590158180388,
                1.3748656526394143,
                0.9912082835113686
            ]
        },
        {
            "positions": [
                -0.9279336196899335,
                -0.18455578730254124,
                -1.3177339832355763,
                0.6554118126375119,
                1.3096195934950565,
                0.9486454156500563
            ]
        },
        {
            "positions": [
                -0.8802002279961201,
                -0.21150615861027572,
                -1.1672566020964656,
                0.712864609456985,
                1.2443735343506988,
                0.906082547788744
            ]
        },
        {
            "positions": [
                -0.8324668363023067,
                -0.23845652991801017,
                -1.016779220957355,
                0.7703174062764581,
                1.179127475206341,
                0.8635196799274316
            ]
        },
        {
            "positions": [
                -0.7847334446084933,
                -0.2654069012257446,
                -0.8663018398182445,
                0.8277702030959311,
                1.1138814160619832,
                0.8209568120661194
            ]
        },
        {
            "positions": [
                -0.7370000529146796,
                -0.2923572725334791,
                -0.7158244586791336,
                0.8852229999154042,
                1.0486353569176254,
                0.778393944204807
            ]
        },
        {
            "positions": [
                -0.6892666612208662,
                -0.31930764384121346,
                -0.5653470775400231,
                0.9426757967348773,
                0.9833892977732678,
                0.7358310763434948
            ]
        },
        {
            "positions": [
                -0.6415332695270528,
                -0.346258015148948,
                -0.4148696964009122,
                1.0001285935543505,
                0.9181432386289099,
                0.6932682084821824
            ]
        },
        {
            "positions": [
                -0.5937998778332394,
                -0.3732083864566824,
                -0.26439231526180174,
                1.0575813903738234,
                0.8528971794845522,
                0.65070534062087
            ]
        },
        {
            "positions": [
                -0.5460664861394259,
                -0.4001587577644169,
                -0.11391493412269083,
                1.1150341871932965,
                0.7876511203401945,
                0.6081424727595577
            ]
        },
        {
            "positions": [
                -0.49833309444561247,
                -0.4271091290721513,
                0.03656244701641964,
                1.1724869840127696,
                0.7224050611958367,
                0.5655796048982454
            ]
        },
        {
            "positions": [
                -0.45059970275179906,
                -0.45405950037988574,
                0.1870398281555301,
                1.2299397808322425,
                0.6571590020514789,
                0.5230167370369332
            ]
        },
        {
            "positions": [
                -0.40286631105798565,
                -0.48100987168762016,
                0.3375172092946406,
                1.2873925776517157,
                0.5919129429071213,
                0.48045386917562083
            ]
        },
        {
            "positions": [
                -0.355132919364172,
                -0.5079602429953547,
                0.48799459043375193,
                1.3448453744711888,
                0.5266668837627633,
                0.43789100131430847
            ]
        },
        {
            "positions": [
                -0.3073995276703586,
                -0.5349106143030891,
                0.6384719715728624,
                1.402298171290662,
                0.4614208246184057,
                0.3953281334529961
            ]
        },
        {
            "positions": [
                -0.2596661359765452,
                -0.5618609856108235,
                0.7889493527119729,
                1.459750968110135,
                0.39617476547404795,
                0.35276526559168386
            ]
        },
        {
            "positions": [
                -0.2119327442827318,
                -0.588811356918558,
                0.9394267338510833,
                1.517203764929608,
                0.3309287063296902,
                0.3102023977303716
            ]
        },
        {
            "positions": [
                -0.16419935258891827,
                -0.6157617282262926,
                1.0899041149901947,
                1.5746565617490813,
                0.2656826471853322,
                0.26763952986905915
            ]
        },
        {
            "positions": [
                -0.11646596089510486,
                -0.642712099534027,
                1.2403814961293051,
                1.6321093585685542,
                0.20043658804097464,
                0.2250766620077469
            ]
        },
        {
            "positions": [
                -0.06873256920129145,
                -0.6696624708417613,
                1.3908588772684156,
                1.6895621553880273,
                0.13519052889661687,
                0.18251379414643465
            ]
        },
        {
            "positions": [
                -0.02099917750747804,
                -0.6966128421494957,
                1.541336258407526,
                1.7470149522075002,
                0.0699444697522591,
                0.1399509262851223
            ]
        },
        {
            "positions": [
                0.026734214186335592,
                -0.7235632134572303,
                1.6918136395466374,
                1.8044677490269736,
                0.004698410607901327,
                0.09738805842380982
            ]
        },
        {
            "positions": [
                0.074467605880149,
                -0.7505135847649647,
                1.842291020685748,
                1.8619205458464465,
                -0.060547648536456444,
                0.05482519056249768
            ]
        },
        {
            "positions": [
                0.12220099757396231,
                -0.7774639560726992,
                1.9927684018248584,
                1.9193733426659196,
                -0.12579370768081413,
                0.012262322701185381
            ]
        }
    ]
}