{
    "goal": {
        "global_pose": {
            "orientation": {
                "w": 0.7031023502349854,
                "x": -0.7110244035720825,
                "y": 0.007748599164187908,
                "z": 0.005598929710686207
            },
            "position": {
                "x": 0.11585023208521307,
                "y": 0.44412534475326537,
                "z": 0.3711530566215515
            }
        },
        "name": "move_to_auspresseinheit_A"
    },
    "id": "BFMT_move_to_auspresseinheit_A_105",
    "joint_names": [
        "shoulder_pan_joint",
        "shoulder_lift_joint",
        "elbow_joint",
        "wrist_1_joint",
        "wrist_2_joint",
        "wrist_3_joint"
    ],
    "metrics": {
        "cart_traj_len": 0.6777482814259993,
        "distance_elbow_joint": 0.02936828338410269,
        "distance_shoulder_lift_joint": 0.7210236494048867,
        "distance_shoulder_pan_joint": 1.048293398370135,
        "distance_wrist_1_joint": 0.9552804677462472,
        "distance_wrist_2_joint": 0.5112596301622953,
        "distance_wrist_3_joint": 0.14047100525513967,
        "smoothness": 1.009551831254731,
        "time": 0.67568195,
        "traj_len": 1.8454529076415922,
        "weighted_distance": 2.270061352197695
    },
    "planner": "BFMT",
    "start": {
        "state": {
            "elbow_joint": 2.422574709923281,
            "shoulder_lift_joint": -1.3736533754116391,
            "shoulder_pan_joint": -0.33786336945926293,
            "wrist_1_joint": -1.0288603412921917,
            "wrist_2_joint": 1.2330224858903978,
            "wrist_3_joint": -3.094022268022082
        }
    },
    "waypoints": [
        {
            "positions": [
                -0.33786336945926293,
                -1.3736533754116391,
                2.422574709923281,
                -1.0288603412921917,
                1.2330224858903978,
                -3.094022268022082
            ]
        },
        {
            "positions": [
                -0.21647861815052413,
                -1.4632558023477213,
                2.4210987286344348,
                -0.9204649928856669,
                1.218694438257743,
                -3.106926183499197
            ]
        },
        {
            "positions": [
                -0.09509386684178533,
                -1.5528582292838036,
                2.4196227473455885,
                -0.812069644479142,
                1.2043663906250883,
                -3.1198300989763115
            ]
        },
        {
            "positions": [
                0.02629088446695349,
                -1.642460656219886,
                2.418146766056742,
                -0.7036742960726172,
                1.1900383429924335,
                -3.132734014453426
            ]
        },
        {
            "positions": [
                0.14767563577569226,
                -1.7320630831559682,
                2.4166707847678963,
                -0.5952789476660924,
                1.175710295359779,
                -3.1456379299305404
            ]
        },
        {
            "positions": [
                0.2690603870844311,
                -1.8216655100920507,
                2.41519480347905,
                -0.4868835992595675,
                1.161382247727124,
                -3.158541845407655
            ]
        },
        {
            "positions": [
                0.3904451383931699,
                -1.911267937028133,
                2.4137188221902037,
                -0.3784882508530426,
                1.1470542000944695,
                -3.1714457608847697
            ]
        },
        {
            "positions": [
                0.5118298897019087,
                -2.000870363964215,
                2.4122428409013574,
                -0.2700929024465177,
                1.1327261524618146,
                -3.1843496763618844
            ]
        },
        {
            "positions": [
                0.5780299361048965,
                -1.969601477013445,
                2.4058973694472976,
                -0.33559724541337543,
                0.9957383868839106,
                -3.167635144056772
            ]
        },
        {
            "positions": [
                0.6442299825078842,
                -1.9383325900626747,
                2.399551897993238,
                -0.40110158838023313,
                0.8587506213060065,
                -3.1509206117516593
            ]
        },
        {
            "positions": [
                0.710430028910872,
                -1.9070637031119044,
                2.3932064265391784,
                -0.4666059313470909,
                0.7217628557281025,
                -3.134206079446547
            ]
        }
    ]
}