{
    "goal": {
        "global_pose": {
            "orientation": {
                "w": 0.7031023502349854,
                "x": -0.7110244035720825,
                "y": 0.007748599164187908,
                "z": 0.005598929710686207
            },
            "position": {
                "x": 0.11585023208521307,
                "y": 0.44412534475326537,
                "z": 0.3711530566215515
            }
        },
        "name": "move_to_auspresseinheit_A"
    },
    "id": "BFMT_move_to_auspresseinheit_A_24",
    "joint_names": [
        "shoulder_pan_joint",
        "shoulder_lift_joint",
        "elbow_joint",
        "wrist_1_joint",
        "wrist_2_joint",
        "wrist_3_joint"
    ],
    "metrics": {
        "cart_traj_len": 0.80486713746837,
        "distance_elbow_joint": 0.41541462032458876,
        "distance_shoulder_lift_joint": 0.6375914330326016,
        "distance_shoulder_pan_joint": 1.0485078560771286,
        "distance_wrist_1_joint": 2.063560162656729,
        "distance_wrist_2_joint": 1.471496669609414,
        "distance_wrist_3_joint": 0.27775187180874816,
        "smoothness": 1.1251261995295023,
        "time": 0.6677784840000001,
        "traj_len": 2.4319380365274954,
        "weighted_distance": 3.163049665969987
    },
    "planner": "BFMT",
    "start": {
        "state": {
            "elbow_joint": 2.422574709923281,
            "shoulder_lift_joint": -1.3736533754116391,
            "shoulder_pan_joint": -0.33786336945926293,
            "wrist_1_joint": -1.0288603412921917,
            "wrist_2_joint": 1.2330224858903978,
            "wrist_3_joint": -3.094022268022082
        }
    },
    "waypoints": [
        {
            "positions": [
                -0.33786336945926293,
                -1.3736533754116391,
                2.422574709923281,
                -1.0288603412921917,
                1.2330224858903978,
                -3.094022268022082
            ]
        },
        {
            "positions": [
                -0.30442590830102023,
                -1.447056132174132,
                2.394866876176755,
                -0.8649983241863766,
                1.2931276332489066,
                -3.078967924132373
            ]
        },
        {
            "positions": [
                -0.2709884471427776,
                -1.5204588889366248,
                2.367159042430229,
                -0.7011363070805613,
                1.3532327806074156,
                -3.063913580242663
            ]
        },
        {
            "positions": [
                -0.2375509859845349,
                -1.5938616456991175,
                2.339451208683703,
                -0.537274289974746,
                1.4133379279659244,
                -3.048859236352954
            ]
        },
        {
            "positions": [
                -0.2041135248262922,
                -1.6672644024616103,
                2.311743374937177,
                -0.37341227286893086,
                1.4734430753244334,
                -3.0338048924632446
            ]
        },
        {
            "positions": [
                -0.1706760636680495,
                -1.7406671592241032,
                2.284035541190651,
                -0.2095502557631157,
                1.5335482226829422,
                -3.018750548573535
            ]
        },
        {
            "positions": [
                -0.13723860250980682,
                -1.8140699159865958,
                2.2563277074441253,
                -0.04568823865730043,
                1.593653370041451,
                -3.0036962046838256
            ]
        },
        {
            "positions": [
                -0.10380114135156415,
                -1.8874726727490887,
                2.2286198736975993,
                0.11817377844851484,
                1.65375851739996,
                -2.988641860794116
            ]
        },
        {
            "positions": [
                -0.07036368019332145,
                -1.9608754295115816,
                2.2009120399510733,
                0.2820357955543299,
                1.7138636647584689,
                -2.9735875169044066
            ]
        },
        {
            "positions": [
                0.027262340658076922,
                -1.9545792571449991,
                2.225131033745121,
                0.187952792328054,
                1.590031728415801,
                -2.9932521569907906
            ]
        },
        {
            "positions": [
                0.1248883615094753,
                -1.9482830847784167,
                2.2493500275391685,
                0.09386978910177815,
                1.4661997920731331,
                -3.0129167970771746
            ]
        },
        {
            "positions": [
                0.22251438236087367,
                -1.9419869124118343,
                2.2735690213332163,
                -0.00021321412449770705,
                1.3423678557304652,
                -3.0325814371635587
            ]
        },
        {
            "positions": [
                0.32014040321227205,
                -1.9356907400452519,
                2.2977880151272636,
                -0.09429621735077359,
                1.2185359193877974,
                -3.0522460772499427
            ]
        },
        {
            "positions": [
                0.4177664240636704,
                -1.9293945676786697,
                2.3220070089213114,
                -0.18837922057704948,
                1.0947039830451295,
                -3.071910717336327
            ]
        },
        {
            "positions": [
                0.5153924449150689,
                -1.9230983953120873,
                2.346226002715359,
                -0.2824622238033253,
                0.9708720467024616,
                -3.091575357422711
            ]
        },
        {
            "positions": [
                0.6130184657664672,
                -1.9168022229455048,
                2.3704449965094065,
                -0.37654522702960125,
                0.8470401103597938,
                -3.111239997509095
            ]
        },
        {
            "positions": [
                0.7106444866178656,
                -1.9105060505789224,
                2.3946639903034543,
                -0.4706282302558771,
                0.7232081740171259,
                -3.130904637595479
            ]
        }
    ]
}