{
    "goal": {
        "global_pose": {
            "orientation": {
                "w": 0.7031023502349854,
                "x": -0.7110244035720825,
                "y": 0.007748599164187908,
                "z": 0.005598929710686207
            },
            "position": {
                "x": 0.11585023208521307,
                "y": 0.44412534475326537,
                "z": 0.3711530566215515
            }
        },
        "name": "move_to_auspresseinheit_A"
    },
    "id": "BFMT_move_to_auspresseinheit_A_20",
    "joint_names": [
        "shoulder_pan_joint",
        "shoulder_lift_joint",
        "elbow_joint",
        "wrist_1_joint",
        "wrist_2_joint",
        "wrist_3_joint"
    ],
    "metrics": {
        "cart_traj_len": 0.6779809705078963,
        "distance_elbow_joint": 0.26916559667617523,
        "distance_shoulder_lift_joint": 0.6808678317171009,
        "distance_shoulder_pan_joint": 1.0457606102425605,
        "distance_wrist_1_joint": 0.550491419586269,
        "distance_wrist_2_joint": 1.1208603795150518,
        "distance_wrist_3_joint": 0.5271229985234318,
        "smoothness": 0.9325227628710332,
        "time": 0.630326347,
        "traj_len": 2.0479914150846894,
        "weighted_distance": 2.630563938095551
    },
    "planner": "BFMT",
    "start": {
        "state": {
            "elbow_joint": 2.422574709923281,
            "shoulder_lift_joint": -1.3736533754116391,
            "shoulder_pan_joint": -0.33786336945926293,
            "wrist_1_joint": -1.0288603412921917,
            "wrist_2_joint": 1.2330224858903978,
            "wrist_3_joint": -3.094022268022082
        }
    },
    "waypoints": [
        {
            "positions": [
                -0.33786336945926293,
                -1.3736533754116391,
                2.422574709923281,
                -1.0288603412921917,
                1.2330224858903978,
                -3.094022268022082
            ]
        },
        {
            "positions": [
                -0.2616753394966196,
                -1.4750000215922405,
                2.4427135069996395,
                -0.986031246374616,
                1.282861328491682,
                -3.052264818743861
            ]
        },
        {
            "positions": [
                -0.1854873095339763,
                -1.5763466677728417,
                2.4628523040759984,
                -0.9432021514570403,
                1.3327001710929665,
                -3.0105073694656395
            ]
        },
        {
            "positions": [
                -0.10929927957133295,
                -1.6776933139534431,
                2.482991101152357,
                -0.9003730565394646,
                1.3825390136942508,
                -2.9687499201874186
            ]
        },
        {
            "positions": [
                -0.033111249608689663,
                -1.7790399601340443,
                2.5031298982287153,
                -0.857543961621889,
                1.4323778562955352,
                -2.9269924709091972
            ]
        },
        {
            "positions": [
                0.043076780353953736,
                -1.8803866063146457,
                2.5232686953050742,
                -0.8147148667043133,
                1.4822166988968195,
                -2.885235021630976
            ]
        },
        {
            "positions": [
                0.11926481031659701,
                -1.9817332524952471,
                2.5434074923814327,
                -0.7718857717867376,
                1.5320555414981039,
                -2.8434775723527546
            ]
        },
        {
            "positions": [
                0.2173702153943804,
                -1.9696019267229983,
                2.5186853566784286,
                -0.7229662967732684,
                1.3950843208468795,
                -2.889573956161772
            ]
        },
        {
            "positions": [
                0.3154756204721638,
                -1.9574706009507494,
                2.493963220975425,
                -0.6740468217597992,
                1.2581131001956554,
                -2.9356703399707893
            ]
        },
        {
            "positions": [
                0.41358102554994725,
                -1.9453392751785006,
                2.469241085272421,
                -0.6251273467463301,
                1.121141879544431,
                -2.9817667237798067
            ]
        },
        {
            "positions": [
                0.5116864306277306,
                -1.933207949406252,
                2.444518949569417,
                -0.576207871732861,
                0.9841706588932068,
                -3.027863107588824
            ]
        },
        {
            "positions": [
                0.6097918357055141,
                -1.9210766236340031,
                2.419796813866413,
                -0.5272883967193919,
                0.8471994382419824,
                -3.0739594913978414
            ]
        },
        {
            "positions": [
                0.7078972407832974,
                -1.9089452978617543,
                2.395074678163409,
                -0.4783689217059227,
                0.7102282175907582,
                -3.120055875206859
            ]
        }
    ]
}