{
    "goal": {
        "global_pose": {
            "orientation": {
                "w": 0.7047431468963623,
                "x": -0.7094548344612122,
                "y": 0.0024358443915843964,
                "z": -0.0022348060738295317
            },
            "position": {
                "x": 0.6094750761985779,
                "y": 0.3671506643295288,
                "z": 0.19426114857196808
            }
        },
        "name": "move_to_magneteinheit_A"
    },
    "id": "BFMT_move_to_magneteinheit_A_34",
    "joint_names": [
        "shoulder_pan_joint",
        "shoulder_lift_joint",
        "elbow_joint",
        "wrist_1_joint",
        "wrist_2_joint",
        "wrist_3_joint"
    ],
    "metrics": {
        "cart_traj_len": 2.482257027073374,
        "distance_elbow_joint": 3.875715152202675,
        "distance_shoulder_lift_joint": 1.0535380173556186,
        "distance_shoulder_pan_joint": 1.2424788799947575,
        "distance_wrist_1_joint": 1.1394338568485207,
        "distance_wrist_2_joint": 1.4424814477443464,
        "distance_wrist_3_joint": 4.364823507604651,
        "smoothness": 8.374253676107271e-16,
        "time": 0.67182758,
        "traj_len": 3.6219429677661363,
        "weighted_distance": 4.942674699143443
    },
    "planner": "BFMT",
    "start": {
        "state": {
            "elbow_joint": -1.919643507792019,
            "shoulder_lift_joint": -0.07675430207160344,
            "shoulder_pan_joint": -1.1188671864651873,
            "wrist_1_joint": 0.42560062535961957,
            "wrist_2_joint": 1.5706038300724876,
            "wrist_3_joint": 1.1188968870953055
        }
    },
    "waypoints": [
        {
            "positions": [
                -1.1188671864651873,
                -0.07675430207160344,
                -1.919643507792019,
                0.42560062535961957,
                1.5706038300724876,
                1.1188968870953055
            ]
        },
        {
            "positions": [
                -1.1009317741225102,
                -0.12096777402516434,
                -1.8715977202686611,
                0.37097892456584614,
                1.5437771777023874,
                0.9345022831645454
            ]
        },
        {
            "positions": [
                -1.0829963617798328,
                -0.16518124597872524,
                -1.8235519327453031,
                0.31635722377207265,
                1.5169505253322875,
                0.7501076792337853
            ]
        },
        {
            "positions": [
                -1.0650609494371557,
                -0.20939471793228617,
                -1.7755061452219452,
                0.26173552297829916,
                1.4901238729621873,
                0.5657130753030251
            ]
        },
        {
            "positions": [
                -1.0471255370944785,
                -0.2536081898858471,
                -1.7274603576985872,
                0.20711382218452573,
                1.4632972205920871,
                0.38131847137226493
            ]
        },
        {
            "positions": [
                -1.0291901247518014,
                -0.297821661839408,
                -1.6794145701752292,
                0.15249212139075224,
                1.4364705682219872,
                0.1969238674415047
            ]
        },
        {
            "positions": [
                -1.011254712409124,
                -0.3420351337929689,
                -1.6313687826518712,
                0.09787042059697881,
                1.409643915851887,
                0.01252926351074457
            ]
        },
        {
            "positions": [
                -0.9933193000664469,
                -0.3862486057465298,
                -1.5833229951285133,
                0.04324871980320533,
                1.3828172634817868,
                -0.17186534042001567
            ]
        },
        {
            "positions": [
                -0.9753838877237697,
                -0.4304620777000907,
                -1.535277207605155,
                -0.011372980990568105,
                1.3559906111116868,
                -0.3562599443507757
            ]
        },
        {
            "positions": [
                -0.9574484753810925,
                -0.47467554965365166,
                -1.487231420081797,
                -0.06599468178434165,
                1.3291639587415867,
                -0.5406545482815361
            ]
        },
        {
            "positions": [
                -0.9395130630384152,
                -0.5188890216072126,
                -1.4391856325584391,
                -0.12061638257811508,
                1.3023373063714865,
                -0.7250491522122962
            ]
        },
        {
            "positions": [
                -0.921577650695738,
                -0.5631024935607734,
                -1.3911398450350814,
                -0.17523808337188856,
                1.2755106540013865,
                -0.9094437561430562
            ]
        },
        {
            "positions": [
                -0.9036422383530608,
                -0.6073159655143343,
                -1.3430940575117232,
                -0.22985978416566194,
                1.2486840016312863,
                -1.0938383600738164
            ]
        },
        {
            "positions": [
                -0.8857068260103835,
                -0.6515294374678953,
                -1.2950482699883652,
                -0.2844814849594354,
                1.2218573492611862,
                -1.2782329640045766
            ]
        },
        {
            "positions": [
                -0.8677714136677064,
                -0.6957429094214562,
                -1.2470024824650072,
                -0.3391031857532089,
                1.1950306968910862,
                -1.4626275679353369
            ]
        },
        {
            "positions": [
                -0.8182022583078425,
                -0.7174703799217446,
                -1.086848776121224,
                -0.3578396880399935,
                1.141685281162939,
                -1.5517925205640373
            ]
        },
        {
            "positions": [
                -0.7686331029479787,
                -0.7391978504220328,
                -0.926695069777441,
                -0.37657619032677814,
                1.0883398654347918,
                -1.6409574731927377
            ]
        },
        {
            "positions": [
                -0.7190639475881149,
                -0.7609253209223211,
                -0.7665413634336579,
                -0.3953126926135627,
                1.0349944497066443,
                -1.730122425821438
            ]
        },
        {
            "positions": [
                -0.669494792228251,
                -0.7826527914226094,
                -0.6063876570898747,
                -0.41404919490034736,
                0.9816490339784971,
                -1.8192873784501384
            ]
        },
        {
            "positions": [
                -0.6199256368683872,
                -0.8043802619228977,
                -0.4462339507460916,
                -0.43278569718713195,
                0.9283036182503499,
                -1.9084523310788388
            ]
        },
        {
            "positions": [
                -0.5703564815085234,
                -0.826107732423186,
                -0.2860802444023085,
                -0.4515221994739166,
                0.8749582025222027,
                -1.9976172837075392
            ]
        },
        {
            "positions": [
                -0.5207873261486595,
                -0.8478352029234743,
                -0.1259265380585255,
                -0.47025870176070117,
                0.8216127867940555,
                -2.08678223633624
            ]
        },
        {
            "positions": [
                -0.4712181707887957,
                -0.8695626734237626,
                0.034227168285257736,
                -0.48899520404748575,
                0.768267371065908,
                -2.17594718896494
            ]
        },
        {
            "positions": [
                -0.4216490154289319,
                -0.8912901439240508,
                0.19438087462904097,
                -0.5077317063342703,
                0.7149219553377608,
                -2.26511214159364
            ]
        },
        {
            "positions": [
                -0.37207986006906807,
                -0.9130176144243392,
                0.354534580972824,
                -0.526468208621055,
                0.6615765396096136,
                -2.3542770942223408
            ]
        },
        {
            "positions": [
                -0.3225107047092042,
                -0.9347450849246275,
                0.5146882873166072,
                -0.5452047109078396,
                0.6082311238814663,
                -2.4434420468510414
            ]
        },
        {
            "positions": [
                -0.27294154934934045,
                -0.9564725554249157,
                0.6748419936603902,
                -0.5639412131946242,
                0.5548857081533191,
                -2.5326069994797415
            ]
        },
        {
            "positions": [
                -0.2233723939894765,
                -0.978200025925204,
                0.8349957000041734,
                -0.5826777154814089,
                0.5015402924251718,
                -2.6217719521084417
            ]
        },
        {
            "positions": [
                -0.17380323862961278,
                -0.9999274964254923,
                0.9951494063479562,
                -0.6014142177681934,
                0.4481948766970246,
                -2.7109369047371423
            ]
        },
        {
            "positions": [
                -0.12423408326974894,
                -1.0216549669257806,
                1.1553031126917395,
                -0.6201507200549781,
                0.3948494609688773,
                -2.800101857365843
            ]
        },
        {
            "positions": [
                -0.07466492790988499,
                -1.043382437426069,
                1.3154568190355227,
                -0.6388872223417627,
                0.34150404524072997,
                -2.889266809994543
            ]
        },
        {
            "positions": [
                -0.025095772550021267,
                -1.0651099079263573,
                1.475610525379306,
                -0.6576237246285472,
                0.28815862951258275,
                -2.9784317626232433
            ]
        },
        {
            "positions": [
                0.02447338280984257,
                -1.0868373784266456,
                1.6357642317230892,
                -0.6763602269153319,
                0.23481321378443554,
                -3.067596715251944
            ]
        },
        {
            "positions": [
                0.0740425381697064,
                -1.1085648489269337,
                1.795917938066872,
                -0.6950967292021164,
                0.1814677980562882,
                -3.1567616678806445
            ]
        },
        {
            "positions": [
                0.12361169352957026,
                -1.130292319427222,
                1.9560716444106552,
                -0.7138332314889011,
                0.1281223823281411,
                -3.2459266205093447
            ]
        }
    ]
}