{
    "goal": {
        "global_pose": {
            "orientation": {
                "w": 0.7031023502349854,
                "x": -0.7110244035720825,
                "y": 0.007748599164187908,
                "z": 0.005598929710686207
            },
            "position": {
                "x": 0.11585023208521307,
                "y": 0.44412534475326537,
                "z": 0.3711530566215515
            }
        },
        "name": "move_to_auspresseinheit_A"
    },
    "id": "BFMT_move_to_auspresseinheit_A_42",
    "joint_names": [
        "shoulder_pan_joint",
        "shoulder_lift_joint",
        "elbow_joint",
        "wrist_1_joint",
        "wrist_2_joint",
        "wrist_3_joint"
    ],
    "metrics": {
        "cart_traj_len": 0.6838705702040292,
        "distance_elbow_joint": 0.20039367231536342,
        "distance_shoulder_lift_joint": 0.9323879178544274,
        "distance_shoulder_pan_joint": 1.0443687110283462,
        "distance_wrist_1_joint": 1.7434383265451736,
        "distance_wrist_2_joint": 0.588966624483961,
        "distance_wrist_3_joint": 0.06533472581184263,
        "smoothness": 1.057818293047836,
        "time": 0.516484853,
        "traj_len": 2.1388992444804673,
        "weighted_distance": 2.652916203104036
    },
    "planner": "BFMT",
    "start": {
        "state": {
            "elbow_joint": 2.422574709923281,
            "shoulder_lift_joint": -1.3736533754116391,
            "shoulder_pan_joint": -0.33786336945926293,
            "wrist_1_joint": -1.0288603412921917,
            "wrist_2_joint": 1.2330224858903978,
            "wrist_3_joint": -3.094022268022082
        }
    },
    "waypoints": [
        {
            "positions": [
                -0.33786336945926293,
                -1.3736533754116391,
                2.422574709923281,
                -1.0288603412921917,
                1.2330224858903978,
                -3.094022268022082
            ]
        },
        {
            "positions": [
                -0.29104649221533246,
                -1.4960686860866592,
                2.4367506089986657,
                -0.835840817727787,
                1.2392474013792627,
                -3.103586059583738
            ]
        },
        {
            "positions": [
                -0.24422961497140197,
                -1.6184839967616795,
                2.45092650807405,
                -0.6428212941633822,
                1.2454723168681274,
                -3.1131498511453937
            ]
        },
        {
            "positions": [
                -0.19741273772747148,
                -1.7408993074366996,
                2.4651024071494345,
                -0.4498017705989773,
                1.2516972323569924,
                -3.1227136427070494
            ]
        },
        {
            "positions": [
                -0.150595860483541,
                -1.8633146181117197,
                2.479278306224819,
                -0.25678224703457253,
                1.2579221478458573,
                -3.1322774342687056
            ]
        },
        {
            "positions": [
                -0.10377898323961049,
                -1.98572992878674,
                2.4934542053002033,
                -0.06376272347016765,
                1.264147063334722,
                -3.1418412258303614
            ]
        },
        {
            "positions": [
                -0.056962105995680024,
                -2.10814523946176,
                2.507630104375588,
                0.12925680009423707,
                1.270371978823587,
                -3.151405017392017
            ]
        },
        {
            "positions": [
                0.0702824685984472,
                -2.075162563827709,
                2.4884070580650786,
                0.031703269234446274,
                1.1784357902317917,
                -3.1500796879850324
            ]
        },
        {
            "positions": [
                0.19752704319257441,
                -2.042179888193658,
                2.469184011754569,
                -0.06585026162534452,
                1.0864996016399964,
                -3.148754358578048
            ]
        },
        {
            "positions": [
                0.32477161778670166,
                -2.0091972125596067,
                2.4499609654440597,
                -0.1634037924851353,
                0.9945634130482011,
                -3.1474290291710636
            ]
        },
        {
            "positions": [
                0.45201619238082885,
                -1.976214536925556,
                2.4307379191335503,
                -0.2609573233449261,
                0.9026272244564059,
                -3.1461036997640788
            ]
        },
        {
            "positions": [
                0.5792607669749561,
                -1.9432318612915047,
                2.411514872823041,
                -0.3585108542047169,
                0.8106910358646104,
                -3.144778370357094
            ]
        },
        {
            "positions": [
                0.7065053415690834,
                -1.9102491856574537,
                2.3922918265125315,
                -0.45606438506450775,
                0.7187548472728152,
                -3.1434530409501096
            ]
        }
    ]
}