{
    "goal": {
        "global_pose": {
            "orientation": {
                "w": 0.7031023502349854,
                "x": -0.7110244035720825,
                "y": 0.007748599164187908,
                "z": 0.005598929710686207
            },
            "position": {
                "x": 0.11585023208521307,
                "y": 0.44412534475326537,
                "z": 0.3711530566215515
            }
        },
        "name": "move_to_auspresseinheit_A"
    },
    "id": "BFMT_move_to_auspresseinheit_A_35",
    "joint_names": [
        "shoulder_pan_joint",
        "shoulder_lift_joint",
        "elbow_joint",
        "wrist_1_joint",
        "wrist_2_joint",
        "wrist_3_joint"
    ],
    "metrics": {
        "cart_traj_len": 0.7758603507389014,
        "distance_elbow_joint": 0.029844157289728557,
        "distance_shoulder_lift_joint": 0.7203741392832415,
        "distance_shoulder_pan_joint": 1.0434373293342545,
        "distance_wrist_1_joint": 2.0138531639585713,
        "distance_wrist_2_joint": 0.5189373158073562,
        "distance_wrist_3_joint": 0.2424818542539846,
        "smoothness": 1.3219632253952838,
        "time": 0.6290992719999999,
        "traj_len": 2.1375050783394967,
        "weighted_distance": 2.754393245018045
    },
    "planner": "BFMT",
    "start": {
        "state": {
            "elbow_joint": 2.422574709923281,
            "shoulder_lift_joint": -1.3736533754116391,
            "shoulder_pan_joint": -0.33786336945926293,
            "wrist_1_joint": -1.0288603412921917,
            "wrist_2_joint": 1.2330224858903978,
            "wrist_3_joint": -3.094022268022082
        }
    },
    "waypoints": [
        {
            "positions": [
                -0.33786336945926293,
                -1.3736533754116391,
                2.422574709923281,
                -1.0288603412921917,
                1.2330224858903978,
                -3.094022268022082
            ]
        },
        {
            "positions": [
                -0.22203249136485437,
                -1.4434414304215168,
                2.421577782220651,
                -0.88522291026585,
                1.2247704655373068,
                -3.110496592503127
            ]
        },
        {
            "positions": [
                -0.1062016132704458,
                -1.5132294854313946,
                2.420580854518021,
                -0.7415854792395082,
                1.216518445184216,
                -3.126970916984172
            ]
        },
        {
            "positions": [
                0.009629264823962758,
                -1.5830175404412723,
                2.4195839268153905,
                -0.5979480482131665,
                1.2082664248311252,
                -3.143445241465217
            ]
        },
        {
            "positions": [
                0.12546014291837132,
                -1.65280559545115,
                2.4185869991127604,
                -0.45431061718682475,
                1.2000144044780343,
                -3.159919565946262
            ]
        },
        {
            "positions": [
                0.24129102101277994,
                -1.722593650461028,
                2.4175900714101304,
                -0.310673186160483,
                1.1917623841249434,
                -3.176393890427307
            ]
        },
        {
            "positions": [
                0.35712189910718845,
                -1.7923817054709055,
                2.4165931437075003,
                -0.16703575513414126,
                1.1835103637718525,
                -3.1928682149083523
            ]
        },
        {
            "positions": [
                0.47295277720159706,
                -1.8621697604807834,
                2.41559621600487,
                -0.023398324107799517,
                1.1752583434187618,
                -3.209342539389397
            ]
        },
        {
            "positions": [
                0.5887836552960055,
                -1.931957815490661,
                2.41459928830224,
                0.12023910691854223,
                1.1670063230656709,
                -3.2258168638704423
            ]
        },
        {
            "positions": [
                0.7046145333904142,
                -2.001745870500539,
                2.4136023605996098,
                0.26387653794488386,
                1.15875430271258,
                -3.242291188351487
            ]
        },
        {
            "positions": [
                0.7048543900115585,
                -1.9786754594519533,
                2.4083844086080957,
                0.08359746676450991,
                1.0475870195551953,
                -3.2187379548703423
            ]
        },
        {
            "positions": [
                0.7050942466327028,
                -1.955605048403368,
                2.403166456616581,
                -0.09668160441586404,
                0.9364197363978107,
                -3.1951847213891975
            ]
        },
        {
            "positions": [
                0.705334103253847,
                -1.9325346373547827,
                2.3979485046250666,
                -0.27696067559623805,
                0.8252524532404262,
                -3.1716314879080523
            ]
        },
        {
            "positions": [
                0.7055739598749913,
                -1.9094642263061972,
                2.3927305526335525,
                -0.45723974677661194,
                0.7140851700830415,
                -3.1480782544269075
            ]
        }
    ]
}