{
    "goal": {
        "global_pose": {
            "orientation": {
                "w": 0.7047431468963623,
                "x": -0.7094548344612122,
                "y": 0.0024358443915843964,
                "z": -0.0022348060738295317
            },
            "position": {
                "x": 0.6094750761985779,
                "y": 0.3671506643295288,
                "z": 0.19426114857196808
            }
        },
        "name": "move_to_magneteinheit_A"
    },
    "id": "BFMT_move_to_magneteinheit_A_118",
    "joint_names": [
        "shoulder_pan_joint",
        "shoulder_lift_joint",
        "elbow_joint",
        "wrist_1_joint",
        "wrist_2_joint",
        "wrist_3_joint"
    ],
    "metrics": {
        "cart_traj_len": 2.0671112394285456,
        "distance_elbow_joint": 3.886363524694419,
        "distance_shoulder_lift_joint": 1.059022077221696,
        "distance_shoulder_pan_joint": 1.2416670606226394,
        "distance_wrist_1_joint": 1.17592557801914,
        "distance_wrist_2_joint": 1.4336161864228028,
        "distance_wrist_3_joint": 1.9334026314153538,
        "smoothness": 3.368952644486532e-16,
        "time": 0.603413391,
        "traj_len": 3.2756674218235355,
        "weighted_distance": 4.148053047595788
    },
    "planner": "BFMT",
    "start": {
        "state": {
            "elbow_joint": -1.919643507792019,
            "shoulder_lift_joint": -0.07675430207160344,
            "shoulder_pan_joint": -1.1188671864651873,
            "wrist_1_joint": 0.42560062535961957,
            "wrist_2_joint": 1.5706038300724876,
            "wrist_3_joint": 1.1188968870953055
        }
    },
    "waypoints": [
        {
            "positions": [
                -1.1188671864651873,
                -0.07675430207160344,
                -1.919643507792019,
                0.42560062535961957,
                1.5706038300724876,
                1.1188968870953055
            ]
        },
        {
            "positions": [
                -1.0745219343000931,
                -0.11457651911523545,
                -1.7808448104815042,
                0.3836032832875074,
                1.5194032519859588,
                1.1879469810744254
            ]
        },
        {
            "positions": [
                -1.030176682134999,
                -0.15239873615886745,
                -1.6420461131709891,
                0.3416059412153953,
                1.4682026738994303,
                1.256997075053545
            ]
        },
        {
            "positions": [
                -0.9858314299699046,
                -0.19022095320249943,
                -1.5032474158604743,
                0.2996085991432832,
                1.4170020958129017,
                1.326047169032665
            ]
        },
        {
            "positions": [
                -0.9414861778048103,
                -0.22804317024613144,
                -1.3644487185499594,
                0.25761125707117105,
                1.365801517726373,
                1.3950972630117846
            ]
        },
        {
            "positions": [
                -0.897140925639716,
                -0.26586538728976344,
                -1.2256500212394443,
                0.21561391499905888,
                1.3146009396398441,
                1.4641473569909045
            ]
        },
        {
            "positions": [
                -0.8527956734746218,
                -0.3036876043333955,
                -1.0868513239289292,
                0.17361657292694677,
                1.2634003615533156,
                1.5331974509700241
            ]
        },
        {
            "positions": [
                -0.8084504213095275,
                -0.34150982137702746,
                -0.9480526266184144,
                0.13161923085483462,
                1.212199783466787,
                1.602247544949144
            ]
        },
        {
            "positions": [
                -0.7641051691444332,
                -0.37933203842065943,
                -0.8092539293078995,
                0.08962188878272248,
                1.1609992053802582,
                1.6712976389282637
            ]
        },
        {
            "positions": [
                -0.7197599169793389,
                -0.41715425546429147,
                -0.6704552319973844,
                0.04762454671061034,
                1.1097986272937295,
                1.7403477329073835
            ]
        },
        {
            "positions": [
                -0.6754146648142447,
                -0.45497647250792345,
                -0.5316565346868696,
                0.0056272046384981955,
                1.058598049207201,
                1.8093978268865034
            ]
        },
        {
            "positions": [
                -0.6310694126491505,
                -0.4927986895515555,
                -0.3928578373763545,
                -0.03637013743361389,
                1.0073974711206723,
                1.878447920865623
            ]
        },
        {
            "positions": [
                -0.5867241604840562,
                -0.5306209065951875,
                -0.25405914006583963,
                -0.07836747950572603,
                0.9561968930341436,
                1.9474980148447427
            ]
        },
        {
            "positions": [
                -0.5423789083189618,
                -0.5684431236388194,
                -0.11526044275532454,
                -0.12036482157783818,
                0.9049963149476149,
                2.0165481088238626
            ]
        },
        {
            "positions": [
                -0.49803365615386763,
                -0.6062653406824514,
                0.02353825455519032,
                -0.16236216364995032,
                0.8537957368610862,
                2.0855982028029825
            ]
        },
        {
            "positions": [
                -0.4536884039887734,
                -0.6440875577260834,
                0.1623369518657054,
                -0.20435950572206246,
                0.8025951587745576,
                2.154648296782102
            ]
        },
        {
            "positions": [
                -0.4093431518236791,
                -0.6819097747697154,
                0.30113564917622004,
                -0.2463568477941746,
                0.7513945806880289,
                2.223698390761222
            ]
        },
        {
            "positions": [
                -0.36499789965858487,
                -0.7197319918133473,
                0.43993434648673513,
                -0.28835418986628664,
                0.7001940026015003,
                2.2927484847403417
            ]
        },
        {
            "positions": [
                -0.32065264749349054,
                -0.7575542088569795,
                0.5787330437972502,
                -0.3303515319383989,
                0.6489934245149714,
                2.361798578719462
            ]
        },
        {
            "positions": [
                -0.2763073953283963,
                -0.7953764259006115,
                0.7175317411077653,
                -0.37234887401051103,
                0.5977928464284429,
                2.4308486726985814
            ]
        },
        {
            "positions": [
                -0.231962143163302,
                -0.8331986429442435,
                0.8563304384182799,
                -0.4143462160826232,
                0.5465922683419142,
                2.4998987666777013
            ]
        },
        {
            "positions": [
                -0.18761689099820777,
                -0.8710208599878755,
                0.995129135728795,
                -0.4563435581547353,
                0.49539169025538565,
                2.568948860656821
            ]
        },
        {
            "positions": [
                -0.14327163883311356,
                -0.9088430770315075,
                1.13392783303931,
                -0.49834090022684735,
                0.44419111216885687,
                2.6379989546359406
            ]
        },
        {
            "positions": [
                -0.09892638666801923,
                -0.9466652940751394,
                1.2727265303498247,
                -0.5403382422989595,
                0.3929905340823283,
                2.7070490486150605
            ]
        },
        {
            "positions": [
                -0.05458113450292501,
                -0.9844875111187714,
                1.4115252276603398,
                -0.5823355843710716,
                0.34178995599579953,
                2.7760991425941803
            ]
        },
        {
            "positions": [
                -0.01023588233783057,
                -1.0223097281624036,
                1.550323924970855,
                -0.6243329264431838,
                0.29058937790927075,
                2.8451492365733
            ]
        },
        {
            "positions": [
                0.03410936982726365,
                -1.0601319452060356,
                1.68912262228137,
                -0.6663302685152959,
                0.2393887998227422,
                2.91419933055242
            ]
        },
        {
            "positions": [
                0.07845462199235786,
                -1.0979541622496676,
                1.8279213195918846,
                -0.7083276105874081,
                0.1881882217362134,
                2.9832494245315395
            ]
        },
        {
            "positions": [
                0.12279987415745207,
                -1.1357763792932996,
                1.9667200169024,
                -0.7503249526595203,
                0.1369876436496849,
                3.0522995185106594
            ]
        }
    ]
}