{
    "goal": {
        "global_pose": {
            "orientation": {
                "w": 0.7031023502349854,
                "x": -0.7110244035720825,
                "y": 0.007748599164187908,
                "z": 0.005598929710686207
            },
            "position": {
                "x": 0.11585023208521307,
                "y": 0.44412534475326537,
                "z": 0.3711530566215515
            }
        },
        "name": "move_to_auspresseinheit_A"
    },
    "id": "BFMT_move_to_auspresseinheit_A_53",
    "joint_names": [
        "shoulder_pan_joint",
        "shoulder_lift_joint",
        "elbow_joint",
        "wrist_1_joint",
        "wrist_2_joint",
        "wrist_3_joint"
    ],
    "metrics": {
        "cart_traj_len": 0.6782341246367363,
        "distance_elbow_joint": 0.04580733098462364,
        "distance_shoulder_lift_joint": 0.5351730646407604,
        "distance_shoulder_pan_joint": 1.044808198799588,
        "distance_wrist_1_joint": 0.7378664439289115,
        "distance_wrist_2_joint": 0.519312270787247,
        "distance_wrist_3_joint": 1.3252153383011156,
        "smoothness": 0.777001845680728,
        "time": 0.517152237,
        "traj_len": 2.0513855433443626,
        "weighted_distance": 2.8488229216223036
    },
    "planner": "BFMT",
    "start": {
        "state": {
            "elbow_joint": 2.422574709923281,
            "shoulder_lift_joint": -1.3736533754116391,
            "shoulder_pan_joint": -0.33786336945926293,
            "wrist_1_joint": -1.0288603412921917,
            "wrist_2_joint": 1.2330224858903978,
            "wrist_3_joint": -3.094022268022082
        }
    },
    "waypoints": [
        {
            "positions": [
                -0.33786336945926293,
                -1.3736533754116391,
                2.422574709923281,
                -1.0288603412921917,
                1.2330224858903978,
                -3.094022268022082
            ]
        },
        {
            "positions": [
                -0.2553258825383375,
                -1.411486228903431,
                2.418011187116096,
                -0.9477972602590312,
                1.169104502753626,
                -3.0136378294933577
            ]
        },
        {
            "positions": [
                -0.17278839561741205,
                -1.4493190823952227,
                2.4134476643089107,
                -0.8667341792258707,
                1.1051865196168542,
                -2.933253390964633
            ]
        },
        {
            "positions": [
                -0.09025090869648661,
                -1.4871519358870142,
                2.408884141501726,
                -0.7856710981927103,
                1.0412685364800827,
                -2.8528689524359083
            ]
        },
        {
            "positions": [
                -0.007713421775561169,
                -1.524984789378806,
                2.4043206186945407,
                -0.7046080171595498,
                0.9773505533433109,
                -2.772484513907184
            ]
        },
        {
            "positions": [
                0.07482406514536427,
                -1.5628176428705978,
                2.3997570958873555,
                -0.6235449361263893,
                0.9134325702065391,
                -2.6921000753784594
            ]
        },
        {
            "positions": [
                0.1573615520662897,
                -1.6006504963623893,
                2.395193573080171,
                -0.5424818550932289,
                0.8495145870697675,
                -2.611715636849735
            ]
        },
        {
            "positions": [
                0.23989903898721515,
                -1.638483349854181,
                2.3906300502729856,
                -0.46141877406006837,
                0.7855966039329958,
                -2.53133119832101
            ]
        },
        {
            "positions": [
                0.32243652590814054,
                -1.6763162033459729,
                2.3860665274658004,
                -0.38035569302690786,
                0.721678620796224,
                -2.4509467597922856
            ]
        },
        {
            "positions": [
                0.4185636017661867,
                -1.7344437625225795,
                2.388391314597586,
                -0.4026961419428148,
                0.7196865193729557,
                -2.6214817173101155
            ]
        },
        {
            "positions": [
                0.5146906776242328,
                -1.792571321699186,
                2.390716101729372,
                -0.42503659085872164,
                0.7176944179496874,
                -2.792016674827945
            ]
        },
        {
            "positions": [
                0.6108177534822791,
                -1.850698880875793,
                2.3930408888611576,
                -0.4473770397746285,
                0.7157023165264191,
                -2.962551632345775
            ]
        },
        {
            "positions": [
                0.7069448293403252,
                -1.9088264400523995,
                2.3953656759929434,
                -0.4697174886905354,
                0.7137102151031508,
                -3.1330865898636047
            ]
        }
    ]
}