{
    "goal": {
        "global_pose": {
            "orientation": {
                "w": 0.7031023502349854,
                "x": -0.7110244035720825,
                "y": 0.007748599164187908,
                "z": 0.005598929710686207
            },
            "position": {
                "x": 0.11585023208521307,
                "y": 0.44412534475326537,
                "z": 0.3711530566215515
            }
        },
        "name": "move_to_auspresseinheit_A"
    },
    "id": "BFMT_move_to_auspresseinheit_A_86",
    "joint_names": [
        "shoulder_pan_joint",
        "shoulder_lift_joint",
        "elbow_joint",
        "wrist_1_joint",
        "wrist_2_joint",
        "wrist_3_joint"
    ],
    "metrics": {
        "cart_traj_len": 0.8066402951239566,
        "distance_elbow_joint": 0.06924747674126808,
        "distance_shoulder_lift_joint": 0.5395969393997282,
        "distance_shoulder_pan_joint": 1.6815758073037737,
        "distance_wrist_1_joint": 0.5472339086628509,
        "distance_wrist_2_joint": 1.024528380765159,
        "distance_wrist_3_joint": 0.21584505024871614,
        "smoothness": 0.877812317847468,
        "time": 0.7110186759999999,
        "traj_len": 2.019412677765864,
        "weighted_distance": 2.4660656830358225
    },
    "planner": "BFMT",
    "start": {
        "state": {
            "elbow_joint": 2.422574709923281,
            "shoulder_lift_joint": -1.3736533754116391,
            "shoulder_pan_joint": -0.33786336945926293,
            "wrist_1_joint": -1.0288603412921917,
            "wrist_2_joint": 1.2330224858903978,
            "wrist_3_joint": -3.094022268022082
        }
    },
    "waypoints": [
        {
            "positions": [
                -0.33786336945926293,
                -1.3736533754116391,
                2.422574709923281,
                -1.0288603412921917,
                1.2330224858903978,
                -3.094022268022082
            ]
        },
        {
            "positions": [
                -0.3911764509969158,
                -1.4477033252655511,
                2.4262797921521093,
                -0.9733849854128206,
                1.103714205898287,
                -3.0784184532466194
            ]
        },
        {
            "positions": [
                -0.4444895325345686,
                -1.5217532751194631,
                2.4299848743809376,
                -0.9179096295334495,
                0.9744059259061764,
                -3.0628146384711568
            ]
        },
        {
            "positions": [
                -0.4978026140722215,
                -1.5958032249733751,
                2.433689956609766,
                -0.8624342736540782,
                0.8450976459140656,
                -3.0472108236956945
            ]
        },
        {
            "positions": [
                -0.5511156956098743,
                -1.6698531748272871,
                2.437395038838594,
                -0.8069589177747072,
                0.715789365921955,
                -3.031607008920232
            ]
        },
        {
            "positions": [
                -0.6044287771475272,
                -1.7439031246811991,
                2.4411001210674224,
                -0.7514835618953359,
                0.5864810859298442,
                -3.016003194144769
            ]
        },
        {
            "positions": [
                -0.65774185868518,
                -1.8179530745351111,
                2.4448052032962506,
                -0.6960082060159648,
                0.45717280593773346,
                -3.0003993793693065
            ]
        },
        {
            "positions": [
                -0.43079230567220383,
                -1.8338359479144872,
                2.436969039401534,
                -0.6602779104515275,
                0.4986192560731492,
                -3.0207697396352966
            ]
        },
        {
            "positions": [
                -0.2038427526592277,
                -1.8497188212938631,
                2.429132875506818,
                -0.6245476148870901,
                0.540065706208565,
                -3.0411400999012868
            ]
        },
        {
            "positions": [
                0.023106800353748458,
                -1.8656016946732392,
                2.4212967116121016,
                -0.5888173193226528,
                0.5815121563439808,
                -3.061510460167277
            ]
        },
        {
            "positions": [
                0.2500563533667246,
                -1.8814845680526153,
                2.413460547717385,
                -0.5530870237582155,
                0.6229586064793966,
                -3.0818808204332666
            ]
        },
        {
            "positions": [
                0.47700590637970075,
                -1.8973674414319912,
                2.4056243838226683,
                -0.5173567281937781,
                0.6644050566148123,
                -3.1022511806992568
            ]
        },
        {
            "positions": [
                0.7039554593926768,
                -1.9132503148113673,
                2.397788219927952,
                -0.4816264326293408,
                0.7058515067502281,
                -3.122621540965247
            ]
        }
    ]
}