{
    "goal": {
        "global_pose": {
            "orientation": {
                "w": 0.7031023502349854,
                "x": -0.7110244035720825,
                "y": 0.007748599164187908,
                "z": 0.005598929710686207
            },
            "position": {
                "x": 0.11585023208521307,
                "y": 0.44412534475326537,
                "z": 0.3711530566215515
            }
        },
        "name": "move_to_auspresseinheit_A"
    },
    "id": "BFMT_move_to_auspresseinheit_A_111",
    "joint_names": [
        "shoulder_pan_joint",
        "shoulder_lift_joint",
        "elbow_joint",
        "wrist_1_joint",
        "wrist_2_joint",
        "wrist_3_joint"
    ],
    "metrics": {
        "cart_traj_len": 0.7043542816324689,
        "distance_elbow_joint": 0.24089650036780075,
        "distance_shoulder_lift_joint": 0.5360493307768674,
        "distance_shoulder_pan_joint": 1.0458114225033164,
        "distance_wrist_1_joint": 0.552714739729129,
        "distance_wrist_2_joint": 3.2705727323061544,
        "distance_wrist_3_joint": 0.05016430832956864,
        "smoothness": 1.2401554961483054,
        "time": 0.7074663769999999,
        "traj_len": 2.386673214751621,
        "weighted_distance": 3.1015842923749886
    },
    "planner": "BFMT",
    "start": {
        "state": {
            "elbow_joint": 2.422574709923281,
            "shoulder_lift_joint": -1.3736533754116391,
            "shoulder_pan_joint": -0.33786336945926293,
            "wrist_1_joint": -1.0288603412921917,
            "wrist_2_joint": 1.2330224858903978,
            "wrist_3_joint": -3.094022268022082
        }
    },
    "waypoints": [
        {
            "positions": [
                -0.33786336945926293,
                -1.3736533754116391,
                2.422574709923281,
                -1.0288603412921917,
                1.2330224858903978,
                -3.094022268022082
            ]
        },
        {
            "positions": [
                -0.26166778556012216,
                -1.409183140009891,
                2.4058327573459053,
                -1.013125867773624,
                0.9957322376074218,
                -3.1000015862815777
            ]
        },
        {
            "positions": [
                -0.18547220166098133,
                -1.444712904608143,
                2.3890908047685295,
                -0.997391394255056,
                0.7584419893244457,
                -3.1059809045410733
            ]
        },
        {
            "positions": [
                -0.10927661776184053,
                -1.4802426692063952,
                2.3723488521911533,
                -0.981656920736488,
                0.5211517410414697,
                -3.111960222800569
            ]
        },
        {
            "positions": [
                -0.03308103386269973,
                -1.5157724338046472,
                2.3556068996137776,
                -0.9659224472179202,
                0.2838614927584937,
                -3.1179395410600645
            ]
        },
        {
            "positions": [
                0.0431145500364411,
                -1.5513021984028992,
                2.338864947036402,
                -0.9501879736993524,
                0.04657124447551775,
                -3.12391885931956
            ]
        },
        {
            "positions": [
                0.11931013393558187,
                -1.5868319630011514,
                2.3221229944590256,
                -0.9344535001807844,
                -0.19071900380745843,
                -3.1298981775790558
            ]
        },
        {
            "positions": [
                0.19550571783472265,
                -1.6223617275994033,
                2.30538104188165,
                -0.9187190266622165,
                -0.4280092520904344,
                -3.1358774958385514
            ]
        },
        {
            "positions": [
                0.2717013017338635,
                -1.6578914921976553,
                2.288639089304274,
                -0.9029845531436487,
                -0.6652995003734103,
                -3.141856814098047
            ]
        },
        {
            "positions": [
                0.33402226620674774,
                -1.6938645227677769,
                2.303919214982673,
                -0.8420075600607079,
                -0.46926367951021797,
                -3.1415239909189605
            ]
        },
        {
            "positions": [
                0.396343230679632,
                -1.7298375533378985,
                2.3191993406610725,
                -0.781030566977767,
                -0.2732278586470256,
                -3.1411911677398745
            ]
        },
        {
            "positions": [
                0.4586641951525163,
                -1.76581058390802,
                2.3344794663394715,
                -0.7200535738948262,
                -0.07719203778383321,
                -3.140858344560788
            ]
        },
        {
            "positions": [
                0.5209851596254006,
                -1.8017836144781416,
                2.3497595920178704,
                -0.6590765808118852,
                0.11884378307935917,
                -3.140525521381702
            ]
        },
        {
            "positions": [
                0.5833061240982849,
                -1.8377566450482634,
                2.3650397176962694,
                -0.5980995877289444,
                0.31487960394255166,
                -3.1401926982026156
            ]
        },
        {
            "positions": [
                0.645627088571169,
                -1.873729675618385,
                2.380319843374669,
                -0.5371225946460036,
                0.5109154248057439,
                -3.1398598750235296
            ]
        },
        {
            "positions": [
                0.7079480530440534,
                -1.9097027061885066,
                2.395599969053068,
                -0.47614560156306274,
                0.7069512456689365,
                -3.139527051844443
            ]
        }
    ]
}