{
    "goal": {
        "global_pose": {
            "orientation": {
                "w": 0.7031023502349854,
                "x": -0.7110244035720825,
                "y": 0.007748599164187908,
                "z": 0.005598929710686207
            },
            "position": {
                "x": 0.11585023208521307,
                "y": 0.44412534475326537,
                "z": 0.3711530566215515
            }
        },
        "name": "move_to_auspresseinheit_A"
    },
    "id": "BFMT_move_to_auspresseinheit_A_138",
    "joint_names": [
        "shoulder_pan_joint",
        "shoulder_lift_joint",
        "elbow_joint",
        "wrist_1_joint",
        "wrist_2_joint",
        "wrist_3_joint"
    ],
    "metrics": {
        "cart_traj_len": 1.041293156296837,
        "distance_elbow_joint": 0.06216966936471113,
        "distance_shoulder_lift_joint": 1.9212186145206802,
        "distance_shoulder_pan_joint": 1.0448999394420015,
        "distance_wrist_1_joint": 1.296753469016534,
        "distance_wrist_2_joint": 0.5144287754998824,
        "distance_wrist_3_joint": 0.1953311913340734,
        "smoothness": 1.6359108330383205,
        "time": 0.643892083,
        "traj_len": 2.243836370856369,
        "weighted_distance": 2.6901015382997064
    },
    "planner": "BFMT",
    "start": {
        "state": {
            "elbow_joint": 2.422574709923281,
            "shoulder_lift_joint": -1.3736533754116391,
            "shoulder_pan_joint": -0.33786336945926293,
            "wrist_1_joint": -1.0288603412921917,
            "wrist_2_joint": 1.2330224858903978,
            "wrist_3_joint": -3.094022268022082
        }
    },
    "waypoints": [
        {
            "positions": [
                -0.33786336945926293,
                -1.3736533754116391,
                2.422574709923281,
                -1.0288603412921917,
                1.2330224858903978,
                -3.094022268022082
            ]
        },
        {
            "positions": [
                -0.22827869514587776,
                -1.5101212606660352,
                2.4242907148550956,
                -0.9247647711462219,
                1.2041508497979452,
                -3.108089818798075
            ]
        },
        {
            "positions": [
                -0.11869402083249259,
                -1.6465891459204314,
                2.42600671978691,
                -0.820669201000252,
                1.1752792137054926,
                -3.122157369574068
            ]
        },
        {
            "positions": [
                -0.009109346519107386,
                -1.7830570311748275,
                2.4277227247187247,
                -0.7165736308542822,
                1.14640757761304,
                -3.136224920350061
            ]
        },
        {
            "positions": [
                0.10047532779427776,
                -1.9195249164292236,
                2.4294387296505393,
                -0.6124780607083122,
                1.1175359415205874,
                -3.150292471126054
            ]
        },
        {
            "positions": [
                0.210060002107663,
                -2.0559928016836198,
                2.4311547345823543,
                -0.5083824905623424,
                1.0886643054281349,
                -3.1643600219020467
            ]
        },
        {
            "positions": [
                0.31964467642104816,
                -2.192460686938016,
                2.432870739514169,
                -0.4042869204163726,
                1.0597926693356823,
                -3.1784275726780398
            ]
        },
        {
            "positions": [
                0.4292293507344333,
                -2.328928572192412,
                2.4345867444459834,
                -0.30019135027040267,
                1.0309210332432297,
                -3.192495123454033
            ]
        },
        {
            "positions": [
                0.5388140250478184,
                -2.465396457446808,
                2.436302749377798,
                -0.19609578012443285,
                1.0020493971507771,
                -3.2065626742300255
            ]
        },
        {
            "positions": [
                0.6483986993612036,
                -2.6018643427012043,
                2.4380187543096126,
                -0.0920002099784629,
                0.9731777610583247,
                -3.2206302250060186
            ]
        },
        {
            "positions": [
                0.6630581670165874,
                -2.4286124308934256,
                2.426337348065018,
                -0.18197354440416422,
                0.9095317483913723,
                -3.2034494164184846
            ]
        },
        {
            "positions": [
                0.6777176346719712,
                -2.255360519085647,
                2.4146559418204228,
                -0.27194687882986557,
                0.84588573572442,
                -3.18626860783095
            ]
        },
        {
            "positions": [
                0.692377102327355,
                -2.082108607277868,
                2.4029745355758276,
                -0.3619202132555669,
                0.7822397230574677,
                -3.1690877992434157
            ]
        },
        {
            "positions": [
                0.7070365699827388,
                -1.9088566954700892,
                2.391293129331233,
                -0.45189354768126816,
                0.7185937103905153,
                -3.1519069906558816
            ]
        }
    ]
}