{
    "goal": {
        "global_pose": {
            "orientation": {
                "w": 0.7031023502349854,
                "x": -0.7110244035720825,
                "y": 0.007748599164187908,
                "z": 0.005598929710686207
            },
            "position": {
                "x": 0.11585023208521307,
                "y": 0.44412534475326537,
                "z": 0.3711530566215515
            }
        },
        "name": "move_to_auspresseinheit_A"
    },
    "id": "BFMT_move_to_auspresseinheit_A_143",
    "joint_names": [
        "shoulder_pan_joint",
        "shoulder_lift_joint",
        "elbow_joint",
        "wrist_1_joint",
        "wrist_2_joint",
        "wrist_3_joint"
    ],
    "metrics": {
        "cart_traj_len": 1.0108772394228913,
        "distance_elbow_joint": 0.1407722167530956,
        "distance_shoulder_lift_joint": 1.1072365373452577,
        "distance_shoulder_pan_joint": 1.9196435913935734,
        "distance_wrist_1_joint": 0.5447817887465896,
        "distance_wrist_2_joint": 0.5203969511842634,
        "distance_wrist_3_joint": 0.7936781616190576,
        "smoothness": 1.094354668594068,
        "time": 0.6741358390000001,
        "traj_len": 2.241987789226747,
        "weighted_distance": 2.7711088593216266
    },
    "planner": "BFMT",
    "start": {
        "state": {
            "elbow_joint": 2.422574709923281,
            "shoulder_lift_joint": -1.3736533754116391,
            "shoulder_pan_joint": -0.33786336945926293,
            "wrist_1_joint": -1.0288603412921917,
            "wrist_2_joint": 1.2330224858903978,
            "wrist_3_joint": -3.094022268022082
        }
    },
    "waypoints": [
        {
            "positions": [
                -0.33786336945926293,
                -1.3736533754116391,
                2.422574709923281,
                -1.0288603412921917,
                1.2330224858903978,
                -3.094022268022082
            ]
        },
        {
            "positions": [
                -0.4106389940425399,
                -1.5107771551521578,
                2.4322973602644264,
                -1.0162647575260324,
                1.1667311014928357,
                -3.029868562240803
            ]
        },
        {
            "positions": [
                -0.4834146186258169,
                -1.6479009348926765,
                2.4420200106055723,
                -1.003669173759873,
                1.1004397170952733,
                -2.9657148564595235
            ]
        },
        {
            "positions": [
                -0.5561902432090939,
                -1.7850247146331955,
                2.4517426609467177,
                -0.9910735899937138,
                1.0341483326977112,
                -2.901561150678244
            ]
        },
        {
            "positions": [
                -0.6289658677923708,
                -1.9221484943737142,
                2.461465311287863,
                -0.9784780062275544,
                0.9678569483001491,
                -2.8374074448969644
            ]
        },
        {
            "positions": [
                -0.701741492375648,
                -2.059272274114233,
                2.471187961629009,
                -0.9658824224613951,
                0.9015655639025868,
                -2.773253739115685
            ]
        },
        {
            "positions": [
                -0.7745171169589249,
                -2.196396053854752,
                2.4809106119701543,
                -0.9532868386952358,
                0.8352741795050247,
                -2.7091000333344057
            ]
        },
        {
            "positions": [
                -0.589143386472186,
                -2.1608343214919836,
                2.4706060726318766,
                -0.8946358029265316,
                0.8199430989051634,
                -2.7601945242008283
            ]
        },
        {
            "positions": [
                -0.403769655985447,
                -2.1252725891292155,
                2.460301533293599,
                -0.8359847671578273,
                0.804612018305302,
                -2.811289015067251
            ]
        },
        {
            "positions": [
                -0.218395925498708,
                -2.0897108567664473,
                2.449996993955321,
                -0.7773337313891232,
                0.7892809377054408,
                -2.8623835059336735
            ]
        },
        {
            "positions": [
                -0.033022195011969124,
                -2.054149124403679,
                2.439692454617043,
                -0.718682695620419,
                0.7739498571055795,
                -2.913477996800096
            ]
        },
        {
            "positions": [
                0.15235153547476976,
                -2.018587392040911,
                2.4293879152787654,
                -0.6600316598517147,
                0.7586187765057182,
                -2.964572487666519
            ]
        },
        {
            "positions": [
                0.33772526596150887,
                -1.983025659678143,
                2.4190833759404873,
                -0.6013806240830106,
                0.743287695905857,
                -3.0156669785329417
            ]
        },
        {
            "positions": [
                0.5230989964482478,
                -1.9474639273153749,
                2.4087788366022096,
                -0.5427295883143064,
                0.7279566153059956,
                -3.0667614693993643
            ]
        },
        {
            "positions": [
                0.7084727269349865,
                -1.9119021949526067,
                2.398474297263932,
                -0.48407855254560217,
                0.7126255347061343,
                -3.117855960265787
            ]
        }
    ]
}