{
    "goal": {
        "global_pose": {
            "orientation": {
                "w": 0.5084816217422485,
                "x": -0.49083608388900757,
                "y": 0.5182115435600281,
                "z": -0.4816462993621826
            },
            "position": {
                "x": 0.5540239810943604,
                "y": 0.030875300988554955,
                "z": 0.16403168439865112
            }
        },
        "name": "move_to_storage_A"
    },
    "id": "BFMT_move_to_storage_A_109",
    "joint_names": [
        "shoulder_pan_joint",
        "shoulder_lift_joint",
        "elbow_joint",
        "wrist_1_joint",
        "wrist_2_joint",
        "wrist_3_joint"
    ],
    "metrics": {
        "cart_traj_len": 0.35272988363079183,
        "distance_elbow_joint": 0.4475373690716844,
        "distance_shoulder_lift_joint": 0.23363367951232838,
        "distance_shoulder_pan_joint": 0.46217473747796084,
        "distance_wrist_1_joint": 0.23616898505518502,
        "distance_wrist_2_joint": 1.093264555781314,
        "distance_wrist_3_joint": 0.09978693986060394,
        "smoothness": 6.661338165333112e-16,
        "time": 0.479312077,
        "traj_len": 1.6039221510905934,
        "weighted_distance": 2.025234230235304
    },
    "planner": "BFMT",
    "start": {
        "state": {
            "elbow_joint": 1.9715463870305268,
            "shoulder_lift_joint": -1.1394903361783484,
            "shoulder_pan_joint": 0.12281147578464417,
            "wrist_1_joint": -0.7804599489681411,
            "wrist_2_joint": 0.12958660307563738,
            "wrist_3_joint": -3.1924946282119055
        }
    },
    "waypoints": [
        {
            "positions": [
                0.12281147578464417,
                -1.1394903361783484,
                1.9715463870305268,
                -0.7804599489681411,
                0.12958660307563738,
                -3.1924946282119055
            ]
        },
        {
            "positions": [
                0.056786513287792634,
                -1.172866576108681,
                2.0354802968979104,
                -0.814198375404596,
                0.2857672539015394,
                -3.178239351088962
            ]
        },
        {
            "positions": [
                -0.009238449209058905,
                -1.2062428160390137,
                2.0994142067652937,
                -0.8479368018410511,
                0.4419479047274414,
                -3.1639840739660188
            ]
        },
        {
            "positions": [
                -0.07526341170591046,
                -1.2396190559693463,
                2.1633481166326773,
                -0.8816752282775061,
                0.5981285555533434,
                -3.149728796843075
            ]
        },
        {
            "positions": [
                -0.14128837420276197,
                -1.2729952958996789,
                2.2272820265000606,
                -0.9154136547139611,
                0.7543092063792455,
                -3.135473519720132
            ]
        },
        {
            "positions": [
                -0.20731333669961355,
                -1.3063715358300114,
                2.2912159363674443,
                -0.9491520811504162,
                0.9104898572051475,
                -3.1212182425971884
            ]
        },
        {
            "positions": [
                -0.2733382991964651,
                -1.3397477757603442,
                2.3551498462348275,
                -0.982890507586871,
                1.0666705080310495,
                -3.106962965474245
            ]
        },
        {
            "positions": [
                -0.33936326169331665,
                -1.3731240156906768,
                2.419083756102211,
                -1.016628934023326,
                1.2228511588569515,
                -3.0927076883513016
            ]
        }
    ]
}