{
    "goal": {
        "global_pose": {
            "orientation": {
                "w": 0.7031023502349854,
                "x": -0.7110244035720825,
                "y": 0.007748599164187908,
                "z": 0.005598929710686207
            },
            "position": {
                "x": 0.11585023208521307,
                "y": 0.44412534475326537,
                "z": 0.3711530566215515
            }
        },
        "name": "move_to_auspresseinheit_A"
    },
    "id": "BFMT_move_to_auspresseinheit_A_126",
    "joint_names": [
        "shoulder_pan_joint",
        "shoulder_lift_joint",
        "elbow_joint",
        "wrist_1_joint",
        "wrist_2_joint",
        "wrist_3_joint"
    ],
    "metrics": {
        "cart_traj_len": 0.6797016127316654,
        "distance_elbow_joint": 0.04341963990580222,
        "distance_shoulder_lift_joint": 0.701930965900011,
        "distance_shoulder_pan_joint": 1.0483375369517107,
        "distance_wrist_1_joint": 1.4760478370804822,
        "distance_wrist_2_joint": 0.5114666969537063,
        "distance_wrist_3_joint": 0.12101353843767537,
        "smoothness": 1.3811573574472,
        "time": 0.680549633,
        "traj_len": 1.975402798223539,
        "weighted_distance": 2.476238644827862
    },
    "planner": "BFMT",
    "start": {
        "state": {
            "elbow_joint": 2.422574709923281,
            "shoulder_lift_joint": -1.3736533754116391,
            "shoulder_pan_joint": -0.33786336945926293,
            "wrist_1_joint": -1.0288603412921917,
            "wrist_2_joint": 1.2330224858903978,
            "wrist_3_joint": -3.094022268022082
        }
    },
    "waypoints": [
        {
            "positions": [
                -0.33786336945926293,
                -1.3736533754116391,
                2.422574709923281,
                -1.0288603412921917,
                1.2330224858903978,
                -3.094022268022082
            ]
        },
        {
            "positions": [
                -0.23878375003360006,
                -1.4509029533847149,
                2.417934890960084,
                -0.9008734812940496,
                1.1985866691861877,
                -3.1052498131150106
            ]
        },
        {
            "positions": [
                -0.13970413060793718,
                -1.5281525313577908,
                2.413295071996887,
                -0.7728866212959076,
                1.1641508524819777,
                -3.116477358207939
            ]
        },
        {
            "positions": [
                -0.04062451118227434,
                -1.6054021093308668,
                2.40865525303369,
                -0.6448997612977656,
                1.1297150357777679,
                -3.1277049033008675
            ]
        },
        {
            "positions": [
                0.058455108243388565,
                -1.6826516873039425,
                2.4040154340704927,
                -0.5169129012996235,
                1.0952792190735579,
                -3.1389324483937964
            ]
        },
        {
            "positions": [
                0.15753472766905147,
                -1.7599012652770183,
                2.399375615107296,
                -0.38892604130148145,
                1.0608434023693478,
                -3.150159993486725
            ]
        },
        {
            "positions": [
                0.25661434709471426,
                -1.8371508432500943,
                2.394735796144099,
                -0.2609391813033395,
                1.026407585665138,
                -3.1613875385796533
            ]
        },
        {
            "positions": [
                0.35569396652037716,
                -1.9144004212231702,
                2.3900959771809016,
                -0.1329523213051974,
                0.991971768960928,
                -3.1726150836725817
            ]
        },
        {
            "positions": [
                0.45477358594604,
                -1.991649999196246,
                2.3854561582177047,
                -0.004965461307055399,
                0.957535952256718,
                -3.18384262876551
            ]
        },
        {
            "positions": [
                0.5400071131281758,
                -1.963671885157778,
                2.3875565209511134,
                -0.15568311367217064,
                0.8788758978167092,
                -3.173444902867428
            ]
        },
        {
            "positions": [
                0.6252406403103117,
                -1.9356937711193098,
                2.389656883684522,
                -0.3064007660372859,
                0.8002158433767004,
                -3.163047176969345
            ]
        },
        {
            "positions": [
                0.7104741674924476,
                -1.9077156570808418,
                2.3917572464179306,
                -0.45711841840240114,
                0.7215557889366915,
                -3.152649451071263
            ]
        }
    ]
}