{
    "goal": {
        "global_pose": {
            "orientation": {
                "w": 0.7031023502349854,
                "x": -0.7110244035720825,
                "y": 0.007748599164187908,
                "z": 0.005598929710686207
            },
            "position": {
                "x": 0.11585023208521307,
                "y": 0.44412534475326537,
                "z": 0.3711530566215515
            }
        },
        "name": "move_to_auspresseinheit_A"
    },
    "id": "BFMT_move_to_auspresseinheit_A_136",
    "joint_names": [
        "shoulder_pan_joint",
        "shoulder_lift_joint",
        "elbow_joint",
        "wrist_1_joint",
        "wrist_2_joint",
        "wrist_3_joint"
    ],
    "metrics": {
        "cart_traj_len": 1.8162220854520685,
        "distance_elbow_joint": 0.509503611033451,
        "distance_shoulder_lift_joint": 0.5340195158981809,
        "distance_shoulder_pan_joint": 2.7839916759452796,
        "distance_wrist_1_joint": 0.5716528080951471,
        "distance_wrist_2_joint": 0.547574449954236,
        "distance_wrist_3_joint": 0.07797513357022723,
        "smoothness": 1.3702337133192444,
        "time": 0.759330857,
        "traj_len": 2.2415880965281114,
        "weighted_distance": 2.5099591071741307
    },
    "planner": "BFMT",
    "start": {
        "state": {
            "elbow_joint": 2.422574709923281,
            "shoulder_lift_joint": -1.3736533754116391,
            "shoulder_pan_joint": -0.33786336945926293,
            "wrist_1_joint": -1.0288603412921917,
            "wrist_2_joint": 1.2330224858903978,
            "wrist_3_joint": -3.094022268022082
        }
    },
    "waypoints": [
        {
            "positions": [
                -0.33786336945926293,
                -1.3736533754116391,
                2.422574709923281,
                -1.0288603412921917,
                1.2330224858903978,
                -3.094022268022082
            ]
        },
        {
            "positions": [
                -0.5114675167499299,
                -1.4391890488800752,
                2.3686320431816235,
                -0.9903729338312129,
                1.2366453775947754,
                -3.107011634672083
            ]
        },
        {
            "positions": [
                -0.6850716640405967,
                -1.5047247223485112,
                2.3146893764399654,
                -0.9518855263702342,
                1.2402682692991533,
                -3.1200010013220836
            ]
        },
        {
            "positions": [
                -0.8586758113312636,
                -1.570260395816947,
                2.260746709698308,
                -0.9133981189092555,
                1.243891161003531,
                -3.1329903679720847
            ]
        },
        {
            "positions": [
                -1.0322799586219307,
                -1.635796069285383,
                2.20680404295665,
                -0.8749107114482767,
                1.247514052707909,
                -3.1459797346220855
            ]
        },
        {
            "positions": [
                -1.2058841059125975,
                -1.701331742753819,
                2.152861376214992,
                -0.8364233039872979,
                1.2511369444122866,
                -3.158969101272086
            ]
        },
        {
            "positions": [
                -0.9929984459690482,
                -1.7242585370378192,
                2.1795047403622325,
                -0.7942882183439365,
                1.1923080564753592,
                -3.157521512347617
            ]
        },
        {
            "positions": [
                -0.7801127860254987,
                -1.7471853313218193,
                2.206148104509473,
                -0.7521531327005749,
                1.1334791685384318,
                -3.156073923423148
            ]
        },
        {
            "positions": [
                -0.5672271260819493,
                -1.7701121256058194,
                2.2327914686567127,
                -0.7100180470572135,
                1.0746502806015044,
                -3.1546263344986785
            ]
        },
        {
            "positions": [
                -0.3543414661383999,
                -1.7930389198898196,
                2.259434832803953,
                -0.6678829614138521,
                1.0158213926645767,
                -3.153178745574209
            ]
        },
        {
            "positions": [
                -0.14145580619485032,
                -1.8159657141738195,
                2.2860781969511934,
                -0.6257478757704905,
                0.9569925047276493,
                -3.15173115664974
            ]
        },
        {
            "positions": [
                0.07142985374869903,
                -1.8388925084578196,
                2.3127215610984337,
                -0.5836127901271291,
                0.8981636167907219,
                -3.1502835677252707
            ]
        },
        {
            "positions": [
                0.2843155136922484,
                -1.8618193027418197,
                2.3393649252456736,
                -0.5414777044837675,
                0.8393347288537945,
                -3.1488359788008013
            ]
        },
        {
            "positions": [
                0.49720117363579774,
                -1.8847460970258199,
                2.366008289392914,
                -0.49934261884040615,
                0.780505840916867,
                -3.1473883898763324
            ]
        },
        {
            "positions": [
                0.7100868335793472,
                -1.90767289130982,
                2.3926516535401543,
                -0.45720753319704466,
                0.7216769529799395,
                -3.145940800951863
            ]
        }
    ]
}