{
    "goal": {
        "global_pose": {
            "orientation": {
                "w": 0.5084816217422485,
                "x": -0.49083608388900757,
                "y": 0.5182115435600281,
                "z": -0.4816462993621826
            },
            "position": {
                "x": 0.5540239810943604,
                "y": 0.030875300988554955,
                "z": 0.16403168439865112
            }
        },
        "name": "move_to_storage_A"
    },
    "id": "BFMT_move_to_storage_A_126",
    "joint_names": [
        "shoulder_pan_joint",
        "shoulder_lift_joint",
        "elbow_joint",
        "wrist_1_joint",
        "wrist_2_joint",
        "wrist_3_joint"
    ],
    "metrics": {
        "cart_traj_len": 0.35349893424820505,
        "distance_elbow_joint": 0.4491387514324803,
        "distance_shoulder_lift_joint": 0.23442215892786256,
        "distance_shoulder_pan_joint": 0.4640038131084557,
        "distance_wrist_1_joint": 0.23645228885515046,
        "distance_wrist_2_joint": 1.0922388123373177,
        "distance_wrist_3_joint": 0.1017496961477593,
        "smoothness": 6.661338146305771e-16,
        "time": 0.501525709,
        "traj_len": 1.6056168661324612,
        "weighted_distance": 2.027361836056162
    },
    "planner": "BFMT",
    "start": {
        "state": {
            "elbow_joint": 1.9715463870305268,
            "shoulder_lift_joint": -1.1394903361783484,
            "shoulder_pan_joint": 0.12281147578464417,
            "wrist_1_joint": -0.7804599489681411,
            "wrist_2_joint": 0.12958660307563738,
            "wrist_3_joint": -3.1924946282119055
        }
    },
    "waypoints": [
        {
            "positions": [
                0.12281147578464417,
                -1.1394903361783484,
                1.9715463870305268,
                -0.7804599489681411,
                0.12958660307563738,
                -3.1924946282119055
            ]
        },
        {
            "positions": [
                0.05652521676915051,
                -1.172979216025186,
                2.0357090658065955,
                -0.8142388473760197,
                0.2856207191238256,
                -3.1779589573336544
            ]
        },
        {
            "positions": [
                -0.009761042246343152,
                -1.2064680958720233,
                2.099871744582664,
                -0.8480177457838983,
                0.44165483517201387,
                -3.163423286455403
            ]
        },
        {
            "positions": [
                -0.07604730126183683,
                -1.2399569757188609,
                2.1640344233587325,
                -0.881796644191777,
                0.597688951220202,
                -3.1488876155771517
            ]
        },
        {
            "positions": [
                -0.14233356027733046,
                -1.2734458555656984,
                2.2281971021348013,
                -0.9155755425996557,
                0.7537230672683903,
                -3.1343519446989
            ]
        },
        {
            "positions": [
                -0.20861981929282414,
                -1.306934735412536,
                2.29235978091087,
                -0.9493544410075343,
                0.9097571833165786,
                -3.119816273820649
            ]
        },
        {
            "positions": [
                -0.2749060783083178,
                -1.3404236152593734,
                2.3565224596869383,
                -0.9831333394154129,
                1.0657912993647667,
                -3.1052806029423974
            ]
        },
        {
            "positions": [
                -0.3411923373238115,
                -1.373912495106211,
                2.420685138463007,
                -1.0169122378232915,
                1.221825415412955,
                -3.0907449320641462
            ]
        }
    ]
}