{
    "goal": {
        "global_pose": {
            "orientation": {
                "w": 0.7047431468963623,
                "x": -0.7094548344612122,
                "y": 0.0024358443915843964,
                "z": -0.0022348060738295317
            },
            "position": {
                "x": 0.6094750761985779,
                "y": 0.3671506643295288,
                "z": 0.19426114857196808
            }
        },
        "name": "move_to_magneteinheit_A"
    },
    "id": "BFMT_move_to_magneteinheit_A_135",
    "joint_names": [
        "shoulder_pan_joint",
        "shoulder_lift_joint",
        "elbow_joint",
        "wrist_1_joint",
        "wrist_2_joint",
        "wrist_3_joint"
    ],
    "metrics": {
        "cart_traj_len": 1.8798561606598876,
        "distance_elbow_joint": 3.909700611843861,
        "distance_shoulder_lift_joint": 0.698149286759725,
        "distance_shoulder_pan_joint": 1.2411134175795404,
        "distance_wrist_1_joint": 1.4851596114612096,
        "distance_wrist_2_joint": 1.6990768496559452,
        "distance_wrist_3_joint": 1.1075211345856668,
        "smoothness": 6.908054402309962e-16,
        "time": 0.656432401,
        "traj_len": 3.1844498601620264,
        "weighted_distance": 3.9420806235000367
    },
    "planner": "BFMT",
    "start": {
        "state": {
            "elbow_joint": -1.919643507792019,
            "shoulder_lift_joint": -0.07675430207160344,
            "shoulder_pan_joint": -1.1188671864651873,
            "wrist_1_joint": 0.42560062535961957,
            "wrist_2_joint": 1.5706038300724876,
            "wrist_3_joint": 1.1188968870953055
        }
    },
    "waypoints": [
        {
            "positions": [
                -1.1188671864651873,
                -0.07675430207160344,
                -1.919643507792019,
                0.42560062535961957,
                1.5706038300724876,
                1.1188968870953055
            ]
        },
        {
            "positions": [
                -1.0711320550198205,
                -0.10360619771620824,
                -1.769270407336486,
                0.4827221488773584,
                1.505254720470336,
                1.0762999203804722
            ]
        },
        {
            "positions": [
                -1.0233969235744536,
                -0.13045809336081304,
                -1.618897306880953,
                0.5398436723950972,
                1.439905610868184,
                1.0337029536656388
            ]
        },
        {
            "positions": [
                -0.9756617921290865,
                -0.15730998900541787,
                -1.4685242064254198,
                0.596965195912836,
                1.3745565012660323,
                0.9911059869508055
            ]
        },
        {
            "positions": [
                -0.9279266606837195,
                -0.18416188465002267,
                -1.3181511059698865,
                0.6540867194305748,
                1.3092073916638807,
                0.9485090202359722
            ]
        },
        {
            "positions": [
                -0.8801915292383526,
                -0.21101378029462747,
                -1.1677780055143536,
                0.7112082429483138,
                1.243858282061729,
                0.9059120535211388
            ]
        },
        {
            "positions": [
                -0.8324563977929857,
                -0.2378656759392323,
                -1.0174049050588203,
                0.7683297664660526,
                1.178509172459577,
                0.8633150868063055
            ]
        },
        {
            "positions": [
                -0.7847212663476189,
                -0.2647175715838371,
                -0.8670318046032874,
                0.8254512899837914,
                1.1131600628574254,
                0.8207181200914722
            ]
        },
        {
            "positions": [
                -0.7369861349022517,
                -0.2915694672284419,
                -0.7166587041477541,
                0.8825728135015303,
                1.0478109532552735,
                0.7781211533766388
            ]
        },
        {
            "positions": [
                -0.6892510034568848,
                -0.3184213628730467,
                -0.566285603692221,
                0.939694337019269,
                0.982461843653122,
                0.7355241866618054
            ]
        },
        {
            "positions": [
                -0.6415158720115179,
                -0.3452732585176515,
                -0.41591250323668794,
                0.9968158605370079,
                0.9171127340509702,
                0.692927219946972
            ]
        },
        {
            "positions": [
                -0.593780740566151,
                -0.37212515416225633,
                -0.26553940278115484,
                1.0539373840547466,
                0.8517636244488185,
                0.6503302532321387
            ]
        },
        {
            "positions": [
                -0.546045609120784,
                -0.39897704980686116,
                -0.11516630232562175,
                1.1110589075724855,
                0.7864145148466667,
                0.6077332865173054
            ]
        },
        {
            "positions": [
                -0.49831047767541714,
                -0.42582894545146593,
                0.03520679812991134,
                1.1681804310902244,
                0.721065405244515,
                0.565136319802472
            ]
        },
        {
            "positions": [
                -0.45057534623005024,
                -0.4526808410960707,
                0.18557989858544421,
                1.225301954607963,
                0.6557162956423633,
                0.5225393530876387
            ]
        },
        {
            "positions": [
                -0.40284021478468335,
                -0.47953273674067554,
                0.33595299904097753,
                1.282423478125702,
                0.5903671860402117,
                0.4799423863728054
            ]
        },
        {
            "positions": [
                -0.35510508333931623,
                -0.5063846323852803,
                0.48632609949651084,
                1.339545001643441,
                0.5250180764380596,
                0.4373454196579719
            ]
        },
        {
            "positions": [
                -0.30736995189394933,
                -0.5332365280298852,
                0.6366991999520437,
                1.3966665251611796,
                0.45966896683590797,
                0.39474845294313865
            ]
        },
        {
            "positions": [
                -0.25963482044858244,
                -0.56008842367449,
                0.787072300407577,
                1.4537880486789185,
                0.3943198572337563,
                0.3521514862283053
            ]
        },
        {
            "positions": [
                -0.21189968900321554,
                -0.5869403193190947,
                0.9374454008631099,
                1.5109095721966572,
                0.3289707476316046,
                0.309554519513472
            ]
        },
        {
            "positions": [
                -0.16416455755784853,
                -0.6137922149636996,
                1.0878185013186432,
                1.5680310957143964,
                0.2636216380294527,
                0.26695755279863853
            ]
        },
        {
            "positions": [
                -0.11642942611248164,
                -0.6406441106083045,
                1.238191601774176,
                1.625152619232135,
                0.19827252842730103,
                0.22436058608380527
            ]
        },
        {
            "positions": [
                -0.06869429466711474,
                -0.6674960062529092,
                1.3885647022297094,
                1.6822741427498737,
                0.13292341882514935,
                0.1817636193689719
            ]
        },
        {
            "positions": [
                -0.020959163221747845,
                -0.694347901897514,
                1.5389378026852423,
                1.7393956662676127,
                0.06757430922299767,
                0.13916665265413863
            ]
        },
        {
            "positions": [
                0.026775968223619273,
                -0.7211997975421189,
                1.6893109031407756,
                1.7965171897853516,
                0.0022251996208457747,
                0.09656968593930526
            ]
        },
        {
            "positions": [
                0.07451109966898617,
                -0.7480516931867236,
                1.839684003596309,
                1.8536387133030905,
                -0.0631239099813059,
                0.05397271922447189
            ]
        },
        {
            "positions": [
                0.12224623111435301,
                -0.7749035888313285,
                1.9900571040518416,
                1.9107602368208292,
                -0.12847301958345758,
                0.011375752509638624
            ]
        }
    ]
}