{
    "goal": {
        "global_pose": {
            "orientation": {
                "w": 0.7047431468963623,
                "x": -0.7094548344612122,
                "y": 0.0024358443915843964,
                "z": -0.0022348060738295317
            },
            "position": {
                "x": 0.6094750761985779,
                "y": 0.3671506643295288,
                "z": 0.19426114857196808
            }
        },
        "name": "move_to_magneteinheit_A"
    },
    "id": "BFMT_move_to_magneteinheit_A_53",
    "joint_names": [
        "shoulder_pan_joint",
        "shoulder_lift_joint",
        "elbow_joint",
        "wrist_1_joint",
        "wrist_2_joint",
        "wrist_3_joint"
    ],
    "metrics": {
        "cart_traj_len": 1.876572200093007,
        "distance_elbow_joint": 3.915204592280543,
        "distance_shoulder_lift_joint": 0.7019584838243254,
        "distance_shoulder_pan_joint": 1.2405204296060548,
        "distance_wrist_1_joint": 1.5027605036782379,
        "distance_wrist_2_joint": 1.6988362727799677,
        "distance_wrist_3_joint": 1.1193163562752575,
        "smoothness": 3.289549677471998e-16,
        "time": 0.76245609,
        "traj_len": 3.1903912986410283,
        "weighted_distance": 3.9520660580831772
    },
    "planner": "BFMT",
    "start": {
        "state": {
            "elbow_joint": -1.919643507792019,
            "shoulder_lift_joint": -0.07675430207160344,
            "shoulder_pan_joint": -1.1188671864651873,
            "wrist_1_joint": 0.42560062535961957,
            "wrist_2_joint": 1.5706038300724876,
            "wrist_3_joint": 1.1188968870953055
        }
    },
    "waypoints": [
        {
            "positions": [
                -1.1188671864651873,
                -0.07675430207160344,
                -1.919643507792019,
                0.42560062535961957,
                1.5706038300724876,
                1.1188968870953055
            ]
        },
        {
            "positions": [
                -1.07115486224957,
                -0.10375270529561595,
                -1.769058715781229,
                0.483399106270321,
                1.5052639734271043,
                1.0758462580077957
            ]
        },
        {
            "positions": [
                -1.0234425380339522,
                -0.13075110851962846,
                -1.6184739237704389,
                0.5411975871810225,
                1.439924116781721,
                1.0327956289202858
            ]
        },
        {
            "positions": [
                -0.9757302138183348,
                -0.157749511743641,
                -1.4678891317596487,
                0.5989960680917239,
                1.3745842601363374,
                0.9897449998327759
            ]
        },
        {
            "positions": [
                -0.9280178896027174,
                -0.1847479149676535,
                -1.3173043397488586,
                0.6567945490024254,
                1.309244403490954,
                0.946694370745266
            ]
        },
        {
            "positions": [
                -0.8803055653870999,
                -0.211746318191666,
                -1.1667195477380685,
                0.7145930299131269,
                1.2439045468455707,
                0.9036437416577561
            ]
        },
        {
            "positions": [
                -0.8325932411714824,
                -0.23874472141567854,
                -1.0161347557272784,
                0.7723915108238284,
                1.1785646902001874,
                0.8605931125702462
            ]
        },
        {
            "positions": [
                -0.7848809169558649,
                -0.265743124639691,
                -0.8655499637164883,
                0.8301899917345297,
                1.113224833554804,
                0.8175424834827363
            ]
        },
        {
            "positions": [
                -0.7371685927402474,
                -0.29274152786370355,
                -0.7149651717056982,
                0.8879884726452312,
                1.0478849769094207,
                0.7744918543952263
            ]
        },
        {
            "positions": [
                -0.6894562685246299,
                -0.31973993108771603,
                -0.5643803796949081,
                0.9457869535559327,
                0.9825451202640373,
                0.7314412253077165
            ]
        },
        {
            "positions": [
                -0.6417439443090124,
                -0.34673833431172857,
                -0.41379558768411795,
                1.0035854344666342,
                0.9172052636186538,
                0.6883905962202065
            ]
        },
        {
            "positions": [
                -0.5940316200933949,
                -0.3737367375357411,
                -0.26321079567332784,
                1.0613839153773357,
                0.8518654069732705,
                0.6453399671326966
            ]
        },
        {
            "positions": [
                -0.5463192958777774,
                -0.40073514075975364,
                -0.11262600366253772,
                1.1191823962880372,
                0.7865255503278871,
                0.6022893380451867
            ]
        },
        {
            "positions": [
                -0.49860697166215995,
                -0.4277335439837661,
                0.03795878834825239,
                1.1769808771987385,
                0.7211856936825037,
                0.5592387089576768
            ]
        },
        {
            "positions": [
                -0.4508946474465425,
                -0.4547319472077786,
                0.1885435803590425,
                1.23477935810944,
                0.6558458370371204,
                0.5161880798701669
            ]
        },
        {
            "positions": [
                -0.40318232323092507,
                -0.48173035043179113,
                0.3391283723698326,
                1.2925778390201415,
                0.5905059803917371,
                0.473137450782657
            ]
        },
        {
            "positions": [
                -0.3554699990153074,
                -0.5087287536558036,
                0.48971316438062273,
                1.350376319930843,
                0.5251661237463536,
                0.430086821695147
            ]
        },
        {
            "positions": [
                -0.30775767479968996,
                -0.5357271568798162,
                0.6402979563914128,
                1.4081748008415444,
                0.4598262671009703,
                0.3870361926076372
            ]
        },
        {
            "positions": [
                -0.2600453505840725,
                -0.5627255601038287,
                0.790882748402203,
                1.4659732817522457,
                0.39448641045558697,
                0.3439855635201273
            ]
        },
        {
            "positions": [
                -0.21233302636845508,
                -0.5897239633278413,
                0.9414675404129931,
                1.5237717626629472,
                0.32914655381020363,
                0.30093493443261743
            ]
        },
        {
            "positions": [
                -0.16462070215283742,
                -0.6167223665518538,
                1.0920523324237832,
                1.5815702435736487,
                0.2638066971648201,
                0.2578843053451074
            ]
        },
        {
            "positions": [
                -0.11690837793721998,
                -0.6437207697758662,
                1.2426371244345733,
                1.6393687244843502,
                0.19846684051943675,
                0.21483367625759753
            ]
        },
        {
            "positions": [
                -0.06919605372160254,
                -0.6707191729998787,
                1.3932219164453634,
                1.6971672053950517,
                0.13312698387405342,
                0.17178304717008763
            ]
        },
        {
            "positions": [
                -0.021483729505985094,
                -0.6977175762238912,
                1.5438067084561535,
                1.754965686305753,
                0.06778712722867009,
                0.12873241808257785
            ]
        },
        {
            "positions": [
                0.02622859470963257,
                -0.7247159794479039,
                1.6943915004669436,
                1.8127641672164547,
                0.0024472705832865316,
                0.08568178899506784
            ]
        },
        {
            "positions": [
                0.07394091892525001,
                -0.7517143826719164,
                1.8449762924777338,
                1.870562648127156,
                -0.0628925860620968,
                0.04263115990755795
            ]
        },
        {
            "positions": [
                0.1216532431408675,
                -0.7787127858959288,
                1.995561084488524,
                1.9283611290378575,
                -0.12823244270748016,
                -0.000419469179951976
            ]
        }
    ]
}