{
    "goal": {
        "global_pose": {
            "orientation": {
                "w": 0.7031023502349854,
                "x": -0.7110244035720825,
                "y": 0.007748599164187908,
                "z": 0.005598929710686207
            },
            "position": {
                "x": 0.11585023208521307,
                "y": 0.44412534475326537,
                "z": 0.3711530566215515
            }
        },
        "name": "move_to_auspresseinheit_A"
    },
    "id": "BFMT_move_to_auspresseinheit_A_102",
    "joint_names": [
        "shoulder_pan_joint",
        "shoulder_lift_joint",
        "elbow_joint",
        "wrist_1_joint",
        "wrist_2_joint",
        "wrist_3_joint"
    ],
    "metrics": {
        "cart_traj_len": 0.6705977514093654,
        "distance_elbow_joint": 0.5006973933699985,
        "distance_shoulder_lift_joint": 0.5329456208136611,
        "distance_shoulder_pan_joint": 1.0448461157952549,
        "distance_wrist_1_joint": 0.556262251719241,
        "distance_wrist_2_joint": 2.1204331295615955,
        "distance_wrist_3_joint": 0.29548433106597694,
        "smoothness": 1.0674753332825908,
        "time": 0.509291701,
        "traj_len": 2.247369315961604,
        "weighted_distance": 2.8841520219535095
    },
    "planner": "BFMT",
    "start": {
        "state": {
            "elbow_joint": 2.422574709923281,
            "shoulder_lift_joint": -1.3736533754116391,
            "shoulder_pan_joint": -0.33786336945926293,
            "wrist_1_joint": -1.0288603412921917,
            "wrist_2_joint": 1.2330224858903978,
            "wrist_3_joint": -3.094022268022082
        }
    },
    "waypoints": [
        {
            "positions": [
                -0.33786336945926293,
                -1.3736533754116391,
                2.422574709923281,
                -1.0288603412921917,
                1.2330224858903978,
                -3.094022268022082
            ]
        },
        {
            "positions": [
                -0.3158985688775835,
                -1.444383683764893,
                2.4562503278649923,
                -0.9851215029393613,
                1.0435701724900395,
                -3.075738009103532
            ]
        },
        {
            "positions": [
                -0.29393376829590406,
                -1.515113992118147,
                2.489925945806704,
                -0.9413826645865307,
                0.8541178590896812,
                -3.057453750184982
            ]
        },
        {
            "positions": [
                -0.27196896771422463,
                -1.5858443004714007,
                2.5236015637484153,
                -0.8976438262337003,
                0.6646655456893229,
                -3.0391694912664318
            ]
        },
        {
            "positions": [
                -0.2500041671325452,
                -1.6565746088246547,
                2.557277181690127,
                -0.8539049878808698,
                0.4752132322889646,
                -3.020885232347882
            ]
        },
        {
            "positions": [
                -0.22803936655086576,
                -1.7273049171779085,
                2.590952799631838,
                -0.8101661495280393,
                0.28576091888860633,
                -3.002600973429332
            ]
        },
        {
            "positions": [
                -0.20607456596918633,
                -1.7980352255311622,
                2.62462841757355,
                -0.7664273111752089,
                0.09630860548824804,
                -2.984316714510782
            ]
        },
        {
            "positions": [
                -0.1841097653875069,
                -1.8687655338844162,
                2.658304035515261,
                -0.7226884728223784,
                -0.09314370791211019,
                -2.9660324555922317
            ]
        },
        {
            "positions": [
                -0.05681083514129279,
                -1.8741703142188282,
                2.6204514544041158,
                -0.6869612752153172,
                0.02032299719633078,
                -2.989960243968821
            ]
        },
        {
            "positions": [
                0.07048809510492132,
                -1.8795750945532403,
                2.5825988732929703,
                -0.6512340776082561,
                0.13378970230477175,
                -3.013888032345411
            ]
        },
        {
            "positions": [
                0.19778702535113546,
                -1.8849798748876523,
                2.544746292181825,
                -0.615506880001195,
                0.2472564074132127,
                -3.0378158207220003
            ]
        },
        {
            "positions": [
                0.32508595559734954,
                -1.8903846552220642,
                2.506893711070679,
                -0.5797796823941339,
                0.3607231125216537,
                -3.0617436090985897
            ]
        },
        {
            "positions": [
                0.45238488584356373,
                -1.8957894355564762,
                2.4690411299595336,
                -0.5440524847870728,
                0.47418981763009466,
                -3.085671397475179
            ]
        },
        {
            "positions": [
                0.5796838160897778,
                -1.9011942158908883,
                2.431188548848388,
                -0.5083252871800117,
                0.5876565227385355,
                -3.109599185851769
            ]
        },
        {
            "positions": [
                0.706982746335992,
                -1.9065989962253003,
                2.3933359677372428,
                -0.47259808957295063,
                0.7011232278469767,
                -3.1335269742283582
            ]
        }
    ]
}