{
    "goal": {
        "global_pose": {
            "orientation": {
                "w": 0.7047431468963623,
                "x": -0.7094548344612122,
                "y": 0.0024358443915843964,
                "z": -0.0022348060738295317
            },
            "position": {
                "x": 0.6094750761985779,
                "y": 0.3671506643295288,
                "z": 0.19426114857196808
            }
        },
        "name": "move_to_magneteinheit_A"
    },
    "id": "BFMT_move_to_magneteinheit_A_14",
    "joint_names": [
        "shoulder_pan_joint",
        "shoulder_lift_joint",
        "elbow_joint",
        "wrist_1_joint",
        "wrist_2_joint",
        "wrist_3_joint"
    ],
    "metrics": {
        "cart_traj_len": 2.065821535232379,
        "distance_elbow_joint": 3.8812565462271325,
        "distance_shoulder_lift_joint": 1.056251984369229,
        "distance_shoulder_pan_joint": 1.2416804935178645,
        "distance_wrist_1_joint": 1.1635611124634613,
        "distance_wrist_2_joint": 1.4446023289598369,
        "distance_wrist_3_joint": 1.9251287137024442,
        "smoothness": 5.20656316527756e-16,
        "time": 0.606345586,
        "traj_len": 3.272992694651176,
        "weighted_distance": 4.143778716107818
    },
    "planner": "BFMT",
    "start": {
        "state": {
            "elbow_joint": -1.919643507792019,
            "shoulder_lift_joint": -0.07675430207160344,
            "shoulder_pan_joint": -1.1188671864651873,
            "wrist_1_joint": 0.42560062535961957,
            "wrist_2_joint": 1.5706038300724876,
            "wrist_3_joint": 1.1188968870953055
        }
    },
    "waypoints": [
        {
            "positions": [
                -1.1188671864651873,
                -0.07675430207160344,
                -1.919643507792019,
                0.42560062535961957,
                1.5706038300724876,
                1.1188968870953055
            ]
        },
        {
            "positions": [
                -1.074521454553835,
                -0.11447758722764734,
                -1.7810272025696214,
                0.38404487134306736,
                1.5190108897524934,
                1.18765148401325
            ]
        },
        {
            "positions": [
                -1.0301757226424828,
                -0.15220087238369123,
                -1.642410897347224,
                0.3424891173265152,
                1.4674179494324993,
                1.2564060809311943
            ]
        },
        {
            "positions": [
                -0.9858299907311304,
                -0.18992415753973513,
                -1.5037945921248264,
                0.300933363309963,
                1.415825009112505,
                1.325160677849139
            ]
        },
        {
            "positions": [
                -0.9414842588197782,
                -0.22764744269577902,
                -1.3651782869024287,
                0.2593776092934108,
                1.364232068792511,
                1.3939152747670833
            ]
        },
        {
            "positions": [
                -0.8971385269084258,
                -0.2653707278518229,
                -1.2265619816800313,
                0.21782185527685863,
                1.3126391284725167,
                1.4626698716850277
            ]
        },
        {
            "positions": [
                -0.8527927949970735,
                -0.3030940130078668,
                -1.0879456764576336,
                0.17626610126030645,
                1.2610461881525226,
                1.531424468602972
            ]
        },
        {
            "positions": [
                -0.8084470630857212,
                -0.3408172981639107,
                -0.949329371235236,
                0.13471034724375425,
                1.2094532478325284,
                1.6001790655209165
            ]
        },
        {
            "positions": [
                -0.764101331174369,
                -0.3785405833199546,
                -0.8107130660128385,
                0.0931545932272021,
                1.1578603075125342,
                1.668933662438861
            ]
        },
        {
            "positions": [
                -0.7197555992630166,
                -0.4162638684759985,
                -0.6720967607904407,
                0.05159883921064984,
                1.10626736719254,
                1.7376882593568055
            ]
        },
        {
            "positions": [
                -0.6754098673516643,
                -0.4539871536320424,
                -0.5334804555680432,
                0.01004308519409769,
                1.0546744268725459,
                1.8064428562747499
            ]
        },
        {
            "positions": [
                -0.631064135440312,
                -0.4917104387880863,
                -0.3948641503456456,
                -0.031512668822454515,
                1.0030814865525517,
                1.8751974531926945
            ]
        },
        {
            "positions": [
                -0.5867184035289598,
                -0.5294337239441302,
                -0.25624784512324816,
                -0.07306842283900666,
                0.9514885462325575,
                1.9439520501106387
            ]
        },
        {
            "positions": [
                -0.5423726716176074,
                -0.5671570091001741,
                -0.11763153990085029,
                -0.11462417685555887,
                0.8998956059125633,
                2.0127066470285833
            ]
        },
        {
            "positions": [
                -0.4980269397062551,
                -0.6048802942562179,
                0.02098476532154714,
                -0.15617993087211107,
                0.8483026655925692,
                2.081461243946528
            ]
        },
        {
            "positions": [
                -0.45368120779490284,
                -0.6426035794122618,
                0.15960107054394457,
                -0.19773568488866328,
                0.796709725272575,
                2.150215840864472
            ]
        },
        {
            "positions": [
                -0.40933547588355057,
                -0.6803268645683058,
                0.298217375766342,
                -0.23929143890521537,
                0.7451167849525808,
                2.218970437782416
            ]
        },
        {
            "positions": [
                -0.3649897439721983,
                -0.7180501497243497,
                0.43683368098873987,
                -0.2808471929217676,
                0.6935238446325868,
                2.287725034700361
            ]
        },
        {
            "positions": [
                -0.3206440120608458,
                -0.7557734348803935,
                0.5754499862111377,
                -0.3224029469383199,
                0.6419309043125924,
                2.3564796316183054
            ]
        },
        {
            "positions": [
                -0.27629828014949354,
                -0.7934967200364376,
                0.7140662914335352,
                -0.3639587009548721,
                0.5903379639925983,
                2.42523422853625
            ]
        },
        {
            "positions": [
                -0.23195254823814127,
                -0.8312200051924814,
                0.8526825966559326,
                -0.4055144549714242,
                0.5387450236726041,
                2.493988825454194
            ]
        },
        {
            "positions": [
                -0.187606816326789,
                -0.8689432903485252,
                0.9912989018783305,
                -0.4470702089879764,
                0.48715208335260995,
                2.562743422372139
            ]
        },
        {
            "positions": [
                -0.14326108441543672,
                -0.9066665755045691,
                1.129915207100728,
                -0.4886259630045286,
                0.4355591430326158,
                2.631498019290083
            ]
        },
        {
            "positions": [
                -0.09891535250408445,
                -0.9443898606606129,
                1.2685315123231253,
                -0.5301817170210807,
                0.3839662027126216,
                2.7002526162080276
            ]
        },
        {
            "positions": [
                -0.05456962059273218,
                -0.982113145816657,
                1.4071478175455228,
                -0.5717374710376328,
                0.33237326239262743,
                2.769007213125972
            ]
        },
        {
            "positions": [
                -0.01022388868137969,
                -1.0198364309727008,
                1.5457641227679206,
                -0.6132932250541852,
                0.28078032207263326,
                2.837761810043917
            ]
        },
        {
            "positions": [
                0.03412184322997258,
                -1.0575597161287447,
                1.6843804279903185,
                -0.6548489790707372,
                0.22918738175263909,
                2.906516406961861
            ]
        },
        {
            "positions": [
                0.07846757514132485,
                -1.0952830012847887,
                1.822996733212716,
                -0.6964047330872896,
                0.1775944414326449,
                2.975271003879805
            ]
        },
        {
            "positions": [
                0.12281330705267723,
                -1.1330062864408326,
                1.9616130384351131,
                -0.7379604871038418,
                0.12600150111265082,
                3.0440256007977498
            ]
        }
    ]
}