{
    "goal": {
        "global_pose": {
            "orientation": {
                "w": 0.5084816217422485,
                "x": -0.49083608388900757,
                "y": 0.5182115435600281,
                "z": -0.4816462993621826
            },
            "position": {
                "x": 0.5540239810943604,
                "y": 0.030875300988554955,
                "z": 0.16403168439865112
            }
        },
        "name": "move_to_storage_A"
    },
    "id": "BFMT_move_to_storage_A_81",
    "joint_names": [
        "shoulder_pan_joint",
        "shoulder_lift_joint",
        "elbow_joint",
        "wrist_1_joint",
        "wrist_2_joint",
        "wrist_3_joint"
    ],
    "metrics": {
        "cart_traj_len": 0.3536193596105287,
        "distance_elbow_joint": 0.4494029452854589,
        "distance_shoulder_lift_joint": 0.2332427469618128,
        "distance_shoulder_pan_joint": 0.45917293210374427,
        "distance_wrist_1_joint": 0.24603845899085475,
        "distance_wrist_2_joint": 1.1127812853203694,
        "distance_wrist_3_joint": 0.09668550103002627,
        "smoothness": 8.881784197001252e-16,
        "time": 0.47850001799999997,
        "traj_len": 1.6116215032358765,
        "weighted_distance": 2.037035742460977
    },
    "planner": "BFMT",
    "start": {
        "state": {
            "elbow_joint": 1.9715463870305268,
            "shoulder_lift_joint": -1.1394903361783484,
            "shoulder_pan_joint": 0.12281147578464417,
            "wrist_1_joint": -0.7804599489681411,
            "wrist_2_joint": 0.12958660307563738,
            "wrist_3_joint": -3.1924946282119055
        }
    },
    "waypoints": [
        {
            "positions": [
                0.12281147578464417,
                -1.1394903361783484,
                1.9715463870305268,
                -0.7804599489681411,
                0.12958660307563738,
                -3.1924946282119055
            ]
        },
        {
            "positions": [
                0.057215342626966426,
                -1.1728107286014644,
                2.0357468077855922,
                -0.8156083002525489,
                0.2885553581214044,
                -3.1786824137790446
            ]
        },
        {
            "positions": [
                -0.008380790530711321,
                -1.2061311210245806,
                2.0999472285406577,
                -0.8507566515369567,
                0.44752411316717144,
                -3.1648701993461836
            ]
        },
        {
            "positions": [
                -0.07397692368838908,
                -1.2394515134476967,
                2.1641476492957232,
                -0.8859050028213645,
                0.6064928682129385,
                -3.1510579849133227
            ]
        },
        {
            "positions": [
                -0.1395730568460668,
                -1.272771905870813,
                2.2283480700507887,
                -0.9210533541057724,
                0.7654616232587056,
                -3.137245770480462
            ]
        },
        {
            "positions": [
                -0.20516919000374456,
                -1.306092298293929,
                2.2925484908058547,
                -0.9562017053901801,
                0.9244303783044727,
                -3.123433556047601
            ]
        },
        {
            "positions": [
                -0.2707653231614223,
                -1.3394126907170452,
                2.35674891156092,
                -0.991350056674588,
                1.0833991333502395,
                -3.1096213416147402
            ]
        },
        {
            "positions": [
                -0.3363614563191001,
                -1.3727330831401612,
                2.4209493323159856,
                -1.0264984079589958,
                1.2423678883960068,
                -3.0958091271818793
            ]
        }
    ]
}