{
    "goal": {
        "global_pose": {
            "orientation": {
                "w": 0.7047431468963623,
                "x": -0.7094548344612122,
                "y": 0.0024358443915843964,
                "z": -0.0022348060738295317
            },
            "position": {
                "x": 0.6094750761985779,
                "y": 0.3671506643295288,
                "z": 0.19426114857196808
            }
        },
        "name": "move_to_magneteinheit_A"
    },
    "id": "BFMT_move_to_magneteinheit_A_61",
    "joint_names": [
        "shoulder_pan_joint",
        "shoulder_lift_joint",
        "elbow_joint",
        "wrist_1_joint",
        "wrist_2_joint",
        "wrist_3_joint"
    ],
    "metrics": {
        "cart_traj_len": 2.062609022859583,
        "distance_elbow_joint": 3.8715941130472444,
        "distance_shoulder_lift_joint": 1.0505605827119395,
        "distance_shoulder_pan_joint": 1.2405096854232174,
        "distance_wrist_1_joint": 1.1276185301401855,
        "distance_wrist_2_joint": 1.4508032667733526,
        "distance_wrist_3_joint": 1.9107572262767492,
        "smoothness": 3.806478953818552e-16,
        "time": 0.6812345150000001,
        "traj_len": 3.263716195439286,
        "weighted_distance": 4.12938005684143
    },
    "planner": "BFMT",
    "start": {
        "state": {
            "elbow_joint": -1.919643507792019,
            "shoulder_lift_joint": -0.07675430207160344,
            "shoulder_pan_joint": -1.1188671864651873,
            "wrist_1_joint": 0.42560062535961957,
            "wrist_2_joint": 1.5706038300724876,
            "wrist_3_joint": 1.1188968870953055
        }
    },
    "waypoints": [
        {
            "positions": [
                -1.1188671864651873,
                -0.07675430207160344,
                -1.919643507792019,
                0.42560062535961957,
                1.5706038300724876,
                1.1188968870953055
            ]
        },
        {
            "positions": [
                -1.0729223833013646,
                -0.11566395328315676,
                -1.7762511332347137,
                0.38383697609516826,
                1.5168703757475486,
                1.1896656732537036
            ]
        },
        {
            "positions": [
                -1.0269775801375416,
                -0.15457360449471008,
                -1.6328587586774084,
                0.34207332683071695,
                1.4631369214226098,
                1.2604344594121017
            ]
        },
        {
            "positions": [
                -0.9810327769737188,
                -0.1934832557062634,
                -1.489466384120103,
                0.30030967756626564,
                1.4094034670976707,
                1.3312032455704998
            ]
        },
        {
            "positions": [
                -0.9350879738098958,
                -0.2323929069178167,
                -1.3460740095627979,
                0.25854602830181433,
                1.3556700127727317,
                1.401972031728898
            ]
        },
        {
            "positions": [
                -0.8891431706460731,
                -0.27130255812937,
                -1.2026816350054923,
                0.21678237903736303,
                1.3019365584477927,
                1.472740817887296
            ]
        },
        {
            "positions": [
                -0.8431983674822502,
                -0.3102122093409233,
                -1.0592892604481872,
                0.17501872977291172,
                1.2482031041228536,
                1.5435096040456942
            ]
        },
        {
            "positions": [
                -0.7972535643184273,
                -0.3491218605524766,
                -0.9158968858908818,
                0.1332550805084604,
                1.1944696497979148,
                1.6142783902040923
            ]
        },
        {
            "positions": [
                -0.7513087611546044,
                -0.38803151176402995,
                -0.7725045113335764,
                0.0914914312440091,
                1.1407361954729758,
                1.6850471763624904
            ]
        },
        {
            "positions": [
                -0.7053639579907816,
                -0.42694116297558327,
                -0.6291121367762711,
                0.049727781979557795,
                1.0870027411480367,
                1.7558159625208885
            ]
        },
        {
            "positions": [
                -0.6594191548269588,
                -0.4658508141871366,
                -0.48571976221896573,
                0.007964132715106487,
                1.033269286823098,
                1.8265847486792866
            ]
        },
        {
            "positions": [
                -0.6134743516631358,
                -0.5047604653986899,
                -0.3423273876616604,
                -0.03379951654934482,
                0.9795358324981588,
                1.8973535348376847
            ]
        },
        {
            "positions": [
                -0.567529548499313,
                -0.5436701166102432,
                -0.19893501310435502,
                -0.07556316581379613,
                0.9258023781732199,
                1.9681223209960828
            ]
        },
        {
            "positions": [
                -0.5215847453354902,
                -0.5825797678217965,
                -0.05554263854704966,
                -0.11732681507824744,
                0.8720689238482808,
                2.038891107154481
            ]
        },
        {
            "positions": [
                -0.4756399421716673,
                -0.6214894190333498,
                0.08784973601025547,
                -0.15909046434269875,
                0.8183354695233419,
                2.1096598933128794
            ]
        },
        {
            "positions": [
                -0.4296951390078443,
                -0.6603990702449032,
                0.23124211056756105,
                -0.20085411360715005,
                0.7646020151984028,
                2.1804286794712775
            ]
        },
        {
            "positions": [
                -0.3837503358440215,
                -0.6993087214564564,
                0.3746344851248662,
                -0.24261776287160136,
                0.710868560873464,
                2.2511974656296756
            ]
        },
        {
            "positions": [
                -0.33780553268019864,
                -0.7382183726680098,
                0.5180268596821718,
                -0.28438141213605267,
                0.6571351065485248,
                2.3219662517880737
            ]
        },
        {
            "positions": [
                -0.29186072951637576,
                -0.777128023879563,
                0.6614192342394769,
                -0.326145061400504,
                0.6034016522235859,
                2.392735037946472
            ]
        },
        {
            "positions": [
                -0.24591592635255288,
                -0.8160376750911165,
                0.8048116087967825,
                -0.3679087106649553,
                0.5496681978986468,
                2.46350382410487
            ]
        },
        {
            "positions": [
                -0.19997112318873012,
                -0.8549473263026697,
                0.9482039833540876,
                -0.4096723599294066,
                0.49593474357370804,
                2.534272610263268
            ]
        },
        {
            "positions": [
                -0.15402632002490713,
                -0.8938569775142231,
                1.0915963579113932,
                -0.4514360091938579,
                0.442201289248769,
                2.605041396421666
            ]
        },
        {
            "positions": [
                -0.10808151686108425,
                -0.9327666287257763,
                1.2349887324686983,
                -0.4931996584583092,
                0.38846783492382997,
                2.675810182580064
            ]
        },
        {
            "positions": [
                -0.06213671369726148,
                -0.9716762799373297,
                1.378381107026004,
                -0.5349633077227605,
                0.33473438059889093,
                2.7465789687384623
            ]
        },
        {
            "positions": [
                -0.016191910533438714,
                -1.010585931148883,
                1.521773481583309,
                -0.5767269569872118,
                0.2810009262739521,
                2.8173477548968604
            ]
        },
        {
            "positions": [
                0.029752892630384276,
                -1.0494955823604364,
                1.6651658561406146,
                -0.6184906062516631,
                0.2272674719490131,
                2.8881165410552585
            ]
        },
        {
            "positions": [
                0.07569769579420704,
                -1.0884052335719896,
                1.8085582306979198,
                -0.6602542555161144,
                0.17353401762407406,
                2.9588853272136566
            ]
        },
        {
            "positions": [
                0.12164249895803,
                -1.127314884783543,
                1.9519506052552251,
                -0.7020179047805658,
                0.11980056329913508,
                3.0296541133720547
            ]
        }
    ]
}