{
    "goal": {
        "global_pose": {
            "orientation": {
                "w": 0.7047431468963623,
                "x": -0.7094548344612122,
                "y": 0.0024358443915843964,
                "z": -0.0022348060738295317
            },
            "position": {
                "x": 0.6094750761985779,
                "y": 0.3671506643295288,
                "z": 0.19426114857196808
            }
        },
        "name": "move_to_magneteinheit_A"
    },
    "id": "BFMT_move_to_magneteinheit_A_106",
    "joint_names": [
        "shoulder_pan_joint",
        "shoulder_lift_joint",
        "elbow_joint",
        "wrist_1_joint",
        "wrist_2_joint",
        "wrist_3_joint"
    ],
    "metrics": {
        "cart_traj_len": 1.8781904475393025,
        "distance_elbow_joint": 3.9121071978934063,
        "distance_shoulder_lift_joint": 0.7009245771691045,
        "distance_shoulder_pan_joint": 1.2417390736325487,
        "distance_wrist_1_joint": 1.4922526791717923,
        "distance_wrist_2_joint": 1.7006704744202343,
        "distance_wrist_3_joint": 1.1065159934886835,
        "smoothness": 6.908054403019362e-16,
        "time": 0.7069121190000001,
        "traj_len": 3.1865671177264994,
        "weighted_distance": 3.9446375164703236
    },
    "planner": "BFMT",
    "start": {
        "state": {
            "elbow_joint": -1.919643507792019,
            "shoulder_lift_joint": -0.07675430207160344,
            "shoulder_pan_joint": -1.1188671864651873,
            "wrist_1_joint": 0.42560062535961957,
            "wrist_2_joint": 1.5706038300724876,
            "wrist_3_joint": 1.1188968870953055
        }
    },
    "waypoints": [
        {
            "positions": [
                -1.1188671864651873,
                -0.07675430207160344,
                -1.919643507792019,
                0.42560062535961957,
                1.5706038300724876,
                1.1188968870953055
            ]
        },
        {
            "positions": [
                -1.071107991325474,
                -0.10371293965503055,
                -1.7691778463345804,
                0.48299495917391927,
                1.5051934272101708,
                1.076338579653433
            ]
        },
        {
            "positions": [
                -1.0233487961857606,
                -0.13067157723845765,
                -1.6187121848771415,
                0.540389292988219,
                1.4397830243478542,
                1.0337802722115605
            ]
        },
        {
            "positions": [
                -0.9755896010460471,
                -0.15763021482188475,
                -1.4682465234197029,
                0.5977836268025187,
                1.3743726214855374,
                0.9912219647696883
            ]
        },
        {
            "positions": [
                -0.9278304059063337,
                -0.18458885240531187,
                -1.3177808619622642,
                0.6551779606168184,
                1.3089622186232208,
                0.9486636573278158
            ]
        },
        {
            "positions": [
                -0.8800712107666203,
                -0.21154748998873896,
                -1.1673152005048255,
                0.7125722944311181,
                1.243551815760904,
                0.9061053498859433
            ]
        },
        {
            "positions": [
                -0.8323120156269068,
                -0.23850612757216605,
                -1.0168495390473868,
                0.7699666282454178,
                1.1781414128985874,
                0.8635470424440709
            ]
        },
        {
            "positions": [
                -0.7845528204871934,
                -0.26546476515559314,
                -0.8663838775899482,
                0.8273609620597175,
                1.1127310100362706,
                0.8209887350021985
            ]
        },
        {
            "positions": [
                -0.73679362534748,
                -0.29242340273902023,
                -0.7159182161325093,
                0.8847552958740172,
                1.0473206071739538,
                0.778430427560326
            ]
        },
        {
            "positions": [
                -0.6890344302077667,
                -0.3193820403224473,
                -0.5654525546750708,
                0.942149629688317,
                0.9819102043116372,
                0.7358721201184536
            ]
        },
        {
            "positions": [
                -0.6412752350680533,
                -0.34634067790587447,
                -0.41498689321763194,
                0.9995439635026167,
                0.9164998014493205,
                0.6933138126765811
            ]
        },
        {
            "positions": [
                -0.5935160399283399,
                -0.37329931548930156,
                -0.26452123176019327,
                1.0569382973169164,
                0.8510893985870038,
                0.6507555052347087
            ]
        },
        {
            "positions": [
                -0.5457568447886264,
                -0.40025795307272866,
                -0.1140555703027546,
                1.114332631131216,
                0.7856789957246871,
                0.6081971977928362
            ]
        },
        {
            "positions": [
                -0.497997649648913,
                -0.42721659065615575,
                0.03641009115468408,
                1.1717269649455158,
                0.7202685928623704,
                0.5656388903509638
            ]
        },
        {
            "positions": [
                -0.45023845450919964,
                -0.45417522823958284,
                0.18687575261212275,
                1.2291212987598155,
                0.6548581900000537,
                0.5230805829090914
            ]
        },
        {
            "positions": [
                -0.40247925936948625,
                -0.48113386582300993,
                0.3373414140695614,
                1.286515632574115,
                0.5894477871377372,
                0.48052227546721904
            ]
        },
        {
            "positions": [
                -0.35472006422977276,
                -0.5080925034064371,
                0.48780707552700053,
                1.3439099663884149,
                0.5240373842754202,
                0.43796396802534643
            ]
        },
        {
            "positions": [
                -0.3069608690900594,
                -0.5350511409898642,
                0.6382727369844388,
                1.4013043002027146,
                0.45862698141310365,
                0.39540566058347404
            ]
        },
        {
            "positions": [
                -0.259201673950346,
                -0.5620097785732913,
                0.7887383984418774,
                1.4586986340170143,
                0.39321657855078684,
                0.35284735314160165
            ]
        },
        {
            "positions": [
                -0.2114424788106326,
                -0.5889684161567184,
                0.9392040598993161,
                1.516092967831314,
                0.32780617568847026,
                0.31028904569972926
            ]
        },
        {
            "positions": [
                -0.1636832836709191,
                -0.6159270537401456,
                1.0896697213567552,
                1.5734873016456137,
                0.26239577282615345,
                0.26773073825785665
            ]
        },
        {
            "positions": [
                -0.11592408853120562,
                -0.6428856913235725,
                1.2401353828141939,
                1.6308816354599134,
                0.19698536996383686,
                0.22517243081598426
            ]
        },
        {
            "positions": [
                -0.06816489339149245,
                -0.6698443289069997,
                1.3906010442716326,
                1.688275969274213,
                0.13157496710152006,
                0.18261412337411187
            ]
        },
        {
            "positions": [
                -0.02040569825177907,
                -0.6968029664904267,
                1.5410667057290708,
                1.7456703030885128,
                0.06616456423920347,
                0.14005581593223948
            ]
        },
        {
            "positions": [
                0.027353496887934536,
                -0.7237616040738539,
                1.69153236718651,
                1.8030646369028125,
                0.000754161376886664,
                0.09749750849036687
            ]
        },
        {
            "positions": [
                0.07511269202764792,
                -0.7507202416572809,
                1.8419980286439486,
                1.8604589707171122,
                -0.06465624148543014,
                0.05493920104849459
            ]
        },
        {
            "positions": [
                0.12287188716736122,
                -0.777678879240708,
                1.9924636901013872,
                1.917853304531412,
                -0.13006664434774678,
                0.012380893606622036
            ]
        }
    ]
}