{
    "goal": {
        "global_pose": {
            "orientation": {
                "w": -0.00223480608172531,
                "x": 0.0024358444001904467,
                "y": 0.7094548369677653,
                "z": -0.704743149386269
            },
            "position": {
                "x": 0.6205249238014221,
                "y": -0.6371506643295288,
                "z": 0.19426114857196808
            }
        },
        "name": "move_to_magneteinheit_B"
    },
    "id": "BFMT_move_to_magneteinheit_B_7",
    "joint_names": [
        "shoulder_pan_joint",
        "shoulder_lift_joint",
        "elbow_joint",
        "wrist_1_joint",
        "wrist_2_joint",
        "wrist_3_joint"
    ],
    "metrics": {
        "cart_traj_len": 1.4519379123296263,
        "distance_elbow_joint": 0.7294583515341766,
        "distance_shoulder_lift_joint": 1.2487166520038164,
        "distance_shoulder_pan_joint": 1.6205769136985952,
        "distance_wrist_1_joint": 2.6038613365975825,
        "distance_wrist_2_joint": 2.9398298953741673,
        "distance_wrist_3_joint": 3.1310225770355795,
        "smoothness": 1.665334550124364e-16,
        "time": 0.6358188789999999,
        "traj_len": 3.5033506427766996,
        "weighted_distance": 4.907056359192018
    },
    "planner": "BFMT",
    "start": {
        "state": {
            "elbow_joint": 2.39358713078474,
            "shoulder_lift_joint": -1.908514104345545,
            "shoulder_pan_joint": 0.7066247066606129,
            "wrist_1_joint": -0.4678290933515497,
            "wrist_2_joint": 0.7096259083745334,
            "wrist_3_joint": -3.1358149277392293
        }
    },
    "waypoints": [
        {
            "positions": [
                0.7066247066606129,
                -1.908514104345545,
                2.39358713078474,
                -0.4678290933515497,
                0.7096259083745334,
                -3.1358149277392293
            ]
        },
        {
            "positions": [
                0.6543480320251744,
                -1.868232922022841,
                2.3700562162191217,
                -0.3838335663645309,
                0.6147926859431087,
                -3.034814199447759
            ]
        },
        {
            "positions": [
                0.6020713573897358,
                -1.8279517397001375,
                2.346525301653503,
                -0.29983803937751213,
                0.519959463511684,
                -2.933813471156289
            ]
        },
        {
            "positions": [
                0.5497946827542972,
                -1.7876705573774336,
                2.3229943870878844,
                -0.21584251239049335,
                0.4251262410802592,
                -2.832812742864818
            ]
        },
        {
            "positions": [
                0.4975180081188587,
                -1.74738937505473,
                2.2994634725222656,
                -0.13184698540347456,
                0.3302930186488344,
                -2.731812014573348
            ]
        },
        {
            "positions": [
                0.44524133348342015,
                -1.7071081927320262,
                2.275932557956647,
                -0.04785145841645577,
                0.2354597962174097,
                -2.6308112862818778
            ]
        },
        {
            "positions": [
                0.3929646588479816,
                -1.6668270104093224,
                2.2524016433910283,
                0.036144068570563015,
                0.14062657378598498,
                -2.5298105579904075
            ]
        },
        {
            "positions": [
                0.34068798421254304,
                -1.6265458280866185,
                2.22887072882541,
                0.12013959555758175,
                0.0457933513545602,
                -2.4288098296989373
            ]
        },
        {
            "positions": [
                0.2884113095771045,
                -1.586264645763915,
                2.205339814259791,
                0.2041351225446006,
                -0.04903987107686458,
                -2.3278091014074667
            ]
        },
        {
            "positions": [
                0.23613463494166592,
                -1.545983463441211,
                2.1818088996941727,
                0.28813064953161943,
                -0.14387309350828936,
                -2.2268083731159964
            ]
        },
        {
            "positions": [
                0.18385796030622736,
                -1.5057022811185075,
                2.158277985128554,
                0.37212617651863816,
                -0.23870631593971403,
                -2.125807644824526
            ]
        },
        {
            "positions": [
                0.13158128567078875,
                -1.4654210987958036,
                2.1347470705629354,
                0.456121703505657,
                -0.3335395383711389,
                -2.0248069165330556
            ]
        },
        {
            "positions": [
                0.07930461103535025,
                -1.4251399164730998,
                2.111216155997317,
                0.5401172304926758,
                -0.4283727608025635,
                -1.9238061882415858
            ]
        },
        {
            "positions": [
                0.027027936399911634,
                -1.384858734150396,
                2.087685241431698,
                0.6241127574796947,
                -0.5232059832339885,
                -1.8228054599501153
            ]
        },
        {
            "positions": [
                -0.02524873823552687,
                -1.3445775518276923,
                2.06415432686608,
                0.7081082844667133,
                -0.618039205665413,
                -1.7218047316586451
            ]
        },
        {
            "positions": [
                -0.07752541287096537,
                -1.3042963695049885,
                2.040623412300461,
                0.7921038114537322,
                -0.7128724280968378,
                -1.6208040033671747
            ]
        },
        {
            "positions": [
                -0.12980208750640398,
                -1.264015187182285,
                2.0170924977348426,
                0.8760993384407509,
                -0.8077056505282626,
                -1.5198032750757045
            ]
        },
        {
            "positions": [
                -0.1820787621418425,
                -1.223734004859581,
                1.993561583169224,
                0.9600948654277697,
                -0.9025388729596872,
                -1.4188025467842342
            ]
        },
        {
            "positions": [
                -0.2343554367772811,
                -1.1834528225368772,
                1.9700306686036053,
                1.0440903924147886,
                -0.9973720953911122,
                -1.3178018184927636
            ]
        },
        {
            "positions": [
                -0.2866321114127196,
                -1.1431716402141734,
                1.9464997540379867,
                1.1280859194018074,
                -1.092205317822537,
                -1.2168010902012933
            ]
        },
        {
            "positions": [
                -0.3389087860481582,
                -1.1028904578914698,
                1.922968839472368,
                1.212081446388826,
                -1.1870385402539614,
                -1.1158003619098231
            ]
        },
        {
            "positions": [
                -0.3911854606835966,
                -1.0626092755687662,
                1.8994379249067495,
                1.2960769733758448,
                -1.2818717626853862,
                -1.014799633618353
            ]
        },
        {
            "positions": [
                -0.44346213531903544,
                -1.0223280932460623,
                1.8759070103411308,
                1.3800725003628638,
                -1.3767049851168114,
                -0.9137989053268822
            ]
        },
        {
            "positions": [
                -0.49573880995447384,
                -0.9820469109233585,
                1.8523760957755122,
                1.4640680273498825,
                -1.4715382075482362,
                -0.812798177035412
            ]
        },
        {
            "positions": [
                -0.5480154845899124,
                -0.9417657286006548,
                1.8288451812098936,
                1.5480635543369012,
                -1.5663714299796605,
                -0.7117974487439422
            ]
        },
        {
            "positions": [
                -0.6002921592253508,
                -0.901484546277951,
                1.8053142666442752,
                1.63205908132392,
                -1.6612046524110853,
                -0.610796720452472
            ]
        },
        {
            "positions": [
                -0.6525688338607897,
                -0.8612033639552472,
                1.7817833520786563,
                1.7160546083109391,
                -1.7560378748425105,
                -0.5097959921610014
            ]
        },
        {
            "positions": [
                -0.7048455084962281,
                -0.8209221816325436,
                1.758252437513038,
                1.8000501352979579,
                -1.8508710972739348,
                -0.40879526386953113
            ]
        },
        {
            "positions": [
                -0.7571221831316667,
                -0.7806409993098398,
                1.7347215229474193,
                1.8840456622849762,
                -1.9457043197053596,
                -0.3077945355780609
            ]
        },
        {
            "positions": [
                -0.8093988577671051,
                -0.7403598169871362,
                1.7111906083818007,
                1.968041189271995,
                -2.0405375421367844,
                -0.2067938072865907
            ]
        },
        {
            "positions": [
                -0.8616755324025437,
                -0.7000786346644321,
                1.687659693816182,
                2.052036716259014,
                -2.135370764568209,
                -0.10579307899512003
            ]
        },
        {
            "positions": [
                -0.9139522070379822,
                -0.6597974523417285,
                1.6641287792505635,
                2.136032243246033,
                -2.230203986999634,
                -0.004792350703649879
            ]
        }
    ]
}