{
    "goal": {
        "global_pose": {
            "orientation": {
                "w": 0.7031023502349854,
                "x": -0.7110244035720825,
                "y": 0.007748599164187908,
                "z": 0.005598929710686207
            },
            "position": {
                "x": 0.11585023208521307,
                "y": 0.44412534475326537,
                "z": 0.3711530566215515
            }
        },
        "name": "move_to_auspresseinheit_A"
    },
    "id": "BFMT_move_to_auspresseinheit_A_89",
    "joint_names": [
        "shoulder_pan_joint",
        "shoulder_lift_joint",
        "elbow_joint",
        "wrist_1_joint",
        "wrist_2_joint",
        "wrist_3_joint"
    ],
    "metrics": {
        "cart_traj_len": 0.6665500110759625,
        "distance_elbow_joint": 0.31070563662884965,
        "distance_shoulder_lift_joint": 0.5808741907035542,
        "distance_shoulder_pan_joint": 1.0446402824026109,
        "distance_wrist_1_joint": 0.5464227066377212,
        "distance_wrist_2_joint": 0.6617730968407003,
        "distance_wrist_3_joint": 0.058899646439031894,
        "smoothness": 0.5397990338544554,
        "time": 0.8656006460000001,
        "traj_len": 1.7897808691715498,
        "weighted_distance": 2.12821771818791
    },
    "planner": "BFMT",
    "start": {
        "state": {
            "elbow_joint": 2.422574709923281,
            "shoulder_lift_joint": -1.3736533754116391,
            "shoulder_pan_joint": -0.33786336945926293,
            "wrist_1_joint": -1.0288603412921917,
            "wrist_2_joint": 1.2330224858903978,
            "wrist_3_joint": -3.094022268022082
        }
    },
    "waypoints": [
        {
            "positions": [
                -0.33786336945926293,
                -1.3736533754116391,
                2.422574709923281,
                -1.0288603412921917,
                1.2330224858903978,
                -3.094022268022082
            ]
        },
        {
            "positions": [
                -0.20398950240453764,
                -1.5132058135792137,
                2.458231848100138,
                -1.0069683384536283,
                1.2500974345608573,
                -3.0909633002251535
            ]
        },
        {
            "positions": [
                -0.07011563534981236,
                -1.6527582517467883,
                2.4938889862769957,
                -0.9850763356150647,
                1.2671723832313166,
                -3.0879043324282254
            ]
        },
        {
            "positions": [
                0.06375823170491296,
                -1.7923106899143626,
                2.5295461244538533,
                -0.9631843327765012,
                1.284247331901776,
                -3.0848453646312968
            ]
        },
        {
            "positions": [
                0.19763209875963822,
                -1.9318631280819372,
                2.5652032626307104,
                -0.9412923299379377,
                1.3013222805722355,
                -3.081786396834368
            ]
        },
        {
            "positions": [
                0.29946106159638014,
                -1.927330240475286,
                2.5315878458464263,
                -0.8495213908812442,
                1.182627620140463,
                -3.091119151884632
            ]
        },
        {
            "positions": [
                0.40129002443312206,
                -1.9227973528686346,
                2.497972429062142,
                -0.7577504518245508,
                1.0639329597086906,
                -3.1004519069348953
            ]
        },
        {
            "positions": [
                0.503118987269864,
                -1.9182644652619836,
                2.4643570122778584,
                -0.6659795127678574,
                0.945238299276918,
                -3.109784661985159
            ]
        },
        {
            "positions": [
                0.604947950106606,
                -1.9137315776553323,
                2.4307415954935743,
                -0.574208573711164,
                0.8265436388451455,
                -3.1191174170354223
            ]
        },
        {
            "positions": [
                0.7067769129433478,
                -1.909198690048681,
                2.39712617870929,
                -0.4824376346544705,
                0.707848978413373,
                -3.128450172085686
            ]
        }
    ]
}