{
    "goal": {
        "global_pose": {
            "orientation": {
                "w": 0.5084816217422485,
                "x": -0.49083608388900757,
                "y": 0.5182115435600281,
                "z": -0.4816462993621826
            },
            "position": {
                "x": 0.5540239810943604,
                "y": 0.030875300988554955,
                "z": 0.16403168439865112
            }
        },
        "name": "move_to_storage_A"
    },
    "id": "BFMT_move_to_storage_A_88",
    "joint_names": [
        "shoulder_pan_joint",
        "shoulder_lift_joint",
        "elbow_joint",
        "wrist_1_joint",
        "wrist_2_joint",
        "wrist_3_joint"
    ],
    "metrics": {
        "cart_traj_len": 0.3527587714848214,
        "distance_elbow_joint": 0.45409020674448897,
        "distance_shoulder_lift_joint": 0.23381196333037813,
        "distance_shoulder_pan_joint": 0.457835184398987,
        "distance_wrist_1_joint": 0.2609979816408553,
        "distance_wrist_2_joint": 1.1132219512420218,
        "distance_wrist_3_joint": 0.09446263743358196,
        "smoothness": 2.2204460668324854e-16,
        "time": 0.49180811500000005,
        "traj_len": 1.6169167958773614,
        "weighted_distance": 2.0439092769837788
    },
    "planner": "BFMT",
    "start": {
        "state": {
            "elbow_joint": 1.9715463870305268,
            "shoulder_lift_joint": -1.1394903361783484,
            "shoulder_pan_joint": 0.12281147578464417,
            "wrist_1_joint": -0.7804599489681411,
            "wrist_2_joint": 0.12958660307563738,
            "wrist_3_joint": -3.1924946282119055
        }
    },
    "waypoints": [
        {
            "positions": [
                0.12281147578464417,
                -1.1394903361783484,
                1.9715463870305268,
                -0.7804599489681411,
                0.12958660307563738,
                -3.1924946282119055
            ]
        },
        {
            "positions": [
                0.05740644944193174,
                -1.1728920452255454,
                2.0364164165654537,
                -0.8177453749168347,
                0.2886183103959262,
                -3.1789999657213937
            ]
        },
        {
            "positions": [
                -0.007998576900780693,
                -1.206293754272742,
                2.1012864461003806,
                -0.8550308008655283,
                0.44765001771621504,
                -3.165505303230882
            ]
        },
        {
            "positions": [
                -0.07340360324349311,
                -1.239695463319939,
                2.1661564756353076,
                -0.892316226814222,
                0.6066817250365039,
                -3.1520106407403703
            ]
        },
        {
            "positions": [
                -0.13880862958620555,
                -1.2730971723671358,
                2.2310265051702345,
                -0.9296016527629155,
                0.7657134323567927,
                -3.138515978249859
            ]
        },
        {
            "positions": [
                -0.204213655928918,
                -1.3064988814143328,
                2.295896534705162,
                -0.9668870787116092,
                0.9247451396770816,
                -3.125021315759347
            ]
        },
        {
            "positions": [
                -0.2696186822716304,
                -1.3399005904615295,
                2.360766564240089,
                -1.0041725046603027,
                1.0837768469973703,
                -3.1115266532688355
            ]
        },
        {
            "positions": [
                -0.33502370861434283,
                -1.3733022995087265,
                2.4256365937750157,
                -1.0414579306089964,
                1.2428085543176592,
                -3.0980319907783236
            ]
        }
    ]
}