{
    "goal": {
        "global_pose": {
            "orientation": {
                "w": 0.5084816217422485,
                "x": -0.49083608388900757,
                "y": 0.5182115435600281,
                "z": -0.4816462993621826
            },
            "position": {
                "x": 0.5540239810943604,
                "y": 0.030875300988554955,
                "z": 0.16403168439865112
            }
        },
        "name": "move_to_storage_A"
    },
    "id": "BFMT_move_to_storage_A_59",
    "joint_names": [
        "shoulder_pan_joint",
        "shoulder_lift_joint",
        "elbow_joint",
        "wrist_1_joint",
        "wrist_2_joint",
        "wrist_3_joint"
    ],
    "metrics": {
        "cart_traj_len": 0.35298371202445866,
        "distance_elbow_joint": 0.45051548387267815,
        "distance_shoulder_lift_joint": 0.23529711851230917,
        "distance_shoulder_pan_joint": 0.4587523707773331,
        "distance_wrist_1_joint": 0.24716011293134466,
        "distance_wrist_2_joint": 1.110990455883438,
        "distance_wrist_3_joint": 0.10551296562138557,
        "smoothness": 4.440892098500626e-16,
        "time": 0.492614009,
        "traj_len": 1.6150010859434394,
        "weighted_distance": 2.043870105377551
    },
    "planner": "BFMT",
    "start": {
        "state": {
            "elbow_joint": 1.9715463870305268,
            "shoulder_lift_joint": -1.1394903361783484,
            "shoulder_pan_joint": 0.12281147578464417,
            "wrist_1_joint": -0.7804599489681411,
            "wrist_2_joint": 0.12958660307563738,
            "wrist_3_joint": -3.1924946282119055
        }
    },
    "waypoints": [
        {
            "positions": [
                0.12281147578464417,
                -1.1394903361783484,
                1.9715463870305268,
                -0.7804599489681411,
                0.12958660307563738,
                -3.1924946282119055
            ]
        },
        {
            "positions": [
                0.05727542281645373,
                -1.1731042102515354,
                2.0359057418694806,
                -0.8157685365297618,
                0.28829952534469994,
                -3.1774213474088504
            ]
        },
        {
            "positions": [
                -0.008260630151736711,
                -1.2067180843247225,
                2.100265096708435,
                -0.8510771240913824,
                0.44701244761376246,
                -3.1623480666057953
            ]
        },
        {
            "positions": [
                -0.07379668311992714,
                -1.2403319583979096,
                2.1646244515473887,
                -0.8863857116530031,
                0.6057253698828251,
                -3.14727478580274
            ]
        },
        {
            "positions": [
                -0.13933273608811758,
                -1.2739458324710964,
                2.228983806386343,
                -0.9216942992146238,
                0.7644382921518876,
                -3.1322015049996854
            ]
        },
        {
            "positions": [
                -0.20486878905630806,
                -1.3075597065442834,
                2.293343161225297,
                -0.9570028867762443,
                0.9231512144209503,
                -3.1171282241966303
            ]
        },
        {
            "positions": [
                -0.27040484202449844,
                -1.3411735806174705,
                2.3577025160642506,
                -0.992311474337865,
                1.0818641366900128,
                -3.102054943393575
            ]
        },
        {
            "positions": [
                -0.3359408949926889,
                -1.3747874546906576,
                2.422061870903205,
                -1.0276200618994857,
                1.2405770589590754,
                -3.08698166259052
            ]
        }
    ]
}