{
    "goal": {
        "global_pose": {
            "orientation": {
                "w": 0.7047431468963623,
                "x": -0.7094548344612122,
                "y": 0.0024358443915843964,
                "z": -0.0022348060738295317
            },
            "position": {
                "x": 0.6094750761985779,
                "y": 0.3671506643295288,
                "z": 0.19426114857196808
            }
        },
        "name": "move_to_magneteinheit_A"
    },
    "id": "BFMT_move_to_magneteinheit_A_22",
    "joint_names": [
        "shoulder_pan_joint",
        "shoulder_lift_joint",
        "elbow_joint",
        "wrist_1_joint",
        "wrist_2_joint",
        "wrist_3_joint"
    ],
    "metrics": {
        "cart_traj_len": 1.879182765234005,
        "distance_elbow_joint": 3.911229508900914,
        "distance_shoulder_lift_joint": 0.699381209772131,
        "distance_shoulder_pan_joint": 1.2417921455034737,
        "distance_wrist_1_joint": 1.4900964688457197,
        "distance_wrist_2_joint": 1.700390056895522,
        "distance_wrist_3_joint": 1.1016832561053536,
        "smoothness": 1.085551398785078e-15,
        "time": 0.723630943,
        "traj_len": 3.18505457504626,
        "weighted_distance": 3.9418809829794537
    },
    "planner": "BFMT",
    "start": {
        "state": {
            "elbow_joint": -1.919643507792019,
            "shoulder_lift_joint": -0.07675430207160344,
            "shoulder_pan_joint": -1.1188671864651873,
            "wrist_1_joint": 0.42560062535961957,
            "wrist_2_joint": 1.5706038300724876,
            "wrist_3_joint": 1.1188968870953055
        }
    },
    "waypoints": [
        {
            "positions": [
                -1.1188671864651873,
                -0.07675430207160344,
                -1.919643507792019,
                0.42560062535961957,
                1.5706038300724876,
                1.1188968870953055
            ]
        },
        {
            "positions": [
                -1.0711059500996691,
                -0.10365357937053156,
                -1.7692116036035224,
                0.48291202800753186,
                1.5052042124995828,
                1.0765244541681767
            ]
        },
        {
            "positions": [
                -1.023344713734151,
                -0.13055285666945968,
                -1.6187796994150256,
                0.5402234306554442,
                1.4398045949266782,
                1.0341520212410475
            ]
        },
        {
            "positions": [
                -0.9755834773686327,
                -0.1574521339683878,
                -1.468347795226529,
                0.5975348333033564,
                1.3744049773537736,
                0.9917795883139187
            ]
        },
        {
            "positions": [
                -0.9278222410031145,
                -0.1843514112673159,
                -1.3179158910380324,
                0.6548462359512688,
                1.3090053597808688,
                0.9494071553867895
            ]
        },
        {
            "positions": [
                -0.8800610046375963,
                -0.21125068856624404,
                -1.1674839868495357,
                0.712157638599181,
                1.243605742207964,
                0.9070347224596607
            ]
        },
        {
            "positions": [
                -0.8322997682720781,
                -0.23814996586517215,
                -1.017052082661039,
                0.7694690412470934,
                1.1782061246350595,
                0.8646622895325317
            ]
        },
        {
            "positions": [
                -0.7845385319065599,
                -0.2650492431641003,
                -0.8666201784725422,
                0.8267804438950056,
                1.112806507062155,
                0.8222898566054027
            ]
        },
        {
            "positions": [
                -0.7367772955410415,
                -0.2919485204630284,
                -0.7161882742840455,
                0.884091846542918,
                1.04740688948925,
                0.7799174236782737
            ]
        },
        {
            "positions": [
                -0.6890160591755234,
                -0.3188477977619565,
                -0.565756370095549,
                0.9414032491908302,
                0.9820072719163454,
                0.7375449907511447
            ]
        },
        {
            "positions": [
                -0.6412548228100051,
                -0.34574707506088465,
                -0.4153244659070521,
                0.9987146518387426,
                0.9166076543434407,
                0.6951725578240158
            ]
        },
        {
            "positions": [
                -0.5934935864444869,
                -0.3726463523598127,
                -0.2648925617185556,
                1.0560260544866549,
                0.851208036770536,
                0.6528001248968867
            ]
        },
        {
            "positions": [
                -0.5457323500789687,
                -0.39954562965874085,
                -0.11446065753005863,
                1.113337457134567,
                0.7858084191976313,
                0.6104276919697578
            ]
        },
        {
            "positions": [
                -0.4979711137134505,
                -0.42644490695766896,
                0.03597124665843787,
                1.1706488597824793,
                0.7204088016247266,
                0.5680552590426288
            ]
        },
        {
            "positions": [
                -0.4502098773479323,
                -0.45334418425659706,
                0.1864031508469346,
                1.2279602624303916,
                0.655009184051822,
                0.5256828261154998
            ]
        },
        {
            "positions": [
                -0.40244864098241406,
                -0.48024346155552516,
                0.3368350550354309,
                1.2852716650783038,
                0.5896095664789174,
                0.4833103931883709
            ]
        },
        {
            "positions": [
                -0.35468740461689574,
                -0.5071427388544534,
                0.48726695922392804,
                1.3425830677262163,
                0.5242099489060126,
                0.44093796026124177
            ]
        },
        {
            "positions": [
                -0.30692616825137764,
                -0.5340420161533814,
                0.6376988634124248,
                1.3998944703741285,
                0.4588103313331078,
                0.3985655273341129
            ]
        },
        {
            "positions": [
                -0.25916493188585943,
                -0.5609412934523095,
                0.788130767600921,
                1.457205873022041,
                0.3934107137602032,
                0.3561930944069839
            ]
        },
        {
            "positions": [
                -0.21140369552034122,
                -0.5878405707512375,
                0.9385626717894178,
                1.5145172756699532,
                0.3280110961872986,
                0.3138206614798549
            ]
        },
        {
            "positions": [
                -0.1636424591548229,
                -0.6147398480501658,
                1.088994575977915,
                1.5718286783178657,
                0.2626114786143938,
                0.2714482285527259
            ]
        },
        {
            "positions": [
                -0.11588122278930468,
                -0.6416391253490938,
                1.2394264801664117,
                1.629140080965778,
                0.19721186104148902,
                0.22907579562559688
            ]
        },
        {
            "positions": [
                -0.06811998642378647,
                -0.6685384026480219,
                1.389858384354908,
                1.6864514836136901,
                0.13181224346858444,
                0.18670336269846788
            ]
        },
        {
            "positions": [
                -0.02035875005826826,
                -0.6954376799469502,
                1.5402902885434047,
                1.7437628862616024,
                0.06641262589567987,
                0.144330929771339
            ]
        },
        {
            "positions": [
                0.02740248630724995,
                -0.7223369572458782,
                1.6907221927319018,
                1.8010742889095148,
                0.0010130083227750664,
                0.10195849684420999
            ]
        },
        {
            "positions": [
                0.07516372267276816,
                -0.7492362345448065,
                1.841154096920398,
                1.858385691557427,
                -0.06438660925012973,
                0.05958606391708088
            ]
        },
        {
            "positions": [
                0.12292495903828642,
                -0.7761355118437345,
                1.9915860011088946,
                1.9156970942053393,
                -0.12978622682303437,
                0.017213630989952055
            ]
        }
    ]
}