{
    "goal": {
        "global_pose": {
            "orientation": {
                "w": 0.7031023502349854,
                "x": -0.7110244035720825,
                "y": 0.007748599164187908,
                "z": 0.005598929710686207
            },
            "position": {
                "x": 0.11585023208521307,
                "y": 0.44412534475326537,
                "z": 0.3711530566215515
            }
        },
        "name": "move_to_auspresseinheit_A"
    },
    "id": "BFMT_move_to_auspresseinheit_A_83",
    "joint_names": [
        "shoulder_pan_joint",
        "shoulder_lift_joint",
        "elbow_joint",
        "wrist_1_joint",
        "wrist_2_joint",
        "wrist_3_joint"
    ],
    "metrics": {
        "cart_traj_len": 0.6940969338185353,
        "distance_elbow_joint": 0.14200528833657833,
        "distance_shoulder_lift_joint": 0.5303004015022288,
        "distance_shoulder_pan_joint": 1.0442845836028831,
        "distance_wrist_1_joint": 0.8657396218272155,
        "distance_wrist_2_joint": 1.1636358630640902,
        "distance_wrist_3_joint": 0.29791091172396955,
        "smoothness": 1.1701905997714313,
        "time": 0.638660108,
        "traj_len": 2.0109392507127026,
        "weighted_distance": 2.582455029307618
    },
    "planner": "BFMT",
    "start": {
        "state": {
            "elbow_joint": 2.422574709923281,
            "shoulder_lift_joint": -1.3736533754116391,
            "shoulder_pan_joint": -0.33786336945926293,
            "wrist_1_joint": -1.0288603412921917,
            "wrist_2_joint": 1.2330224858903978,
            "wrist_3_joint": -3.094022268022082
        }
    },
    "waypoints": [
        {
            "positions": [
                -0.33786336945926293,
                -1.3736533754116391,
                2.422574709923281,
                -1.0288603412921917,
                1.2330224858903978,
                -3.094022268022082
            ]
        },
        {
            "positions": [
                -0.25254342922377315,
                -1.392700543880375,
                2.4101611403910614,
                -0.9262676801937234,
                1.1122263219164283,
                -3.119464945092091
            ]
        },
        {
            "positions": [
                -0.16722348898828335,
                -1.4117477123491107,
                2.3977475708588423,
                -0.8236750190952552,
                0.991430157942459,
                -3.1449076221621
            ]
        },
        {
            "positions": [
                -0.08190354875279354,
                -1.4307948808178466,
                2.3853340013266227,
                -0.7210823579967869,
                0.8706339939684896,
                -3.170350299232109
            ]
        },
        {
            "positions": [
                0.003416391482696235,
                -1.4498420492865822,
                2.3729204317944035,
                -0.6184896968983187,
                0.7498378299945203,
                -3.1957929763021182
            ]
        },
        {
            "positions": [
                0.08873633171818607,
                -1.468889217755318,
                2.360506862262184,
                -0.5158970357998502,
                0.6290416660205508,
                -3.221235653372127
            ]
        },
        {
            "positions": [
                0.17405627195367585,
                -1.4879363862240538,
                2.3480932927299647,
                -0.41330437470138204,
                0.5082455020465815,
                -3.246678330442136
            ]
        },
        {
            "positions": [
                0.2593762121891656,
                -1.5069835546927897,
                2.335679723197745,
                -0.3107117136029137,
                0.38744933807261206,
                -3.272121007512145
            ]
        },
        {
            "positions": [
                0.373076610759617,
                -1.6068548756697625,
                2.3492961727722266,
                -0.3458641287691051,
                0.4642349549710194,
                -3.2419212132470694
            ]
        },
        {
            "positions": [
                0.4867770093300684,
                -1.706726196646735,
                2.3629126223467076,
                -0.3810165439352965,
                0.5410205718694268,
                -3.2117214189819934
            ]
        },
        {
            "positions": [
                0.6004774079005198,
                -1.806597517623708,
                2.376529071921189,
                -0.4161689591014879,
                0.6178061887678342,
                -3.181521624716918
            ]
        },
        {
            "positions": [
                0.7064212141436201,
                -1.903953776913868,
                2.3907900248087874,
                -0.4583027077408512,
                0.7055120533189168,
                -3.1523088352782382
            ]
        }
    ]
}