{
    "goal": {
        "global_pose": {
            "orientation": {
                "w": 0.7031023502349854,
                "x": -0.7110244035720825,
                "y": 0.007748599164187908,
                "z": 0.005598929710686207
            },
            "position": {
                "x": 0.11585023208521307,
                "y": 0.44412534475326537,
                "z": 0.3711530566215515
            }
        },
        "name": "move_to_auspresseinheit_A"
    },
    "id": "BFMT_move_to_auspresseinheit_A_114",
    "joint_names": [
        "shoulder_pan_joint",
        "shoulder_lift_joint",
        "elbow_joint",
        "wrist_1_joint",
        "wrist_2_joint",
        "wrist_3_joint"
    ],
    "metrics": {
        "cart_traj_len": 0.7427182720385197,
        "distance_elbow_joint": 0.07865241442099746,
        "distance_shoulder_lift_joint": 0.8772539209854844,
        "distance_shoulder_pan_joint": 1.0484777571572197,
        "distance_wrist_1_joint": 0.8462522682982054,
        "distance_wrist_2_joint": 1.0993496079042684,
        "distance_wrist_3_joint": 0.5616245548961687,
        "smoothness": 1.6780515396170643,
        "time": 0.538030632,
        "traj_len": 2.1240552073009646,
        "weighted_distance": 2.7532637922395224
    },
    "planner": "BFMT",
    "start": {
        "state": {
            "elbow_joint": 2.422574709923281,
            "shoulder_lift_joint": -1.3736533754116391,
            "shoulder_pan_joint": -0.33786336945926293,
            "wrist_1_joint": -1.0288603412921917,
            "wrist_2_joint": 1.2330224858903978,
            "wrist_3_joint": -3.094022268022082
        }
    },
    "waypoints": [
        {
            "positions": [
                -0.33786336945926293,
                -1.3736533754116391,
                2.422574709923281,
                -1.0288603412921917,
                1.2330224858903978,
                -3.094022268022082
            ]
        },
        {
            "positions": [
                -0.24899143999912715,
                -1.4522996260960175,
                2.416751237423529,
                -0.9514450202152863,
                1.1435603703242354,
                -3.064029700533011
            ]
        },
        {
            "positions": [
                -0.1601195105389914,
                -1.5309458767803958,
                2.410927764923777,
                -0.8740296991383809,
                1.0540982547580733,
                -3.034037133043939
            ]
        },
        {
            "positions": [
                -0.07124758107885565,
                -1.6095921274647742,
                2.4051042924240247,
                -0.7966143780614754,
                0.964636139191911,
                -3.0040445655548678
            ]
        },
        {
            "positions": [
                0.01762434838128013,
                -1.6882383781491526,
                2.3992808199242726,
                -0.7191990569845701,
                0.8751740236257488,
                -2.9740519980657965
            ]
        },
        {
            "positions": [
                0.10649627784141591,
                -1.7668846288335307,
                2.39345734742452,
                -0.6417837359076646,
                0.7857119080595865,
                -2.9440594305767247
            ]
        },
        {
            "positions": [
                0.19536820730155163,
                -1.845530879517909,
                2.387633874924768,
                -0.5643684148307592,
                0.6962497924934243,
                -2.9140668630876534
            ]
        },
        {
            "positions": [
                0.2842401367616874,
                -1.9241771302022874,
                2.3818104024250157,
                -0.48695309375385365,
                0.606787676927262,
                -2.884074295598582
            ]
        },
        {
            "positions": [
                0.3731120662218232,
                -2.0028233808866656,
                2.3759869299252636,
                -0.40953777267694835,
                0.5173255613610998,
                -2.8540817281095103
            ]
        },
        {
            "positions": [
                0.46198399568195897,
                -2.081469631571044,
                2.3701634574255115,
                -0.33212245160004283,
                0.42786344579493757,
                -2.824089160620439
            ]
        },
        {
            "positions": [
                0.5448607930206248,
                -2.024990409962351,
                2.378910511399921,
                -0.3819605778020617,
                0.5259269683978736,
                -2.9213196431186144
            ]
        },
        {
            "positions": [
                0.6277375903592908,
                -1.968511188353658,
                2.38765756537433,
                -0.43179870400408055,
                0.6239904910008096,
                -3.0185501256167893
            ]
        },
        {
            "positions": [
                0.7106143876979566,
                -1.9120319667449648,
                2.3964046193487394,
                -0.48163683020609943,
                0.7220540136037455,
                -3.1157806081149646
            ]
        }
    ]
}