{
    "goal": {
        "global_pose": {
            "orientation": {
                "w": 0.5084816217422485,
                "x": -0.49083608388900757,
                "y": 0.5182115435600281,
                "z": -0.4816462993621826
            },
            "position": {
                "x": 0.5540239810943604,
                "y": 0.030875300988554955,
                "z": 0.16403168439865112
            }
        },
        "name": "move_to_storage_A"
    },
    "id": "BFMT_move_to_storage_A_64",
    "joint_names": [
        "shoulder_pan_joint",
        "shoulder_lift_joint",
        "elbow_joint",
        "wrist_1_joint",
        "wrist_2_joint",
        "wrist_3_joint"
    ],
    "metrics": {
        "cart_traj_len": 0.35232787900835233,
        "distance_elbow_joint": 0.4515523884129111,
        "distance_shoulder_lift_joint": 0.23234487248774993,
        "distance_shoulder_pan_joint": 0.4568221807299417,
        "distance_wrist_1_joint": 0.2564383509521523,
        "distance_wrist_2_joint": 1.1130060222770204,
        "distance_wrist_3_joint": 0.10560602296709254,
        "smoothness": 2.442490657182277e-15,
        "time": 0.49752779799999997,
        "traj_len": 1.6173341762996503,
        "weighted_distance": 2.048518063623122
    },
    "planner": "BFMT",
    "start": {
        "state": {
            "elbow_joint": 1.9715463870305268,
            "shoulder_lift_joint": -1.1394903361783484,
            "shoulder_pan_joint": 0.12281147578464417,
            "wrist_1_joint": -0.7804599489681411,
            "wrist_2_joint": 0.12958660307563738,
            "wrist_3_joint": -3.1924946282119055
        }
    },
    "waypoints": [
        {
            "positions": [
                0.12281147578464417,
                -1.1394903361783484,
                1.9715463870305268,
                -0.7804599489681411,
                0.12958660307563738,
                -3.1924946282119055
            ]
        },
        {
            "positions": [
                0.057551164251795364,
                -1.1726824608194555,
                2.036053871089514,
                -0.8170939991041628,
                0.288587463400926,
                -3.177408053502321
            ]
        },
        {
            "positions": [
                -0.007709147281053444,
                -1.2058745854605626,
                2.100561355148501,
                -0.8537280492401846,
                0.4475883237262146,
                -3.162321478792736
            ]
        },
        {
            "positions": [
                -0.07296945881390225,
                -1.2390667101016697,
                2.1650688392074886,
                -0.8903620993762064,
                0.6065891840515032,
                -3.1472349040831515
            ]
        },
        {
            "positions": [
                -0.13822977034675105,
                -1.272258834742777,
                2.229576323266476,
                -0.9269961495122281,
                0.7655900443767919,
                -3.132148329373567
            ]
        },
        {
            "positions": [
                -0.20349008187959988,
                -1.3054509593838841,
                2.2940838073254635,
                -0.9636301996482499,
                0.9245909047020806,
                -3.1170617546639825
            ]
        },
        {
            "positions": [
                -0.26875039341244866,
                -1.3386430840249912,
                2.3585912913844505,
                -1.0002642497842715,
                1.083591765027369,
                -3.1019751799543975
            ]
        },
        {
            "positions": [
                -0.3340107049452975,
                -1.3718352086660983,
                2.423098775443438,
                -1.0368982999202934,
                1.2425926253526578,
                -3.086888605244813
            ]
        }
    ]
}