{
    "goal": {
        "global_pose": {
            "orientation": {
                "w": 0.7047431468963623,
                "x": -0.7094548344612122,
                "y": 0.0024358443915843964,
                "z": -0.0022348060738295317
            },
            "position": {
                "x": 0.6094750761985779,
                "y": 0.3671506643295288,
                "z": 0.19426114857196808
            }
        },
        "name": "move_to_magneteinheit_A"
    },
    "id": "BFMT_move_to_magneteinheit_A_12",
    "joint_names": [
        "shoulder_pan_joint",
        "shoulder_lift_joint",
        "elbow_joint",
        "wrist_1_joint",
        "wrist_2_joint",
        "wrist_3_joint"
    ],
    "metrics": {
        "cart_traj_len": 2.084219795616337,
        "distance_elbow_joint": 3.9001412036850134,
        "distance_shoulder_lift_joint": 1.0684127559313945,
        "distance_shoulder_pan_joint": 1.2424625509183396,
        "distance_wrist_1_joint": 1.2358243453696307,
        "distance_wrist_2_joint": 1.4316109782097055,
        "distance_wrist_3_joint": 4.287811672523459,
        "smoothness": 0.0008634427028877659,
        "time": 0.783393297,
        "traj_len": 3.628534622493982,
        "weighted_distance": 4.940579133589886
    },
    "planner": "BFMT",
    "start": {
        "state": {
            "elbow_joint": -1.919643507792019,
            "shoulder_lift_joint": -0.07675430207160344,
            "shoulder_pan_joint": -1.1188671864651873,
            "wrist_1_joint": 0.42560062535961957,
            "wrist_2_joint": 1.5706038300724876,
            "wrist_3_joint": 1.1188968870953055
        }
    },
    "waypoints": [
        {
            "positions": [
                -1.1188671864651873,
                -0.07675430207160344,
                -1.919643507792019,
                0.42560062535961957,
                1.5706038300724876,
                1.1188968870953055
            ]
        },
        {
            "positions": [
                -1.0836377153842778,
                -0.10767834864110284,
                -1.8055878803285876,
                0.387003415906808,
                1.5302172627767208,
                0.9896372438700123
            ]
        },
        {
            "positions": [
                -1.0484082443033682,
                -0.13860239521060225,
                -1.6915322528651564,
                0.3484062064539964,
                1.4898306954809541,
                0.860377600644719
            ]
        },
        {
            "positions": [
                -1.0131787732224584,
                -0.16952644178010162,
                -1.577476625401725,
                0.3098089970011848,
                1.4494441281851873,
                0.7311179574194258
            ]
        },
        {
            "positions": [
                -0.9779493021415488,
                -0.20045048834960102,
                -1.4634209979382935,
                0.2712117875483732,
                1.4090575608894205,
                0.6018583141941325
            ]
        },
        {
            "positions": [
                -0.9427198310606393,
                -0.23137453491910043,
                -1.349365370474862,
                0.23261457809556163,
                1.3686709935936536,
                0.47259867096883923
            ]
        },
        {
            "positions": [
                -0.9074903599797297,
                -0.2622985814885998,
                -1.2353097430114306,
                0.19401736864275004,
                1.328284426297887,
                0.34333902774354597
            ]
        },
        {
            "positions": [
                -0.8722608888988201,
                -0.2932226280580992,
                -1.1212541155479994,
                0.15542015918993846,
                1.2878978590021202,
                0.2140793845182527
            ]
        },
        {
            "positions": [
                -0.8370314178179105,
                -0.3241466746275986,
                -1.007198488084568,
                0.11682294973712687,
                1.2475112917063533,
                0.08481974129295944
            ]
        },
        {
            "positions": [
                -0.8018019467370008,
                -0.355070721197098,
                -0.8931428606211365,
                0.07822574028431528,
                1.2071247244105865,
                -0.044439901932333825
            ]
        },
        {
            "positions": [
                -0.7665724756560912,
                -0.3859947677665974,
                -0.779087233157705,
                0.039628530831503694,
                1.1667381571148199,
                -0.1736995451576271
            ]
        },
        {
            "positions": [
                -0.7313430045751816,
                -0.4169188143360968,
                -0.6650316056942738,
                0.0010313213786921072,
                1.126351589819053,
                -0.30295918838292035
            ]
        },
        {
            "positions": [
                -0.6961135334942721,
                -0.44784286090559616,
                -0.5509759782308423,
                -0.03756588807411948,
                1.0859650225232862,
                -0.4322188316082136
            ]
        },
        {
            "positions": [
                -0.6608840624133624,
                -0.4787669074750956,
                -0.43692035076741087,
                -0.07616309752693101,
                1.0455784552275196,
                -0.5614784748335069
            ]
        },
        {
            "positions": [
                -0.6256545913324528,
                -0.509690954044595,
                -0.32286472330397964,
                -0.11476030697974265,
                1.0051918879317527,
                -0.6907381180588001
            ]
        },
        {
            "positions": [
                -0.5904251202515431,
                -0.5406150006140944,
                -0.2088090958405482,
                -0.1533575164325543,
                0.9648053206359859,
                -0.8199977612840934
            ]
        },
        {
            "positions": [
                -0.5551956491706336,
                -0.5715390471835937,
                -0.09475346837711673,
                -0.19195472588536583,
                0.9244187533402192,
                -0.9492574045093867
            ]
        },
        {
            "positions": [
                -0.519966178089724,
                -0.6024630937530933,
                0.01930215908631472,
                -0.23055193533817736,
                0.8840321860444524,
                -1.07851704773468
            ]
        },
        {
            "positions": [
                -0.4847367070088143,
                -0.6333871403225926,
                0.13335778654974617,
                -0.269149144790989,
                0.8436456187486856,
                -1.2077766909599732
            ]
        },
        {
            "positions": [
                -0.44950723592790476,
                -0.6643111868920919,
                0.24741341401317762,
                -0.30774635424380065,
                0.8032590514529189,
                -1.3370363341852665
            ]
        },
        {
            "positions": [
                -0.4142777648469951,
                -0.6952352334615914,
                0.3614690414766091,
                -0.3463435636966122,
                0.762872484157152,
                -1.4662959774105597
            ]
        },
        {
            "positions": [
                -0.3790482937660855,
                -0.7261592800310908,
                0.4755246689400401,
                -0.3849407731494237,
                0.7224859168613853,
                -1.595555620635853
            ]
        },
        {
            "positions": [
                -0.34381882268517594,
                -0.7570833266005901,
                0.5895802964034715,
                -0.42353798260223535,
                0.6820993495656185,
                -1.7248152638611463
            ]
        },
        {
            "positions": [
                -0.30858935160426626,
                -0.7880073731700896,
                0.703635923866903,
                -0.462135192055047,
                0.6417127822698517,
                -1.8540749070864395
            ]
        },
        {
            "positions": [
                -0.2733598805233567,
                -0.8189314197395889,
                0.8176915513303344,
                -0.5007324015078585,
                0.601326214974085,
                -1.9833345503117328
            ]
        },
        {
            "positions": [
                -0.23813040944244712,
                -0.8498554663090883,
                0.9317471787937659,
                -0.53932961096067,
                0.5609396476783182,
                -2.112594193537026
            ]
        },
        {
            "positions": [
                -0.20290093836153744,
                -0.8807795128785878,
                1.0458028062571973,
                -0.5779268204134815,
                0.5205530803825513,
                -2.2418538367623193
            ]
        },
        {
            "positions": [
                -0.16767146728062787,
                -0.9117035594480871,
                1.1598584337206288,
                -0.6165240298662933,
                0.4801665130867847,
                -2.3711134799876126
            ]
        },
        {
            "positions": [
                -0.1324419961997183,
                -0.9426276060175864,
                1.2739140611840598,
                -0.6551212393191048,
                0.43977994579101787,
                -2.500373123212906
            ]
        },
        {
            "positions": [
                -0.09721252511880873,
                -0.973551652587086,
                1.3879696886474913,
                -0.6937184487719164,
                0.39939337849525103,
                -2.629632766438199
            ]
        },
        {
            "positions": [
                -0.061983054037898944,
                -1.0044756991565853,
                1.5020253161109227,
                -0.7323156582247281,
                0.3590068111994842,
                -2.7588924096634924
            ]
        },
        {
            "positions": [
                -0.026753582956989375,
                -1.0353997457260846,
                1.6160809435743542,
                -0.7709128676775396,
                0.31862024390371757,
                -2.888152052888786
            ]
        },
        {
            "positions": [
                0.008475888123920264,
                -1.0663237922955842,
                1.7301365710377854,
                -0.8095100771303512,
                0.27823367660795073,
                -3.0174116961140784
            ]
        },
        {
            "positions": [
                0.06603562628853629,
                -1.105745425149291,
                1.8553171334653895,
                -0.8091532556905212,
                0.2086132642353664,
                -3.0931632407711156
            ]
        },
        {
            "positions": [
                0.1235953644531523,
                -1.145167058002998,
                1.9804976958929936,
                -0.8087964342506914,
                0.13899285186278207,
                -3.1689147854281523
            ]
        }
    ]
}