{
    "goal": {
        "global_pose": {
            "orientation": {
                "w": 0.7031023502349854,
                "x": -0.7110244035720825,
                "y": 0.007748599164187908,
                "z": 0.005598929710686207
            },
            "position": {
                "x": 0.11585023208521307,
                "y": 0.44412534475326537,
                "z": 0.3711530566215515
            }
        },
        "name": "move_to_auspresseinheit_A"
    },
    "id": "BFMT_move_to_auspresseinheit_A_80",
    "joint_names": [
        "shoulder_pan_joint",
        "shoulder_lift_joint",
        "elbow_joint",
        "wrist_1_joint",
        "wrist_2_joint",
        "wrist_3_joint"
    ],
    "metrics": {
        "cart_traj_len": 0.6745872788325415,
        "distance_elbow_joint": 0.18142274916055756,
        "distance_shoulder_lift_joint": 0.537977319834972,
        "distance_shoulder_pan_joint": 1.0441927883428677,
        "distance_wrist_1_joint": 0.5526817868038614,
        "distance_wrist_2_joint": 0.5146071008466917,
        "distance_wrist_3_joint": 0.689322262469084,
        "smoothness": 0.6107781202737139,
        "time": 0.695227309,
        "traj_len": 1.8762206713118887,
        "weighted_distance": 2.4425677923133997
    },
    "planner": "BFMT",
    "start": {
        "state": {
            "elbow_joint": 2.422574709923281,
            "shoulder_lift_joint": -1.3736533754116391,
            "shoulder_pan_joint": -0.33786336945926293,
            "wrist_1_joint": -1.0288603412921917,
            "wrist_2_joint": 1.2330224858903978,
            "wrist_3_joint": -3.094022268022082
        }
    },
    "waypoints": [
        {
            "positions": [
                -0.33786336945926293,
                -1.3736533754116391,
                2.422574709923281,
                -1.0288603412921917,
                1.2330224858903978,
                -3.094022268022082
            ]
        },
        {
            "positions": [
                -0.19967170965472564,
                -1.4496751830551236,
                2.4356003512024076,
                -0.9812130087665396,
                1.1756765681750894,
                -3.0387898805855156
            ]
        },
        {
            "positions": [
                -0.061480049850188345,
                -1.5256969906986082,
                2.4486259924815337,
                -0.9335656762408875,
                1.118330650459781,
                -2.983557493148949
            ]
        },
        {
            "positions": [
                0.07671160995434895,
                -1.6017187983420926,
                2.4616516337606598,
                -0.8859183437152354,
                1.0609847327444726,
                -2.928325105712383
            ]
        },
        {
            "positions": [
                0.21490326975888624,
                -1.677740605985577,
                2.4746772750397863,
                -0.8382710111895832,
                1.0036388150291644,
                -2.8730927182758164
            ]
        },
        {
            "positions": [
                0.35309492956342353,
                -1.7537624136290617,
                2.487702916318913,
                -0.7906236786639311,
                0.946292897313856,
                -2.81786033083925
            ]
        },
        {
            "positions": [
                0.4912865893679609,
                -1.8297842212725461,
                2.500728557598039,
                -0.742976346138279,
                0.8889469795985476,
                -2.7626279434026833
            ]
        },
        {
            "positions": [
                0.5450472967468718,
                -1.8502458397660624,
                2.474911332226589,
                -0.6762768982257918,
                0.8463140809598373,
                -2.8521099278651043
            ]
        },
        {
            "positions": [
                0.5988080041257828,
                -1.8707074582595786,
                2.449094106855139,
                -0.6095774503133047,
                0.8036811823211268,
                -2.941591912327526
            ]
        },
        {
            "positions": [
                0.6525687115046938,
                -1.8911690767530949,
                2.423276881483689,
                -0.5428780024008175,
                0.7610482836824164,
                -3.0310738967899473
            ]
        },
        {
            "positions": [
                0.7063294188836047,
                -1.9116306952466111,
                2.397459656112239,
                -0.47617855448833035,
                0.7184153850437061,
                -3.1205558812523684
            ]
        }
    ]
}