{
    "goal": {
        "global_pose": {
            "orientation": {
                "w": 0.7031023502349854,
                "x": -0.7110244035720825,
                "y": 0.007748599164187908,
                "z": 0.005598929710686207
            },
            "position": {
                "x": 0.11585023208521307,
                "y": 0.44412534475326537,
                "z": 0.3711530566215515
            }
        },
        "name": "move_to_auspresseinheit_A"
    },
    "id": "BFMT_move_to_auspresseinheit_A_30",
    "joint_names": [
        "shoulder_pan_joint",
        "shoulder_lift_joint",
        "elbow_joint",
        "wrist_1_joint",
        "wrist_2_joint",
        "wrist_3_joint"
    ],
    "metrics": {
        "cart_traj_len": 0.6743285117538061,
        "distance_elbow_joint": 0.18286075121918488,
        "distance_shoulder_lift_joint": 0.535555581793435,
        "distance_shoulder_pan_joint": 1.0467434965688764,
        "distance_wrist_1_joint": 0.5447867254669803,
        "distance_wrist_2_joint": 0.5162133396118984,
        "distance_wrist_3_joint": 0.6061719970900601,
        "smoothness": 0.5487037380806338,
        "time": 0.511224584,
        "traj_len": 1.8526553623786683,
        "weighted_distance": 2.3886556786212267
    },
    "planner": "BFMT",
    "start": {
        "state": {
            "elbow_joint": 2.422574709923281,
            "shoulder_lift_joint": -1.3736533754116391,
            "shoulder_pan_joint": -0.33786336945926293,
            "wrist_1_joint": -1.0288603412921917,
            "wrist_2_joint": 1.2330224858903978,
            "wrist_3_joint": -3.094022268022082
        }
    },
    "waypoints": [
        {
            "positions": [
                -0.33786336945926293,
                -1.3736533754116391,
                2.422574709923281,
                -1.0288603412921917,
                1.2330224858903978,
                -3.094022268022082
            ]
        },
        {
            "positions": [
                -0.20747816831850857,
                -1.4455592883349941,
                2.4357026867923928,
                -0.9806314908447289,
                1.171197312409351,
                -3.0466056869442375
            ]
        },
        {
            "positions": [
                -0.07709296717775421,
                -1.5174652012583494,
                2.448830663661505,
                -0.9324026403972661,
                1.1093721389283047,
                -2.999189105866393
            ]
        },
        {
            "positions": [
                0.053292233963000146,
                -1.5893711141817044,
                2.4619586405306166,
                -0.8841737899498032,
                1.047546965447258,
                -2.9517725247885487
            ]
        },
        {
            "positions": [
                0.1836774351037545,
                -1.6612770271050594,
                2.4750866173997284,
                -0.8359449395023404,
                0.9857217919662116,
                -2.904355943710704
            ]
        },
        {
            "positions": [
                0.31406263624450886,
                -1.7331829400284147,
                2.4882145942688405,
                -0.7877160890548774,
                0.9238966184851649,
                -2.8569393626328594
            ]
        },
        {
            "positions": [
                0.4444478373852632,
                -1.8050888529517697,
                2.501342571137952,
                -0.7394872386074146,
                0.8620714450041184,
                -2.809522781555015
            ]
        },
        {
            "positions": [
                0.5105559098163508,
                -1.8311188790150958,
                2.4753193486368237,
                -0.6756338329118639,
                0.8257558703227136,
                -2.889940909210763
            ]
        },
        {
            "positions": [
                0.5766639822474383,
                -1.857148905078422,
                2.449296126135695,
                -0.611780427216313,
                0.7894402956413089,
                -2.970359036866511
            ]
        },
        {
            "positions": [
                0.6427720546785258,
                -1.883178931141748,
                2.423272903634567,
                -0.5479270215207622,
                0.7531247209599041,
                -3.0507771645222594
            ]
        },
        {
            "positions": [
                0.7088801271096135,
                -1.909208957205074,
                2.3972496811334385,
                -0.4840736158252114,
                0.7168091462784993,
                -3.1311952921780075
            ]
        }
    ]
}