{
    "goal": {
        "global_pose": {
            "orientation": {
                "w": 0.7047431468963623,
                "x": -0.7094548344612122,
                "y": 0.0024358443915843964,
                "z": -0.0022348060738295317
            },
            "position": {
                "x": 0.6094750761985779,
                "y": 0.3671506643295288,
                "z": 0.19426114857196808
            }
        },
        "name": "move_to_magneteinheit_A"
    },
    "id": "BFMT_move_to_magneteinheit_A_87",
    "joint_names": [
        "shoulder_pan_joint",
        "shoulder_lift_joint",
        "elbow_joint",
        "wrist_1_joint",
        "wrist_2_joint",
        "wrist_3_joint"
    ],
    "metrics": {
        "cart_traj_len": 1.8769774976187226,
        "distance_elbow_joint": 3.914509782751283,
        "distance_shoulder_lift_joint": 0.7013482254832194,
        "distance_shoulder_pan_joint": 1.2414633624197036,
        "distance_wrist_1_joint": 1.5099929021116392,
        "distance_wrist_2_joint": 1.6900642717927328,
        "distance_wrist_3_joint": 1.1221015110605195,
        "smoothness": 4.276414619397388e-16,
        "time": 0.7513635280000001,
        "traj_len": 3.1905297452960846,
        "weighted_distance": 3.9526877250352705
    },
    "planner": "BFMT",
    "start": {
        "state": {
            "elbow_joint": -1.919643507792019,
            "shoulder_lift_joint": -0.07675430207160344,
            "shoulder_pan_joint": -1.1188671864651873,
            "wrist_1_joint": 0.42560062535961957,
            "wrist_2_joint": 1.5706038300724876,
            "wrist_3_joint": 1.1188968870953055
        }
    },
    "waypoints": [
        {
            "positions": [
                -1.1188671864651873,
                -0.07675430207160344,
                -1.919643507792019,
                0.42560062535961957,
                1.5706038300724876,
                1.1188968870953055
            ]
        },
        {
            "positions": [
                -1.071118595602891,
                -0.10372923382095804,
                -1.769085439224662,
                0.48367727544083644,
                1.5056013580804595,
                1.075739136669901
            ]
        },
        {
            "positions": [
                -1.0233700047405947,
                -0.13070416557031264,
                -1.6185273706573051,
                0.5417539255220534,
                1.4405988860884311,
                1.0325813862444964
            ]
        },
        {
            "positions": [
                -0.9756214138782985,
                -0.15767909731966723,
                -1.4679693020899478,
                0.5998305756032702,
                1.375596414096403,
                0.9894236358190918
            ]
        },
        {
            "positions": [
                -0.9278728230160022,
                -0.18465402906902184,
                -1.317411233522591,
                0.6579072256844871,
                1.3105939421043749,
                0.9462658853936872
            ]
        },
        {
            "positions": [
                -0.8801242321537059,
                -0.21162896081837643,
                -1.1668531649552338,
                0.715983875765704,
                1.2455914701123467,
                0.9031081349682826
            ]
        },
        {
            "positions": [
                -0.8323756412914096,
                -0.23860389256773104,
                -1.0162950963878767,
                0.7740605258469209,
                1.1805889981203186,
                0.859950384542878
            ]
        },
        {
            "positions": [
                -0.7846270504291133,
                -0.26557882431708557,
                -0.8657370278205199,
                0.8321371759281377,
                1.1155865261282902,
                0.8167926341174734
            ]
        },
        {
            "positions": [
                -0.736878459566817,
                -0.29255375606644024,
                -0.7151789592531628,
                0.8902138260093547,
                1.050584054136262,
                0.7736348836920688
            ]
        },
        {
            "positions": [
                -0.6891298687045208,
                -0.3195286878157948,
                -0.5646208906858057,
                0.9482904760905715,
                0.985581582144234,
                0.7304771332666642
            ]
        },
        {
            "positions": [
                -0.6413812778422244,
                -0.3465036195651494,
                -0.4140628221184486,
                1.0063671261717886,
                0.9205791101522057,
                0.6873193828412596
            ]
        },
        {
            "positions": [
                -0.5936326869799281,
                -0.373478551314504,
                -0.2635047535510917,
                1.0644437762530055,
                0.8555766381601776,
                0.644161632415855
            ]
        },
        {
            "positions": [
                -0.5458840961176318,
                -0.40045348306385864,
                -0.11294668498373439,
                1.1225204263342223,
                0.7905741661681494,
                0.6010038819904504
            ]
        },
        {
            "positions": [
                -0.49813550525533556,
                -0.4274284148132132,
                0.03761138358362248,
                1.1805970764154392,
                0.7255716941761212,
                0.5578461315650458
            ]
        },
        {
            "positions": [
                -0.45038691439303935,
                -0.45440334656256776,
                0.18816945215097935,
                1.238673726496656,
                0.6605692221840931,
                0.5146883811396412
            ]
        },
        {
            "positions": [
                -0.402638323530743,
                -0.48137827831192237,
                0.33872752071833623,
                1.296750376577873,
                0.595566750192065,
                0.47153063071423673
            ]
        },
        {
            "positions": [
                -0.3548897326684467,
                -0.5083532100612771,
                0.48928558928569355,
                1.3548270266590898,
                0.5305642782000366,
                0.428372880288832
            ]
        },
        {
            "positions": [
                -0.3071411418061504,
                -0.5353281418106316,
                0.6398436578530509,
                1.4129036767403067,
                0.46556180620800847,
                0.38521512986342743
            ]
        },
        {
            "positions": [
                -0.25939255094385416,
                -0.5623030735599861,
                0.7904017264204077,
                1.4709803268215236,
                0.40055933421598033,
                0.34205737943802283
            ]
        },
        {
            "positions": [
                -0.21164396008155784,
                -0.5892780053093407,
                0.9409597949877646,
                1.5290569769027405,
                0.3355568622239522,
                0.29889962901261824
            ]
        },
        {
            "positions": [
                -0.1638953692192615,
                -0.6162529370586953,
                1.091517863555122,
                1.5871336269839575,
                0.27055439023192385,
                0.25574187858721364
            ]
        },
        {
            "positions": [
                -0.11614677835696519,
                -0.6432278688080499,
                1.2420759321224788,
                1.6452102770651744,
                0.20555191823989571,
                0.21258412816180905
            ]
        },
        {
            "positions": [
                -0.06839818749466886,
                -0.6702028005574046,
                1.3926340006898357,
                1.7032869271463913,
                0.14054944624786758,
                0.16942637773640445
            ]
        },
        {
            "positions": [
                -0.020649596632372758,
                -0.6971777323067592,
                1.543192069257193,
                1.7613635772276082,
                0.07554697425583945,
                0.12626862731099986
            ]
        },
        {
            "positions": [
                0.02709899422992379,
                -0.7241526640561138,
                1.6937501378245503,
                1.819440227308825,
                0.010544502263811095,
                0.08311087688559526
            ]
        },
        {
            "positions": [
                0.07484758509221989,
                -0.7511275958054684,
                1.8443082063919072,
                1.877516877390042,
                -0.05445796972821704,
                0.03995312646019067
            ]
        },
        {
            "positions": [
                0.12259617595451633,
                -0.7781025275548229,
                1.994866274959264,
                1.9355935274712588,
                -0.11946044172024517,
                -0.0032046239652139177
            ]
        }
    ]
}