{
    "goal": {
        "global_pose": {
            "orientation": {
                "w": 0.7047431468963623,
                "x": -0.7094548344612122,
                "y": 0.0024358443915843964,
                "z": -0.0022348060738295317
            },
            "position": {
                "x": 0.6094750761985779,
                "y": 0.3671506643295288,
                "z": 0.19426114857196808
            }
        },
        "name": "move_to_magneteinheit_A"
    },
    "id": "BFMT_move_to_magneteinheit_A_16",
    "joint_names": [
        "shoulder_pan_joint",
        "shoulder_lift_joint",
        "elbow_joint",
        "wrist_1_joint",
        "wrist_2_joint",
        "wrist_3_joint"
    ],
    "metrics": {
        "cart_traj_len": 1.87930324780519,
        "distance_elbow_joint": 3.904819291639953,
        "distance_shoulder_lift_joint": 0.6981854750732832,
        "distance_shoulder_pan_joint": 1.241703125184489,
        "distance_wrist_1_joint": 1.4819726854023394,
        "distance_wrist_2_joint": 1.6920265437156672,
        "distance_wrist_3_joint": 1.096747809146427,
        "smoothness": 5.592234511563075e-16,
        "time": 0.654618402,
        "traj_len": 3.180480298659647,
        "weighted_distance": 3.934837960777167
    },
    "planner": "BFMT",
    "start": {
        "state": {
            "elbow_joint": -1.919643507792019,
            "shoulder_lift_joint": -0.07675430207160344,
            "shoulder_pan_joint": -1.1188671864651873,
            "wrist_1_joint": 0.42560062535961957,
            "wrist_2_joint": 1.5706038300724876,
            "wrist_3_joint": 1.1188968870953055
        }
    },
    "waypoints": [
        {
            "positions": [
                -1.1188671864651873,
                -0.07675430207160344,
                -1.919643507792019,
                0.42560062535961957,
                1.5706038300724876,
                1.1188968870953055
            ]
        },
        {
            "positions": [
                -1.0711093739580917,
                -0.10360758957442202,
                -1.7694581504212517,
                0.48259957479817106,
                1.5055258860834235,
                1.0767142790512123
            ]
        },
        {
            "positions": [
                -1.0233515614509958,
                -0.1304608770772406,
                -1.6192727930504842,
                0.5395985242367226,
                1.4404479420943594,
                1.0345316710071188
            ]
        },
        {
            "positions": [
                -0.9755937489439002,
                -0.1573141645800592,
                -1.4690874356797168,
                0.5965974736752742,
                1.3753699981052951,
                0.9923490629630255
            ]
        },
        {
            "positions": [
                -0.9278359364368044,
                -0.18416745208287777,
                -1.3189020783089493,
                0.6535964231138256,
                1.310292054116231,
                0.9501664549189321
            ]
        },
        {
            "positions": [
                -0.8800781239297086,
                -0.21102073958569637,
                -1.168716720938182,
                0.7105953725523771,
                1.245214110127167,
                0.9079838468748388
            ]
        },
        {
            "positions": [
                -0.832320311422613,
                -0.23787402708851496,
                -1.0185313635674145,
                0.7675943219909287,
                1.180136166138103,
                0.8658012388307454
            ]
        },
        {
            "positions": [
                -0.7845624989155173,
                -0.26472731459133353,
                -0.8683460061966473,
                0.8245932714294801,
                1.1150582221490388,
                0.8236186307866521
            ]
        },
        {
            "positions": [
                -0.7368046864084214,
                -0.29158060209415215,
                -0.7181606488258796,
                0.8815922208680318,
                1.0499802781599747,
                0.7814360227425587
            ]
        },
        {
            "positions": [
                -0.6890468739013258,
                -0.3184338895969707,
                -0.5679752914551124,
                0.9385911703065832,
                0.9849023341709106,
                0.7392534146984654
            ]
        },
        {
            "positions": [
                -0.64128906139423,
                -0.3452871770997893,
                -0.4177899340843447,
                0.9955901197451347,
                0.9198243901818464,
                0.697070806654372
            ]
        },
        {
            "positions": [
                -0.5935312488871343,
                -0.37214046460260786,
                -0.2676045767135775,
                1.0525890691836863,
                0.8547464461927823,
                0.6548881986102787
            ]
        },
        {
            "positions": [
                -0.5457734363800385,
                -0.3989937521054265,
                -0.11741921934280986,
                1.1095880186222378,
                0.7896685022037181,
                0.6127055905661853
            ]
        },
        {
            "positions": [
                -0.49801562387294285,
                -0.42584703960824505,
                0.03276613802795736,
                1.1665869680607892,
                0.724590558214654,
                0.570522982522092
            ]
        },
        {
            "positions": [
                -0.4502578113658472,
                -0.4527003271110636,
                0.18295149539872457,
                1.2235859174993406,
                0.6595126142255899,
                0.5283403744779986
            ]
        },
        {
            "positions": [
                -0.40249999885875143,
                -0.4795536146138822,
                0.3331368527694918,
                1.2805848669378923,
                0.5944346702365259,
                0.4861577664339054
            ]
        },
        {
            "positions": [
                -0.35474218635165566,
                -0.5064069021167008,
                0.4833222101402599,
                1.337583816376444,
                0.5293567262474617,
                0.44397515838981194
            ]
        },
        {
            "positions": [
                -0.3069843738445599,
                -0.5332601896195194,
                0.6335075675110271,
                1.3945827658149954,
                0.4642787822583976,
                0.4017925503457186
            ]
        },
        {
            "positions": [
                -0.25922656133746425,
                -0.5601134771223379,
                0.7836929248817943,
                1.4515817152535468,
                0.3992008382693335,
                0.35960994230162524
            ]
        },
        {
            "positions": [
                -0.21146874883036848,
                -0.5869667646251566,
                0.9338782822525615,
                1.5085806646920983,
                0.3341228942802694,
                0.3174273342575319
            ]
        },
        {
            "positions": [
                -0.16371093632327272,
                -0.6138200521279751,
                1.0840636396233296,
                1.56557961413065,
                0.2690449502912051,
                0.27524472621343854
            ]
        },
        {
            "positions": [
                -0.11595312381617706,
                -0.6406733396307938,
                1.2342489969940968,
                1.6225785635692014,
                0.20396700630214104,
                0.2330621181693452
            ]
        },
        {
            "positions": [
                -0.06819531130908119,
                -0.6675266271336122,
                1.384434354364864,
                1.679577513007753,
                0.13888906231307696,
                0.19087951012525184
            ]
        },
        {
            "positions": [
                -0.020437498801985532,
                -0.6943799146364309,
                1.5346197117356313,
                1.7365764624463045,
                0.07381111832401288,
                0.1486969020811585
            ]
        },
        {
            "positions": [
                0.027320313705110344,
                -0.7212332021392496,
                1.6848050691063994,
                1.7935754118848561,
                0.008733174334948579,
                0.10651429403706514
            ]
        },
        {
            "positions": [
                0.075078126212206,
                -0.748086489642068,
                1.8349904264771666,
                1.8505743613234076,
                -0.0563447696541155,
                0.06433168599297168
            ]
        },
        {
            "positions": [
                0.12283593871930168,
                -0.7749397771448867,
                1.9851757838479338,
                1.907573310761959,
                -0.12142271364317962,
                0.022149077948878354
            ]
        }
    ]
}