{
    "goal": {
        "global_pose": {
            "orientation": {
                "w": 0.5084816217422485,
                "x": -0.49083608388900757,
                "y": 0.5182115435600281,
                "z": -0.4816462993621826
            },
            "position": {
                "x": 0.5540239810943604,
                "y": 0.030875300988554955,
                "z": 0.16403168439865112
            }
        },
        "name": "move_to_storage_A"
    },
    "id": "BFMT_move_to_storage_A_95",
    "joint_names": [
        "shoulder_pan_joint",
        "shoulder_lift_joint",
        "elbow_joint",
        "wrist_1_joint",
        "wrist_2_joint",
        "wrist_3_joint"
    ],
    "metrics": {
        "cart_traj_len": 0.35302568237223136,
        "distance_elbow_joint": 0.44967242992486867,
        "distance_shoulder_lift_joint": 0.23341835051772541,
        "distance_shoulder_pan_joint": 0.4601801516311339,
        "distance_wrist_1_joint": 0.243023816884946,
        "distance_wrist_2_joint": 1.104478944730558,
        "distance_wrist_3_joint": 0.10013616115154012,
        "smoothness": 4.440892133664971e-16,
        "time": 0.481727056,
        "traj_len": 1.6096303472663442,
        "weighted_distance": 2.034375810601216
    },
    "planner": "BFMT",
    "start": {
        "state": {
            "elbow_joint": 1.9715463870305268,
            "shoulder_lift_joint": -1.1394903361783484,
            "shoulder_pan_joint": 0.12281147578464417,
            "wrist_1_joint": -0.7804599489681411,
            "wrist_2_joint": 0.12958660307563738,
            "wrist_3_joint": -3.1924946282119055
        }
    },
    "waypoints": [
        {
            "positions": [
                0.12281147578464417,
                -1.1394903361783484,
                1.9715463870305268,
                -0.7804599489681411,
                0.12958660307563738,
                -3.1924946282119055
            ]
        },
        {
            "positions": [
                0.05707145412305362,
                -1.1728358148237377,
                2.0357853055912223,
                -0.8151776370945619,
                0.2873693094657171,
                -3.178189462333114
            ]
        },
        {
            "positions": [
                -0.00866856753853694,
                -1.2061812934691272,
                2.100024224151918,
                -0.8498953252209828,
                0.4451520158557968,
                -3.163884296454323
            ]
        },
        {
            "positions": [
                -0.07440858920012748,
                -1.2395267721145165,
                2.1642631427126133,
                -0.8846130133474036,
                0.6029347222458765,
                -3.1495791305755314
            ]
        },
        {
            "positions": [
                -0.14014861086171804,
                -1.2728722507599057,
                2.228502061273309,
                -0.9193307014738246,
                0.7607174286359563,
                -3.1352739646967396
            ]
        },
        {
            "positions": [
                -0.20588863252330863,
                -1.306217729405295,
                2.2927409798340044,
                -0.9540483896002454,
                0.918500135026036,
                -3.120968798817948
            ]
        },
        {
            "positions": [
                -0.2716286541848991,
                -1.3395632080506845,
                2.3569798983947,
                -0.9887660777266662,
                1.0762828414161156,
                -3.106663632939157
            ]
        },
        {
            "positions": [
                -0.3373686758464897,
                -1.3729086866960738,
                2.4212188169553954,
                -1.023483765853087,
                1.2340655478061955,
                -3.0923584670603654
            ]
        }
    ]
}