{
    "goal": {
        "global_pose": {
            "orientation": {
                "w": 0.7047431468963623,
                "x": -0.7094548344612122,
                "y": 0.0024358443915843964,
                "z": -0.0022348060738295317
            },
            "position": {
                "x": 0.6094750761985779,
                "y": 0.3671506643295288,
                "z": 0.19426114857196808
            }
        },
        "name": "move_to_magneteinheit_A"
    },
    "id": "BFMT_move_to_magneteinheit_A_18",
    "joint_names": [
        "shoulder_pan_joint",
        "shoulder_lift_joint",
        "elbow_joint",
        "wrist_1_joint",
        "wrist_2_joint",
        "wrist_3_joint"
    ],
    "metrics": {
        "cart_traj_len": 1.9365838955434946,
        "distance_elbow_joint": 3.870190281412656,
        "distance_shoulder_lift_joint": 1.0503055374150274,
        "distance_shoulder_pan_joint": 1.2416181415360354,
        "distance_wrist_1_joint": 1.1212687484741481,
        "distance_wrist_2_joint": 1.4460298798301991,
        "distance_wrist_3_joint": 4.386132759060421,
        "smoothness": 4.687608348539838e-16,
        "time": 0.671138302,
        "traj_len": 3.62153908548955,
        "weighted_distance": 4.94521076337032
    },
    "planner": "BFMT",
    "start": {
        "state": {
            "elbow_joint": -1.919643507792019,
            "shoulder_lift_joint": -0.07675430207160344,
            "shoulder_pan_joint": -1.1188671864651873,
            "wrist_1_joint": 0.42560062535961957,
            "wrist_2_joint": 1.5706038300724876,
            "wrist_3_joint": 1.1188968870953055
        }
    },
    "waypoints": [
        {
            "positions": [
                -1.1188671864651873,
                -0.07675430207160344,
                -1.919643507792019,
                0.42560062535961957,
                1.5706038300724876,
                1.1188968870953055
            ]
        },
        {
            "positions": [
                -1.0690603255957933,
                -0.07848835170534144,
                -1.8987553608932524,
                0.41423127799994025,
                1.501445078564192,
                0.9081114203900874
            ]
        },
        {
            "positions": [
                -1.019253464726399,
                -0.08022240133907944,
                -1.8778672139944856,
                0.402861930640261,
                1.4322863270558965,
                0.6973259536848693
            ]
        },
        {
            "positions": [
                -0.9694466038570051,
                -0.08195645097281745,
                -1.856979067095719,
                0.3914925832805817,
                1.3631275755476011,
                0.486540486979651
            ]
        },
        {
            "positions": [
                -0.9196397429876111,
                -0.08369050060655545,
                -1.8360909201969522,
                0.3801232359209024,
                1.2939688240393055,
                0.2757550202744329
            ]
        },
        {
            "positions": [
                -0.869832882118217,
                -0.08542455024029344,
                -1.8152027732981855,
                0.3687538885612231,
                1.2248100725310098,
                0.06496955356921452
            ]
        },
        {
            "positions": [
                -0.8200260212488228,
                -0.08715859987403145,
                -1.794314626399419,
                0.35738454120154384,
                1.1556513210227144,
                -0.1458159131360035
            ]
        },
        {
            "positions": [
                -0.7702191603794288,
                -0.08889264950776946,
                -1.7734264795006522,
                0.3460151938418645,
                1.0864925695144187,
                -0.35660137984122176
            ]
        },
        {
            "positions": [
                -0.7204122995100348,
                -0.09062669914150745,
                -1.7525383326018855,
                0.3346458464821852,
                1.0173338180061233,
                -0.5673868465464398
            ]
        },
        {
            "positions": [
                -0.6706054386406407,
                -0.09236074877524544,
                -1.7316501857031188,
                0.32327649912250594,
                0.9481750664978278,
                -0.778172313251658
            ]
        },
        {
            "positions": [
                -0.6207985777712466,
                -0.09409479840898345,
                -1.710762038804352,
                0.31190715176282663,
                0.8790163149895323,
                -0.9889577799568765
            ]
        },
        {
            "positions": [
                -0.5709917169018526,
                -0.09582884804272146,
                -1.6898738919055853,
                0.30053780440314737,
                0.8098575634812367,
                -1.199743246662094
            ]
        },
        {
            "positions": [
                -0.5211848560324585,
                -0.09756289767645945,
                -1.6689857450068186,
                0.28916845704346805,
                0.7406988119729412,
                -1.4105287133673128
            ]
        },
        {
            "positions": [
                -0.4931876468540538,
                -0.1423236342769017,
                -1.5116147659360597,
                0.2463494752974682,
                0.7139107745063911,
                -1.4912551115672172
            ]
        },
        {
            "positions": [
                -0.46519043767564916,
                -0.18708437087734392,
                -1.3542437868653008,
                0.20353049355146835,
                0.687122737039841,
                -1.5719815097671217
            ]
        },
        {
            "positions": [
                -0.43719322849724457,
                -0.23184510747778614,
                -1.1968728077945419,
                0.1607115118054685,
                0.6603346995732908,
                -1.6527079079670262
            ]
        },
        {
            "positions": [
                -0.4091960193188399,
                -0.2766058440782284,
                -1.039501828723783,
                0.11789253005946865,
                0.6335466621067407,
                -1.7334343061669306
            ]
        },
        {
            "positions": [
                -0.38119881014043533,
                -0.32136658067867063,
                -0.8821308496530238,
                0.0750735483134688,
                0.6067586246401906,
                -1.814160704366835
            ]
        },
        {
            "positions": [
                -0.3532016009620307,
                -0.36612731727911285,
                -0.7247598705822649,
                0.032254566567468945,
                0.5799705871736405,
                -1.8948871025667395
            ]
        },
        {
            "positions": [
                -0.32520439178362603,
                -0.41088805387955507,
                -0.5673888915115057,
                -0.010564415178530906,
                0.5531825497070902,
                -1.975613500766644
            ]
        },
        {
            "positions": [
                -0.2972071826052214,
                -0.4556487904799973,
                -0.41001791244074703,
                -0.05338339692453076,
                0.5263945122405401,
                -2.0563398989665482
            ]
        },
        {
            "positions": [
                -0.26920997342681674,
                -0.5004095270804396,
                -0.2526469333699879,
                -0.09620237867053061,
                0.49960647477399,
                -2.1370662971664527
            ]
        },
        {
            "positions": [
                -0.24121276424841215,
                -0.5451702636808817,
                -0.09527595429922897,
                -0.13902136041653046,
                0.4728184373074399,
                -2.217792695366357
            ]
        },
        {
            "positions": [
                -0.2132155550700075,
                -0.5899310002813241,
                0.06209502477152995,
                -0.1818403421625303,
                0.44603039984088977,
                -2.2985190935662616
            ]
        },
        {
            "positions": [
                -0.18521834589160285,
                -0.6346917368817662,
                0.21946600384228887,
                -0.22465932390853016,
                0.41924236237433965,
                -2.379245491766166
            ]
        },
        {
            "positions": [
                -0.15722113671319826,
                -0.6794524734822084,
                0.3768369829130478,
                -0.26747830565453,
                0.39245432490778953,
                -2.4599718899660705
            ]
        },
        {
            "positions": [
                -0.12922392753479356,
                -0.7242132100826507,
                0.5342079619838072,
                -0.31029728740052986,
                0.36566628744123936,
                -2.5406982881659754
            ]
        },
        {
            "positions": [
                -0.10122671835638897,
                -0.7689739466830929,
                0.6915789410545656,
                -0.3531162691465297,
                0.33887824997468924,
                -2.6214246863658794
            ]
        },
        {
            "positions": [
                -0.07322950917798432,
                -0.8137346832835352,
                0.8489499201253246,
                -0.39593525089252957,
                0.3120902125081391,
                -2.702151084565784
            ]
        },
        {
            "positions": [
                -0.04523229999957973,
                -0.8584954198839774,
                1.0063208991960835,
                -0.4387542326385294,
                0.28530217504158906,
                -2.7828774827656884
            ]
        },
        {
            "positions": [
                -0.017235090821175025,
                -0.9032561564844197,
                1.1636918782668428,
                -0.48157321438452927,
                0.2585141375750388,
                -2.863603880965593
            ]
        },
        {
            "positions": [
                0.010762118357229622,
                -0.9480168930848619,
                1.3210628573376018,
                -0.5243921961305291,
                0.2317261001084887,
                -2.9443302791654973
            ]
        },
        {
            "positions": [
                0.03875932753563416,
                -0.992777629685304,
                1.4784338364083607,
                -0.567211177876529,
                0.2049380626419386,
                -3.0250566773654017
            ]
        },
        {
            "positions": [
                0.0667565367140388,
                -1.0375383662857462,
                1.6358048154791192,
                -0.6100301596225288,
                0.17815002517538847,
                -3.105783075565306
            ]
        },
        {
            "positions": [
                0.09475374589244345,
                -1.0822991028861886,
                1.7931757945498785,
                -0.6528491413685287,
                0.15136198770883835,
                -3.1865094737652107
            ]
        },
        {
            "positions": [
                0.12275095507084811,
                -1.127059839486631,
                1.9505467736206372,
                -0.6956681231145285,
                0.12457395024228822,
                -3.267235871965115
            ]
        }
    ]
}