{
    "goal": {
        "global_pose": {
            "orientation": {
                "w": 0.7031023502349854,
                "x": -0.7110244035720825,
                "y": 0.007748599164187908,
                "z": 0.005598929710686207
            },
            "position": {
                "x": 0.11585023208521307,
                "y": 0.44412534475326537,
                "z": 0.3711530566215515
            }
        },
        "name": "move_to_auspresseinheit_A"
    },
    "id": "BFMT_move_to_auspresseinheit_A_48",
    "joint_names": [
        "shoulder_pan_joint",
        "shoulder_lift_joint",
        "elbow_joint",
        "wrist_1_joint",
        "wrist_2_joint",
        "wrist_3_joint"
    ],
    "metrics": {
        "cart_traj_len": 0.6644941827184913,
        "distance_elbow_joint": 0.2658679722713826,
        "distance_shoulder_lift_joint": 0.5785430324747582,
        "distance_shoulder_pan_joint": 1.0452505555727865,
        "distance_wrist_1_joint": 0.5494185071083404,
        "distance_wrist_2_joint": 0.5152535527215282,
        "distance_wrist_3_joint": 0.1484717628044434,
        "smoothness": 0.41552410283026014,
        "time": 0.5010235869999999,
        "traj_len": 1.7614781812311042,
        "weighted_distance": 2.112917643542217
    },
    "planner": "BFMT",
    "start": {
        "state": {
            "elbow_joint": 2.422574709923281,
            "shoulder_lift_joint": -1.3736533754116391,
            "shoulder_pan_joint": -0.33786336945926293,
            "wrist_1_joint": -1.0288603412921917,
            "wrist_2_joint": 1.2330224858903978,
            "wrist_3_joint": -3.094022268022082
        }
    },
    "waypoints": [
        {
            "positions": [
                -0.33786336945926293,
                -1.3736533754116391,
                2.422574709923281,
                -1.0288603412921917,
                1.2330224858903978,
                -3.094022268022082
            ]
        },
        {
            "positions": [
                -0.31601834929013967,
                -1.4851679721795332,
                2.4465333702872023,
                -0.933505276354043,
                1.1553519774025363,
                -3.1120840422778806
            ]
        },
        {
            "positions": [
                -0.29417332912101646,
                -1.5966825689474275,
                2.470492030651123,
                -0.8381502114158942,
                1.0776814689146748,
                -3.130145816533679
            ]
        },
        {
            "positions": [
                -0.2723283089518932,
                -1.7081971657153217,
                2.4944506910150444,
                -0.7427951464777455,
                1.0000109604268135,
                -3.1482075907894775
            ]
        },
        {
            "positions": [
                -0.25048328878276993,
                -1.819711762483216,
                2.518409351378965,
                -0.6474400815395966,
                0.922340451938952,
                -3.166269365045276
            ]
        },
        {
            "positions": [
                -0.22863826861364672,
                -1.93122635925111,
                2.5423680117428864,
                -0.5520850166014479,
                0.8446699434510905,
                -3.1843311393010745
            ]
        },
        {
            "positions": [
                0.0053680950681458395,
                -1.9259838470922883,
                2.505849344129942,
                -0.5339242209970487,
                0.8129446908805352,
                -3.169790416419712
            ]
        },
        {
            "positions": [
                0.2393744587499384,
                -1.9207413349334663,
                2.469330676516998,
                -0.5157634253926496,
                0.78121943830998,
                -3.155249693538349
            ]
        },
        {
            "positions": [
                0.4733808224317309,
                -1.9154988227746446,
                2.4328120089040537,
                -0.4976026297882505,
                0.7494941857394248,
                -3.140708970656986
            ]
        },
        {
            "positions": [
                0.7073871861135236,
                -1.9102563106158228,
                2.396293341291109,
                -0.47944183418385133,
                0.7177689331688696,
                -3.1261682477756234
            ]
        }
    ]
}