{
    "goal": {
        "global_pose": {
            "orientation": {
                "w": 0.5084816217422485,
                "x": -0.49083608388900757,
                "y": 0.5182115435600281,
                "z": -0.4816462993621826
            },
            "position": {
                "x": 0.5540239810943604,
                "y": 0.030875300988554955,
                "z": 0.16403168439865112
            }
        },
        "name": "move_to_storage_A"
    },
    "id": "BFMT_move_to_storage_A_70",
    "joint_names": [
        "shoulder_pan_joint",
        "shoulder_lift_joint",
        "elbow_joint",
        "wrist_1_joint",
        "wrist_2_joint",
        "wrist_3_joint"
    ],
    "metrics": {
        "cart_traj_len": 0.35287886648566125,
        "distance_elbow_joint": 0.45076165957899317,
        "distance_shoulder_lift_joint": 0.2332965133317122,
        "distance_shoulder_pan_joint": 0.4618946264819227,
        "distance_wrist_1_joint": 0.24902680429718982,
        "distance_wrist_2_joint": 1.0958903715577328,
        "distance_wrist_3_joint": 0.0902066485254509,
        "smoothness": 2.2204460668324854e-16,
        "time": 0.49741401599999996,
        "traj_len": 1.606572943807097,
        "weighted_distance": 2.0264271752714986
    },
    "planner": "BFMT",
    "start": {
        "state": {
            "elbow_joint": 1.9715463870305268,
            "shoulder_lift_joint": -1.1394903361783484,
            "shoulder_pan_joint": 0.12281147578464417,
            "wrist_1_joint": -0.7804599489681411,
            "wrist_2_joint": 0.12958660307563738,
            "wrist_3_joint": -3.1924946282119055
        }
    },
    "waypoints": [
        {
            "positions": [
                0.12281147578464417,
                -1.1394903361783484,
                1.9715463870305268,
                -0.7804599489681411,
                0.12958660307563738,
                -3.1924946282119055
            ]
        },
        {
            "positions": [
                0.0568265291443695,
                -1.1728184095114502,
                2.035940909827526,
                -0.8160352067248825,
                0.28614237044102775,
                -3.1796079641368413
            ]
        },
        {
            "positions": [
                -0.009158417495905166,
                -1.2061464828445518,
                2.100335432624525,
                -0.8516104644816239,
                0.4426981378064182,
                -3.1667213000617767
            ]
        },
        {
            "positions": [
                -0.07514336413617982,
                -1.2394745561776537,
                2.164729955421524,
                -0.8871857222383652,
                0.5992539051718085,
                -3.1538346359867124
            ]
        },
        {
            "positions": [
                -0.1411283107764545,
                -1.2728026295107553,
                2.2291244782185227,
                -0.9227609799951066,
                0.755809672537199,
                -3.1409479719116478
            ]
        },
        {
            "positions": [
                -0.2071132574167292,
                -1.3061307028438571,
                2.2935190010155218,
                -0.9583362377518481,
                0.9123654399025894,
                -3.1280613078365835
            ]
        },
        {
            "positions": [
                -0.2730982040570038,
                -1.3394587761769587,
                2.357913523812521,
                -0.9939114955085895,
                1.0689212072679797,
                -3.115174643761519
            ]
        },
        {
            "positions": [
                -0.3390831506972785,
                -1.3727868495100606,
                2.42230804660952,
                -1.029486753265331,
                1.2254769746333702,
                -3.1022879796864546
            ]
        }
    ]
}