{
    "goal": {
        "global_pose": {
            "orientation": {
                "w": 0.7047431468963623,
                "x": -0.7094548344612122,
                "y": 0.0024358443915843964,
                "z": -0.0022348060738295317
            },
            "position": {
                "x": 0.6094750761985779,
                "y": 0.3671506643295288,
                "z": 0.19426114857196808
            }
        },
        "name": "move_to_magneteinheit_A"
    },
    "id": "BFMT_move_to_magneteinheit_A_25",
    "joint_names": [
        "shoulder_pan_joint",
        "shoulder_lift_joint",
        "elbow_joint",
        "wrist_1_joint",
        "wrist_2_joint",
        "wrist_3_joint"
    ],
    "metrics": {
        "cart_traj_len": 1.877684768118658,
        "distance_elbow_joint": 3.9091325584322503,
        "distance_shoulder_lift_joint": 0.6995503311209228,
        "distance_shoulder_pan_joint": 1.2410783703719297,
        "distance_wrist_1_joint": 1.495605137625576,
        "distance_wrist_2_joint": 1.6914567685356163,
        "distance_wrist_3_joint": 1.1125759593205073,
        "smoothness": 4.276414619397388e-16,
        "time": 0.737915408,
        "traj_len": 3.185812161036303,
        "weighted_distance": 3.9448210289199444
    },
    "planner": "BFMT",
    "start": {
        "state": {
            "elbow_joint": -1.919643507792019,
            "shoulder_lift_joint": -0.07675430207160344,
            "shoulder_pan_joint": -1.1188671864651873,
            "wrist_1_joint": 0.42560062535961957,
            "wrist_2_joint": 1.5706038300724876,
            "wrist_3_joint": 1.1188968870953055
        }
    },
    "waypoints": [
        {
            "positions": [
                -1.1188671864651873,
                -0.07675430207160344,
                -1.919643507792019,
                0.42560062535961957,
                1.5706038300724876,
                1.1188968870953055
            ]
        },
        {
            "positions": [
                -1.0711334029893438,
                -0.10366008403779278,
                -1.7692922555446249,
                0.4831238998836802,
                1.5055478005134255,
                1.0761055040445169
            ]
        },
        {
            "positions": [
                -1.0233996195135004,
                -0.13056586600398212,
                -1.6189410032972305,
                0.5406471744077408,
                1.4404917709543632,
                1.033314120993728
            ]
        },
        {
            "positions": [
                -0.975665836037657,
                -0.15747164797017146,
                -1.4685897510498362,
                0.5981704489318014,
                1.3754357413953011,
                0.9905227379429393
            ]
        },
        {
            "positions": [
                -0.9279320525618135,
                -0.1843774299363608,
                -1.318238498802442,
                0.655693723455862,
                1.310379711836239,
                0.9477313548921505
            ]
        },
        {
            "positions": [
                -0.8801982690859701,
                -0.21128321190255014,
                -1.1678872465550478,
                0.7132169979799227,
                1.2453236822771767,
                0.9049399718413618
            ]
        },
        {
            "positions": [
                -0.8324644856101266,
                -0.23818899386873948,
                -1.0175359943076536,
                0.7707402725039832,
                1.1802676527181146,
                0.8621485887905731
            ]
        },
        {
            "positions": [
                -0.7847307021342832,
                -0.2650947758349288,
                -0.8671847420602594,
                0.8282635470280438,
                1.1152116231590525,
                0.8193572057397844
            ]
        },
        {
            "positions": [
                -0.7369969186584397,
                -0.29200055780111817,
                -0.716833489812865,
                0.8857868215521045,
                1.0501555935999902,
                0.7765658226889955
            ]
        },
        {
            "positions": [
                -0.6892631351825963,
                -0.3189063397673075,
                -0.566482237565471,
                0.9433100960761651,
                0.9850995640409281,
                0.7337744396382069
            ]
        },
        {
            "positions": [
                -0.6415293517067528,
                -0.34581212173349685,
                -0.4161309853180766,
                1.0008333706002257,
                0.9200435344818659,
                0.6909830565874181
            ]
        },
        {
            "positions": [
                -0.5937955682309094,
                -0.37271790369968616,
                -0.26577973307068237,
                1.0583566451242863,
                0.8549875049228037,
                0.6481916735366293
            ]
        },
        {
            "positions": [
                -0.546061784755066,
                -0.3996236856658755,
                -0.11542848082328816,
                1.1158799196483469,
                0.7899314753637415,
                0.6054002904858405
            ]
        },
        {
            "positions": [
                -0.4983280012792225,
                -0.42652946763206484,
                0.03492277142410605,
                1.1734031941724075,
                0.7248754458046794,
                0.5626089074350519
            ]
        },
        {
            "positions": [
                -0.45059421780337905,
                -0.45343524959825415,
                0.18527402367150025,
                1.230926468696468,
                0.6598194162456174,
                0.5198175243842632
            ]
        },
        {
            "positions": [
                -0.4028604343275357,
                -0.48034103156444347,
                0.33562527591889446,
                1.2884497432205286,
                0.5947633866865552,
                0.47702614133347443
            ]
        },
        {
            "positions": [
                -0.35512665085169215,
                -0.507246813530633,
                0.4859765281662891,
                1.3459730177445894,
                0.5297073571274928,
                0.43423475828268565
            ]
        },
        {
            "positions": [
                -0.3073928673758487,
                -0.5341525954968223,
                0.6363277804136829,
                1.40349629226865,
                0.46465132756843075,
                0.3914433752318969
            ]
        },
        {
            "positions": [
                -0.25965908390000525,
                -0.5610583774630116,
                0.7866790326610771,
                1.4610195667927106,
                0.39959529800936866,
                0.3486519921811082
            ]
        },
        {
            "positions": [
                -0.2119253004241618,
                -0.5879641594292009,
                0.9370302849084713,
                1.5185428413167712,
                0.33453926845030657,
                0.3058606091303194
            ]
        },
        {
            "positions": [
                -0.16419151694831835,
                -0.6148699413953902,
                1.087381537155866,
                1.576066115840832,
                0.26948323889124426,
                0.26306922607953065
            ]
        },
        {
            "positions": [
                -0.11645773347247479,
                -0.6417757233615795,
                1.2377327894032601,
                1.6335893903648926,
                0.20442720933218217,
                0.22027784302874187
            ]
        },
        {
            "positions": [
                -0.06872394999663145,
                -0.6686815053277688,
                1.3880840416506544,
                1.691112664888953,
                0.13937117977311986,
                0.1774864599779532
            ]
        },
        {
            "positions": [
                -0.02099016652078811,
                -0.6955872872939581,
                1.5384352938980481,
                1.7486359394130135,
                0.07431515021405777,
                0.13469507692716443
            ]
        },
        {
            "positions": [
                0.02674361695505545,
                -0.7224930692601477,
                1.6887865461454428,
                1.8061592139370743,
                0.009259120654995456,
                0.09190369387637554
            ]
        },
        {
            "positions": [
                0.07447740043089901,
                -0.749398851226337,
                1.839137798392837,
                1.863682488461135,
                -0.05579690890406663,
                0.04911231082558687
            ]
        },
        {
            "positions": [
                0.12221118390674243,
                -0.7763046331925263,
                1.989489050640231,
                1.9212057629851955,
                -0.12085293846312879,
                0.006320927774798289
            ]
        }
    ]
}