{
    "goal": {
        "global_pose": {
            "orientation": {
                "w": 0.5084816217422485,
                "x": -0.49083608388900757,
                "y": 0.5182115435600281,
                "z": -0.4816462993621826
            },
            "position": {
                "x": 0.5540239810943604,
                "y": 0.030875300988554955,
                "z": 0.16403168439865112
            }
        },
        "name": "move_to_storage_A"
    },
    "id": "BFMT_move_to_storage_A_7",
    "joint_names": [
        "shoulder_pan_joint",
        "shoulder_lift_joint",
        "elbow_joint",
        "wrist_1_joint",
        "wrist_2_joint",
        "wrist_3_joint"
    ],
    "metrics": {
        "cart_traj_len": 0.3527286635629788,
        "distance_elbow_joint": 0.4508649571012078,
        "distance_shoulder_lift_joint": 0.23225651692949256,
        "distance_shoulder_pan_joint": 0.4585695540085666,
        "distance_wrist_1_joint": 0.2536128224049933,
        "distance_wrist_2_joint": 1.108369836947988,
        "distance_wrist_3_joint": 0.10595489195546559,
        "smoothness": 8.881784232165597e-16,
        "time": 0.49375175,
        "traj_len": 1.6154344862444017,
        "weighted_distance": 2.045365742993567
    },
    "planner": "BFMT",
    "start": {
        "state": {
            "elbow_joint": 1.9715463870305268,
            "shoulder_lift_joint": -1.1394903361783484,
            "shoulder_pan_joint": 0.12281147578464417,
            "wrist_1_joint": -0.7804599489681411,
            "wrist_2_joint": 0.12958660307563738,
            "wrist_3_joint": -3.1924946282119055
        }
    },
    "waypoints": [
        {
            "positions": [
                0.12281147578464417,
                -1.1394903361783484,
                1.9715463870305268,
                -0.7804599489681411,
                0.12958660307563738,
                -3.1924946282119055
            ]
        },
        {
            "positions": [
                0.0573015394977061,
                -1.1726698385968473,
                2.0359556666164136,
                -0.8166903521688544,
                0.2879251512110642,
                -3.1773582150754103
            ]
        },
        {
            "positions": [
                -0.008208396789231978,
                -1.2058493410153464,
                2.1003649462023004,
                -0.8529207553695677,
                0.446263699346491,
                -3.1622218019389154
            ]
        },
        {
            "positions": [
                -0.07371833307617005,
                -1.2390288434338452,
                2.1647742257881872,
                -0.889151158570281,
                0.6046022474819179,
                -3.14708538880242
            ]
        },
        {
            "positions": [
                -0.13922826936310811,
                -1.272208345852344,
                2.229183505374074,
                -0.9253815617709944,
                0.7629407956173447,
                -3.1319489756659253
            ]
        },
        {
            "positions": [
                -0.20473820565004625,
                -1.305387848270843,
                2.293592784959961,
                -0.9616119649717076,
                0.9212793437527717,
                -3.11681256252943
            ]
        },
        {
            "positions": [
                -0.27024814193698427,
                -1.338567350689342,
                2.3580020645458477,
                -0.997842368172421,
                1.0796178918881985,
                -3.1016761493929352
            ]
        },
        {
            "positions": [
                -0.3357580782239224,
                -1.371746853107841,
                2.4224113441317345,
                -1.0340727713731344,
                1.2379564400236254,
                -3.08653973625644
            ]
        }
    ]
}