{
    "goal": {
        "global_pose": {
            "orientation": {
                "w": 0.5084816217422485,
                "x": -0.49083608388900757,
                "y": 0.5182115435600281,
                "z": -0.4816462993621826
            },
            "position": {
                "x": 0.5540239810943604,
                "y": 0.030875300988554955,
                "z": 0.16403168439865112
            }
        },
        "name": "move_to_storage_A"
    },
    "id": "BFMT_move_to_storage_A_141",
    "joint_names": [
        "shoulder_pan_joint",
        "shoulder_lift_joint",
        "elbow_joint",
        "wrist_1_joint",
        "wrist_2_joint",
        "wrist_3_joint"
    ],
    "metrics": {
        "cart_traj_len": 0.3535206612288311,
        "distance_elbow_joint": 0.45225644720511893,
        "distance_shoulder_lift_joint": 0.23362545316475525,
        "distance_shoulder_pan_joint": 0.46257465702144657,
        "distance_wrist_1_joint": 0.24883368160377406,
        "distance_wrist_2_joint": 1.0986997899137338,
        "distance_wrist_3_joint": 0.10671459244340742,
        "smoothness": 4.440892098500626e-16,
        "time": 0.49656139800000004,
        "traj_len": 1.6132899991483973,
        "weighted_distance": 2.0405066228161473
    },
    "planner": "BFMT",
    "start": {
        "state": {
            "elbow_joint": 1.9715463870305268,
            "shoulder_lift_joint": -1.1394903361783484,
            "shoulder_pan_joint": 0.12281147578464417,
            "wrist_1_joint": -0.7804599489681411,
            "wrist_2_joint": 0.12958660307563738,
            "wrist_3_joint": -3.1924946282119055
        }
    },
    "waypoints": [
        {
            "positions": [
                0.12281147578464417,
                -1.1394903361783484,
                1.9715463870305268,
                -0.7804599489681411,
                0.12958660307563738,
                -3.1924946282119055
            ]
        },
        {
            "positions": [
                0.05672938192443752,
                -1.1728654009161705,
                2.0361544509169724,
                -0.8160076177686802,
                0.28654371592045647,
                -3.177249686434276
            ]
        },
        {
            "positions": [
                -0.009352711935769129,
                -1.2062404656539927,
                2.1007625148034177,
                -0.8515552865692194,
                0.44350082876527563,
                -3.162004744656646
            ]
        },
        {
            "positions": [
                -0.07543480579597577,
                -1.2396155303918148,
                2.1653705786898634,
                -0.8871029553697585,
                0.6004579416100947,
                -3.1467598028790165
            ]
        },
        {
            "positions": [
                -0.14151689965618242,
                -1.2729905951296372,
                2.229978642576309,
                -0.9226506241702976,
                0.7574150544549139,
                -3.131514861101387
            ]
        },
        {
            "positions": [
                -0.2075989935163891,
                -1.3063656598674593,
                2.2945867064627548,
                -0.9581982929708368,
                0.914372167299733,
                -3.1162699193237575
            ]
        },
        {
            "positions": [
                -0.2736810873765957,
                -1.3397407246052815,
                2.3591947703492,
                -0.993745961771376,
                1.071329280144552,
                -3.101024977546128
            ]
        },
        {
            "positions": [
                -0.3397631812368024,
                -1.3731157893431036,
                2.4238028342356457,
                -1.0292936305719151,
                1.2282863929893713,
                -3.085780035768498
            ]
        }
    ]
}