{
    "goal": {
        "global_pose": {
            "orientation": {
                "w": 0.7047431468963623,
                "x": -0.7094548344612122,
                "y": 0.0024358443915843964,
                "z": -0.0022348060738295317
            },
            "position": {
                "x": 0.6094750761985779,
                "y": 0.3671506643295288,
                "z": 0.19426114857196808
            }
        },
        "name": "move_to_magneteinheit_A"
    },
    "id": "BFMT_move_to_magneteinheit_A_21",
    "joint_names": [
        "shoulder_pan_joint",
        "shoulder_lift_joint",
        "elbow_joint",
        "wrist_1_joint",
        "wrist_2_joint",
        "wrist_3_joint"
    ],
    "metrics": {
        "cart_traj_len": 1.8785772509702705,
        "distance_elbow_joint": 3.911666035310828,
        "distance_shoulder_lift_joint": 0.6993338354717528,
        "distance_shoulder_pan_joint": 1.241953547472639,
        "distance_wrist_1_joint": 1.499609813803983,
        "distance_wrist_2_joint": 1.6938827573434319,
        "distance_wrist_3_joint": 1.118007701944191,
        "smoothness": 5.592234510853675e-16,
        "time": 0.6294080759999999,
        "traj_len": 3.1881740371797185,
        "weighted_distance": 3.948919050370952
    },
    "planner": "BFMT",
    "start": {
        "state": {
            "elbow_joint": -1.919643507792019,
            "shoulder_lift_joint": -0.07675430207160344,
            "shoulder_pan_joint": -1.1188671864651873,
            "wrist_1_joint": 0.42560062535961957,
            "wrist_2_joint": 1.5706038300724876,
            "wrist_3_joint": 1.1188968870953055
        }
    },
    "waypoints": [
        {
            "positions": [
                -1.1188671864651873,
                -0.07675430207160344,
                -1.919643507792019,
                0.42560062535961957,
                1.5706038300724876,
                1.1188968870953055
            ]
        },
        {
            "positions": [
                -1.0710997423316244,
                -0.10365175728205547,
                -1.769194814126218,
                0.48327792589054197,
                1.5054544932515863,
                1.0758965908666829
            ]
        },
        {
            "positions": [
                -1.0233322981980613,
                -0.1305492124925075,
                -1.618746120460417,
                0.5409552264214644,
                1.4403051564306852,
                1.03289629463806
            ]
        },
        {
            "positions": [
                -0.9755648540644982,
                -0.15744666770295956,
                -1.4682974267946158,
                0.5986325269523869,
                1.375155819609784,
                0.9898959984094373
            ]
        },
        {
            "positions": [
                -0.9277974099309352,
                -0.18434412291341157,
                -1.3178487331288147,
                0.6563098274833092,
                1.3100064827888827,
                0.9468957021808146
            ]
        },
        {
            "positions": [
                -0.8800299657973721,
                -0.21124157812386363,
                -1.1674000394630135,
                0.7139871280142317,
                1.2448571459679814,
                0.9038954059521919
            ]
        },
        {
            "positions": [
                -0.8322625216638091,
                -0.23813903333431566,
                -1.0169513457972126,
                0.7716644285451542,
                1.1797078091470803,
                0.8608951097235691
            ]
        },
        {
            "positions": [
                -0.784495077530246,
                -0.2650364885447677,
                -0.8665026521314116,
                0.8293417290760765,
                1.114558472326179,
                0.8178948134949464
            ]
        },
        {
            "positions": [
                -0.736727633396683,
                -0.29193394375521975,
                -0.7160539584656105,
                0.8870190296069991,
                1.049409135505278,
                0.7748945172663237
            ]
        },
        {
            "positions": [
                -0.68896018926312,
                -0.3188313989656717,
                -0.5656052647998095,
                0.9446963301379214,
                0.9842597986843766,
                0.731894221037701
            ]
        },
        {
            "positions": [
                -0.6411927451295569,
                -0.3457288541761238,
                -0.41515657113400817,
                1.0023736306688438,
                0.9191104618634753,
                0.6888939248090782
            ]
        },
        {
            "positions": [
                -0.5934253009959939,
                -0.3726263093865758,
                -0.26470787746820723,
                1.0600509311997663,
                0.8539611250425742,
                0.6458936285804555
            ]
        },
        {
            "positions": [
                -0.5456578568624308,
                -0.3995237645970279,
                -0.11425918380240607,
                1.1177282317306887,
                0.7888117882216729,
                0.6028933323518327
            ]
        },
        {
            "positions": [
                -0.4978904127288678,
                -0.4264212198074799,
                0.036189509863394864,
                1.175405532261611,
                0.7236624514007717,
                0.5598930361232101
            ]
        },
        {
            "positions": [
                -0.45012296859530476,
                -0.4533186750179319,
                0.1866382035291958,
                1.2330828327925334,
                0.6585131145798705,
                0.5168927398945874
            ]
        },
        {
            "positions": [
                -0.40235552446174183,
                -0.4802161302283839,
                0.33708689719499696,
                1.290760133323456,
                0.5933637777589693,
                0.4738924436659646
            ]
        },
        {
            "positions": [
                -0.3545880803281787,
                -0.507113585438836,
                0.4875355908607981,
                1.3484374338543785,
                0.528214440938068,
                0.43089214743734183
            ]
        },
        {
            "positions": [
                -0.30682063619461564,
                -0.534011040649288,
                0.6379842845265993,
                1.4061147343853009,
                0.4630651041171667,
                0.38789185120871916
            ]
        },
        {
            "positions": [
                -0.2590531920610526,
                -0.56090849585974,
                0.7884329781924,
                1.4637920349162232,
                0.39791576729626565,
                0.3448915549800964
            ]
        },
        {
            "positions": [
                -0.21128574792748955,
                -0.5878059510701921,
                0.9388816718582012,
                1.5214693354471456,
                0.33276643047536436,
                0.3018912587514737
            ]
        },
        {
            "positions": [
                -0.1635183037939265,
                -0.6147034062806442,
                1.0893303655240028,
                1.5791466359780681,
                0.26761709365446307,
                0.25889096252285093
            ]
        },
        {
            "positions": [
                -0.11575085966036336,
                -0.6416008614910962,
                1.2397790591898035,
                1.6368239365089905,
                0.20246775683356177,
                0.21589066629422826
            ]
        },
        {
            "positions": [
                -0.06798341552680043,
                -0.6684983167015481,
                1.3902277528556046,
                1.694501237039913,
                0.1373184200126607,
                0.17289037006560548
            ]
        },
        {
            "positions": [
                -0.020215971393237497,
                -0.6953957719120001,
                1.5406764465214053,
                1.7521785375708354,
                0.07216908319175941,
                0.1298900738369828
            ]
        },
        {
            "positions": [
                0.027551472740325655,
                -0.7222932271224523,
                1.691125140187207,
                1.809855838101758,
                0.007019746370858115,
                0.08688977760835992
            ]
        },
        {
            "positions": [
                0.07531891687388881,
                -0.7491906823329042,
                1.8415738338530077,
                1.8675331386326803,
                -0.05812959045004318,
                0.04388948137973725
            ]
        },
        {
            "positions": [
                0.12308636100745168,
                -0.7760881375433563,
                1.9920225275188088,
                1.9252104391636027,
                -0.12327892727094418,
                0.000889185151114478
            ]
        }
    ]
}