{
    "goal": {
        "global_pose": {
            "orientation": {
                "w": 0.5084816217422485,
                "x": -0.49083608388900757,
                "y": 0.5182115435600281,
                "z": -0.4816462993621826
            },
            "position": {
                "x": 0.5540239810943604,
                "y": 0.030875300988554955,
                "z": 0.16403168439865112
            }
        },
        "name": "move_to_storage_A"
    },
    "id": "BFMT_move_to_storage_A_123",
    "joint_names": [
        "shoulder_pan_joint",
        "shoulder_lift_joint",
        "elbow_joint",
        "wrist_1_joint",
        "wrist_2_joint",
        "wrist_3_joint"
    ],
    "metrics": {
        "cart_traj_len": 0.35316662695670126,
        "distance_elbow_joint": 0.451863192421349,
        "distance_shoulder_lift_joint": 0.23472435359365384,
        "distance_shoulder_pan_joint": 0.45931928502969915,
        "distance_wrist_1_joint": 0.25490482725051866,
        "distance_wrist_2_joint": 1.1096551715224465,
        "distance_wrist_3_joint": 0.09327263095426552,
        "smoothness": 1.3322676295501878e-15,
        "time": 0.496665859,
        "traj_len": 1.6136106905855367,
        "weighted_distance": 2.038343622025842
    },
    "planner": "BFMT",
    "start": {
        "state": {
            "elbow_joint": 1.9715463870305268,
            "shoulder_lift_joint": -1.1394903361783484,
            "shoulder_pan_joint": 0.12281147578464417,
            "wrist_1_joint": -0.7804599489681411,
            "wrist_2_joint": 0.12958660307563738,
            "wrist_3_joint": -3.1924946282119055
        }
    },
    "waypoints": [
        {
            "positions": [
                0.12281147578464417,
                -1.1394903361783484,
                1.9715463870305268,
                -0.7804599489681411,
                0.12958660307563738,
                -3.1924946282119055
            ]
        },
        {
            "positions": [
                0.057194435066115726,
                -1.1730223866917275,
                2.036098271662148,
                -0.8168749242896437,
                0.28810877043598687,
                -3.1791699666470103
            ]
        },
        {
            "positions": [
                -0.00842260565241272,
                -1.2065544372051067,
                2.1006501562937694,
                -0.8532898996111464,
                0.44663093779633634,
                -3.1658453050821156
            ]
        },
        {
            "positions": [
                -0.07403964637094117,
                -1.2400864877184858,
                2.1652020409253905,
                -0.889704874932649,
                0.6051531051566859,
                -3.1525206435172204
            ]
        },
        {
            "positions": [
                -0.1396566870894696,
                -1.2736185382318648,
                2.229753925557012,
                -0.9261198502541518,
                0.7636752725170354,
                -3.139195981952325
            ]
        },
        {
            "positions": [
                -0.20527372780799807,
                -1.307150588745244,
                2.294305810188633,
                -0.9625348255756544,
                0.9221974398773849,
                -3.12587132038743
            ]
        },
        {
            "positions": [
                -0.2708907685265265,
                -1.340682639258623,
                2.358857694820254,
                -0.9989498008971571,
                1.0807196072377343,
                -3.1125466588225352
            ]
        },
        {
            "positions": [
                -0.33650780924505497,
                -1.3742146897720022,
                2.4234095794518757,
                -1.0353647762186597,
                1.239241774598084,
                -3.09922199725764
            ]
        }
    ]
}