{
    "goal": {
        "global_pose": {
            "orientation": {
                "w": 0.7031023502349854,
                "x": -0.7110244035720825,
                "y": 0.007748599164187908,
                "z": 0.005598929710686207
            },
            "position": {
                "x": 0.11585023208521307,
                "y": 0.44412534475326537,
                "z": 0.3711530566215515
            }
        },
        "name": "move_to_auspresseinheit_A"
    },
    "id": "BiEST_move_to_auspresseinheit_A_82",
    "joint_names": [
        "shoulder_pan_joint",
        "shoulder_lift_joint",
        "elbow_joint",
        "wrist_1_joint",
        "wrist_2_joint",
        "wrist_3_joint"
    ],
    "metrics": {
        "cart_traj_len": 1.7627196451577924,
        "distance_elbow_joint": 1.0804648562043462,
        "distance_shoulder_lift_joint": 0.7493551939791347,
        "distance_shoulder_pan_joint": 1.529072072817534,
        "distance_wrist_1_joint": 3.932576981585112,
        "distance_wrist_2_joint": 3.277107490467402,
        "distance_wrist_3_joint": 3.938821957288271,
        "smoothness": 0.6300508712388715,
        "time": 0.096436769,
        "traj_len": 3.8088579065570034,
        "weighted_distance": 5.44010357796346
    },
    "planner": "BiEST",
    "start": {
        "state": {
            "elbow_joint": 2.422574709923281,
            "shoulder_lift_joint": -1.3736533754116391,
            "shoulder_pan_joint": -0.33786336945926293,
            "wrist_1_joint": -1.0288603412921917,
            "wrist_2_joint": 1.2330224858903978,
            "wrist_3_joint": -3.094022268022082
        }
    },
    "waypoints": [
        {
            "positions": [
                -0.33786336945926293,
                -1.3736533754116391,
                2.422574709923281,
                -1.0288603412921917,
                1.2330224858903978,
                -3.094022268022082
            ]
        },
        {
            "positions": [
                -0.3312945808438147,
                -1.3918481435623111,
                2.37563958069432,
                -0.9160523617619702,
                1.1364648358728964,
                -3.0013031946766002
            ]
        },
        {
            "positions": [
                -0.3247257922283664,
                -1.4100429117129831,
                2.328704451465358,
                -0.8032443822317489,
                1.039907185855395,
                -2.9085841213311188
            ]
        },
        {
            "positions": [
                -0.31815700361291815,
                -1.4282376798636551,
                2.2817693222363964,
                -0.6904364027015275,
                0.9433495358378936,
                -2.815865047985637
            ]
        },
        {
            "positions": [
                -0.3115882149974699,
                -1.4464324480143271,
                2.234834193007435,
                -0.577628423171306,
                0.8467918858203922,
                -2.723145974640155
            ]
        },
        {
            "positions": [
                -0.3050194263820216,
                -1.4646272161649991,
                2.187899063778474,
                -0.46482044364108466,
                0.7502342358028908,
                -2.6304269012946735
            ]
        },
        {
            "positions": [
                -0.2984506377665734,
                -1.4828219843156711,
                2.140963934549512,
                -0.3520124641108633,
                0.6536765857853895,
                -2.5377078279491916
            ]
        },
        {
            "positions": [
                -0.29188184915112514,
                -1.5010167524663431,
                2.0940288053205505,
                -0.2392044845806418,
                0.5571189357678881,
                -2.4449887546037097
            ]
        },
        {
            "positions": [
                -0.28531306053567684,
                -1.5192115206170151,
                2.047093676091589,
                -0.12639650505042033,
                0.4605612857503867,
                -2.352269681258228
            ]
        },
        {
            "positions": [
                -0.2787442719202286,
                -1.5374062887676871,
                2.000158546862628,
                -0.013588525520198846,
                0.3640036357328853,
                -2.2595506079127463
            ]
        },
        {
            "positions": [
                -0.27217548330478036,
                -1.5556010569183591,
                1.9532234176336662,
                0.09921945401002241,
                0.2674459857153839,
                -2.166831534567265
            ]
        },
        {
            "positions": [
                -0.26560669468933207,
                -1.5737958250690312,
                1.9062882884047048,
                0.2120274335402439,
                0.17088833569788253,
                -2.074112461221783
            ]
        },
        {
            "positions": [
                -0.16437457101605035,
                -1.6105143107794806,
                1.902919350469813,
                0.29622164089639286,
                0.1008231533439905,
                -1.9966369302019353
            ]
        },
        {
            "positions": [
                -0.06314244734276864,
                -1.64723279648993,
                1.899550412534921,
                0.3804158482525418,
                0.03075797099009847,
                -1.9191613991820877
            ]
        },
        {
            "positions": [
                0.03808967633051308,
                -1.6839512822003795,
                1.896181474600029,
                0.46461005560869084,
                -0.03930721136379356,
                -1.8416858681622403
            ]
        },
        {
            "positions": [
                0.1393218000037948,
                -1.720669767910829,
                1.8928125366651372,
                0.5488042629648398,
                -0.10937239371768559,
                -1.7642103371423927
            ]
        },
        {
            "positions": [
                0.2405539236770765,
                -1.7573882536212784,
                1.8894435987302454,
                0.6329984703209888,
                -0.17943757607157762,
                -1.6867348061225451
            ]
        },
        {
            "positions": [
                0.3417860473503582,
                -1.794106739331728,
                1.8860746607953534,
                0.7171926776771378,
                -0.24950275842546965,
                -1.6092592751026977
            ]
        },
        {
            "positions": [
                0.44301817102363994,
                -1.8308252250421775,
                1.8827057228604613,
                0.8013868850332868,
                -0.31956794077936174,
                -1.53178374408285
            ]
        },
        {
            "positions": [
                0.5442502946969217,
                -1.867543710752627,
                1.8793367849255695,
                0.8855810923894357,
                -0.3896331231332537,
                -1.4543082130630025
            ]
        },
        {
            "positions": [
                0.6454824183702034,
                -1.9042621964630764,
                1.8759678469906778,
                0.9697752997455847,
                -0.45969830548714574,
                -1.376832682043155
            ]
        },
        {
            "positions": [
                0.7467145420434851,
                -1.9409806821735258,
                1.8725989090557857,
                1.0539695071017339,
                -0.5297634878410378,
                -1.2993571510233073
            ]
        },
        {
            "positions": [
                0.8479466657167667,
                -1.9776991678839753,
                1.8692299711208937,
                1.1381637144578827,
                -0.5998286701949298,
                -1.22188162000346
            ]
        },
        {
            "positions": [
                0.9491787893900485,
                -2.0144176535944247,
                1.865861033186002,
                1.2223579218140317,
                -0.6698938525488218,
                -1.1444060889836123
            ]
        },
        {
            "positions": [
                0.9330434617921669,
                -2.0071782592080014,
                1.9007777784838065,
                1.110267340582106,
                -0.5782811090802763,
                -1.277019807533599
            ]
        },
        {
            "positions": [
                0.9169081341942853,
                -1.9999388648215781,
                1.9356945237816108,
                0.9981767593501802,
                -0.48666836561173066,
                -1.4096335260835857
            ]
        },
        {
            "positions": [
                0.9007728065964038,
                -1.9926994704351548,
                1.9706112690794153,
                0.8860861781182545,
                -0.3950556221431851,
                -1.5422472446335724
            ]
        },
        {
            "positions": [
                0.8846374789985222,
                -1.9854600760487315,
                2.00552801437722,
                0.7739955968863288,
                -0.30344287867463954,
                -1.6748609631835591
            ]
        },
        {
            "positions": [
                0.8685021514006406,
                -1.9782206816623082,
                2.040444759675024,
                0.6619050156544031,
                -0.211830135206094,
                -1.8074746817335459
            ]
        },
        {
            "positions": [
                0.852366823802759,
                -1.970981287275885,
                2.075361504972829,
                0.5498144344224772,
                -0.12021739173754842,
                -1.9400884002835328
            ]
        },
        {
            "positions": [
                0.8362314962048774,
                -1.9637418928894617,
                2.110278250270633,
                0.4377238531905515,
                -0.028604648269002886,
                -2.0727021188335195
            ]
        },
        {
            "positions": [
                0.8200961686069959,
                -1.9565024985030386,
                2.1451949955684375,
                0.3256332719586258,
                0.06300809519954276,
                -2.2053158373835062
            ]
        },
        {
            "positions": [
                0.8039608410091142,
                -1.9492631041166153,
                2.1801117408662423,
                0.21354269072670018,
                0.1546208386680883,
                -2.337929555933493
            ]
        },
        {
            "positions": [
                0.7878255134112326,
                -1.942023709730192,
                2.2150284861640466,
                0.10145210949477446,
                0.24623358213663382,
                -2.4705432744834797
            ]
        },
        {
            "positions": [
                0.771690185813351,
                -1.9347843153437687,
                2.249945231461851,
                -0.010638471737151267,
                0.33784632560517935,
                -2.6031569930334664
            ]
        },
        {
            "positions": [
                0.7555548582154694,
                -1.9275449209573454,
                2.2848619767596556,
                -0.12272905296907721,
                0.429459069073725,
                -2.735770711583453
            ]
        },
        {
            "positions": [
                0.7394195306175879,
                -1.9203055265709221,
                2.31977872205746,
                -0.23481963420100294,
                0.5210718125422706,
                -2.86838443013344
            ]
        },
        {
            "positions": [
                0.7232842030197063,
                -1.9130661321844988,
                2.3546954673552647,
                -0.34691021543292866,
                0.6126845560108161,
                -3.0009981486834265
            ]
        },
        {
            "positions": [
                0.7071488754218247,
                -1.9058267377980755,
                2.389612212653069,
                -0.4590007966648545,
                0.7042972994793617,
                -3.1336118672334132
            ]
        }
    ]
}