{
    "goal": {
        "global_pose": {
            "orientation": {
                "w": 0.7031023502349854,
                "x": -0.7110244035720825,
                "y": 0.007748599164187908,
                "z": 0.005598929710686207
            },
            "position": {
                "x": 0.11585023208521307,
                "y": 0.44412534475326537,
                "z": 0.3711530566215515
            }
        },
        "name": "move_to_auspresseinheit_A"
    },
    "id": "BiEST_move_to_auspresseinheit_A_124",
    "joint_names": [
        "shoulder_pan_joint",
        "shoulder_lift_joint",
        "elbow_joint",
        "wrist_1_joint",
        "wrist_2_joint",
        "wrist_3_joint"
    ],
    "metrics": {
        "cart_traj_len": 0.8182132280850263,
        "distance_elbow_joint": 0.35110524471681925,
        "distance_shoulder_lift_joint": 1.166295938685659,
        "distance_shoulder_pan_joint": 1.0433048404121217,
        "distance_wrist_1_joint": 3.844390217389708,
        "distance_wrist_2_joint": 0.6208999149581115,
        "distance_wrist_3_joint": 0.34174832434964,
        "smoothness": 1.29552828552086,
        "time": 0.06596845400000001,
        "traj_len": 2.7143589446703724,
        "weighted_distance": 3.537871006913502
    },
    "planner": "BiEST",
    "start": {
        "state": {
            "elbow_joint": 2.422574709923281,
            "shoulder_lift_joint": -1.3736533754116391,
            "shoulder_pan_joint": -0.33786336945926293,
            "wrist_1_joint": -1.0288603412921917,
            "wrist_2_joint": 1.2330224858903978,
            "wrist_3_joint": -3.094022268022082
        }
    },
    "waypoints": [
        {
            "positions": [
                -0.33786336945926293,
                -1.3736533754116391,
                2.422574709923281,
                -1.0288603412921917,
                1.2330224858903978,
                -3.094022268022082
            ]
        },
        {
            "positions": [
                -0.3125089382068549,
                -1.4508305820697998,
                2.437072661997984,
                -0.8280085909121222,
                1.1807270755469361,
                -3.080469094344282
            ]
        },
        {
            "positions": [
                -0.2871545069544468,
                -1.5280077887279604,
                2.451570614072687,
                -0.6271568405320527,
                1.1284316652034745,
                -3.0669159206664824
            ]
        },
        {
            "positions": [
                -0.2618000757020387,
                -1.605184995386121,
                2.4660685661473902,
                -0.42630509015198326,
                1.0761362548600126,
                -3.0533627469886824
            ]
        },
        {
            "positions": [
                -0.23644564444963062,
                -1.6823622020442819,
                2.4805665182220933,
                -0.22545333977191373,
                1.023840844516551,
                -3.0398095733108823
            ]
        },
        {
            "positions": [
                -0.21109121319722257,
                -1.7595394087024425,
                2.4950644702967963,
                -0.024601589391844314,
                0.9715454341730894,
                -3.0262563996330822
            ]
        },
        {
            "positions": [
                -0.1857367819448145,
                -1.8367166153606032,
                2.5095624223714994,
                0.1762501609882252,
                0.9192500238296277,
                -3.0127032259552826
            ]
        },
        {
            "positions": [
                -0.16038235069240642,
                -1.9138938220187638,
                2.5240603744462025,
                0.37710191136829474,
                0.866954613486166,
                -2.9991500522774825
            ]
        },
        {
            "positions": [
                -0.13502791943999834,
                -1.9910710286769246,
                2.5385583265209055,
                0.5779536617483643,
                0.8146592031427042,
                -2.9855968785996825
            ]
        },
        {
            "positions": [
                -0.10967348818759023,
                -2.0682482353350853,
                2.5530562785956086,
                0.778805412128434,
                0.7623637927992426,
                -2.9720437049218824
            ]
        },
        {
            "positions": [
                -0.08431905693518221,
                -2.145425441993246,
                2.5675542306703116,
                0.9796571625085031,
                0.710068382455781,
                -2.958490531244083
            ]
        },
        {
            "positions": [
                -0.058964625682774136,
                -2.2226026486514066,
                2.5820521827450147,
                1.1805089128885728,
                0.6577729721123192,
                -2.9449373575662827
            ]
        },
        {
            "positions": [
                0.03658613639667996,
                -2.18293431547067,
                2.558098711258129,
                0.976131292487455,
                0.6634792722598233,
                -2.9690202843030127
            ]
        },
        {
            "positions": [
                0.13213689847613405,
                -2.143265982289934,
                2.5341452397712434,
                0.7717536720863372,
                0.6691855724073275,
                -2.9931032110397426
            ]
        },
        {
            "positions": [
                0.22768766055558812,
                -2.103597649109197,
                2.5101917682843577,
                0.5673760516852193,
                0.6748918725548316,
                -3.017186137776473
            ]
        },
        {
            "positions": [
                0.3232384226350422,
                -2.0639293159284606,
                2.486238296797472,
                0.3629984312841015,
                0.6805981727023357,
                -3.041269064513203
            ]
        },
        {
            "positions": [
                0.41878918471449633,
                -2.0242609827477245,
                2.462284825310586,
                0.15862081088298363,
                0.6863044728498398,
                -3.065351991249933
            ]
        },
        {
            "positions": [
                0.5143399467939503,
                -1.9845926495669879,
                2.4383313538237004,
                -0.04575680951813421,
                0.6920107729973439,
                -3.0894349179866634
            ]
        },
        {
            "positions": [
                0.6098907088734045,
                -1.9449243163862513,
                2.4143778823368147,
                -0.25013442991925205,
                0.6977170731448481,
                -3.1135178447233933
            ]
        },
        {
            "positions": [
                0.7054414709528586,
                -1.905255983205515,
                2.390424410849929,
                -0.45451205032036984,
                0.7034233732923522,
                -3.1376007714601233
            ]
        }
    ]
}