{
    "goal": {
        "global_pose": {
            "orientation": {
                "w": 0.5084816217422485,
                "x": -0.49083608388900757,
                "y": 0.5182115435600281,
                "z": -0.4816462993621826
            },
            "position": {
                "x": 0.5540239810943604,
                "y": 0.030875300988554955,
                "z": 0.16403168439865112
            }
        },
        "name": "move_to_storage_A"
    },
    "id": "BiEST_move_to_storage_A_43",
    "joint_names": [
        "shoulder_pan_joint",
        "shoulder_lift_joint",
        "elbow_joint",
        "wrist_1_joint",
        "wrist_2_joint",
        "wrist_3_joint"
    ],
    "metrics": {
        "cart_traj_len": 0.3535098936376809,
        "distance_elbow_joint": 0.45264286615692306,
        "distance_shoulder_lift_joint": 0.23530794522239917,
        "distance_shoulder_pan_joint": 0.46221585757190453,
        "distance_wrist_1_joint": 0.24796319122158017,
        "distance_wrist_2_joint": 1.1010339888639216,
        "distance_wrist_3_joint": 0.10780350962016927,
        "smoothness": 2.2204460668324854e-16,
        "time": 0.051909004,
        "traj_len": 1.6146105904077608,
        "weighted_distance": 2.0424425470457517
    },
    "planner": "BiEST",
    "start": {
        "state": {
            "elbow_joint": 1.9715463870305268,
            "shoulder_lift_joint": -1.1394903361783484,
            "shoulder_pan_joint": 0.12281147578464417,
            "wrist_1_joint": -0.7804599489681411,
            "wrist_2_joint": 0.12958660307563738,
            "wrist_3_joint": -3.1924946282119055
        }
    },
    "waypoints": [
        {
            "positions": [
                0.12281147578464417,
                -1.1394903361783484,
                1.9715463870305268,
                -0.7804599489681411,
                0.12958660307563738,
                -3.1924946282119055
            ]
        },
        {
            "positions": [
                0.05678063898865782,
                -1.1731057569244054,
                2.036209653624373,
                -0.8158832619997954,
                0.2868771729133405,
                -3.177094126837596
            ]
        },
        {
            "positions": [
                -0.009250197807328539,
                -1.2067211776704625,
                2.1008729202182193,
                -0.8513065750314497,
                0.44416774275104354,
                -3.1616936254632857
            ]
        },
        {
            "positions": [
                -0.07528103460331491,
                -1.2403365984165196,
                2.1655361868120653,
                -0.886729888063104,
                0.6014583125887466,
                -3.146293124088976
            ]
        },
        {
            "positions": [
                -0.14131187139930124,
                -1.2739520191625764,
                2.2301994534059113,
                -0.9221532010947583,
                0.7587488824264497,
                -3.130892622714666
            ]
        },
        {
            "positions": [
                -0.2073427081952876,
                -1.3075674399086334,
                2.2948627199997578,
                -0.9575765141264126,
                0.9160394522641528,
                -3.115492121340356
            ]
        },
        {
            "positions": [
                -0.273373544991274,
                -1.3411828606546905,
                2.359525986593604,
                -0.9929998271580669,
                1.0733300221018558,
                -3.100091619966046
            ]
        },
        {
            "positions": [
                -0.33940438178726035,
                -1.3747982814007476,
                2.42418925318745,
                -1.0284231401897213,
                1.230620591939559,
                -3.0846911185917363
            ]
        }
    ]
}