{
    "goal": {
        "global_pose": {
            "orientation": {
                "w": 0.5084816217422485,
                "x": -0.49083608388900757,
                "y": 0.5182115435600281,
                "z": -0.4816462993621826
            },
            "position": {
                "x": 0.5540239810943604,
                "y": 0.030875300988554955,
                "z": 0.16403168439865112
            }
        },
        "name": "move_to_storage_A"
    },
    "id": "BiEST_move_to_storage_A_52",
    "joint_names": [
        "shoulder_pan_joint",
        "shoulder_lift_joint",
        "elbow_joint",
        "wrist_1_joint",
        "wrist_2_joint",
        "wrist_3_joint"
    ],
    "metrics": {
        "cart_traj_len": 0.35237925821453686,
        "distance_elbow_joint": 0.4495338290175077,
        "distance_shoulder_lift_joint": 0.23521822778641166,
        "distance_shoulder_pan_joint": 0.4602779657459118,
        "distance_wrist_1_joint": 0.24098959776399476,
        "distance_wrist_2_joint": 1.0999391428151128,
        "distance_wrist_3_joint": 0.10145368879855843,
        "smoothness": 0.0,
        "time": 0.053832641,
        "traj_len": 1.608543580984829,
        "weighted_distance": 2.0325473106680008
    },
    "planner": "BiEST",
    "start": {
        "state": {
            "elbow_joint": 1.9715463870305268,
            "shoulder_lift_joint": -1.1394903361783484,
            "shoulder_pan_joint": 0.12281147578464417,
            "wrist_1_joint": -0.7804599489681411,
            "wrist_2_joint": 0.12958660307563738,
            "wrist_3_joint": -3.1924946282119055
        }
    },
    "waypoints": [
        {
            "positions": [
                0.12281147578464417,
                -1.1394903361783484,
                1.9715463870305268,
                -0.7804599489681411,
                0.12958660307563738,
                -3.1924946282119055
            ]
        },
        {
            "positions": [
                0.057057480678085346,
                -1.1730929401478358,
                2.0357655054615993,
                -0.8148870343629975,
                0.2867207663349392,
                -3.1780012440978256
            ]
        },
        {
            "positions": [
                -0.008696514428473481,
                -1.206695544117323,
                2.099984623892672,
                -0.8493141197578539,
                0.443854929594241,
                -3.163507859983746
            ]
        },
        {
            "positions": [
                -0.07445050953503231,
                -1.2402981480868105,
                2.1642037423237444,
                -0.8837412051527103,
                0.6009890928535429,
                -3.149014475869666
            ]
        },
        {
            "positions": [
                -0.14020450464159112,
                -1.273900752056298,
                2.228422860754817,
                -0.9181682905475667,
                0.7581232561128447,
                -3.1345210917555866
            ]
        },
        {
            "positions": [
                -0.20595849974814995,
                -1.3075033560257854,
                2.2926419791858894,
                -0.952595375942423,
                0.9152574193721466,
                -3.1200277076415066
            ]
        },
        {
            "positions": [
                -0.2717124948547088,
                -1.3411059599952726,
                2.356861097616962,
                -0.9870224613372794,
                1.0723915826314483,
                -3.105534323527427
            ]
        },
        {
            "positions": [
                -0.3374664899612676,
                -1.37470856396476,
                2.4210802160480345,
                -1.0214495467321358,
                1.2295257458907503,
                -3.091040939413347
            ]
        }
    ]
}