{
    "goal": {
        "global_pose": {
            "orientation": {
                "w": 0.7031023502349854,
                "x": -0.7110244035720825,
                "y": 0.007748599164187908,
                "z": 0.005598929710686207
            },
            "position": {
                "x": 0.11585023208521307,
                "y": 0.44412534475326537,
                "z": 0.3711530566215515
            }
        },
        "name": "move_to_auspresseinheit_A"
    },
    "id": "BiEST_move_to_auspresseinheit_A_13",
    "joint_names": [
        "shoulder_pan_joint",
        "shoulder_lift_joint",
        "elbow_joint",
        "wrist_1_joint",
        "wrist_2_joint",
        "wrist_3_joint"
    ],
    "metrics": {
        "cart_traj_len": 1.8184765944344825,
        "distance_elbow_joint": 1.9575616680786987,
        "distance_shoulder_lift_joint": 0.8488612259455437,
        "distance_shoulder_pan_joint": 1.2407067813061743,
        "distance_wrist_1_joint": 1.3034169058067384,
        "distance_wrist_2_joint": 1.6796157935125475,
        "distance_wrist_3_joint": 3.441417605770155,
        "smoothness": 0.7883419114710172,
        "time": 0.108489399,
        "traj_len": 3.2359820735628086,
        "weighted_distance": 4.509705965057972
    },
    "planner": "BiEST",
    "start": {
        "state": {
            "elbow_joint": 2.422574709923281,
            "shoulder_lift_joint": -1.3736533754116391,
            "shoulder_pan_joint": -0.33786336945926293,
            "wrist_1_joint": -1.0288603412921917,
            "wrist_2_joint": 1.2330224858903978,
            "wrist_3_joint": -3.094022268022082
        }
    },
    "waypoints": [
        {
            "positions": [
                -0.33786336945926293,
                -1.3736533754116391,
                2.422574709923281,
                -1.0288603412921917,
                1.2330224858903978,
                -3.094022268022082
            ]
        },
        {
            "positions": [
                -0.37182473777531944,
                -1.3845996629725223,
                2.342609992645307,
                -1.0189264665755478,
                1.2114092381692791,
                -3.0500088893682626
            ]
        },
        {
            "positions": [
                -0.31771563215205473,
                -1.4227997424032202,
                2.285437266465419,
                -0.9613952126194923,
                1.143637045762642,
                -2.9465396357975275
            ]
        },
        {
            "positions": [
                -0.26360652652879,
                -1.4609998218339177,
                2.2282645402855317,
                -0.9038639586634368,
                1.075864853356005,
                -2.8430703822267924
            ]
        },
        {
            "positions": [
                -0.2094974209055253,
                -1.4991999012646156,
                2.171091814105644,
                -0.8463327047073814,
                1.0080926609493677,
                -2.739601128656057
            ]
        },
        {
            "positions": [
                -0.1553883152822606,
                -1.5373999806953131,
                2.113919087925756,
                -0.7888014507513259,
                0.9403204685427305,
                -2.6361318750853218
            ]
        },
        {
            "positions": [
                -0.1012792096589959,
                -1.575600060126011,
                2.056746361745869,
                -0.7312701967952705,
                0.8725482761360934,
                -2.5326626215145867
            ]
        },
        {
            "positions": [
                -0.047170104035731186,
                -1.6138001395567085,
                1.999573635565981,
                -0.6737389428392151,
                0.8047760837294562,
                -2.429193367943851
            ]
        },
        {
            "positions": [
                0.006939001587533522,
                -1.6520002189874063,
                1.9424009093860934,
                -0.6162076888831596,
                0.7370038913228191,
                -2.325724114373116
            ]
        },
        {
            "positions": [
                0.06104810721079823,
                -1.690200298418104,
                1.8852281832062059,
                -0.5586764349271041,
                0.669231698916182,
                -2.222254860802381
            ]
        },
        {
            "positions": [
                0.11515721283406294,
                -1.7284003778488017,
                1.828055457026318,
                -0.5011451809710487,
                0.6014595065095448,
                -2.1187856072316458
            ]
        },
        {
            "positions": [
                0.16926631845732765,
                -1.7666004572794995,
                1.7708827308464306,
                -0.44361392701499325,
                0.5336873141029077,
                -2.0153163536609107
            ]
        },
        {
            "positions": [
                0.2233754240805923,
                -1.8048005367101971,
                1.713710004666543,
                -0.38608267305893773,
                0.4659151216962705,
                -1.9118471000901751
            ]
        },
        {
            "positions": [
                0.27748452970385706,
                -1.843000616140895,
                1.6565372784866552,
                -0.3285514191028823,
                0.39814292928963335,
                -1.80837784651944
            ]
        },
        {
            "positions": [
                0.3315936353271218,
                -1.8812006955715925,
                1.5993645523067677,
                -0.2710201651468268,
                0.33037073688299623,
                -1.704908592948705
            ]
        },
        {
            "positions": [
                0.3857027409503865,
                -1.9194007750022903,
                1.54219182612688,
                -0.2134889111907714,
                0.262598544476359,
                -1.6014393393779696
            ]
        },
        {
            "positions": [
                0.43981184657365113,
                -1.9576008544329881,
                1.4850190999469923,
                -0.15595765723471589,
                0.194826352069722,
                -1.4979700858072342
            ]
        },
        {
            "positions": [
                0.49392095219691595,
                -1.9958009338636857,
                1.4278463737671048,
                -0.09842640327866052,
                0.1270541596630848,
                -1.3945008322364991
            ]
        },
        {
            "positions": [
                0.5370226093916461,
                -2.009589771382016,
                1.5323271395155327,
                -0.09724498994092486,
                0.15585583193188327,
                -1.5504983142718647
            ]
        },
        {
            "positions": [
                0.5801242665863764,
                -2.0233786089003463,
                1.6368079052639606,
                -0.09606357660318919,
                0.18465750420068172,
                -1.7064957963072303
            ]
        },
        {
            "positions": [
                0.6232259237811066,
                -2.037167446418677,
                1.7412886710123883,
                -0.09488216326545351,
                0.21345917646948015,
                -1.8624932783425958
            ]
        },
        {
            "positions": [
                0.6663275809758369,
                -2.0509562839370075,
                1.8457694367608162,
                -0.09370074992771785,
                0.24226084873827863,
                -2.0184907603779614
            ]
        },
        {
            "positions": [
                0.709429238170567,
                -2.0647451214553376,
                1.950250202509244,
                -0.09251933658998218,
                0.27106252100707706,
                -2.174488242413327
            ]
        },
        {
            "positions": [
                0.7238432622718329,
                -2.0575583679218346,
                2.026076057917843,
                -0.1193022991296453,
                0.31719703572044766,
                -2.3105340898924065
            ]
        },
        {
            "positions": [
                0.738257286373099,
                -2.050371614388332,
                2.101901913326442,
                -0.1460852616693084,
                0.36333155043381826,
                -2.4465799373714865
            ]
        },
        {
            "positions": [
                0.7526713104743649,
                -2.043184860854829,
                2.177727768735041,
                -0.17286822420897155,
                0.40946606514718886,
                -2.582625784850566
            ]
        },
        {
            "positions": [
                0.7609189970658783,
                -2.034087178099786,
                2.235712304713615,
                -0.20048321342202052,
                0.4503505945723635,
                -2.6919506033020584
            ]
        },
        {
            "positions": [
                0.7691666836573917,
                -2.0249894953447436,
                2.2936968406921894,
                -0.22809820263506952,
                0.49123512399753816,
                -2.801275421753551
            ]
        },
        {
            "positions": [
                0.7582785253451992,
                -1.9928046865950064,
                2.347664113283087,
                -0.3023033720097034,
                0.563737367163065,
                -2.9339257262604894
            ]
        },
        {
            "positions": [
                0.7308456087225921,
                -1.9498901640742494,
                2.369171909486357,
                -0.38094930485210693,
                0.6322194970556922,
                -3.03516136424078
            ]
        },
        {
            "positions": [
                0.7034126920999849,
                -1.9069756415534924,
                2.390679705689627,
                -0.45959523769451044,
                0.7007016269483195,
                -3.136397002221071
            ]
        }
    ]
}