{
    "goal": {
        "global_pose": {
            "orientation": {
                "w": 0.5084816217422485,
                "x": -0.49083608388900757,
                "y": 0.5182115435600281,
                "z": -0.4816462993621826
            },
            "position": {
                "x": 0.5540239810943604,
                "y": 0.030875300988554955,
                "z": 0.16403168439865112
            }
        },
        "name": "move_to_storage_A"
    },
    "id": "BiEST_move_to_storage_A_61",
    "joint_names": [
        "shoulder_pan_joint",
        "shoulder_lift_joint",
        "elbow_joint",
        "wrist_1_joint",
        "wrist_2_joint",
        "wrist_3_joint"
    ],
    "metrics": {
        "cart_traj_len": 0.3534349164917891,
        "distance_elbow_joint": 0.4523213862712998,
        "distance_shoulder_lift_joint": 0.23283499389420692,
        "distance_shoulder_pan_joint": 0.46274285625404854,
        "distance_wrist_1_joint": 0.25825850537947315,
        "distance_wrist_2_joint": 1.0961407806382808,
        "distance_wrist_3_joint": 0.09707120470724817,
        "smoothness": 4.440892098500626e-16,
        "time": 0.05903437,
        "traj_len": 1.612256098498175,
        "weighted_distance": 2.03664219306603
    },
    "planner": "BiEST",
    "start": {
        "state": {
            "elbow_joint": 1.9715463870305268,
            "shoulder_lift_joint": -1.1394903361783484,
            "shoulder_pan_joint": 0.12281147578464417,
            "wrist_1_joint": -0.7804599489681411,
            "wrist_2_joint": 0.12958660307563738,
            "wrist_3_joint": -3.1924946282119055
        }
    },
    "waypoints": [
        {
            "positions": [
                0.12281147578464417,
                -1.1394903361783484,
                1.9715463870305268,
                -0.7804599489681411,
                0.12958660307563738,
                -3.1924946282119055
            ]
        },
        {
            "positions": [
                0.05670535346263725,
                -1.172752478163235,
                2.036163727926427,
                -0.8173540211652087,
                0.28617814316682033,
                -3.178627313253727
            ]
        },
        {
            "positions": [
                -0.009400768859369676,
                -1.2060146201481219,
                2.1007810688223265,
                -0.8542480933622763,
                0.44276968325800325,
                -3.164759998295549
            ]
        },
        {
            "positions": [
                -0.07550689118137661,
                -1.2392767621330085,
                2.1653984097182266,
                -0.8911421655593439,
                0.5993612233491863,
                -3.1508926833373705
            ]
        },
        {
            "positions": [
                -0.1416130135033835,
                -1.2725389041178952,
                2.2300157506141267,
                -0.9280362377564114,
                0.7559527634403692,
                -3.1370253683791924
            ]
        },
        {
            "positions": [
                -0.20771913582539048,
                -1.3058010461027818,
                2.294633091510027,
                -0.9649303099534791,
                0.9125443035315522,
                -3.123158053421014
            ]
        },
        {
            "positions": [
                -0.2738252581473974,
                -1.3390631880876687,
                2.3592504324059265,
                -1.0018243821505466,
                1.0691358436227352,
                -3.109290738462836
            ]
        },
        {
            "positions": [
                -0.33993138046940435,
                -1.3723253300725553,
                2.4238677733018266,
                -1.0387184543476142,
                1.2257273837139182,
                -3.0954234235046574
            ]
        }
    ]
}