{
    "goal": {
        "global_pose": {
            "orientation": {
                "w": 0.7047431468963623,
                "x": -0.7094548344612122,
                "y": 0.0024358443915843964,
                "z": -0.0022348060738295317
            },
            "position": {
                "x": 0.6094750761985779,
                "y": 0.3671506643295288,
                "z": 0.19426114857196808
            }
        },
        "name": "move_to_magneteinheit_A"
    },
    "id": "BiEST_move_to_magneteinheit_A_124",
    "joint_names": [
        "shoulder_pan_joint",
        "shoulder_lift_joint",
        "elbow_joint",
        "wrist_1_joint",
        "wrist_2_joint",
        "wrist_3_joint"
    ],
    "metrics": {
        "cart_traj_len": 2.064371891547064,
        "distance_elbow_joint": 3.8786773950742597,
        "distance_shoulder_lift_joint": 1.0553942159863143,
        "distance_shoulder_pan_joint": 1.2413033562924507,
        "distance_wrist_1_joint": 1.1499439202402084,
        "distance_wrist_2_joint": 1.4449780231696066,
        "distance_wrist_3_joint": 1.91144591709958,
        "smoothness": 5.392511849751758e-16,
        "time": 0.051852103999999996,
        "traj_len": 3.2682935651288147,
        "weighted_distance": 4.135161013246206
    },
    "planner": "BiEST",
    "start": {
        "state": {
            "elbow_joint": -1.919643507792019,
            "shoulder_lift_joint": -0.07675430207160344,
            "shoulder_pan_joint": -1.1188671864651873,
            "wrist_1_joint": 0.42560062535961957,
            "wrist_2_joint": 1.5706038300724876,
            "wrist_3_joint": 1.1188968870953055
        }
    },
    "waypoints": [
        {
            "positions": [
                -1.1188671864651873,
                -0.07675430207160344,
                -1.919643507792019,
                0.42560062535961957,
                1.5706038300724876,
                1.1188968870953055
            ]
        },
        {
            "positions": [
                -1.0728929880839855,
                -0.11584297673776323,
                -1.7759887894559354,
                0.3830101097951674,
                1.5170861255106503,
                1.189691180321216
            ]
        },
        {
            "positions": [
                -1.0269187897027836,
                -0.154931651403923,
                -1.6323340711198517,
                0.3404195942307152,
                1.4635684209488131,
                1.2604854735471263
            ]
        },
        {
            "positions": [
                -0.9809445913215817,
                -0.1940203260700828,
                -1.488679352783768,
                0.29782907866626307,
                1.4100507163869758,
                1.3312797667730367
            ]
        },
        {
            "positions": [
                -0.9349703929403799,
                -0.2331090007362426,
                -1.3450246344476844,
                0.2552385631018109,
                1.3565330118251384,
                1.402074059998947
            ]
        },
        {
            "positions": [
                -0.888996194559178,
                -0.27219767540240236,
                -1.2013699161116007,
                0.21264804753735875,
                1.3030153072633013,
                1.4728683532248574
            ]
        },
        {
            "positions": [
                -0.8430219961779761,
                -0.3112863500685622,
                -1.057715197775517,
                0.17005753197290657,
                1.249497602701464,
                1.5436626464507677
            ]
        },
        {
            "positions": [
                -0.7970477977967743,
                -0.350375024734722,
                -0.9140604794394334,
                0.12746701640845443,
                1.1959798981396266,
                1.6144569396766781
            ]
        },
        {
            "positions": [
                -0.7510735994155724,
                -0.38946369940088177,
                -0.7704057611033497,
                0.08487650084400228,
                1.1424621935777894,
                1.6852512329025884
            ]
        },
        {
            "positions": [
                -0.7050994010343705,
                -0.42855237406704155,
                -0.626751042767266,
                0.04228598527955013,
                1.088944489015952,
                1.7560455261284988
            ]
        },
        {
            "positions": [
                -0.6591252026531687,
                -0.46764104873320134,
                -0.48309632443118233,
                -0.00030453028490207146,
                1.0354267844541147,
                1.8268398193544093
            ]
        },
        {
            "positions": [
                -0.6131510042719667,
                -0.5067297233993611,
                -0.33944160609509866,
                -0.04289504584935422,
                0.9819090798922776,
                1.8976341125803196
            ]
        },
        {
            "positions": [
                -0.5671768058907648,
                -0.5458183980655209,
                -0.19578688775901498,
                -0.08548556141380642,
                0.9283913753304402,
                1.9684284058062298
            ]
        },
        {
            "positions": [
                -0.5212026075095629,
                -0.5849070727316807,
                -0.05213216942293131,
                -0.12807607697825857,
                0.874873670768603,
                2.0392226990321403
            ]
        },
        {
            "positions": [
                -0.47522840912836106,
                -0.6239957473978406,
                0.09152254891315237,
                -0.17066659254271072,
                0.8213559662067658,
                2.1100169922580507
            ]
        },
        {
            "positions": [
                -0.4292542107471592,
                -0.6630844220640004,
                0.2351772672492365,
                -0.21325710810716286,
                0.7678382616449284,
                2.180811285483961
            ]
        },
        {
            "positions": [
                -0.3832800123659573,
                -0.70217309673016,
                0.3788319855853197,
                -0.255847623671615,
                0.7143205570830912,
                2.2516055787098717
            ]
        },
        {
            "positions": [
                -0.33730581398475545,
                -0.7412617713963199,
                0.5224867039214038,
                -0.29843813923606727,
                0.6608028525212538,
                2.322399871935782
            ]
        },
        {
            "positions": [
                -0.2913316156035536,
                -0.7803504460624797,
                0.6661414222574871,
                -0.3410286548005193,
                0.6072851479594166,
                2.393194165161692
            ]
        },
        {
            "positions": [
                -0.2453574172223516,
                -0.8194391207286396,
                0.8097961405935712,
                -0.38361917036497156,
                0.5537674433975792,
                2.4639884583876026
            ]
        },
        {
            "positions": [
                -0.19938321884114985,
                -0.8585277953947992,
                0.9534508589296544,
                -0.4262096859294237,
                0.5002497388357421,
                2.5347827516135126
            ]
        },
        {
            "positions": [
                -0.15340902045994786,
                -0.897616470060959,
                1.0971055772657385,
                -0.46880020149387586,
                0.44673203427390473,
                2.605577044839423
            ]
        },
        {
            "positions": [
                -0.107434822078746,
                -0.9367051447271189,
                1.2407602956018218,
                -0.5113907170583281,
                0.3932143297120676,
                2.6763713380653336
            ]
        },
        {
            "positions": [
                -0.061460623697544126,
                -0.9757938193932787,
                1.384415013937906,
                -0.5539812326227802,
                0.33969662515023025,
                2.747165631291244
            ]
        },
        {
            "positions": [
                -0.015486425316342256,
                -1.0148824940594383,
                1.5280697322739891,
                -0.5965717481872324,
                0.2861789205883929,
                2.8179599245171545
            ]
        },
        {
            "positions": [
                0.030487773064859613,
                -1.0539711687255982,
                1.6717244506100732,
                -0.6391622637516845,
                0.23266121602655554,
                2.888754217743065
            ]
        },
        {
            "positions": [
                0.07646197144606148,
                -1.093059843391758,
                1.8153791689461565,
                -0.6817527793161366,
                0.1791435114647184,
                2.959548510968975
            ]
        },
        {
            "positions": [
                0.12243616982726338,
                -1.1321485180579178,
                1.9590338872822406,
                -0.7243432948805889,
                0.125625806902881,
                3.0303428041948854
            ]
        }
    ]
}