{
    "goal": {
        "global_pose": {
            "orientation": {
                "w": 0.5084816217422485,
                "x": -0.49083608388900757,
                "y": 0.5182115435600281,
                "z": -0.4816462993621826
            },
            "position": {
                "x": 0.5540239810943604,
                "y": 0.030875300988554955,
                "z": 0.16403168439865112
            }
        },
        "name": "move_to_storage_A"
    },
    "id": "BiEST_move_to_storage_A_81",
    "joint_names": [
        "shoulder_pan_joint",
        "shoulder_lift_joint",
        "elbow_joint",
        "wrist_1_joint",
        "wrist_2_joint",
        "wrist_3_joint"
    ],
    "metrics": {
        "cart_traj_len": 0.35346508577673197,
        "distance_elbow_joint": 0.44918323390583836,
        "distance_shoulder_lift_joint": 0.2357614464836999,
        "distance_shoulder_pan_joint": 0.4593212868140873,
        "distance_wrist_1_joint": 0.2347129255254864,
        "distance_wrist_2_joint": 1.1128470457279465,
        "distance_wrist_3_joint": 0.10376281559855638,
        "smoothness": 0.0,
        "time": 0.044712224,
        "traj_len": 1.6110830996741337,
        "weighted_distance": 2.037320386317812
    },
    "planner": "BiEST",
    "start": {
        "state": {
            "elbow_joint": 1.9715463870305268,
            "shoulder_lift_joint": -1.1394903361783484,
            "shoulder_pan_joint": 0.12281147578464417,
            "wrist_1_joint": -0.7804599489681411,
            "wrist_2_joint": 0.12958660307563738,
            "wrist_3_joint": -3.1924946282119055
        }
    },
    "waypoints": [
        {
            "positions": [
                0.12281147578464417,
                -1.1394903361783484,
                1.9715463870305268,
                -0.7804599489681411,
                0.12958660307563738,
                -3.1924946282119055
            ]
        },
        {
            "positions": [
                0.05719414909691742,
                -1.173170542818877,
                2.0357154204456465,
                -0.8139903669003534,
                0.288564752465344,
                -3.177671368840683
            ]
        },
        {
            "positions": [
                -0.008423177590809336,
                -1.2068507494594054,
                2.099884453860766,
                -0.8475207848325658,
                0.44754290185505063,
                -3.162848109469461
            ]
        },
        {
            "positions": [
                -0.07404050427853608,
                -1.240530956099934,
                2.164053487275886,
                -0.8810512027647781,
                0.6065210512447573,
                -3.1480248500982384
            ]
        },
        {
            "positions": [
                -0.13965783096626283,
                -1.2742111627404626,
                2.2282225206910056,
                -0.9145816206969904,
                0.765499200634464,
                -3.1332015907270163
            ]
        },
        {
            "positions": [
                -0.20527515765398963,
                -1.3078913693809913,
                2.2923915541061257,
                -0.9481120386292028,
                0.9244773500241706,
                -3.118378331355794
            ]
        },
        {
            "positions": [
                -0.2708924843417163,
                -1.3415715760215197,
                2.3565605875212454,
                -0.9816424565614151,
                1.0834554994138772,
                -3.1035550719845717
            ]
        },
        {
            "positions": [
                -0.3365098110294431,
                -1.3752517826620483,
                2.420729620936365,
                -1.0151728744936275,
                1.2424336488035839,
                -3.088731812613349
            ]
        }
    ]
}