{
    "goal": {
        "global_pose": {
            "orientation": {
                "w": 0.5084816217422485,
                "x": -0.49083608388900757,
                "y": 0.5182115435600281,
                "z": -0.4816462993621826
            },
            "position": {
                "x": 0.5540239810943604,
                "y": 0.030875300988554955,
                "z": 0.16403168439865112
            }
        },
        "name": "move_to_storage_A"
    },
    "id": "BiEST_move_to_storage_A_107",
    "joint_names": [
        "shoulder_pan_joint",
        "shoulder_lift_joint",
        "elbow_joint",
        "wrist_1_joint",
        "wrist_2_joint",
        "wrist_3_joint"
    ],
    "metrics": {
        "cart_traj_len": 0.35276735503167017,
        "distance_elbow_joint": 0.4493381393120566,
        "distance_shoulder_lift_joint": 0.23426032629010818,
        "distance_shoulder_pan_joint": 0.46244982854102573,
        "distance_wrist_1_joint": 0.2447351653827482,
        "distance_wrist_2_joint": 1.0926538006125364,
        "distance_wrist_3_joint": 0.10167682358905461,
        "smoothness": 0.0,
        "time": 0.035812591000000005,
        "traj_len": 1.607828997041517,
        "weighted_distance": 2.031220494407469
    },
    "planner": "BiEST",
    "start": {
        "state": {
            "elbow_joint": 1.9715463870305268,
            "shoulder_lift_joint": -1.1394903361783484,
            "shoulder_pan_joint": 0.12281147578464417,
            "wrist_1_joint": -0.7804599489681411,
            "wrist_2_joint": 0.12958660307563738,
            "wrist_3_joint": -3.1924946282119055
        }
    },
    "waypoints": [
        {
            "positions": [
                0.12281147578464417,
                -1.1394903361783484,
                1.9715463870305268,
                -0.7804599489681411,
                0.12958660307563738,
                -3.1924946282119055
            ]
        },
        {
            "positions": [
                0.05674721456449765,
                -1.1729560970769353,
                2.035737549789392,
                -0.8154221154513909,
                0.28568000316314257,
                -3.1779693676991836
            ]
        },
        {
            "positions": [
                -0.009317046655648878,
                -1.2064218579755221,
                2.099928712548257,
                -0.8503842819346406,
                0.44177340325064773,
                -3.163444107186461
            ]
        },
        {
            "positions": [
                -0.0753813078757954,
                -1.239887618874109,
                2.1641198753071222,
                -0.8853464484178903,
                0.5978668033381529,
                -3.1489188466737392
            ]
        },
        {
            "positions": [
                -0.14144556909594191,
                -1.273353379772696,
                2.2283110380659874,
                -0.92030861490114,
                0.7539602034256582,
                -3.1343935861610173
            ]
        },
        {
            "positions": [
                -0.2075098303160885,
                -1.3068191406712828,
                2.292502200824853,
                -0.9552707813843898,
                0.9100536035131634,
                -3.1198683256482953
            ]
        },
        {
            "positions": [
                -0.27357409153623496,
                -1.3402849015698697,
                2.356693363583718,
                -0.9902329478676395,
                1.0661470036006684,
                -3.105343065135573
            ]
        },
        {
            "positions": [
                -0.33963835275638155,
                -1.3737506624684566,
                2.4208845263425833,
                -1.0251951143508893,
                1.2222404036881738,
                -3.090817804622851
            ]
        }
    ]
}