{
    "goal": {
        "global_pose": {
            "orientation": {
                "w": 0.7031023502349854,
                "x": -0.7110244035720825,
                "y": 0.007748599164187908,
                "z": 0.005598929710686207
            },
            "position": {
                "x": 0.11585023208521307,
                "y": 0.44412534475326537,
                "z": 0.3711530566215515
            }
        },
        "name": "move_to_auspresseinheit_A"
    },
    "id": "BiEST_move_to_auspresseinheit_A_61",
    "joint_names": [
        "shoulder_pan_joint",
        "shoulder_lift_joint",
        "elbow_joint",
        "wrist_1_joint",
        "wrist_2_joint",
        "wrist_3_joint"
    ],
    "metrics": {
        "cart_traj_len": 0.9285693563050968,
        "distance_elbow_joint": 0.25275932292829095,
        "distance_shoulder_lift_joint": 0.5357232003252634,
        "distance_shoulder_pan_joint": 1.325712919689618,
        "distance_wrist_1_joint": 0.5466664808142794,
        "distance_wrist_2_joint": 0.524735056446585,
        "distance_wrist_3_joint": 1.6183085256480338,
        "smoothness": 0.8548364087883707,
        "time": 0.073845277,
        "traj_len": 2.1917813544813427,
        "weighted_distance": 3.0185963781878824
    },
    "planner": "BiEST",
    "start": {
        "state": {
            "elbow_joint": 2.422574709923281,
            "shoulder_lift_joint": -1.3736533754116391,
            "shoulder_pan_joint": -0.33786336945926293,
            "wrist_1_joint": -1.0288603412921917,
            "wrist_2_joint": 1.2330224858903978,
            "wrist_3_joint": -3.094022268022082
        }
    },
    "waypoints": [
        {
            "positions": [
                -0.33786336945926293,
                -1.3736533754116391,
                2.422574709923281,
                -1.0288603412921917,
                1.2330224858903978,
                -3.094022268022082
            ]
        },
        {
            "positions": [
                -0.36605679935397467,
                -1.4197922851520737,
                2.394586278130425,
                -0.9629690477175861,
                1.2309792160386064,
                -2.9348371096808603
            ]
        },
        {
            "positions": [
                -0.3942502292486864,
                -1.465931194892508,
                2.366597846337568,
                -0.8970777541429804,
                1.2289359461868148,
                -2.775651951339638
            ]
        },
        {
            "positions": [
                -0.4224436591433981,
                -1.5120701046329426,
                2.338609414544712,
                -0.8311864605683749,
                1.2268926763350234,
                -2.6164667929984162
            ]
        },
        {
            "positions": [
                -0.45063708903810984,
                -1.5582090143733769,
                2.310620982751855,
                -0.7652951669937691,
                1.2248494064832318,
                -2.457281634657194
            ]
        },
        {
            "positions": [
                -0.4788305189328216,
                -1.6043479241138114,
                2.282632550958999,
                -0.6994038734191635,
                1.2228061366314404,
                -2.298096476315972
            ]
        },
        {
            "positions": [
                -0.32989749643738786,
                -1.6545578508309455,
                2.2971672276077237,
                -0.6903136216379447,
                1.1537880557736375,
                -2.387584024676305
            ]
        },
        {
            "positions": [
                -0.18096447394195414,
                -1.7047677775480798,
                2.311701904256449,
                -0.6812233698567259,
                1.0847699749158344,
                -2.4770715730366377
            ]
        },
        {
            "positions": [
                -0.032031451446520365,
                -1.754977704265214,
                2.326236580905174,
                -0.6721331180755072,
                1.0157518940580315,
                -2.5665591213969705
            ]
        },
        {
            "positions": [
                0.1169015710489133,
                -1.805187630982348,
                2.340771257553899,
                -0.6630428662942884,
                0.9467338132002285,
                -2.656046669757303
            ]
        },
        {
            "positions": [
                0.26583459354434713,
                -1.8553975576994823,
                2.355305934202624,
                -0.6539526145130696,
                0.8777157323424256,
                -2.7455342181176356
            ]
        },
        {
            "positions": [
                0.41476761603978085,
                -1.9056074844166164,
                2.369840610851349,
                -0.6448623627318508,
                0.8086976514846226,
                -2.8350217664779684
            ]
        },
        {
            "positions": [
                0.5118168277875998,
                -1.906863848190045,
                2.3783769788752354,
                -0.5906395286472047,
                0.7752275774710193,
                -2.9301742477379444
            ]
        },
        {
            "positions": [
                0.6088660395354187,
                -1.908120211963474,
                2.3869133468991213,
                -0.5364166945625585,
                0.741757503457416,
                -3.02532672899792
            ]
        },
        {
            "positions": [
                0.7059152512832377,
                -1.9093765757369026,
                2.3954497149230076,
                -0.48219386047791235,
                0.7082874294438127,
                -3.120479210257896
            ]
        }
    ]
}