{
    "goal": {
        "global_pose": {
            "orientation": {
                "w": 0.7047431468963623,
                "x": -0.7094548344612122,
                "y": 0.0024358443915843964,
                "z": -0.0022348060738295317
            },
            "position": {
                "x": 0.6094750761985779,
                "y": 0.3671506643295288,
                "z": 0.19426114857196808
            }
        },
        "name": "move_to_magneteinheit_A"
    },
    "id": "BiEST_move_to_magneteinheit_A_4",
    "joint_names": [
        "shoulder_pan_joint",
        "shoulder_lift_joint",
        "elbow_joint",
        "wrist_1_joint",
        "wrist_2_joint",
        "wrist_3_joint"
    ],
    "metrics": {
        "cart_traj_len": 2.062549403044254,
        "distance_elbow_joint": 3.869964793464362,
        "distance_shoulder_lift_joint": 1.049388423959832,
        "distance_shoulder_pan_joint": 1.2408454209898754,
        "distance_wrist_1_joint": 1.112386517670858,
        "distance_wrist_2_joint": 1.4501748237274572,
        "distance_wrist_3_joint": 1.8768823176457503,
        "smoothness": 5.075305277722828e-16,
        "time": 0.059633533,
        "traj_len": 3.255709185025305,
        "weighted_distance": 4.112902657995683
    },
    "planner": "BiEST",
    "start": {
        "state": {
            "elbow_joint": -1.919643507792019,
            "shoulder_lift_joint": -0.07675430207160344,
            "shoulder_pan_joint": -1.1188671864651873,
            "wrist_1_joint": 0.42560062535961957,
            "wrist_2_joint": 1.5706038300724876,
            "wrist_3_joint": 1.1188968870953055
        }
    },
    "waypoints": [
        {
            "positions": [
                -1.1188671864651873,
                -0.07675430207160344,
                -1.919643507792019,
                0.42560062535961957,
                1.5706038300724876,
                1.1188968870953055
            ]
        },
        {
            "positions": [
                -1.0729099486507476,
                -0.11562053999604166,
                -1.77631147840445,
                0.38440112470514337,
                1.516893651415915,
                1.188411047008111
            ]
        },
        {
            "positions": [
                -1.0269527108363077,
                -0.15448677792047988,
                -1.6329794490168812,
                0.3432016240506671,
                1.4631834727593427,
                1.2579252069209166
            ]
        },
        {
            "positions": [
                -0.9809954730218678,
                -0.1933530158449181,
                -1.4896474196293121,
                0.3020021233961909,
                1.4094732941027701,
                1.3274393668337223
            ]
        },
        {
            "positions": [
                -0.935038235207428,
                -0.23221925376935632,
                -1.3463153902417433,
                0.26080262274171473,
                1.3557631154461975,
                1.3969535267465278
            ]
        },
        {
            "positions": [
                -0.8890809973929882,
                -0.27108549169379453,
                -1.2029833608541742,
                0.2196031220872385,
                1.3020529367896252,
                1.4664676866593334
            ]
        },
        {
            "positions": [
                -0.8431237595785483,
                -0.30995172961823275,
                -1.0596513314666054,
                0.17840362143276228,
                1.2483427581330526,
                1.5359818465721389
            ]
        },
        {
            "positions": [
                -0.7971665217641086,
                -0.34881796754267097,
                -0.9163193020790363,
                0.1372041207782861,
                1.1946325794764803,
                1.6054960064849446
            ]
        },
        {
            "positions": [
                -0.7512092839496687,
                -0.3876842054671092,
                -0.7729872726914675,
                0.09600462012380984,
                1.1409224008199077,
                1.6750101663977501
            ]
        },
        {
            "positions": [
                -0.705252046135229,
                -0.4265504433915474,
                -0.6296552433038984,
                0.05480511946933364,
                1.0872122221633354,
                1.7445243263105557
            ]
        },
        {
            "positions": [
                -0.659294808320789,
                -0.4654166813159856,
                -0.4863232139163294,
                0.013605618814857445,
                1.0335020435067628,
                1.8140384862233612
            ]
        },
        {
            "positions": [
                -0.6133375705063493,
                -0.5042829192404239,
                -0.34299118452876054,
                -0.027593881839618806,
                0.9797918648501902,
                1.8835526461361667
            ]
        },
        {
            "positions": [
                -0.5673803326919095,
                -0.5431491571648621,
                -0.19965915514119148,
                -0.068793382494095,
                0.9260816861936177,
                1.9530668060489722
            ]
        },
        {
            "positions": [
                -0.5214230948774696,
                -0.5820153950893003,
                -0.05632712575362264,
                -0.1099928831485712,
                0.8723715075370453,
                2.0225809659617777
            ]
        },
        {
            "positions": [
                -0.4754658570630298,
                -0.6208816330137386,
                0.08700490363394642,
                -0.1511923838030474,
                0.8186613288804728,
                2.0920951258745832
            ]
        },
        {
            "positions": [
                -0.42950861924858985,
                -0.6597478709381768,
                0.2303369330215157,
                -0.1923918844575237,
                0.7649511502239003,
                2.161609285787389
            ]
        },
        {
            "positions": [
                -0.38355138143415013,
                -0.698614108862615,
                0.3736689624090841,
                -0.2335913851119999,
                0.7112409715673278,
                2.2311234457001943
            ]
        },
        {
            "positions": [
                -0.3375941436197102,
                -0.7374803467870532,
                0.5170009917966534,
                -0.2747908857664761,
                0.6575307929107552,
                2.3006376056130002
            ]
        },
        {
            "positions": [
                -0.29163690580527046,
                -0.7763465847114914,
                0.6603330211842222,
                -0.3159903864209523,
                0.6038206142541829,
                2.3701517655258058
            ]
        },
        {
            "positions": [
                -0.24567966799083063,
                -0.8152128226359296,
                0.8036650505717915,
                -0.3571898870754286,
                0.5501104355976103,
                2.4396659254386113
            ]
        },
        {
            "positions": [
                -0.1997224301763908,
                -0.8540790605603679,
                0.9469970799593603,
                -0.3983893877299047,
                0.49640025694103795,
                2.509180085351417
            ]
        },
        {
            "positions": [
                -0.15376519236195096,
                -0.8929452984848061,
                1.0903291093469292,
                -0.439588888384381,
                0.4426900782844654,
                2.5786942452642228
            ]
        },
        {
            "positions": [
                -0.10780795454751124,
                -0.9318115364092443,
                1.233661138734498,
                -0.4807883890388572,
                0.3889798996278928,
                2.6482084051770283
            ]
        },
        {
            "positions": [
                -0.0618507167330713,
                -0.9706777743336825,
                1.3769931681220673,
                -0.5219878896933334,
                0.33526972097132024,
                2.717722565089834
            ]
        },
        {
            "positions": [
                -0.015893478918631576,
                -1.0095440122581207,
                1.5203251975096361,
                -0.5631873903478095,
                0.2815595423147479,
                2.7872367250026393
            ]
        },
        {
            "positions": [
                0.030063758895808368,
                -1.048410250182559,
                1.663657226897205,
                -0.6043868910022858,
                0.22784936365817532,
                2.856750884915445
            ]
        },
        {
            "positions": [
                0.07602099671024809,
                -1.0872764881069972,
                1.8069892562847738,
                -0.6455863916567619,
                0.17413918500160297,
                2.9262650448282503
            ]
        },
        {
            "positions": [
                0.12197823452468809,
                -1.1261427260314354,
                1.950321285672343,
                -0.6867858923112383,
                0.12042900634503033,
                2.995779204741056
            ]
        }
    ]
}