{
    "goal": {
        "global_pose": {
            "orientation": {
                "w": 0.7047431468963623,
                "x": -0.7094548344612122,
                "y": 0.0024358443915843964,
                "z": -0.0022348060738295317
            },
            "position": {
                "x": 0.6094750761985779,
                "y": 0.3671506643295288,
                "z": 0.19426114857196808
            }
        },
        "name": "move_to_magneteinheit_A"
    },
    "id": "BiEST_move_to_magneteinheit_A_110",
    "joint_names": [
        "shoulder_pan_joint",
        "shoulder_lift_joint",
        "elbow_joint",
        "wrist_1_joint",
        "wrist_2_joint",
        "wrist_3_joint"
    ],
    "metrics": {
        "cart_traj_len": 2.0631790820605915,
        "distance_elbow_joint": 3.8743001030648694,
        "distance_shoulder_lift_joint": 1.0528526295385585,
        "distance_shoulder_pan_joint": 1.2413248190230968,
        "distance_wrist_1_joint": 1.1314112794595752,
        "distance_wrist_2_joint": 1.4391476492733024,
        "distance_wrist_3_joint": 1.901005707793364,
        "smoothness": 5.709718439674967e-16,
        "time": 0.050455936,
        "traj_len": 3.2619077528576383,
        "weighted_distance": 4.124634836257917
    },
    "planner": "BiEST",
    "start": {
        "state": {
            "elbow_joint": -1.919643507792019,
            "shoulder_lift_joint": -0.07675430207160344,
            "shoulder_pan_joint": -1.1188671864651873,
            "wrist_1_joint": 0.42560062535961957,
            "wrist_2_joint": 1.5706038300724876,
            "wrist_3_joint": 1.1188968870953055
        }
    },
    "waypoints": [
        {
            "positions": [
                -1.1188671864651873,
                -0.07675430207160344,
                -1.919643507792019,
                0.42560062535961957,
                1.5706038300724876,
                1.1188968870953055
            ]
        },
        {
            "positions": [
                -1.0728921931680355,
                -0.11574884390636486,
                -1.7761509113822092,
                0.3836965038981538,
                1.5173020652845874,
                1.1893045059024672
            ]
        },
        {
            "positions": [
                -1.026917199870884,
                -0.15474338574112628,
                -1.6326583149723992,
                0.3417923824366881,
                1.4640003004966875,
                1.2597121247096288
            ]
        },
        {
            "positions": [
                -0.9809422065737321,
                -0.1937379275758877,
                -1.4891657185625893,
                0.29988826097522236,
                1.4106985357087873,
                1.3301197435167904
            ]
        },
        {
            "positions": [
                -0.9349672132765804,
                -0.23273246941064915,
                -1.3456731221527791,
                0.2579841395137566,
                1.3573967709208872,
                1.400527362323952
            ]
        },
        {
            "positions": [
                -0.8889922199794287,
                -0.27172701124541054,
                -1.2021805257429694,
                0.21608001805229082,
                1.3040950061329872,
                1.4709349811311137
            ]
        },
        {
            "positions": [
                -0.843017226682277,
                -0.310721553080172,
                -1.0586879293331592,
                0.1741758965908251,
                1.250793241345087,
                1.5413425999382753
            ]
        },
        {
            "positions": [
                -0.7970422333851253,
                -0.34971609491493344,
                -0.9151953329233493,
                0.13227177512935934,
                1.197491476557187,
                1.611750218745437
            ]
        },
        {
            "positions": [
                -0.7510672400879734,
                -0.38871063674969486,
                -0.7717027365135394,
                0.09036765366789362,
                1.144189711769287,
                1.6821578375525985
            ]
        },
        {
            "positions": [
                -0.7050922467908218,
                -0.4277051785844563,
                -0.6282101401037294,
                0.04846353220642785,
                1.0908879469813868,
                1.7525654563597601
            ]
        },
        {
            "positions": [
                -0.65911725349367,
                -0.4666997204192177,
                -0.4847175436939195,
                0.00655941074496208,
                1.0375861821934866,
                1.8229730751669218
            ]
        },
        {
            "positions": [
                -0.6131422601965183,
                -0.5056942622539791,
                -0.34122494728410935,
                -0.035344710716503636,
                0.9842844174055867,
                1.8933806939740834
            ]
        },
        {
            "positions": [
                -0.5671672668993666,
                -0.5446888040887405,
                -0.1977323508742994,
                -0.07724883217796935,
                0.9309826526176865,
                1.963788312781245
            ]
        },
        {
            "positions": [
                -0.5211922736022149,
                -0.583683345923502,
                -0.054239754464489476,
                -0.11915295363943518,
                0.8776808878297865,
                2.034195931588407
            ]
        },
        {
            "positions": [
                -0.47521728030506316,
                -0.6226778877582635,
                0.08925284194532046,
                -0.1610570751009009,
                0.8243791230418864,
                2.1046035503955682
            ]
        },
        {
            "positions": [
                -0.42924228700791134,
                -0.661672429593025,
                0.23274543835513062,
                -0.20296119656236672,
                0.7710773582539863,
                2.17501116920273
            ]
        },
        {
            "positions": [
                -0.3832672937107596,
                -0.7006669714277862,
                0.37623803476494033,
                -0.24486531802383232,
                0.7177755934660862,
                2.2454187880098915
            ]
        },
        {
            "positions": [
                -0.3372923004136079,
                -0.7396615132625477,
                0.5197306311747505,
                -0.28676943948529815,
                0.664473828678186,
                2.3158264068170533
            ]
        },
        {
            "positions": [
                -0.2913173071164562,
                -0.7786560550973092,
                0.6632232275845602,
                -0.32867356094676387,
                0.611172063890286,
                2.3862340256242147
            ]
        },
        {
            "positions": [
                -0.24534231381930438,
                -0.8176505969320707,
                0.8067158239943704,
                -0.3705776824082297,
                0.5578702991023858,
                2.4566416444313766
            ]
        },
        {
            "positions": [
                -0.19936732052215278,
                -0.8566451387668319,
                0.9502084204041801,
                -0.4124818038696954,
                0.5045685343144859,
                2.527049263238538
            ]
        },
        {
            "positions": [
                -0.15339232722500096,
                -0.8956396806015934,
                1.0937010168139907,
                -0.4543859253311611,
                0.45126676952658573,
                2.5974568820457
            ]
        },
        {
            "positions": [
                -0.10741733392784925,
                -0.9346342224363549,
                1.2371936132238004,
                -0.49629004679262684,
                0.3979650047386858,
                2.667864500852861
            ]
        },
        {
            "positions": [
                -0.06144234063069742,
                -0.9736287642711163,
                1.3806862096336106,
                -0.5381941682540927,
                0.3446632399507856,
                2.738272119660023
            ]
        },
        {
            "positions": [
                -0.015467347333545822,
                -1.0126233061058776,
                1.5241788060434203,
                -0.5800982897155582,
                0.29136147516288546,
                2.8086797384671844
            ]
        },
        {
            "positions": [
                0.030507645963606,
                -1.051617847940639,
                1.6676714024532304,
                -0.6220024111770242,
                0.2380597103749853,
                2.8790873572743463
            ]
        },
        {
            "positions": [
                0.0764826392607576,
                -1.0906123897754005,
                1.8111639988630401,
                -0.6639065326384899,
                0.18475794558708536,
                2.9494949760815077
            ]
        },
        {
            "positions": [
                0.12245763255790934,
                -1.129606931610162,
                1.9546565952728503,
                -0.7058106540999556,
                0.13145618079918509,
                3.0199025948886695
            ]
        }
    ]
}