{
    "goal": {
        "global_pose": {
            "orientation": {
                "w": 0.7047431468963623,
                "x": -0.7094548344612122,
                "y": 0.0024358443915843964,
                "z": -0.0022348060738295317
            },
            "position": {
                "x": 0.6094750761985779,
                "y": 0.3671506643295288,
                "z": 0.19426114857196808
            }
        },
        "name": "move_to_magneteinheit_A"
    },
    "id": "BiEST_move_to_magneteinheit_A_1",
    "joint_names": [
        "shoulder_pan_joint",
        "shoulder_lift_joint",
        "elbow_joint",
        "wrist_1_joint",
        "wrist_2_joint",
        "wrist_3_joint"
    ],
    "metrics": {
        "cart_traj_len": 1.8805189596565497,
        "distance_elbow_joint": 3.9105647986792125,
        "distance_shoulder_lift_joint": 0.6991772821298484,
        "distance_shoulder_pan_joint": 1.2419722726480302,
        "distance_wrist_1_joint": 1.4768265273375931,
        "distance_wrist_2_joint": 1.7087294361727952,
        "distance_wrist_3_joint": 1.0977711591753714,
        "smoothness": 4.276414619397388e-16,
        "time": 0.056415105,
        "traj_len": 3.183557990070678,
        "weighted_distance": 3.939053155011238
    },
    "planner": "BiEST",
    "start": {
        "state": {
            "elbow_joint": -1.919643507792019,
            "shoulder_lift_joint": -0.07675430207160344,
            "shoulder_pan_joint": -1.1188671864651873,
            "wrist_1_joint": 0.42560062535961957,
            "wrist_2_joint": 1.5706038300724876,
            "wrist_3_joint": 1.1188968870953055
        }
    },
    "waypoints": [
        {
            "positions": [
                -1.1188671864651873,
                -0.07675430207160344,
                -1.919643507792019,
                0.42560062535961957,
                1.5706038300724876,
                1.1188968870953055
            ]
        },
        {
            "positions": [
                -1.0710990221325707,
                -0.10364573599967454,
                -1.76923716938128,
                0.4824016456418347,
                1.5048834671427647,
                1.0766749194347143
            ]
        },
        {
            "positions": [
                -1.0233308577999543,
                -0.13053716992774564,
                -1.6188308309705413,
                0.5392026659240499,
                1.4391631042130417,
                1.0344529517741232
            ]
        },
        {
            "positions": [
                -0.9755626934673377,
                -0.15742860385581675,
                -1.4684244925598022,
                0.596003686206265,
                1.373442741283319,
                0.9922309841135319
            ]
        },
        {
            "positions": [
                -0.9277945291347212,
                -0.18432003778388784,
                -1.3180181541490632,
                0.6528047064884801,
                1.307722378353596,
                0.9500090164529407
            ]
        },
        {
            "positions": [
                -0.8800263648021046,
                -0.21121147171195895,
                -1.1676118157383244,
                0.7096057267706952,
                1.2420020154238731,
                0.9077870487923495
            ]
        },
        {
            "positions": [
                -0.8322582004694881,
                -0.23810290564003003,
                -1.0172054773275854,
                0.7664067470529103,
                1.1762816524941502,
                0.8655650811317583
            ]
        },
        {
            "positions": [
                -0.7844900361368715,
                -0.26499433956810114,
                -0.8667991389168466,
                0.8232077673351255,
                1.1105612895644275,
                0.8233431134711671
            ]
        },
        {
            "positions": [
                -0.736721871804255,
                -0.29188577349617223,
                -0.7163928005061075,
                0.8800087876173406,
                1.0448409266347043,
                0.7811211458105759
            ]
        },
        {
            "positions": [
                -0.6889537074716384,
                -0.3187772074242433,
                -0.5659864620953687,
                0.9368098078995557,
                0.9791205637049816,
                0.7388991781499847
            ]
        },
        {
            "positions": [
                -0.6411855431390219,
                -0.34566864135231445,
                -0.4155801236846295,
                0.9936108281817708,
                0.9134002007752586,
                0.6966772104893935
            ]
        },
        {
            "positions": [
                -0.5934173788064053,
                -0.3725600752803855,
                -0.2651737852738907,
                1.050411848463986,
                0.8476798378455358,
                0.6544552428288023
            ]
        },
        {
            "positions": [
                -0.5456492144737888,
                -0.3994515092084566,
                -0.11476744686315166,
                1.107212868746201,
                0.7819594749158129,
                0.612233275168211
            ]
        },
        {
            "positions": [
                -0.49788105014117223,
                -0.4263429431365277,
                0.03563889154758715,
                1.1640138890284162,
                0.71623911198609,
                0.5700113075076199
            ]
        },
        {
            "positions": [
                -0.4501128858085557,
                -0.4532343770645988,
                0.18604522995832595,
                1.2208149093106313,
                0.6505187490563672,
                0.5277893398470287
            ]
        },
        {
            "positions": [
                -0.40234472147593925,
                -0.4801258109926699,
                0.33645156836906476,
                1.2776159295928462,
                0.5847983861266444,
                0.48556737218643753
            ]
        },
        {
            "positions": [
                -0.3545765571433226,
                -0.5070172449207411,
                0.486857906779804,
                1.3344169498750615,
                0.5190780231969212,
                0.44334540452584625
            ]
        },
        {
            "positions": [
                -0.30680839281070604,
                -0.5339086788488121,
                0.6372642451905428,
                1.3912179701572767,
                0.4533576602671985,
                0.401123436865255
            ]
        },
        {
            "positions": [
                -0.2590402284780895,
                -0.5608001127768831,
                0.7876705836012816,
                1.4480189904394918,
                0.38763729733747554,
                0.3589014692046638
            ]
        },
        {
            "positions": [
                -0.21127206414547295,
                -0.5876915467049542,
                0.9380769220120204,
                1.504820010721707,
                0.3219169344077528,
                0.31667950154407265
            ]
        },
        {
            "positions": [
                -0.1635038998128564,
                -0.6145829806330254,
                1.0884832604227601,
                1.561621031003922,
                0.25619657147802966,
                0.2744575338834814
            ]
        },
        {
            "positions": [
                -0.11573573548023974,
                -0.6414744145610964,
                1.238889598833499,
                1.6184220512861371,
                0.19047620854830694,
                0.2322355662228902
            ]
        },
        {
            "positions": [
                -0.0679675711476233,
                -0.6683658484891675,
                1.3892959372442377,
                1.6752230715683523,
                0.124755845618584,
                0.19001359856229905
            ]
        },
        {
            "positions": [
                -0.02019940681500687,
                -0.6952572824172387,
                1.5397022756549765,
                1.7320240918505674,
                0.059035482688861274,
                0.14779163090170777
            ]
        },
        {
            "positions": [
                0.027568757517609788,
                -0.7221487163453097,
                1.6901086140657158,
                1.7888251121327825,
                -0.00668488024086189,
                0.1055696632411165
            ]
        },
        {
            "positions": [
                0.07533692185022645,
                -0.749040150273381,
                1.8405149524764546,
                1.8456261324149976,
                -0.07240524317058461,
                0.06334769558052544
            ]
        },
        {
            "positions": [
                0.12310508618284294,
                -0.7759315842014519,
                1.9909212908871936,
                1.9024271526972127,
                -0.13812560610030764,
                0.02112572791993426
            ]
        }
    ]
}