{
    "goal": {
        "global_pose": {
            "orientation": {
                "w": 0.5084816217422485,
                "x": -0.49083608388900757,
                "y": 0.5182115435600281,
                "z": -0.4816462993621826
            },
            "position": {
                "x": 0.5540239810943604,
                "y": 0.030875300988554955,
                "z": 0.16403168439865112
            }
        },
        "name": "move_to_storage_A"
    },
    "id": "BiEST_move_to_storage_A_91",
    "joint_names": [
        "shoulder_pan_joint",
        "shoulder_lift_joint",
        "elbow_joint",
        "wrist_1_joint",
        "wrist_2_joint",
        "wrist_3_joint"
    ],
    "metrics": {
        "cart_traj_len": 0.3530769977846264,
        "distance_elbow_joint": 0.4531578564209684,
        "distance_shoulder_lift_joint": 0.23393321913322196,
        "distance_shoulder_pan_joint": 0.45843824040491754,
        "distance_wrist_1_joint": 0.25421997599508794,
        "distance_wrist_2_joint": 1.1132355847506037,
        "distance_wrist_3_joint": 0.10914433053535921,
        "smoothness": 9.992007271825419e-16,
        "time": 0.03769477,
        "traj_len": 1.6192989863642102,
        "weighted_distance": 2.0513101737807884
    },
    "planner": "BiEST",
    "start": {
        "state": {
            "elbow_joint": 1.9715463870305268,
            "shoulder_lift_joint": -1.1394903361783484,
            "shoulder_pan_joint": 0.12281147578464417,
            "wrist_1_joint": -0.7804599489681411,
            "wrist_2_joint": 0.12958660307563738,
            "wrist_3_joint": -3.1924946282119055
        }
    },
    "waypoints": [
        {
            "positions": [
                0.12281147578464417,
                -1.1394903361783484,
                1.9715463870305268,
                -0.7804599489681411,
                0.12958660307563738,
                -3.1924946282119055
            ]
        },
        {
            "positions": [
                0.057320298583941665,
                -1.1729093674830944,
                2.036283223662094,
                -0.8167770883960108,
                0.28862025804000935,
                -3.1769025809925684
            ]
        },
        {
            "positions": [
                -0.008170878616760843,
                -1.2063283987878404,
                2.1010200602936604,
                -0.8530942278238804,
                0.4476539130043813,
                -3.1613105337732317
            ]
        },
        {
            "positions": [
                -0.07366205581746334,
                -1.2397474300925864,
                2.1657568969252274,
                -0.8894113672517502,
                0.6066875679687532,
                -3.1457184865538945
            ]
        },
        {
            "positions": [
                -0.13915323301816585,
                -1.2731664613973324,
                2.2304937335567945,
                -0.9257285066796199,
                0.7657212229331252,
                -3.1301264393345574
            ]
        },
        {
            "positions": [
                -0.20464441021886837,
                -1.3065854927020784,
                2.2952305701883615,
                -0.9620456461074895,
                0.9247548778974972,
                -3.11453439211522
            ]
        },
        {
            "positions": [
                -0.27013558741957083,
                -1.3400045240068243,
                2.359967406819928,
                -0.9983627855353593,
                1.083788532861869,
                -3.0989423448958835
            ]
        },
        {
            "positions": [
                -0.33562676462027335,
                -1.3734235553115703,
                2.424704243451495,
                -1.034679924963229,
                1.242822187826241,
                -3.0833502976765463
            ]
        }
    ]
}