{
    "goal": {
        "global_pose": {
            "orientation": {
                "w": 0.7031023502349854,
                "x": -0.7110244035720825,
                "y": 0.007748599164187908,
                "z": 0.005598929710686207
            },
            "position": {
                "x": 0.11585023208521307,
                "y": 0.44412534475326537,
                "z": 0.3711530566215515
            }
        },
        "name": "move_to_auspresseinheit_A"
    },
    "id": "BiEST_move_to_auspresseinheit_A_5",
    "joint_names": [
        "shoulder_pan_joint",
        "shoulder_lift_joint",
        "elbow_joint",
        "wrist_1_joint",
        "wrist_2_joint",
        "wrist_3_joint"
    ],
    "metrics": {
        "cart_traj_len": 0.9948519493997228,
        "distance_elbow_joint": 1.076930346775439,
        "distance_shoulder_lift_joint": 0.5295181999787419,
        "distance_shoulder_pan_joint": 1.0437204374565152,
        "distance_wrist_1_joint": 3.042976000352646,
        "distance_wrist_2_joint": 1.9653599443091108,
        "distance_wrist_3_joint": 0.4429584610794479,
        "smoothness": 1.1222529726871175,
        "time": 0.081417377,
        "traj_len": 2.8463069739492086,
        "weighted_distance": 3.7410849037107607
    },
    "planner": "BiEST",
    "start": {
        "state": {
            "elbow_joint": 2.422574709923281,
            "shoulder_lift_joint": -1.3736533754116391,
            "shoulder_pan_joint": -0.33786336945926293,
            "wrist_1_joint": -1.0288603412921917,
            "wrist_2_joint": 1.2330224858903978,
            "wrist_3_joint": -3.094022268022082
        }
    },
    "waypoints": [
        {
            "positions": [
                -0.33786336945926293,
                -1.3736533754116391,
                2.422574709923281,
                -1.0288603412921917,
                1.2330224858903978,
                -3.094022268022082
            ]
        },
        {
            "positions": [
                -0.31115621037989605,
                -1.4005130028329271,
                2.3763446310189775,
                -0.8781717517954106,
                1.1289057784586272,
                -3.0780780092683755
            ]
        },
        {
            "positions": [
                -0.28444905130052917,
                -1.4273726302542153,
                2.330114552114674,
                -0.7274831622986296,
                1.0247890710268566,
                -3.062133750514669
            ]
        },
        {
            "positions": [
                -0.2577418922211623,
                -1.4542322576755033,
                2.283884473210371,
                -0.5767945728018485,
                0.920672363595086,
                -3.0461894917609618
            ]
        },
        {
            "positions": [
                -0.2310347331417954,
                -1.4810918850967913,
                2.2376543943060674,
                -0.42610598330506755,
                0.8165556561633154,
                -3.030245233007255
            ]
        },
        {
            "positions": [
                -0.20432757406242852,
                -1.5079515125180796,
                2.191424315401764,
                -0.27541739380828634,
                0.7124389487315447,
                -3.0143009742535485
            ]
        },
        {
            "positions": [
                -0.17762041498306164,
                -1.5348111399393676,
                2.1451942364974603,
                -0.12472880431150535,
                0.6083222412997741,
                -2.998356715499842
            ]
        },
        {
            "positions": [
                -0.15091325590369475,
                -1.5616707673606556,
                2.098964157593157,
                0.025959785185275752,
                0.5042055338680034,
                -2.982412456746135
            ]
        },
        {
            "positions": [
                -0.12420609682432787,
                -1.5885303947819438,
                2.0527340786888537,
                0.17664837468205663,
                0.4000888264362329,
                -2.9664681979924286
            ]
        },
        {
            "positions": [
                -0.09749893774496099,
                -1.6153900222032318,
                2.00650399978455,
                0.32733696417883795,
                0.2959721190044622,
                -2.950523939238722
            ]
        },
        {
            "positions": [
                -0.07079177866559411,
                -1.64224964962452,
                1.9602739208802467,
                0.47802555367561905,
                0.1918554115726916,
                -2.934579680485015
            ]
        },
        {
            "positions": [
                -0.044084619586227225,
                -1.6691092770458078,
                1.9140438419759431,
                0.6287141431723999,
                0.087738704140921,
                -2.918635421731308
            ]
        },
        {
            "positions": [
                -0.017377460506860315,
                -1.695968904467096,
                1.8678137630716398,
                0.7794027326691809,
                -0.016378003290849596,
                -2.9026911629776015
            ]
        },
        {
            "positions": [
                0.047724917817655796,
                -1.7128513470001194,
                1.9177189607130287,
                0.6610212309246597,
                0.05729325840208334,
                -2.9315470153420193
            ]
        },
        {
            "positions": [
                0.1128272961421719,
                -1.729733789533143,
                1.9676241583544178,
                0.5426397291801385,
                0.13096452009501627,
                -2.9604028677064376
            ]
        },
        {
            "positions": [
                0.17792967446668803,
                -1.7466162320661665,
                2.0175293559958067,
                0.4242582274356172,
                0.2046357817879492,
                -2.9892587200708554
            ]
        },
        {
            "positions": [
                0.24303205279120413,
                -1.7634986745991899,
                2.0674345536371956,
                0.305876725691096,
                0.27830704348088214,
                -3.018114572435273
            ]
        },
        {
            "positions": [
                0.30813443111572025,
                -1.7803811171322133,
                2.117339751278585,
                0.1874952239465747,
                0.3519783051738151,
                -3.046970424799691
            ]
        },
        {
            "positions": [
                0.3732368094402364,
                -1.7972635596652369,
                2.167244948919974,
                0.06911372220205347,
                0.425649566866748,
                -3.075826277164109
            ]
        },
        {
            "positions": [
                0.43833918776475256,
                -1.8141460021982603,
                2.2171501465613628,
                -0.04926777954246771,
                0.49932082855968096,
                -3.104682129528527
            ]
        },
        {
            "positions": [
                0.5275118145089192,
                -1.8438211932623005,
                2.2747611520393876,
                -0.18461525093567577,
                0.5660743696521253,
                -3.1212275926898743
            ]
        },
        {
            "positions": [
                0.6166844412530857,
                -1.8734963843263408,
                2.332372157517413,
                -0.3199627223288838,
                0.6328279107445696,
                -3.1377730558512216
            ]
        },
        {
            "positions": [
                0.7058570679972523,
                -1.903171575390381,
                2.3899831629954376,
                -0.45531019372209186,
                0.6995814518370139,
                -3.154318519012569
            ]
        }
    ]
}