{
    "goal": {
        "global_pose": {
            "orientation": {
                "w": 0.7031023502349854,
                "x": -0.7110244035720825,
                "y": 0.007748599164187908,
                "z": 0.005598929710686207
            },
            "position": {
                "x": 0.11585023208521307,
                "y": 0.44412534475326537,
                "z": 0.3711530566215515
            }
        },
        "name": "move_to_auspresseinheit_A"
    },
    "id": "BiEST_move_to_auspresseinheit_A_78",
    "joint_names": [
        "shoulder_pan_joint",
        "shoulder_lift_joint",
        "elbow_joint",
        "wrist_1_joint",
        "wrist_2_joint",
        "wrist_3_joint"
    ],
    "metrics": {
        "cart_traj_len": 1.686399645212678,
        "distance_elbow_joint": 1.163484550060382,
        "distance_shoulder_lift_joint": 0.5330546181798066,
        "distance_shoulder_pan_joint": 3.10183004904573,
        "distance_wrist_1_joint": 3.7771882805151566,
        "distance_wrist_2_joint": 0.7026625691752508,
        "distance_wrist_3_joint": 3.137713631924588,
        "smoothness": 0.8780834817275894,
        "time": 0.127817707,
        "traj_len": 3.5236250792189736,
        "weighted_distance": 4.8136484928212715
    },
    "planner": "BiEST",
    "start": {
        "state": {
            "elbow_joint": 2.422574709923281,
            "shoulder_lift_joint": -1.3736533754116391,
            "shoulder_pan_joint": -0.33786336945926293,
            "wrist_1_joint": -1.0288603412921917,
            "wrist_2_joint": 1.2330224858903978,
            "wrist_3_joint": -3.094022268022082
        }
    },
    "waypoints": [
        {
            "positions": [
                -0.33786336945926293,
                -1.3736533754116391,
                2.422574709923281,
                -1.0288603412921917,
                1.2330224858903978,
                -3.094022268022082
            ]
        },
        {
            "positions": [
                -0.4022802898000414,
                -1.3922748034064485,
                2.385179412511686,
                -0.8927650861931514,
                1.194331637108725,
                -2.997622030506224
            ]
        },
        {
            "positions": [
                -0.4666972101408198,
                -1.4108962314012579,
                2.347784115100091,
                -0.7566698310941111,
                1.1556407883270519,
                -2.9012217929903663
            ]
        },
        {
            "positions": [
                -0.5311141304815983,
                -1.4295176593960672,
                2.3103888176884957,
                -0.6205745759950708,
                1.116949939545379,
                -2.8048215554745086
            ]
        },
        {
            "positions": [
                -0.5955310508223767,
                -1.4481390873908766,
                2.2729935202769007,
                -0.4844793208960305,
                1.078259090763706,
                -2.7084213179586505
            ]
        },
        {
            "positions": [
                -0.6599479711631551,
                -1.466760515385686,
                2.2355982228653057,
                -0.3483840657969902,
                1.0395682419820331,
                -2.6120210804427924
            ]
        },
        {
            "positions": [
                -0.7243648915039336,
                -1.4853819433804953,
                2.1982029254537103,
                -0.21228881069794991,
                1.0008773932003603,
                -2.5156208429269347
            ]
        },
        {
            "positions": [
                -0.788781811844712,
                -1.5040033713753047,
                2.1608076280421153,
                -0.07619355559890961,
                0.9621865444186873,
                -2.419220605411077
            ]
        },
        {
            "positions": [
                -0.8531987321854904,
                -1.522624799370114,
                2.1234123306305204,
                0.05990169950013069,
                0.9234956956370144,
                -2.322820367895219
            ]
        },
        {
            "positions": [
                -0.9176156525262689,
                -1.5412462273649234,
                2.0860170332189254,
                0.19599695459917088,
                0.8848048468553414,
                -2.2264201303793607
            ]
        },
        {
            "positions": [
                -0.9820325728670474,
                -1.5598676553597328,
                2.0486217358073304,
                0.3320922096982113,
                0.8461139980736685,
                -2.130019892863503
            ]
        },
        {
            "positions": [
                -1.0464494932078257,
                -1.5784890833545422,
                2.011226438395735,
                0.4681874647972517,
                0.8074231492919957,
                -2.0336196553476453
            ]
        },
        {
            "positions": [
                -1.1108664135486042,
                -1.5971105113493516,
                1.97383114098414,
                0.6042827198962919,
                0.7687323005103227,
                -1.9372194178317872
            ]
        },
        {
            "positions": [
                -1.1752833338893827,
                -1.615731939344161,
                1.936435843572545,
                0.7403779749953321,
                0.7300414517286498,
                -1.8408191803159293
            ]
        },
        {
            "positions": [
                -1.239700254230161,
                -1.6343533673389703,
                1.8990405461609499,
                0.8764732300943725,
                0.6913506029469769,
                -1.7444189428000714
            ]
        },
        {
            "positions": [
                -1.3041171745709395,
                -1.6529747953337797,
                1.8616452487493547,
                1.012568485193413,
                0.652659754165304,
                -1.6480187052842135
            ]
        },
        {
            "positions": [
                -1.368534094911718,
                -1.671596223328589,
                1.8242499513377597,
                1.1486637402924533,
                0.613968905383631,
                -1.5516184677683555
            ]
        },
        {
            "positions": [
                -1.2390866371871383,
                -1.6862907089700176,
                1.8595724383049386,
                1.0486847278592966,
                0.6191944671754113,
                -1.6513253322477843
            ]
        },
        {
            "positions": [
                -1.1096391794625586,
                -1.700985194611446,
                1.8948949252721172,
                0.9487057154261396,
                0.6244200289671915,
                -1.751032196727213
            ]
        },
        {
            "positions": [
                -0.9801917217379791,
                -1.7156796802528747,
                1.930217412239296,
                0.8487267029929827,
                0.6296455907589718,
                -1.8507390612066421
            ]
        },
        {
            "positions": [
                -0.8507442640133994,
                -1.7303741658943033,
                1.9655398992064748,
                0.7487476905598258,
                0.634871152550752,
                -1.950445925686071
            ]
        },
        {
            "positions": [
                -0.7212968062888198,
                -1.7450686515357317,
                2.0008623861736536,
                0.6487686781266689,
                0.6400967143425323,
                -2.0501527901655
            ]
        },
        {
            "positions": [
                -0.5918493485642402,
                -1.7597631371771603,
                2.0361848731408325,
                0.5487896656935121,
                0.6453222761343126,
                -2.1498596546449287
            ]
        },
        {
            "positions": [
                -0.46240189083966055,
                -1.7744576228185889,
                2.0715073601080114,
                0.4488106532603552,
                0.6505478379260928,
                -2.2495665191243575
            ]
        },
        {
            "positions": [
                -0.3329544331150809,
                -1.7891521084600175,
                2.10682984707519,
                0.3488316408271983,
                0.6557733997178731,
                -2.3492733836037862
            ]
        },
        {
            "positions": [
                -0.20350697539050122,
                -1.8038465941014459,
                2.1421523340423687,
                0.24885262839404143,
                0.6609989615096533,
                -2.448980248083215
            ]
        },
        {
            "positions": [
                -0.07405951766592156,
                -1.8185410797428745,
                2.1774748210095476,
                0.14887361596088455,
                0.6662245233014336,
                -2.548687112562644
            ]
        },
        {
            "positions": [
                0.0553879400586581,
                -1.833235565384303,
                2.2127973079767265,
                0.04889460352772779,
                0.6714500850932138,
                -2.6483939770420726
            ]
        },
        {
            "positions": [
                0.18483539778323754,
                -1.8479300510257315,
                2.2481197949439053,
                -0.0510844089054292,
                0.6766756468849942,
                -2.7481008415215014
            ]
        },
        {
            "positions": [
                0.3142828555078172,
                -1.86262453666716,
                2.283442281911084,
                -0.1510634213385862,
                0.6819012086767744,
                -2.84780770600093
            ]
        },
        {
            "positions": [
                0.44373031323239687,
                -1.8773190223085887,
                2.3187647688782627,
                -0.25104243377174296,
                0.6871267704685546,
                -2.9475145704803594
            ]
        },
        {
            "positions": [
                0.5731777709569765,
                -1.892013507950017,
                2.3540872558454415,
                -0.3510214462048997,
                0.6923523322603349,
                -3.047221434959788
            ]
        },
        {
            "positions": [
                0.7026252286815563,
                -1.9067079935914457,
                2.3894097428126204,
                -0.45100045863805677,
                0.6975778940521151,
                -3.146928299439217
            ]
        }
    ]
}