{
    "goal": {
        "global_pose": {
            "orientation": {
                "w": 0.5084816217422485,
                "x": -0.49083608388900757,
                "y": 0.5182115435600281,
                "z": -0.4816462993621826
            },
            "position": {
                "x": 0.5540239810943604,
                "y": 0.030875300988554955,
                "z": 0.16403168439865112
            }
        },
        "name": "move_to_storage_A"
    },
    "id": "BiEST_move_to_storage_A_72",
    "joint_names": [
        "shoulder_pan_joint",
        "shoulder_lift_joint",
        "elbow_joint",
        "wrist_1_joint",
        "wrist_2_joint",
        "wrist_3_joint"
    ],
    "metrics": {
        "cart_traj_len": 0.35295802431312856,
        "distance_elbow_joint": 0.45260781612293277,
        "distance_shoulder_lift_joint": 0.23507231030593068,
        "distance_shoulder_pan_joint": 0.4599187916503816,
        "distance_wrist_1_joint": 0.258637952968363,
        "distance_wrist_2_joint": 1.10563299224765,
        "distance_wrist_3_joint": 0.11079601925478944,
        "smoothness": 8.881784197001252e-16,
        "time": 0.052022792,
        "traj_len": 1.619464690121414,
        "weighted_distance": 2.0514699281918904
    },
    "planner": "BiEST",
    "start": {
        "state": {
            "elbow_joint": 1.9715463870305268,
            "shoulder_lift_joint": -1.1394903361783484,
            "shoulder_pan_joint": 0.12281147578464417,
            "wrist_1_joint": -0.7804599489681411,
            "wrist_2_joint": 0.12958660307563738,
            "wrist_3_joint": -3.1924946282119055
        }
    },
    "waypoints": [
        {
            "positions": [
                0.12281147578464417,
                -1.1394903361783484,
                1.9715463870305268,
                -0.7804599489681411,
                0.12958660307563738,
                -3.1924946282119055
            ]
        },
        {
            "positions": [
                0.057108791263161096,
                -1.1730720947934814,
                2.03620464647666,
                -0.8174082279636216,
                0.28753417339673026,
                -3.1766666254612215
            ]
        },
        {
            "positions": [
                -0.00859389325832198,
                -1.2066538534086142,
                2.1008629059227935,
                -0.8543565069591019,
                0.4454817437178231,
                -3.160838622710537
            ]
        },
        {
            "positions": [
                -0.07429657777980507,
                -1.2402356120237472,
                2.1655211653689266,
                -0.8913047859545824,
                0.603429314038916,
                -3.145010619959853
            ]
        },
        {
            "positions": [
                -0.13999926230128812,
                -1.2738173706388802,
                2.2301794248150597,
                -0.9282530649500628,
                0.7613768843600088,
                -3.129182617209169
            ]
        },
        {
            "positions": [
                -0.2057019468227712,
                -1.3073991292540132,
                2.294837684261193,
                -0.9652013439455432,
                0.9193244546811017,
                -3.1133546144584847
            ]
        },
        {
            "positions": [
                -0.2714046313442543,
                -1.340980887869146,
                2.3594959437073264,
                -1.0021496229410236,
                1.0772720250021945,
                -3.0975266117078
            ]
        },
        {
            "positions": [
                -0.3371073158657374,
                -1.374562646484279,
                2.4241542031534595,
                -1.039097901936504,
                1.2352195953232874,
                -3.081698608957116
            ]
        }
    ]
}