{
    "goal": {
        "global_pose": {
            "orientation": {
                "w": 0.7047431468963623,
                "x": -0.7094548344612122,
                "y": 0.0024358443915843964,
                "z": -0.0022348060738295317
            },
            "position": {
                "x": 0.6094750761985779,
                "y": 0.3671506643295288,
                "z": 0.19426114857196808
            }
        },
        "name": "move_to_magneteinheit_A"
    },
    "id": "BiEST_move_to_magneteinheit_A_111",
    "joint_names": [
        "shoulder_pan_joint",
        "shoulder_lift_joint",
        "elbow_joint",
        "wrist_1_joint",
        "wrist_2_joint",
        "wrist_3_joint"
    ],
    "metrics": {
        "cart_traj_len": 2.0623969917988814,
        "distance_elbow_joint": 3.872918376947908,
        "distance_shoulder_lift_joint": 1.0530983278895638,
        "distance_shoulder_pan_joint": 1.2418163280907142,
        "distance_wrist_1_joint": 1.1212229248557746,
        "distance_wrist_2_joint": 1.4429662860538952,
        "distance_wrist_3_joint": 1.8863142534738668,
        "smoothness": 6.344131601627106e-16,
        "time": 0.18649474,
        "traj_len": 3.2585789076392984,
        "weighted_distance": 4.11766368407731
    },
    "planner": "BiEST",
    "start": {
        "state": {
            "elbow_joint": -1.919643507792019,
            "shoulder_lift_joint": -0.07675430207160344,
            "shoulder_pan_joint": -1.1188671864651873,
            "wrist_1_joint": 0.42560062535961957,
            "wrist_2_joint": 1.5706038300724876,
            "wrist_3_joint": 1.1188968870953055
        }
    },
    "waypoints": [
        {
            "positions": [
                -1.1188671864651873,
                -0.07675430207160344,
                -1.919643507792019,
                0.42560062535961957,
                1.5706038300724876,
                1.1188968870953055
            ]
        },
        {
            "positions": [
                -1.0728739891284942,
                -0.11575794384529098,
                -1.7762020864235781,
                0.3840738503649612,
                1.5171606342927138,
                1.188760377964708
            ]
        },
        {
            "positions": [
                -1.026880791791801,
                -0.15476158561897851,
                -1.632760665055137,
                0.34254707537030293,
                1.46371743851294,
                1.2586238688341105
            ]
        },
        {
            "positions": [
                -0.980887594455108,
                -0.19376522739266608,
                -1.489319243686696,
                0.30102030037564464,
                1.4102742427331658,
                1.328487359703513
            ]
        },
        {
            "positions": [
                -0.9348943971184149,
                -0.23276886916635361,
                -1.345877822318255,
                0.2594935253809863,
                1.356831046953392,
                1.3983508505729154
            ]
        },
        {
            "positions": [
                -0.8889011997817218,
                -0.2717725109400412,
                -1.2024364009498139,
                0.21796675038632798,
                1.303387851173618,
                1.4682143414423179
            ]
        },
        {
            "positions": [
                -0.8429080024450286,
                -0.3107761527137287,
                -1.058994979581373,
                0.17643997539166967,
                1.2499446553938443,
                1.5380778323117203
            ]
        },
        {
            "positions": [
                -0.7969148051083356,
                -0.34977979448741625,
                -0.9155535582129319,
                0.13491320039701138,
                1.1965014596140704,
                1.6079413231811228
            ]
        },
        {
            "positions": [
                -0.7509216077716424,
                -0.3887834362611038,
                -0.772112136844491,
                0.09338642540235303,
                1.1430582638342965,
                1.6778048140505253
            ]
        },
        {
            "positions": [
                -0.7049284104349494,
                -0.4277870780347914,
                -0.6286707154760498,
                0.051859650407694746,
                1.0896150680545227,
                1.7476683049199278
            ]
        },
        {
            "positions": [
                -0.6589352130982562,
                -0.4667907198084789,
                -0.48522929410760884,
                0.010332875413036402,
                1.0361718722747488,
                1.8175317957893302
            ]
        },
        {
            "positions": [
                -0.612942015761563,
                -0.5057943615821665,
                -0.3417878727391679,
                -0.031193899581621887,
                0.9827286764949748,
                1.8873952866587327
            ]
        },
        {
            "positions": [
                -0.56694881842487,
                -0.5447980033558539,
                -0.1983464513707267,
                -0.07272067457628023,
                0.9292854807152009,
                1.9572587775281352
            ]
        },
        {
            "positions": [
                -0.5209556210881768,
                -0.5838016451295416,
                -0.05490503000228575,
                -0.11424744957093852,
                0.875842284935427,
                2.027122268397538
            ]
        },
        {
            "positions": [
                -0.4749624237514838,
                -0.622805286903229,
                0.08853639136615521,
                -0.1557742245655968,
                0.8223990891556531,
                2.09698575926694
            ]
        },
        {
            "positions": [
                -0.4289692264147905,
                -0.6618089286769167,
                0.2319778127345964,
                -0.1973009995602552,
                0.7689558933758791,
                2.1668492501363428
            ]
        },
        {
            "positions": [
                -0.38297602907809747,
                -0.7008125704506041,
                0.3754192341030371,
                -0.2388277745549135,
                0.7155126975961054,
                2.236712741005745
            ]
        },
        {
            "positions": [
                -0.3369828317414043,
                -0.7398162122242917,
                0.5188606554714787,
                -0.2803545495495719,
                0.6620695018163313,
                2.3065762318751477
            ]
        },
        {
            "positions": [
                -0.29098963440471126,
                -0.7788198539979794,
                0.6623020768399195,
                -0.3218813245442301,
                0.6086263060365575,
                2.37643972274455
            ]
        },
        {
            "positions": [
                -0.2449964370680181,
                -0.8178234957716668,
                0.8057434982083607,
                -0.3634080995388885,
                0.5551831102567835,
                2.4463032136139526
            ]
        },
        {
            "positions": [
                -0.19900323973132505,
                -0.8568271375453544,
                0.9491849195768014,
                -0.40493487453354676,
                0.5017399144770098,
                2.516166704483355
            ]
        },
        {
            "positions": [
                -0.1530100423946319,
                -0.8958307793190419,
                1.0926263409452426,
                -0.44646164952820516,
                0.44829671869723575,
                2.5860301953527576
            ]
        },
        {
            "positions": [
                -0.10701684505793874,
                -0.9348344210927295,
                1.2360677623136833,
                -0.48798842452286334,
                0.3948535229174619,
                2.65589368622216
            ]
        },
        {
            "positions": [
                -0.06102364772124558,
                -0.9738380628664172,
                1.3795091836821245,
                -0.5295151995175218,
                0.34141032713768804,
                2.7257571770915625
            ]
        },
        {
            "positions": [
                -0.01503045038455264,
                -1.0128417046401046,
                1.5229506050505657,
                -0.57104197451218,
                0.2879671313579142,
                2.7956206679609648
            ]
        },
        {
            "positions": [
                0.03096274695214052,
                -1.0518453464137922,
                1.6663920264190069,
                -0.6125687495068384,
                0.2345239355781401,
                2.8654841588303674
            ]
        },
        {
            "positions": [
                0.07695594428883368,
                -1.0908489881874797,
                1.8098334477874476,
                -0.6540955245014966,
                0.18108073979836647,
                2.9353476496997697
            ]
        },
        {
            "positions": [
                0.12294914162552682,
                -1.1298526299611673,
                1.9532748691558885,
                -0.6956222994961551,
                0.12763754401859234,
                3.0052111405691724
            ]
        }
    ]
}