{
    "goal": {
        "global_pose": {
            "orientation": {
                "w": 0.7047431468963623,
                "x": -0.7094548344612122,
                "y": 0.0024358443915843964,
                "z": -0.0022348060738295317
            },
            "position": {
                "x": 0.6094750761985779,
                "y": 0.3671506643295288,
                "z": 0.19426114857196808
            }
        },
        "name": "move_to_magneteinheit_A"
    },
    "id": "BiEST_move_to_magneteinheit_A_30",
    "joint_names": [
        "shoulder_pan_joint",
        "shoulder_lift_joint",
        "elbow_joint",
        "wrist_1_joint",
        "wrist_2_joint",
        "wrist_3_joint"
    ],
    "metrics": {
        "cart_traj_len": 1.8779838844124288,
        "distance_elbow_joint": 3.915177152952518,
        "distance_shoulder_lift_joint": 0.7011239062631046,
        "distance_shoulder_pan_joint": 1.2432467547176578,
        "distance_wrist_1_joint": 1.5002022034163858,
        "distance_wrist_2_joint": 1.7089148668125704,
        "distance_wrist_3_joint": 1.1129899067805693,
        "smoothness": 2.631639764355545e-16,
        "time": 0.051527637,
        "traj_len": 3.1908705381044222,
        "weighted_distance": 3.9518035976921855
    },
    "planner": "BiEST",
    "start": {
        "state": {
            "elbow_joint": -1.919643507792019,
            "shoulder_lift_joint": -0.07675430207160344,
            "shoulder_pan_joint": -1.1188671864651873,
            "wrist_1_joint": 0.42560062535961957,
            "wrist_2_joint": 1.5706038300724876,
            "wrist_3_joint": 1.1188968870953055
        }
    },
    "waypoints": [
        {
            "positions": [
                -1.1188671864651873,
                -0.07675430207160344,
                -1.919643507792019,
                0.42560062535961957,
                1.5706038300724876,
                1.1188968870953055
            ]
        },
        {
            "positions": [
                -1.0710500035914312,
                -0.10372060615864594,
                -1.7690597711399991,
                0.48330071010640363,
                1.5048763351950811,
                1.0760895829883605
            ]
        },
        {
            "positions": [
                -1.0232328207176753,
                -0.13068691024568843,
                -1.6184760344879792,
                0.5410007948531877,
                1.4391488403176744,
                1.0332822788814156
            ]
        },
        {
            "positions": [
                -0.9754156378439192,
                -0.1576532143327309,
                -1.4678922978359592,
                0.5987008795999718,
                1.373421345440268,
                0.9904749747744707
            ]
        },
        {
            "positions": [
                -0.927598454970163,
                -0.18461951841977342,
                -1.3173085611839395,
                0.6564009643467559,
                1.3076938505628615,
                0.9476676706675257
            ]
        },
        {
            "positions": [
                -0.879781272096407,
                -0.2115858225068159,
                -1.1667248245319195,
                0.71410104909354,
                1.2419663556854548,
                0.9048603665605807
            ]
        },
        {
            "positions": [
                -0.831964089222651,
                -0.23855212659385838,
                -1.0161410878798995,
                0.771801133840324,
                1.1762388608080483,
                0.8620530624536358
            ]
        },
        {
            "positions": [
                -0.7841469063488948,
                -0.26551843068090086,
                -0.8655573512278796,
                0.829501218587108,
                1.1105113659306418,
                0.8192457583466908
            ]
        },
        {
            "positions": [
                -0.7363297234751387,
                -0.29248473476794334,
                -0.7149736145758596,
                0.8872013033338921,
                1.0447838710532351,
                0.7764384542397458
            ]
        },
        {
            "positions": [
                -0.6885125406013828,
                -0.3194510388549858,
                -0.5643898779238399,
                0.9449013880806763,
                0.9790563761758286,
                0.7336311501328008
            ]
        },
        {
            "positions": [
                -0.6406953577276266,
                -0.34641734294202836,
                -0.4138061412718197,
                1.0026014728274604,
                0.913328881298422,
                0.6908238460258558
            ]
        },
        {
            "positions": [
                -0.5928781748538706,
                -0.37338364702907084,
                -0.26322240461979995,
                1.0603015575742443,
                0.8476013864210155,
                0.6480165419189108
            ]
        },
        {
            "positions": [
                -0.5450609919801145,
                -0.4003499511161133,
                -0.11263866796777977,
                1.1180016423210284,
                0.7818738915436089,
                0.6052092378119659
            ]
        },
        {
            "positions": [
                -0.49724380910635846,
                -0.4273162552031558,
                0.03794506868423997,
                1.1757017270678125,
                0.7161463966662024,
                0.5624019337050209
            ]
        },
        {
            "positions": [
                -0.44942662623260243,
                -0.4542825592901983,
                0.18852880533625993,
                1.2334018118145964,
                0.6504189017887959,
                0.5195946295980759
            ]
        },
        {
            "positions": [
                -0.4016094433588464,
                -0.48124886337724077,
                0.33911254198827945,
                1.2911018965613805,
                0.5846914069113893,
                0.476787325491131
            ]
        },
        {
            "positions": [
                -0.35379226048509016,
                -0.5082151674642833,
                0.48969627864029985,
                1.3488019813081646,
                0.5189639120339826,
                0.4339800213841859
            ]
        },
        {
            "positions": [
                -0.30597507761133413,
                -0.5351814715513258,
                0.6402800152923198,
                1.4065020660549488,
                0.45323641715657614,
                0.391172717277241
            ]
        },
        {
            "positions": [
                -0.2581578947375781,
                -0.5621477756383683,
                0.7908637519443393,
                1.4642021508017329,
                0.38750892227916967,
                0.348365413170296
            ]
        },
        {
            "positions": [
                -0.21034071186382208,
                -0.5891140797254106,
                0.9414474885963593,
                1.5219022355485168,
                0.3217814274017632,
                0.3055581090633511
            ]
        },
        {
            "positions": [
                -0.16252352899006595,
                -0.6160803838124533,
                1.0920312252483797,
                1.5796023202953011,
                0.2560539325243565,
                0.262750804956406
            ]
        },
        {
            "positions": [
                -0.11470634611630981,
                -0.6430466878994958,
                1.2426149619003997,
                1.637302405042085,
                0.19032643764695,
                0.21994350084946113
            ]
        },
        {
            "positions": [
                -0.0668891632425539,
                -0.6700129919865383,
                1.3931986985524192,
                1.6950024897888691,
                0.12459894276954331,
                0.17713619674251613
            ]
        },
        {
            "positions": [
                -0.01907198036879776,
                -0.6969792960735808,
                1.5437824352044391,
                1.752702574535653,
                0.05887144789213683,
                0.13432889263557124
            ]
        },
        {
            "positions": [
                0.028745202504958378,
                -0.7239456001606233,
                1.6943661718564595,
                1.8104026592824374,
                -0.00685604698526987,
                0.09152158852862624
            ]
        },
        {
            "positions": [
                0.07656238537871429,
                -0.7509119042476657,
                1.844949908508479,
                1.8681027440292213,
                -0.07258354186267635,
                0.04871428442168124
            ]
        },
        {
            "positions": [
                0.1243795682524704,
                -0.7778782083347081,
                1.9955336451604988,
                1.9258028287760054,
                -0.13831103674008274,
                0.005906980314736193
            ]
        }
    ]
}