{
    "goal": {
        "global_pose": {
            "orientation": {
                "w": 0.5084816217422485,
                "x": -0.49083608388900757,
                "y": 0.5182115435600281,
                "z": -0.4816462993621826
            },
            "position": {
                "x": 0.5540239810943604,
                "y": 0.030875300988554955,
                "z": 0.16403168439865112
            }
        },
        "name": "move_to_storage_A"
    },
    "id": "BiEST_move_to_storage_A_106",
    "joint_names": [
        "shoulder_pan_joint",
        "shoulder_lift_joint",
        "elbow_joint",
        "wrist_1_joint",
        "wrist_2_joint",
        "wrist_3_joint"
    ],
    "metrics": {
        "cart_traj_len": 0.35225065981678005,
        "distance_elbow_joint": 0.4490421533484379,
        "distance_shoulder_lift_joint": 0.2356255655429944,
        "distance_shoulder_pan_joint": 0.45855880207597555,
        "distance_wrist_1_joint": 0.2366268102257404,
        "distance_wrist_2_joint": 1.1067091761174273,
        "distance_wrist_3_joint": 0.0895535249023407,
        "smoothness": 4.440892098500626e-16,
        "time": 0.049094808000000004,
        "traj_len": 1.6050283586942993,
        "weighted_distance": 2.024489829157155
    },
    "planner": "BiEST",
    "start": {
        "state": {
            "elbow_joint": 1.9715463870305268,
            "shoulder_lift_joint": -1.1394903361783484,
            "shoulder_pan_joint": 0.12281147578464417,
            "wrist_1_joint": -0.7804599489681411,
            "wrist_2_joint": 0.12958660307563738,
            "wrist_3_joint": -3.1924946282119055
        }
    },
    "waypoints": [
        {
            "positions": [
                0.12281147578464417,
                -1.1394903361783484,
                1.9715463870305268,
                -0.7804599489681411,
                0.12958660307563738,
                -3.1924946282119055
            ]
        },
        {
            "positions": [
                0.05730307548807624,
                -1.173151131255919,
                2.0356952660803036,
                -0.8142637790003897,
                0.28768791394955556,
                -3.1797012675115712
            ]
        },
        {
            "positions": [
                -0.00820532480849169,
                -1.2068119263334895,
                2.0998441451300804,
                -0.8480676090326383,
                0.4457892248234737,
                -3.166907906811237
            ]
        },
        {
            "positions": [
                -0.07371372510505962,
                -1.2404727214110602,
                2.1639930241798573,
                -0.881871439064887,
                0.6038905356973919,
                -3.1541145461109026
            ]
        },
        {
            "positions": [
                -0.13922212540162754,
                -1.274133516488631,
                2.228141903229634,
                -0.9156752690971356,
                0.7619918465713101,
                -3.141321185410568
            ]
        },
        {
            "positions": [
                -0.2047305256981955,
                -1.3077943115662016,
                2.292290782279411,
                -0.9494790991293842,
                0.9200931574452283,
                -3.1285278247102335
            ]
        },
        {
            "positions": [
                -0.2702389259947634,
                -1.341455106643772,
                2.356439661329188,
                -0.9832829291616328,
                1.0781944683191464,
                -3.115734464009899
            ]
        },
        {
            "positions": [
                -0.33574732629133136,
                -1.3751159017213428,
                2.4205885403789646,
                -1.0170867591938815,
                1.2362957791930647,
                -3.102941103309565
            ]
        }
    ]
}