{
    "goal": {
        "global_pose": {
            "orientation": {
                "w": 0.5084816217422485,
                "x": -0.49083608388900757,
                "y": 0.5182115435600281,
                "z": -0.4816462993621826
            },
            "position": {
                "x": 0.5540239810943604,
                "y": 0.030875300988554955,
                "z": 0.16403168439865112
            }
        },
        "name": "move_to_storage_A"
    },
    "id": "BiEST_move_to_storage_A_126",
    "joint_names": [
        "shoulder_pan_joint",
        "shoulder_lift_joint",
        "elbow_joint",
        "wrist_1_joint",
        "wrist_2_joint",
        "wrist_3_joint"
    ],
    "metrics": {
        "cart_traj_len": 0.3538274082378493,
        "distance_elbow_joint": 0.44872909294870933,
        "distance_shoulder_lift_joint": 0.23437142736868566,
        "distance_shoulder_pan_joint": 0.4636910330325158,
        "distance_wrist_1_joint": 0.23610248943455814,
        "distance_wrist_2_joint": 1.0958684543407304,
        "distance_wrist_3_joint": 0.09858010997302635,
        "smoothness": 4.440892098500626e-16,
        "time": 0.037003284,
        "traj_len": 1.6054104170268193,
        "weighted_distance": 2.02644362636111
    },
    "planner": "BiEST",
    "start": {
        "state": {
            "elbow_joint": 1.9715463870305268,
            "shoulder_lift_joint": -1.1394903361783484,
            "shoulder_pan_joint": 0.12281147578464417,
            "wrist_1_joint": -0.7804599489681411,
            "wrist_2_joint": 0.12958660307563738,
            "wrist_3_joint": -3.1924946282119055
        }
    },
    "waypoints": [
        {
            "positions": [
                0.12281147578464417,
                -1.1394903361783484,
                1.9715463870305268,
                -0.7804599489681411,
                0.12958660307563738,
                -3.1924946282119055
            ]
        },
        {
            "positions": [
                0.056569899637141915,
                -1.1729719686595892,
                2.0356505431660565,
                -0.8141888760302208,
                0.28613923941002745,
                -3.178411755358616
            ]
        },
        {
            "positions": [
                -0.009671676510360341,
                -1.20645360114083,
                2.0997546993015868,
                -0.8479178030923006,
                0.4426918757444175,
                -3.1643288825053264
            ]
        },
        {
            "positions": [
                -0.0759132526578626,
                -1.2399352336220708,
                2.1638588554371165,
                -0.8816467301543802,
                0.5992445120788076,
                -3.150246009652037
            ]
        },
        {
            "positions": [
                -0.14215482880536484,
                -1.2734168661033116,
                2.2279630115726463,
                -0.91537565721646,
                0.7557971484131977,
                -3.1361631367987477
            ]
        },
        {
            "positions": [
                -0.2083964049528671,
                -1.3068984985845524,
                2.2920671677081765,
                -0.9491045842785397,
                0.9123497847475878,
                -3.1220802639454583
            ]
        },
        {
            "positions": [
                -0.27463798110036935,
                -1.3403801310657932,
                2.3561713238437063,
                -0.9828335113406195,
                1.0689024210819777,
                -3.1079973910921685
            ]
        },
        {
            "positions": [
                -0.3408795572478716,
                -1.373861763547034,
                2.420275479979236,
                -1.0165624384026992,
                1.2254550574163678,
                -3.093914518238879
            ]
        }
    ]
}