{
    "goal": {
        "global_pose": {
            "orientation": {
                "w": 0.7031023502349854,
                "x": -0.7110244035720825,
                "y": 0.007748599164187908,
                "z": 0.005598929710686207
            },
            "position": {
                "x": 0.11585023208521307,
                "y": 0.44412534475326537,
                "z": 0.3711530566215515
            }
        },
        "name": "move_to_auspresseinheit_A"
    },
    "id": "BiEST_move_to_auspresseinheit_A_81",
    "joint_names": [
        "shoulder_pan_joint",
        "shoulder_lift_joint",
        "elbow_joint",
        "wrist_1_joint",
        "wrist_2_joint",
        "wrist_3_joint"
    ],
    "metrics": {
        "cart_traj_len": 1.5004180763130135,
        "distance_elbow_joint": 0.24660143507383836,
        "distance_shoulder_lift_joint": 1.0948968924369458,
        "distance_shoulder_pan_joint": 3.331108490427445,
        "distance_wrist_1_joint": 0.6862291675146319,
        "distance_wrist_2_joint": 2.498652195617294,
        "distance_wrist_3_joint": 3.3620760055073347,
        "smoothness": 0.9306369012595573,
        "time": 0.088384533,
        "traj_len": 3.3495617902312973,
        "weighted_distance": 4.596585424064703
    },
    "planner": "BiEST",
    "start": {
        "state": {
            "elbow_joint": 2.422574709923281,
            "shoulder_lift_joint": -1.3736533754116391,
            "shoulder_pan_joint": -0.33786336945926293,
            "wrist_1_joint": -1.0288603412921917,
            "wrist_2_joint": 1.2330224858903978,
            "wrist_3_joint": -3.094022268022082
        }
    },
    "waypoints": [
        {
            "positions": [
                -0.33786336945926293,
                -1.3736533754116391,
                2.422574709923281,
                -1.0288603412921917,
                1.2330224858903978,
                -3.094022268022082
            ]
        },
        {
            "positions": [
                -0.4196724478720391,
                -1.4317942473151446,
                2.4126538838316858,
                -1.0331841629806413,
                1.124632523301355,
                -2.975458464015975
            ]
        },
        {
            "positions": [
                -0.5014815262848152,
                -1.4899351192186503,
                2.40273305774009,
                -1.0375079846690907,
                1.0162425607123124,
                -2.8568946600098677
            ]
        },
        {
            "positions": [
                -0.5832906046975914,
                -1.5480759911221558,
                2.3928122316484948,
                -1.0418318063575402,
                0.9078525981232697,
                -2.7383308560037607
            ]
        },
        {
            "positions": [
                -0.6650996831103676,
                -1.6062168630256615,
                2.3828914055568995,
                -1.0461556280459898,
                0.7994626355342271,
                -2.6197670519976537
            ]
        },
        {
            "positions": [
                -0.7469087615231438,
                -1.664357734929167,
                2.372970579465304,
                -1.0504794497344394,
                0.6910726729451844,
                -2.5012032479915467
            ]
        },
        {
            "positions": [
                -0.8287178399359199,
                -1.7224986068326724,
                2.3630497533737085,
                -1.0548032714228888,
                0.5826827103561417,
                -2.3826394439854393
            ]
        },
        {
            "positions": [
                -0.9105269183486961,
                -1.7806394787361781,
                2.353128927282113,
                -1.0591270931113383,
                0.47429274776709907,
                -2.2640756399793323
            ]
        },
        {
            "positions": [
                -0.9923359967614722,
                -1.8387803506396836,
                2.343208101190518,
                -1.063450914799788,
                0.3659027851780564,
                -2.1455118359732253
            ]
        },
        {
            "positions": [
                -1.0741450751742485,
                -1.8969212225431893,
                2.333287275098922,
                -1.0677747364882373,
                0.25751282258901365,
                -2.026948031967118
            ]
        },
        {
            "positions": [
                -1.1559541535870246,
                -1.9550620944466948,
                2.323366449007327,
                -1.0720985581766869,
                0.149122859999971,
                -1.9083842279610108
            ]
        },
        {
            "positions": [
                -1.2377632319998007,
                -2.0132029663502005,
                2.3134456229157316,
                -1.0764223798651364,
                0.04073289741092845,
                -1.7898204239549038
            ]
        },
        {
            "positions": [
                -1.319572310412577,
                -2.071343838253706,
                2.3035247968241364,
                -1.080746201553586,
                -0.06765706517811432,
                -1.6712566199487966
            ]
        },
        {
            "positions": [
                -1.4013813888253532,
                -2.1294847101572114,
                2.2936039707325406,
                -1.0850700232420354,
                -0.17604702776715708,
                -1.5526928159426894
            ]
        },
        {
            "positions": [
                -1.4831904672381293,
                -2.187625582060717,
                2.2836831446409454,
                -1.089393844930485,
                -0.2844369903561996,
                -1.4341290119365824
            ]
        },
        {
            "positions": [
                -1.337471707728224,
                -2.168897269674859,
                2.2908638026270456,
                -1.0476808006720624,
                -0.21902414239815313,
                -1.547607861898038
            ]
        },
        {
            "positions": [
                -1.1917529482183187,
                -2.1501689572890013,
                2.298044460613146,
                -1.0059677564136398,
                -0.15361129444010663,
                -1.6610867118594936
            ]
        },
        {
            "positions": [
                -1.0460341887084135,
                -2.1314406449031438,
                2.305225118599246,
                -0.9642547121552172,
                -0.08819844648206013,
                -1.7745655618209493
            ]
        },
        {
            "positions": [
                -0.9003154291985083,
                -2.112712332517286,
                2.312405776585346,
                -0.9225416678967946,
                -0.02278559852401363,
                -1.888044411782405
            ]
        },
        {
            "positions": [
                -0.7545966696886031,
                -2.093984020131428,
                2.319586434571446,
                -0.8808286236383721,
                0.04262724943403284,
                -2.0015232617438605
            ]
        },
        {
            "positions": [
                -0.6088779101786976,
                -2.07525570774557,
                2.3267670925575463,
                -0.8391155793799494,
                0.10804009739207937,
                -2.1150021117053166
            ]
        },
        {
            "positions": [
                -0.46315915066879243,
                -2.056527395359712,
                2.3339477505436466,
                -0.7974025351215269,
                0.17345294535012584,
                -2.2284809616667722
            ]
        },
        {
            "positions": [
                -0.3174403911588872,
                -2.037799082973854,
                2.341128408529747,
                -0.7556894908631043,
                0.23886579330817237,
                -2.341959811628228
            ]
        },
        {
            "positions": [
                -0.17172163164898202,
                -2.0190707705879962,
                2.348309066515847,
                -0.7139764466046818,
                0.30427864126621884,
                -2.4554386615896835
            ]
        },
        {
            "positions": [
                -0.026002872139076816,
                -2.0003424582021387,
                2.3554897245019473,
                -0.6722634023462593,
                0.3696914892242653,
                -2.568917511551139
            ]
        },
        {
            "positions": [
                0.11971588737082839,
                -1.9816141458162808,
                2.3626703824880475,
                -0.6305503580878367,
                0.4351043371823118,
                -2.6823963615125948
            ]
        },
        {
            "positions": [
                0.26543464688073404,
                -1.9628858334304229,
                2.3698510404741473,
                -0.588837313829414,
                0.5005171851403584,
                -2.7958752114740504
            ]
        },
        {
            "positions": [
                0.41115340639063924,
                -1.944157521044565,
                2.3770316984602475,
                -0.5471242695709915,
                0.5659300330984048,
                -2.909354061435506
            ]
        },
        {
            "positions": [
                0.5568721659005444,
                -1.9254292086587073,
                2.3842123564463478,
                -0.5054112253125689,
                0.6313428810564513,
                -3.0228329113969616
            ]
        },
        {
            "positions": [
                0.7025909254104494,
                -1.9067008962728493,
                2.391393014432448,
                -0.46369818105414623,
                0.6967557290144978,
                -3.1363117613584173
            ]
        }
    ]
}