{
    "goal": {
        "global_pose": {
            "orientation": {
                "w": 0.5084816217422485,
                "x": -0.49083608388900757,
                "y": 0.5182115435600281,
                "z": -0.4816462993621826
            },
            "position": {
                "x": 0.5540239810943604,
                "y": 0.030875300988554955,
                "z": 0.16403168439865112
            }
        },
        "name": "move_to_storage_A"
    },
    "id": "BiEST_move_to_storage_A_124",
    "joint_names": [
        "shoulder_pan_joint",
        "shoulder_lift_joint",
        "elbow_joint",
        "wrist_1_joint",
        "wrist_2_joint",
        "wrist_3_joint"
    ],
    "metrics": {
        "cart_traj_len": 0.3540394947731718,
        "distance_elbow_joint": 0.45132091168703115,
        "distance_shoulder_lift_joint": 0.23455607549516566,
        "distance_shoulder_pan_joint": 0.46484659492890174,
        "distance_wrist_1_joint": 0.24657970621533287,
        "distance_wrist_2_joint": 1.0928445750096578,
        "distance_wrist_3_joint": 0.10172205756132469,
        "smoothness": 2.2204460668324854e-16,
        "time": 0.07692513200000001,
        "traj_len": 1.6099285452769057,
        "weighted_distance": 2.033405595852695
    },
    "planner": "BiEST",
    "start": {
        "state": {
            "elbow_joint": 1.9715463870305268,
            "shoulder_lift_joint": -1.1394903361783484,
            "shoulder_pan_joint": 0.12281147578464417,
            "wrist_1_joint": -0.7804599489681411,
            "wrist_2_joint": 0.12958660307563738,
            "wrist_3_joint": -3.1924946282119055
        }
    },
    "waypoints": [
        {
            "positions": [
                0.12281147578464417,
                -1.1394903361783484,
                1.9715463870305268,
                -0.7804599489681411,
                0.12958660307563738,
                -3.1924946282119055
            ]
        },
        {
            "positions": [
                0.05640481936622964,
                -1.172998346963372,
                2.036020802985817,
                -0.8156856212846172,
                0.28570725664844565,
                -3.177962905703145
            ]
        },
        {
            "positions": [
                -0.010001837052184895,
                -1.2065063577483957,
                2.100495218941107,
                -0.8509112936010933,
                0.4418279102212539,
                -3.163431183194384
            ]
        },
        {
            "positions": [
                -0.07640849347059943,
                -1.2400143685334193,
                2.1649696348963974,
                -0.8861369659175694,
                0.5979485637940621,
                -3.1488994606856235
            ]
        },
        {
            "positions": [
                -0.14281514988901395,
                -1.2735223793184431,
                2.2294440508516873,
                -0.9213626382340456,
                0.7540692173668704,
                -3.134367738176863
            ]
        },
        {
            "positions": [
                -0.20922180630742848,
                -1.3070303901034668,
                2.2939184668069776,
                -0.9565883105505217,
                0.9101898709396787,
                -3.119836015668102
            ]
        },
        {
            "positions": [
                -0.275628462725843,
                -1.3405384008884904,
                2.3583928827622676,
                -0.9918139828669978,
                1.0663105245124869,
                -3.1053042931593415
            ]
        },
        {
            "positions": [
                -0.34203511914425755,
                -1.374046411673514,
                2.422867298717558,
                -1.027039655183474,
                1.2224311780852952,
                -3.090772570650581
            ]
        }
    ]
}