{
    "goal": {
        "global_pose": {
            "orientation": {
                "w": 0.7047431468963623,
                "x": -0.7094548344612122,
                "y": 0.0024358443915843964,
                "z": -0.0022348060738295317
            },
            "position": {
                "x": 0.6094750761985779,
                "y": 0.3671506643295288,
                "z": 0.19426114857196808
            }
        },
        "name": "move_to_magneteinheit_A"
    },
    "id": "BiEST_move_to_magneteinheit_A_29",
    "joint_names": [
        "shoulder_pan_joint",
        "shoulder_lift_joint",
        "elbow_joint",
        "wrist_1_joint",
        "wrist_2_joint",
        "wrist_3_joint"
    ],
    "metrics": {
        "cart_traj_len": 2.0617940929425704,
        "distance_elbow_joint": 3.871077538987213,
        "distance_shoulder_lift_joint": 1.051312887737459,
        "distance_shoulder_pan_joint": 1.240659544615176,
        "distance_wrist_1_joint": 1.1197441490281124,
        "distance_wrist_2_joint": 1.451209419683218,
        "distance_wrist_3_joint": 1.9027658411634443,
        "smoothness": 4.75809868779962e-16,
        "time": 0.047958658,
        "traj_len": 3.2614060435975496,
        "weighted_distance": 4.124712672690407
    },
    "planner": "BiEST",
    "start": {
        "state": {
            "elbow_joint": -1.919643507792019,
            "shoulder_lift_joint": -0.07675430207160344,
            "shoulder_pan_joint": -1.1188671864651873,
            "wrist_1_joint": 0.42560062535961957,
            "wrist_2_joint": 1.5706038300724876,
            "wrist_3_joint": 1.1188968870953055
        }
    },
    "waypoints": [
        {
            "positions": [
                -1.1188671864651873,
                -0.07675430207160344,
                -1.919643507792019,
                0.42560062535961957,
                1.5706038300724876,
                1.1188968870953055
            ]
        },
        {
            "positions": [
                -1.0729168329609216,
                -0.11569181643225007,
                -1.7762702656073075,
                0.38412861984005986,
                1.5168553330471832,
                1.189369696027285
            ]
        },
        {
            "positions": [
                -1.0269664794566558,
                -0.1546293307928967,
                -1.632897023422596,
                0.34265661432050015,
                1.4631068360218789,
                1.2598425049592643
            ]
        },
        {
            "positions": [
                -0.98101612595239,
                -0.19356684515354333,
                -1.4895237812378843,
                0.30118460880094045,
                1.4093583389965745,
                1.3303153138912438
            ]
        },
        {
            "positions": [
                -0.9350657724481243,
                -0.23250435951418993,
                -1.3461505390531727,
                0.2597126032813807,
                1.35560984197127,
                1.400788122823223
            ]
        },
        {
            "positions": [
                -0.8891154189438585,
                -0.27144187387483654,
                -1.2027772968684611,
                0.218240597761821,
                1.3018613449459657,
                1.4712609317552026
            ]
        },
        {
            "positions": [
                -0.8431650654395927,
                -0.31037938823548317,
                -1.0594040546837495,
                0.17676859224226127,
                1.2481128479206614,
                1.541733740687182
            ]
        },
        {
            "positions": [
                -0.7972147119353269,
                -0.3493169025961298,
                -0.916030812499038,
                0.13529658672270156,
                1.194364350895357,
                1.6122065496191613
            ]
        },
        {
            "positions": [
                -0.7512643584310612,
                -0.3882544169567764,
                -0.7726575703143264,
                0.09382458120314185,
                1.1406158538700528,
                1.6826793585511408
            ]
        },
        {
            "positions": [
                -0.7053140049267954,
                -0.42719193131742306,
                -0.6292843281296148,
                0.05235257568358215,
                1.0868673568447482,
                1.7531521674831203
            ]
        },
        {
            "positions": [
                -0.6593636514225296,
                -0.4661294456780697,
                -0.4859110859449032,
                0.01088057016402244,
                1.033118859819444,
                1.8236249764150996
            ]
        },
        {
            "positions": [
                -0.6134132979182638,
                -0.5050669600387163,
                -0.3425378437601916,
                -0.030591435355537322,
                0.9793703627941396,
                1.894097785347079
            ]
        },
        {
            "positions": [
                -0.567462944413998,
                -0.544004474399363,
                -0.19916460157548,
                -0.07206344087509703,
                0.9256218657688352,
                1.9645705942790586
            ]
        },
        {
            "positions": [
                -0.5215125909097322,
                -0.5829419887600096,
                -0.0557913593907684,
                -0.11353544639465668,
                0.8718733687435308,
                2.035043403211038
            ]
        },
        {
            "positions": [
                -0.47556223740546644,
                -0.6218795031206561,
                0.08758188279394319,
                -0.15500745191421644,
                0.8181248717182265,
                2.1055162121430175
            ]
        },
        {
            "positions": [
                -0.42961188390120064,
                -0.6608170174813028,
                0.230955124978655,
                -0.1964794574337762,
                0.7643763746929221,
                2.175989021074997
            ]
        },
        {
            "positions": [
                -0.38366153039693496,
                -0.6997545318419494,
                0.37432836716336637,
                -0.23795146295333586,
                0.7106278776676178,
                2.246461830006976
            ]
        },
        {
            "positions": [
                -0.33771117689266905,
                -0.7386920462025961,
                0.5177016093480782,
                -0.2794234684728956,
                0.6568793806423133,
                2.316934638938956
            ]
        },
        {
            "positions": [
                -0.29176082338840337,
                -0.7776295605632426,
                0.6610748515327896,
                -0.32089547399245527,
                0.6031308836170091,
                2.387407447870935
            ]
        },
        {
            "positions": [
                -0.24581046988413757,
                -0.8165670749238894,
                0.8044480937175014,
                -0.36236747951201503,
                0.5493823865917047,
                2.4578802568029143
            ]
        },
        {
            "positions": [
                -0.19986011637987178,
                -0.8555045892845359,
                0.9478213359022127,
                -0.4038394850315747,
                0.4956338895664003,
                2.528353065734894
            ]
        },
        {
            "positions": [
                -0.15390976287560598,
                -0.8944421036451826,
                1.0911945780869245,
                -0.44531149055113456,
                0.44188539254109593,
                2.5988258746668733
            ]
        },
        {
            "positions": [
                -0.1079594093713403,
                -0.9333796180058291,
                1.234567820271636,
                -0.4867834960706942,
                0.38813689551579156,
                2.6692986835988526
            ]
        },
        {
            "positions": [
                -0.0620090558670745,
                -0.9723171323664759,
                1.3779410624563477,
                -0.5282555015902539,
                0.3343883984904872,
                2.7397714925308323
            ]
        },
        {
            "positions": [
                -0.016058702362808708,
                -1.0112546467271224,
                1.521314304641059,
                -0.5697275071098136,
                0.2806399014651828,
                2.8102443014628116
            ]
        },
        {
            "positions": [
                0.029891651141457087,
                -1.0501921610877691,
                1.664687546825771,
                -0.6111995126293732,
                0.22689140443987843,
                2.880717110394791
            ]
        },
        {
            "positions": [
                0.07584200464572288,
                -1.0891296754484157,
                1.8080607890104823,
                -0.6526715181489329,
                0.17314290741457405,
                2.9511899193267705
            ]
        },
        {
            "positions": [
                0.12179235814998864,
                -1.1280671898090624,
                1.951434031195194,
                -0.6941435236684929,
                0.11939441038926966,
                3.02166272825875
            ]
        }
    ]
}