{
    "goal": {
        "global_pose": {
            "orientation": {
                "w": 0.7047431468963623,
                "x": -0.7094548344612122,
                "y": 0.0024358443915843964,
                "z": -0.0022348060738295317
            },
            "position": {
                "x": 0.6094750761985779,
                "y": 0.3671506643295288,
                "z": 0.19426114857196808
            }
        },
        "name": "move_to_magneteinheit_A"
    },
    "id": "BiEST_move_to_magneteinheit_A_129",
    "joint_names": [
        "shoulder_pan_joint",
        "shoulder_lift_joint",
        "elbow_joint",
        "wrist_1_joint",
        "wrist_2_joint",
        "wrist_3_joint"
    ],
    "metrics": {
        "cart_traj_len": 2.065795336558902,
        "distance_elbow_joint": 3.8846996255337114,
        "distance_shoulder_lift_joint": 1.0591899929807496,
        "distance_shoulder_pan_joint": 1.2416751171505203,
        "distance_wrist_1_joint": 1.1752342585864017,
        "distance_wrist_2_joint": 1.4324197929031257,
        "distance_wrist_3_joint": 1.9480247564561068,
        "smoothness": 7.044173703345822e-16,
        "time": 0.072499744,
        "traj_len": 3.2773836430315284,
        "weighted_distance": 4.152703590194267
    },
    "planner": "BiEST",
    "start": {
        "state": {
            "elbow_joint": -1.919643507792019,
            "shoulder_lift_joint": -0.07675430207160344,
            "shoulder_pan_joint": -1.1188671864651873,
            "wrist_1_joint": 0.42560062535961957,
            "wrist_2_joint": 1.5706038300724876,
            "wrist_3_joint": 1.1188968870953055
        }
    },
    "waypoints": [
        {
            "positions": [
                -1.1188671864651873,
                -0.07675430207160344,
                -1.919643507792019,
                0.42560062535961957,
                1.5706038300724876,
                1.1188968870953055
            ]
        },
        {
            "positions": [
                -1.0745216465669545,
                -0.1145825161066302,
                -1.7809042354515294,
                0.38362797326724807,
                1.5194459803259475,
                1.1884691998258807
            ]
        },
        {
            "positions": [
                -1.0301761066687216,
                -0.15241073014165696,
                -1.6421649631110398,
                0.3416553211748766,
                1.468288130579407,
                1.258041512556456
            ]
        },
        {
            "positions": [
                -0.9858305667704887,
                -0.19023894417668374,
                -1.50342569077055,
                0.2996826690825051,
                1.417130280832867,
                1.3276138252870313
            ]
        },
        {
            "positions": [
                -0.9414850268722559,
                -0.2280671582117105,
                -1.3646864184300602,
                0.25771001699013363,
                1.3659724310863268,
                1.3971861380176065
            ]
        },
        {
            "positions": [
                -0.897139486974023,
                -0.2658953722467373,
                -1.2259471460895706,
                0.21573736489776216,
                1.3148145813397867,
                1.466758450748182
            ]
        },
        {
            "positions": [
                -0.8527939470757901,
                -0.30372358628176405,
                -1.087207873749081,
                0.1737647128053907,
                1.2636567315932463,
                1.536330763478757
            ]
        },
        {
            "positions": [
                -0.8084484071775573,
                -0.34155180031679083,
                -0.9484686014085912,
                0.1317920607130192,
                1.2124988818467062,
                1.6059030762093323
            ]
        },
        {
            "positions": [
                -0.7641028672793244,
                -0.37938001435181756,
                -0.8097293290681016,
                0.08981940862064774,
                1.161341032100166,
                1.6754753889399074
            ]
        },
        {
            "positions": [
                -0.7197573273810915,
                -0.4172082283868444,
                -0.6709900567276117,
                0.04784675652827619,
                1.1101831823536257,
                1.7450477016704828
            ]
        },
        {
            "positions": [
                -0.6754117874828587,
                -0.45503644242187113,
                -0.532250784387122,
                0.005874104435904748,
                1.0590253326070855,
                1.814620014401058
            ]
        },
        {
            "positions": [
                -0.6310662475846258,
                -0.4928646564568979,
                -0.3935115120466326,
                -0.03609854765646675,
                1.0078674828605454,
                1.8841923271316332
            ]
        },
        {
            "positions": [
                -0.586720707686393,
                -0.5306928704919247,
                -0.25477223970614293,
                -0.0780711997488382,
                0.9567096331140051,
                1.9537646398622084
            ]
        },
        {
            "positions": [
                -0.5423751677881601,
                -0.5685210845269515,
                -0.11603296736565305,
                -0.12004385184120975,
                0.9055517833674649,
                2.023336952592784
            ]
        },
        {
            "positions": [
                -0.4980296278899272,
                -0.6063492985619783,
                0.02270630497483661,
                -0.1620165039335812,
                0.8543939336209248,
                2.092909265323359
            ]
        },
        {
            "positions": [
                -0.45368408799169435,
                -0.6441775125970051,
                0.16144557731532605,
                -0.20398915602595263,
                0.8032360838743846,
                2.162481578053934
            ]
        },
        {
            "positions": [
                -0.4093385480934615,
                -0.6820057266320316,
                0.30018484965581593,
                -0.24596180811832408,
                0.7520782341278444,
                2.2320538907845093
            ]
        },
        {
            "positions": [
                -0.36499300819522873,
                -0.7198339406670584,
                0.43892412199630537,
                -0.28793446021069563,
                0.7009203843813042,
                2.3016262035150845
            ]
        },
        {
            "positions": [
                -0.32064746829699564,
                -0.7576621547020854,
                0.5776633943367957,
                -0.3299071123030672,
                0.6497625346347639,
                2.37119851624566
            ]
        },
        {
            "positions": [
                -0.2763019283987629,
                -0.7954903687371122,
                0.7164026666772851,
                -0.37187976439543863,
                0.5986046848882237,
                2.4407708289762353
            ]
        },
        {
            "positions": [
                -0.23195638850053002,
                -0.8333185827721388,
                0.855141939017775,
                -0.41385241648781007,
                0.5474468351416835,
                2.5103431417068105
            ]
        },
        {
            "positions": [
                -0.18761084860229715,
                -0.8711467968071656,
                0.9938812113582645,
                -0.4558250685801815,
                0.4962889853951433,
                2.5799154544373857
            ]
        },
        {
            "positions": [
                -0.1432653087040643,
                -0.9089750108421923,
                1.132620483698754,
                -0.49779772067255307,
                0.4451311356486032,
                2.649487767167961
            ]
        },
        {
            "positions": [
                -0.09891976880583142,
                -0.9468032248772191,
                1.2713597560392438,
                -0.5397703727649246,
                0.39397328590206304,
                2.719060079898536
            ]
        },
        {
            "positions": [
                -0.054574228907598554,
                -0.9846314389122459,
                1.4100990283797332,
                -0.5817430248572959,
                0.3428154361555227,
                2.7886323926291112
            ]
        },
        {
            "positions": [
                -0.010228689009365688,
                -1.0224596529472727,
                1.5488383007202235,
                -0.6237156769496675,
                0.29165758640898254,
                2.858204705359687
            ]
        },
        {
            "positions": [
                0.03411685088886718,
                -1.0602878669822995,
                1.687577573060713,
                -0.665688329042039,
                0.24049973666244218,
                2.927777018090262
            ]
        },
        {
            "positions": [
                0.07846239078710004,
                -1.0981160810173263,
                1.8263168454012029,
                -0.7076609811344103,
                0.18934188691590204,
                2.997349330820837
            ]
        },
        {
            "positions": [
                0.12280793068533294,
                -1.135944295052353,
                1.965056117741692,
                -0.749633633226782,
                0.13818403716936192,
                3.0669216435514124
            ]
        }
    ]
}