{
    "goal": {
        "global_pose": {
            "orientation": {
                "w": 0.7047431468963623,
                "x": -0.7094548344612122,
                "y": 0.0024358443915843964,
                "z": -0.0022348060738295317
            },
            "position": {
                "x": 0.6094750761985779,
                "y": 0.3671506643295288,
                "z": 0.19426114857196808
            }
        },
        "name": "move_to_magneteinheit_A"
    },
    "id": "BiEST_move_to_magneteinheit_A_68",
    "joint_names": [
        "shoulder_pan_joint",
        "shoulder_lift_joint",
        "elbow_joint",
        "wrist_1_joint",
        "wrist_2_joint",
        "wrist_3_joint"
    ],
    "metrics": {
        "cart_traj_len": 2.063431578207284,
        "distance_elbow_joint": 3.872865524829529,
        "distance_shoulder_lift_joint": 1.0518169467913614,
        "distance_shoulder_pan_joint": 1.2419155716988122,
        "distance_wrist_1_joint": 1.1249021608569243,
        "distance_wrist_2_joint": 1.448716824877029,
        "distance_wrist_3_joint": 1.9037544132069928,
        "smoothness": 3.806478953818552e-16,
        "time": 0.101355904,
        "traj_len": 3.262509991135759,
        "weighted_distance": 4.126148234662515
    },
    "planner": "BiEST",
    "start": {
        "state": {
            "elbow_joint": -1.919643507792019,
            "shoulder_lift_joint": -0.07675430207160344,
            "shoulder_pan_joint": -1.1188671864651873,
            "wrist_1_joint": 0.42560062535961957,
            "wrist_2_joint": 1.5706038300724876,
            "wrist_3_joint": 1.1188968870953055
        }
    },
    "waypoints": [
        {
            "positions": [
                -1.1188671864651873,
                -0.07675430207160344,
                -1.919643507792019,
                0.42560062535961957,
                1.5706038300724876,
                1.1188968870953055
            ]
        },
        {
            "positions": [
                -1.0728703134393054,
                -0.11571048528609831,
                -1.776204043909444,
                0.38393758236491865,
                1.5169476513733384,
                1.1894063098066756
            ]
        },
        {
            "positions": [
                -1.0268734404134234,
                -0.15466666850059319,
                -1.6327645800268689,
                0.3422745393702178,
                1.4632914726741892,
                1.2599157325180457
            ]
        },
        {
            "positions": [
                -0.9808765673875416,
                -0.19362285171508803,
                -1.4893251161442937,
                0.3006114963755169,
                1.40963529397504,
                1.330425155229416
            ]
        },
        {
            "positions": [
                -0.9348796943616596,
                -0.2325790349295829,
                -1.3458856522617184,
                0.25894845338081596,
                1.3559791152758907,
                1.400934577940786
            ]
        },
        {
            "positions": [
                -0.8888828213357777,
                -0.2715352181440778,
                -1.2024461883791435,
                0.21728541038611507,
                1.3023229365767415,
                1.471444000652156
            ]
        },
        {
            "positions": [
                -0.8428859483098958,
                -0.3104914013585726,
                -1.0590067244965682,
                0.17562236739141418,
                1.2486667578775923,
                1.5419534233635261
            ]
        },
        {
            "positions": [
                -0.7968890752840139,
                -0.3494475845730675,
                -0.9155672606139931,
                0.13395932439671326,
                1.1950105791784431,
                1.6124628460748962
            ]
        },
        {
            "positions": [
                -0.7508922022581319,
                -0.38840376778756236,
                -0.772127796731418,
                0.0922962814020124,
                1.141354400479294,
                1.6829722687862665
            ]
        },
        {
            "positions": [
                -0.70489532923225,
                -0.4273599510020572,
                -0.6286883328488428,
                0.05063323840731149,
                1.0876982217801445,
                1.7534816914976363
            ]
        },
        {
            "positions": [
                -0.658898456206368,
                -0.4663161342165521,
                -0.48524886896626773,
                0.008970195412610571,
                1.0340420430809956,
                1.8239911142090066
            ]
        },
        {
            "positions": [
                -0.6129015831804862,
                -0.505272317431047,
                -0.3418094050836924,
                -0.03269284758209029,
                0.9803858643818462,
                1.8945005369203767
            ]
        },
        {
            "positions": [
                -0.5669047101546042,
                -0.5442285006455418,
                -0.19836994120111728,
                -0.0743558905767912,
                0.926729685682697,
                1.9650099596317467
            ]
        },
        {
            "positions": [
                -0.5209078371287222,
                -0.5831846838600367,
                -0.05493047731854217,
                -0.11601893357149212,
                0.8730735069835478,
                2.035519382343117
            ]
        },
        {
            "positions": [
                -0.4749109641028403,
                -0.6221408670745316,
                0.08850898656403294,
                -0.15768197656619304,
                0.8194173282843985,
                2.106028805054487
            ]
        },
        {
            "positions": [
                -0.4289140910769583,
                -0.6610970502890265,
                0.23194845044660828,
                -0.19934501956089395,
                0.7657611495852492,
                2.176538227765857
            ]
        },
        {
            "positions": [
                -0.3829172180510765,
                -0.7000532335035212,
                0.37538791432918317,
                -0.24100806255559476,
                0.7121049708861001,
                2.247047650477227
            ]
        },
        {
            "positions": [
                -0.3369203450251945,
                -0.7390094167180161,
                0.5188273782117585,
                -0.2826711055502958,
                0.6584487921869507,
                2.3175570731885973
            ]
        },
        {
            "positions": [
                -0.29092347199931257,
                -0.777965599932511,
                0.6622668420943334,
                -0.3243341485449966,
                0.6047926134878017,
                2.3880664958999676
            ]
        },
        {
            "positions": [
                -0.2449265989734306,
                -0.8169217831470059,
                0.8057063059769087,
                -0.3659971915396975,
                0.5511364347886523,
                2.458575918611338
            ]
        },
        {
            "positions": [
                -0.19892972594754876,
                -0.8558779663615008,
                0.9491457698594836,
                -0.4076602345343984,
                0.4974802560895033,
                2.5290853413227072
            ]
        },
        {
            "positions": [
                -0.1529328529216668,
                -0.8948341495759957,
                1.0925852337420594,
                -0.44932327752909934,
                0.4438240773903539,
                2.5995947640340775
            ]
        },
        {
            "positions": [
                -0.10693597989578496,
                -0.9337903327904904,
                1.2360246976246343,
                -0.49098632052380015,
                0.3901678986912047,
                2.670104186745448
            ]
        },
        {
            "positions": [
                -0.060939106869903004,
                -0.9727465160049853,
                1.3794641615072096,
                -0.5326493635185012,
                0.33651171999205554,
                2.740613609456818
            ]
        },
        {
            "positions": [
                -0.014942233844021047,
                -1.0117026992194802,
                1.5229036253897845,
                -0.5743124065132019,
                0.28285554129290635,
                2.811123032168188
            ]
        },
        {
            "positions": [
                0.03105463918186091,
                -1.050658882433975,
                1.6663430892723599,
                -0.6159754495079028,
                0.22919936259375695,
                2.881632454879558
            ]
        },
        {
            "positions": [
                0.07705151220774287,
                -1.08961506564847,
                1.8097825531549347,
                -0.6576384925026038,
                0.175543183894608,
                2.952141877590928
            ]
        },
        {
            "positions": [
                0.12304838523362475,
                -1.128571248862965,
                1.9532220170375103,
                -0.6993015354973048,
                0.12188700519545852,
                3.0226513003022983
            ]
        }
    ]
}