{
    "goal": {
        "global_pose": {
            "orientation": {
                "w": 0.7031023502349854,
                "x": -0.7110244035720825,
                "y": 0.007748599164187908,
                "z": 0.005598929710686207
            },
            "position": {
                "x": 0.11585023208521307,
                "y": 0.44412534475326537,
                "z": 0.3711530566215515
            }
        },
        "name": "move_to_auspresseinheit_A"
    },
    "id": "BiEST_move_to_auspresseinheit_A_110",
    "joint_names": [
        "shoulder_pan_joint",
        "shoulder_lift_joint",
        "elbow_joint",
        "wrist_1_joint",
        "wrist_2_joint",
        "wrist_3_joint"
    ],
    "metrics": {
        "cart_traj_len": 0.772527361360123,
        "distance_elbow_joint": 0.2543112378213088,
        "distance_shoulder_lift_joint": 0.7640107291207905,
        "distance_shoulder_pan_joint": 1.0412479650442776,
        "distance_wrist_1_joint": 2.2077059406977124,
        "distance_wrist_2_joint": 1.004463482933779,
        "distance_wrist_3_joint": 2.2664156550166523,
        "smoothness": 1.142977295545043,
        "time": 0.110141653,
        "traj_len": 2.745570070246709,
        "weighted_distance": 3.9093676911105866
    },
    "planner": "BiEST",
    "start": {
        "state": {
            "elbow_joint": 2.422574709923281,
            "shoulder_lift_joint": -1.3736533754116391,
            "shoulder_pan_joint": -0.33786336945926293,
            "wrist_1_joint": -1.0288603412921917,
            "wrist_2_joint": 1.2330224858903978,
            "wrist_3_joint": -3.094022268022082
        }
    },
    "waypoints": [
        {
            "positions": [
                -0.33786336945926293,
                -1.3736533754116391,
                2.422574709923281,
                -1.0288603412921917,
                1.2330224858903978,
                -3.094022268022082
            ]
        },
        {
            "positions": [
                -0.2822537247112814,
                -1.4278210414337147,
                2.4107867620690686,
                -0.9136411110080805,
                1.1690046561244567,
                -3.0012840389102817
            ]
        },
        {
            "positions": [
                -0.22664407996329994,
                -1.4819887074557905,
                2.3989988142148557,
                -0.7984218807239695,
                1.1049868263585156,
                -2.9085458097984813
            ]
        },
        {
            "positions": [
                -0.17103443521531841,
                -1.536156373477866,
                2.3872108663606433,
                -0.6832026504398583,
                1.0409689965925746,
                -2.815807580686681
            ]
        },
        {
            "positions": [
                -0.11542479046733692,
                -1.5903240394999416,
                2.375422918506431,
                -0.5679834201557472,
                0.9769511668266335,
                -2.72306935157488
            ]
        },
        {
            "positions": [
                -0.05981514571935537,
                -1.6444917055220174,
                2.363634970652218,
                -0.4527641898716359,
                0.9129333370606925,
                -2.6303311224630797
            ]
        },
        {
            "positions": [
                -0.004205500971373899,
                -1.698659371544093,
                2.3518470227980055,
                -0.33754495958752484,
                0.8489155072947514,
                -2.5375928933512792
            ]
        },
        {
            "positions": [
                0.051404143776607625,
                -1.7528270375661688,
                2.340059074943793,
                -0.22232572930341366,
                0.7848976775288103,
                -2.444854664239479
            ]
        },
        {
            "positions": [
                0.10701378852458909,
                -1.806994703588244,
                2.32827112708958,
                -0.10710649901930258,
                0.7208798477628693,
                -2.3521164351276784
            ]
        },
        {
            "positions": [
                0.16262343327257062,
                -1.8611623696103199,
                2.3164831792353677,
                0.008112731264808604,
                0.6568620179969282,
                -2.259378206015878
            ]
        },
        {
            "positions": [
                0.2182330780205522,
                -1.9153300356323957,
                2.3046952313811553,
                0.1233319615489199,
                0.5928441882309872,
                -2.1666399769040776
            ]
        },
        {
            "positions": [
                0.27384272276853355,
                -1.969497701654471,
                2.2929072835269424,
                0.23855119183303075,
                0.5288263584650461,
                -2.073901747792277
            ]
        },
        {
            "positions": [
                0.3294523675165151,
                -2.023665367676547,
                2.28111933567273,
                0.353770422117142,
                0.46480852869910505,
                -1.9811635186804766
            ]
        },
        {
            "positions": [
                0.3820640692747421,
                -2.0121503537039267,
                2.2978056499735775,
                0.26206720961717,
                0.49619918937696983,
                -2.115553815370443
            ]
        },
        {
            "positions": [
                0.43467577103296917,
                -2.0006353397313066,
                2.314491964274425,
                0.17036399711719807,
                0.5275898500548346,
                -2.2499441120604096
            ]
        },
        {
            "positions": [
                0.4872874727911962,
                -1.9891203257586865,
                2.3311782785752726,
                0.07866078461722609,
                0.5589805107326993,
                -2.384334408750376
            ]
        },
        {
            "positions": [
                0.5398991745494233,
                -1.9776053117860661,
                2.3478645928761206,
                -0.013042427882745844,
                0.590371171410564,
                -2.5187247054403428
            ]
        },
        {
            "positions": [
                0.5925108763076503,
                -1.966090297813446,
                2.364550907176968,
                -0.10474564038271789,
                0.6217618320884288,
                -2.6531150021303094
            ]
        },
        {
            "positions": [
                0.6451225780658774,
                -1.954575283840826,
                2.3812372214778157,
                -0.19644885288268987,
                0.6531524927662936,
                -2.787505298820276
            ]
        },
        {
            "positions": [
                0.674253586825446,
                -1.932120957330745,
                2.3876062103606515,
                -0.33387680402696335,
                0.6771052736039425,
                -2.9611128615878997
            ]
        },
        {
            "positions": [
                0.7033845955850146,
                -1.909666630820664,
                2.3939751992434877,
                -0.4713047551712368,
                0.7010580544415913,
                -3.1347204243555233
            ]
        }
    ]
}