{
    "goal": {
        "global_pose": {
            "orientation": {
                "w": 0.7031023502349854,
                "x": -0.7110244035720825,
                "y": 0.007748599164187908,
                "z": 0.005598929710686207
            },
            "position": {
                "x": 0.11585023208521307,
                "y": 0.44412534475326537,
                "z": 0.3711530566215515
            }
        },
        "name": "move_to_auspresseinheit_A"
    },
    "id": "BiEST_move_to_auspresseinheit_A_73",
    "joint_names": [
        "shoulder_pan_joint",
        "shoulder_lift_joint",
        "elbow_joint",
        "wrist_1_joint",
        "wrist_2_joint",
        "wrist_3_joint"
    ],
    "metrics": {
        "cart_traj_len": 1.8361205912085679,
        "distance_elbow_joint": 2.2507787652993803,
        "distance_shoulder_lift_joint": 0.8181898410120767,
        "distance_shoulder_pan_joint": 1.040607247500458,
        "distance_wrist_1_joint": 2.71236818571394,
        "distance_wrist_2_joint": 3.0814294937975117,
        "distance_wrist_3_joint": 2.3943150616784656,
        "smoothness": 0.8615540553478466,
        "time": 0.109046246,
        "traj_len": 3.506806038976469,
        "weighted_distance": 4.783316464323703
    },
    "planner": "BiEST",
    "start": {
        "state": {
            "elbow_joint": 2.422574709923281,
            "shoulder_lift_joint": -1.3736533754116391,
            "shoulder_pan_joint": -0.33786336945926293,
            "wrist_1_joint": -1.0288603412921917,
            "wrist_2_joint": 1.2330224858903978,
            "wrist_3_joint": -3.094022268022082
        }
    },
    "waypoints": [
        {
            "positions": [
                -0.33786336945926293,
                -1.3736533754116391,
                2.422574709923281,
                -1.0288603412921917,
                1.2330224858903978,
                -3.094022268022082
            ]
        },
        {
            "positions": [
                -0.31532457407679093,
                -1.4111443567080302,
                2.3591608564492574,
                -0.9376666148323753,
                1.132581361659297,
                -3.028949900107512
            ]
        },
        {
            "positions": [
                -0.29278577869431893,
                -1.4486353380044215,
                2.295747002975234,
                -0.846472888372559,
                1.0321402374281963,
                -2.963877532192942
            ]
        },
        {
            "positions": [
                -0.27024698331184693,
                -1.4861263193008125,
                2.23233314950121,
                -0.7552791619127426,
                0.9316991131970956,
                -2.8988051642783716
            ]
        },
        {
            "positions": [
                -0.24770818792937496,
                -1.5236173005972038,
                2.1689192960271866,
                -0.6640854354529262,
                0.831257988965995,
                -2.8337327963638015
            ]
        },
        {
            "positions": [
                -0.22516939254690296,
                -1.5611082818935949,
                2.105505442553163,
                -0.5728917089931098,
                0.7308168647348942,
                -2.768660428449231
            ]
        },
        {
            "positions": [
                -0.202630597164431,
                -1.5985992631899861,
                2.04209158907914,
                -0.48169798253329343,
                0.6303757405037935,
                -2.7035880605346607
            ]
        },
        {
            "positions": [
                -0.18009180178195897,
                -1.6360902444863772,
                1.9786777356051162,
                -0.39050425607347705,
                0.5299346162726928,
                -2.6385156926200906
            ]
        },
        {
            "positions": [
                -0.157553006399487,
                -1.6735812257827685,
                1.9152638821310926,
                -0.29931052961366067,
                0.42949349204159215,
                -2.5734433247055204
            ]
        },
        {
            "positions": [
                -0.135014211017015,
                -1.7110722070791595,
                1.851850028657069,
                -0.2081168031538443,
                0.3290523678104914,
                -2.5083709567909502
            ]
        },
        {
            "positions": [
                -0.112475415634543,
                -1.7485631883755506,
                1.7884361751830453,
                -0.1169230766940279,
                0.22861124357939056,
                -2.44329858887638
            ]
        },
        {
            "positions": [
                -0.089936620252071,
                -1.7860541696719419,
                1.7250223217090217,
                -0.025729350234211523,
                0.1281701193482898,
                -2.37822622096181
            ]
        },
        {
            "positions": [
                -0.06739782486959905,
                -1.823545150968333,
                1.6616084682349983,
                0.06546437622560486,
                0.027728995117189292,
                -2.3131538530472397
            ]
        },
        {
            "positions": [
                -0.044859029487127056,
                -1.8610361322647242,
                1.5981946147609747,
                0.15665810268542124,
                -0.07271212911391145,
                -2.248081485132669
            ]
        },
        {
            "positions": [
                -0.022320234104655,
                -1.8985271135611153,
                1.534780761286951,
                0.24785182914523762,
                -0.1731532533450122,
                -2.1830091172180994
            ]
        },
        {
            "positions": [
                0.00021856127781699763,
                -1.9360180948575065,
                1.4713669078129274,
                0.339045555605054,
                -0.27359437757611293,
                -2.117936749303529
            ]
        },
        {
            "positions": [
                0.02275735666028894,
                -1.9735090761538976,
                1.407953054338904,
                0.4302392820648704,
                -0.37403550180721346,
                -2.052864381388959
            ]
        },
        {
            "positions": [
                0.04529615204276094,
                -2.0110000574502886,
                1.3445392008648804,
                0.5214330085246868,
                -0.4744766260383142,
                -1.9877920134743885
            ]
        },
        {
            "positions": [
                0.06783494742523297,
                -2.04849103874668,
                1.2811253473908568,
                0.6126267349845032,
                -0.5749177502694149,
                -1.9227196455598183
            ]
        },
        {
            "positions": [
                0.11207286183567747,
                -2.039963295481853,
                1.3672067055787376,
                0.5430750111757179,
                -0.4856498749672803,
                -2.0195641329054324
            ]
        },
        {
            "positions": [
                0.15631077624612197,
                -2.031435552217026,
                1.4532880637666183,
                0.47352328736693267,
                -0.3963819996651457,
                -2.1164086202510464
            ]
        },
        {
            "positions": [
                0.20054869065656647,
                -2.0229078089521995,
                1.539369421954499,
                0.4039715635581474,
                -0.30711412436301105,
                -2.2132531075966604
            ]
        },
        {
            "positions": [
                0.24478660506701097,
                -2.0143800656873725,
                1.6254507801423796,
                0.3344198397493622,
                -0.21784624906087646,
                -2.3100975949422744
            ]
        },
        {
            "positions": [
                0.28902451947745544,
                -2.0058523224225455,
                1.7115321383302604,
                0.26486811594057685,
                -0.12857837375874176,
                -2.4069420822878884
            ]
        },
        {
            "positions": [
                0.3332624338879,
                -1.9973245791577188,
                1.7976134965181412,
                0.19531639213179164,
                -0.03931049845660717,
                -2.5037865696335024
            ]
        },
        {
            "positions": [
                0.37750034829834445,
                -1.9887968358928918,
                1.883694854706022,
                0.12576466832300637,
                0.04995737684552748,
                -2.6006310569791165
            ]
        },
        {
            "positions": [
                0.421738262708789,
                -1.980269092628065,
                1.9697762128939025,
                0.05621294451422121,
                0.13922525214766202,
                -2.6974755443247305
            ]
        },
        {
            "positions": [
                0.46597617711923345,
                -1.971741349363238,
                2.0558575710817832,
                -0.013338779294564063,
                0.22849312744979677,
                -2.7943200316703445
            ]
        },
        {
            "positions": [
                0.510214091529678,
                -1.9632136060984113,
                2.141938929269664,
                -0.08289050310334944,
                0.3177610027519314,
                -2.8911645190159585
            ]
        },
        {
            "positions": [
                0.5544520059401224,
                -1.9546858628335846,
                2.2280202874575448,
                -0.1524422269121346,
                0.40702887805406596,
                -2.9880090063615725
            ]
        },
        {
            "positions": [
                0.598689920350567,
                -1.9461581195687576,
                2.3141016456454255,
                -0.22199395072091987,
                0.49629675335620066,
                -3.0848534937071865
            ]
        },
        {
            "positions": [
                0.6507168991958809,
                -1.9256484903192008,
                2.352278197901619,
                -0.34012416258683076,
                0.5974341303622421,
                -3.1152927892416034
            ]
        },
        {
            "positions": [
                0.702743878041195,
                -1.905138861069644,
                2.390454750157813,
                -0.4582543744527416,
                0.6985715073682836,
                -3.14573208477602
            ]
        }
    ]
}