{
    "goal": {
        "global_pose": {
            "orientation": {
                "w": 0.5084816217422485,
                "x": -0.49083608388900757,
                "y": 0.5182115435600281,
                "z": -0.4816462993621826
            },
            "position": {
                "x": 0.5540239810943604,
                "y": 0.030875300988554955,
                "z": 0.16403168439865112
            }
        },
        "name": "move_to_storage_A"
    },
    "id": "BiEST_move_to_storage_A_65",
    "joint_names": [
        "shoulder_pan_joint",
        "shoulder_lift_joint",
        "elbow_joint",
        "wrist_1_joint",
        "wrist_2_joint",
        "wrist_3_joint"
    ],
    "metrics": {
        "cart_traj_len": 0.35376746204946746,
        "distance_elbow_joint": 0.4503556861495692,
        "distance_shoulder_lift_joint": 0.23459529102277044,
        "distance_shoulder_pan_joint": 0.46023786695114705,
        "distance_wrist_1_joint": 0.24827105254596382,
        "distance_wrist_2_joint": 1.1100342037872382,
        "distance_wrist_3_joint": 0.09879823422341305,
        "smoothness": 2.2204460668324854e-16,
        "time": 0.052081421,
        "traj_len": 1.6131622158605443,
        "weighted_distance": 2.0391650397797942
    },
    "planner": "BiEST",
    "start": {
        "state": {
            "elbow_joint": 1.9715463870305268,
            "shoulder_lift_joint": -1.1394903361783484,
            "shoulder_pan_joint": 0.12281147578464417,
            "wrist_1_joint": -0.7804599489681411,
            "wrist_2_joint": 0.12958660307563738,
            "wrist_3_joint": -3.1924946282119055
        }
    },
    "waypoints": [
        {
            "positions": [
                0.12281147578464417,
                -1.1394903361783484,
                1.9715463870305268,
                -0.7804599489681411,
                0.12958660307563738,
                -3.1924946282119055
            ]
        },
        {
            "positions": [
                0.05706320907733746,
                -1.1730039491816013,
                2.0358829136233223,
                -0.815927242188993,
                0.2881629179023857,
                -3.178380594751418
            ]
        },
        {
            "positions": [
                -0.008685057629969253,
                -1.2065175621848543,
                2.100219440216118,
                -0.851394535409845,
                0.44673923272913396,
                -3.16426656129093
            ]
        },
        {
            "positions": [
                -0.07443332433727597,
                -1.2400311751881072,
                2.1645559668089134,
                -0.886861828630697,
                0.6053155475558822,
                -3.1501525278304428
            ]
        },
        {
            "positions": [
                -0.14018159104458267,
                -1.27354478819136,
                2.228892493401709,
                -0.922329121851549,
                0.7638918623826306,
                -3.1360384943699553
            ]
        },
        {
            "positions": [
                -0.20592985775188943,
                -1.307058401194613,
                2.293229019994505,
                -0.957796415072401,
                0.922468177209379,
                -3.121924460909468
            ]
        },
        {
            "positions": [
                -0.2716781244591961,
                -1.3405720141978659,
                2.3575655465873004,
                -0.993263708293253,
                1.081044492036127,
                -3.10781042744898
            ]
        },
        {
            "positions": [
                -0.33742639116650286,
                -1.3740856272011188,
                2.421902073180096,
                -1.028731001514105,
                1.2396208068628756,
                -3.0936963939884925
            ]
        }
    ]
}