{
    "goal": {
        "global_pose": {
            "orientation": {
                "w": 0.7031023502349854,
                "x": -0.7110244035720825,
                "y": 0.007748599164187908,
                "z": 0.005598929710686207
            },
            "position": {
                "x": 0.11585023208521307,
                "y": 0.44412534475326537,
                "z": 0.3711530566215515
            }
        },
        "name": "move_to_auspresseinheit_A"
    },
    "id": "BiEST_move_to_auspresseinheit_A_1",
    "joint_names": [
        "shoulder_pan_joint",
        "shoulder_lift_joint",
        "elbow_joint",
        "wrist_1_joint",
        "wrist_2_joint",
        "wrist_3_joint"
    ],
    "metrics": {
        "cart_traj_len": 1.1097721367163378,
        "distance_elbow_joint": 0.37367348480653195,
        "distance_shoulder_lift_joint": 0.9893182012951665,
        "distance_shoulder_pan_joint": 1.1332722256234877,
        "distance_wrist_1_joint": 3.1620905241281596,
        "distance_wrist_2_joint": 1.2884015728765958,
        "distance_wrist_3_joint": 5.671871113633527,
        "smoothness": 0.8568921170764239,
        "time": 0.093156496,
        "traj_len": 3.552270699477092,
        "weighted_distance": 5.33037160492918
    },
    "planner": "BiEST",
    "start": {
        "state": {
            "elbow_joint": 2.422574709923281,
            "shoulder_lift_joint": -1.3736533754116391,
            "shoulder_pan_joint": -0.33786336945926293,
            "wrist_1_joint": -1.0288603412921917,
            "wrist_2_joint": 1.2330224858903978,
            "wrist_3_joint": -3.094022268022082
        }
    },
    "waypoints": [
        {
            "positions": [
                -0.33786336945926293,
                -1.3736533754116391,
                2.422574709923281,
                -1.0288603412921917,
                1.2330224858903978,
                -3.094022268022082
            ]
        },
        {
            "positions": [
                -0.2869971154840859,
                -1.4136445139700355,
                2.411878776036594,
                -0.9306408318305524,
                1.1850968316850548,
                -2.946013784688405
            ]
        },
        {
            "positions": [
                -0.2361308615089089,
                -1.453635652528432,
                2.4011828421499066,
                -0.8324213223689131,
                1.1371711774797115,
                -2.798005301354728
            ]
        },
        {
            "positions": [
                -0.1852646075337319,
                -1.4936267910868286,
                2.3904869082632194,
                -0.7342018129072737,
                1.0892455232743685,
                -2.6499968180210516
            ]
        },
        {
            "positions": [
                -0.1343983535585549,
                -1.533617929645225,
                2.379790974376532,
                -0.6359823034456344,
                1.0413198690690253,
                -2.5019883346873746
            ]
        },
        {
            "positions": [
                -0.08353209958337787,
                -1.5736090682036215,
                2.3690950404898445,
                -0.5377627939839951,
                0.9933942148636823,
                -2.3539798513536976
            ]
        },
        {
            "positions": [
                -0.03266584560820085,
                -1.6136002067620179,
                2.3583991066031573,
                -0.4395432845223557,
                0.9454685606583391,
                -2.2059713680200206
            ]
        },
        {
            "positions": [
                0.018200408366976173,
                -1.6535913453204145,
                2.34770317271647,
                -0.34132377506071643,
                0.8975429064529961,
                -2.0579628846863436
            ]
        },
        {
            "positions": [
                0.06906666234215314,
                -1.693582483878811,
                2.337007238829783,
                -0.24310426559907705,
                0.8496172522476528,
                -1.9099544013526668
            ]
        },
        {
            "positions": [
                0.11993291631733016,
                -1.7335736224372074,
                2.3263113049430957,
                -0.14488475613743768,
                0.8016915980423098,
                -1.7619459180189898
            ]
        },
        {
            "positions": [
                0.17079917029250719,
                -1.7735647609956038,
                2.3156153710564085,
                -0.04666524667579841,
                0.7537659438369667,
                -1.613937434685313
            ]
        },
        {
            "positions": [
                0.22166542426768426,
                -1.8135558995540002,
                2.3049194371697213,
                0.051554262785840965,
                0.7058402896316235,
                -1.4659289513516358
            ]
        },
        {
            "positions": [
                0.27253167824286123,
                -1.8535470381123966,
                2.294223503283034,
                0.14977377224748034,
                0.6579146354262805,
                -1.317920468017959
            ]
        },
        {
            "positions": [
                0.3233979322180383,
                -1.8935381766707933,
                2.283527569396347,
                0.24799328170911972,
                0.6099889812209374,
                -1.169911984684282
            ]
        },
        {
            "positions": [
                0.3742641861932153,
                -1.9335293152291897,
                2.2728316355096596,
                0.34621279117075887,
                0.5620633270155942,
                -1.021903501350605
            ]
        },
        {
            "positions": [
                0.42513044016839224,
                -1.9735204537875861,
                2.262135701622972,
                0.44443230063239847,
                0.5141376728102511,
                -0.873895018016928
            ]
        },
        {
            "positions": [
                0.4759966941435692,
                -2.0135115923459823,
                2.2514397677362847,
                0.5426518100940376,
                0.466212018604908,
                -0.7258865346832515
            ]
        },
        {
            "positions": [
                0.5268629481187463,
                -2.053502730904379,
                2.2407438338495975,
                0.640871319555677,
                0.4182863643995649,
                -0.5778780513495745
            ]
        },
        {
            "positions": [
                0.5777292020939233,
                -2.0934938694627756,
                2.2300478999629103,
                0.7390908290173164,
                0.3703607101942218,
                -0.4298695680158975
            ]
        },
        {
            "positions": [
                0.6285954560691003,
                -2.133485008021172,
                2.219351966076223,
                0.8373103384789558,
                0.32243505598887867,
                -0.2818610846822205
            ]
        },
        {
            "positions": [
                0.6396592855141915,
                -2.117962769813026,
                2.2287491727780457,
                0.7364108346877651,
                0.3465969016295983,
                -0.5069879364949557
            ]
        },
        {
            "positions": [
                0.6507231149592827,
                -2.1024405316048798,
                2.238146379479868,
                0.6355113308965745,
                0.3707587472703179,
                -0.732114788307691
            ]
        },
        {
            "positions": [
                0.6617869444043739,
                -2.086918293396734,
                2.2475435861816906,
                0.5346118271053839,
                0.3949205929110375,
                -0.9572416401204261
            ]
        },
        {
            "positions": [
                0.6728507738494651,
                -2.071396055188588,
                2.2569407928835132,
                0.4337123233141933,
                0.4190824385517571,
                -1.1823684919331614
            ]
        },
        {
            "positions": [
                0.6839146032945562,
                -2.055873816980442,
                2.2663379995853354,
                0.3328128195230027,
                0.44324428419247675,
                -1.4074953437458966
            ]
        },
        {
            "positions": [
                0.6949784327396474,
                -2.0403515787722957,
                2.275735206287158,
                0.23191331573181206,
                0.4674061298331963,
                -1.6326221955586318
            ]
        },
        {
            "positions": [
                0.7060422621847386,
                -2.0248293405641498,
                2.2851324129889803,
                0.13101381194062145,
                0.49156797547391595,
                -1.8577490473713671
            ]
        },
        {
            "positions": [
                0.7171060916298299,
                -2.009307102356004,
                2.294529619690803,
                0.030114308149430835,
                0.5157298211146355,
                -2.0828758991841023
            ]
        },
        {
            "positions": [
                0.7281699210749211,
                -1.9937848641478577,
                2.3039268263926256,
                -0.07078519564175989,
                0.5398916667553552,
                -2.3080027509968377
            ]
        },
        {
            "positions": [
                0.7392337505200123,
                -1.9782626259397118,
                2.313324033094448,
                -0.1716846994329504,
                0.5640535123960748,
                -2.5331296028095727
            ]
        },
        {
            "positions": [
                0.7502975799651035,
                -1.9627403877315657,
                2.3227212397962704,
                -0.2725842032241411,
                0.5882153580367944,
                -2.758256454622308
            ]
        },
        {
            "positions": [
                0.7352604878987299,
                -1.9431597382662233,
                2.3450817288760795,
                -0.33459263744211315,
                0.6255599716791815,
                -2.886027974740167
            ]
        },
        {
            "positions": [
                0.7202233958323564,
                -1.9235790888008808,
                2.367442217955888,
                -0.3966010716600852,
                0.6629045853215687,
                -3.013799494858026
            ]
        },
        {
            "positions": [
                0.7051863037659828,
                -1.9039984393355385,
                2.389802707035697,
                -0.4586095058780572,
                0.7002491989639559,
                -3.141571014975885
            ]
        }
    ]
}