{
    "goal": {
        "global_pose": {
            "orientation": {
                "w": 0.5084816217422485,
                "x": -0.49083608388900757,
                "y": 0.5182115435600281,
                "z": -0.4816462993621826
            },
            "position": {
                "x": 0.5540239810943604,
                "y": 0.030875300988554955,
                "z": 0.16403168439865112
            }
        },
        "name": "move_to_storage_A"
    },
    "id": "BiEST_move_to_storage_A_56",
    "joint_names": [
        "shoulder_pan_joint",
        "shoulder_lift_joint",
        "elbow_joint",
        "wrist_1_joint",
        "wrist_2_joint",
        "wrist_3_joint"
    ],
    "metrics": {
        "cart_traj_len": 0.35219405509206797,
        "distance_elbow_joint": 0.4496548707030761,
        "distance_shoulder_lift_joint": 0.23471333959936236,
        "distance_shoulder_pan_joint": 0.4606808105499745,
        "distance_wrist_1_joint": 0.24059528303166544,
        "distance_wrist_2_joint": 1.0967312197423371,
        "distance_wrist_3_joint": 0.10605377188170984,
        "smoothness": 6.661338165333112e-16,
        "time": 0.08006729700000001,
        "traj_len": 1.6088596257934145,
        "weighted_distance": 2.034173872127343
    },
    "planner": "BiEST",
    "start": {
        "state": {
            "elbow_joint": 1.9715463870305268,
            "shoulder_lift_joint": -1.1394903361783484,
            "shoulder_pan_joint": 0.12281147578464417,
            "wrist_1_joint": -0.7804599489681411,
            "wrist_2_joint": 0.12958660307563738,
            "wrist_3_joint": -3.1924946282119055
        }
    },
    "waypoints": [
        {
            "positions": [
                0.12281147578464417,
                -1.1394903361783484,
                1.9715463870305268,
                -0.7804599489681411,
                0.12958660307563738,
                -3.1924946282119055
            ]
        },
        {
            "positions": [
                0.05699993142036211,
                -1.1730208132639717,
                2.0357827971309663,
                -0.8148307036869504,
                0.28626249161025696,
                -3.1773440893716614
            ]
        },
        {
            "positions": [
                -0.008811612943919953,
                -1.2065512903495947,
                2.1000192072314054,
                -0.8492014584057598,
                0.4429383801448765,
                -3.162193550531417
            ]
        },
        {
            "positions": [
                -0.07462315730820203,
                -1.240081767435218,
                2.164255617331845,
                -0.8835722131245691,
                0.5996142686794961,
                -3.147043011691173
            ]
        },
        {
            "positions": [
                -0.14043470167248406,
                -1.273612244520841,
                2.2284920274322846,
                -0.9179429678433785,
                0.7562901572141157,
                -3.1318924728509283
            ]
        },
        {
            "positions": [
                -0.20624624603676617,
                -1.3071427216064644,
                2.292728437532724,
                -0.9523137225621878,
                0.9129660457487354,
                -3.116741934010684
            ]
        },
        {
            "positions": [
                -0.2720577904010482,
                -1.3406731986920875,
                2.3569648476331633,
                -0.9866844772809972,
                1.0696419342833547,
                -3.10159139517044
            ]
        },
        {
            "positions": [
                -0.3378693347653303,
                -1.3742036757777107,
                2.421201257733603,
                -1.0210552319998065,
                1.2263178228179745,
                -3.0864408563301957
            ]
        }
    ]
}