{
    "goal": {
        "global_pose": {
            "orientation": {
                "w": 0.7047431468963623,
                "x": -0.7094548344612122,
                "y": 0.0024358443915843964,
                "z": -0.0022348060738295317
            },
            "position": {
                "x": 0.6094750761985779,
                "y": 0.3671506643295288,
                "z": 0.19426114857196808
            }
        },
        "name": "move_to_magneteinheit_A"
    },
    "id": "BiEST_move_to_magneteinheit_A_33",
    "joint_names": [
        "shoulder_pan_joint",
        "shoulder_lift_joint",
        "elbow_joint",
        "wrist_1_joint",
        "wrist_2_joint",
        "wrist_3_joint"
    ],
    "metrics": {
        "cart_traj_len": 2.04640631445103,
        "distance_elbow_joint": 3.9005211649399403,
        "distance_shoulder_lift_joint": 1.067087278146067,
        "distance_shoulder_pan_joint": 1.2423358921448981,
        "distance_wrist_1_joint": 1.2540738128298048,
        "distance_wrist_2_joint": 2.7978980645994933,
        "distance_wrist_3_joint": 4.2591755740717865,
        "smoothness": 0.09871865941651285,
        "time": 0.093119287,
        "traj_len": 3.8106550338140015,
        "weighted_distance": 5.204941384137277
    },
    "planner": "BiEST",
    "start": {
        "state": {
            "elbow_joint": -1.919643507792019,
            "shoulder_lift_joint": -0.07675430207160344,
            "shoulder_pan_joint": -1.1188671864651873,
            "wrist_1_joint": 0.42560062535961957,
            "wrist_2_joint": 1.5706038300724876,
            "wrist_3_joint": 1.1188968870953055
        }
    },
    "waypoints": [
        {
            "positions": [
                -1.1188671864651873,
                -0.07675430207160344,
                -1.919643507792019,
                0.42560062535961957,
                1.5706038300724876,
                1.1188968870953055
            ]
        },
        {
            "positions": [
                -1.1040854616932292,
                -0.10419593407087674,
                -1.8294043000208111,
                0.3719050124778816,
                1.478263811768593,
                1.0115846969322138
            ]
        },
        {
            "positions": [
                -1.089303736921271,
                -0.13163756607015004,
                -1.7391650922496031,
                0.31820939959614364,
                1.3859237934646984,
                0.9042725067691219
            ]
        },
        {
            "positions": [
                -1.074522012149313,
                -0.15907919806942333,
                -1.6489258844783952,
                0.26451378671440573,
                1.2935837751608037,
                0.79696031660603
            ]
        },
        {
            "positions": [
                -1.059740287377355,
                -0.18652083006869663,
                -1.5586866767071872,
                0.21081817383266774,
                1.201243756856909,
                0.6896481264429382
            ]
        },
        {
            "positions": [
                -1.0449585626053968,
                -0.21396246206796996,
                -1.4684474689359792,
                0.1571225609509298,
                1.1089037385530143,
                0.5823359362798464
            ]
        },
        {
            "positions": [
                -1.0301768378334386,
                -0.24140409406724325,
                -1.3782082611647715,
                0.10342694806919184,
                1.0165637202491196,
                0.47502374611675446
            ]
        },
        {
            "positions": [
                -1.0153951130614804,
                -0.2688457260665166,
                -1.2879690533935633,
                0.04973133518745382,
                0.924223701945225,
                0.36771155595366256
            ]
        },
        {
            "positions": [
                -1.0006133882895225,
                -0.2962873580657899,
                -1.1977298456223555,
                -0.003964277694284091,
                0.8318836836413304,
                0.26039936579057077
            ]
        },
        {
            "positions": [
                -0.9858316635175643,
                -0.32372899006506317,
                -1.1074906378511473,
                -0.05765989057602211,
                0.7395436653374357,
                0.15308717562747887
            ]
        },
        {
            "positions": [
                -0.9710499387456062,
                -0.35117062206433647,
                -1.0172514300799396,
                -0.11135550345775996,
                0.647203647033541,
                0.045774985464387186
            ]
        },
        {
            "positions": [
                -0.9562682139736481,
                -0.37861225406360977,
                -0.9270122223087315,
                -0.16505111633949804,
                0.5548636287296462,
                -0.06153720469870483
            ]
        },
        {
            "positions": [
                -0.94148648920169,
                -0.40605388606288306,
                -0.8367730145375236,
                -0.2187467292212359,
                0.46252361042575174,
                -0.16884939486179662
            ]
        },
        {
            "positions": [
                -0.9267047644297319,
                -0.43349551806215636,
                -0.7465338067663156,
                -0.27244234210297386,
                0.37018359212185703,
                -0.2761615850248884
            ]
        },
        {
            "positions": [
                -0.9119230396577738,
                -0.4609371500614297,
                -0.6562945989951074,
                -0.32613795498471193,
                0.2778435738179623,
                -0.3834737751879804
            ]
        },
        {
            "positions": [
                -0.8971413148858156,
                -0.48837878206070295,
                -0.5660553912238997,
                -0.3798335678664498,
                0.1855035555140676,
                -0.4907859653510722
            ]
        },
        {
            "positions": [
                -0.8823595901138576,
                -0.5158204140599763,
                -0.4758161834526917,
                -0.43352918074818775,
                0.09316353721017312,
                -0.598098155514164
            ]
        },
        {
            "positions": [
                -0.8675778653418995,
                -0.5432620460592495,
                -0.38557697568148375,
                -0.4872247936299257,
                0.0008235189062784087,
                -0.7054103456772558
            ]
        },
        {
            "positions": [
                -0.8527961405699414,
                -0.5707036780585228,
                -0.29533776791027555,
                -0.5409204065116637,
                -0.0915164993976163,
                -0.8127225358403478
            ]
        },
        {
            "positions": [
                -0.8380144157979832,
                -0.5981453100577963,
                -0.2050985601390678,
                -0.5946160193934016,
                -0.183856517701511,
                -0.9200347260034398
            ]
        },
        {
            "positions": [
                -0.8232326910260251,
                -0.6255869420570694,
                -0.11485935236785982,
                -0.6483116322751394,
                -0.2761965360054055,
                -1.0273469161665312
            ]
        },
        {
            "positions": [
                -0.8084509662540671,
                -0.6530285740563428,
                -0.02462014459665185,
                -0.7020072451568775,
                -0.3685365543093002,
                -1.134659106329623
            ]
        },
        {
            "positions": [
                -0.7936692414821089,
                -0.680470206055616,
                0.06561906317455612,
                -0.7557028580386156,
                -0.46087657261319515,
                -1.2419712964927152
            ]
        },
        {
            "positions": [
                -0.7788875167101508,
                -0.7079118380548894,
                0.15585827094576418,
                -0.8093984709203536,
                -0.5532165909170897,
                -1.349283486655807
            ]
        },
        {
            "positions": [
                -0.7187304352174934,
                -0.7369738208657415,
                0.27752623002590804,
                -0.8106701186903423,
                -0.5082780813430954,
                -1.4686831666771851
            ]
        },
        {
            "positions": [
                -0.6585733537248359,
                -0.7660358036765935,
                0.39919418910605187,
                -0.8119417664603311,
                -0.4633395717691009,
                -1.5880828466985635
            ]
        },
        {
            "positions": [
                -0.5984162722321784,
                -0.7950977864874457,
                0.5208621481861958,
                -0.8132134142303199,
                -0.4184010621951064,
                -1.7074825267199416
            ]
        },
        {
            "positions": [
                -0.538259190739521,
                -0.8241597692982977,
                0.6425301072663395,
                -0.8144850620003087,
                -0.37346255262111205,
                -1.82688220674132
            ]
        },
        {
            "positions": [
                -0.4781021092468636,
                -0.8532217521091497,
                0.7641980663464835,
                -0.8157567097702975,
                -0.32852404304711763,
                -1.946281886762698
            ]
        },
        {
            "positions": [
                -0.4179450277542061,
                -0.8822837349200019,
                0.8858660254266274,
                -0.8170283575402862,
                -0.28358553347312315,
                -2.065681566784076
            ]
        },
        {
            "positions": [
                -0.3577879462615487,
                -0.9113457177308539,
                1.0075339845067712,
                -0.818300005310275,
                -0.23864702389912873,
                -2.1850812468054546
            ]
        },
        {
            "positions": [
                -0.2976308647688913,
                -0.940407700541706,
                1.129201943586915,
                -0.8195716530802639,
                -0.19370851432513436,
                -2.304480926826833
            ]
        },
        {
            "positions": [
                -0.2374737832762338,
                -0.969469683352558,
                1.2508699026670587,
                -0.8208433008502527,
                -0.14877000475113994,
                -2.4238806068482113
            ]
        },
        {
            "positions": [
                -0.1773167017835764,
                -0.99853166616341,
                1.3725378617472026,
                -0.8221149486202415,
                -0.10383149517714552,
                -2.543280286869589
            ]
        },
        {
            "positions": [
                -0.11715962029091898,
                -1.027593648974262,
                1.4942058208273463,
                -0.8233865963902303,
                -0.05889298560315109,
                -2.6626799668909675
            ]
        },
        {
            "positions": [
                -0.05700253879826145,
                -1.0566556317851143,
                1.6158737799074905,
                -0.824658244160219,
                -0.01395447602915656,
                -2.782079646912346
            ]
        },
        {
            "positions": [
                0.0031545426943959676,
                -1.0857176145959664,
                1.7375417389876342,
                -0.8259298919302078,
                0.030984033544837808,
                -2.901479326933724
            ]
        },
        {
            "positions": [
                0.06331162418705338,
                -1.1147795974068184,
                1.8592096980677781,
                -0.8272015397001966,
                0.07592254311883229,
                -3.020879006955102
            ]
        },
        {
            "positions": [
                0.12346870567971077,
                -1.1438415802176705,
                1.9808776571479219,
                -0.8284731874701854,
                0.12086105269282667,
                -3.1402786869764805
            ]
        }
    ]
}