{
    "goal": {
        "global_pose": {
            "orientation": {
                "w": 0.7031023502349854,
                "x": -0.7110244035720825,
                "y": 0.007748599164187908,
                "z": 0.005598929710686207
            },
            "position": {
                "x": 0.11585023208521307,
                "y": 0.44412534475326537,
                "z": 0.3711530566215515
            }
        },
        "name": "move_to_auspresseinheit_A"
    },
    "id": "BiEST_move_to_auspresseinheit_A_32",
    "joint_names": [
        "shoulder_pan_joint",
        "shoulder_lift_joint",
        "elbow_joint",
        "wrist_1_joint",
        "wrist_2_joint",
        "wrist_3_joint"
    ],
    "metrics": {
        "cart_traj_len": 1.153090855941944,
        "distance_elbow_joint": 0.54875528679043,
        "distance_shoulder_lift_joint": 1.9245880902652959,
        "distance_shoulder_pan_joint": 1.0419845689432705,
        "distance_wrist_1_joint": 2.9330992859451075,
        "distance_wrist_2_joint": 0.7041065017284165,
        "distance_wrist_3_joint": 2.854850038064623,
        "smoothness": 0.9508476303055039,
        "time": 0.058687743,
        "traj_len": 3.163444921558955,
        "weighted_distance": 4.399351047090914
    },
    "planner": "BiEST",
    "start": {
        "state": {
            "elbow_joint": 2.422574709923281,
            "shoulder_lift_joint": -1.3736533754116391,
            "shoulder_pan_joint": -0.33786336945926293,
            "wrist_1_joint": -1.0288603412921917,
            "wrist_2_joint": 1.2330224858903978,
            "wrist_3_joint": -3.094022268022082
        }
    },
    "waypoints": [
        {
            "positions": [
                -0.33786336945926293,
                -1.3736533754116391,
                2.422574709923281,
                -1.0288603412921917,
                1.2330224858903978,
                -3.094022268022082
            ]
        },
        {
            "positions": [
                -0.2856780167756152,
                -1.461513113332292,
                2.4411499376850005,
                -1.113661236747211,
                1.1889882180900988,
                -2.993179558212435
            ]
        },
        {
            "positions": [
                -0.2334926640919675,
                -1.549372851252945,
                2.4597251654467196,
                -1.1984621322022302,
                1.1449539502898,
                -2.892336848402788
            ]
        },
        {
            "positions": [
                -0.18130731140831977,
                -1.637232589173598,
                2.478300393208439,
                -1.2832630276572494,
                1.1009196824895011,
                -2.791494138593141
            ]
        },
        {
            "positions": [
                -0.12912195872467205,
                -1.7250923270942509,
                2.496875620970158,
                -1.3680639231122687,
                1.0568854146892024,
                -2.690651428783494
            ]
        },
        {
            "positions": [
                -0.07693660604102431,
                -1.812952065014904,
                2.5154508487318776,
                -1.4528648185672879,
                1.0128511468889034,
                -2.589808718973847
            ]
        },
        {
            "positions": [
                -0.0247512533573766,
                -1.9008118029355567,
                2.5340260764935967,
                -1.5376657140223071,
                0.9688168790886047,
                -2.4889660091641996
            ]
        },
        {
            "positions": [
                0.02743409932627111,
                -1.98867154085621,
                2.552601304255316,
                -1.6224666094773263,
                0.9247826112883057,
                -2.3881232993545525
            ]
        },
        {
            "positions": [
                0.07961945200991882,
                -2.076531278776863,
                2.5711765320170357,
                -1.7072675049323456,
                0.8807483434880069,
                -2.2872805895449053
            ]
        },
        {
            "positions": [
                0.1318048046935666,
                -2.164391016697516,
                2.5897517597787547,
                -1.792068400387365,
                0.8367140756877081,
                -2.1864378797352586
            ]
        },
        {
            "positions": [
                0.1839901573772143,
                -2.252250754618169,
                2.608326987540474,
                -1.876869295842384,
                0.7926798078874091,
                -2.085595169925611
            ]
        },
        {
            "positions": [
                0.23617551006086196,
                -2.340110492538822,
                2.6269022153021933,
                -1.9616701912974033,
                0.7486455400871104,
                -1.9847524601159643
            ]
        },
        {
            "positions": [
                0.2883608627445097,
                -2.427970230459475,
                2.6454774430639127,
                -2.0464710867524225,
                0.7046112722868115,
                -1.8839097503063174
            ]
        },
        {
            "positions": [
                0.3405462154281575,
                -2.5158299683801277,
                2.664052670825632,
                -2.1312719822074415,
                0.6605770044865126,
                -1.78306704049667
            ]
        },
        {
            "positions": [
                0.3927315681118052,
                -2.6036897063007807,
                2.6826278985873513,
                -2.216072877662461,
                0.6165427366862137,
                -1.682224330687023
            ]
        },
        {
            "positions": [
                0.41868070405948876,
                -2.5458103930194347,
                2.658569390410155,
                -2.0705823151978913,
                0.6238449660632331,
                -1.8024786724144868
            ]
        },
        {
            "positions": [
                0.44462984000717226,
                -2.4879310797380882,
                2.634510882232958,
                -1.9250917527333213,
                0.6311471954402524,
                -1.9227330141419503
            ]
        },
        {
            "positions": [
                0.4705789759548558,
                -2.4300517664567423,
                2.6104523740557615,
                -1.7796011902687514,
                0.6384494248172718,
                -2.042987355869414
            ]
        },
        {
            "positions": [
                0.4965281119025393,
                -2.372172453175396,
                2.5863938658785646,
                -1.6341106278041817,
                0.6457516541942913,
                -2.163241697596878
            ]
        },
        {
            "positions": [
                0.5224772478502229,
                -2.31429313989405,
                2.562335357701368,
                -1.4886200653396116,
                0.6530538835713106,
                -2.2834960393243415
            ]
        },
        {
            "positions": [
                0.5484263837979064,
                -2.2564138266127034,
                2.5382768495241717,
                -1.3431295028750418,
                0.66035611294833,
                -2.403750381051805
            ]
        },
        {
            "positions": [
                0.57437551974559,
                -2.1985345133313574,
                2.5142183413469747,
                -1.197638940410472,
                0.6676583423253494,
                -2.5240047227792686
            ]
        },
        {
            "positions": [
                0.6003246556932735,
                -2.140655200050011,
                2.4901598331697783,
                -1.0521483779459022,
                0.6749605717023687,
                -2.6442590645067323
            ]
        },
        {
            "positions": [
                0.6262737916409571,
                -2.082775886768665,
                2.4661013249925814,
                -0.9066578154813323,
                0.6822628010793881,
                -2.7645134062341956
            ]
        },
        {
            "positions": [
                0.6522229275886406,
                -2.0248965734873186,
                2.442042816815385,
                -0.7611672530167624,
                0.6895650304564075,
                -2.88476774796166
            ]
        },
        {
            "positions": [
                0.6781720635363241,
                -1.9670172602059726,
                2.4179843086381885,
                -0.6156766905521927,
                0.6968672598334268,
                -3.005022089689123
            ]
        },
        {
            "positions": [
                0.7041211994840076,
                -1.9091379469246264,
                2.3939258004609916,
                -0.4701861280876226,
                0.7041694892104462,
                -3.125276431416587
            ]
        }
    ]
}