{
    "goal": {
        "global_pose": {
            "orientation": {
                "w": 0.5084816217422485,
                "x": -0.49083608388900757,
                "y": 0.5182115435600281,
                "z": -0.4816462993621826
            },
            "position": {
                "x": 0.5540239810943604,
                "y": 0.030875300988554955,
                "z": 0.16403168439865112
            }
        },
        "name": "move_to_storage_A"
    },
    "id": "BiEST_move_to_storage_A_92",
    "joint_names": [
        "shoulder_pan_joint",
        "shoulder_lift_joint",
        "elbow_joint",
        "wrist_1_joint",
        "wrist_2_joint",
        "wrist_3_joint"
    ],
    "metrics": {
        "cart_traj_len": 0.35333483963158274,
        "distance_elbow_joint": 0.45043731976653634,
        "distance_shoulder_lift_joint": 0.23307637631062228,
        "distance_shoulder_pan_joint": 0.4633026826537822,
        "distance_wrist_1_joint": 0.24664672316084946,
        "distance_wrist_2_joint": 1.0932248616073188,
        "distance_wrist_3_joint": 0.09896764737232733,
        "smoothness": 2.2204460668324854e-16,
        "time": 0.035236226999999995,
        "traj_len": 1.6079973914380075,
        "weighted_distance": 2.0306310571800728
    },
    "planner": "BiEST",
    "start": {
        "state": {
            "elbow_joint": 1.9715463870305268,
            "shoulder_lift_joint": -1.1394903361783484,
            "shoulder_pan_joint": 0.12281147578464417,
            "wrist_1_joint": -0.7804599489681411,
            "wrist_2_joint": 0.12958660307563738,
            "wrist_3_joint": -3.1924946282119055
        }
    },
    "waypoints": [
        {
            "positions": [
                0.12281147578464417,
                -1.1394903361783484,
                1.9715463870305268,
                -0.7804599489681411,
                0.12958660307563738,
                -3.1924946282119055
            ]
        },
        {
            "positions": [
                0.05662537826267529,
                -1.1727869613655801,
                2.0358945755686033,
                -0.8156951951339767,
                0.28576158330525436,
                -3.1783563928730016
            ]
        },
        {
            "positions": [
                -0.009560719259293596,
                -1.206083586552812,
                2.10024276410668,
                -0.8509304412998123,
                0.4419365635348713,
                -3.1642181575340977
            ]
        },
        {
            "positions": [
                -0.07574681678126248,
                -1.2393802117400436,
                2.1645909526447564,
                -0.8861656874656479,
                0.5981115437644883,
                -3.150079922195194
            ]
        },
        {
            "positions": [
                -0.14193291430323135,
                -1.2726768369272754,
                2.228939141182833,
                -0.9214009336314837,
                0.7542865239941052,
                -3.13594168685629
            ]
        },
        {
            "positions": [
                -0.20811901182520026,
                -1.3059734621145072,
                2.29328732972091,
                -0.9566361797973193,
                0.9104615042237223,
                -3.121803451517386
            ]
        },
        {
            "positions": [
                -0.2743051093471691,
                -1.339270087301739,
                2.3576355182589865,
                -0.9918714259631549,
                1.0666364844533391,
                -3.107665216178482
            ]
        },
        {
            "positions": [
                -0.34049120686913803,
                -1.3725667124889707,
                2.421983706797063,
                -1.0271066721289905,
                1.2228114646829562,
                -3.0935269808395782
            ]
        }
    ]
}