{
    "goal": {
        "global_pose": {
            "orientation": {
                "w": 0.7047431468963623,
                "x": -0.7094548344612122,
                "y": 0.0024358443915843964,
                "z": -0.0022348060738295317
            },
            "position": {
                "x": 0.6094750761985779,
                "y": 0.3671506643295288,
                "z": 0.19426114857196808
            }
        },
        "name": "move_to_magneteinheit_A"
    },
    "id": "BiEST_move_to_magneteinheit_A_6",
    "joint_names": [
        "shoulder_pan_joint",
        "shoulder_lift_joint",
        "elbow_joint",
        "wrist_1_joint",
        "wrist_2_joint",
        "wrist_3_joint"
    ],
    "metrics": {
        "cart_traj_len": 2.0023559386627428,
        "distance_elbow_joint": 3.9077467610537227,
        "distance_shoulder_lift_joint": 1.4361061064994431,
        "distance_shoulder_pan_joint": 1.2404363421606919,
        "distance_wrist_1_joint": 1.2862837937108247,
        "distance_wrist_2_joint": 1.7869113317452243,
        "distance_wrist_3_joint": 4.247205952060671,
        "smoothness": 0.23256015637493718,
        "time": 0.101607521,
        "traj_len": 3.728899339916617,
        "weighted_distance": 5.047008749428514
    },
    "planner": "BiEST",
    "start": {
        "state": {
            "elbow_joint": -1.919643507792019,
            "shoulder_lift_joint": -0.07675430207160344,
            "shoulder_pan_joint": -1.1188671864651873,
            "wrist_1_joint": 0.42560062535961957,
            "wrist_2_joint": 1.5706038300724876,
            "wrist_3_joint": 1.1188968870953055
        }
    },
    "waypoints": [
        {
            "positions": [
                -1.1188671864651873,
                -0.07675430207160344,
                -1.919643507792019,
                0.42560062535961957,
                1.5706038300724876,
                1.1188968870953055
            ]
        },
        {
            "positions": [
                -1.0840352499066865,
                -0.1136292244015754,
                -1.8086128486068784,
                0.38847627191781253,
                1.5230118043984209,
                0.9941445941093593
            ]
        },
        {
            "positions": [
                -1.0492033133481857,
                -0.15050414673154736,
                -1.6975821894217378,
                0.35135191847600544,
                1.4754197787243541,
                0.869392301123413
            ]
        },
        {
            "positions": [
                -1.014371376789685,
                -0.1873790690615193,
                -1.5865515302365971,
                0.31422756503419835,
                1.4278277530502874,
                0.7446400081374669
            ]
        },
        {
            "positions": [
                -0.979539440231184,
                -0.22425399139149127,
                -1.4755208710514565,
                0.2771032115923913,
                1.3802357273762207,
                0.6198877151515206
            ]
        },
        {
            "positions": [
                -0.9447075036726831,
                -0.2611289137214632,
                -1.3644902118663158,
                0.23997885815058423,
                1.332643701702154,
                0.4951354221655744
            ]
        },
        {
            "positions": [
                -0.9098755671141823,
                -0.2980038360514352,
                -1.2534595526811751,
                0.20285450470877717,
                1.2850516760280872,
                0.3703831291796281
            ]
        },
        {
            "positions": [
                -0.8750436305556815,
                -0.3348787583814071,
                -1.1424288934960345,
                0.16573015126697016,
                1.2374596503540205,
                0.24563083619368198
            ]
        },
        {
            "positions": [
                -0.8402116939971807,
                -0.3717536807113791,
                -1.0313982343108938,
                0.12860579782516307,
                1.1898676246799538,
                0.12087854320773572
            ]
        },
        {
            "positions": [
                -0.8053797574386798,
                -0.408628603041351,
                -0.9203675751257532,
                0.09148144438335598,
                1.142275599005887,
                -0.0038737497782104224
            ]
        },
        {
            "positions": [
                -0.7705478208801789,
                -0.445503525371323,
                -0.8093369159406125,
                0.05435709094154889,
                1.0946835733318203,
                -0.1286260427641568
            ]
        },
        {
            "positions": [
                -0.735715884321678,
                -0.48237844770129495,
                -0.6983062567554719,
                0.017232737499741857,
                1.0470915476577536,
                -0.25337833575010293
            ]
        },
        {
            "positions": [
                -0.7008839477631772,
                -0.5192533700312669,
                -0.5872755975703312,
                -0.019891615942065233,
                0.9994995219836869,
                -0.3781306287360493
            ]
        },
        {
            "positions": [
                -0.6660520112046764,
                -0.5561282923612388,
                -0.47624493838519055,
                -0.05701596938387221,
                0.9519074963096202,
                -0.5028829217219952
            ]
        },
        {
            "positions": [
                -0.6312200746461756,
                -0.5930032146912108,
                -0.3652142792000499,
                -0.09414032282567925,
                0.9043154706355535,
                -0.6276352147079416
            ]
        },
        {
            "positions": [
                -0.5963881380876748,
                -0.6298781370211828,
                -0.25418362001490924,
                -0.13126467626748634,
                0.8567234449614868,
                -0.7523875076938877
            ]
        },
        {
            "positions": [
                -0.5615562015291738,
                -0.6667530593511548,
                -0.14315296082976858,
                -0.16838902970929343,
                0.80913141928742,
                -0.8771398006798341
            ]
        },
        {
            "positions": [
                -0.526724264970673,
                -0.7036279816811266,
                -0.032122301644627926,
                -0.20551338315110051,
                0.7615393936133533,
                -1.0018920936657802
            ]
        },
        {
            "positions": [
                -0.49189232841217223,
                -0.7405029040110986,
                0.07890835754051273,
                -0.2426377365929076,
                0.7139473679392866,
                -1.1266443866517264
            ]
        },
        {
            "positions": [
                -0.4570603918536713,
                -0.7773778263410707,
                0.1899390167256534,
                -0.2797620900347147,
                0.6663553422652199,
                -1.2513966796376725
            ]
        },
        {
            "positions": [
                -0.4222284552951705,
                -0.8142527486710425,
                0.30096967591079404,
                -0.3168864434765218,
                0.6187633165911531,
                -1.3761489726236191
            ]
        },
        {
            "positions": [
                -0.3873965187366697,
                -0.8511276710010145,
                0.4120003350959347,
                -0.35401079691832876,
                0.5711712909170864,
                -1.5009012656095653
            ]
        },
        {
            "positions": [
                -0.3525645821781688,
                -0.8880025933309865,
                0.5230309942810754,
                -0.39113515036013585,
                0.5235792652430196,
                -1.6256535585955114
            ]
        },
        {
            "positions": [
                -0.31773264561966796,
                -0.9248775156609585,
                0.634061653466216,
                -0.42825950380194294,
                0.47598723956895284,
                -1.7504058515814576
            ]
        },
        {
            "positions": [
                -0.28290070906116704,
                -0.9617524379909304,
                0.7450923126513567,
                -0.46538385724375003,
                0.4283952138948861,
                -1.8751581445674042
            ]
        },
        {
            "positions": [
                -0.24806877250266623,
                -0.9986273603209024,
                0.8561229718364973,
                -0.5025082106855572,
                0.3808031882208194,
                -1.9999104375533503
            ]
        },
        {
            "positions": [
                -0.21323683594416554,
                -1.0355022826508742,
                0.967153631021638,
                -0.539632564127364,
                0.33321116254675287,
                -2.124662730539296
            ]
        },
        {
            "positions": [
                -0.17840489938566473,
                -1.0723772049808462,
                1.0781842902067786,
                -0.5767569175691711,
                0.28561913687268614,
                -2.249415023525242
            ]
        },
        {
            "positions": [
                -0.1435729628271638,
                -1.1092521273108182,
                1.1892149493919193,
                -0.613881271010978,
                0.2380271111986194,
                -2.3741673165111887
            ]
        },
        {
            "positions": [
                -0.108741026268663,
                -1.14612704964079,
                1.30024560857706,
                -0.6510056244527851,
                0.19043508552455268,
                -2.498919609497135
            ]
        },
        {
            "positions": [
                -0.07390908971016219,
                -1.183001971970762,
                1.4112762677622006,
                -0.6881299778945922,
                0.14284305985048595,
                -2.623671902483081
            ]
        },
        {
            "positions": [
                -0.03907715315166138,
                -1.219876894300734,
                1.5223069269473413,
                -0.7252543313363993,
                0.09525103417641922,
                -2.748424195469027
            ]
        },
        {
            "positions": [
                -0.00424521659316035,
                -1.2567518166307061,
                1.633337586132482,
                -0.7623786847782064,
                0.047659008502352496,
                -2.8731764884549738
            ]
        },
        {
            "positions": [
                0.03058671996534046,
                -1.293626738960678,
                1.7443682453176226,
                -0.7995030382200135,
                6.698282828576652e-05,
                -2.9979287814409195
            ]
        },
        {
            "positions": [
                0.06541865652384132,
                -1.33050166129065,
                1.8553989045027632,
                -0.8366273916618205,
                -0.04752504284578099,
                -3.1226810744268656
            ]
        },
        {
            "positions": [
                0.09349390610967301,
                -1.2393222876504515,
                1.9217510788822332,
                -0.8486552800065127,
                0.03686618656769687,
                -3.125495069696116
            ]
        },
        {
            "positions": [
                0.12156915569550471,
                -1.1481429140102533,
                1.9881032532617031,
                -0.8606831683512048,
                0.12125741598117473,
                -3.128309064965366
            ]
        }
    ]
}