{
    "goal": {
        "global_pose": {
            "orientation": {
                "w": 0.5084816217422485,
                "x": -0.49083608388900757,
                "y": 0.5182115435600281,
                "z": -0.4816462993621826
            },
            "position": {
                "x": 0.5540239810943604,
                "y": 0.030875300988554955,
                "z": 0.16403168439865112
            }
        },
        "name": "move_to_storage_A"
    },
    "id": "BiEST_move_to_storage_A_53",
    "joint_names": [
        "shoulder_pan_joint",
        "shoulder_lift_joint",
        "elbow_joint",
        "wrist_1_joint",
        "wrist_2_joint",
        "wrist_3_joint"
    ],
    "metrics": {
        "cart_traj_len": 0.35261259077256396,
        "distance_elbow_joint": 0.44905364390263003,
        "distance_shoulder_lift_joint": 0.23448226360077462,
        "distance_shoulder_pan_joint": 0.4606557319890797,
        "distance_wrist_1_joint": 0.24018512320115615,
        "distance_wrist_2_joint": 1.0996425848258191,
        "distance_wrist_3_joint": 0.08868070976560549,
        "smoothness": 0.0,
        "time": 0.041471296,
        "traj_len": 1.6039638578487563,
        "weighted_distance": 2.0223474441458498
    },
    "planner": "BiEST",
    "start": {
        "state": {
            "elbow_joint": 1.9715463870305268,
            "shoulder_lift_joint": -1.1394903361783484,
            "shoulder_pan_joint": 0.12281147578464417,
            "wrist_1_joint": -0.7804599489681411,
            "wrist_2_joint": 0.12958660307563738,
            "wrist_3_joint": -3.1924946282119055
        }
    },
    "waypoints": [
        {
            "positions": [
                0.12281147578464417,
                -1.1394903361783484,
                1.9715463870305268,
                -0.7804599489681411,
                0.12958660307563738,
                -3.1924946282119055
            ]
        },
        {
            "positions": [
                0.057003514071918504,
                -1.1729878024070304,
                2.0356969075880453,
                -0.8147721094254491,
                0.28667840090789726,
                -3.1798259553882477
            ]
        },
        {
            "positions": [
                -0.008804447640807164,
                -1.2064852686357126,
                2.099847428145564,
                -0.8490842698827571,
                0.4437701987401571,
                -3.1671572825645895
            ]
        },
        {
            "positions": [
                -0.07461240935353285,
                -1.2399827348643946,
                2.1639979487030825,
                -0.8833964303400651,
                0.600861996572417,
                -3.1544886097409317
            ]
        },
        {
            "positions": [
                -0.1404203710662585,
                -1.2734802010930768,
                2.228148469260601,
                -0.9177085907973732,
                0.7579537944046769,
                -3.141819936917274
            ]
        },
        {
            "positions": [
                -0.20622833277898417,
                -1.3069776673217588,
                2.2922989898181196,
                -0.9520207512546812,
                0.9150455922369368,
                -3.129151264093616
            ]
        },
        {
            "positions": [
                -0.27203629449170985,
                -1.340475133550441,
                2.356449510375638,
                -0.9863329117119892,
                1.0721373900691966,
                -3.116482591269958
            ]
        },
        {
            "positions": [
                -0.33784425620443553,
                -1.373972599779123,
                2.420600030933157,
                -1.0206450721692972,
                1.2292291879014565,
                -3.1038139184463
            ]
        }
    ]
}