{
    "goal": {
        "global_pose": {
            "orientation": {
                "w": 0.7047431468963623,
                "x": -0.7094548344612122,
                "y": 0.0024358443915843964,
                "z": -0.0022348060738295317
            },
            "position": {
                "x": 0.6094750761985779,
                "y": 0.3671506643295288,
                "z": 0.19426114857196808
            }
        },
        "name": "move_to_magneteinheit_A"
    },
    "id": "BiEST_move_to_magneteinheit_A_92",
    "joint_names": [
        "shoulder_pan_joint",
        "shoulder_lift_joint",
        "elbow_joint",
        "wrist_1_joint",
        "wrist_2_joint",
        "wrist_3_joint"
    ],
    "metrics": {
        "cart_traj_len": 1.8781748193258356,
        "distance_elbow_joint": 3.909878571376497,
        "distance_shoulder_lift_joint": 0.6997026951273225,
        "distance_shoulder_pan_joint": 1.2418145820522735,
        "distance_wrist_1_joint": 1.4879154948157052,
        "distance_wrist_2_joint": 1.704561681577568,
        "distance_wrist_3_joint": 1.1070657148110912,
        "smoothness": 5.592234510853675e-16,
        "time": 0.077081752,
        "traj_len": 3.1860537879578334,
        "weighted_distance": 3.9443056861475516
    },
    "planner": "BiEST",
    "start": {
        "state": {
            "elbow_joint": -1.919643507792019,
            "shoulder_lift_joint": -0.07675430207160344,
            "shoulder_pan_joint": -1.1188671864651873,
            "wrist_1_joint": 0.42560062535961957,
            "wrist_2_joint": 1.5706038300724876,
            "wrist_3_joint": 1.1188968870953055
        }
    },
    "waypoints": [
        {
            "positions": [
                -1.1188671864651873,
                -0.07675430207160344,
                -1.919643507792019,
                0.42560062535961957,
                1.5706038300724876,
                1.1188968870953055
            ]
        },
        {
            "positions": [
                -1.0711050871554846,
                -0.10366594419188509,
                -1.769263562739077,
                0.48282814439099286,
                1.5050437653964273,
                1.0763174365256483
            ]
        },
        {
            "positions": [
                -1.0233429878457816,
                -0.13057758631216673,
                -1.6188836176861345,
                0.5400556634223661,
                1.439483700720367,
                1.0337379859559908
            ]
        },
        {
            "positions": [
                -0.9755808885360788,
                -0.15748922843244836,
                -1.4685036726331924,
                0.5972831824537395,
                1.3739236360443066,
                0.9911585353863335
            ]
        },
        {
            "positions": [
                -0.9278187892263761,
                -0.18440087055273002,
                -1.3181237275802502,
                0.6545107014851127,
                1.3083635713682464,
                0.9485790848166762
            ]
        },
        {
            "positions": [
                -0.8800566899166732,
                -0.21131251267301165,
                -1.167743782527308,
                0.7117382205164859,
                1.242803506692186,
                0.9059996342470188
            ]
        },
        {
            "positions": [
                -0.8322945906069703,
                -0.23822415479329329,
                -1.0173638374743659,
                0.7689657395478593,
                1.1772434420161257,
                0.8634201836773614
            ]
        },
        {
            "positions": [
                -0.7845324912972675,
                -0.2651357969135749,
                -0.8669838924214237,
                0.8261932585792324,
                1.1116833773400656,
                0.8208407331077041
            ]
        },
        {
            "positions": [
                -0.7367703919875648,
                -0.29204743903385655,
                -0.7166039473684813,
                0.8834207776106058,
                1.046123312664005,
                0.7782612825380467
            ]
        },
        {
            "positions": [
                -0.6890082926778619,
                -0.3189590811541382,
                -0.5662240023155394,
                0.9406482966419791,
                0.9805632479879449,
                0.7356818319683893
            ]
        },
        {
            "positions": [
                -0.641246193368159,
                -0.34587072327441987,
                -0.415844057262597,
                0.9978758156733523,
                0.9150031833118846,
                0.693102381398732
            ]
        },
        {
            "positions": [
                -0.5934840940584563,
                -0.3727823653947015,
                -0.2654641122096548,
                1.0551033347047256,
                0.8494431186358242,
                0.6505229308290748
            ]
        },
        {
            "positions": [
                -0.5457219947487534,
                -0.39969400751498313,
                -0.11508416715671266,
                1.112330853736099,
                0.7838830539597639,
                0.6079434802594172
            ]
        },
        {
            "positions": [
                -0.4979598954390506,
                -0.42660564963526476,
                0.03529577789622951,
                1.169558372767472,
                0.7183229892837036,
                0.56536402968976
            ]
        },
        {
            "positions": [
                -0.45019779612934785,
                -0.4535172917555464,
                0.18567572294917167,
                1.2267858917988455,
                0.6527629246076434,
                0.5227845791201027
            ]
        },
        {
            "positions": [
                -0.402435696819645,
                -0.480428933875828,
                0.33605566800211384,
                1.2840134108302186,
                0.5872028599315832,
                0.4802051285504453
            ]
        },
        {
            "positions": [
                -0.3546735975099421,
                -0.5073405759961097,
                0.48643561305505645,
                1.341240929861592,
                0.5216427952555227,
                0.4376256779807879
            ]
        },
        {
            "positions": [
                -0.30691149820023933,
                -0.5342522181163913,
                0.6368155581079982,
                1.3984684488929653,
                0.45608273057946236,
                0.3950462274111305
            ]
        },
        {
            "positions": [
                -0.25914939889053645,
                -0.561163860236673,
                0.7871955031609403,
                1.4556959679243386,
                0.39052266590340223,
                0.3524667768414732
            ]
        },
        {
            "positions": [
                -0.2113872995808337,
                -0.5880755023569546,
                0.9375754482138825,
                1.5129234869557118,
                0.3249626012273419,
                0.3098873262718159
            ]
        },
        {
            "positions": [
                -0.1636252002711308,
                -0.6149871444772363,
                1.087955393266825,
                1.5701510059870851,
                0.25940253655128154,
                0.2673078757021584
            ]
        },
        {
            "positions": [
                -0.11586310096142793,
                -0.6418987865975179,
                1.2383353383197673,
                1.6273785250184585,
                0.1938424718752212,
                0.22472842513250113
            ]
        },
        {
            "positions": [
                -0.06810100165172517,
                -0.6688104287177996,
                1.3887152833727094,
                1.6846060440498316,
                0.12828240719916084,
                0.18214897456284385
            ]
        },
        {
            "positions": [
                -0.020338902342022402,
                -0.6957220708380811,
                1.5390952284256512,
                1.741833563081205,
                0.06272234252310072,
                0.13956952399318645
            ]
        },
        {
            "positions": [
                0.027423196967680585,
                -0.7226337129583629,
                1.6894751734785938,
                1.7990610821125783,
                -0.002837722152959854,
                0.09699007342352894
            ]
        },
        {
            "positions": [
                0.07518529627738335,
                -0.7495453550786444,
                1.839855118531536,
                1.8562886011439517,
                -0.06839778682901998,
                0.05441062285387166
            ]
        },
        {
            "positions": [
                0.12294739558708617,
                -0.776456997198926,
                1.990235063584478,
                1.9135161201753248,
                -0.13395785150508033,
                0.011831172284214275
            ]
        }
    ]
}