{
    "goal": {
        "global_pose": {
            "orientation": {
                "w": 0.7031023502349854,
                "x": -0.7110244035720825,
                "y": 0.007748599164187908,
                "z": 0.005598929710686207
            },
            "position": {
                "x": 0.11585023208521307,
                "y": 0.44412534475326537,
                "z": 0.3711530566215515
            }
        },
        "name": "move_to_auspresseinheit_A"
    },
    "id": "BiEST_move_to_auspresseinheit_A_65",
    "joint_names": [
        "shoulder_pan_joint",
        "shoulder_lift_joint",
        "elbow_joint",
        "wrist_1_joint",
        "wrist_2_joint",
        "wrist_3_joint"
    ],
    "metrics": {
        "cart_traj_len": 3.154481574947054,
        "distance_elbow_joint": 2.9474058117995616,
        "distance_shoulder_lift_joint": 1.421648405656385,
        "distance_shoulder_pan_joint": 4.1664977472902365,
        "distance_wrist_1_joint": 4.128210252550489,
        "distance_wrist_2_joint": 3.111567803024097,
        "distance_wrist_3_joint": 5.137276606514829,
        "smoothness": 0.6527597687765087,
        "time": 0.096066543,
        "traj_len": 4.573030354899867,
        "weighted_distance": 6.198946514968481
    },
    "planner": "BiEST",
    "start": {
        "state": {
            "elbow_joint": 2.422574709923281,
            "shoulder_lift_joint": -1.3736533754116391,
            "shoulder_pan_joint": -0.33786336945926293,
            "wrist_1_joint": -1.0288603412921917,
            "wrist_2_joint": 1.2330224858903978,
            "wrist_3_joint": -3.094022268022082
        }
    },
    "waypoints": [
        {
            "positions": [
                -0.33786336945926293,
                -1.3736533754116391,
                2.422574709923281,
                -1.0288603412921917,
                1.2330224858903978,
                -3.094022268022082
            ]
        },
        {
            "positions": [
                -0.39788440133640246,
                -1.4111007198360002,
                2.365320209647671,
                -1.096650330475166,
                1.163555211938685,
                -2.996318908605553
            ]
        },
        {
            "positions": [
                -0.45790543321354205,
                -1.4485480642603614,
                2.3080657093720607,
                -1.1644403196581403,
                1.094087937986972,
                -2.898615549189024
            ]
        },
        {
            "positions": [
                -0.5179264650906816,
                -1.4859954086847225,
                2.2508112090964505,
                -1.2322303088411146,
                1.024620664035259,
                -2.800912189772495
            ]
        },
        {
            "positions": [
                -0.5779474969678211,
                -1.5234427531090837,
                2.1935567088208403,
                -1.300020298024089,
                0.9551533900835462,
                -2.703208830355966
            ]
        },
        {
            "positions": [
                -0.6379685288449607,
                -1.5608900975334448,
                2.1363022085452306,
                -1.3678102872070632,
                0.8856861161318332,
                -2.6055054709394367
            ]
        },
        {
            "positions": [
                -0.6979895607221003,
                -1.598337441957806,
                2.0790477082696204,
                -1.4356002763900375,
                0.8162188421801203,
                -2.507802111522908
            ]
        },
        {
            "positions": [
                -0.7580105925992398,
                -1.635784786382167,
                2.02179320799401,
                -1.5033902655730116,
                0.7467515682284075,
                -2.4100987521063786
            ]
        },
        {
            "positions": [
                -0.8180316244763794,
                -1.6732321308065283,
                1.9645387077184,
                -1.571180254755986,
                0.6772842942766946,
                -2.31239539268985
            ]
        },
        {
            "positions": [
                -0.8780526563535189,
                -1.7106794752308894,
                1.9072842074427898,
                -1.6389702439389602,
                0.6078170203249816,
                -2.214692033273321
            ]
        },
        {
            "positions": [
                -0.9380736882306584,
                -1.7481268196552506,
                1.8500297071671796,
                -1.7067602331219347,
                0.5383497463732687,
                -2.116988673856792
            ]
        },
        {
            "positions": [
                -0.9980947201077981,
                -1.7855741640796117,
                1.7927752068915694,
                -1.7745502223049088,
                0.4688824724215559,
                -2.0192853144402627
            ]
        },
        {
            "positions": [
                -1.0581157519849376,
                -1.823021508503973,
                1.7355207066159593,
                -1.8423402114878833,
                0.39941519846984286,
                -1.9215819550237336
            ]
        },
        {
            "positions": [
                -1.118136783862077,
                -1.860468852928334,
                1.6782662063403493,
                -1.9101302006708574,
                0.32994792451813004,
                -1.8238785956072046
            ]
        },
        {
            "positions": [
                -1.1781578157392165,
                -1.897916197352695,
                1.6210117060647393,
                -1.9779201898538314,
                0.2604806505664172,
                -1.7261752361906755
            ]
        },
        {
            "positions": [
                -1.2381788476163562,
                -1.9353635417770563,
                1.5637572057891291,
                -2.0457101790368055,
                0.1910133766147044,
                -1.6284718767741466
            ]
        },
        {
            "positions": [
                -1.298199879493496,
                -1.9728108862014175,
                1.506502705513519,
                -2.1135001682197805,
                0.12154610266299137,
                -1.5307685173576173
            ]
        },
        {
            "positions": [
                -1.3582209113706354,
                -2.0102582306257784,
                1.4492482052379088,
                -2.1812901574027546,
                0.052078828711278335,
                -1.4330651579410885
            ]
        },
        {
            "positions": [
                -1.4182419432477749,
                -2.0477055750501396,
                1.3919937049622986,
                -2.2490801465857286,
                -0.01738844524043448,
                -1.3353617985245594
            ]
        },
        {
            "positions": [
                -1.4782629751249143,
                -2.085152919474501,
                1.3347392046866886,
                -2.3168701357687027,
                -0.0868557191921473,
                -1.2376584391080303
            ]
        },
        {
            "positions": [
                -1.538284007002054,
                -2.122600263898862,
                1.2774847044110782,
                -2.3846601249516777,
                -0.15632299314386033,
                -1.1399550796915012
            ]
        },
        {
            "positions": [
                -1.5983050388791935,
                -2.1600476083232234,
                1.2202302041354682,
                -2.4524501141346517,
                -0.22579026709557315,
                -1.0422517202749724
            ]
        },
        {
            "positions": [
                -1.6583260707563332,
                -2.197494952747584,
                1.162975703859858,
                -2.520240103317626,
                -0.29525754104728597,
                -0.9445483608584433
            ]
        },
        {
            "positions": [
                -1.7183471026334727,
                -2.2349422971719455,
                1.105721203584248,
                -2.5880300925006,
                -0.364724814998999,
                -0.8468450014419142
            ]
        },
        {
            "positions": [
                -1.7783681345106124,
                -2.2723896415963067,
                1.0484667033086377,
                -2.655820081683575,
                -0.43419208895071204,
                -0.7491416420253851
            ]
        },
        {
            "positions": [
                -1.8383891663877518,
                -2.3098369860206676,
                0.9912122030330277,
                -2.723610070866549,
                -0.5036593629024249,
                -0.6514382826088561
            ]
        },
        {
            "positions": [
                -1.8984101982648913,
                -2.347284330445029,
                0.9339577027574175,
                -2.791400060049523,
                -0.5731266368541376,
                -0.5537349231923272
            ]
        },
        {
            "positions": [
                -1.805012131910012,
                -2.33316503346607,
                0.981546304679844,
                -2.700061424489197,
                -0.5236343576721169,
                -0.6500520836231749
            ]
        },
        {
            "positions": [
                -1.7116140655551328,
                -2.3190457364871113,
                1.0291349066022706,
                -2.6087227889288713,
                -0.47414207849009626,
                -0.7463692440540226
            ]
        },
        {
            "positions": [
                -1.6182159992002538,
                -2.3049264395081526,
                1.0767235085246971,
                -2.5173841533685453,
                -0.42464979930807556,
                -0.8426864044848703
            ]
        },
        {
            "positions": [
                -1.5248179328453746,
                -2.2908071425291934,
                1.1243121104471236,
                -2.426045517808219,
                -0.3751575201260549,
                -0.939003564915718
            ]
        },
        {
            "positions": [
                -1.4314198664904954,
                -2.2766878455502346,
                1.1719007123695502,
                -2.334706882247893,
                -0.32566524094403426,
                -1.035320725346566
            ]
        },
        {
            "positions": [
                -1.3380218001356163,
                -2.262568548571276,
                1.2194893142919767,
                -2.2433682466875675,
                -0.2761729617620136,
                -1.1316378857774136
            ]
        },
        {
            "positions": [
                -1.2446237337807369,
                -2.248449251592317,
                1.2670779162144032,
                -2.1520296111272414,
                -0.2266806825799929,
                -1.2279550462082613
            ]
        },
        {
            "positions": [
                -1.1512256674258579,
                -2.2343299546133584,
                1.3146665181368298,
                -2.0606909755669154,
                -0.17718840339797226,
                -1.324272206639109
            ]
        },
        {
            "positions": [
                -1.0578276010709788,
                -2.2202106576343996,
                1.362255120059256,
                -1.9693523400065895,
                -0.1276961242159516,
                -1.4205893670699568
            ]
        },
        {
            "positions": [
                -0.9644295347160995,
                -2.206091360655441,
                1.4098437219816828,
                -1.8780137044462637,
                -0.07820384503393096,
                -1.5169065275008045
            ]
        },
        {
            "positions": [
                -0.8710314683612204,
                -2.1919720636764817,
                1.4574323239041092,
                -1.7866750688859376,
                -0.02871156585191026,
                -1.6132236879316522
            ]
        },
        {
            "positions": [
                -0.7776334020063413,
                -2.177852766697523,
                1.505020925826536,
                -1.6953364333256118,
                0.020780713330110334,
                -1.7095408483624999
            ]
        },
        {
            "positions": [
                -0.6842353356514619,
                -2.163733469718564,
                1.5526095277489622,
                -1.6039977977652857,
                0.07027299251213104,
                -1.8058580087933476
            ]
        },
        {
            "positions": [
                -0.5908372692965826,
                -2.1496141727396054,
                1.600198129671389,
                -1.5126591622049597,
                0.11976527169415174,
                -1.9021751692241955
            ]
        },
        {
            "positions": [
                -0.49743920294170363,
                -2.1354948757606467,
                1.6477867315938153,
                -1.421320526644634,
                0.16925755087617234,
                -1.998492329655043
            ]
        },
        {
            "positions": [
                -0.4040411365868244,
                -2.121375578781688,
                1.695375333516242,
                -1.329981891084308,
                0.21874983005819304,
                -2.0948094900858907
            ]
        },
        {
            "positions": [
                -0.31064307023194515,
                -2.107256281802729,
                1.7429639354386683,
                -1.238643255523982,
                0.26824210924021374,
                -2.191126650516739
            ]
        },
        {
            "positions": [
                -0.21724500387706613,
                -2.0931369848237704,
                1.7905525373610949,
                -1.147304619963656,
                0.31773438842223434,
                -2.287443810947586
            ]
        },
        {
            "positions": [
                -0.1238469375221869,
                -2.0790176878448112,
                1.8381411392835214,
                -1.0559659844033302,
                0.36722666760425493,
                -2.3837609713784342
            ]
        },
        {
            "positions": [
                -0.030448871167307656,
                -2.0648983908658525,
                1.8857297412059482,
                -0.9646273488430042,
                0.41671894678627563,
                -2.4800781318092815
            ]
        },
        {
            "positions": [
                0.06294919518757136,
                -2.0507790938868937,
                1.9333183431283745,
                -0.8732887132826783,
                0.46621122596829634,
                -2.5763952922401296
            ]
        },
        {
            "positions": [
                0.1563472615424506,
                -2.036659796907935,
                1.980906945050801,
                -0.7819500777223523,
                0.515703505150317,
                -2.672712452670977
            ]
        },
        {
            "positions": [
                0.24974532789732962,
                -2.022540499928976,
                2.0284955469732275,
                -0.6906114421620262,
                0.5651957843323377,
                -2.769029613101825
            ]
        },
        {
            "positions": [
                0.34314339425220863,
                -2.0084212029500175,
                2.076084148895654,
                -0.5992728066017006,
                0.6146880635143582,
                -2.8653467735326723
            ]
        },
        {
            "positions": [
                0.43654146060708787,
                -1.9943019059710585,
                2.1236727508180806,
                -0.5079341710413744,
                0.6641803426963788,
                -2.96166393396352
            ]
        },
        {
            "positions": [
                0.52586753765121,
                -1.9486676189875927,
                2.241665403861988,
                -0.4754399610158542,
                0.6593757488278953,
                -3.036405662200405
            ]
        },
        {
            "positions": [
                0.6151936146953321,
                -1.9030333320041266,
                2.3596580569058956,
                -0.44294575099033395,
                0.6545711549594119,
                -3.1111473904372895
            ]
        },
        {
            "positions": [
                0.7075407202197168,
                -1.9067997841862196,
                2.392746507391115,
                -0.46016197572430273,
                0.7130736679514935,
                -3.1507241848774004
            ]
        }
    ]
}