{
    "goal": {
        "global_pose": {
            "orientation": {
                "w": 0.7031023502349854,
                "x": -0.7110244035720825,
                "y": 0.007748599164187908,
                "z": 0.005598929710686207
            },
            "position": {
                "x": 0.11585023208521307,
                "y": 0.44412534475326537,
                "z": 0.3711530566215515
            }
        },
        "name": "move_to_auspresseinheit_A"
    },
    "id": "BiEST_move_to_auspresseinheit_A_66",
    "joint_names": [
        "shoulder_pan_joint",
        "shoulder_lift_joint",
        "elbow_joint",
        "wrist_1_joint",
        "wrist_2_joint",
        "wrist_3_joint"
    ],
    "metrics": {
        "cart_traj_len": 0.7620315220695997,
        "distance_elbow_joint": 0.37770775537745527,
        "distance_shoulder_lift_joint": 0.8741185695976523,
        "distance_shoulder_pan_joint": 1.0463069614653597,
        "distance_wrist_1_joint": 0.9838939628181081,
        "distance_wrist_2_joint": 1.053975882486419,
        "distance_wrist_3_joint": 5.033141954392143,
        "smoothness": 0.3946356086061594,
        "time": 0.116093745,
        "traj_len": 3.0609059257247906,
        "weighted_distance": 4.633929093137479
    },
    "planner": "BiEST",
    "start": {
        "state": {
            "elbow_joint": 2.422574709923281,
            "shoulder_lift_joint": -1.3736533754116391,
            "shoulder_pan_joint": -0.33786336945926293,
            "wrist_1_joint": -1.0288603412921917,
            "wrist_2_joint": 1.2330224858903978,
            "wrist_3_joint": -3.094022268022082
        }
    },
    "waypoints": [
        {
            "positions": [
                -0.33786336945926293,
                -1.3736533754116391,
                2.422574709923281,
                -1.0288603412921917,
                1.2330224858903978,
                -3.094022268022082
            ]
        },
        {
            "positions": [
                -0.277861678977215,
                -1.4178632947856684,
                2.4372005451259025,
                -1.0469297202420753,
                1.1864670756578453,
                -2.8948142330698383
            ]
        },
        {
            "positions": [
                -0.217859988495167,
                -1.4620732141596975,
                2.4518263803285243,
                -1.064999099191959,
                1.1399116654252928,
                -2.6956061981175945
            ]
        },
        {
            "positions": [
                -0.15785829801311901,
                -1.5062831335337266,
                2.4664522155311457,
                -1.0830684781418425,
                1.0933562551927403,
                -2.4963981631653507
            ]
        },
        {
            "positions": [
                -0.09785660753107106,
                -1.5504930529077559,
                2.481078050733767,
                -1.101137857091726,
                1.0468008449601878,
                -2.297190128213107
            ]
        },
        {
            "positions": [
                -0.03785491704902305,
                -1.5947029722817851,
                2.495703885936389,
                -1.1192072360416097,
                1.0002454347276353,
                -2.097982093260863
            ]
        },
        {
            "positions": [
                0.022146773433024902,
                -1.6389128916558142,
                2.5103297211390103,
                -1.1372766149914932,
                0.9536900244950828,
                -1.898774058308619
            ]
        },
        {
            "positions": [
                0.08214846391507291,
                -1.6831228110298433,
                2.5249555563416317,
                -1.1553459939413768,
                0.9071346142625303,
                -1.699566023356375
            ]
        },
        {
            "positions": [
                0.1421501543971208,
                -1.7273327304038726,
                2.5395813915442536,
                -1.1734153728912604,
                0.8605792040299778,
                -1.5003579884041314
            ]
        },
        {
            "positions": [
                0.20215184487916887,
                -1.7715426497779019,
                2.554207226746875,
                -1.191484751841144,
                0.8140237937974253,
                -1.3011499534518873
            ]
        },
        {
            "positions": [
                0.2621535353612168,
                -1.815752569151931,
                2.5688330619494963,
                -1.2095541307910276,
                0.7674683835648728,
                -1.1019419184996435
            ]
        },
        {
            "positions": [
                0.3221552258432648,
                -1.85996248852596,
                2.583458897152118,
                -1.2276235097409112,
                0.7209129733323203,
                -0.9027338835473997
            ]
        },
        {
            "positions": [
                0.3821569163253127,
                -1.9041724078999893,
                2.5980847323547396,
                -1.2456928886907948,
                0.6743575630997678,
                -0.7035258485951559
            ]
        },
        {
            "positions": [
                0.48489344573397714,
                -1.9623706880170904,
                2.578575600904037,
                -1.1863144911114938,
                0.5980693883887257,
                -0.6668734265941542
            ]
        },
        {
            "positions": [
                0.5876299751426416,
                -2.0205689681341914,
                2.559066469453334,
                -1.126936093532193,
                0.5217812136776836,
                -0.6302210045931526
            ]
        },
        {
            "positions": [
                0.6903665045513061,
                -2.0787672482512924,
                2.5395573380026315,
                -1.067557695952892,
                0.4454930389666415,
                -0.5935685825921508
            ]
        },
        {
            "positions": [
                0.6921742132967852,
                -2.0618667785754927,
                2.5251903041432424,
                -1.0086650736847318,
                0.4721376825229078,
                -0.8468374094883719
            ]
        },
        {
            "positions": [
                0.6939819220422642,
                -2.0449663088996926,
                2.5108232702838538,
                -0.9497724514165715,
                0.49878232607917405,
                -1.100106236384593
            ]
        },
        {
            "positions": [
                0.6957896307877433,
                -2.028065839223893,
                2.496456236424465,
                -0.8908798291484114,
                0.5254269696354403,
                -1.3533750632808141
            ]
        },
        {
            "positions": [
                0.6975973395332223,
                -2.0111653695480927,
                2.482089202565076,
                -0.8319872068802511,
                0.5520716131917067,
                -1.6066438901770352
            ]
        },
        {
            "positions": [
                0.6994050482787013,
                -1.994264899872293,
                2.467722168705687,
                -0.7730945846120909,
                0.5787162567479729,
                -1.8599127170732563
            ]
        },
        {
            "positions": [
                0.7012127570241804,
                -1.977364430196493,
                2.4533551348462983,
                -0.7142019623439306,
                0.6053609003042393,
                -2.1131815439694774
            ]
        },
        {
            "positions": [
                0.7030204657696595,
                -1.960463960520693,
                2.4389881009869097,
                -0.6553093400757704,
                0.6320055438605054,
                -2.3664503708656985
            ]
        },
        {
            "positions": [
                0.7048281745151386,
                -1.9435634908448933,
                2.4246210671275206,
                -0.5964167178076101,
                0.6586501874167718,
                -2.6197191977619196
            ]
        },
        {
            "positions": [
                0.7066358832606175,
                -1.9266630211690934,
                2.4102540332681315,
                -0.5375240955394499,
                0.6852948309730381,
                -2.8729880246581407
            ]
        },
        {
            "positions": [
                0.7084435920060966,
                -1.9097625514932934,
                2.395886999408743,
                -0.47863147327128963,
                0.7119394745293044,
                -3.126256851554362
            ]
        }
    ]
}