{
    "goal": {
        "global_pose": {
            "orientation": {
                "w": 0.5084816217422485,
                "x": -0.49083608388900757,
                "y": 0.5182115435600281,
                "z": -0.4816462993621826
            },
            "position": {
                "x": 0.5540239810943604,
                "y": 0.030875300988554955,
                "z": 0.16403168439865112
            }
        },
        "name": "move_to_storage_A"
    },
    "id": "BiEST_move_to_storage_A_67",
    "joint_names": [
        "shoulder_pan_joint",
        "shoulder_lift_joint",
        "elbow_joint",
        "wrist_1_joint",
        "wrist_2_joint",
        "wrist_3_joint"
    ],
    "metrics": {
        "cart_traj_len": 0.3531902489409062,
        "distance_elbow_joint": 0.4543125967448729,
        "distance_shoulder_lift_joint": 0.23430935761007587,
        "distance_shoulder_pan_joint": 0.46298631056471246,
        "distance_wrist_1_joint": 0.2612934500258065,
        "distance_wrist_2_joint": 1.0944994952771396,
        "distance_wrist_3_joint": 0.10313783522031095,
        "smoothness": 4.440892098500626e-16,
        "time": 0.065091788,
        "traj_len": 1.6157162639036962,
        "weighted_distance": 2.0426961744680696
    },
    "planner": "BiEST",
    "start": {
        "state": {
            "elbow_joint": 1.9715463870305268,
            "shoulder_lift_joint": -1.1394903361783484,
            "shoulder_pan_joint": 0.12281147578464417,
            "wrist_1_joint": -0.7804599489681411,
            "wrist_2_joint": 0.12958660307563738,
            "wrist_3_joint": -3.1924946282119055
        }
    },
    "waypoints": [
        {
            "positions": [
                0.12281147578464417,
                -1.1394903361783484,
                1.9715463870305268,
                -0.7804599489681411,
                0.12958660307563738,
                -3.1924946282119055
            ]
        },
        {
            "positions": [
                0.05667057427539954,
                -1.1729631015512163,
                2.0364481865655084,
                -0.8177875846861135,
                0.28594367382951447,
                -3.177760651751861
            ]
        },
        {
            "positions": [
                -0.009470327233845097,
                -1.2064358669240844,
                2.1013499861004905,
                -0.8551152204040858,
                0.4423007445833915,
                -3.1630266752918166
            ]
        },
        {
            "positions": [
                -0.07561122874308972,
                -1.2399086322969524,
                2.166251785635472,
                -0.8924428561220581,
                0.5986578153372686,
                -3.148292698831772
            ]
        },
        {
            "positions": [
                -0.14175213025233435,
                -1.2733813976698203,
                2.2311535851704543,
                -0.9297704918400305,
                0.7550148860911458,
                -3.133558722371728
            ]
        },
        {
            "positions": [
                -0.20789303176157903,
                -1.3068541630426882,
                2.296055384705436,
                -0.9670981275580028,
                0.9113719568450229,
                -3.1188247459116836
            ]
        },
        {
            "positions": [
                -0.2740339332708236,
                -1.3403269284155563,
                2.3609571842404176,
                -1.0044257632759752,
                1.0677290275988998,
                -3.104090769451639
            ]
        },
        {
            "positions": [
                -0.34017483478006827,
                -1.3737996937884243,
                2.4258589837753997,
                -1.0417533989939476,
                1.224086098352777,
                -3.0893567929915946
            ]
        }
    ]
}