{
    "goal": {
        "global_pose": {
            "orientation": {
                "w": 0.7047431468963623,
                "x": -0.7094548344612122,
                "y": 0.0024358443915843964,
                "z": -0.0022348060738295317
            },
            "position": {
                "x": 0.6094750761985779,
                "y": 0.3671506643295288,
                "z": 0.19426114857196808
            }
        },
        "name": "move_to_magneteinheit_A"
    },
    "id": "BiEST_move_to_magneteinheit_A_109",
    "joint_names": [
        "shoulder_pan_joint",
        "shoulder_lift_joint",
        "elbow_joint",
        "wrist_1_joint",
        "wrist_2_joint",
        "wrist_3_joint"
    ],
    "metrics": {
        "cart_traj_len": 1.8695789296030711,
        "distance_elbow_joint": 3.936045097095251,
        "distance_shoulder_lift_joint": 0.710425488546153,
        "distance_shoulder_pan_joint": 1.24166625513666,
        "distance_wrist_1_joint": 1.5674271919412295,
        "distance_wrist_2_joint": 1.7085226540234661,
        "distance_wrist_3_joint": 1.1944980496330788,
        "smoothness": 7.295751300709488e-16,
        "time": 0.093330554,
        "traj_len": 3.2184755298706,
        "weighted_distance": 4.0029402545637245
    },
    "planner": "BiEST",
    "start": {
        "state": {
            "elbow_joint": -1.919643507792019,
            "shoulder_lift_joint": -0.07675430207160344,
            "shoulder_pan_joint": -1.1188671864651873,
            "wrist_1_joint": 0.42560062535961957,
            "wrist_2_joint": 1.5706038300724876,
            "wrist_3_joint": 1.1188968870953055
        }
    },
    "waypoints": [
        {
            "positions": [
                -1.1188671864651873,
                -0.07675430207160344,
                -1.919643507792019,
                0.42560062535961957,
                1.5706038300724876,
                1.1188968870953055
            ]
        },
        {
            "positions": [
                -1.0728795473860517,
                -0.10306635720294244,
                -1.7738640597514543,
                0.48365348432040584,
                1.5073252132568036,
                1.0746562185903767
            ]
        },
        {
            "positions": [
                -1.0268919083069163,
                -0.12937841233428143,
                -1.6280846117108894,
                0.5417063432811922,
                1.4440465964411198,
                1.030415550085448
            ]
        },
        {
            "positions": [
                -0.9809042692277807,
                -0.15569046746562043,
                -1.4823051636703246,
                0.5997592022419784,
                1.3807679796254357,
                0.986174881580519
            ]
        },
        {
            "positions": [
                -0.9349166301486451,
                -0.18200252259695943,
                -1.3365257156297599,
                0.6578120612027647,
                1.317489362809752,
                0.9419342130755901
            ]
        },
        {
            "positions": [
                -0.8889289910695096,
                -0.20831457772829842,
                -1.1907462675891949,
                0.715864920163551,
                1.254210745994068,
                0.8976935445706613
            ]
        },
        {
            "positions": [
                -0.842941351990374,
                -0.23462663285963742,
                -1.04496681954863,
                0.7739177791243372,
                1.190932129178384,
                0.8534528760657325
            ]
        },
        {
            "positions": [
                -0.7969537129112385,
                -0.2609386879909764,
                -0.8991873715080652,
                0.8319706380851235,
                1.1276535123627,
                0.8092122075608037
            ]
        },
        {
            "positions": [
                -0.7509660738321029,
                -0.2872507431223154,
                -0.7534079234675004,
                0.8900234970459098,
                1.064374895547016,
                0.7649715390558748
            ]
        },
        {
            "positions": [
                -0.7049784347529674,
                -0.3135627982536544,
                -0.6076284754269354,
                0.948076356006696,
                1.0010962787313322,
                0.720730870550946
            ]
        },
        {
            "positions": [
                -0.6589907956738319,
                -0.3398748533849934,
                -0.4618490273863707,
                1.0061292149674823,
                0.9378176619156483,
                0.6764902020460171
            ]
        },
        {
            "positions": [
                -0.6130031565946963,
                -0.3661869085163324,
                -0.31606957934580593,
                1.0641820739282686,
                0.8745390450999644,
                0.6322495335410883
            ]
        },
        {
            "positions": [
                -0.5670155175155607,
                -0.3924989636476714,
                -0.17029013130524095,
                1.1222349328890548,
                0.8112604282842805,
                0.5880088650361595
            ]
        },
        {
            "positions": [
                -0.5210278784364252,
                -0.4188110187790104,
                -0.024510683264676203,
                1.1802877918498411,
                0.7479818114685965,
                0.5437681965312305
            ]
        },
        {
            "positions": [
                -0.4750402393572897,
                -0.4451230739103494,
                0.12126876477588877,
                1.2383406508106274,
                0.6847031946529126,
                0.49952752802630174
            ]
        },
        {
            "positions": [
                -0.42905260027815406,
                -0.47143512904168844,
                0.26704821281645397,
                1.2963935097714137,
                0.6214245778372286,
                0.4552868595213728
            ]
        },
        {
            "positions": [
                -0.38306496119901856,
                -0.4977471841730274,
                0.4128276608570183,
                1.3544463687322,
                0.5581459610215447,
                0.411046191016444
            ]
        },
        {
            "positions": [
                -0.33707732211988295,
                -0.5240592393043664,
                0.5586071088975835,
                1.4124992276929864,
                0.49486734420586065,
                0.3668055225115151
            ]
        },
        {
            "positions": [
                -0.29108968304074745,
                -0.5503712944357053,
                0.7043865569381482,
                1.4705520866537725,
                0.43158872739017684,
                0.3225648540065864
            ]
        },
        {
            "positions": [
                -0.24510204396161184,
                -0.5766833495670445,
                0.850166004978713,
                1.528604945614559,
                0.3683101105744928,
                0.2783241855016575
            ]
        },
        {
            "positions": [
                -0.19911440488247634,
                -0.6029954046983834,
                0.9959454530192777,
                1.586657804575345,
                0.305031493758809,
                0.2340835169967287
            ]
        },
        {
            "positions": [
                -0.15312676580334073,
                -0.6293074598297224,
                1.141724901059843,
                1.6447106635361315,
                0.24175287694312497,
                0.18984284849179978
            ]
        },
        {
            "positions": [
                -0.10713912672420522,
                -0.6556195149610613,
                1.2875043491004072,
                1.7027635224969175,
                0.17847426012744116,
                0.14560217998687097
            ]
        },
        {
            "positions": [
                -0.06115148764506961,
                -0.6819315700924005,
                1.4332837971409724,
                1.760816381457704,
                0.11519564331175713,
                0.10136151148194217
            ]
        },
        {
            "positions": [
                -0.015163848565934002,
                -0.7082436252237394,
                1.5790632451815372,
                1.8188692404184903,
                0.051917026496073326,
                0.057120842977013364
            ]
        },
        {
            "positions": [
                0.03082379051320161,
                -0.7345556803550783,
                1.7248426932221024,
                1.8769220993792766,
                -0.011361590319610704,
                0.012880174472084338
            ]
        },
        {
            "positions": [
                0.076811429592337,
                -0.7608677354864173,
                1.8706221412626667,
                1.9349749583400628,
                -0.07464020713529451,
                -0.031360494032844466
            ]
        },
        {
            "positions": [
                0.12279906867147267,
                -0.7871797906177564,
                2.0164015893032317,
                1.993027817300849,
                -0.1379188239509786,
                -0.07560116253777331
            ]
        }
    ]
}