{
    "goal": {
        "global_pose": {
            "orientation": {
                "w": 0.7031023502349854,
                "x": -0.7110244035720825,
                "y": 0.007748599164187908,
                "z": 0.005598929710686207
            },
            "position": {
                "x": 0.11585023208521307,
                "y": 0.44412534475326537,
                "z": 0.3711530566215515
            }
        },
        "name": "move_to_auspresseinheit_A"
    },
    "id": "BiEST_move_to_auspresseinheit_A_49",
    "joint_names": [
        "shoulder_pan_joint",
        "shoulder_lift_joint",
        "elbow_joint",
        "wrist_1_joint",
        "wrist_2_joint",
        "wrist_3_joint"
    ],
    "metrics": {
        "cart_traj_len": 0.6829884345387291,
        "distance_elbow_joint": 0.4547049985068714,
        "distance_shoulder_lift_joint": 1.133043972709447,
        "distance_shoulder_pan_joint": 1.0417439180992858,
        "distance_wrist_1_joint": 0.5666240312480925,
        "distance_wrist_2_joint": 1.6953954406203369,
        "distance_wrist_3_joint": 0.03850207933407823,
        "smoothness": 1.3396177455691307,
        "time": 0.142075929,
        "traj_len": 2.220363582956204,
        "weighted_distance": 2.6961153667925077
    },
    "planner": "BiEST",
    "start": {
        "state": {
            "elbow_joint": 2.422574709923281,
            "shoulder_lift_joint": -1.3736533754116391,
            "shoulder_pan_joint": -0.33786336945926293,
            "wrist_1_joint": -1.0288603412921917,
            "wrist_2_joint": 1.2330224858903978,
            "wrist_3_joint": -3.094022268022082
        }
    },
    "waypoints": [
        {
            "positions": [
                -0.33786336945926293,
                -1.3736533754116391,
                2.422574709923281,
                -1.0288603412921917,
                1.2330224858903978,
                -3.094022268022082
            ]
        },
        {
            "positions": [
                -0.2897784277465552,
                -1.4778720817864226,
                2.4490305539364012,
                -0.978508368629942,
                1.0936606122859374,
                -3.0968358218939844
            ]
        },
        {
            "positions": [
                -0.2416934860338475,
                -1.5820907881612063,
                2.475486397949521,
                -0.9281563959676922,
                0.954298738681477,
                -3.0996493757658867
            ]
        },
        {
            "positions": [
                -0.19360854432113975,
                -1.68630949453599,
                2.5019422419626407,
                -0.8778044233054425,
                0.8149368650770165,
                -3.102462929637789
            ]
        },
        {
            "positions": [
                -0.14552360260843203,
                -1.7905282009107735,
                2.528398085975761,
                -0.8274524506431926,
                0.6755749914725561,
                -3.105276483509691
            ]
        },
        {
            "positions": [
                -0.09743866089572431,
                -1.894746907285557,
                2.554853929988881,
                -0.777100477980943,
                0.5362131178680957,
                -3.108090037381593
            ]
        },
        {
            "positions": [
                -0.049353719183016564,
                -1.9989656136603406,
                2.581309774002001,
                -0.7267485053186932,
                0.39685124426363516,
                -3.1109035912534955
            ]
        },
        {
            "positions": [
                -0.0012687774703088461,
                -2.1031843200351243,
                2.6077656180151205,
                -0.6763965326564434,
                0.25748937065917477,
                -3.1137171451253978
            ]
        },
        {
            "positions": [
                0.04681616424239887,
                -2.207403026409908,
                2.6342214620282407,
                -0.6260445599941936,
                0.1181274970547144,
                -3.1165306989973
            ]
        },
        {
            "positions": [
                0.17822904112192367,
                -2.147544162067672,
                2.585609812747858,
                -0.5932829100041748,
                0.2342275874116451,
                -3.119729428669072
            ]
        },
        {
            "positions": [
                0.30964191800144847,
                -2.0876852977254363,
                2.536998163467476,
                -0.5605212600141559,
                0.35032767776857576,
                -3.1229281583408444
            ]
        },
        {
            "positions": [
                0.4410547948809732,
                -2.027826433383201,
                2.4883865141870936,
                -0.527759610024137,
                0.46642776812550646,
                -3.126126888012616
            ]
        },
        {
            "positions": [
                0.5724676717604981,
                -1.9679675690409653,
                2.4397748649067115,
                -0.4949979600341181,
                0.5825278584824372,
                -3.129325617684388
            ]
        },
        {
            "positions": [
                0.7038805486400228,
                -1.9081087046987295,
                2.391163215626329,
                -0.46223631004409926,
                0.6986279488393679,
                -3.1325243473561604
            ]
        }
    ]
}