{
    "goal": {
        "global_pose": {
            "orientation": {
                "w": 0.7047431468963623,
                "x": -0.7094548344612122,
                "y": 0.0024358443915843964,
                "z": -0.0022348060738295317
            },
            "position": {
                "x": 0.6094750761985779,
                "y": 0.3671506643295288,
                "z": 0.19426114857196808
            }
        },
        "name": "move_to_magneteinheit_A"
    },
    "id": "BiEST_move_to_magneteinheit_A_126",
    "joint_names": [
        "shoulder_pan_joint",
        "shoulder_lift_joint",
        "elbow_joint",
        "wrist_1_joint",
        "wrist_2_joint",
        "wrist_3_joint"
    ],
    "metrics": {
        "cart_traj_len": 2.0621162666825334,
        "distance_elbow_joint": 3.8725222171448443,
        "distance_shoulder_lift_joint": 1.0524423136298382,
        "distance_shoulder_pan_joint": 1.240925024093883,
        "distance_wrist_1_joint": 1.1224294829911645,
        "distance_wrist_2_joint": 1.44919638012749,
        "distance_wrist_3_joint": 1.8891446537023255,
        "smoothness": 7.295751299819614e-16,
        "time": 0.076577522,
        "traj_len": 3.2598558360285725,
        "weighted_distance": 4.120263977248649
    },
    "planner": "BiEST",
    "start": {
        "state": {
            "elbow_joint": -1.919643507792019,
            "shoulder_lift_joint": -0.07675430207160344,
            "shoulder_pan_joint": -1.1188671864651873,
            "wrist_1_joint": 0.42560062535961957,
            "wrist_2_joint": 1.5706038300724876,
            "wrist_3_joint": 1.1188968870953055
        }
    },
    "waypoints": [
        {
            "positions": [
                -1.1188671864651873,
                -0.07675430207160344,
                -1.919643507792019,
                0.42560062535961957,
                1.5706038300724876,
                1.1188968870953055
            ]
        },
        {
            "positions": [
                -1.0729070003876362,
                -0.1157336470208567,
                -1.7762167590088767,
                0.3840291630266135,
                1.5169298900677657,
                1.188865207602799
            ]
        },
        {
            "positions": [
                -1.0269468143100848,
                -0.15471299197010996,
                -1.6327900102257344,
                0.34245770069360737,
                1.463255950063044,
                1.2588335281102927
            ]
        },
        {
            "positions": [
                -0.9809866282325337,
                -0.19369233691936322,
                -1.489363261442592,
                0.3008862383606013,
                1.409582010058322,
                1.3288018486177862
            ]
        },
        {
            "positions": [
                -0.9350264421549825,
                -0.2326716818686165,
                -1.3459365126594496,
                0.25931477602759523,
                1.3559080700536001,
                1.3987701691252796
            ]
        },
        {
            "positions": [
                -0.8890662560774313,
                -0.2716510268178698,
                -1.2025097638763071,
                0.2177433136945891,
                1.3022341300488782,
                1.468738489632773
            ]
        },
        {
            "positions": [
                -0.84310606999988,
                -0.31063037176712305,
                -1.0590830150931647,
                0.17617185136158303,
                1.2485601900441565,
                1.5387068101402668
            ]
        },
        {
            "positions": [
                -0.7971458839223289,
                -0.3496097167163763,
                -0.9156562663100225,
                0.1346003890285769,
                1.1948862500394346,
                1.6086751306477602
            ]
        },
        {
            "positions": [
                -0.7511856978447776,
                -0.38858906166562956,
                -0.7722295175268801,
                0.09302892669557083,
                1.141212310034713,
                1.6786434511552537
            ]
        },
        {
            "positions": [
                -0.7052255117672264,
                -0.4275684066148828,
                -0.6288027687437376,
                0.051457464362564764,
                1.087538370029991,
                1.7486117716627474
            ]
        },
        {
            "positions": [
                -0.6592653256896752,
                -0.4665477515641361,
                -0.48537601996059543,
                0.009886002029558638,
                1.033864430025269,
                1.8185800921702409
            ]
        },
        {
            "positions": [
                -0.613305139612124,
                -0.5055270965133893,
                -0.341949271177453,
                -0.03168546030344743,
                0.9801904900205473,
                1.8885484126777343
            ]
        },
        {
            "positions": [
                -0.5673449535345727,
                -0.5445064414626426,
                -0.19852252239431056,
                -0.0732569226364535,
                0.9265165500158253,
                1.958516733185228
            ]
        },
        {
            "positions": [
                -0.5213847674570216,
                -0.5834857864118959,
                -0.05509577361116813,
                -0.11482838496945963,
                0.8728426100111035,
                2.0284850536927213
            ]
        },
        {
            "positions": [
                -0.4754245813794703,
                -0.6224651313611491,
                0.08833097517197408,
                -0.15639984730246576,
                0.8191686700063817,
                2.098453374200215
            ]
        },
        {
            "positions": [
                -0.42946439530191904,
                -0.6614444763104024,
                0.23175772395511696,
                -0.19797130963547188,
                0.7654947300016598,
                2.1684216947077086
            ]
        },
        {
            "positions": [
                -0.3835042092243679,
                -0.7004238212596556,
                0.37518447273825895,
                -0.2395427719684779,
                0.711820789996938,
                2.2383900152152023
            ]
        },
        {
            "positions": [
                -0.33754402314681653,
                -0.7394031662089089,
                0.5186112215214014,
                -0.281114234301484,
                0.6581468499922161,
                2.308358335722696
            ]
        },
        {
            "positions": [
                -0.2915838370692654,
                -0.7783825111581621,
                0.6620379703045438,
                -0.32268569663449004,
                0.6044729099874943,
                2.3783266562301892
            ]
        },
        {
            "positions": [
                -0.24562365099171413,
                -0.8173618561074156,
                0.8054647190876862,
                -0.3642571589674963,
                0.5507989699827724,
                2.4482949767376825
            ]
        },
        {
            "positions": [
                -0.19966346491416298,
                -0.8563412010566687,
                0.9488914678708282,
                -0.4058286213005023,
                0.4971250299780505,
                2.518263297245176
            ]
        },
        {
            "positions": [
                -0.15370327883661172,
                -0.8953205460059221,
                1.092318216653971,
                -0.4474000836335084,
                0.4434510899733286,
                2.58823161775267
            ]
        },
        {
            "positions": [
                -0.10774309275906058,
                -0.9342998909551752,
                1.235744965437113,
                -0.48897154596651443,
                0.3897771499686069,
                2.6581999382601635
            ]
        },
        {
            "positions": [
                -0.06178290668150921,
                -0.9732792359044287,
                1.379171714220256,
                -0.5305430082995206,
                0.336103209963885,
                2.7281682587676572
            ]
        },
        {
            "positions": [
                -0.015822720603958063,
                -1.0122585808536817,
                1.522598463003398,
                -0.5721144706325265,
                0.28242926995916307,
                2.7981365792751505
            ]
        },
        {
            "positions": [
                0.030137465473593084,
                -1.0512379258029352,
                1.6660252117865404,
                -0.6136859329655326,
                0.22875532995444114,
                2.8681048997826437
            ]
        },
        {
            "positions": [
                0.07609765155114423,
                -1.0902172707521884,
                1.8094519605696828,
                -0.6552573952985388,
                0.17508138994971945,
                2.9380732202901374
            ]
        },
        {
            "positions": [
                0.12205783762869551,
                -1.1291966157014417,
                1.9528787093528253,
                -0.6968288576315449,
                0.12140744994499751,
                3.008041540797631
            ]
        }
    ]
}