{
    "goal": {
        "global_pose": {
            "orientation": {
                "w": 0.5084816217422485,
                "x": -0.49083608388900757,
                "y": 0.5182115435600281,
                "z": -0.4816462993621826
            },
            "position": {
                "x": 0.5540239810943604,
                "y": 0.030875300988554955,
                "z": 0.16403168439865112
            }
        },
        "name": "move_to_storage_A"
    },
    "id": "BiEST_move_to_storage_A_18",
    "joint_names": [
        "shoulder_pan_joint",
        "shoulder_lift_joint",
        "elbow_joint",
        "wrist_1_joint",
        "wrist_2_joint",
        "wrist_3_joint"
    ],
    "metrics": {
        "cart_traj_len": 0.3539490271225489,
        "distance_elbow_joint": 0.44839585785847236,
        "distance_shoulder_lift_joint": 0.23560837208985141,
        "distance_shoulder_pan_joint": 0.46390544807448153,
        "distance_wrist_1_joint": 0.23387038785306313,
        "distance_wrist_2_joint": 1.0963290265202055,
        "distance_wrist_3_joint": 0.10219868968129742,
        "smoothness": 2.2204460668324854e-16,
        "time": 0.03889902,
        "traj_len": 1.6063336459395263,
        "weighted_distance": 2.028522757036074
    },
    "planner": "BiEST",
    "start": {
        "state": {
            "elbow_joint": 1.9715463870305268,
            "shoulder_lift_joint": -1.1394903361783484,
            "shoulder_pan_joint": 0.12281147578464417,
            "wrist_1_joint": -0.7804599489681411,
            "wrist_2_joint": 0.12958660307563738,
            "wrist_3_joint": -3.1924946282119055
        }
    },
    "waypoints": [
        {
            "positions": [
                0.12281147578464417,
                -1.1394903361783484,
                1.9715463870305268,
                -0.7804599489681411,
                0.12958660307563738,
                -3.1924946282119055
            ]
        },
        {
            "positions": [
                0.056539268916861105,
                -1.173148675048327,
                2.0356029381531657,
                -0.8138700043757215,
                0.2862050354356667,
                -3.1778948154002915
            ]
        },
        {
            "positions": [
                -0.009732937950921963,
                -1.206807013918306,
                2.0996594892758047,
                -0.847280059783302,
                0.44282346779569604,
                -3.163295002588678
            ]
        },
        {
            "positions": [
                -0.07600514481870503,
                -1.2404653527882847,
                2.1637160403984437,
                -0.8806901151908824,
                0.5994419001557254,
                -3.148695189777064
            ]
        },
        {
            "positions": [
                -0.14227735168648808,
                -1.2741236916582634,
                2.227772591521082,
                -0.9141001705984628,
                0.7560603325157548,
                -3.13409537696545
            ]
        },
        {
            "positions": [
                -0.2085495585542712,
                -1.3077820305282422,
                2.291829142643721,
                -0.9475102260060433,
                0.9126787648757841,
                -3.1194955641538358
            ]
        },
        {
            "positions": [
                -0.2748217654220542,
                -1.341440369398221,
                2.35588569376636,
                -0.9809202814136238,
                1.0692971972358134,
                -3.104895751342222
            ]
        },
        {
            "positions": [
                -0.34109397228983734,
                -1.3750987082681998,
                2.419942244888999,
                -1.0143303368212042,
                1.2259156295958429,
                -3.090295938530608
            ]
        }
    ]
}