{
    "goal": {
        "global_pose": {
            "orientation": {
                "w": 0.7031023502349854,
                "x": -0.7110244035720825,
                "y": 0.007748599164187908,
                "z": 0.005598929710686207
            },
            "position": {
                "x": 0.11585023208521307,
                "y": 0.44412534475326537,
                "z": 0.3711530566215515
            }
        },
        "name": "move_to_auspresseinheit_A"
    },
    "id": "BiEST_move_to_auspresseinheit_A_52",
    "joint_names": [
        "shoulder_pan_joint",
        "shoulder_lift_joint",
        "elbow_joint",
        "wrist_1_joint",
        "wrist_2_joint",
        "wrist_3_joint"
    ],
    "metrics": {
        "cart_traj_len": 1.7797651241491566,
        "distance_elbow_joint": 1.2098610737825455,
        "distance_shoulder_lift_joint": 1.5721655590739134,
        "distance_shoulder_pan_joint": 1.0440261689769677,
        "distance_wrist_1_joint": 0.8162498378523555,
        "distance_wrist_2_joint": 1.6177177874505229,
        "distance_wrist_3_joint": 2.1868672202955723,
        "smoothness": 1.341571874418311,
        "time": 0.09969942100000001,
        "traj_len": 2.906352980529357,
        "weighted_distance": 3.9057124463183284
    },
    "planner": "BiEST",
    "start": {
        "state": {
            "elbow_joint": 2.422574709923281,
            "shoulder_lift_joint": -1.3736533754116391,
            "shoulder_pan_joint": -0.33786336945926293,
            "wrist_1_joint": -1.0288603412921917,
            "wrist_2_joint": 1.2330224858903978,
            "wrist_3_joint": -3.094022268022082
        }
    },
    "waypoints": [
        {
            "positions": [
                -0.33786336945926293,
                -1.3736533754116391,
                2.422574709923281,
                -1.0288603412921917,
                1.2330224858903978,
                -3.094022268022082
            ]
        },
        {
            "positions": [
                -0.2915684543026565,
                -1.4586568708270988,
                2.3708847589389643,
                -1.015773524120032,
                1.1497973045036594,
                -3.0048757946981084
            ]
        },
        {
            "positions": [
                -0.24527353914605005,
                -1.5436603662425585,
                2.3191948079546476,
                -1.0026867069478724,
                1.066572123116921,
                -2.915729321374134
            ]
        },
        {
            "positions": [
                -0.1989786239894436,
                -1.6286638616580182,
                2.267504856970331,
                -0.9895998897757127,
                0.9833469417301826,
                -2.8265828480501605
            ]
        },
        {
            "positions": [
                -0.15268370883283716,
                -1.713667357073478,
                2.2158149059860137,
                -0.976513072603553,
                0.9001217603434443,
                -2.7374363747261863
            ]
        },
        {
            "positions": [
                -0.10638879367623072,
                -1.7986708524889379,
                2.164124955001697,
                -0.9634262554313934,
                0.8168965789567058,
                -2.6482899014022125
            ]
        },
        {
            "positions": [
                -0.06009387851962428,
                -1.8836743479043976,
                2.1124350040173803,
                -0.9503394382592336,
                0.7336713975699675,
                -2.5591434280782384
            ]
        },
        {
            "positions": [
                -0.013798963363017835,
                -1.9686778433198575,
                2.0607450530330635,
                -0.937252621087074,
                0.6504462161832291,
                -2.4699969547542646
            ]
        },
        {
            "positions": [
                0.03249595179358861,
                -2.053681338735317,
                2.009055102048747,
                -0.9241658039149143,
                0.5672210347964908,
                -2.380850481430291
            ]
        },
        {
            "positions": [
                0.07879086695019505,
                -2.138684834150777,
                1.9573651510644299,
                -0.9110789867427547,
                0.4839958534097524,
                -2.2917040081063167
            ]
        },
        {
            "positions": [
                0.1250857821068015,
                -2.2236883295662366,
                1.905675200080113,
                -0.897992169570595,
                0.40077067202301386,
                -2.202557534782343
            ]
        },
        {
            "positions": [
                0.17138069726340793,
                -2.3086918249816963,
                1.8539852490957962,
                -0.8849053523984353,
                0.3175454906362756,
                -2.113411061458369
            ]
        },
        {
            "positions": [
                0.21767561242001443,
                -2.393695320397156,
                1.8022952981114795,
                -0.8718185352262756,
                0.2343203092495372,
                -2.024264588134395
            ]
        },
        {
            "positions": [
                0.2525690570968093,
                -2.3360691649242322,
                1.8622289265465353,
                -0.8119223600617492,
                0.2953014554837125,
                -2.105865308680361
            ]
        },
        {
            "positions": [
                0.2874625017736042,
                -2.2784430094513084,
                1.922162554981591,
                -0.7520261848972228,
                0.35628260171788784,
                -2.187466029226327
            ]
        },
        {
            "positions": [
                0.3223559464503991,
                -2.220816853978384,
                1.9820961834166468,
                -0.6921300097326963,
                0.4172637479520631,
                -2.269066749772293
            ]
        },
        {
            "positions": [
                0.357249391127194,
                -2.1631906985054603,
                2.0420298118517026,
                -0.63223383456817,
                0.47824489418623845,
                -2.350667470318259
            ]
        },
        {
            "positions": [
                0.3921428358039889,
                -2.1055645430325365,
                2.1019634402867586,
                -0.5723376594036436,
                0.5392260404204138,
                -2.432268190864225
            ]
        },
        {
            "positions": [
                0.4270362804807838,
                -2.0479383875596127,
                2.161897068721814,
                -0.5124414842391172,
                0.600207186654589,
                -2.513868911410191
            ]
        },
        {
            "positions": [
                0.4619297251575787,
                -1.9903122320866886,
                2.22183069715687,
                -0.45254530907459073,
                0.6611883328887644,
                -2.595469631956157
            ]
        },
        {
            "positions": [
                0.4968231698343736,
                -1.9326860766137646,
                2.2817643255919258,
                -0.39264913391006434,
                0.7221694791229397,
                -2.677070352502123
            ]
        },
        {
            "positions": [
                0.5317166145111685,
                -1.8750599211408407,
                2.3416979540269818,
                -0.33275295874553795,
                0.783150625357115,
                -2.758671073048089
            ]
        },
        {
            "positions": [
                0.5898653428466806,
                -1.8862226594182012,
                2.358424289378729,
                -0.3728004438474385,
                0.759755527123087,
                -2.8862387582128193
            ]
        },
        {
            "positions": [
                0.6480140711821927,
                -1.8973853976955615,
                2.3751506247304763,
                -0.4128479289493391,
                0.736360428889059,
                -3.01380644337755
            ]
        },
        {
            "positions": [
                0.7061627995177048,
                -1.908548135972922,
                2.3918769600822234,
                -0.4528954140512396,
                0.712965330655031,
                -3.1413741285422803
            ]
        }
    ]
}