{
    "goal": {
        "global_pose": {
            "orientation": {
                "w": 0.7031023502349854,
                "x": -0.7110244035720825,
                "y": 0.007748599164187908,
                "z": 0.005598929710686207
            },
            "position": {
                "x": 0.11585023208521307,
                "y": 0.44412534475326537,
                "z": 0.3711530566215515
            }
        },
        "name": "move_to_auspresseinheit_A"
    },
    "id": "BiEST_move_to_auspresseinheit_A_95",
    "joint_names": [
        "shoulder_pan_joint",
        "shoulder_lift_joint",
        "elbow_joint",
        "wrist_1_joint",
        "wrist_2_joint",
        "wrist_3_joint"
    ],
    "metrics": {
        "cart_traj_len": 1.9800308356042873,
        "distance_elbow_joint": 2.249895401738193,
        "distance_shoulder_lift_joint": 1.1498826753089435,
        "distance_shoulder_pan_joint": 1.5803633410848499,
        "distance_wrist_1_joint": 3.186400575502129,
        "distance_wrist_2_joint": 1.4983294204584872,
        "distance_wrist_3_joint": 8.149660508360514,
        "smoothness": 0.9347980831108686,
        "time": 0.125316149,
        "traj_len": 4.220726468565942,
        "weighted_distance": 6.228850851893529
    },
    "planner": "BiEST",
    "start": {
        "state": {
            "elbow_joint": 2.422574709923281,
            "shoulder_lift_joint": -1.3736533754116391,
            "shoulder_pan_joint": -0.33786336945926293,
            "wrist_1_joint": -1.0288603412921917,
            "wrist_2_joint": 1.2330224858903978,
            "wrist_3_joint": -3.094022268022082
        }
    },
    "waypoints": [
        {
            "positions": [
                -0.33786336945926293,
                -1.3736533754116391,
                2.422574709923281,
                -1.0288603412921917,
                1.2330224858903978,
                -3.094022268022082
            ]
        },
        {
            "positions": [
                -0.3328667463893669,
                -1.397688820391259,
                2.370829059477947,
                -0.944010248921836,
                1.186929627756733,
                -2.9184316862424273
            ]
        },
        {
            "positions": [
                -0.32787012331947085,
                -1.4217242653708786,
                2.3190834090326127,
                -0.8591601565514804,
                1.1408367696230683,
                -2.7428411044627725
            ]
        },
        {
            "positions": [
                -0.32287350024957484,
                -1.4457597103504984,
                2.2673377585872787,
                -0.7743100641811247,
                1.0947439114894035,
                -2.5672505226831177
            ]
        },
        {
            "positions": [
                -0.31787687717967883,
                -1.469795155330118,
                2.2155921081419443,
                -0.689459971810769,
                1.0486510533557387,
                -2.3916599409034625
            ]
        },
        {
            "positions": [
                -0.31288025410978276,
                -1.493830600309738,
                2.1638464576966103,
                -0.6046098794404133,
                1.0025581952220741,
                -2.2160693591238076
            ]
        },
        {
            "positions": [
                -0.30788363103988675,
                -1.5178660452893575,
                2.112100807251276,
                -0.5197597870700577,
                0.9564653370884093,
                -2.040478777344153
            ]
        },
        {
            "positions": [
                -0.30288700796999074,
                -1.5419014902689774,
                2.060355156805942,
                -0.434909694699702,
                0.9103724789547446,
                -1.864888195564498
            ]
        },
        {
            "positions": [
                -0.2978903849000947,
                -1.565936935248597,
                2.0086095063606075,
                -0.3500596023293463,
                0.8642796208210799,
                -1.689297613784843
            ]
        },
        {
            "positions": [
                -0.29289376183019866,
                -1.5899723802282169,
                1.9568638559152736,
                -0.2652095099589906,
                0.8181867626874151,
                -1.513707032005188
            ]
        },
        {
            "positions": [
                -0.28789713876030265,
                -1.6140078252078365,
                1.9051182054699394,
                -0.18035941758863494,
                0.7720939045537505,
                -1.3381164502255334
            ]
        },
        {
            "positions": [
                -0.28290051569040664,
                -1.6380432701874563,
                1.8533725550246052,
                -0.09550932521827926,
                0.7260010464200857,
                -1.1625258684458784
            ]
        },
        {
            "positions": [
                -0.2779038926205106,
                -1.662078715167076,
                1.8016269045792712,
                -0.010659232847923583,
                0.679908188286421,
                -0.9869352866662235
            ]
        },
        {
            "positions": [
                -0.27290726955061456,
                -1.6861141601466958,
                1.7498812541339368,
                0.0741908595224321,
                0.6338153301527562,
                -0.8113447048865683
            ]
        },
        {
            "positions": [
                -0.2679106464807185,
                -1.7101496051263156,
                1.6981356036886028,
                0.15904095189278777,
                0.5877224720190914,
                -0.6357541231069139
            ]
        },
        {
            "positions": [
                -0.2629140234108225,
                -1.7341850501059353,
                1.6463899532432684,
                0.24389104426314345,
                0.5416296138854267,
                -0.4601635413272591
            ]
        },
        {
            "positions": [
                -0.2579174003409265,
                -1.7582204950855551,
                1.5946443027979345,
                0.32874113663349913,
                0.4955367557517619,
                -0.28457295954760387
            ]
        },
        {
            "positions": [
                -0.25292077727103046,
                -1.7822559400651747,
                1.5428986523526,
                0.4135912290038548,
                0.44944389761809733,
                -0.10898237776794906
            ]
        },
        {
            "positions": [
                -0.2479241542011344,
                -1.8062913850447946,
                1.491153001907266,
                0.4984413213742105,
                0.4033510394844325,
                0.0666082040117062
            ]
        },
        {
            "positions": [
                -0.24292753113123838,
                -1.8303268300244144,
                1.4394073514619317,
                0.5832914137445662,
                0.3572581813507678,
                0.242198785791361
            ]
        },
        {
            "positions": [
                -0.23793090806134237,
                -1.854362275004034,
                1.3876617010165977,
                0.6681415061149218,
                0.3111653232171031,
                0.41778936757101537
            ]
        },
        {
            "positions": [
                -0.2329342849914463,
                -1.8783977199836537,
                1.3359160505712635,
                0.7529915984852775,
                0.2650724650834383,
                0.5933799493506706
            ]
        },
        {
            "positions": [
                -0.2279376619215503,
                -1.9024331649632735,
                1.2841704001259293,
                0.8378416908556331,
                0.21897960694977348,
                0.7689705311303257
            ]
        },
        {
            "positions": [
                -0.17404004096726525,
                -1.9087122120638604,
                1.352534385517688,
                0.7892900094001803,
                0.23333304267022512,
                0.5693395336260383
            ]
        },
        {
            "positions": [
                -0.12014242001298019,
                -1.9149912591644476,
                1.4208983709094465,
                0.7407383279447276,
                0.24768647839067676,
                0.36970853612175103
            ]
        },
        {
            "positions": [
                -0.06624479905869513,
                -1.9212703062650345,
                1.489262356301205,
                0.6921866464892749,
                0.26203991411112837,
                0.17007753861746366
            ]
        },
        {
            "positions": [
                -0.012347178104410078,
                -1.9275493533656216,
                1.5576263416929637,
                0.643634965033822,
                0.27639334983158004,
                -0.02955345888682359
            ]
        },
        {
            "positions": [
                0.041550442849875024,
                -1.9338284004662085,
                1.6259903270847222,
                0.5950832835783693,
                0.29074678555203165,
                -0.22918445639111107
            ]
        },
        {
            "positions": [
                0.09544806380416004,
                -1.9401074475667957,
                1.6943543124764808,
                0.5465316021229165,
                0.30510022127248326,
                -0.4288154538953983
            ]
        },
        {
            "positions": [
                0.14934568475844512,
                -1.9463864946673826,
                1.7627182978682394,
                0.49797992066746377,
                0.31945365699293493,
                -0.6284464513996857
            ]
        },
        {
            "positions": [
                0.20324330571273014,
                -1.9526655417679695,
                1.831082283259998,
                0.449428239212011,
                0.33380709271338654,
                -0.8280774489039728
            ]
        },
        {
            "positions": [
                0.25714092666701527,
                -1.9589445888685566,
                1.8994462686517566,
                0.4008765577565582,
                0.3481605284338382,
                -1.0277084464082604
            ]
        },
        {
            "positions": [
                0.31103854762130034,
                -1.9652236359691435,
                1.9678102540435152,
                0.3523248763011055,
                0.3625139641542898,
                -1.2273394439125478
            ]
        },
        {
            "positions": [
                0.3649361685755853,
                -1.9715026830697306,
                2.0361742394352738,
                0.3037731948456528,
                0.3768673998747415,
                -1.4269704414168352
            ]
        },
        {
            "positions": [
                0.4188337895298704,
                -1.9777817301703176,
                2.1045382248270323,
                0.25522151339020005,
                0.3912208355951931,
                -1.6266014389211223
            ]
        },
        {
            "positions": [
                0.47273141048415546,
                -1.9840607772709047,
                2.172902210218791,
                0.2066698319347472,
                0.4055742713156447,
                -1.8262324364254099
            ]
        },
        {
            "positions": [
                0.5266290314384405,
                -1.9903398243714916,
                2.2412661956105495,
                0.15811815047929448,
                0.4199277070360964,
                -2.0258634339296973
            ]
        },
        {
            "positions": [
                0.6384020400876228,
                -2.0469187649063074,
                2.266252940172431,
                0.1093977662286458,
                0.4762810378475587,
                -1.9771456169487043
            ]
        },
        {
            "positions": [
                0.7501750487368051,
                -2.1034977054411232,
                2.291239684734313,
                0.060677381977997116,
                0.5326343686590209,
                -1.9284277999677113
            ]
        },
        {
            "positions": [
                0.8619480573859875,
                -2.160076645975939,
                2.316226429296194,
                0.011956997727348428,
                0.5889876994704832,
                -1.879709982986718
            ]
        },
        {
            "positions": [
                0.9737210660351697,
                -2.216655586510755,
                2.3412131738580757,
                -0.036763386523300245,
                0.6453410302819456,
                -1.8309921660057251
            ]
        },
        {
            "positions": [
                0.935324079522253,
                -2.172815520195065,
                2.3489915050307464,
                -0.10034816737692481,
                0.6536160471656158,
                -2.016272519752027
            ]
        },
        {
            "positions": [
                0.8969270930093364,
                -2.1289754538793755,
                2.356769836203417,
                -0.16393294823054938,
                0.6618910640492862,
                -2.201552873498329
            ]
        },
        {
            "positions": [
                0.8585301064964197,
                -2.0851353875636858,
                2.3645481673760878,
                -0.22751772908417395,
                0.6701660809329565,
                -2.3868332272446313
            ]
        },
        {
            "positions": [
                0.8201331199835031,
                -2.041295321247996,
                2.3723264985487584,
                -0.2911025099377985,
                0.6784410978166269,
                -2.5721135809909335
            ]
        },
        {
            "positions": [
                0.7817361334705865,
                -1.9974552549323066,
                2.380104829721429,
                -0.3546872907914231,
                0.6867161147002971,
                -2.7573939347372356
            ]
        },
        {
            "positions": [
                0.7433391469576698,
                -1.9536151886166169,
                2.3878831608941,
                -0.41827207164504765,
                0.6949911315839675,
                -2.9426742884835373
            ]
        },
        {
            "positions": [
                0.7049421604447531,
                -1.9097751223009272,
                2.3956614920667705,
                -0.4818568524986722,
                0.7032661484676378,
                -3.1279546422298394
            ]
        }
    ]
}