{
    "goal": {
        "global_pose": {
            "orientation": {
                "w": 0.7047431468963623,
                "x": -0.7094548344612122,
                "y": 0.0024358443915843964,
                "z": -0.0022348060738295317
            },
            "position": {
                "x": 0.6094750761985779,
                "y": 0.3671506643295288,
                "z": 0.19426114857196808
            }
        },
        "name": "move_to_magneteinheit_A"
    },
    "id": "BiEST_move_to_magneteinheit_A_49",
    "joint_names": [
        "shoulder_pan_joint",
        "shoulder_lift_joint",
        "elbow_joint",
        "wrist_1_joint",
        "wrist_2_joint",
        "wrist_3_joint"
    ],
    "metrics": {
        "cart_traj_len": 2.066495735716675,
        "distance_elbow_joint": 3.883624075599915,
        "distance_shoulder_lift_joint": 1.0577861458379705,
        "distance_shoulder_pan_joint": 1.2420547557566302,
        "distance_wrist_1_joint": 1.1713668675644167,
        "distance_wrist_2_joint": 1.4418358566094445,
        "distance_wrist_3_joint": 1.9303440054347276,
        "smoothness": 1.8376105380682637e-16,
        "time": 0.09684122199999999,
        "traj_len": 3.275211704119766,
        "weighted_distance": 4.147397068264191
    },
    "planner": "BiEST",
    "start": {
        "state": {
            "elbow_joint": -1.919643507792019,
            "shoulder_lift_joint": -0.07675430207160344,
            "shoulder_pan_joint": -1.1188671864651873,
            "wrist_1_joint": 0.42560062535961957,
            "wrist_2_joint": 1.5706038300724876,
            "wrist_3_joint": 1.1188968870953055
        }
    },
    "waypoints": [
        {
            "positions": [
                -1.1188671864651873,
                -0.07675430207160344,
                -1.919643507792019,
                0.42560062535961957,
                1.5706038300724876,
                1.1188968870953055
            ]
        },
        {
            "positions": [
                -1.0745080880453077,
                -0.1145323787086738,
                -1.780942647949165,
                0.3837660943751761,
                1.519109692336436,
                1.18783774443226
            ]
        },
        {
            "positions": [
                -1.0301489896254281,
                -0.15231045534574417,
                -1.642241788106311,
                0.34193156339073266,
                1.4676155546003844,
                1.2567786017692146
            ]
        },
        {
            "positions": [
                -0.9857898912055484,
                -0.19008853198281456,
                -1.5035409282634569,
                0.3000970324062892,
                1.4161214168643328,
                1.3257194591061692
            ]
        },
        {
            "positions": [
                -0.9414307927856688,
                -0.22786660861988492,
                -1.3648400684206026,
                0.25826250142184576,
                1.3646272791282812,
                1.3946603164431237
            ]
        },
        {
            "positions": [
                -0.897071694365789,
                -0.2656446852569553,
                -1.2261392085777485,
                0.2164279704374023,
                1.3131331413922296,
                1.4636011737800785
            ]
        },
        {
            "positions": [
                -0.8527125959459094,
                -0.30342276189402567,
                -1.0874383487348944,
                0.17459343945295885,
                1.2616390036561782,
                1.5325420311170328
            ]
        },
        {
            "positions": [
                -0.8083534975260298,
                -0.34120083853109606,
                -0.9487374888920403,
                0.1327589084685154,
                1.2101448659201264,
                1.6014828884539876
            ]
        },
        {
            "positions": [
                -0.7639943991061502,
                -0.3789789151681664,
                -0.8100366290491863,
                0.09092437748407195,
                1.158650728184075,
                1.6704237457909419
            ]
        },
        {
            "positions": [
                -0.7196353006862705,
                -0.41675699180523684,
                -0.671335769206332,
                0.04908984649962844,
                1.1071565904480232,
                1.7393646031278966
            ]
        },
        {
            "positions": [
                -0.6752762022663908,
                -0.4545350684423072,
                -0.5326349093634779,
                0.007255315515185046,
                1.0556624527119718,
                1.8083054604648512
            ]
        },
        {
            "positions": [
                -0.6309171038465112,
                -0.49231314507937757,
                -0.39393404952062405,
                -0.034579215469258406,
                1.0041683149759202,
                1.8772463178018057
            ]
        },
        {
            "positions": [
                -0.5865580054266316,
                -0.530091221716448,
                -0.25523318967777,
                -0.07641374645370186,
                0.9526741772398686,
                1.94618717513876
            ]
        },
        {
            "positions": [
                -0.5421989070067519,
                -0.5678692983535183,
                -0.11653232983491568,
                -0.11824827743814531,
                0.901180039503817,
                2.015128032475715
            ]
        },
        {
            "positions": [
                -0.49783980858687227,
                -0.6056473749905886,
                0.022168530007938392,
                -0.16008280842258876,
                0.8496859017677654,
                2.084068889812669
            ]
        },
        {
            "positions": [
                -0.45348071016699265,
                -0.643425451627659,
                0.16086938985079224,
                -0.20191733940703221,
                0.7981917640317138,
                2.153009747149624
            ]
        },
        {
            "positions": [
                -0.40912161174711303,
                -0.6812035282647293,
                0.29957024969364654,
                -0.24375187039147567,
                0.7466976262956623,
                2.2219506044865787
            ]
        },
        {
            "positions": [
                -0.3647625133272334,
                -0.7189816049017999,
                0.4382711095365004,
                -0.285586401375919,
                0.6952034885596107,
                2.290891461823533
            ]
        },
        {
            "positions": [
                -0.3204034149073536,
                -0.7567596815388702,
                0.5769719693793551,
                -0.3274209323603627,
                0.643709350823559,
                2.3598323191604877
            ]
        },
        {
            "positions": [
                -0.27604431648747396,
                -0.7945377581759405,
                0.715672829222209,
                -0.369255463344806,
                0.5922152130875074,
                2.428773176497442
            ]
        },
        {
            "positions": [
                -0.23168521806759435,
                -0.8323158348130109,
                0.8543736890650633,
                -0.4110899943292495,
                0.5407210753514557,
                2.497714033834397
            ]
        },
        {
            "positions": [
                -0.18732611964771473,
                -0.8700939114500814,
                0.9930745489079171,
                -0.4529245253136929,
                0.48922693761540414,
                2.566654891171351
            ]
        },
        {
            "positions": [
                -0.1429670212278351,
                -0.9078719880871517,
                1.131775408750771,
                -0.4947590562981364,
                0.43773279987935276,
                2.6355957485083055
            ]
        },
        {
            "positions": [
                -0.0986079228079555,
                -0.9456500647242221,
                1.2704762685936253,
                -0.5365935872825798,
                0.38623866214330116,
                2.7045366058452602
            ]
        },
        {
            "positions": [
                -0.05424882438807588,
                -0.9834281413612924,
                1.4091771284364791,
                -0.5784281182670232,
                0.33474452440724956,
                2.773477463182215
            ]
        },
        {
            "positions": [
                -0.00988972596819604,
                -1.0212062179983628,
                1.5478779882793339,
                -0.6202626492514667,
                0.28325038667119773,
                2.8424183205191698
            ]
        },
        {
            "positions": [
                0.03446937245168358,
                -1.0589842946354333,
                1.6865788481221877,
                -0.6620971802359101,
                0.23175624893514635,
                2.911359177856124
            ]
        },
        {
            "positions": [
                0.0788284708715632,
                -1.0967623712725036,
                1.825279707965042,
                -0.7039317112203536,
                0.18026211119909474,
                2.9803000351930784
            ]
        },
        {
            "positions": [
                0.1231875692914429,
                -1.134540447909574,
                1.9639805678078956,
                -0.7457662422047971,
                0.12876797346304325,
                3.049240892530033
            ]
        }
    ]
}