{
    "goal": {
        "global_pose": {
            "orientation": {
                "w": 0.5084816217422485,
                "x": -0.49083608388900757,
                "y": 0.5182115435600281,
                "z": -0.4816462993621826
            },
            "position": {
                "x": 0.5540239810943604,
                "y": 0.030875300988554955,
                "z": 0.16403168439865112
            }
        },
        "name": "move_to_storage_A"
    },
    "id": "BiEST_move_to_storage_A_77",
    "joint_names": [
        "shoulder_pan_joint",
        "shoulder_lift_joint",
        "elbow_joint",
        "wrist_1_joint",
        "wrist_2_joint",
        "wrist_3_joint"
    ],
    "metrics": {
        "cart_traj_len": 0.35376932549778617,
        "distance_elbow_joint": 0.4510513451523006,
        "distance_shoulder_lift_joint": 0.2346397654620156,
        "distance_shoulder_pan_joint": 0.4644457105421234,
        "distance_wrist_1_joint": 0.2466861771501535,
        "distance_wrist_2_joint": 1.0924150285504113,
        "distance_wrist_3_joint": 0.08921974919002063,
        "smoothness": 4.440892098500626e-16,
        "time": 0.042471465,
        "traj_len": 1.6057576953099197,
        "weighted_distance": 2.0238573270187876
    },
    "planner": "BiEST",
    "start": {
        "state": {
            "elbow_joint": 1.9715463870305268,
            "shoulder_lift_joint": -1.1394903361783484,
            "shoulder_pan_joint": 0.12281147578464417,
            "wrist_1_joint": -0.7804599489681411,
            "wrist_2_joint": 0.12958660307563738,
            "wrist_3_joint": -3.1924946282119055
        }
    },
    "waypoints": [
        {
            "positions": [
                0.12281147578464417,
                -1.1394903361783484,
                1.9715463870305268,
                -0.7804599489681411,
                0.12958660307563738,
                -3.1924946282119055
            ]
        },
        {
            "positions": [
                0.05646208856434083,
                -1.173010302672922,
                2.0359822934808554,
                -0.815700831418163,
                0.28564589286855324,
                -3.1797489497561884
            ]
        },
        {
            "positions": [
                -0.00988729865596251,
                -1.2065302691674957,
                2.100418199931184,
                -0.850941713868185,
                0.4417051826614692,
                -3.167003271300471
            ]
        },
        {
            "positions": [
                -0.07623668587626585,
                -1.2400502356620693,
                2.1648541063815125,
                -0.8861825963182068,
                0.597764472454385,
                -3.154257592844754
            ]
        },
        {
            "positions": [
                -0.14258607309656918,
                -1.273570202156643,
                2.229290012831841,
                -0.9214234787682288,
                0.753823762247301,
                -3.1415119143890364
            ]
        },
        {
            "positions": [
                -0.20893546031687255,
                -1.3070901686512166,
                2.29372591928217,
                -0.9566643612182507,
                0.9098830520402169,
                -3.1287662359333193
            ]
        },
        {
            "positions": [
                -0.27528484753717586,
                -1.3406101351457904,
                2.3581618257324988,
                -0.9919052436682727,
                1.0659423418331326,
                -3.116020557477602
            ]
        },
        {
            "positions": [
                -0.3416342347574792,
                -1.374130101640364,
                2.4225977321828274,
                -1.0271461261182946,
                1.2220016316260487,
                -3.103274879021885
            ]
        }
    ]
}