{
    "goal": {
        "global_pose": {
            "orientation": {
                "w": 0.7031023502349854,
                "x": -0.7110244035720825,
                "y": 0.007748599164187908,
                "z": 0.005598929710686207
            },
            "position": {
                "x": 0.11585023208521307,
                "y": 0.44412534475326537,
                "z": 0.3711530566215515
            }
        },
        "name": "move_to_auspresseinheit_A"
    },
    "id": "BiEST_move_to_auspresseinheit_A_144",
    "joint_names": [
        "shoulder_pan_joint",
        "shoulder_lift_joint",
        "elbow_joint",
        "wrist_1_joint",
        "wrist_2_joint",
        "wrist_3_joint"
    ],
    "metrics": {
        "cart_traj_len": 1.89382412254101,
        "distance_elbow_joint": 3.031037919540902,
        "distance_shoulder_lift_joint": 0.6966646719221303,
        "distance_shoulder_pan_joint": 1.040302657091113,
        "distance_wrist_1_joint": 1.8873076522610885,
        "distance_wrist_2_joint": 1.9604386181842088,
        "distance_wrist_3_joint": 3.553810434330049,
        "smoothness": 0.7804764936003217,
        "time": 0.125548638,
        "traj_len": 3.488489924498779,
        "weighted_distance": 4.80883864279463
    },
    "planner": "BiEST",
    "start": {
        "state": {
            "elbow_joint": 2.422574709923281,
            "shoulder_lift_joint": -1.3736533754116391,
            "shoulder_pan_joint": -0.33786336945926293,
            "wrist_1_joint": -1.0288603412921917,
            "wrist_2_joint": 1.2330224858903978,
            "wrist_3_joint": -3.094022268022082
        }
    },
    "waypoints": [
        {
            "positions": [
                -0.33786336945926293,
                -1.3736533754116391,
                2.422574709923281,
                -1.0288603412921917,
                1.2330224858903978,
                -3.094022268022082
            ]
        },
        {
            "positions": [
                -0.32146444043550965,
                -1.3812473377759986,
                2.3205022129052213,
                -0.9657935441928371,
                1.149911862138977,
                -2.977274450247936
            ]
        },
        {
            "positions": [
                -0.3050655114117564,
                -1.3888413001403581,
                2.2184297158871615,
                -0.9027267470934826,
                1.0668012383875565,
                -2.86052663247379
            ]
        },
        {
            "positions": [
                -0.28866658238800313,
                -1.3964352625047176,
                2.1163572188691013,
                -0.839659949994128,
                0.9836906146361358,
                -2.7437788146996436
            ]
        },
        {
            "positions": [
                -0.2722676533642499,
                -1.404029224869077,
                2.0142847218510416,
                -0.7765931528947734,
                0.9005799908847152,
                -2.6270309969254977
            ]
        },
        {
            "positions": [
                -0.2558687243404966,
                -1.4116231872334366,
                1.9122122248329818,
                -0.7135263557954188,
                0.8174693671332945,
                -2.510283179151352
            ]
        },
        {
            "positions": [
                -0.23946979531674337,
                -1.419217149597796,
                1.8101397278149216,
                -0.6504595586960642,
                0.7343587433818739,
                -2.3935353613772055
            ]
        },
        {
            "positions": [
                -0.2230708662929901,
                -1.4268111119621556,
                1.7080672307968618,
                -0.5873927615967096,
                0.6512481196304531,
                -2.276787543603059
            ]
        },
        {
            "positions": [
                -0.20667193726923686,
                -1.4344050743265149,
                1.605994733778802,
                -0.524325964497355,
                0.5681374958790326,
                -2.1600397258289132
            ]
        },
        {
            "positions": [
                -0.1902730082454836,
                -1.4419990366908744,
                1.5039222367607423,
                -0.46125916739800044,
                0.485026872127612,
                -2.0432919080547673
            ]
        },
        {
            "positions": [
                -0.17387407922173034,
                -1.4495929990552339,
                1.4018497397426823,
                -0.39819237029864585,
                0.40191624837619133,
                -1.926544090280621
            ]
        },
        {
            "positions": [
                -0.1574751501979771,
                -1.4571869614195934,
                1.2997772427246224,
                -0.33512557319929126,
                0.3188056246247707,
                -1.809796272506475
            ]
        },
        {
            "positions": [
                -0.1410762211742238,
                -1.4647809237839529,
                1.1977047457065624,
                -0.27205877609993667,
                0.23569500087334994,
                -1.6930484547323286
            ]
        },
        {
            "positions": [
                -0.12467729215047055,
                -1.4723748861483124,
                1.0956322486885026,
                -0.20899197900058208,
                0.1525843771219293,
                -1.5763006369581825
            ]
        },
        {
            "positions": [
                -0.10827836312671729,
                -1.4799688485126719,
                0.9935597516704426,
                -0.1459251819012275,
                0.06947375337050854,
                -1.4595528191840363
            ]
        },
        {
            "positions": [
                -0.09187943410296404,
                -1.4875628108770313,
                0.8914872546523828,
                -0.08285838480187285,
                -0.013636870380912058,
                -1.3428050014098902
            ]
        },
        {
            "positions": [
                -0.04383114247415948,
                -1.5287326892217654,
                1.0020445911779365,
                -0.059095779357388654,
                0.03604183076797397,
                -1.4404719450349348
            ]
        },
        {
            "positions": [
                0.004217149154645078,
                -1.5699025675664995,
                1.1126019277034902,
                -0.035333173912904456,
                0.08572053191686001,
                -1.5381388886599796
            ]
        },
        {
            "positions": [
                0.052265440783449635,
                -1.6110724459112338,
                1.2231592642290439,
                -0.01157056846842025,
                0.13539923306574606,
                -1.6358058322850242
            ]
        },
        {
            "positions": [
                0.10031373241225419,
                -1.6522423242559678,
                1.3337166007545975,
                0.012192036976063941,
                0.1850779342146321,
                -1.7334727759100688
            ]
        },
        {
            "positions": [
                0.14836202404105875,
                -1.693412202600702,
                1.4442739372801512,
                0.03595464242054816,
                0.23475663536351812,
                -1.8311397195351136
            ]
        },
        {
            "positions": [
                0.1964103156698633,
                -1.7345820809454362,
                1.5548312738057048,
                0.05971724786503235,
                0.28443533651240416,
                -1.9288066631601581
            ]
        },
        {
            "positions": [
                0.2444586072986679,
                -1.7757519592901703,
                1.6653886103312587,
                0.08347985330951657,
                0.3341140376612902,
                -2.0264736067852027
            ]
        },
        {
            "positions": [
                0.2925068989274724,
                -1.8169218376349043,
                1.7759459468568122,
                0.10724245875400074,
                0.3837927388101762,
                -2.1241405504102473
            ]
        },
        {
            "positions": [
                0.3405551905562769,
                -1.8580917159796384,
                1.886503283382366,
                0.13100506419848496,
                0.4334714399590623,
                -2.221807494035292
            ]
        },
        {
            "positions": [
                0.38860348218508156,
                -1.8992615943243725,
                1.99706061990792,
                0.15476766964296917,
                0.4831501411079483,
                -2.319474437660337
            ]
        },
        {
            "positions": [
                0.4366517738138861,
                -1.9404314726691068,
                2.1076179564334736,
                0.17853027508745334,
                0.5328288422568342,
                -2.417141381285381
            ]
        },
        {
            "positions": [
                0.4847000654426906,
                -1.9816013510138408,
                2.2181752929590273,
                0.20229288053193753,
                0.5825075434057203,
                -2.514808324910426
            ]
        },
        {
            "positions": [
                0.5237191653778905,
                -1.9851862703422374,
                2.273185038692885,
                0.1317517114414945,
                0.613622770859692,
                -2.6166908227511287
            ]
        },
        {
            "positions": [
                0.5627382653130903,
                -1.988771189670634,
                2.3281947844267425,
                0.06121054235105147,
                0.6447379983136636,
                -2.7185733205918314
            ]
        },
        {
            "positions": [
                0.5976635208927803,
                -1.96838447525485,
                2.3440055180506536,
                -0.06755748071296691,
                0.6585890966182446,
                -2.8252795327258107
            ]
        },
        {
            "positions": [
                0.6325887764724702,
                -1.9479977608390662,
                2.3598162516745647,
                -0.1963255037769853,
                0.6724401949228256,
                -2.93198574485979
            ]
        },
        {
            "positions": [
                0.6675140320521603,
                -1.9276110464232823,
                2.3756269852984757,
                -0.3250935268410037,
                0.6862912932274067,
                -3.0386919569937687
            ]
        },
        {
            "positions": [
                0.7024392876318503,
                -1.9072243320074984,
                2.3914377189223868,
                -0.4538615499050221,
                0.7001423915319877,
                -3.145398169127748
            ]
        }
    ]
}