{
    "goal": {
        "global_pose": {
            "orientation": {
                "w": 0.7031023502349854,
                "x": -0.7110244035720825,
                "y": 0.007748599164187908,
                "z": 0.005598929710686207
            },
            "position": {
                "x": 0.11585023208521307,
                "y": 0.44412534475326537,
                "z": 0.3711530566215515
            }
        },
        "name": "move_to_auspresseinheit_A"
    },
    "id": "BiEST_move_to_auspresseinheit_A_136",
    "joint_names": [
        "shoulder_pan_joint",
        "shoulder_lift_joint",
        "elbow_joint",
        "wrist_1_joint",
        "wrist_2_joint",
        "wrist_3_joint"
    ],
    "metrics": {
        "cart_traj_len": 0.7105285930534555,
        "distance_elbow_joint": 0.35623512556694426,
        "distance_shoulder_lift_joint": 0.5318061350656083,
        "distance_shoulder_pan_joint": 1.0494822334556915,
        "distance_wrist_1_joint": 1.340368894699032,
        "distance_wrist_2_joint": 0.5105488912099769,
        "distance_wrist_3_joint": 1.260461701047804,
        "smoothness": 1.1315188216129488,
        "time": 0.143494541,
        "traj_len": 2.246976408653428,
        "weighted_distance": 3.0693230799395614
    },
    "planner": "BiEST",
    "start": {
        "state": {
            "elbow_joint": 2.422574709923281,
            "shoulder_lift_joint": -1.3736533754116391,
            "shoulder_pan_joint": -0.33786336945926293,
            "wrist_1_joint": -1.0288603412921917,
            "wrist_2_joint": 1.2330224858903978,
            "wrist_3_joint": -3.094022268022082
        }
    },
    "waypoints": [
        {
            "positions": [
                -0.33786336945926293,
                -1.3736533754116391,
                2.422574709923281,
                -1.0288603412921917,
                1.2330224858903978,
                -3.094022268022082
            ]
        },
        {
            "positions": [
                -0.2766253673991065,
                -1.4208692140034735,
                2.3982197953239033,
                -0.909085729224238,
                1.1708627157445741,
                -3.018209224981815
            ]
        },
        {
            "positions": [
                -0.2153873653389501,
                -1.468085052595308,
                2.3738648807245255,
                -0.7893111171562844,
                1.1087029455987505,
                -2.9423961819415476
            ]
        },
        {
            "positions": [
                -0.15414936327879367,
                -1.5153008911871424,
                2.3495099661251477,
                -0.6695365050883308,
                1.0465431754529269,
                -2.86658313890128
            ]
        },
        {
            "positions": [
                -0.09291136121863725,
                -1.5625167297789768,
                2.32515505152577,
                -0.5497618930203771,
                0.9843834053071031,
                -2.790770095861013
            ]
        },
        {
            "positions": [
                -0.03167335915848085,
                -1.6097325683708112,
                2.3008001369263917,
                -0.42998728095242345,
                0.9222236351612795,
                -2.714957052820746
            ]
        },
        {
            "positions": [
                0.029564642901675597,
                -1.6569484069626457,
                2.276445222327014,
                -0.31021266888446986,
                0.8600638650154557,
                -2.6391440097804786
            ]
        },
        {
            "positions": [
                0.09080264496183205,
                -1.70416424555448,
                2.252090307727636,
                -0.19043805681651627,
                0.7979040948696321,
                -2.563330966740211
            ]
        },
        {
            "positions": [
                0.1520406470219884,
                -1.7513800841463145,
                2.2277353931282584,
                -0.07066344474856256,
                0.7357443247238085,
                -2.487517923699944
            ]
        },
        {
            "positions": [
                0.2639562904168764,
                -1.7821959694125011,
                2.260014554882643,
                -0.14709784437964324,
                0.7330901787151309,
                -2.618309395045077
            ]
        },
        {
            "positions": [
                0.3758719338117644,
                -1.8130118546786878,
                2.292293716637027,
                -0.2235322440107239,
                0.7304360327064534,
                -2.7491008663902106
            ]
        },
        {
            "positions": [
                0.48778757720665245,
                -1.8438277399448741,
                2.3245728783914115,
                -0.2999666436418046,
                0.7277818866977759,
                -2.8798923377353436
            ]
        },
        {
            "positions": [
                0.5997032206015405,
                -1.8746436252110608,
                2.3568520401457955,
                -0.37640104327288526,
                0.7251277406890984,
                -3.010683809080477
            ]
        },
        {
            "positions": [
                0.7116188639964284,
                -1.9054595104772474,
                2.38913120190018,
                -0.45283544290396593,
                0.7224735946804208,
                -3.14147528042561
            ]
        }
    ]
}