{
    "goal": {
        "global_pose": {
            "orientation": {
                "w": 0.7031023502349854,
                "x": -0.7110244035720825,
                "y": 0.007748599164187908,
                "z": 0.005598929710686207
            },
            "position": {
                "x": 0.11585023208521307,
                "y": 0.44412534475326537,
                "z": 0.3711530566215515
            }
        },
        "name": "move_to_auspresseinheit_A"
    },
    "id": "BiEST_move_to_auspresseinheit_A_118",
    "joint_names": [
        "shoulder_pan_joint",
        "shoulder_lift_joint",
        "elbow_joint",
        "wrist_1_joint",
        "wrist_2_joint",
        "wrist_3_joint"
    ],
    "metrics": {
        "cart_traj_len": 0.9745974985646001,
        "distance_elbow_joint": 0.13353435769582367,
        "distance_shoulder_lift_joint": 1.5987220843101337,
        "distance_shoulder_pan_joint": 1.2998120114837,
        "distance_wrist_1_joint": 0.6222357358424528,
        "distance_wrist_2_joint": 0.635646736505551,
        "distance_wrist_3_joint": 0.37666972410446986,
        "smoothness": 1.4623044568840096,
        "time": 0.16355027500000002,
        "traj_len": 2.1602362486409055,
        "weighted_distance": 2.5841521956918627
    },
    "planner": "BiEST",
    "start": {
        "state": {
            "elbow_joint": 2.422574709923281,
            "shoulder_lift_joint": -1.3736533754116391,
            "shoulder_pan_joint": -0.33786336945926293,
            "wrist_1_joint": -1.0288603412921917,
            "wrist_2_joint": 1.2330224858903978,
            "wrist_3_joint": -3.094022268022082
        }
    },
    "waypoints": [
        {
            "positions": [
                -0.33786336945926293,
                -1.3736533754116391,
                2.422574709923281,
                -1.0288603412921917,
                1.2330224858903978,
                -3.094022268022082
            ]
        },
        {
            "positions": [
                -0.19117646529457621,
                -1.5069666024613726,
                2.4291866640243804,
                -0.9555778440996907,
                1.240492560054276,
                -3.072655403856443
            ]
        },
        {
            "positions": [
                -0.0444895611298895,
                -1.6402798295111063,
                2.4357986181254803,
                -0.8822953469071897,
                1.247962634218154,
                -3.051288539690804
            ]
        },
        {
            "positions": [
                0.10219734303479722,
                -1.77359305656084,
                2.4424105722265796,
                -0.8090128497146887,
                1.255432708382032,
                -3.029921675525165
            ]
        },
        {
            "positions": [
                0.24888424719948393,
                -1.9069062836105735,
                2.4490225263276795,
                -0.7357303525221877,
                1.2629027825459103,
                -3.008554811359526
            ]
        },
        {
            "positions": [
                0.3955711513641707,
                -2.040219510660307,
                2.455634480428779,
                -0.6624478553296866,
                1.2703728567097885,
                -2.987187947193887
            ]
        },
        {
            "positions": [
                0.5422580555288574,
                -2.1735327377100404,
                2.4622464345298782,
                -0.5891653581371857,
                1.2778429308736665,
                -2.965821083028248
            ]
        },
        {
            "positions": [
                0.688944959693544,
                -2.3068459647597743,
                2.468858388630978,
                -0.5158828609446847,
                1.2853130050375445,
                -2.944454218862609
            ]
        },
        {
            "positions": [
                0.8356318638582309,
                -2.440159191809508,
                2.4754703427320774,
                -0.4426003637521837,
                1.2927830792014228,
                -2.92308735469697
            ]
        },
        {
            "positions": [
                0.8040526693166794,
                -2.3071051248314416,
                2.4553106615103206,
                -0.4515943033277949,
                1.1488115434027912,
                -2.9745210573918093
            ]
        },
        {
            "positions": [
                0.7724734747751278,
                -2.1740510578533754,
                2.435150980288564,
                -0.46058824290340605,
                1.0048400076041597,
                -3.0259547600866483
            ]
        },
        {
            "positions": [
                0.7408942802335764,
                -2.040996990875309,
                2.414991299066807,
                -0.4695821824790173,
                0.8608684718055283,
                -3.077388462781488
            ]
        },
        {
            "positions": [
                0.709315085692025,
                -1.9079429238972427,
                2.39483161784505,
                -0.47857612205462846,
                0.7168969360068967,
                -3.1288221654763273
            ]
        }
    ]
}