{
    "goal": {
        "global_pose": {
            "orientation": {
                "w": 0.7031023502349854,
                "x": -0.7110244035720825,
                "y": 0.007748599164187908,
                "z": 0.005598929710686207
            },
            "position": {
                "x": 0.11585023208521307,
                "y": 0.44412534475326537,
                "z": 0.3711530566215515
            }
        },
        "name": "move_to_auspresseinheit_A"
    },
    "id": "BiEST_move_to_auspresseinheit_A_121",
    "joint_names": [
        "shoulder_pan_joint",
        "shoulder_lift_joint",
        "elbow_joint",
        "wrist_1_joint",
        "wrist_2_joint",
        "wrist_3_joint"
    ],
    "metrics": {
        "cart_traj_len": 2.4963216907105497,
        "distance_elbow_joint": 3.5091885063140458,
        "distance_shoulder_lift_joint": 0.9607102317759995,
        "distance_shoulder_pan_joint": 1.5663206744490807,
        "distance_wrist_1_joint": 2.587642268682897,
        "distance_wrist_2_joint": 2.3209365609988977,
        "distance_wrist_3_joint": 3.5576845876547276,
        "smoothness": 0.4629839841297286,
        "time": 0.113509211,
        "traj_len": 3.8082125505118074,
        "weighted_distance": 5.150381620313866
    },
    "planner": "BiEST",
    "start": {
        "state": {
            "elbow_joint": 2.422574709923281,
            "shoulder_lift_joint": -1.3736533754116391,
            "shoulder_pan_joint": -0.33786336945926293,
            "wrist_1_joint": -1.0288603412921917,
            "wrist_2_joint": 1.2330224858903978,
            "wrist_3_joint": -3.094022268022082
        }
    },
    "waypoints": [
        {
            "positions": [
                -0.33786336945926293,
                -1.3736533754116391,
                2.422574709923281,
                -1.0288603412921917,
                1.2330224858903978,
                -3.094022268022082
            ]
        },
        {
            "positions": [
                -0.3103286394026894,
                -1.3630405469763014,
                2.3045131104750514,
                -1.010737436551925,
                1.1379713245659906,
                -2.9768229958194468
            ]
        },
        {
            "positions": [
                -0.28279390934611587,
                -1.3524277185409634,
                2.186451511026822,
                -0.9926145318116583,
                1.0429201632415834,
                -2.859623723616811
            ]
        },
        {
            "positions": [
                -0.25525917928954234,
                -1.3418148901056257,
                2.0683899115785924,
                -0.9744916270713916,
                0.9478690019171763,
                -2.7424244514141756
            ]
        },
        {
            "positions": [
                -0.22772444923296886,
                -1.331202061670288,
                1.9503283121303627,
                -0.9563687223311248,
                0.8528178405927692,
                -2.6252251792115397
            ]
        },
        {
            "positions": [
                -0.20018971917639533,
                -1.3205892332349503,
                1.8322667126821333,
                -0.9382458175908581,
                0.7577666792683622,
                -2.5080259070089044
            ]
        },
        {
            "positions": [
                -0.1726549891198218,
                -1.3099764047996123,
                1.7142051132339036,
                -0.9201229128505914,
                0.6627155179439549,
                -2.3908266348062686
            ]
        },
        {
            "positions": [
                -0.1451202590632483,
                -1.2993635763642746,
                1.596143513785674,
                -0.9020000081103247,
                0.5676643566195478,
                -2.273627362603633
            ]
        },
        {
            "positions": [
                -0.11758552900667477,
                -1.2887507479289368,
                1.4780819143374444,
                -0.883877103370058,
                0.4726131952951407,
                -2.156428090400998
            ]
        },
        {
            "positions": [
                -0.09005079895010126,
                -1.2781379194935991,
                1.360020314889215,
                -0.8657541986297912,
                0.3775620339707336,
                -2.039228818198362
            ]
        },
        {
            "positions": [
                -0.06251606889352773,
                -1.2675250910582612,
                1.2419587154409855,
                -0.8476312938895245,
                0.28251087264632646,
                -1.9220295459957266
            ]
        },
        {
            "positions": [
                -0.03498133883695426,
                -1.2569122626229234,
                1.1238971159927558,
                -0.8295083891492578,
                0.1874597113219194,
                -1.804830273793091
            ]
        },
        {
            "positions": [
                -0.00744660878038067,
                -1.2462994341875857,
                1.005835516544526,
                -0.811385484408991,
                0.09240854999751202,
                -1.6876310015904552
            ]
        },
        {
            "positions": [
                0.02008812127619286,
                -1.2356866057522478,
                0.8877739170962966,
                -0.7932625796687244,
                -0.002642611326894917,
                -1.5704317293878196
            ]
        },
        {
            "positions": [
                0.047622851332766336,
                -1.22507377731691,
                0.7697123176480669,
                -0.7751396749284576,
                -0.09769377265130208,
                -1.4532324571851842
            ]
        },
        {
            "positions": [
                0.07515758138933985,
                -1.2144609488815723,
                0.6516507181998374,
                -0.7570167701881909,
                -0.19274493397570933,
                -1.3360331849825486
            ]
        },
        {
            "positions": [
                0.15627915119042604,
                -1.2785534188463472,
                0.732720835897111,
                -0.6380442312377633,
                -0.16686634232378492,
                -1.337527070998107
            ]
        },
        {
            "positions": [
                0.23740072099151222,
                -1.3426458888111221,
                0.8137909535943846,
                -0.5190716922873359,
                -0.14098775067186048,
                -1.3390209570136655
            ]
        },
        {
            "positions": [
                0.31852229079259836,
                -1.4067383587758968,
                0.894861071291658,
                -0.4000991533369083,
                -0.11510915901993607,
                -1.3405148430292242
            ]
        },
        {
            "positions": [
                0.3996438605936846,
                -1.4708308287406717,
                0.9759311889889317,
                -0.28112661438648073,
                -0.08923056736801165,
                -1.3420087290447826
            ]
        },
        {
            "positions": [
                0.48076543039477077,
                -1.5349232987054466,
                1.0570013066862052,
                -0.1621540754360532,
                -0.06335197571608722,
                -1.343502615060341
            ]
        },
        {
            "positions": [
                0.5618870001958569,
                -1.5990157686702213,
                1.1380714243834786,
                -0.04318153648562573,
                -0.03747338406416281,
                -1.3449965010758995
            ]
        },
        {
            "positions": [
                0.6430085699969431,
                -1.6631082386349962,
                1.2191415420807523,
                0.07579100246480186,
                -0.011594792412238403,
                -1.346490387091458
            ]
        },
        {
            "positions": [
                0.7241301397980293,
                -1.7272007085997712,
                1.300211659778026,
                0.19476354141522945,
                0.014283799239686035,
                -1.3479842731070164
            ]
        },
        {
            "positions": [
                0.8052517095991155,
                -1.7912931785645458,
                1.3812817774752997,
                0.31373608036565703,
                0.04016239089161047,
                -1.349478159122575
            ]
        },
        {
            "positions": [
                0.8863732794002016,
                -1.8553856485293208,
                1.462351895172573,
                0.4327086193160845,
                0.06604098254353488,
                -1.3509720451381335
            ]
        },
        {
            "positions": [
                0.9674948492012878,
                -1.9194781184940957,
                1.5434220128698466,
                0.551681158266512,
                0.09191957419545932,
                -1.352465931153692
            ]
        },
        {
            "positions": [
                0.9517200973500639,
                -1.9246378553339156,
                1.6170425668260082,
                0.4848344384501222,
                0.1421320475099124,
                -1.4896012583857992
            ]
        },
        {
            "positions": [
                0.9359453454988399,
                -1.9297975921737356,
                1.6906631207821698,
                0.41798771863373246,
                0.19234452082436548,
                -1.6267365856179063
            ]
        },
        {
            "positions": [
                0.9201705936476159,
                -1.9349573290135558,
                1.7642836747383313,
                0.35114099881734273,
                0.24255699413881854,
                -1.7638719128500138
            ]
        },
        {
            "positions": [
                0.904395841796392,
                -1.9401170658533757,
                1.8379042286944929,
                0.28429427900095294,
                0.2927694674532716,
                -1.901007240082121
            ]
        },
        {
            "positions": [
                0.8886210899451681,
                -1.9452768026931957,
                1.9115247826506545,
                0.21744755918456316,
                0.3429819407677247,
                -2.038142567314228
            ]
        },
        {
            "positions": [
                0.8728463380939441,
                -1.9504365395330159,
                1.985145336606816,
                0.15060083936817342,
                0.39319441408217776,
                -2.1752778945463356
            ]
        },
        {
            "positions": [
                0.8570715862427201,
                -1.9555962763728358,
                2.0587658905629773,
                0.08375411955178369,
                0.44340688739663087,
                -2.312413221778443
            ]
        },
        {
            "positions": [
                0.8412968343914962,
                -1.9607560132126558,
                2.132386444519139,
                0.016907399735393874,
                0.4936193607110839,
                -2.44954854901055
            ]
        },
        {
            "positions": [
                0.816988240624876,
                -1.9576770283300442,
                2.202344851264842,
                -0.07368272996778154,
                0.5442953532847605,
                -2.6048882490211076
            ]
        },
        {
            "positions": [
                0.7926796468582558,
                -1.9545980434474326,
                2.272303258010545,
                -0.16427285967095695,
                0.5949713458584373,
                -2.7602279490316652
            ]
        },
        {
            "positions": [
                0.7639638957097563,
                -1.9382431197308907,
                2.3115072496038427,
                -0.2613217767331981,
                0.6307889662913188,
                -2.885394862553691
            ]
        },
        {
            "positions": [
                0.7352481445612568,
                -1.9218881960143486,
                2.350711241197141,
                -0.35837069379543923,
                0.6666065867242001,
                -3.010561776075717
            ]
        },
        {
            "positions": [
                0.7065323934127573,
                -1.9055332722978067,
                2.3899152327904387,
                -0.4554196108576804,
                0.7024242071570816,
                -3.1357286895977428
            ]
        }
    ]
}