{
    "goal": {
        "global_pose": {
            "orientation": {
                "w": 0.5084816217422485,
                "x": -0.49083608388900757,
                "y": 0.5182115435600281,
                "z": -0.4816462993621826
            },
            "position": {
                "x": 0.5540239810943604,
                "y": 0.030875300988554955,
                "z": 0.16403168439865112
            }
        },
        "name": "move_to_storage_A"
    },
    "id": "BiEST_move_to_storage_A_40",
    "joint_names": [
        "shoulder_pan_joint",
        "shoulder_lift_joint",
        "elbow_joint",
        "wrist_1_joint",
        "wrist_2_joint",
        "wrist_3_joint"
    ],
    "metrics": {
        "cart_traj_len": 0.35369566799630026,
        "distance_elbow_joint": 0.45316104910126676,
        "distance_shoulder_lift_joint": 0.2354253465051357,
        "distance_shoulder_pan_joint": 0.4598921332971037,
        "distance_wrist_1_joint": 0.2564072691998224,
        "distance_wrist_2_joint": 1.1119158531895021,
        "distance_wrist_3_joint": 0.09881590236596516,
        "smoothness": 6.661338165333112e-16,
        "time": 0.055078784000000006,
        "traj_len": 1.6172870968565833,
        "weighted_distance": 2.04488935661078
    },
    "planner": "BiEST",
    "start": {
        "state": {
            "elbow_joint": 1.9715463870305268,
            "shoulder_lift_joint": -1.1394903361783484,
            "shoulder_pan_joint": 0.12281147578464417,
            "wrist_1_joint": -0.7804599489681411,
            "wrist_2_joint": 0.12958660307563738,
            "wrist_3_joint": -3.1924946282119055
        }
    },
    "waypoints": [
        {
            "positions": [
                0.12281147578464417,
                -1.1394903361783484,
                1.9715463870305268,
                -0.7804599489681411,
                0.12958660307563738,
                -3.1924946282119055
            ]
        },
        {
            "positions": [
                0.057112599599343644,
                -1.173122528536225,
                2.036283679759279,
                -0.81708955885383,
                0.288431724959852,
                -3.1783780707310534
            ]
        },
        {
            "positions": [
                -0.008586276585956884,
                -1.2067547208941014,
                2.1010209724880315,
                -0.8537191687395189,
                0.44727684684406654,
                -3.164261513250201
            ]
        },
        {
            "positions": [
                -0.0742851527712574,
                -1.240386913251978,
                2.165758265216784,
                -0.8903487786252078,
                0.6061219687282812,
                -3.150144955769349
            ]
        },
        {
            "positions": [
                -0.13998402895655793,
                -1.2740191056098544,
                2.2304955579455363,
                -0.9269783885108968,
                0.7649670906124958,
                -3.136028398288497
            ]
        },
        {
            "positions": [
                -0.2056829051418585,
                -1.307651297967731,
                2.2952328506742887,
                -0.9636079983965856,
                0.9238122124967104,
                -3.1219118408076447
            ]
        },
        {
            "positions": [
                -0.27138178132715896,
                -1.3412834903256075,
                2.359970143403041,
                -1.0002376082822746,
                1.082657334380925,
                -3.1077952833267926
            ]
        },
        {
            "positions": [
                -0.3370806575124595,
                -1.374915682683484,
                2.4247074361317935,
                -1.0368672181679635,
                1.2415024562651396,
                -3.0936787258459404
            ]
        }
    ]
}