{
    "goal": {
        "global_pose": {
            "orientation": {
                "w": 0.7031023502349854,
                "x": -0.7110244035720825,
                "y": 0.007748599164187908,
                "z": 0.005598929710686207
            },
            "position": {
                "x": 0.11585023208521307,
                "y": 0.44412534475326537,
                "z": 0.3711530566215515
            }
        },
        "name": "move_to_auspresseinheit_A"
    },
    "id": "BiEST_move_to_auspresseinheit_A_84",
    "joint_names": [
        "shoulder_pan_joint",
        "shoulder_lift_joint",
        "elbow_joint",
        "wrist_1_joint",
        "wrist_2_joint",
        "wrist_3_joint"
    ],
    "metrics": {
        "cart_traj_len": 0.6615571730745953,
        "distance_elbow_joint": 0.1499464860386137,
        "distance_shoulder_lift_joint": 0.5368094559585057,
        "distance_shoulder_pan_joint": 1.0455484066505125,
        "distance_wrist_1_joint": 0.5436836526885681,
        "distance_wrist_2_joint": 0.5174905968594192,
        "distance_wrist_3_joint": 1.7136307393852137,
        "smoothness": 0.9138105787176622,
        "time": 0.058963732000000005,
        "traj_len": 2.1229953691849714,
        "weighted_distance": 2.999257419078804
    },
    "planner": "BiEST",
    "start": {
        "state": {
            "elbow_joint": 2.422574709923281,
            "shoulder_lift_joint": -1.3736533754116391,
            "shoulder_pan_joint": -0.33786336945926293,
            "wrist_1_joint": -1.0288603412921917,
            "wrist_2_joint": 1.2330224858903978,
            "wrist_3_joint": -3.094022268022082
        }
    },
    "waypoints": [
        {
            "positions": [
                -0.33786336945926293,
                -1.3736533754116391,
                2.422574709923281,
                -1.0288603412921917,
                1.2330224858903978,
                -3.094022268022082
            ]
        },
        {
            "positions": [
                -0.2541257942306996,
                -1.44208741396398,
                2.431567939364596,
                -0.9723767691581762,
                1.2104441319200063,
                -2.9741160777873747
            ]
        },
        {
            "positions": [
                -0.17038821900213622,
                -1.5105214525163209,
                2.4405611688059117,
                -0.9158931970241605,
                1.187865777949615,
                -2.854209887552667
            ]
        },
        {
            "positions": [
                -0.08665064377357284,
                -1.5789554910686618,
                2.4495543982472268,
                -0.8594096248901449,
                1.1652874239792235,
                -2.7343036973179595
            ]
        },
        {
            "positions": [
                -0.0029130685450095006,
                -1.6473895296210028,
                2.4585476276885423,
                -0.8029260527561293,
                1.1427090700088318,
                -2.6143975070832517
            ]
        },
        {
            "positions": [
                0.0808245066835539,
                -1.7158235681733438,
                2.4675408571298574,
                -0.7464424806221137,
                1.1201307160384404,
                -2.4944913168485443
            ]
        },
        {
            "positions": [
                0.16456208191211724,
                -1.7842576067256846,
                2.476534086571173,
                -0.6899589084880982,
                1.097552362068049,
                -2.3745851266138365
            ]
        },
        {
            "positions": [
                0.2482996571406806,
                -1.8526916452780255,
                2.485527316012488,
                -0.6334753363540825,
                1.0749740080976575,
                -2.254678936379129
            ]
        },
        {
            "positions": [
                0.32486388714910874,
                -1.8623201762933788,
                2.47102833602092,
                -0.6087588950623394,
                1.015066988253211,
                -2.4003935043361726
            ]
        },
        {
            "positions": [
                0.4014281171575369,
                -1.871948707308732,
                2.4565293560293524,
                -0.5840424537705962,
                0.9551599684087645,
                -2.546108072293216
            ]
        },
        {
            "positions": [
                0.47799234716596506,
                -1.8815772383240852,
                2.442030376037785,
                -0.559326012478853,
                0.895252948564318,
                -2.691822640250259
            ]
        },
        {
            "positions": [
                0.5545565771743932,
                -1.8912057693394384,
                2.427531396046217,
                -0.5346095711871099,
                0.8353459287198716,
                -2.8375372082073027
            ]
        },
        {
            "positions": [
                0.6311208071828214,
                -1.9008343003547916,
                2.413032416054649,
                -0.5098931298953667,
                0.775438908875425,
                -2.9832517761643462
            ]
        },
        {
            "positions": [
                0.7076850371912495,
                -1.9104628313701448,
                2.3985334360630812,
                -0.4851766886036236,
                0.7155318890309785,
                -3.1289663441213897
            ]
        }
    ]
}