{
    "goal": {
        "global_pose": {
            "orientation": {
                "w": 0.7031023502349854,
                "x": -0.7110244035720825,
                "y": 0.007748599164187908,
                "z": 0.005598929710686207
            },
            "position": {
                "x": 0.11585023208521307,
                "y": 0.44412534475326537,
                "z": 0.3711530566215515
            }
        },
        "name": "move_to_auspresseinheit_A"
    },
    "id": "BiEST_move_to_auspresseinheit_A_8",
    "joint_names": [
        "shoulder_pan_joint",
        "shoulder_lift_joint",
        "elbow_joint",
        "wrist_1_joint",
        "wrist_2_joint",
        "wrist_3_joint"
    ],
    "metrics": {
        "cart_traj_len": 1.6088141644127134,
        "distance_elbow_joint": 0.7127950128369358,
        "distance_shoulder_lift_joint": 0.5368465213123133,
        "distance_shoulder_pan_joint": 2.2593598999800153,
        "distance_wrist_1_joint": 1.7365332153604032,
        "distance_wrist_2_joint": 6.120749176615425,
        "distance_wrist_3_joint": 2.9647662237677537,
        "smoothness": 0.7698232413907512,
        "time": 0.080104852,
        "traj_len": 3.7856373373413423,
        "weighted_distance": 5.302628111548478
    },
    "planner": "BiEST",
    "start": {
        "state": {
            "elbow_joint": 2.422574709923281,
            "shoulder_lift_joint": -1.3736533754116391,
            "shoulder_pan_joint": -0.33786336945926293,
            "wrist_1_joint": -1.0288603412921917,
            "wrist_2_joint": 1.2330224858903978,
            "wrist_3_joint": -3.094022268022082
        }
    },
    "waypoints": [
        {
            "positions": [
                -0.33786336945926293,
                -1.3736533754116391,
                2.422574709923281,
                -1.0288603412921917,
                1.2330224858903978,
                -3.094022268022082
            ]
        },
        {
            "positions": [
                -0.3736499881162563,
                -1.3781368309110584,
                2.4007761687432385,
                -1.0635344437074838,
                1.0375354736828586,
                -3.0078167872816235
            ]
        },
        {
            "positions": [
                -0.4094366067732497,
                -1.3826202864104777,
                2.378977627563196,
                -1.0982085461227757,
                0.8420484614753195,
                -2.921611306541165
            ]
        },
        {
            "positions": [
                -0.4452232254302431,
                -1.3871037419098973,
                2.357179086383154,
                -1.1328826485380679,
                0.6465614492677804,
                -2.835405825800706
            ]
        },
        {
            "positions": [
                -0.48100984408723646,
                -1.3915871974093166,
                2.3353805452031113,
                -1.1675567509533598,
                0.4510744370602413,
                -2.7492003450602476
            ]
        },
        {
            "positions": [
                -0.5167964627442299,
                -1.3960706529087359,
                2.313582004023069,
                -1.2022308533686519,
                0.25558742485270225,
                -2.662994864319789
            ]
        },
        {
            "positions": [
                -0.5525830814012233,
                -1.4005541084081552,
                2.2917834628430263,
                -1.236904955783944,
                0.06010041264516297,
                -2.5767893835793307
            ]
        },
        {
            "positions": [
                -0.5883697000582166,
                -1.4050375639075747,
                2.269984921662984,
                -1.271579058199236,
                -0.13538659956237598,
                -2.490583902838872
            ]
        },
        {
            "positions": [
                -0.62415631871521,
                -1.409521019406994,
                2.2481863804829416,
                -1.306253160614528,
                -0.33087361176991514,
                -2.4043784220984135
            ]
        },
        {
            "positions": [
                -0.6599429373722034,
                -1.4140044749064133,
                2.226387839302899,
                -1.34092726302982,
                -0.5263606239774541,
                -2.318172941357955
            ]
        },
        {
            "positions": [
                -0.6957295560291968,
                -1.4184879304058327,
                2.2045892981228565,
                -1.375601365445112,
                -0.7218476361849933,
                -2.231967460617496
            ]
        },
        {
            "positions": [
                -0.7315161746861902,
                -1.4229713859052522,
                2.1827907569428144,
                -1.4102754678604041,
                -0.9173346483925324,
                -2.1457619798770375
            ]
        },
        {
            "positions": [
                -0.7673027933431836,
                -1.4274548414046715,
                2.160992215762772,
                -1.444949570275696,
                -1.1128216606000718,
                -2.059556499136579
            ]
        },
        {
            "positions": [
                -0.803089412000177,
                -1.4319382969040908,
                2.1391936745827294,
                -1.479623672690988,
                -1.3083086728076103,
                -1.9733510183961205
            ]
        },
        {
            "positions": [
                -0.8388760306571703,
                -1.43642175240351,
                2.117395133402687,
                -1.51429777510628,
                -1.5037956850151497,
                -1.8871455376556618
            ]
        },
        {
            "positions": [
                -0.8746626493141638,
                -1.4409052079029294,
                2.0955965922226447,
                -1.5489718775215722,
                -1.6992826972226887,
                -1.8009400569152032
            ]
        },
        {
            "positions": [
                -0.9104492679711571,
                -1.445388663402349,
                2.073798051042602,
                -1.5836459799368643,
                -1.894769709430228,
                -1.7147345761747446
            ]
        },
        {
            "positions": [
                -0.9462358866281506,
                -1.4498721189017683,
                2.0519995098625596,
                -1.6183200823521562,
                -2.090256721637767,
                -1.628529095434286
            ]
        },
        {
            "positions": [
                -0.8636865174875943,
                -1.4729035077928774,
                2.0691105005013704,
                -1.5609664086371342,
                -1.950383223183404,
                -1.7034927479932838
            ]
        },
        {
            "positions": [
                -0.7811371483470378,
                -1.4959348966839867,
                2.086221491140181,
                -1.5036127349221124,
                -1.810509724729041,
                -1.7784564005522816
            ]
        },
        {
            "positions": [
                -0.6985877792064814,
                -1.5189662855750958,
                2.103332481778992,
                -1.4462590612070905,
                -1.6706362262746777,
                -1.8534200531112794
            ]
        },
        {
            "positions": [
                -0.6160384100659251,
                -1.5419976744662052,
                2.1204434724178025,
                -1.3889053874920685,
                -1.5307627278203146,
                -1.9283837056702775
            ]
        },
        {
            "positions": [
                -0.5334890409253688,
                -1.5650290633573143,
                2.1375544630566132,
                -1.3315517137770465,
                -1.3908892293659516,
                -2.0033473582292753
            ]
        },
        {
            "positions": [
                -0.4509396717848123,
                -1.5880604522484234,
                2.154665453695424,
                -1.2741980400620248,
                -1.2510157309115886,
                -2.078311010788273
            ]
        },
        {
            "positions": [
                -0.368390302644256,
                -1.6110918411395327,
                2.1717764443342347,
                -1.2168443663470028,
                -1.1111422324572255,
                -2.153274663347271
            ]
        },
        {
            "positions": [
                -0.28584093350369955,
                -1.6341232300306419,
                2.1888874349730454,
                -1.1594906926319808,
                -0.9712687340028623,
                -2.228238315906269
            ]
        },
        {
            "positions": [
                -0.2032915643631431,
                -1.6571546189217512,
                2.205998425611856,
                -1.102137018916959,
                -0.8313952355484993,
                -2.3032019684652667
            ]
        },
        {
            "positions": [
                -0.12074219522258678,
                -1.6801860078128603,
                2.223109416250667,
                -1.044783345201937,
                -0.6915217370941362,
                -2.3781656210242645
            ]
        },
        {
            "positions": [
                -0.03819282608203034,
                -1.7032173967039697,
                2.2402204068894775,
                -0.9874296714869151,
                -0.551648238639773,
                -2.4531292735832624
            ]
        },
        {
            "positions": [
                0.04435654305852599,
                -1.7262487855950788,
                2.2573313975282883,
                -0.9300759977718932,
                -0.41177474018541016,
                -2.52809292614226
            ]
        },
        {
            "positions": [
                0.12690591219908232,
                -1.7492801744861879,
                2.274442388167099,
                -0.8727223240568713,
                -0.2719012417310469,
                -2.603056578701258
            ]
        },
        {
            "positions": [
                0.20945528133963864,
                -1.772311563377297,
                2.2915533788059097,
                -0.8153686503418495,
                -0.1320277432766841,
                -2.6780202312602563
            ]
        },
        {
            "positions": [
                0.2920046504801952,
                -1.7953429522684063,
                2.3086643694447204,
                -0.7580149766268275,
                0.007845755177679159,
                -2.7529838838192537
            ]
        },
        {
            "positions": [
                0.3745540196207515,
                -1.8183743411595157,
                2.325775360083531,
                -0.7006613029118055,
                0.1477192536320424,
                -2.827947536378252
            ]
        },
        {
            "positions": [
                0.45710338876130785,
                -1.8414057300506248,
                2.342886350722342,
                -0.6433076291967836,
                0.2875927520864052,
                -2.9029111889372494
            ]
        },
        {
            "positions": [
                0.5396527579018644,
                -1.864437118941734,
                2.3599973413611526,
                -0.5859539554817617,
                0.4274662505407685,
                -2.9778748414962477
            ]
        },
        {
            "positions": [
                0.6222021270424205,
                -1.887468507832843,
                2.3771083319999633,
                -0.5286002817667399,
                0.5673397489951313,
                -3.0528384940552455
            ]
        },
        {
            "positions": [
                0.704751496182977,
                -1.9104998967239524,
                2.394219322638774,
                -0.4712466080517179,
                0.7072132474494947,
                -3.1278021466142434
            ]
        }
    ]
}