{
    "goal": {
        "global_pose": {
            "orientation": {
                "w": 0.7047431468963623,
                "x": -0.7094548344612122,
                "y": 0.0024358443915843964,
                "z": -0.0022348060738295317
            },
            "position": {
                "x": 0.6094750761985779,
                "y": 0.3671506643295288,
                "z": 0.19426114857196808
            }
        },
        "name": "move_to_magneteinheit_A"
    },
    "id": "BiEST_move_to_magneteinheit_A_60",
    "joint_names": [
        "shoulder_pan_joint",
        "shoulder_lift_joint",
        "elbow_joint",
        "wrist_1_joint",
        "wrist_2_joint",
        "wrist_3_joint"
    ],
    "metrics": {
        "cart_traj_len": 1.8752308474176647,
        "distance_elbow_joint": 3.9204389723036446,
        "distance_shoulder_lift_joint": 0.7045840396756192,
        "distance_shoulder_pan_joint": 1.2419548864410919,
        "distance_wrist_1_joint": 1.513302190337835,
        "distance_wrist_2_joint": 1.708784296457407,
        "distance_wrist_3_joint": 1.1408068205105137,
        "smoothness": 5.921189493705662e-16,
        "time": 0.118801931,
        "traj_len": 3.198416984341802,
        "weighted_distance": 3.9665566091438023
    },
    "planner": "BiEST",
    "start": {
        "state": {
            "elbow_joint": -1.919643507792019,
            "shoulder_lift_joint": -0.07675430207160344,
            "shoulder_pan_joint": -1.1188671864651873,
            "wrist_1_joint": 0.42560062535961957,
            "wrist_2_joint": 1.5706038300724876,
            "wrist_3_joint": 1.1188968870953055
        }
    },
    "waypoints": [
        {
            "positions": [
                -1.1188671864651873,
                -0.07675430207160344,
                -1.919643507792019,
                0.42560062535961957,
                1.5706038300724876,
                1.1188968870953055
            ]
        },
        {
            "positions": [
                -1.0710996908328376,
                -0.10385368821297342,
                -1.7688573934726481,
                0.4838045557572286,
                1.504881357131818,
                1.075019701691055
            ]
        },
        {
            "positions": [
                -1.023332195200488,
                -0.1309530743543434,
                -1.6180712791532772,
                0.5420084861548377,
                1.4391588841911487,
                1.0311425162868044
            ]
        },
        {
            "positions": [
                -0.9755646995681383,
                -0.15805246049571336,
                -1.4672851648339063,
                0.6002124165524467,
                1.373436411250479,
                0.987265330882554
            ]
        },
        {
            "positions": [
                -0.9277972039357886,
                -0.18515184663708334,
                -1.3164990505145353,
                0.6584163469500557,
                1.3077139383098095,
                0.9433881454783034
            ]
        },
        {
            "positions": [
                -0.880029708303439,
                -0.2122512327784533,
                -1.1657129361951644,
                0.7166202773476648,
                1.2419914653691402,
                0.899510960074053
            ]
        },
        {
            "positions": [
                -0.8322622126710892,
                -0.2393506189198233,
                -1.0149268218757934,
                0.7748242077452738,
                1.1762689924284706,
                0.8556337746698024
            ]
        },
        {
            "positions": [
                -0.7844947170387395,
                -0.26645000506119326,
                -0.8641407075564225,
                0.8330281381428828,
                1.110546519487801,
                0.8117565892655518
            ]
        },
        {
            "positions": [
                -0.7367272214063898,
                -0.29354939120256324,
                -0.7133545932370515,
                0.891232068540492,
                1.0448240465471317,
                0.7678794038613013
            ]
        },
        {
            "positions": [
                -0.6889597257740402,
                -0.3206487773439332,
                -0.5625684789176806,
                0.9494359989381009,
                0.9791015736064621,
                0.7240022184570508
            ]
        },
        {
            "positions": [
                -0.6411922301416905,
                -0.3477481634853032,
                -0.41178236459830964,
                1.00763992933571,
                0.9133791006657926,
                0.6801250330528003
            ]
        },
        {
            "positions": [
                -0.5934247345093407,
                -0.37484754962667316,
                -0.2609962502789387,
                1.065843859733319,
                0.8476566277251232,
                0.6362478476485498
            ]
        },
        {
            "positions": [
                -0.545657238876991,
                -0.40194693576804313,
                -0.11021013595956775,
                1.124047790130928,
                0.7819341547844536,
                0.5923706622442991
            ]
        },
        {
            "positions": [
                -0.4978897432446414,
                -0.4290463219094131,
                0.0405759783598032,
                1.182251720528537,
                0.7162116818437841,
                0.5484934768400487
            ]
        },
        {
            "positions": [
                -0.4501222476122918,
                -0.4561457080507831,
                0.19136209267917415,
                1.240455650926146,
                0.6504892089031147,
                0.5046162914357982
            ]
        },
        {
            "positions": [
                -0.4023547519799421,
                -0.483245094192153,
                0.3421482069985451,
                1.2986595813237551,
                0.5847667359624452,
                0.46073910603154766
            ]
        },
        {
            "positions": [
                -0.35458725634759236,
                -0.5103444803335231,
                0.49293432131791604,
                1.3568635117213643,
                0.5190442630217755,
                0.4168619206272971
            ]
        },
        {
            "positions": [
                -0.30681976071524264,
                -0.5374438664748931,
                0.643720435637287,
                1.4150674421189733,
                0.4533217900811062,
                0.37298473522304654
            ]
        },
        {
            "positions": [
                -0.25905226508289303,
                -0.564543252616263,
                0.7945065499566579,
                1.4732713725165822,
                0.3875993171404366,
                0.3291075498187961
            ]
        },
        {
            "positions": [
                -0.2112847694505433,
                -0.591642638757633,
                0.9452926642760289,
                1.5314753029141912,
                0.32187684419976725,
                0.2852303644145455
            ]
        },
        {
            "positions": [
                -0.1635172738181936,
                -0.618742024899003,
                1.0960787785953998,
                1.5896792333118004,
                0.2561543712590977,
                0.24135317901029496
            ]
        },
        {
            "positions": [
                -0.11574977818584387,
                -0.645841411040373,
                1.2468648929147708,
                1.6478831637094093,
                0.1904318983184281,
                0.1974759936060444
            ]
        },
        {
            "positions": [
                -0.06798228255349414,
                -0.6729407971817429,
                1.3976510072341417,
                1.7060870941070185,
                0.12470942537775875,
                0.15359880820179395
            ]
        },
        {
            "positions": [
                -0.020214786921144645,
                -0.7000401833231129,
                1.5484371215535127,
                1.7642910245046275,
                0.05898695243708918,
                0.1097216227975435
            ]
        },
        {
            "positions": [
                0.027552708711205298,
                -0.7271395694644829,
                1.6992232358728836,
                1.8224949549022367,
                -0.0067355205035803944,
                0.06584443739329271
            ]
        },
        {
            "positions": [
                0.0753202043435548,
                -0.7542389556058529,
                1.8500093501922545,
                1.8806988852998456,
                -0.07245799344424997,
                0.02196725198904237
            ]
        },
        {
            "positions": [
                0.12308769997590445,
                -0.7813383417472227,
                2.0007954645116257,
                1.9389028156974546,
                -0.13818046638491926,
                -0.021909933415208083
            ]
        }
    ]
}