{
    "goal": {
        "global_pose": {
            "orientation": {
                "w": 0.7047431468963623,
                "x": -0.7094548344612122,
                "y": 0.0024358443915843964,
                "z": -0.0022348060738295317
            },
            "position": {
                "x": 0.6094750761985779,
                "y": 0.3671506643295288,
                "z": 0.19426114857196808
            }
        },
        "name": "move_to_magneteinheit_A"
    },
    "id": "BiEST_move_to_magneteinheit_A_7",
    "joint_names": [
        "shoulder_pan_joint",
        "shoulder_lift_joint",
        "elbow_joint",
        "wrist_1_joint",
        "wrist_2_joint",
        "wrist_3_joint"
    ],
    "metrics": {
        "cart_traj_len": 1.9642078201725872,
        "distance_elbow_joint": 3.8787910700108936,
        "distance_shoulder_lift_joint": 1.0549026995787847,
        "distance_shoulder_pan_joint": 1.2423710984291323,
        "distance_wrist_1_joint": 1.1491328033683592,
        "distance_wrist_2_joint": 1.4379737054391857,
        "distance_wrist_3_joint": 4.355140085210521,
        "smoothness": 3.5527136908568477e-16,
        "time": 0.120317055,
        "traj_len": 3.621920962974879,
        "weighted_distance": 4.941224356499658
    },
    "planner": "BiEST",
    "start": {
        "state": {
            "elbow_joint": -1.919643507792019,
            "shoulder_lift_joint": -0.07675430207160344,
            "shoulder_pan_joint": -1.1188671864651873,
            "wrist_1_joint": 0.42560062535961957,
            "wrist_2_joint": 1.5706038300724876,
            "wrist_3_joint": 1.1188968870953055
        }
    },
    "waypoints": [
        {
            "positions": [
                -1.1188671864651873,
                -0.07675430207160344,
                -1.919643507792019,
                0.42560062535961957,
                1.5706038300724876,
                1.1188968870953055
            ]
        },
        {
            "positions": [
                -1.0962059126995005,
                -0.1173786515560945,
                -1.8087755881903118,
                0.3936911942727883,
                1.5266101955375169,
                0.9786908719470935
            ]
        },
        {
            "positions": [
                -1.0735446389338137,
                -0.15800300104058557,
                -1.6979076685886045,
                0.361781763185957,
                1.4826165610025461,
                0.8384848567988814
            ]
        },
        {
            "positions": [
                -1.0508833651681266,
                -0.1986273505250766,
                -1.5870397489868975,
                0.3298723320991258,
                1.4386229264675752,
                0.6982788416506693
            ]
        },
        {
            "positions": [
                -1.0282220914024398,
                -0.23925170000956766,
                -1.4761718293851902,
                0.2979629010122945,
                1.3946292919326044,
                0.5580728265024574
            ]
        },
        {
            "positions": [
                -1.005560817636753,
                -0.27987604949405875,
                -1.365303909783483,
                0.26605346992546325,
                1.3506356573976337,
                0.4178668113542452
            ]
        },
        {
            "positions": [
                -0.9828995438710662,
                -0.32050039897854976,
                -1.2544359901817757,
                0.234144038838632,
                1.306642022862663,
                0.27766079620603323
            ]
        },
        {
            "positions": [
                -0.9602382701053792,
                -0.3611247484630409,
                -1.1435680705800684,
                0.2022346077518007,
                1.2626483883276922,
                0.13745478105782105
            ]
        },
        {
            "positions": [
                -0.9375769963396924,
                -0.4017490979475319,
                -1.032700150978361,
                0.17032517666496944,
                1.2186547537927215,
                -0.0027512340903907972
            ]
        },
        {
            "positions": [
                -0.9149157225740056,
                -0.44237344743202295,
                -0.921832231376654,
                0.13841574557813818,
                1.1746611192577507,
                -0.14295724923860287
            ]
        },
        {
            "positions": [
                -0.8922544488083186,
                -0.482997796916514,
                -0.8109643117749468,
                0.10650631449130693,
                1.1306674847227798,
                -0.28316326438681516
            ]
        },
        {
            "positions": [
                -0.8695931750426318,
                -0.5236221464010051,
                -0.7000963921732395,
                0.07459688340447568,
                1.086673850187809,
                -0.423369279535027
            ]
        },
        {
            "positions": [
                -0.846931901276945,
                -0.564246495885496,
                -0.5892284725715324,
                0.042687452317644425,
                1.0426802156528383,
                -0.5635752946832391
            ]
        },
        {
            "positions": [
                -0.824270627511258,
                -0.6048708453699871,
                -0.47836055296982494,
                0.010778021230813117,
                0.9986865811178676,
                -0.7037813098314512
            ]
        },
        {
            "positions": [
                -0.8016093537455711,
                -0.6454951948544783,
                -0.36749263336811766,
                -0.02113140985601819,
                0.9546929465828967,
                -0.8439873249796634
            ]
        },
        {
            "positions": [
                -0.7789480799798842,
                -0.6861195443389692,
                -0.2566247137664106,
                -0.05304084094284939,
                0.910699312047926,
                -0.9841933401278751
            ]
        },
        {
            "positions": [
                -0.7562868062141974,
                -0.7267438938234603,
                -0.14575679416470333,
                -0.0849502720296807,
                0.8667056775129552,
                -1.1243993552760871
            ]
        },
        {
            "positions": [
                -0.7336255324485106,
                -0.7673682433079514,
                -0.03488887456299605,
                -0.116859703116512,
                0.8227120429779844,
                -1.2646053704242997
            ]
        },
        {
            "positions": [
                -0.7109642586828238,
                -0.8079925927924425,
                0.075979045038711,
                -0.1487691342033432,
                0.7787184084430138,
                -1.4048113855725113
            ]
        },
        {
            "positions": [
                -0.6883029849171368,
                -0.8486169422769334,
                0.1868469646404185,
                -0.1806785652901744,
                0.7347247739080429,
                -1.5450174007207234
            ]
        },
        {
            "positions": [
                -0.6656417111514499,
                -0.8892412917614245,
                0.29771488424212555,
                -0.2125879963770057,
                0.6907311393730721,
                -1.6852234158689359
            ]
        },
        {
            "positions": [
                -0.642980437385763,
                -0.9298656412459156,
                0.4085828038438326,
                -0.2444974274638369,
                0.6467375048381014,
                -1.8254294310171475
            ]
        },
        {
            "positions": [
                -0.6203191636200762,
                -0.9704899907304068,
                0.5194507234455401,
                -0.2764068585506682,
                0.6027438703031306,
                -1.9656354461653596
            ]
        },
        {
            "positions": [
                -0.5976578898543894,
                -1.0111143402148977,
                0.6303186430472472,
                -0.3083162896374995,
                0.5587502357681597,
                -2.1058414613135716
            ]
        },
        {
            "positions": [
                -0.5749966160887026,
                -1.0517386896993888,
                0.7411865626489542,
                -0.3402257207243307,
                0.514756601233189,
                -2.2460474764617837
            ]
        },
        {
            "positions": [
                -0.5523353423230156,
                -1.09236303918388,
                0.8520544822506618,
                -0.37213515181116197,
                0.47076296669821815,
                -2.386253491609996
            ]
        },
        {
            "positions": [
                -0.47724209184668664,
                -1.096729035013492,
                0.9750648244693522,
                -0.41117926583311504,
                0.4331926509132275,
                -2.480696792332798
            ]
        },
        {
            "positions": [
                -0.4021488413703577,
                -1.101095030843104,
                1.0980751666880424,
                -0.45022337985506816,
                0.39562233512823686,
                -2.5751400930556003
            ]
        },
        {
            "positions": [
                -0.3270555908940288,
                -1.105461026672716,
                1.2210855089067327,
                -0.48926749387702123,
                0.3580520193432462,
                -2.669583393778402
            ]
        },
        {
            "positions": [
                -0.2519623404176998,
                -1.1098270225023281,
                1.344095851125423,
                -0.5283116078989744,
                0.32048170355825556,
                -2.7640266945012044
            ]
        },
        {
            "positions": [
                -0.17686908994137085,
                -1.11419301833194,
                1.4671061933441134,
                -0.5673557219209274,
                0.2829113877732649,
                -2.8584699952240067
            ]
        },
        {
            "positions": [
                -0.10177583946504193,
                -1.118559014161552,
                1.5901165355628035,
                -0.6063998359428805,
                0.24534107198827426,
                -2.952913295946809
            ]
        },
        {
            "positions": [
                -0.026682588988712896,
                -1.122925009991164,
                1.713126877781494,
                -0.6454439499648337,
                0.2077707562032836,
                -3.0473565966696112
            ]
        },
        {
            "positions": [
                0.04841066148761597,
                -1.1272910058207761,
                1.8361372200001842,
                -0.6844880639867867,
                0.17020044041829296,
                -3.141799897392413
            ]
        },
        {
            "positions": [
                0.12350391196394499,
                -1.1316570016503882,
                1.9591475622188745,
                -0.7235321780087398,
                0.13263012463330232,
                -3.2362431981152153
            ]
        }
    ]
}