{
    "goal": {
        "global_pose": {
            "orientation": {
                "w": 0.7047431468963623,
                "x": -0.7094548344612122,
                "y": 0.0024358443915843964,
                "z": -0.0022348060738295317
            },
            "position": {
                "x": 0.6094750761985779,
                "y": 0.3671506643295288,
                "z": 0.19426114857196808
            }
        },
        "name": "move_to_magneteinheit_A"
    },
    "id": "BiEST_move_to_magneteinheit_A_86",
    "joint_names": [
        "shoulder_pan_joint",
        "shoulder_lift_joint",
        "elbow_joint",
        "wrist_1_joint",
        "wrist_2_joint",
        "wrist_3_joint"
    ],
    "metrics": {
        "cart_traj_len": 2.062877789974674,
        "distance_elbow_joint": 3.8737713345109093,
        "distance_shoulder_lift_joint": 1.0525266540166192,
        "distance_shoulder_pan_joint": 1.2409154721065336,
        "distance_wrist_1_joint": 1.1224568218352173,
        "distance_wrist_2_joint": 1.4443551104111132,
        "distance_wrist_3_joint": 1.8861892271835656,
        "smoothness": 1.903239467962136e-16,
        "time": 0.042800703999999995,
        "traj_len": 3.2588670761575957,
        "weighted_distance": 4.118179817185916
    },
    "planner": "BiEST",
    "start": {
        "state": {
            "elbow_joint": -1.919643507792019,
            "shoulder_lift_joint": -0.07675430207160344,
            "shoulder_pan_joint": -1.1188671864651873,
            "wrist_1_joint": 0.42560062535961957,
            "wrist_2_joint": 1.5706038300724876,
            "wrist_3_joint": 1.1188968870953055
        }
    },
    "waypoints": [
        {
            "positions": [
                -1.1188671864651873,
                -0.07675430207160344,
                -1.919643507792019,
                0.42560062535961957,
                1.5706038300724876,
                1.1188968870953055
            ]
        },
        {
            "positions": [
                -1.0729073541649454,
                -0.11573677073888564,
                -1.7761704954027262,
                0.38402815047683375,
                1.5171091963535575,
                1.1887557473613635
            ]
        },
        {
            "positions": [
                -1.0269475218647033,
                -0.15471923940616783,
                -1.6326974830134333,
                0.34245567559404794,
                1.4636145626346273,
                1.2586146076274214
            ]
        },
        {
            "positions": [
                -0.9809876895644614,
                -0.19370170807345,
                -1.4892244706241402,
                0.30088320071126207,
                1.4101199289156972,
                1.3284734678934795
            ]
        },
        {
            "positions": [
                -0.9350278572642194,
                -0.2326841767407322,
                -1.3457514582348473,
                0.25931072582847625,
                1.3566252951967672,
                1.3983323281595375
            ]
        },
        {
            "positions": [
                -0.8890680249639774,
                -0.2716666454080144,
                -1.2022784458455544,
                0.21773825094569044,
                1.303130661477837,
                1.4681911884255956
            ]
        },
        {
            "positions": [
                -0.8431081926637354,
                -0.3106491140752966,
                -1.0588054334562615,
                0.17616577606290462,
                1.249636027758907,
                1.5380500486916535
            ]
        },
        {
            "positions": [
                -0.7971483603634935,
                -0.3496315827425788,
                -0.9153324210669687,
                0.1345933011801188,
                1.1961413940399768,
                1.6079089089577114
            ]
        },
        {
            "positions": [
                -0.7511885280632515,
                -0.38861405140986094,
                -0.7718594086776758,
                0.09302082629733299,
                1.1426467603210466,
                1.6777677692237694
            ]
        },
        {
            "positions": [
                -0.7052286957630095,
                -0.42759652007714316,
                -0.6283863962883827,
                0.05144835141454712,
                1.0891521266021167,
                1.7476266294898273
            ]
        },
        {
            "positions": [
                -0.6592688634627675,
                -0.4665789887444253,
                -0.4849133838990898,
                0.009875876531761307,
                1.0356574928831863,
                1.8174854897558854
            ]
        },
        {
            "positions": [
                -0.6133090311625256,
                -0.5055614574117075,
                -0.3414403715097969,
                -0.03169659835102451,
                0.9821628591642564,
                1.8873443500219433
            ]
        },
        {
            "positions": [
                -0.5673491988622835,
                -0.5445439260789897,
                -0.197967359120504,
                -0.07326907323381032,
                0.9286682254453262,
                1.9572032102880015
            ]
        },
        {
            "positions": [
                -0.5213893665620416,
                -0.5835263947462719,
                -0.05449434673121112,
                -0.11484154811659614,
                0.8751735917263961,
                2.0270620705540594
            ]
        },
        {
            "positions": [
                -0.47542953426179957,
                -0.622508863413554,
                0.08897866565808177,
                -0.15641402299938195,
                0.821678958007466,
                2.0969209308201173
            ]
        },
        {
            "positions": [
                -0.42946970196155754,
                -0.6614913320808364,
                0.2324516780473751,
                -0.19798649788216788,
                0.7681843242885358,
                2.1667797910861752
            ]
        },
        {
            "positions": [
                -0.3835098696613156,
                -0.7004738007481184,
                0.37592469043666754,
                -0.23955897276495358,
                0.7146896905696057,
                2.236638651352233
            ]
        },
        {
            "positions": [
                -0.3375500373610736,
                -0.7394562694154008,
                0.5193977028259609,
                -0.2811314476477395,
                0.6611950568506756,
                2.306497511618291
            ]
        },
        {
            "positions": [
                -0.29159020506083166,
                -0.7784387380826829,
                0.6628707152152538,
                -0.3227039225305253,
                0.6077004231317455,
                2.3763563718843494
            ]
        },
        {
            "positions": [
                -0.24563037276058963,
                -0.8174212067499651,
                0.8063437276045466,
                -0.36427639741331114,
                0.5542057894128154,
                2.4462152321504074
            ]
        },
        {
            "positions": [
                -0.1996705404603477,
                -0.8564036754172473,
                0.9498167399938395,
                -0.40584887229609695,
                0.5007111556938852,
                2.5160740924164653
            ]
        },
        {
            "positions": [
                -0.15371070816010557,
                -0.8953861440845294,
                1.0932897523831324,
                -0.44742134717888277,
                0.4472165219749551,
                2.585932952682523
            ]
        },
        {
            "positions": [
                -0.10775087585986376,
                -0.9343686127518116,
                1.2367627647724253,
                -0.4889938220616686,
                0.39372188825602517,
                2.655791812948581
            ]
        },
        {
            "positions": [
                -0.06179104355962162,
                -0.9733510814190938,
                1.3802357771617186,
                -0.5305662969444545,
                0.3402272545370948,
                2.7256506732146395
            ]
        },
        {
            "positions": [
                -0.015831211259379696,
                -1.012333550086376,
                1.523708789551011,
                -0.5721387718272402,
                0.28673262081816486,
                2.795509533480697
            ]
        },
        {
            "positions": [
                0.030128621040862225,
                -1.0513160187536583,
                1.6671818019403044,
                -0.6137112467100261,
                0.2332379870992347,
                2.8653683937467553
            ]
        },
        {
            "positions": [
                0.07608845334110415,
                -1.0902984874209405,
                1.8106548143295969,
                -0.6552837215928118,
                0.17974335338030456,
                2.935227254012813
            ]
        },
        {
            "positions": [
                0.12204828564134622,
                -1.1292809560882227,
                1.9541278267188902,
                -0.6968561964755977,
                0.12624871966137446,
                3.005086114278871
            ]
        }
    ]
}