{
    "goal": {
        "global_pose": {
            "orientation": {
                "w": 0.7031023502349854,
                "x": -0.7110244035720825,
                "y": 0.007748599164187908,
                "z": 0.005598929710686207
            },
            "position": {
                "x": 0.11585023208521307,
                "y": 0.44412534475326537,
                "z": 0.3711530566215515
            }
        },
        "name": "move_to_auspresseinheit_A"
    },
    "id": "BiEST_move_to_auspresseinheit_A_19",
    "joint_names": [
        "shoulder_pan_joint",
        "shoulder_lift_joint",
        "elbow_joint",
        "wrist_1_joint",
        "wrist_2_joint",
        "wrist_3_joint"
    ],
    "metrics": {
        "cart_traj_len": 0.7508350185363738,
        "distance_elbow_joint": 0.45164807853361166,
        "distance_shoulder_lift_joint": 0.5634387726817462,
        "distance_shoulder_pan_joint": 1.2803950050591693,
        "distance_wrist_1_joint": 0.7303230090253994,
        "distance_wrist_2_joint": 2.8572000532040147,
        "distance_wrist_3_joint": 0.500253037475801,
        "smoothness": 1.0863038969338523,
        "time": 0.072307545,
        "traj_len": 2.526511024313914,
        "weighted_distance": 3.3122933283694485
    },
    "planner": "BiEST",
    "start": {
        "state": {
            "elbow_joint": 2.422574709923281,
            "shoulder_lift_joint": -1.3736533754116391,
            "shoulder_pan_joint": -0.33786336945926293,
            "wrist_1_joint": -1.0288603412921917,
            "wrist_2_joint": 1.2330224858903978,
            "wrist_3_joint": -3.094022268022082
        }
    },
    "waypoints": [
        {
            "positions": [
                -0.33786336945926293,
                -1.3736533754116391,
                2.422574709923281,
                -1.0288603412921917,
                1.2330224858903978,
                -3.094022268022082
            ]
        },
        {
            "positions": [
                -0.35261786297908815,
                -1.3717033678912895,
                2.392255388580712,
                -0.9473771407572205,
                1.0214338796853604,
                -3.0653626428767926
            ]
        },
        {
            "positions": [
                -0.36737235649891337,
                -1.36975336037094,
                2.361936067238143,
                -0.8658939402222492,
                0.809845273480323,
                -3.0367030177315035
            ]
        },
        {
            "positions": [
                -0.3821268500187386,
                -1.3678033528505904,
                2.331616745895574,
                -0.7844107396872779,
                0.5982566672752856,
                -3.008043392586214
            ]
        },
        {
            "positions": [
                -0.39688134353856386,
                -1.3658533453302408,
                2.301297424553005,
                -0.7029275391523067,
                0.3866680610702482,
                -2.9793837674409245
            ]
        },
        {
            "positions": [
                -0.411635837058389,
                -1.3639033378098913,
                2.270978103210436,
                -0.6214443386173354,
                0.17507945486521082,
                -2.9507241422956354
            ]
        },
        {
            "positions": [
                -0.4263903305782143,
                -1.3619533302895417,
                2.240658781867867,
                -0.539961138082364,
                -0.03650915133982657,
                -2.922064517150346
            ]
        },
        {
            "positions": [
                -0.4411448240980395,
                -1.3600033227691921,
                2.210339460525298,
                -0.45847793754739274,
                -0.24809775754486396,
                -2.893404892005057
            ]
        },
        {
            "positions": [
                -0.45589931761786473,
                -1.3580533152488425,
                2.180020139182729,
                -0.3769947370124215,
                -0.45968636374990124,
                -2.8647452668597673
            ]
        },
        {
            "positions": [
                -0.32674831129557946,
                -1.4189242833065037,
                2.2032527511597357,
                -0.38571222642860253,
                -0.3302984522428218,
                -2.8948537153390435
            ]
        },
        {
            "positions": [
                -0.19759730497329414,
                -1.4797952513641648,
                2.2264853631367423,
                -0.39442971584478353,
                -0.20091054073574233,
                -2.9249621638183196
            ]
        },
        {
            "positions": [
                -0.06844629865100882,
                -1.5406662194218257,
                2.2497179751137493,
                -0.4031472052609646,
                -0.07152262922866287,
                -2.955070612297596
            ]
        },
        {
            "positions": [
                0.06070470767127645,
                -1.6015371874794868,
                2.272950587090756,
                -0.41186469467714565,
                0.057865282278416585,
                -2.985179060776872
            ]
        },
        {
            "positions": [
                0.18985571399356183,
                -1.662408155537148,
                2.2961831990677624,
                -0.42058218409332665,
                0.1872531937854961,
                -3.0152875092561486
            ]
        },
        {
            "positions": [
                0.3190067203158471,
                -1.7232791235948088,
                2.319415811044769,
                -0.4292996735095077,
                0.3166411052925755,
                -3.045395957735425
            ]
        },
        {
            "positions": [
                0.44815772663813236,
                -1.78415009165247,
                2.342648423021776,
                -0.43801716292568876,
                0.446029016799655,
                -3.075504406214701
            ]
        },
        {
            "positions": [
                0.5773087329604176,
                -1.845021059710131,
                2.3658810349987824,
                -0.44673465234186976,
                0.5754169283067344,
                -3.105612854693977
            ]
        },
        {
            "positions": [
                0.706459739282703,
                -1.9058920277677922,
                2.389113646975789,
                -0.4554521417580508,
                0.704804839813814,
                -3.1357213031732534
            ]
        }
    ]
}