{
    "goal": {
        "global_pose": {
            "orientation": {
                "w": 0.5084816217422485,
                "x": -0.49083608388900757,
                "y": 0.5182115435600281,
                "z": -0.4816462993621826
            },
            "position": {
                "x": 0.5540239810943604,
                "y": 0.030875300988554955,
                "z": 0.16403168439865112
            }
        },
        "name": "move_to_storage_A"
    },
    "id": "BiEST_move_to_storage_A_83",
    "joint_names": [
        "shoulder_pan_joint",
        "shoulder_lift_joint",
        "elbow_joint",
        "wrist_1_joint",
        "wrist_2_joint",
        "wrist_3_joint"
    ],
    "metrics": {
        "cart_traj_len": 0.3534956180093893,
        "distance_elbow_joint": 0.4529092069823051,
        "distance_shoulder_lift_joint": 0.23594379198045257,
        "distance_shoulder_pan_joint": 0.4606947186740139,
        "distance_wrist_1_joint": 0.2532028774337117,
        "distance_wrist_2_joint": 1.1073190230216892,
        "distance_wrist_3_joint": 0.10772895181047026,
        "smoothness": 2.2204460668324854e-16,
        "time": 0.06493389299999999,
        "traj_len": 1.6179612386898032,
        "weighted_distance": 2.047871669314018
    },
    "planner": "BiEST",
    "start": {
        "state": {
            "elbow_joint": 1.9715463870305268,
            "shoulder_lift_joint": -1.1394903361783484,
            "shoulder_pan_joint": 0.12281147578464417,
            "wrist_1_joint": -0.7804599489681411,
            "wrist_2_joint": 0.12958660307563738,
            "wrist_3_joint": -3.1924946282119055
        }
    },
    "waypoints": [
        {
            "positions": [
                0.12281147578464417,
                -1.1394903361783484,
                1.9715463870305268,
                -0.7804599489681411,
                0.12958660307563738,
                -3.1924946282119055
            ]
        },
        {
            "positions": [
                0.056997944545499335,
                -1.1731965921755558,
                2.0362477023137133,
                -0.8166317886015285,
                0.2877750349358787,
                -3.177104777953267
            ]
        },
        {
            "positions": [
                -0.008815586693645502,
                -1.2069028481727635,
                2.1009490175968994,
                -0.8528036282349158,
                0.44596346679612,
                -3.161714927694628
            ]
        },
        {
            "positions": [
                -0.07462911793279035,
                -1.240609104169971,
                2.165650332880086,
                -0.8889754678683033,
                0.6041518986563613,
                -3.1463250774359897
            ]
        },
        {
            "positions": [
                -0.14044264917193516,
                -1.2743153601671784,
                2.2303516481632726,
                -0.9251473075016906,
                0.7623403305166027,
                -3.130935227177351
            ]
        },
        {
            "positions": [
                -0.20625618041108001,
                -1.3080216161643858,
                2.295052963446459,
                -0.961319147135078,
                0.920528762376844,
                -3.1155453769187127
            ]
        },
        {
            "positions": [
                -0.27206971165022487,
                -1.3417278721615935,
                2.3597542787296453,
                -0.9974909867684654,
                1.0787171942370852,
                -3.1001555266600738
            ]
        },
        {
            "positions": [
                -0.3378832428893697,
                -1.375434128158801,
                2.424455594012832,
                -1.0336628264018528,
                1.2369056260973266,
                -3.0847656764014353
            ]
        }
    ]
}