{
    "goal": {
        "global_pose": {
            "orientation": {
                "w": 0.7031023502349854,
                "x": -0.7110244035720825,
                "y": 0.007748599164187908,
                "z": 0.005598929710686207
            },
            "position": {
                "x": 0.11585023208521307,
                "y": 0.44412534475326537,
                "z": 0.3711530566215515
            }
        },
        "name": "move_to_auspresseinheit_A"
    },
    "id": "BiEST_move_to_auspresseinheit_A_79",
    "joint_names": [
        "shoulder_pan_joint",
        "shoulder_lift_joint",
        "elbow_joint",
        "wrist_1_joint",
        "wrist_2_joint",
        "wrist_3_joint"
    ],
    "metrics": {
        "cart_traj_len": 1.6841694942634728,
        "distance_elbow_joint": 1.6895660715400993,
        "distance_shoulder_lift_joint": 0.5330371865226242,
        "distance_shoulder_pan_joint": 1.043727148557351,
        "distance_wrist_1_joint": 5.176545278871169,
        "distance_wrist_2_joint": 1.876202990577125,
        "distance_wrist_3_joint": 4.882759709167462,
        "smoothness": 0.596645908171393,
        "time": 0.096841301,
        "traj_len": 3.8989534987270407,
        "weighted_distance": 5.6586311130006575
    },
    "planner": "BiEST",
    "start": {
        "state": {
            "elbow_joint": 2.422574709923281,
            "shoulder_lift_joint": -1.3736533754116391,
            "shoulder_pan_joint": -0.33786336945926293,
            "wrist_1_joint": -1.0288603412921917,
            "wrist_2_joint": 1.2330224858903978,
            "wrist_3_joint": -3.094022268022082
        }
    },
    "waypoints": [
        {
            "positions": [
                -0.33786336945926293,
                -1.3736533754116391,
                2.422574709923281,
                -1.0288603412921917,
                1.2330224858903978,
                -3.094022268022082
            ]
        },
        {
            "positions": [
                -0.3147308289860623,
                -1.3853543267786772,
                2.376045998306261,
                -0.9081468153352958,
                1.1869282962895378,
                -2.956084659969414
            ]
        },
        {
            "positions": [
                -0.2915982885128617,
                -1.3970552781457153,
                2.3295172866892413,
                -0.7874332893784,
                1.1408341066886776,
                -2.8181470519167457
            ]
        },
        {
            "positions": [
                -0.26846574803966106,
                -1.4087562295127531,
                2.282988575072222,
                -0.6667197634215041,
                1.0947399170878176,
                -2.6802094438640776
            ]
        },
        {
            "positions": [
                -0.24533320756646046,
                -1.4204571808797912,
                2.236459863455202,
                -0.5460062374646082,
                1.0486457274869574,
                -2.542271835811409
            ]
        },
        {
            "positions": [
                -0.22220066709325983,
                -1.4321581322468293,
                2.189931151838182,
                -0.4252927115077123,
                1.0025515378860974,
                -2.4043342277587407
            ]
        },
        {
            "positions": [
                -0.19906812662005924,
                -1.4438590836138672,
                2.1434024402211627,
                -0.3045791855508164,
                0.9564573482852374,
                -2.2663966197060725
            ]
        },
        {
            "positions": [
                -0.1759355861468586,
                -1.4555600349809052,
                2.096873728604143,
                -0.18386565959392054,
                0.9103631586843773,
                -2.1284590116534043
            ]
        },
        {
            "positions": [
                -0.152803045673658,
                -1.4672609863479433,
                2.050345016987123,
                -0.0631521336370246,
                0.8642689690835172,
                -1.990521403600736
            ]
        },
        {
            "positions": [
                -0.108678650699286,
                -1.4879080309974544,
                2.0138817437802548,
                0.061305254198944295,
                0.8125888820285906,
                -1.8885424012627083
            ]
        },
        {
            "positions": [
                -0.06455425572491402,
                -1.5085550756469654,
                1.9774184705733868,
                0.1857626420349132,
                0.760908794973664,
                -1.7865633989246805
            ]
        },
        {
            "positions": [
                -0.020429860750542067,
                -1.5292021202964763,
                1.9409551973665187,
                0.31022002987088204,
                0.7092287079187374,
                -1.684584396586653
            ]
        },
        {
            "positions": [
                0.023694534223829944,
                -1.5498491649459873,
                1.9044919241596507,
                0.434677417706851,
                0.6575486208638108,
                -1.5826053942486253
            ]
        },
        {
            "positions": [
                0.0678189291982019,
                -1.5704962095954984,
                1.8680286509527826,
                0.5591348055428198,
                0.6058685338088842,
                -1.4806263919105978
            ]
        },
        {
            "positions": [
                0.11194332417257385,
                -1.5911432542450095,
                1.8315653777459144,
                0.6835921933787887,
                0.5541884467539575,
                -1.3786473895725702
            ]
        },
        {
            "positions": [
                0.15606771914694584,
                -1.6117902988945203,
                1.7951021045390465,
                0.8080495812147577,
                0.502508359699031,
                -1.2766683872345426
            ]
        },
        {
            "positions": [
                0.20019211412131788,
                -1.6324373435440314,
                1.7586388313321784,
                0.9325069690507266,
                0.4508282726441043,
                -1.1746893848965148
            ]
        },
        {
            "positions": [
                0.2443165090956898,
                -1.6530843881935424,
                1.7221755581253104,
                1.0569643568866953,
                0.3991481855891777,
                -1.0727103825584872
            ]
        },
        {
            "positions": [
                0.2884409040700618,
                -1.6737314328430535,
                1.6857122849184423,
                1.1814217447226643,
                0.3474680985342511,
                -0.9707313802204596
            ]
        },
        {
            "positions": [
                0.3654999436990668,
                -1.7091181301322276,
                1.660916785729526,
                1.3146623464704044,
                0.2850074459660447,
                -0.9115740728901727
            ]
        },
        {
            "positions": [
                0.44255898332807186,
                -1.7445048274214017,
                1.6361212865406096,
                1.4479029482181445,
                0.22254679339783834,
                -0.8524167655598857
            ]
        },
        {
            "positions": [
                0.5196180229570768,
                -1.7798915247105758,
                1.6113257873516935,
                1.5811435499658844,
                0.160086140829632,
                -0.7932594582295988
            ]
        },
        {
            "positions": [
                0.596677062586082,
                -1.8152782219997499,
                1.5865302881627772,
                1.7143841517136247,
                0.09762548826142561,
                -0.7341021508993117
            ]
        },
        {
            "positions": [
                0.673736102215087,
                -1.850664919288924,
                1.5617347889738609,
                1.8476247534613646,
                0.035164835693219244,
                -0.6749448435690248
            ]
        },
        {
            "positions": [
                0.675625965561146,
                -1.853960545326885,
                1.6104833860674301,
                1.7123270955720935,
                0.07506750277439261,
                -0.8198673309051663
            ]
        },
        {
            "positions": [
                0.677515828907205,
                -1.8572561713648463,
                1.6592319831609996,
                1.5770294376828222,
                0.11497016985556599,
                -0.9647898182413077
            ]
        },
        {
            "positions": [
                0.679405692253264,
                -1.8605517974028074,
                1.707980580254569,
                1.441731779793551,
                0.15487283693673937,
                -1.1097123055774492
            ]
        },
        {
            "positions": [
                0.681295555599323,
                -1.8638474234407685,
                1.7567291773481384,
                1.3064341219042799,
                0.19477550401791272,
                -1.2546347929135906
            ]
        },
        {
            "positions": [
                0.683185418945382,
                -1.8671430494787296,
                1.8054777744417077,
                1.1711364640150088,
                0.2346781710990861,
                -1.399557280249732
            ]
        },
        {
            "positions": [
                0.685075282291441,
                -1.8704386755166909,
                1.854226371535277,
                1.0358388061257375,
                0.27458083818025947,
                -1.5444797675858737
            ]
        },
        {
            "positions": [
                0.6869651456375,
                -1.873734301554652,
                1.9029749686288464,
                0.9005411482364665,
                0.31448350526143287,
                -1.6894022549220151
            ]
        },
        {
            "positions": [
                0.688855008983559,
                -1.877029927592613,
                1.9517235657224157,
                0.7652434903471952,
                0.3543861723426062,
                -1.8343247422581566
            ]
        },
        {
            "positions": [
                0.6907448723296179,
                -1.8803255536305743,
                2.000472162815985,
                0.6299458324579241,
                0.3942888394237796,
                -1.979247229594298
            ]
        },
        {
            "positions": [
                0.6926347356756769,
                -1.8836211796685354,
                2.0492207599095544,
                0.49464817456865284,
                0.434191506504953,
                -2.1241697169304397
            ]
        },
        {
            "positions": [
                0.6945245990217359,
                -1.8869168057064964,
                2.097969357003124,
                0.35935051667938156,
                0.4740941735861264,
                -2.269092204266581
            ]
        },
        {
            "positions": [
                0.6964144623677949,
                -1.8902124317444577,
                2.146717954096693,
                0.2240528587901105,
                0.5139968406672997,
                -2.4140146916027225
            ]
        },
        {
            "positions": [
                0.6983043257138539,
                -1.8935080577824188,
                2.1954665511902625,
                0.08875520090083944,
                0.5538995077484731,
                -2.558937178938864
            ]
        },
        {
            "positions": [
                0.7001941890599129,
                -1.89680368382038,
                2.244215148283832,
                -0.046542456988431624,
                0.5938021748296465,
                -2.7038596662750054
            ]
        },
        {
            "positions": [
                0.7020840524059719,
                -1.900099309858341,
                2.292963745377401,
                -0.18184011487770269,
                0.6337048419108198,
                -2.848782153611147
            ]
        },
        {
            "positions": [
                0.7039739157520309,
                -1.9033949358963023,
                2.3417123424709705,
                -0.3171377727669742,
                0.6736075089919932,
                -2.9937046409472883
            ]
        },
        {
            "positions": [
                0.70586377909809,
                -1.9066905619342633,
                2.39046093956454,
                -0.4524354306562454,
                0.7135101760731666,
                -3.1386271282834297
            ]
        }
    ]
}