{
    "goal": {
        "global_pose": {
            "orientation": {
                "w": 0.5084816217422485,
                "x": -0.49083608388900757,
                "y": 0.5182115435600281,
                "z": -0.4816462993621826
            },
            "position": {
                "x": 0.5540239810943604,
                "y": 0.030875300988554955,
                "z": 0.16403168439865112
            }
        },
        "name": "move_to_storage_A"
    },
    "id": "BiEST_move_to_storage_A_9",
    "joint_names": [
        "shoulder_pan_joint",
        "shoulder_lift_joint",
        "elbow_joint",
        "wrist_1_joint",
        "wrist_2_joint",
        "wrist_3_joint"
    ],
    "metrics": {
        "cart_traj_len": 0.35335823753899576,
        "distance_elbow_joint": 0.4498902965698388,
        "distance_shoulder_lift_joint": 0.23462667524322134,
        "distance_shoulder_pan_joint": 0.462928858402968,
        "distance_wrist_1_joint": 0.2403941660357901,
        "distance_wrist_2_joint": 1.095897874045745,
        "distance_wrist_3_joint": 0.09895596353839053,
        "smoothness": 4.440892098500626e-16,
        "time": 0.041014895999999995,
        "traj_len": 1.60707617549261,
        "weighted_distance": 2.029013997239612
    },
    "planner": "BiEST",
    "start": {
        "state": {
            "elbow_joint": 1.9715463870305268,
            "shoulder_lift_joint": -1.1394903361783484,
            "shoulder_pan_joint": 0.12281147578464417,
            "wrist_1_joint": -0.7804599489681411,
            "wrist_2_joint": 0.12958660307563738,
            "wrist_3_joint": -3.1924946282119055
        }
    },
    "waypoints": [
        {
            "positions": [
                0.12281147578464417,
                -1.1394903361783484,
                1.9715463870305268,
                -0.7804599489681411,
                0.12958660307563738,
                -3.1924946282119055
            ]
        },
        {
            "positions": [
                0.056678781727077326,
                -1.1730084326416657,
                2.0358164293976464,
                -0.8148019726875396,
                0.2861434422250295,
                -3.1783580619921357
            ]
        },
        {
            "positions": [
                -0.00945391233048952,
                -1.2065265291049831,
                2.1000864717647665,
                -0.8491439964069383,
                0.44270028137442163,
                -3.1642214957723653
            ]
        },
        {
            "positions": [
                -0.07558660638805638,
                -1.2400446255683004,
                2.164356514131886,
                -0.8834860201263368,
                0.5992571205238137,
                -3.1500849295525954
            ]
        },
        {
            "positions": [
                -0.1417193004456232,
                -1.2735627220316177,
                2.228626556499006,
                -0.9178280438457355,
                0.755813959673206,
                -3.135948363332825
            ]
        },
        {
            "positions": [
                -0.20785199450319009,
                -1.307080818494935,
                2.292896598866126,
                -0.952170067565134,
                0.9123707988225982,
                -3.1218117971130552
            ]
        },
        {
            "positions": [
                -0.2739846885607569,
                -1.3405989149582525,
                2.3571666412332455,
                -0.9865120912845327,
                1.06892763797199,
                -3.107675230893285
            ]
        },
        {
            "positions": [
                -0.3401173826183238,
                -1.3741170114215697,
                2.4214366836003656,
                -1.0208541150039312,
                1.2254844771213824,
                -3.093538664673515
            ]
        }
    ]
}