{
    "goal": {
        "global_pose": {
            "orientation": {
                "w": 0.7047431468963623,
                "x": -0.7094548344612122,
                "y": 0.0024358443915843964,
                "z": -0.0022348060738295317
            },
            "position": {
                "x": 0.6094750761985779,
                "y": 0.3671506643295288,
                "z": 0.19426114857196808
            }
        },
        "name": "move_to_magneteinheit_A"
    },
    "id": "BiEST_move_to_magneteinheit_A_17",
    "joint_names": [
        "shoulder_pan_joint",
        "shoulder_lift_joint",
        "elbow_joint",
        "wrist_1_joint",
        "wrist_2_joint",
        "wrist_3_joint"
    ],
    "metrics": {
        "cart_traj_len": 2.064797476024347,
        "distance_elbow_joint": 3.879413184412831,
        "distance_shoulder_lift_joint": 1.0558644291880004,
        "distance_shoulder_pan_joint": 1.2419971442791553,
        "distance_wrist_1_joint": 1.1473364187481723,
        "distance_wrist_2_joint": 1.431200197271159,
        "distance_wrist_3_joint": 1.910189478457506,
        "smoothness": 6.344131565838546e-16,
        "time": 0.087002908,
        "traj_len": 3.26588439053755,
        "weighted_distance": 4.130970397532663
    },
    "planner": "BiEST",
    "start": {
        "state": {
            "elbow_joint": -1.919643507792019,
            "shoulder_lift_joint": -0.07675430207160344,
            "shoulder_pan_joint": -1.1188671864651873,
            "wrist_1_joint": 0.42560062535961957,
            "wrist_2_joint": 1.5706038300724876,
            "wrist_3_joint": 1.1188968870953055
        }
    },
    "waypoints": [
        {
            "positions": [
                -1.1188671864651873,
                -0.07675430207160344,
                -1.919643507792019,
                0.42560062535961957,
                1.5706038300724876,
                1.1188968870953055
            ]
        },
        {
            "positions": [
                -1.0728672922326261,
                -0.11586039204152937,
                -1.7759615379989513,
                0.3831066839245021,
                1.517596415358741,
                1.1896446455566947
            ]
        },
        {
            "positions": [
                -1.0268673980000647,
                -0.1549664820114553,
                -1.6322795682058835,
                0.34061274248938456,
                1.4645890006449944,
                1.2603924040180838
            ]
        },
        {
            "positions": [
                -0.9808675037675034,
                -0.19407257198138125,
                -1.4885975984128157,
                0.29811880105426714,
                1.4115815859312477,
                1.331140162479473
            ]
        },
        {
            "positions": [
                -0.9348676095349422,
                -0.23317866195130718,
                -1.344915628619748,
                0.2556248596191496,
                1.358574171217501,
                1.401887920940862
            ]
        },
        {
            "positions": [
                -0.8888677153023808,
                -0.27228475192123314,
                -1.20123365882668,
                0.21313091818403213,
                1.3055667565037545,
                1.472635679402251
            ]
        },
        {
            "positions": [
                -0.8428678210698195,
                -0.31139084189115906,
                -1.0575516890336123,
                0.17063697674891465,
                1.2525593417900078,
                1.5433834378636402
            ]
        },
        {
            "positions": [
                -0.7968679268372583,
                -0.350496931861085,
                -0.9138697192405445,
                0.12814303531379712,
                1.1995519270762611,
                1.6141311963250293
            ]
        },
        {
            "positions": [
                -0.7508680326046969,
                -0.3896030218310109,
                -0.7701877494474767,
                0.08564909387867964,
                1.1465445123625146,
                1.6848789547864182
            ]
        },
        {
            "positions": [
                -0.7048681383721356,
                -0.4287091118009369,
                -0.6265057796544089,
                0.04315515244356216,
                1.093537097648768,
                1.7556267132478074
            ]
        },
        {
            "positions": [
                -0.6588682441395743,
                -0.46781520177086283,
                -0.4828238098613411,
                0.0006612110084446843,
                1.0405296829350212,
                1.8263744717091965
            ]
        },
        {
            "positions": [
                -0.612868349907013,
                -0.5069212917407888,
                -0.3391418400682733,
                -0.04183273042667279,
                0.9875222682212748,
                1.8971222301705857
            ]
        },
        {
            "positions": [
                -0.5668684556744517,
                -0.5460273817107146,
                -0.1954598702752055,
                -0.08432667186179027,
                0.934514853507528,
                1.9678699886319748
            ]
        },
        {
            "positions": [
                -0.5208685614418904,
                -0.5851334716806407,
                -0.051777900482137706,
                -0.1268206132969078,
                0.8815074387937815,
                2.038617747093364
            ]
        },
        {
            "positions": [
                -0.4748686672093291,
                -0.6242395616505665,
                0.09190406931093009,
                -0.16931455473202534,
                0.8285000240800349,
                2.109365505554753
            ]
        },
        {
            "positions": [
                -0.42886877297676773,
                -0.6633456516204925,
                0.2355860391039981,
                -0.21180849616714287,
                0.7754926093662882,
                2.1801132640161422
            ]
        },
        {
            "positions": [
                -0.3828688787442065,
                -0.7024517415904183,
                0.3792680088970657,
                -0.2543024376022603,
                0.7224851946525416,
                2.2508610224775314
            ]
        },
        {
            "positions": [
                -0.33686898451164504,
                -0.7415578315603444,
                0.5229499786901337,
                -0.2967963790373778,
                0.6694777799387949,
                2.3216087809389205
            ]
        },
        {
            "positions": [
                -0.2908690902790838,
                -0.7806639215302704,
                0.6666319484832013,
                -0.33929032047249524,
                0.6164703652250483,
                2.3923565394003097
            ]
        },
        {
            "positions": [
                -0.24486919604652246,
                -0.8197700115001962,
                0.8103139182762693,
                -0.3817842619076128,
                0.5634629505113016,
                2.4631042978616984
            ]
        },
        {
            "positions": [
                -0.19886930181396123,
                -0.8588761014701223,
                0.9539958880693369,
                -0.4242782033427302,
                0.5104555357975551,
                2.533852056323088
            ]
        },
        {
            "positions": [
                -0.15286940758139989,
                -0.8979821914400481,
                1.097677857862405,
                -0.46677214477784773,
                0.4574481210838084,
                2.6045998147844767
            ]
        },
        {
            "positions": [
                -0.10686951334883865,
                -0.9370882814099741,
                1.2413598276554725,
                -0.5092660862129652,
                0.4044407063700619,
                2.675347573245866
            ]
        },
        {
            "positions": [
                -0.060869619116277196,
                -0.9761943713799002,
                1.3850417974485405,
                -0.5517600276480827,
                0.3514332916563152,
                2.746095331707255
            ]
        },
        {
            "positions": [
                -0.014869724883715962,
                -1.015300461349826,
                1.528723767241608,
                -0.5942539690832,
                0.2984258769425685,
                2.816843090168644
            ]
        },
        {
            "positions": [
                0.03113016934884527,
                -1.054406551319752,
                1.672405737034676,
                -0.6367479105183176,
                0.2454184622288218,
                2.8875908486300332
            ]
        },
        {
            "positions": [
                0.0771300635814065,
                -1.0935126412896778,
                1.8160877068277437,
                -0.6792418519534351,
                0.19241104751507532,
                2.9583386070914224
            ]
        },
        {
            "positions": [
                0.123129957813968,
                -1.1326187312596039,
                1.9597696766208117,
                -0.7217357933885526,
                0.13940363280132853,
                3.0290863655528115
            ]
        }
    ]
}