{
    "goal": {
        "global_pose": {
            "orientation": {
                "w": 0.5084816217422485,
                "x": -0.49083608388900757,
                "y": 0.5182115435600281,
                "z": -0.4816462993621826
            },
            "position": {
                "x": 0.5540239810943604,
                "y": 0.030875300988554955,
                "z": 0.16403168439865112
            }
        },
        "name": "move_to_storage_A"
    },
    "id": "BiEST_move_to_storage_A_22",
    "joint_names": [
        "shoulder_pan_joint",
        "shoulder_lift_joint",
        "elbow_joint",
        "wrist_1_joint",
        "wrist_2_joint",
        "wrist_3_joint"
    ],
    "metrics": {
        "cart_traj_len": 0.35391407525822716,
        "distance_elbow_joint": 0.44993099325670727,
        "distance_shoulder_lift_joint": 0.23413669654899483,
        "distance_shoulder_pan_joint": 0.4636185648045537,
        "distance_wrist_1_joint": 0.24496072233620103,
        "distance_wrist_2_joint": 1.096488323524663,
        "distance_wrist_3_joint": 0.10317058666796264,
        "smoothness": 1.1102230263833737e-15,
        "time": 0.047063363,
        "traj_len": 1.6100639388356857,
        "weighted_distance": 2.0347226116441206
    },
    "planner": "BiEST",
    "start": {
        "state": {
            "elbow_joint": 1.9715463870305268,
            "shoulder_lift_joint": -1.1394903361783484,
            "shoulder_pan_joint": 0.12281147578464417,
            "wrist_1_joint": -0.7804599489681411,
            "wrist_2_joint": 0.12958660307563738,
            "wrist_3_joint": -3.1924946282119055
        }
    },
    "waypoints": [
        {
            "positions": [
                0.12281147578464417,
                -1.1394903361783484,
                1.9715463870305268,
                -0.7804599489681411,
                0.12958660307563738,
                -3.1924946282119055
            ]
        },
        {
            "positions": [
                0.0565802522411365,
                -1.1729384356853476,
                2.0358222432100566,
                -0.8154543378733127,
                0.28622779215058924,
                -3.177755972973625
            ]
        },
        {
            "positions": [
                -0.009650971302371178,
                -1.2063865351923468,
                2.100098099389586,
                -0.8504487267784843,
                0.4428689812255411,
                -3.1630173177353447
            ]
        },
        {
            "positions": [
                -0.07588219484587884,
                -1.239834634699346,
                2.1643739555691157,
                -0.8854431156836557,
                0.5995101703004929,
                -3.1482786624970642
            ]
        },
        {
            "positions": [
                -0.14211341838938651,
                -1.2732827342063455,
                2.228649811748645,
                -0.9204375045888273,
                0.7561513593754448,
                -3.1335400072587842
            ]
        },
        {
            "positions": [
                -0.2083446419328942,
                -1.3067308337133448,
                2.292925667928175,
                -0.9554318934939989,
                0.9127925484503967,
                -3.118801352020504
            ]
        },
        {
            "positions": [
                -0.27457586547640184,
                -1.340178933220344,
                2.3572015241077042,
                -0.9904262823991705,
                1.0694337375253484,
                -3.1040626967822234
            ]
        },
        {
            "positions": [
                -0.3408070890199095,
                -1.3736270327273432,
                2.421477380287234,
                -1.0254206713043421,
                1.2260749266003004,
                -3.089324041543943
            ]
        }
    ]
}