{
    "goal": {
        "global_pose": {
            "orientation": {
                "w": 0.7047431468963623,
                "x": -0.7094548344612122,
                "y": 0.0024358443915843964,
                "z": -0.0022348060738295317
            },
            "position": {
                "x": 0.6094750761985779,
                "y": 0.3671506643295288,
                "z": 0.19426114857196808
            }
        },
        "name": "move_to_magneteinheit_A"
    },
    "id": "BiEST_move_to_magneteinheit_A_90",
    "joint_names": [
        "shoulder_pan_joint",
        "shoulder_lift_joint",
        "elbow_joint",
        "wrist_1_joint",
        "wrist_2_joint",
        "wrist_3_joint"
    ],
    "metrics": {
        "cart_traj_len": 2.0716172072430297,
        "distance_elbow_joint": 3.9040881251094626,
        "distance_shoulder_lift_joint": 1.068964590676285,
        "distance_shoulder_pan_joint": 1.2421412326012136,
        "distance_wrist_1_joint": 1.2601887799699456,
        "distance_wrist_2_joint": 1.4390122201376119,
        "distance_wrist_3_joint": 2.024478919610407,
        "smoothness": 3.981489473232051e-16,
        "time": 0.08341800199999999,
        "traj_len": 3.3073968416422193,
        "weighted_distance": 4.205595404628612
    },
    "planner": "BiEST",
    "start": {
        "state": {
            "elbow_joint": -1.919643507792019,
            "shoulder_lift_joint": -0.07675430207160344,
            "shoulder_pan_joint": -1.1188671864651873,
            "wrist_1_joint": 0.42560062535961957,
            "wrist_2_joint": 1.5706038300724876,
            "wrist_3_joint": 1.1188968870953055
        }
    },
    "waypoints": [
        {
            "positions": [
                -1.1188671864651873,
                -0.07675430207160344,
                -1.919643507792019,
                0.42560062535961957,
                1.5706038300724876,
                1.1188968870953055
            ]
        },
        {
            "positions": [
                -1.0745049995865725,
                -0.11493160888147076,
                -1.7802117890381097,
                0.3805938832178358,
                1.5192105364961443,
                1.19119970565282
            ]
        },
        {
            "positions": [
                -1.0301428127079577,
                -0.15310891569133808,
                -1.6407800702842004,
                0.33558714107605203,
                1.467817242919801,
                1.2635025242103346
            ]
        },
        {
            "positions": [
                -0.985780625829343,
                -0.19128622250120542,
                -1.501348351530291,
                0.29058039893426824,
                1.4164239493434578,
                1.3358053427678491
            ]
        },
        {
            "positions": [
                -0.9414184389507283,
                -0.22946352931107272,
                -1.3619166327763816,
                0.2455736567924845,
                1.3650306557671146,
                1.4081081613253636
            ]
        },
        {
            "positions": [
                -0.8970562520721135,
                -0.26764083612094003,
                -1.222484914022472,
                0.2005669146507007,
                1.313637362190771,
                1.4804109798828784
            ]
        },
        {
            "positions": [
                -0.8526940651934987,
                -0.30581814293080734,
                -1.083053195268563,
                0.15556017250891696,
                1.2622440686144278,
                1.5527137984403927
            ]
        },
        {
            "positions": [
                -0.808331878314884,
                -0.3439954497406747,
                -0.9436214765146534,
                0.11055343036713317,
                1.2108507750380846,
                1.6250166169979074
            ]
        },
        {
            "positions": [
                -0.7639696914362692,
                -0.382172756550542,
                -0.8041897577607442,
                0.06554668822534943,
                1.1594574814617413,
                1.6973194355554218
            ]
        },
        {
            "positions": [
                -0.7196075045576544,
                -0.42035006336040937,
                -0.6647580390068346,
                0.020539946083565574,
                1.108064187885398,
                1.7696222541129365
            ]
        },
        {
            "positions": [
                -0.6752453176790396,
                -0.45852737017027667,
                -0.5253263202529252,
                -0.024466796058218165,
                1.0566708943090548,
                1.841925072670451
            ]
        },
        {
            "positions": [
                -0.6308831308004249,
                -0.496704676980144,
                -0.3858946014990159,
                -0.0694735382000019,
                1.0052776007327116,
                1.9142278912279656
            ]
        },
        {
            "positions": [
                -0.5865209439218101,
                -0.5348819837900113,
                -0.24646288274510675,
                -0.11448028034178565,
                0.9538843071563683,
                1.9865307097854799
            ]
        },
        {
            "positions": [
                -0.5421587570431953,
                -0.5730592905998786,
                -0.10703116399119716,
                -0.15948702248356944,
                0.9024910135800249,
                2.0588335283429946
            ]
        },
        {
            "positions": [
                -0.49779657016458057,
                -0.611236597409746,
                0.0324005547627122,
                -0.20449376462535324,
                0.8510977200036817,
                2.131136346900509
            ]
        },
        {
            "positions": [
                -0.45343438328596586,
                -0.6494139042196132,
                0.17183227351662134,
                -0.24950050676713703,
                0.7997044264273384,
                2.2034391654580237
            ]
        },
        {
            "positions": [
                -0.40907219640735104,
                -0.6875912110294806,
                0.3112639922705307,
                -0.2945072489089207,
                0.7483111328509952,
                2.2757419840155384
            ]
        },
        {
            "positions": [
                -0.36471000952873633,
                -0.7257685178393478,
                0.45069571102444006,
                -0.3395139910507045,
                0.6969178392746519,
                2.3480448025730527
            ]
        },
        {
            "positions": [
                -0.3203478226501214,
                -0.7639458246492152,
                0.5901274297783499,
                -0.3845207331924884,
                0.6455245456983085,
                2.4203476211305675
            ]
        },
        {
            "positions": [
                -0.2759856357715067,
                -0.8021231314590826,
                0.7295591485322592,
                -0.4295274753342721,
                0.5941312521219653,
                2.4926504396880818
            ]
        },
        {
            "positions": [
                -0.23162344889289188,
                -0.8403004382689498,
                0.8689908672861686,
                -0.4745342174760559,
                0.542737958545622,
                2.5649532582455965
            ]
        },
        {
            "positions": [
                -0.18726126201427717,
                -0.8784777450788173,
                1.008422586040078,
                -0.5195409596178395,
                0.49134466496927875,
                2.637256076803111
            ]
        },
        {
            "positions": [
                -0.14289907513566247,
                -0.9166550518886845,
                1.1478543047939873,
                -0.5645477017596234,
                0.4399513713929355,
                2.709558895360625
            ]
        },
        {
            "positions": [
                -0.09853688825704765,
                -0.9548323586985519,
                1.2872860235478967,
                -0.6095544439014071,
                0.38855807781659224,
                2.78186171391814
            ]
        },
        {
            "positions": [
                -0.05417470137843283,
                -0.9930096655084191,
                1.4267177423018056,
                -0.6545611860431908,
                0.337164784240249,
                2.8541645324756546
            ]
        },
        {
            "positions": [
                -0.009812514499818015,
                -1.0311869723182865,
                1.5661494610557154,
                -0.6995679281849747,
                0.2857714906639055,
                2.9264673510331694
            ]
        },
        {
            "positions": [
                0.0345496723787968,
                -1.069364279128154,
                1.7055811798096248,
                -0.7445746703267584,
                0.23437819708756225,
                2.9987701695906837
            ]
        },
        {
            "positions": [
                0.0789118592574114,
                -1.1075415859380213,
                1.8450128985635341,
                -0.7895814124685423,
                0.182984903511219,
                3.071072988148198
            ]
        },
        {
            "positions": [
                0.1232740461360263,
                -1.1457188927478885,
                1.9844446173174435,
                -0.834588154610326,
                0.13159160993487568,
                3.1433758067057127
            ]
        }
    ]
}