{
    "goal": {
        "global_pose": {
            "orientation": {
                "w": 0.7047431468963623,
                "x": -0.7094548344612122,
                "y": 0.0024358443915843964,
                "z": -0.0022348060738295317
            },
            "position": {
                "x": 0.6094750761985779,
                "y": 0.3671506643295288,
                "z": 0.19426114857196808
            }
        },
        "name": "move_to_magneteinheit_A"
    },
    "id": "BiEST_move_to_magneteinheit_A_52",
    "joint_names": [
        "shoulder_pan_joint",
        "shoulder_lift_joint",
        "elbow_joint",
        "wrist_1_joint",
        "wrist_2_joint",
        "wrist_3_joint"
    ],
    "metrics": {
        "cart_traj_len": 1.8687625766536082,
        "distance_elbow_joint": 3.931860123663836,
        "distance_shoulder_lift_joint": 0.7093975666537131,
        "distance_shoulder_pan_joint": 1.2405889086292323,
        "distance_wrist_1_joint": 1.571914573950731,
        "distance_wrist_2_joint": 1.69084998453318,
        "distance_wrist_3_joint": 1.194969302781434,
        "smoothness": 3.1720657918664137e-16,
        "time": 0.059925980000000004,
        "traj_len": 3.2155218021671264,
        "weighted_distance": 3.9990353367104556
    },
    "planner": "BiEST",
    "start": {
        "state": {
            "elbow_joint": -1.919643507792019,
            "shoulder_lift_joint": -0.07675430207160344,
            "shoulder_pan_joint": -1.1188671864651873,
            "wrist_1_joint": 0.42560062535961957,
            "wrist_2_joint": 1.5706038300724876,
            "wrist_3_joint": 1.1188968870953055
        }
    },
    "waypoints": [
        {
            "positions": [
                -1.1188671864651873,
                -0.07675430207160344,
                -1.919643507792019,
                0.42560062535961957,
                1.5706038300724876,
                1.1188968870953055
            ]
        },
        {
            "positions": [
                -1.0729194491085492,
                -0.10302828602174097,
                -1.7740190587674325,
                0.48381968365409106,
                1.5079797565712587,
                1.0746387647700673
            ]
        },
        {
            "positions": [
                -1.0269717117519108,
                -0.1293022699718785,
                -1.628394609742846,
                0.5420387419485626,
                1.4453556830700298,
                1.030380642444829
            ]
        },
        {
            "positions": [
                -0.9810239743952727,
                -0.15557625392201602,
                -1.4827701607182595,
                0.6002578002430341,
                1.382731609568801,
                0.9861225201195907
            ]
        },
        {
            "positions": [
                -0.9350762370386344,
                -0.18185023787215354,
                -1.337145711693673,
                0.6584768585375056,
                1.320107536067572,
                0.9418643977943524
            ]
        },
        {
            "positions": [
                -0.8891284996819961,
                -0.20812422182229104,
                -1.1915212626690865,
                0.7166959168319771,
                1.2574834625663431,
                0.8976062754691141
            ]
        },
        {
            "positions": [
                -0.843180762325358,
                -0.23439820577242856,
                -1.0458968136445002,
                0.7749149751264486,
                1.1948593890651142,
                0.8533481531438758
            ]
        },
        {
            "positions": [
                -0.7972330249687197,
                -0.2606721897225661,
                -0.9002723646199136,
                0.8331340334209202,
                1.1322353155638853,
                0.8090900308186375
            ]
        },
        {
            "positions": [
                -0.7512852876120815,
                -0.2869461736727036,
                -0.754647915595327,
                0.8913530917153917,
                1.0696112420626567,
                0.7648319084933992
            ]
        },
        {
            "positions": [
                -0.7053375502554433,
                -0.31322015762284117,
                -0.6090234665707406,
                0.9495721500098633,
                1.0069871685614276,
                0.7205737861681609
            ]
        },
        {
            "positions": [
                -0.659389812898805,
                -0.33949414157297864,
                -0.463399017546154,
                1.0077912083043348,
                0.9443630950601988,
                0.6763156638429226
            ]
        },
        {
            "positions": [
                -0.6134420755421668,
                -0.36576812552311616,
                -0.3177745685215674,
                1.0660102665988063,
                0.8817390215589699,
                0.6320575415176843
            ]
        },
        {
            "positions": [
                -0.5674943381855285,
                -0.3920421094732537,
                -0.172150119496981,
                1.1242293248932778,
                0.819114948057741,
                0.5877994191924459
            ]
        },
        {
            "positions": [
                -0.5215466008288904,
                -0.4183160934233912,
                -0.026525670472394403,
                1.1824483831877493,
                0.7564908745565121,
                0.5435412968672076
            ]
        },
        {
            "positions": [
                -0.4755988634722521,
                -0.44459007737352874,
                0.11909877855219198,
                1.2406674414822207,
                0.6938668010552832,
                0.49928317454196935
            ]
        },
        {
            "positions": [
                -0.42965112611561385,
                -0.4708640613236663,
                0.2647232275767786,
                1.2988864997766925,
                0.6312427275540543,
                0.45502505221673106
            ]
        },
        {
            "positions": [
                -0.3837033887589757,
                -0.4971380452738038,
                0.4103476766013652,
                1.3571055580711637,
                0.5686186540528255,
                0.41076692989149277
            ]
        },
        {
            "positions": [
                -0.3377556514023373,
                -0.5234120292239414,
                0.5559721256259518,
                1.4153246163656354,
                0.5059945805515964,
                0.3665088075662545
            ]
        },
        {
            "positions": [
                -0.29180791404569917,
                -0.5496860131740788,
                0.7015965746505379,
                1.473543674660107,
                0.44337050705036773,
                0.3222506852410162
            ]
        },
        {
            "positions": [
                -0.2458601766890609,
                -0.5759599971242164,
                0.847221023675125,
                1.5317627329545784,
                0.38074643354913884,
                0.2779925629157778
            ]
        },
        {
            "positions": [
                -0.19991243933242275,
                -0.6022339810743538,
                0.9928454726997111,
                1.58998179124905,
                0.31812236004790995,
                0.2337344405905396
            ]
        },
        {
            "positions": [
                -0.15396470197578438,
                -0.6285079650244914,
                1.1384699217242977,
                1.6482008495435214,
                0.25549828654668105,
                0.1894763182653012
            ]
        },
        {
            "positions": [
                -0.10801696461914623,
                -0.6547819489746289,
                1.2840943707488843,
                1.706419907837993,
                0.19287421304545216,
                0.14521819594006302
            ]
        },
        {
            "positions": [
                -0.06206922726250785,
                -0.6810559329247665,
                1.429718819773471,
                1.7646389661324646,
                0.13025013954422326,
                0.10096007361482462
            ]
        },
        {
            "positions": [
                -0.0161214899058697,
                -0.7073299168749039,
                1.575343268798057,
                1.822858024426936,
                0.06762606604299437,
                0.05670195128958633
            ]
        },
        {
            "positions": [
                0.02982624745076845,
                -0.7336039008250415,
                1.7209677178226437,
                1.8810770827214076,
                0.0050019925417654765,
                0.012443828964348036
            ]
        },
        {
            "positions": [
                0.0757739848074066,
                -0.759877884775179,
                1.8665921668472303,
                1.939296141015879,
                -0.05762208095946342,
                -0.031814293360890256
            ]
        },
        {
            "positions": [
                0.12172172216404506,
                -0.7861518687253166,
                2.0122166158718167,
                1.9975151993103506,
                -0.12024615446069221,
                -0.07607241568612856
            ]
        }
    ]
}