{
    "goal": {
        "global_pose": {
            "orientation": {
                "w": 0.7047431468963623,
                "x": -0.7094548344612122,
                "y": 0.0024358443915843964,
                "z": -0.0022348060738295317
            },
            "position": {
                "x": 0.6094750761985779,
                "y": 0.3671506643295288,
                "z": 0.19426114857196808
            }
        },
        "name": "move_to_magneteinheit_A"
    },
    "id": "BiEST_move_to_magneteinheit_A_69",
    "joint_names": [
        "shoulder_pan_joint",
        "shoulder_lift_joint",
        "elbow_joint",
        "wrist_1_joint",
        "wrist_2_joint",
        "wrist_3_joint"
    ],
    "metrics": {
        "cart_traj_len": 2.0633360428594645,
        "distance_elbow_joint": 3.875505656171265,
        "distance_shoulder_lift_joint": 1.0532971750964528,
        "distance_shoulder_pan_joint": 1.2406492591163398,
        "distance_wrist_1_joint": 1.1439316890269295,
        "distance_wrist_2_joint": 1.4472906315804481,
        "distance_wrist_3_joint": 1.9082912804788252,
        "smoothness": 3.1720657925504774e-16,
        "time": 0.107086356,
        "traj_len": 3.2663382696025627,
        "weighted_distance": 4.132404938172842
    },
    "planner": "BiEST",
    "start": {
        "state": {
            "elbow_joint": -1.919643507792019,
            "shoulder_lift_joint": -0.07675430207160344,
            "shoulder_pan_joint": -1.1188671864651873,
            "wrist_1_joint": 0.42560062535961957,
            "wrist_2_joint": 1.5706038300724876,
            "wrist_3_joint": 1.1188968870953055
        }
    },
    "waypoints": [
        {
            "positions": [
                -1.1188671864651873,
                -0.07675430207160344,
                -1.919643507792019,
                0.42560062535961957,
                1.5706038300724876,
                1.1188968870953055
            ]
        },
        {
            "positions": [
                -1.072917213905323,
                -0.11576530855665725,
                -1.7761062612671574,
                0.38323278502528885,
                1.5170004733472857,
                1.1895743419278546
            ]
        },
        {
            "positions": [
                -1.0269672413454585,
                -0.15477631504171105,
                -1.6325690147422958,
                0.3408649446909581,
                1.463397116622084,
                1.2602517967604037
            ]
        },
        {
            "positions": [
                -0.981017268785594,
                -0.19378732152676487,
                -1.489031768217434,
                0.2984971043566274,
                1.4097937598968824,
                1.3309292515929527
            ]
        },
        {
            "positions": [
                -0.9350672962257296,
                -0.23279832801181866,
                -1.3454945216925724,
                0.2561292640222967,
                1.3561904031716805,
                1.4016067064255018
            ]
        },
        {
            "positions": [
                -0.8891173236658652,
                -0.2718093344968725,
                -1.2019572751677108,
                0.21376142368796597,
                1.3025870464464786,
                1.472284161258051
            ]
        },
        {
            "positions": [
                -0.8431673511060007,
                -0.3108203409819263,
                -1.0584200286428491,
                0.17139358335363525,
                1.248983689721277,
                1.5429616160906
            ]
        },
        {
            "positions": [
                -0.7972173785461363,
                -0.3498313474669801,
                -0.9148827821179875,
                0.12902574301930453,
                1.1953803329960753,
                1.6136390709231492
            ]
        },
        {
            "positions": [
                -0.7512674059862718,
                -0.38884235395203387,
                -0.7713455355931258,
                0.08665790268497381,
                1.1417769762708734,
                1.684316525755698
            ]
        },
        {
            "positions": [
                -0.7053174334264074,
                -0.4278533604370877,
                -0.6278082890682641,
                0.04429006235064309,
                1.0881736195456715,
                1.7549939805882473
            ]
        },
        {
            "positions": [
                -0.659367460866543,
                -0.4668643669221415,
                -0.4842710425434025,
                0.0019222220163123693,
                1.0345702628204698,
                1.8256714354207964
            ]
        },
        {
            "positions": [
                -0.6134174883066785,
                -0.5058753734071952,
                -0.3407337960185408,
                -0.04044561831801835,
                0.980966906095268,
                1.8963488902533454
            ]
        },
        {
            "positions": [
                -0.5674675157468141,
                -0.5448863798922492,
                -0.19719654949367915,
                -0.08281345865234907,
                0.9273635493700663,
                1.9670263450858945
            ]
        },
        {
            "positions": [
                -0.5215175431869497,
                -0.5838973863773029,
                -0.05365930296881749,
                -0.1251812989866798,
                0.8737601926448645,
                2.0377037999184435
            ]
        },
        {
            "positions": [
                -0.4755675706270852,
                -0.6229083928623567,
                0.08987794355604417,
                -0.1675491393210105,
                0.8201568359196627,
                2.108381254750993
            ]
        },
        {
            "positions": [
                -0.4296175980672208,
                -0.6619193993474106,
                0.23341519008090583,
                -0.20991697965534134,
                0.7665534791944608,
                2.1790587095835416
            ]
        },
        {
            "positions": [
                -0.38366762550735634,
                -0.7009304058324644,
                0.3769524366057675,
                -0.25228481998967195,
                0.7129501224692592,
                2.249736164416091
            ]
        },
        {
            "positions": [
                -0.3377176529474919,
                -0.7399414123175183,
                0.5204896831306292,
                -0.2946526603240028,
                0.6593467657440573,
                2.32041361924864
            ]
        },
        {
            "positions": [
                -0.29176768038762746,
                -0.778952418802572,
                0.6640269296554908,
                -0.3370205006583334,
                0.6057434090188556,
                2.391091074081189
            ]
        },
        {
            "positions": [
                -0.24581770782776302,
                -0.8179634252876258,
                0.8075641761803525,
                -0.3793883409926642,
                0.5521400522936537,
                2.461768528913738
            ]
        },
        {
            "positions": [
                -0.19986773526789858,
                -0.8569744317726795,
                0.9511014227052141,
                -0.42175618132699483,
                0.49853669556845204,
                2.532445983746287
            ]
        },
        {
            "positions": [
                -0.15391776270803414,
                -0.8959854382577335,
                1.0946386692300758,
                -0.46412402166132566,
                0.44493333884325015,
                2.6031234385788364
            ]
        },
        {
            "positions": [
                -0.1079677901481697,
                -0.9349964447427872,
                1.2381759157549375,
                -0.5064918619956562,
                0.3913299821180485,
                2.6738008934113853
            ]
        },
        {
            "positions": [
                -0.06201781758830527,
                -0.9740074512278409,
                1.3817131622797991,
                -0.548859702329987,
                0.3377266253928466,
                2.7444783482439346
            ]
        },
        {
            "positions": [
                -0.01606784502844083,
                -1.013018457712895,
                1.5252504088046608,
                -0.5912275426643177,
                0.2841232686676449,
                2.8151558030764834
            ]
        },
        {
            "positions": [
                0.029882127531423608,
                -1.0520294641979486,
                1.6687876553295224,
                -0.6335953829986485,
                0.23051991194244303,
                2.8858332579090327
            ]
        },
        {
            "positions": [
                0.07583210009128805,
                -1.0910404706830024,
                1.812324901854384,
                -0.6759632233329791,
                0.17691655521724137,
                2.9565107127415815
            ]
        },
        {
            "positions": [
                0.12178207265115253,
                -1.1300514771680563,
                1.9558621483792458,
                -0.71833106366731,
                0.12331319849203959,
                3.027188167574131
            ]
        }
    ]
}