{
    "goal": {
        "global_pose": {
            "orientation": {
                "w": 0.7031023502349854,
                "x": -0.7110244035720825,
                "y": 0.007748599164187908,
                "z": 0.005598929710686207
            },
            "position": {
                "x": 0.11585023208521307,
                "y": 0.44412534475326537,
                "z": 0.3711530566215515
            }
        },
        "name": "move_to_auspresseinheit_A"
    },
    "id": "BiEST_move_to_auspresseinheit_A_35",
    "joint_names": [
        "shoulder_pan_joint",
        "shoulder_lift_joint",
        "elbow_joint",
        "wrist_1_joint",
        "wrist_2_joint",
        "wrist_3_joint"
    ],
    "metrics": {
        "cart_traj_len": 2.4519442992478853,
        "distance_elbow_joint": 3.8460060621383136,
        "distance_shoulder_lift_joint": 1.3990665012395473,
        "distance_shoulder_pan_joint": 1.487891259135366,
        "distance_wrist_1_joint": 1.3738972220664014,
        "distance_wrist_2_joint": 1.4937243415955024,
        "distance_wrist_3_joint": 3.4183562586554515,
        "smoothness": 0.8317777967057567,
        "time": 0.139505918,
        "traj_len": 3.608177052866251,
        "weighted_distance": 4.76689371874425
    },
    "planner": "BiEST",
    "start": {
        "state": {
            "elbow_joint": 2.422574709923281,
            "shoulder_lift_joint": -1.3736533754116391,
            "shoulder_pan_joint": -0.33786336945926293,
            "wrist_1_joint": -1.0288603412921917,
            "wrist_2_joint": 1.2330224858903978,
            "wrist_3_joint": -3.094022268022082
        }
    },
    "waypoints": [
        {
            "positions": [
                -0.33786336945926293,
                -1.3736533754116391,
                2.422574709923281,
                -1.0288603412921917,
                1.2330224858903978,
                -3.094022268022082
            ]
        },
        {
            "positions": [
                -0.27965609861360946,
                -1.3594684553116572,
                2.309899217435161,
                -0.9777941393787638,
                1.1948042550646336,
                -2.9948053506965127
            ]
        },
        {
            "positions": [
                -0.221448827767956,
                -1.3452835352116752,
                2.197223724947041,
                -0.9267279374653359,
                1.1565860242388695,
                -2.8955884333709436
            ]
        },
        {
            "positions": [
                -0.16324155692230252,
                -1.331098615111693,
                2.0845482324589213,
                -0.8756617355519078,
                1.1183677934131053,
                -2.796371516045374
            ]
        },
        {
            "positions": [
                -0.10503428607664908,
                -1.316913695011711,
                1.9718727399708014,
                -0.8245955336384799,
                1.0801495625873412,
                -2.6971545987198047
            ]
        },
        {
            "positions": [
                -0.04682701523099558,
                -1.3027287749117291,
                1.8591972474826814,
                -0.773529331725052,
                1.0419313317615768,
                -2.5979376813942356
            ]
        },
        {
            "positions": [
                0.011380255614657886,
                -1.2885438548117472,
                1.7465217549945615,
                -0.7224631298116241,
                1.0037131009358127,
                -2.498720764068666
            ]
        },
        {
            "positions": [
                0.0695875264603113,
                -1.2743589347117652,
                1.6338462625064416,
                -0.6713969278981962,
                0.9654948701100485,
                -2.399503846743097
            ]
        },
        {
            "positions": [
                0.12779479730596477,
                -1.2601740146117832,
                1.5211707700183217,
                -0.6203307259847681,
                0.9272766392842844,
                -2.3002869294175277
            ]
        },
        {
            "positions": [
                0.1860020681516183,
                -1.245989094511801,
                1.4084952775302015,
                -0.5692645240713403,
                0.8890584084585202,
                -2.201070012091958
            ]
        },
        {
            "positions": [
                0.24420933899727176,
                -1.231804174411819,
                1.2958197850420816,
                -0.5181983221579123,
                0.8508401776327561,
                -2.1018530947663887
            ]
        },
        {
            "positions": [
                0.30241660984292523,
                -1.2176192543118372,
                1.1831442925539617,
                -0.46713212024448436,
                0.8126219468069918,
                -2.0026361774408197
            ]
        },
        {
            "positions": [
                0.3606238806885787,
                -1.2034343342118552,
                1.0704688000658418,
                -0.41606591833105644,
                0.7744037159812277,
                -1.9034192601152502
            ]
        },
        {
            "positions": [
                0.41883115153423206,
                -1.1892494141118732,
                0.9577933075777221,
                -0.3649997164176285,
                0.7361854851554636,
                -1.8042023427896812
            ]
        },
        {
            "positions": [
                0.47703842237988553,
                -1.1750644940118913,
                0.8451178150896022,
                -0.3139335145042006,
                0.6979672543296994,
                -1.7049854254641117
            ]
        },
        {
            "positions": [
                0.5352456932255389,
                -1.160879573911909,
                0.732442322601482,
                -0.2628673125907727,
                0.6597490235039353,
                -1.6057685081385424
            ]
        },
        {
            "positions": [
                0.5934529640711925,
                -1.1466946538119271,
                0.6197668301133621,
                -0.21180111067734464,
                0.621530792678171,
                -1.506551590812973
            ]
        },
        {
            "positions": [
                0.6516602349168459,
                -1.1325097337119452,
                0.5070913376252422,
                -0.16073490876391675,
                0.5833125618524069,
                -1.4073346734874037
            ]
        },
        {
            "positions": [
                0.6767142741932016,
                -1.2203613092602879,
                0.6394184397224913,
                -0.15156464792662624,
                0.5503885602053853,
                -1.5106354133167497
            ]
        },
        {
            "positions": [
                0.7017683134695574,
                -1.3082128848086305,
                0.7717455418197405,
                -0.14239438708933574,
                0.5174645585583636,
                -1.6139361531460956
            ]
        },
        {
            "positions": [
                0.726822352745913,
                -1.3960644603569732,
                0.9040726439169897,
                -0.13322412625204527,
                0.484540556911342,
                -1.7172368929754414
            ]
        },
        {
            "positions": [
                0.7518763920222687,
                -1.4839160359053158,
                1.036399746014239,
                -0.12405386541475476,
                0.4516165552643204,
                -1.8205376328047875
            ]
        },
        {
            "positions": [
                0.7769304312986245,
                -1.5717676114536583,
                1.168726848111488,
                -0.11488360457746427,
                0.41869255361729873,
                -1.9238383726341333
            ]
        },
        {
            "positions": [
                0.8019844705749802,
                -1.6596191870020012,
                1.301053950208737,
                -0.10571334374017377,
                0.38576855197027715,
                -2.0271391124634794
            ]
        },
        {
            "positions": [
                0.827038509851336,
                -1.7474707625503436,
                1.4333810523059864,
                -0.09654308290288327,
                0.3528445503232555,
                -2.130439852292825
            ]
        },
        {
            "positions": [
                0.8520925491276916,
                -1.8353223380986865,
                1.5657081544032356,
                -0.08737282206559277,
                0.3199205486762339,
                -2.2337405921221714
            ]
        },
        {
            "positions": [
                0.8771465884040475,
                -1.923173913647029,
                1.6980352565004848,
                -0.07820256122830227,
                0.28699654702921223,
                -2.337041331951517
            ]
        },
        {
            "positions": [
                0.9022006276804031,
                -2.0110254891953714,
                1.830362358597734,
                -0.06903230039101178,
                0.25407254538219065,
                -2.4403420717808633
            ]
        },
        {
            "positions": [
                0.9272546669567588,
                -2.0988770647437143,
                1.9626894606949832,
                -0.05986203955372128,
                0.221148543735169,
                -2.543642811610209
            ]
        },
        {
            "positions": [
                0.9062409602542841,
                -2.0896721669075564,
                2.038148345628275,
                -0.12685409820571875,
                0.2800576209092631,
                -2.6427783972241086
            ]
        },
        {
            "positions": [
                0.8852272535518094,
                -2.0804672690713986,
                2.1136072305615667,
                -0.19384615685771617,
                0.3389666980833572,
                -2.741913982838008
            ]
        },
        {
            "positions": [
                0.8642135468493348,
                -2.0712623712352407,
                2.1890661154948585,
                -0.26083821550971364,
                0.3978757752574514,
                -2.8410495684519077
            ]
        },
        {
            "positions": [
                0.8431998401468601,
                -2.0620574733990824,
                2.26452500042815,
                -0.32783027416171107,
                0.4567848524315455,
                -2.9401851540658077
            ]
        },
        {
            "positions": [
                0.8221861334443854,
                -2.0528525755629246,
                2.3399838853614416,
                -0.39482233281370854,
                0.5156939296056396,
                -3.0393207396797073
            ]
        },
        {
            "positions": [
                0.8011724267419107,
                -2.0436476777267667,
                2.4154427702947334,
                -0.46181439146570596,
                0.5746030067797337,
                -3.138456325293607
            ]
        },
        {
            "positions": [
                0.7044814442374153,
                -1.90732153623563,
                2.393271513123949,
                -0.4647609598816521,
                0.7029989431754431,
                -3.137909312979037
            ]
        }
    ]
}