{
    "goal": {
        "global_pose": {
            "orientation": {
                "w": 0.7031023502349854,
                "x": -0.7110244035720825,
                "y": 0.007748599164187908,
                "z": 0.005598929710686207
            },
            "position": {
                "x": 0.11585023208521307,
                "y": 0.44412534475326537,
                "z": 0.3711530566215515
            }
        },
        "name": "move_to_auspresseinheit_A"
    },
    "id": "BiEST_move_to_auspresseinheit_A_20",
    "joint_names": [
        "shoulder_pan_joint",
        "shoulder_lift_joint",
        "elbow_joint",
        "wrist_1_joint",
        "wrist_2_joint",
        "wrist_3_joint"
    ],
    "metrics": {
        "cart_traj_len": 1.9534997710144721,
        "distance_elbow_joint": 0.8912379496578238,
        "distance_shoulder_lift_joint": 1.942952268470323,
        "distance_shoulder_pan_joint": 4.5555986410778795,
        "distance_wrist_1_joint": 4.331800732354165,
        "distance_wrist_2_joint": 4.667718062602864,
        "distance_wrist_3_joint": 8.053523032692524,
        "smoothness": 0.5492140475232831,
        "time": 0.120280616,
        "traj_len": 4.943969122765187,
        "weighted_distance": 7.03913315310896
    },
    "planner": "BiEST",
    "start": {
        "state": {
            "elbow_joint": 2.422574709923281,
            "shoulder_lift_joint": -1.3736533754116391,
            "shoulder_pan_joint": -0.33786336945926293,
            "wrist_1_joint": -1.0288603412921917,
            "wrist_2_joint": 1.2330224858903978,
            "wrist_3_joint": -3.094022268022082
        }
    },
    "waypoints": [
        {
            "positions": [
                -0.33786336945926293,
                -1.3736533754116391,
                2.422574709923281,
                -1.0288603412921917,
                1.2330224858903978,
                -3.094022268022082
            ]
        },
        {
            "positions": [
                -0.3984237661735486,
                -1.4164187526207077,
                2.4374594311711952,
                -1.093921340942838,
                1.304411774906934,
                -2.95567589322985
            ]
        },
        {
            "positions": [
                -0.4589841628878342,
                -1.459184129829776,
                2.4523441524191094,
                -1.1589823405934845,
                1.3758010639234703,
                -2.8173295184376177
            ]
        },
        {
            "positions": [
                -0.5195445596021199,
                -1.5019495070388447,
                2.4672288736670236,
                -1.2240433402441309,
                1.4471903529400065,
                -2.6789831436453855
            ]
        },
        {
            "positions": [
                -0.5801049563164056,
                -1.5447148842479133,
                2.4821135949149378,
                -1.2891043398947772,
                1.518579641956543,
                -2.5406367688531533
            ]
        },
        {
            "positions": [
                -0.6406653530306912,
                -1.5874802614569816,
                2.496998316162852,
                -1.3541653395454234,
                1.5899689309730791,
                -2.402290394060921
            ]
        },
        {
            "positions": [
                -0.7012257497449768,
                -1.6302456386660502,
                2.5118830374107657,
                -1.4192263391960698,
                1.6613582199896153,
                -2.263944019268689
            ]
        },
        {
            "positions": [
                -0.7617861464592625,
                -1.6730110158751188,
                2.52676775865868,
                -1.4842873388467162,
                1.7327475090061517,
                -2.1255976444764566
            ]
        },
        {
            "positions": [
                -0.8223465431735482,
                -1.7157763930841872,
                2.541652479906594,
                -1.5493483384973625,
                1.804136798022688,
                -1.9872512696842244
            ]
        },
        {
            "positions": [
                -0.8829069398878338,
                -1.7585417702932558,
                2.556537201154508,
                -1.614409338148009,
                1.875526087039224,
                -1.8489048948919922
            ]
        },
        {
            "positions": [
                -0.9434673366021193,
                -1.8013071475023243,
                2.5714219224024224,
                -1.6794703377986553,
                1.9469153760557605,
                -1.71055852009976
            ]
        },
        {
            "positions": [
                -1.004027733316405,
                -1.8440725247113927,
                2.5863066436503366,
                -1.7445313374493017,
                2.0183046650722964,
                -1.5722121453075277
            ]
        },
        {
            "positions": [
                -1.0645881300306907,
                -1.8868379019204613,
                2.6011913648982508,
                -1.8095923370999478,
                2.089693954088833,
                -1.4338657705152955
            ]
        },
        {
            "positions": [
                -1.1251485267449763,
                -1.92960327912953,
                2.616076086146165,
                -1.8746533367505944,
                2.1610832431053693,
                -1.2955193957230633
            ]
        },
        {
            "positions": [
                -1.185708923459262,
                -1.9723686563385985,
                2.630960807394079,
                -1.9397143364012406,
                2.2324725321219057,
                -1.157173020930831
            ]
        },
        {
            "positions": [
                -1.2462693201735477,
                -2.0151340335476666,
                2.645845528641993,
                -2.004775336051887,
                2.303861821138442,
                -1.0188266461385989
            ]
        },
        {
            "positions": [
                -1.3068297168878333,
                -2.057899410756735,
                2.660730249889907,
                -2.0698363357025333,
                2.375251110154978,
                -0.8804802713463666
            ]
        },
        {
            "positions": [
                -1.367390113602119,
                -2.100664787965804,
                2.675614971137821,
                -2.1348973353531795,
                2.446640399171514,
                -0.7421338965541344
            ]
        },
        {
            "positions": [
                -1.4279505103164045,
                -2.1434301651748724,
                2.6904996923857354,
                -2.199958335003826,
                2.518029688188051,
                -0.6037875217619022
            ]
        },
        {
            "positions": [
                -1.4885109070306901,
                -2.186195542383941,
                2.7053844136336496,
                -2.2650193346544727,
                2.589418977204587,
                -0.46544114696967
            ]
        },
        {
            "positions": [
                -1.549071303744976,
                -2.2289609195930096,
                2.7202691348815637,
                -2.330080334305119,
                2.660808266221123,
                -0.32709477217743776
            ]
        },
        {
            "positions": [
                -1.6096317004592615,
                -2.271726296802078,
                2.735153856129478,
                -2.395141333955765,
                2.7321975552376596,
                -0.18874839738520555
            ]
        },
        {
            "positions": [
                -1.670192097173547,
                -2.3144916740111463,
                2.750038577377392,
                -2.4602023336064116,
                2.8035868442541956,
                -0.05040202259297333
            ]
        },
        {
            "positions": [
                -1.730752493887833,
                -2.357257051220215,
                2.7649232986253063,
                -2.525263333257058,
                2.874976133270732,
                0.08794435219925889
            ]
        },
        {
            "positions": [
                -1.7913128906021185,
                -2.4000224284292835,
                2.7798080198732205,
                -2.590324332907704,
                2.9463654222872684,
                0.2262907269914911
            ]
        },
        {
            "positions": [
                -1.851873287316404,
                -2.4427878056383516,
                2.794692741121134,
                -2.6553853325583505,
                3.0177547113038043,
                0.3646371017837233
            ]
        },
        {
            "positions": [
                -1.9124336840306897,
                -2.48555318284742,
                2.8095774623690484,
                -2.720446332208997,
                3.0891440003203408,
                0.5029834765759555
            ]
        },
        {
            "positions": [
                -1.9729940807449753,
                -2.528318560056489,
                2.8244621836169626,
                -2.7855073318596433,
                3.160533289336877,
                0.6413298513681878
            ]
        },
        {
            "positions": [
                -2.033554477459261,
                -2.5710839372655574,
                2.8393469048648767,
                -2.8505683315102894,
                3.231922578353413,
                0.77967622616042
            ]
        },
        {
            "positions": [
                -2.0941148741735467,
                -2.613849314474626,
                2.854231626112791,
                -2.915629331160936,
                3.3033118673699495,
                0.9180226009526522
            ]
        },
        {
            "positions": [
                -2.0092861730716196,
                -2.592553668128949,
                2.840304928128903,
                -2.8415374601765295,
                3.22460190733591,
                0.7955535656884767
            ]
        },
        {
            "positions": [
                -1.9244574719696923,
                -2.5712580217832723,
                2.826378230145014,
                -2.7674455891921226,
                3.14589194730187,
                0.6730845304243012
            ]
        },
        {
            "positions": [
                -1.8396287708677652,
                -2.5499623754375955,
                2.812451532161126,
                -2.693353718207716,
                3.0671819872678303,
                0.5506154951601256
            ]
        },
        {
            "positions": [
                -1.7548000697658381,
                -2.5286667290919187,
                2.7985248341772375,
                -2.619261847223309,
                2.98847202723379,
                0.42814645989595
            ]
        },
        {
            "positions": [
                -1.6699713686639108,
                -2.507371082746242,
                2.7845981361933494,
                -2.5451699762389026,
                2.9097620671997504,
                0.3056774246317745
            ]
        },
        {
            "positions": [
                -1.5851426675619837,
                -2.486075436400565,
                2.7706714382094613,
                -2.4710781052544957,
                2.8310521071657107,
                0.18320838936759898
            ]
        },
        {
            "positions": [
                -1.5003139664600567,
                -2.464779790054888,
                2.7567447402255727,
                -2.396986234270089,
                2.752342147131671,
                0.06073935410342346
            ]
        },
        {
            "positions": [
                -1.4154852653581296,
                -2.443484143709211,
                2.7428180422416846,
                -2.322894363285682,
                2.673632187097631,
                -0.06172968116075217
            ]
        },
        {
            "positions": [
                -1.3306565642562025,
                -2.422188497363534,
                2.7288913442577964,
                -2.2488024923012757,
                2.5949222270635914,
                -0.18419871642492747
            ]
        },
        {
            "positions": [
                -1.2458278631542752,
                -2.4008928510178573,
                2.714964646273908,
                -2.174710621316869,
                2.5162122670295517,
                -0.3066677516891032
            ]
        },
        {
            "positions": [
                -1.160999162052348,
                -2.3795972046721805,
                2.7010379482900198,
                -2.1006187503324623,
                2.437502306995512,
                -0.4291367869532787
            ]
        },
        {
            "positions": [
                -1.0761704609504208,
                -2.3583015583265037,
                2.687111250306131,
                -2.0265268793480553,
                2.358792346961472,
                -0.5516058222174542
            ]
        },
        {
            "positions": [
                -0.9913417598484937,
                -2.337005911980827,
                2.673184552322243,
                -1.9524350083636488,
                2.2800823869274325,
                -0.6740748574816298
            ]
        },
        {
            "positions": [
                -0.9065130587465666,
                -2.31571026563515,
                2.659257854338355,
                -1.878343137379242,
                2.2013724268933923,
                -0.7965438927458053
            ]
        },
        {
            "positions": [
                -0.8216843576446395,
                -2.294414619289473,
                2.6453311563544664,
                -1.8042512663948356,
                2.122662466859353,
                -0.9190129280099808
            ]
        },
        {
            "positions": [
                -0.7368556565427122,
                -2.2731189729437964,
                2.6314044583705782,
                -1.7301593954104286,
                2.043952506825313,
                -1.0414819632741565
            ]
        },
        {
            "positions": [
                -0.6520269554407851,
                -2.2518233265981196,
                2.6174777603866897,
                -1.6560675244260221,
                1.965242546791273,
                -1.1639509985383318
            ]
        },
        {
            "positions": [
                -0.5671982543388581,
                -2.2305276802524427,
                2.6035510624028015,
                -1.5819756534416154,
                1.8865325867572333,
                -1.2864200338025071
            ]
        },
        {
            "positions": [
                -0.48236955323693076,
                -2.2092320339067655,
                2.5896243644189134,
                -1.5078837824572084,
                1.8078226267231934,
                -1.4088890690666833
            ]
        },
        {
            "positions": [
                -0.3975408521350037,
                -2.1879363875610887,
                2.575697666435025,
                -1.433791911472802,
                1.7291126666891536,
                -1.5313581043308586
            ]
        },
        {
            "positions": [
                -0.3127121510330766,
                -2.166640741215412,
                2.5617709684511367,
                -1.3597000404883952,
                1.650402706655114,
                -1.653827139595034
            ]
        },
        {
            "positions": [
                -0.2278834499311495,
                -2.145345094869735,
                2.547844270467248,
                -1.2856081695039885,
                1.5716927466210742,
                -1.7762961748592097
            ]
        },
        {
            "positions": [
                -0.14305474882922198,
                -2.124049448524058,
                2.53391757248336,
                -1.2115162985195818,
                1.4929827865870342,
                -1.8987652101233854
            ]
        },
        {
            "positions": [
                -0.058226047727294894,
                -2.1027538021783814,
                2.519990874499472,
                -1.137424427535175,
                1.4142728265529945,
                -2.0212342453875607
            ]
        },
        {
            "positions": [
                0.02660265337463219,
                -2.0814581558327045,
                2.5060641765155833,
                -1.0633325565507683,
                1.3355628665189547,
                -2.1437032806517364
            ]
        },
        {
            "positions": [
                0.11143135447655927,
                -2.0601625094870277,
                2.492137478531695,
                -0.9892406855663618,
                1.256852906484915,
                -2.2661723159159117
            ]
        },
        {
            "positions": [
                0.19626005557848636,
                -2.038866863141351,
                2.4782107805478066,
                -0.9151488145819546,
                1.1781429464508748,
                -2.3886413511800875
            ]
        },
        {
            "positions": [
                0.28108875668041344,
                -2.017571216795674,
                2.4642840825639185,
                -0.8410569435975481,
                1.099432986416835,
                -2.5111103864442628
            ]
        },
        {
            "positions": [
                0.3659174577823405,
                -1.9962755704499973,
                2.4503573845800304,
                -0.7669650726131416,
                1.0207230263827958,
                -2.6335794217084385
            ]
        },
        {
            "positions": [
                0.4507461588842676,
                -1.9749799241043204,
                2.436430686596142,
                -0.6928732016287351,
                0.942013066348756,
                -2.756048456972614
            ]
        },
        {
            "positions": [
                0.5355748599861951,
                -1.9536842777586434,
                2.4225039886122537,
                -0.6187813306443282,
                0.8633031063147159,
                -2.8785174922367895
            ]
        },
        {
            "positions": [
                0.6204035610881222,
                -1.9323886314129666,
                2.408577290628365,
                -0.5446894596599212,
                0.7845931462806761,
                -3.0009865275009653
            ]
        },
        {
            "positions": [
                0.7052322621900495,
                -1.9110929850672898,
                2.394650592644477,
                -0.4705975886755148,
                0.7058831862466365,
                -3.123455562765141
            ]
        }
    ]
}