{
    "goal": {
        "global_pose": {
            "orientation": {
                "w": 0.7047431468963623,
                "x": -0.7094548344612122,
                "y": 0.0024358443915843964,
                "z": -0.0022348060738295317
            },
            "position": {
                "x": 0.6094750761985779,
                "y": 0.3671506643295288,
                "z": 0.19426114857196808
            }
        },
        "name": "move_to_magneteinheit_A"
    },
    "id": "BiEST_move_to_magneteinheit_A_113",
    "joint_names": [
        "shoulder_pan_joint",
        "shoulder_lift_joint",
        "elbow_joint",
        "wrist_1_joint",
        "wrist_2_joint",
        "wrist_3_joint"
    ],
    "metrics": {
        "cart_traj_len": 2.0663568529102387,
        "distance_elbow_joint": 3.8876788291263784,
        "distance_shoulder_lift_joint": 1.0614181266471954,
        "distance_shoulder_pan_joint": 1.241863912468929,
        "distance_wrist_1_joint": 1.1854010630299685,
        "distance_wrist_2_joint": 1.4372491395331557,
        "distance_wrist_3_joint": 1.954712490710238,
        "smoothness": 1.5313421064182686e-16,
        "time": 0.04763184399999999,
        "traj_len": 3.2815123893588862,
        "weighted_distance": 4.159374802238849
    },
    "planner": "BiEST",
    "start": {
        "state": {
            "elbow_joint": -1.919643507792019,
            "shoulder_lift_joint": -0.07675430207160344,
            "shoulder_pan_joint": -1.1188671864651873,
            "wrist_1_joint": 0.42560062535961957,
            "wrist_2_joint": 1.5706038300724876,
            "wrist_3_joint": 1.1188968870953055
        }
    },
    "waypoints": [
        {
            "positions": [
                -1.1188671864651873,
                -0.07675430207160344,
                -1.919643507792019,
                0.42560062535961957,
                1.5706038300724876,
                1.1188968870953055
            ]
        },
        {
            "positions": [
                -1.0745149038770112,
                -0.11466209230900327,
                -1.78079783532322,
                0.3832648731085493,
                1.519273503660589,
                1.188708047477814
            ]
        },
        {
            "positions": [
                -1.0301626212888353,
                -0.1525698825464031,
                -1.6419521628544207,
                0.34092912085747895,
                1.4679431772486908,
                1.2585192078603225
            ]
        },
        {
            "positions": [
                -0.9858103387006593,
                -0.19047767278380295,
                -1.5031064903856215,
                0.2985933686064087,
                1.4166128508367923,
                1.3283303682428311
            ]
        },
        {
            "positions": [
                -0.9414580561124832,
                -0.22838546302120277,
                -1.364260817916822,
                0.2562576163553384,
                1.3652825244248938,
                1.3981415286253396
            ]
        },
        {
            "positions": [
                -0.8971057735243071,
                -0.26629325325860265,
                -1.2254151454480229,
                0.21392186410426808,
                1.3139521980129956,
                1.467952689007848
            ]
        },
        {
            "positions": [
                -0.8527534909361312,
                -0.3042010434960024,
                -1.0865694729792237,
                0.17158611185319783,
                1.262621871601097,
                1.5377638493903565
            ]
        },
        {
            "positions": [
                -0.808401208347955,
                -0.3421088337334023,
                -0.9477238005104245,
                0.1292503596021275,
                1.2112915451891988,
                1.607575009772865
            ]
        },
        {
            "positions": [
                -0.7640489257597791,
                -0.3800166239708021,
                -0.8088781280416253,
                0.08691460735105722,
                1.1599612187773003,
                1.6773861701553736
            ]
        },
        {
            "positions": [
                -0.719696643171603,
                -0.417924414208202,
                -0.6700324555728259,
                0.04457885509998688,
                1.1086308923654018,
                1.747197330537882
            ]
        },
        {
            "positions": [
                -0.675344360583427,
                -0.4558322044456018,
                -0.5311867831040267,
                0.0022431028489166005,
                1.0573005659535033,
                1.8170084909203905
            ]
        },
        {
            "positions": [
                -0.6309920779952509,
                -0.4937399946830016,
                -0.3923411106352277,
                -0.04009264940215368,
                1.005970239541605,
                1.8868196513028992
            ]
        },
        {
            "positions": [
                -0.5866397954070749,
                -0.5316477849204014,
                -0.2534954381664285,
                -0.0824284016532239,
                0.9546399131297066,
                1.9566308116854074
            ]
        },
        {
            "positions": [
                -0.5422875128188989,
                -0.5695555751578013,
                -0.11464976569762908,
                -0.12476415390429435,
                0.9033095867178081,
                2.026441972067916
            ]
        },
        {
            "positions": [
                -0.49793523023072284,
                -0.6074633653952011,
                0.024195906771170117,
                -0.16709990615536457,
                0.8519792603059098,
                2.0962531324504248
            ]
        },
        {
            "positions": [
                -0.4535829476425468,
                -0.645371155632601,
                0.16304157923996931,
                -0.2094356584064348,
                0.8006489338940114,
                2.166064292832933
            ]
        },
        {
            "positions": [
                -0.4092306650543708,
                -0.6832789458700008,
                0.3018872517087685,
                -0.25177141065750513,
                0.749318607482113,
                2.2358754532154412
            ]
        },
        {
            "positions": [
                -0.36487838246619475,
                -0.7211867361074005,
                0.4407329241775677,
                -0.29410716290857536,
                0.6979882810702146,
                2.30568661359795
            ]
        },
        {
            "positions": [
                -0.3205260998780186,
                -0.7590945263448006,
                0.5795785966463673,
                -0.3364429151596458,
                0.646657954658316,
                2.3754977739804586
            ]
        },
        {
            "positions": [
                -0.2761738172898426,
                -0.7970023165822004,
                0.7184242691151665,
                -0.37877866741071614,
                0.5953276282464176,
                2.4453089343629673
            ]
        },
        {
            "positions": [
                -0.23182153470166655,
                -0.8349101068196001,
                0.8572699415839657,
                -0.42111441966178637,
                0.5439973018345192,
                2.5151200947454755
            ]
        },
        {
            "positions": [
                -0.18746925211349064,
                -0.872817897057,
                0.9961156140527645,
                -0.4634501719128566,
                0.49266697542262095,
                2.584931255127984
            ]
        },
        {
            "positions": [
                -0.1431169695253146,
                -0.9107256872943998,
                1.1349612865215637,
                -0.5057859241639269,
                0.44133664901072245,
                2.6547424155104924
            ]
        },
        {
            "positions": [
                -0.09876468693713858,
                -0.9486334775317995,
                1.273806958990363,
                -0.5481216764149972,
                0.39000632259882395,
                2.724553575893001
            ]
        },
        {
            "positions": [
                -0.05441240434896244,
                -0.9865412677691994,
                1.412652631459162,
                -0.5904574286660673,
                0.3386759961869257,
                2.7943647362755097
            ]
        },
        {
            "positions": [
                -0.0100601217607863,
                -1.0244490580065995,
                1.5514983039279617,
                -0.6327931809171379,
                0.2873456697750272,
                2.8641758966580184
            ]
        },
        {
            "positions": [
                0.03429216082738962,
                -1.0623568482439991,
                1.690343976396761,
                -0.6751289331682082,
                0.23601534336312868,
                2.9339870570405266
            ]
        },
        {
            "positions": [
                0.07864444341556576,
                -1.100264638481399,
                1.8291896488655601,
                -0.7174646854192783,
                0.1846850169512304,
                3.003798217423035
            ]
        },
        {
            "positions": [
                0.12299672600374169,
                -1.1381724287187989,
                1.9680353213343593,
                -0.7598004376703488,
                0.13335469053933197,
                3.0736093778055436
            ]
        }
    ]
}