{
    "goal": {
        "global_pose": {
            "orientation": {
                "w": 0.5084816217422485,
                "x": -0.49083608388900757,
                "y": 0.5182115435600281,
                "z": -0.4816462993621826
            },
            "position": {
                "x": 0.5540239810943604,
                "y": 0.030875300988554955,
                "z": 0.16403168439865112
            }
        },
        "name": "move_to_storage_A"
    },
    "id": "BiEST_move_to_storage_A_146",
    "joint_names": [
        "shoulder_pan_joint",
        "shoulder_lift_joint",
        "elbow_joint",
        "wrist_1_joint",
        "wrist_2_joint",
        "wrist_3_joint"
    ],
    "metrics": {
        "cart_traj_len": 0.35224528736316,
        "distance_elbow_joint": 0.4531836426534599,
        "distance_shoulder_lift_joint": 0.23386239668244668,
        "distance_shoulder_pan_joint": 0.45832626193794385,
        "distance_wrist_1_joint": 0.26035157943694165,
        "distance_wrist_2_joint": 1.106870892080124,
        "distance_wrist_3_joint": 0.11058693992446278,
        "smoothness": 6.661338165333112e-16,
        "time": 0.04761143,
        "traj_len": 1.6196239417578944,
        "weighted_distance": 2.052212967525878
    },
    "planner": "BiEST",
    "start": {
        "state": {
            "elbow_joint": 1.9715463870305268,
            "shoulder_lift_joint": -1.1394903361783484,
            "shoulder_pan_joint": 0.12281147578464417,
            "wrist_1_joint": -0.7804599489681411,
            "wrist_2_joint": 0.12958660307563738,
            "wrist_3_joint": -3.1924946282119055
        }
    },
    "waypoints": [
        {
            "positions": [
                0.12281147578464417,
                -1.1394903361783484,
                1.9715463870305268,
                -0.7804599489681411,
                0.12958660307563738,
                -3.1924946282119055
            ]
        },
        {
            "positions": [
                0.05733629550779505,
                -1.1728992499901265,
                2.0362869074095924,
                -0.817653031744847,
                0.2877110162299408,
                -3.176696493936982
            ]
        },
        {
            "positions": [
                -0.00813888476905407,
                -1.2063081638019046,
                2.101027427788658,
                -0.854846114521553,
                0.44583542938424425,
                -3.1608983596620592
            ]
        },
        {
            "positions": [
                -0.07361406504590319,
                -1.2397170776136828,
                2.1657679481677237,
                -0.8920391972982589,
                0.6039598425385476,
                -3.145100225387136
            ]
        },
        {
            "positions": [
                -0.1390892453227523,
                -1.2731259914254607,
                2.2305084685467893,
                -0.9292322800749648,
                0.7620842556928511,
                -3.1293020911122125
            ]
        },
        {
            "positions": [
                -0.20456442559960142,
                -1.3065349052372388,
                2.2952489889258554,
                -0.9664253628516708,
                0.9202086688471546,
                -3.113503956837289
            ]
        },
        {
            "positions": [
                -0.27003960587645054,
                -1.339943819049017,
                2.359989509304921,
                -1.0036184456283768,
                1.0783330820014578,
                -3.097705822562366
            ]
        },
        {
            "positions": [
                -0.33551478615329966,
                -1.373352732860795,
                2.4247300296839867,
                -1.0408115284050827,
                1.2364574951557614,
                -3.0819076882874428
            ]
        }
    ]
}