{
    "goal": {
        "global_pose": {
            "orientation": {
                "w": 0.5084816217422485,
                "x": -0.49083608388900757,
                "y": 0.5182115435600281,
                "z": -0.4816462993621826
            },
            "position": {
                "x": 0.5540239810943604,
                "y": 0.030875300988554955,
                "z": 0.16403168439865112
            }
        },
        "name": "move_to_storage_A"
    },
    "id": "BiEST_move_to_storage_A_58",
    "joint_names": [
        "shoulder_pan_joint",
        "shoulder_lift_joint",
        "elbow_joint",
        "wrist_1_joint",
        "wrist_2_joint",
        "wrist_3_joint"
    ],
    "metrics": {
        "cart_traj_len": 0.3531521807532271,
        "distance_elbow_joint": 0.44865153479030795,
        "distance_shoulder_lift_joint": 0.23464257143123435,
        "distance_shoulder_pan_joint": 0.461678340450846,
        "distance_wrist_1_joint": 0.23558657935631955,
        "distance_wrist_2_joint": 1.0995897567806237,
        "distance_wrist_3_joint": 0.09591934608205976,
        "smoothness": 8.881784197001252e-16,
        "time": 0.050582889,
        "traj_len": 1.6050134357354742,
        "weighted_distance": 2.02560686145966
    },
    "planner": "BiEST",
    "start": {
        "state": {
            "elbow_joint": 1.9715463870305268,
            "shoulder_lift_joint": -1.1394903361783484,
            "shoulder_pan_joint": 0.12281147578464417,
            "wrist_1_joint": -0.7804599489681411,
            "wrist_2_joint": 0.12958660307563738,
            "wrist_3_joint": -3.1924946282119055
        }
    },
    "waypoints": [
        {
            "positions": [
                0.12281147578464417,
                -1.1394903361783484,
                1.9715463870305268,
                -0.7804599489681411,
                0.12958660307563738,
                -3.1924946282119055
            ]
        },
        {
            "positions": [
                0.05685742714880904,
                -1.1730107035256676,
                2.0356394634291424,
                -0.8141151745904724,
                0.28667085404429793,
                -3.178791864485897
            ]
        },
        {
            "positions": [
                -0.0090966214870261,
                -1.2065310708729868,
                2.0997325398277575,
                -0.8477704002128038,
                0.44375510501295845,
                -3.1650891007598885
            ]
        },
        {
            "positions": [
                -0.07505067012286125,
                -1.240051438220306,
                2.163825616226373,
                -0.8814256258351352,
                0.600839355981619,
                -3.15138633703388
            ]
        },
        {
            "positions": [
                -0.14100471875869636,
                -1.273571805567625,
                2.2279186926249883,
                -0.9150808514574665,
                0.7579236069502795,
                -3.1376835733078714
            ]
        },
        {
            "positions": [
                -0.2069587673945315,
                -1.3070921729149443,
                2.292011769023604,
                -0.9487360770797979,
                0.91500785791894,
                -3.123980809581863
            ]
        },
        {
            "positions": [
                -0.27291281603036666,
                -1.3406125402622635,
                2.356104845422219,
                -0.9823913027021293,
                1.0720921088876005,
                -3.1102780458558543
            ]
        },
        {
            "positions": [
                -0.3388668646662018,
                -1.3741329076095827,
                2.4201979218208347,
                -1.0160465283244606,
                1.229176359856261,
                -3.096575282129846
            ]
        }
    ]
}