{
    "goal": {
        "global_pose": {
            "orientation": {
                "w": 0.7047431468963623,
                "x": -0.7094548344612122,
                "y": 0.0024358443915843964,
                "z": -0.0022348060738295317
            },
            "position": {
                "x": 0.6094750761985779,
                "y": 0.3671506643295288,
                "z": 0.19426114857196808
            }
        },
        "name": "move_to_magneteinheit_A"
    },
    "id": "BiEST_move_to_magneteinheit_A_130",
    "joint_names": [
        "shoulder_pan_joint",
        "shoulder_lift_joint",
        "elbow_joint",
        "wrist_1_joint",
        "wrist_2_joint",
        "wrist_3_joint"
    ],
    "metrics": {
        "cart_traj_len": 1.867925862319758,
        "distance_elbow_joint": 3.937834724186871,
        "distance_shoulder_lift_joint": 0.712361905235826,
        "distance_shoulder_pan_joint": 1.2416086338759003,
        "distance_wrist_1_joint": 1.5850679817545033,
        "distance_wrist_2_joint": 1.6936083230330072,
        "distance_wrist_3_joint": 1.206979434244625,
        "smoothness": 2.2204460578853453e-16,
        "time": 0.083847371,
        "traj_len": 3.2214066806801545,
        "weighted_distance": 4.0087524462864375
    },
    "planner": "BiEST",
    "start": {
        "state": {
            "elbow_joint": -1.919643507792019,
            "shoulder_lift_joint": -0.07675430207160344,
            "shoulder_pan_joint": -1.1188671864651873,
            "wrist_1_joint": 0.42560062535961957,
            "wrist_2_joint": 1.5706038300724876,
            "wrist_3_joint": 1.1188968870953055
        }
    },
    "waypoints": [
        {
            "positions": [
                -1.1188671864651873,
                -0.07675430207160344,
                -1.919643507792019,
                0.42560062535961957,
                1.5706038300724876,
                1.1188968870953055
            ]
        },
        {
            "positions": [
                -1.0728816815068207,
                -0.103138076339597,
                -1.7737977772665794,
                0.48430684690608267,
                1.50787759588608,
                1.0741939450862454
            ]
        },
        {
            "positions": [
                -1.0268961765484539,
                -0.12952185060759056,
                -1.6279520467411397,
                0.5430130684525457,
                1.4451513616996723,
                1.029491003077185
            ]
        },
        {
            "positions": [
                -0.9809106715900873,
                -0.15590562487558413,
                -1.4821063162157002,
                0.6017192899990088,
                1.3824251275132646,
                0.984788061068125
            ]
        },
        {
            "positions": [
                -0.9349251666317206,
                -0.18228939914357767,
                -1.3362605856902605,
                0.6604255115454719,
                1.319698893326857,
                0.9400851190590649
            ]
        },
        {
            "positions": [
                -0.888939661673354,
                -0.20867317341157124,
                -1.1904148551648208,
                0.7191317330919349,
                1.2569726591404493,
                0.8953821770500047
            ]
        },
        {
            "positions": [
                -0.8429541567149873,
                -0.23505694767956478,
                -1.0445691246393811,
                0.777837954638398,
                1.1942464249540417,
                0.8506792350409444
            ]
        },
        {
            "positions": [
                -0.7969686517566206,
                -0.26144072194755835,
                -0.8987233941139414,
                0.8365441761848611,
                1.1315201907676338,
                0.8059762930318843
            ]
        },
        {
            "positions": [
                -0.750983146798254,
                -0.2878244962155519,
                -0.7528776635885017,
                0.8952503977313242,
                1.0687939565812261,
                0.7612733510228241
            ]
        },
        {
            "positions": [
                -0.7049976418398873,
                -0.3142082704835455,
                -0.6070319330630622,
                0.9539566192777873,
                1.0060677223948185,
                0.7165704090137639
            ]
        },
        {
            "positions": [
                -0.6590121368815206,
                -0.34059204475153904,
                -0.46118620253762255,
                1.0126628408242504,
                0.9433414882084109,
                0.6718674670047038
            ]
        },
        {
            "positions": [
                -0.613026631923154,
                -0.3669758190195326,
                -0.31534047201218285,
                1.0713690623707135,
                0.8806152540220032,
                0.6271645249956436
            ]
        },
        {
            "positions": [
                -0.5670411269647873,
                -0.3933595932875261,
                -0.16949474148674315,
                1.1300752839171766,
                0.8178890198355956,
                0.5824615829865833
            ]
        },
        {
            "positions": [
                -0.5210556220064206,
                -0.4197433675555197,
                -0.02364901096130345,
                1.1887815054636397,
                0.7551627856491878,
                0.5377586409775232
            ]
        },
        {
            "positions": [
                -0.4750701170480539,
                -0.44612714182351326,
                0.12219671956413625,
                1.2474877270101028,
                0.6924365514627802,
                0.493055698968463
            ]
        },
        {
            "positions": [
                -0.4290846120896872,
                -0.47251091609150686,
                0.26804245008957595,
                1.306193948556566,
                0.6297103172763724,
                0.4483527569594028
            ]
        },
        {
            "positions": [
                -0.38309910713132056,
                -0.49889469035950035,
                0.41388818061501564,
                1.3649001701030288,
                0.5669840830899648,
                0.4036498149503427
            ]
        },
        {
            "positions": [
                -0.33711360217295383,
                -0.525278464627494,
                0.5597339111404553,
                1.423606391649492,
                0.5042578489035572,
                0.35894687294128236
            ]
        },
        {
            "positions": [
                -0.2911280972145872,
                -0.5516622388954875,
                0.7055796416658946,
                1.482312613195955,
                0.4415316147171495,
                0.31424393093222225
            ]
        },
        {
            "positions": [
                -0.24514259225622048,
                -0.578046013163481,
                0.8514253721913347,
                1.5410188347424183,
                0.37880538053074164,
                0.26954098892316203
            ]
        },
        {
            "positions": [
                -0.19915708729785386,
                -0.6044297874314746,
                0.997271102716774,
                1.5997250562888812,
                0.3160791463443342,
                0.22483804691410192
            ]
        },
        {
            "positions": [
                -0.15317158233948713,
                -0.6308135616994681,
                1.1431168332422141,
                1.6584312778353445,
                0.2533529121579263,
                0.1801351049050417
            ]
        },
        {
            "positions": [
                -0.10718607738112063,
                -0.6571973359674617,
                1.2889625637676534,
                1.7171374993818074,
                0.1906266779715189,
                0.1354321628959816
            ]
        },
        {
            "positions": [
                -0.061200572422753785,
                -0.6835811102354552,
                1.434808294293093,
                1.7758437209282705,
                0.127900443785111,
                0.09072922088692126
            ]
        },
        {
            "positions": [
                -0.015215067464387166,
                -0.7099648845034487,
                1.5806540248185328,
                1.8345499424747336,
                0.06517420959870357,
                0.04602627887786115
            ]
        },
        {
            "positions": [
                0.030770437493979674,
                -0.7363486587714425,
                1.7264997553439725,
                1.8932561640211967,
                0.0024479754122956887,
                0.0013233368688010394
            ]
        },
        {
            "positions": [
                0.07675594245234607,
                -0.762732433039436,
                1.8723454858694122,
                1.9519623855676598,
                -0.06027825877411197,
                -0.04337960514025907
            ]
        },
        {
            "positions": [
                0.12274144741071298,
                -0.7891162073074295,
                2.0181912163948517,
                2.010668607114123,
                -0.12300449296051971,
                -0.08808254714931936
            ]
        }
    ]
}