{
    "goal": {
        "global_pose": {
            "orientation": {
                "w": 0.7031023502349854,
                "x": -0.7110244035720825,
                "y": 0.007748599164187908,
                "z": 0.005598929710686207
            },
            "position": {
                "x": 0.11585023208521307,
                "y": 0.44412534475326537,
                "z": 0.3711530566215515
            }
        },
        "name": "move_to_auspresseinheit_A"
    },
    "id": "BiEST_move_to_auspresseinheit_A_142",
    "joint_names": [
        "shoulder_pan_joint",
        "shoulder_lift_joint",
        "elbow_joint",
        "wrist_1_joint",
        "wrist_2_joint",
        "wrist_3_joint"
    ],
    "metrics": {
        "cart_traj_len": 0.719116167931948,
        "distance_elbow_joint": 0.030704447357786435,
        "distance_shoulder_lift_joint": 0.5340512726803799,
        "distance_shoulder_pan_joint": 1.0811143362779512,
        "distance_wrist_1_joint": 0.5695768338987719,
        "distance_wrist_2_joint": 0.5370312578974822,
        "distance_wrist_3_joint": 0.24209541066294005,
        "smoothness": 0.47335403852797214,
        "time": 0.097939755,
        "traj_len": 1.730483619909565,
        "weighted_distance": 2.1413482836515514
    },
    "planner": "BiEST",
    "start": {
        "state": {
            "elbow_joint": 2.422574709923281,
            "shoulder_lift_joint": -1.3736533754116391,
            "shoulder_pan_joint": -0.33786336945926293,
            "wrist_1_joint": -1.0288603412921917,
            "wrist_2_joint": 1.2330224858903978,
            "wrist_3_joint": -3.094022268022082
        }
    },
    "waypoints": [
        {
            "positions": [
                -0.33786336945926293,
                -1.3736533754116391,
                2.422574709923281,
                -1.0288603412921917,
                1.2330224858903978,
                -3.094022268022082
            ]
        },
        {
            "positions": [
                -0.3585688953460765,
                -1.3996335386863474,
                2.4050205920221854,
                -1.0122826861752379,
                1.200304371858373,
                -2.992005922632268
            ]
        },
        {
            "positions": [
                -0.2260177940471843,
                -1.4631424273620564,
                2.403376800840099,
                -0.9431577888275107,
                1.1372652288751908,
                -3.009515805791409
            ]
        },
        {
            "positions": [
                -0.09346669274829211,
                -1.5266513160377653,
                2.4017330096580127,
                -0.8740328914797834,
                1.0742260858920087,
                -3.0270256889505496
            ]
        },
        {
            "positions": [
                0.03908440855060008,
                -1.5901602047134742,
                2.4000892184759266,
                -0.804907994132056,
                1.0111869429088265,
                -3.0445355721096905
            ]
        },
        {
            "positions": [
                0.17163550984949227,
                -1.6536690933891833,
                2.39844542729384,
                -0.7357830967843288,
                0.9481477999256442,
                -3.062045455268831
            ]
        },
        {
            "positions": [
                0.3041866111483845,
                -1.717177982064892,
                2.3968016361117535,
                -0.6666581994366017,
                0.8851086569424621,
                -3.079555338427972
            ]
        },
        {
            "positions": [
                0.43673771244727666,
                -1.7806868707406012,
                2.3951578449296673,
                -0.5975333020888743,
                0.82206951395928,
                -3.097065221587113
            ]
        },
        {
            "positions": [
                0.5692888137461688,
                -1.84419575941631,
                2.393514053747581,
                -0.528408404741147,
                0.7590303709760977,
                -3.1145751047462533
            ]
        },
        {
            "positions": [
                0.7018399150450612,
                -1.907704648092019,
                2.3918702625654946,
                -0.4592835073934199,
                0.6959912279929156,
                -3.1320849879053942
            ]
        }
    ]
}