{
    "goal": {
        "global_pose": {
            "orientation": {
                "w": 0.7047431468963623,
                "x": -0.7094548344612122,
                "y": 0.0024358443915843964,
                "z": -0.0022348060738295317
            },
            "position": {
                "x": 0.6094750761985779,
                "y": 0.3671506643295288,
                "z": 0.19426114857196808
            }
        },
        "name": "move_to_magneteinheit_A"
    },
    "id": "BiEST_move_to_magneteinheit_A_77",
    "joint_names": [
        "shoulder_pan_joint",
        "shoulder_lift_joint",
        "elbow_joint",
        "wrist_1_joint",
        "wrist_2_joint",
        "wrist_3_joint"
    ],
    "metrics": {
        "cart_traj_len": 2.064173746730148,
        "distance_elbow_joint": 3.8754347159706177,
        "distance_shoulder_lift_joint": 1.0527308560488615,
        "distance_shoulder_pan_joint": 1.2413302750169342,
        "distance_wrist_1_joint": 1.1334917230720425,
        "distance_wrist_2_joint": 1.4477605361679335,
        "distance_wrist_3_joint": 1.9061836716529208,
        "smoothness": 5.709718421780688e-16,
        "time": 0.061981032000000005,
        "traj_len": 3.264495639134675,
        "weighted_distance": 4.129231330462744
    },
    "planner": "BiEST",
    "start": {
        "state": {
            "elbow_joint": -1.919643507792019,
            "shoulder_lift_joint": -0.07675430207160344,
            "shoulder_pan_joint": -1.1188671864651873,
            "wrist_1_joint": 0.42560062535961957,
            "wrist_2_joint": 1.5706038300724876,
            "wrist_3_joint": 1.1188968870953055
        }
    },
    "waypoints": [
        {
            "positions": [
                -1.1188671864651873,
                -0.07675430207160344,
                -1.919643507792019,
                0.42560062535961957,
                1.5706038300724876,
                1.1188968870953055
            ]
        },
        {
            "positions": [
                -1.0728919910941899,
                -0.11574433377711682,
                -1.7761088886819962,
                0.3836194504310254,
                1.5169830694736752,
                1.1894962823417101
            ]
        },
        {
            "positions": [
                -1.0269167957231922,
                -0.1547343654826302,
                -1.6325742695719734,
                0.34163827550243125,
                1.4633623088748628,
                1.2600956775881145
            ]
        },
        {
            "positions": [
                -0.9809416003521947,
                -0.1937243971881436,
                -1.4890396504619505,
                0.2996571005738371,
                1.4097415482760505,
                1.330695072834519
            ]
        },
        {
            "positions": [
                -0.9349664049811971,
                -0.23271442889365698,
                -1.3455050313519274,
                0.2576759256452429,
                1.3561207876772383,
                1.4012944680809234
            ]
        },
        {
            "positions": [
                -0.8889912096101995,
                -0.2717044605991704,
                -1.2019704122419048,
                0.21569475071664876,
                1.302500027078426,
                1.471893863327328
            ]
        },
        {
            "positions": [
                -0.843016014239202,
                -0.31069449230468377,
                -1.0584357931318817,
                0.17371357578805457,
                1.2488792664796136,
                1.5424932585737323
            ]
        },
        {
            "positions": [
                -0.7970408188682044,
                -0.3496845240101972,
                -0.9149011740218589,
                0.13173240085946042,
                1.1952585058808012,
                1.613092653820137
            ]
        },
        {
            "positions": [
                -0.7510656234972068,
                -0.3886745557157105,
                -0.771366554911836,
                0.08975122593086626,
                1.1416377452819888,
                1.6836920490665412
            ]
        },
        {
            "positions": [
                -0.7050904281262094,
                -0.42766458742122393,
                -0.6278319358018132,
                0.04777005100227211,
                1.0880169846831764,
                1.7542914443129458
            ]
        },
        {
            "positions": [
                -0.6591152327552118,
                -0.46665461912673734,
                -0.4842973166917903,
                0.005788876073677951,
                1.034396224084364,
                1.8248908395593504
            ]
        },
        {
            "positions": [
                -0.6131400373842142,
                -0.5056446508322507,
                -0.34076269758176747,
                -0.03619229885491626,
                0.9807754634855518,
                1.8954902348057547
            ]
        },
        {
            "positions": [
                -0.5671648420132166,
                -0.5446346825377641,
                -0.19722807847174462,
                -0.07817347378351042,
                0.9271547028867394,
                1.966089630052159
            ]
        },
        {
            "positions": [
                -0.5211896466422191,
                -0.5836247142432776,
                -0.05369345936172176,
                -0.12015464871210452,
                0.873533942287927,
                2.0366890252985637
            ]
        },
        {
            "positions": [
                -0.4752144512712215,
                -0.622614745948791,
                0.08984115974830131,
                -0.16213582364069873,
                0.8199131816891146,
                2.1072884205449682
            ]
        },
        {
            "positions": [
                -0.42923925590022394,
                -0.6616047776543044,
                0.2333757788583244,
                -0.20411699856929294,
                0.7662924210903023,
                2.177887815791373
            ]
        },
        {
            "positions": [
                -0.38326406052922646,
                -0.7005948093598175,
                0.376910397968347,
                -0.24609817349788704,
                0.71267166049149,
                2.2484872110377774
            ]
        },
        {
            "positions": [
                -0.33728886515822876,
                -0.7395848410653312,
                0.5204450170783701,
                -0.28807934842648125,
                0.6590508998926776,
                2.3190866062841815
            ]
        },
        {
            "positions": [
                -0.2913136697872313,
                -0.7785748727708444,
                0.6639796361883927,
                -0.33006052335507535,
                0.6054301392938652,
                2.389686001530586
            ]
        },
        {
            "positions": [
                -0.2453384744162337,
                -0.8175649044763578,
                0.8075142552984158,
                -0.37204169828366956,
                0.5518093786950529,
                2.4602853967769907
            ]
        },
        {
            "positions": [
                -0.1993632790452362,
                -0.8565549361818712,
                0.9510488744084384,
                -0.41402287321226366,
                0.4981886180962405,
                2.530884792023395
            ]
        },
        {
            "positions": [
                -0.1533880836742385,
                -0.8955449678873846,
                1.0945834935184615,
                -0.456004048140858,
                0.4445678574974281,
                2.6014841872698
            ]
        },
        {
            "positions": [
                -0.10741288830324103,
                -0.934534999592898,
                1.2381181126284841,
                -0.4979852230694521,
                0.39094709689861595,
                2.672083582516204
            ]
        },
        {
            "positions": [
                -0.061437692932243326,
                -0.9735250312984114,
                1.3816527317385072,
                -0.5399663979980462,
                0.3373263362998036,
                2.7426829777626085
            ]
        },
        {
            "positions": [
                -0.015462497561245847,
                -1.0125150630039248,
                1.5251873508485299,
                -0.5819475729266403,
                0.2837055757009912,
                2.813282373009013
            ]
        },
        {
            "positions": [
                0.030512697809751632,
                -1.0515050947094382,
                1.668721969958553,
                -0.6239287478552344,
                0.23008481510217882,
                2.883881768255417
            ]
        },
        {
            "positions": [
                0.07648789318074911,
                -1.0904951264149516,
                1.8122565890685756,
                -0.6659099227838285,
                0.17646405450336644,
                2.9544811635018218
            ]
        },
        {
            "positions": [
                0.12246308855174674,
                -1.129485158120465,
                1.9557912081785986,
                -0.707891097712423,
                0.12284329390455401,
                3.0250805587482263
            ]
        }
    ]
}