{
    "goal": {
        "global_pose": {
            "orientation": {
                "w": 0.5084816217422485,
                "x": -0.49083608388900757,
                "y": 0.5182115435600281,
                "z": -0.4816462993621826
            },
            "position": {
                "x": 0.5540239810943604,
                "y": 0.030875300988554955,
                "z": 0.16403168439865112
            }
        },
        "name": "move_to_storage_A"
    },
    "id": "BiEST_move_to_storage_A_11",
    "joint_names": [
        "shoulder_pan_joint",
        "shoulder_lift_joint",
        "elbow_joint",
        "wrist_1_joint",
        "wrist_2_joint",
        "wrist_3_joint"
    ],
    "metrics": {
        "cart_traj_len": 0.35345291670840384,
        "distance_elbow_joint": 0.4497953899748799,
        "distance_shoulder_lift_joint": 0.23455665293583183,
        "distance_shoulder_pan_joint": 0.4639260324470339,
        "distance_wrist_1_joint": 0.24519517052482265,
        "distance_wrist_2_joint": 1.0917260177066557,
        "distance_wrist_3_joint": 0.10598588432149159,
        "smoothness": 1.1102230263833737e-15,
        "time": 0.066765786,
        "traj_len": 1.6097158593710619,
        "weighted_distance": 2.0347181880509098
    },
    "planner": "BiEST",
    "start": {
        "state": {
            "elbow_joint": 1.9715463870305268,
            "shoulder_lift_joint": -1.1394903361783484,
            "shoulder_pan_joint": 0.12281147578464417,
            "wrist_1_joint": -0.7804599489681411,
            "wrist_2_joint": 0.12958660307563738,
            "wrist_3_joint": -3.1924946282119055
        }
    },
    "waypoints": [
        {
            "positions": [
                0.12281147578464417,
                -1.1394903361783484,
                1.9715463870305268,
                -0.7804599489681411,
                0.12958660307563738,
                -3.1924946282119055
            ]
        },
        {
            "positions": [
                0.056536328292210766,
                -1.1729984294548959,
                2.0358028713126526,
                -0.8154878304716872,
                0.2855474627480168,
                -3.1773537875945497
            ]
        },
        {
            "positions": [
                -0.00973881920022264,
                -1.206506522731443,
                2.100059355594778,
                -0.8505157119752332,
                0.44150832242039617,
                -3.162212946977194
            ]
        },
        {
            "positions": [
                -0.07601396669265605,
                -1.2400146160079906,
                2.164315839876904,
                -0.8855435934787793,
                0.5974691820927756,
                -3.147072106359838
            ]
        },
        {
            "positions": [
                -0.14228911418508944,
                -1.273522709284538,
                2.2285723241590296,
                -0.9205714749823255,
                0.7534300417651549,
                -3.1319312657424816
            ]
        },
        {
            "positions": [
                -0.2085642616775229,
                -1.3070308025610855,
                2.2928288084411554,
                -0.9555993564858716,
                0.9093909014375343,
                -3.1167904251251257
            ]
        },
        {
            "positions": [
                -0.27483940916995625,
                -1.3405388958376327,
                2.357085292723281,
                -0.9906272379894177,
                1.0653517611099137,
                -3.10164958450777
            ]
        },
        {
            "positions": [
                -0.3411145566623897,
                -1.3740469891141802,
                2.4213417770054066,
                -1.0256551194929637,
                1.221312620782293,
                -3.086508743890414
            ]
        }
    ]
}