{
    "goal": {
        "global_pose": {
            "orientation": {
                "w": 0.5084816217422485,
                "x": -0.49083608388900757,
                "y": 0.5182115435600281,
                "z": -0.4816462993621826
            },
            "position": {
                "x": 0.5540239810943604,
                "y": 0.030875300988554955,
                "z": 0.16403168439865112
            }
        },
        "name": "move_to_storage_A"
    },
    "id": "BiEST_move_to_storage_A_115",
    "joint_names": [
        "shoulder_pan_joint",
        "shoulder_lift_joint",
        "elbow_joint",
        "wrist_1_joint",
        "wrist_2_joint",
        "wrist_3_joint"
    ],
    "metrics": {
        "cart_traj_len": 0.35242276071015216,
        "distance_elbow_joint": 0.45241457842319655,
        "distance_shoulder_lift_joint": 0.2321624676063463,
        "distance_shoulder_pan_joint": 0.456622253255985,
        "distance_wrist_1_joint": 0.2612978589579035,
        "distance_wrist_2_joint": 1.114483676855619,
        "distance_wrist_3_joint": 0.09699426049296234,
        "smoothness": 6.661338165333112e-16,
        "time": 0.041340091,
        "traj_len": 1.6167792352674537,
        "weighted_distance": 2.0454205319179377
    },
    "planner": "BiEST",
    "start": {
        "state": {
            "elbow_joint": 1.9715463870305268,
            "shoulder_lift_joint": -1.1394903361783484,
            "shoulder_pan_joint": 0.12281147578464417,
            "wrist_1_joint": -0.7804599489681411,
            "wrist_2_joint": 0.12958660307563738,
            "wrist_3_joint": -3.1924946282119055
        }
    },
    "waypoints": [
        {
            "positions": [
                0.12281147578464417,
                -1.1394903361783484,
                1.9715463870305268,
                -0.7804599489681411,
                0.12958660307563738,
                -3.1924946282119055
            ]
        },
        {
            "positions": [
                0.057579725319503464,
                -1.172656402979255,
                2.0361770410909834,
                -0.8177882145335559,
                0.2887985569121544,
                -3.1786383052843394
            ]
        },
        {
            "positions": [
                -0.007652025145637245,
                -1.2058224697801616,
                2.10080769515144,
                -0.8551164800989707,
                0.4480105107486714,
                -3.1647819823567733
            ]
        },
        {
            "positions": [
                -0.07288377561077795,
                -1.2389885365810682,
                2.1654383492118967,
                -0.8924447456643854,
                0.6072224645851884,
                -3.150925659429207
            ]
        },
        {
            "positions": [
                -0.13811552607591865,
                -1.2721546033819748,
                2.2300690032723534,
                -0.9297730112298002,
                0.7664344184217053,
                -3.1370693365016415
            ]
        },
        {
            "positions": [
                -0.20334727654105939,
                -1.3053206701828814,
                2.29469965733281,
                -0.967101276795215,
                0.9256463722582224,
                -3.1232130135740754
            ]
        },
        {
            "positions": [
                -0.26857902700620007,
                -1.338486736983788,
                2.3593303113932667,
                -1.0044295423606298,
                1.0848583260947393,
                -3.1093566906465093
            ]
        },
        {
            "positions": [
                -0.3338107774713408,
                -1.3716528037846947,
                2.4239609654537233,
                -1.0417578079260446,
                1.2440702799312564,
                -3.095500367718943
            ]
        }
    ]
}