{
    "goal": {
        "global_pose": {
            "orientation": {
                "w": 0.5084816217422485,
                "x": -0.49083608388900757,
                "y": 0.5182115435600281,
                "z": -0.4816462993621826
            },
            "position": {
                "x": 0.5540239810943604,
                "y": 0.030875300988554955,
                "z": 0.16403168439865112
            }
        },
        "name": "move_to_storage_A"
    },
    "id": "BiEST_move_to_storage_A_134",
    "joint_names": [
        "shoulder_pan_joint",
        "shoulder_lift_joint",
        "elbow_joint",
        "wrist_1_joint",
        "wrist_2_joint",
        "wrist_3_joint"
    ],
    "metrics": {
        "cart_traj_len": 0.35326257819550205,
        "distance_elbow_joint": 0.4500431299428369,
        "distance_shoulder_lift_joint": 0.2340010602250464,
        "distance_shoulder_pan_joint": 0.46332073722834727,
        "distance_wrist_1_joint": 0.23793390547324555,
        "distance_wrist_2_joint": 1.0935910201747785,
        "distance_wrist_3_joint": 0.09019812900513768,
        "smoothness": 4.440892098500626e-16,
        "time": 0.042547658,
        "traj_len": 1.6028374783643513,
        "weighted_distance": 2.0201507779637864
    },
    "planner": "BiEST",
    "start": {
        "state": {
            "elbow_joint": 1.9715463870305268,
            "shoulder_lift_joint": -1.1394903361783484,
            "shoulder_pan_joint": 0.12281147578464417,
            "wrist_1_joint": -0.7804599489681411,
            "wrist_2_joint": 0.12958660307563738,
            "wrist_3_joint": -3.1924946282119055
        }
    },
    "waypoints": [
        {
            "positions": [
                0.12281147578464417,
                -1.1394903361783484,
                1.9715463870305268,
                -0.7804599489681411,
                0.12958660307563738,
                -3.1924946282119055
            ]
        },
        {
            "positions": [
                0.056622799037737426,
                -1.1729190590676408,
                2.0358382627366463,
                -0.8144505068928904,
                0.2858138916720343,
                -3.1796091812111715
            ]
        },
        {
            "positions": [
                -0.009565877709169321,
                -1.206347781956933,
                2.1001301384427657,
                -0.8484410648176398,
                0.4420411802684312,
                -3.1667237342104375
            ]
        },
        {
            "positions": [
                -0.07575455445607608,
                -1.2397765048462255,
                2.1644220141488852,
                -0.8824316227423892,
                0.5982684688648281,
                -3.1538382872097035
            ]
        },
        {
            "positions": [
                -0.1419432312029828,
                -1.2732052277355177,
                2.2287138898550047,
                -0.9164221806671385,
                0.7544957574612251,
                -3.14095284020897
            ]
        },
        {
            "positions": [
                -0.20813190794988956,
                -1.3066339506248101,
                2.2930057655611247,
                -0.9504127385918879,
                0.9107230460576221,
                -3.128067393208236
            ]
        },
        {
            "positions": [
                -0.2743205846967963,
                -1.3400626735141024,
                2.357297641267244,
                -0.9844032965166373,
                1.0669503346540188,
                -3.115181946207502
            ]
        },
        {
            "positions": [
                -0.3405092614437031,
                -1.3734913964033948,
                2.4215895169733637,
                -1.0183938544413866,
                1.223177623250416,
                -3.102296499206768
            ]
        }
    ]
}