{
    "goal": {
        "global_pose": {
            "orientation": {
                "w": 0.7031023502349854,
                "x": -0.7110244035720825,
                "y": 0.007748599164187908,
                "z": 0.005598929710686207
            },
            "position": {
                "x": 0.11585023208521307,
                "y": 0.44412534475326537,
                "z": 0.3711530566215515
            }
        },
        "name": "move_to_auspresseinheit_A"
    },
    "id": "BiEST_move_to_auspresseinheit_A_24",
    "joint_names": [
        "shoulder_pan_joint",
        "shoulder_lift_joint",
        "elbow_joint",
        "wrist_1_joint",
        "wrist_2_joint",
        "wrist_3_joint"
    ],
    "metrics": {
        "cart_traj_len": 0.6962138867873897,
        "distance_elbow_joint": 0.07849167921916145,
        "distance_shoulder_lift_joint": 0.5623266908103215,
        "distance_shoulder_pan_joint": 1.045227490296968,
        "distance_wrist_1_joint": 0.6199286392038688,
        "distance_wrist_2_joint": 0.5177174353398625,
        "distance_wrist_3_joint": 0.13745124640373696,
        "smoothness": 0.6600606425400687,
        "time": 0.141841258,
        "traj_len": 1.7207972516464336,
        "weighted_distance": 2.091337311058435
    },
    "planner": "BiEST",
    "start": {
        "state": {
            "elbow_joint": 2.422574709923281,
            "shoulder_lift_joint": -1.3736533754116391,
            "shoulder_pan_joint": -0.33786336945926293,
            "wrist_1_joint": -1.0288603412921917,
            "wrist_2_joint": 1.2330224858903978,
            "wrist_3_joint": -3.094022268022082
        }
    },
    "waypoints": [
        {
            "positions": [
                -0.33786336945926293,
                -1.3736533754116391,
                2.422574709923281,
                -1.0288603412921917,
                1.2330224858903978,
                -3.094022268022082
            ]
        },
        {
            "positions": [
                -0.2049843226547427,
                -1.452078896133086,
                2.415104512563366,
                -0.9452375647956792,
                1.1666016297048696,
                -3.086494373764224
            ]
        },
        {
            "positions": [
                -0.07210527585022247,
                -1.5305044168545328,
                2.4076343152034507,
                -0.8616147882991667,
                1.1001807735193414,
                -3.0789664795063656
            ]
        },
        {
            "positions": [
                0.06077377095429776,
                -1.6089299375759794,
                2.4001641178435356,
                -0.7779920118026542,
                1.0337599173338132,
                -3.0714385852485075
            ]
        },
        {
            "positions": [
                0.19365281775881799,
                -1.6873554582974262,
                2.392693920483621,
                -0.6943692353061417,
                0.9673390611482849,
                -3.0639106909906495
            ]
        },
        {
            "positions": [
                0.3265318645633382,
                -1.765780979018873,
                2.3852237231237057,
                -0.6107464588096292,
                0.9009182049627567,
                -3.0563827967327915
            ]
        },
        {
            "positions": [
                0.45941091136785844,
                -1.8442064997403198,
                2.3777535257637905,
                -0.5271236823131167,
                0.8344973487772285,
                -3.048854902474933
            ]
        },
        {
            "positions": [
                0.5922899581723787,
                -1.9226320204617666,
                2.3702833284038753,
                -0.44350090581660423,
                0.7680764925917003,
                -3.041327008217075
            ]
        },
        {
            "positions": [
                0.7073641208377052,
                -1.9092839747015726,
                2.396483626103631,
                -0.4780701095448854,
                0.7153050505505353,
                -3.1260829948158046
            ]
        }
    ]
}