{
    "goal": {
        "global_pose": {
            "orientation": {
                "w": 0.7031023502349854,
                "x": -0.7110244035720825,
                "y": 0.007748599164187908,
                "z": 0.005598929710686207
            },
            "position": {
                "x": 0.11585023208521307,
                "y": 0.44412534475326537,
                "z": 0.3711530566215515
            }
        },
        "name": "move_to_auspresseinheit_A"
    },
    "id": "BiEST_move_to_auspresseinheit_A_148",
    "joint_names": [
        "shoulder_pan_joint",
        "shoulder_lift_joint",
        "elbow_joint",
        "wrist_1_joint",
        "wrist_2_joint",
        "wrist_3_joint"
    ],
    "metrics": {
        "cart_traj_len": 0.8900667203032675,
        "distance_elbow_joint": 0.31319131990887783,
        "distance_shoulder_lift_joint": 0.5348347447736985,
        "distance_shoulder_pan_joint": 1.1545854643487083,
        "distance_wrist_1_joint": 0.5789979231664564,
        "distance_wrist_2_joint": 0.5172854331009992,
        "distance_wrist_3_joint": 0.7893852331880487,
        "smoothness": 0.7194330464748909,
        "time": 0.210517129,
        "traj_len": 1.9718722368568378,
        "weighted_distance": 2.561900454961188
    },
    "planner": "BiEST",
    "start": {
        "state": {
            "elbow_joint": 2.422574709923281,
            "shoulder_lift_joint": -1.3736533754116391,
            "shoulder_pan_joint": -0.33786336945926293,
            "wrist_1_joint": -1.0288603412921917,
            "wrist_2_joint": 1.2330224858903978,
            "wrist_3_joint": -3.094022268022082
        }
    },
    "waypoints": [
        {
            "positions": [
                -0.33786336945926293,
                -1.3736533754116391,
                2.422574709923281,
                -1.0288603412921917,
                1.2330224858903978,
                -3.094022268022082
            ]
        },
        {
            "positions": [
                -0.35611143861702954,
                -1.3943289291547203,
                2.365078401031149,
                -1.023185513246921,
                1.1303072749877667,
                -2.971917482672701
            ]
        },
        {
            "positions": [
                -0.3743595077747962,
                -1.4150044828978017,
                2.3075820921390173,
                -1.0175106852016502,
                1.0275920640851355,
                -2.84981269732332
            ]
        },
        {
            "positions": [
                -0.3926075769325628,
                -1.4356800366408828,
                2.2500857832468855,
                -1.0118358571563795,
                0.9248768531825045,
                -2.7277079119739387
            ]
        },
        {
            "positions": [
                -0.2551274198231368,
                -1.4947810470839398,
                2.2676735824009455,
                -0.941589177277549,
                0.8987343781333662,
                -2.780591771616427
            ]
        },
        {
            "positions": [
                -0.11764726271371073,
                -1.5538820575269965,
                2.285261381555006,
                -0.8713424973987185,
                0.872591903084228,
                -2.833475631258915
            ]
        },
        {
            "positions": [
                0.019832894395715284,
                -1.6129830679700534,
                2.3028491807090665,
                -0.8010958175198879,
                0.8464494280350897,
                -2.886359490901403
            ]
        },
        {
            "positions": [
                0.15731305150514135,
                -1.6720840784131101,
                2.3204369798631266,
                -0.7308491376410574,
                0.8203069529859515,
                -2.939243350543891
            ]
        },
        {
            "positions": [
                0.2947932086145674,
                -1.731185088856167,
                2.3380247790171866,
                -0.6606024577622269,
                0.7941644779368133,
                -2.9921272101863794
            ]
        },
        {
            "positions": [
                0.4322733657239934,
                -1.790286099299224,
                2.355612578171247,
                -0.5903557778833963,
                0.7680220028876751,
                -3.0450110698288677
            ]
        },
        {
            "positions": [
                0.5697535228334194,
                -1.8493871097422807,
                2.3732003773253076,
                -0.5201090980045658,
                0.7418795278385368,
                -3.0978949294713556
            ]
        },
        {
            "positions": [
                0.7072336799428455,
                -1.9084881201853376,
                2.3907881764793677,
                -0.4498624181257353,
                0.7157370527893986,
                -3.150778789113844
            ]
        }
    ]
}