{
    "goal": {
        "global_pose": {
            "orientation": {
                "w": 0.7047431468963623,
                "x": -0.7094548344612122,
                "y": 0.0024358443915843964,
                "z": -0.0022348060738295317
            },
            "position": {
                "x": 0.6094750761985779,
                "y": 0.3671506643295288,
                "z": 0.19426114857196808
            }
        },
        "name": "move_to_magneteinheit_A"
    },
    "id": "BiEST_move_to_magneteinheit_A_145",
    "joint_names": [
        "shoulder_pan_joint",
        "shoulder_lift_joint",
        "elbow_joint",
        "wrist_1_joint",
        "wrist_2_joint",
        "wrist_3_joint"
    ],
    "metrics": {
        "cart_traj_len": 2.0704107823537217,
        "distance_elbow_joint": 3.901253009588798,
        "distance_shoulder_lift_joint": 1.0685580792695082,
        "distance_shoulder_pan_joint": 1.2429466197715935,
        "distance_wrist_1_joint": 1.2511965705874888,
        "distance_wrist_2_joint": 1.4326730271907753,
        "distance_wrist_3_joint": 2.008583350520846,
        "smoothness": 7.350442100441346e-16,
        "time": 0.10394104200000001,
        "traj_len": 3.3023038407949397,
        "weighted_distance": 4.195979856451764
    },
    "planner": "BiEST",
    "start": {
        "state": {
            "elbow_joint": -1.919643507792019,
            "shoulder_lift_joint": -0.07675430207160344,
            "shoulder_pan_joint": -1.1188671864651873,
            "wrist_1_joint": 0.42560062535961957,
            "wrist_2_joint": 1.5706038300724876,
            "wrist_3_joint": 1.1188968870953055
        }
    },
    "waypoints": [
        {
            "positions": [
                -1.1188671864651873,
                -0.07675430207160344,
                -1.919643507792019,
                0.42560062535961957,
                1.5706038300724876,
                1.1188968870953055
            ]
        },
        {
            "positions": [
                -1.074476235759059,
                -0.11491709061694302,
                -1.7803130431638476,
                0.38091503355292355,
                1.5194369362442457,
                1.1906320067567644
            ]
        },
        {
            "positions": [
                -1.0300852850529307,
                -0.1530798791622826,
                -1.6409825785356764,
                0.3362294417462275,
                1.4682700424160036,
                1.262367126418223
            ]
        },
        {
            "positions": [
                -0.9856943343468023,
                -0.19124266770762216,
                -1.5016521139075052,
                0.29154384993953153,
                1.4171031485877617,
                1.3341022460796819
            ]
        },
        {
            "positions": [
                -0.941303383640674,
                -0.22940545625296174,
                -1.3623216492793337,
                0.24685825813283546,
                1.3659362547595197,
                1.4058373657411407
            ]
        },
        {
            "positions": [
                -0.8969124329345457,
                -0.2675682447983013,
                -1.2229911846511623,
                0.20217266632613942,
                1.3147693609312778,
                1.4775724854025993
            ]
        },
        {
            "positions": [
                -0.8525214822284173,
                -0.30573103334364093,
                -1.083660720022991,
                0.15748707451944344,
                1.2636024671030357,
                1.5493076050640582
            ]
        },
        {
            "positions": [
                -0.808130531522289,
                -0.3438938218889805,
                -0.9443302553948196,
                0.11280148271274737,
                1.2124355732747938,
                1.621042724725517
            ]
        },
        {
            "positions": [
                -0.7637395808161607,
                -0.38205661043432004,
                -0.8049997907666484,
                0.06811589090605136,
                1.1612686794465519,
                1.6927778443869759
            ]
        },
        {
            "positions": [
                -0.7193486301100322,
                -0.42021939897965965,
                -0.6656693261384767,
                0.02343029909935529,
                1.1101017856183097,
                1.7645129640484347
            ]
        },
        {
            "positions": [
                -0.6749576794039039,
                -0.4583821875249992,
                -0.5263388615103055,
                -0.021255292707340723,
                1.0589348917900678,
                1.8362480837098933
            ]
        },
        {
            "positions": [
                -0.6305667286977756,
                -0.4965449760703388,
                -0.3870083968821343,
                -0.06594088451403674,
                1.007767997961826,
                1.9079832033713522
            ]
        },
        {
            "positions": [
                -0.5861757779916473,
                -0.5347077646156784,
                -0.24767793225396306,
                -0.11062647632073269,
                0.9566011041335839,
                1.9797183230328108
            ]
        },
        {
            "positions": [
                -0.5417848272855189,
                -0.572870553161018,
                -0.1083474676257914,
                -0.15531206812742887,
                0.9054342103053419,
                2.0514534426942697
            ]
        },
        {
            "positions": [
                -0.4973938765793906,
                -0.6110333417063576,
                0.03098299700237983,
                -0.19999765993412483,
                0.8542673164771,
                2.1231885623557285
            ]
        },
        {
            "positions": [
                -0.4530029258732623,
                -0.6491961302516971,
                0.17031346163055106,
                -0.24468325174082078,
                0.8031004226488581,
                2.1949236820171873
            ]
        },
        {
            "positions": [
                -0.408611975167134,
                -0.6873589187970366,
                0.3096439262587223,
                -0.28936884354751685,
                0.751933528820616,
                2.2666588016786458
            ]
        },
        {
            "positions": [
                -0.3642210244610057,
                -0.7255217073423763,
                0.4489743908868935,
                -0.3340544353542128,
                0.7007666349923741,
                2.3383939213401046
            ]
        },
        {
            "positions": [
                -0.31983007375487715,
                -0.7636844958877158,
                0.5883048555150656,
                -0.378740027160909,
                0.649599741164132,
                2.4101290410015634
            ]
        },
        {
            "positions": [
                -0.27543912304874885,
                -0.8018472844330555,
                0.7276353201432368,
                -0.42342561896760506,
                0.5984328473358901,
                2.4818641606630223
            ]
        },
        {
            "positions": [
                -0.23104817234262054,
                -0.840010072978395,
                0.8669657847714081,
                -0.468111210774301,
                0.5472659535076481,
                2.553599280324481
            ]
        },
        {
            "positions": [
                -0.18665722163649223,
                -0.8781728615237345,
                1.0062962493995793,
                -0.512796802580997,
                0.49609905967940615,
                2.62533439998594
            ]
        },
        {
            "positions": [
                -0.14226627093036393,
                -0.9163356500690742,
                1.1456267140277505,
                -0.557482394387693,
                0.44493216585116424,
                2.697069519647399
            ]
        },
        {
            "positions": [
                -0.0978753202242355,
                -0.9544984386144137,
                1.2849571786559217,
                -0.6021679861943889,
                0.39376527202292233,
                2.7688046393088577
            ]
        },
        {
            "positions": [
                -0.05348436951810731,
                -0.9926612271597532,
                1.424287643284093,
                -0.6468535780010849,
                0.3425983781946802,
                2.8405397589703165
            ]
        },
        {
            "positions": [
                -0.009093418811978893,
                -1.030824015705093,
                1.563618107912265,
                -0.6915391698077811,
                0.2914314843664383,
                2.9122748786317754
            ]
        },
        {
            "positions": [
                0.035297531894149525,
                -1.0689868042504325,
                1.7029485725404363,
                -0.7362247616144773,
                0.24026459053819615,
                2.984009998293234
            ]
        },
        {
            "positions": [
                0.07968848260027772,
                -1.1071495927957722,
                1.8422790371686075,
                -0.7809103534211732,
                0.18909769670995424,
                3.0557451179546926
            ]
        },
        {
            "positions": [
                0.1240794333064062,
                -1.1453123813411117,
                1.9816095017967785,
                -0.8255959452278692,
                0.13793080288171225,
                3.1274802376161515
            ]
        }
    ]
}