{
    "goal": {
        "global_pose": {
            "orientation": {
                "w": 0.5084816217422485,
                "x": -0.49083608388900757,
                "y": 0.5182115435600281,
                "z": -0.4816462993621826
            },
            "position": {
                "x": 0.5540239810943604,
                "y": 0.030875300988554955,
                "z": 0.16403168439865112
            }
        },
        "name": "move_to_storage_A"
    },
    "id": "BiEST_move_to_storage_A_142",
    "joint_names": [
        "shoulder_pan_joint",
        "shoulder_lift_joint",
        "elbow_joint",
        "wrist_1_joint",
        "wrist_2_joint",
        "wrist_3_joint"
    ],
    "metrics": {
        "cart_traj_len": 0.35288647058856276,
        "distance_elbow_joint": 0.4491115835069608,
        "distance_shoulder_lift_joint": 0.23558840980701756,
        "distance_shoulder_pan_joint": 0.4623801766529375,
        "distance_wrist_1_joint": 0.24039409625301478,
        "distance_wrist_2_joint": 1.0946280869925293,
        "distance_wrist_3_joint": 0.09562359446623159,
        "smoothness": 4.440892098500626e-16,
        "time": 0.06815243,
        "traj_len": 1.6055298027999019,
        "weighted_distance": 2.0258320068200866
    },
    "planner": "BiEST",
    "start": {
        "state": {
            "elbow_joint": 1.9715463870305268,
            "shoulder_lift_joint": -1.1394903361783484,
            "shoulder_pan_joint": 0.12281147578464417,
            "wrist_1_joint": -0.7804599489681411,
            "wrist_2_joint": 0.12958660307563738,
            "wrist_3_joint": -3.1924946282119055
        }
    },
    "waypoints": [
        {
            "positions": [
                0.12281147578464417,
                -1.1394903361783484,
                1.9715463870305268,
                -0.7804599489681411,
                0.12958660307563738,
                -3.1924946282119055
            ]
        },
        {
            "positions": [
                0.056757164834224536,
                -1.1731458232936367,
                2.035705184674378,
                -0.8148019627185717,
                0.28596204407457015,
                -3.1788341147167296
            ]
        },
        {
            "positions": [
                -0.009297146116195101,
                -1.2068013104089248,
                2.09986398231823,
                -0.8491439764690024,
                0.4423374850735029,
                -3.1651736012215537
            ]
        },
        {
            "positions": [
                -0.07535145706661474,
                -1.2404567975242131,
                2.1640227799620813,
                -0.8834859902194331,
                0.5987129260724356,
                -3.1515130877263777
            ]
        },
        {
            "positions": [
                -0.14140576801703436,
                -1.2741122846395012,
                2.228181577605933,
                -0.9178280039698639,
                0.7550883670713684,
                -3.137852574231202
            ]
        },
        {
            "positions": [
                -0.20746007896745405,
                -1.3077677717547895,
                2.2923403752497844,
                -0.9521700177202945,
                0.9114638080703013,
                -3.124192060736026
            ]
        },
        {
            "positions": [
                -0.27351438991787363,
                -1.3414232588700776,
                2.3564991728936358,
                -0.9865120314707252,
                1.0678392490692339,
                -3.11053154724085
            ]
        },
        {
            "positions": [
                -0.3395687008682933,
                -1.375078745985366,
                2.4206579705374875,
                -1.0208540452211559,
                1.2242146900681667,
                -3.096871033745674
            ]
        }
    ]
}