{
    "goal": {
        "global_pose": {
            "orientation": {
                "w": 0.7047431468963623,
                "x": -0.7094548344612122,
                "y": 0.0024358443915843964,
                "z": -0.0022348060738295317
            },
            "position": {
                "x": 0.6094750761985779,
                "y": 0.3671506643295288,
                "z": 0.19426114857196808
            }
        },
        "name": "move_to_magneteinheit_A"
    },
    "id": "BiEST_move_to_magneteinheit_A_122",
    "joint_names": [
        "shoulder_pan_joint",
        "shoulder_lift_joint",
        "elbow_joint",
        "wrist_1_joint",
        "wrist_2_joint",
        "wrist_3_joint"
    ],
    "metrics": {
        "cart_traj_len": 1.8707949665418377,
        "distance_elbow_joint": 3.9341138472673007,
        "distance_shoulder_lift_joint": 0.7097001256798336,
        "distance_shoulder_pan_joint": 1.2415096058608206,
        "distance_wrist_1_joint": 1.557342493270346,
        "distance_wrist_2_joint": 1.7082543478744174,
        "distance_wrist_3_joint": 1.1859853095774153,
        "smoothness": 2.5376526478085547e-16,
        "time": 0.104551778,
        "traj_len": 3.2151058659910614,
        "weighted_distance": 3.9968078750209806
    },
    "planner": "BiEST",
    "start": {
        "state": {
            "elbow_joint": -1.919643507792019,
            "shoulder_lift_joint": -0.07675430207160344,
            "shoulder_pan_joint": -1.1188671864651873,
            "wrist_1_joint": 0.42560062535961957,
            "wrist_2_joint": 1.5706038300724876,
            "wrist_3_joint": 1.1188968870953055
        }
    },
    "waypoints": [
        {
            "positions": [
                -1.1188671864651873,
                -0.07675430207160344,
                -1.919643507792019,
                0.42560062535961957,
                1.5706038300724876,
                1.1188968870953055
            ]
        },
        {
            "positions": [
                -1.0728853492110828,
                -0.10303949191159728,
                -1.7739355875228597,
                0.48327997696222497,
                1.5073351505215833,
                1.074971505259105
            ]
        },
        {
            "positions": [
                -1.0269035119569785,
                -0.12932468175159112,
                -1.6282276672537006,
                0.5409593285648304,
                1.444066470970679,
                1.0310461234229045
            ]
        },
        {
            "positions": [
                -0.980921674702874,
                -0.15560987159158496,
                -1.4825197469845413,
                0.5986386801674357,
                1.3807977914197747,
                0.9871207415867038
            ]
        },
        {
            "positions": [
                -0.9349398374487695,
                -0.1818950614315788,
                -1.336811826715382,
                0.6563180317700412,
                1.3175291118688701,
                0.9431953597505033
            ]
        },
        {
            "positions": [
                -0.8889580001946651,
                -0.20818025127157264,
                -1.1911039064462225,
                0.7139973833726465,
                1.2542604323179658,
                0.8992699779143027
            ]
        },
        {
            "positions": [
                -0.8429761629405605,
                -0.23446544111156647,
                -1.0453959861770634,
                0.771676734975252,
                1.1909917527670615,
                0.8553445960781021
            ]
        },
        {
            "positions": [
                -0.7969943256864561,
                -0.2607506309515603,
                -0.8996880659079041,
                0.8293560865778573,
                1.1277230732161572,
                0.8114192142419017
            ]
        },
        {
            "positions": [
                -0.7510124884323517,
                -0.28703582079155415,
                -0.7539801456387449,
                0.8870354381804628,
                1.0644543936652529,
                0.767493832405701
            ]
        },
        {
            "positions": [
                -0.7050306511782471,
                -0.313321010631548,
                -0.6082722253695856,
                0.9447147897830681,
                1.0011857141143485,
                0.7235684505695005
            ]
        },
        {
            "positions": [
                -0.6590488139241427,
                -0.33960620047154183,
                -0.46256430510042623,
                1.0023941413856736,
                0.9379170345634441,
                0.6796430687332999
            ]
        },
        {
            "positions": [
                -0.6130669766700383,
                -0.36589139031153567,
                -0.3168563848312671,
                1.060073492988279,
                0.8746483550125398,
                0.6357176868970993
            ]
        },
        {
            "positions": [
                -0.5670851394159337,
                -0.3921765801515295,
                -0.17114846456210775,
                1.1177528445908844,
                0.8113796754616355,
                0.5917923050608987
            ]
        },
        {
            "positions": [
                -0.5211033021618293,
                -0.41846176999152335,
                -0.025440544292948397,
                1.1754321961934897,
                0.7481109959107312,
                0.5478669232246982
            ]
        },
        {
            "positions": [
                -0.4751214649077249,
                -0.4447469598315172,
                0.12026737597621096,
                1.2331115477960952,
                0.6848423163598267,
                0.5039415413884977
            ]
        },
        {
            "positions": [
                -0.42913962765362035,
                -0.471032149671511,
                0.2659752962453703,
                1.2907908993987007,
                0.6215736368089223,
                0.460016159552297
            ]
        },
        {
            "positions": [
                -0.3831577903995159,
                -0.49731733951150486,
                0.4116832165145292,
                1.348470251001306,
                0.5583049572580181,
                0.4160907777160965
            ]
        },
        {
            "positions": [
                -0.3371759531454114,
                -0.5236025293514988,
                0.557391136783689,
                1.4061496026039115,
                0.49503627770711356,
                0.37216539587989583
            ]
        },
        {
            "positions": [
                -0.29119411589130695,
                -0.5498877191914926,
                0.7030990570528479,
                1.4638289542065168,
                0.43176759815620946,
                0.3282400140436954
            ]
        },
        {
            "positions": [
                -0.2452122786372024,
                -0.5761729090314864,
                0.8488069773220073,
                1.5215083058091223,
                0.3684989186053049,
                0.28431463220749476
            ]
        },
        {
            "positions": [
                -0.1992304413830981,
                -0.6024580988714803,
                0.9945148975911666,
                1.5791876574117276,
                0.3052302390544006,
                0.24038925037129422
            ]
        },
        {
            "positions": [
                -0.15324860412899355,
                -0.6287432887114741,
                1.140222817860326,
                1.6368670090143331,
                0.2419615595034963,
                0.19646386853509357
            ]
        },
        {
            "positions": [
                -0.10726676687488923,
                -0.655028478551468,
                1.2859307381294849,
                1.6945463606169384,
                0.17869287995259198,
                0.15253848669889314
            ]
        },
        {
            "positions": [
                -0.06128492962078469,
                -0.6813136683914618,
                1.4316386583986447,
                1.752225712219544,
                0.11542420040168766,
                0.10861310486269238
            ]
        },
        {
            "positions": [
                -0.015303092366680149,
                -0.7075988582314556,
                1.5773465786678036,
                1.8099050638221492,
                0.05215552085078334,
                0.06468772302649195
            ]
        },
        {
            "positions": [
                0.030678744887424392,
                -0.7338840480714495,
                1.723054498936963,
                1.8675844154247547,
                -0.011113158700121195,
                0.0207623411902913
            ]
        },
        {
            "positions": [
                0.07666058214152871,
                -0.7601692379114433,
                1.8687624192061223,
                1.92526376702736,
                -0.07438183825102529,
                -0.023163040645909128
            ]
        },
        {
            "positions": [
                0.12264241939563324,
                -0.7864544277514371,
                2.014470339475282,
                1.9829431186299655,
                -0.13765051780192994,
                -0.06708842248210967
            ]
        }
    ]
}