{
    "goal": {
        "global_pose": {
            "orientation": {
                "w": 0.7047431468963623,
                "x": -0.7094548344612122,
                "y": 0.0024358443915843964,
                "z": -0.0022348060738295317
            },
            "position": {
                "x": 0.6094750761985779,
                "y": 0.3671506643295288,
                "z": 0.19426114857196808
            }
        },
        "name": "move_to_magneteinheit_A"
    },
    "id": "BiEST_move_to_magneteinheit_A_137",
    "joint_names": [
        "shoulder_pan_joint",
        "shoulder_lift_joint",
        "elbow_joint",
        "wrist_1_joint",
        "wrist_2_joint",
        "wrist_3_joint"
    ],
    "metrics": {
        "cart_traj_len": 1.8797489191266277,
        "distance_elbow_joint": 3.9061917744102184,
        "distance_shoulder_lift_joint": 0.6979015185395787,
        "distance_shoulder_pan_joint": 1.2402635806824198,
        "distance_wrist_1_joint": 1.4784744731737554,
        "distance_wrist_2_joint": 1.693338892874835,
        "distance_wrist_3_joint": 1.1024401210738148,
        "smoothness": 5.263279547268118e-16,
        "time": 0.07340339900000001,
        "traj_len": 3.1809763219418383,
        "weighted_distance": 3.936407495286894
    },
    "planner": "BiEST",
    "start": {
        "state": {
            "elbow_joint": -1.919643507792019,
            "shoulder_lift_joint": -0.07675430207160344,
            "shoulder_pan_joint": -1.1188671864651873,
            "wrist_1_joint": 0.42560062535961957,
            "wrist_2_joint": 1.5706038300724876,
            "wrist_3_joint": 1.1188968870953055
        }
    },
    "waypoints": [
        {
            "positions": [
                -1.1188671864651873,
                -0.07675430207160344,
                -1.919643507792019,
                0.42560062535961957,
                1.5706038300724876,
                1.1188968870953055
            ]
        },
        {
            "positions": [
                -1.071164741054325,
                -0.10359666816927955,
                -1.7694053626223953,
                0.4824650281739948,
                1.505475411115763,
                1.076495343977082
            ]
        },
        {
            "positions": [
                -1.0234622956434627,
                -0.13043903426695566,
                -1.6191672174527714,
                0.5393294309883699,
                1.4403469921590388,
                1.0340938008588583
            ]
        },
        {
            "positions": [
                -0.9757598502326004,
                -0.15728140036463176,
                -1.4689290722831476,
                0.5961938338027452,
                1.3752185732023143,
                0.9916922577406346
            ]
        },
        {
            "positions": [
                -0.9280574048217382,
                -0.18412376646230788,
                -1.3186909271135239,
                0.6530582366171204,
                1.3100901542455898,
                0.949290714622411
            ]
        },
        {
            "positions": [
                -0.8803549594108758,
                -0.21096613255998398,
                -1.1684527819439001,
                0.7099226394314957,
                1.2449617352888656,
                0.9068891715041874
            ]
        },
        {
            "positions": [
                -0.8326525140000135,
                -0.23780849865766007,
                -1.0182146367742764,
                0.7667870422458708,
                1.179833316332141,
                0.8644876283859637
            ]
        },
        {
            "positions": [
                -0.7849500685891513,
                -0.26465086475533617,
                -0.8679764916046526,
                0.823651445060246,
                1.1147048973754168,
                0.8220860852677401
            ]
        },
        {
            "positions": [
                -0.737247623178289,
                -0.29149323085301226,
                -0.7177383464350287,
                0.8805158478746212,
                1.0495764784186923,
                0.7796845421495163
            ]
        },
        {
            "positions": [
                -0.6895451777674266,
                -0.31833559695068836,
                -0.5675002012654051,
                0.9373802506889963,
                0.9844480594619678,
                0.7372829990312928
            ]
        },
        {
            "positions": [
                -0.6418427323565643,
                -0.3451779630483645,
                -0.41726205609578115,
                0.9942446535033718,
                0.9193196405052434,
                0.694881455913069
            ]
        },
        {
            "positions": [
                -0.5941402869457021,
                -0.3720203291460406,
                -0.2670239109261574,
                1.0511090563177468,
                0.854191221548519,
                0.6524799127948454
            ]
        },
        {
            "positions": [
                -0.5464378415348397,
                -0.3988626952437167,
                -0.11678576575653365,
                1.107973459132122,
                0.7890628025917945,
                0.6100783696766218
            ]
        },
        {
            "positions": [
                -0.49873539612397744,
                -0.4257050613413928,
                0.033452379413090094,
                1.1648378619464972,
                0.7239343836350701,
                0.5676768265583981
            ]
        },
        {
            "positions": [
                -0.4510329507131152,
                -0.4525474274390689,
                0.18369052458271384,
                1.2217022647608724,
                0.6588059646783457,
                0.5252752834401745
            ]
        },
        {
            "positions": [
                -0.4033305053022529,
                -0.479389793536745,
                0.3339286697523376,
                1.2785666675752476,
                0.5936775457216213,
                0.48287374032195085
            ]
        },
        {
            "positions": [
                -0.35562805989139046,
                -0.5062321596344211,
                0.4841668149219618,
                1.3354310703896228,
                0.5285491267648967,
                0.4404721972037271
            ]
        },
        {
            "positions": [
                -0.30792561448052824,
                -0.5330745257320972,
                0.6344049600915851,
                1.392295473203998,
                0.46342070780817246,
                0.3980706540855036
            ]
        },
        {
            "positions": [
                -0.2602231690696659,
                -0.5599168918297733,
                0.7846431052612088,
                1.4491598760183733,
                0.39829228885144796,
                0.35566911096727993
            ]
        },
        {
            "positions": [
                -0.2125207236588037,
                -0.5867592579274494,
                0.9348812504308326,
                1.5060242788327485,
                0.3331638698947237,
                0.3132675678490563
            ]
        },
        {
            "positions": [
                -0.16481827824794126,
                -0.6136016240251256,
                1.0851193956004568,
                1.562888681647124,
                0.2680354509379992,
                0.27086602473083254
            ]
        },
        {
            "positions": [
                -0.11711583283707894,
                -0.6404439901228016,
                1.2353575407700805,
                1.619753084461499,
                0.2029070319812747,
                0.2284644816126089
            ]
        },
        {
            "positions": [
                -0.06941338742621683,
                -0.6672863562204778,
                1.3855956859397043,
                1.6766174872758741,
                0.1377786130245504,
                0.18606293849438527
            ]
        },
        {
            "positions": [
                -0.021710942015354506,
                -0.6941287223181538,
                1.5358338311093276,
                1.7334818900902493,
                0.07265019406782591,
                0.14366139537616174
            ]
        },
        {
            "positions": [
                0.025991503395508042,
                -0.72097108841583,
                1.6860719762789518,
                1.7903462929046245,
                0.007521775111101414,
                0.10125985225793799
            ]
        },
        {
            "positions": [
                0.07369394880637015,
                -0.747813454513506,
                1.8363101214485755,
                1.8472106957189998,
                -0.057606643845623084,
                0.05885830913971435
            ]
        },
        {
            "positions": [
                0.12139639421723246,
                -0.7746558206111822,
                1.9865482666181995,
                1.904075098533375,
                -0.12273506280234733,
                0.016456766021490654
            ]
        }
    ]
}