{
    "goal": {
        "global_pose": {
            "orientation": {
                "w": 0.7031023502349854,
                "x": -0.7110244035720825,
                "y": 0.007748599164187908,
                "z": 0.005598929710686207
            },
            "position": {
                "x": 0.11585023208521307,
                "y": 0.44412534475326537,
                "z": 0.3711530566215515
            }
        },
        "name": "move_to_auspresseinheit_A"
    },
    "id": "BiEST_move_to_auspresseinheit_A_6",
    "joint_names": [
        "shoulder_pan_joint",
        "shoulder_lift_joint",
        "elbow_joint",
        "wrist_1_joint",
        "wrist_2_joint",
        "wrist_3_joint"
    ],
    "metrics": {
        "cart_traj_len": 1.827340323291593,
        "distance_elbow_joint": 2.793285875123153,
        "distance_shoulder_lift_joint": 0.5342128727626676,
        "distance_shoulder_pan_joint": 1.0438379151040218,
        "distance_wrist_1_joint": 3.123524384771451,
        "distance_wrist_2_joint": 3.39139335739281,
        "distance_wrist_3_joint": 3.657829943898321,
        "smoothness": 0.8114995353968782,
        "time": 0.119348781,
        "traj_len": 3.8136707184879537,
        "weighted_distance": 5.326787209849228
    },
    "planner": "BiEST",
    "start": {
        "state": {
            "elbow_joint": 2.422574709923281,
            "shoulder_lift_joint": -1.3736533754116391,
            "shoulder_pan_joint": -0.33786336945926293,
            "wrist_1_joint": -1.0288603412921917,
            "wrist_2_joint": 1.2330224858903978,
            "wrist_3_joint": -3.094022268022082
        }
    },
    "waypoints": [
        {
            "positions": [
                -0.33786336945926293,
                -1.3736533754116391,
                2.422574709923281,
                -1.0288603412921917,
                1.2330224858903978,
                -3.094022268022082
            ]
        },
        {
            "positions": [
                -0.3278539444064071,
                -1.3866329445450885,
                2.348294714353177,
                -0.9319739719848855,
                1.129751906326515,
                -2.998611910029104
            ]
        },
        {
            "positions": [
                -0.31784451935355124,
                -1.399612513678538,
                2.2740147187830733,
                -0.8350876026775793,
                1.0264813267626318,
                -2.903201552036126
            ]
        },
        {
            "positions": [
                -0.30783509430069533,
                -1.4125920828119873,
                2.1997347232129694,
                -0.7382012333702732,
                0.923210747198749,
                -2.807791194043148
            ]
        },
        {
            "positions": [
                -0.2978256692478395,
                -1.425571651945437,
                2.1254547276428655,
                -0.641314864062967,
                0.819940167634866,
                -2.71238083605017
            ]
        },
        {
            "positions": [
                -0.28781624419498364,
                -1.4385512210788862,
                2.0511747320727616,
                -0.5444284947556608,
                0.716669588070983,
                -2.616970478057192
            ]
        },
        {
            "positions": [
                -0.2778068191421278,
                -1.4515307902123356,
                1.9768947365026577,
                -0.4475421254483546,
                0.6133990085071,
                -2.5215601200642137
            ]
        },
        {
            "positions": [
                -0.26779739408927195,
                -1.464510359345785,
                1.9026147409325538,
                -0.3506557561410484,
                0.5101284289432171,
                -2.426149762071236
            ]
        },
        {
            "positions": [
                -0.2577879690364161,
                -1.4774899284792344,
                1.8283347453624499,
                -0.2537693868337423,
                0.4068578493793342,
                -2.330739404078258
            ]
        },
        {
            "positions": [
                -0.2477785439835602,
                -1.490469497612684,
                1.754054749792346,
                -0.15688301752643607,
                0.30358726981545126,
                -2.2353290460852797
            ]
        },
        {
            "positions": [
                -0.23776911893070435,
                -1.5034490667461333,
                1.679774754222242,
                -0.05999664821912987,
                0.20031669025156829,
                -2.1399186880923016
            ]
        },
        {
            "positions": [
                -0.22775969387784847,
                -1.5164286358795829,
                1.6054947586521382,
                0.03688972108817645,
                0.0970461106876852,
                -2.0445083300993234
            ]
        },
        {
            "positions": [
                -0.21775026882499263,
                -1.5294082050130322,
                1.5312147630820343,
                0.13377609039548255,
                -0.006224468876197653,
                -1.9490979721063455
            ]
        },
        {
            "positions": [
                -0.20774084377213675,
                -1.5423877741464818,
                1.4569347675119304,
                0.23066245970278887,
                -0.10949504844008073,
                -1.8536876141133674
            ]
        },
        {
            "positions": [
                -0.1977314187192809,
                -1.555367343279931,
                1.3826547719418265,
                0.32754882901009497,
                -0.2127656280039636,
                -1.7582772561203894
            ]
        },
        {
            "positions": [
                -0.18772199366642506,
                -1.5683469124133804,
                1.3083747763717226,
                0.42443519831740106,
                -0.31603620756784645,
                -1.6628668981274113
            ]
        },
        {
            "positions": [
                -0.1777125686135692,
                -1.58132648154683,
                1.2340947808016187,
                0.5213215676247072,
                -0.4193067871317293,
                -1.5674565401344334
            ]
        },
        {
            "positions": [
                -0.16770314356071334,
                -1.5943060506802793,
                1.1598147852315148,
                0.6182079369320135,
                -0.5225773666956124,
                -1.4720461821414552
            ]
        },
        {
            "positions": [
                -0.1576937185078575,
                -1.6072856198137289,
                1.085534789661411,
                0.7150943062393196,
                -0.6258479462594952,
                -1.3766358241484773
            ]
        },
        {
            "positions": [
                -0.14768429345500161,
                -1.6202651889471782,
                1.011254794091307,
                0.8119806755466259,
                -0.7291185258233784,
                -1.2812254661554991
            ]
        },
        {
            "positions": [
                -0.10758654907805343,
                -1.6352140229099077,
                1.093281873558584,
                0.7395450376976443,
                -0.6493263383531537,
                -1.3857044617320988
            ]
        },
        {
            "positions": [
                -0.06748880470110524,
                -1.6501628568726372,
                1.1753089530258611,
                0.6671093998486628,
                -0.5695341508829289,
                -1.4901834573086987
            ]
        },
        {
            "positions": [
                -0.027391060324157057,
                -1.665111690835367,
                1.2573360324931382,
                0.5946737619996814,
                -0.48974196341270415,
                -1.5946624528852984
            ]
        },
        {
            "positions": [
                0.012706684052791128,
                -1.6800605247980964,
                1.3393631119604152,
                0.5222381241506998,
                -0.4099497759424794,
                -1.6991414484618983
            ]
        },
        {
            "positions": [
                0.052804428429739314,
                -1.695009358760826,
                1.4213901914276923,
                0.44980248630171826,
                -0.3301575884722546,
                -1.803620444038498
            ]
        },
        {
            "positions": [
                0.0929021728066875,
                -1.7099581927235556,
                1.5034172708949693,
                0.37736684845273677,
                -0.25036540100202986,
                -1.9080994396150976
            ]
        },
        {
            "positions": [
                0.13299991718363569,
                -1.7249070266862851,
                1.5854443503622464,
                0.3049312106037553,
                -0.1705732135318051,
                -2.0125784351916973
            ]
        },
        {
            "positions": [
                0.17309766156058387,
                -1.7398558606490147,
                1.6674714298295235,
                0.23249557275477373,
                -0.09078102606158034,
                -2.1170574307682974
            ]
        },
        {
            "positions": [
                0.21319540593753206,
                -1.7548046946117442,
                1.7494985092968005,
                0.16005993490579218,
                -0.010988838591355576,
                -2.221536426344897
            ]
        },
        {
            "positions": [
                0.25329315031448024,
                -1.7697535285744737,
                1.8315255887640776,
                0.08762429705681063,
                0.06880334887886919,
                -2.326015421921497
            ]
        },
        {
            "positions": [
                0.2933908946914284,
                -1.7847023625372034,
                1.9135526682313546,
                0.015188659207829192,
                0.14859553634909395,
                -2.4304944174980965
            ]
        },
        {
            "positions": [
                0.3334886390683766,
                -1.7996511964999329,
                1.9955797476986317,
                -0.05724697864115236,
                0.2283877238193187,
                -2.534973413074696
            ]
        },
        {
            "positions": [
                0.37358638344532474,
                -1.8146000304626624,
                2.0776068271659085,
                -0.1296826164901339,
                0.3081799112895435,
                -2.6394524086512963
            ]
        },
        {
            "positions": [
                0.413684127822273,
                -1.829548864425392,
                2.1596339066331858,
                -0.20211825433911534,
                0.38797209875976824,
                -2.7439314042278955
            ]
        },
        {
            "positions": [
                0.4537818721992212,
                -1.8444976983881216,
                2.241660986100463,
                -0.274553892188097,
                0.467764286229993,
                -2.8484103998044956
            ]
        },
        {
            "positions": [
                0.49387961657616936,
                -1.8594465323508511,
                2.32368806556774,
                -0.34698953003707844,
                0.5475564737002179,
                -2.9528893953810953
            ]
        },
        {
            "positions": [
                0.5999270811104641,
                -1.883656390262579,
                2.3584544094751125,
                -0.40884611121154246,
                0.6238451467779378,
                -3.039574001784166
            ]
        },
        {
            "positions": [
                0.7059745456447588,
                -1.9078662481743067,
                2.3932207533824856,
                -0.4707026923860065,
                0.7001338198556578,
                -3.126258608187237
            ]
        }
    ]
}