{
    "goal": {
        "global_pose": {
            "orientation": {
                "w": 0.5084816217422485,
                "x": -0.49083608388900757,
                "y": 0.5182115435600281,
                "z": -0.4816462993621826
            },
            "position": {
                "x": 0.5540239810943604,
                "y": 0.030875300988554955,
                "z": 0.16403168439865112
            }
        },
        "name": "move_to_storage_A"
    },
    "id": "BiEST_move_to_storage_A_98",
    "joint_names": [
        "shoulder_pan_joint",
        "shoulder_lift_joint",
        "elbow_joint",
        "wrist_1_joint",
        "wrist_2_joint",
        "wrist_3_joint"
    ],
    "metrics": {
        "cart_traj_len": 0.3522342498205143,
        "distance_elbow_joint": 0.44949765605081193,
        "distance_shoulder_lift_joint": 0.23469321919081154,
        "distance_shoulder_pan_joint": 0.4610653493775514,
        "distance_wrist_1_joint": 0.2424506615472265,
        "distance_wrist_2_joint": 1.0950961676164694,
        "distance_wrist_3_joint": 0.103769505891528,
        "smoothness": 1.3322676295501878e-15,
        "time": 0.058787711,
        "traj_len": 1.6082824875233823,
        "weighted_distance": 2.0326481251365545
    },
    "planner": "BiEST",
    "start": {
        "state": {
            "elbow_joint": 1.9715463870305268,
            "shoulder_lift_joint": -1.1394903361783484,
            "shoulder_pan_joint": 0.12281147578464417,
            "wrist_1_joint": -0.7804599489681411,
            "wrist_2_joint": 0.12958660307563738,
            "wrist_3_joint": -3.1924946282119055
        }
    },
    "waypoints": [
        {
            "positions": [
                0.12281147578464417,
                -1.1394903361783484,
                1.9715463870305268,
                -0.7804599489681411,
                0.12958660307563738,
                -3.1924946282119055
            ]
        },
        {
            "positions": [
                0.05694499730213684,
                -1.173017938919893,
                2.0357603378949283,
                -0.8150957577606021,
                0.286028912735133,
                -3.1776704130845443
            ]
        },
        {
            "positions": [
                -0.008921481180370491,
                -1.2065455416614375,
                2.0999742887593302,
                -0.8497315665530629,
                0.44247122239462866,
                -3.162846197957183
            ]
        },
        {
            "positions": [
                -0.07478795966287784,
                -1.240073144402982,
                2.1641882396237317,
                -0.8843673753455239,
                0.5989135320541242,
                -3.148021982829822
            ]
        },
        {
            "positions": [
                -0.14065443814538514,
                -1.2736007471445263,
                2.2284021904881337,
                -0.9190031841379848,
                0.7553558417136199,
                -3.133197767702461
            ]
        },
        {
            "positions": [
                -0.20652091662789251,
                -1.3071283498860709,
                2.292616141352535,
                -0.9536389929304457,
                0.9117981513731156,
                -3.1183735525751
            ]
        },
        {
            "positions": [
                -0.27238739511039983,
                -1.3406559526276154,
                2.3568300922169367,
                -0.9882748017229066,
                1.068240461032611,
                -3.1035493374477388
            ]
        },
        {
            "positions": [
                -0.3382538735929072,
                -1.37418355536916,
                2.4210440430813387,
                -1.0229106105153676,
                1.2246827706921068,
                -3.0887251223203775
            ]
        }
    ]
}