{
    "goal": {
        "global_pose": {
            "orientation": {
                "w": 0.5084816217422485,
                "x": -0.49083608388900757,
                "y": 0.5182115435600281,
                "z": -0.4816462993621826
            },
            "position": {
                "x": 0.5540239810943604,
                "y": 0.030875300988554955,
                "z": 0.16403168439865112
            }
        },
        "name": "move_to_storage_A"
    },
    "id": "BiEST_move_to_storage_A_75",
    "joint_names": [
        "shoulder_pan_joint",
        "shoulder_lift_joint",
        "elbow_joint",
        "wrist_1_joint",
        "wrist_2_joint",
        "wrist_3_joint"
    ],
    "metrics": {
        "cart_traj_len": 0.3537135027307957,
        "distance_elbow_joint": 0.4522806114393694,
        "distance_shoulder_lift_joint": 0.233476593461317,
        "distance_shoulder_pan_joint": 0.463942411747828,
        "distance_wrist_1_joint": 0.2561540337816858,
        "distance_wrist_2_joint": 1.093461307277437,
        "distance_wrist_3_joint": 0.10530107682778533,
        "smoothness": 6.661338165333112e-16,
        "time": 0.045218979000000006,
        "traj_len": 1.6138822864556828,
        "weighted_distance": 2.040792377791067
    },
    "planner": "BiEST",
    "start": {
        "state": {
            "elbow_joint": 1.9715463870305268,
            "shoulder_lift_joint": -1.1394903361783484,
            "shoulder_pan_joint": 0.12281147578464417,
            "wrist_1_joint": -0.7804599489681411,
            "wrist_2_joint": 0.12958660307563738,
            "wrist_3_joint": -3.1924946282119055
        }
    },
    "waypoints": [
        {
            "positions": [
                0.12281147578464417,
                -1.1394903361783484,
                1.9715463870305268,
                -0.7804599489681411,
                0.12958660307563738,
                -3.1924946282119055
            ]
        },
        {
            "positions": [
                0.05653398839209732,
                -1.172844135244251,
                2.036157902950437,
                -0.8170533823655247,
                0.2857953612581284,
                -3.1774516172365077
            ]
        },
        {
            "positions": [
                -0.009743499000449532,
                -1.2061979343101532,
                2.1007694188703465,
                -0.8536468157629085,
                0.44200411944061935,
                -3.16240860626111
            ]
        },
        {
            "positions": [
                -0.07602098639299638,
                -1.2395517333760557,
                2.1653809347902566,
                -0.8902402491602921,
                0.5982128776231104,
                -3.147365595285712
            ]
        },
        {
            "positions": [
                -0.14229847378554322,
                -1.272905532441958,
                2.2299924507101663,
                -0.9268336825576758,
                0.7544216358056014,
                -3.1323225843103137
            ]
        },
        {
            "positions": [
                -0.20857596117809013,
                -1.3062593315078606,
                2.2946039666300764,
                -0.9634271159550595,
                0.9106303939880924,
                -3.117279573334916
            ]
        },
        {
            "positions": [
                -0.2748534485706369,
                -1.3396131305737629,
                2.359215482549986,
                -1.0000205493524432,
                1.0668391521705833,
                -3.102236562359518
            ]
        },
        {
            "positions": [
                -0.34113093596318383,
                -1.3729669296396654,
                2.423826998469896,
                -1.0366139827498269,
                1.2230479103530745,
                -3.08719355138412
            ]
        }
    ]
}