{
    "goal": {
        "global_pose": {
            "orientation": {
                "w": 0.5084816217422485,
                "x": -0.49083608388900757,
                "y": 0.5182115435600281,
                "z": -0.4816462993621826
            },
            "position": {
                "x": 0.5540239810943604,
                "y": 0.030875300988554955,
                "z": 0.16403168439865112
            }
        },
        "name": "move_to_storage_A"
    },
    "id": "BiEST_move_to_storage_A_95",
    "joint_names": [
        "shoulder_pan_joint",
        "shoulder_lift_joint",
        "elbow_joint",
        "wrist_1_joint",
        "wrist_2_joint",
        "wrist_3_joint"
    ],
    "metrics": {
        "cart_traj_len": 0.3539351138387838,
        "distance_elbow_joint": 0.4524898722844588,
        "distance_shoulder_lift_joint": 0.2329717056220726,
        "distance_shoulder_pan_joint": 0.4606521379593154,
        "distance_wrist_1_joint": 0.2544874842522723,
        "distance_wrist_2_joint": 1.1094446596149754,
        "distance_wrist_3_joint": 0.09852350338066662,
        "smoothness": 4.440892098500626e-16,
        "time": 0.044728157000000004,
        "traj_len": 1.6151066104482892,
        "weighted_distance": 2.0419472357880215
    },
    "planner": "BiEST",
    "start": {
        "state": {
            "elbow_joint": 1.9715463870305268,
            "shoulder_lift_joint": -1.1394903361783484,
            "shoulder_pan_joint": 0.12281147578464417,
            "wrist_1_joint": -0.7804599489681411,
            "wrist_2_joint": 0.12958660307563738,
            "wrist_3_joint": -3.1924946282119055
        }
    },
    "waypoints": [
        {
            "positions": [
                0.12281147578464417,
                -1.1394903361783484,
                1.9715463870305268,
                -0.7804599489681411,
                0.12958660307563738,
                -3.1924946282119055
            ]
        },
        {
            "positions": [
                0.05700402750474197,
                -1.172772008410073,
                2.036187797356878,
                -0.8168153038613228,
                0.28807869730634816,
                -3.1784198420146677
            ]
        },
        {
            "positions": [
                -0.008803420775160234,
                -1.2060536806417976,
                2.1008292076832293,
                -0.8531706587545046,
                0.4465707915370589,
                -3.1643450558174293
            ]
        },
        {
            "positions": [
                -0.07461086905506244,
                -1.2393353528735223,
                2.1654706180095804,
                -0.8895260136476864,
                0.6050628857677697,
                -3.1502702696201914
            ]
        },
        {
            "positions": [
                -0.14041831733496463,
                -1.272617025105247,
                2.230112028335932,
                -0.9258813685408681,
                0.7635549799984804,
                -3.136195483422953
            ]
        },
        {
            "positions": [
                -0.20622576561486683,
                -1.3058986973369717,
                2.294753438662283,
                -0.9622367234340499,
                0.9220470742291913,
                -3.122120697225715
            ]
        },
        {
            "positions": [
                -0.27203321389476903,
                -1.3391803695686963,
                2.359394848988634,
                -0.9985920783272316,
                1.080539168459902,
                -3.108045911028477
            ]
        },
        {
            "positions": [
                -0.33784066217467124,
                -1.372462041800421,
                2.4240362593149856,
                -1.0349474332204134,
                1.2390312626906128,
                -3.093971124831239
            ]
        }
    ]
}