{
    "goal": {
        "global_pose": {
            "orientation": {
                "w": 0.7031023502349854,
                "x": -0.7110244035720825,
                "y": 0.007748599164187908,
                "z": 0.005598929710686207
            },
            "position": {
                "x": 0.11585023208521307,
                "y": 0.44412534475326537,
                "z": 0.3711530566215515
            }
        },
        "name": "move_to_auspresseinheit_A"
    },
    "id": "BiEST_move_to_auspresseinheit_A_40",
    "joint_names": [
        "shoulder_pan_joint",
        "shoulder_lift_joint",
        "elbow_joint",
        "wrist_1_joint",
        "wrist_2_joint",
        "wrist_3_joint"
    ],
    "metrics": {
        "cart_traj_len": 4.402111392487344,
        "distance_elbow_joint": 5.804421400996812,
        "distance_shoulder_lift_joint": 0.5590831070706561,
        "distance_shoulder_pan_joint": 1.787582880826042,
        "distance_wrist_1_joint": 2.0837713851765893,
        "distance_wrist_2_joint": 2.6859941136752443,
        "distance_wrist_3_joint": 4.593229999362418,
        "smoothness": 0.7382020438207365,
        "time": 0.118012831,
        "traj_len": 4.184983021125386,
        "weighted_distance": 5.60984031721799
    },
    "planner": "BiEST",
    "start": {
        "state": {
            "elbow_joint": 2.422574709923281,
            "shoulder_lift_joint": -1.3736533754116391,
            "shoulder_pan_joint": -0.33786336945926293,
            "wrist_1_joint": -1.0288603412921917,
            "wrist_2_joint": 1.2330224858903978,
            "wrist_3_joint": -3.094022268022082
        }
    },
    "waypoints": [
        {
            "positions": [
                -0.33786336945926293,
                -1.3736533754116391,
                2.422574709923281,
                -1.0288603412921917,
                1.2330224858903978,
                -3.094022268022082
            ]
        },
        {
            "positions": [
                -0.35647266914988535,
                -1.3850114034478496,
                2.27666113362491,
                -1.0650580253448603,
                1.2870365546411855,
                -2.9802624984105632
            ]
        },
        {
            "positions": [
                -0.37508196884050776,
                -1.39636943148406,
                2.130747557326539,
                -1.1012557093975286,
                1.3410506233919732,
                -2.8665027287990443
            ]
        },
        {
            "positions": [
                -0.3936912685311301,
                -1.4077274595202705,
                1.984833981028168,
                -1.1374533934501971,
                1.3950646921427607,
                -2.7527429591875254
            ]
        },
        {
            "positions": [
                -0.41230056822175254,
                -1.419085487556481,
                1.8389204047297971,
                -1.1736510775028657,
                1.4490787608935485,
                -2.6389831895760065
            ]
        },
        {
            "positions": [
                -0.43090986791237496,
                -1.4304435155926913,
                1.6930068284314261,
                -1.2098487615555342,
                1.5030928296443362,
                -2.5252234199644876
            ]
        },
        {
            "positions": [
                -0.44951916760299737,
                -1.4418015436289018,
                1.5470932521330552,
                -1.2460464456082025,
                1.557106898395124,
                -2.4114636503529687
            ]
        },
        {
            "positions": [
                -0.4681284672936198,
                -1.4531595716651122,
                1.4011796758346842,
                -1.282244129660871,
                1.6111209671459115,
                -2.29770388074145
            ]
        },
        {
            "positions": [
                -0.4867377669842422,
                -1.4645175997013227,
                1.255266099536313,
                -1.3184418137135396,
                1.6651350358966992,
                -2.183944111129931
            ]
        },
        {
            "positions": [
                -0.5053470666748646,
                -1.4758756277375331,
                1.109352523237942,
                -1.354639497766208,
                1.719149104647487,
                -2.070184341518412
            ]
        },
        {
            "positions": [
                -0.523956366365487,
                -1.4872336557737436,
                0.963438946939571,
                -1.3908371818188765,
                1.7731631733982747,
                -1.9564245719068931
            ]
        },
        {
            "positions": [
                -0.5425656660561095,
                -1.498591683809954,
                0.8175253706411998,
                -1.427034865871545,
                1.8271772421490624,
                -1.8426648022953742
            ]
        },
        {
            "positions": [
                -0.5611749657467318,
                -1.5099497118461644,
                0.671611794342829,
                -1.4632325499242134,
                1.8811913108998501,
                -1.7289050326838553
            ]
        },
        {
            "positions": [
                -0.5797842654373542,
                -1.5213077398823749,
                0.5256982180444578,
                -1.499430233976882,
                1.9352053796506379,
                -1.6151452630723364
            ]
        },
        {
            "positions": [
                -0.5983935651279766,
                -1.5326657679185853,
                0.3797846417460873,
                -1.5356279180295505,
                1.9892194484014254,
                -1.5013854934608175
            ]
        },
        {
            "positions": [
                -0.617002864818599,
                -1.5440237959547958,
                0.23387106544771585,
                -1.5718256020822188,
                2.0432335171522134,
                -1.3876257238492986
            ]
        },
        {
            "positions": [
                -0.6356121645092214,
                -1.5553818239910062,
                0.08795748914934487,
                -1.6080232861348875,
                2.097247585903001,
                -1.2738659542377797
            ]
        },
        {
            "positions": [
                -0.6542214641998438,
                -1.5667398520272167,
                -0.057956087149026114,
                -1.6442209701875559,
                2.1512616546537884,
                -1.1601061846262608
            ]
        },
        {
            "positions": [
                -0.6728307638904663,
                -1.578097880063427,
                -0.2038696634473971,
                -1.6804186542402242,
                2.205275723404576,
                -1.046346415014742
            ]
        },
        {
            "positions": [
                -0.6914400635810887,
                -1.5894559080996375,
                -0.3497832397457681,
                -1.7166163382928927,
                2.259289792155364,
                -0.932586645403223
            ]
        },
        {
            "positions": [
                -0.7100493632717111,
                -1.600813936135848,
                -0.49569681604413907,
                -1.7528140223455613,
                2.3133038609061516,
                -0.8188268757917041
            ]
        },
        {
            "positions": [
                -0.6558909068442358,
                -1.6135369060871405,
                -0.38076085306475127,
                -1.6997110084652347,
                2.2503069981900627,
                -0.9046841358605634
            ]
        },
        {
            "positions": [
                -0.6017324504167605,
                -1.626259876038433,
                -0.2658248900853635,
                -1.6466079945849081,
                2.187310135473974,
                -0.9905413959294226
            ]
        },
        {
            "positions": [
                -0.5475739939892851,
                -1.6389828459897255,
                -0.15088892710597573,
                -1.5935049807045818,
                2.1243132727578855,
                -1.0763986559982819
            ]
        },
        {
            "positions": [
                -0.4934155375618098,
                -1.651705815941018,
                -0.03595296412658794,
                -1.5404019668242552,
                2.0613164100417967,
                -1.162255916067141
            ]
        },
        {
            "positions": [
                -0.4392570811343344,
                -1.6644287858923104,
                0.0789829988527998,
                -1.4872989529439287,
                1.9983195473257078,
                -1.2481131761360005
            ]
        },
        {
            "positions": [
                -0.3850986247068591,
                -1.6771517558436029,
                0.1939189618321876,
                -1.434195939063602,
                1.935322684609619,
                -1.3339704362048597
            ]
        },
        {
            "positions": [
                -0.3309401682793838,
                -1.6898747257948954,
                0.3088549248115755,
                -1.3810929251832755,
                1.8723258218935301,
                -1.4198276962737189
            ]
        },
        {
            "positions": [
                -0.2767817118519085,
                -1.702597695746188,
                0.4237908877909632,
                -1.3279899113029492,
                1.8093289591774415,
                -1.505684956342578
            ]
        },
        {
            "positions": [
                -0.22262325542443318,
                -1.7153206656974804,
                0.5387268507703509,
                -1.2748868974226226,
                1.746332096461353,
                -1.5915422164114374
            ]
        },
        {
            "positions": [
                -0.16846479899695777,
                -1.728043635648773,
                0.6536628137497387,
                -1.221783883542296,
                1.683335233745264,
                -1.6773994764802969
            ]
        },
        {
            "positions": [
                -0.11430634256948247,
                -1.7407666056000655,
                0.7685987767291265,
                -1.1686808696619695,
                1.6203383710291752,
                -1.763256736549156
            ]
        },
        {
            "positions": [
                -0.06014788614200717,
                -1.7534895755513578,
                0.8835347397085143,
                -1.115577855781643,
                1.5573415083130866,
                -1.8491139966180152
            ]
        },
        {
            "positions": [
                -0.005989429714531869,
                -1.7662125455026505,
                0.9984707026879021,
                -1.0624748419013166,
                1.4943446455969978,
                -1.9349712566868744
            ]
        },
        {
            "positions": [
                0.04816902671294354,
                -1.7789355154539428,
                1.11340666566729,
                -1.0093718280209898,
                1.431347782880909,
                -2.020828516755734
            ]
        },
        {
            "positions": [
                0.10232748314041873,
                -1.7916584854052353,
                1.2283426286466776,
                -0.9562688141406634,
                1.3683509201648203,
                -2.106685776824593
            ]
        },
        {
            "positions": [
                0.15648593956789414,
                -1.8043814553565278,
                1.3432785916260654,
                -0.9031658002603369,
                1.3053540574487315,
                -2.1925430368934524
            ]
        },
        {
            "positions": [
                0.21064439599536955,
                -1.8171044253078203,
                1.4582145546054532,
                -0.8500627863800103,
                1.2423571947326426,
                -2.2784002969623116
            ]
        },
        {
            "positions": [
                0.26480285242284474,
                -1.8298273952591129,
                1.5731505175848408,
                -0.796959772499684,
                1.179360332016554,
                -2.364257557031171
            ]
        },
        {
            "positions": [
                0.31896130885032004,
                -1.8425503652104054,
                1.6880864805642286,
                -0.7438567586193574,
                1.1163634693004654,
                -2.45011481710003
            ]
        },
        {
            "positions": [
                0.37311976527779556,
                -1.855273335161698,
                1.8030224435436164,
                -0.6907537447390308,
                1.0533666065843765,
                -2.535972077168889
            ]
        },
        {
            "positions": [
                0.42727822170527063,
                -1.8679963051129902,
                1.9179584065230042,
                -0.6376507308587043,
                0.9903697438682879,
                -2.6218293372377484
            ]
        },
        {
            "positions": [
                0.48143667813274615,
                -1.8807192750642827,
                2.032894369502392,
                -0.5845477169783777,
                0.9273728811521991,
                -2.7076865973066075
            ]
        },
        {
            "positions": [
                0.5355951345602215,
                -1.8934422450155752,
                2.14783033248178,
                -0.5314447030980511,
                0.8643760184361102,
                -2.793543857375467
            ]
        },
        {
            "positions": [
                0.5897535909876968,
                -1.9061652149668677,
                2.2627662954611676,
                -0.4783416892177248,
                0.8013791557200216,
                -2.8794011174443264
            ]
        },
        {
            "positions": [
                0.643912047415172,
                -1.9188881849181603,
                2.3777022584405554,
                -0.4252386753373983,
                0.7383822930039328,
                -2.9652583775131856
            ]
        },
        {
            "positions": [
                0.7053475237418831,
                -1.9050398873540253,
                2.3904530589852526,
                -0.4574810324524549,
                0.7075911222466618,
                -3.136861482923743
            ]
        }
    ]
}