{
    "goal": {
        "global_pose": {
            "orientation": {
                "w": 0.7047431468963623,
                "x": -0.7094548344612122,
                "y": 0.0024358443915843964,
                "z": -0.0022348060738295317
            },
            "position": {
                "x": 0.6094750761985779,
                "y": 0.3671506643295288,
                "z": 0.19426114857196808
            }
        },
        "name": "move_to_magneteinheit_A"
    },
    "id": "BiEST_move_to_magneteinheit_A_123",
    "joint_names": [
        "shoulder_pan_joint",
        "shoulder_lift_joint",
        "elbow_joint",
        "wrist_1_joint",
        "wrist_2_joint",
        "wrist_3_joint"
    ],
    "metrics": {
        "cart_traj_len": 1.8710548638863775,
        "distance_elbow_joint": 3.9329169090388767,
        "distance_shoulder_lift_joint": 0.7079346726775543,
        "distance_shoulder_pan_joint": 1.2406247117823122,
        "distance_wrist_1_joint": 1.560884031805615,
        "distance_wrist_2_joint": 1.700304749280416,
        "distance_wrist_3_joint": 1.1950073622309627,
        "smoothness": 3.1720657918664137e-16,
        "time": 0.068420395,
        "traj_len": 3.215225098934091,
        "weighted_distance": 3.9986092510226214
    },
    "planner": "BiEST",
    "start": {
        "state": {
            "elbow_joint": -1.919643507792019,
            "shoulder_lift_joint": -0.07675430207160344,
            "shoulder_pan_joint": -1.1188671864651873,
            "wrist_1_joint": 0.42560062535961957,
            "wrist_2_joint": 1.5706038300724876,
            "wrist_3_joint": 1.1188968870953055
        }
    },
    "waypoints": [
        {
            "positions": [
                -1.1188671864651873,
                -0.07675430207160344,
                -1.919643507792019,
                0.42560062535961957,
                1.5706038300724876,
                1.1188968870953055
            ]
        },
        {
            "positions": [
                -1.0729181230658424,
                -0.10297410476336472,
                -1.773979918568357,
                0.4834111450561238,
                1.5076295800991388,
                1.0746373551608255
            ]
        },
        {
            "positions": [
                -1.0269690596664975,
                -0.129193907455126,
                -1.628316329344695,
                0.5412216647526281,
                1.44465533012579,
                1.0303778232263454
            ]
        },
        {
            "positions": [
                -0.9810199962671526,
                -0.15541371014688726,
                -1.4826527401210328,
                0.5990321844491323,
                1.3816810801524415,
                0.9861182912918652
            ]
        },
        {
            "positions": [
                -0.9350709328678077,
                -0.18163351283864854,
                -1.3369891508973706,
                0.6568427041456366,
                1.3187068301790927,
                0.9418587593573852
            ]
        },
        {
            "positions": [
                -0.8891218694684628,
                -0.2078533155304098,
                -1.1913255616737086,
                0.7146532238421408,
                1.255732580205744,
                0.8975992274229051
            ]
        },
        {
            "positions": [
                -0.8431728060691179,
                -0.23407311822217108,
                -1.0456619724500467,
                0.7724637435386451,
                1.1927583302323952,
                0.8533396954884249
            ]
        },
        {
            "positions": [
                -0.797223742669773,
                -0.26029292091393236,
                -0.8999983832263845,
                0.8302742632351494,
                1.1297840802590464,
                0.8090801635539449
            ]
        },
        {
            "positions": [
                -0.7512746792704282,
                -0.28651272360569363,
                -0.7543347940027223,
                0.8880847829316536,
                1.0668098302856976,
                0.7648206316194648
            ]
        },
        {
            "positions": [
                -0.7053256158710833,
                -0.3127325262974549,
                -0.6086712047790603,
                0.9458953026281578,
                1.0038355803123489,
                0.7205610996849847
            ]
        },
        {
            "positions": [
                -0.6593765524717384,
                -0.3389523289892162,
                -0.46300761555539816,
                1.0037058223246622,
                0.9408613303390002,
                0.6763015677505047
            ]
        },
        {
            "positions": [
                -0.6134274890723935,
                -0.36517213168097745,
                -0.317344026331736,
                1.0615163420211664,
                0.8778870803656516,
                0.6320420358160245
            ]
        },
        {
            "positions": [
                -0.5674784256730486,
                -0.3913919343727387,
                -0.171680437108074,
                1.1193268617176706,
                0.8149128303923028,
                0.5877825038815444
            ]
        },
        {
            "positions": [
                -0.5215293622737037,
                -0.4176117370645,
                -0.02601684788441183,
                1.1771373814141748,
                0.751938580418954,
                0.5435229719470642
            ]
        },
        {
            "positions": [
                -0.4755802988743588,
                -0.4438315397562613,
                0.11964674133925013,
                1.2349479011106792,
                0.6889643304456053,
                0.49926344001258416
            ]
        },
        {
            "positions": [
                -0.4296312354750139,
                -0.47005134244802255,
                0.2653103305629123,
                1.2927584208071834,
                0.6259900804722565,
                0.455003908078104
            ]
        },
        {
            "positions": [
                -0.3836821720756691,
                -0.4962711451397838,
                0.4109739197865745,
                1.3505689405036876,
                0.5630158304989079,
                0.410744376143624
            ]
        },
        {
            "positions": [
                -0.3377331086763241,
                -0.5224909478315451,
                0.5566375090102367,
                1.408379460200192,
                0.5000415805255589,
                0.36648484420914385
            ]
        },
        {
            "positions": [
                -0.2917840452769793,
                -0.5487107505233064,
                0.7023010982338984,
                1.4661899798966962,
                0.43706733055221036,
                0.3222253122746638
            ]
        },
        {
            "positions": [
                -0.2458349818776343,
                -0.5749305532150677,
                0.847964687457561,
                1.5240004995932006,
                0.3740930805788616,
                0.2779657803401836
            ]
        },
        {
            "positions": [
                -0.19988591847828951,
                -0.601150355906829,
                0.9936282766812228,
                1.5818110192897048,
                0.3111188306055128,
                0.23370624840570364
            ]
        },
        {
            "positions": [
                -0.1539368550789445,
                -0.6273701585985902,
                1.139291865904885,
                1.639621538986209,
                0.24814458063216405,
                0.18944671647122346
            ]
        },
        {
            "positions": [
                -0.10798779167959971,
                -0.6535899612903515,
                1.2849554551285471,
                1.6974320586827132,
                0.1851703306588155,
                0.1451871845367434
            ]
        },
        {
            "positions": [
                -0.06203872828025481,
                -0.6798097639821128,
                1.4306190443522093,
                1.7552425783792176,
                0.1221960806854665,
                0.10092765260226333
            ]
        },
        {
            "positions": [
                -0.016089664880909904,
                -0.7060295666738741,
                1.576282633575871,
                1.8130530980757218,
                0.05922183071211795,
                0.05666812066778326
            ]
        },
        {
            "positions": [
                0.029859398518435,
                -0.7322493693656353,
                1.7219462227995332,
                1.870863617772226,
                -0.0037524192612308216,
                0.012408588733302972
            ]
        },
        {
            "positions": [
                0.0758084619177799,
                -0.7584691720573966,
                1.8676098120231954,
                1.9286741374687302,
                -0.0667266692345796,
                -0.031850943201177095
            ]
        },
        {
            "positions": [
                0.12175752531712475,
                -0.7846889747491578,
                2.013273401246858,
                1.9864846571652346,
                -0.1297009192079284,
                -0.07611047513565725
            ]
        }
    ]
}