{
    "goal": {
        "global_pose": {
            "orientation": {
                "w": 0.7047431468963623,
                "x": -0.7094548344612122,
                "y": 0.0024358443915843964,
                "z": -0.0022348060738295317
            },
            "position": {
                "x": 0.6094750761985779,
                "y": 0.3671506643295288,
                "z": 0.19426114857196808
            }
        },
        "name": "move_to_magneteinheit_A"
    },
    "id": "BiEST_move_to_magneteinheit_A_39",
    "joint_names": [
        "shoulder_pan_joint",
        "shoulder_lift_joint",
        "elbow_joint",
        "wrist_1_joint",
        "wrist_2_joint",
        "wrist_3_joint"
    ],
    "metrics": {
        "cart_traj_len": 2.0707127847283364,
        "distance_elbow_joint": 3.900681660149253,
        "distance_shoulder_lift_joint": 1.0673981731223228,
        "distance_shoulder_pan_joint": 1.242407324393473,
        "distance_wrist_1_joint": 1.2590593227744482,
        "distance_wrist_2_joint": 1.4470101023207425,
        "distance_wrist_3_joint": 2.0150261278799038,
        "smoothness": 3.9814894905092866e-16,
        "time": 0.116507501,
        "traj_len": 3.3062944077380867,
        "weighted_distance": 4.203296847891562
    },
    "planner": "BiEST",
    "start": {
        "state": {
            "elbow_joint": -1.919643507792019,
            "shoulder_lift_joint": -0.07675430207160344,
            "shoulder_pan_joint": -1.1188671864651873,
            "wrist_1_joint": 0.42560062535961957,
            "wrist_2_joint": 1.5706038300724876,
            "wrist_3_joint": 1.1188968870953055
        }
    },
    "waypoints": [
        {
            "positions": [
                -1.1188671864651873,
                -0.07675430207160344,
                -1.919643507792019,
                0.42560062535961957,
                1.5706038300724876,
                1.1188968870953055
            ]
        },
        {
            "positions": [
                -1.0744954963082776,
                -0.11487566539740068,
                -1.7803334485009743,
                0.38063422097481786,
                1.518924897846747,
                1.1908621059481592
            ]
        },
        {
            "positions": [
                -1.0301238061513678,
                -0.15299702872319793,
                -1.6410233892099295,
                0.3356678165900161,
                1.467245965621006,
                1.262827324801013
            ]
        },
        {
            "positions": [
                -0.9857521159944581,
                -0.19111839204899517,
                -1.5017133299188847,
                0.2907014122052144,
                1.4155670333952652,
                1.3347925436538666
            ]
        },
        {
            "positions": [
                -0.9413804258375483,
                -0.2292397553747924,
                -1.3624032706278402,
                0.2457350078204127,
                1.3638881011695245,
                1.4067577625067202
            ]
        },
        {
            "positions": [
                -0.8970087356806387,
                -0.26736111870058965,
                -1.2230932113367952,
                0.20076860343561095,
                1.3122091689437836,
                1.4787229813595741
            ]
        },
        {
            "positions": [
                -0.8526370455237289,
                -0.3054824820263869,
                -1.0837831520457506,
                0.15580219905080928,
                1.2605302367180429,
                1.5506882002124278
            ]
        },
        {
            "positions": [
                -0.8082653553668191,
                -0.34360384535218413,
                -0.9444730927547058,
                0.11083579466600751,
                1.208851304492302,
                1.6226534190652815
            ]
        },
        {
            "positions": [
                -0.7638936652099093,
                -0.3817252086779814,
                -0.805163033463661,
                0.06586939028120581,
                1.1571723722665612,
                1.6946186379181352
            ]
        },
        {
            "positions": [
                -0.7195219750529995,
                -0.4198465720037786,
                -0.6658529741726162,
                0.020902985896404047,
                1.1054934400408203,
                1.766583856770989
            ]
        },
        {
            "positions": [
                -0.6751502848960899,
                -0.45796793532957586,
                -0.5265429148815715,
                -0.02406341848839766,
                1.0538145078150796,
                1.8385490756238427
            ]
        },
        {
            "positions": [
                -0.6307785947391801,
                -0.4960892986553731,
                -0.3872328555905269,
                -0.06902982287319936,
                1.0021355755893389,
                1.9105142944766964
            ]
        },
        {
            "positions": [
                -0.5864069045822704,
                -0.5342106619811704,
                -0.2479227962994821,
                -0.11399622725800101,
                0.950456643363598,
                1.98247951332955
            ]
        },
        {
            "positions": [
                -0.5420352144253606,
                -0.5723320253069676,
                -0.10861273700843732,
                -0.15896263164280283,
                0.8987777111378572,
                2.0544447321824038
            ]
        },
        {
            "positions": [
                -0.49766352426845084,
                -0.6104533886327648,
                0.030697322282607464,
                -0.20392903602760454,
                0.8470987789121164,
                2.1264099510352574
            ]
        },
        {
            "positions": [
                -0.45329183411154106,
                -0.6485747519585621,
                0.17000738157365203,
                -0.24889544041240624,
                0.7954198466863756,
                2.198375169888111
            ]
        },
        {
            "positions": [
                -0.4089201439546314,
                -0.6866961152843594,
                0.30931744086469704,
                -0.29386184479720795,
                0.7437409144606348,
                2.2703403887409648
            ]
        },
        {
            "positions": [
                -0.3645484537977216,
                -0.7248174786101564,
                0.4486275001557416,
                -0.33882824918200966,
                0.692061982234894,
                2.3423056075938185
            ]
        },
        {
            "positions": [
                -0.3201767636408118,
                -0.7629388419359537,
                0.5879375594467866,
                -0.38379465356681147,
                0.6403830500091531,
                2.414270826446672
            ]
        },
        {
            "positions": [
                -0.27580507348390204,
                -0.801060205261751,
                0.7272476187378312,
                -0.4287610579516132,
                0.5887041177834124,
                2.486236045299526
            ]
        },
        {
            "positions": [
                -0.23143338332699237,
                -0.8391815685875483,
                0.8665576780288762,
                -0.4737274623364149,
                0.5370251855576715,
                2.5582012641523795
            ]
        },
        {
            "positions": [
                -0.1870616931700826,
                -0.8773029319133456,
                1.0058677373199207,
                -0.5186938667212166,
                0.4853462533319308,
                2.630166483005233
            ]
        },
        {
            "positions": [
                -0.1426900030131728,
                -0.9154242952391427,
                1.1451777966109653,
                -0.5636602711060184,
                0.4336673211061899,
                2.702131701858087
            ]
        },
        {
            "positions": [
                -0.09831831285626302,
                -0.95354565856494,
                1.2844878559020103,
                -0.6086266754908198,
                0.38198838888044917,
                2.7740969207109405
            ]
        },
        {
            "positions": [
                -0.053946622699353464,
                -0.9916670218907373,
                1.4237979151930549,
                -0.6535930798756215,
                0.33030945665470846,
                2.846062139563794
            ]
        },
        {
            "positions": [
                -0.00957493254244346,
                -1.0297883852165346,
                1.5631079744840999,
                -0.6985594842604235,
                0.2786305244289675,
                2.9180273584166483
            ]
        },
        {
            "positions": [
                0.0347967576144661,
                -1.0679097485423317,
                1.7024180337751444,
                -0.7435258886452252,
                0.2269515922032268,
                2.989992577269502
            ]
        },
        {
            "positions": [
                0.07916844777137588,
                -1.106031111868129,
                1.8417280930661895,
                -0.7884922930300269,
                0.17527265997748587,
                3.0619577961223556
            ]
        },
        {
            "positions": [
                0.12354013792828561,
                -1.1441524751939263,
                1.981038152357234,
                -0.8334586974148286,
                0.1235937277517452,
                3.1339230149752093
            ]
        }
    ]
}