{
    "goal": {
        "global_pose": {
            "orientation": {
                "w": 0.7031023502349854,
                "x": -0.7110244035720825,
                "y": 0.007748599164187908,
                "z": 0.005598929710686207
            },
            "position": {
                "x": 0.11585023208521307,
                "y": 0.44412534475326537,
                "z": 0.3711530566215515
            }
        },
        "name": "move_to_auspresseinheit_A"
    },
    "id": "BiEST_move_to_auspresseinheit_A_132",
    "joint_names": [
        "shoulder_pan_joint",
        "shoulder_lift_joint",
        "elbow_joint",
        "wrist_1_joint",
        "wrist_2_joint",
        "wrist_3_joint"
    ],
    "metrics": {
        "cart_traj_len": 4.634742238987101,
        "distance_elbow_joint": 5.122126327526296,
        "distance_shoulder_lift_joint": 1.4124369160784864,
        "distance_shoulder_pan_joint": 6.759224393486242,
        "distance_wrist_1_joint": 3.559228024186812,
        "distance_wrist_2_joint": 0.5160187204519424,
        "distance_wrist_3_joint": 0.7438889796665422,
        "smoothness": 0.7143275348485565,
        "time": 0.196174323,
        "traj_len": 4.255928025871245,
        "weighted_distance": 4.8657936727083015
    },
    "planner": "BiEST",
    "start": {
        "state": {
            "elbow_joint": 2.422574709923281,
            "shoulder_lift_joint": -1.3736533754116391,
            "shoulder_pan_joint": -0.33786336945926293,
            "wrist_1_joint": -1.0288603412921917,
            "wrist_2_joint": 1.2330224858903978,
            "wrist_3_joint": -3.094022268022082
        }
    },
    "waypoints": [
        {
            "positions": [
                -0.33786336945926293,
                -1.3736533754116391,
                2.422574709923281,
                -1.0288603412921917,
                1.2330224858903978,
                -3.094022268022082
            ]
        },
        {
            "positions": [
                -0.4620626656859107,
                -1.4160676636935619,
                2.3106281347913784,
                -0.9400175554170516,
                1.231198637355554,
                -3.07847458607772
            ]
        },
        {
            "positions": [
                -0.5862619619125584,
                -1.4584819519754846,
                2.198681559659476,
                -0.8511747695419115,
                1.22937478882071,
                -3.0629269041333576
            ]
        },
        {
            "positions": [
                -0.7104612581392062,
                -1.5008962402574073,
                2.0867349845275736,
                -0.7623319836667714,
                1.2275509402858662,
                -3.0473792221889955
            ]
        },
        {
            "positions": [
                -0.8346605543658541,
                -1.54331052853933,
                1.9747884093956711,
                -0.6734891977916313,
                1.2257270917510223,
                -3.0318315402446334
            ]
        },
        {
            "positions": [
                -0.9588598505925019,
                -1.5857248168212528,
                1.8628418342637687,
                -0.5846464119164911,
                1.2239032432161785,
                -3.016283858300271
            ]
        },
        {
            "positions": [
                -1.0830591468191495,
                -1.6281391051031755,
                1.7508952591318663,
                -0.495803626041351,
                1.2220793946813346,
                -3.000736176355909
            ]
        },
        {
            "positions": [
                -1.2072584430457973,
                -1.6705533933850982,
                1.6389486839999639,
                -0.4069608401662108,
                1.2202555461464908,
                -2.9851884944115468
            ]
        },
        {
            "positions": [
                -1.3314577392724452,
                -1.7129676816670207,
                1.5270021088680612,
                -0.31811805429107076,
                1.218431697611647,
                -2.9696408124671847
            ]
        },
        {
            "positions": [
                -1.455657035499093,
                -1.7553819699489435,
                1.4150555337361588,
                -0.2292752684159306,
                1.216607849076803,
                -2.954093130522822
            ]
        },
        {
            "positions": [
                -1.5798563317257408,
                -1.7977962582308662,
                1.3031089586042564,
                -0.14043248254079055,
                1.2147840005419592,
                -2.93854544857846
            ]
        },
        {
            "positions": [
                -1.7040556279523886,
                -1.840210546512789,
                1.1911623834723537,
                -0.051589696665650386,
                1.2129601520071154,
                -2.922997766634098
            ]
        },
        {
            "positions": [
                -1.8282549241790362,
                -1.8826248347947117,
                1.0792158083404515,
                0.037253089209489776,
                1.2111363034722717,
                -2.9074500846897355
            ]
        },
        {
            "positions": [
                -1.952454220405684,
                -1.9250391230766342,
                0.9672692332085491,
                0.12609587508462972,
                1.209312454937428,
                -2.8919024027453735
            ]
        },
        {
            "positions": [
                -2.076653516632332,
                -1.9674534113585571,
                0.8553226580766464,
                0.2149386609597701,
                1.207488606402584,
                -2.8763547208010114
            ]
        },
        {
            "positions": [
                -2.2008528128589795,
                -2.0098676996404796,
                0.743376082944744,
                0.30378144683491004,
                1.2056647578677402,
                -2.860807038856649
            ]
        },
        {
            "positions": [
                -2.325052109085627,
                -2.0522819879224024,
                0.6314295078128416,
                0.3926242327100502,
                1.2038409093328963,
                -2.845259356912287
            ]
        },
        {
            "positions": [
                -2.4492514053122747,
                -2.094696276204325,
                0.5194829326809391,
                0.48146701858519036,
                1.2020170607980525,
                -2.8297116749679248
            ]
        },
        {
            "positions": [
                -2.5734507015389227,
                -2.137110564486248,
                0.4075363575490365,
                0.5703098044603305,
                1.2001932122632086,
                -2.8141639930235627
            ]
        },
        {
            "positions": [
                -2.6976499977655704,
                -2.1795248527681705,
                0.29558978241713385,
                0.6591525903354707,
                1.1983693637283648,
                -2.7986163110792
            ]
        },
        {
            "positions": [
                -2.8218492939922184,
                -2.2219391410500933,
                0.18364320728523165,
                0.7479953762106106,
                1.196545515193521,
                -2.783068629134838
            ]
        },
        {
            "positions": [
                -2.946048590218866,
                -2.264353429332016,
                0.07169663215332944,
                0.8368381620857508,
                1.194721666658677,
                -2.767520947190476
            ]
        },
        {
            "positions": [
                -3.070247886445514,
                -2.3067677176139387,
                -0.04024994297857365,
                0.925680947960891,
                1.1928978181238332,
                -2.7519732652461135
            ]
        },
        {
            "positions": [
                -3.1944471826721617,
                -2.3491820058958615,
                -0.15219651811047585,
                1.0145237338360311,
                1.1910739695889894,
                -2.7364255833017515
            ]
        },
        {
            "positions": [
                -3.0271565076925886,
                -2.330499331752712,
                -0.04170577258619061,
                0.949253885650209,
                1.1716511678757628,
                -2.7499591322583474
            ]
        },
        {
            "positions": [
                -2.859865832713015,
                -2.311816657609563,
                0.06878497293809463,
                0.8839840374643868,
                1.152228366162536,
                -2.7634926812149434
            ]
        },
        {
            "positions": [
                -2.692575157733442,
                -2.2931339834664137,
                0.17927571846237983,
                0.8187141892785648,
                1.1328055644493096,
                -2.7770262301715394
            ]
        },
        {
            "positions": [
                -2.525284482753869,
                -2.274451309323265,
                0.2897664639866651,
                0.7534443410927426,
                1.113382762736083,
                -2.7905597791281354
            ]
        },
        {
            "positions": [
                -2.3579938077742955,
                -2.2557686351801154,
                0.40025720951095034,
                0.6881744929069205,
                1.0939599610228565,
                -2.8040933280847313
            ]
        },
        {
            "positions": [
                -2.1907031327947224,
                -2.237085961036966,
                0.5107479550352355,
                0.6229046447210984,
                1.0745371593096298,
                -2.8176268770413277
            ]
        },
        {
            "positions": [
                -2.023412457815149,
                -2.218403286893817,
                0.6212387005595209,
                0.5576347965352761,
                1.0551143575964033,
                -2.8311604259979237
            ]
        },
        {
            "positions": [
                -1.856121782835576,
                -2.1997206127506677,
                0.7317294460838061,
                0.4923649483494541,
                1.0356915558831767,
                -2.8446939749545197
            ]
        },
        {
            "positions": [
                -1.6888311078560025,
                -2.1810379386075187,
                0.8422201916080914,
                0.42709510016363195,
                1.0162687541699502,
                -2.8582275239111157
            ]
        },
        {
            "positions": [
                -1.5215404328764295,
                -2.1623552644643693,
                0.9527109371323765,
                0.3618252519778098,
                0.9968459524567236,
                -2.8717610728677117
            ]
        },
        {
            "positions": [
                -1.3542497578968562,
                -2.14367259032122,
                1.063201682656662,
                0.29655540379198764,
                0.977423150743497,
                -2.8852946218243076
            ]
        },
        {
            "positions": [
                -1.1869590829172831,
                -2.124989916178071,
                1.1736924281809469,
                0.2312855556061656,
                0.9580003490302704,
                -2.8988281707809036
            ]
        },
        {
            "positions": [
                -1.01966840793771,
                -2.1063072420349216,
                1.284183173705232,
                0.16601570742034344,
                0.9385775473170439,
                -2.9123617197374996
            ]
        },
        {
            "positions": [
                -0.8523777329581366,
                -2.0876245678917726,
                1.3946739192295177,
                0.10074585923452128,
                0.9191547456038172,
                -2.9258952686940956
            ]
        },
        {
            "positions": [
                -0.6850870579785635,
                -2.0689418937486233,
                1.5051646647538028,
                0.03547601104869913,
                0.8997319438905906,
                -2.9394288176506915
            ]
        },
        {
            "positions": [
                -0.5177963829989904,
                -2.0502592196054743,
                1.615655410278088,
                -0.029793837137122914,
                0.8803091421773641,
                -2.9529623666072875
            ]
        },
        {
            "positions": [
                -0.3505057080194174,
                -2.031576545462325,
                1.7261461558023732,
                -0.09506368532294496,
                0.8608863404641376,
                -2.9664959155638835
            ]
        },
        {
            "positions": [
                -0.18321503303984343,
                -2.0128938713191755,
                1.8366369013266586,
                -0.16033353350876722,
                0.8414635387509108,
                -2.98002946452048
            ]
        },
        {
            "positions": [
                -0.01592435806027037,
                -1.9942111971760266,
                1.9471276468509435,
                -0.22560338169458927,
                0.8220407370376843,
                -2.993563013477076
            ]
        },
        {
            "positions": [
                0.1513663169193027,
                -1.9755285230328772,
                2.057618392375229,
                -0.29087322988041153,
                0.8026179353244578,
                -3.007096562433672
            ]
        },
        {
            "positions": [
                0.31865699189887575,
                -1.9568458488897282,
                2.168109137899514,
                -0.3561430780662336,
                0.7831951336112313,
                -3.020630111390268
            ]
        },
        {
            "positions": [
                0.48594766687844926,
                -1.9381631747465788,
                2.2785998834237997,
                -0.42141292625205584,
                0.7637723318980045,
                -3.034163660346864
            ]
        },
        {
            "positions": [
                0.6532383418580222,
                -1.9194805006034297,
                2.3890906289480847,
                -0.48668277443787794,
                0.744349530184778,
                -3.0476972093034598
            ]
        },
        {
            "positions": [
                0.7081933976011806,
                -1.9122737203015974,
                2.3951585813820615,
                -0.47204533365319984,
                0.7170037654384553,
                -3.122717878247963
            ]
        }
    ]
}