{
    "goal": {
        "global_pose": {
            "orientation": {
                "w": 0.5084816217422485,
                "x": -0.49083608388900757,
                "y": 0.5182115435600281,
                "z": -0.4816462993621826
            },
            "position": {
                "x": 0.5540239810943604,
                "y": 0.030875300988554955,
                "z": 0.16403168439865112
            }
        },
        "name": "move_to_storage_A"
    },
    "id": "BiTRRT_move_to_storage_A_6",
    "joint_names": [
        "shoulder_pan_joint",
        "shoulder_lift_joint",
        "elbow_joint",
        "wrist_1_joint",
        "wrist_2_joint",
        "wrist_3_joint"
    ],
    "metrics": {
        "cart_traj_len": 0.35329852639094456,
        "distance_elbow_joint": 0.4474719356725436,
        "distance_shoulder_lift_joint": 0.232843288040385,
        "distance_shoulder_pan_joint": 0.4625578236240433,
        "distance_wrist_1_joint": 0.2369285206585422,
        "distance_wrist_2_joint": 1.0955049875077871,
        "distance_wrist_3_joint": 0.0913619367998324,
        "smoothness": 2.220446049250313e-15,
        "time": 0.039691915,
        "traj_len": 1.602082548529611,
        "weighted_distance": 2.020352908298233
    },
    "planner": "BiTRRT",
    "start": {
        "state": {
            "elbow_joint": 1.9715463870305268,
            "shoulder_lift_joint": -1.1394903361783484,
            "shoulder_pan_joint": 0.12281147578464417,
            "wrist_1_joint": -0.7804599489681411,
            "wrist_2_joint": 0.12958660307563738,
            "wrist_3_joint": -3.1924946282119055
        }
    },
    "waypoints": [
        {
            "positions": [
                0.12281147578464417,
                -1.1394903361783484,
                1.9715463870305268,
                -0.7804599489681411,
                0.12958660307563738,
                -3.1924946282119055
            ]
        },
        {
            "positions": [
                0.05673178669549514,
                -1.1727536630412605,
                2.0354709492694614,
                -0.8143068804907899,
                0.2860873155767498,
                -3.1794429229547867
            ]
        },
        {
            "positions": [
                -0.009347902393653892,
                -1.2060169899041726,
                2.0993955115083964,
                -0.8481538120134389,
                0.44258802807786224,
                -3.166391217697668
            ]
        },
        {
            "positions": [
                -0.07542759148280294,
                -1.2392803167670847,
                2.163320073747331,
                -0.8820007435360877,
                0.5990887405789747,
                -3.153339512440549
            ]
        },
        {
            "positions": [
                -0.14150728057195194,
                -1.272543643629997,
                2.227244635986266,
                -0.9158476750587367,
                0.7555894530800872,
                -3.1402878071834297
            ]
        },
        {
            "positions": [
                -0.20758696966110102,
                -1.3058069704929092,
                2.2911691982252007,
                -0.9496946065813855,
                0.9120901655811997,
                -3.127236101926311
            ]
        },
        {
            "positions": [
                -0.27366665875025004,
                -1.3390702973558213,
                2.3550937604641353,
                -0.9835415381040344,
                1.068590878082312,
                -3.114184396669192
            ]
        },
        {
            "positions": [
                -0.3397463478393991,
                -1.3723336242187334,
                2.4190183227030704,
                -1.0173884696266833,
                1.2250915905834245,
                -3.101132691412073
            ]
        }
    ]
}