{
    "goal": {
        "global_pose": {
            "orientation": {
                "w": 0.7047431468963623,
                "x": -0.7094548344612122,
                "y": 0.0024358443915843964,
                "z": -0.0022348060738295317
            },
            "position": {
                "x": 0.6094750761985779,
                "y": 0.3671506643295288,
                "z": 0.19426114857196808
            }
        },
        "name": "move_to_magneteinheit_A"
    },
    "id": "BiTRRT_move_to_magneteinheit_A_17",
    "joint_names": [
        "shoulder_pan_joint",
        "shoulder_lift_joint",
        "elbow_joint",
        "wrist_1_joint",
        "wrist_2_joint",
        "wrist_3_joint"
    ],
    "metrics": {
        "cart_traj_len": 2.062500621001639,
        "distance_elbow_joint": 3.8750023953137367,
        "distance_shoulder_lift_joint": 1.0543379180089258,
        "distance_shoulder_pan_joint": 1.241202819188365,
        "distance_wrist_1_joint": 1.1252710145685456,
        "distance_wrist_2_joint": 1.438103032997782,
        "distance_wrist_3_joint": 1.8897691314548797,
        "smoothness": 6.026924996904622e-16,
        "time": 0.048988677999999994,
        "traj_len": 3.259399685759976,
        "weighted_distance": 4.119053122018253
    },
    "planner": "BiTRRT",
    "start": {
        "state": {
            "elbow_joint": -1.919643507792019,
            "shoulder_lift_joint": -0.07675430207160344,
            "shoulder_pan_joint": -1.1188671864651873,
            "wrist_1_joint": 0.42560062535961957,
            "wrist_2_joint": 1.5706038300724876,
            "wrist_3_joint": 1.1188968870953055
        }
    },
    "waypoints": [
        {
            "positions": [
                -1.1188671864651873,
                -0.07675430207160344,
                -1.919643507792019,
                0.42560062535961957,
                1.5706038300724876,
                1.1188968870953055
            ]
        },
        {
            "positions": [
                -1.072896711680433,
                -0.11580385459045255,
                -1.776124900558177,
                0.3839239211163401,
                1.5173407547762734,
                1.1888883364084493
            ]
        },
        {
            "positions": [
                -1.0269262368956789,
                -0.15485340710930165,
                -1.6326062933243348,
                0.34224721687306064,
                1.4640776794800594,
                1.258879785721593
            ]
        },
        {
            "positions": [
                -0.9809557621109246,
                -0.19390295962815074,
                -1.489087686090493,
                0.3005705126297812,
                1.4108146041838452,
                1.3288712350347367
            ]
        },
        {
            "positions": [
                -0.9349852873261704,
                -0.23295251214699986,
                -1.3455690788566508,
                0.2588938083865018,
                1.357551528887631,
                1.3988626843478804
            ]
        },
        {
            "positions": [
                -0.889014812541416,
                -0.272002064665849,
                -1.2020504716228086,
                0.2172171041432223,
                1.304288453591417,
                1.468854133661024
            ]
        },
        {
            "positions": [
                -0.8430443377566618,
                -0.3110516171846981,
                -1.0585318643889665,
                0.1755403998999428,
                1.2510253782952028,
                1.5388455829741676
            ]
        },
        {
            "positions": [
                -0.7970738629719075,
                -0.35010116970354715,
                -0.9150132571551244,
                0.1338636956566634,
                1.1977623029989886,
                1.6088370322873113
            ]
        },
        {
            "positions": [
                -0.7511033881871533,
                -0.3891507222223963,
                -0.7714946499212822,
                0.09218699141338393,
                1.1444992277027746,
                1.678828481600455
            ]
        },
        {
            "positions": [
                -0.705132913402399,
                -0.4282002747412454,
                -0.6279760426874403,
                0.05051028717010447,
                1.0912361524065604,
                1.7488199309135988
            ]
        },
        {
            "positions": [
                -0.6591624386176447,
                -0.46724982726009445,
                -0.4844574354535982,
                0.008833582926825012,
                1.0379730771103461,
                1.8188113802267423
            ]
        },
        {
            "positions": [
                -0.6131919638328905,
                -0.5062993797789436,
                -0.3409388282197561,
                -0.03284312131645445,
                0.984710001814132,
                1.8888028295398862
            ]
        },
        {
            "positions": [
                -0.5672214890481362,
                -0.5453489322977927,
                -0.19742022098591394,
                -0.07451982555973397,
                0.9314469265179178,
                1.9587942788530297
            ]
        },
        {
            "positions": [
                -0.5212510142633819,
                -0.5843984848166417,
                -0.05390161375207181,
                -0.11619652980301337,
                0.8781838512217037,
                2.0287857281661736
            ]
        },
        {
            "positions": [
                -0.4752805394786277,
                -0.6234480373354909,
                0.08961699348177032,
                -0.15787323404629278,
                0.8249207759254896,
                2.098777177479317
            ]
        },
        {
            "positions": [
                -0.42931006469387345,
                -0.6624975898543402,
                0.23313560071561246,
                -0.1995499382895723,
                0.7716577006292754,
                2.168768626792461
            ]
        },
        {
            "positions": [
                -0.3833395899091192,
                -0.7015471423731892,
                0.3766542079494546,
                -0.2412266425328517,
                0.7183946253330613,
                2.2387600761056046
            ]
        },
        {
            "positions": [
                -0.33736911512436485,
                -0.7405966948920382,
                0.5201728151832967,
                -0.2829033467761312,
                0.6651315500368471,
                2.3087515254187485
            ]
        },
        {
            "positions": [
                -0.2913986403396107,
                -0.7796462474108874,
                0.6636914224171384,
                -0.3245800510194106,
                0.611868474740633,
                2.378742974731892
            ]
        },
        {
            "positions": [
                -0.24542816555485636,
                -0.8186957999297364,
                0.807210029650981,
                -0.36625675526269014,
                0.5586053994444189,
                2.4487344240450355
            ]
        },
        {
            "positions": [
                -0.19945769077010211,
                -0.8577453524485854,
                0.9507286368848227,
                -0.40793345950596954,
                0.5053423241482047,
                2.5187258733581794
            ]
        },
        {
            "positions": [
                -0.15348721598534787,
                -0.8967949049674346,
                1.0942472441186653,
                -0.44961016374924906,
                0.45207924885199047,
                2.5887173226713234
            ]
        },
        {
            "positions": [
                -0.10751674120059374,
                -0.9358444574862836,
                1.237765851352507,
                -0.49128686799252846,
                0.3988161735557765,
                2.6587087719844664
            ]
        },
        {
            "positions": [
                -0.06154626641583927,
                -0.9748940100051329,
                1.381284458586349,
                -0.5329635722358079,
                0.34555309825956226,
                2.7287002212976104
            ]
        },
        {
            "positions": [
                -0.015575791631085023,
                -1.0139435625239819,
                1.5248030658201912,
                -0.5746402764790874,
                0.29229002296334805,
                2.7986916706107543
            ]
        },
        {
            "positions": [
                0.030394683153669222,
                -1.052993115042831,
                1.6683216730540333,
                -0.616316980722367,
                0.23902694766713384,
                2.868683119923898
            ]
        },
        {
            "positions": [
                0.07636515793842347,
                -1.0920426675616801,
                1.8118402802878755,
                -0.6579936849656463,
                0.18576387237091985,
                2.9386745692370413
            ]
        },
        {
            "positions": [
                0.12233563272317778,
                -1.1310922200805293,
                1.9553588875217176,
                -0.6996703892089259,
                0.13250079707470563,
                3.0086660185501852
            ]
        }
    ]
}