{
    "goal": {
        "global_pose": {
            "orientation": {
                "w": 0.5084816217422485,
                "x": -0.49083608388900757,
                "y": 0.5182115435600281,
                "z": -0.4816462993621826
            },
            "position": {
                "x": 0.5540239810943604,
                "y": 0.030875300988554955,
                "z": 0.16403168439865112
            }
        },
        "name": "move_to_storage_A"
    },
    "id": "BiTRRT_move_to_storage_A_108",
    "joint_names": [
        "shoulder_pan_joint",
        "shoulder_lift_joint",
        "elbow_joint",
        "wrist_1_joint",
        "wrist_2_joint",
        "wrist_3_joint"
    ],
    "metrics": {
        "cart_traj_len": 0.3528233766785741,
        "distance_elbow_joint": 0.4505397257207795,
        "distance_shoulder_lift_joint": 0.23224198786085237,
        "distance_shoulder_pan_joint": 0.4592042487598819,
        "distance_wrist_1_joint": 0.2548761005018966,
        "distance_wrist_2_joint": 1.1060398996364196,
        "distance_wrist_3_joint": 0.0903770262602146,
        "smoothness": 2.2204460668324854e-16,
        "time": 0.031463694,
        "traj_len": 1.6103661039465669,
        "weighted_distance": 2.033457410765908
    },
    "planner": "BiTRRT",
    "start": {
        "state": {
            "elbow_joint": 1.9715463870305268,
            "shoulder_lift_joint": -1.1394903361783484,
            "shoulder_pan_joint": 0.12281147578464417,
            "wrist_1_joint": -0.7804599489681411,
            "wrist_2_joint": 0.12958660307563738,
            "wrist_3_joint": -3.1924946282119055
        }
    },
    "waypoints": [
        {
            "positions": [
                0.12281147578464417,
                -1.1394903361783484,
                1.9715463870305268,
                -0.7804599489681411,
                0.12958660307563738,
                -3.1924946282119055
            ]
        },
        {
            "positions": [
                0.057210868818946756,
                -1.172667763015613,
                2.035909204990638,
                -0.816870820468412,
                0.2875923030236973,
                -3.1795836244604465
            ]
        },
        {
            "positions": [
                -0.008389738146750661,
                -1.2058451898528777,
                2.1002720229507497,
                -0.853281691968683,
                0.4455980029717572,
                -3.166672620708987
            ]
        },
        {
            "positions": [
                -0.07399034511244808,
                -1.2390226166901424,
                2.164634840910861,
                -0.8896925634689539,
                0.6036037029198171,
                -3.153761616957528
            ]
        },
        {
            "positions": [
                -0.13959095207814548,
                -1.2722000435274068,
                2.228997658870972,
                -0.9261034349692249,
                0.7616094028678771,
                -3.1408506132060685
            ]
        },
        {
            "positions": [
                -0.2051915590438429,
                -1.3053774703646714,
                2.293360476831084,
                -0.9625143064694958,
                0.9196151028159372,
                -3.1279396094546095
            ]
        },
        {
            "positions": [
                -0.2707921660095403,
                -1.338554897201936,
                2.357723294791195,
                -0.9989251779697668,
                1.0776208027639969,
                -3.11502860570315
            ]
        },
        {
            "positions": [
                -0.33639277297523773,
                -1.3717323240392008,
                2.4220861127513063,
                -1.0353360494700377,
                1.235626502712057,
                -3.102117601951691
            ]
        }
    ]
}