{
    "goal": {
        "global_pose": {
            "orientation": {
                "w": 0.7031023502349854,
                "x": -0.7110244035720825,
                "y": 0.007748599164187908,
                "z": 0.005598929710686207
            },
            "position": {
                "x": 0.11585023208521307,
                "y": 0.44412534475326537,
                "z": 0.3711530566215515
            }
        },
        "name": "move_to_auspresseinheit_A"
    },
    "id": "BiTRRT_move_to_auspresseinheit_A_6",
    "joint_names": [
        "shoulder_pan_joint",
        "shoulder_lift_joint",
        "elbow_joint",
        "wrist_1_joint",
        "wrist_2_joint",
        "wrist_3_joint"
    ],
    "metrics": {
        "cart_traj_len": 0.6828590551834743,
        "distance_elbow_joint": 0.02967907947826509,
        "distance_shoulder_lift_joint": 0.5355705644972255,
        "distance_shoulder_pan_joint": 1.045596021099385,
        "distance_wrist_1_joint": 0.5639474568816618,
        "distance_wrist_2_joint": 0.5123307676137214,
        "distance_wrist_3_joint": 0.0447952432005132,
        "smoothness": 1.9737298371844314e-16,
        "time": 0.046576227000000005,
        "traj_len": 1.652851818152726,
        "weighted_distance": 1.974281601916804
    },
    "planner": "BiTRRT",
    "start": {
        "state": {
            "elbow_joint": 2.422574709923281,
            "shoulder_lift_joint": -1.3736533754116391,
            "shoulder_pan_joint": -0.33786336945926293,
            "wrist_1_joint": -1.0288603412921917,
            "wrist_2_joint": 1.2330224858903978,
            "wrist_3_joint": -3.094022268022082
        }
    },
    "waypoints": [
        {
            "positions": [
                -0.33786336945926293,
                -1.3736533754116391,
                2.422574709923281,
                -1.0288603412921917,
                1.2330224858903978,
                -3.094022268022082
            ]
        },
        {
            "positions": [
                -0.20860154171617273,
                -1.4153186330435321,
                2.4208990019177534,
                -0.8966935152224349,
                1.2105145087217823,
                -3.0994196556027633
            ]
        },
        {
            "positions": [
                -0.07933971397308254,
                -1.456983890675425,
                2.4192232939122262,
                -0.7645266891526782,
                1.188006531553167,
                -3.1048170431834445
            ]
        },
        {
            "positions": [
                0.04992211377000766,
                -1.4986491483073183,
                2.417547585906699,
                -0.6323598630829215,
                1.1654985543845515,
                -3.1102144307641257
            ]
        },
        {
            "positions": [
                0.1791839415130978,
                -1.5403144059392113,
                2.4158718779011714,
                -0.5001930370131646,
                1.142990577215936,
                -3.115611818344807
            ]
        },
        {
            "positions": [
                0.3113211190448539,
                -1.6325417894316248,
                2.4101278160371327,
                -0.49137299886250596,
                1.0374158624811212,
                -3.121413241564254
            ]
        },
        {
            "positions": [
                0.44345829657660996,
                -1.724769172924038,
                2.404383754173094,
                -0.4825529607118473,
                0.9318411477463062,
                -3.1272146647837014
            ]
        },
        {
            "positions": [
                0.575595474108366,
                -1.8169965564164512,
                2.3986396923090547,
                -0.4737329225611886,
                0.8262664330114913,
                -3.1330160880031483
            ]
        },
        {
            "positions": [
                0.7077326516401221,
                -1.9092239399088646,
                2.392895630445016,
                -0.4649128844105299,
                0.7206917182766763,
                -3.1388175112225953
            ]
        }
    ]
}