{
    "goal": {
        "global_pose": {
            "orientation": {
                "w": 0.7031023502349854,
                "x": -0.7110244035720825,
                "y": 0.007748599164187908,
                "z": 0.005598929710686207
            },
            "position": {
                "x": 0.11585023208521307,
                "y": 0.44412534475326537,
                "z": 0.3711530566215515
            }
        },
        "name": "move_to_auspresseinheit_A"
    },
    "id": "BiTRRT_move_to_auspresseinheit_A_12",
    "joint_names": [
        "shoulder_pan_joint",
        "shoulder_lift_joint",
        "elbow_joint",
        "wrist_1_joint",
        "wrist_2_joint",
        "wrist_3_joint"
    ],
    "metrics": {
        "cart_traj_len": 1.207522600613904,
        "distance_elbow_joint": 0.6571280298429789,
        "distance_shoulder_lift_joint": 0.534058703205815,
        "distance_shoulder_pan_joint": 2.099943503447774,
        "distance_wrist_1_joint": 3.9750621090172316,
        "distance_wrist_2_joint": 2.9206661448657143,
        "distance_wrist_3_joint": 7.333348089448162,
        "smoothness": 0.6950401679319185,
        "time": 0.071637476,
        "traj_len": 4.185714584133475,
        "weighted_distance": 6.251610273570078
    },
    "planner": "BiTRRT",
    "start": {
        "state": {
            "elbow_joint": 2.422574709923281,
            "shoulder_lift_joint": -1.3736533754116391,
            "shoulder_pan_joint": -0.33786336945926293,
            "wrist_1_joint": -1.0288603412921917,
            "wrist_2_joint": 1.2330224858903978,
            "wrist_3_joint": -3.094022268022082
        }
    },
    "waypoints": [
        {
            "positions": [
                -0.33786336945926293,
                -1.3736533754116391,
                2.422574709923281,
                -1.0288603412921917,
                1.2330224858903978,
                -3.094022268022082
            ]
        },
        {
            "positions": [
                -0.3607199712997954,
                -1.3885492544746183,
                2.4076494263694372,
                -0.9303001675742844,
                1.1584508047466633,
                -2.935302464041909
            ]
        },
        {
            "positions": [
                -0.3835765731403279,
                -1.4034451335375975,
                2.3927241428155934,
                -0.8317399938563769,
                1.083879123602929,
                -2.776582660061736
            ]
        },
        {
            "positions": [
                -0.4064331749808604,
                -1.4183410126005769,
                2.377798859261749,
                -0.7331798201384695,
                1.0093074424591946,
                -2.6178628560815627
            ]
        },
        {
            "positions": [
                -0.42928977682139285,
                -1.433236891663556,
                2.3628735757079053,
                -0.634619646420562,
                0.9347357613154602,
                -2.459143052101389
            ]
        },
        {
            "positions": [
                -0.4521463786619253,
                -1.4481327707265352,
                2.3479482921540615,
                -0.5360594727026546,
                0.8601640801717259,
                -2.3004232481212163
            ]
        },
        {
            "positions": [
                -0.4750029805024578,
                -1.4630286497895144,
                2.3330230086002177,
                -0.43749929898474726,
                0.7855923990279914,
                -2.1417034441410427
            ]
        },
        {
            "positions": [
                -0.4978595823429903,
                -1.4779245288524938,
                2.3180977250463735,
                -0.3389391252668398,
                0.711020717884257,
                -1.9829836401608696
            ]
        },
        {
            "positions": [
                -0.5207161841835227,
                -1.492820407915473,
                2.3031724414925296,
                -0.2403789515489324,
                0.6364490367405227,
                -1.8242638361806964
            ]
        },
        {
            "positions": [
                -0.5435727860240552,
                -1.5077162869784522,
                2.288247157938686,
                -0.14181877783102492,
                0.5618773555967882,
                -1.665544032200523
            ]
        },
        {
            "positions": [
                -0.5664293878645877,
                -1.5226121660414313,
                2.273321874384842,
                -0.04325860411311755,
                0.48730567445305384,
                -1.5068242282203501
            ]
        },
        {
            "positions": [
                -0.5892859897051201,
                -1.5375080451044105,
                2.258396590830998,
                0.055301569604790046,
                0.41273399330931937,
                -1.3481044242401767
            ]
        },
        {
            "positions": [
                -0.6121425915456526,
                -1.55240392416739,
                2.243471307277154,
                0.1538617433226972,
                0.3381623121655851,
                -1.1893846202600036
            ]
        },
        {
            "positions": [
                -0.6349991933861852,
                -1.567299803230369,
                2.22854602372331,
                0.25242191704060457,
                0.26359063102185076,
                -1.0306648162798306
            ]
        },
        {
            "positions": [
                -0.6578557952267177,
                -1.5821956822933483,
                2.2136207401694663,
                0.35098209075851217,
                0.1890189498781163,
                -0.871945012299657
            ]
        },
        {
            "positions": [
                -0.6807123970672502,
                -1.5970915613563275,
                2.1986954566156225,
                0.44954226447641954,
                0.11444726873438182,
                -0.7132252083194839
            ]
        },
        {
            "positions": [
                -0.7035689989077826,
                -1.6119874404193069,
                2.1837701730617787,
                0.5481024381943269,
                0.039875587590647577,
                -0.5545054043393107
            ]
        },
        {
            "positions": [
                -0.7264256007483151,
                -1.6268833194822858,
                2.1688448895079344,
                0.6466626119122343,
                -0.03469609355308689,
                -0.39578560035913757
            ]
        },
        {
            "positions": [
                -0.7492822025888476,
                -1.6417791985452652,
                2.1539196059540906,
                0.7452227856301419,
                -0.10926777469682136,
                -0.23706579637896397
            ]
        },
        {
            "positions": [
                -0.77213880442938,
                -1.6566750776082444,
                2.138994322400247,
                0.8437829593480493,
                -0.1838394558405556,
                -0.07834599239879081
            ]
        },
        {
            "positions": [
                -0.7949954062699125,
                -1.6715709566712236,
                2.124069038846403,
                0.9423431330659566,
                -0.2584111369842901,
                0.0803738115813819
            ]
        },
        {
            "positions": [
                -0.817852008110445,
                -1.686466835734203,
                2.1091437552925587,
                1.0409033067838642,
                -0.3329828181280243,
                0.23909361556155506
            ]
        },
        {
            "positions": [
                -0.8407086099509775,
                -1.7013627147971822,
                2.094218471738715,
                1.1394634805017718,
                -0.407554499271759,
                0.39781341954172866
            ]
        },
        {
            "positions": [
                -0.86356521179151,
                -1.7162585938601613,
                2.079293188184871,
                1.238023654219679,
                -0.48212618041549327,
                0.5565332235219018
            ]
        },
        {
            "positions": [
                -0.7920087726498951,
                -1.7249610249854928,
                2.0935589385532607,
                1.1603791945148898,
                -0.4273299313900468,
                0.3891335599808029
            ]
        },
        {
            "positions": [
                -0.7204523335082803,
                -1.7336634561108244,
                2.10782468892165,
                1.0827347348101006,
                -0.3725336823646004,
                0.22173389643970398
            ]
        },
        {
            "positions": [
                -0.6488958943666654,
                -1.7423658872361558,
                2.1220904392900395,
                1.0050902751053117,
                -0.31773743333915394,
                0.05433423289860517
            ]
        },
        {
            "positions": [
                -0.5773394552250506,
                -1.7510683183614872,
                2.136356189658429,
                0.9274458154005225,
                -0.26294118431370744,
                -0.11306543064249386
            ]
        },
        {
            "positions": [
                -0.5057830160834357,
                -1.7597707494868189,
                2.1506219400268187,
                0.8498013556957333,
                -0.208144935288261,
                -0.28046509418359267
            ]
        },
        {
            "positions": [
                -0.4342265769418208,
                -1.7684731806121503,
                2.164887690395208,
                0.7721568959909443,
                -0.15334868626281456,
                -0.4478647577246915
            ]
        },
        {
            "positions": [
                -0.36267013780020596,
                -1.7771756117374817,
                2.1791534407635975,
                0.6945124362861551,
                -0.09855243723736812,
                -0.6152644212657905
            ]
        },
        {
            "positions": [
                -0.29111369865859105,
                -1.7858780428628134,
                2.193419191131987,
                0.6168679765813659,
                -0.04375618821192162,
                -0.7826640848068895
            ]
        },
        {
            "positions": [
                -0.21955725951697613,
                -1.7945804739881448,
                2.2076849415003768,
                0.5392235168765769,
                0.011040060813524821,
                -0.9500637483479886
            ]
        },
        {
            "positions": [
                -0.14800082037536133,
                -1.8032829051134762,
                2.221950691868766,
                0.4615790571717878,
                0.06583630983897126,
                -1.1174634118890872
            ]
        },
        {
            "positions": [
                -0.07644438123374642,
                -1.8119853362388079,
                2.2362164422371555,
                0.38393459746699865,
                0.1206325588644177,
                -1.2848630754301862
            ]
        },
        {
            "positions": [
                -0.004887942092131614,
                -1.8206877673641393,
                2.250482192605545,
                0.3062901377622096,
                0.17542880788986415,
                -1.4522627389712848
            ]
        },
        {
            "positions": [
                0.06666849704948341,
                -1.8293901984894707,
                2.2647479429739343,
                0.22864567805742042,
                0.2302250569153107,
                -1.6196624025123842
            ]
        },
        {
            "positions": [
                0.1382249361910981,
                -1.8380926296148021,
                2.279013693342324,
                0.15100121835263125,
                0.28502130594075703,
                -1.7870620660534828
            ]
        },
        {
            "positions": [
                0.2097813753327129,
                -1.8467950607401338,
                2.2932794437107136,
                0.0733567586478423,
                0.33981755496620347,
                -1.9544617295945814
            ]
        },
        {
            "positions": [
                0.28133781447432793,
                -1.8554974918654652,
                2.307545194079103,
                -0.004287701056947091,
                0.39461380399165,
                -2.121861393135681
            ]
        },
        {
            "positions": [
                0.35289425361594273,
                -1.8641999229907966,
                2.3218109444474924,
                -0.08193216076173604,
                0.44941005301709636,
                -2.2892610566767795
            ]
        },
        {
            "positions": [
                0.42445069275755776,
                -1.8729023541161283,
                2.336076694815882,
                -0.1595766204665252,
                0.5042063020425429,
                -2.456660720217879
            ]
        },
        {
            "positions": [
                0.49600713189917256,
                -1.8816047852414597,
                2.3503424451842716,
                -0.23722108017131438,
                0.5590025510679892,
                -2.6240603837589775
            ]
        },
        {
            "positions": [
                0.5675635710407874,
                -1.890307216366791,
                2.3646081955526608,
                -0.31486553987610333,
                0.6137988000934358,
                -2.791460047300076
            ]
        },
        {
            "positions": [
                0.6391200101824024,
                -1.8990096474921228,
                2.3788739459210504,
                -0.3925099995808927,
                0.6685950491188823,
                -2.9588597108411756
            ]
        },
        {
            "positions": [
                0.7106764493240172,
                -1.9077120786174542,
                2.39313969628944,
                -0.4701544592856816,
                0.7233912981443288,
                -3.126259374382274
            ]
        }
    ]
}