{
    "goal": {
        "global_pose": {
            "orientation": {
                "w": 0.5084816217422485,
                "x": -0.49083608388900757,
                "y": 0.5182115435600281,
                "z": -0.4816462993621826
            },
            "position": {
                "x": 0.5540239810943604,
                "y": 0.030875300988554955,
                "z": 0.16403168439865112
            }
        },
        "name": "move_to_storage_A"
    },
    "id": "BiTRRT_move_to_storage_A_18",
    "joint_names": [
        "shoulder_pan_joint",
        "shoulder_lift_joint",
        "elbow_joint",
        "wrist_1_joint",
        "wrist_2_joint",
        "wrist_3_joint"
    ],
    "metrics": {
        "cart_traj_len": 0.3538614628283485,
        "distance_elbow_joint": 0.449959563330097,
        "distance_shoulder_lift_joint": 0.23620688897292652,
        "distance_shoulder_pan_joint": 0.4635793222650705,
        "distance_wrist_1_joint": 0.23830696031873144,
        "distance_wrist_2_joint": 1.0976621637126656,
        "distance_wrist_3_joint": 0.0998245101181463,
        "smoothness": 4.440892133664971e-16,
        "time": 0.040086385,
        "traj_len": 1.6079612584629137,
        "weighted_distance": 2.0300634357047382
    },
    "planner": "BiTRRT",
    "start": {
        "state": {
            "elbow_joint": 1.9715463870305268,
            "shoulder_lift_joint": -1.1394903361783484,
            "shoulder_pan_joint": 0.12281147578464417,
            "wrist_1_joint": -0.7804599489681411,
            "wrist_2_joint": 0.12958660307563738,
            "wrist_3_joint": -3.1924946282119055
        }
    },
    "waypoints": [
        {
            "positions": [
                0.12281147578464417,
                -1.1394903361783484,
                1.9715463870305268,
                -0.7804599489681411,
                0.12958660307563738,
                -3.1924946282119055
            ]
        },
        {
            "positions": [
                0.056585858318205534,
                -1.173234177460195,
                2.035826324649112,
                -0.8145038004422456,
                0.2863954836060182,
                -3.178233983909313
            ]
        },
        {
            "positions": [
                -0.009639759148233104,
                -1.2069780187420416,
                2.100106262267697,
                -0.8485476519163501,
                0.44320436413639897,
                -3.163973339606721
            ]
        },
        {
            "positions": [
                -0.07586537661467173,
                -1.2407218600238883,
                2.1643861998862826,
                -0.8825915033904546,
                0.6000132446667797,
                -3.1497126953041286
            ]
        },
        {
            "positions": [
                -0.14209099408111037,
                -1.274465701305735,
                2.228666137504868,
                -0.916635354864559,
                0.7568221251971605,
                -3.1354520510015362
            ]
        },
        {
            "positions": [
                -0.20831661154754905,
                -1.3082095425875817,
                2.2929460751234534,
                -0.9506792063386635,
                0.9136310057275414,
                -3.121191406698944
            ]
        },
        {
            "positions": [
                -0.2745422290139876,
                -1.3419533838694282,
                2.3572260127420384,
                -0.984723057812768,
                1.070439886257922,
                -3.1069307623963516
            ]
        },
        {
            "positions": [
                -0.3407678464804263,
                -1.375697225151275,
                2.4215059503606238,
                -1.0187669092868725,
                1.227248766788303,
                -3.0926701180937592
            ]
        }
    ]
}