{
    "goal": {
        "global_pose": {
            "orientation": {
                "w": 0.7047431468963623,
                "x": -0.7094548344612122,
                "y": 0.0024358443915843964,
                "z": -0.0022348060738295317
            },
            "position": {
                "x": 0.6094750761985779,
                "y": 0.3671506643295288,
                "z": 0.19426114857196808
            }
        },
        "name": "move_to_magneteinheit_A"
    },
    "id": "BiTRRT_move_to_magneteinheit_A_86",
    "joint_names": [
        "shoulder_pan_joint",
        "shoulder_lift_joint",
        "elbow_joint",
        "wrist_1_joint",
        "wrist_2_joint",
        "wrist_3_joint"
    ],
    "metrics": {
        "cart_traj_len": 2.0651806647696676,
        "distance_elbow_joint": 3.878657200700915,
        "distance_shoulder_lift_joint": 1.0553831976326349,
        "distance_shoulder_pan_joint": 1.2426511983866724,
        "distance_wrist_1_joint": 1.1504843723800646,
        "distance_wrist_2_joint": 1.4433513440402321,
        "distance_wrist_3_joint": 1.9145472305460696,
        "smoothness": 6.344131583732825e-16,
        "time": 0.060483357,
        "traj_len": 3.2688032280464037,
        "weighted_distance": 4.136182384905073
    },
    "planner": "BiTRRT",
    "start": {
        "state": {
            "elbow_joint": -1.919643507792019,
            "shoulder_lift_joint": -0.07675430207160344,
            "shoulder_pan_joint": -1.1188671864651873,
            "wrist_1_joint": 0.42560062535961957,
            "wrist_2_joint": 1.5706038300724876,
            "wrist_3_joint": 1.1188968870953055
        }
    },
    "waypoints": [
        {
            "positions": [
                -1.1188671864651873,
                -0.07675430207160344,
                -1.919643507792019,
                0.42560062535961957,
                1.5706038300724876,
                1.1188968870953055
            ]
        },
        {
            "positions": [
                -1.0728430680064216,
                -0.11584256865058992,
                -1.7759895373956889,
                0.3829900930492468,
                1.5171463728858123,
                1.189806043782197
            ]
        },
        {
            "positions": [
                -1.026818949547656,
                -0.1549308352295764,
                -1.6323355669993587,
                0.34037956073887404,
                1.463688915699137,
                1.2607152004690885
            ]
        },
        {
            "positions": [
                -0.9807948310888904,
                -0.19401910180856285,
                -1.4886815966030285,
                0.2977690284285013,
                1.4102314585124618,
                1.33162435715598
            ]
        },
        {
            "positions": [
                -0.9347707126301248,
                -0.23310736838754934,
                -1.3450276262066985,
                0.2551584961181285,
                1.3567740013257865,
                1.4025335138428714
            ]
        },
        {
            "positions": [
                -0.8887465941713591,
                -0.2721956349665358,
                -1.201373655810368,
                0.21254796380775576,
                1.3033165441391112,
                1.4734426705297627
            ]
        },
        {
            "positions": [
                -0.8427224757125935,
                -0.3112839015455223,
                -1.057719685414038,
                0.169937431497383,
                1.249859086952436,
                1.5443518272166543
            ]
        },
        {
            "positions": [
                -0.7966983572538279,
                -0.3503721681245088,
                -0.9140657150177078,
                0.12732689918701023,
                1.1964016297657607,
                1.6152609839035459
            ]
        },
        {
            "positions": [
                -0.7506742387950622,
                -0.38946043470349523,
                -0.7704117446213776,
                0.08471636687663747,
                1.1429441725790856,
                1.6861701405904372
            ]
        },
        {
            "positions": [
                -0.7046501203362966,
                -0.42854870128248174,
                -0.6267577742250474,
                0.04210583456626471,
                1.0894867153924102,
                1.7570792972773286
            ]
        },
        {
            "positions": [
                -0.658626001877531,
                -0.4676369678614682,
                -0.4831038038287172,
                -0.0005046977441080513,
                1.036029258205735,
                1.8279884539642202
            ]
        },
        {
            "positions": [
                -0.6126018834187653,
                -0.5067252344404547,
                -0.3394498334323872,
                -0.04311523005448081,
                0.9825718010190597,
                1.8988976106511117
            ]
        },
        {
            "positions": [
                -0.5665777649599997,
                -0.5458135010194411,
                -0.195795863036057,
                -0.08572576236485357,
                0.9291143438323844,
                1.969806767338003
            ]
        },
        {
            "positions": [
                -0.520553646501234,
                -0.5849017675984276,
                -0.052141892639726795,
                -0.12833629467522628,
                0.8756568866457092,
                2.0407159240248944
            ]
        },
        {
            "positions": [
                -0.4745295280424684,
                -0.623990034177414,
                0.09151207775660342,
                -0.1709468269855991,
                0.8221994294590339,
                2.111625080711786
            ]
        },
        {
            "positions": [
                -0.42850540958370265,
                -0.6630783007564007,
                0.23516604815293385,
                -0.21355735929597192,
                0.7687419722723586,
                2.1825342373986776
            ]
        },
        {
            "positions": [
                -0.3824812911249371,
                -0.702166567335387,
                0.37882001854926384,
                -0.2561678916063446,
                0.7152845150856835,
                2.253443394085569
            ]
        },
        {
            "positions": [
                -0.33645717266617137,
                -0.7412548339143736,
                0.5224739889455943,
                -0.29877842391671744,
                0.6618270578990081,
                2.3243525507724607
            ]
        },
        {
            "positions": [
                -0.29043305420740584,
                -0.7803431004933601,
                0.6661279593419243,
                -0.34138895622709015,
                0.6083696007123329,
                2.395261707459352
            ]
        },
        {
            "positions": [
                -0.2444089357486401,
                -0.8194313670723465,
                0.8097819297382547,
                -0.38399948853746296,
                0.5549121435256577,
                2.4661708641462434
            ]
        },
        {
            "positions": [
                -0.19838481728987456,
                -0.858519633651333,
                0.9534359001345847,
                -0.42661002084783567,
                0.5014546863389824,
                2.5370800208331348
            ]
        },
        {
            "positions": [
                -0.1523606988311088,
                -0.8976079002303194,
                1.0970898705309147,
                -0.4692205531582085,
                0.4479972291523071,
                2.607989177520026
            ]
        },
        {
            "positions": [
                -0.10633658037234328,
                -0.9366961668093059,
                1.2407438409272447,
                -0.5118310854685812,
                0.39453977196563184,
                2.6788983342069175
            ]
        },
        {
            "positions": [
                -0.06031246191357753,
                -0.9757844333882923,
                1.384397811323575,
                -0.554441617778954,
                0.34108231477895656,
                2.7498074908938093
            ]
        },
        {
            "positions": [
                -0.014288343454812003,
                -1.0148726999672788,
                1.528051781719905,
                -0.5970521500893267,
                0.2876248575922813,
                2.8207166475807006
            ]
        },
        {
            "positions": [
                0.03173577500395375,
                -1.0539609665462655,
                1.6717057521162355,
                -0.6396626823996996,
                0.23416740040560602,
                2.8916258042675924
            ]
        },
        {
            "positions": [
                0.07775989346271928,
                -1.093049233125252,
                1.8153597225125655,
                -0.6822732147100721,
                0.18070994321893075,
                2.9625349609544838
            ]
        },
        {
            "positions": [
                0.12378401192148498,
                -1.1321374997042384,
                1.959013692908896,
                -0.7248837470204451,
                0.12725248603225559,
                3.033444117641375
            ]
        }
    ]
}