{
    "goal": {
        "global_pose": {
            "orientation": {
                "w": 0.7047431468963623,
                "x": -0.7094548344612122,
                "y": 0.0024358443915843964,
                "z": -0.0022348060738295317
            },
            "position": {
                "x": 0.6094750761985779,
                "y": 0.3671506643295288,
                "z": 0.19426114857196808
            }
        },
        "name": "move_to_magneteinheit_A"
    },
    "id": "BiTRRT_move_to_magneteinheit_A_88",
    "joint_names": [
        "shoulder_pan_joint",
        "shoulder_lift_joint",
        "elbow_joint",
        "wrist_1_joint",
        "wrist_2_joint",
        "wrist_3_joint"
    ],
    "metrics": {
        "cart_traj_len": 1.8782384305388402,
        "distance_elbow_joint": 3.9104470835153027,
        "distance_shoulder_lift_joint": 0.7001605989621971,
        "distance_shoulder_pan_joint": 1.2403523533258103,
        "distance_wrist_1_joint": 1.4882463682088862,
        "distance_wrist_2_joint": 1.6966071819540511,
        "distance_wrist_3_joint": 1.106369430363694,
        "smoothness": 6.250144456581818e-16,
        "time": 0.079125133,
        "traj_len": 3.1846794212808835,
        "weighted_distance": 3.94205218474087
    },
    "planner": "BiTRRT",
    "start": {
        "state": {
            "elbow_joint": -1.919643507792019,
            "shoulder_lift_joint": -0.07675430207160344,
            "shoulder_pan_joint": -1.1188671864651873,
            "wrist_1_joint": 0.42560062535961957,
            "wrist_2_joint": 1.5706038300724876,
            "wrist_3_joint": 1.1188968870953055
        }
    },
    "waypoints": [
        {
            "positions": [
                -1.1188671864651873,
                -0.07675430207160344,
                -1.919643507792019,
                0.42560062535961957,
                1.5706038300724876,
                1.1188968870953055
            ]
        },
        {
            "positions": [
                -1.071161326721887,
                -0.1036835558778418,
                -1.7692416968875844,
                0.4828408702907306,
                1.5053497076896394,
                1.0763442166967019
            ]
        },
        {
            "positions": [
                -1.0234554669785865,
                -0.13061280968408015,
                -1.6188398859831497,
                0.5400811152218415,
                1.4400955853067914,
                1.0337915462980982
            ]
        },
        {
            "positions": [
                -0.9757496072352861,
                -0.1575420634903185,
                -1.468438075078715,
                0.5973213601529526,
                1.3748414629239432,
                0.9912388758994947
            ]
        },
        {
            "positions": [
                -0.9280437474919858,
                -0.18447131729655686,
                -1.3180362641742802,
                0.6545616050840636,
                1.3095873405410952,
                0.9486862055008911
            ]
        },
        {
            "positions": [
                -0.8803378877486854,
                -0.2114005711027952,
                -1.1676344532698455,
                0.7118018500151746,
                1.244333218158247,
                0.9061335351022874
            ]
        },
        {
            "positions": [
                -0.8326320280053849,
                -0.23832982490903354,
                -1.0172326423654108,
                0.7690420949462856,
                1.179079095775399,
                0.8635808647036838
            ]
        },
        {
            "positions": [
                -0.7849261682620846,
                -0.2652590787152719,
                -0.8668308314609761,
                0.8262823398773966,
                1.1138249733925507,
                0.8210281943050803
            ]
        },
        {
            "positions": [
                -0.7372203085187842,
                -0.2921883325215102,
                -0.7164290205565413,
                0.8835225848085076,
                1.0485708510097025,
                0.7784755239064767
            ]
        },
        {
            "positions": [
                -0.6895144487754838,
                -0.31911758632774856,
                -0.5660272096521066,
                0.9407628297396187,
                0.9833167286268545,
                0.735922853507873
            ]
        },
        {
            "positions": [
                -0.6418085890321834,
                -0.34604684013398695,
                -0.4156253987476719,
                0.9980030746707298,
                0.9180626062440064,
                0.6933701831092693
            ]
        },
        {
            "positions": [
                -0.594102729288883,
                -0.3729760939402253,
                -0.2652235878432372,
                1.0552433196018407,
                0.8528084838611583,
                0.6508175127106658
            ]
        },
        {
            "positions": [
                -0.5463968695455825,
                -0.39990534774646364,
                -0.11482177693880247,
                1.1124835645329516,
                0.7875543614783101,
                0.6082648423120621
            ]
        },
        {
            "positions": [
                -0.4986910098022822,
                -0.426834601552702,
                0.03558003396563225,
                1.1697238094640627,
                0.722300239095462,
                0.5657121719134586
            ]
        },
        {
            "positions": [
                -0.4509851500589819,
                -0.4537638553589403,
                0.18598184487006697,
                1.2269640543951736,
                0.6570461167126139,
                0.523159501514855
            ]
        },
        {
            "positions": [
                -0.40327929031568144,
                -0.48069310916517866,
                0.3363836557745017,
                1.2842042993262845,
                0.5917919943297659,
                0.48060683111625135
            ]
        },
        {
            "positions": [
                -0.355573430572381,
                -0.507622362971417,
                0.4867854666789364,
                1.3414445442573957,
                0.5265378719469176,
                0.4380541607176477
            ]
        },
        {
            "positions": [
                -0.30786757082908056,
                -0.5345516167776554,
                0.6371872775833711,
                1.3986847891885068,
                0.4612837495640696,
                0.39550149031904414
            ]
        },
        {
            "positions": [
                -0.26016171108578023,
                -0.5614808705838937,
                0.7875890884878058,
                1.4559250341196177,
                0.39602962718122137,
                0.35294881992044047
            ]
        },
        {
            "positions": [
                -0.2124558513424799,
                -0.5884101243901321,
                0.9379908993922406,
                1.5131652790507286,
                0.33077550479837337,
                0.3103961495218369
            ]
        },
        {
            "positions": [
                -0.16474999159917936,
                -0.6153393781963705,
                1.0883927102966753,
                1.57040552398184,
                0.26552138241552514,
                0.26784347912323325
            ]
        },
        {
            "positions": [
                -0.11704413185587903,
                -0.6422686320026088,
                1.23879452120111,
                1.6276457689129509,
                0.20026726003267714,
                0.2252908087246297
            ]
        },
        {
            "positions": [
                -0.06933827211257859,
                -0.6691978858088472,
                1.3891963321055447,
                1.6848860138440618,
                0.13501313764982892,
                0.18273813832602603
            ]
        },
        {
            "positions": [
                -0.021632412369278375,
                -0.6961271396150854,
                1.5395981430099794,
                1.7421262587751727,
                0.06975901526698092,
                0.14018546792742248
            ]
        },
        {
            "positions": [
                0.026073447374022285,
                -0.7230563934213239,
                1.6899999539144142,
                1.7993665037062838,
                0.004504892884132694,
                0.0976327975288187
            ]
        },
        {
            "positions": [
                0.0737793071173225,
                -0.7499856472275621,
                1.8404017648188489,
                1.856606748637395,
                -0.06074922949871553,
                0.05508012713021526
            ]
        },
        {
            "positions": [
                0.12148516686062294,
                -0.7769149010338006,
                1.9908035757232836,
                1.9138469935685058,
                -0.12600335188156342,
                0.012527456731611616
            ]
        }
    ]
}