{
    "goal": {
        "global_pose": {
            "orientation": {
                "w": 0.7031023502349854,
                "x": -0.7110244035720825,
                "y": 0.007748599164187908,
                "z": 0.005598929710686207
            },
            "position": {
                "x": 0.11585023208521307,
                "y": 0.44412534475326537,
                "z": 0.3711530566215515
            }
        },
        "name": "move_to_auspresseinheit_A"
    },
    "id": "BiTRRT_move_to_auspresseinheit_A_107",
    "joint_names": [
        "shoulder_pan_joint",
        "shoulder_lift_joint",
        "elbow_joint",
        "wrist_1_joint",
        "wrist_2_joint",
        "wrist_3_joint"
    ],
    "metrics": {
        "cart_traj_len": 0.6634724681734131,
        "distance_elbow_joint": 0.19274962543970764,
        "distance_shoulder_lift_joint": 0.5357241733574707,
        "distance_shoulder_pan_joint": 1.0441279093981968,
        "distance_wrist_1_joint": 1.0255419177364977,
        "distance_wrist_2_joint": 0.8060270822770821,
        "distance_wrist_3_joint": 1.204662580358253,
        "smoothness": 1.0566579702722263,
        "time": 0.043355009,
        "traj_len": 2.1929052165032594,
        "weighted_distance": 3.0082764914976305
    },
    "planner": "BiTRRT",
    "start": {
        "state": {
            "elbow_joint": 2.422574709923281,
            "shoulder_lift_joint": -1.3736533754116391,
            "shoulder_pan_joint": -0.33786336945926293,
            "wrist_1_joint": -1.0288603412921917,
            "wrist_2_joint": 1.2330224858903978,
            "wrist_3_joint": -3.094022268022082
        }
    },
    "waypoints": [
        {
            "positions": [
                -0.33786336945926293,
                -1.3736533754116391,
                2.422574709923281,
                -1.0288603412921917,
                1.2330224858903978,
                -3.094022268022082
            ]
        },
        {
            "positions": [
                -0.27540045330095575,
                -1.41796191078733,
                2.43278393532544,
                -0.9298665186419912,
                1.149840622093624,
                -3.0211230206771686
            ]
        },
        {
            "positions": [
                -0.21293753714264857,
                -1.4622704461630212,
                2.4429931607275988,
                -0.8308726959917908,
                1.06665875829685,
                -2.9482237733322556
            ]
        },
        {
            "positions": [
                -0.15047462098434142,
                -1.5065789815387123,
                2.453202386129758,
                -0.7318788733415903,
                0.9834768945000761,
                -2.875324525987342
            ]
        },
        {
            "positions": [
                -0.08801170482603424,
                -1.5508875169144032,
                2.463411611531917,
                -0.6328850506913899,
                0.9002950307033023,
                -2.8024252786424286
            ]
        },
        {
            "positions": [
                -0.025548788667727085,
                -1.595196052290094,
                2.4736208369340758,
                -0.5338912280411894,
                0.8171131669065285,
                -2.7295260312975156
            ]
        },
        {
            "positions": [
                0.036914127490580095,
                -1.6395045876657852,
                2.483830062336235,
                -0.43489740539098887,
                0.7339313031097545,
                -2.656626783952602
            ]
        },
        {
            "positions": [
                0.09937704364888728,
                -1.6838131230414763,
                2.494039287738394,
                -0.33590358274078846,
                0.6507494393129807,
                -2.5837275366076886
            ]
        },
        {
            "positions": [
                0.16183995980719446,
                -1.7281216584171673,
                2.5042485131405527,
                -0.23690976009058795,
                0.5675675755162068,
                -2.5108282892627756
            ]
        },
        {
            "positions": [
                0.2707248758335424,
                -1.7643728364875557,
                2.4820333486960657,
                -0.28362802739756676,
                0.5956820098967851,
                -2.635122009582565
            ]
        },
        {
            "positions": [
                0.3796097918598903,
                -1.8006240145579442,
                2.4598181842515783,
                -0.3303462947045456,
                0.6237964442773634,
                -2.7594157299023543
            ]
        },
        {
            "positions": [
                0.48849470788623817,
                -1.8368751926283329,
                2.4376030198070913,
                -0.3770645620115244,
                0.6519108786579415,
                -2.883709450222143
            ]
        },
        {
            "positions": [
                0.5973796239125861,
                -1.8731263706987213,
                2.415387855362604,
                -0.4237828293185032,
                0.6800253130385198,
                -3.0080031705419326
            ]
        },
        {
            "positions": [
                0.706264539938934,
                -1.9093775487691098,
                2.393172690918117,
                -0.47050109662548195,
                0.708139747419098,
                -3.132296890861722
            ]
        }
    ]
}