{
    "goal": {
        "global_pose": {
            "orientation": {
                "w": 0.7031023502349854,
                "x": -0.7110244035720825,
                "y": 0.007748599164187908,
                "z": 0.005598929710686207
            },
            "position": {
                "x": 0.11585023208521307,
                "y": 0.44412534475326537,
                "z": 0.3711530566215515
            }
        },
        "name": "move_to_auspresseinheit_A"
    },
    "id": "BiTRRT_move_to_auspresseinheit_A_58",
    "joint_names": [
        "shoulder_pan_joint",
        "shoulder_lift_joint",
        "elbow_joint",
        "wrist_1_joint",
        "wrist_2_joint",
        "wrist_3_joint"
    ],
    "metrics": {
        "cart_traj_len": 0.6682499588145185,
        "distance_elbow_joint": 0.05889406754323012,
        "distance_shoulder_lift_joint": 0.5353733980947317,
        "distance_shoulder_pan_joint": 1.0446408383910937,
        "distance_wrist_1_joint": 0.5493321911858559,
        "distance_wrist_2_joint": 0.5538004080922629,
        "distance_wrist_3_joint": 0.32239107685743607,
        "smoothness": 0.32399190102157,
        "time": 0.05578818099999999,
        "traj_len": 1.7505519073036968,
        "weighted_distance": 2.1937061638144706
    },
    "planner": "BiTRRT",
    "start": {
        "state": {
            "elbow_joint": 2.422574709923281,
            "shoulder_lift_joint": -1.3736533754116391,
            "shoulder_pan_joint": -0.33786336945926293,
            "wrist_1_joint": -1.0288603412921917,
            "wrist_2_joint": 1.2330224858903978,
            "wrist_3_joint": -3.094022268022082
        }
    },
    "waypoints": [
        {
            "positions": [
                -0.33786336945926293,
                -1.3736533754116391,
                2.422574709923281,
                -1.0288603412921917,
                1.2330224858903978,
                -3.094022268022082
            ]
        },
        {
            "positions": [
                -0.24137537494289052,
                -1.4511184890128368,
                2.4252298157214973,
                -0.9516255513206098,
                1.143015916306987,
                -3.06933315945968
            ]
        },
        {
            "positions": [
                -0.14488738042651808,
                -1.5285836026140345,
                2.4278849215197136,
                -0.8743907613490278,
                1.0530093467235764,
                -3.044644050897278
            ]
        },
        {
            "positions": [
                -0.04839938591014564,
                -1.6060487162152322,
                2.43054002731793,
                -0.7971559713774458,
                0.9630027771401656,
                -3.0199549423348757
            ]
        },
        {
            "positions": [
                0.04808860860622677,
                -1.6835138298164298,
                2.4331951331161465,
                -0.7199211814058638,
                0.8729962075567549,
                -2.9952658337724736
            ]
        },
        {
            "positions": [
                0.14457660312259923,
                -1.7609789434176275,
                2.435850238914363,
                -0.6426863914342817,
                0.7829896379733441,
                -2.9705767252100714
            ]
        },
        {
            "positions": [
                0.2410645976389717,
                -1.8384440570188252,
                2.438505344712579,
                -0.5654516014626998,
                0.6929830683899334,
                -2.9458876166476693
            ]
        },
        {
            "positions": [
                0.3963022214032581,
                -1.8619716291813404,
                2.4241842004612684,
                -0.5368104510105784,
                0.6975700652538662,
                -3.003973091808677
            ]
        },
        {
            "positions": [
                0.5515398451675445,
                -1.8854992013438556,
                2.4098630562099577,
                -0.5081693005584572,
                0.7021570621177992,
                -3.062058566969685
            ]
        },
        {
            "positions": [
                0.7067774689318309,
                -1.9090267735063708,
                2.395541911958647,
                -0.47952815010633587,
                0.706744058981732,
                -3.1201440421306925
            ]
        }
    ]
}