{
    "goal": {
        "global_pose": {
            "orientation": {
                "w": 0.5084816217422485,
                "x": -0.49083608388900757,
                "y": 0.5182115435600281,
                "z": -0.4816462993621826
            },
            "position": {
                "x": 0.5540239810943604,
                "y": 0.030875300988554955,
                "z": 0.16403168439865112
            }
        },
        "name": "move_to_storage_A"
    },
    "id": "BiTRRT_move_to_storage_A_37",
    "joint_names": [
        "shoulder_pan_joint",
        "shoulder_lift_joint",
        "elbow_joint",
        "wrist_1_joint",
        "wrist_2_joint",
        "wrist_3_joint"
    ],
    "metrics": {
        "cart_traj_len": 0.35288962551911474,
        "distance_elbow_joint": 0.4506092626228364,
        "distance_shoulder_lift_joint": 0.23318018600575963,
        "distance_shoulder_pan_joint": 0.46173449061571764,
        "distance_wrist_1_joint": 0.24434768849938926,
        "distance_wrist_2_joint": 1.0970098303583145,
        "distance_wrist_3_joint": 0.09962618124878553,
        "smoothness": 4.440892098500626e-16,
        "time": 0.039507745999999996,
        "traj_len": 1.608262304274649,
        "weighted_distance": 2.031530831837429
    },
    "planner": "BiTRRT",
    "start": {
        "state": {
            "elbow_joint": 1.9715463870305268,
            "shoulder_lift_joint": -1.1394903361783484,
            "shoulder_pan_joint": 0.12281147578464417,
            "wrist_1_joint": -0.7804599489681411,
            "wrist_2_joint": 0.12958660307563738,
            "wrist_3_joint": -3.1924946282119055
        }
    },
    "waypoints": [
        {
            "positions": [
                0.12281147578464417,
                -1.1394903361783484,
                1.9715463870305268,
                -0.7804599489681411,
                0.12958660307563738,
                -3.1924946282119055
            ]
        },
        {
            "positions": [
                0.05684940569668451,
                -1.1728017913220283,
                2.035919138833789,
                -0.8153667616109109,
                0.28630229312682515,
                -3.178262316604936
            ]
        },
        {
            "positions": [
                -0.009112664391275158,
                -1.2061132464657083,
                2.1002918906370516,
                -0.8502735742536809,
                0.4430179831780129,
                -3.164030004997967
            ]
        },
        {
            "positions": [
                -0.07507473447923481,
                -1.2394247016093882,
                2.164664642440314,
                -0.8851803868964507,
                0.5997336732292007,
                -3.1497976933909975
            ]
        },
        {
            "positions": [
                -0.14103680456719447,
                -1.2727361567530682,
                2.229037394243576,
                -0.9200871995392207,
                0.7564493632803885,
                -3.135565381784028
            ]
        },
        {
            "positions": [
                -0.20699887465515415,
                -1.3060476118967481,
                2.2934101460468383,
                -0.9549940121819905,
                0.9131650533315763,
                -3.1213330701770587
            ]
        },
        {
            "positions": [
                -0.2729609447431138,
                -1.339359067040428,
                2.3577828978501008,
                -0.9899008248247605,
                1.069880743382764,
                -3.1071007585700894
            ]
        },
        {
            "positions": [
                -0.33892301483107345,
                -1.372670522184108,
                2.422155649653363,
                -1.0248076374675303,
                1.2265964334339519,
                -3.09286844696312
            ]
        }
    ]
}