{
    "goal": {
        "global_pose": {
            "orientation": {
                "w": 0.7047431468963623,
                "x": -0.7094548344612122,
                "y": 0.0024358443915843964,
                "z": -0.0022348060738295317
            },
            "position": {
                "x": 0.6094750761985779,
                "y": 0.3671506643295288,
                "z": 0.19426114857196808
            }
        },
        "name": "move_to_magneteinheit_A"
    },
    "id": "BiTRRT_move_to_magneteinheit_A_145",
    "joint_names": [
        "shoulder_pan_joint",
        "shoulder_lift_joint",
        "elbow_joint",
        "wrist_1_joint",
        "wrist_2_joint",
        "wrist_3_joint"
    ],
    "metrics": {
        "cart_traj_len": 1.8795092220821572,
        "distance_elbow_joint": 3.9069867052711715,
        "distance_shoulder_lift_joint": 0.698620070957507,
        "distance_shoulder_pan_joint": 1.2416159079993598,
        "distance_wrist_1_joint": 1.4843568593380692,
        "distance_wrist_2_joint": 1.692810078681333,
        "distance_wrist_3_joint": 1.1046084512126544,
        "smoothness": 4.934324565125532e-16,
        "time": 0.065795677,
        "traj_len": 3.1826086899680415,
        "weighted_distance": 3.938956957610074
    },
    "planner": "BiTRRT",
    "start": {
        "state": {
            "elbow_joint": -1.919643507792019,
            "shoulder_lift_joint": -0.07675430207160344,
            "shoulder_pan_joint": -1.1188671864651873,
            "wrist_1_joint": 0.42560062535961957,
            "wrist_2_joint": 1.5706038300724876,
            "wrist_3_joint": 1.1188968870953055
        }
    },
    "waypoints": [
        {
            "positions": [
                -1.1188671864651873,
                -0.07675430207160344,
                -1.919643507792019,
                0.42560062535961957,
                1.5706038300724876,
                1.1188968870953055
            ]
        },
        {
            "positions": [
                -1.071112728465212,
                -0.10362430480073832,
                -1.7693747883585125,
                0.48269127379569915,
                1.5054957501232056,
                1.0764119466640496
            ]
        },
        {
            "positions": [
                -1.0233582704652366,
                -0.1304943075298732,
                -1.6191060689250059,
                0.5397819222317788,
                1.4403876701739236,
                1.0339270062327937
            ]
        },
        {
            "positions": [
                -0.9756038124652612,
                -0.1573643102590081,
                -1.4688373494914992,
                0.5968725706678584,
                1.3752795902246415,
                0.9914420658015377
            ]
        },
        {
            "positions": [
                -0.9278493544652858,
                -0.18423431298814297,
                -1.3185686300579926,
                0.653963219103938,
                1.3101715102753595,
                0.9489571253702818
            ]
        },
        {
            "positions": [
                -0.8800948964653105,
                -0.21110431571727786,
                -1.168299910624486,
                0.7110538675400175,
                1.2450634303260775,
                0.9064721849390258
            ]
        },
        {
            "positions": [
                -0.832340438465335,
                -0.23797431844641276,
                -1.0180311911909794,
                0.7681445159760971,
                1.1799553503767954,
                0.8639872445077699
            ]
        },
        {
            "positions": [
                -0.7845859804653597,
                -0.2648443211755476,
                -0.867762471757473,
                0.8252351644121767,
                1.1148472704275134,
                0.8215023040765139
            ]
        },
        {
            "positions": [
                -0.7368315224653843,
                -0.29171432390468255,
                -0.7174937523239662,
                0.8823258128482563,
                1.0497391904782312,
                0.779017363645258
            ]
        },
        {
            "positions": [
                -0.689077064465409,
                -0.3185843266338174,
                -0.5672250328904598,
                0.9394164612843359,
                0.9846311105289492,
                0.7365324232140021
            ]
        },
        {
            "positions": [
                -0.6413226064654336,
                -0.3454543293629523,
                -0.41695631345695294,
                0.9965071097204155,
                0.9195230305796672,
                0.6940474827827461
            ]
        },
        {
            "positions": [
                -0.5935681484654582,
                -0.37232433209208715,
                -0.26668759402344655,
                1.053597758156495,
                0.8544149506303852,
                0.6515625423514902
            ]
        },
        {
            "positions": [
                -0.5458136904654828,
                -0.3991943348212221,
                -0.11641887458993971,
                1.1106884065925746,
                0.7893068706811032,
                0.6090776019202343
            ]
        },
        {
            "positions": [
                -0.49805923246550743,
                -0.42606433755035694,
                0.03384984484356668,
                1.1677790550286542,
                0.7241987907318211,
                0.5665926614889784
            ]
        },
        {
            "positions": [
                -0.4503047744655321,
                -0.4529343402794918,
                0.18411856427707307,
                1.2248697034647338,
                0.6590907107825391,
                0.5241077210577224
            ]
        },
        {
            "positions": [
                -0.4025503164655567,
                -0.4798043430086267,
                0.3343872837105797,
                1.2819603519008131,
                0.5939826308332572,
                0.4816227806264666
            ]
        },
        {
            "positions": [
                -0.35479585846558126,
                -0.5066743457377616,
                0.48465600314408674,
                1.339051000336893,
                0.528874550883975,
                0.4391378401952105
            ]
        },
        {
            "positions": [
                -0.3070414004656059,
                -0.5335443484668965,
                0.6349247225775929,
                1.3961416487729725,
                0.4637664709346929,
                0.39665289976395457
            ]
        },
        {
            "positions": [
                -0.25928694246563055,
                -0.5604143511960313,
                0.7851934420110995,
                1.4532322972090521,
                0.3986583909854109,
                0.35416795933269873
            ]
        },
        {
            "positions": [
                -0.2115324844656552,
                -0.5872843539251662,
                0.9354621614446061,
                1.5103229456451317,
                0.3335503110361291,
                0.3116830189014428
            ]
        },
        {
            "positions": [
                -0.16377802646567974,
                -0.6141543566543011,
                1.0857308808781132,
                1.5674135940812113,
                0.26844223108684684,
                0.26919807847018673
            ]
        },
        {
            "positions": [
                -0.11602356846570427,
                -0.6410243593834359,
                1.2359996003116194,
                1.6245042425172909,
                0.2033341511375648,
                0.22671313803893078
            ]
        },
        {
            "positions": [
                -0.06826911046572914,
                -0.6678943621125708,
                1.386268319745126,
                1.6815948909533704,
                0.13822607118828278,
                0.18422819760767495
            ]
        },
        {
            "positions": [
                -0.02051465246575379,
                -0.6947643648417057,
                1.5365370391786326,
                1.73868553938945,
                0.07311799123900076,
                0.141743257176419
            ]
        },
        {
            "positions": [
                0.027239805534221784,
                -0.7216343675708408,
                1.6868057586121397,
                1.7957761878255296,
                0.00800991128971873,
                0.09925831674516306
            ]
        },
        {
            "positions": [
                0.07499426353419714,
                -0.7485043702999756,
                1.8370744780456458,
                1.8528668362616092,
                -0.0570981686595633,
                0.05677337631390711
            ]
        },
        {
            "positions": [
                0.12274872153417245,
                -0.7753743730291105,
                1.9873431974791524,
                1.9099574846976888,
                -0.12220624860884523,
                0.014288435882651164
            ]
        }
    ]
}