{
    "goal": {
        "global_pose": {
            "orientation": {
                "w": 0.7031023502349854,
                "x": -0.7110244035720825,
                "y": 0.007748599164187908,
                "z": 0.005598929710686207
            },
            "position": {
                "x": 0.11585023208521307,
                "y": 0.44412534475326537,
                "z": 0.3711530566215515
            }
        },
        "name": "move_to_auspresseinheit_A"
    },
    "id": "BiTRRT_move_to_auspresseinheit_A_108",
    "joint_names": [
        "shoulder_pan_joint",
        "shoulder_lift_joint",
        "elbow_joint",
        "wrist_1_joint",
        "wrist_2_joint",
        "wrist_3_joint"
    ],
    "metrics": {
        "cart_traj_len": 0.6788807806471455,
        "distance_elbow_joint": 0.1425903272542821,
        "distance_shoulder_lift_joint": 0.5340836572379497,
        "distance_shoulder_pan_joint": 1.0431089126791278,
        "distance_wrist_1_joint": 0.9053346246766067,
        "distance_wrist_2_joint": 0.5185961535485022,
        "distance_wrist_3_joint": 0.23993673850475616,
        "smoothness": 0.7527807937219767,
        "time": 0.129660584,
        "traj_len": 1.839470144879015,
        "weighted_distance": 2.2994466006271694
    },
    "planner": "BiTRRT",
    "start": {
        "state": {
            "elbow_joint": 2.422574709923281,
            "shoulder_lift_joint": -1.3736533754116391,
            "shoulder_pan_joint": -0.33786336945926293,
            "wrist_1_joint": -1.0288603412921917,
            "wrist_2_joint": 1.2330224858903978,
            "wrist_3_joint": -3.094022268022082
        }
    },
    "waypoints": [
        {
            "positions": [
                -0.33786336945926293,
                -1.3736533754116391,
                2.422574709923281,
                -1.0288603412921917,
                1.2330224858903978,
                -3.094022268022082
            ]
        },
        {
            "positions": [
                -0.219627053855615,
                -1.44029094532132,
                2.4304900256970354,
                -0.9229522528994044,
                1.1764953584398106,
                -3.0801858428224125
            ]
        },
        {
            "positions": [
                -0.1013907382519671,
                -1.5069285152310008,
                2.4384053414707902,
                -0.8170441645066172,
                1.1199682309892236,
                -3.0663494176227433
            ]
        },
        {
            "positions": [
                0.016845577351680796,
                -1.5735660851406819,
                2.4463206572445446,
                -0.7111360761138299,
                1.0634411035386364,
                -3.0525129924230736
            ]
        },
        {
            "positions": [
                0.13508189295532874,
                -1.6402036550503627,
                2.454235973018299,
                -0.6052279877210427,
                1.0069139760880494,
                -3.038676567223404
            ]
        },
        {
            "positions": [
                0.25331820855897674,
                -1.7068412249600438,
                2.4621512887920534,
                -0.49931989932825527,
                0.9503868486374623,
                -3.0248401420237343
            ]
        },
        {
            "positions": [
                0.3715545241626245,
                -1.7734787948697246,
                2.470066604565808,
                -0.39341181093546806,
                0.8938597211868753,
                -3.011003716824065
            ]
        },
        {
            "positions": [
                0.4897908397662726,
                -1.8401163647794054,
                2.4779819203395625,
                -0.28750372254268075,
                0.8373325937362881,
                -2.9971672916243954
            ]
        },
        {
            "positions": [
                0.5616090742508033,
                -1.8626565874027998,
                2.4489208813935623,
                -0.34216305785171264,
                0.7963638399381573,
                -3.0448612123267518
            ]
        },
        {
            "positions": [
                0.6334273087353341,
                -1.8851968100261944,
                2.419859842447562,
                -0.3968223931607445,
                0.7553950861400264,
                -3.0925551330291086
            ]
        },
        {
            "positions": [
                0.7052455432198649,
                -1.9077370326495888,
                2.390798803501562,
                -0.45148172846977647,
                0.7144263323418956,
                -3.140249053731465
            ]
        }
    ]
}