{
    "goal": {
        "global_pose": {
            "orientation": {
                "w": 0.5084816217422485,
                "x": -0.49083608388900757,
                "y": 0.5182115435600281,
                "z": -0.4816462993621826
            },
            "position": {
                "x": 0.5540239810943604,
                "y": 0.030875300988554955,
                "z": 0.16403168439865112
            }
        },
        "name": "move_to_storage_A"
    },
    "id": "BiTRRT_move_to_storage_A_98",
    "joint_names": [
        "shoulder_pan_joint",
        "shoulder_lift_joint",
        "elbow_joint",
        "wrist_1_joint",
        "wrist_2_joint",
        "wrist_3_joint"
    ],
    "metrics": {
        "cart_traj_len": 0.35315538725192724,
        "distance_elbow_joint": 0.44984820183732355,
        "distance_shoulder_lift_joint": 0.23406983989542884,
        "distance_shoulder_pan_joint": 0.4622337611576199,
        "distance_wrist_1_joint": 0.23744484432379276,
        "distance_wrist_2_joint": 1.0974523101434344,
        "distance_wrist_3_joint": 0.09680537405102685,
        "smoothness": 1.7763568391112168e-15,
        "time": 0.042054578999999995,
        "traj_len": 1.6055697840357566,
        "weighted_distance": 2.0264161058326366
    },
    "planner": "BiTRRT",
    "start": {
        "state": {
            "elbow_joint": 1.9715463870305268,
            "shoulder_lift_joint": -1.1394903361783484,
            "shoulder_pan_joint": 0.12281147578464417,
            "wrist_1_joint": -0.7804599489681411,
            "wrist_2_joint": 0.12958660307563738,
            "wrist_3_joint": -3.1924946282119055
        }
    },
    "waypoints": [
        {
            "positions": [
                0.12281147578464417,
                -1.1394903361783484,
                1.9715463870305268,
                -0.7804599489681411,
                0.12958660307563738,
                -3.1924946282119055
            ]
        },
        {
            "positions": [
                0.05677808133355562,
                -1.1729288847348383,
                2.03581041586443,
                -0.8143806410143972,
                0.28636550452469944,
                -3.178665289061759
            ]
        },
        {
            "positions": [
                -0.009255313117532929,
                -1.2063674332913281,
                2.1000744446983335,
                -0.8483013330606533,
                0.4431444059737615,
                -3.164835949911612
            ]
        },
        {
            "positions": [
                -0.07528870756862148,
                -1.239805981847818,
                2.164338473532237,
                -0.8822220251069094,
                0.5999233074228235,
                -3.1510066107614656
            ]
        },
        {
            "positions": [
                -0.14132210201971002,
                -1.2732445304043076,
                2.22860250236614,
                -0.9161427171531655,
                0.7567022088718856,
                -3.1371772716113187
            ]
        },
        {
            "positions": [
                -0.2073554964707986,
                -1.3066830789607975,
                2.2928665312000436,
                -0.9500634091994216,
                0.9134811103209477,
                -3.123347932461172
            ]
        },
        {
            "positions": [
                -0.2733888909218871,
                -1.3401216275172874,
                2.357130560033947,
                -0.9839841012456777,
                1.0702600117700096,
                -3.109518593311025
            ]
        },
        {
            "positions": [
                -0.3394222853729757,
                -1.3735601760737772,
                2.4213945888678503,
                -1.0179047932919338,
                1.2270389132190718,
                -3.0956892541608787
            ]
        }
    ]
}