{
    "goal": {
        "global_pose": {
            "orientation": {
                "w": 0.7047431468963623,
                "x": -0.7094548344612122,
                "y": 0.0024358443915843964,
                "z": -0.0022348060738295317
            },
            "position": {
                "x": 0.6094750761985779,
                "y": 0.3671506643295288,
                "z": 0.19426114857196808
            }
        },
        "name": "move_to_magneteinheit_A"
    },
    "id": "BiTRRT_move_to_magneteinheit_A_66",
    "joint_names": [
        "shoulder_pan_joint",
        "shoulder_lift_joint",
        "elbow_joint",
        "wrist_1_joint",
        "wrist_2_joint",
        "wrist_3_joint"
    ],
    "metrics": {
        "cart_traj_len": 2.0535077558259704,
        "distance_elbow_joint": 3.870824839291557,
        "distance_shoulder_lift_joint": 1.0518174630960113,
        "distance_shoulder_pan_joint": 1.2417762206744487,
        "distance_wrist_1_joint": 1.1189366912867165,
        "distance_wrist_2_joint": 1.4454798953668202,
        "distance_wrist_3_joint": 4.38688222791777,
        "smoothness": 4.0602442078628393e-16,
        "time": 0.142341689,
        "traj_len": 3.62156283082778,
        "weighted_distance": 4.945088308627299
    },
    "planner": "BiTRRT",
    "start": {
        "state": {
            "elbow_joint": -1.919643507792019,
            "shoulder_lift_joint": -0.07675430207160344,
            "shoulder_pan_joint": -1.1188671864651873,
            "wrist_1_joint": 0.42560062535961957,
            "wrist_2_joint": 1.5706038300724876,
            "wrist_3_joint": 1.1188968870953055
        }
    },
    "waypoints": [
        {
            "positions": [
                -1.1188671864651873,
                -0.07675430207160344,
                -1.919643507792019,
                0.42560062535961957,
                1.5706038300724876,
                1.1188968870953055
            ]
        },
        {
            "positions": [
                -1.0821528391075497,
                -0.1083945857471448,
                -1.804112484849659,
                0.3926944991934953,
                1.5269681937112287,
                0.9882218139721005
            ]
        },
        {
            "positions": [
                -1.0454384917499122,
                -0.14003486942268617,
                -1.688581461907299,
                0.35978837302737104,
                1.48333255734997,
                0.8575467408488955
            ]
        },
        {
            "positions": [
                -1.0087241443922745,
                -0.17167515309822756,
                -1.573050438964939,
                0.3268822468612468,
                1.4396969209887112,
                0.7268716677256903
            ]
        },
        {
            "positions": [
                -0.9720097970346369,
                -0.20331543677376893,
                -1.457519416022579,
                0.29397612069512247,
                1.3960612846274525,
                0.5961965946024854
            ]
        },
        {
            "positions": [
                -0.9352954496769993,
                -0.23495572044931032,
                -1.3419883930802188,
                0.2610699945289982,
                1.3524256482661936,
                0.4655215214792803
            ]
        },
        {
            "positions": [
                -0.8985811023193616,
                -0.2665960041248517,
                -1.226457370137859,
                0.22816386836287395,
                1.308790011904935,
                0.33484644835607524
            ]
        },
        {
            "positions": [
                -0.861866754961724,
                -0.298236287800393,
                -1.1109263471954989,
                0.19525774219674968,
                1.265154375543676,
                0.2041713752328702
            ]
        },
        {
            "positions": [
                -0.8251524076040864,
                -0.3298765714759344,
                -0.9953953242531388,
                0.16235161603062542,
                1.2215187391824172,
                0.07349630210966529
            ]
        },
        {
            "positions": [
                -0.7884380602464488,
                -0.36151685515147575,
                -0.879864301310779,
                0.12944548986450116,
                1.1778831028211585,
                -0.05717877101353985
            ]
        },
        {
            "positions": [
                -0.7517237128888112,
                -0.3931571388270172,
                -0.7643332783684187,
                0.09653936369837685,
                1.1342474664598996,
                -0.187853844136745
            ]
        },
        {
            "positions": [
                -0.7150093655311736,
                -0.42479742250255853,
                -0.6488022554260588,
                0.06363323753225264,
                1.090611830098641,
                -0.3185289172599499
            ]
        },
        {
            "positions": [
                -0.6782950181735359,
                -0.4564377061780999,
                -0.5332712324836988,
                0.030727111366128323,
                1.046976193737382,
                -0.44920399038315506
            ]
        },
        {
            "positions": [
                -0.6415806708158984,
                -0.48807798985364126,
                -0.4177402095413387,
                -0.0021790147999959375,
                1.0033405573761232,
                -0.57987906350636
            ]
        },
        {
            "positions": [
                -0.6048663234582607,
                -0.5197182735291827,
                -0.30220918659897866,
                -0.0350851409661202,
                0.9597049210148645,
                -0.7105541366295651
            ]
        },
        {
            "positions": [
                -0.5681519761006231,
                -0.5513585572047239,
                -0.18667816365661882,
                -0.06799126713224446,
                0.9160692846536057,
                -0.84122920975277
            ]
        },
        {
            "positions": [
                -0.5314376287429855,
                -0.5829988408802653,
                -0.07114714071425854,
                -0.10089739329836872,
                0.8724336482923468,
                -0.971904282875975
            ]
        },
        {
            "positions": [
                -0.4947232813853478,
                -0.6146391245558067,
                0.0443838822281013,
                -0.13380351946449304,
                0.8287980119310882,
                -1.1025793559991803
            ]
        },
        {
            "positions": [
                -0.45800893402771026,
                -0.6462794082313481,
                0.15991490517046114,
                -0.16670964563061724,
                0.7851623755698294,
                -1.2332544291223853
            ]
        },
        {
            "positions": [
                -0.4212945866700726,
                -0.6779196919068895,
                0.2754459281128214,
                -0.19961577179674156,
                0.7415267392085705,
                -1.3639295022455906
            ]
        },
        {
            "positions": [
                -0.384580239312435,
                -0.7095599755824309,
                0.3909769510551817,
                -0.23252189796286588,
                0.6978911028473117,
                -1.4946045753687955
            ]
        },
        {
            "positions": [
                -0.34786589195479745,
                -0.7412002592579723,
                0.5065079739975415,
                -0.2654280241289901,
                0.6542554664860529,
                -1.6252796484920005
            ]
        },
        {
            "positions": [
                -0.31115154459715977,
                -0.7728405429335137,
                0.6220389969399014,
                -0.2983341502951143,
                0.6106198301247941,
                -1.7559547216152054
            ]
        },
        {
            "positions": [
                -0.2744371972395221,
                -0.8044808266090551,
                0.7375700198822617,
                -0.3312402764612387,
                0.5669841937635351,
                -1.8866297947384107
            ]
        },
        {
            "positions": [
                -0.23772284988188452,
                -0.8361211102845965,
                0.8531010428246215,
                -0.3641464026273629,
                0.5233485574022765,
                -2.0173048678616157
            ]
        },
        {
            "positions": [
                -0.20100850252424696,
                -0.8677613939601376,
                0.9686320657669818,
                -0.3970525287934871,
                0.4797129210410178,
                -2.1479799409848206
            ]
        },
        {
            "positions": [
                -0.1642941551666094,
                -0.899401677635679,
                1.0841630887093416,
                -0.42995865495961144,
                0.4360772846797589,
                -2.2786550141080255
            ]
        },
        {
            "positions": [
                -0.1275798078089716,
                -0.9310419613112206,
                1.199694111651702,
                -0.46286478112573576,
                0.39244164831850004,
                -2.409330087231231
            ]
        },
        {
            "positions": [
                -0.09086546045133415,
                -0.9626822449867618,
                1.3152251345940618,
                -0.49577090729185996,
                0.34880601195724137,
                -2.540005160354436
            ]
        },
        {
            "positions": [
                -0.05415111309369647,
                -0.9943225286623032,
                1.4307561575364216,
                -0.5286770334579842,
                0.3051703755959825,
                -2.6706802334776407
            ]
        },
        {
            "positions": [
                -0.01743676573605879,
                -1.0259628123378446,
                1.5462871804787814,
                -0.5615831596241085,
                0.2615347392347238,
                -2.8013553066008456
            ]
        },
        {
            "positions": [
                0.019277581621578888,
                -1.057603096013386,
                1.6618182034211422,
                -0.5944892857902329,
                0.21789910287346492,
                -2.932030379724051
            ]
        },
        {
            "positions": [
                0.05599192897921634,
                -1.0892433796889274,
                1.777349226363502,
                -0.627395411956357,
                0.17426346651220603,
                -3.0627054528472555
            ]
        },
        {
            "positions": [
                0.09270627633685392,
                -1.1208836633644688,
                1.8928802493058619,
                -0.6603015381224813,
                0.1306278301509473,
                -3.1933805259704613
            ]
        },
        {
            "positions": [
                0.1229090342092613,
                -1.1285717651676148,
                1.9511813314995379,
                -0.693336065927097,
                0.1251239347056673,
                -3.2679853408224644
            ]
        }
    ]
}