{
    "goal": {
        "global_pose": {
            "orientation": {
                "w": 0.7047431468963623,
                "x": -0.7094548344612122,
                "y": 0.0024358443915843964,
                "z": -0.0022348060738295317
            },
            "position": {
                "x": 0.6094750761985779,
                "y": 0.3671506643295288,
                "z": 0.19426114857196808
            }
        },
        "name": "move_to_magneteinheit_A"
    },
    "id": "BiTRRT_move_to_magneteinheit_A_19",
    "joint_names": [
        "shoulder_pan_joint",
        "shoulder_lift_joint",
        "elbow_joint",
        "wrist_1_joint",
        "wrist_2_joint",
        "wrist_3_joint"
    ],
    "metrics": {
        "cart_traj_len": 1.8795419194344523,
        "distance_elbow_joint": 3.908088766152881,
        "distance_shoulder_lift_joint": 0.6987888411715508,
        "distance_shoulder_pan_joint": 1.2427145147093817,
        "distance_wrist_1_joint": 1.4865862935634089,
        "distance_wrist_2_joint": 1.6980400036883054,
        "distance_wrist_3_joint": 1.1088775437463418,
        "smoothness": 3.9474596565212315e-16,
        "time": 0.066413325,
        "traj_len": 3.18482275221587,
        "weighted_distance": 3.9427753356964517
    },
    "planner": "BiTRRT",
    "start": {
        "state": {
            "elbow_joint": -1.919643507792019,
            "shoulder_lift_joint": -0.07675430207160344,
            "shoulder_pan_joint": -1.1188671864651873,
            "wrist_1_joint": 0.42560062535961957,
            "wrist_2_joint": 1.5706038300724876,
            "wrist_3_joint": 1.1188968870953055
        }
    },
    "waypoints": [
        {
            "positions": [
                -1.1188671864651873,
                -0.07675430207160344,
                -1.919643507792019,
                0.42560062535961957,
                1.5706038300724876,
                1.1188968870953055
            ]
        },
        {
            "positions": [
                -1.0710704743609805,
                -0.10363079596281694,
                -1.7693324014015237,
                0.48277702126590455,
                1.5052945991613988,
                1.0762477507973693
            ]
        },
        {
            "positions": [
                -1.0232737622567734,
                -0.13050728985403043,
                -1.619021295011028,
                0.5399534171721895,
                1.4399853682503103,
                1.0335986144994331
            ]
        },
        {
            "positions": [
                -0.9754770501525664,
                -0.15738378374524392,
                -1.4687101886205327,
                0.5971298130784745,
                1.3746761373392216,
                0.9909494782014969
            ]
        },
        {
            "positions": [
                -0.9276803380483594,
                -0.18426027763645741,
                -1.3183990822300373,
                0.6543062089847594,
                1.3093669064281328,
                0.9483003419035606
            ]
        },
        {
            "positions": [
                -0.8798836259441524,
                -0.2111367715276709,
                -1.168087975839542,
                0.7114826048910443,
                1.2440576755170443,
                0.9056512056056244
            ]
        },
        {
            "positions": [
                -0.8320869138399454,
                -0.2380132654188844,
                -1.0177768694490466,
                0.7686590007973293,
                1.1787484446059555,
                0.8630020693076882
            ]
        },
        {
            "positions": [
                -0.7842902017357385,
                -0.2648897593100979,
                -0.8674657630585512,
                0.8258353967036143,
                1.113439213694867,
                0.820352933009752
            ]
        },
        {
            "positions": [
                -0.7364934896315314,
                -0.2917662532013114,
                -0.7171546566680556,
                0.8830117926098993,
                1.0481299827837782,
                0.7777037967118157
            ]
        },
        {
            "positions": [
                -0.6886967775273245,
                -0.3186427470925249,
                -0.5668435502775604,
                0.9401881885161842,
                0.9828207518726896,
                0.7350546604138795
            ]
        },
        {
            "positions": [
                -0.6409000654231174,
                -0.3455192409837384,
                -0.4165324438870648,
                0.9973645844224692,
                0.9175115209616008,
                0.6924055241159432
            ]
        },
        {
            "positions": [
                -0.5931033533189105,
                -0.37239573487495187,
                -0.2662213374965694,
                1.054540980328754,
                0.8522022900505123,
                0.649756387818007
            ]
        },
        {
            "positions": [
                -0.5453066412147035,
                -0.39927222876616536,
                -0.11591023110607401,
                1.1117173762350392,
                0.7868930591394235,
                0.6071072515200708
            ]
        },
        {
            "positions": [
                -0.4975099291104965,
                -0.42614872265737885,
                0.03440087528442137,
                1.168893772141324,
                0.7215838282283349,
                0.5644581152221346
            ]
        },
        {
            "positions": [
                -0.4497132170062895,
                -0.45302521654859235,
                0.18471198167491676,
                1.226070168047609,
                0.6562745973172462,
                0.5218089789241984
            ]
        },
        {
            "positions": [
                -0.40191650490208264,
                -0.4799017104398058,
                0.33502308806541214,
                1.283246563953894,
                0.5909653664061576,
                0.4791598426262622
            ]
        },
        {
            "positions": [
                -0.35411979279787553,
                -0.5067782043310194,
                0.485334194455908,
                1.340422959860179,
                0.5256561354950688,
                0.4365107063283259
            ]
        },
        {
            "positions": [
                -0.30632308069366854,
                -0.5336546982222328,
                0.6356453008464029,
                1.3975993557664639,
                0.4603469045839801,
                0.3938615700303897
            ]
        },
        {
            "positions": [
                -0.25852636858946165,
                -0.5605311921134464,
                0.7859564072368983,
                1.4547757516727489,
                0.39503767367289155,
                0.3512124337324535
            ]
        },
        {
            "positions": [
                -0.21072965648525466,
                -0.5874076860046598,
                0.9362675136273937,
                1.5119521475790338,
                0.329728442761803,
                0.3085632974345174
            ]
        },
        {
            "positions": [
                -0.16293294438104755,
                -0.6142841798958734,
                1.0865786200178895,
                1.5691285434853188,
                0.26441921185071404,
                0.26591416113658095
            ]
        },
        {
            "positions": [
                -0.11513623227684056,
                -0.6411606737870867,
                1.236889726408385,
                1.6263049393916038,
                0.1991099809396255,
                0.22326502483864485
            ]
        },
        {
            "positions": [
                -0.06733952017263367,
                -0.6680371676783003,
                1.3872008327988803,
                1.6834813352978886,
                0.13380075002853697,
                0.18061588854070865
            ]
        },
        {
            "positions": [
                -0.019542808068426787,
                -0.6949136615695137,
                1.5375119391893752,
                1.7406577312041736,
                0.06849151911744822,
                0.13796675224277244
            ]
        },
        {
            "positions": [
                0.02825390403578032,
                -0.7217901554607273,
                1.687823045579871,
                1.7978341271104588,
                0.0031822882063594626,
                0.09531761594483612
            ]
        },
        {
            "positions": [
                0.07605061613998743,
                -0.7486666493519407,
                1.8381341519703664,
                1.8550105230167435,
                -0.06212694270472929,
                0.05266847964689991
            ]
        },
        {
            "positions": [
                0.12384732824419425,
                -0.7755431432431543,
                1.9884452583608618,
                1.9121869189230285,
                -0.12743617361581794,
                0.010019343348963702
            ]
        }
    ]
}