{
    "goal": {
        "global_pose": {
            "orientation": {
                "w": 0.7031023502349854,
                "x": -0.7110244035720825,
                "y": 0.007748599164187908,
                "z": 0.005598929710686207
            },
            "position": {
                "x": 0.11585023208521307,
                "y": 0.44412534475326537,
                "z": 0.3711530566215515
            }
        },
        "name": "move_to_auspresseinheit_A"
    },
    "id": "BiTRRT_move_to_auspresseinheit_A_46",
    "joint_names": [
        "shoulder_pan_joint",
        "shoulder_lift_joint",
        "elbow_joint",
        "wrist_1_joint",
        "wrist_2_joint",
        "wrist_3_joint"
    ],
    "metrics": {
        "cart_traj_len": 1.6997426191048537,
        "distance_elbow_joint": 2.9858811783420727,
        "distance_shoulder_lift_joint": 0.7762911611351802,
        "distance_shoulder_pan_joint": 1.043375094789111,
        "distance_wrist_1_joint": 2.037149214999163,
        "distance_wrist_2_joint": 1.3832820942289388,
        "distance_wrist_3_joint": 2.68476173329956,
        "smoothness": 0.5403840257539408,
        "time": 0.064898082,
        "traj_len": 3.303141001651916,
        "weighted_distance": 4.4385465247782685
    },
    "planner": "BiTRRT",
    "start": {
        "state": {
            "elbow_joint": 2.422574709923281,
            "shoulder_lift_joint": -1.3736533754116391,
            "shoulder_pan_joint": -0.33786336945926293,
            "wrist_1_joint": -1.0288603412921917,
            "wrist_2_joint": 1.2330224858903978,
            "wrist_3_joint": -3.094022268022082
        }
    },
    "waypoints": [
        {
            "positions": [
                -0.33786336945926293,
                -1.3736533754116391,
                2.422574709923281,
                -1.0288603412921917,
                1.2330224858903978,
                -3.094022268022082
            ]
        },
        {
            "positions": [
                -0.29385670102816885,
                -1.3655672653080617,
                2.322021544129388,
                -0.9462144476448048,
                1.16933724114006,
                -3.0059416996138246
            ]
        },
        {
            "positions": [
                -0.24985003259707472,
                -1.357481155204484,
                2.2214683783354956,
                -0.8635685539974178,
                1.1056519963897224,
                -2.9178611312055676
            ]
        },
        {
            "positions": [
                -0.20584336416598065,
                -1.3493950451009067,
                2.1209152125416026,
                -0.7809226603500308,
                1.0419667516393847,
                -2.82978056279731
            ]
        },
        {
            "positions": [
                -0.16183669573488654,
                -1.3413089349973293,
                2.02036204674771,
                -0.6982767667026438,
                0.9782815068890471,
                -2.741699994389053
            ]
        },
        {
            "positions": [
                -0.11783002730379247,
                -1.3332228248937519,
                1.9198088809538172,
                -0.6156308730552569,
                0.9145962621387094,
                -2.6536194259807955
            ]
        },
        {
            "positions": [
                -0.07382335887269836,
                -1.3251367147901743,
                1.8192557151599242,
                -0.5329849794078698,
                0.8509110173883717,
                -2.5655388575725384
            ]
        },
        {
            "positions": [
                -0.029816690441604288,
                -1.3170506046865968,
                1.7187025493660317,
                -0.450339085760483,
                0.7872257726380341,
                -2.477458289164281
            ]
        },
        {
            "positions": [
                0.014189977989489844,
                -1.3089644945830194,
                1.6181493835721388,
                -0.3676931921130959,
                0.7235405278876964,
                -2.3893777207560234
            ]
        },
        {
            "positions": [
                0.05819664642058392,
                -1.300878384479442,
                1.5175962177782463,
                -0.285047298465709,
                0.6598552831373588,
                -2.3012971523477663
            ]
        },
        {
            "positions": [
                0.102203314851678,
                -1.2927922743758644,
                1.4170430519843533,
                -0.20240140481832203,
                0.5961700383870211,
                -2.2132165839395093
            ]
        },
        {
            "positions": [
                0.14620998328277207,
                -1.284706164272287,
                1.3164898861904606,
                -0.11975551117093508,
                0.5324847936366834,
                -2.1251360155312518
            ]
        },
        {
            "positions": [
                0.1902166517138662,
                -1.2766200541687096,
                1.2159367203965676,
                -0.03710961752354802,
                0.4687995488863457,
                -2.0370554471229942
            ]
        },
        {
            "positions": [
                0.23422332014496033,
                -1.268533944065132,
                1.115383554602675,
                0.045536276123838926,
                0.405114304136008,
                -1.948974878714737
            ]
        },
        {
            "positions": [
                0.27822998857605435,
                -1.2604478339615546,
                1.0148303888087822,
                0.12818216977122576,
                0.34142905938567036,
                -1.8608943103064797
            ]
        },
        {
            "positions": [
                0.32223665700714843,
                -1.2523617238579772,
                0.9142772230148896,
                0.21082806341861288,
                0.2777438146353327,
                -1.7728137418982224
            ]
        },
        {
            "positions": [
                0.35318832595308236,
                -1.2895001215438102,
                0.9600749993555748,
                0.24383855633395887,
                0.2777624012820778,
                -1.827759838585071
            ]
        },
        {
            "positions": [
                0.3841399948990163,
                -1.3266385192296433,
                1.0058727756962602,
                0.27684904924930487,
                0.2777809879288229,
                -1.8827059352719195
            ]
        },
        {
            "positions": [
                0.4051265069632219,
                -1.3836622931490863,
                1.1338935003921775,
                0.2599796729953141,
                0.314733832443549,
                -2.0006252063415673
            ]
        },
        {
            "positions": [
                0.4261130190274275,
                -1.4406860670685293,
                1.2619142250880948,
                0.2431102967413234,
                0.35168667695827516,
                -2.1185444774112145
            ]
        },
        {
            "positions": [
                0.4470995310916331,
                -1.4977098409879726,
                1.389934949784012,
                0.22624092048733266,
                0.3886395214730013,
                -2.2364637484808623
            ]
        },
        {
            "positions": [
                0.4680860431558387,
                -1.5547336149074156,
                1.5179556744799294,
                0.20937154423334192,
                0.42559236598772743,
                -2.35438301955051
            ]
        },
        {
            "positions": [
                0.4890725552200443,
                -1.6117573888268586,
                1.645976399175847,
                0.19250216797935119,
                0.4625452105024536,
                -2.4723022906201573
            ]
        },
        {
            "positions": [
                0.5100590672842499,
                -1.6687811627463016,
                1.7739971238717642,
                0.17563279172536045,
                0.49949805501717975,
                -2.590221561689805
            ]
        },
        {
            "positions": [
                0.5149211740963048,
                -1.698278271472702,
                1.8712944632109048,
                0.12188210204973754,
                0.5419455269430471,
                -2.6728982752207178
            ]
        },
        {
            "positions": [
                0.5197832809083596,
                -1.7277753801991027,
                1.968591802550045,
                0.06813141237411462,
                0.5843929988689144,
                -2.7555749887516305
            ]
        },
        {
            "positions": [
                0.5246453877204145,
                -1.7572724889255031,
                2.0658891418891856,
                0.014380722698491694,
                0.6268404707947817,
                -2.8382517022825433
            ]
        },
        {
            "positions": [
                0.5500135159723039,
                -1.7889643659905647,
                2.1605281005285057,
                -0.08888764531877978,
                0.6645278016222775,
                -2.920520955278943
            ]
        },
        {
            "positions": [
                0.5753816442241932,
                -1.8206562430556263,
                2.2551670591678263,
                -0.19215601333605126,
                0.7022151324497734,
                -3.002790208275343
            ]
        },
        {
            "positions": [
                0.6404466847770205,
                -1.864008738247561,
                2.3235139868081984,
                -0.3233733942722061,
                0.7039811850294897,
                -3.0695785786746326
            ]
        },
        {
            "positions": [
                0.7055117253298477,
                -1.9073612334394954,
                2.3918609144485705,
                -0.454590775208361,
                0.7057472376092059,
                -3.1363669490739228
            ]
        }
    ]
}