{
    "goal": {
        "global_pose": {
            "orientation": {
                "w": 0.5084816217422485,
                "x": -0.49083608388900757,
                "y": 0.5182115435600281,
                "z": -0.4816462993621826
            },
            "position": {
                "x": 0.5540239810943604,
                "y": 0.030875300988554955,
                "z": 0.16403168439865112
            }
        },
        "name": "move_to_storage_A"
    },
    "id": "BiTRRT_move_to_storage_A_76",
    "joint_names": [
        "shoulder_pan_joint",
        "shoulder_lift_joint",
        "elbow_joint",
        "wrist_1_joint",
        "wrist_2_joint",
        "wrist_3_joint"
    ],
    "metrics": {
        "cart_traj_len": 0.352673953119766,
        "distance_elbow_joint": 0.44836079024429853,
        "distance_shoulder_lift_joint": 0.2331709580745449,
        "distance_shoulder_pan_joint": 0.4619342091800395,
        "distance_wrist_1_joint": 0.24171298779643358,
        "distance_wrist_2_joint": 1.093598399898632,
        "distance_wrist_3_joint": 0.09559227849653373,
        "smoothness": 1.1102230263833737e-15,
        "time": 0.041849385,
        "traj_len": 1.6044842235717005,
        "weighted_distance": 2.0250593987284953
    },
    "planner": "BiTRRT",
    "start": {
        "state": {
            "elbow_joint": 1.9715463870305268,
            "shoulder_lift_joint": -1.1394903361783484,
            "shoulder_pan_joint": 0.12281147578464417,
            "wrist_1_joint": -0.7804599489681411,
            "wrist_2_joint": 0.12958660307563738,
            "wrist_3_joint": -3.1924946282119055
        }
    },
    "waypoints": [
        {
            "positions": [
                0.12281147578464417,
                -1.1394903361783484,
                1.9715463870305268,
                -0.7804599489681411,
                0.12958660307563738,
                -3.1924946282119055
            ]
        },
        {
            "positions": [
                0.056820874473209965,
                -1.1728004730461405,
                2.035597928493998,
                -0.814990375796203,
                0.2858149459182991,
                -3.1788385884266863
            ]
        },
        {
            "positions": [
                -0.009169726838224243,
                -1.2061106099139327,
                2.0996494699574693,
                -0.849520802624265,
                0.4420432887609608,
                -3.1651825486414675
            ]
        },
        {
            "positions": [
                -0.07516032814965846,
                -1.2394207467817249,
                2.1637010114209403,
                -0.8840512294523268,
                0.5982716316036225,
                -3.1515265088562483
            ]
        },
        {
            "positions": [
                -0.14115092946109264,
                -1.2727308836495168,
                2.2277525528844118,
                -0.9185816562803888,
                0.7544999744462842,
                -3.137870469071029
            ]
        },
        {
            "positions": [
                -0.2071415307725269,
                -1.306041020517309,
                2.291804094347883,
                -0.9531120831084507,
                0.910728317288946,
                -3.12421442928581
            ]
        },
        {
            "positions": [
                -0.2731321320839611,
                -1.3393511573851011,
                2.355855635811354,
                -0.9876425099365127,
                1.0669566601316076,
                -3.110558389500591
            ]
        },
        {
            "positions": [
                -0.33912273339539534,
                -1.3726612942528933,
                2.4199071772748253,
                -1.0221729367645747,
                1.2231850029742695,
                -3.096902349715372
            ]
        }
    ]
}