{
    "goal": {
        "global_pose": {
            "orientation": {
                "w": 0.7031023502349854,
                "x": -0.7110244035720825,
                "y": 0.007748599164187908,
                "z": 0.005598929710686207
            },
            "position": {
                "x": 0.11585023208521307,
                "y": 0.44412534475326537,
                "z": 0.3711530566215515
            }
        },
        "name": "move_to_auspresseinheit_A"
    },
    "id": "BiTRRT_move_to_auspresseinheit_A_33",
    "joint_names": [
        "shoulder_pan_joint",
        "shoulder_lift_joint",
        "elbow_joint",
        "wrist_1_joint",
        "wrist_2_joint",
        "wrist_3_joint"
    ],
    "metrics": {
        "cart_traj_len": 0.682267691141903,
        "distance_elbow_joint": 0.14826248340066872,
        "distance_shoulder_lift_joint": 0.532863188005475,
        "distance_shoulder_pan_joint": 1.0403269589370796,
        "distance_wrist_1_joint": 0.8402408220590464,
        "distance_wrist_2_joint": 0.5364809089908531,
        "distance_wrist_3_joint": 0.9390889031068093,
        "smoothness": 0.8406694572154013,
        "time": 0.042012024999999995,
        "traj_len": 2.0092942204913475,
        "weighted_distance": 2.700400489142944
    },
    "planner": "BiTRRT",
    "start": {
        "state": {
            "elbow_joint": 2.422574709923281,
            "shoulder_lift_joint": -1.3736533754116391,
            "shoulder_pan_joint": -0.33786336945926293,
            "wrist_1_joint": -1.0288603412921917,
            "wrist_2_joint": 1.2330224858903978,
            "wrist_3_joint": -3.094022268022082
        }
    },
    "waypoints": [
        {
            "positions": [
                -0.33786336945926293,
                -1.3736533754116391,
                2.422574709923281,
                -1.0288603412921917,
                1.2330224858903978,
                -3.094022268022082
            ]
        },
        {
            "positions": [
                -0.2650607466579054,
                -1.4282930295675536,
                2.409706564042507,
                -0.9281654994516013,
                1.1879103647443694,
                -3.029631777563976
            ]
        },
        {
            "positions": [
                -0.19225812385654792,
                -1.4829326837234678,
                2.3968384181617326,
                -0.8274706576110109,
                1.1427982435983413,
                -2.9652412871058695
            ]
        },
        {
            "positions": [
                -0.11945550105519043,
                -1.5375723378793822,
                2.3839702722809584,
                -0.7267758157704205,
                1.0976861224523131,
                -2.9008507966477635
            ]
        },
        {
            "positions": [
                -0.04665287825383291,
                -1.5922119920352964,
                2.3711021264001837,
                -0.62608097392983,
                1.0525740013062848,
                -2.836460306189657
            ]
        },
        {
            "positions": [
                0.02614974454752461,
                -1.6468516461912108,
                2.3582339805194095,
                -0.5253861320892395,
                1.0074618801602564,
                -2.772069815731551
            ]
        },
        {
            "positions": [
                0.09895236734888208,
                -1.701491300347125,
                2.3453658346386352,
                -0.42469129024864916,
                0.9623497590142283,
                -2.7076793252734443
            ]
        },
        {
            "positions": [
                0.17175499015023954,
                -1.7561309545030395,
                2.332497688757861,
                -0.32399644840805863,
                0.9172376378682,
                -2.6432888348153383
            ]
        },
        {
            "positions": [
                0.3044321399821338,
                -1.7937273567315581,
                2.3470440543166733,
                -0.357840680701787,
                0.8620636226260362,
                -2.7653777022903547
            ]
        },
        {
            "positions": [
                0.4371092898140281,
                -1.8313237589600768,
                2.361590419875485,
                -0.39168491299551533,
                0.8068896073838723,
                -2.8874665697653707
            ]
        },
        {
            "positions": [
                0.5697864396459223,
                -1.8689201611885955,
                2.3761367854342974,
                -0.4255291452892436,
                0.7517155921417085,
                -3.009555437240387
            ]
        },
        {
            "positions": [
                0.7024635894778166,
                -1.9065165634171142,
                2.3906831509931097,
                -0.459373377582972,
                0.6965415768995447,
                -3.1316443047154037
            ]
        }
    ]
}