{
    "goal": {
        "global_pose": {
            "orientation": {
                "w": 0.7047431468963623,
                "x": -0.7094548344612122,
                "y": 0.0024358443915843964,
                "z": -0.0022348060738295317
            },
            "position": {
                "x": 0.6094750761985779,
                "y": 0.3671506643295288,
                "z": 0.19426114857196808
            }
        },
        "name": "move_to_magneteinheit_A"
    },
    "id": "BiTRRT_move_to_magneteinheit_A_10",
    "joint_names": [
        "shoulder_pan_joint",
        "shoulder_lift_joint",
        "elbow_joint",
        "wrist_1_joint",
        "wrist_2_joint",
        "wrist_3_joint"
    ],
    "metrics": {
        "cart_traj_len": 2.0625446219049217,
        "distance_elbow_joint": 3.8756820524350166,
        "distance_shoulder_lift_joint": 1.0535043066925658,
        "distance_shoulder_pan_joint": 1.241677439082031,
        "distance_wrist_1_joint": 1.133188960865049,
        "distance_wrist_2_joint": 1.4401294689352344,
        "distance_wrist_3_joint": 4.368105977217059,
        "smoothness": 4.821539995594945e-16,
        "time": 0.135216003,
        "traj_len": 3.6210893671969706,
        "weighted_distance": 4.941843642757362
    },
    "planner": "BiTRRT",
    "start": {
        "state": {
            "elbow_joint": -1.919643507792019,
            "shoulder_lift_joint": -0.07675430207160344,
            "shoulder_pan_joint": -1.1188671864651873,
            "wrist_1_joint": 0.42560062535961957,
            "wrist_2_joint": 1.5706038300724876,
            "wrist_3_joint": 1.1188968870953055
        }
    },
    "waypoints": [
        {
            "positions": [
                -1.1188671864651873,
                -0.07675430207160344,
                -1.919643507792019,
                0.42560062535961957,
                1.5706038300724876,
                1.1188968870953055
            ]
        },
        {
            "positions": [
                -1.0814999194948451,
                -0.10866486263200054,
                -1.8025068008981446,
                0.3914203846888638,
                1.5271158709028674,
                0.9870420127706957
            ]
        },
        {
            "positions": [
                -1.044132652524503,
                -0.14057542319239763,
                -1.6853700940042702,
                0.357240144018108,
                1.4836279117332474,
                0.8551871384460858
            ]
        },
        {
            "positions": [
                -1.0067653855541607,
                -0.17248598375279472,
                -1.5682333871103955,
                0.32305990334735224,
                1.4401399525636271,
                0.723332264121476
            ]
        },
        {
            "positions": [
                -0.9693981185838185,
                -0.20439654431319182,
                -1.451096680216521,
                0.2888796626765965,
                1.396651993394007,
                0.5914773897968661
            ]
        },
        {
            "positions": [
                -0.9320308516134763,
                -0.2363071048735889,
                -1.3339599733226466,
                0.2546994220058407,
                1.353164034224387,
                0.4596225154722563
            ]
        },
        {
            "positions": [
                -0.8946635846431342,
                -0.268217665433986,
                -1.2168232664287721,
                0.22051918133508497,
                1.3096760750547667,
                0.32776764114764645
            ]
        },
        {
            "positions": [
                -0.857296317672792,
                -0.3001282259943831,
                -1.0996865595348977,
                0.18633894066432918,
                1.2661881158851465,
                0.1959127668230366
            ]
        },
        {
            "positions": [
                -0.8199290507024498,
                -0.3320387865547802,
                -0.9825498526410232,
                0.1521586999935734,
                1.2227001567155265,
                0.06405789249842675
            ]
        },
        {
            "positions": [
                -0.7825617837321077,
                -0.3639493471151773,
                -0.8654131457471488,
                0.1179784593228177,
                1.1792121975459062,
                -0.06779698182618299
            ]
        },
        {
            "positions": [
                -0.7451945167617654,
                -0.3958599076755744,
                -0.7482764388532743,
                0.08379821865206188,
                1.135724238376286,
                -0.19965185615079295
            ]
        },
        {
            "positions": [
                -0.7078272497914233,
                -0.4277704682359715,
                -0.6311397319593999,
                0.04961797798130613,
                1.092236279206666,
                -0.3315067304754027
            ]
        },
        {
            "positions": [
                -0.6704599828210811,
                -0.4596810287963686,
                -0.5140030250655252,
                0.01543773731055037,
                1.0487483200370455,
                -0.46336160480001265
            ]
        },
        {
            "positions": [
                -0.6330927158507389,
                -0.49159158935676567,
                -0.39686631817165097,
                -0.018742503360205387,
                1.0052603608674255,
                -0.5952164791246224
            ]
        },
        {
            "positions": [
                -0.5957254488803967,
                -0.5235021499171628,
                -0.2797296112777763,
                -0.0529227440309612,
                0.9617724016978053,
                -0.7270713534492323
            ]
        },
        {
            "positions": [
                -0.5583581819100545,
                -0.5554127104775599,
                -0.16259290438390184,
                -0.0871029847017169,
                0.9182844425281852,
                -0.8589262277738421
            ]
        },
        {
            "positions": [
                -0.5209909149397123,
                -0.587323271037957,
                -0.045456197490027384,
                -0.12128322537247277,
                0.8747964833585651,
                -0.990781102098452
            ]
        },
        {
            "positions": [
                -0.4836236479693701,
                -0.6192338315983541,
                0.07168050940384707,
                -0.15546346604322842,
                0.8313085241889449,
                -1.1226359764230618
            ]
        },
        {
            "positions": [
                -0.446256380999028,
                -0.6511443921587512,
                0.18881721629772152,
                -0.18964370671398417,
                0.7878205650193247,
                -1.2544908507476715
            ]
        },
        {
            "positions": [
                -0.40888911402868566,
                -0.6830549527191483,
                0.3059539231915964,
                -0.22382394738474004,
                0.7443326058497045,
                -1.3863457250722817
            ]
        },
        {
            "positions": [
                -0.37152184705834346,
                -0.7149655132795454,
                0.42309063008547043,
                -0.2580041880554958,
                0.7008446466800844,
                -1.5182005993968914
            ]
        },
        {
            "positions": [
                -0.33415458008800136,
                -0.7468760738399425,
                0.5402273369793449,
                -0.29218442872625155,
                0.6573566875104643,
                -1.6500554737215012
            ]
        },
        {
            "positions": [
                -0.29678731311765916,
                -0.7787866344003396,
                0.6573640438732193,
                -0.3263646693970073,
                0.6138687283408442,
                -1.781910348046111
            ]
        },
        {
            "positions": [
                -0.25942004614731684,
                -0.8106971949607367,
                0.7745007507670942,
                -0.3605449100677632,
                0.5703807691712239,
                -1.913765222370721
            ]
        },
        {
            "positions": [
                -0.22205277917697475,
                -0.8426077555211338,
                0.8916374576609687,
                -0.3947251507385188,
                0.5268928100016037,
                -2.045620096695331
            ]
        },
        {
            "positions": [
                -0.18468551220663254,
                -0.8745183160815309,
                1.0087741645548427,
                -0.4289053914092746,
                0.4834048508319837,
                -2.1774749710199406
            ]
        },
        {
            "positions": [
                -0.14731824523629045,
                -0.906428876641928,
                1.1259108714487172,
                -0.46308563208003034,
                0.4399168916623635,
                -2.3093298453445503
            ]
        },
        {
            "positions": [
                -0.10995097826594802,
                -0.938339437202325,
                1.243047578342592,
                -0.4972658727507862,
                0.39642893249274325,
                -2.4411847196691605
            ]
        },
        {
            "positions": [
                -0.07258371129560603,
                -0.9702499977627221,
                1.3601842852364665,
                -0.531446113421542,
                0.352940973323123,
                -2.5730395939937702
            ]
        },
        {
            "positions": [
                -0.03521644432526383,
                -1.0021605583231192,
                1.477320992130341,
                -0.5656263540922977,
                0.309453014153503,
                -2.70489446831838
            ]
        },
        {
            "positions": [
                0.0021508226450783763,
                -1.0340711188835163,
                1.5944576990242154,
                -0.5998065947630533,
                0.2659650549838828,
                -2.8367493426429897
            ]
        },
        {
            "positions": [
                0.03951808961542058,
                -1.0659816794439134,
                1.7115944059180899,
                -0.6339868354338092,
                0.22247709581426256,
                -2.9686042169676
            ]
        },
        {
            "positions": [
                0.07688535658576279,
                -1.0978922400043105,
                1.8287311128119643,
                -0.668167076104565,
                0.17898913664464255,
                -3.1004590912922096
            ]
        },
        {
            "positions": [
                0.11425262355610491,
                -1.1298028005647076,
                1.945867819705839,
                -0.7023473167753208,
                0.13550117747502227,
                -3.232313965616819
            ]
        },
        {
            "positions": [
                0.12281025261684363,
                -1.1302586087641693,
                1.9560385446429978,
                -0.7075883355054293,
                0.1304743611372531,
                -3.2492090901217527
            ]
        }
    ]
}