{
    "goal": {
        "global_pose": {
            "orientation": {
                "w": 0.7031023502349854,
                "x": -0.7110244035720825,
                "y": 0.007748599164187908,
                "z": 0.005598929710686207
            },
            "position": {
                "x": 0.11585023208521307,
                "y": 0.44412534475326537,
                "z": 0.3711530566215515
            }
        },
        "name": "move_to_auspresseinheit_A"
    },
    "id": "BiTRRT_move_to_auspresseinheit_A_92",
    "joint_names": [
        "shoulder_pan_joint",
        "shoulder_lift_joint",
        "elbow_joint",
        "wrist_1_joint",
        "wrist_2_joint",
        "wrist_3_joint"
    ],
    "metrics": {
        "cart_traj_len": 1.1686392299633532,
        "distance_elbow_joint": 0.8423764065806529,
        "distance_shoulder_lift_joint": 1.2604764478866872,
        "distance_shoulder_pan_joint": 1.0407542810032906,
        "distance_wrist_1_joint": 1.2368586202293912,
        "distance_wrist_2_joint": 1.338380544319308,
        "distance_wrist_3_joint": 1.6552479873363644,
        "smoothness": 1.0321663658117917,
        "time": 0.06370767599999999,
        "traj_len": 2.7155283624657085,
        "weighted_distance": 3.6414048699062738
    },
    "planner": "BiTRRT",
    "start": {
        "state": {
            "elbow_joint": 2.422574709923281,
            "shoulder_lift_joint": -1.3736533754116391,
            "shoulder_pan_joint": -0.33786336945926293,
            "wrist_1_joint": -1.0288603412921917,
            "wrist_2_joint": 1.2330224858903978,
            "wrist_3_joint": -3.094022268022082
        }
    },
    "waypoints": [
        {
            "positions": [
                -0.33786336945926293,
                -1.3736533754116391,
                2.422574709923281,
                -1.0288603412921917,
                1.2330224858903978,
                -3.094022268022082
            ]
        },
        {
            "positions": [
                -0.3135394219333204,
                -1.455296140225522,
                2.382950045468284,
                -0.9471000343307372,
                1.1478517291677544,
                -3.020314613874835
            ]
        },
        {
            "positions": [
                -0.2892154744073779,
                -1.5369389050394051,
                2.3433253810132864,
                -0.8653397273692828,
                1.062680972445111,
                -2.9466069597275872
            ]
        },
        {
            "positions": [
                -0.2648915268814354,
                -1.618581669853288,
                2.3037007165582892,
                -0.7835794204078284,
                0.9775102157224675,
                -2.87289930558034
            ]
        },
        {
            "positions": [
                -0.2405675793554929,
                -1.700224434667171,
                2.2640760521032917,
                -0.7018191134463738,
                0.892339458999824,
                -2.799191651433093
            ]
        },
        {
            "positions": [
                -0.21624363182955036,
                -1.781867199481054,
                2.2244513876482945,
                -0.6200588064849194,
                0.8071687022771806,
                -2.7254839972858456
            ]
        },
        {
            "positions": [
                -0.19191968430360787,
                -1.8635099642949369,
                2.1848267231932974,
                -0.538298499523465,
                0.7219979455545372,
                -2.651776343138598
            ]
        },
        {
            "positions": [
                -0.16759573677766534,
                -1.9451527291088198,
                2.1452020587383,
                -0.45653819256201045,
                0.6368271888318937,
                -2.5780686889913507
            ]
        },
        {
            "positions": [
                -0.14327178925172282,
                -2.0267954939227026,
                2.1055773942833027,
                -0.3747778856005559,
                0.5516564321092503,
                -2.5043610348441034
            ]
        },
        {
            "positions": [
                -0.1189478417257803,
                -2.108438258736586,
                2.065952729828305,
                -0.2930175786391015,
                0.4664856753866068,
                -2.4306533806968558
            ]
        },
        {
            "positions": [
                -0.0946238941998378,
                -2.190081023550469,
                2.026328065373308,
                -0.21125727167764707,
                0.3813149186639635,
                -2.3569457265496085
            ]
        },
        {
            "positions": [
                -0.07029994667389526,
                -2.2717237883643517,
                1.9867034009183107,
                -0.1294969647161926,
                0.29614416194132,
                -2.2832380724023613
            ]
        },
        {
            "positions": [
                0.018706700419088368,
                -2.214788120937095,
                2.047474557731764,
                -0.1449724886183794,
                0.32673363992235804,
                -2.3663924904402527
            ]
        },
        {
            "positions": [
                0.107713347512072,
                -2.157852453509838,
                2.1082457145452174,
                -0.1604480125205662,
                0.3573231179033961,
                -2.449546908478144
            ]
        },
        {
            "positions": [
                0.19671999460505563,
                -2.100916786082581,
                2.1690168713586706,
                -0.175923536422753,
                0.38791259588443416,
                -2.5327013265160354
            ]
        },
        {
            "positions": [
                0.28572664169803924,
                -2.0439811186553243,
                2.229788028172124,
                -0.1913990603249398,
                0.4185020738654722,
                -2.6158557445539268
            ]
        },
        {
            "positions": [
                0.3747332887910229,
                -1.987045451228067,
                2.290559184985577,
                -0.20687458422712662,
                0.4490915518465103,
                -2.699010162591818
            ]
        },
        {
            "positions": [
                0.4637399358840065,
                -1.9301097838008103,
                2.3513303417990303,
                -0.2223501081293134,
                0.47968102982754834,
                -2.7821645806297095
            ]
        },
        {
            "positions": [
                0.5434569277706802,
                -1.9231791070106659,
                2.365289727364018,
                -0.30389747487607044,
                0.5523361473222156,
                -2.8973436751261414
            ]
        },
        {
            "positions": [
                0.623173919657354,
                -1.9162484302205216,
                2.3792491129290054,
                -0.3854448416228275,
                0.6249912648168829,
                -3.012522769622573
            ]
        },
        {
            "positions": [
                0.7028909115440277,
                -1.9093177534303771,
                2.393208498493993,
                -0.46699220836958455,
                0.6976463823115502,
                -3.127701864119005
            ]
        }
    ]
}