{
    "goal": {
        "global_pose": {
            "orientation": {
                "w": 0.7047431468963623,
                "x": -0.7094548344612122,
                "y": 0.0024358443915843964,
                "z": -0.0022348060738295317
            },
            "position": {
                "x": 0.6094750761985779,
                "y": 0.3671506643295288,
                "z": 0.19426114857196808
            }
        },
        "name": "move_to_magneteinheit_A"
    },
    "id": "BiTRRT_move_to_magneteinheit_A_24",
    "joint_names": [
        "shoulder_pan_joint",
        "shoulder_lift_joint",
        "elbow_joint",
        "wrist_1_joint",
        "wrist_2_joint",
        "wrist_3_joint"
    ],
    "metrics": {
        "cart_traj_len": 1.8793912257909766,
        "distance_elbow_joint": 3.907949006882715,
        "distance_shoulder_lift_joint": 0.698737233444005,
        "distance_shoulder_pan_joint": 1.2420168518934742,
        "distance_wrist_1_joint": 1.4849294510044757,
        "distance_wrist_2_joint": 1.6978985186659525,
        "distance_wrist_3_joint": 1.0950351708996253,
        "smoothness": 3.9474596558118316e-16,
        "time": 0.079720349,
        "traj_len": 3.1822266155618535,
        "weighted_distance": 3.936935933471604
    },
    "planner": "BiTRRT",
    "start": {
        "state": {
            "elbow_joint": -1.919643507792019,
            "shoulder_lift_joint": -0.07675430207160344,
            "shoulder_pan_joint": -1.1188671864651873,
            "wrist_1_joint": 0.42560062535961957,
            "wrist_2_joint": 1.5706038300724876,
            "wrist_3_joint": 1.1188968870953055
        }
    },
    "waypoints": [
        {
            "positions": [
                -1.1188671864651873,
                -0.07675430207160344,
                -1.919643507792019,
                0.42560062535961957,
                1.5706038300724876,
                1.1188968870953055
            ]
        },
        {
            "positions": [
                -1.0710973075462076,
                -0.10362881105021901,
                -1.7693377767580685,
                0.4827132965520994,
                1.505300040893028,
                1.0767801497530123
            ]
        },
        {
            "positions": [
                -1.0233274286272278,
                -0.13050332002883458,
                -1.6190320457241179,
                0.5398259677445792,
                1.4399962517135683,
                1.034663412410719
            ]
        },
        {
            "positions": [
                -0.975557549708248,
                -0.15737782900745018,
                -1.4687263146901672,
                0.5969386389370591,
                1.3746924625341084,
                0.9925466750684258
            ]
        },
        {
            "positions": [
                -0.9277876707892683,
                -0.18425233798606575,
                -1.3184205836562168,
                0.6540513101295389,
                1.3093886733546487,
                0.9504299377261324
            ]
        },
        {
            "positions": [
                -0.8800177918702885,
                -0.21112684696468131,
                -1.1681148526222662,
                0.7111639813220187,
                1.244084884175189,
                0.9083132003838391
            ]
        },
        {
            "positions": [
                -0.8322479129513087,
                -0.2380013559432969,
                -1.0178091215883156,
                0.7682766525144986,
                1.1787810949957294,
                0.8661964630415458
            ]
        },
        {
            "positions": [
                -0.784478034032329,
                -0.26487586492191245,
                -0.867503390554365,
                0.8253893237069784,
                1.1134773058162697,
                0.8240797256992526
            ]
        },
        {
            "positions": [
                -0.7367081551133491,
                -0.29175037390052805,
                -0.7171976595204144,
                0.8825019948994584,
                1.04817351663681,
                0.7819629883569592
            ]
        },
        {
            "positions": [
                -0.6889382761943694,
                -0.3186248828791436,
                -0.566891928486464,
                0.939614666091938,
                0.9828697274573502,
                0.739846251014666
            ]
        },
        {
            "positions": [
                -0.6411683972753895,
                -0.3454993918577592,
                -0.41658619745251313,
                0.9967273372844179,
                0.9175659382778905,
                0.6977295136723727
            ]
        },
        {
            "positions": [
                -0.5933985183564098,
                -0.3723739008363748,
                -0.26628046641856273,
                1.0538400084768977,
                0.8522621490984308,
                0.6556127763300794
            ]
        },
        {
            "positions": [
                -0.54562863943743,
                -0.3992484098149904,
                -0.1159747353846119,
                1.1109526796693776,
                0.786958359918971,
                0.6134960389877862
            ]
        },
        {
            "positions": [
                -0.49785876051845024,
                -0.4261229187936059,
                0.0343309956493385,
                1.1680653508618575,
                0.7216545707395113,
                0.5713793016454929
            ]
        },
        {
            "positions": [
                -0.45008888159947047,
                -0.45299742777222146,
                0.18463672668328912,
                1.2251780220543371,
                0.6563507815600517,
                0.5292625643031996
            ]
        },
        {
            "positions": [
                -0.4023190026804907,
                -0.47987193675083706,
                0.3349424577172393,
                1.282290693246817,
                0.591046992380592,
                0.48714582696090636
            ]
        },
        {
            "positions": [
                -0.3545491237615108,
                -0.5067464457294526,
                0.48524818875119036,
                1.339403364439297,
                0.5257432032011322,
                0.445029089618613
            ]
        },
        {
            "positions": [
                -0.30677924484253116,
                -0.5336209547080683,
                0.635553919785141,
                1.3965160356317767,
                0.46043941402167254,
                0.4029123522763197
            ]
        },
        {
            "positions": [
                -0.2590093659235514,
                -0.5604954636866838,
                0.7858596508190911,
                1.4536287068242566,
                0.3951356248422129,
                0.36079561493402645
            ]
        },
        {
            "positions": [
                -0.21123948700457162,
                -0.5873699726652994,
                0.9361653818530418,
                1.5107413780167365,
                0.3298318356627532,
                0.3186788775917332
            ]
        },
        {
            "positions": [
                -0.16346960808559174,
                -0.614244481643915,
                1.0864711128869928,
                1.5678540492092163,
                0.2645280464832933,
                0.2765621402494399
            ]
        },
        {
            "positions": [
                -0.11569972916661198,
                -0.6411189906225305,
                1.2367768439209434,
                1.6249667204016962,
                0.19922425730383364,
                0.23444540290714666
            ]
        },
        {
            "positions": [
                -0.0679298502476322,
                -0.6679934996011461,
                1.3870825749548936,
                1.682079391594176,
                0.13392046812437397,
                0.1923286655648534
            ]
        },
        {
            "positions": [
                -0.020159971328652437,
                -0.6948680085797616,
                1.5373883059888442,
                1.7391920627866557,
                0.0686166789449143,
                0.15021192822256013
            ]
        },
        {
            "positions": [
                0.02760990759032733,
                -0.7217425175583774,
                1.6876940370227953,
                1.7963047339791358,
                0.0033128897654544076,
                0.10809519088026676
            ]
        },
        {
            "positions": [
                0.0753797865093071,
                -0.7486170265369929,
                1.8379997680567455,
                1.8534174051716155,
                -0.06199089941400526,
                0.06597845353797349
            ]
        },
        {
            "positions": [
                0.12314966542828681,
                -0.7754915355156085,
                1.9883054990906963,
                1.9105300763640953,
                -0.12729468859346493,
                0.023861716195680213
            ]
        }
    ]
}