{
    "goal": {
        "global_pose": {
            "orientation": {
                "w": 0.5084816217422485,
                "x": -0.49083608388900757,
                "y": 0.5182115435600281,
                "z": -0.4816462993621826
            },
            "position": {
                "x": 0.5540239810943604,
                "y": 0.030875300988554955,
                "z": 0.16403168439865112
            }
        },
        "name": "move_to_storage_A"
    },
    "id": "BiTRRT_move_to_storage_A_103",
    "joint_names": [
        "shoulder_pan_joint",
        "shoulder_lift_joint",
        "elbow_joint",
        "wrist_1_joint",
        "wrist_2_joint",
        "wrist_3_joint"
    ],
    "metrics": {
        "cart_traj_len": 0.35273124266527617,
        "distance_elbow_joint": 0.45312296718633016,
        "distance_shoulder_lift_joint": 0.2352621186294097,
        "distance_shoulder_pan_joint": 0.461812307165259,
        "distance_wrist_1_joint": 0.25815794063381203,
        "distance_wrist_2_joint": 1.0961274587415932,
        "distance_wrist_3_joint": 0.09854385200434868,
        "smoothness": 1.3322676295501878e-15,
        "time": 0.040165579,
        "traj_len": 1.613389799261404,
        "weighted_distance": 2.038234468294768
    },
    "planner": "BiTRRT",
    "start": {
        "state": {
            "elbow_joint": 1.9715463870305268,
            "shoulder_lift_joint": -1.1394903361783484,
            "shoulder_pan_joint": 0.12281147578464417,
            "wrist_1_joint": -0.7804599489681411,
            "wrist_2_joint": 0.12958660307563738,
            "wrist_3_joint": -3.1924946282119055
        }
    },
    "waypoints": [
        {
            "positions": [
                0.12281147578464417,
                -1.1394903361783484,
                1.9715463870305268,
                -0.7804599489681411,
                0.12958660307563738,
                -3.1924946282119055
            ]
        },
        {
            "positions": [
                0.056838289046750035,
                -1.173099210268264,
                2.036278239485717,
                -0.8173396547729713,
                0.2861762400387221,
                -3.178416935068427
            ]
        },
        {
            "positions": [
                -0.009134897691144103,
                -1.2067080843581797,
                2.101010091940907,
                -0.8542193605778017,
                0.4427658770018068,
                -3.164339241924949
            ]
        },
        {
            "positions": [
                -0.07510808442903825,
                -1.2403169584480953,
                2.165741944396097,
                -0.8910990663826319,
                0.5993555139648916,
                -3.1502615487814705
            ]
        },
        {
            "positions": [
                -0.14108127116693236,
                -1.2739258325380112,
                2.2304737968512867,
                -0.9279787721874623,
                0.7559451509279763,
                -3.136183855637992
            ]
        },
        {
            "positions": [
                -0.20705445790482652,
                -1.3075347066279268,
                2.2952056493064767,
                -0.9648584779922925,
                0.9125347878910611,
                -3.1221061624945134
            ]
        },
        {
            "positions": [
                -0.27302764464272067,
                -1.3411435807178425,
                2.359937501761667,
                -1.0017381837971229,
                1.0691244248541458,
                -3.1080284693510354
            ]
        },
        {
            "positions": [
                -0.3390008313806148,
                -1.374752454807758,
                2.424669354216857,
                -1.0386178896019531,
                1.2257140618172306,
                -3.093950776207557
            ]
        }
    ]
}