{
    "goal": {
        "global_pose": {
            "orientation": {
                "w": 0.5084816217422485,
                "x": -0.49083608388900757,
                "y": 0.5182115435600281,
                "z": -0.4816462993621826
            },
            "position": {
                "x": 0.5540239810943604,
                "y": 0.030875300988554955,
                "z": 0.16403168439865112
            }
        },
        "name": "move_to_storage_A"
    },
    "id": "BiTRRT_move_to_storage_A_28",
    "joint_names": [
        "shoulder_pan_joint",
        "shoulder_lift_joint",
        "elbow_joint",
        "wrist_1_joint",
        "wrist_2_joint",
        "wrist_3_joint"
    ],
    "metrics": {
        "cart_traj_len": 0.35322372463438767,
        "distance_elbow_joint": 0.4531702851908439,
        "distance_shoulder_lift_joint": 0.2329962558577674,
        "distance_shoulder_pan_joint": 0.46273463427270883,
        "distance_wrist_1_joint": 0.25877060134728047,
        "distance_wrist_2_joint": 1.095040154007322,
        "distance_wrist_3_joint": 0.10708436036771074,
        "smoothness": 6.661338200497456e-16,
        "time": 0.032496793999999996,
        "traj_len": 1.615486394570884,
        "weighted_distance": 2.043960803717541
    },
    "planner": "BiTRRT",
    "start": {
        "state": {
            "elbow_joint": 1.9715463870305268,
            "shoulder_lift_joint": -1.1394903361783484,
            "shoulder_pan_joint": 0.12281147578464417,
            "wrist_1_joint": -0.7804599489681411,
            "wrist_2_joint": 0.12958660307563738,
            "wrist_3_joint": -3.1924946282119055
        }
    },
    "waypoints": [
        {
            "positions": [
                0.12281147578464417,
                -1.1394903361783484,
                1.9715463870305268,
                -0.7804599489681411,
                0.12958660307563738,
                -3.1924946282119055
            ]
        },
        {
            "positions": [
                0.056706528031400055,
                -1.1727755155866009,
                2.0362849992006473,
                -0.8174271777320383,
                0.2860209107909691,
                -3.17719686244509
            ]
        },
        {
            "positions": [
                -0.009398419721844062,
                -1.2060606949948534,
                2.101023611370768,
                -0.8543944064959355,
                0.44245521850630076,
                -3.161899096678274
            ]
        },
        {
            "positions": [
                -0.07550336747508817,
                -1.2393458744031058,
                2.1657622235408884,
                -0.8913616352598327,
                0.5988895262216325,
                -3.146601330911458
            ]
        },
        {
            "positions": [
                -0.14160831522833228,
                -1.2726310538113583,
                2.230500835711009,
                -0.9283288640237299,
                0.7553238339369642,
                -3.131303565144642
            ]
        },
        {
            "positions": [
                -0.20771326298157644,
                -1.3059162332196108,
                2.2952394478811295,
                -0.9652960927876271,
                0.911758141652296,
                -3.1160057993778265
            ]
        },
        {
            "positions": [
                -0.2738182107348205,
                -1.3392014126278633,
                2.35997806005125,
                -1.0022633215515244,
                1.0681924493676276,
                -3.1007080336110104
            ]
        },
        {
            "positions": [
                -0.33992315848806465,
                -1.3724865920361158,
                2.4247166722213707,
                -1.0392305503154216,
                1.2246267570829594,
                -3.085410267844195
            ]
        }
    ]
}