{
    "goal": {
        "global_pose": {
            "orientation": {
                "w": 0.7031023502349854,
                "x": -0.7110244035720825,
                "y": 0.007748599164187908,
                "z": 0.005598929710686207
            },
            "position": {
                "x": 0.11585023208521307,
                "y": 0.44412534475326537,
                "z": 0.3711530566215515
            }
        },
        "name": "move_to_auspresseinheit_A"
    },
    "id": "BiTRRT_move_to_auspresseinheit_A_128",
    "joint_names": [
        "shoulder_pan_joint",
        "shoulder_lift_joint",
        "elbow_joint",
        "wrist_1_joint",
        "wrist_2_joint",
        "wrist_3_joint"
    ],
    "metrics": {
        "cart_traj_len": 1.562013757738897,
        "distance_elbow_joint": 1.0928319835504876,
        "distance_shoulder_lift_joint": 1.004367372232854,
        "distance_shoulder_pan_joint": 1.0464575763240065,
        "distance_wrist_1_joint": 0.5462445323832283,
        "distance_wrist_2_joint": 0.9870756870860733,
        "distance_wrist_3_joint": 0.9613422274729579,
        "smoothness": 1.2296710142794272,
        "time": 0.075566466,
        "traj_len": 2.374514556504046,
        "weighted_distance": 3.0156797000783797
    },
    "planner": "BiTRRT",
    "start": {
        "state": {
            "elbow_joint": 2.422574709923281,
            "shoulder_lift_joint": -1.3736533754116391,
            "shoulder_pan_joint": -0.33786336945926293,
            "wrist_1_joint": -1.0288603412921917,
            "wrist_2_joint": 1.2330224858903978,
            "wrist_3_joint": -3.094022268022082
        }
    },
    "waypoints": [
        {
            "positions": [
                -0.33786336945926293,
                -1.3736533754116391,
                2.422574709923281,
                -1.0288603412921917,
                1.2330224858903978,
                -3.094022268022082
            ]
        },
        {
            "positions": [
                -0.27597462035818876,
                -1.4812084284069917,
                2.342757478424401,
                -1.0182608001004683,
                1.2666398346288428,
                -3.027382636564892
            ]
        },
        {
            "positions": [
                -0.2140858712571146,
                -1.5887634814023444,
                2.2629402469255218,
                -1.0076612589087446,
                1.3002571833672878,
                -2.9607430051077026
            ]
        },
        {
            "positions": [
                -0.15219712215604042,
                -1.6963185343976972,
                2.1831230154266423,
                -0.9970617177170211,
                1.3338745321057328,
                -2.8941033736505126
            ]
        },
        {
            "positions": [
                -0.09030837305496625,
                -1.8038735873930498,
                2.1033057839277625,
                -0.9864621765252977,
                1.3674918808441776,
                -2.8274637421933226
            ]
        },
        {
            "positions": [
                -0.02841962395389208,
                -1.9114286403884027,
                2.0234885524288826,
                -0.9758626353335741,
                1.4011092295826226,
                -2.7608241107361327
            ]
        },
        {
            "positions": [
                0.03346912514718209,
                -2.0189836933837553,
                1.9436713209300032,
                -0.9652630941418506,
                1.4347265783210676,
                -2.694184479278943
            ]
        },
        {
            "positions": [
                0.09535787424825626,
                -2.126538746379108,
                1.8638540894311235,
                -0.9546635529501271,
                1.4683439270595127,
                -2.627544847821753
            ]
        },
        {
            "positions": [
                0.1659030971868698,
                -2.097291382621694,
                1.9286103325699753,
                -0.8973658242674997,
                1.377079151714053,
                -2.6873275738699216
            ]
        },
        {
            "positions": [
                0.2364483201254833,
                -2.0680440188642804,
                1.9933665757088268,
                -0.8400680955848722,
                1.2858143763685936,
                -2.74711029991809
            ]
        },
        {
            "positions": [
                0.3069935430640968,
                -2.0387966551068666,
                2.0581228188476786,
                -0.7827703669022448,
                1.194549601023134,
                -2.8068930259662586
            ]
        },
        {
            "positions": [
                0.37753876600271036,
                -2.009549291349453,
                2.1228790619865303,
                -0.7254726382196173,
                1.1032848256776746,
                -2.8666757520144266
            ]
        },
        {
            "positions": [
                0.4480839889413239,
                -1.9803019275920393,
                2.187635305125382,
                -0.6681749095369899,
                1.012020050332215,
                -2.926458478062595
            ]
        },
        {
            "positions": [
                0.5186292118799374,
                -1.9510545638346257,
                2.2523915482642334,
                -0.6108771808543625,
                0.9207552749867554,
                -2.9862412041107635
            ]
        },
        {
            "positions": [
                0.5891744348185509,
                -1.921807200077212,
                2.317147791403085,
                -0.553579452171735,
                0.8294904996412958,
                -3.046023930158932
            ]
        },
        {
            "positions": [
                0.6597196577571645,
                -1.8925598363197982,
                2.381904034541937,
                -0.49628172348910754,
                0.7382257242958363,
                -3.1058066562071005
            ]
        },
        {
            "positions": [
                0.7085942068647436,
                -1.9100629275258738,
                2.3979654524894536,
                -0.4826158089089635,
                0.7165896811425543,
                -3.122409655094382
            ]
        }
    ]
}