{
    "goal": {
        "global_pose": {
            "orientation": {
                "w": 0.5084816217422485,
                "x": -0.49083608388900757,
                "y": 0.5182115435600281,
                "z": -0.4816462993621826
            },
            "position": {
                "x": 0.5540239810943604,
                "y": 0.030875300988554955,
                "z": 0.16403168439865112
            }
        },
        "name": "move_to_storage_A"
    },
    "id": "BiTRRT_move_to_storage_A_146",
    "joint_names": [
        "shoulder_pan_joint",
        "shoulder_lift_joint",
        "elbow_joint",
        "wrist_1_joint",
        "wrist_2_joint",
        "wrist_3_joint"
    ],
    "metrics": {
        "cart_traj_len": 0.35254240279953203,
        "distance_elbow_joint": 0.44725057310089156,
        "distance_shoulder_lift_joint": 0.2336294445331526,
        "distance_shoulder_pan_joint": 0.4592593898331871,
        "distance_wrist_1_joint": 0.23768918662516858,
        "distance_wrist_2_joint": 1.1041665964229588,
        "distance_wrist_3_joint": 0.08903303044371924,
        "smoothness": 4.440892098500626e-16,
        "time": 0.031966272000000004,
        "traj_len": 1.603442615424412,
        "weighted_distance": 2.022609716404686
    },
    "planner": "BiTRRT",
    "start": {
        "state": {
            "elbow_joint": 1.9715463870305268,
            "shoulder_lift_joint": -1.1394903361783484,
            "shoulder_pan_joint": 0.12281147578464417,
            "wrist_1_joint": -0.7804599489681411,
            "wrist_2_joint": 0.12958660307563738,
            "wrist_3_joint": -3.1924946282119055
        }
    },
    "waypoints": [
        {
            "positions": [
                0.12281147578464417,
                -1.1394903361783484,
                1.9715463870305268,
                -0.7804599489681411,
                0.12958660307563738,
                -3.1924946282119055
            ]
        },
        {
            "positions": [
                0.0572029915227603,
                -1.1728659711116558,
                2.0354393260449397,
                -0.8144155470574509,
                0.2873246882789172,
                -3.179775623862803
            ]
        },
        {
            "positions": [
                -0.008405492739123568,
                -1.2062416060449634,
                2.099332265059353,
                -0.8483711451467607,
                0.445062773482197,
                -3.1670566195137
            ]
        },
        {
            "positions": [
                -0.07401397700100744,
                -1.2396172409782709,
                2.163225204073766,
                -0.8823267432360704,
                0.6028008586854768,
                -3.1543376151645974
            ]
        },
        {
            "positions": [
                -0.1396224612628913,
                -1.2729928759115785,
                2.227118143088179,
                -0.9162823413253802,
                0.7605389438887566,
                -3.1416186108154944
            ]
        },
        {
            "positions": [
                -0.20523094552477517,
                -1.306368510844886,
                2.2910110821025924,
                -0.95023793941469,
                0.9182770290920366,
                -3.128899606466392
            ]
        },
        {
            "positions": [
                -0.27083942978665904,
                -1.3397441457781936,
                2.3549040211170054,
                -0.9841935375039998,
                1.0760151142953163,
                -3.116180602117289
            ]
        },
        {
            "positions": [
                -0.3364479140485429,
                -1.373119780711501,
                2.4187969601314183,
                -1.0181491355933097,
                1.2337531994985962,
                -3.1034615977681863
            ]
        }
    ]
}