{
    "goal": {
        "global_pose": {
            "orientation": {
                "w": 0.5084816217422485,
                "x": -0.49083608388900757,
                "y": 0.5182115435600281,
                "z": -0.4816462993621826
            },
            "position": {
                "x": 0.5540239810943604,
                "y": 0.030875300988554955,
                "z": 0.16403168439865112
            }
        },
        "name": "move_to_storage_A"
    },
    "id": "BiTRRT_move_to_storage_A_71",
    "joint_names": [
        "shoulder_pan_joint",
        "shoulder_lift_joint",
        "elbow_joint",
        "wrist_1_joint",
        "wrist_2_joint",
        "wrist_3_joint"
    ],
    "metrics": {
        "cart_traj_len": 0.3522770118661681,
        "distance_elbow_joint": 0.44867020860644047,
        "distance_shoulder_lift_joint": 0.2348182667054035,
        "distance_shoulder_pan_joint": 0.46061513673859206,
        "distance_wrist_1_joint": 0.23709053492853582,
        "distance_wrist_2_joint": 1.097513721302207,
        "distance_wrist_3_joint": 0.09822079780895399,
        "smoothness": 2.2204460668324854e-16,
        "time": 0.036219243,
        "traj_len": 1.605281491231408,
        "weighted_distance": 2.0268138833989626
    },
    "planner": "BiTRRT",
    "start": {
        "state": {
            "elbow_joint": 1.9715463870305268,
            "shoulder_lift_joint": -1.1394903361783484,
            "shoulder_pan_joint": 0.12281147578464417,
            "wrist_1_joint": -0.7804599489681411,
            "wrist_2_joint": 0.12958660307563738,
            "wrist_3_joint": -3.1924946282119055
        }
    },
    "waypoints": [
        {
            "positions": [
                0.12281147578464417,
                -1.1394903361783484,
                1.9715463870305268,
                -0.7804599489681411,
                0.12958660307563738,
                -3.1924946282119055
            ]
        },
        {
            "positions": [
                0.057009313393416736,
                -1.173035802850549,
                2.0356421311171613,
                -0.8143300253865033,
                0.2863742775473812,
                -3.178463085667769
            ]
        },
        {
            "positions": [
                -0.008792848997810701,
                -1.2065812695227494,
                2.0997378752037954,
                -0.8482001018048656,
                0.4431619520191251,
                -3.164431543123633
            ]
        },
        {
            "positions": [
                -0.07459501138903814,
                -1.24012673619495,
                2.16383361929043,
                -0.8820701782232279,
                0.5999496264908689,
                -3.1504000005794968
            ]
        },
        {
            "positions": [
                -0.14039717378026556,
                -1.2736722028671503,
                2.227929363377064,
                -0.9159402546415901,
                0.7567373009626128,
                -3.1363684580353604
            ]
        },
        {
            "positions": [
                -0.206199336171493,
                -1.307217669539351,
                2.2920251074636986,
                -0.9498103310599524,
                0.9135249754343567,
                -3.122336915491224
            ]
        },
        {
            "positions": [
                -0.27200149856272043,
                -1.3407631362115513,
                2.3561208515503327,
                -0.9836804074783146,
                1.0703126499061004,
                -3.108305372947088
            ]
        },
        {
            "positions": [
                -0.33780366095394787,
                -1.374308602883752,
                2.4202165956369672,
                -1.017550483896677,
                1.2271003243778444,
                -3.0942738304029516
            ]
        }
    ]
}