{
    "goal": {
        "global_pose": {
            "orientation": {
                "w": 0.7031023502349854,
                "x": -0.7110244035720825,
                "y": 0.007748599164187908,
                "z": 0.005598929710686207
            },
            "position": {
                "x": 0.11585023208521307,
                "y": 0.44412534475326537,
                "z": 0.3711530566215515
            }
        },
        "name": "move_to_auspresseinheit_A"
    },
    "id": "BiTRRT_move_to_auspresseinheit_A_17",
    "joint_names": [
        "shoulder_pan_joint",
        "shoulder_lift_joint",
        "elbow_joint",
        "wrist_1_joint",
        "wrist_2_joint",
        "wrist_3_joint"
    ],
    "metrics": {
        "cart_traj_len": 1.0632915056926007,
        "distance_elbow_joint": 0.8550962658954404,
        "distance_shoulder_lift_joint": 0.9224020695869077,
        "distance_shoulder_pan_joint": 1.045127808116988,
        "distance_wrist_1_joint": 0.8956682322085238,
        "distance_wrist_2_joint": 1.5622210695000254,
        "distance_wrist_3_joint": 0.318838196761158,
        "smoothness": 1.76586168529953,
        "time": 0.084159279,
        "traj_len": 2.366295341260056,
        "weighted_distance": 2.948714861986474
    },
    "planner": "BiTRRT",
    "start": {
        "state": {
            "elbow_joint": 2.422574709923281,
            "shoulder_lift_joint": -1.3736533754116391,
            "shoulder_pan_joint": -0.33786336945926293,
            "wrist_1_joint": -1.0288603412921917,
            "wrist_2_joint": 1.2330224858903978,
            "wrist_3_joint": -3.094022268022082
        }
    },
    "waypoints": [
        {
            "positions": [
                -0.33786336945926293,
                -1.3736533754116391,
                2.422574709923281,
                -1.0288603412921917,
                1.2330224858903978,
                -3.094022268022082
            ]
        },
        {
            "positions": [
                -0.2665639819353097,
                -1.4367732733446705,
                2.373330554033379,
                -0.963194861603028,
                1.1168514635193607,
                -3.0783269465088132
            ]
        },
        {
            "positions": [
                -0.1952645944113565,
                -1.4998931712777017,
                2.3240863981434767,
                -0.8975293819138643,
                1.0006804411483237,
                -3.0626316249955443
            ]
        },
        {
            "positions": [
                -0.12396520688740326,
                -1.5630130692107331,
                2.274842242253574,
                -0.8318639022247005,
                0.8845094187772868,
                -3.046936303482276
            ]
        },
        {
            "positions": [
                -0.05266581936345005,
                -1.6261329671437643,
                2.225598086363672,
                -0.7661984225355368,
                0.7683383964062498,
                -3.031240981969007
            ]
        },
        {
            "positions": [
                0.01863356816050321,
                -1.6892528650767957,
                2.17635393047377,
                -0.700532942846373,
                0.6521673740352127,
                -3.015545660455738
            ]
        },
        {
            "positions": [
                0.08993295568445642,
                -1.7523727630098271,
                2.1271097745838676,
                -0.6348674631572093,
                0.5359963516641758,
                -2.999850338942469
            ]
        },
        {
            "positions": [
                0.16123234320840962,
                -1.8154926609428585,
                2.077865618693965,
                -0.5692019834680455,
                0.41982532929313876,
                -2.9841550174292006
            ]
        },
        {
            "positions": [
                0.23253173073236283,
                -1.8786125588758897,
                2.028621462804063,
                -0.5035365037788819,
                0.3036543069221018,
                -2.9684596959159317
            ]
        },
        {
            "positions": [
                0.3038311182563161,
                -1.9417324568089211,
                1.9793773069141607,
                -0.43787102408971806,
                0.18748328455106472,
                -2.952764374402663
            ]
        },
        {
            "positions": [
                0.3821457245833796,
                -1.87670318487135,
                2.071227641644924,
                -0.3912555687303195,
                0.26214430777376707,
                -2.967656458124485
            ]
        },
        {
            "positions": [
                0.4604603309104431,
                -1.8116739129337789,
                2.163077976375687,
                -0.34464011337092093,
                0.3368053309964695,
                -2.9825485418463074
            ]
        },
        {
            "positions": [
                0.5387749372375066,
                -1.7466446409962078,
                2.25492831110645,
                -0.2980246580115224,
                0.4114663542191719,
                -2.9974406255681294
            ]
        },
        {
            "positions": [
                0.5949381043775794,
                -1.7997230317885118,
                2.3003775973377936,
                -0.3529688409874739,
                0.5090326203833669,
                -3.041741976226887
            ]
        },
        {
            "positions": [
                0.6511012715176522,
                -1.852801422580816,
                2.345826883569137,
                -0.4079130239634253,
                0.606598886547562,
                -3.086043326885644
            ]
        },
        {
            "positions": [
                0.707264438657725,
                -1.90587981337312,
                2.3912761698004807,
                -0.4628572069393768,
                0.7041651527117572,
                -3.1303446775444015
            ]
        }
    ]
}