{
    "goal": {
        "global_pose": {
            "orientation": {
                "w": 0.5084816217422485,
                "x": -0.49083608388900757,
                "y": 0.5182115435600281,
                "z": -0.4816462993621826
            },
            "position": {
                "x": 0.5540239810943604,
                "y": 0.030875300988554955,
                "z": 0.16403168439865112
            }
        },
        "name": "move_to_storage_A"
    },
    "id": "BiTRRT_move_to_storage_A_88",
    "joint_names": [
        "shoulder_pan_joint",
        "shoulder_lift_joint",
        "elbow_joint",
        "wrist_1_joint",
        "wrist_2_joint",
        "wrist_3_joint"
    ],
    "metrics": {
        "cart_traj_len": 0.3533930135072747,
        "distance_elbow_joint": 0.44969542062145473,
        "distance_shoulder_lift_joint": 0.23279006054292006,
        "distance_shoulder_pan_joint": 0.4630847628180038,
        "distance_wrist_1_joint": 0.24521536350438666,
        "distance_wrist_2_joint": 1.0942578416811828,
        "distance_wrist_3_joint": 0.10244455533205965,
        "smoothness": 1.1102230276320894e-15,
        "time": 0.041954038,
        "traj_len": 1.6085670655897464,
        "weighted_distance": 2.032695333873155
    },
    "planner": "BiTRRT",
    "start": {
        "state": {
            "elbow_joint": 1.9715463870305268,
            "shoulder_lift_joint": -1.1394903361783484,
            "shoulder_pan_joint": 0.12281147578464417,
            "wrist_1_joint": -0.7804599489681411,
            "wrist_2_joint": 0.12958660307563738,
            "wrist_3_joint": -3.1924946282119055
        }
    },
    "waypoints": [
        {
            "positions": [
                0.12281147578464417,
                -1.1394903361783484,
                1.9715463870305268,
                -0.7804599489681411,
                0.12958660307563738,
                -3.1924946282119055
            ]
        },
        {
            "positions": [
                0.05665650966778649,
                -1.1727460591130512,
                2.0357885899764487,
                -0.8154907151830535,
                0.2859091518872349,
                -3.177859691735897
            ]
        },
        {
            "positions": [
                -0.0094984564490712,
                -1.2060017820477542,
                2.100030792922371,
                -0.8505214813979658,
                0.44223170069883244,
                -3.1632247552598884
            ]
        },
        {
            "positions": [
                -0.07565342256592887,
                -1.239257504982457,
                2.164272995868293,
                -0.8855522476128782,
                0.59855424951043,
                -3.14858981878388
            ]
        },
        {
            "positions": [
                -0.14180838868278656,
                -1.2725132279171598,
                2.228515198814215,
                -0.9205830138277906,
                0.7548767983220276,
                -3.1339548823078713
            ]
        },
        {
            "positions": [
                -0.20796335479964428,
                -1.3057689508518626,
                2.292757401760137,
                -0.9556137800427029,
                0.9111993471336252,
                -3.119319945831863
            ]
        },
        {
            "positions": [
                -0.2741183209165019,
                -1.3390246737865656,
                2.3569996047060595,
                -0.9906445462576153,
                1.0675218959452226,
                -3.1046850093558542
            ]
        },
        {
            "positions": [
                -0.34027328703335963,
                -1.3722803967212684,
                2.4212418076519815,
                -1.0256753124725277,
                1.2238444447568202,
                -3.090050072879846
            ]
        }
    ]
}