{
    "goal": {
        "global_pose": {
            "orientation": {
                "w": 0.5084816217422485,
                "x": -0.49083608388900757,
                "y": 0.5182115435600281,
                "z": -0.4816462993621826
            },
            "position": {
                "x": 0.5540239810943604,
                "y": 0.030875300988554955,
                "z": 0.16403168439865112
            }
        },
        "name": "move_to_storage_A"
    },
    "id": "BiTRRT_move_to_storage_A_12",
    "joint_names": [
        "shoulder_pan_joint",
        "shoulder_lift_joint",
        "elbow_joint",
        "wrist_1_joint",
        "wrist_2_joint",
        "wrist_3_joint"
    ],
    "metrics": {
        "cart_traj_len": 0.3538165626551235,
        "distance_elbow_joint": 0.4478951208193189,
        "distance_shoulder_lift_joint": 0.2344656632994655,
        "distance_shoulder_pan_joint": 0.46342566846063943,
        "distance_wrist_1_joint": 0.23489367682366413,
        "distance_wrist_2_joint": 1.0966441781289218,
        "distance_wrist_3_joint": 0.09477350463559553,
        "smoothness": 4.440892133664971e-16,
        "time": 0.034253793,
        "traj_len": 1.6037761103619186,
        "weighted_distance": 2.0231615546938864
    },
    "planner": "BiTRRT",
    "start": {
        "state": {
            "elbow_joint": 1.9715463870305268,
            "shoulder_lift_joint": -1.1394903361783484,
            "shoulder_pan_joint": 0.12281147578464417,
            "wrist_1_joint": -0.7804599489681411,
            "wrist_2_joint": 0.12958660307563738,
            "wrist_3_joint": -3.1924946282119055
        }
    },
    "waypoints": [
        {
            "positions": [
                0.12281147578464417,
                -1.1394903361783484,
                1.9715463870305268,
                -0.7804599489681411,
                0.12958660307563738,
                -3.1924946282119055
            ]
        },
        {
            "positions": [
                0.05660780886169568,
                -1.1729854309354149,
                2.0355314042904293,
                -0.8140161885143788,
                0.28625005709405477,
                -3.1789555561211063
            ]
        },
        {
            "positions": [
                -0.009595858061252807,
                -1.2064805256924813,
                2.0995164215503324,
                -0.8475724280606165,
                0.4429135111124721,
                -3.165416484030307
            ]
        },
        {
            "positions": [
                -0.0757995249842013,
                -1.2399756204495478,
                2.163501438810235,
                -0.8811286676068543,
                0.5995769651308895,
                -3.1518774119395077
            ]
        },
        {
            "positions": [
                -0.14200319190714977,
                -1.2734707152066145,
                2.2274864560701375,
                -0.914684907153092,
                0.756240419149307,
                -3.138338339848708
            ]
        },
        {
            "positions": [
                -0.20820685883009826,
                -1.306965809963681,
                2.2914714733300405,
                -0.9482411466993297,
                0.9129038731677244,
                -3.1247992677579086
            ]
        },
        {
            "positions": [
                -0.27441052575304675,
                -1.3404609047207474,
                2.355456490589943,
                -0.9817973862455674,
                1.0695673271861417,
                -3.1112601956671093
            ]
        },
        {
            "positions": [
                -0.34061419267599524,
                -1.3739559994778139,
                2.4194415078498457,
                -1.0153536257918052,
                1.2262307812045592,
                -3.09772112357631
            ]
        }
    ]
}