{
    "goal": {
        "global_pose": {
            "orientation": {
                "w": 0.7031023502349854,
                "x": -0.7110244035720825,
                "y": 0.007748599164187908,
                "z": 0.005598929710686207
            },
            "position": {
                "x": 0.11585023208521307,
                "y": 0.44412534475326537,
                "z": 0.3711530566215515
            }
        },
        "name": "move_to_auspresseinheit_A"
    },
    "id": "BiTRRT_move_to_auspresseinheit_A_125",
    "joint_names": [
        "shoulder_pan_joint",
        "shoulder_lift_joint",
        "elbow_joint",
        "wrist_1_joint",
        "wrist_2_joint",
        "wrist_3_joint"
    ],
    "metrics": {
        "cart_traj_len": 0.6785377572157435,
        "distance_elbow_joint": 0.02633859461786514,
        "distance_shoulder_lift_joint": 0.5360597040455088,
        "distance_shoulder_pan_joint": 1.0488228698413016,
        "distance_wrist_1_joint": 0.5455884703741001,
        "distance_wrist_2_joint": 0.514200058733421,
        "distance_wrist_3_joint": 0.4756098394038557,
        "smoothness": 0.3793058307875383,
        "time": 0.046038949999999995,
        "traj_len": 1.7738713417314267,
        "weighted_distance": 2.271041114760207
    },
    "planner": "BiTRRT",
    "start": {
        "state": {
            "elbow_joint": 2.422574709923281,
            "shoulder_lift_joint": -1.3736533754116391,
            "shoulder_pan_joint": -0.33786336945926293,
            "wrist_1_joint": -1.0288603412921917,
            "wrist_2_joint": 1.2330224858903978,
            "wrist_3_joint": -3.094022268022082
        }
    },
    "waypoints": [
        {
            "positions": [
                -0.33786336945926293,
                -1.3736533754116391,
                2.422574709923281,
                -1.0288603412921917,
                1.2330224858903978,
                -3.094022268022082
            ]
        },
        {
            "positions": [
                -0.2787248347482857,
                -1.4237108290047735,
                2.4199895715341584,
                -0.9481951838521439,
                1.1148747413781857,
                -3.0183530264740974
            ]
        },
        {
            "positions": [
                -0.21958630003730842,
                -1.473768282597908,
                2.4174044331450353,
                -0.867530026412096,
                0.9967269968659735,
                -2.942683784926113
            ]
        },
        {
            "positions": [
                -0.16044776532633115,
                -1.5238257361910423,
                2.4148192947559126,
                -0.786864868972048,
                0.8785792523537614,
                -2.8670145433781284
            ]
        },
        {
            "positions": [
                -0.015213221041602859,
                -1.5881402934020599,
                2.41172209818083,
                -0.7362660359630553,
                0.851953114820964,
                -2.9084482291714453
            ]
        },
        {
            "positions": [
                0.13002132324312543,
                -1.6524548506130776,
                2.408624901605747,
                -0.6856672029540625,
                0.8253269772881665,
                -2.9498819149647626
            ]
        },
        {
            "positions": [
                0.27525586752785375,
                -1.7167694078240952,
                2.4055277050306643,
                -0.6350683699450698,
                0.7987008397553691,
                -2.9913156007580795
            ]
        },
        {
            "positions": [
                0.420490411812582,
                -1.7810839650351127,
                2.4024305084555815,
                -0.5844695369360771,
                0.7720747022225717,
                -3.0327492865513963
            ]
        },
        {
            "positions": [
                0.5657249560973103,
                -1.8453985222461304,
                2.3993333118804987,
                -0.5338707039270842,
                0.7454485646897742,
                -3.0741829723447136
            ]
        },
        {
            "positions": [
                0.7109595003820387,
                -1.909713079457148,
                2.396236115305416,
                -0.4832718709180916,
                0.7188224271569768,
                -3.1156166581380305
            ]
        }
    ]
}