{
    "goal": {
        "global_pose": {
            "orientation": {
                "w": 0.5084816217422485,
                "x": -0.49083608388900757,
                "y": 0.5182115435600281,
                "z": -0.4816462993621826
            },
            "position": {
                "x": 0.5540239810943604,
                "y": 0.030875300988554955,
                "z": 0.16403168439865112
            }
        },
        "name": "move_to_storage_A"
    },
    "id": "BiTRRT_move_to_storage_A_13",
    "joint_names": [
        "shoulder_pan_joint",
        "shoulder_lift_joint",
        "elbow_joint",
        "wrist_1_joint",
        "wrist_2_joint",
        "wrist_3_joint"
    ],
    "metrics": {
        "cart_traj_len": 0.3521434429916408,
        "distance_elbow_joint": 0.45081799808305556,
        "distance_shoulder_lift_joint": 0.23542955634774754,
        "distance_shoulder_pan_joint": 0.46112397157451723,
        "distance_wrist_1_joint": 0.24428438351523563,
        "distance_wrist_2_joint": 1.0949141527782495,
        "distance_wrist_3_joint": 0.10603700848356024,
        "smoothness": 4.440892098500626e-16,
        "time": 0.023890369,
        "traj_len": 1.6101574676976054,
        "weighted_distance": 2.0356521372874523
    },
    "planner": "BiTRRT",
    "start": {
        "state": {
            "elbow_joint": 1.9715463870305268,
            "shoulder_lift_joint": -1.1394903361783484,
            "shoulder_pan_joint": 0.12281147578464417,
            "wrist_1_joint": -0.7804599489681411,
            "wrist_2_joint": 0.12958660307563738,
            "wrist_3_joint": -3.1924946282119055
        }
    },
    "waypoints": [
        {
            "positions": [
                0.12281147578464417,
                -1.1394903361783484,
                1.9715463870305268,
                -0.7804599489681411,
                0.12958660307563738,
                -3.1924946282119055
            ]
        },
        {
            "positions": [
                0.056936622702570286,
                -1.1731231299423124,
                2.035948958185249,
                -0.8153577180417462,
                0.2860029106153873,
                -3.1773464841428254
            ]
        },
        {
            "positions": [
                -0.0089382303795036,
                -1.2067559237062762,
                2.1003515293399713,
                -0.8502554871153513,
                0.4424192181551372,
                -3.1621983400737457
            ]
        },
        {
            "positions": [
                -0.07481308346157749,
                -1.2403887174702402,
                2.1647541004946933,
                -0.8851532561889563,
                0.5988355256948872,
                -3.1470501960046655
            ]
        },
        {
            "positions": [
                -0.14068793654365136,
                -1.2740215112342042,
                2.2291566716494158,
                -0.9200510252625614,
                0.7552518332346371,
                -3.1319020519355854
            ]
        },
        {
            "positions": [
                -0.20656278962572527,
                -1.3076543049981681,
                2.293559242804138,
                -0.9549487943361665,
                0.9116681407743871,
                -3.116753907866505
            ]
        },
        {
            "positions": [
                -0.27243764270779913,
                -1.341287098762132,
                2.35796181395886,
                -0.9898465634097716,
                1.068084448314137,
                -3.1016057637974255
            ]
        },
        {
            "positions": [
                -0.33831249578987305,
                -1.374919892526096,
                2.4223643851135823,
                -1.0247443324833767,
                1.224500755853887,
                -3.0864576197283453
            ]
        }
    ]
}