{
    "goal": {
        "global_pose": {
            "orientation": {
                "w": 0.5084816217422485,
                "x": -0.49083608388900757,
                "y": 0.5182115435600281,
                "z": -0.4816462993621826
            },
            "position": {
                "x": 0.5540239810943604,
                "y": 0.030875300988554955,
                "z": 0.16403168439865112
            }
        },
        "name": "move_to_storage_A"
    },
    "id": "BiTRRT_move_to_storage_A_101",
    "joint_names": [
        "shoulder_pan_joint",
        "shoulder_lift_joint",
        "elbow_joint",
        "wrist_1_joint",
        "wrist_2_joint",
        "wrist_3_joint"
    ],
    "metrics": {
        "cart_traj_len": 0.35373827650210665,
        "distance_elbow_joint": 0.4540116433107877,
        "distance_shoulder_lift_joint": 0.23507978987975808,
        "distance_shoulder_pan_joint": 0.46273941083514275,
        "distance_wrist_1_joint": 0.25749983999103676,
        "distance_wrist_2_joint": 1.1001802604119866,
        "distance_wrist_3_joint": 0.10010001154686154,
        "smoothness": 4.440892098500626e-16,
        "time": 0.042794683,
        "traj_len": 1.6154290315503104,
        "weighted_distance": 2.0414433814025608
    },
    "planner": "BiTRRT",
    "start": {
        "state": {
            "elbow_joint": 1.9715463870305268,
            "shoulder_lift_joint": -1.1394903361783484,
            "shoulder_pan_joint": 0.12281147578464417,
            "wrist_1_joint": -0.7804599489681411,
            "wrist_2_joint": 0.12958660307563738,
            "wrist_3_joint": -3.1924946282119055
        }
    },
    "waypoints": [
        {
            "positions": [
                0.12281147578464417,
                -1.1394903361783484,
                1.9715463870305268,
                -0.7804599489681411,
                0.12958660307563738,
                -3.1924946282119055
            ]
        },
        {
            "positions": [
                0.05670584566533807,
                -1.173073163304028,
                2.036405193217782,
                -0.817245640395432,
                0.28675521170592116,
                -3.178194626562354
            ]
        },
        {
            "positions": [
                -0.009399784453968038,
                -1.2066559904297078,
                2.1012639994050377,
                -0.8540313318227231,
                0.4439238203362049,
                -3.1638946249128024
            ]
        },
        {
            "positions": [
                -0.07550541457327413,
                -1.2402388175553876,
                2.166122805592293,
                -0.890817023250014,
                0.6010924289664887,
                -3.149594623263251
            ]
        },
        {
            "positions": [
                -0.14161104469258023,
                -1.2738216446810673,
                2.2309816117795482,
                -0.9276027146773049,
                0.7582610375967725,
                -3.1352946216136988
            ]
        },
        {
            "positions": [
                -0.20771667481188638,
                -1.307404471806747,
                2.2958404179668035,
                -0.964388406104596,
                0.9154296462270564,
                -3.120994619964147
            ]
        },
        {
            "positions": [
                -0.2738223049311924,
                -1.3409872989324267,
                2.360699224154059,
                -1.0011740975318868,
                1.07259825485734,
                -3.1066946183145956
            ]
        },
        {
            "positions": [
                -0.33992793505049856,
                -1.3745701260581065,
                2.4255580303413145,
                -1.0379597889591778,
                1.229766863487624,
                -3.092394616665044
            ]
        }
    ]
}