{
    "goal": {
        "global_pose": {
            "orientation": {
                "w": 0.7047431468963623,
                "x": -0.7094548344612122,
                "y": 0.0024358443915843964,
                "z": -0.0022348060738295317
            },
            "position": {
                "x": 0.6094750761985779,
                "y": 0.3671506643295288,
                "z": 0.19426114857196808
            }
        },
        "name": "move_to_magneteinheit_A"
    },
    "id": "BiTRRT_move_to_magneteinheit_A_55",
    "joint_names": [
        "shoulder_pan_joint",
        "shoulder_lift_joint",
        "elbow_joint",
        "wrist_1_joint",
        "wrist_2_joint",
        "wrist_3_joint"
    ],
    "metrics": {
        "cart_traj_len": 2.0798803035722067,
        "distance_elbow_joint": 3.883396923267997,
        "distance_shoulder_lift_joint": 1.0578530926829877,
        "distance_shoulder_pan_joint": 1.2407561045222364,
        "distance_wrist_1_joint": 1.1648925048771503,
        "distance_wrist_2_joint": 1.4425813782049666,
        "distance_wrist_3_joint": 4.339951448911261,
        "smoothness": 5.836601060448974e-16,
        "time": 0.10436688,
        "traj_len": 3.623455733476898,
        "weighted_distance": 4.941336684883073
    },
    "planner": "BiTRRT",
    "start": {
        "state": {
            "elbow_joint": -1.919643507792019,
            "shoulder_lift_joint": -0.07675430207160344,
            "shoulder_pan_joint": -1.1188671864651873,
            "wrist_1_joint": 0.42560062535961957,
            "wrist_2_joint": 1.5706038300724876,
            "wrist_3_joint": 1.1188968870953055
        }
    },
    "waypoints": [
        {
            "positions": [
                -1.1188671864651873,
                -0.07675430207160344,
                -1.919643507792019,
                0.42560062535961957,
                1.5706038300724876,
                1.1188968870953055
            ]
        },
        {
            "positions": [
                -1.0824426282312658,
                -0.10750113623490974,
                -1.8043197554198758,
                0.39078687426002945,
                1.5277692427356229,
                0.9909395771229099
            ]
        },
        {
            "positions": [
                -1.0460180699973443,
                -0.13824797039821604,
                -1.6889960030477327,
                0.3559731231604394,
                1.484934655398758,
                0.8629822671505143
            ]
        },
        {
            "positions": [
                -1.0095935117634227,
                -0.16899480456152233,
                -1.5736722506755894,
                0.3211593720608493,
                1.4421000680618932,
                0.7350249571781186
            ]
        },
        {
            "positions": [
                -0.9731689535295012,
                -0.19974163872482864,
                -1.458348498303446,
                0.2863456209612592,
                1.3992654807250284,
                0.6070676472057229
            ]
        },
        {
            "positions": [
                -0.9367443952955796,
                -0.23048847288813493,
                -1.3430247459313027,
                0.2515318698616691,
                1.3564308933881637,
                0.4791103372333273
            ]
        },
        {
            "positions": [
                -0.9003198370616582,
                -0.2612353070514412,
                -1.2277009935591596,
                0.21671811876207903,
                1.313596306051299,
                0.35115302726093156
            ]
        },
        {
            "positions": [
                -0.8638952788277366,
                -0.2919821412147475,
                -1.1123772411870165,
                0.18190436766248894,
                1.270761718714434,
                0.22319571728853593
            ]
        },
        {
            "positions": [
                -0.8274707205938151,
                -0.3227289753780538,
                -0.9970534888148732,
                0.14709061656289885,
                1.2279271313775693,
                0.0952384073161403
            ]
        },
        {
            "positions": [
                -0.7910461623598937,
                -0.3534758095413601,
                -0.8817297364427301,
                0.11227686546330878,
                1.1850925440407045,
                -0.03271890265625532
            ]
        },
        {
            "positions": [
                -0.754621604125972,
                -0.3842226437046664,
                -0.7664059840705866,
                0.07746311436371867,
                1.1422579567038396,
                -0.16067621262865095
            ]
        },
        {
            "positions": [
                -0.7181970458920506,
                -0.41496947786797267,
                -0.6510822316984435,
                0.042649363264128604,
                1.099423369366975,
                -0.2886335226010466
            ]
        },
        {
            "positions": [
                -0.681772487658129,
                -0.445716312031279,
                -0.5357584793263002,
                0.007835612164538486,
                1.05658878203011,
                -0.4165908325734424
            ]
        },
        {
            "positions": [
                -0.6453479294242075,
                -0.47646314619458524,
                -0.42043472695415707,
                -0.026978138935051577,
                1.0137541946932453,
                -0.5445481425458378
            ]
        },
        {
            "positions": [
                -0.608923371190286,
                -0.5072099803578916,
                -0.30511097458201375,
                -0.061791890034641694,
                0.9709196073563805,
                -0.6725054525182337
            ]
        },
        {
            "positions": [
                -0.5724988129563644,
                -0.5379568145211979,
                -0.18978722220987065,
                -0.0966056411342317,
                0.9280850200195158,
                -0.8004627624906293
            ]
        },
        {
            "positions": [
                -0.5360742547224429,
                -0.5687036486845042,
                -0.07446346983772734,
                -0.13141939223382187,
                0.8852504326826509,
                -0.9284200724630249
            ]
        },
        {
            "positions": [
                -0.4996496964885213,
                -0.5994504828478104,
                0.04086028253441598,
                -0.16623314333341194,
                0.8424158453457862,
                -1.0563773824354206
            ]
        },
        {
            "positions": [
                -0.4632251382545999,
                -0.6301973170111168,
                0.15618403490655886,
                -0.201046894433002,
                0.7995812580089214,
                -1.1843346924078162
            ]
        },
        {
            "positions": [
                -0.4268005800206782,
                -0.6609441511744232,
                0.2715077872787026,
                -0.23586064553259217,
                0.7567466706720565,
                -1.3122920023802123
            ]
        },
        {
            "positions": [
                -0.3903760217867567,
                -0.6916909853377293,
                0.38683153965084593,
                -0.27067439663218223,
                0.7139120833351917,
                -1.4402493123526074
            ]
        },
        {
            "positions": [
                -0.35395146355283524,
                -0.7224378195010357,
                0.5021552920229888,
                -0.3054881477317723,
                0.671077495998327,
                -1.568206622325003
            ]
        },
        {
            "positions": [
                -0.3175269053189137,
                -0.7531846536643418,
                0.6174790443951321,
                -0.34030189883136236,
                0.6282429086614623,
                -1.6961639322973987
            ]
        },
        {
            "positions": [
                -0.28110234708499204,
                -0.7839314878276482,
                0.7328027967672754,
                -0.37511564993095253,
                0.5854083213245973,
                -1.8241212422697948
            ]
        },
        {
            "positions": [
                -0.2446777888510706,
                -0.8146783219909546,
                0.8481265491394188,
                -0.4099294010305426,
                0.5425737339877326,
                -1.9520785522421904
            ]
        },
        {
            "positions": [
                -0.20825323061714907,
                -0.8454251561542607,
                0.9634503015115616,
                -0.44474315213013266,
                0.4997391466508678,
                -2.0800358622145856
            ]
        },
        {
            "positions": [
                -0.17182867238322763,
                -0.8761719903175671,
                1.078774053883705,
                -0.4795569032297227,
                0.4569045593140031,
                -2.207993172186981
            ]
        },
        {
            "positions": [
                -0.13540411414930598,
                -0.9069188244808735,
                1.1940978062558487,
                -0.514370654329313,
                0.41406997197713813,
                -2.3359504821593773
            ]
        },
        {
            "positions": [
                -0.09897955591538454,
                -0.9376656586441798,
                1.3094215586279916,
                -0.549184405428903,
                0.3712353846402734,
                -2.463907792131773
            ]
        },
        {
            "positions": [
                -0.062554997681463,
                -0.968412492807486,
                1.424745311000135,
                -0.5839981565284929,
                0.32840079730340865,
                -2.5918651021041685
            ]
        },
        {
            "positions": [
                -0.026130439447541454,
                -0.9991593269707923,
                1.5400690633722778,
                -0.6188119076280829,
                0.2855662099665439,
                -2.719822412076564
            ]
        },
        {
            "positions": [
                0.010294118786380091,
                -1.0299061611340987,
                1.6553928157444215,
                -0.6536256587276732,
                0.24273162262967896,
                -2.84777972204896
            ]
        },
        {
            "positions": [
                0.046718677020301635,
                -1.0606529952974049,
                1.7707165681165644,
                -0.6884394098272633,
                0.19989703529281422,
                -2.9757370320213554
            ]
        },
        {
            "positions": [
                0.08314323525422321,
                -1.0913998294607112,
                1.8860403204887075,
                -0.7232531609268533,
                0.15706244795594945,
                -3.1036943419937515
            ]
        },
        {
            "positions": [
                0.12188891805704907,
                -1.1346073947545912,
                1.9637534154759777,
                -0.7392918795175308,
                0.12802245186752104,
                -3.2210545618159556
            ]
        }
    ]
}