{
    "goal": {
        "global_pose": {
            "orientation": {
                "w": 0.7031023502349854,
                "x": -0.7110244035720825,
                "y": 0.007748599164187908,
                "z": 0.005598929710686207
            },
            "position": {
                "x": 0.11585023208521307,
                "y": 0.44412534475326537,
                "z": 0.3711530566215515
            }
        },
        "name": "move_to_auspresseinheit_A"
    },
    "id": "BiTRRT_move_to_auspresseinheit_A_65",
    "joint_names": [
        "shoulder_pan_joint",
        "shoulder_lift_joint",
        "elbow_joint",
        "wrist_1_joint",
        "wrist_2_joint",
        "wrist_3_joint"
    ],
    "metrics": {
        "cart_traj_len": 0.6990243203279876,
        "distance_elbow_joint": 0.04188275382006479,
        "distance_shoulder_lift_joint": 0.5374434336989717,
        "distance_shoulder_pan_joint": 1.0417302153497037,
        "distance_wrist_1_joint": 0.5432248245165814,
        "distance_wrist_2_joint": 0.5354392351370912,
        "distance_wrist_3_joint": 0.21307356866529092,
        "smoothness": 0.20614411353972334,
        "time": 0.046200354,
        "traj_len": 1.706690959484963,
        "weighted_distance": 2.1018099885983887
    },
    "planner": "BiTRRT",
    "start": {
        "state": {
            "elbow_joint": 2.422574709923281,
            "shoulder_lift_joint": -1.3736533754116391,
            "shoulder_pan_joint": -0.33786336945926293,
            "wrist_1_joint": -1.0288603412921917,
            "wrist_2_joint": 1.2330224858903978,
            "wrist_3_joint": -3.094022268022082
        }
    },
    "waypoints": [
        {
            "positions": [
                -0.33786336945926293,
                -1.3736533754116391,
                2.422574709923281,
                -1.0288603412921917,
                1.2330224858903978,
                -3.094022268022082
            ]
        },
        {
            "positions": [
                -0.20434802657063944,
                -1.480897393918248,
                2.424369955701177,
                -0.9824011500713061,
                1.1835261239711092,
                -3.0748007234046986
            ]
        },
        {
            "positions": [
                -0.07083268368201595,
                -1.5881414124248565,
                2.426165201479073,
                -0.9359419588504205,
                1.134029762051821,
                -3.055579178787315
            ]
        },
        {
            "positions": [
                0.06268265920660748,
                -1.6953854309314653,
                2.427960447256969,
                -0.8894827676295349,
                1.0845334001325324,
                -3.0363576341699314
            ]
        },
        {
            "positions": [
                0.19619800209523103,
                -1.802629449438074,
                2.429755693034865,
                -0.8430235764086493,
                1.0350370382132439,
                -3.017136089552548
            ]
        },
        {
            "positions": [
                0.32971334498385446,
                -1.9098734679446827,
                2.431550938812761,
                -0.7965643851877637,
                0.9855406762939555,
                -2.9979145449351643
            ]
        },
        {
            "positions": [
                0.45443117861938315,
                -1.9102812483333254,
                2.4205820971692327,
                -0.6929214290503792,
                0.8895548677804058,
                -3.0369031601279555
            ]
        },
        {
            "positions": [
                0.5791490122549119,
                -1.9106890287219682,
                2.4096132555257044,
                -0.5892784729129947,
                0.7935690592668562,
                -3.075891775320746
            ]
        },
        {
            "positions": [
                0.7038668458904406,
                -1.9110968091106109,
                2.398644413882176,
                -0.4856355167756103,
                0.6975832507533065,
                -3.1148803905135374
            ]
        }
    ]
}