{
    "goal": {
        "global_pose": {
            "orientation": {
                "w": 0.7047431468963623,
                "x": -0.7094548344612122,
                "y": 0.0024358443915843964,
                "z": -0.0022348060738295317
            },
            "position": {
                "x": 0.6094750761985779,
                "y": 0.3671506643295288,
                "z": 0.19426114857196808
            }
        },
        "name": "move_to_magneteinheit_A"
    },
    "id": "BiTRRT_move_to_magneteinheit_A_35",
    "joint_names": [
        "shoulder_pan_joint",
        "shoulder_lift_joint",
        "elbow_joint",
        "wrist_1_joint",
        "wrist_2_joint",
        "wrist_3_joint"
    ],
    "metrics": {
        "cart_traj_len": 2.0629100261516156,
        "distance_elbow_joint": 3.875856882017216,
        "distance_shoulder_lift_joint": 1.055106893515588,
        "distance_shoulder_pan_joint": 1.2418834325749177,
        "distance_wrist_1_joint": 1.1388741371813438,
        "distance_wrist_2_joint": 1.4381724465104326,
        "distance_wrist_3_joint": 1.9213496335496836,
        "smoothness": 5.709718440359032e-16,
        "time": 0.061327001000000006,
        "traj_len": 3.266686918783185,
        "weighted_distance": 4.134124971035628
    },
    "planner": "BiTRRT",
    "start": {
        "state": {
            "elbow_joint": -1.919643507792019,
            "shoulder_lift_joint": -0.07675430207160344,
            "shoulder_pan_joint": -1.1188671864651873,
            "wrist_1_joint": 0.42560062535961957,
            "wrist_2_joint": 1.5706038300724876,
            "wrist_3_joint": 1.1188968870953055
        }
    },
    "waypoints": [
        {
            "positions": [
                -1.1188671864651873,
                -0.07675430207160344,
                -1.919643507792019,
                0.42560062535961957,
                1.5706038300724876,
                1.1188968870953055
            ]
        },
        {
            "positions": [
                -1.0728715037772274,
                -0.11583233516477337,
                -1.7760932529024926,
                0.38342010176031055,
                1.5173381839054345,
                1.1900579846341828
            ]
        },
        {
            "positions": [
                -1.0268758210892674,
                -0.1549103682579433,
                -1.632542998012966,
                0.34123957816100153,
                1.4640725377383814,
                1.26121908217306
            ]
        },
        {
            "positions": [
                -0.9808801384013076,
                -0.19398840135111323,
                -1.4889927431234395,
                0.29905905456169246,
                1.4108068915713283,
                1.332380179711937
            ]
        },
        {
            "positions": [
                -0.9348844557133477,
                -0.23306643444428315,
                -1.345442488233913,
                0.25687853096238344,
                1.3575412454042755,
                1.4035412772508142
            ]
        },
        {
            "positions": [
                -0.8888887730253878,
                -0.2721444675374531,
                -1.2018922333443864,
                0.21469800736307443,
                1.3042755992372224,
                1.4747023747896915
            ]
        },
        {
            "positions": [
                -0.8428930903374279,
                -0.311222500630623,
                -1.05834197845486,
                0.1725174837637654,
                1.2510099530701693,
                1.5458634723285685
            ]
        },
        {
            "positions": [
                -0.7968974076494679,
                -0.35030053372379294,
                -0.9147917235653336,
                0.1303369601644564,
                1.1977443069031162,
                1.6170245698674457
            ]
        },
        {
            "positions": [
                -0.750901724961508,
                -0.38937856681696287,
                -0.7712414686758071,
                0.08815643656514738,
                1.144478660736063,
                1.688185667406323
            ]
        },
        {
            "positions": [
                -0.7049060422735481,
                -0.4284565999101328,
                -0.6276912137862805,
                0.045975912965838306,
                1.0912130145690102,
                1.7593467649452
            ]
        },
        {
            "positions": [
                -0.6589103595855882,
                -0.4675346330033027,
                -0.484140958896754,
                0.0037953893665292893,
                1.037947368401957,
                1.8305078624840772
            ]
        },
        {
            "positions": [
                -0.6129146768976284,
                -0.5066126660964727,
                -0.3405907040072276,
                -0.03838513423277973,
                0.984681722234904,
                1.9016689600229544
            ]
        },
        {
            "positions": [
                -0.5669189942096684,
                -0.5456906991896426,
                -0.1970404491177009,
                -0.08056565783208874,
                0.9314160760678509,
                1.9728300575618314
            ]
        },
        {
            "positions": [
                -0.5209233115217085,
                -0.5847687322828126,
                -0.05349019422817447,
                -0.12274618143139776,
                0.8781504299007978,
                2.043991155100709
            ]
        },
        {
            "positions": [
                -0.4749276288337485,
                -0.6238467653759825,
                0.09006006066135197,
                -0.16492670503070678,
                0.8248847837337449,
                2.115152252639586
            ]
        },
        {
            "positions": [
                -0.42893194614578856,
                -0.6629247984691524,
                0.23361031555087863,
                -0.2071072286300159,
                0.7716191375666916,
                2.1863133501784633
            ]
        },
        {
            "positions": [
                -0.3829362634578287,
                -0.7020028315623223,
                0.37716057044040485,
                -0.2492877522293248,
                0.7183534913996387,
                2.2574744477173403
            ]
        },
        {
            "positions": [
                -0.33694058076986877,
                -0.7410808646554923,
                0.520710825329932,
                -0.29146827582863394,
                0.6650878452325856,
                2.3286355452562173
            ]
        },
        {
            "positions": [
                -0.29094489808190893,
                -0.7801588977486622,
                0.6642610802194582,
                -0.33364879942794295,
                0.6118221990655326,
                2.3997966427950947
            ]
        },
        {
            "positions": [
                -0.24494921539394887,
                -0.8192369308418321,
                0.8078113351089848,
                -0.37582932302725197,
                0.5585565528984795,
                2.4709577403339718
            ]
        },
        {
            "positions": [
                -0.19895353270598903,
                -0.8583149639350021,
                0.9513615899985111,
                -0.418009846626561,
                0.5052909067314264,
                2.5421188378728488
            ]
        },
        {
            "positions": [
                -0.15295785001802908,
                -0.897392997028172,
                1.0949118448880377,
                -0.46019037022587,
                0.4520252605643733,
                2.613279935411726
            ]
        },
        {
            "positions": [
                -0.10696216733006936,
                -0.9364710301213419,
                1.238462099777564,
                -0.502370893825179,
                0.39875961439732044,
                2.684441032950603
            ]
        },
        {
            "positions": [
                -0.06096648464210919,
                -0.9755490632145118,
                1.3820123546670906,
                -0.5445514174244881,
                0.3454939682302671,
                2.75560213048948
            ]
        },
        {
            "positions": [
                -0.01497080195414946,
                -1.0146270963076818,
                1.5255626095566173,
                -0.586731941023797,
                0.29222832206321425,
                2.8267632280283577
            ]
        },
        {
            "positions": [
                0.03102488073381049,
                -1.0537051294008517,
                1.669112864446144,
                -0.6289124646231061,
                0.23896267589616116,
                2.897924325567235
            ]
        },
        {
            "positions": [
                0.07702056342177044,
                -1.0927831624940216,
                1.8126631193356701,
                -0.671092988222415,
                0.18569702972910807,
                2.9690854231061117
            ]
        },
        {
            "positions": [
                0.12301624610973044,
                -1.1318611955871916,
                1.9562133742251968,
                -0.7132735118217242,
                0.13243138356205497,
                3.040246520644989
            ]
        }
    ]
}