{
    "goal": {
        "global_pose": {
            "orientation": {
                "w": 0.7031023502349854,
                "x": -0.7110244035720825,
                "y": 0.007748599164187908,
                "z": 0.005598929710686207
            },
            "position": {
                "x": 0.11585023208521307,
                "y": 0.44412534475326537,
                "z": 0.3711530566215515
            }
        },
        "name": "move_to_auspresseinheit_A"
    },
    "id": "BiTRRT_move_to_auspresseinheit_A_113",
    "joint_names": [
        "shoulder_pan_joint",
        "shoulder_lift_joint",
        "elbow_joint",
        "wrist_1_joint",
        "wrist_2_joint",
        "wrist_3_joint"
    ],
    "metrics": {
        "cart_traj_len": 1.7796201980397155,
        "distance_elbow_joint": 1.944655081220044,
        "distance_shoulder_lift_joint": 0.7753394842179129,
        "distance_shoulder_pan_joint": 1.3396266011805142,
        "distance_wrist_1_joint": 2.0385892227397777,
        "distance_wrist_2_joint": 1.5494787624652777,
        "distance_wrist_3_joint": 2.4984314052851095,
        "smoothness": 0.506302043456578,
        "time": 0.077330345,
        "traj_len": 3.185297561784242,
        "weighted_distance": 4.327938464544512
    },
    "planner": "BiTRRT",
    "start": {
        "state": {
            "elbow_joint": 2.422574709923281,
            "shoulder_lift_joint": -1.3736533754116391,
            "shoulder_pan_joint": -0.33786336945926293,
            "wrist_1_joint": -1.0288603412921917,
            "wrist_2_joint": 1.2330224858903978,
            "wrist_3_joint": -3.094022268022082
        }
    },
    "waypoints": [
        {
            "positions": [
                -0.33786336945926293,
                -1.3736533754116391,
                2.422574709923281,
                -1.0288603412921917,
                1.2330224858903978,
                -3.094022268022082
            ]
        },
        {
            "positions": [
                -0.291990250669364,
                -1.3928116189908735,
                2.340314155964091,
                -0.9498931503717223,
                1.171459682658679,
                -2.9912276138190856
            ]
        },
        {
            "positions": [
                -0.24611713187946516,
                -1.411969862570108,
                2.2580536020049014,
                -0.870925959451253,
                1.1098968794269601,
                -2.888432959616089
            ]
        },
        {
            "positions": [
                -0.20024401308956624,
                -1.4311281061493424,
                2.175793048045711,
                -0.7919587685307835,
                1.0483340761952415,
                -2.7856383054130927
            ]
        },
        {
            "positions": [
                -0.15437089429966735,
                -1.4502863497285767,
                2.093532494086521,
                -0.7129915776103142,
                0.9867712729635227,
                -2.682843651210096
            ]
        },
        {
            "positions": [
                -0.10849777550976844,
                -1.4694445933078113,
                2.0112719401273313,
                -0.6340243866898447,
                0.9252084697318039,
                -2.5800489970070997
            ]
        },
        {
            "positions": [
                -0.06262465671986955,
                -1.4886028368870456,
                1.9290113861681413,
                -0.5550571957693753,
                0.8636456665000851,
                -2.477254342804103
            ]
        },
        {
            "positions": [
                -0.01675153792997064,
                -1.50776108046628,
                1.8467508322089512,
                -0.47609000484890596,
                0.8020828632683663,
                -2.3744596886011067
            ]
        },
        {
            "positions": [
                0.02912158085992822,
                -1.5269193240455146,
                1.7644902782497613,
                -0.3971228139284366,
                0.7405200600366477,
                -2.27166503439811
            ]
        },
        {
            "positions": [
                0.07499469964982713,
                -1.546077567624749,
                1.6822297242905715,
                -0.3181556230079672,
                0.6789572568049289,
                -2.1688703801951137
            ]
        },
        {
            "positions": [
                0.12086781843972605,
                -1.5652358112039833,
                1.5999691703313814,
                -0.23918843208749774,
                0.6173944535732101,
                -2.066075725992117
            ]
        },
        {
            "positions": [
                0.16674093722962485,
                -1.5843940547832178,
                1.5177086163721913,
                -0.1602212411670284,
                0.5558316503414914,
                -1.9632810717891207
            ]
        },
        {
            "positions": [
                0.21261405601952388,
                -1.6035522983624522,
                1.4354480624130015,
                -0.08125405024655898,
                0.4942688471097726,
                -1.8604864175861242
            ]
        },
        {
            "positions": [
                0.28411461463283844,
                -1.6636657783948874,
                1.4688591036218943,
                -0.022902548015453467,
                0.443858349597045,
                -1.927043250965959
            ]
        },
        {
            "positions": [
                0.355615173246153,
                -1.7237792584273228,
                1.5022701448307874,
                0.03544895421565204,
                0.39344785208431743,
                -1.9936000843457935
            ]
        },
        {
            "positions": [
                0.4271157318594676,
                -1.783892738459758,
                1.5356811860396802,
                0.09380045644675757,
                0.3430373545715899,
                -2.060156917725628
            ]
        },
        {
            "positions": [
                0.49861629047278216,
                -1.8440062184921933,
                1.569092227248573,
                0.15215195867786308,
                0.2926268570588623,
                -2.126713751105463
            ]
        },
        {
            "positions": [
                0.5701168490860968,
                -1.9041196985246287,
                1.602503268457466,
                0.2105034609089686,
                0.24221635954613474,
                -2.1932705844852975
            ]
        },
        {
            "positions": [
                0.6416174076994113,
                -1.964233178557064,
                1.6359143096663589,
                0.2688549631400741,
                0.19180586203340716,
                -2.2598274178651323
            ]
        },
        {
            "positions": [
                0.7082259366305486,
                -1.995763750368291,
                1.72698580890849,
                0.23121281307788147,
                0.20211347940225013,
                -2.3394438226069805
            ]
        },
        {
            "positions": [
                0.7748344655616857,
                -2.027294322179518,
                1.8180573081506208,
                0.19357066301568882,
                0.2124210967710931,
                -2.4190602273488286
            ]
        },
        {
            "positions": [
                0.7907178414211639,
                -2.021810774129765,
                1.9022372853614387,
                0.10515444637955056,
                0.2702306390466959,
                -2.4885015383808993
            ]
        },
        {
            "positions": [
                0.806601217280642,
                -2.016327226080012,
                1.9864172625722565,
                0.016738229743412297,
                0.32804018132229873,
                -2.5579428494129695
            ]
        },
        {
            "positions": [
                0.8224845931401203,
                -2.010843678030259,
                2.070597239783074,
                -0.07167798689272592,
                0.3858497235979015,
                -2.62738416044504
            ]
        },
        {
            "positions": [
                0.8383679689995985,
                -2.005360129980506,
                2.154777216993892,
                -0.16009420352886422,
                0.44365926587350435,
                -2.6968254714771103
            ]
        },
        {
            "positions": [
                0.8542513448590767,
                -1.999876581930753,
                2.2389571942047097,
                -0.24851042016500244,
                0.5014688081491071,
                -2.766266782509181
            ]
        },
        {
            "positions": [
                0.8476368009392832,
                -1.9821960113921373,
                2.3286429228372936,
                -0.3589356772398206,
                0.581978365271238,
                -2.8497567592162776
            ]
        },
        {
            "positions": [
                0.8373373525094168,
                -1.9702921589526219,
                2.3721643221834734,
                -0.4154308836834122,
                0.6257406173487057,
                -2.897955471400211
            ]
        },
        {
            "positions": [
                0.7720384052531597,
                -1.9379439718410532,
                2.3825704091531197,
                -0.44372491942542525,
                0.6629043089952,
                -3.0116687219177436
            ]
        },
        {
            "positions": [
                0.7067394579969027,
                -1.9055957847294842,
                2.392976496122766,
                -0.47201895516743836,
                0.7000680006416943,
                -3.125381972435276
            ]
        }
    ]
}