{
    "goal": {
        "global_pose": {
            "orientation": {
                "w": 0.5084816217422485,
                "x": -0.49083608388900757,
                "y": 0.5182115435600281,
                "z": -0.4816462993621826
            },
            "position": {
                "x": 0.5540239810943604,
                "y": 0.030875300988554955,
                "z": 0.16403168439865112
            }
        },
        "name": "move_to_storage_A"
    },
    "id": "BiTRRT_move_to_storage_A_63",
    "joint_names": [
        "shoulder_pan_joint",
        "shoulder_lift_joint",
        "elbow_joint",
        "wrist_1_joint",
        "wrist_2_joint",
        "wrist_3_joint"
    ],
    "metrics": {
        "cart_traj_len": 0.3532930093295585,
        "distance_elbow_joint": 0.4494673931854032,
        "distance_shoulder_lift_joint": 0.23586855068015633,
        "distance_shoulder_pan_joint": 0.46414294082088037,
        "distance_wrist_1_joint": 0.24027119229648675,
        "distance_wrist_2_joint": 1.0903570673151808,
        "distance_wrist_3_joint": 0.10574388258816114,
        "smoothness": 1.5543122362334363e-15,
        "time": 0.037468103,
        "traj_len": 1.6080581540747425,
        "weighted_distance": 2.031739907486748
    },
    "planner": "BiTRRT",
    "start": {
        "state": {
            "elbow_joint": 1.9715463870305268,
            "shoulder_lift_joint": -1.1394903361783484,
            "shoulder_pan_joint": 0.12281147578464417,
            "wrist_1_joint": -0.7804599489681411,
            "wrist_2_joint": 0.12958660307563738,
            "wrist_3_joint": -3.1924946282119055
        }
    },
    "waypoints": [
        {
            "positions": [
                0.12281147578464417,
                -1.1394903361783484,
                1.9715463870305268,
                -0.7804599489681411,
                0.12958660307563738,
                -3.1924946282119055
            ]
        },
        {
            "positions": [
                0.05650534138166127,
                -1.1731858434183706,
                2.0357560146284417,
                -0.8147844050104963,
                0.2853518984063775,
                -3.1773883592707395
            ]
        },
        {
            "positions": [
                -0.009800793021321627,
                -1.206881350658393,
                2.099965642226356,
                -0.8491088610528515,
                0.44111719373711755,
                -3.162282090329574
            ]
        },
        {
            "positions": [
                -0.07610692742430454,
                -1.2405768578984153,
                2.164175269824271,
                -0.8834333170952068,
                0.5968824890678577,
                -3.147175821388408
            ]
        },
        {
            "positions": [
                -0.1424130618272874,
                -1.2742723651384378,
                2.2283848974221856,
                -0.9177577731375621,
                0.7526477843985978,
                -3.132069552447242
            ]
        },
        {
            "positions": [
                -0.20871919623027035,
                -1.30796787237846,
                2.2925945250201005,
                -0.9520822291799174,
                0.9084130797293379,
                -3.116963283506076
            ]
        },
        {
            "positions": [
                -0.27502533063325324,
                -1.3416633796184825,
                2.356804152618015,
                -0.9864066852222726,
                1.064178375060078,
                -3.1018570145649105
            ]
        },
        {
            "positions": [
                -0.3413314650362362,
                -1.3753588868585047,
                2.42101378021593,
                -1.0207311412646278,
                1.2199436703908182,
                -3.0867507456237444
            ]
        }
    ]
}