{
    "goal": {
        "global_pose": {
            "orientation": {
                "w": 0.7031023502349854,
                "x": -0.7110244035720825,
                "y": 0.007748599164187908,
                "z": 0.005598929710686207
            },
            "position": {
                "x": 0.11585023208521307,
                "y": 0.44412534475326537,
                "z": 0.3711530566215515
            }
        },
        "name": "move_to_auspresseinheit_A"
    },
    "id": "BiTRRT_move_to_auspresseinheit_A_134",
    "joint_names": [
        "shoulder_pan_joint",
        "shoulder_lift_joint",
        "elbow_joint",
        "wrist_1_joint",
        "wrist_2_joint",
        "wrist_3_joint"
    ],
    "metrics": {
        "cart_traj_len": 0.672183563287521,
        "distance_elbow_joint": 0.032617194592371224,
        "distance_shoulder_lift_joint": 0.535612494338136,
        "distance_shoulder_pan_joint": 1.0451531655296495,
        "distance_wrist_1_joint": 0.5693524355392913,
        "distance_wrist_2_joint": 0.5163943104935924,
        "distance_wrist_3_joint": 0.33572583210743634,
        "smoothness": 0.28687578739432046,
        "time": 0.047293668999999997,
        "traj_len": 1.7420836468437664,
        "weighted_distance": 2.1890760249128474
    },
    "planner": "BiTRRT",
    "start": {
        "state": {
            "elbow_joint": 2.422574709923281,
            "shoulder_lift_joint": -1.3736533754116391,
            "shoulder_pan_joint": -0.33786336945926293,
            "wrist_1_joint": -1.0288603412921917,
            "wrist_2_joint": 1.2330224858903978,
            "wrist_3_joint": -3.094022268022082
        }
    },
    "waypoints": [
        {
            "positions": [
                -0.33786336945926293,
                -1.3736533754116391,
                2.422574709923281,
                -1.0288603412921917,
                1.2330224858903978,
                -3.094022268022082
            ]
        },
        {
            "positions": [
                -0.2340393503534634,
                -1.4263348167688499,
                2.4228769770857252,
                -0.9236590848536468,
                1.166613691894957,
                -3.0649123540830256
            ]
        },
        {
            "positions": [
                -0.13021533124766388,
                -1.4790162581260606,
                2.4231792442481694,
                -0.8184578284151018,
                1.1002048978995163,
                -3.035802440143969
            ]
        },
        {
            "positions": [
                -0.026391312141864354,
                -1.5316976994832716,
                2.423481511410614,
                -0.7132565719765569,
                1.0337961039040753,
                -3.0066925262049127
            ]
        },
        {
            "positions": [
                0.07743270696393517,
                -1.5843791408404824,
                2.4237837785730583,
                -0.6080553155380118,
                0.9673873099086345,
                -2.977582612265856
            ]
        },
        {
            "positions": [
                0.1812567260697347,
                -1.6370605821976931,
                2.4240860457355025,
                -0.5028540590994669,
                0.9009785159131938,
                -2.9484726983267997
            ]
        },
        {
            "positions": [
                0.3127649935698977,
                -1.7051119040857137,
                2.416309581040465,
                -0.49201752076282523,
                0.8548909307840966,
                -2.996016763929838
            ]
        },
        {
            "positions": [
                0.44427326107006065,
                -1.7731632259737342,
                2.4085331163454278,
                -0.4811809824261836,
                0.8088033456549996,
                -3.0435608295328764
            ]
        },
        {
            "positions": [
                0.5757815285702237,
                -1.8412145478617545,
                2.40075665165039,
                -0.470344444089542,
                0.7627157605259025,
                -3.0911048951359152
            ]
        },
        {
            "positions": [
                0.7072897960703867,
                -1.909265869749775,
                2.3929801869553526,
                -0.45950790575290035,
                0.7166281753968053,
                -3.1386489607389536
            ]
        }
    ]
}