{
    "goal": {
        "global_pose": {
            "orientation": {
                "w": 0.5084816217422485,
                "x": -0.49083608388900757,
                "y": 0.5182115435600281,
                "z": -0.4816462993621826
            },
            "position": {
                "x": 0.5540239810943604,
                "y": 0.030875300988554955,
                "z": 0.16403168439865112
            }
        },
        "name": "move_to_storage_A"
    },
    "id": "BiTRRT_move_to_storage_A_65",
    "joint_names": [
        "shoulder_pan_joint",
        "shoulder_lift_joint",
        "elbow_joint",
        "wrist_1_joint",
        "wrist_2_joint",
        "wrist_3_joint"
    ],
    "metrics": {
        "cart_traj_len": 0.35337329626735886,
        "distance_elbow_joint": 0.4481254720608443,
        "distance_shoulder_lift_joint": 0.2352217034253088,
        "distance_shoulder_pan_joint": 0.4622989574304825,
        "distance_wrist_1_joint": 0.2384745917905372,
        "distance_wrist_2_joint": 1.0981915178245258,
        "distance_wrist_3_joint": 0.10461757804311977,
        "smoothness": 4.440892098500626e-16,
        "time": 0.035680507,
        "traj_len": 1.6083935527646267,
        "weighted_distance": 2.0329365672042305
    },
    "planner": "BiTRRT",
    "start": {
        "state": {
            "elbow_joint": 1.9715463870305268,
            "shoulder_lift_joint": -1.1394903361783484,
            "shoulder_pan_joint": 0.12281147578464417,
            "wrist_1_joint": -0.7804599489681411,
            "wrist_2_joint": 0.12958660307563738,
            "wrist_3_joint": -3.1924946282119055
        }
    },
    "waypoints": [
        {
            "positions": [
                0.12281147578464417,
                -1.1394903361783484,
                1.9715463870305268,
                -0.7804599489681411,
                0.12958660307563738,
                -3.1924946282119055
            ]
        },
        {
            "positions": [
                0.056768767580289536,
                -1.1730934366676782,
                2.0355643116106474,
                -0.8145277477953606,
                0.2864711056219982,
                -3.1775492599200312
            ]
        },
        {
            "positions": [
                -0.0092739406240651,
                -1.206696537157008,
                2.099582236190768,
                -0.8485955466225803,
                0.44335560816835906,
                -3.162603891628157
            ]
        },
        {
            "positions": [
                -0.07531664882841975,
                -1.2402996376463378,
                2.163600160770889,
                -0.8826633454497999,
                0.6002401107147198,
                -3.1476585233362826
            ]
        },
        {
            "positions": [
                -0.14135935703277436,
                -1.2739027381356678,
                2.227618085351009,
                -0.9167311442770195,
                0.7571246132610807,
                -3.1327131550444087
            ]
        },
        {
            "positions": [
                -0.207402065237129,
                -1.3075058386249976,
                2.2916360099311297,
                -0.9507989431042391,
                0.9140091158074416,
                -3.1177677867525344
            ]
        },
        {
            "positions": [
                -0.27344477344148366,
                -1.3411089391143274,
                2.3556539345112504,
                -0.9848667419314587,
                1.0708936183538023,
                -3.10282241846066
            ]
        },
        {
            "positions": [
                -0.3394874816458383,
                -1.3747120396036572,
                2.419671859091371,
                -1.0189345407586783,
                1.2277781209001633,
                -3.0878770501687858
            ]
        }
    ]
}