{
    "goal": {
        "global_pose": {
            "orientation": {
                "w": 0.5084816217422485,
                "x": -0.49083608388900757,
                "y": 0.5182115435600281,
                "z": -0.4816462993621826
            },
            "position": {
                "x": 0.5540239810943604,
                "y": 0.030875300988554955,
                "z": 0.16403168439865112
            }
        },
        "name": "move_to_storage_A"
    },
    "id": "BiTRRT_move_to_storage_A_126",
    "joint_names": [
        "shoulder_pan_joint",
        "shoulder_lift_joint",
        "elbow_joint",
        "wrist_1_joint",
        "wrist_2_joint",
        "wrist_3_joint"
    ],
    "metrics": {
        "cart_traj_len": 0.35388963825926667,
        "distance_elbow_joint": 0.4493726664913229,
        "distance_shoulder_lift_joint": 0.23433164161456377,
        "distance_shoulder_pan_joint": 0.46076134250447925,
        "distance_wrist_1_joint": 0.23582723796046146,
        "distance_wrist_2_joint": 1.1093306824939897,
        "distance_wrist_3_joint": 0.09373601311300606,
        "smoothness": 0.0,
        "time": 0.023569600000000003,
        "traj_len": 1.6072832930687182,
        "weighted_distance": 2.0287901643241195
    },
    "planner": "BiTRRT",
    "start": {
        "state": {
            "elbow_joint": 1.9715463870305268,
            "shoulder_lift_joint": -1.1394903361783484,
            "shoulder_pan_joint": 0.12281147578464417,
            "wrist_1_joint": -0.7804599489681411,
            "wrist_2_joint": 0.12958660307563738,
            "wrist_3_joint": -3.1924946282119055
        }
    },
    "waypoints": [
        {
            "positions": [
                0.12281147578464417,
                -1.1394903361783484,
                1.9715463870305268,
                -0.7804599489681411,
                0.12958660307563738,
                -3.1924946282119055
            ]
        },
        {
            "positions": [
                0.05698842685543286,
                -1.172966284980429,
                2.035742482243573,
                -0.8141495543910642,
                0.28806241486049305,
                -3.1791037691957618
            ]
        },
        {
            "positions": [
                -0.008834622073778456,
                -1.2064422337825094,
                2.099938577456619,
                -0.8478391598139872,
                0.4465382266453487,
                -3.165712910179618
            ]
        },
        {
            "positions": [
                -0.07465767100298977,
                -1.23991818258459,
                2.164134672669665,
                -0.8815287652369103,
                0.6050140384302044,
                -3.152322051163474
            ]
        },
        {
            "positions": [
                -0.14048071993220107,
                -1.2733941313866706,
                2.2283307678827113,
                -0.9152183706598334,
                0.7634898502150601,
                -3.138931192147331
            ]
        },
        {
            "positions": [
                -0.20630376886141244,
                -1.3068700801887512,
                2.2925268630957576,
                -0.9489079760827563,
                0.9219656619999158,
                -3.125540333131187
            ]
        },
        {
            "positions": [
                -0.2721268177906237,
                -1.3403460289908316,
                2.3567229583088034,
                -0.9825975815056794,
                1.0804414737847714,
                -3.1121494741150433
            ]
        },
        {
            "positions": [
                -0.33794986671983507,
                -1.3738219777929122,
                2.4209190535218497,
                -1.0162871869286025,
                1.238917285569627,
                -3.0987586150988995
            ]
        }
    ]
}