{
    "goal": {
        "global_pose": {
            "orientation": {
                "w": 0.7047431468963623,
                "x": -0.7094548344612122,
                "y": 0.0024358443915843964,
                "z": -0.0022348060738295317
            },
            "position": {
                "x": 0.6094750761985779,
                "y": 0.3671506643295288,
                "z": 0.19426114857196808
            }
        },
        "name": "move_to_magneteinheit_A"
    },
    "id": "BiTRRT_move_to_magneteinheit_A_32",
    "joint_names": [
        "shoulder_pan_joint",
        "shoulder_lift_joint",
        "elbow_joint",
        "wrist_1_joint",
        "wrist_2_joint",
        "wrist_3_joint"
    ],
    "metrics": {
        "cart_traj_len": 2.0666644247880233,
        "distance_elbow_joint": 3.8881173594112903,
        "distance_shoulder_lift_joint": 1.0622189096031234,
        "distance_shoulder_pan_joint": 1.2429547809964077,
        "distance_wrist_1_joint": 1.186152571200958,
        "distance_wrist_2_joint": 1.4326337750413034,
        "distance_wrist_3_joint": 1.9447910607088117,
        "smoothness": 3.062684213497013e-16,
        "time": 0.065468151,
        "traj_len": 3.2797665247639043,
        "weighted_distance": 4.155145836745298
    },
    "planner": "BiTRRT",
    "start": {
        "state": {
            "elbow_joint": -1.919643507792019,
            "shoulder_lift_joint": -0.07675430207160344,
            "shoulder_pan_joint": -1.1188671864651873,
            "wrist_1_joint": 0.42560062535961957,
            "wrist_2_joint": 1.5706038300724876,
            "wrist_3_joint": 1.1188968870953055
        }
    },
    "waypoints": [
        {
            "positions": [
                -1.1188671864651873,
                -0.07675430207160344,
                -1.919643507792019,
                0.42560062535961957,
                1.5706038300724876,
                1.1188968870953055
            ]
        },
        {
            "positions": [
                -1.0744759442867442,
                -0.11469069170028642,
                -1.7807821735273301,
                0.38323803353101393,
                1.5194383381067267,
                1.1883537106920488
            ]
        },
        {
            "positions": [
                -1.030084702108301,
                -0.1526270813289694,
                -1.6419208392626412,
                0.3408754417024083,
                1.468272846140966,
                1.257810534288792
            ]
        },
        {
            "positions": [
                -0.9856934599298579,
                -0.19056347095765236,
                -1.5030595049979523,
                0.29851284987380267,
                1.417107354175205,
                1.3272673578855354
            ]
        },
        {
            "positions": [
                -0.9413022177514149,
                -0.22849986058633534,
                -1.3641981707332633,
                0.256150258045197,
                1.3659418622094444,
                1.3967241814822786
            ]
        },
        {
            "positions": [
                -0.8969109755729717,
                -0.2664362502150183,
                -1.2253368364685744,
                0.21378766621659134,
                1.3147763702436834,
                1.4661810050790218
            ]
        },
        {
            "positions": [
                -0.8525197333945286,
                -0.30437263984370133,
                -1.0864755022038854,
                0.1714250743879857,
                1.2636108782779227,
                1.5356378286757653
            ]
        },
        {
            "positions": [
                -0.8081284912160854,
                -0.3423090294723843,
                -0.9476141679391965,
                0.12906248255938008,
                1.2124453863121618,
                1.6050946522725085
            ]
        },
        {
            "positions": [
                -0.7637372490376424,
                -0.38024541910106724,
                -0.8087528336745076,
                0.08669989073077444,
                1.1612798943464009,
                1.6745514758692517
            ]
        },
        {
            "positions": [
                -0.7193460068591991,
                -0.41818180872975025,
                -0.6698914994098186,
                0.044337298902168754,
                1.1101144023806402,
                1.7440082994659951
            ]
        },
        {
            "positions": [
                -0.6749547646807561,
                -0.4561181983584332,
                -0.5310301651451297,
                0.00197470707356312,
                1.0589489104148793,
                1.8134651230627383
            ]
        },
        {
            "positions": [
                -0.630563522502313,
                -0.4940545879871162,
                -0.39216883088044074,
                -0.04038788475504246,
                1.0077834184491183,
                1.8829219466594815
            ]
        },
        {
            "positions": [
                -0.5861722803238698,
                -0.5319909776157992,
                -0.2533074966157518,
                -0.08275047658364815,
                0.9566179264833576,
                1.9523787702562247
            ]
        },
        {
            "positions": [
                -0.5417810381454267,
                -0.5699273672444822,
                -0.11444616235106286,
                -0.12511306841225384,
                0.9054524345175967,
                2.021835593852968
            ]
        },
        {
            "positions": [
                -0.4973897959669835,
                -0.6078637568731651,
                0.024415171913626077,
                -0.16747566024085941,
                0.8542869425518359,
                2.0912924174497114
            ]
        },
        {
            "positions": [
                -0.45299855378854037,
                -0.6458001465018481,
                0.1632765061783148,
                -0.209838252069465,
                0.8031214505860751,
                2.160749241046455
            ]
        },
        {
            "positions": [
                -0.40860731161009733,
                -0.683736536130531,
                0.30213784044300396,
                -0.2522008438980707,
                0.7519559586203143,
                2.230206064643198
            ]
        },
        {
            "positions": [
                -0.3642160694316542,
                -0.721672925759214,
                0.4409991747076927,
                -0.29456343572667626,
                0.7007904666545535,
                2.299662888239941
            ]
        },
        {
            "positions": [
                -0.31982482725321093,
                -0.7596093153878971,
                0.5798605089723818,
                -0.33692602755528206,
                0.6496249746887925,
                2.3691197118366847
            ]
        },
        {
            "positions": [
                -0.2754335850747678,
                -0.79754570501658,
                0.718721843237071,
                -0.37928861938388764,
                0.5984594827230317,
                2.4385765354334277
            ]
        },
        {
            "positions": [
                -0.23104234289632475,
                -0.835482094645263,
                0.8575831775017597,
                -0.4216512112124933,
                0.5472939907572709,
                2.508033359030171
            ]
        },
        {
            "positions": [
                -0.1866511007178816,
                -0.8734184842739461,
                0.9964445117664489,
                -0.4640138030410989,
                0.49612849879151,
                2.5774901826269145
            ]
        },
        {
            "positions": [
                -0.14225985853943846,
                -0.9113548739026289,
                1.1353058460311376,
                -0.5063763948697044,
                0.4449630068257493,
                2.6469470062236575
            ]
        },
        {
            "positions": [
                -0.09786861636099542,
                -0.949291263531312,
                1.2741671802958263,
                -0.5487389866983101,
                0.3937975148599884,
                2.7164038298204005
            ]
        },
        {
            "positions": [
                -0.05347737418255227,
                -0.9872276531599948,
                1.4130285145605155,
                -0.5911015785269158,
                0.3426320228942277,
                2.785860653417144
            ]
        },
        {
            "positions": [
                -0.009086132004109126,
                -1.025164042788678,
                1.5518898488252046,
                -0.6334641703555215,
                0.29146653092846675,
                2.8553174770138874
            ]
        },
        {
            "positions": [
                0.03530511017433402,
                -1.063100432417361,
                1.6907511830898934,
                -0.6758267621841272,
                0.24030103896270583,
                2.924774300610631
            ]
        },
        {
            "positions": [
                0.07969635235277717,
                -1.1010368220460438,
                1.8296125173545825,
                -0.7181893540127327,
                0.18913554699694513,
                2.9942311242073743
            ]
        },
        {
            "positions": [
                0.12408759453122024,
                -1.1389732116747269,
                1.9684738516192715,
                -0.7605519458413385,
                0.13797005503118417,
                3.0636879478041172
            ]
        }
    ]
}