{
    "goal": {
        "global_pose": {
            "orientation": {
                "w": 0.5084816217422485,
                "x": -0.49083608388900757,
                "y": 0.5182115435600281,
                "z": -0.4816462993621826
            },
            "position": {
                "x": 0.5540239810943604,
                "y": 0.030875300988554955,
                "z": 0.16403168439865112
            }
        },
        "name": "move_to_storage_A"
    },
    "id": "BiTRRT_move_to_storage_A_73",
    "joint_names": [
        "shoulder_pan_joint",
        "shoulder_lift_joint",
        "elbow_joint",
        "wrist_1_joint",
        "wrist_2_joint",
        "wrist_3_joint"
    ],
    "metrics": {
        "cart_traj_len": 0.35353130721786724,
        "distance_elbow_joint": 0.4510875946883246,
        "distance_shoulder_lift_joint": 0.23267913934343487,
        "distance_shoulder_pan_joint": 0.46303044529297194,
        "distance_wrist_1_joint": 0.24847619558076095,
        "distance_wrist_2_joint": 1.0959050123718226,
        "distance_wrist_3_joint": 0.10360067290798014,
        "smoothness": 6.661338165333112e-16,
        "time": 0.041450989,
        "traj_len": 1.6108317914001122,
        "weighted_distance": 2.0362616761982824
    },
    "planner": "BiTRRT",
    "start": {
        "state": {
            "elbow_joint": 1.9715463870305268,
            "shoulder_lift_joint": -1.1394903361783484,
            "shoulder_pan_joint": 0.12281147578464417,
            "wrist_1_joint": -0.7804599489681411,
            "wrist_2_joint": 0.12958660307563738,
            "wrist_3_joint": -3.1924946282119055
        }
    },
    "waypoints": [
        {
            "positions": [
                0.12281147578464417,
                -1.1394903361783484,
                1.9715463870305268,
                -0.7804599489681411,
                0.12958660307563738,
                -3.1924946282119055
            ]
        },
        {
            "positions": [
                0.05666426931421961,
                -1.1727302132274104,
                2.035987471986002,
                -0.8159565483368212,
                0.2861444619858977,
                -3.177694532082194
            ]
        },
        {
            "positions": [
                -0.009482937156204949,
                -1.2059700902764727,
                2.1004285569414765,
                -0.8514531477055014,
                0.44270232089615813,
                -3.1628944359524827
            ]
        },
        {
            "positions": [
                -0.0756301436266295,
                -1.2392099673255348,
                2.1648696418969515,
                -0.8869497470741815,
                0.5992601798064184,
                -3.148094339822771
            ]
        },
        {
            "positions": [
                -0.14177735009705406,
                -1.2724498443745969,
                2.2293107268524266,
                -0.9224463464428616,
                0.7558180387166789,
                -3.1332942436930598
            ]
        },
        {
            "positions": [
                -0.20792455656747866,
                -1.3056897214236591,
                2.2937518118079017,
                -0.9579429458115418,
                0.9123758976269393,
                -3.1184941475633483
            ]
        },
        {
            "positions": [
                -0.27407176303790315,
                -1.3389295984727212,
                2.3581928967633763,
                -0.9934395451802218,
                1.0689337565371995,
                -3.103694051433637
            ]
        },
        {
            "positions": [
                -0.34021896950832775,
                -1.3721694755217833,
                2.4226339817188514,
                -1.028936144548902,
                1.22549161544746,
                -3.0888939553039254
            ]
        }
    ]
}