{
    "goal": {
        "global_pose": {
            "orientation": {
                "w": 0.7047431468963623,
                "x": -0.7094548344612122,
                "y": 0.0024358443915843964,
                "z": -0.0022348060738295317
            },
            "position": {
                "x": 0.6094750761985779,
                "y": 0.3671506643295288,
                "z": 0.19426114857196808
            }
        },
        "name": "move_to_magneteinheit_A"
    },
    "id": "BiTRRT_move_to_magneteinheit_A_94",
    "joint_names": [
        "shoulder_pan_joint",
        "shoulder_lift_joint",
        "elbow_joint",
        "wrist_1_joint",
        "wrist_2_joint",
        "wrist_3_joint"
    ],
    "metrics": {
        "cart_traj_len": 2.059720858311093,
        "distance_elbow_joint": 3.8809703162729368,
        "distance_shoulder_lift_joint": 1.0633929265927,
        "distance_shoulder_pan_joint": 1.241560920579893,
        "distance_wrist_1_joint": 1.1554564039277495,
        "distance_wrist_2_joint": 1.4400264476432725,
        "distance_wrist_3_joint": 4.351766086273617,
        "smoothness": 0.010450580755573051,
        "time": 0.12444301799999999,
        "traj_len": 3.6239720061405234,
        "weighted_distance": 4.942892688032831
    },
    "planner": "BiTRRT",
    "start": {
        "state": {
            "elbow_joint": -1.919643507792019,
            "shoulder_lift_joint": -0.07675430207160344,
            "shoulder_pan_joint": -1.1188671864651873,
            "wrist_1_joint": 0.42560062535961957,
            "wrist_2_joint": 1.5706038300724876,
            "wrist_3_joint": 1.1188968870953055
        }
    },
    "waypoints": [
        {
            "positions": [
                -1.1188671864651873,
                -0.07675430207160344,
                -1.919643507792019,
                0.42560062535961957,
                1.5706038300724876,
                1.1188968870953055
            ]
        },
        {
            "positions": [
                -1.0821966339556583,
                -0.10889419121217367,
                -1.8026302134543222,
                0.39066939705854453,
                1.5272617342780015,
                0.9903691991809429
            ]
        },
        {
            "positions": [
                -1.0455260814461294,
                -0.1410340803527439,
                -1.6856169191166255,
                0.35573816875746955,
                1.4839196384835156,
                0.8618415112665803
            ]
        },
        {
            "positions": [
                -1.0088555289366001,
                -0.1731739694933141,
                -1.5686036247789286,
                0.3208069404563945,
                1.4405775426890295,
                0.7333138233522175
            ]
        },
        {
            "positions": [
                -0.9721849764270711,
                -0.20531385863388432,
                -1.4515903304412316,
                0.2858757121553195,
                1.3972354468945434,
                0.6047861354378549
            ]
        },
        {
            "positions": [
                -0.9355144239175421,
                -0.23745374777445455,
                -1.3345770361035347,
                0.2509444838542445,
                1.3538933511000573,
                0.4762584475234921
            ]
        },
        {
            "positions": [
                -0.8988438714080131,
                -0.2695936369150248,
                -1.2175637417658378,
                0.2160132555531695,
                1.3105512553055711,
                0.34773075960912947
            ]
        },
        {
            "positions": [
                -0.8621733188984841,
                -0.301733526055595,
                -1.1005504474281411,
                0.18108202725209446,
                1.2672091595110853,
                0.21920307169476683
            ]
        },
        {
            "positions": [
                -0.825502766388955,
                -0.3338734151961652,
                -0.9835371530904443,
                0.14615079895101946,
                1.2238670637165991,
                0.09067538378040418
            ]
        },
        {
            "positions": [
                -0.788832213879426,
                -0.3660133043367354,
                -0.8665238587527475,
                0.11121957064994448,
                1.180524967922113,
                -0.03785230413395846
            ]
        },
        {
            "positions": [
                -0.7521616613698969,
                -0.39815319347730566,
                -0.7495105644150506,
                0.07628834234886944,
                1.137182872127627,
                -0.16637999204832132
            ]
        },
        {
            "positions": [
                -0.7154911088603679,
                -0.43029308261787585,
                -0.6324972700773539,
                0.04135711404779446,
                1.093840776333141,
                -0.29490767996268374
            ]
        },
        {
            "positions": [
                -0.6788205563508389,
                -0.4624329717584461,
                -0.5154839757396568,
                0.006425885746719429,
                1.050498680538655,
                -0.4234353678770466
            ]
        },
        {
            "positions": [
                -0.6421500038413099,
                -0.49457286089901625,
                -0.39847068140196007,
                -0.028505342554355606,
                1.0071565847441688,
                -0.5519630557914093
            ]
        },
        {
            "positions": [
                -0.6054794513317808,
                -0.5267127500395865,
                -0.28145738706426315,
                -0.06343657085543064,
                0.9638144889496828,
                -0.6804907437057719
            ]
        },
        {
            "positions": [
                -0.5688088988222518,
                -0.5588526391801567,
                -0.16444409272656646,
                -0.09836779915650556,
                0.9204723931551967,
                -0.8090184316201345
            ]
        },
        {
            "positions": [
                -0.5321383463127227,
                -0.5909925283207269,
                -0.047430798388869544,
                -0.13329902745758065,
                0.8771302973607107,
                -0.9375461195344972
            ]
        },
        {
            "positions": [
                -0.4954677938031937,
                -0.6231324174612971,
                0.06958249594882737,
                -0.16823025575865563,
                0.8337882015662246,
                -1.06607380744886
            ]
        },
        {
            "positions": [
                -0.4587972412936647,
                -0.6552723066018673,
                0.18659579028652407,
                -0.2031614840597306,
                0.7904461057717386,
                -1.1946014953632225
            ]
        },
        {
            "positions": [
                -0.4221266887841356,
                -0.6874121957424377,
                0.3036090846242214,
                -0.2380927123608057,
                0.7471040099772525,
                -1.3231291832775853
            ]
        },
        {
            "positions": [
                -0.3854561362746066,
                -0.7195520848830079,
                0.4206223789619179,
                -0.2730239406618807,
                0.7037619141827663,
                -1.4516568711919482
            ]
        },
        {
            "positions": [
                -0.3487855837650775,
                -0.7516919740235781,
                0.5376356732996148,
                -0.30795516896295566,
                0.6604198183882803,
                -1.5801845591063106
            ]
        },
        {
            "positions": [
                -0.3121150312555485,
                -0.7838318631641483,
                0.6546489676373113,
                -0.34288639726403064,
                0.6170777225937943,
                -1.708712247020673
            ]
        },
        {
            "positions": [
                -0.2754444787460194,
                -0.8159717523047185,
                0.7716622619750086,
                -0.37781762556510573,
                0.5737356267993082,
                -1.8372399349350363
            ]
        },
        {
            "positions": [
                -0.2387739262364904,
                -0.8481116414452887,
                0.8886755563127056,
                -0.4127488538661807,
                0.5303935310048222,
                -1.9657676228493988
            ]
        },
        {
            "positions": [
                -0.2021033737269614,
                -0.8802515305858589,
                1.005688850650402,
                -0.4476800821672558,
                0.4870514352103361,
                -2.094295310763761
            ]
        },
        {
            "positions": [
                -0.1654328212174324,
                -0.9123914197264291,
                1.122702144988099,
                -0.4826113104683308,
                0.4437093394158502,
                -2.222822998678124
            ]
        },
        {
            "positions": [
                -0.1287622687079033,
                -0.9445313088669993,
                1.2397154393257959,
                -0.5175425387694059,
                0.4003672436213639,
                -2.351350686592487
            ]
        },
        {
            "positions": [
                -0.09209171619837431,
                -0.9766711980075695,
                1.3567287336634928,
                -0.5524737670704809,
                0.357025147826878,
                -2.4798783745068493
            ]
        },
        {
            "positions": [
                -0.05542116368884531,
                -1.0088110871481397,
                1.4737420280011897,
                -0.5874049953715557,
                0.3136830520323919,
                -2.608406062421212
            ]
        },
        {
            "positions": [
                -0.018750611179316312,
                -1.04095097628871,
                1.5907553223388862,
                -0.6223362236726306,
                0.27034095623790577,
                -2.7369337503355746
            ]
        },
        {
            "positions": [
                0.017919941330212907,
                -1.0730908654292803,
                1.7077686166765835,
                -0.6572674519737058,
                0.22699886044341966,
                -2.8654614382499375
            ]
        },
        {
            "positions": [
                0.054590493839741905,
                -1.1052307545698505,
                1.82478191101428,
                -0.6921986802747808,
                0.18365676464893377,
                -2.9939891261643
            ]
        },
        {
            "positions": [
                0.09126104634927097,
                -1.1373706437104207,
                1.9417952053519771,
                -0.7271299085758558,
                0.1403146688544477,
                -3.1225168140786623
            ]
        },
        {
            "positions": [
                0.12269373411470565,
                -1.134594058756538,
                1.961326808480918,
                -0.7298557785681299,
                0.13057738242921524,
                -3.2328691991783116
            ]
        }
    ]
}