{
    "goal": {
        "global_pose": {
            "orientation": {
                "w": 0.7031023502349854,
                "x": -0.7110244035720825,
                "y": 0.007748599164187908,
                "z": 0.005598929710686207
            },
            "position": {
                "x": 0.11585023208521307,
                "y": 0.44412534475326537,
                "z": 0.3711530566215515
            }
        },
        "name": "move_to_auspresseinheit_A"
    },
    "id": "BiTRRT_move_to_auspresseinheit_A_53",
    "joint_names": [
        "shoulder_pan_joint",
        "shoulder_lift_joint",
        "elbow_joint",
        "wrist_1_joint",
        "wrist_2_joint",
        "wrist_3_joint"
    ],
    "metrics": {
        "cart_traj_len": 0.7534796390826303,
        "distance_elbow_joint": 0.040752134223513536,
        "distance_shoulder_lift_joint": 0.5340048437038118,
        "distance_shoulder_pan_joint": 1.2276712395691418,
        "distance_wrist_1_joint": 0.5560460260336426,
        "distance_wrist_2_joint": 0.511840404398793,
        "distance_wrist_3_joint": 0.0332186454166119,
        "smoothness": 0.3324947313488994,
        "time": 0.049906232999999994,
        "traj_len": 1.70397573144265,
        "weighted_distance": 2.0094419659724374
    },
    "planner": "BiTRRT",
    "start": {
        "state": {
            "elbow_joint": 2.422574709923281,
            "shoulder_lift_joint": -1.3736533754116391,
            "shoulder_pan_joint": -0.33786336945926293,
            "wrist_1_joint": -1.0288603412921917,
            "wrist_2_joint": 1.2330224858903978,
            "wrist_3_joint": -3.094022268022082
        }
    },
    "waypoints": [
        {
            "positions": [
                -0.33786336945926293,
                -1.3736533754116391,
                2.422574709923281,
                -1.0288603412921917,
                1.2330224858903978,
                -3.094022268022082
            ]
        },
        {
            "positions": [
                -0.3678661014758584,
                -1.4447793642388504,
                2.411172633293115,
                -0.9018048653373192,
                1.207047574047621,
                -3.099211097055023
            ]
        },
        {
            "positions": [
                -0.3978688334924539,
                -1.515905353066062,
                2.399770556662949,
                -0.7747493893824465,
                1.181072662204844,
                -3.104399926087964
            ]
        },
        {
            "positions": [
                -0.42787156550904937,
                -1.5870313418932733,
                2.3883684800327827,
                -0.6476939134275739,
                1.1550977503620672,
                -3.109588755120905
            ]
        },
        {
            "positions": [
                -0.2382610582558235,
                -1.6404691547636363,
                2.389459464088285,
                -0.6185473137327364,
                1.0827784722169902,
                -3.112530781507203
            ]
        },
        {
            "positions": [
                -0.04865055100259763,
                -1.6939069676339993,
                2.3905504481437876,
                -0.589400714037899,
                1.010459194071913,
                -3.1154728078935015
            ]
        },
        {
            "positions": [
                0.1409599562506283,
                -1.747344780504362,
                2.3916414321992905,
                -0.5602541143430615,
                0.938139915926836,
                -3.1184148342797995
            ]
        },
        {
            "positions": [
                0.3305704635038541,
                -1.800782593374725,
                2.392732416254793,
                -0.531107514648224,
                0.865820637781759,
                -3.1213568606660975
            ]
        },
        {
            "positions": [
                0.5201809707570801,
                -1.854220406245088,
                2.3938234003102954,
                -0.5019609149533866,
                0.7935013596366818,
                -3.124298887052396
            ]
        },
        {
            "positions": [
                0.709791478010306,
                -1.907658219115451,
                2.394914384365798,
                -0.47281431525854906,
                0.7211820814916048,
                -3.127240913438694
            ]
        }
    ]
}