{
    "goal": {
        "global_pose": {
            "orientation": {
                "w": 0.5084816217422485,
                "x": -0.49083608388900757,
                "y": 0.5182115435600281,
                "z": -0.4816462993621826
            },
            "position": {
                "x": 0.5540239810943604,
                "y": 0.030875300988554955,
                "z": 0.16403168439865112
            }
        },
        "name": "move_to_storage_A"
    },
    "id": "BiTRRT_move_to_storage_A_99",
    "joint_names": [
        "shoulder_pan_joint",
        "shoulder_lift_joint",
        "elbow_joint",
        "wrist_1_joint",
        "wrist_2_joint",
        "wrist_3_joint"
    ],
    "metrics": {
        "cart_traj_len": 0.35304264918510686,
        "distance_elbow_joint": 0.4492816830748594,
        "distance_shoulder_lift_joint": 0.23467214380954848,
        "distance_shoulder_pan_joint": 0.46211690387682053,
        "distance_wrist_1_joint": 0.2360164220888451,
        "distance_wrist_2_joint": 1.09716500485862,
        "distance_wrist_3_joint": 0.1048017500853291,
        "smoothness": 4.440892098500626e-16,
        "time": 0.05501125,
        "traj_len": 1.607499271475425,
        "weighted_distance": 2.03146224058242
    },
    "planner": "BiTRRT",
    "start": {
        "state": {
            "elbow_joint": 1.9715463870305268,
            "shoulder_lift_joint": -1.1394903361783484,
            "shoulder_pan_joint": 0.12281147578464417,
            "wrist_1_joint": -0.7804599489681411,
            "wrist_2_joint": 0.12958660307563738,
            "wrist_3_joint": -3.1924946282119055
        }
    },
    "waypoints": [
        {
            "positions": [
                0.12281147578464417,
                -1.1394903361783484,
                1.9715463870305268,
                -0.7804599489681411,
                0.12958660307563738,
                -3.1924946282119055
            ]
        },
        {
            "positions": [
                0.056794775230812666,
                -1.173014928151141,
                2.0357294846126495,
                -0.814176580695119,
                0.28632446091258307,
                -3.1775229496282873
            ]
        },
        {
            "positions": [
                -0.00922192532301884,
                -1.2065395201239337,
                2.099912582194772,
                -0.8478932124220968,
                0.4430623187495287,
                -3.1625512710446686
            ]
        },
        {
            "positions": [
                -0.07523862587685033,
                -1.2400641120967264,
                2.164095679776895,
                -0.8816098441490747,
                0.5998001765864744,
                -3.1475795924610503
            ]
        },
        {
            "positions": [
                -0.14125532643068184,
                -1.2735887040695189,
                2.2282787773590176,
                -0.9153264758760525,
                0.7565380344234202,
                -3.1326079138774316
            ]
        },
        {
            "positions": [
                -0.20727202698451336,
                -1.3071132960423115,
                2.2924618749411407,
                -0.9490431076030305,
                0.9132758922603659,
                -3.1176362352938134
            ]
        },
        {
            "positions": [
                -0.2732887275383448,
                -1.3406378880151042,
                2.3566449725232634,
                -0.9827597393300083,
                1.0700137500973115,
                -3.1026645567101947
            ]
        },
        {
            "positions": [
                -0.33930542809217634,
                -1.3741624799878969,
                2.420828070105386,
                -1.0164763710569862,
                1.2267516079342573,
                -3.0876928781265764
            ]
        }
    ]
}