{
    "goal": {
        "global_pose": {
            "orientation": {
                "w": 0.7031023502349854,
                "x": -0.7110244035720825,
                "y": 0.007748599164187908,
                "z": 0.005598929710686207
            },
            "position": {
                "x": 0.11585023208521307,
                "y": 0.44412534475326537,
                "z": 0.3711530566215515
            }
        },
        "name": "move_to_auspresseinheit_A"
    },
    "id": "BiTRRT_move_to_auspresseinheit_A_83",
    "joint_names": [
        "shoulder_pan_joint",
        "shoulder_lift_joint",
        "elbow_joint",
        "wrist_1_joint",
        "wrist_2_joint",
        "wrist_3_joint"
    ],
    "metrics": {
        "cart_traj_len": 0.650174823584743,
        "distance_elbow_joint": 0.3143083365732089,
        "distance_shoulder_lift_joint": 0.6478806221449924,
        "distance_shoulder_pan_joint": 1.042444440919295,
        "distance_wrist_1_joint": 0.5563779180213517,
        "distance_wrist_2_joint": 0.8377876305629719,
        "distance_wrist_3_joint": 1.1208912862992277,
        "smoothness": 0.9020066319083221,
        "time": 0.051731358000000005,
        "traj_len": 2.1259563105861434,
        "weighted_distance": 2.8558078289170346
    },
    "planner": "BiTRRT",
    "start": {
        "state": {
            "elbow_joint": 2.422574709923281,
            "shoulder_lift_joint": -1.3736533754116391,
            "shoulder_pan_joint": -0.33786336945926293,
            "wrist_1_joint": -1.0288603412921917,
            "wrist_2_joint": 1.2330224858903978,
            "wrist_3_joint": -3.094022268022082
        }
    },
    "waypoints": [
        {
            "positions": [
                -0.33786336945926293,
                -1.3736533754116391,
                2.422574709923281,
                -1.0288603412921917,
                1.2330224858903978,
                -3.094022268022082
            ]
        },
        {
            "positions": [
                -0.29698846334804657,
                -1.4476440872793834,
                2.440498933741217,
                -0.9655529009371547,
                1.1477518352300007,
                -3.0260443915688713
            ]
        },
        {
            "positions": [
                -0.25611355723683027,
                -1.5216347991471277,
                2.4584231575591526,
                -0.9022454605821179,
                1.0624811845696036,
                -2.958066515115661
            ]
        },
        {
            "positions": [
                -0.2152386511256139,
                -1.5956255110148723,
                2.4763473813770887,
                -0.8389380202270809,
                0.9772105339092066,
                -2.8900886386624505
            ]
        },
        {
            "positions": [
                -0.17436374501439758,
                -1.6696162228826166,
                2.4942716051950242,
                -0.775630579872044,
                0.8919398832488096,
                -2.8221107622092396
            ]
        },
        {
            "positions": [
                -0.13348883890318125,
                -1.7436069347503609,
                2.5121958290129602,
                -0.712323139517007,
                0.8066692325884125,
                -2.7541328857560288
            ]
        },
        {
            "positions": [
                -0.09261393279196489,
                -1.8175976466181054,
                2.5301200528308962,
                -0.64901569916197,
                0.7213985819280155,
                -2.6861550093028184
            ]
        },
        {
            "positions": [
                -0.05173902668074859,
                -1.8915883584858497,
                2.548044276648832,
                -0.5857082588069331,
                0.6361279312676185,
                -2.618177132849608
            ]
        },
        {
            "positions": [
                -0.010864120569532239,
                -1.965579070353594,
                2.565968500466768,
                -0.5224008184518961,
                0.5508572806072214,
                -2.550199256396397
            ]
        },
        {
            "positions": [
                0.13222491783638066,
                -1.9543880849129864,
                2.5317855912608236,
                -0.5124171394156849,
                0.5819817656631805,
                -2.6656129113311056
            ]
        },
        {
            "positions": [
                0.27531395624229354,
                -1.943197099472379,
                2.497602682054879,
                -0.5024334603794737,
                0.6131062507191396,
                -2.781026566265814
            ]
        },
        {
            "positions": [
                0.41840299464820635,
                -1.9320061140317715,
                2.4634197728489347,
                -0.4924497813432625,
                0.6442307357750987,
                -2.896440221200523
            ]
        },
        {
            "positions": [
                0.5614920330541193,
                -1.920815128591164,
                2.42923686364299,
                -0.4824661023070513,
                0.6753552208310578,
                -3.0118538761352314
            ]
        },
        {
            "positions": [
                0.7045810714600321,
                -1.9096241431505565,
                2.3950539544370457,
                -0.47248242327084006,
                0.7064797058870169,
                -3.12726753106994
            ]
        }
    ]
}