{
    "goal": {
        "global_pose": {
            "orientation": {
                "w": 0.7047431468963623,
                "x": -0.7094548344612122,
                "y": 0.0024358443915843964,
                "z": -0.0022348060738295317
            },
            "position": {
                "x": 0.6094750761985779,
                "y": 0.3671506643295288,
                "z": 0.19426114857196808
            }
        },
        "name": "move_to_magneteinheit_A"
    },
    "id": "BiTRRT_move_to_magneteinheit_A_72",
    "joint_names": [
        "shoulder_pan_joint",
        "shoulder_lift_joint",
        "elbow_joint",
        "wrist_1_joint",
        "wrist_2_joint",
        "wrist_3_joint"
    ],
    "metrics": {
        "cart_traj_len": 1.8735604011362472,
        "distance_elbow_joint": 3.921040314386863,
        "distance_shoulder_lift_joint": 0.70527479873742,
        "distance_shoulder_pan_joint": 1.2410676675948658,
        "distance_wrist_1_joint": 1.5289667871662946,
        "distance_wrist_2_joint": 1.6936856168336816,
        "distance_wrist_3_joint": 1.1513759099556442,
        "smoothness": 4.934324583682563e-16,
        "time": 0.057384766000000004,
        "traj_len": 3.2002204759476762,
        "weighted_distance": 3.9707449324510926
    },
    "planner": "BiTRRT",
    "start": {
        "state": {
            "elbow_joint": -1.919643507792019,
            "shoulder_lift_joint": -0.07675430207160344,
            "shoulder_pan_joint": -1.1188671864651873,
            "wrist_1_joint": 0.42560062535961957,
            "wrist_2_joint": 1.5706038300724876,
            "wrist_3_joint": 1.1188968870953055
        }
    },
    "waypoints": [
        {
            "positions": [
                -1.1188671864651873,
                -0.07675430207160344,
                -1.919643507792019,
                0.42560062535961957,
                1.5706038300724876,
                1.1188968870953055
            ]
        },
        {
            "positions": [
                -1.0711338146346157,
                -0.10388025586919652,
                -1.7688342649309858,
                0.4844070402506309,
                1.5054620755788846,
                1.0746131982508578
            ]
        },
        {
            "positions": [
                -1.0234004428040437,
                -0.1310062096667896,
                -1.6180250220699528,
                0.5432134551416422,
                1.4403203210852813,
                1.0303295094064098
            ]
        },
        {
            "positions": [
                -0.975667070973472,
                -0.1581321634643827,
                -1.4672157792089195,
                0.6020198700326536,
                1.3751785665916783,
                0.986045820561962
            ]
        },
        {
            "positions": [
                -0.9279336991429004,
                -0.18525811726197577,
                -1.3164065363478863,
                0.6608262849236649,
                1.310036812098075,
                0.9417621317175141
            ]
        },
        {
            "positions": [
                -0.8802003273123286,
                -0.21238407105956886,
                -1.165597293486853,
                0.7196326998146763,
                1.244895057604472,
                0.8974784428730662
            ]
        },
        {
            "positions": [
                -0.8324669554817568,
                -0.23951002485716194,
                -1.0147880506258198,
                0.7784391147056876,
                1.1797533031108687,
                0.8531947540286184
            ]
        },
        {
            "positions": [
                -0.7847335836511851,
                -0.266635978654755,
                -0.8639788077647867,
                0.8372455295966988,
                1.1146115486172656,
                0.8089110651841707
            ]
        },
        {
            "positions": [
                -0.7370002118206133,
                -0.2937619324523481,
                -0.7131695649037535,
                0.8960519444877102,
                1.0494697941236626,
                0.7646273763397227
            ]
        },
        {
            "positions": [
                -0.6892668399900415,
                -0.3208878862499412,
                -0.5623603220427205,
                0.9548583593787214,
                0.9843280396300594,
                0.7203436874952749
            ]
        },
        {
            "positions": [
                -0.6415334681594698,
                -0.3480138400475343,
                -0.4115510791816872,
                1.013664774269733,
                0.9191862851364562,
                0.676059998650827
            ]
        },
        {
            "positions": [
                -0.593800096328898,
                -0.37513979384512736,
                -0.26074183632065395,
                1.0724711891607441,
                0.8540445306428531,
                0.6317763098063791
            ]
        },
        {
            "positions": [
                -0.5460667244983262,
                -0.40226574764272044,
                -0.1099325934596207,
                1.1312776040517556,
                0.7889027761492499,
                0.5874926209619312
            ]
        },
        {
            "positions": [
                -0.49833335266775447,
                -0.4293917014403135,
                0.040876649401412335,
                1.1900840189427668,
                0.7237610216556468,
                0.5432089321174834
            ]
        },
        {
            "positions": [
                -0.4505999808371828,
                -0.4565176552379066,
                0.1916858922624456,
                1.248890433833778,
                0.6586192671620438,
                0.49892524327303567
            ]
        },
        {
            "positions": [
                -0.402866609006611,
                -0.48364360903549963,
                0.3424951351234784,
                1.3076968487247895,
                0.5934775126684406,
                0.4546415544285878
            ]
        },
        {
            "positions": [
                -0.3551332371760392,
                -0.5107695628330928,
                0.4933043779845121,
                1.366503263615801,
                0.5283357581748374,
                0.4103578655841399
            ]
        },
        {
            "positions": [
                -0.30739986534546737,
                -0.5378955166306858,
                0.6441136208455449,
                1.4253096785068122,
                0.4631940036812343,
                0.366074176739692
            ]
        },
        {
            "positions": [
                -0.2596664935148957,
                -0.565021470428279,
                0.7949228637065782,
                1.4841160933978235,
                0.39805224918763127,
                0.3217904878952442
            ]
        },
        {
            "positions": [
                -0.211933121684324,
                -0.592147424225872,
                0.9457321065676114,
                1.542922508288835,
                0.332910494694028,
                0.27750679905079634
            ]
        },
        {
            "positions": [
                -0.16419974985375207,
                -0.6192733780234652,
                1.0965413494286447,
                1.6017289231798464,
                0.26776874020042474,
                0.23322311020634845
            ]
        },
        {
            "positions": [
                -0.11646637802318027,
                -0.6463993318210581,
                1.247350592289678,
                1.6605353380708576,
                0.2026269857068217,
                0.18893942136190056
            ]
        },
        {
            "positions": [
                -0.06873300619260858,
                -0.6735252856186513,
                1.3981598351507112,
                1.7193417529618689,
                0.13748523121321865,
                0.14465573251745278
            ]
        },
        {
            "positions": [
                -0.02099963436203689,
                -0.7006512394162443,
                1.548969078011744,
                1.77814816785288,
                0.07234347671961561,
                0.1003720436730049
            ]
        },
        {
            "positions": [
                0.026733737468535024,
                -0.7277771932138375,
                1.6997783208727777,
                1.8369545827438918,
                0.007201722226012119,
                0.0560883548285569
            ]
        },
        {
            "positions": [
                0.07446710929910672,
                -0.7549031470114305,
                1.8505875637338105,
                1.895760997634903,
                -0.057940032267590924,
                0.01180466598410912
            ]
        },
        {
            "positions": [
                0.12220048112967848,
                -0.7820291008090235,
                2.001396806594844,
                1.9545674125259143,
                -0.12308178676119397,
                -0.03247902286033874
            ]
        }
    ]
}