{
    "goal": {
        "global_pose": {
            "orientation": {
                "w": 0.7047431468963623,
                "x": -0.7094548344612122,
                "y": 0.0024358443915843964,
                "z": -0.0022348060738295317
            },
            "position": {
                "x": 0.6094750761985779,
                "y": 0.3671506643295288,
                "z": 0.19426114857196808
            }
        },
        "name": "move_to_magneteinheit_A"
    },
    "id": "BiTRRT_move_to_magneteinheit_A_112",
    "joint_names": [
        "shoulder_pan_joint",
        "shoulder_lift_joint",
        "elbow_joint",
        "wrist_1_joint",
        "wrist_2_joint",
        "wrist_3_joint"
    ],
    "metrics": {
        "cart_traj_len": 2.0747676542826192,
        "distance_elbow_joint": 3.873187067133479,
        "distance_shoulder_lift_joint": 1.0511888794617728,
        "distance_shoulder_pan_joint": 1.241810248762714,
        "distance_wrist_1_joint": 1.1435141071339547,
        "distance_wrist_2_joint": 1.4445871728365034,
        "distance_wrist_3_joint": 4.3736508568961705,
        "smoothness": 0.02229087227352646,
        "time": 0.152946352,
        "traj_len": 3.6232496922272133,
        "weighted_distance": 4.946042996779081
    },
    "planner": "BiTRRT",
    "start": {
        "state": {
            "elbow_joint": -1.919643507792019,
            "shoulder_lift_joint": -0.07675430207160344,
            "shoulder_pan_joint": -1.1188671864651873,
            "wrist_1_joint": 0.42560062535961957,
            "wrist_2_joint": 1.5706038300724876,
            "wrist_3_joint": 1.1188968870953055
        }
    },
    "waypoints": [
        {
            "positions": [
                -1.1188671864651873,
                -0.07675430207160344,
                -1.919643507792019,
                0.42560062535961957,
                1.5706038300724876,
                1.1188968870953055
            ]
        },
        {
            "positions": [
                -1.0814956631645782,
                -0.10765874922805205,
                -1.8045612977314147,
                0.39115900738647574,
                1.526832095968553,
                0.9896771811432348
            ]
        },
        {
            "positions": [
                -1.0441241398639691,
                -0.13856319638450065,
                -1.6894790876708103,
                0.35671738941333186,
                1.4830603618646185,
                0.860457475191164
            ]
        },
        {
            "positions": [
                -1.00675261656336,
                -0.1694676435409493,
                -1.574396877610206,
                0.32227577144018804,
                1.4392886277606838,
                0.7312377692390932
            ]
        },
        {
            "positions": [
                -0.9693810932627509,
                -0.2003720906973979,
                -1.4593146675496018,
                0.2878341534670442,
                1.3955168936567492,
                0.6020180632870225
            ]
        },
        {
            "positions": [
                -0.9320095699621418,
                -0.2312765378538465,
                -1.3442324574889974,
                0.2533925354939004,
                1.3517451595528147,
                0.4727983573349517
            ]
        },
        {
            "positions": [
                -0.8946380466615327,
                -0.2621809850102951,
                -1.229150247428393,
                0.21895091752075657,
                1.3079734254488802,
                0.3435786513828808
            ]
        },
        {
            "positions": [
                -0.8572665233609236,
                -0.29308543216674376,
                -1.114068037367789,
                0.18450929954761272,
                1.2642016913449456,
                0.21435894543081002
            ]
        },
        {
            "positions": [
                -0.8198950000603145,
                -0.32398987932319234,
                -0.9989858273071844,
                0.15006768157446887,
                1.2204299572410109,
                0.08513923947873936
            ]
        },
        {
            "positions": [
                -0.7825234767597053,
                -0.3548943264796409,
                -0.8839036172465802,
                0.1156260636013251,
                1.1766582231370764,
                -0.044080466473331414
            ]
        },
        {
            "positions": [
                -0.7451519534590962,
                -0.38579877363608955,
                -0.7688214071859758,
                0.08118444562818122,
                1.1328864890331418,
                -0.1733001724254022
            ]
        },
        {
            "positions": [
                -0.7077804301584871,
                -0.41670322079253813,
                -0.6537391971253717,
                0.0467428276550374,
                1.0891147549292073,
                -0.30251987837747296
            ]
        },
        {
            "positions": [
                -0.670408906857878,
                -0.44760766794898676,
                -0.5386569870647671,
                0.012301209681893577,
                1.0453430208252725,
                -0.43173958432954396
            ]
        },
        {
            "positions": [
                -0.6330373835572689,
                -0.4785121151054354,
                -0.4235747770041629,
                -0.022140408291250246,
                1.001571286721338,
                -0.5609592902816145
            ]
        },
        {
            "positions": [
                -0.5956658602566598,
                -0.509416562261884,
                -0.30849256694355853,
                -0.056582026264394125,
                0.9577995526174035,
                -0.6901789962336855
            ]
        },
        {
            "positions": [
                -0.5582943369560507,
                -0.5403210094183326,
                -0.19341035688295416,
                -0.09102364423753789,
                0.9140278185134689,
                -0.8193987021857561
            ]
        },
        {
            "positions": [
                -0.5209228136554416,
                -0.5712254565747812,
                -0.07832814682234979,
                -0.12546526221068183,
                0.8702560844095343,
                -0.9486184081378268
            ]
        },
        {
            "positions": [
                -0.48355129035483246,
                -0.6021299037312298,
                0.036754063238254364,
                -0.15990688018382554,
                0.8264843503055997,
                -1.0778381140898978
            ]
        },
        {
            "positions": [
                -0.44617976705422335,
                -0.6330343508876783,
                0.15183627329885874,
                -0.19434849815696936,
                0.7827126162016652,
                -1.2070578200419684
            ]
        },
        {
            "positions": [
                -0.40880824375361424,
                -0.6639387980441271,
                0.26691848335946333,
                -0.2287901161301133,
                0.7389408820977305,
                -1.3362775259940394
            ]
        },
        {
            "positions": [
                -0.37143672045300513,
                -0.6948432452005757,
                0.3820006934200675,
                -0.2632317341032571,
                0.6951691479937959,
                -1.46549723194611
            ]
        },
        {
            "positions": [
                -0.334065197152396,
                -0.7257476923570243,
                0.49708290348067163,
                -0.29767335207640094,
                0.6513974138898614,
                -1.594716937898181
            ]
        },
        {
            "positions": [
                -0.2966936738517869,
                -0.7566521395134729,
                0.6121651135412758,
                -0.33211497004954477,
                0.6076256797859269,
                -1.7239366438502515
            ]
        },
        {
            "positions": [
                -0.2593221505511777,
                -0.7875565866699215,
                0.7272473236018804,
                -0.3665565880226887,
                0.5638539456819922,
                -1.8531563498023225
            ]
        },
        {
            "positions": [
                -0.2219506272505687,
                -0.81846103382637,
                0.842329533662485,
                -0.4009982059958324,
                0.5200822115780577,
                -1.9823760557543935
            ]
        },
        {
            "positions": [
                -0.18457910394995958,
                -0.8493654809828188,
                0.9574117437230891,
                -0.43543982396897624,
                0.47631047747412314,
                -2.111595761706464
            ]
        },
        {
            "positions": [
                -0.14720758064935047,
                -0.8802699281392674,
                1.0724939537836933,
                -0.46988144194212006,
                0.4325387433701886,
                -2.2408154676585346
            ]
        },
        {
            "positions": [
                -0.10983605734874136,
                -0.911174375295716,
                1.1875761638442979,
                -0.5043230599152639,
                0.38876700926625385,
                -2.3700351736106056
            ]
        },
        {
            "positions": [
                -0.07246453404813225,
                -0.9420788224521646,
                1.302658373904902,
                -0.5387646778884079,
                0.3449952751623193,
                -2.4992548795626766
            ]
        },
        {
            "positions": [
                -0.035093010747523135,
                -0.9729832696086131,
                1.4177405839655062,
                -0.5732062958615516,
                0.3012235410583848,
                -2.628474585514747
            ]
        },
        {
            "positions": [
                0.0022785125530859762,
                -1.0038877167650617,
                1.5328227940261108,
                -0.6076479138346953,
                0.25745180695445025,
                -2.7576942914668177
            ]
        },
        {
            "positions": [
                0.03965003585369509,
                -1.0347921639215105,
                1.6479050040867154,
                -0.6420895318078392,
                0.2136800728505155,
                -2.886913997418889
            ]
        },
        {
            "positions": [
                0.0770215591543042,
                -1.065696611077959,
                1.7629872141473195,
                -0.6765311497809832,
                0.16990833874658096,
                -3.016133703370959
            ]
        },
        {
            "positions": [
                0.11439308245491336,
                -1.0966010582344077,
                1.8780694242079239,
                -0.7109727677541269,
                0.12613660464264648,
                -3.1453534093230306
            ]
        },
        {
            "positions": [
                0.12294306229752684,
                -1.1279431815333762,
                1.9535435593414598,
                -0.7040320537339188,
                0.12625655204930863,
                -3.2547539698008654
            ]
        }
    ]
}