{
    "goal": {
        "global_pose": {
            "orientation": {
                "w": 0.7031023502349854,
                "x": -0.7110244035720825,
                "y": 0.007748599164187908,
                "z": 0.005598929710686207
            },
            "position": {
                "x": 0.11585023208521307,
                "y": 0.44412534475326537,
                "z": 0.3711530566215515
            }
        },
        "name": "move_to_auspresseinheit_A"
    },
    "id": "BiTRRT_move_to_auspresseinheit_A_45",
    "joint_names": [
        "shoulder_pan_joint",
        "shoulder_lift_joint",
        "elbow_joint",
        "wrist_1_joint",
        "wrist_2_joint",
        "wrist_3_joint"
    ],
    "metrics": {
        "cart_traj_len": 3.651264756419176,
        "distance_elbow_joint": 2.709797299524471,
        "distance_shoulder_lift_joint": 1.943037918450843,
        "distance_shoulder_pan_joint": 5.050413581040387,
        "distance_wrist_1_joint": 6.413947660672942,
        "distance_wrist_2_joint": 2.2783097339703473,
        "distance_wrist_3_joint": 6.752707044477156,
        "smoothness": 0.4304865413617849,
        "time": 0.1488785,
        "traj_len": 5.014799421525866,
        "weighted_distance": 6.8808345948535745
    },
    "planner": "BiTRRT",
    "start": {
        "state": {
            "elbow_joint": 2.422574709923281,
            "shoulder_lift_joint": -1.3736533754116391,
            "shoulder_pan_joint": -0.33786336945926293,
            "wrist_1_joint": -1.0288603412921917,
            "wrist_2_joint": 1.2330224858903978,
            "wrist_3_joint": -3.094022268022082
        }
    },
    "waypoints": [
        {
            "positions": [
                -0.33786336945926293,
                -1.3736533754116391,
                2.422574709923281,
                -1.0288603412921917,
                1.2330224858903978,
                -3.094022268022082
            ]
        },
        {
            "positions": [
                -0.4250202896059512,
                -1.3982791290347358,
                2.363094587425477,
                -1.0276179846422615,
                1.1718680736318938,
                -2.94770492619999
            ]
        },
        {
            "positions": [
                -0.5121772097526394,
                -1.4229048826578328,
                2.3036144649276724,
                -1.0263756279923313,
                1.11071366137339,
                -2.801387584377898
            ]
        },
        {
            "positions": [
                -0.5993341298993276,
                -1.4475306362809295,
                2.2441343424298683,
                -1.025133271342401,
                1.0495592491148857,
                -2.655070242555806
            ]
        },
        {
            "positions": [
                -0.6864910500460158,
                -1.4721563899040262,
                2.1846542199320638,
                -1.0238909146924708,
                0.9884048368563818,
                -2.508752900733714
            ]
        },
        {
            "positions": [
                -0.7736479701927041,
                -1.4967821435271231,
                2.1251740974342597,
                -1.0226485580425406,
                0.9272504245978779,
                -2.362435558911622
            ]
        },
        {
            "positions": [
                -0.8608048903393923,
                -1.5214078971502198,
                2.065693974936455,
                -1.0214062013926104,
                0.8660960123393738,
                -2.21611821708953
            ]
        },
        {
            "positions": [
                -0.9479618104860805,
                -1.5460336507733166,
                2.006213852438651,
                -1.0201638447426802,
                0.8049416000808698,
                -2.069800875267438
            ]
        },
        {
            "positions": [
                -1.0351187306327687,
                -1.5706594043964133,
                1.9467337299408465,
                -1.01892148809275,
                0.7437871878223659,
                -1.923483533445346
            ]
        },
        {
            "positions": [
                -1.1222756507794571,
                -1.5952851580195102,
                1.8872536074430424,
                -1.0176791314428197,
                0.6826327755638618,
                -1.777166191623254
            ]
        },
        {
            "positions": [
                -1.2094325709261453,
                -1.619910911642607,
                1.8277734849452378,
                -1.0164367747928895,
                0.6214783633053579,
                -1.630848849801162
            ]
        },
        {
            "positions": [
                -1.2965894910728335,
                -1.6445366652657039,
                1.7682933624474337,
                -1.0151944181429593,
                0.5603239510468538,
                -1.4845315079790697
            ]
        },
        {
            "positions": [
                -1.3837464112195217,
                -1.6691624188888006,
                1.7088132399496292,
                -1.0139520614930289,
                0.4991695387883499,
                -1.338214166156978
            ]
        },
        {
            "positions": [
                -1.4709033313662099,
                -1.6937881725118973,
                1.649333117451825,
                -1.0127097048430986,
                0.438015126529846,
                -1.191896824334886
            ]
        },
        {
            "positions": [
                -1.5580602515128983,
                -1.718413926134994,
                1.5898529949540205,
                -1.0114673481931684,
                0.3768607142713418,
                -1.0455794825127938
            ]
        },
        {
            "positions": [
                -1.6452171716595865,
                -1.7430396797580907,
                1.5303728724562164,
                -1.0102249915432382,
                0.3157063020128379,
                -0.8992621406907015
            ]
        },
        {
            "positions": [
                -1.7323740918062747,
                -1.7676654333811876,
                1.4708927499584121,
                -1.008982634893308,
                0.25455188975433396,
                -0.7529447988686098
            ]
        },
        {
            "positions": [
                -1.8195310119529629,
                -1.7922911870042844,
                1.4114126274606078,
                -1.0077402782433778,
                0.19339747749583003,
                -0.606627457046518
            ]
        },
        {
            "positions": [
                -1.9066879320996513,
                -1.8169169406273813,
                1.3519325049628035,
                -1.0064979215934475,
                0.13224306523732587,
                -0.4603101152244258
            ]
        },
        {
            "positions": [
                -1.9938448522463394,
                -1.841542694250478,
                1.2924523824649992,
                -1.0052555649435173,
                0.07108865297882194,
                -0.31399277340233356
            ]
        },
        {
            "positions": [
                -2.0810017723930274,
                -1.8661684478735747,
                1.2329722599671948,
                -1.004013208293587,
                0.00993424072031801,
                -0.16767543158024178
            ]
        },
        {
            "positions": [
                -2.168158692539716,
                -1.8907942014966714,
                1.1734921374693905,
                -1.0027708516436569,
                -0.05122017153818592,
                -0.021358089758150012
            ]
        },
        {
            "positions": [
                -2.2553156126864042,
                -1.9154199551197684,
                1.1140120149715862,
                -1.0015284949937266,
                -0.11237458379669008,
                0.12495925206394265
            ]
        },
        {
            "positions": [
                -2.342472532833092,
                -1.940045708742865,
                1.0545318924737819,
                -1.0002861383437964,
                -0.173528996055194,
                0.2712765938860344
            ]
        },
        {
            "positions": [
                -2.2673429987913654,
                -1.9010015689329989,
                1.0986825771973436,
                -0.8085124008078592,
                -0.15875010256139843,
                0.25655561611039474
            ]
        },
        {
            "positions": [
                -2.1922134647496385,
                -1.8619574291231327,
                1.1428332619209052,
                -0.6167386632719221,
                -0.14397120906760286,
                0.24183463833475502
            ]
        },
        {
            "positions": [
                -2.1170839307079117,
                -1.8229132893132665,
                1.186983946644467,
                -0.42496492573598477,
                -0.12919231557380728,
                0.2271136605591153
            ]
        },
        {
            "positions": [
                -2.041954396666185,
                -1.7838691495034003,
                1.2311346313680287,
                -0.23319118820004758,
                -0.1144134220800117,
                0.21239268278347562
            ]
        },
        {
            "positions": [
                -1.9668248626244578,
                -1.744825009693534,
                1.2752853160915902,
                -0.04141745066411018,
                -0.09963452858621613,
                0.19767170500783587
            ]
        },
        {
            "positions": [
                -1.891695328582731,
                -1.7057808698836678,
                1.319436000815152,
                0.1503562868718269,
                -0.08485563509242056,
                0.1829507272321962
            ]
        },
        {
            "positions": [
                -1.8165657945410039,
                -1.6667367300738016,
                1.3635866855387138,
                0.3421300244077643,
                -0.07007674159862498,
                0.1682297494565565
            ]
        },
        {
            "positions": [
                -1.741436260499277,
                -1.6276925902639354,
                1.4077373702622753,
                0.5339037619437013,
                -0.055297848104829406,
                0.15350877168091678
            ]
        },
        {
            "positions": [
                -1.6663067264575502,
                -1.5886484504540692,
                1.451888054985837,
                0.7256774994796387,
                -0.04051895461103383,
                0.13878779390527707
            ]
        },
        {
            "positions": [
                -1.5911771924158233,
                -1.5496043106442028,
                1.4960387397093988,
                0.9174512370155761,
                -0.025740061117238255,
                0.12406681612963735
            ]
        },
        {
            "positions": [
                -1.5160476583740965,
                -1.5105601708343366,
                1.5401894244329606,
                1.1092249745515135,
                -0.01096116762344268,
                0.10934583835399764
            ]
        },
        {
            "positions": [
                -1.4409181243323697,
                -1.4715160310244704,
                1.5843401091565221,
                1.3009987120874502,
                0.003817725870352895,
                0.09462486057835795
            ]
        },
        {
            "positions": [
                -1.3657885902906426,
                -1.4324718912146044,
                1.6284907938800837,
                1.4927724496233874,
                0.01859661936414847,
                0.07990388280271823
            ]
        },
        {
            "positions": [
                -1.2906590562489157,
                -1.393427751404738,
                1.6726414786036456,
                1.684546187159325,
                0.033375512857944045,
                0.06518290502707855
            ]
        },
        {
            "positions": [
                -1.2155295222071887,
                -1.3543836115948718,
                1.7167921633272072,
                1.8763199246952622,
                0.04815440635173962,
                0.05046192725143883
            ]
        },
        {
            "positions": [
                -1.140399988165462,
                -1.3153394717850055,
                1.7609428480507687,
                2.068093662231199,
                0.0629332998455352,
                0.035740949475799144
            ]
        },
        {
            "positions": [
                -1.065270454123735,
                -1.2762953319751393,
                1.8050935327743305,
                2.2598673997671366,
                0.07771219333933077,
                0.0210199717001594
            ]
        },
        {
            "positions": [
                -0.9901409200820082,
                -1.2372511921652731,
                1.8492442174978923,
                2.4516411373030738,
                0.09249108683312635,
                0.0062989939245197135
            ]
        },
        {
            "positions": [
                -0.9224020078853891,
                -1.2642052349069541,
                1.8711259037799268,
                2.3343032900199665,
                0.11672061359858371,
                -0.1185982293797813
            ]
        },
        {
            "positions": [
                -0.85466309568877,
                -1.2911592776486351,
                1.8930075900619612,
                2.2169654427368592,
                0.14095014036404108,
                -0.24349545268408232
            ]
        },
        {
            "positions": [
                -0.7869241834921509,
                -1.3181133203903161,
                1.9148892763439957,
                2.099627595453752,
                0.16517966712949844,
                -0.3683926759883833
            ]
        },
        {
            "positions": [
                -0.7191852712955318,
                -1.3450673631319972,
                1.9367709626260303,
                1.9822897481706447,
                0.1894091938949558,
                -0.49328989929268435
            ]
        },
        {
            "positions": [
                -0.6514463590989127,
                -1.3720214058736782,
                1.9586526489080647,
                1.8649519008875375,
                0.21363872066041317,
                -0.6181871225969854
            ]
        },
        {
            "positions": [
                -0.5837074469022936,
                -1.3989754486153592,
                1.9805343351900992,
                1.7476140536044302,
                0.23786824742587054,
                -0.7430843459012864
            ]
        },
        {
            "positions": [
                -0.5159685347056745,
                -1.4259294913570402,
                2.0024160214721336,
                1.630276206321323,
                0.26209777419132796,
                -0.8679815692055874
            ]
        },
        {
            "positions": [
                -0.4482296225090554,
                -1.4528835340987212,
                2.0242977077541684,
                1.5129383590382157,
                0.28632730095678527,
                -0.9928787925098884
            ]
        },
        {
            "positions": [
                -0.3804907103124364,
                -1.4798375768404022,
                2.0461793940362027,
                1.3956005117551085,
                0.31055682772224263,
                -1.1177760158141894
            ]
        },
        {
            "positions": [
                -0.3127517981158172,
                -1.5067916195820832,
                2.068061080318237,
                1.2782626644720012,
                0.3347863544877,
                -1.2426732391184905
            ]
        },
        {
            "positions": [
                -0.24501288591919812,
                -1.5337456623237642,
                2.089942766600272,
                1.160924817188894,
                0.35901588125315737,
                -1.3675704624227916
            ]
        },
        {
            "positions": [
                -0.17727397372257914,
                -1.5606997050654452,
                2.1118244528823062,
                1.0435869699057867,
                0.38324540801861473,
                -1.4924676857270924
            ]
        },
        {
            "positions": [
                -0.10953506152595993,
                -1.5876537478071262,
                2.1337061391643406,
                0.9262491226226794,
                0.40747493478407215,
                -1.6173649090313935
            ]
        },
        {
            "positions": [
                -0.04179614932934084,
                -1.6146077905488072,
                2.155587825446375,
                0.808911275339572,
                0.4317044615495295,
                -1.7422621323356946
            ]
        },
        {
            "positions": [
                0.025942762867278146,
                -1.6415618332904882,
                2.1774695117284097,
                0.6915734280564649,
                0.4559339883149868,
                -1.8671593556399955
            ]
        },
        {
            "positions": [
                0.09368167506389735,
                -1.6685158760321692,
                2.199351198010444,
                0.5742355807733577,
                0.48016351508044425,
                -1.9920565789442966
            ]
        },
        {
            "positions": [
                0.16142058726051656,
                -1.6954699187738502,
                2.221232884292479,
                0.4568977334902502,
                0.5043930418459016,
                -2.116953802248598
            ]
        },
        {
            "positions": [
                0.22915949945713532,
                -1.7224239615155312,
                2.2431145705745132,
                0.33955988620714317,
                0.5286225686113589,
                -2.2418510255528985
            ]
        },
        {
            "positions": [
                0.2968984116537545,
                -1.7493780042572122,
                2.2649962568565476,
                0.22222203892403591,
                0.5528520953768163,
                -2.3667482488571996
            ]
        },
        {
            "positions": [
                0.36463732385037373,
                -1.7763320469988932,
                2.286877943138582,
                0.10488419164092866,
                0.5770816221422737,
                -2.4916454721615007
            ]
        },
        {
            "positions": [
                0.4323762360469927,
                -1.8032860897405742,
                2.3087596294206167,
                -0.012453655642178596,
                0.6013111489077311,
                -2.6165426954658013
            ]
        },
        {
            "positions": [
                0.5001151482436119,
                -1.8302401324822553,
                2.330641315702651,
                -0.12979150292528585,
                0.6255406756731884,
                -2.741439918770103
            ]
        },
        {
            "positions": [
                0.5678540604402309,
                -1.8571941752239363,
                2.352523001984686,
                -0.2471293502083931,
                0.6497702024386458,
                -2.866337142074404
            ]
        },
        {
            "positions": [
                0.6355929726368499,
                -1.8841482179656173,
                2.3744046882667202,
                -0.36446719749150036,
                0.6739997292041031,
                -2.9912343653787046
            ]
        },
        {
            "positions": [
                0.7033318848334691,
                -1.9111022607072983,
                2.3962863745487546,
                -0.4818050447746076,
                0.6982292559695605,
                -3.1161315886830057
            ]
        }
    ]
}