{
    "goal": {
        "global_pose": {
            "orientation": {
                "w": 0.7031023502349854,
                "x": -0.7110244035720825,
                "y": 0.007748599164187908,
                "z": 0.005598929710686207
            },
            "position": {
                "x": 0.11585023208521307,
                "y": 0.44412534475326537,
                "z": 0.3711530566215515
            }
        },
        "name": "move_to_auspresseinheit_A"
    },
    "id": "BiTRRT_move_to_auspresseinheit_A_40",
    "joint_names": [
        "shoulder_pan_joint",
        "shoulder_lift_joint",
        "elbow_joint",
        "wrist_1_joint",
        "wrist_2_joint",
        "wrist_3_joint"
    ],
    "metrics": {
        "cart_traj_len": 0.7715448915221507,
        "distance_elbow_joint": 0.06234542843414914,
        "distance_shoulder_lift_joint": 1.056167955389341,
        "distance_shoulder_pan_joint": 1.0444242922778633,
        "distance_wrist_1_joint": 1.625091269033701,
        "distance_wrist_2_joint": 0.9317011421008216,
        "distance_wrist_3_joint": 1.8417635079918564,
        "smoothness": 1.3040126832410346,
        "time": 0.08641269800000001,
        "traj_len": 2.5615412538602094,
        "weighted_distance": 3.5779621326036932
    },
    "planner": "BiTRRT",
    "start": {
        "state": {
            "elbow_joint": 2.422574709923281,
            "shoulder_lift_joint": -1.3736533754116391,
            "shoulder_pan_joint": -0.33786336945926293,
            "wrist_1_joint": -1.0288603412921917,
            "wrist_2_joint": 1.2330224858903978,
            "wrist_3_joint": -3.094022268022082
        }
    },
    "waypoints": [
        {
            "positions": [
                -0.33786336945926293,
                -1.3736533754116391,
                2.422574709923281,
                -1.0288603412921917,
                1.2330224858903978,
                -3.094022268022082
            ]
        },
        {
            "positions": [
                -0.2678272769290819,
                -1.4460130940657308,
                2.424012531140585,
                -0.9288888174508575,
                1.1670897663805635,
                -3.0123235107947295
            ]
        },
        {
            "positions": [
                -0.19779118439890092,
                -1.5183728127198226,
                2.4254503523578896,
                -0.8289172936095233,
                1.101157046870729,
                -2.9306247535673764
            ]
        },
        {
            "positions": [
                -0.12775509186871994,
                -1.5907325313739142,
                2.4268881735751937,
                -0.7289457697681889,
                1.0352243273608948,
                -2.8489259963400237
            ]
        },
        {
            "positions": [
                -0.05771899933853891,
                -1.6630922500280059,
                2.4283259947924978,
                -0.6289742459268547,
                0.9692916078510605,
                -2.7672272391126707
            ]
        },
        {
            "positions": [
                0.012317093191642037,
                -1.7354519686820975,
                2.429763816009802,
                -0.5290027220855205,
                0.9033588883412261,
                -2.685528481885318
            ]
        },
        {
            "positions": [
                0.08235318572182304,
                -1.8078116873361894,
                2.4312016372271064,
                -0.42903119824418623,
                0.8374261688313918,
                -2.603829724657965
            ]
        },
        {
            "positions": [
                0.15238927825200405,
                -1.880171405990281,
                2.4326394584444104,
                -0.3290596744028519,
                0.7714934493215575,
                -2.5221309674306123
            ]
        },
        {
            "positions": [
                0.2224253707821851,
                -1.9525311246443726,
                2.4340772796617145,
                -0.22908815056151766,
                0.7055607298117231,
                -2.440432210203259
            ]
        },
        {
            "positions": [
                0.29246146331236605,
                -2.0248908432984645,
                2.4355151008790186,
                -0.12911662672018331,
                0.6396280103018888,
                -2.3587334529759065
            ]
        },
        {
            "positions": [
                0.362497555842547,
                -2.097250561952556,
                2.436952922096323,
                -0.029145102878849194,
                0.5736952907920545,
                -2.2770346957485534
            ]
        },
        {
            "positions": [
                0.43253364837272806,
                -2.1696102806066477,
                2.438390743313627,
                0.07082642096248509,
                0.5077625712822201,
                -2.195335938521201
            ]
        },
        {
            "positions": [
                0.47820486078037344,
                -2.1262417722409257,
                2.43063584413966,
                -0.016740996834018945,
                0.5421694425309941,
                -2.3525154682696967
            ]
        },
        {
            "positions": [
                0.5238760731880189,
                -2.0828732638752037,
                2.422880944965693,
                -0.10430841463052298,
                0.5765763137797681,
                -2.5096949980181926
            ]
        },
        {
            "positions": [
                0.5695472855956643,
                -2.0395047555094816,
                2.415126045791726,
                -0.19187583242702705,
                0.6109831850285421,
                -2.666874527766688
            ]
        },
        {
            "positions": [
                0.6152184980033096,
                -1.9961362471437594,
                2.4073711466177583,
                -0.27944325022353106,
                0.645390056277316,
                -2.824054057515184
            ]
        },
        {
            "positions": [
                0.660889710410955,
                -1.9527677387780373,
                2.399616247443791,
                -0.3670106680200352,
                0.6797969275260901,
                -2.98123358726368
            ]
        },
        {
            "positions": [
                0.7065609228186004,
                -1.9093992304123153,
                2.391861348269824,
                -0.4545780858165392,
                0.7142037987748641,
                -3.138413117012176
            ]
        }
    ]
}