{
    "goal": {
        "global_pose": {
            "orientation": {
                "w": 0.5084816217422485,
                "x": -0.49083608388900757,
                "y": 0.5182115435600281,
                "z": -0.4816462993621826
            },
            "position": {
                "x": 0.5540239810943604,
                "y": 0.030875300988554955,
                "z": 0.16403168439865112
            }
        },
        "name": "move_to_storage_A"
    },
    "id": "BiTRRT_move_to_storage_A_100",
    "joint_names": [
        "shoulder_pan_joint",
        "shoulder_lift_joint",
        "elbow_joint",
        "wrist_1_joint",
        "wrist_2_joint",
        "wrist_3_joint"
    ],
    "metrics": {
        "cart_traj_len": 0.3523565264665488,
        "distance_elbow_joint": 0.4509712599926403,
        "distance_shoulder_lift_joint": 0.23462471246893135,
        "distance_shoulder_pan_joint": 0.4600214450691224,
        "distance_wrist_1_joint": 0.24792194001092038,
        "distance_wrist_2_joint": 1.1007320995622447,
        "distance_wrist_3_joint": 0.1035768546490714,
        "smoothness": 0.0,
        "time": 0.041723121,
        "traj_len": 1.6117842013597634,
        "weighted_distance": 2.0380520259856563
    },
    "planner": "BiTRRT",
    "start": {
        "state": {
            "elbow_joint": 1.9715463870305268,
            "shoulder_lift_joint": -1.1394903361783484,
            "shoulder_pan_joint": 0.12281147578464417,
            "wrist_1_joint": -0.7804599489681411,
            "wrist_2_joint": 0.12958660307563738,
            "wrist_3_joint": -3.1924946282119055
        }
    },
    "waypoints": [
        {
            "positions": [
                0.12281147578464417,
                -1.1394903361783484,
                1.9715463870305268,
                -0.7804599489681411,
                0.12958660307563738,
                -3.1924946282119055
            ]
        },
        {
            "positions": [
                0.057094126489055264,
                -1.1730081522453386,
                2.035970852743761,
                -0.8158773689697011,
                0.28683404587024375,
                -3.1776979346906096
            ]
        },
        {
            "positions": [
                -0.008623222806533645,
                -1.2065259683123288,
                2.1003953184569952,
                -0.8512947889712612,
                0.4440814886648501,
                -3.1629012411693136
            ]
        },
        {
            "positions": [
                -0.07434057210212257,
                -1.240043784379319,
                2.1648197841702297,
                -0.8867122089728212,
                0.6013289314594565,
                -3.1481045476480176
            ]
        },
        {
            "positions": [
                -0.14005792139771145,
                -1.273561600446309,
                2.229244249883464,
                -0.9221296289743813,
                0.7585763742540629,
                -3.133307854126722
            ]
        },
        {
            "positions": [
                -0.20577527069330037,
                -1.3070794165132993,
                2.2936687155966986,
                -0.9575470489759413,
                0.9158238170486693,
                -3.118511160605426
            ]
        },
        {
            "positions": [
                -0.2714926199888893,
                -1.3405972325802895,
                2.3580931813099326,
                -0.9929644689775015,
                1.0730712598432757,
                -3.10371446708413
            ]
        },
        {
            "positions": [
                -0.3372099692844782,
                -1.3741150486472797,
                2.422517647023167,
                -1.0283818889790615,
                1.2303187026378821,
                -3.088917773562834
            ]
        }
    ]
}