{
    "goal": {
        "global_pose": {
            "orientation": {
                "w": 0.7047431468963623,
                "x": -0.7094548344612122,
                "y": 0.0024358443915843964,
                "z": -0.0022348060738295317
            },
            "position": {
                "x": 0.6094750761985779,
                "y": 0.3671506643295288,
                "z": 0.19426114857196808
            }
        },
        "name": "move_to_magneteinheit_A"
    },
    "id": "BiTRRT_move_to_magneteinheit_A_34",
    "joint_names": [
        "shoulder_pan_joint",
        "shoulder_lift_joint",
        "elbow_joint",
        "wrist_1_joint",
        "wrist_2_joint",
        "wrist_3_joint"
    ],
    "metrics": {
        "cart_traj_len": 2.0626899902186797,
        "distance_elbow_joint": 3.873579963236975,
        "distance_shoulder_lift_joint": 1.0524881195485583,
        "distance_shoulder_pan_joint": 1.2407307516802748,
        "distance_wrist_1_joint": 1.1228474458065096,
        "distance_wrist_2_joint": 1.4474711036620778,
        "distance_wrist_3_joint": 1.8882845042183014,
        "smoothness": 5.075305259828549e-16,
        "time": 0.064492685,
        "traj_len": 3.2596628488469017,
        "weighted_distance": 4.1197438568505556
    },
    "planner": "BiTRRT",
    "start": {
        "state": {
            "elbow_joint": -1.919643507792019,
            "shoulder_lift_joint": -0.07675430207160344,
            "shoulder_pan_joint": -1.1188671864651873,
            "wrist_1_joint": 0.42560062535961957,
            "wrist_2_joint": 1.5706038300724876,
            "wrist_3_joint": 1.1188968870953055
        }
    },
    "waypoints": [
        {
            "positions": [
                -1.1188671864651873,
                -0.07675430207160344,
                -1.919643507792019,
                0.42560062535961957,
                1.5706038300724876,
                1.1188968870953055
            ]
        },
        {
            "positions": [
                -1.0729141956622141,
                -0.11573534353636486,
                -1.7761775832276867,
                0.38401368292234145,
                1.5169937891961143,
                1.1888333502145019
            ]
        },
        {
            "positions": [
                -1.0269612048592411,
                -0.15471638500112628,
                -1.6327116586633543,
                0.3424267404850633,
                1.4633837483197412,
                1.2587698133336982
            ]
        },
        {
            "positions": [
                -0.9810082140562679,
                -0.19369742646588767,
                -1.489245734099022,
                0.30083979804778516,
                1.4097737074433678,
                1.3287062764528945
            ]
        },
        {
            "positions": [
                -0.9350552232532948,
                -0.2326784679306491,
                -1.3457798095346893,
                0.25925285561050704,
                1.3561636665669945,
                1.3986427395720908
            ]
        },
        {
            "positions": [
                -0.8891022324503217,
                -0.2716595093954105,
                -1.2023138849703572,
                0.2176659131732289,
                1.3025536256906214,
                1.4685792026912874
            ]
        },
        {
            "positions": [
                -0.8431492416473485,
                -0.31064055086017195,
                -1.0588479604060246,
                0.17607897073595077,
                1.248943584814248,
                1.5385156658104835
            ]
        },
        {
            "positions": [
                -0.7971962508443754,
                -0.34962159232493334,
                -0.9153820358416922,
                0.13449202829867263,
                1.195333543937875,
                1.60845212892968
            ]
        },
        {
            "positions": [
                -0.7512432600414023,
                -0.3886026337896948,
                -0.7719161112773598,
                0.09290508586139451,
                1.1417235030615016,
                1.6783885920488761
            ]
        },
        {
            "positions": [
                -0.7052902692384291,
                -0.4275836752544562,
                -0.6284501867130274,
                0.05131814342411639,
                1.0881134621851283,
                1.7483250551680727
            ]
        },
        {
            "positions": [
                -0.659337278435456,
                -0.46656471671921756,
                -0.48498426214869506,
                0.009731200986838218,
                1.0345034213087552,
                1.818261518287269
            ]
        },
        {
            "positions": [
                -0.6133842876324829,
                -0.5055457581839791,
                -0.3415183375843627,
                -0.0318557414504399,
                0.9808933804323818,
                1.8881979814064653
            ]
        },
        {
            "positions": [
                -0.5674312968295097,
                -0.5445267996487404,
                -0.1980524130200303,
                -0.07344268388771802,
                0.9272833395560086,
                1.9581344445256617
            ]
        },
        {
            "positions": [
                -0.5214783060265366,
                -0.5835078411135017,
                -0.05458648845569791,
                -0.11502962632499619,
                0.8736732986796354,
                2.028070907644858
            ]
        },
        {
            "positions": [
                -0.47552531522356345,
                -0.6224888825782633,
                0.08887943610863469,
                -0.1566165687622743,
                0.8200632578032622,
                2.0980073707640545
            ]
        },
        {
            "positions": [
                -0.42957232442059023,
                -0.6614699240430246,
                0.2323453606729673,
                -0.19820351119955243,
                0.7664532169268888,
                2.1679438338832506
            ]
        },
        {
            "positions": [
                -0.38361933361761713,
                -0.7004509655077862,
                0.37581128523729945,
                -0.23979045363683055,
                0.7128431760505156,
                2.237880297002447
            ]
        },
        {
            "positions": [
                -0.3376663428146439,
                -0.7394320069725475,
                0.5192772098016321,
                -0.2813773960741088,
                0.6592331351741423,
                2.3078167601216437
            ]
        },
        {
            "positions": [
                -0.2917133520116708,
                -0.7784130484373089,
                0.6627431343659642,
                -0.3229643385113868,
                0.6056230942977692,
                2.37775322324084
            ]
        },
        {
            "positions": [
                -0.2457603612086976,
                -0.8173940899020704,
                0.8062090589302968,
                -0.364551280948665,
                0.5520130534213958,
                2.447689686360036
            ]
        },
        {
            "positions": [
                -0.1998073704057246,
                -0.8563751313668317,
                0.949674983494629,
                -0.40613822338594313,
                0.49840301254502273,
                2.5176261494792325
            ]
        },
        {
            "positions": [
                -0.1538543796027514,
                -0.8953561728315933,
                1.0931409080589616,
                -0.44772516582322125,
                0.4447929716686494,
                2.587562612598429
            ]
        },
        {
            "positions": [
                -0.1079013887997784,
                -0.9343372142963546,
                1.2366068326232937,
                -0.48931210826049937,
                0.39118293079227606,
                2.657499075717625
            ]
        },
        {
            "positions": [
                -0.06194839799680518,
                -0.973318255761116,
                1.3800727571876263,
                -0.5308990506977775,
                0.33757288991590273,
                2.7274355388368217
            ]
        },
        {
            "positions": [
                -0.015995407193831968,
                -1.0122992972258773,
                1.5235386817519585,
                -0.5724859931350557,
                0.2839628490395296,
                2.7973720019560178
            ]
        },
        {
            "positions": [
                0.029957583609141247,
                -1.0512803386906389,
                1.667004606316291,
                -0.6140729355723338,
                0.2303528081631563,
                2.8673084650752143
            ]
        },
        {
            "positions": [
                0.07591057441211424,
                -1.0902613801554002,
                1.8104705308806233,
                -0.6556598780096119,
                0.17674276728678318,
                2.9372449281944104
            ]
        },
        {
            "positions": [
                0.12186356521508748,
                -1.1292424216201618,
                1.9539364554449556,
                -0.69724682044689,
                0.12313272641040973,
                3.007181391313607
            ]
        }
    ]
}