{
    "goal": {
        "global_pose": {
            "orientation": {
                "w": 0.7031023502349854,
                "x": -0.7110244035720825,
                "y": 0.007748599164187908,
                "z": 0.005598929710686207
            },
            "position": {
                "x": 0.11585023208521307,
                "y": 0.44412534475326537,
                "z": 0.3711530566215515
            }
        },
        "name": "move_to_auspresseinheit_A"
    },
    "id": "BiTRRT_move_to_auspresseinheit_A_23",
    "joint_names": [
        "shoulder_pan_joint",
        "shoulder_lift_joint",
        "elbow_joint",
        "wrist_1_joint",
        "wrist_2_joint",
        "wrist_3_joint"
    ],
    "metrics": {
        "cart_traj_len": 0.6899991324893201,
        "distance_elbow_joint": 0.0869769425293665,
        "distance_shoulder_lift_joint": 0.530742974687872,
        "distance_shoulder_pan_joint": 1.0447485394799887,
        "distance_wrist_1_joint": 0.5731182212919701,
        "distance_wrist_2_joint": 0.5262882127129767,
        "distance_wrist_3_joint": 0.8396851151393738,
        "smoothness": 0.7169641105501303,
        "time": 0.053966718999999996,
        "traj_len": 1.8977776492101355,
        "weighted_distance": 2.525932831673329
    },
    "planner": "BiTRRT",
    "start": {
        "state": {
            "elbow_joint": 2.422574709923281,
            "shoulder_lift_joint": -1.3736533754116391,
            "shoulder_pan_joint": -0.33786336945926293,
            "wrist_1_joint": -1.0288603412921917,
            "wrist_2_joint": 1.2330224858903978,
            "wrist_3_joint": -3.094022268022082
        }
    },
    "waypoints": [
        {
            "positions": [
                -0.33786336945926293,
                -1.3736533754116391,
                2.422574709923281,
                -1.0288603412921917,
                1.2330224858903978,
                -3.094022268022082
            ]
        },
        {
            "positions": [
                -0.26140879448373033,
                -1.4264035448307748,
                2.410627309503723,
                -0.9486421594830644,
                1.178169654988069,
                -3.0143076371305653
            ]
        },
        {
            "positions": [
                -0.1849542195081977,
                -1.4791537142499107,
                2.398679909084165,
                -0.8684239776739371,
                1.1233168240857399,
                -2.934593006239048
            ]
        },
        {
            "positions": [
                -0.10849964453266511,
                -1.5319038836690464,
                2.3867325086646067,
                -0.7882057958648099,
                1.068463993183411,
                -2.854878375347531
            ]
        },
        {
            "positions": [
                -0.03204506955713249,
                -1.5846540530881823,
                2.3747851082450486,
                -0.7079876140556824,
                1.0136111622810822,
                -2.7751637444560138
            ]
        },
        {
            "positions": [
                0.044409505418400094,
                -1.637404222507318,
                2.3628377078254905,
                -0.6277694322465552,
                0.9587583313787532,
                -2.695449113564497
            ]
        },
        {
            "positions": [
                0.17690463833886527,
                -1.6908026480257565,
                2.3682856959118057,
                -0.5933639697972886,
                0.9083535197384868,
                -2.7836715057008545
            ]
        },
        {
            "positions": [
                0.30939977125933044,
                -1.7442010735441953,
                2.373733683998121,
                -0.5589585073480218,
                0.8579487080982203,
                -2.871893897837212
            ]
        },
        {
            "positions": [
                0.44189490417979554,
                -1.7975994990626338,
                2.379181672084436,
                -0.5245530448987551,
                0.807543896457954,
                -2.9601162899735702
            ]
        },
        {
            "positions": [
                0.5743900371002607,
                -1.8509979245810726,
                2.3846296601707513,
                -0.4901475824494884,
                0.7571390848176875,
                -3.048338682109928
            ]
        },
        {
            "positions": [
                0.7068851700207258,
                -1.9043963500995111,
                2.3900776482570665,
                -0.4557421200002217,
                0.7067342731774211,
                -3.1365610742462855
            ]
        }
    ]
}