{
    "goal": {
        "global_pose": {
            "orientation": {
                "w": 0.7031023502349854,
                "x": -0.7110244035720825,
                "y": 0.007748599164187908,
                "z": 0.005598929710686207
            },
            "position": {
                "x": 0.11585023208521307,
                "y": 0.44412534475326537,
                "z": 0.3711530566215515
            }
        },
        "name": "move_to_auspresseinheit_A"
    },
    "id": "BiTRRT_move_to_auspresseinheit_A_14",
    "joint_names": [
        "shoulder_pan_joint",
        "shoulder_lift_joint",
        "elbow_joint",
        "wrist_1_joint",
        "wrist_2_joint",
        "wrist_3_joint"
    ],
    "metrics": {
        "cart_traj_len": 5.196597916409734,
        "distance_elbow_joint": 6.488758237612172,
        "distance_shoulder_lift_joint": 0.5377800382354254,
        "distance_shoulder_pan_joint": 5.212324025295307,
        "distance_wrist_1_joint": 4.9785937438505075,
        "distance_wrist_2_joint": 3.570378223204984,
        "distance_wrist_3_joint": 6.474653736460533,
        "smoothness": 0.6056749528685859,
        "time": 0.132873301,
        "traj_len": 5.221349251358207,
        "weighted_distance": 6.982891052038223
    },
    "planner": "BiTRRT",
    "start": {
        "state": {
            "elbow_joint": 2.422574709923281,
            "shoulder_lift_joint": -1.3736533754116391,
            "shoulder_pan_joint": -0.33786336945926293,
            "wrist_1_joint": -1.0288603412921917,
            "wrist_2_joint": 1.2330224858903978,
            "wrist_3_joint": -3.094022268022082
        }
    },
    "waypoints": [
        {
            "positions": [
                -0.33786336945926293,
                -1.3736533754116391,
                2.422574709923281,
                -1.0288603412921917,
                1.2330224858903978,
                -3.094022268022082
            ]
        },
        {
            "positions": [
                -0.3991337166287703,
                -1.3878610470049069,
                2.326734397724747,
                -1.092174284047046,
                1.1731648208349543,
                -2.9994009236662644
            ]
        },
        {
            "positions": [
                -0.46040406379827764,
                -1.4020687185981746,
                2.2308940855262134,
                -1.1554882268019007,
                1.113307155779511,
                -2.9047795793104463
            ]
        },
        {
            "positions": [
                -0.521674410967785,
                -1.4162763901914426,
                2.1350537733276793,
                -1.218802169556755,
                1.0534494907240677,
                -2.8101582349546286
            ]
        },
        {
            "positions": [
                -0.5829447581372923,
                -1.4304840617847103,
                2.0392134611291457,
                -1.2821161123116096,
                0.9935918256686243,
                -2.715536890598811
            ]
        },
        {
            "positions": [
                -0.6442151053067997,
                -1.444691733377978,
                1.9433731489306116,
                -1.345430055066464,
                0.9337341606131808,
                -2.6209155462429927
            ]
        },
        {
            "positions": [
                -0.705485452476307,
                -1.4588994049712458,
                1.8475328367320776,
                -1.4087439978213183,
                0.8738764955577374,
                -2.526294201887175
            ]
        },
        {
            "positions": [
                -0.7667557996458143,
                -1.4731070765645136,
                1.751692524533544,
                -1.472057940576173,
                0.814018830502294,
                -2.431672857531357
            ]
        },
        {
            "positions": [
                -0.8280261468153217,
                -1.4873147481577813,
                1.65585221233501,
                -1.5353718833310273,
                0.7541611654468506,
                -2.337051513175539
            ]
        },
        {
            "positions": [
                -0.8892964939848291,
                -1.5015224197510493,
                1.560011900136476,
                -1.5986858260858816,
                0.6943035003914072,
                -2.2424301688197215
            ]
        },
        {
            "positions": [
                -0.9505668411543364,
                -1.515730091344317,
                1.4641715879379422,
                -1.6619997688407362,
                0.6344458353359638,
                -2.1478088244639038
            ]
        },
        {
            "positions": [
                -1.0118371883238437,
                -1.5299377629375848,
                1.3683312757394082,
                -1.7253137115955905,
                0.5745881702805204,
                -2.0531874801080856
            ]
        },
        {
            "positions": [
                -1.0731075354933513,
                -1.5441454345308525,
                1.2724909635408743,
                -1.788627654350445,
                0.514730505225077,
                -1.9585661357522677
            ]
        },
        {
            "positions": [
                -1.1343778826628585,
                -1.5583531061241203,
                1.1766506513423405,
                -1.8519415971052995,
                0.4548728401696337,
                -1.86394479139645
            ]
        },
        {
            "positions": [
                -1.1956482298323658,
                -1.572560777717388,
                1.0808103391438066,
                -1.9152555398601538,
                0.39501517511419026,
                -1.769323447040632
            ]
        },
        {
            "positions": [
                -1.2569185770018731,
                -1.586768449310656,
                0.9849700269452728,
                -1.9785694826150082,
                0.33515751005874694,
                -1.6747021026848143
            ]
        },
        {
            "positions": [
                -1.3181889241713804,
                -1.6009761209039237,
                0.8891297147467387,
                -2.041883425369863,
                0.2752998450033035,
                -1.5800807583289964
            ]
        },
        {
            "positions": [
                -1.379459271340888,
                -1.6151837924971915,
                0.7932894025482049,
                -2.105197368124717,
                0.21544217994786008,
                -1.4854594139731785
            ]
        },
        {
            "positions": [
                -1.4407296185103953,
                -1.6293914640904592,
                0.6974490903496711,
                -2.1685113108795715,
                0.15558451489241665,
                -1.3908380696173606
            ]
        },
        {
            "positions": [
                -1.5019999656799028,
                -1.643599135683727,
                0.601608778151137,
                -2.231825253634426,
                0.09572684983697322,
                -1.2962167252615426
            ]
        },
        {
            "positions": [
                -1.56327031284941,
                -1.657806807276995,
                0.5057684659526032,
                -2.2951391963892807,
                0.035869184781529784,
                -1.201595380905725
            ]
        },
        {
            "positions": [
                -1.6245406600189174,
                -1.6720144788702627,
                0.4099281537540693,
                -2.3584531391441352,
                -0.023988480273913648,
                -1.106974036549907
            ]
        },
        {
            "positions": [
                -1.6858110071884247,
                -1.6862221504635304,
                0.31408784155553526,
                -2.4217670818989894,
                -0.08384614532935686,
                -1.012352692194089
            ]
        },
        {
            "positions": [
                -1.7470813543579322,
                -1.7004298220567982,
                0.21824752935700165,
                -2.4850810246538435,
                -0.1437038103848003,
                -0.9177313478382714
            ]
        },
        {
            "positions": [
                -1.8083517015274395,
                -1.714637493650066,
                0.12240721715846758,
                -2.548394967408698,
                -0.20356147544024372,
                -0.8231100034824532
            ]
        },
        {
            "positions": [
                -1.8696220486969468,
                -1.7288451652433339,
                0.026566904959933524,
                -2.6117089101635527,
                -0.26341914049568715,
                -0.7284886591266355
            ]
        },
        {
            "positions": [
                -1.9308923958664541,
                -1.7430528368366014,
                -0.0692734072386001,
                -2.6750228529184072,
                -0.32327680555113036,
                -0.6338673147708178
            ]
        },
        {
            "positions": [
                -1.9921627430359614,
                -1.7572605084298694,
                -0.1651137194371337,
                -2.7383367956732614,
                -0.3831344706065738,
                -0.5392459704150001
            ]
        },
        {
            "positions": [
                -2.0534330902054685,
                -1.771468180023137,
                -0.26095403163566777,
                -2.801650738428116,
                -0.44299213566201723,
                -0.44462462605918196
            ]
        },
        {
            "positions": [
                -2.1147034373749762,
                -1.7856758516164049,
                -0.35679434383420183,
                -2.86496468118297,
                -0.5028498007174607,
                -0.35000328170336426
            ]
        },
        {
            "positions": [
                -2.1759737845444835,
                -1.7998835232096726,
                -0.45263465603273545,
                -2.9282786239378247,
                -0.5627074657729039,
                -0.25538193734754655
            ]
        },
        {
            "positions": [
                -2.237244131713991,
                -1.8140911948029403,
                -0.5484749682312695,
                -2.9915925666926793,
                -0.6225651308283473,
                -0.1607605929917284
            ]
        },
        {
            "positions": [
                -2.298514478883498,
                -1.8282988663962083,
                -0.6443152804298036,
                -3.054906509447534,
                -0.6824227958837907,
                -0.0661392486359107
            ]
        },
        {
            "positions": [
                -2.3597848260530054,
                -1.842506537989476,
                -0.7401555926283372,
                -3.118220452202388,
                -0.7422804609392342,
                0.028482095719907452
            ]
        },
        {
            "positions": [
                -2.4210551732225127,
                -1.8567142095827438,
                -0.8359959048268713,
                -3.1815343949572426,
                -0.8021381259946776,
                0.12310344007572516
            ]
        },
        {
            "positions": [
                -2.334208717926413,
                -1.8573446482837004,
                -0.7443399762623306,
                -3.1024003782678857,
                -0.7585214088247058,
                0.03012911922302057
            ]
        },
        {
            "positions": [
                -2.247362262630313,
                -1.857975086984657,
                -0.6526840476977899,
                -3.0232663615785285,
                -0.714904691654734,
                -0.06284520162968402
            ]
        },
        {
            "positions": [
                -2.160515807334213,
                -1.8586055256856135,
                -0.5610281191332491,
                -2.9441323448891716,
                -0.6712879744847622,
                -0.15581952248238862
            ]
        },
        {
            "positions": [
                -2.0736693520381135,
                -1.8592359643865701,
                -0.46937219056870855,
                -2.864998328199815,
                -0.6276712573147905,
                -0.2487938433350932
            ]
        },
        {
            "positions": [
                -1.9868228967420136,
                -1.8598664030875267,
                -0.37771626200416786,
                -2.785864311510458,
                -0.5840545401448186,
                -0.34176816418779776
            ]
        },
        {
            "positions": [
                -1.8999764414459137,
                -1.8604968417884833,
                -0.2860603334396271,
                -2.706730294821101,
                -0.5404378229748468,
                -0.4347424850405024
            ]
        },
        {
            "positions": [
                -1.8131299861498138,
                -1.8611272804894399,
                -0.19440440487508637,
                -2.627596278131744,
                -0.496821105804875,
                -0.527716805893207
            ]
        },
        {
            "positions": [
                -1.7262835308537139,
                -1.8617577191903965,
                -0.10274847631054584,
                -2.548462261442387,
                -0.4532043886349032,
                -0.6206911267459115
            ]
        },
        {
            "positions": [
                -1.6394370755576142,
                -1.862388157891353,
                -0.01109254774600521,
                -2.4693282447530303,
                -0.4095876714649314,
                -0.713665447598616
            ]
        },
        {
            "positions": [
                -1.5525906202615143,
                -1.8630185965923096,
                0.08056338081853553,
                -2.390194228063673,
                -0.3659709542949596,
                -0.8066397684513207
            ]
        },
        {
            "positions": [
                -1.4657441649654144,
                -1.8636490352932662,
                0.17221930938307617,
                -2.311060211374316,
                -0.3223542371249878,
                -0.8996140893040252
            ]
        },
        {
            "positions": [
                -1.3788977096693145,
                -1.8642794739942228,
                0.263875237947617,
                -2.2319261946849593,
                -0.27873751995501594,
                -0.9925884101567299
            ]
        },
        {
            "positions": [
                -1.2920512543732148,
                -1.8649099126951794,
                0.35553116651215766,
                -2.152792177995602,
                -0.23512080278504421,
                -1.0855627310094345
            ]
        },
        {
            "positions": [
                -1.2052047990771149,
                -1.865540351396136,
                0.4471870950766985,
                -2.0736581613062457,
                -0.19150408561507237,
                -1.1785370518621392
            ]
        },
        {
            "positions": [
                -1.1183583437810152,
                -1.8661707900970925,
                0.5388430236412389,
                -1.9945241446168887,
                -0.14788736844510064,
                -1.2715113727148435
            ]
        },
        {
            "positions": [
                -1.0315118884849153,
                -1.866801228798049,
                0.6304989522057796,
                -1.9153901279275316,
                -0.1042706512751288,
                -1.3644856935675482
            ]
        },
        {
            "positions": [
                -0.9446654331888154,
                -1.8674316674990057,
                0.7221548807703204,
                -1.8362561112381746,
                -0.06065393410515696,
                -1.4574600144202527
            ]
        },
        {
            "positions": [
                -0.8578189778927157,
                -1.868062106199962,
                0.8138108093348608,
                -1.7571220945488177,
                -0.01703721693518523,
                -1.5504343352729573
            ]
        },
        {
            "positions": [
                -0.7709725225966158,
                -1.8686925449009186,
                0.9054667378994017,
                -1.677988077859461,
                0.0265795002347865,
                -1.6434086561256618
            ]
        },
        {
            "positions": [
                -0.6841260673005158,
                -1.8693229836018752,
                0.9971226664639423,
                -1.5988540611701039,
                0.07019621740475834,
                -1.7363829769783665
            ]
        },
        {
            "positions": [
                -0.5972796120044159,
                -1.8699534223028318,
                1.088778595028483,
                -1.5197200444807468,
                0.11381293457473018,
                -1.829357297831071
            ]
        },
        {
            "positions": [
                -0.510433156708316,
                -1.8705838610037884,
                1.1804345235930236,
                -1.44058602779139,
                0.15742965174470203,
                -1.9223316186837756
            ]
        },
        {
            "positions": [
                -0.4235867014122163,
                -1.871214299704745,
                1.2720904521575647,
                -1.361452011102033,
                0.20104636891467376,
                -2.0153059395364803
            ]
        },
        {
            "positions": [
                -0.3367402461161162,
                -1.8718447384057015,
                1.3637463807221053,
                -1.2823179944126761,
                0.2446630860846457,
                -2.108280260389185
            ]
        },
        {
            "positions": [
                -0.24989379082001628,
                -1.8724751771066581,
                1.455402309286646,
                -1.203183977723319,
                0.28827980325461744,
                -2.2012545812418898
            ]
        },
        {
            "positions": [
                -0.16304733552391681,
                -1.8731056158076147,
                1.5470582378511866,
                -1.124049961033962,
                0.33189652042458917,
                -2.294228902094594
            ]
        },
        {
            "positions": [
                -0.0762008802278169,
                -1.8737360545085713,
                1.6387141664157272,
                -1.0449159443446052,
                0.3755132375945611,
                -2.387203222947299
            ]
        },
        {
            "positions": [
                0.010645575068283009,
                -1.8743664932095279,
                1.7303700949802683,
                -0.9657819276552484,
                0.41912995476453285,
                -2.4801775438000035
            ]
        },
        {
            "positions": [
                0.09749203036438292,
                -1.8749969319104844,
                1.822026023544809,
                -0.8866479109658911,
                0.4627466719345046,
                -2.573151864652708
            ]
        },
        {
            "positions": [
                0.1843384856604824,
                -1.875627370611441,
                1.913681952109349,
                -0.8075138942765347,
                0.5063633891044763,
                -2.666126185505412
            ]
        },
        {
            "positions": [
                0.2711849409565823,
                -1.8762578093123976,
                2.0053378806738897,
                -0.7283798775871775,
                0.549980106274448,
                -2.759100506358117
            ]
        },
        {
            "positions": [
                0.3580313962526822,
                -1.8768882480133542,
                2.0969938092384304,
                -0.6492458608978207,
                0.59359682344442,
                -2.8520748272108216
            ]
        },
        {
            "positions": [
                0.4448778515487821,
                -1.8775186867143108,
                2.1886497378029715,
                -0.5701118442084638,
                0.6372135406143917,
                -2.9450491480635264
            ]
        },
        {
            "positions": [
                0.531724306844882,
                -1.8781491254152674,
                2.280305666367512,
                -0.49097782751910657,
                0.6808302577843637,
                -3.0380234689162307
            ]
        },
        {
            "positions": [
                0.6185707621409819,
                -1.878779564116224,
                2.3719615949320527,
                -0.4118438108297496,
                0.7244469749543353,
                -3.1309977897689354
            ]
        },
        {
            "positions": [
                0.7080770483095425,
                -1.9114334136470645,
                2.394191718035151,
                -0.46807291688771085,
                0.7158144645834411,
                -3.1275709912508636
            ]
        }
    ]
}