{
    "goal": {
        "global_pose": {
            "orientation": {
                "w": 0.5084816217422485,
                "x": -0.49083608388900757,
                "y": 0.5182115435600281,
                "z": -0.4816462993621826
            },
            "position": {
                "x": 0.5540239810943604,
                "y": 0.030875300988554955,
                "z": 0.16403168439865112
            }
        },
        "name": "move_to_storage_A"
    },
    "id": "BiTRRT_move_to_storage_A_112",
    "joint_names": [
        "shoulder_pan_joint",
        "shoulder_lift_joint",
        "elbow_joint",
        "wrist_1_joint",
        "wrist_2_joint",
        "wrist_3_joint"
    ],
    "metrics": {
        "cart_traj_len": 0.35301456467501685,
        "distance_elbow_joint": 0.448025566217948,
        "distance_shoulder_lift_joint": 0.2338095640979403,
        "distance_shoulder_pan_joint": 0.4629742594153418,
        "distance_wrist_1_joint": 0.2382706460987244,
        "distance_wrist_2_joint": 1.0920521493338726,
        "distance_wrist_3_joint": 0.08953681341591269,
        "smoothness": 1.1102230263833737e-15,
        "time": 0.041905361,
        "traj_len": 1.6014583973927452,
        "weighted_distance": 2.0184314258463583
    },
    "planner": "BiTRRT",
    "start": {
        "state": {
            "elbow_joint": 1.9715463870305268,
            "shoulder_lift_joint": -1.1394903361783484,
            "shoulder_pan_joint": 0.12281147578464417,
            "wrist_1_joint": -0.7804599489681411,
            "wrist_2_joint": 0.12958660307563738,
            "wrist_3_joint": -3.1924946282119055
        }
    },
    "waypoints": [
        {
            "positions": [
                0.12281147578464417,
                -1.1394903361783484,
                1.9715463870305268,
                -0.7804599489681411,
                0.12958660307563738,
                -3.1924946282119055
            ]
        },
        {
            "positions": [
                0.05667229586816677,
                -1.172891702478054,
                2.0355500393473767,
                -0.8144986126965302,
                0.28559405298047635,
                -3.179703654866775
            ]
        },
        {
            "positions": [
                -0.009466884048310628,
                -1.20629306877776,
                2.099553691664226,
                -0.8485372764249195,
                0.4416015028853153,
                -3.166912681521645
            ]
        },
        {
            "positions": [
                -0.07560606396478801,
                -1.2396944350774657,
                2.163557343981076,
                -0.8825759401533086,
                0.5976089527901542,
                -3.1541217081765143
            ]
        },
        {
            "positions": [
                -0.14174524388126541,
                -1.2730958013771714,
                2.2275609962979255,
                -0.9166146038816979,
                0.7536164026949932,
                -3.141330734831384
            ]
        },
        {
            "positions": [
                -0.20788442379774286,
                -1.306497167676877,
                2.2915646486147754,
                -0.9506532676100871,
                0.9096238525998321,
                -3.1285397614862536
            ]
        },
        {
            "positions": [
                -0.2740236037142202,
                -1.339898533976583,
                2.355568300931625,
                -0.9846919313384763,
                1.065631302504671,
                -3.1157487881411234
            ]
        },
        {
            "positions": [
                -0.34016278363069763,
                -1.3732999002762887,
                2.4195719532484747,
                -1.0187305950668655,
                1.22163875240951,
                -3.102957814795993
            ]
        }
    ]
}