{
    "goal": {
        "global_pose": {
            "orientation": {
                "w": 0.5084816217422485,
                "x": -0.49083608388900757,
                "y": 0.5182115435600281,
                "z": -0.4816462993621826
            },
            "position": {
                "x": 0.5540239810943604,
                "y": 0.030875300988554955,
                "z": 0.16403168439865112
            }
        },
        "name": "move_to_storage_A"
    },
    "id": "BiTRRT_move_to_storage_A_3",
    "joint_names": [
        "shoulder_pan_joint",
        "shoulder_lift_joint",
        "elbow_joint",
        "wrist_1_joint",
        "wrist_2_joint",
        "wrist_3_joint"
    ],
    "metrics": {
        "cart_traj_len": 0.35278035926323353,
        "distance_elbow_joint": 0.4541780855354842,
        "distance_shoulder_lift_joint": 0.23294689830831117,
        "distance_shoulder_pan_joint": 0.4620172331088362,
        "distance_wrist_1_joint": 0.26214050545823164,
        "distance_wrist_2_joint": 1.0949750608517557,
        "distance_wrist_3_joint": 0.1085025214131159,
        "smoothness": 8.881784232165597e-16,
        "time": 0.040228929999999996,
        "traj_len": 1.6170220482961062,
        "weighted_distance": 2.0466755761018782
    },
    "planner": "BiTRRT",
    "start": {
        "state": {
            "elbow_joint": 1.9715463870305268,
            "shoulder_lift_joint": -1.1394903361783484,
            "shoulder_pan_joint": 0.12281147578464417,
            "wrist_1_joint": -0.7804599489681411,
            "wrist_2_joint": 0.12958660307563738,
            "wrist_3_joint": -3.1924946282119055
        }
    },
    "waypoints": [
        {
            "positions": [
                0.12281147578464417,
                -1.1394903361783484,
                1.9715463870305268,
                -0.7804599489681411,
                0.12958660307563738,
                -3.1924946282119055
            ]
        },
        {
            "positions": [
                0.056809013911953296,
                -1.1727684645081071,
                2.036428970678453,
                -0.8179085926050313,
                0.28601161176874534,
                -3.176994268010032
            ]
        },
        {
            "positions": [
                -0.00919344796073758,
                -1.2060465928378659,
                2.1013115543263794,
                -0.8553572362419215,
                0.4424366204618533,
                -3.161493907808158
            ]
        },
        {
            "positions": [
                -0.07519590983342846,
                -1.2393247211676246,
                2.1661941379743057,
                -0.8928058798788118,
                0.5988616291549612,
                -3.1459935476062846
            ]
        },
        {
            "positions": [
                -0.14119837170611932,
                -1.2726028494973833,
                2.231076721622232,
                -0.930254523515702,
                0.7552866378480692,
                -3.1304931874044106
            ]
        },
        {
            "positions": [
                -0.20720083357881025,
                -1.305880977827142,
                2.2959593052701583,
                -0.9677031671525922,
                0.9117116465411772,
                -3.114992827202537
            ]
        },
        {
            "positions": [
                -0.27320329545150107,
                -1.3391591061569008,
                2.3608418889180847,
                -1.0051518107894826,
                1.068136655234285,
                -3.099492467000663
            ]
        },
        {
            "positions": [
                -0.339205757324192,
                -1.3724372344866596,
                2.425724472566011,
                -1.0426004544263727,
                1.224561663927393,
                -3.0839921067987897
            ]
        }
    ]
}