{
    "goal": {
        "global_pose": {
            "orientation": {
                "w": 0.7047431468963623,
                "x": -0.7094548344612122,
                "y": 0.0024358443915843964,
                "z": -0.0022348060738295317
            },
            "position": {
                "x": 0.6094750761985779,
                "y": 0.3671506643295288,
                "z": 0.19426114857196808
            }
        },
        "name": "move_to_magneteinheit_A"
    },
    "id": "BiTRRT_move_to_magneteinheit_A_16",
    "joint_names": [
        "shoulder_pan_joint",
        "shoulder_lift_joint",
        "elbow_joint",
        "wrist_1_joint",
        "wrist_2_joint",
        "wrist_3_joint"
    ],
    "metrics": {
        "cart_traj_len": 2.069947058600914,
        "distance_elbow_joint": 3.9017250014216467,
        "distance_shoulder_lift_joint": 1.0693129166386948,
        "distance_shoulder_pan_joint": 1.2424658599635163,
        "distance_wrist_1_joint": 1.2561589278183671,
        "distance_wrist_2_joint": 1.4393046821795148,
        "distance_wrist_3_joint": 2.027507065525599,
        "smoothness": 3.0626842128365373e-16,
        "time": 0.094410527,
        "traj_len": 3.3070340871462665,
        "weighted_distance": 4.2055858325085245
    },
    "planner": "BiTRRT",
    "start": {
        "state": {
            "elbow_joint": -1.919643507792019,
            "shoulder_lift_joint": -0.07675430207160344,
            "shoulder_pan_joint": -1.1188671864651873,
            "wrist_1_joint": 0.42560062535961957,
            "wrist_2_joint": 1.5706038300724876,
            "wrist_3_joint": 1.1188968870953055
        }
    },
    "waypoints": [
        {
            "positions": [
                -1.1188671864651873,
                -0.07675430207160344,
                -1.919643507792019,
                0.42560062535961957,
                1.5706038300724876,
                1.1188968870953055
            ]
        },
        {
            "positions": [
                -1.0744934057522046,
                -0.11494404909441397,
                -1.7802961863126745,
                0.3807378065089636,
                1.5192000914232193,
                1.1913078537212198
            ]
        },
        {
            "positions": [
                -1.030119625039222,
                -0.1531337961172245,
                -1.6409488648333301,
                0.33587498765830764,
                1.4677963527739508,
                1.2637188203471341
            ]
        },
        {
            "positions": [
                -0.9857458443262392,
                -0.19132354314003502,
                -1.5016015433539855,
                0.2910121688076517,
                1.4163926141246825,
                1.3361297869730482
            ]
        },
        {
            "positions": [
                -0.9413720636132564,
                -0.22951329016284555,
                -1.362254221874641,
                0.24614934995699572,
                1.364988875475414,
                1.4085407535989625
            ]
        },
        {
            "positions": [
                -0.8969982829002737,
                -0.2677030371856561,
                -1.2229069003952966,
                0.20128653110633976,
                1.3135851368261457,
                1.4809517202248768
            ]
        },
        {
            "positions": [
                -0.852624502187291,
                -0.3058927842084666,
                -1.083559578915952,
                0.1564237122556838,
                1.2621813981768772,
                1.553362686850791
            ]
        },
        {
            "positions": [
                -0.8082507214743082,
                -0.34408253123127713,
                -0.9442122574366074,
                0.11156089340502784,
                1.210777659527609,
                1.6257736534767053
            ]
        },
        {
            "positions": [
                -0.7638769407613255,
                -0.38227227825408766,
                -0.804864935957263,
                0.06669807455437188,
                1.1593739208783407,
                1.6981846201026194
            ]
        },
        {
            "positions": [
                -0.7195031600483428,
                -0.4204620252768982,
                -0.6655176144779182,
                0.02183525570371586,
                1.1079701822290722,
                1.770595586728534
            ]
        },
        {
            "positions": [
                -0.6751293793353601,
                -0.4586517722997087,
                -0.5261702929985739,
                -0.023027563146940044,
                1.0565664435798037,
                1.843006553354448
            ]
        },
        {
            "positions": [
                -0.6307555986223774,
                -0.49684151932251924,
                -0.3868229715192293,
                -0.067890381997596,
                1.0051627049305354,
                1.9154175199803625
            ]
        },
        {
            "positions": [
                -0.5863818179093947,
                -0.5350312663453298,
                -0.24747565003988492,
                -0.11275320084825197,
                0.953758966281267,
                1.9878284866062765
            ]
        },
        {
            "positions": [
                -0.5420080371964119,
                -0.5732210133681404,
                -0.10812832856054011,
                -0.15761601969890798,
                0.9023552276319986,
                2.060239453232191
            ]
        },
        {
            "positions": [
                -0.4976342564834292,
                -0.6114107603909509,
                0.031218992918804256,
                -0.2024788385495639,
                0.8509514889827302,
                2.132650419858105
            ]
        },
        {
            "positions": [
                -0.4532604757704465,
                -0.6496005074137614,
                0.17056631439814862,
                -0.2473416574002198,
                0.7995477503334618,
                2.2050613864840196
            ]
        },
        {
            "positions": [
                -0.4088866950574638,
                -0.6877902544365719,
                0.309913635877493,
                -0.2922044762508758,
                0.7481440116841935,
                2.2774723531099337
            ]
        },
        {
            "positions": [
                -0.3645129143444811,
                -0.7259800014593825,
                0.4492609573568378,
                -0.3370672951015317,
                0.6967402730349251,
                2.3498833197358477
            ]
        },
        {
            "positions": [
                -0.32013913363149826,
                -0.764169748482193,
                0.5886082788361826,
                -0.38193011395218784,
                0.6453365343856566,
                2.4222942863617622
            ]
        },
        {
            "positions": [
                -0.27576535291851556,
                -0.8023594955050035,
                0.727955600315527,
                -0.42679293280284375,
                0.5939327957363882,
                2.4947052529876768
            ]
        },
        {
            "positions": [
                -0.23139157220553286,
                -0.840549242527814,
                0.8673029217948713,
                -0.47165575165349966,
                0.54252905708712,
                2.567116219613591
            ]
        },
        {
            "positions": [
                -0.18701779149255016,
                -0.8787389895506246,
                1.0066502432742161,
                -0.5165185705041555,
                0.49112531843785145,
                2.639527186239505
            ]
        },
        {
            "positions": [
                -0.14264401077956734,
                -0.9169287365734351,
                1.1459975647535605,
                -0.5613813893548116,
                0.43972157978858317,
                2.711938152865419
            ]
        },
        {
            "positions": [
                -0.09827023006658475,
                -0.9551184835962456,
                1.2853448862329049,
                -0.6062442082054675,
                0.3883178411393149,
                2.784349119491333
            ]
        },
        {
            "positions": [
                -0.05389644935360205,
                -0.9933082306190562,
                1.4246922077122492,
                -0.6511070270561234,
                0.3369141024900464,
                2.8567600861172475
            ]
        },
        {
            "positions": [
                -0.009522668640619125,
                -1.0314979776418667,
                1.564039529191594,
                -0.6959698459067796,
                0.2855103638407779,
                2.929171052743162
            ]
        },
        {
            "positions": [
                0.03485111207236358,
                -1.0696877246646772,
                1.7033868506709389,
                -0.7408326647574355,
                0.2341066251915096,
                3.001582019369076
            ]
        },
        {
            "positions": [
                0.07922489278534628,
                -1.1078774716874877,
                1.8427341721502832,
                -0.7856954836080914,
                0.1827028865422411,
                3.07399298599499
            ]
        },
        {
            "positions": [
                0.12359867349832905,
                -1.1460672187102983,
                1.9820814936296274,
                -0.8305583024587474,
                0.13129914789297287,
                3.1464039526209047
            ]
        }
    ]
}