{
    "goal": {
        "global_pose": {
            "orientation": {
                "w": 0.7047431468963623,
                "x": -0.7094548344612122,
                "y": 0.0024358443915843964,
                "z": -0.0022348060738295317
            },
            "position": {
                "x": 0.6094750761985779,
                "y": 0.3671506643295288,
                "z": 0.19426114857196808
            }
        },
        "name": "move_to_magneteinheit_A"
    },
    "id": "BiTRRT_move_to_magneteinheit_A_63",
    "joint_names": [
        "shoulder_pan_joint",
        "shoulder_lift_joint",
        "elbow_joint",
        "wrist_1_joint",
        "wrist_2_joint",
        "wrist_3_joint"
    ],
    "metrics": {
        "cart_traj_len": 2.0723266966241654,
        "distance_elbow_joint": 3.9076467881579555,
        "distance_shoulder_lift_joint": 1.0704107308694295,
        "distance_shoulder_pan_joint": 1.2413849322943173,
        "distance_wrist_1_joint": 1.2888903678692916,
        "distance_wrist_2_joint": 1.4500241526881985,
        "distance_wrist_3_joint": 2.0516058179288748,
        "smoothness": 2.7564157984637776e-16,
        "time": 0.06837095600000001,
        "traj_len": 3.3181263975032755,
        "weighted_distance": 4.225173244521851
    },
    "planner": "BiTRRT",
    "start": {
        "state": {
            "elbow_joint": -1.919643507792019,
            "shoulder_lift_joint": -0.07675430207160344,
            "shoulder_pan_joint": -1.1188671864651873,
            "wrist_1_joint": 0.42560062535961957,
            "wrist_2_joint": 1.5706038300724876,
            "wrist_3_joint": 1.1188968870953055
        }
    },
    "waypoints": [
        {
            "positions": [
                -1.1188671864651873,
                -0.07675430207160344,
                -1.919643507792019,
                0.42560062535961957,
                1.5706038300724876,
                1.1188968870953055
            ]
        },
        {
            "positions": [
                -1.0745320103118188,
                -0.11498325674551163,
                -1.780084693929235,
                0.37956882650714485,
                1.5188172531907662,
                1.1921685234499082
            ]
        },
        {
            "positions": [
                -1.0301968341584504,
                -0.15321221141941982,
                -1.6405258800664508,
                0.3335370276546702,
                1.4670306763090448,
                1.2654401598045109
            ]
        },
        {
            "positions": [
                -0.985861658005082,
                -0.191441166093328,
                -1.5009670662036667,
                0.2875052288021955,
                1.4152440994273234,
                1.3387117961591135
            ]
        },
        {
            "positions": [
                -0.9415264818517135,
                -0.22967012076723622,
                -1.3614082523408826,
                0.2414734299497208,
                1.363457522545602,
                1.4119834325137162
            ]
        },
        {
            "positions": [
                -0.8971913056983449,
                -0.26789907544114444,
                -1.2218494384780985,
                0.19544163109724608,
                1.3116709456638806,
                1.485255068868319
            ]
        },
        {
            "positions": [
                -0.8528561295449766,
                -0.30612803011505263,
                -1.0822906246153143,
                0.1494098322447714,
                1.2598843687821595,
                1.5585267052229215
            ]
        },
        {
            "positions": [
                -0.808520953391608,
                -0.3443569847889608,
                -0.9427318107525302,
                0.10337803339229668,
                1.208097791900438,
                1.6317983415775243
            ]
        },
        {
            "positions": [
                -0.7641857772382395,
                -0.382585939462869,
                -0.8031729968897461,
                0.057346234539822016,
                1.1563112150187167,
                1.7050699779321268
            ]
        },
        {
            "positions": [
                -0.7198506010848711,
                -0.42081489413677725,
                -0.663614183026962,
                0.011314435687347246,
                1.1045246381369953,
                1.7783416142867297
            ]
        },
        {
            "positions": [
                -0.6755154249315025,
                -0.45904384881068544,
                -0.5240553691641778,
                -0.03471736316512741,
                1.052738061255274,
                1.8516132506413323
            ]
        },
        {
            "positions": [
                -0.6311802487781342,
                -0.4972728034845936,
                -0.3844965553013937,
                -0.08074916201760213,
                1.0009514843735525,
                1.924884886995935
            ]
        },
        {
            "positions": [
                -0.5868450726247657,
                -0.5355017581585018,
                -0.24493774143860958,
                -0.1267809608700768,
                0.9491649074918311,
                1.9981565233505374
            ]
        },
        {
            "positions": [
                -0.5425098964713971,
                -0.5737307128324101,
                -0.10537892757582545,
                -0.17281275972255156,
                0.8973783306101097,
                2.0714281597051403
            ]
        },
        {
            "positions": [
                -0.4981747203180287,
                -0.6119596675063181,
                0.03417988628695867,
                -0.21884455857502622,
                0.8455917537283884,
                2.1446997960597427
            ]
        },
        {
            "positions": [
                -0.4538395441646602,
                -0.6501886221802264,
                0.17373870014974258,
                -0.2648763574275009,
                0.793805176846667,
                2.2179714324143456
            ]
        },
        {
            "positions": [
                -0.40950436801129175,
                -0.6884175768541345,
                0.3132975140125269,
                -0.31090815627997553,
                0.7420185999649457,
                2.2912430687689485
            ]
        },
        {
            "positions": [
                -0.3651691918579233,
                -0.7266465315280428,
                0.4528563278753108,
                -0.3569399551324503,
                0.6902320230832243,
                2.364514705123551
            ]
        },
        {
            "positions": [
                -0.3208340157045547,
                -0.7648754862019511,
                0.5924151417380952,
                -0.4029717539849251,
                0.6384454462015028,
                2.4377863414781538
            ]
        },
        {
            "positions": [
                -0.27649883955118626,
                -0.8031044408758592,
                0.7319739556008795,
                -0.44900355283739973,
                0.5866588693197814,
                2.511057977832756
            ]
        },
        {
            "positions": [
                -0.2321636633978178,
                -0.8413333955497675,
                0.8715327694636634,
                -0.4950353516898744,
                0.53487229243806,
                2.584329614187359
            ]
        },
        {
            "positions": [
                -0.18782848724444934,
                -0.8795623502236756,
                1.0110915833264478,
                -0.541067150542349,
                0.48308571555633883,
                2.6576012505419615
            ]
        },
        {
            "positions": [
                -0.14349331109108088,
                -0.9177913048975836,
                1.1506503971892317,
                -0.5870989493948238,
                0.43129913867461744,
                2.730872886896564
            ]
        },
        {
            "positions": [
                -0.09915813493771242,
                -0.956020259571492,
                1.2902092110520156,
                -0.6331307482472983,
                0.37951256179289605,
                2.804144523251167
            ]
        },
        {
            "positions": [
                -0.05482295878434407,
                -0.9942492142454,
                1.4297680249148,
                -0.6791625470997731,
                0.32772598491117466,
                2.8774161596057697
            ]
        },
        {
            "positions": [
                -0.010487782630975273,
                -1.0324781689193083,
                1.5693268387775843,
                -0.7251943459522479,
                0.27593940802945305,
                2.9506877959603726
            ]
        },
        {
            "positions": [
                0.03384739352239308,
                -1.0707071235932166,
                1.7088856526403682,
                -0.7712261448047226,
                0.22415283114773188,
                3.023959432314975
            ]
        },
        {
            "positions": [
                0.07818256967576165,
                -1.108936078267125,
                1.8484444665031525,
                -0.8172579436571972,
                0.1723662542660105,
                3.0972310686695774
            ]
        },
        {
            "positions": [
                0.12251774582912996,
                -1.147165032941033,
                1.9880032803659362,
                -0.8632897425096719,
                0.120579677384289,
                3.1705027050241803
            ]
        }
    ]
}