{
    "goal": {
        "global_pose": {
            "orientation": {
                "w": 0.7031023502349854,
                "x": -0.7110244035720825,
                "y": 0.007748599164187908,
                "z": 0.005598929710686207
            },
            "position": {
                "x": 0.11585023208521307,
                "y": 0.44412534475326537,
                "z": 0.3711530566215515
            }
        },
        "name": "move_to_auspresseinheit_A"
    },
    "id": "BiTRRT_move_to_auspresseinheit_A_129",
    "joint_names": [
        "shoulder_pan_joint",
        "shoulder_lift_joint",
        "elbow_joint",
        "wrist_1_joint",
        "wrist_2_joint",
        "wrist_3_joint"
    ],
    "metrics": {
        "cart_traj_len": 0.6794357638171679,
        "distance_elbow_joint": 0.033135677453571155,
        "distance_shoulder_lift_joint": 0.531350734585996,
        "distance_shoulder_pan_joint": 1.043440510087435,
        "distance_wrist_1_joint": 0.8321970813051331,
        "distance_wrist_2_joint": 0.6539622254350559,
        "distance_wrist_3_joint": 0.05383023252280461,
        "smoothness": 0.6045254537981478,
        "time": 0.051935968,
        "traj_len": 1.7742368673291613,
        "weighted_distance": 2.1775528083552405
    },
    "planner": "BiTRRT",
    "start": {
        "state": {
            "elbow_joint": 2.422574709923281,
            "shoulder_lift_joint": -1.3736533754116391,
            "shoulder_pan_joint": -0.33786336945926293,
            "wrist_1_joint": -1.0288603412921917,
            "wrist_2_joint": 1.2330224858903978,
            "wrist_3_joint": -3.094022268022082
        }
    },
    "waypoints": [
        {
            "positions": [
                -0.33786336945926293,
                -1.3736533754116391,
                2.422574709923281,
                -1.0288603412921917,
                1.2330224858903978,
                -3.094022268022082
            ]
        },
        {
            "positions": [
                -0.24334158519261784,
                -1.4084142873144354,
                2.4205264257508445,
                -0.9120443125261267,
                1.134032543632556,
                -3.0992586489505762
            ]
        },
        {
            "positions": [
                -0.14881980092597275,
                -1.4431751992172315,
                2.418478141578408,
                -0.7952282837600617,
                1.0350426013747143,
                -3.1044950298790708
            ]
        },
        {
            "positions": [
                -0.05429801665932765,
                -1.4779361111200278,
                2.416429857405971,
                -0.6784122549939966,
                0.9360526591168726,
                -3.109731410807565
            ]
        },
        {
            "positions": [
                0.04022376760731744,
                -1.512697023022824,
                2.4143815732335345,
                -0.5615962262279316,
                0.837062716859031,
                -3.114967791736059
            ]
        },
        {
            "positions": [
                0.13474555187396253,
                -1.5474579349256201,
                2.412333289061098,
                -0.4447801974618665,
                0.7380727746011893,
                -3.1202041726645535
            ]
        },
        {
            "positions": [
                0.22926733614060762,
                -1.5822188468284164,
                2.4102850048886615,
                -0.3279641686958015,
                0.6390828323433475,
                -3.1254405535930476
            ]
        },
        {
            "positions": [
                0.3880372709697958,
                -1.6898139345514893,
                2.4033363474156775,
                -0.3717311382653824,
                0.6590903563060161,
                -3.132911202576994
            ]
        },
        {
            "positions": [
                0.546807205798984,
                -1.7974090222745622,
                2.396387689942694,
                -0.4154981078349633,
                0.6790978802686846,
                -3.1403818515609405
            ]
        },
        {
            "positions": [
                0.7055771406281722,
                -1.9050041099976351,
                2.38943903246971,
                -0.4592650774045443,
                0.6991054042313531,
                -3.1478525005448867
            ]
        }
    ]
}