{
    "goal": {
        "global_pose": {
            "orientation": {
                "w": 0.5084816217422485,
                "x": -0.49083608388900757,
                "y": 0.5182115435600281,
                "z": -0.4816462993621826
            },
            "position": {
                "x": 0.5540239810943604,
                "y": 0.030875300988554955,
                "z": 0.16403168439865112
            }
        },
        "name": "move_to_storage_A"
    },
    "id": "BiTRRT_move_to_storage_A_15",
    "joint_names": [
        "shoulder_pan_joint",
        "shoulder_lift_joint",
        "elbow_joint",
        "wrist_1_joint",
        "wrist_2_joint",
        "wrist_3_joint"
    ],
    "metrics": {
        "cart_traj_len": 0.35317992162728495,
        "distance_elbow_joint": 0.44688528880505674,
        "distance_shoulder_lift_joint": 0.23334990237948228,
        "distance_shoulder_pan_joint": 0.4610833269050979,
        "distance_wrist_1_joint": 0.23505204020013626,
        "distance_wrist_2_joint": 1.1010495049715594,
        "distance_wrist_3_joint": 0.10446076914054014,
        "smoothness": 8.881784197001252e-16,
        "time": 0.048811452,
        "traj_len": 1.6068232113091572,
        "weighted_distance": 2.0314782587698668
    },
    "planner": "BiTRRT",
    "start": {
        "state": {
            "elbow_joint": 1.9715463870305268,
            "shoulder_lift_joint": -1.1394903361783484,
            "shoulder_pan_joint": 0.12281147578464417,
            "wrist_1_joint": -0.7804599489681411,
            "wrist_2_joint": 0.12958660307563738,
            "wrist_3_joint": -3.1924946282119055
        }
    },
    "waypoints": [
        {
            "positions": [
                0.12281147578464417,
                -1.1394903361783484,
                1.9715463870305268,
                -0.7804599489681411,
                0.12958660307563738,
                -3.1924946282119055
            ]
        },
        {
            "positions": [
                0.056942429083915905,
                -1.1728260365182743,
                2.0353871425741064,
                -0.8140388118538748,
                0.28687938950014585,
                -3.1775716611918283
            ]
        },
        {
            "positions": [
                -0.008926617616812363,
                -1.2061617368582005,
                2.099227898117686,
                -0.8476176747396086,
                0.4441721759246543,
                -3.162648694171751
            ]
        },
        {
            "positions": [
                -0.07479566431754063,
                -1.2394974371981264,
                2.1630686536612656,
                -0.8811965376253423,
                0.6014649623491628,
                -3.147725727151674
            ]
        },
        {
            "positions": [
                -0.14066471101826888,
                -1.2728331375380526,
                2.2269094092048447,
                -0.9147754005110761,
                0.7587577487736713,
                -3.132802760131597
            ]
        },
        {
            "positions": [
                -0.20653375771899718,
                -1.3061688378779786,
                2.2907501647484243,
                -0.9483542633968098,
                0.9160505351981798,
                -3.11787979311152
            ]
        },
        {
            "positions": [
                -0.2724028044197254,
                -1.3395045382179047,
                2.354590920292004,
                -0.9819331262825436,
                1.0733433216226882,
                -3.1029568260914426
            ]
        },
        {
            "positions": [
                -0.3382718511204537,
                -1.3728402385578307,
                2.4184316758355835,
                -1.0155119891682773,
                1.2306361080471968,
                -3.0880338590713654
            ]
        }
    ]
}