{
    "goal": {
        "global_pose": {
            "orientation": {
                "w": 0.7031023502349854,
                "x": -0.7110244035720825,
                "y": 0.007748599164187908,
                "z": 0.005598929710686207
            },
            "position": {
                "x": 0.11585023208521307,
                "y": 0.44412534475326537,
                "z": 0.3711530566215515
            }
        },
        "name": "move_to_auspresseinheit_A"
    },
    "id": "BiTRRT_move_to_auspresseinheit_A_80",
    "joint_names": [
        "shoulder_pan_joint",
        "shoulder_lift_joint",
        "elbow_joint",
        "wrist_1_joint",
        "wrist_2_joint",
        "wrist_3_joint"
    ],
    "metrics": {
        "cart_traj_len": 0.6809684674826976,
        "distance_elbow_joint": 0.030004713856713217,
        "distance_shoulder_lift_joint": 0.534334628960027,
        "distance_shoulder_pan_joint": 1.0451384561801578,
        "distance_wrist_1_joint": 0.564766803032247,
        "distance_wrist_2_joint": 0.6746281771238877,
        "distance_wrist_3_joint": 0.14067180483225572,
        "smoothness": 0.5781419898535598,
        "time": 0.045173139,
        "traj_len": 1.7290299546234846,
        "weighted_distance": 2.1237427277817655
    },
    "planner": "BiTRRT",
    "start": {
        "state": {
            "elbow_joint": 2.422574709923281,
            "shoulder_lift_joint": -1.3736533754116391,
            "shoulder_pan_joint": -0.33786336945926293,
            "wrist_1_joint": -1.0288603412921917,
            "wrist_2_joint": 1.2330224858903978,
            "wrist_3_joint": -3.094022268022082
        }
    },
    "waypoints": [
        {
            "positions": [
                -0.33786336945926293,
                -1.3736533754116391,
                2.422574709923281,
                -1.0288603412921917,
                1.2330224858903978,
                -3.094022268022082
            ]
        },
        {
            "positions": [
                -0.2167588304926657,
                -1.4498834773677625,
                2.420111818568261,
                -0.9542116662341917,
                1.1480758831849909,
                -3.087167071200992
            ]
        },
        {
            "positions": [
                -0.09565429152606847,
                -1.5261135793238858,
                2.4176489272132415,
                -0.8795629911761916,
                1.0631292804795838,
                -3.0803118743799023
            ]
        },
        {
            "positions": [
                0.02545024744052876,
                -1.6023436812800091,
                2.4151860358582216,
                -0.8049143161181916,
                0.9781826777741768,
                -3.0734566775588124
            ]
        },
        {
            "positions": [
                0.146554786407126,
                -1.6785737832361325,
                2.4127231445032016,
                -0.7302656410601915,
                0.8932360750687698,
                -3.066601480737723
            ]
        },
        {
            "positions": [
                0.2676593253737232,
                -1.754803885192256,
                2.4102602531481816,
                -0.6556169660021915,
                0.8082894723633628,
                -3.059746283916633
            ]
        },
        {
            "positions": [
                0.38876386434032045,
                -1.8310339871483794,
                2.407797361793162,
                -0.5809682909441916,
                0.7233428696579558,
                -3.052891087095543
            ]
        },
        {
            "positions": [
                0.5098684033069177,
                -1.9072640891045027,
                2.405334470438142,
                -0.5063196158861915,
                0.6383962669525488,
                -3.046035890274453
            ]
        },
        {
            "positions": [
                0.6085717450139063,
                -1.9076260467380846,
                2.3989522332523547,
                -0.48520657707306813,
                0.6783972460455682,
                -3.0923786038167664
            ]
        },
        {
            "positions": [
                0.707275086720895,
                -1.9079880043716662,
                2.392569996066568,
                -0.46409353825994476,
                0.7183982251385875,
                -3.1387213173590798
            ]
        }
    ]
}