{
    "goal": {
        "global_pose": {
            "orientation": {
                "w": 0.7047431468963623,
                "x": -0.7094548344612122,
                "y": 0.0024358443915843964,
                "z": -0.0022348060738295317
            },
            "position": {
                "x": 0.6094750761985779,
                "y": 0.3671506643295288,
                "z": 0.19426114857196808
            }
        },
        "name": "move_to_magneteinheit_A"
    },
    "id": "BiTRRT_move_to_magneteinheit_A_12",
    "joint_names": [
        "shoulder_pan_joint",
        "shoulder_lift_joint",
        "elbow_joint",
        "wrist_1_joint",
        "wrist_2_joint",
        "wrist_3_joint"
    ],
    "metrics": {
        "cart_traj_len": 2.0654291505201767,
        "distance_elbow_joint": 3.883014155755083,
        "distance_shoulder_lift_joint": 1.0574255831321135,
        "distance_shoulder_pan_joint": 1.2405338651533657,
        "distance_wrist_1_joint": 1.1628025366426926,
        "distance_wrist_2_joint": 1.440713737809986,
        "distance_wrist_3_joint": 1.935524319997472,
        "smoothness": 3.6752210588592913e-16,
        "time": 0.074743306,
        "traj_len": 3.2741432770254133,
        "weighted_distance": 4.146634673194438
    },
    "planner": "BiTRRT",
    "start": {
        "state": {
            "elbow_joint": -1.919643507792019,
            "shoulder_lift_joint": -0.07675430207160344,
            "shoulder_pan_joint": -1.1188671864651873,
            "wrist_1_joint": 0.42560062535961957,
            "wrist_2_joint": 1.5706038300724876,
            "wrist_3_joint": 1.1188968870953055
        }
    },
    "waypoints": [
        {
            "positions": [
                -1.1188671864651873,
                -0.07675430207160344,
                -1.919643507792019,
                0.42560062535961957,
                1.5706038300724876,
                1.1188968870953055
            ]
        },
        {
            "positions": [
                -1.0745624055668528,
                -0.11451950146917891,
                -1.7809644308007662,
                0.38407196333666627,
                1.5191497680078452,
                1.1880227556666438
            ]
        },
        {
            "positions": [
                -1.0302576246685184,
                -0.15228470086675439,
                -1.6422853538095132,
                0.34254330131371297,
                1.467695705943203,
                1.2571486242379821
            ]
        },
        {
            "positions": [
                -0.9859528437701839,
                -0.19004990026432989,
                -1.5036062768182603,
                0.30101463929075967,
                1.4162416438785606,
                1.3262744928093204
            ]
        },
        {
            "positions": [
                -0.9416480628718494,
                -0.22781509966190536,
                -1.3649271998270072,
                0.25948597726780637,
                1.3647875818139181,
                1.3954003613806587
            ]
        },
        {
            "positions": [
                -0.8973432819735149,
                -0.2655802990594809,
                -1.2262481228357542,
                0.21795731524485307,
                1.3133335197492757,
                1.464526229951997
            ]
        },
        {
            "positions": [
                -0.8530385010751804,
                -0.30334549845705633,
                -1.0875690458445013,
                0.17642865322189977,
                1.2618794576846335,
                1.5336520985233353
            ]
        },
        {
            "positions": [
                -0.8087337201768459,
                -0.34111069785463183,
                -0.9488899688532484,
                0.13489999119894647,
                1.210425395619991,
                1.6027779670946736
            ]
        },
        {
            "positions": [
                -0.7644289392785115,
                -0.37887589725220727,
                -0.8102108918619955,
                0.09337132917599317,
                1.1589713335553489,
                1.6719038356660119
            ]
        },
        {
            "positions": [
                -0.720124158380177,
                -0.4166410966497828,
                -0.6715318148707423,
                0.05184266715303987,
                1.1075172714907064,
                1.7410297042373502
            ]
        },
        {
            "positions": [
                -0.6758193774818424,
                -0.45440629604735827,
                -0.5328527378794894,
                0.010314005130086568,
                1.056063209426064,
                1.8101555728086884
            ]
        },
        {
            "positions": [
                -0.631514596583508,
                -0.49217149544493377,
                -0.3941736608882367,
                -0.031214656892866732,
                1.0046091473614216,
                1.8792814413800267
            ]
        },
        {
            "positions": [
                -0.5872098156851735,
                -0.5299366948425093,
                -0.25549458389698376,
                -0.07274331891582003,
                0.9531550852967794,
                1.948407309951365
            ]
        },
        {
            "positions": [
                -0.5429050347868389,
                -0.5677018942400848,
                -0.11681550690573062,
                -0.11427198093877339,
                0.901701023232137,
                2.0175331785227035
            ]
        },
        {
            "positions": [
                -0.4986002538885045,
                -0.6054670936376603,
                0.02186357008552231,
                -0.15580064296172663,
                0.8502469611674947,
                2.0866590470940416
            ]
        },
        {
            "positions": [
                -0.45429547299017004,
                -0.6432322930352357,
                0.160542647076775,
                -0.19732930498467988,
                0.7987928991028523,
                2.1557849156653797
            ]
        },
        {
            "positions": [
                -0.4099906920918356,
                -0.680997492432811,
                0.29922172406802816,
                -0.23885796700763323,
                0.74733883703821,
                2.224910784236718
            ]
        },
        {
            "positions": [
                -0.365685911193501,
                -0.7187626918303867,
                0.43790080105928086,
                -0.2803866290305865,
                0.6958847749735677,
                2.2940366528080567
            ]
        },
        {
            "positions": [
                -0.32138113029516646,
                -0.7565278912279623,
                0.5765798780505345,
                -0.32191529105353983,
                0.6444307129089252,
                2.3631625213793948
            ]
        },
        {
            "positions": [
                -0.277076349396832,
                -0.7942930906255377,
                0.7152589550417872,
                -0.3634439530764932,
                0.5929766508442829,
                2.432288389950733
            ]
        },
        {
            "positions": [
                -0.23277156849849756,
                -0.832058290023113,
                0.8539380320330403,
                -0.40497261509944643,
                0.5415225887796404,
                2.5014142585220713
            ]
        },
        {
            "positions": [
                -0.1884667876001631,
                -0.8698234894206887,
                0.992617109024293,
                -0.4465012771223998,
                0.49006852671499823,
                2.57054012709341
            ]
        },
        {
            "positions": [
                -0.14416200670182855,
                -0.907588688818264,
                1.1312961860155457,
                -0.48802993914535303,
                0.4386144646503558,
                2.639665995664748
            ]
        },
        {
            "positions": [
                -0.09985722580349421,
                -0.9453538882158394,
                1.2699752630067989,
                -0.5295586011683062,
                0.3871604025857136,
                2.708791864236086
            ]
        },
        {
            "positions": [
                -0.05555244490515965,
                -0.983119087613415,
                1.4086543399980516,
                -0.5710872631912596,
                0.3357063405210712,
                2.7779177328074245
            ]
        },
        {
            "positions": [
                -0.011247664006825087,
                -1.0208842870109907,
                1.5473334169893052,
                -0.6126159252142129,
                0.28425227845642875,
                2.847043601378763
            ]
        },
        {
            "positions": [
                0.033057116891509475,
                -1.058649486408566,
                1.6860124939805579,
                -0.6541445872371663,
                0.23279821639178633,
                2.916169469950101
            ]
        },
        {
            "positions": [
                0.07736189778984381,
                -1.0964146858061417,
                1.824691570971811,
                -0.6956732492601194,
                0.18134415432714412,
                2.985295338521439
            ]
        },
        {
            "positions": [
                0.12166667868817828,
                -1.134179885203717,
                1.963370647963064,
                -0.7372019112830729,
                0.1298900922625017,
                3.0544212070927776
            ]
        }
    ]
}