{
    "goal": {
        "global_pose": {
            "orientation": {
                "w": 0.5084816217422485,
                "x": -0.49083608388900757,
                "y": 0.5182115435600281,
                "z": -0.4816462993621826
            },
            "position": {
                "x": 0.5540239810943604,
                "y": 0.030875300988554955,
                "z": 0.16403168439865112
            }
        },
        "name": "move_to_storage_A"
    },
    "id": "BiTRRT_move_to_storage_A_29",
    "joint_names": [
        "shoulder_pan_joint",
        "shoulder_lift_joint",
        "elbow_joint",
        "wrist_1_joint",
        "wrist_2_joint",
        "wrist_3_joint"
    ],
    "metrics": {
        "cart_traj_len": 0.3540522797953493,
        "distance_elbow_joint": 0.4531985716220852,
        "distance_shoulder_lift_joint": 0.2343918185897076,
        "distance_shoulder_pan_joint": 0.4618639054675493,
        "distance_wrist_1_joint": 0.2535907874382589,
        "distance_wrist_2_joint": 1.1060477812604907,
        "distance_wrist_3_joint": 0.10624778979984661,
        "smoothness": 1.998401446083499e-15,
        "time": 0.042993896,
        "traj_len": 1.6172014884292987,
        "weighted_distance": 2.0463320362239314
    },
    "planner": "BiTRRT",
    "start": {
        "state": {
            "elbow_joint": 1.9715463870305268,
            "shoulder_lift_joint": -1.1394903361783484,
            "shoulder_pan_joint": 0.12281147578464417,
            "wrist_1_joint": -0.7804599489681411,
            "wrist_2_joint": 0.12958660307563738,
            "wrist_3_joint": -3.1924946282119055
        }
    },
    "waypoints": [
        {
            "positions": [
                0.12281147578464417,
                -1.1394903361783484,
                1.9715463870305268,
                -0.7804599489681411,
                0.12958660307563738,
                -3.1924946282119055
            ]
        },
        {
            "positions": [
                0.05683091786070857,
                -1.1729748816911638,
                2.0362890401193963,
                -0.8166872043164638,
                0.2875934289699932,
                -3.1773163725262132
            ]
        },
        {
            "positions": [
                -0.009149640063227035,
                -1.206459427203979,
                2.1010316932082653,
                -0.8529144596647865,
                0.44560025486434895,
                -3.162138116840521
            ]
        },
        {
            "positions": [
                -0.07513019798716265,
                -1.2399439727167945,
                2.165774346297135,
                -0.8891417150131091,
                0.6036070807587048,
                -3.1469598611548286
            ]
        },
        {
            "positions": [
                -0.14111075591109823,
                -1.27342851822961,
                2.230516999386004,
                -0.9253689703614318,
                0.7616139066530606,
                -3.131781605469136
            ]
        },
        {
            "positions": [
                -0.20709131383503387,
                -1.3069130637424253,
                2.2952596524748734,
                -0.9615962257097546,
                0.9196207325474165,
                -3.1166033497834436
            ]
        },
        {
            "positions": [
                -0.27307187175896946,
                -1.3403976092552405,
                2.3600023055637425,
                -0.9978234810580773,
                1.0776275584417723,
                -3.1014250940977512
            ]
        },
        {
            "positions": [
                -0.3390524296829051,
                -1.373882154768056,
                2.424744958652612,
                -1.0340507364064,
                1.2356343843361282,
                -3.086246838412059
            ]
        }
    ]
}