{
    "goal": {
        "global_pose": {
            "orientation": {
                "w": 0.7031023502349854,
                "x": -0.7110244035720825,
                "y": 0.007748599164187908,
                "z": 0.005598929710686207
            },
            "position": {
                "x": 0.11585023208521307,
                "y": 0.44412534475326537,
                "z": 0.3711530566215515
            }
        },
        "name": "move_to_auspresseinheit_A"
    },
    "id": "BiTRRT_move_to_auspresseinheit_A_16",
    "joint_names": [
        "shoulder_pan_joint",
        "shoulder_lift_joint",
        "elbow_joint",
        "wrist_1_joint",
        "wrist_2_joint",
        "wrist_3_joint"
    ],
    "metrics": {
        "cart_traj_len": 0.7899642009280896,
        "distance_elbow_joint": 0.6230737035767069,
        "distance_shoulder_lift_joint": 1.8006274615952462,
        "distance_shoulder_pan_joint": 1.0460244761381465,
        "distance_wrist_1_joint": 0.5609282249819397,
        "distance_wrist_2_joint": 0.8354719356997644,
        "distance_wrist_3_joint": 0.542627790830474,
        "smoothness": 1.3847947616129976,
        "time": 0.054102548,
        "traj_len": 2.3256727183381325,
        "weighted_distance": 2.808987243681418
    },
    "planner": "BiTRRT",
    "start": {
        "state": {
            "elbow_joint": 2.422574709923281,
            "shoulder_lift_joint": -1.3736533754116391,
            "shoulder_pan_joint": -0.33786336945926293,
            "wrist_1_joint": -1.0288603412921917,
            "wrist_2_joint": 1.2330224858903978,
            "wrist_3_joint": -3.094022268022082
        }
    },
    "waypoints": [
        {
            "positions": [
                -0.33786336945926293,
                -1.3736533754116391,
                2.422574709923281,
                -1.0288603412921917,
                1.2330224858903978,
                -3.094022268022082
            ]
        },
        {
            "positions": [
                -0.26545223948152313,
                -1.5033880370236818,
                2.455650487052994,
                -0.9809963954787452,
                1.1580337746374323,
                -3.126073221751512
            ]
        },
        {
            "positions": [
                -0.19304110950378336,
                -1.6331226986357246,
                2.4887262641827066,
                -0.9331324496652985,
                1.083045063384467,
                -3.158124175480942
            ]
        },
        {
            "positions": [
                -0.1206299795260436,
                -1.762857360247767,
                2.5218020413124194,
                -0.885268503851852,
                1.0080563521315016,
                -3.1901751292103726
            ]
        },
        {
            "positions": [
                -0.0482188495483038,
                -1.89259202185981,
                2.554877818442132,
                -0.8374045580384054,
                0.9330676408785363,
                -3.2222260829398026
            ]
        },
        {
            "positions": [
                0.024192280429435997,
                -2.0223266834718525,
                2.587953595571845,
                -0.7895406122249587,
                0.8580789296255709,
                -3.2542770366692326
            ]
        },
        {
            "positions": [
                0.09660341040717574,
                -2.1520613450838955,
                2.6210293727015577,
                -0.7416766664115122,
                0.7830902183726056,
                -3.2863279903986626
            ]
        },
        {
            "positions": [
                0.16901454038491553,
                -2.281796006695938,
                2.6541051498312704,
                -0.6938127205980655,
                0.7081015071196402,
                -3.318378944128093
            ]
        },
        {
            "positions": [
                0.24142567036265533,
                -2.4115306683079805,
                2.687180926960983,
                -0.6459487747846191,
                0.6331127958666748,
                -3.350429897857523
            ]
        },
        {
            "positions": [
                0.3138368003403951,
                -2.5412653299200234,
                2.720256704090696,
                -0.5980848289711724,
                0.5581240846137094,
                -3.382480851586953
            ]
        },
        {
            "positions": [
                0.3927016616080928,
                -2.414662228502651,
                2.6551783622088374,
                -0.5720542864389884,
                0.5902387914983247,
                -3.3316470101338327
            ]
        },
        {
            "positions": [
                0.4715665228757905,
                -2.288059127085279,
                2.5901000203269793,
                -0.5460237439068043,
                0.6223534983829399,
                -3.280813168680712
            ]
        },
        {
            "positions": [
                0.5504313841434882,
                -2.1614560256679063,
                2.5250216784451207,
                -0.5199932013746201,
                0.6544682052675551,
                -3.2299793272275914
            ]
        },
        {
            "positions": [
                0.6292962454111859,
                -2.0348529242505338,
                2.4599433365632626,
                -0.49396265884243606,
                0.6865829121521703,
                -3.1791454857744705
            ]
        },
        {
            "positions": [
                0.7081611066788837,
                -1.9082498228331615,
                2.394864994681404,
                -0.467932116310252,
                0.7186976190367855,
                -3.12831164432135
            ]
        }
    ]
}