{
    "goal": {
        "global_pose": {
            "orientation": {
                "w": 0.7047431468963623,
                "x": -0.7094548344612122,
                "y": 0.0024358443915843964,
                "z": -0.0022348060738295317
            },
            "position": {
                "x": 0.6094750761985779,
                "y": 0.3671506643295288,
                "z": 0.19426114857196808
            }
        },
        "name": "move_to_magneteinheit_A"
    },
    "id": "BiTRRT_move_to_magneteinheit_A_60",
    "joint_names": [
        "shoulder_pan_joint",
        "shoulder_lift_joint",
        "elbow_joint",
        "wrist_1_joint",
        "wrist_2_joint",
        "wrist_3_joint"
    ],
    "metrics": {
        "cart_traj_len": 1.879228077934036,
        "distance_elbow_joint": 3.906811160812688,
        "distance_shoulder_lift_joint": 0.6981677982838236,
        "distance_shoulder_pan_joint": 1.2414584829251984,
        "distance_wrist_1_joint": 1.4810643232812077,
        "distance_wrist_2_joint": 1.700313762127732,
        "distance_wrist_3_joint": 1.0958792924265333,
        "smoothness": 7.237009365895518e-16,
        "time": 0.063956062,
        "traj_len": 3.1817754194564367,
        "weighted_distance": 3.9366015152818283
    },
    "planner": "BiTRRT",
    "start": {
        "state": {
            "elbow_joint": -1.919643507792019,
            "shoulder_lift_joint": -0.07675430207160344,
            "shoulder_pan_joint": -1.1188671864651873,
            "wrist_1_joint": 0.42560062535961957,
            "wrist_2_joint": 1.5706038300724876,
            "wrist_3_joint": 1.1188968870953055
        }
    },
    "waypoints": [
        {
            "positions": [
                -1.1188671864651873,
                -0.07675430207160344,
                -1.919643507792019,
                0.42560062535961957,
                1.5706038300724876,
                1.1188968870953055
            ]
        },
        {
            "positions": [
                -1.0711187832757567,
                -0.10360690969790436,
                -1.769381540068454,
                0.48256463779351216,
                1.5052071469137287,
                1.0767476835404388
            ]
        },
        {
            "positions": [
                -1.0233703800863259,
                -0.13045951732420527,
                -1.6191195723448892,
                0.5395286502274048,
                1.4398104637549698,
                1.0345984799855723
            ]
        },
        {
            "positions": [
                -0.9756219768968952,
                -0.15731212495050617,
                -1.4688576046213244,
                0.5964926626612974,
                1.3744137805962109,
                0.9924492764307056
            ]
        },
        {
            "positions": [
                -0.9278735737074645,
                -0.1841647325768071,
                -1.3185956368977594,
                0.65345667509519,
                1.309017097437452,
                0.9503000728758388
            ]
        },
        {
            "positions": [
                -0.8801251705180337,
                -0.211017340203108,
                -1.1683336691741943,
                0.7104206875290826,
                1.243620414278693,
                0.9081508693209722
            ]
        },
        {
            "positions": [
                -0.8323767673286031,
                -0.23786994782940893,
                -1.0180717014506295,
                0.7673846999629752,
                1.178223731119934,
                0.8660016657661056
            ]
        },
        {
            "positions": [
                -0.7846283641391725,
                -0.2647225554557098,
                -0.8678097337270647,
                0.8243487123968678,
                1.1128270479611753,
                0.8238524622112389
            ]
        },
        {
            "positions": [
                -0.7368799609497416,
                -0.29157516308201076,
                -0.7175477660034997,
                0.8813127248307604,
                1.0474303648024161,
                0.7817032586563722
            ]
        },
        {
            "positions": [
                -0.689131557760311,
                -0.31842777070831163,
                -0.5672857982799349,
                0.938276737264653,
                0.9820336816436573,
                0.7395540551015056
            ]
        },
        {
            "positions": [
                -0.6413831545708802,
                -0.34528037833461256,
                -0.4170238305563698,
                0.9952407496985456,
                0.9166369984848983,
                0.6974048515466389
            ]
        },
        {
            "positions": [
                -0.5936347513814495,
                -0.3721329859609135,
                -0.266761862832805,
                1.0522047621324382,
                0.8512403153261394,
                0.6552556479917723
            ]
        },
        {
            "positions": [
                -0.5458863481920188,
                -0.3989855935872144,
                -0.11649989510923997,
                1.1091687745663308,
                0.7858436321673805,
                0.6131064444369055
            ]
        },
        {
            "positions": [
                -0.4981379450025881,
                -0.4258382012135153,
                0.033762072614324845,
                1.1661327870002234,
                0.7204469490086216,
                0.5709572408820389
            ]
        },
        {
            "positions": [
                -0.4503895418131575,
                -0.45269080883981616,
                0.18402404033788966,
                1.223096799434116,
                0.6550502658498627,
                0.5288080373271723
            ]
        },
        {
            "positions": [
                -0.40264113862372675,
                -0.4795434164661171,
                0.3342860080614545,
                1.2800608118680086,
                0.5896535826911038,
                0.4866588337723057
            ]
        },
        {
            "positions": [
                -0.354892735434296,
                -0.5063960240924181,
                0.48454797578501974,
                1.3370248243019014,
                0.5242568995323449,
                0.44450963021743894
            ]
        },
        {
            "positions": [
                -0.30714433224486526,
                -0.533248631718719,
                0.6348099435085846,
                1.3939888367357938,
                0.458860216373586,
                0.4023604266625722
            ]
        },
        {
            "positions": [
                -0.2593959290554346,
                -0.5601012393450198,
                0.7850719112321494,
                1.4509528491696866,
                0.3934635332148271,
                0.3602112231077056
            ]
        },
        {
            "positions": [
                -0.21164752586600388,
                -0.5869538469713207,
                0.9353338789557142,
                1.507916861603579,
                0.32806685005606817,
                0.31806201955283897
            ]
        },
        {
            "positions": [
                -0.16389912267657314,
                -0.6138064545976216,
                1.0855958466792794,
                1.5648808740374718,
                0.26267016689730904,
                0.27591281599797224
            ]
        },
        {
            "positions": [
                -0.1161507194871425,
                -0.6406590622239225,
                1.2358578144028443,
                1.6218448864713644,
                0.19727348373855014,
                0.23376361244310562
            ]
        },
        {
            "positions": [
                -0.06840231629771165,
                -0.6675116698502235,
                1.386119782126409,
                1.678808898905257,
                0.13187680057979123,
                0.191614408888239
            ]
        },
        {
            "positions": [
                -0.02065391310828102,
                -0.6943642774765244,
                1.5363817498499739,
                1.7357729113391496,
                0.06648011742103233,
                0.14946520533337226
            ]
        },
        {
            "positions": [
                0.027094490081149836,
                -0.7212168851028253,
                1.6866437175735391,
                1.7927369237730422,
                0.0010834342622734194,
                0.10731600177850553
            ]
        },
        {
            "positions": [
                0.07484289327058047,
                -0.7480694927291263,
                1.836905685297104,
                1.8497009362069348,
                -0.06431324889648549,
                0.06516679822363902
            ]
        },
        {
            "positions": [
                0.12259129646001109,
                -0.7749221003554271,
                1.9871676530206688,
                1.9066649486408274,
                -0.1297099320552443,
                0.02301759466877218
            ]
        }
    ]
}