{
    "goal": {
        "global_pose": {
            "orientation": {
                "w": 0.5084816217422485,
                "x": -0.49083608388900757,
                "y": 0.5182115435600281,
                "z": -0.4816462993621826
            },
            "position": {
                "x": 0.5540239810943604,
                "y": 0.030875300988554955,
                "z": 0.16403168439865112
            }
        },
        "name": "move_to_storage_A"
    },
    "id": "BiTRRT_move_to_storage_A_127",
    "joint_names": [
        "shoulder_pan_joint",
        "shoulder_lift_joint",
        "elbow_joint",
        "wrist_1_joint",
        "wrist_2_joint",
        "wrist_3_joint"
    ],
    "metrics": {
        "cart_traj_len": 0.3524787331287446,
        "distance_elbow_joint": 0.44832866581790576,
        "distance_shoulder_lift_joint": 0.23686194885409573,
        "distance_shoulder_pan_joint": 0.4622619075319964,
        "distance_wrist_1_joint": 0.2330840872418659,
        "distance_wrist_2_joint": 1.0928224383498126,
        "distance_wrist_3_joint": 0.0971995687305669,
        "smoothness": 4.440892098500626e-16,
        "time": 0.038797736,
        "traj_len": 1.6032961724292376,
        "weighted_distance": 2.022588509702123
    },
    "planner": "BiTRRT",
    "start": {
        "state": {
            "elbow_joint": 1.9715463870305268,
            "shoulder_lift_joint": -1.1394903361783484,
            "shoulder_pan_joint": 0.12281147578464417,
            "wrist_1_joint": -0.7804599489681411,
            "wrist_2_joint": 0.12958660307563738,
            "wrist_3_joint": -3.1924946282119055
        }
    },
    "waypoints": [
        {
            "positions": [
                0.12281147578464417,
                -1.1394903361783484,
                1.9715463870305268,
                -0.7804599489681411,
                0.12958660307563738,
                -3.1924946282119055
            ]
        },
        {
            "positions": [
                0.0567740604229304,
                -1.1733277574432193,
                2.0355933392902275,
                -0.8137576757169791,
                0.28570409426846777,
                -3.17860897553611
            ]
        },
        {
            "positions": [
                -0.009263354938783372,
                -1.20716517870809,
                2.0996402915499286,
                -0.847055402465817,
                0.4418215854612981,
                -3.164723322860315
            ]
        },
        {
            "positions": [
                -0.07530077030049713,
                -1.2410025999729608,
                2.1636872438096293,
                -0.880353129214655,
                0.5979390766541285,
                -3.1508376701845195
            ]
        },
        {
            "positions": [
                -0.1413381856622109,
                -1.2748400212378317,
                2.22773419606933,
                -0.913650855963493,
                0.7540565678469588,
                -3.1369520175087247
            ]
        },
        {
            "positions": [
                -0.20737560102392472,
                -1.3086774425027026,
                2.291781148329031,
                -0.946948582712331,
                0.9101740590397893,
                -3.1230663648329293
            ]
        },
        {
            "positions": [
                -0.2734130163856384,
                -1.3425148637675732,
                2.355828100588732,
                -0.980246309461169,
                1.0662915502326196,
                -3.109180712157134
            ]
        },
        {
            "positions": [
                -0.33945043174735223,
                -1.3763522850324441,
                2.4198750528484325,
                -1.013544036210007,
                1.22240904142545,
                -3.0952950594813387
            ]
        }
    ]
}