{
    "goal": {
        "global_pose": {
            "orientation": {
                "w": 0.5084816217422485,
                "x": -0.49083608388900757,
                "y": 0.5182115435600281,
                "z": -0.4816462993621826
            },
            "position": {
                "x": 0.5540239810943604,
                "y": 0.030875300988554955,
                "z": 0.16403168439865112
            }
        },
        "name": "move_to_storage_A"
    },
    "id": "BiTRRT_move_to_storage_A_130",
    "joint_names": [
        "shoulder_pan_joint",
        "shoulder_lift_joint",
        "elbow_joint",
        "wrist_1_joint",
        "wrist_2_joint",
        "wrist_3_joint"
    ],
    "metrics": {
        "cart_traj_len": 0.35339921722008627,
        "distance_elbow_joint": 0.4489764194268169,
        "distance_shoulder_lift_joint": 0.234970090399655,
        "distance_shoulder_pan_joint": 0.461729364455748,
        "distance_wrist_1_joint": 0.24012370843829,
        "distance_wrist_2_joint": 1.1010524918240854,
        "distance_wrist_3_joint": 0.088599848418073,
        "smoothness": 1.1102230263833737e-15,
        "time": 0.038464028,
        "traj_len": 1.6048214613977059,
        "weighted_distance": 2.023320987896184
    },
    "planner": "BiTRRT",
    "start": {
        "state": {
            "elbow_joint": 1.9715463870305268,
            "shoulder_lift_joint": -1.1394903361783484,
            "shoulder_pan_joint": 0.12281147578464417,
            "wrist_1_joint": -0.7804599489681411,
            "wrist_2_joint": 0.12958660307563738,
            "wrist_3_joint": -3.1924946282119055
        }
    },
    "waypoints": [
        {
            "positions": [
                0.12281147578464417,
                -1.1394903361783484,
                1.9715463870305268,
                -0.7804599489681411,
                0.12958660307563738,
                -3.1924946282119055
            ]
        },
        {
            "positions": [
                0.0568501380052516,
                -1.1730574919497276,
                2.035685875520072,
                -0.8147633358878968,
                0.2868798161933639,
                -3.179837507009324
            ]
        },
        {
            "positions": [
                -0.009111199774140974,
                -1.206624647721107,
                2.099825364009617,
                -0.8490667228076525,
                0.4441730293110904,
                -3.1671803858067418
            ]
        },
        {
            "positions": [
                -0.07507253755353353,
                -1.2401918034924861,
                2.1639648524991624,
                -0.8833701097274083,
                0.6014662424288169,
                -3.15452326460416
            ]
        },
        {
            "positions": [
                -0.1410338753329261,
                -1.2737589592638656,
                2.2281043409887076,
                -0.9176734966471639,
                0.7587594555465433,
                -3.141866143401578
            ]
        },
        {
            "positions": [
                -0.20699521311231872,
                -1.3073261150352449,
                2.2922438294782532,
                -0.9519768835669197,
                0.9160526686642698,
                -3.1292090221989963
            ]
        },
        {
            "positions": [
                -0.2729565508917112,
                -1.3408932708066241,
                2.3563833179677984,
                -0.9862802704866753,
                1.0733458817819963,
                -3.116551900996414
            ]
        },
        {
            "positions": [
                -0.33891788867110384,
                -1.3744604265780034,
                2.4205228064573436,
                -1.020583657406431,
                1.2306390948997228,
                -3.1038947797938325
            ]
        }
    ]
}