{
    "goal": {
        "global_pose": {
            "orientation": {
                "w": 0.7031023502349854,
                "x": -0.7110244035720825,
                "y": 0.007748599164187908,
                "z": 0.005598929710686207
            },
            "position": {
                "x": 0.11585023208521307,
                "y": 0.44412534475326537,
                "z": 0.3711530566215515
            }
        },
        "name": "move_to_auspresseinheit_A"
    },
    "id": "BiTRRT_move_to_auspresseinheit_A_21",
    "joint_names": [
        "shoulder_pan_joint",
        "shoulder_lift_joint",
        "elbow_joint",
        "wrist_1_joint",
        "wrist_2_joint",
        "wrist_3_joint"
    ],
    "metrics": {
        "cart_traj_len": 0.7075416374983646,
        "distance_elbow_joint": 0.2580385629947073,
        "distance_shoulder_lift_joint": 0.5320623547806278,
        "distance_shoulder_pan_joint": 1.0410351806555889,
        "distance_wrist_1_joint": 0.9809580028395668,
        "distance_wrist_2_joint": 0.9670134809674419,
        "distance_wrist_3_joint": 0.0623907429357895,
        "smoothness": 0.9437555875974015,
        "time": 0.053040973000000005,
        "traj_len": 1.9599740623726944,
        "weighted_distance": 2.431923373556887
    },
    "planner": "BiTRRT",
    "start": {
        "state": {
            "elbow_joint": 2.422574709923281,
            "shoulder_lift_joint": -1.3736533754116391,
            "shoulder_pan_joint": -0.33786336945926293,
            "wrist_1_joint": -1.0288603412921917,
            "wrist_2_joint": 1.2330224858903978,
            "wrist_3_joint": -3.094022268022082
        }
    },
    "waypoints": [
        {
            "positions": [
                -0.33786336945926293,
                -1.3736533754116391,
                2.422574709923281,
                -1.0288603412921917,
                1.2330224858903978,
                -3.094022268022082
            ]
        },
        {
            "positions": [
                -0.299044318206146,
                -1.4138031865772618,
                2.3905174080129763,
                -0.9134788637692126,
                1.121628333068117,
                -3.0915114792796214
            ]
        },
        {
            "positions": [
                -0.26022526695302906,
                -1.4539529977428844,
                2.3584601061026715,
                -0.7980973862462336,
                1.0102341802458363,
                -3.0890006905371603
            ]
        },
        {
            "positions": [
                -0.22140621569991215,
                -1.4941028089085073,
                2.3264028041923663,
                -0.6827159087232546,
                0.8988400274235556,
                -3.0864899017946996
            ]
        },
        {
            "positions": [
                -0.18258716444679524,
                -1.53425262007413,
                2.2943455022820616,
                -0.5673344312002755,
                0.7874458746012749,
                -3.083979113052239
            ]
        },
        {
            "positions": [
                -0.09362051493515161,
                -1.5926921545520556,
                2.290274396780576,
                -0.48854543770098213,
                0.7112966142846131,
                -3.087059171386417
            ]
        },
        {
            "positions": [
                -0.004653865423507986,
                -1.6511316890299814,
                2.286203291279091,
                -0.40975644420168883,
                0.6351473539679513,
                -3.090139229720595
            ]
        },
        {
            "positions": [
                0.08431278408813564,
                -1.709571223507907,
                2.2821321857776056,
                -0.3309674507023955,
                0.5589980936512895,
                -3.0932192880547733
            ]
        },
        {
            "positions": [
                0.17327943359977926,
                -1.7680107579858326,
                2.27806108027612,
                -0.25217845720310217,
                0.4828488333346277,
                -3.0962993463889514
            ]
        },
        {
            "positions": [
                0.30575252799891595,
                -1.802437001037441,
                2.3064423136130068,
                -0.3032474868907215,
                0.5370587904375457,
                -3.10630618504626
            ]
        },
        {
            "positions": [
                0.43822562239805263,
                -1.8368632440890498,
                2.3348235469498935,
                -0.35431651657834085,
                0.5912687475404637,
                -3.1163130237035683
            ]
        },
        {
            "positions": [
                0.5706987167971893,
                -1.8712894871406585,
                2.3632047802867797,
                -0.4053855462659602,
                0.6454787046433815,
                -3.1263198623608766
            ]
        },
        {
            "positions": [
                0.703171811196326,
                -1.905715730192267,
                2.3915860136236664,
                -0.4564545759535795,
                0.6996886617462995,
                -3.1363267010181852
            ]
        }
    ]
}