{
    "goal": {
        "global_pose": {
            "orientation": {
                "w": 0.7031023502349854,
                "x": -0.7110244035720825,
                "y": 0.007748599164187908,
                "z": 0.005598929710686207
            },
            "position": {
                "x": 0.11585023208521307,
                "y": 0.44412534475326537,
                "z": 0.3711530566215515
            }
        },
        "name": "move_to_auspresseinheit_A"
    },
    "id": "BiTRRT_move_to_auspresseinheit_A_69",
    "joint_names": [
        "shoulder_pan_joint",
        "shoulder_lift_joint",
        "elbow_joint",
        "wrist_1_joint",
        "wrist_2_joint",
        "wrist_3_joint"
    ],
    "metrics": {
        "cart_traj_len": 0.68110315280063,
        "distance_elbow_joint": 0.027496079956731645,
        "distance_shoulder_lift_joint": 0.5368008812659253,
        "distance_shoulder_pan_joint": 1.041573931058307,
        "distance_wrist_1_joint": 0.5489217731315247,
        "distance_wrist_2_joint": 0.5339444914684501,
        "distance_wrist_3_joint": 0.21908373313222373,
        "smoothness": 0.20945486401078997,
        "time": 0.037527740000000004,
        "traj_len": 1.7052333828579485,
        "weighted_distance": 2.1044844073733557
    },
    "planner": "BiTRRT",
    "start": {
        "state": {
            "elbow_joint": 2.422574709923281,
            "shoulder_lift_joint": -1.3736533754116391,
            "shoulder_pan_joint": -0.33786336945926293,
            "wrist_1_joint": -1.0288603412921917,
            "wrist_2_joint": 1.2330224858903978,
            "wrist_3_joint": -3.094022268022082
        }
    },
    "waypoints": [
        {
            "positions": [
                -0.33786336945926293,
                -1.3736533754116391,
                2.422574709923281,
                -1.0288603412921917,
                1.2330224858903978,
                -3.094022268022082
            ]
        },
        {
            "positions": [
                -0.2534603089574746,
                -1.418512879172646,
                2.417051195070998,
                -0.9347816353909998,
                1.1866865985395862,
                -3.0622475608149764
            ]
        },
        {
            "positions": [
                -0.1690572484556863,
                -1.463372382933653,
                2.411527680218715,
                -0.840702929489808,
                1.140350711188775,
                -3.030472853607871
            ]
        },
        {
            "positions": [
                -0.08465418795389798,
                -1.5082318866946598,
                2.406004165366432,
                -0.746624223588616,
                1.0940148238379634,
                -2.9986981464007654
            ]
        },
        {
            "positions": [
                0.046739936971592344,
                -1.5752689483584772,
                2.404183242799785,
                -0.7021766143506245,
                1.0281920189352942,
                -3.01932474831925
            ]
        },
        {
            "positions": [
                0.17813406189708267,
                -1.6423060100222946,
                2.402362320233138,
                -0.657729005112633,
                0.9623692140326249,
                -3.039951350237734
            ]
        },
        {
            "positions": [
                0.309528186822573,
                -1.7093430716861122,
                2.4005413976664904,
                -0.6132813958746415,
                0.8965464091299555,
                -3.060577952156219
            ]
        },
        {
            "positions": [
                0.4409223117480633,
                -1.7763801333499294,
                2.3987204750998434,
                -0.5688337866366501,
                0.8307236042272863,
                -3.0812045540747035
            ]
        },
        {
            "positions": [
                0.5723164366735537,
                -1.843417195013747,
                2.3968995525331964,
                -0.5243861773986586,
                0.7649007993246169,
                -3.101831155993188
            ]
        },
        {
            "positions": [
                0.703710561599044,
                -1.9104542566775644,
                2.3950786299665494,
                -0.47993856816066705,
                0.6990779944219476,
                -3.1224577579116723
            ]
        }
    ]
}