{
    "goal": {
        "global_pose": {
            "orientation": {
                "w": 0.7031023502349854,
                "x": -0.7110244035720825,
                "y": 0.007748599164187908,
                "z": 0.005598929710686207
            },
            "position": {
                "x": 0.11585023208521307,
                "y": 0.44412534475326537,
                "z": 0.3711530566215515
            }
        },
        "name": "move_to_auspresseinheit_A"
    },
    "id": "BiTRRT_move_to_auspresseinheit_A_106",
    "joint_names": [
        "shoulder_pan_joint",
        "shoulder_lift_joint",
        "elbow_joint",
        "wrist_1_joint",
        "wrist_2_joint",
        "wrist_3_joint"
    ],
    "metrics": {
        "cart_traj_len": 0.6767114779843163,
        "distance_elbow_joint": 0.15620969269294882,
        "distance_shoulder_lift_joint": 0.6469422062541648,
        "distance_shoulder_pan_joint": 1.0404054845271609,
        "distance_wrist_1_joint": 0.8133417784302379,
        "distance_wrist_2_joint": 0.6305808144342313,
        "distance_wrist_3_joint": 0.22442602570175518,
        "smoothness": 1.2146360115968609,
        "time": 0.065198684,
        "traj_len": 1.8740080047962702,
        "weighted_distance": 2.3247969043141117
    },
    "planner": "BiTRRT",
    "start": {
        "state": {
            "elbow_joint": 2.422574709923281,
            "shoulder_lift_joint": -1.3736533754116391,
            "shoulder_pan_joint": -0.33786336945926293,
            "wrist_1_joint": -1.0288603412921917,
            "wrist_2_joint": 1.2330224858903978,
            "wrist_3_joint": -3.094022268022082
        }
    },
    "waypoints": [
        {
            "positions": [
                -0.33786336945926293,
                -1.3736533754116391,
                2.422574709923281,
                -1.0288603412921917,
                1.2330224858903978,
                -3.094022268022082
            ]
        },
        {
            "positions": [
                -0.23608442765215557,
                -1.4475477821978757,
                2.430649897610057,
                -0.9433485155538066,
                1.1601331165140623,
                -3.0828962123956445
            ]
        },
        {
            "positions": [
                -0.1343054858450482,
                -1.521442188984112,
                2.4387250852968325,
                -0.8578366898154216,
                1.0872437471377265,
                -3.0717701567692073
            ]
        },
        {
            "positions": [
                -0.03252654403794081,
                -1.5953365957703487,
                2.4468002729836082,
                -0.7723248640770366,
                1.014354377761391,
                -3.0606441011427696
            ]
        },
        {
            "positions": [
                0.06925239776916653,
                -1.669231002556585,
                2.454875460670384,
                -0.6868130383386515,
                0.9414650083850554,
                -3.049518045516332
            ]
        },
        {
            "positions": [
                0.17103133957627387,
                -1.7431254093428217,
                2.4629506483571597,
                -0.6013012126002664,
                0.8685756390087198,
                -3.038391989889895
            ]
        },
        {
            "positions": [
                0.2728102813833813,
                -1.8170198161290583,
                2.4710258360439354,
                -0.5157893868618814,
                0.7956862696323843,
                -3.027265934263457
            ]
        },
        {
            "positions": [
                0.37458922319048865,
                -1.8909142229152947,
                2.479101023730711,
                -0.43027756112349635,
                0.7227969002560487,
                -3.01613987863702
            ]
        },
        {
            "positions": [
                0.47636816499759593,
                -1.9648086297015313,
                2.487176211417487,
                -0.34476573538511124,
                0.6499075308797131,
                -3.0050138230105823
            ]
        },
        {
            "positions": [
                0.5894551400327469,
                -1.936915153719395,
                2.4413721158181154,
                -0.40938932164668995,
                0.6736404605914864,
                -3.07272261335571
            ]
        },
        {
            "positions": [
                0.7025421150678979,
                -1.9090216777372586,
                2.395568020218744,
                -0.4740129079082686,
                0.6973733903032597,
                -3.1404314037008376
            ]
        }
    ]
}