{
    "goal": {
        "global_pose": {
            "orientation": {
                "w": 0.7031023502349854,
                "x": -0.7110244035720825,
                "y": 0.007748599164187908,
                "z": 0.005598929710686207
            },
            "position": {
                "x": 0.11585023208521307,
                "y": 0.44412534475326537,
                "z": 0.3711530566215515
            }
        },
        "name": "move_to_auspresseinheit_A"
    },
    "id": "BiTRRT_move_to_auspresseinheit_A_122",
    "joint_names": [
        "shoulder_pan_joint",
        "shoulder_lift_joint",
        "elbow_joint",
        "wrist_1_joint",
        "wrist_2_joint",
        "wrist_3_joint"
    ],
    "metrics": {
        "cart_traj_len": 1.9683531111779196,
        "distance_elbow_joint": 0.6227079398114692,
        "distance_shoulder_lift_joint": 1.9143623211923513,
        "distance_shoulder_pan_joint": 4.956562913917184,
        "distance_wrist_1_joint": 0.5470483757535358,
        "distance_wrist_2_joint": 2.7561462169965893,
        "distance_wrist_3_joint": 10.16082025504429,
        "smoothness": 0.5948427785370394,
        "time": 0.182883513,
        "traj_len": 4.577952383185677,
        "weighted_distance": 6.677011541517215
    },
    "planner": "BiTRRT",
    "start": {
        "state": {
            "elbow_joint": 2.422574709923281,
            "shoulder_lift_joint": -1.3736533754116391,
            "shoulder_pan_joint": -0.33786336945926293,
            "wrist_1_joint": -1.0288603412921917,
            "wrist_2_joint": 1.2330224858903978,
            "wrist_3_joint": -3.094022268022082
        }
    },
    "waypoints": [
        {
            "positions": [
                -0.33786336945926293,
                -1.3736533754116391,
                2.422574709923281,
                -1.0288603412921917,
                1.2330224858903978,
                -3.094022268022082
            ]
        },
        {
            "positions": [
                -0.23066682630539348,
                -1.417416174123382,
                2.433209370458161,
                -1.016754776592739,
                1.2728928386824256,
                -2.913189880246242
            ]
        },
        {
            "positions": [
                -0.12347028315152406,
                -1.461178972835125,
                2.4438440309930414,
                -1.0046492118932862,
                1.3127631914744535,
                -2.7323574924704017
            ]
        },
        {
            "positions": [
                -0.016273739997654635,
                -1.5049417715468678,
                2.4544786915279215,
                -0.9925436471938333,
                1.3526335442664814,
                -2.5515251046945617
            ]
        },
        {
            "positions": [
                0.09092280315621482,
                -1.5487045702586106,
                2.4651133520628017,
                -0.9804380824943804,
                1.392503897058509,
                -2.3706927169187217
            ]
        },
        {
            "positions": [
                0.19811934631008427,
                -1.5924673689703535,
                2.475748012597682,
                -0.9683325177949276,
                1.432374249850537,
                -2.1898603291428813
            ]
        },
        {
            "positions": [
                0.30531588946395366,
                -1.6362301676820965,
                2.486382673132562,
                -0.9562269530954748,
                1.4722446026425648,
                -2.0090279413670413
            ]
        },
        {
            "positions": [
                0.41251243261782317,
                -1.6799929663938393,
                2.497017333667442,
                -0.9441213883960219,
                1.5121149554345927,
                -1.8281955535912011
            ]
        },
        {
            "positions": [
                0.5197089757716926,
                -1.7237557651055821,
                2.5076519942023223,
                -0.9320158236965691,
                1.5519853082266206,
                -1.6473631658153611
            ]
        },
        {
            "positions": [
                0.6269055189255621,
                -1.7675185638173252,
                2.5182866547372025,
                -0.9199102589971162,
                1.5918556610186485,
                -1.4665307780395207
            ]
        },
        {
            "positions": [
                0.7341020620794314,
                -1.811281362529068,
                2.5289213152720826,
                -0.9078046942976634,
                1.6317260138106762,
                -1.2856983902636807
            ]
        },
        {
            "positions": [
                0.8412986052333009,
                -1.8550441612408108,
                2.539555975806963,
                -0.8956991295982105,
                1.6715963666027043,
                -1.1048660024878405
            ]
        },
        {
            "positions": [
                0.9484951483871702,
                -1.8988069599525539,
                2.550190636341843,
                -0.8835935648987577,
                1.711466719394732,
                -0.9240336147120005
            ]
        },
        {
            "positions": [
                1.05569169154104,
                -1.9425697586642967,
                2.560825296876723,
                -0.8714880001993048,
                1.7513370721867598,
                -0.7432012269361601
            ]
        },
        {
            "positions": [
                1.1628882346949092,
                -1.9863325573760395,
                2.5714599574116033,
                -0.859382435499852,
                1.7912074249787877,
                -0.5623688391603201
            ]
        },
        {
            "positions": [
                1.2700847778487785,
                -2.0300953560877826,
                2.5820946179464834,
                -0.8472768708003993,
                1.8310777777708156,
                -0.3815364513844801
            ]
        },
        {
            "positions": [
                1.377281321002648,
                -2.073858154799525,
                2.5927292784813636,
                -0.8351713061009464,
                1.8709481305628435,
                -0.20070406360864013
            ]
        },
        {
            "positions": [
                1.4844778641565173,
                -2.1176209535112682,
                2.6033639390162437,
                -0.8230657414014936,
                1.9108184833548711,
                -0.019871675832799696
            ]
        },
        {
            "positions": [
                1.5916744073103872,
                -2.1613837522230113,
                2.613998599551124,
                -0.8109601767020407,
                1.9506888361468993,
                0.16096071194304074
            ]
        },
        {
            "positions": [
                1.6988709504642567,
                -2.205146550934754,
                2.624633260086004,
                -0.7988546120025879,
                1.990559188938927,
                0.3417930997188807
            ]
        },
        {
            "positions": [
                1.8060674936181258,
                -2.248909349646497,
                2.635267920620884,
                -0.7867490473031351,
                2.030429541730955,
                0.5226254874947207
            ]
        },
        {
            "positions": [
                1.9132640367719953,
                -2.29267214835824,
                2.6459025811557644,
                -0.7746434826036822,
                2.0702998945229827,
                0.7034578752705607
            ]
        },
        {
            "positions": [
                2.020460579925865,
                -2.3364349470699826,
                2.6565372416906445,
                -0.7625379179042293,
                2.1101702473150104,
                0.8842902630464011
            ]
        },
        {
            "positions": [
                2.127657123079734,
                -2.380197745781725,
                2.6671719022255247,
                -0.7504323532047765,
                2.1500406001070385,
                1.0651226508222407
            ]
        },
        {
            "positions": [
                2.2348536662336036,
                -2.423960544493468,
                2.677806562760405,
                -0.7383267885053237,
                2.189910952899066,
                1.245955038598081
            ]
        },
        {
            "positions": [
                2.3420502093874735,
                -2.4677233432052113,
                2.688441223295285,
                -0.7262212238058708,
                2.2297813056910942,
                1.4267874263739215
            ]
        },
        {
            "positions": [
                2.449246752541343,
                -2.5114861419169543,
                2.699075883830165,
                -0.714115659106418,
                2.269651658483122,
                1.607619814149762
            ]
        },
        {
            "positions": [
                2.556443295695212,
                -2.5552489406286973,
                2.7097105443650453,
                -0.7020100944069652,
                2.30952201127515,
                1.7884522019256015
            ]
        },
        {
            "positions": [
                2.6636398388490816,
                -2.59901173934044,
                2.7203452048999255,
                -0.6899045297075124,
                2.3493923640671777,
                1.969284589701442
            ]
        },
        {
            "positions": [
                2.588445234787203,
                -2.5725115871379955,
                2.707847610867817,
                -0.6819009695471717,
                2.2863240433433387,
                1.7732263821121816
            ]
        },
        {
            "positions": [
                2.513250630725325,
                -2.5460114349355516,
                2.6953500168357083,
                -0.6738974093868311,
                2.2232557226195,
                1.5771681745229214
            ]
        },
        {
            "positions": [
                2.4380560266634466,
                -2.519511282733107,
                2.6828524228035997,
                -0.6658938492264905,
                2.1601874018956613,
                1.381109966933661
            ]
        },
        {
            "positions": [
                2.362861422601568,
                -2.493011130530663,
                2.670354828771491,
                -0.6578902890661499,
                2.0971190811718228,
                1.1850517593444008
            ]
        },
        {
            "positions": [
                2.2876668185396896,
                -2.466510978328219,
                2.657857234739382,
                -0.6498867289058092,
                2.034050760447984,
                0.9889935517551405
            ]
        },
        {
            "positions": [
                2.2124722144778115,
                -2.4400108261257745,
                2.6453596407072735,
                -0.6418831687454686,
                1.970982439724145,
                0.7929353441658802
            ]
        },
        {
            "positions": [
                2.137277610415933,
                -2.41351067392333,
                2.632862046675165,
                -0.6338796085851279,
                1.9079141190003064,
                0.5968771365766199
            ]
        },
        {
            "positions": [
                2.0620830063540545,
                -2.387010521720886,
                2.6203644526430563,
                -0.6258760484247873,
                1.8448457982764674,
                0.4008189289873596
            ]
        },
        {
            "positions": [
                1.9868884022921764,
                -2.3605103695184417,
                2.6078668586109477,
                -0.6178724882644467,
                1.781777477552629,
                0.2047607213980993
            ]
        },
        {
            "positions": [
                1.911693798230298,
                -2.3340102173159973,
                2.595369264578839,
                -0.6098689281041061,
                1.71870915682879,
                0.008702513808839019
            ]
        },
        {
            "positions": [
                1.8364991941684194,
                -2.3075100651135534,
                2.5828716705467305,
                -0.6018653679437654,
                1.6556408361049515,
                -0.18735569378042127
            ]
        },
        {
            "positions": [
                1.761304590106541,
                -2.281009912911109,
                2.570374076514622,
                -0.5938618077834248,
                1.5925725153811126,
                -0.38341390136968156
            ]
        },
        {
            "positions": [
                1.686109986044663,
                -2.2545097607086646,
                2.557876482482513,
                -0.5858582476230841,
                1.5295041946572738,
                -0.5794721089589419
            ]
        },
        {
            "positions": [
                1.6109153819827844,
                -2.2280096085062207,
                2.5453788884504043,
                -0.5778546874627435,
                1.466435873933435,
                -0.7755303165482021
            ]
        },
        {
            "positions": [
                1.535720777920906,
                -2.2015094563037763,
                2.5328812944182957,
                -0.569851127302403,
                1.4033675532095964,
                -0.971588524137462
            ]
        },
        {
            "positions": [
                1.4605261738590276,
                -2.175009304101332,
                2.520383700386187,
                -0.5618475671420623,
                1.3402992324857574,
                -1.1676467317267227
            ]
        },
        {
            "positions": [
                1.3853315697971493,
                -2.148509151898888,
                2.5078861063540785,
                -0.5538440069817216,
                1.2772309117619187,
                -1.363704939315983
            ]
        },
        {
            "positions": [
                1.310136965735271,
                -2.1220089996964435,
                2.49538851232197,
                -0.545840446821381,
                1.21416259103808,
                -1.5597631469052433
            ]
        },
        {
            "positions": [
                1.2349423616733926,
                -2.095508847493999,
                2.4828909182898613,
                -0.5378368866610403,
                1.1510942703142413,
                -1.7558213544945036
            ]
        },
        {
            "positions": [
                1.159747757611514,
                -2.069008695291555,
                2.4703933242577527,
                -0.5298333265006998,
                1.0880259495904026,
                -1.951879562083764
            ]
        },
        {
            "positions": [
                1.0845531535496358,
                -2.042508543089111,
                2.457895730225644,
                -0.521829766340359,
                1.0249576288665638,
                -2.147937769673024
            ]
        },
        {
            "positions": [
                1.0093585494877575,
                -2.0160083908866664,
                2.4453981361935355,
                -0.5138262061800185,
                0.9618893081427251,
                -2.3439959772622845
            ]
        },
        {
            "positions": [
                0.9341639454258792,
                -1.9895082386842222,
                2.4329005421614265,
                -0.5058226460196779,
                0.8988209874188864,
                -2.5400541848515448
            ]
        },
        {
            "positions": [
                0.8589693413640005,
                -1.963008086481778,
                2.420402948129318,
                -0.4978190858593372,
                0.8357526666950474,
                -2.736112392440805
            ]
        },
        {
            "positions": [
                0.7837747373021222,
                -1.9365079342793337,
                2.4079053540972093,
                -0.48981552569899656,
                0.7726843459712087,
                -2.9321706000300654
            ]
        },
        {
            "positions": [
                0.7085801332402439,
                -1.9100077820768895,
                2.3954077600651007,
                -0.48181196553865596,
                0.7096160252473701,
                -3.128228807619325
            ]
        }
    ]
}