{
    "goal": {
        "global_pose": {
            "orientation": {
                "w": 0.5084816217422485,
                "x": -0.49083608388900757,
                "y": 0.5182115435600281,
                "z": -0.4816462993621826
            },
            "position": {
                "x": 0.5540239810943604,
                "y": 0.030875300988554955,
                "z": 0.16403168439865112
            }
        },
        "name": "move_to_storage_A"
    },
    "id": "BiTRRT_move_to_storage_A_7",
    "joint_names": [
        "shoulder_pan_joint",
        "shoulder_lift_joint",
        "elbow_joint",
        "wrist_1_joint",
        "wrist_2_joint",
        "wrist_3_joint"
    ],
    "metrics": {
        "cart_traj_len": 0.3529035590374337,
        "distance_elbow_joint": 0.4506736191374401,
        "distance_shoulder_lift_joint": 0.2347029346508238,
        "distance_shoulder_pan_joint": 0.45767469401837746,
        "distance_wrist_1_joint": 0.24176409911223262,
        "distance_wrist_2_joint": 1.1154285132775754,
        "distance_wrist_3_joint": 0.09160271711080181,
        "smoothness": 6.661338165333112e-16,
        "time": 0.030943111000000002,
        "traj_len": 1.6099212953766564,
        "weighted_distance": 2.032792321885997
    },
    "planner": "BiTRRT",
    "start": {
        "state": {
            "elbow_joint": 1.9715463870305268,
            "shoulder_lift_joint": -1.1394903361783484,
            "shoulder_pan_joint": 0.12281147578464417,
            "wrist_1_joint": -0.7804599489681411,
            "wrist_2_joint": 0.12958660307563738,
            "wrist_3_joint": -3.1924946282119055
        }
    },
    "waypoints": [
        {
            "positions": [
                0.12281147578464417,
                -1.1394903361783484,
                1.9715463870305268,
                -0.7804599489681411,
                0.12958660307563738,
                -3.1924946282119055
            ]
        },
        {
            "positions": [
                0.057429376639161686,
                -1.1730193268427518,
                2.0359283326215896,
                -0.8149976774127458,
                0.2889335335438624,
                -3.179408525767505
            ]
        },
        {
            "positions": [
                -0.0079527225063208,
                -1.2065483175071552,
                2.1003102782126524,
                -0.8495354058573504,
                0.44828046401208743,
                -3.166322423323105
            ]
        },
        {
            "positions": [
                -0.07333482165180329,
                -1.2400773081715586,
                2.164692223803715,
                -0.884073134301955,
                0.6076273944803126,
                -3.1532363208787046
            ]
        },
        {
            "positions": [
                -0.13871692079728576,
                -1.273606298835962,
                2.229074169394778,
                -0.9186108627465597,
                0.7669743249485376,
                -3.1401502184343046
            ]
        },
        {
            "positions": [
                -0.2040990199427683,
                -1.3071352895003654,
                2.2934561149858412,
                -0.9531485911911644,
                0.9263212554167627,
                -3.127064115989904
            ]
        },
        {
            "positions": [
                -0.26948111908825073,
                -1.3406642801647688,
                2.357838060576904,
                -0.987686319635769,
                1.0856681858849877,
                -3.113978013545504
            ]
        },
        {
            "positions": [
                -0.3348632182337333,
                -1.3741932708291722,
                2.422220006167967,
                -1.0222240480803737,
                1.2450151163532128,
                -3.1008919111011037
            ]
        }
    ]
}