{
    "goal": {
        "global_pose": {
            "orientation": {
                "w": 0.7031023502349854,
                "x": -0.7110244035720825,
                "y": 0.007748599164187908,
                "z": 0.005598929710686207
            },
            "position": {
                "x": 0.11585023208521307,
                "y": 0.44412534475326537,
                "z": 0.3711530566215515
            }
        },
        "name": "move_to_auspresseinheit_A"
    },
    "id": "BiTRRT_move_to_auspresseinheit_A_22",
    "joint_names": [
        "shoulder_pan_joint",
        "shoulder_lift_joint",
        "elbow_joint",
        "wrist_1_joint",
        "wrist_2_joint",
        "wrist_3_joint"
    ],
    "metrics": {
        "cart_traj_len": 0.6537583312833473,
        "distance_elbow_joint": 0.1724196468953636,
        "distance_shoulder_lift_joint": 0.5347458172987543,
        "distance_shoulder_pan_joint": 1.0450981746125272,
        "distance_wrist_1_joint": 0.621365211906249,
        "distance_wrist_2_joint": 0.5314046869107054,
        "distance_wrist_3_joint": 0.8988367056114099,
        "smoothness": 0.661145172949934,
        "time": 0.08683559699999999,
        "traj_len": 1.9503513127729089,
        "weighted_distance": 2.5989062224856796
    },
    "planner": "BiTRRT",
    "start": {
        "state": {
            "elbow_joint": 2.422574709923281,
            "shoulder_lift_joint": -1.3736533754116391,
            "shoulder_pan_joint": -0.33786336945926293,
            "wrist_1_joint": -1.0288603412921917,
            "wrist_2_joint": 1.2330224858903978,
            "wrist_3_joint": -3.094022268022082
        }
    },
    "waypoints": [
        {
            "positions": [
                -0.33786336945926293,
                -1.3736533754116391,
                2.422574709923281,
                -1.0288603412921917,
                1.2330224858903978,
                -3.094022268022082
            ]
        },
        {
            "positions": [
                -0.2681608136810176,
                -1.4392648075741201,
                2.4329882533505427,
                -0.9456763476518983,
                1.1792047761240783,
                -3.031872780218501
            ]
        },
        {
            "positions": [
                -0.19845825790277224,
                -1.5048762397366011,
                2.443401796777805,
                -0.8624923540116048,
                1.1253870663577588,
                -2.969723292414919
            ]
        },
        {
            "positions": [
                -0.1287557021245269,
                -1.5704876718990821,
                2.4538153402050664,
                -0.7793083603713115,
                1.0715693565914393,
                -2.9075738046113377
            ]
        },
        {
            "positions": [
                -0.05905314634628156,
                -1.6360991040615631,
                2.4642288836323285,
                -0.696124366731018,
                1.0177516468251198,
                -2.8454243168077564
            ]
        },
        {
            "positions": [
                0.010649409431963797,
                -1.7017105362240443,
                2.47464242705959,
                -0.6129403730907246,
                0.9639339370588003,
                -2.783274829004175
            ]
        },
        {
            "positions": [
                0.08035196521020915,
                -1.7673219683865253,
                2.4850559704868522,
                -0.5297563794504312,
                0.9101162272924808,
                -2.7211253412005934
            ]
        },
        {
            "positions": [
                0.1500545209884545,
                -1.8329334005490063,
                2.495469513914114,
                -0.4465723858101377,
                0.8562985175261613,
                -2.658975853397012
            ]
        },
        {
            "positions": [
                0.28934959202965693,
                -1.8517998485893532,
                2.470588303187981,
                -0.45634169991618645,
                0.817628337889544,
                -2.774923426143597
            ]
        },
        {
            "positions": [
                0.4286446630708594,
                -1.8706662966296999,
                2.4457070924618485,
                -0.4661110140222352,
                0.7789581582529268,
                -2.8908709988901817
            ]
        },
        {
            "positions": [
                0.5679397341120619,
                -1.8895327446700465,
                2.420825881735716,
                -0.475880328128284,
                0.7402879786163096,
                -3.006818571636767
            ]
        },
        {
            "positions": [
                0.7072348051532643,
                -1.9083991927103934,
                2.395944671009583,
                -0.48564964223433277,
                0.7016177989796923,
                -3.122766144383352
            ]
        }
    ]
}