{
    "goal": {
        "global_pose": {
            "orientation": {
                "w": 0.7031023502349854,
                "x": -0.7110244035720825,
                "y": 0.007748599164187908,
                "z": 0.005598929710686207
            },
            "position": {
                "x": 0.11585023208521307,
                "y": 0.44412534475326537,
                "z": 0.3711530566215515
            }
        },
        "name": "move_to_auspresseinheit_A"
    },
    "id": "BiTRRT_move_to_auspresseinheit_A_104",
    "joint_names": [
        "shoulder_pan_joint",
        "shoulder_lift_joint",
        "elbow_joint",
        "wrist_1_joint",
        "wrist_2_joint",
        "wrist_3_joint"
    ],
    "metrics": {
        "cart_traj_len": 0.9148588962106623,
        "distance_elbow_joint": 0.35324098161657247,
        "distance_shoulder_lift_joint": 1.4328893307418302,
        "distance_shoulder_pan_joint": 1.1739549190126173,
        "distance_wrist_1_joint": 0.549809299692969,
        "distance_wrist_2_joint": 0.51244680865432,
        "distance_wrist_3_joint": 0.36630210449592937,
        "smoothness": 1.803115850828456,
        "time": 0.043247781,
        "traj_len": 2.0949089345874294,
        "weighted_distance": 2.4866651888731193
    },
    "planner": "BiTRRT",
    "start": {
        "state": {
            "elbow_joint": 2.422574709923281,
            "shoulder_lift_joint": -1.3736533754116391,
            "shoulder_pan_joint": -0.33786336945926293,
            "wrist_1_joint": -1.0288603412921917,
            "wrist_2_joint": 1.2330224858903978,
            "wrist_3_joint": -3.094022268022082
        }
    },
    "waypoints": [
        {
            "positions": [
                -0.33786336945926293,
                -1.3736533754116391,
                2.422574709923281,
                -1.0288603412921917,
                1.2330224858903978,
                -3.094022268022082
            ]
        },
        {
            "positions": [
                -0.1907472847246927,
                -1.5186428542327355,
                2.449789306527781,
                -1.0226733539007968,
                1.213084347124664,
                -3.123311937865028
            ]
        },
        {
            "positions": [
                -0.04363119999012249,
                -1.6636323330538318,
                2.477003903132281,
                -1.0164863665094017,
                1.1931462083589301,
                -3.152601607707974
            ]
        },
        {
            "positions": [
                0.10348488474444778,
                -1.8086218118749282,
                2.5042184997367807,
                -1.0102993791180066,
                1.1732080695931963,
                -3.1818912775509203
            ]
        },
        {
            "positions": [
                0.25060096947901794,
                -1.9536112906960246,
                2.5314330963412806,
                -1.0041123917266117,
                1.1532699308274625,
                -3.211180947393866
            ]
        },
        {
            "positions": [
                0.39771705421358833,
                -2.098600769517121,
                2.5586476929457804,
                -0.9979254043352167,
                1.1333317920617287,
                -3.240470617236812
            ]
        },
        {
            "positions": [
                0.5448331389481584,
                -2.2435902483382173,
                2.5858622895502803,
                -0.9917384169438217,
                1.113393653295995,
                -3.269760287079758
            ]
        },
        {
            "positions": [
                0.5323210393258476,
                -2.1539901364275473,
                2.5489189219501034,
                -0.9178308470105371,
                1.0354457966568216,
                -3.2355870273638394
            ]
        },
        {
            "positions": [
                0.5198089397035368,
                -2.0643900245168774,
                2.5119755543499265,
                -0.8439232770772525,
                0.9574979400176483,
                -3.201413767647921
            ]
        },
        {
            "positions": [
                0.5072968400812261,
                -1.9747899126062076,
                2.475032186749749,
                -0.7700157071439678,
                0.8795500833784751,
                -3.1672405079320027
            ]
        },
        {
            "positions": [
                0.4947847404589153,
                -1.8851898006955379,
                2.438088819149572,
                -0.6961081372106832,
                0.8016022267393017,
                -3.133067248216084
            ]
        },
        {
            "positions": [
                0.4822726408366045,
                -1.795589688784868,
                2.4011454515493953,
                -0.6222005672773986,
                0.7236543701001285,
                -3.0988939885001656
            ]
        },
        {
            "positions": [
                0.5966215970834254,
                -1.8530656379158192,
                2.3985271695550514,
                -0.5506258044383107,
                0.7221150236681031,
                -3.108742881929496
            ]
        },
        {
            "positions": [
                0.7109705533302465,
                -1.9105415870467706,
                2.395908887560707,
                -0.47905104159922274,
                0.7205756772360777,
                -3.118591775358827
            ]
        }
    ]
}