{
    "goal": {
        "global_pose": {
            "orientation": {
                "w": 0.7031023502349854,
                "x": -0.7110244035720825,
                "y": 0.007748599164187908,
                "z": 0.005598929710686207
            },
            "position": {
                "x": 0.11585023208521307,
                "y": 0.44412534475326537,
                "z": 0.3711530566215515
            }
        },
        "name": "move_to_auspresseinheit_A"
    },
    "id": "BiTRRT_move_to_auspresseinheit_A_36",
    "joint_names": [
        "shoulder_pan_joint",
        "shoulder_lift_joint",
        "elbow_joint",
        "wrist_1_joint",
        "wrist_2_joint",
        "wrist_3_joint"
    ],
    "metrics": {
        "cart_traj_len": 5.819477212665285,
        "distance_elbow_joint": 8.742037239490818,
        "distance_shoulder_lift_joint": 0.9008176314072627,
        "distance_shoulder_pan_joint": 1.3985977036776251,
        "distance_wrist_1_joint": 5.753416457339403,
        "distance_wrist_2_joint": 5.961327430894243,
        "distance_wrist_3_joint": 10.145482262426096,
        "smoothness": 0.43033184257349155,
        "time": 0.087442439,
        "traj_len": 5.73599849418002,
        "weighted_distance": 8.05651209508937
    },
    "planner": "BiTRRT",
    "start": {
        "state": {
            "elbow_joint": 2.422574709923281,
            "shoulder_lift_joint": -1.3736533754116391,
            "shoulder_pan_joint": -0.33786336945926293,
            "wrist_1_joint": -1.0288603412921917,
            "wrist_2_joint": 1.2330224858903978,
            "wrist_3_joint": -3.094022268022082
        }
    },
    "waypoints": [
        {
            "positions": [
                -0.33786336945926293,
                -1.3736533754116391,
                2.422574709923281,
                -1.0288603412921917,
                1.2330224858903978,
                -3.094022268022082
            ]
        },
        {
            "positions": [
                -0.31491638932154786,
                -1.3862132538175826,
                2.3228891826140368,
                -0.9570783237060727,
                1.1592153306486386,
                -2.979136172575518
            ]
        },
        {
            "positions": [
                -0.29196940918383285,
                -1.3987731322235262,
                2.2232036553047925,
                -0.8852963061199537,
                1.0854081754068794,
                -2.8642500771289536
            ]
        },
        {
            "positions": [
                -0.2690224290461178,
                -1.41133301062947,
                2.123518127995548,
                -0.8135142885338346,
                1.01160102016512,
                -2.74936398168239
            ]
        },
        {
            "positions": [
                -0.24607544890840274,
                -1.4238928890354134,
                2.0238326006863034,
                -0.7417322709477155,
                0.9377938649233608,
                -2.6344778862358256
            ]
        },
        {
            "positions": [
                -0.2231284687706877,
                -1.436452767441357,
                1.9241470733770594,
                -0.6699502533615964,
                0.8639867096816016,
                -2.5195917907892613
            ]
        },
        {
            "positions": [
                -0.20018148863297267,
                -1.4490126458473005,
                1.8244615460678149,
                -0.5981682357754774,
                0.7901795544398424,
                -2.404705695342697
            ]
        },
        {
            "positions": [
                -0.1772345084952576,
                -1.461572524253244,
                1.7247760187585706,
                -0.5263862181893584,
                0.7163723991980832,
                -2.289819599896133
            ]
        },
        {
            "positions": [
                -0.15428752835754256,
                -1.4741324026591878,
                1.6250904914493263,
                -0.45460420060323936,
                0.6425652439563239,
                -2.1749335044495686
            ]
        },
        {
            "positions": [
                -0.1313405482198275,
                -1.4866922810651313,
                1.525404964140082,
                -0.38282218301712023,
                0.5687580887145647,
                -2.0600474090030048
            ]
        },
        {
            "positions": [
                -0.10839356808211248,
                -1.4992521594710748,
                1.4257194368308377,
                -0.3110401654310012,
                0.4949509334728055,
                -1.9451613135564405
            ]
        },
        {
            "positions": [
                -0.08544658794439741,
                -1.5118120378770183,
                1.3260339095215932,
                -0.2392581478448822,
                0.4211437782310462,
                -1.8302752181098763
            ]
        },
        {
            "positions": [
                -0.0624996078066824,
                -1.5243719162829619,
                1.2263483822123489,
                -0.16747613025876318,
                0.347336622989287,
                -1.7153891226633122
            ]
        },
        {
            "positions": [
                -0.03955262766896728,
                -1.5369317946889056,
                1.1266628549031044,
                -0.09569411267264405,
                0.27352946774752773,
                -1.6005030272167478
            ]
        },
        {
            "positions": [
                -0.016605647531252266,
                -1.5494916730948491,
                1.02697732759386,
                -0.02391209508652503,
                0.19972231250576855,
                -1.4856169317701837
            ]
        },
        {
            "positions": [
                0.006341332606462746,
                -1.5620515515007927,
                0.9272918002846158,
                0.047869922499593986,
                0.12591515726400937,
                -1.3707308363236197
            ]
        },
        {
            "positions": [
                0.029288312744177813,
                -1.5746114299067362,
                0.8276062729753713,
                0.119651940085713,
                0.052108002022249966,
                -1.2558447408770554
            ]
        },
        {
            "positions": [
                0.05223529288189288,
                -1.58717130831268,
                0.7279207456661272,
                0.19143395767183202,
                -0.021699153219509215,
                -1.1409586454304912
            ]
        },
        {
            "positions": [
                0.07518227301960795,
                -1.5997311867186235,
                0.6282352183568827,
                0.26321597525795126,
                -0.0955063084612684,
                -1.026072549983927
            ]
        },
        {
            "positions": [
                0.09812925315732296,
                -1.612291065124567,
                0.5285496910476384,
                0.3349979928440703,
                -0.16931346370302758,
                -0.9111864545373627
            ]
        },
        {
            "positions": [
                0.12107623329503797,
                -1.6248509435305105,
                0.4288641637383941,
                0.4067800104301893,
                -0.24312061894478676,
                -0.7963003590907989
            ]
        },
        {
            "positions": [
                0.1440232134327531,
                -1.637410821936454,
                0.3291786364291496,
                0.4785620280163083,
                -0.31692777418654616,
                -0.6814142636442346
            ]
        },
        {
            "positions": [
                0.1669701935704681,
                -1.6499707003423976,
                0.22949310911990528,
                0.5503440456024273,
                -0.39073492942830534,
                -0.5665281681976704
            ]
        },
        {
            "positions": [
                0.18991717370818312,
                -1.6625305787483413,
                0.129807581810661,
                0.6221260631885464,
                -0.4645420846700645,
                -0.4516420727511061
            ]
        },
        {
            "positions": [
                0.21286415384589813,
                -1.6750904571542848,
                0.030122054501416695,
                0.6939080807746654,
                -0.5383492399118237,
                -0.3367559773045423
            ]
        },
        {
            "positions": [
                0.23581113398361325,
                -1.6876503355602284,
                -0.06956347280782804,
                0.7656900983607846,
                -0.6121563951535831,
                -0.22186988185797762
            ]
        },
        {
            "positions": [
                0.2587581141213284,
                -1.7002102139661721,
                -0.16924900011707233,
                0.8374721159469036,
                -0.6859635503953423,
                -0.10698378641141337
            ]
        },
        {
            "positions": [
                0.2817050942590434,
                -1.7127700923721156,
                -0.2689345274263166,
                0.9092541335330226,
                -0.7597707056371015,
                0.007902309035150434
            ]
        },
        {
            "positions": [
                0.3046520743967584,
                -1.7253299707780592,
                -0.3686200547355609,
                0.9810361511191417,
                -0.8335778608788607,
                0.12278840448171469
            ]
        },
        {
            "positions": [
                0.3275990545344734,
                -1.7378898491840027,
                -0.4683055820448052,
                1.0528181687052607,
                -0.9073850161206201,
                0.2376744999282785
            ]
        },
        {
            "positions": [
                0.3505460346721884,
                -1.7504497275899462,
                -0.5679911093540495,
                1.1246001862913797,
                -0.981192171362379,
                0.35256059537484274
            ]
        },
        {
            "positions": [
                0.37349301480990355,
                -1.7630096059958897,
                -0.6676766366632942,
                1.1963822038774987,
                -1.0549993266041384,
                0.46744669082140744
            ]
        },
        {
            "positions": [
                0.39643999494761856,
                -1.7755694844018333,
                -0.7673621639725385,
                1.2681642214636177,
                -1.1288064818458978,
                0.5823327862679712
            ]
        },
        {
            "positions": [
                0.4193869750853337,
                -1.788129362807777,
                -0.8670476912817824,
                1.3399462390497368,
                -1.2026136370876568,
                0.6972188817145355
            ]
        },
        {
            "positions": [
                0.4423339552230487,
                -1.8006892412137205,
                -0.9667332185910267,
                1.4117282566358558,
                -1.2764207923294162,
                0.8121049771610998
            ]
        },
        {
            "positions": [
                0.4652809353607637,
                -1.813249119619664,
                -1.066418745900271,
                1.4835102742219748,
                -1.3502279475711751,
                0.9269910726076636
            ]
        },
        {
            "positions": [
                0.4882279154984788,
                -1.8258089980256078,
                -1.1661042732095157,
                1.5552922918080943,
                -1.4240351028129346,
                1.0418771680542283
            ]
        },
        {
            "positions": [
                0.5111748956361939,
                -1.8383688764315513,
                -1.26578980051876,
                1.6270743093942133,
                -1.497842258054694,
                1.156763263500792
            ]
        },
        {
            "positions": [
                0.5341218757739088,
                -1.8509287548374949,
                -1.3654753278280043,
                1.6988563269803323,
                -1.571649413296453,
                1.2716493589473568
            ]
        },
        {
            "positions": [
                0.5570688559116239,
                -1.8634886332434384,
                -1.4651608551372486,
                1.7706383445664513,
                -1.6454565685382123,
                1.3865354543939206
            ]
        },
        {
            "positions": [
                0.5800158360493388,
                -1.876048511649382,
                -1.5648463824464929,
                1.8424203621525703,
                -1.7192637237799713,
                1.5014215498404844
            ]
        },
        {
            "positions": [
                0.6029628161870539,
                -1.8886083900553254,
                -1.6645319097557376,
                1.914202379738689,
                -1.7930708790217307,
                1.6163076452870482
            ]
        },
        {
            "positions": [
                0.6259097963247691,
                -1.901168268461269,
                -1.764217437064982,
                1.9859843973248084,
                -1.86687803426349,
                1.7311937407336129
            ]
        },
        {
            "positions": [
                0.6488567764624842,
                -1.9137281468672127,
                -1.8639029643742262,
                2.0577664149109274,
                -1.9406851895052495,
                1.8460798361801776
            ]
        },
        {
            "positions": [
                0.6718037566001991,
                -1.9262880252731562,
                -1.9635884916834703,
                2.1295484324970464,
                -2.0144923447470084,
                1.9609659316267414
            ]
        },
        {
            "positions": [
                0.6669827679518204,
                -1.9212989773025906,
                -1.846217997991783,
                2.0609751879306506,
                -1.9452547204875879,
                1.8324873140442124
            ]
        },
        {
            "positions": [
                0.6621617793034418,
                -1.916309929332025,
                -1.7288475043000957,
                1.9924019433642552,
                -1.8760170962281675,
                1.7040086964616834
            ]
        },
        {
            "positions": [
                0.657340790655063,
                -1.9113208813614593,
                -1.6114770106084084,
                1.9238286987978594,
                -1.8067794719687469,
                1.5755300788791544
            ]
        },
        {
            "positions": [
                0.6525198020066844,
                -1.9063318333908938,
                -1.4941065169167211,
                1.8552554542314639,
                -1.7375418477093265,
                1.4470514612966254
            ]
        },
        {
            "positions": [
                0.6476988133583057,
                -1.9013427854203282,
                -1.3767360232250336,
                1.7866822096650683,
                -1.668304223449906,
                1.3185728437140964
            ]
        },
        {
            "positions": [
                0.642877824709927,
                -1.8963537374497625,
                -1.2593655295333464,
                1.7181089650986727,
                -1.5990665991904855,
                1.1900942261315675
            ]
        },
        {
            "positions": [
                0.6380568360615484,
                -1.891364689479197,
                -1.141995035841659,
                1.6495357205322771,
                -1.529828974931065,
                1.0616156085490385
            ]
        },
        {
            "positions": [
                0.6332358474131697,
                -1.8863756415086312,
                -1.0246245421499718,
                1.5809624759658814,
                -1.4605913506716446,
                0.9331369909665095
            ]
        },
        {
            "positions": [
                0.6284148587647911,
                -1.8813865935380656,
                -0.9072540484582845,
                1.5123892313994858,
                -1.391353726412224,
                0.8046583733839805
            ]
        },
        {
            "positions": [
                0.6235938701164123,
                -1.8763975455675002,
                -0.7898835547665972,
                1.4438159868330902,
                -1.3221161021528034,
                0.6761797558014515
            ]
        },
        {
            "positions": [
                0.6187728814680337,
                -1.8714084975969345,
                -0.6725130610749099,
                1.3752427422666944,
                -1.252878477893383,
                0.5477011382189225
            ]
        },
        {
            "positions": [
                0.613951892819655,
                -1.8664194496263689,
                -0.5551425673832227,
                1.306669497700299,
                -1.1836408536339627,
                0.41922252063639354
            ]
        },
        {
            "positions": [
                0.6091309041712764,
                -1.8614304016558032,
                -0.43777207369153537,
                1.2380962531339033,
                -1.1144032293745418,
                0.29074390305386455
            ]
        },
        {
            "positions": [
                0.6043099155228977,
                -1.8564413536852375,
                -0.3204015799998481,
                1.1695230085675077,
                -1.0451656051151215,
                0.16226528547133556
            ]
        },
        {
            "positions": [
                0.5994889268745189,
                -1.851452305714672,
                -0.2030310863081608,
                1.100949764001112,
                -0.9759279808557011,
                0.033786667888806576
            ]
        },
        {
            "positions": [
                0.5946679382261403,
                -1.8464632577441065,
                -0.08566059261647352,
                1.0323765194347165,
                -0.9066903565962805,
                -0.09469194969372241
            ]
        },
        {
            "positions": [
                0.5898469495777616,
                -1.8414742097735408,
                0.031709901075213764,
                0.9638032748683207,
                -0.8374527323368601,
                -0.2231705672762514
            ]
        },
        {
            "positions": [
                0.585025960929383,
                -1.8364851618029752,
                0.14908039476690127,
                0.8952300303019252,
                -0.7682151080774395,
                -0.3516491848587804
            ]
        },
        {
            "positions": [
                0.5802049722810043,
                -1.8314961138324095,
                0.2664508884585881,
                0.8266567857355298,
                -0.6989774838180192,
                -0.4801278024413089
            ]
        },
        {
            "positions": [
                0.5753839836326257,
                -1.8265070658618439,
                0.38382138215027584,
                0.758083541169134,
                -0.6297398595585986,
                -0.6086064200238384
            ]
        },
        {
            "positions": [
                0.570562994984247,
                -1.8215180178912782,
                0.5011918758419627,
                0.6895102966027384,
                -0.5605022352991782,
                -0.7370850376063669
            ]
        },
        {
            "positions": [
                0.5657420063358682,
                -1.8165289699207128,
                0.6185623695336504,
                0.6209370520363426,
                -0.4912646110397576,
                -0.8655636551888963
            ]
        },
        {
            "positions": [
                0.5609210176874896,
                -1.8115399219501471,
                0.7359328632253372,
                0.5523638074699473,
                -0.42202698678033723,
                -0.9940422727714249
            ]
        },
        {
            "positions": [
                0.5561000290391109,
                -1.8065508739795815,
                0.853303356917025,
                0.4837905629035515,
                -0.35278936252091664,
                -1.1225208903539543
            ]
        },
        {
            "positions": [
                0.5512790403907323,
                -1.8015618260090158,
                0.9706738506087118,
                0.4152173183371559,
                -0.28355173826149627,
                -1.2509995079364828
            ]
        },
        {
            "positions": [
                0.5464580517423536,
                -1.7965727780384502,
                1.0880443443003995,
                0.34664407377076034,
                -0.21431411400207545,
                -1.3794781255190123
            ]
        },
        {
            "positions": [
                0.541637063093975,
                -1.7915837300678845,
                1.2054148379920868,
                0.27807082920436477,
                -0.1450764897426553,
                -1.5079567431015408
            ]
        },
        {
            "positions": [
                0.5368160744455963,
                -1.786594682097319,
                1.322785331683774,
                0.20949758463796897,
                -0.07583886548323449,
                -1.6364353606840703
            ]
        },
        {
            "positions": [
                0.5319950857972175,
                -1.7816056341267534,
                1.4401558253754614,
                0.14092434007157362,
                -0.006601241223814114,
                -1.7649139782665988
            ]
        },
        {
            "positions": [
                0.5271740971488389,
                -1.7766165861561878,
                1.5575263190671487,
                0.07235109550517782,
                0.06263638303560626,
                -1.8933925958491282
            ]
        },
        {
            "positions": [
                0.5223531085004602,
                -1.7716275381856221,
                1.674896812758836,
                0.0037778509387824677,
                0.13187400729502663,
                -2.0218712134316568
            ]
        },
        {
            "positions": [
                0.5175321198520816,
                -1.7666384902150565,
                1.7922673064505232,
                -0.06479539362761333,
                0.20111163155444745,
                -2.150349831014186
            ]
        },
        {
            "positions": [
                0.5127111312037029,
                -1.7616494422444908,
                1.9096378001422105,
                -0.13336863819400913,
                0.2703492558138678,
                -2.2788284485967147
            ]
        },
        {
            "positions": [
                0.5078901425553242,
                -1.7566603942739252,
                2.027008293833898,
                -0.20194188276040492,
                0.3395868800732882,
                -2.407307066179244
            ]
        },
        {
            "positions": [
                0.5030691539069455,
                -1.7516713463033597,
                2.144378787525585,
                -0.2705151273268003,
                0.40882450433270856,
                -2.5357856837617727
            ]
        },
        {
            "positions": [
                0.49824816525856686,
                -1.746682298332794,
                2.2617492812172726,
                -0.33908837189319607,
                0.4780621285921294,
                -2.664264301344302
            ]
        },
        {
            "positions": [
                0.4934271766101882,
                -1.7416932503622284,
                2.3791197749089594,
                -0.4076616164595913,
                0.5472997528515495,
                -2.7927429189268302
            ]
        },
        {
            "positions": [
                0.543111866431985,
                -1.7809113585071927,
                2.3840303628996473,
                -0.42017554395614,
                0.5803551951489891,
                -2.8738896174825954
            ]
        },
        {
            "positions": [
                0.6235465203351611,
                -1.8430964077521195,
                2.3881579545501173,
                -0.4428173975046318,
                0.6398377253294105,
                -3.001708874316571
            ]
        },
        {
            "positions": [
                0.7039811742383372,
                -1.9052814569970462,
                2.392285546200587,
                -0.4654592510531235,
                0.6993202555098318,
                -3.129528131150546
            ]
        }
    ]
}