{
    "goal": {
        "global_pose": {
            "orientation": {
                "w": 0.7031023502349854,
                "x": -0.7110244035720825,
                "y": 0.007748599164187908,
                "z": 0.005598929710686207
            },
            "position": {
                "x": 0.11585023208521307,
                "y": 0.44412534475326537,
                "z": 0.3711530566215515
            }
        },
        "name": "move_to_auspresseinheit_A"
    },
    "id": "BiTRRT_move_to_auspresseinheit_A_67",
    "joint_names": [
        "shoulder_pan_joint",
        "shoulder_lift_joint",
        "elbow_joint",
        "wrist_1_joint",
        "wrist_2_joint",
        "wrist_3_joint"
    ],
    "metrics": {
        "cart_traj_len": 0.6933703829758652,
        "distance_elbow_joint": 0.05925875312778173,
        "distance_shoulder_lift_joint": 0.5347206706200258,
        "distance_shoulder_pan_joint": 1.0440673477361684,
        "distance_wrist_1_joint": 0.5863390870625318,
        "distance_wrist_2_joint": 0.5260227525334027,
        "distance_wrist_3_joint": 0.3673725030985153,
        "smoothness": 0.3329323894708594,
        "time": 0.035959424000000004,
        "traj_len": 1.7657239631885913,
        "weighted_distance": 2.228202854313626
    },
    "planner": "BiTRRT",
    "start": {
        "state": {
            "elbow_joint": 2.422574709923281,
            "shoulder_lift_joint": -1.3736533754116391,
            "shoulder_pan_joint": -0.33786336945926293,
            "wrist_1_joint": -1.0288603412921917,
            "wrist_2_joint": 1.2330224858903978,
            "wrist_3_joint": -3.094022268022082
        }
    },
    "waypoints": [
        {
            "positions": [
                -0.33786336945926293,
                -1.3736533754116391,
                2.422574709923281,
                -1.0288603412921917,
                1.2330224858903978,
                -3.094022268022082
            ]
        },
        {
            "positions": [
                -0.25891086021898624,
                -1.46268654350186,
                2.414944854654308,
                -0.9325923219011846,
                1.1812145716976155,
                -3.066442940973439
            ]
        },
        {
            "positions": [
                -0.1799583509787096,
                -1.5517197115920804,
                2.4073149993853353,
                -0.8363243025101775,
                1.1294066575048332,
                -3.0388636139247964
            ]
        },
        {
            "positions": [
                -0.10100584173843291,
                -1.6407528796823012,
                2.3996851441163622,
                -0.7400562831191704,
                1.0775987433120506,
                -3.011284286876154
            ]
        },
        {
            "positions": [
                -0.022053332498156275,
                -1.7297860477725218,
                2.392055288847389,
                -0.6437882637281633,
                1.0257908291192683,
                -2.9837049598275107
            ]
        },
        {
            "positions": [
                0.05689917674212047,
                -1.8188192158627428,
                2.3844254335784165,
                -0.5475202443371561,
                0.973982914926486,
                -2.9561256327788676
            ]
        },
        {
            "positions": [
                0.1358516859823971,
                -1.9078523839529633,
                2.3767955783094434,
                -0.451252224946149,
                0.9221750007337036,
                -2.928546305730225
            ]
        },
        {
            "positions": [
                0.3259691167472332,
                -1.9076784965933962,
                2.3812887854807583,
                -0.45416254851831206,
                0.8504499116081341,
                -2.995845152665778
            ]
        },
        {
            "positions": [
                0.5160865475120693,
                -1.9075046092338288,
                2.3857819926520727,
                -0.4570728720904751,
                0.7787248224825646,
                -3.0631439996013303
            ]
        },
        {
            "positions": [
                0.7062039782769055,
                -1.9073307218742617,
                2.3902751998233875,
                -0.4599831956626381,
                0.7069997333569951,
                -3.130442846536883
            ]
        }
    ]
}