{
    "goal": {
        "global_pose": {
            "orientation": {
                "w": 0.7031023502349854,
                "x": -0.7110244035720825,
                "y": 0.007748599164187908,
                "z": 0.005598929710686207
            },
            "position": {
                "x": 0.11585023208521307,
                "y": 0.44412534475326537,
                "z": 0.3711530566215515
            }
        },
        "name": "move_to_auspresseinheit_A"
    },
    "id": "BiTRRT_move_to_auspresseinheit_A_49",
    "joint_names": [
        "shoulder_pan_joint",
        "shoulder_lift_joint",
        "elbow_joint",
        "wrist_1_joint",
        "wrist_2_joint",
        "wrist_3_joint"
    ],
    "metrics": {
        "cart_traj_len": 0.8187331346353864,
        "distance_elbow_joint": 0.7511571014506773,
        "distance_shoulder_lift_joint": 0.5332139787103212,
        "distance_shoulder_pan_joint": 1.0409069531481077,
        "distance_wrist_1_joint": 1.016023846889245,
        "distance_wrist_2_joint": 2.0088858738685036,
        "distance_wrist_3_joint": 3.2616163223604597,
        "smoothness": 1.06263210893518,
        "time": 0.06607708200000001,
        "traj_len": 2.9345875479234413,
        "weighted_distance": 4.261448866513123
    },
    "planner": "BiTRRT",
    "start": {
        "state": {
            "elbow_joint": 2.422574709923281,
            "shoulder_lift_joint": -1.3736533754116391,
            "shoulder_pan_joint": -0.33786336945926293,
            "wrist_1_joint": -1.0288603412921917,
            "wrist_2_joint": 1.2330224858903978,
            "wrist_3_joint": -3.094022268022082
        }
    },
    "waypoints": [
        {
            "positions": [
                -0.33786336945926293,
                -1.3736533754116391,
                2.422574709923281,
                -1.0288603412921917,
                1.2330224858903978,
                -3.094022268022082
            ]
        },
        {
            "positions": [
                -0.3049136065794838,
                -1.3944140094469928,
                2.3899039894002216,
                -0.9624512289896938,
                1.1272094974326292,
                -2.9603541094267265
            ]
        },
        {
            "positions": [
                -0.2719638436997047,
                -1.4151746434823462,
                2.357233268877162,
                -0.8960421166871958,
                1.0213965089748605,
                -2.8266859508313704
            ]
        },
        {
            "positions": [
                -0.23901408081992556,
                -1.4359352775176997,
                2.324562548354102,
                -0.8296330043846978,
                0.9155835205170919,
                -2.693017792236015
            ]
        },
        {
            "positions": [
                -0.20606431794014646,
                -1.4566959115530533,
                2.2918918278310425,
                -0.7632238920821999,
                0.8097705320593233,
                -2.559349633640659
            ]
        },
        {
            "positions": [
                -0.1731145550603673,
                -1.477456545588407,
                2.259221107307983,
                -0.696814779779702,
                0.7039575436015546,
                -2.425681475045303
            ]
        },
        {
            "positions": [
                -0.1401647921805882,
                -1.4982171796237604,
                2.2265503867849232,
                -0.630405667477204,
                0.598144555143786,
                -2.292013316449947
            ]
        },
        {
            "positions": [
                -0.10721502930080906,
                -1.5189778136591139,
                2.1938796662618634,
                -0.5639965551747059,
                0.4923315666860173,
                -2.1583451578545914
            ]
        },
        {
            "positions": [
                -0.07426526642102999,
                -1.5397384476944675,
                2.161208945738804,
                -0.497587442872208,
                0.38651857822824875,
                -2.0246769992592357
            ]
        },
        {
            "positions": [
                -0.04131550354125085,
                -1.5604990817298212,
                2.1285382252157445,
                -0.4311783305697101,
                0.28070558977048,
                -1.8910088406638796
            ]
        },
        {
            "positions": [
                -0.008365740661471666,
                -1.5812597157651747,
                2.0958675046926847,
                -0.3647692182672121,
                0.17489260131271145,
                -1.7573406820685238
            ]
        },
        {
            "positions": [
                0.02458402221830741,
                -1.602020349800528,
                2.063196784169625,
                -0.2983601059647142,
                0.0690796128549429,
                -1.6236725234731681
            ]
        },
        {
            "positions": [
                0.05753378509808654,
                -1.6227809838358818,
                2.0305260636465654,
                -0.23195099366221616,
                -0.036733375602825795,
                -1.4900043648778123
            ]
        },
        {
            "positions": [
                0.11504859089597672,
                -1.6454211712978857,
                2.0635995412833976,
                -0.251379796170756,
                0.03687814186112364,
                -1.6399051493065093
            ]
        },
        {
            "positions": [
                0.1725633966938669,
                -1.6680613587598894,
                2.09667301892023,
                -0.2708085986792958,
                0.11048965932507307,
                -1.7898059337352064
            ]
        },
        {
            "positions": [
                0.2300782024917571,
                -1.6907015462218933,
                2.129746496557062,
                -0.29023740118783564,
                0.1841011767890225,
                -1.9397067181639034
            ]
        },
        {
            "positions": [
                0.2875930082896473,
                -1.713341733683897,
                2.1628199741938943,
                -0.30966620369637543,
                0.25771269425297194,
                -2.0896075025926004
            ]
        },
        {
            "positions": [
                0.34510781408753743,
                -1.7359819211459009,
                2.195893451830726,
                -0.3290950062049153,
                0.3313242117169214,
                -2.2395082870212972
            ]
        },
        {
            "positions": [
                0.40262261988542764,
                -1.7586221086079048,
                2.2289669294675583,
                -0.3485238087134551,
                0.4049357291808708,
                -2.3894090714499945
            ]
        },
        {
            "positions": [
                0.4601374256833178,
                -1.7812622960699085,
                2.2620404071043905,
                -0.36795261122199496,
                0.47854724664482023,
                -2.5393098558786917
            ]
        },
        {
            "positions": [
                0.517652231481208,
                -1.8039024835319124,
                2.2951138847412227,
                -0.38738141373053475,
                0.5521587641087697,
                -2.6892106403073885
            ]
        },
        {
            "positions": [
                0.5794493488837537,
                -1.8382241070619283,
                2.3266207627676576,
                -0.4086094401275184,
                0.6022380549966646,
                -2.842008021569593
            ]
        },
        {
            "positions": [
                0.6412464662862993,
                -1.8725457305919444,
                2.358127640794092,
                -0.42983746652450194,
                0.6523173458845596,
                -2.994805402831798
            ]
        },
        {
            "positions": [
                0.703043583688845,
                -1.9068673541219603,
                2.389634518820527,
                -0.45106549292148557,
                0.7023966367724545,
                -3.1476027840940026
            ]
        }
    ]
}