{
    "goal": {
        "global_pose": {
            "orientation": {
                "w": 0.7047431468963623,
                "x": -0.7094548344612122,
                "y": 0.0024358443915843964,
                "z": -0.0022348060738295317
            },
            "position": {
                "x": 0.6094750761985779,
                "y": 0.3671506643295288,
                "z": 0.19426114857196808
            }
        },
        "name": "move_to_magneteinheit_A"
    },
    "id": "BiTRRT_move_to_magneteinheit_A_136",
    "joint_names": [
        "shoulder_pan_joint",
        "shoulder_lift_joint",
        "elbow_joint",
        "wrist_1_joint",
        "wrist_2_joint",
        "wrist_3_joint"
    ],
    "metrics": {
        "cart_traj_len": 2.167894327547767,
        "distance_elbow_joint": 3.878907304043823,
        "distance_shoulder_lift_joint": 1.0550100715464203,
        "distance_shoulder_pan_joint": 1.241952053567091,
        "distance_wrist_1_joint": 1.1442322182992153,
        "distance_wrist_2_joint": 1.4395652120031515,
        "distance_wrist_3_joint": 4.378012123225064,
        "smoothness": 8.628018930971966e-16,
        "time": 0.10855131900000001,
        "traj_len": 3.6245936300066472,
        "weighted_distance": 4.947474169658419
    },
    "planner": "BiTRRT",
    "start": {
        "state": {
            "elbow_joint": -1.919643507792019,
            "shoulder_lift_joint": -0.07675430207160344,
            "shoulder_pan_joint": -1.1188671864651873,
            "wrist_1_joint": 0.42560062535961957,
            "wrist_2_joint": 1.5706038300724876,
            "wrist_3_joint": 1.1188968870953055
        }
    },
    "waypoints": [
        {
            "positions": [
                -1.1188671864651873,
                -0.07675430207160344,
                -1.919643507792019,
                0.42560062535961957,
                1.5706038300724876,
                1.1188968870953055
            ]
        },
        {
            "positions": [
                -1.08183602905744,
                -0.09548929829964263,
                -1.7934832198304578,
                0.4160730818780433,
                1.5044127198004684,
                0.9932095819748032
            ]
        },
        {
            "positions": [
                -1.0448048716496927,
                -0.11422429452768182,
                -1.6673229318688962,
                0.40654553839646707,
                1.438221609528449,
                0.8675222768543009
            ]
        },
        {
            "positions": [
                -1.0077737142419454,
                -0.132959290755721,
                -1.541162643907335,
                0.3970179949148908,
                1.3720304992564296,
                0.7418349717337989
            ]
        },
        {
            "positions": [
                -0.9707425568341982,
                -0.1516942869837602,
                -1.4150023559457736,
                0.3874904514333145,
                1.3058393889844104,
                0.6161476666132965
            ]
        },
        {
            "positions": [
                -0.933711399426451,
                -0.1704292832117994,
                -1.288842067984212,
                0.37796290795173826,
                1.2396482787123912,
                0.49046036149279426
            ]
        },
        {
            "positions": [
                -0.8966802420187037,
                -0.18916427943983857,
                -1.1626817800226505,
                0.368435364470162,
                1.1734571684403718,
                0.36477305637229207
            ]
        },
        {
            "positions": [
                -0.8596490846109563,
                -0.20789927566787775,
                -1.0365214920610892,
                0.35890782098858576,
                1.1072660581683527,
                0.23908575125178977
            ]
        },
        {
            "positions": [
                -0.822617927203209,
                -0.22663427189591695,
                -0.9103612040995279,
                0.3493802775070095,
                1.0410749478963333,
                0.11339844613128736
            ]
        },
        {
            "positions": [
                -0.7855867697954617,
                -0.24536926812395615,
                -0.7842009161379664,
                0.33985273402543326,
                0.974883837624314,
                -0.012288858989214724
            ]
        },
        {
            "positions": [
                -0.7485556123877145,
                -0.2641042643519953,
                -0.6580406281764051,
                0.330325190543857,
                0.9086927273522947,
                -0.13797616410971703
            ]
        },
        {
            "positions": [
                -0.7115244549799672,
                -0.2828392605800345,
                -0.5318803402148435,
                0.3207976470622807,
                0.8425016170802753,
                -0.2636634692302193
            ]
        },
        {
            "positions": [
                -0.67449329757222,
                -0.3015742568080737,
                -0.4057200522532822,
                0.31127010358070445,
                0.7763105068082561,
                -0.3893507743507214
            ]
        },
        {
            "positions": [
                -0.6374621401644727,
                -0.3203092530361129,
                -0.2795597642917209,
                0.3017425600991282,
                0.7101193965362368,
                -0.5150380794712239
            ]
        },
        {
            "positions": [
                -0.6004309827567254,
                -0.33904424926415205,
                -0.1533994763301596,
                0.29221501661755195,
                0.6439282862642176,
                -0.640725384591726
            ]
        },
        {
            "positions": [
                -0.563399825348978,
                -0.35777924549219126,
                -0.027239188368598066,
                0.2826874731359757,
                0.5777371759921982,
                -0.7664126897122283
            ]
        },
        {
            "positions": [
                -0.5263686679412308,
                -0.37651424172023046,
                0.09892109959296325,
                0.2731599296543994,
                0.5115460657201789,
                -0.8920999948327308
            ]
        },
        {
            "positions": [
                -0.4893375105334835,
                -0.39524923794826966,
                0.22508138755452456,
                0.26363238617282314,
                0.44535495544815973,
                -1.0177872999532327
            ]
        },
        {
            "positions": [
                -0.4523063531257362,
                -0.41398423417630886,
                0.3512416755160863,
                0.2541048426912469,
                0.3791638451761403,
                -1.143474605073735
            ]
        },
        {
            "positions": [
                -0.415275195717989,
                -0.432719230404348,
                0.47740196347764763,
                0.24457729920967067,
                0.31297273490412114,
                -1.2691619101942373
            ]
        },
        {
            "positions": [
                -0.37824403831024167,
                -0.4514542266323872,
                0.6035622514392089,
                0.2350497557280944,
                0.24678162463210163,
                -1.3948492153147394
            ]
        },
        {
            "positions": [
                -0.3424348307808027,
                -0.5000478085599327,
                0.7003980760686801,
                0.16692965939468796,
                0.23851426702047557,
                -1.5280110739443835
            ]
        },
        {
            "positions": [
                -0.3066256232513637,
                -0.5486413904874782,
                0.7972339006981513,
                0.09880956306128155,
                0.23024690940884954,
                -1.6611729325740276
            ]
        },
        {
            "positions": [
                -0.2708164157219248,
                -0.5972349724150237,
                0.8940697253276224,
                0.03068946672787512,
                0.2219795517972235,
                -1.794334791203672
            ]
        },
        {
            "positions": [
                -0.2350072081924858,
                -0.645828554342569,
                0.9909055499570935,
                -0.037430629605531285,
                0.21371219418559745,
                -1.9274966498333161
            ]
        },
        {
            "positions": [
                -0.19919800066304683,
                -0.6944221362701146,
                1.0877413745865647,
                -0.10555072593893772,
                0.2054448365739714,
                -2.0606585084629603
            ]
        },
        {
            "positions": [
                -0.16338879313360785,
                -0.74301571819766,
                1.1845771992160357,
                -0.17367082227234415,
                0.19717747896234536,
                -2.1938203670926044
            ]
        },
        {
            "positions": [
                -0.12757958560416888,
                -0.7916093001252056,
                1.281413023845507,
                -0.24179091860575058,
                0.18891012135071933,
                -2.3269822257222486
            ]
        },
        {
            "positions": [
                -0.09177037807472993,
                -0.840202882052751,
                1.378248848474978,
                -0.30991101493915696,
                0.18064276373909327,
                -2.4601440843518927
            ]
        },
        {
            "positions": [
                -0.05596117054529093,
                -0.8887964639802965,
                1.4750846731044494,
                -0.3780311112725635,
                0.1723754061274672,
                -2.5933059429815373
            ]
        },
        {
            "positions": [
                -0.02015196301585198,
                -0.9373900459078419,
                1.5719204977339203,
                -0.4461512076059698,
                0.16410804851584118,
                -2.7264678016111814
            ]
        },
        {
            "positions": [
                0.01565724451358702,
                -0.9859836278353874,
                1.6687563223633914,
                -0.5142713039393763,
                0.15584069090421515,
                -2.8596296602408255
            ]
        },
        {
            "positions": [
                0.05146645204302597,
                -1.0345772097629329,
                1.7655921469928626,
                -0.5823914002727827,
                0.1475733332925891,
                -2.9927915188704697
            ]
        },
        {
            "positions": [
                0.08727565957246497,
                -1.0831707916904785,
                1.8624279716223338,
                -0.6505114966061891,
                0.13930597568096303,
                -3.125953377500114
            ]
        },
        {
            "positions": [
                0.1230848671019039,
                -1.1317643736180238,
                1.959263796251805,
                -0.7186315929395956,
                0.131038618069337,
                -3.259115236129758
            ]
        }
    ]
}