{
    "goal": {
        "global_pose": {
            "orientation": {
                "w": 0.7047431468963623,
                "x": -0.7094548344612122,
                "y": 0.0024358443915843964,
                "z": -0.0022348060738295317
            },
            "position": {
                "x": 0.6094750761985779,
                "y": 0.3671506643295288,
                "z": 0.19426114857196808
            }
        },
        "name": "move_to_magneteinheit_A"
    },
    "id": "BiTRRT_move_to_magneteinheit_A_114",
    "joint_names": [
        "shoulder_pan_joint",
        "shoulder_lift_joint",
        "elbow_joint",
        "wrist_1_joint",
        "wrist_2_joint",
        "wrist_3_joint"
    ],
    "metrics": {
        "cart_traj_len": 2.0761252753123633,
        "distance_elbow_joint": 3.8877983846470716,
        "distance_shoulder_lift_joint": 1.0608095474768358,
        "distance_shoulder_pan_joint": 1.2410182712437374,
        "distance_wrist_1_joint": 1.1921953886708057,
        "distance_wrist_2_joint": 1.440333093874782,
        "distance_wrist_3_joint": 4.315098255957135,
        "smoothness": 5.836601029013527e-16,
        "time": 0.185704338,
        "traj_len": 3.624534858691577,
        "weighted_distance": 4.939633380761189
    },
    "planner": "BiTRRT",
    "start": {
        "state": {
            "elbow_joint": -1.919643507792019,
            "shoulder_lift_joint": -0.07675430207160344,
            "shoulder_pan_joint": -1.1188671864651873,
            "wrist_1_joint": 0.42560062535961957,
            "wrist_2_joint": 1.5706038300724876,
            "wrist_3_joint": 1.1188968870953055
        }
    },
    "waypoints": [
        {
            "positions": [
                -1.1188671864651873,
                -0.07675430207160344,
                -1.919643507792019,
                0.42560062535961957,
                1.5706038300724876,
                1.1188968870953055
            ]
        },
        {
            "positions": [
                -1.0818327695940435,
                -0.10798492213038988,
                -1.8040033166038387,
                0.3894992579256146,
                1.5277473973294495,
                0.9928323050523891
            ]
        },
        {
            "positions": [
                -1.0447983527228994,
                -0.1392155421891763,
                -1.6883631254156584,
                0.3533978904916096,
                1.4848909645864112,
                0.8667677230094726
            ]
        },
        {
            "positions": [
                -1.0077639358517556,
                -0.17044616224796275,
                -1.572722934227478,
                0.3172965230576046,
                1.4420345318433732,
                0.7407031409665561
            ]
        },
        {
            "positions": [
                -0.9707295189806118,
                -0.20167678230674918,
                -1.4570827430392976,
                0.28119515562359954,
                1.3991780991003349,
                0.6146385589236396
            ]
        },
        {
            "positions": [
                -0.9336951021094678,
                -0.23290740236553562,
                -1.341442551851117,
                0.24509378818959457,
                1.3563216663572968,
                0.4885739768807231
            ]
        },
        {
            "positions": [
                -0.896660685238324,
                -0.26413802242432205,
                -1.2258023606629367,
                0.20899242075558958,
                1.3134652336142585,
                0.36250939483780664
            ]
        },
        {
            "positions": [
                -0.85962626836718,
                -0.29536864248310846,
                -1.1101621694747563,
                0.17289105332158455,
                1.2706088008712204,
                0.23644481279489016
            ]
        },
        {
            "positions": [
                -0.8225918514960362,
                -0.3265992625418949,
                -0.9945219782865761,
                0.13678968588757956,
                1.2277523681281821,
                0.11038023075197367
            ]
        },
        {
            "positions": [
                -0.7855574346248924,
                -0.3578298826006813,
                -0.8788817870983958,
                0.10068831845357462,
                1.184895935385144,
                -0.01568435129094281
            ]
        },
        {
            "positions": [
                -0.7485230177537483,
                -0.3890605026594678,
                -0.7632415959102152,
                0.06458695101956957,
                1.1420395026421057,
                -0.1417489333338593
            ]
        },
        {
            "positions": [
                -0.7114886008826045,
                -0.4202911227182542,
                -0.6476014047220351,
                0.028485583585564578,
                1.0991830698990677,
                -0.2678135153767758
            ]
        },
        {
            "positions": [
                -0.6744541840114606,
                -0.45152174277704066,
                -0.5319612135338545,
                -0.007615783848440416,
                1.0563266371560296,
                -0.39387809741969226
            ]
        },
        {
            "positions": [
                -0.6374197671403167,
                -0.48275236283582706,
                -0.41632102234567436,
                -0.04371715128244541,
                1.0134702044129913,
                -0.5199426794626087
            ]
        },
        {
            "positions": [
                -0.6003853502691727,
                -0.5139829828946135,
                -0.3006808311574938,
                -0.07981851871645046,
                0.9706137716699531,
                -0.6460072615055252
            ]
        },
        {
            "positions": [
                -0.5633509333980289,
                -0.5452136029533999,
                -0.18504063996931341,
                -0.1159198861504554,
                0.927757338926915,
                -0.7720718435484417
            ]
        },
        {
            "positions": [
                -0.5263165165268849,
                -0.5764442230121865,
                -0.06940044878113305,
                -0.15202125358446045,
                0.8849009061838767,
                -0.8981364255913582
            ]
        },
        {
            "positions": [
                -0.4892820996557411,
                -0.6076748430709729,
                0.04623974240704731,
                -0.18812262101846539,
                0.8420444734408387,
                -1.0242010076342747
            ]
        },
        {
            "positions": [
                -0.45224768278459726,
                -0.6389054631297593,
                0.16187993359522745,
                -0.22422398845247032,
                0.7991880406978005,
                -1.1502655896771912
            ]
        },
        {
            "positions": [
                -0.4152132659134532,
                -0.6701360831885457,
                0.27752012478340826,
                -0.2603253558864755,
                0.7563316079547622,
                -1.2763301717201077
            ]
        },
        {
            "positions": [
                -0.37817884904230936,
                -0.7013667032473321,
                0.3931603159715886,
                -0.2964267233204804,
                0.7134751752117241,
                -1.4023947537630241
            ]
        },
        {
            "positions": [
                -0.3411444321711655,
                -0.7325973233061185,
                0.508800507159769,
                -0.33252809075448536,
                0.6706187424686859,
                -1.5284593358059406
            ]
        },
        {
            "positions": [
                -0.3041100153000216,
                -0.7638279433649049,
                0.6244406983479489,
                -0.3686294581884904,
                0.6277623097256477,
                -1.654523917848857
            ]
        },
        {
            "positions": [
                -0.2670755984288776,
                -0.7950585634236915,
                0.7400808895361297,
                -0.40473082562249546,
                0.5849058769826094,
                -1.7805884998917736
            ]
        },
        {
            "positions": [
                -0.2300411815577338,
                -0.8262891834824779,
                0.8557210807243101,
                -0.4408321930565004,
                0.5420494442395714,
                -1.90665308193469
            ]
        },
        {
            "positions": [
                -0.19300676468658984,
                -0.8575198035412643,
                0.9713612719124904,
                -0.47693356049050545,
                0.4991930114965333,
                -2.0327176639776066
            ]
        },
        {
            "positions": [
                -0.155972347815446,
                -0.8887504236000507,
                1.0870014631006704,
                -0.5130349279245103,
                0.456336578753495,
                -2.158782246020523
            ]
        },
        {
            "positions": [
                -0.11893793094430205,
                -0.9199810436588371,
                1.2026416542888512,
                -0.5491362953585155,
                0.4134801460104567,
                -2.2848468280634395
            ]
        },
        {
            "positions": [
                -0.0819035140731581,
                -0.9512116637176236,
                1.3182818454770315,
                -0.5852376627925204,
                0.3706237132674186,
                -2.410911410106356
            ]
        },
        {
            "positions": [
                -0.04486909720201426,
                -0.98244228377641,
                1.433922036665212,
                -0.6213390302265254,
                0.32776728052438053,
                -2.5369759921492725
            ]
        },
        {
            "positions": [
                -0.007834680330870425,
                -1.0136729038351964,
                1.5495622278533923,
                -0.6574403976605303,
                0.28491084778134246,
                -2.663040574192189
            ]
        },
        {
            "positions": [
                0.029199736540273635,
                -1.044903523893983,
                1.6652024190415726,
                -0.6935417650945355,
                0.24205441503830416,
                -2.789105156235106
            ]
        },
        {
            "positions": [
                0.06623415341141747,
                -1.0761341439527694,
                1.780842610229753,
                -0.7296431325285404,
                0.19919798229526586,
                -2.915169738278022
            ]
        },
        {
            "positions": [
                0.10326857028256128,
                -1.1073647640115558,
                1.8964828014179336,
                -0.7657444999625453,
                0.15634154955222784,
                -3.0412343203209384
            ]
        },
        {
            "positions": [
                0.12215108477855004,
                -1.1375638495484393,
                1.9681548768550525,
                -0.7665947633111861,
                0.13027073619770554,
                -3.1962013688618294
            ]
        }
    ]
}