{
    "goal": {
        "global_pose": {
            "orientation": {
                "w": 0.7047431468963623,
                "x": -0.7094548344612122,
                "y": 0.0024358443915843964,
                "z": -0.0022348060738295317
            },
            "position": {
                "x": 0.6094750761985779,
                "y": 0.3671506643295288,
                "z": 0.19426114857196808
            }
        },
        "name": "move_to_magneteinheit_A"
    },
    "id": "BiTRRT_move_to_magneteinheit_A_36",
    "joint_names": [
        "shoulder_pan_joint",
        "shoulder_lift_joint",
        "elbow_joint",
        "wrist_1_joint",
        "wrist_2_joint",
        "wrist_3_joint"
    ],
    "metrics": {
        "cart_traj_len": 1.8676805312484586,
        "distance_elbow_joint": 3.9390101400378432,
        "distance_shoulder_lift_joint": 0.7122202617397795,
        "distance_shoulder_pan_joint": 1.242671246060513,
        "distance_wrist_1_joint": 1.5903984655938477,
        "distance_wrist_2_joint": 1.6991623535976133,
        "distance_wrist_3_joint": 1.2268160626108535,
        "smoothness": 6.978544727790685e-16,
        "time": 0.118620929,
        "traj_len": 3.2264963241324867,
        "weighted_distance": 4.019138150655389
    },
    "planner": "BiTRRT",
    "start": {
        "state": {
            "elbow_joint": -1.919643507792019,
            "shoulder_lift_joint": -0.07675430207160344,
            "shoulder_pan_joint": -1.1188671864651873,
            "wrist_1_joint": 0.42560062535961957,
            "wrist_2_joint": 1.5706038300724876,
            "wrist_3_joint": 1.1188968870953055
        }
    },
    "waypoints": [
        {
            "positions": [
                -1.1188671864651873,
                -0.07675430207160344,
                -1.919643507792019,
                0.42560062535961957,
                1.5706038300724876,
                1.1188968870953055
            ]
        },
        {
            "positions": [
                -1.0728423254999833,
                -0.10313283028418786,
                -1.773754243346173,
                0.48450427223346576,
                1.5076718910503537,
                1.0734592551467554
            ]
        },
        {
            "positions": [
                -1.026817464534779,
                -0.12951135849677228,
                -1.627864978900327,
                0.543407919107312,
                1.44473995202822,
                1.0280216231982053
            ]
        },
        {
            "positions": [
                -0.9807926035695749,
                -0.15588988670935672,
                -1.481975714454481,
                0.6023115659811582,
                1.3818080130060861,
                0.9825839912496552
            ]
        },
        {
            "positions": [
                -0.9347677426043706,
                -0.18226841492194112,
                -1.336086450008635,
                0.6612152128550044,
                1.3188760739839522,
                0.937146359301105
            ]
        },
        {
            "positions": [
                -0.8887428816391665,
                -0.20864694313452556,
                -1.1901971855627889,
                0.7201188597288506,
                1.2559441349618186,
                0.8917087273525549
            ]
        },
        {
            "positions": [
                -0.8427180206739623,
                -0.23502547134711,
                -1.0443079211169428,
                0.7790225066026968,
                1.1930121959396847,
                0.8462710954040048
            ]
        },
        {
            "positions": [
                -0.7966931597087581,
                -0.2614039995596944,
                -0.8984186566710968,
                0.837926153476543,
                1.1300802569175508,
                0.8008334634554546
            ]
        },
        {
            "positions": [
                -0.7506682987435539,
                -0.28778252777227886,
                -0.7525293922252507,
                0.8968298003503892,
                1.067148317895417,
                0.7553958315069045
            ]
        },
        {
            "positions": [
                -0.7046434377783497,
                -0.31416105598486327,
                -0.6066401277794047,
                0.9557334472242354,
                1.0042163788732832,
                0.7099581995583544
            ]
        },
        {
            "positions": [
                -0.6586185768131456,
                -0.3405395841974477,
                -0.46075086333355864,
                1.0146370940980816,
                0.9412844398511494,
                0.6645205676098043
            ]
        },
        {
            "positions": [
                -0.6125937158479413,
                -0.3669181124100321,
                -0.3148615988877126,
                1.0735407409719278,
                0.8783525008290156,
                0.6190829356612542
            ]
        },
        {
            "positions": [
                -0.5665688548827372,
                -0.39329664062261654,
                -0.16897233444186655,
                1.132444387845774,
                0.8154205618068817,
                0.5736453037127041
            ]
        },
        {
            "positions": [
                -0.520543993917533,
                -0.41967516883520095,
                -0.0230830699960205,
                1.1913480347196204,
                0.7524886227847479,
                0.5282076717641538
            ]
        },
        {
            "positions": [
                -0.47451913295232884,
                -0.44605369704778536,
                0.12280619444982555,
                1.2502516815934666,
                0.6895566837626141,
                0.48277003981560374
            ]
        },
        {
            "positions": [
                -0.42849427198712453,
                -0.4724322252603698,
                0.2686954588956716,
                1.3091553284673128,
                0.6266247447404802,
                0.4373324078670535
            ]
        },
        {
            "positions": [
                -0.38246941102192045,
                -0.4988107534729542,
                0.41458472334151764,
                1.368058975341159,
                0.5636928057183466,
                0.3918947759185035
            ]
        },
        {
            "positions": [
                -0.33644455005671625,
                -0.5251892816855387,
                0.5604739877873637,
                1.4269626222150051,
                0.5007608666962127,
                0.3464571439699533
            ]
        },
        {
            "positions": [
                -0.29041968909151206,
                -0.5515678098981232,
                0.7063632522332097,
                1.4858662690888513,
                0.43782892767407877,
                0.3010195120214032
            ]
        },
        {
            "positions": [
                -0.24439482812630786,
                -0.5779463381107075,
                0.8522525166790558,
                1.5447699159626977,
                0.3748969886519449,
                0.2555818800728531
            ]
        },
        {
            "positions": [
                -0.19836996716110378,
                -0.6043248663232919,
                0.9981417811249018,
                1.6036735628365437,
                0.3119650496298112,
                0.210144248124303
            ]
        },
        {
            "positions": [
                -0.15234510619589947,
                -0.6307033945358764,
                1.1440310455707479,
                1.6625772097103901,
                0.2490331106076773,
                0.16470661617575277
            ]
        },
        {
            "positions": [
                -0.10632024523069528,
                -0.6570819227484608,
                1.289920310016594,
                1.721480856584236,
                0.18610117158554362,
                0.11926898422720278
            ]
        },
        {
            "positions": [
                -0.06029538426549119,
                -0.6834604509610451,
                1.43580957446244,
                1.7803845034580825,
                0.12316923256340973,
                0.07383135227865245
            ]
        },
        {
            "positions": [
                -0.014270523300287108,
                -0.7098389791736297,
                1.581698838908286,
                1.8392881503319285,
                0.06023729354127583,
                0.028393720330102568
            ]
        },
        {
            "positions": [
                0.0317543376649172,
                -0.736217507386214,
                1.727588103354132,
                1.898191797205775,
                -0.002694645480858071,
                -0.01704391161844776
            ]
        },
        {
            "positions": [
                0.07777919863012128,
                -0.7625960355987984,
                1.873477367799978,
                1.957095444079621,
                -0.06562658450299175,
                -0.062481543566997866
            ]
        },
        {
            "positions": [
                0.12380405959532557,
                -0.788974563811383,
                2.0193666322458244,
                2.0159990909534673,
                -0.12855852352512556,
                -0.10791917551554796
            ]
        }
    ]
}