{
    "goal": {
        "global_pose": {
            "orientation": {
                "w": 0.7031023502349854,
                "x": -0.7110244035720825,
                "y": 0.007748599164187908,
                "z": 0.005598929710686207
            },
            "position": {
                "x": 0.11585023208521307,
                "y": 0.44412534475326537,
                "z": 0.3711530566215515
            }
        },
        "name": "move_to_auspresseinheit_A"
    },
    "id": "BiTRRT_move_to_auspresseinheit_A_95",
    "joint_names": [
        "shoulder_pan_joint",
        "shoulder_lift_joint",
        "elbow_joint",
        "wrist_1_joint",
        "wrist_2_joint",
        "wrist_3_joint"
    ],
    "metrics": {
        "cart_traj_len": 0.7440546333265708,
        "distance_elbow_joint": 0.024073280781296003,
        "distance_shoulder_lift_joint": 0.5372953241392762,
        "distance_shoulder_pan_joint": 1.0447535141487294,
        "distance_wrist_1_joint": 0.584269137584794,
        "distance_wrist_2_joint": 0.5756461650456436,
        "distance_wrist_3_joint": 0.2391314261419626,
        "smoothness": 0.3657975524594406,
        "time": 0.045251801,
        "traj_len": 1.7335422832575218,
        "weighted_distance": 2.15484268631287
    },
    "planner": "BiTRRT",
    "start": {
        "state": {
            "elbow_joint": 2.422574709923281,
            "shoulder_lift_joint": -1.3736533754116391,
            "shoulder_pan_joint": -0.33786336945926293,
            "wrist_1_joint": -1.0288603412921917,
            "wrist_2_joint": 1.2330224858903978,
            "wrist_3_joint": -3.094022268022082
        }
    },
    "waypoints": [
        {
            "positions": [
                -0.33786336945926293,
                -1.3736533754116391,
                2.422574709923281,
                -1.0288603412921917,
                1.2330224858903978,
                -3.094022268022082
            ]
        },
        {
            "positions": [
                -0.1431505753817558,
                -1.4978235432958071,
                2.4191899881120986,
                -1.0335444092318413,
                1.2399127425952772,
                -3.068043658155996
            ]
        },
        {
            "positions": [
                0.05156221869575134,
                -1.6219937111799752,
                2.415805266300916,
                -1.038228477171491,
                1.2468029993001564,
                -3.04206504828991
            ]
        },
        {
            "positions": [
                0.24627501277325853,
                -1.7461638790641434,
                2.4124205444897333,
                -1.0429125451111407,
                1.2536932560050356,
                -3.0160864384238235
            ]
        },
        {
            "positions": [
                0.4409878068507656,
                -1.8703340469483114,
                2.409035822678551,
                -1.0475966130507903,
                1.260583512709915,
                -2.990107828557737
            ]
        },
        {
            "positions": [
                0.49495513457268053,
                -1.8789950252435745,
                2.4068644595034194,
                -0.9350058603057435,
                1.1515009136291867,
                -3.016922029511999
            ]
        },
        {
            "positions": [
                0.5489224622945954,
                -1.887656003538838,
                2.4046930963282884,
                -0.8224151075606967,
                1.0424183145484585,
                -3.043736230466261
            ]
        },
        {
            "positions": [
                0.6028897900165103,
                -1.8963169818341012,
                2.402521733153157,
                -0.7098243548156499,
                0.9333357154677302,
                -3.0705504314205228
            ]
        },
        {
            "positions": [
                0.6568571177384253,
                -1.9049779601293644,
                2.4003503699780255,
                -0.597233602070603,
                0.8242531163870019,
                -3.0973646323747848
            ]
        },
        {
            "positions": [
                0.7068901446894665,
                -1.9109486995509153,
                2.398501429141985,
                -0.4820637472245949,
                0.7124983744837886,
                -3.1253248152353548
            ]
        }
    ]
}