{
    "goal": {
        "global_pose": {
            "orientation": {
                "w": 0.7031023502349854,
                "x": -0.7110244035720825,
                "y": 0.007748599164187908,
                "z": 0.005598929710686207
            },
            "position": {
                "x": 0.11585023208521307,
                "y": 0.44412534475326537,
                "z": 0.3711530566215515
            }
        },
        "name": "move_to_auspresseinheit_A"
    },
    "id": "BiTRRT_move_to_auspresseinheit_A_124",
    "joint_names": [
        "shoulder_pan_joint",
        "shoulder_lift_joint",
        "elbow_joint",
        "wrist_1_joint",
        "wrist_2_joint",
        "wrist_3_joint"
    ],
    "metrics": {
        "cart_traj_len": 0.70204243843153,
        "distance_elbow_joint": 0.09763958651996729,
        "distance_shoulder_lift_joint": 0.5364392296629694,
        "distance_shoulder_pan_joint": 1.0469936509458364,
        "distance_wrist_1_joint": 0.5498811792342131,
        "distance_wrist_2_joint": 0.5138634284384682,
        "distance_wrist_3_joint": 0.5678256874341465,
        "smoothness": 0.46255287230794817,
        "time": 0.09175319800000001,
        "traj_len": 1.82006669169995,
        "weighted_distance": 2.347773145935649
    },
    "planner": "BiTRRT",
    "start": {
        "state": {
            "elbow_joint": 2.422574709923281,
            "shoulder_lift_joint": -1.3736533754116391,
            "shoulder_pan_joint": -0.33786336945926293,
            "wrist_1_joint": -1.0288603412921917,
            "wrist_2_joint": 1.2330224858903978,
            "wrist_3_joint": -3.094022268022082
        }
    },
    "waypoints": [
        {
            "positions": [
                -0.33786336945926293,
                -1.3736533754116391,
                2.422574709923281,
                -1.0288603412921917,
                1.2330224858903978,
                -3.094022268022082
            ]
        },
        {
            "positions": [
                -0.2046309279154838,
                -1.4391193863371727,
                2.4137877145706326,
                -0.957588993593696,
                1.1626014845118067,
                -3.05526537353827
            ]
        },
        {
            "positions": [
                -0.07139848637170465,
                -1.5045853972627063,
                2.405000719217984,
                -0.8863176458952002,
                1.0921804831332158,
                -3.016508479054458
            ]
        },
        {
            "positions": [
                0.06183395517207446,
                -1.57005140818824,
                2.3962137238653356,
                -0.8150462981967046,
                1.0217594817546247,
                -2.9777515845706457
            ]
        },
        {
            "positions": [
                0.19506639671585363,
                -1.6355174191137734,
                2.387426728512687,
                -0.7437749504982087,
                0.9513384803760339,
                -2.938994690086834
            ]
        },
        {
            "positions": [
                0.32829883825963285,
                -1.700983430039307,
                2.3786397331600386,
                -0.6725036027997131,
                0.8809174789974428,
                -2.900237795603022
            ]
        },
        {
            "positions": [
                0.46153127980341185,
                -1.7664494409648406,
                2.36985273780739,
                -0.6012322551012174,
                0.8104964776188519,
                -2.8614809011192097
            ]
        },
        {
            "positions": [
                0.594763721347191,
                -1.8319154518903742,
                2.3610657424547417,
                -0.5299609074027216,
                0.7400754762402608,
                -2.8227240066353976
            ]
        },
        {
            "positions": [
                0.6519470014168822,
                -1.8710040284824914,
                2.3791310519804556,
                -0.5044700347303501,
                0.7296172668460952,
                -2.970987719659129
            ]
        },
        {
            "positions": [
                0.7091302814865734,
                -1.9100926050746085,
                2.3971963615061695,
                -0.4789791620579786,
                0.7191590574519295,
                -3.1192514326828595
            ]
        }
    ]
}