{
    "goal": {
        "global_pose": {
            "orientation": {
                "w": 0.7047431468963623,
                "x": -0.7094548344612122,
                "y": 0.0024358443915843964,
                "z": -0.0022348060738295317
            },
            "position": {
                "x": 0.6094750761985779,
                "y": 0.3671506643295288,
                "z": 0.19426114857196808
            }
        },
        "name": "move_to_magneteinheit_A"
    },
    "id": "BKPIECE_move_to_magneteinheit_A_81",
    "joint_names": [
        "shoulder_pan_joint",
        "shoulder_lift_joint",
        "elbow_joint",
        "wrist_1_joint",
        "wrist_2_joint",
        "wrist_3_joint"
    ],
    "metrics": {
        "cart_traj_len": 2.0558694643968916,
        "distance_elbow_joint": 3.9038585474441003,
        "distance_shoulder_lift_joint": 1.1067693928691196,
        "distance_shoulder_pan_joint": 1.2406524816407745,
        "distance_wrist_1_joint": 1.2686365367268073,
        "distance_wrist_2_joint": 1.448193558954099,
        "distance_wrist_3_joint": 4.25582706332151,
        "smoothness": 0.0631274099122928,
        "time": 0.146882801,
        "traj_len": 3.636473233911727,
        "weighted_distance": 4.944939009055656
    },
    "planner": "BKPIECE",
    "start": {
        "state": {
            "elbow_joint": -1.919643507792019,
            "shoulder_lift_joint": -0.07675430207160344,
            "shoulder_pan_joint": -1.1188671864651873,
            "wrist_1_joint": 0.42560062535961957,
            "wrist_2_joint": 1.5706038300724876,
            "wrist_3_joint": 1.1188968870953055
        }
    },
    "waypoints": [
        {
            "positions": [
                -1.1188671864651873,
                -0.07675430207160344,
                -1.919643507792019,
                0.42560062535961957,
                1.5706038300724876,
                1.1188968870953055
            ]
        },
        {
            "positions": [
                -1.0822862682919496,
                -0.10971709503763008,
                -1.802230354026272,
                0.3874445256190378,
                1.5267326338301086,
                0.9939442788142113
            ]
        },
        {
            "positions": [
                -1.045705350118712,
                -0.14267988800365672,
                -1.6848172002605253,
                0.349288425878456,
                1.4828614375877296,
                0.8689916705331171
            ]
        },
        {
            "positions": [
                -1.0091244319454742,
                -0.17564268096968336,
                -1.5674040464947783,
                0.3111323261378742,
                1.4389902413453508,
                0.7440390622520228
            ]
        },
        {
            "positions": [
                -0.9725435137722365,
                -0.20860547393571,
                -1.4499908927290313,
                0.27297622639729247,
                1.3951190451029718,
                0.6190864539709285
            ]
        },
        {
            "positions": [
                -0.9359625955989987,
                -0.24156826690173663,
                -1.3325777389632845,
                0.23482012665671068,
                1.3512478488605928,
                0.4941338456898342
            ]
        },
        {
            "positions": [
                -0.899381677425761,
                -0.27453105986776327,
                -1.2151645851975372,
                0.1966640269161289,
                1.3073766526182138,
                0.36918123740874
            ]
        },
        {
            "positions": [
                -0.8628007592525233,
                -0.30749385283378994,
                -1.0977514314317904,
                0.15850792717554713,
                1.2635054563758348,
                0.24422862912764576
            ]
        },
        {
            "positions": [
                -0.8262198410792856,
                -0.34045664579981655,
                -0.9803382776660434,
                0.12035182743496531,
                1.2196342601334558,
                0.11927602084655153
            ]
        },
        {
            "positions": [
                -0.789638922906048,
                -0.37341943876584316,
                -0.8629251239002966,
                0.0821957276943836,
                1.175763063891077,
                -0.005676587434542579
            ]
        },
        {
            "positions": [
                -0.7530580047328101,
                -0.4063822317318698,
                -0.7455119701345496,
                0.044039627953801785,
                1.131891867648698,
                -0.13062919571563714
            ]
        },
        {
            "positions": [
                -0.7164770865595725,
                -0.43934502469789644,
                -0.6280988163688026,
                0.005883528213220024,
                1.088020671406319,
                -0.25558180399673125
            ]
        },
        {
            "positions": [
                -0.6798961683863347,
                -0.4723078176639231,
                -0.5106856626030556,
                -0.03227257152736179,
                1.04414947516394,
                -0.3805344122778256
            ]
        },
        {
            "positions": [
                -0.6433152502130971,
                -0.5052706106299497,
                -0.3932725088373088,
                -0.07042867126794355,
                1.0002782789215612,
                -0.5054870205589197
            ]
        },
        {
            "positions": [
                -0.6067343320398594,
                -0.5382334035959764,
                -0.2758593550715618,
                -0.10858477100852532,
                0.9564070826791821,
                -0.630439628840014
            ]
        },
        {
            "positions": [
                -0.5701534138666217,
                -0.5711961965620029,
                -0.15844620130581477,
                -0.14674087074910708,
                0.9125358864368032,
                -0.7553922371211081
            ]
        },
        {
            "positions": [
                -0.5335724956933839,
                -0.6041589895280297,
                -0.04103304754006776,
                -0.18489697048968895,
                0.8686646901944242,
                -0.8803448454022025
            ]
        },
        {
            "positions": [
                -0.4969915775201462,
                -0.6371217824940563,
                0.07638010622567903,
                -0.2230530702302706,
                0.8247934939520452,
                -1.0052974536832968
            ]
        },
        {
            "positions": [
                -0.4604106593469086,
                -0.6700845754600828,
                0.19379325999142583,
                -0.26120916997085236,
                0.7809222977096663,
                -1.1302500619643907
            ]
        },
        {
            "positions": [
                -0.4238297411736708,
                -0.7030473684261096,
                0.31120641375717306,
                -0.29936526971143423,
                0.7370511014672871,
                -1.2552026702454855
            ]
        },
        {
            "positions": [
                -0.38724882300043306,
                -0.7360101613921362,
                0.42861956752291985,
                -0.337521369452016,
                0.6931799052249082,
                -1.3801552785265798
            ]
        },
        {
            "positions": [
                -0.35066790482719534,
                -0.7689729543581627,
                0.5460327212886671,
                -0.37567746919259776,
                0.6493087089825293,
                -1.5051078868076737
            ]
        },
        {
            "positions": [
                -0.31408698665395773,
                -0.8019357473241895,
                0.6634458750544139,
                -0.4138335689331795,
                0.6054375127401503,
                -1.630060495088768
            ]
        },
        {
            "positions": [
                -0.2775060684807199,
                -0.834898540290216,
                0.7808590288201611,
                -0.4519896686737614,
                0.5615663164977713,
                -1.7550131033698624
            ]
        },
        {
            "positions": [
                -0.24092515030748218,
                -0.8678613332562428,
                0.8982721825859079,
                -0.49014576841434315,
                0.5176951202553923,
                -1.8799657116509567
            ]
        },
        {
            "positions": [
                -0.20434423213424457,
                -0.9008241262222694,
                1.0156853363516547,
                -0.528301868154925,
                0.47382392401301354,
                -2.0049183199320506
            ]
        },
        {
            "positions": [
                -0.16776331396100685,
                -0.9337869191882959,
                1.1330984901174015,
                -0.5664579678955066,
                0.42995272777063454,
                -2.129870928213145
            ]
        },
        {
            "positions": [
                -0.13118239578776902,
                -0.9667497121543227,
                1.2505116438831487,
                -0.6046140676360885,
                0.38608153152825553,
                -2.2548235364942397
            ]
        },
        {
            "positions": [
                -0.09460147761453142,
                -0.9997125051203493,
                1.3679247976488955,
                -0.6427701673766701,
                0.3422103352858765,
                -2.3797761447753336
            ]
        },
        {
            "positions": [
                -0.058020559441293695,
                -1.0326752980863758,
                1.4853379514146428,
                -0.680926267117252,
                0.2983391390434975,
                -2.504728753056428
            ]
        },
        {
            "positions": [
                -0.021439641268055976,
                -1.0656380910524026,
                1.6027511051803895,
                -0.7190823668578337,
                0.25446794280111873,
                -2.629681361337522
            ]
        },
        {
            "positions": [
                0.015141276905181744,
                -1.0986008840184294,
                1.7201642589461368,
                -0.7572384665984155,
                0.2105967465587395,
                -2.7546339696186166
            ]
        },
        {
            "positions": [
                0.051722195078419464,
                -1.131563676984456,
                1.8375774127118836,
                -0.7953945663389974,
                0.16672555031636072,
                -2.8795865778997105
            ]
        },
        {
            "positions": [
                0.0883031132516571,
                -1.1645264699504825,
                1.9549905664776301,
                -0.8335506660795791,
                0.12285435407398163,
                -3.004539186180805
            ]
        },
        {
            "positions": [
                0.12178529517558696,
                -1.1455292449602419,
                1.9842150396520808,
                -0.8430359113671876,
                0.12329843702957487,
                -3.1369301762262047
            ]
        }
    ]
}