{
    "goal": {
        "global_pose": {
            "orientation": {
                "w": 0.5084816217422485,
                "x": -0.49083608388900757,
                "y": 0.5182115435600281,
                "z": -0.4816462993621826
            },
            "position": {
                "x": 0.5540239810943604,
                "y": 0.030875300988554955,
                "z": 0.16403168439865112
            }
        },
        "name": "move_to_storage_A"
    },
    "id": "BKPIECE_move_to_storage_A_16",
    "joint_names": [
        "shoulder_pan_joint",
        "shoulder_lift_joint",
        "elbow_joint",
        "wrist_1_joint",
        "wrist_2_joint",
        "wrist_3_joint"
    ],
    "metrics": {
        "cart_traj_len": 0.35286276601716615,
        "distance_elbow_joint": 0.44643270012617453,
        "distance_shoulder_lift_joint": 0.23473673857075772,
        "distance_shoulder_pan_joint": 0.4590230522718749,
        "distance_wrist_1_joint": 0.23268619932009715,
        "distance_wrist_2_joint": 1.108045398528681,
        "distance_wrist_3_joint": 0.09986902021473787,
        "smoothness": 6.661338165333112e-16,
        "time": 0.14612128700000002,
        "traj_len": 1.6064847055083726,
        "weighted_distance": 2.0300893446620956
    },
    "planner": "BKPIECE",
    "start": {
        "state": {
            "elbow_joint": 1.9715463870305268,
            "shoulder_lift_joint": -1.1394903361783484,
            "shoulder_pan_joint": 0.12281147578464417,
            "wrist_1_joint": -0.7804599489681411,
            "wrist_2_joint": 0.12958660307563738,
            "wrist_3_joint": -3.1924946282119055
        }
    },
    "waypoints": [
        {
            "positions": [
                0.12281147578464417,
                -1.1394903361783484,
                1.9715463870305268,
                -0.7804599489681411,
                0.12958660307563738,
                -3.1924946282119055
            ]
        },
        {
            "positions": [
                0.05723675403151919,
                -1.173024155974171,
                2.0353224870485516,
                -0.8137008345852978,
                0.2878788028654489,
                -3.178227625324086
            ]
        },
        {
            "positions": [
                -0.00833796772160579,
                -1.2065579757699934,
                2.099098587066577,
                -0.8469417202024545,
                0.44617100265526044,
                -3.163960622436266
            ]
        },
        {
            "positions": [
                -0.07391268947473077,
                -1.240091795565816,
                2.1628746870846016,
                -0.8801826058196113,
                0.604463202445072,
                -3.1496936195484464
            ]
        },
        {
            "positions": [
                -0.13948741122785574,
                -1.2736256153616385,
                2.2266507871026264,
                -0.913423491436768,
                0.7627554022348836,
                -3.135426616660627
            ]
        },
        {
            "positions": [
                -0.20506213298098075,
                -1.3071594351574611,
                2.2904268871206517,
                -0.9466643770539247,
                0.9210476020246952,
                -3.1211596137728073
            ]
        },
        {
            "positions": [
                -0.2706368547341057,
                -1.3406932549532835,
                2.3542029871386765,
                -0.9799052626710815,
                1.0793398018145066,
                -3.1068926108849872
            ]
        },
        {
            "positions": [
                -0.3362115764872307,
                -1.374227074749106,
                2.4179790871567013,
                -1.0131461482882382,
                1.2376320016043183,
                -3.0926256079971677
            ]
        }
    ]
}