{
    "goal": {
        "global_pose": {
            "orientation": {
                "w": 0.7031023502349854,
                "x": -0.7110244035720825,
                "y": 0.007748599164187908,
                "z": 0.005598929710686207
            },
            "position": {
                "x": 0.11585023208521307,
                "y": 0.44412534475326537,
                "z": 0.3711530566215515
            }
        },
        "name": "move_to_auspresseinheit_A"
    },
    "id": "BKPIECE_move_to_auspresseinheit_A_135",
    "joint_names": [
        "shoulder_pan_joint",
        "shoulder_lift_joint",
        "elbow_joint",
        "wrist_1_joint",
        "wrist_2_joint",
        "wrist_3_joint"
    ],
    "metrics": {
        "cart_traj_len": 4.011619360643686,
        "distance_elbow_joint": 1.5180818963065628,
        "distance_shoulder_lift_joint": 0.5682065184447049,
        "distance_shoulder_pan_joint": 4.911460522040727,
        "distance_wrist_1_joint": 2.9552928889983088,
        "distance_wrist_2_joint": 2.919938461171907,
        "distance_wrist_3_joint": 3.8469645016456413,
        "smoothness": 0.783840254711409,
        "time": 0.184896214,
        "traj_len": 4.089002908852946,
        "weighted_distance": 5.503553864737709
    },
    "planner": "BKPIECE",
    "start": {
        "state": {
            "elbow_joint": 2.422574709923281,
            "shoulder_lift_joint": -1.3736533754116391,
            "shoulder_pan_joint": -0.33786336945926293,
            "wrist_1_joint": -1.0288603412921917,
            "wrist_2_joint": 1.2330224858903978,
            "wrist_3_joint": -3.094022268022082
        }
    },
    "waypoints": [
        {
            "positions": [
                -0.33786336945926293,
                -1.3736533754116391,
                2.422574709923281,
                -1.0288603412921917,
                1.2330224858903978,
                -3.094022268022082
            ]
        },
        {
            "positions": [
                -0.4452757877421496,
                -1.372730847595524,
                2.379652304901112,
                -1.09581954009459,
                1.2994429307755624,
                -2.9881578134562883
            ]
        },
        {
            "positions": [
                -0.5526882060250363,
                -1.3718083197794086,
                2.336729899878943,
                -1.1627787388969886,
                1.3658633756607268,
                -2.8822933588904944
            ]
        },
        {
            "positions": [
                -0.660100624307923,
                -1.3708857919632935,
                2.293807494856774,
                -1.2297379376993869,
                1.4322838205458914,
                -2.7764289043247006
            ]
        },
        {
            "positions": [
                -0.7675130425908097,
                -1.3699632641471782,
                2.250885089834605,
                -1.2966971365017854,
                1.4987042654310558,
                -2.6705644497589067
            ]
        },
        {
            "positions": [
                -0.8749254608736965,
                -1.369040736331063,
                2.2079626848124354,
                -1.3636563353041837,
                1.5651247103162205,
                -2.564699995193113
            ]
        },
        {
            "positions": [
                -0.9823378791565831,
                -1.368118208514948,
                2.1650402797902664,
                -1.430615534106582,
                1.631545155201385,
                -2.458835540627319
            ]
        },
        {
            "positions": [
                -1.08975029743947,
                -1.3671956806988326,
                2.1221178747680973,
                -1.4975747329089806,
                1.6979656000865497,
                -2.352971086061525
            ]
        },
        {
            "positions": [
                -1.1971627157223566,
                -1.3662731528827174,
                2.0791954697459283,
                -1.5645339317113791,
                1.7643860449717141,
                -2.2471066314957313
            ]
        },
        {
            "positions": [
                -1.3045751340052432,
                -1.3653506250666023,
                2.0362730647237592,
                -1.6314931305137774,
                1.8308064898568788,
                -2.1412421769299375
            ]
        },
        {
            "positions": [
                -1.41198755228813,
                -1.364428097250487,
                1.9933506597015902,
                -1.6984523293161757,
                1.8972269347420434,
                -2.0353777223641436
            ]
        },
        {
            "positions": [
                -1.5193999705710168,
                -1.3635055694343718,
                1.9504282546794212,
                -1.7654115281185743,
                1.9636473796272078,
                -1.9295132677983498
            ]
        },
        {
            "positions": [
                -1.6268123888539032,
                -1.3625830416182565,
                1.9075058496572521,
                -1.8323707269209726,
                2.0300678245123724,
                -1.823648813232556
            ]
        },
        {
            "positions": [
                -1.73422480713679,
                -1.3616605138021414,
                1.8645834446350829,
                -1.8993299257233711,
                2.096488269397537,
                -1.717784358666762
            ]
        },
        {
            "positions": [
                -1.841637225419677,
                -1.3607379859860262,
                1.8216610396129138,
                -1.9662891245257694,
                2.1629087142827017,
                -1.6119199041009682
            ]
        },
        {
            "positions": [
                -1.9490496437025635,
                -1.359815458169911,
                1.7787386345907445,
                -2.033248323328168,
                2.2293291591678663,
                -1.5060554495351743
            ]
        },
        {
            "positions": [
                -2.05646206198545,
                -1.3588929303537958,
                1.7358162295685755,
                -2.1002075221305665,
                2.2957496040530305,
                -1.4001909949693805
            ]
        },
        {
            "positions": [
                -2.1638744802683365,
                -1.3579704025376804,
                1.6928938245464065,
                -2.167166720932965,
                2.362170048938195,
                -1.2943265404035866
            ]
        },
        {
            "positions": [
                -2.2712868985512236,
                -1.3570478747215653,
                1.6499714195242374,
                -2.234125919735363,
                2.42859049382336,
                -1.1884620858377928
            ]
        },
        {
            "positions": [
                -2.152165418833273,
                -1.3791119154317506,
                1.6797905637605381,
                -2.1641248273131577,
                2.359615675693802,
                -1.266118258616247
            ]
        },
        {
            "positions": [
                -2.033043939115322,
                -1.4011759561419357,
                1.7096097079968389,
                -2.0941237348909523,
                2.2906408575642443,
                -1.343774431394701
            ]
        },
        {
            "positions": [
                -1.9139224593973716,
                -1.423239996852121,
                1.7394288522331398,
                -2.0241226424687464,
                2.2216660394346865,
                -1.4214306041731553
            ]
        },
        {
            "positions": [
                -1.7948009796794209,
                -1.4453040375623063,
                1.7692479964694405,
                -1.954121550046541,
                2.1526912213051284,
                -1.4990867769516094
            ]
        },
        {
            "positions": [
                -1.6756794999614701,
                -1.4673680782724916,
                1.7990671407057413,
                -1.8841204576243356,
                2.0837164031755706,
                -1.5767429497300633
            ]
        },
        {
            "positions": [
                -1.5565580202435196,
                -1.4894321189826767,
                1.828886284942042,
                -1.81411936520213,
                2.014741585046013,
                -1.6543991225085175
            ]
        },
        {
            "positions": [
                -1.4374365405255687,
                -1.511496159692862,
                1.8587054291783427,
                -1.7441182727799243,
                1.9457667669164551,
                -1.7320552952869717
            ]
        },
        {
            "positions": [
                -1.3183150608076182,
                -1.5335602004030473,
                1.8885245734146436,
                -1.6741171803577188,
                1.8767919487868974,
                -1.8097114680654258
            ]
        },
        {
            "positions": [
                -1.1991935810896674,
                -1.5556242411132324,
                1.9183437176509444,
                -1.6041160879355134,
                1.8078171306573394,
                -1.88736764084388
            ]
        },
        {
            "positions": [
                -1.0800721013717167,
                -1.5776882818234177,
                1.948162861887245,
                -1.5341149955133078,
                1.7388423125277814,
                -1.9650238136223341
            ]
        },
        {
            "positions": [
                -0.960950621653766,
                -1.599752322533603,
                1.9779820061235458,
                -1.4641139030911021,
                1.6698674943982237,
                -2.0426799864007883
            ]
        },
        {
            "positions": [
                -0.8418291419358155,
                -1.6218163632437883,
                2.0078011503598465,
                -1.3941128106688967,
                1.600892676268666,
                -2.1203361591792422
            ]
        },
        {
            "positions": [
                -0.7227076622178645,
                -1.6438804039539736,
                2.0376202945961475,
                -1.3241117182466913,
                1.5319178581391082,
                -2.1979923319576966
            ]
        },
        {
            "positions": [
                -0.6035861824999138,
                -1.6659444446641587,
                2.067439438832448,
                -1.2541106258244856,
                1.4629430400095502,
                -2.275648504736151
            ]
        },
        {
            "positions": [
                -0.4844647027819633,
                -1.688008485374344,
                2.097258583068749,
                -1.1841095334022802,
                1.3939682218799925,
                -2.353304677514605
            ]
        },
        {
            "positions": [
                -0.36534322306401257,
                -1.710072526084529,
                2.12707772730505,
                -1.1141084409800746,
                1.3249934037504347,
                -2.430960850293059
            ]
        },
        {
            "positions": [
                -0.24622174334606184,
                -1.7321365667947144,
                2.1568968715413503,
                -1.044107348557869,
                1.2560185856208768,
                -2.508617023071513
            ]
        },
        {
            "positions": [
                -0.12710026362811133,
                -1.7542006075048997,
                2.1867160157776513,
                -0.9741062561356637,
                1.187043767491319,
                -2.586273195849967
            ]
        },
        {
            "positions": [
                -0.00797878391016038,
                -1.776264648215085,
                2.216535160013952,
                -0.9041051637134581,
                1.1180689493617613,
                -2.6639293686284216
            ]
        },
        {
            "positions": [
                0.11114269580779013,
                -1.7983286889252703,
                2.2463543042502527,
                -0.8341040712912524,
                1.0490941312322033,
                -2.7415855414068755
            ]
        },
        {
            "positions": [
                0.23026417552574063,
                -1.8203927296354554,
                2.2761734484865537,
                -0.764102978869047,
                0.9801193131026458,
                -2.8192417141853294
            ]
        },
        {
            "positions": [
                0.3493856552436916,
                -1.8424567703456407,
                2.305992592722854,
                -0.6941018864468413,
                0.9111444949730878,
                -2.8968978869637834
            ]
        },
        {
            "positions": [
                0.4685071349616421,
                -1.8645208110558258,
                2.335811736959155,
                -0.6241007940246359,
                0.8421696768435298,
                -2.974554059742238
            ]
        },
        {
            "positions": [
                0.5876286146795926,
                -1.886584851766011,
                2.3656308811954556,
                -0.5540997016024305,
                0.7731948587139723,
                -3.052210232520692
            ]
        },
        {
            "positions": [
                0.7067500943975433,
                -1.9086488924761964,
                2.3954500254317566,
                -0.48409860918022485,
                0.7042200405844145,
                -3.129866405299146
            ]
        }
    ]
}