{
    "goal": {
        "global_pose": {
            "orientation": {
                "w": -0.00223480608172531,
                "x": 0.0024358444001904467,
                "y": 0.7094548369677653,
                "z": -0.704743149386269
            },
            "position": {
                "x": 0.6205249238014221,
                "y": -0.6371506643295288,
                "z": 0.19426114857196808
            }
        },
        "name": "move_to_magneteinheit_B"
    },
    "id": "BKPIECE_move_to_magneteinheit_B_56",
    "joint_names": [
        "shoulder_pan_joint",
        "shoulder_lift_joint",
        "elbow_joint",
        "wrist_1_joint",
        "wrist_2_joint",
        "wrist_3_joint"
    ],
    "metrics": {
        "cart_traj_len": 1.4540002308766489,
        "distance_elbow_joint": 0.7300879661462722,
        "distance_shoulder_lift_joint": 1.2487159912185064,
        "distance_shoulder_pan_joint": 1.622175583479716,
        "distance_wrist_1_joint": 2.6082500170879994,
        "distance_wrist_2_joint": 2.934022017254052,
        "distance_wrist_3_joint": 3.1325970744931086,
        "smoothness": 4.440892118007475e-16,
        "time": 0.498046407,
        "traj_len": 3.5036907183254145,
        "weighted_distance": 4.9074754031994825
    },
    "planner": "BKPIECE",
    "start": {
        "state": {
            "elbow_joint": 2.39358713078474,
            "shoulder_lift_joint": -1.908514104345545,
            "shoulder_pan_joint": 0.7066247066606129,
            "wrist_1_joint": -0.4678290933515497,
            "wrist_2_joint": 0.7096259083745334,
            "wrist_3_joint": -3.1358149277392293
        }
    },
    "waypoints": [
        {
            "positions": [
                0.7066247066606129,
                -1.908514104345545,
                2.39358713078474,
                -0.4678290933515497,
                0.7096259083745334,
                -3.1358149277392293
            ]
        },
        {
            "positions": [
                0.654296462032235,
                -1.8682329433384963,
                2.370035906070344,
                -0.38369199602613036,
                0.6149800368502092,
                -3.0347634092071933
            ]
        },
        {
            "positions": [
                0.6019682174038571,
                -1.8279517823314477,
                2.3464846813559483,
                -0.29955489870071106,
                0.520334165325885,
                -2.933711890675158
            ]
        },
        {
            "positions": [
                0.5496399727754792,
                -1.7876706213243991,
                2.3229334566415525,
                -0.2154178013752917,
                0.42568829380156065,
                -2.8326603721431223
            ]
        },
        {
            "positions": [
                0.49731172814710123,
                -1.7473894603173505,
                2.2993822319271566,
                -0.13128070404987235,
                0.3310424222772364,
                -2.7316088536110863
            ]
        },
        {
            "positions": [
                0.44498348351872324,
                -1.707108299310302,
                2.2758310072127608,
                -0.04714360672445306,
                0.23639655075291216,
                -2.6305573350790503
            ]
        },
        {
            "positions": [
                0.3926552388903453,
                -1.6668271383032534,
                2.252279782498365,
                0.036993490600966294,
                0.14175067922858786,
                -2.529505816547015
            ]
        },
        {
            "positions": [
                0.3403269942619674,
                -1.6265459772962048,
                2.228728557783969,
                0.12113058792638559,
                0.04710480770426362,
                -2.4284542980149793
            ]
        },
        {
            "positions": [
                0.28799874963358946,
                -1.5862648162891562,
                2.205177333069573,
                0.205267685251805,
                -0.047541063820060625,
                -2.3274027794829433
            ]
        },
        {
            "positions": [
                0.23567050500521147,
                -1.5459836552821076,
                2.1816261083551773,
                0.2894047825772244,
                -0.14218693534438498,
                -2.2263512609509073
            ]
        },
        {
            "positions": [
                0.18334226037683354,
                -1.505702494275059,
                2.158074883640781,
                0.3735418799026436,
                -0.2368328068687091,
                -2.1252997424188718
            ]
        },
        {
            "positions": [
                0.13101401574845561,
                -1.4654213332680104,
                2.134523658926385,
                0.457678977228063,
                -0.3314786783930336,
                -2.024248223886836
            ]
        },
        {
            "positions": [
                0.07868577112007769,
                -1.4251401722609618,
                2.1109724342119893,
                0.5418160745534824,
                -0.4261245499173577,
                -1.9231967053548003
            ]
        },
        {
            "positions": [
                0.026357526491699756,
                -1.3848590112539132,
                2.0874212094975935,
                0.6259531718789018,
                -0.5207704214416821,
                -1.8221451868227643
            ]
        },
        {
            "positions": [
                -0.025970718136678173,
                -1.3445778502468646,
                2.0638699847831976,
                0.710090269204321,
                -0.6154162929660062,
                -1.7210936682907287
            ]
        },
        {
            "positions": [
                -0.0782989627650561,
                -1.304296689239816,
                2.0403187600688018,
                0.7942273665297404,
                -0.7100621644903305,
                -1.6200421497586928
            ]
        },
        {
            "positions": [
                -0.13062720739343403,
                -1.2640155282327674,
                2.016767535354406,
                0.8783644638551598,
                -0.8047080360146547,
                -1.5189906312266572
            ]
        },
        {
            "positions": [
                -0.18295545202181185,
                -1.2237343672257188,
                1.99321631064001,
                0.962501561180579,
                -0.8993539075389788,
                -1.4179391126946215
            ]
        },
        {
            "positions": [
                -0.23528369665019,
                -1.1834532062186702,
                1.9696650859256142,
                1.0466386585059986,
                -0.9939997790633034,
                -1.3168875941625855
            ]
        },
        {
            "positions": [
                -0.2876119412785678,
                -1.1431720452116216,
                1.9461138612112183,
                1.1307757558314178,
                -1.0886456505876274,
                -1.2158360756305497
            ]
        },
        {
            "positions": [
                -0.33994018590694586,
                -1.102890884204573,
                1.9225626364968225,
                1.214912853156837,
                -1.1832915221119515,
                -1.1147845570985142
            ]
        },
        {
            "positions": [
                -0.39226843053532356,
                -1.0626097231975247,
                1.8990114117824266,
                1.2990499504822564,
                -1.2779373936362761,
                -1.0137330385664782
            ]
        },
        {
            "positions": [
                -0.4445966751637017,
                -1.0223285621904759,
                1.8754601870680307,
                1.3831870478076758,
                -1.3725832651606007,
                -0.9126815200344423
            ]
        },
        {
            "positions": [
                -0.49692491979207964,
                -0.9820474011834273,
                1.851908962353635,
                1.4673241451330952,
                -1.4672291366849248,
                -0.8116300015024067
            ]
        },
        {
            "positions": [
                -0.5492531644204576,
                -0.9417662401763787,
                1.828357737639239,
                1.5514612424585144,
                -1.561875008209249,
                -0.7105784829703712
            ]
        },
        {
            "positions": [
                -0.6015814090488353,
                -0.9014850791693301,
                1.8048065129248432,
                1.6355983397839338,
                -1.656520879733573,
                -0.6095269644383352
            ]
        },
        {
            "positions": [
                -0.6539096536772134,
                -0.8612039181622815,
                1.7812552882104473,
                1.7197354371093532,
                -1.7511667512578977,
                -0.5084754459062992
            ]
        },
        {
            "positions": [
                -0.7062378983055914,
                -0.8209227571552329,
                1.7577040634960515,
                1.8038725344347726,
                -1.8458126227822218,
                -0.4074239273742637
            ]
        },
        {
            "positions": [
                -0.7585661429339693,
                -0.7806415961481843,
                1.7341528387816556,
                1.8880096317601915,
                -1.940458494306546,
                -0.30637240884222816
            ]
        },
        {
            "positions": [
                -0.8108943875623472,
                -0.7403604351411357,
                1.7106016140672597,
                1.972146729085611,
                -2.03510436583087,
                -0.20532089031019218
            ]
        },
        {
            "positions": [
                -0.8632226321907251,
                -0.7000792741340871,
                1.6870503893528637,
                2.0562838264110304,
                -2.1297502373551946,
                -0.1042693717781562
            ]
        },
        {
            "positions": [
                -0.915550876819103,
                -0.6597981131270385,
                1.6634991646384678,
                2.1404209237364498,
                -2.2243961088795188,
                -0.0032178532461207697
            ]
        }
    ]
}