{
    "goal": {
        "global_pose": {
            "orientation": {
                "w": -0.00223480608172531,
                "x": 0.0024358444001904467,
                "y": 0.7094548369677653,
                "z": -0.704743149386269
            },
            "position": {
                "x": 0.6205249238014221,
                "y": -0.6371506643295288,
                "z": 0.19426114857196808
            }
        },
        "name": "move_to_magneteinheit_B"
    },
    "id": "BKPIECE_move_to_magneteinheit_B_34",
    "joint_names": [
        "shoulder_pan_joint",
        "shoulder_lift_joint",
        "elbow_joint",
        "wrist_1_joint",
        "wrist_2_joint",
        "wrist_3_joint"
    ],
    "metrics": {
        "cart_traj_len": 3.9188839770281785,
        "distance_elbow_joint": 4.601042727938626,
        "distance_shoulder_lift_joint": 0.44544176467229857,
        "distance_shoulder_pan_joint": 2.5138130009323363,
        "distance_wrist_1_joint": 2.5790877742329017,
        "distance_wrist_2_joint": 1.2579970667542426,
        "distance_wrist_3_joint": 6.274823362615104,
        "smoothness": 0.2612123503411119,
        "time": 0.49360970299999996,
        "traj_len": 4.203832263202888,
        "weighted_distance": 5.836003535242492
    },
    "planner": "BKPIECE",
    "start": {
        "state": {
            "elbow_joint": 2.39358713078474,
            "shoulder_lift_joint": -1.908514104345545,
            "shoulder_pan_joint": 0.7066247066606129,
            "wrist_1_joint": -0.4678290933515497,
            "wrist_2_joint": 0.7096259083745334,
            "wrist_3_joint": -3.1358149277392293
        }
    },
    "waypoints": [
        {
            "positions": [
                0.7066247066606129,
                -1.908514104345545,
                2.39358713078474,
                -0.4678290933515497,
                0.7096259083745334,
                -3.1358149277392293
            ]
        },
        {
            "positions": [
                0.6217695502470927,
                -1.9054713674205672,
                2.373810781309201,
                -0.4007355891384452,
                0.657792603269596,
                -2.9960498487986125
            ]
        },
        {
            "positions": [
                0.5369143938335725,
                -1.9024286304955895,
                2.3540344318336626,
                -0.33364208492534064,
                0.6059592981646587,
                -2.8562847698579956
            ]
        },
        {
            "positions": [
                0.4520592374200522,
                -1.8993858935706118,
                2.3342580823581236,
                -0.2665485807122361,
                0.5541259930597212,
                -2.7165196909173788
            ]
        },
        {
            "positions": [
                0.4434600300283259,
                -1.8740259318408883,
                2.139992432271202,
                -0.24386133560559936,
                0.5609445998981863,
                -2.5927895387560667
            ]
        },
        {
            "positions": [
                0.4348608226365996,
                -1.848665970111165,
                1.94572678218428,
                -0.22117409049896267,
                0.5677632067366516,
                -2.4690593865947545
            ]
        },
        {
            "positions": [
                0.42626161524487327,
                -1.8233060083814414,
                1.7514611320973583,
                -0.19848684539232594,
                0.5745818135751167,
                -2.3453292344334424
            ]
        },
        {
            "positions": [
                0.47639580050159863,
                -1.855819652240773,
                1.7785013867343056,
                -0.186752103095591,
                0.5157391586088315,
                -2.2462807670801594
            ]
        },
        {
            "positions": [
                0.526529985758324,
                -1.888333296100105,
                1.8055416413712526,
                -0.17501736079885605,
                0.4568965036425462,
                -2.147232299726876
            ]
        },
        {
            "positions": [
                0.5766641710150493,
                -1.9208469399594366,
                1.8325818960081999,
                -0.1632826185021211,
                0.3980538486762609,
                -2.048183832373593
            ]
        },
        {
            "positions": [
                0.6525134169430207,
                -1.9214039128636164,
                1.6863359029460008,
                -0.17312979085356336,
                0.3948891295138293,
                -1.8923302995145184
            ]
        },
        {
            "positions": [
                0.7283626628709919,
                -1.9219608857677966,
                1.5400899098838017,
                -0.18297696320500562,
                0.3917244103513977,
                -1.736476766655444
            ]
        },
        {
            "positions": [
                0.8042119087989633,
                -1.9225178586719764,
                1.3938439168216026,
                -0.19282413555644787,
                0.3885596911889661,
                -1.5806232337963695
            ]
        },
        {
            "positions": [
                0.8800611547269346,
                -1.9230748315761563,
                1.2475979237594037,
                -0.20267130790789012,
                0.3853949720265345,
                -1.4247697009372948
            ]
        },
        {
            "positions": [
                0.955910400654906,
                -1.9236318044803364,
                1.1013519306972044,
                -0.2125184802593324,
                0.3822302528641029,
                -1.2689161680782202
            ]
        },
        {
            "positions": [
                1.0317596465828773,
                -1.9241887773845163,
                0.9551059376350055,
                -0.22236565261077462,
                0.3790655337016713,
                -1.1130626352191457
            ]
        },
        {
            "positions": [
                1.1076088925108487,
                -1.9247457502886962,
                0.8088599445728064,
                -0.2322128249622169,
                0.3759008145392397,
                -0.9572091023600711
            ]
        },
        {
            "positions": [
                1.1834581384388199,
                -1.9253027231928763,
                0.6626139515106075,
                -0.24205999731365913,
                0.3727360953768081,
                -0.8013555695009966
            ]
        },
        {
            "positions": [
                1.2593073843667915,
                -1.9258596960970562,
                0.5163679584484084,
                -0.2519071696651014,
                0.36957137621437647,
                -0.645502036641922
            ]
        },
        {
            "positions": [
                1.3351566302947626,
                -1.926416669001236,
                0.3701219653862091,
                -0.2617543420165437,
                0.36640665705194486,
                -0.4896485037828475
            ]
        },
        {
            "positions": [
                1.411005876222734,
                -1.9269736419054162,
                0.22387597232401024,
                -0.2716015143679859,
                0.3632419378895133,
                -0.3337949709237731
            ]
        },
        {
            "positions": [
                1.4868551221507054,
                -1.927530614809596,
                0.07762997926181114,
                -0.28144868671942813,
                0.36007721872708165,
                -0.17794143806469842
            ]
        },
        {
            "positions": [
                1.5627043680786765,
                -1.928087587713776,
                -0.06861601380038773,
                -0.2912958590708704,
                0.3569124995646501,
                -0.022087905205624203
            ]
        },
        {
            "positions": [
                1.6385536140066481,
                -1.928644560617956,
                -0.21486200686258705,
                -0.3011430314223127,
                0.35374778040221844,
                0.1337656276534509
            ]
        },
        {
            "positions": [
                1.7144028599346193,
                -1.929201533522136,
                -0.36110799992478615,
                -0.3109902037737549,
                0.3505830612397869,
                0.2896191605125251
            ]
        },
        {
            "positions": [
                1.7902521058625906,
                -1.9297585064263159,
                -0.5073539929869848,
                -0.32083737612519714,
                0.3474183420773553,
                0.4454726933715998
            ]
        },
        {
            "positions": [
                1.866101351790562,
                -1.930315479330496,
                -0.6535999860491843,
                -0.3306845484766394,
                0.3442536229149237,
                0.6013262262306744
            ]
        },
        {
            "positions": [
                1.9419505977185334,
                -1.9308724522346759,
                -0.799845979111383,
                -0.3405317208280817,
                0.34108890375249207,
                0.7571797590897491
            ]
        },
        {
            "positions": [
                2.0177998436465048,
                -1.9314294251388557,
                -0.9460919721735821,
                -0.3503788931795239,
                0.33792418459006046,
                0.9130332919488233
            ]
        },
        {
            "positions": [
                2.093649089574476,
                -1.9319863980430358,
                -1.0923379652357816,
                -0.3602260655309662,
                0.33475946542762886,
                1.068886824807898
            ]
        },
        {
            "positions": [
                2.1694983355024475,
                -1.9325433709472157,
                -1.2385839582979803,
                -0.3700732378824084,
                0.33159474626519725,
                1.2247403576669726
            ]
        },
        {
            "positions": [
                2.2453475814304187,
                -1.9331003438513956,
                -1.3848299513601794,
                -0.3799204102338507,
                0.32843002710276564,
                1.3805938905260469
            ]
        },
        {
            "positions": [
                2.3211968273583903,
                -1.9336573167555757,
                -1.5310759444223785,
                -0.389767582585293,
                0.32526530794033404,
                1.536447423385122
            ]
        },
        {
            "positions": [
                2.3970460732863614,
                -1.9342142896597556,
                -1.6773219374845776,
                -0.3996147549367352,
                0.32210058877790243,
                1.6923009562441962
            ]
        },
        {
            "positions": [
                2.425032983969183,
                -1.9378182551206662,
                -1.7418189326769242,
                -0.44270170114124263,
                0.32802939919241625,
                1.7584601877506971
            ]
        },
        {
            "positions": [
                2.4530198946520043,
                -1.9414222205815768,
                -1.8063159278692709,
                -0.48578864734575,
                0.3339582096069301,
                1.824619419257198
            ]
        },
        {
            "positions": [
                2.47588783225403,
                -1.960824850148957,
                -1.8112256510317555,
                -0.6455508773222007,
                0.2735746667462041,
                1.9415568389947002
            ]
        },
        {
            "positions": [
                2.4987557698560554,
                -1.980227479716337,
                -1.81613537419424,
                -0.8053131072986515,
                0.21319112388547812,
                2.0584942587322024
            ]
        },
        {
            "positions": [
                2.521623707458081,
                -1.9996301092837172,
                -1.8210450973567247,
                -0.9650753372751022,
                0.15280758102475211,
                2.175431678469705
            ]
        },
        {
            "positions": [
                2.5444916450601065,
                -2.0190327388510974,
                -1.8259548205192093,
                -1.124837567251553,
                0.09242403816402611,
                2.292369098207207
            ]
        },
        {
            "positions": [
                2.5673595826621316,
                -2.0384353684184777,
                -1.8308645436816942,
                -1.2845997972280037,
                0.03204049530330011,
                2.4093065179447093
            ]
        },
        {
            "positions": [
                2.590227520264157,
                -2.0578379979858576,
                -1.8357742668441788,
                -1.4443620272044544,
                -0.028343047557425893,
                2.5262439376822114
            ]
        },
        {
            "positions": [
                2.6130954578661827,
                -2.077240627553238,
                -1.8406839900066634,
                -1.6041242571809051,
                -0.0887265904181519,
                2.6431813574197136
            ]
        },
        {
            "positions": [
                2.6359633954682082,
                -2.096643257120618,
                -1.845593713169148,
                -1.7638864871573559,
                -0.1491101332788779,
                2.760118777157216
            ]
        },
        {
            "positions": [
                2.658831333070234,
                -2.1160458866879983,
                -1.8505034363316326,
                -1.9236487171338066,
                -0.2094936761396039,
                2.8770561968947184
            ]
        },
        {
            "positions": [
                2.6590513809930427,
                -2.132919334288408,
                -1.8018257780814895,
                -2.0521925173217537,
                -0.2780563260274186,
                2.9425442563900077
            ]
        },
        {
            "positions": [
                2.6592714289158517,
                -2.1497927818888174,
                -1.7531481198313463,
                -2.1807363175097008,
                -0.3466189759152333,
                3.0080323158852975
            ]
        },
        {
            "positions": [
                2.659491476838661,
                -2.166666229489227,
                -1.7044704615812032,
                -2.3092801176976474,
                -0.4151816258030479,
                3.0735203753805873
            ]
        },
        {
            "positions": [
                2.65971152476147,
                -2.1835396770896365,
                -1.65579280333106,
                -2.4378239178855945,
                -0.4837442756908626,
                3.1390084348758767
            ]
        }
    ]
}