{
    "goal": {
        "global_pose": {
            "orientation": {
                "w": -0.00223480608172531,
                "x": 0.0024358444001904467,
                "y": 0.7094548369677653,
                "z": -0.704743149386269
            },
            "position": {
                "x": 0.6205249238014221,
                "y": -0.6371506643295288,
                "z": 0.19426114857196808
            }
        },
        "name": "move_to_magneteinheit_B"
    },
    "id": "BKPIECE_move_to_magneteinheit_B_116",
    "joint_names": [
        "shoulder_pan_joint",
        "shoulder_lift_joint",
        "elbow_joint",
        "wrist_1_joint",
        "wrist_2_joint",
        "wrist_3_joint"
    ],
    "metrics": {
        "cart_traj_len": 3.7873488236938484,
        "distance_elbow_joint": 4.908818606344893,
        "distance_shoulder_lift_joint": 1.6060945154419715,
        "distance_shoulder_pan_joint": 2.302074946713835,
        "distance_wrist_1_joint": 2.004493440267706,
        "distance_wrist_2_joint": 1.2658242954725387,
        "distance_wrist_3_joint": 6.29366775139564,
        "smoothness": 0.2808752484164939,
        "time": 0.139707113,
        "traj_len": 4.287303762930331,
        "weighted_distance": 5.851378196131926
    },
    "planner": "BKPIECE",
    "start": {
        "state": {
            "elbow_joint": 2.39358713078474,
            "shoulder_lift_joint": -1.908514104345545,
            "shoulder_pan_joint": 0.7066247066606129,
            "wrist_1_joint": -0.4678290933515497,
            "wrist_2_joint": 0.7096259083745334,
            "wrist_3_joint": -3.1358149277392293
        }
    },
    "waypoints": [
        {
            "positions": [
                0.7066247066606129,
                -1.908514104345545,
                2.39358713078474,
                -0.4678290933515497,
                0.7096259083745334,
                -3.1358149277392293
            ]
        },
        {
            "positions": [
                0.7428759409568617,
                -1.9586086862297507,
                2.463249739452189,
                -0.5256638864338871,
                0.6691184067707103,
                -3.036163852525738
            ]
        },
        {
            "positions": [
                0.7791271752531105,
                -2.0087032681139565,
                2.532912348119638,
                -0.5834986795162245,
                0.6286109051668871,
                -2.936512777312247
            ]
        },
        {
            "positions": [
                0.8153784095493591,
                -2.058797849998162,
                2.602574956787087,
                -0.6413334725985618,
                0.5881034035630641,
                -2.8368617020987554
            ]
        },
        {
            "positions": [
                0.8516296438456079,
                -2.1088924318823676,
                2.672237565454536,
                -0.6991682656808993,
                0.5475959019592409,
                -2.7372106268852643
            ]
        },
        {
            "positions": [
                0.8878808781418567,
                -2.1589870137665734,
                2.741900174121985,
                -0.7570030587632366,
                0.5070884003554178,
                -2.637559551671773
            ]
        },
        {
            "positions": [
                0.9404873824010949,
                -2.14105887849142,
                2.620966980979357,
                -0.7965716558007605,
                0.47950016459391986,
                -2.5064486999279985
            ]
        },
        {
            "positions": [
                0.9930938866603329,
                -2.1231307432162665,
                2.5000337878367294,
                -0.8361402528382845,
                0.4519119288324219,
                -2.3753378481842238
            ]
        },
        {
            "positions": [
                1.045700390919571,
                -2.105202607941113,
                2.3791005946941013,
                -0.8757088498758084,
                0.424323693070924,
                -2.2442269964404487
            ]
        },
        {
            "positions": [
                1.0983068951788093,
                -2.0872744726659596,
                2.2581674015514737,
                -0.9152774469133325,
                0.396735457309426,
                -2.113116144696674
            ]
        },
        {
            "positions": [
                1.1509133994380474,
                -2.0693463373908063,
                2.1372342084088456,
                -0.9548460439508564,
                0.36914722154792806,
                -1.9820052929528993
            ]
        },
        {
            "positions": [
                1.2035199036972855,
                -2.0514182021156526,
                2.016301015266218,
                -0.9944146409883804,
                0.3415589857864301,
                -1.8508944412091246
            ]
        },
        {
            "positions": [
                1.2561264079565235,
                -2.033490066840499,
                1.89536782212359,
                -1.0339832380259044,
                0.31397075002493213,
                -1.71978358946535
            ]
        },
        {
            "positions": [
                1.3087329122157616,
                -2.0155619315653457,
                1.7744346289809618,
                -1.0735518350634283,
                0.2863825142634342,
                -1.588672737721575
            ]
        },
        {
            "positions": [
                1.361339416475,
                -1.9976337962901922,
                1.6535014358383342,
                -1.1131204321009522,
                0.25879427850193626,
                -1.4575618859778003
            ]
        },
        {
            "positions": [
                1.413945920734238,
                -1.9797056610150388,
                1.5325682426957061,
                -1.1526890291384762,
                0.23120604274043832,
                -1.3264510342340254
            ]
        },
        {
            "positions": [
                1.466552424993476,
                -1.9617775257398853,
                1.4116350495530783,
                -1.192257626176,
                0.20361780697894039,
                -1.1953401824902508
            ]
        },
        {
            "positions": [
                1.5191589292527143,
                -1.9438493904647318,
                1.2907018564104504,
                -1.2318262232135242,
                0.17602957121744245,
                -1.064229330746476
            ]
        },
        {
            "positions": [
                1.5717654335119524,
                -1.9259212551895784,
                1.1697686632678226,
                -1.271394820251048,
                0.1484413354559445,
                -0.9331184790027012
            ]
        },
        {
            "positions": [
                1.6243719377711905,
                -1.9079931199144249,
                1.0488354701251947,
                -1.310963417288572,
                0.12085309969444652,
                -0.8020076272589265
            ]
        },
        {
            "positions": [
                1.6769784420304288,
                -1.8900649846392714,
                0.9279022769825669,
                -1.3505320143260962,
                0.09326486393294858,
                -0.6708967755151518
            ]
        },
        {
            "positions": [
                1.7295849462896666,
                -1.872136849364118,
                0.8069690838399388,
                -1.39010061136362,
                0.06567662817145065,
                -0.5397859237713769
            ]
        },
        {
            "positions": [
                1.782191450548905,
                -1.8542087140889645,
                0.686035890697311,
                -1.429669208401144,
                0.03808839240995271,
                -0.4086750720276022
            ]
        },
        {
            "positions": [
                1.834797954808143,
                -1.836280578813811,
                0.5651026975546833,
                -1.4692378054386679,
                0.010500156648454773,
                -0.27756422028382755
            ]
        },
        {
            "positions": [
                1.887404459067381,
                -1.8183524435386575,
                0.44416950441205527,
                -1.5088064024761918,
                -0.01708807911304311,
                -0.14645336854005286
            ]
        },
        {
            "positions": [
                1.9400109633266194,
                -1.800424308263504,
                0.3232363112694272,
                -1.5483749995137157,
                -0.044676314874541156,
                -0.015342516796277739
            ]
        },
        {
            "positions": [
                1.9926174675858572,
                -1.7824961729883506,
                0.20230311812679957,
                -1.5879435965512396,
                -0.07226455063603898,
                0.1157683349474965
            ]
        },
        {
            "positions": [
                2.0452239718450955,
                -1.7645680377131971,
                0.0813699249841715,
                -1.6275121935887638,
                -0.09985278639753703,
                0.24687918669127162
            ]
        },
        {
            "positions": [
                2.0978304761043334,
                -1.7466399024380437,
                -0.03956326815845612,
                -1.6670807906262877,
                -0.12744102215903497,
                0.3779900384350463
            ]
        },
        {
            "positions": [
                2.1504369803635717,
                -1.7287117671628902,
                -0.1604964613010842,
                -1.7066493876638118,
                -0.1550292579205329,
                0.509100890178821
            ]
        },
        {
            "positions": [
                2.20304348462281,
                -1.7107836318877367,
                -0.2814296544437118,
                -1.7462179847013357,
                -0.18261749368203084,
                0.6402117419225957
            ]
        },
        {
            "positions": [
                2.2556499888820483,
                -1.6928554966125833,
                -0.4023628475863399,
                -1.7857865817388596,
                -0.21020572944352878,
                0.7713225936663708
            ]
        },
        {
            "positions": [
                2.308256493141286,
                -1.6749273613374298,
                -0.5232960407289675,
                -1.8253551787763835,
                -0.23779396520502671,
                0.902433445410145
            ]
        },
        {
            "positions": [
                2.3608629974005244,
                -1.6569992260622763,
                -0.6442292338715956,
                -1.8649237758139074,
                -0.26538220096652476,
                1.0335442971539202
            ]
        },
        {
            "positions": [
                2.4134695016597623,
                -1.6390710907871229,
                -0.7651624270142232,
                -1.9044923728514314,
                -0.2929704367280226,
                1.1646551488976948
            ]
        },
        {
            "positions": [
                2.4660760059190006,
                -1.6211429555119694,
                -0.8860956201568513,
                -1.9440609698889555,
                -0.32055867248952064,
                1.2957660006414695
            ]
        },
        {
            "positions": [
                2.5186825101782384,
                -1.603214820236816,
                -1.0070288132994794,
                -1.9836295669264794,
                -0.34814690825101846,
                1.4268768523852438
            ]
        },
        {
            "positions": [
                2.5712890144374767,
                -1.5852866849616625,
                -1.1279620064421074,
                -2.023198163964003,
                -0.3757351440125165,
                1.5579877041290193
            ]
        },
        {
            "positions": [
                2.623895518696715,
                -1.567358549686509,
                -1.248895199584735,
                -2.0627667610015274,
                -0.40332337977401445,
                1.689098555872794
            ]
        },
        {
            "positions": [
                2.6765020229559533,
                -1.5494304144113555,
                -1.3698283927273631,
                -2.1023353580390514,
                -0.4309116155355124,
                1.8202094076165687
            ]
        },
        {
            "positions": [
                2.729108527215191,
                -1.531502279136202,
                -1.4907615858699903,
                -2.1419039550765753,
                -0.4584998512970103,
                1.9513202593603434
            ]
        },
        {
            "positions": [
                2.7817150314744294,
                -1.5135741438610486,
                -1.6116947790126184,
                -2.181472552114099,
                -0.48608808705850826,
                2.082431111104118
            ]
        },
        {
            "positions": [
                2.8343215357336673,
                -1.4956460085858951,
                -1.7326279721552469,
                -2.221041149151623,
                -0.5136763228200062,
                2.2135419628478927
            ]
        },
        {
            "positions": [
                2.80015042081029,
                -1.6157517065095226,
                -1.7224087336921954,
                -2.2705328340590403,
                -0.5113967245786074,
                2.3806631301562398
            ]
        },
        {
            "positions": [
                2.765979305886913,
                -1.73585740443315,
                -1.7121894952291439,
                -2.3200245189664574,
                -0.5091171263372087,
                2.547784297464587
            ]
        },
        {
            "positions": [
                2.7318081909635357,
                -1.8559631023567773,
                -1.7019702567660926,
                -2.369516203873875,
                -0.50683752809581,
                2.714905464772934
            ]
        },
        {
            "positions": [
                2.6976370760401585,
                -1.9760688002804048,
                -1.691751018303041,
                -2.4190078887812922,
                -0.5045579298544113,
                2.882026632081281
            ]
        },
        {
            "positions": [
                2.6634659611167812,
                -2.0961744982040322,
                -1.6815317798399896,
                -2.4684995736887094,
                -0.5022783316130125,
                3.049147799389628
            ]
        },
        {
            "positions": [
                2.6599434180928867,
                -2.18792660942616,
                -1.646650555424831,
                -2.4646766137581633,
                -0.47115425854200743,
                3.157852823656412
            ]
        }
    ]
}