{
    "goal": {
        "global_pose": {
            "orientation": {
                "w": 0.7047431468963623,
                "x": -0.7094548344612122,
                "y": 0.0024358443915843964,
                "z": -0.0022348060738295317
            },
            "position": {
                "x": 0.6094750761985779,
                "y": 0.3671506643295288,
                "z": 0.19426114857196808
            }
        },
        "name": "move_to_magneteinheit_A"
    },
    "id": "BKPIECE_move_to_magneteinheit_A_140",
    "joint_names": [
        "shoulder_pan_joint",
        "shoulder_lift_joint",
        "elbow_joint",
        "wrist_1_joint",
        "wrist_2_joint",
        "wrist_3_joint"
    ],
    "metrics": {
        "cart_traj_len": 1.792388588835359,
        "distance_elbow_joint": 3.9121886023062764,
        "distance_shoulder_lift_joint": 1.138645840560408,
        "distance_shoulder_pan_joint": 1.241498768015911,
        "distance_wrist_1_joint": 1.7163786864125035,
        "distance_wrist_2_joint": 3.2181404080964136,
        "distance_wrist_3_joint": 4.240617683015191,
        "smoothness": 0.18074017744668675,
        "time": 0.228350978,
        "traj_len": 3.932870451515878,
        "weighted_distance": 5.374311532554287
    },
    "planner": "BKPIECE",
    "start": {
        "state": {
            "elbow_joint": -1.919643507792019,
            "shoulder_lift_joint": -0.07675430207160344,
            "shoulder_pan_joint": -1.1188671864651873,
            "wrist_1_joint": 0.42560062535961957,
            "wrist_2_joint": 1.5706038300724876,
            "wrist_3_joint": 1.1188968870953055
        }
    },
    "waypoints": [
        {
            "positions": [
                -1.1188671864651873,
                -0.07675430207160344,
                -1.919643507792019,
                0.42560062535961957,
                1.5706038300724876,
                1.1188968870953055
            ]
        },
        {
            "positions": [
                -1.0882577944503435,
                -0.11626765055265031,
                -1.8306193903528971,
                0.4332173229587584,
                1.4875227229263541,
                0.9729038380199065
            ]
        },
        {
            "positions": [
                -1.0576484024354997,
                -0.1557809990336972,
                -1.7415952729137754,
                0.4408340205578973,
                1.4044416157802209,
                0.8269107889445075
            ]
        },
        {
            "positions": [
                -1.027039010420656,
                -0.19529434751474403,
                -1.6525711554746534,
                0.44845071815703613,
                1.3213605086340874,
                0.6809177398691084
            ]
        },
        {
            "positions": [
                -0.996429618405812,
                -0.2348076959957909,
                -1.5635470380355314,
                0.456067415756175,
                1.2382794014879541,
                0.5349246907937094
            ]
        },
        {
            "positions": [
                -0.9658202263909682,
                -0.2743210444768378,
                -1.4745229205964097,
                0.4636841133553138,
                1.1551982943418206,
                0.3889316417183103
            ]
        },
        {
            "positions": [
                -0.9352108343761244,
                -0.3138343929578846,
                -1.3854988031572877,
                0.47130081095445264,
                1.0721171871956874,
                0.2429385926429113
            ]
        },
        {
            "positions": [
                -0.9046014423612805,
                -0.3533477414389315,
                -1.2964746857181657,
                0.4789175085535915,
                0.9890360800495539,
                0.09694554356751217
            ]
        },
        {
            "positions": [
                -0.8739920503464367,
                -0.39286108991997837,
                -1.207450568279044,
                0.48653420615273035,
                0.9059549729034205,
                -0.049047505507886724
            ]
        },
        {
            "positions": [
                -0.8433826583315929,
                -0.43237443840102524,
                -1.1184264508399218,
                0.4941509037518692,
                0.822873865757287,
                -0.19504055458328606
            ]
        },
        {
            "positions": [
                -0.8127732663167491,
                -0.4718877868820721,
                -1.0294023334008,
                0.5017676013510081,
                0.7397927586111537,
                -0.34103360365868496
            ]
        },
        {
            "positions": [
                -0.7821638743019053,
                -0.5114011353631189,
                -0.940378215961678,
                0.5093842989501469,
                0.6567116514650204,
                -0.4870266527340841
            ]
        },
        {
            "positions": [
                -0.7515544822870615,
                -0.5509144838441657,
                -0.8513540985225563,
                0.5170009965492858,
                0.573630544318887,
                -0.633019701809483
            ]
        },
        {
            "positions": [
                -0.7209450902722175,
                -0.5904278323252128,
                -0.7623299810834343,
                0.5246176941484246,
                0.49054943717275346,
                -0.7790127508848823
            ]
        },
        {
            "positions": [
                -0.6903356982573737,
                -0.6299411808062596,
                -0.6733058636443123,
                0.5322343917475635,
                0.4074683300266202,
                -0.9250057999602812
            ]
        },
        {
            "positions": [
                -0.6597263062425299,
                -0.6694545292873064,
                -0.5842817462051904,
                0.5398510893467023,
                0.32438722288048694,
                -1.0709988490356803
            ]
        },
        {
            "positions": [
                -0.6291169142276861,
                -0.7089678777683532,
                -0.4952576287660686,
                0.5474677869458412,
                0.24130611573435345,
                -1.216991898111079
            ]
        },
        {
            "positions": [
                -0.5985075222128423,
                -0.7484812262494001,
                -0.40623351132694663,
                0.55508448454498,
                0.1582250085882202,
                -1.3629849471864781
            ]
        },
        {
            "positions": [
                -0.5678981301979984,
                -0.7879945747304471,
                -0.31720939388782465,
                0.5627011821441189,
                0.07514390144208649,
                -1.5089779962618777
            ]
        },
        {
            "positions": [
                -0.5372887381831546,
                -0.8275079232114939,
                -0.22818527644870268,
                0.5703178797432578,
                -0.007937205704046768,
                -1.6549710453372768
            ]
        },
        {
            "positions": [
                -0.5066793461683108,
                -0.8670212716925407,
                -0.13916115900958093,
                0.5779345773423965,
                -0.09101831285018025,
                -1.8009640944126755
            ]
        },
        {
            "positions": [
                -0.476069954153467,
                -0.9065346201735875,
                -0.05013704157045895,
                0.5855512749415355,
                -0.1740994199963135,
                -1.9469571434880746
            ]
        },
        {
            "positions": [
                -0.44546056213862306,
                -0.9460479686546344,
                0.038887075868663024,
                0.5931679725406742,
                -0.25718052714244677,
                -2.0929501925634737
            ]
        },
        {
            "positions": [
                -0.41485117012377926,
                -0.9855613171356814,
                0.12791119330778478,
                0.6007846701398131,
                -0.34026163428858025,
                -2.2389432416388724
            ]
        },
        {
            "positions": [
                -0.38424177810893545,
                -1.0250746656167282,
                0.21693531074690653,
                0.6084013677389519,
                -0.4233427414347135,
                -2.3849362907142715
            ]
        },
        {
            "positions": [
                -0.35363238609409153,
                -1.064588014097775,
                0.3059594281860287,
                0.6160180653380908,
                -0.506423848580847,
                -2.530929339789671
            ]
        },
        {
            "positions": [
                -0.3230229940792477,
                -1.104101362578822,
                0.3949835456251505,
                0.6236347629372296,
                -0.5895049557269807,
                -2.67692238886507
            ]
        },
        {
            "positions": [
                -0.2924136020644039,
                -1.143614711059869,
                0.4840076630642727,
                0.6312514605363685,
                -0.672586062873114,
                -2.822915437940469
            ]
        },
        {
            "positions": [
                -0.2618042100495601,
                -1.1831280595409157,
                0.5730317805033942,
                0.6388681581355073,
                -0.7556671700192474,
                -2.9689084870158675
            ]
        },
        {
            "positions": [
                -0.22976789408286977,
                -1.1804387192833243,
                0.691324556670966,
                0.513608895332456,
                -0.681344719352191,
                -2.9816428460912023
            ]
        },
        {
            "positions": [
                -0.19773157811617942,
                -1.177749379025733,
                0.809617332838538,
                0.3883496325294047,
                -0.6070222686851345,
                -2.994377205166537
            ]
        },
        {
            "positions": [
                -0.16569526214948904,
                -1.1750600387681418,
                0.9279101090061099,
                0.26309036972635336,
                -0.532699818018078,
                -3.007111564241872
            ]
        },
        {
            "positions": [
                -0.1336589461827987,
                -1.1723706985105504,
                1.0462028851736818,
                0.13783110692330203,
                -0.4583773673510216,
                -3.019845923317207
            ]
        },
        {
            "positions": [
                -0.10162263021610832,
                -1.169681358252959,
                1.1644956613412538,
                0.012571844120250697,
                -0.3840549166839651,
                -3.0325802823925416
            ]
        },
        {
            "positions": [
                -0.06958631424941797,
                -1.166992017995368,
                1.2827884375088257,
                -0.11268741868280063,
                -0.3097324660169086,
                -3.0453146414678764
            ]
        },
        {
            "positions": [
                -0.03754999828272759,
                -1.1643026777377765,
                1.4010812136763975,
                -0.23794668148585207,
                -0.23541001534985218,
                -3.058049000543211
            ]
        },
        {
            "positions": [
                -0.005513682316037272,
                -1.1616133374801851,
                1.5193739898439693,
                -0.3632059442889033,
                -0.16108756468279573,
                -3.0707833596185456
            ]
        },
        {
            "positions": [
                0.026522633650653105,
                -1.1589239972225938,
                1.6376667660115412,
                -0.4884652070919546,
                -0.08676511401573928,
                -3.0835177186938805
            ]
        },
        {
            "positions": [
                0.05855894961734348,
                -1.1562346569650024,
                1.7559595421791132,
                -0.613724469895006,
                -0.012442663348682714,
                -3.0962520777692153
            ]
        },
        {
            "positions": [
                0.0905952655840338,
                -1.1535453167074112,
                1.874252318346685,
                -0.7389837326980573,
                0.061879787318373736,
                -3.10898643684455
            ]
        },
        {
            "positions": [
                0.12263158155072416,
                -1.1508559764498199,
                1.9925450945142569,
                -0.8642429955011086,
                0.13620223798543016,
                -3.121720795919885
            ]
        }
    ]
}