{
    "goal": {
        "global_pose": {
            "orientation": {
                "w": 0.5084816217422485,
                "x": -0.49083608388900757,
                "y": 0.5182115435600281,
                "z": -0.4816462993621826
            },
            "position": {
                "x": 0.5540239810943604,
                "y": 0.030875300988554955,
                "z": 0.16403168439865112
            }
        },
        "name": "move_to_storage_A"
    },
    "id": "BKPIECE_move_to_storage_A_32",
    "joint_names": [
        "shoulder_pan_joint",
        "shoulder_lift_joint",
        "elbow_joint",
        "wrist_1_joint",
        "wrist_2_joint",
        "wrist_3_joint"
    ],
    "metrics": {
        "cart_traj_len": 0.35272594976002136,
        "distance_elbow_joint": 0.45324399594411124,
        "distance_shoulder_lift_joint": 0.23373255593731734,
        "distance_shoulder_pan_joint": 0.4620525712768898,
        "distance_wrist_1_joint": 0.2607332702054078,
        "distance_wrist_2_joint": 1.0943328614406893,
        "distance_wrist_3_joint": 0.09728570673421366,
        "smoothness": 1.1102230263833737e-15,
        "time": 0.201201678,
        "traj_len": 1.6128797108087847,
        "weighted_distance": 2.037404846036534
    },
    "planner": "BKPIECE",
    "start": {
        "state": {
            "elbow_joint": 1.9715463870305268,
            "shoulder_lift_joint": -1.1394903361783484,
            "shoulder_pan_joint": 0.12281147578464417,
            "wrist_1_joint": -0.7804599489681411,
            "wrist_2_joint": 0.12958660307563738,
            "wrist_3_joint": -3.1924946282119055
        }
    },
    "waypoints": [
        {
            "positions": [
                0.12281147578464417,
                -1.1394903361783484,
                1.9715463870305268,
                -0.7804599489681411,
                0.12958660307563738,
                -3.1924946282119055
            ]
        },
        {
            "positions": [
                0.056803965602231346,
                -1.1728807013122509,
                2.0362955293082567,
                -0.817707558997485,
                0.28591986899573585,
                -3.178596670107018
            ]
        },
        {
            "positions": [
                -0.00920354458018148,
                -1.2062710664461533,
                2.101044671585987,
                -0.854955169026829,
                0.4422531349158343,
                -3.16469871200213
            ]
        },
        {
            "positions": [
                -0.0752110547625943,
                -1.2396614315800558,
                2.165793813863717,
                -0.892202779056173,
                0.5985864008359327,
                -3.1508007538972427
            ]
        },
        {
            "positions": [
                -0.14121856494500712,
                -1.2730517967139583,
                2.2305429561414476,
                -0.929450389085517,
                0.7549196667560313,
                -3.1369027957923548
            ]
        },
        {
            "positions": [
                -0.20722607512741997,
                -1.3064421618478608,
                2.2952920984191776,
                -0.966697999114861,
                0.9112529326761298,
                -3.1230048376874673
            ]
        },
        {
            "positions": [
                -0.27323358530983277,
                -1.3398325269817632,
                2.3600412406969076,
                -1.003945609144205,
                1.067586198596228,
                -3.1091068795825794
            ]
        },
        {
            "positions": [
                -0.3392410954922456,
                -1.3732228921156657,
                2.424790382974638,
                -1.041193219173549,
                1.2239194645163267,
                -3.095208921477692
            ]
        }
    ]
}