{
    "goal": {
        "global_pose": {
            "orientation": {
                "w": -0.00223480608172531,
                "x": 0.0024358444001904467,
                "y": 0.7094548369677653,
                "z": -0.704743149386269
            },
            "position": {
                "x": 0.6205249238014221,
                "y": -0.6371506643295288,
                "z": 0.19426114857196808
            }
        },
        "name": "move_to_magneteinheit_B"
    },
    "id": "BKPIECE_move_to_magneteinheit_B_132",
    "joint_names": [
        "shoulder_pan_joint",
        "shoulder_lift_joint",
        "elbow_joint",
        "wrist_1_joint",
        "wrist_2_joint",
        "wrist_3_joint"
    ],
    "metrics": {
        "cart_traj_len": 3.9301194008484153,
        "distance_elbow_joint": 4.303240045147204,
        "distance_shoulder_lift_joint": 0.7404184671866365,
        "distance_shoulder_pan_joint": 3.722898381078573,
        "distance_wrist_1_joint": 2.0942194236458422,
        "distance_wrist_2_joint": 1.6226901644283045,
        "distance_wrist_3_joint": 3.8624027888074326,
        "smoothness": 0.46286047342593223,
        "time": 0.356540499,
        "traj_len": 4.04300250683746,
        "weighted_distance": 5.271393026134837
    },
    "planner": "BKPIECE",
    "start": {
        "state": {
            "elbow_joint": 2.39358713078474,
            "shoulder_lift_joint": -1.908514104345545,
            "shoulder_pan_joint": 0.7066247066606129,
            "wrist_1_joint": -0.4678290933515497,
            "wrist_2_joint": 0.7096259083745334,
            "wrist_3_joint": -3.1358149277392293
        }
    },
    "waypoints": [
        {
            "positions": [
                0.7066247066606129,
                -1.908514104345545,
                2.39358713078474,
                -0.4678290933515497,
                0.7096259083745334,
                -3.1358149277392293
            ]
        },
        {
            "positions": [
                0.596929675835568,
                -1.8988025879980772,
                2.354422591087416,
                -0.3758499688890841,
                0.6618915821316893,
                -3.0995067816974946
            ]
        },
        {
            "positions": [
                0.48723464501052316,
                -1.8890910716506097,
                2.3152580513900918,
                -0.2838708444266186,
                0.6141572558888452,
                -3.06319863565576
            ]
        },
        {
            "positions": [
                0.37753961418547827,
                -1.879379555303142,
                2.2760935116927676,
                -0.191891719964153,
                0.566422929646001,
                -3.0268904896140256
            ]
        },
        {
            "positions": [
                0.2678445833604333,
                -1.8696680389556746,
                2.2369289719954435,
                -0.0999125955016874,
                0.5186886034031569,
                -2.990582343572291
            ]
        },
        {
            "positions": [
                0.15814955253538843,
                -1.8599565226082069,
                2.1977644322981194,
                -0.007933471039221873,
                0.4709542771603128,
                -2.954274197530556
            ]
        },
        {
            "positions": [
                0.10314690804487142,
                -1.8477107523543999,
                2.1304378091858838,
                0.06903615577637125,
                0.42116398818069595,
                -2.8871644305756234
            ]
        },
        {
            "positions": [
                0.0481442635543544,
                -1.8354649821005928,
                2.0631111860736486,
                0.14600578259196437,
                0.3713736992010791,
                -2.8200546636206902
            ]
        },
        {
            "positions": [
                -0.006858380936162617,
                -1.8232192118467858,
                1.995784562961413,
                0.2229754094075575,
                0.3215834102214622,
                -2.7529448966657575
            ]
        },
        {
            "positions": [
                0.09287303432239845,
                -1.8301846295630155,
                1.856544155779498,
                0.21570149086069482,
                0.2988123833480886,
                -2.633265101011672
            ]
        },
        {
            "positions": [
                0.1926044495809595,
                -1.8371500472792452,
                1.7173037485975828,
                0.2084275723138321,
                0.2760413564747149,
                -2.5135853053575863
            ]
        },
        {
            "positions": [
                0.29233586483952057,
                -1.8441154649954752,
                1.5780633414156675,
                0.20115365376696942,
                0.2532703296013412,
                -2.393905509703501
            ]
        },
        {
            "positions": [
                0.39206728009808167,
                -1.851080882711705,
                1.4388229342337526,
                0.1938797352201067,
                0.2304993027279676,
                -2.274225714049415
            ]
        },
        {
            "positions": [
                0.4917986953566428,
                -1.8580463004279346,
                1.2995825270518373,
                0.18660581667324402,
                0.20772827585459394,
                -2.1545459183953297
            ]
        },
        {
            "positions": [
                0.5915301106152038,
                -1.8650117181441646,
                1.1603421198699222,
                0.1793318981263813,
                0.1849572489812203,
                -2.034866122741244
            ]
        },
        {
            "positions": [
                0.6912615258737649,
                -1.8719771358603943,
                1.021101712688007,
                0.17205797957951863,
                0.16218622210784664,
                -1.9151863270871585
            ]
        },
        {
            "positions": [
                0.7909929411323259,
                -1.878942553576624,
                0.881861305506092,
                0.16478406103265592,
                0.139415195234473,
                -1.795506531433073
            ]
        },
        {
            "positions": [
                0.890724356390887,
                -1.8859079712928537,
                0.7426208983241769,
                0.15751014248579323,
                0.11664416836109934,
                -1.6758267357789873
            ]
        },
        {
            "positions": [
                0.9904557716494481,
                -1.8928733890090834,
                0.6033804911422616,
                0.15023622393893055,
                0.09387314148772569,
                -1.5561469401249017
            ]
        },
        {
            "positions": [
                1.090187186908009,
                -1.8998388067253134,
                0.46414008396034645,
                0.14296230539206783,
                0.07110211461435206,
                -1.4364671444708161
            ]
        },
        {
            "positions": [
                1.1899186021665702,
                -1.906804224441543,
                0.32489967677843135,
                0.13568838684520512,
                0.048331087740978385,
                -1.3167873488167305
            ]
        },
        {
            "positions": [
                1.289650017425131,
                -1.9137696421577728,
                0.18565926959651624,
                0.12841446829834247,
                0.02556006086760476,
                -1.1971075531626452
            ]
        },
        {
            "positions": [
                1.3893814326836924,
                -1.9207350598740027,
                0.046418862414600914,
                0.12114054975147974,
                0.0027890339942310827,
                -1.0774277575085593
            ]
        },
        {
            "positions": [
                1.4891128479422535,
                -1.9277004775902324,
                -0.09282154476731419,
                0.11386663120461704,
                -0.019981992879142596,
                -0.9577479618544738
            ]
        },
        {
            "positions": [
                1.5888442632008144,
                -1.9346658953064622,
                -0.23206195194922907,
                0.10659271265775436,
                -0.04275301975251622,
                -0.8380681662003884
            ]
        },
        {
            "positions": [
                1.6885756784593757,
                -1.9416313130226919,
                -0.3713023591311444,
                0.09931879411089164,
                -0.0655240466258899,
                -0.7183883705463026
            ]
        },
        {
            "positions": [
                1.7883070937179366,
                -1.9485967307389216,
                -0.5105427663130593,
                0.09204487556402896,
                -0.08829507349926352,
                -0.5987085748922172
            ]
        },
        {
            "positions": [
                1.8880385089764975,
                -1.9555621484551515,
                -0.6497831734949746,
                0.08477095701716628,
                -0.11106610037263714,
                -0.4790287792381318
            ]
        },
        {
            "positions": [
                1.9877699242350588,
                -1.9625275661713812,
                -0.7890235806768899,
                0.07749703847030356,
                -0.13383712724601082,
                -0.359348983584046
            ]
        },
        {
            "positions": [
                2.08750133949362,
                -1.969492983887611,
                -0.9282639878588048,
                0.07022311992344085,
                -0.15660815411938445,
                -0.23966918792996017
            ]
        },
        {
            "positions": [
                2.187232754752181,
                -1.976458401603841,
                -1.0675043950407201,
                0.06294920137657817,
                -0.17937918099275807,
                -0.1199893922758748
            ]
        },
        {
            "positions": [
                2.286964170010742,
                -1.9834238193200706,
                -1.2067448022226355,
                0.055675282829715456,
                -0.2021502078661318,
                -0.00030959662178897673
            ]
        },
        {
            "positions": [
                2.3866955852693033,
                -1.9903892370363003,
                -1.3459852094045504,
                0.04840136428285277,
                -0.22492123473950543,
                0.11937019903229645
            ]
        },
        {
            "positions": [
                2.507002854724131,
                -2.0085563667790263,
                -1.4603297309733674,
                -0.0004657328895190452,
                -0.21965684237468008,
                0.2053311242661532
            ]
        },
        {
            "positions": [
                2.6273101241789587,
                -2.0267234965217518,
                -1.5746742525421842,
                -0.04933283006189086,
                -0.21439245000985474,
                0.2912920495000099
            ]
        },
        {
            "positions": [
                2.7476173936337864,
                -2.0448906262644777,
                -1.6890187741110012,
                -0.09819992723426268,
                -0.2091280576450294,
                0.37725297473386665
            ]
        },
        {
            "positions": [
                2.7688014993180463,
                -2.0719924407508374,
                -1.7140206138956238,
                -0.021528612509155012,
                -0.1013787052620968,
                0.32919003142493464
            ]
        },
        {
            "positions": [
                2.7899856050023066,
                -2.099094255237197,
                -1.7390224536802465,
                0.05514270221595266,
                0.006370647120835793,
                0.2811270881160026
            ]
        },
        {
            "positions": [
                2.8111697106865665,
                -2.126196069723557,
                -1.764024293464869,
                0.13181401694106032,
                0.11411999950376839,
                0.2330641448070706
            ]
        },
        {
            "positions": [
                2.8323538163708264,
                -2.1532978842099166,
                -1.7890261332494917,
                0.208485331666168,
                0.22186935188670098,
                0.1850012014981386
            ]
        },
        {
            "positions": [
                2.798313197135865,
                -2.218306864674866,
                -1.7649007770268976,
                0.36359619673506494,
                0.2701398388243128,
                0.1535845788784168
            ]
        },
        {
            "positions": [
                2.764272577900903,
                -2.2833158451398154,
                -1.7407754208043036,
                0.5187070618039619,
                0.3184103257619246,
                0.12216795625869505
            ]
        },
        {
            "positions": [
                2.7302319586659416,
                -2.3483248256047644,
                -1.7166500645817098,
                0.6738179268728587,
                0.36668081269953634,
                0.09075133363897327
            ]
        },
        {
            "positions": [
                2.69619133943098,
                -2.413333806069714,
                -1.6925247083591157,
                0.8289287919417557,
                0.41495129963714816,
                0.0593347110192515
            ]
        },
        {
            "positions": [
                2.6621507201960184,
                -2.4783427865346632,
                -1.6683993521365217,
                0.9840396570106525,
                0.46322178657476,
                0.027918088399529712
            ]
        }
    ]
}