{
    "goal": {
        "global_pose": {
            "orientation": {
                "w": 0.7031023502349854,
                "x": -0.7110244035720825,
                "y": 0.007748599164187908,
                "z": 0.005598929710686207
            },
            "position": {
                "x": 0.11585023208521307,
                "y": 0.44412534475326537,
                "z": 0.3711530566215515
            }
        },
        "name": "move_to_auspresseinheit_A"
    },
    "id": "BKPIECE_move_to_auspresseinheit_A_114",
    "joint_names": [
        "shoulder_pan_joint",
        "shoulder_lift_joint",
        "elbow_joint",
        "wrist_1_joint",
        "wrist_2_joint",
        "wrist_3_joint"
    ],
    "metrics": {
        "cart_traj_len": 1.580511270596411,
        "distance_elbow_joint": 0.34334788286283846,
        "distance_shoulder_lift_joint": 1.8486566804716396,
        "distance_shoulder_pan_joint": 1.8223580599604443,
        "distance_wrist_1_joint": 2.4478655313140614,
        "distance_wrist_2_joint": 2.000159872002322,
        "distance_wrist_3_joint": 0.0934048010667139,
        "smoothness": 1.3884894730069035,
        "time": 0.202690035,
        "traj_len": 2.9250286883512815,
        "weighted_distance": 3.631890393875871
    },
    "planner": "BKPIECE",
    "start": {
        "state": {
            "elbow_joint": 2.422574709923281,
            "shoulder_lift_joint": -1.3736533754116391,
            "shoulder_pan_joint": -0.33786336945926293,
            "wrist_1_joint": -1.0288603412921917,
            "wrist_2_joint": 1.2330224858903978,
            "wrist_3_joint": -3.094022268022082
        }
    },
    "waypoints": [
        {
            "positions": [
                -0.33786336945926293,
                -1.3736533754116391,
                2.422574709923281,
                -1.0288603412921917,
                1.2330224858903978,
                -3.094022268022082
            ]
        },
        {
            "positions": [
                -0.2423698674056236,
                -1.4531582390737503,
                2.433212597590815,
                -0.9291284471389948,
                1.1486679702834788,
                -3.0921901632932953
            ]
        },
        {
            "positions": [
                -0.1468763653519843,
                -1.5326631027358615,
                2.443850485258349,
                -0.829396552985798,
                1.0643134546765596,
                -3.090358058564508
            ]
        },
        {
            "positions": [
                -0.051382863298345016,
                -1.6121679663979727,
                2.454488372925883,
                -0.729664658832601,
                0.9799589390696405,
                -3.0885259538357213
            ]
        },
        {
            "positions": [
                0.04411063875529431,
                -1.6916728300600838,
                2.465126260593417,
                -0.6299327646794042,
                0.8956044234627214,
                -3.0866938491069345
            ]
        },
        {
            "positions": [
                0.13960414080893357,
                -1.771177693722195,
                2.475764148260951,
                -0.5302008705262072,
                0.8112499078558024,
                -3.084861744378147
            ]
        },
        {
            "positions": [
                0.2350976428625729,
                -1.8506825573843064,
                2.486402035928485,
                -0.4304689763730103,
                0.7268953922488832,
                -3.0830296396493604
            ]
        },
        {
            "positions": [
                0.33059114491621217,
                -1.9301874210464176,
                2.4970399235960192,
                -0.33073708221981335,
                0.6425408766419641,
                -3.0811975349205736
            ]
        },
        {
            "positions": [
                0.42608464696985154,
                -2.009692284708529,
                2.507677811263553,
                -0.23100518806661652,
                0.5581863610350452,
                -3.0793654301917863
            ]
        },
        {
            "positions": [
                0.5215781490234908,
                -2.0891971483706397,
                2.518315698931087,
                -0.13127329391341958,
                0.47383184542812606,
                -3.0775333254629995
            ]
        },
        {
            "positions": [
                0.6170716510771301,
                -2.1687020120327514,
                2.5289535865986212,
                -0.031541399760222744,
                0.389477329821207,
                -3.0757012207342127
            ]
        },
        {
            "positions": [
                0.7125651531307693,
                -2.248206875694862,
                2.539591474266155,
                0.06819049439297409,
                0.3051228142142879,
                -3.0738691160054255
            ]
        },
        {
            "positions": [
                0.8080586551844087,
                -2.3277117393569737,
                2.550229361933689,
                0.16792238854617114,
                0.22076829860736868,
                -3.0720370112766386
            ]
        },
        {
            "positions": [
                0.903552157238048,
                -2.407216603019085,
                2.5608672496012233,
                0.2676542826993682,
                0.1364137830004497,
                -3.070204906547852
            ]
        },
        {
            "positions": [
                0.9990456592916872,
                -2.486721466681196,
                2.571505137268757,
                0.367386176852565,
                0.052059267393530506,
                -3.0683728018190646
            ]
        },
        {
            "positions": [
                1.0945391613453266,
                -2.5662263303433073,
                2.582143024936291,
                0.46711807100576186,
                -0.03229524821338847,
                -3.0665406970902778
            ]
        },
        {
            "positions": [
                1.0457947202008449,
                -2.484215864650811,
                2.5591705789550625,
                0.3481321811287484,
                0.05956001902392849,
                -3.0747811008571415
            ]
        },
        {
            "positions": [
                0.997050279056363,
                -2.4022053989583143,
                2.536198132973834,
                0.22914629125173494,
                0.15141528626124545,
                -3.0830215046240053
            ]
        },
        {
            "positions": [
                0.9483058379118812,
                -2.320194933265818,
                2.5132256869926053,
                0.1101604013747215,
                0.24327055349856241,
                -3.091261908390869
            ]
        },
        {
            "positions": [
                0.8995613967673994,
                -2.238184467573322,
                2.490253241011377,
                -0.008825488502291978,
                0.3351258207358794,
                -3.0995023121577328
            ]
        },
        {
            "positions": [
                0.8508169556229177,
                -2.1561740018808253,
                2.4672807950301485,
                -0.12781137837930545,
                0.42698108797319634,
                -3.107742715924596
            ]
        },
        {
            "positions": [
                0.8020725144784359,
                -2.074163536188329,
                2.44430834904892,
                -0.24679726825631887,
                0.5188363552105133,
                -3.11598311969146
            ]
        },
        {
            "positions": [
                0.753328073333954,
                -1.9921530704958323,
                2.4213359030676913,
                -0.3657831581333324,
                0.6106916224478303,
                -3.1242235234583235
            ]
        },
        {
            "positions": [
                0.7045836321894723,
                -1.9101426048033359,
                2.3983634570864627,
                -0.4847690480103458,
                0.7025468896851472,
                -3.1324639272251873
            ]
        }
    ]
}