{
    "goal": {
        "global_pose": {
            "orientation": {
                "w": -0.00223480608172531,
                "x": 0.0024358444001904467,
                "y": 0.7094548369677653,
                "z": -0.704743149386269
            },
            "position": {
                "x": 0.6205249238014221,
                "y": -0.6371506643295288,
                "z": 0.19426114857196808
            }
        },
        "name": "move_to_magneteinheit_B"
    },
    "id": "BKPIECE_move_to_magneteinheit_B_133",
    "joint_names": [
        "shoulder_pan_joint",
        "shoulder_lift_joint",
        "elbow_joint",
        "wrist_1_joint",
        "wrist_2_joint",
        "wrist_3_joint"
    ],
    "metrics": {
        "cart_traj_len": 6.561502830129402,
        "distance_elbow_joint": 4.231633124639172,
        "distance_shoulder_lift_joint": 1.271196822262207,
        "distance_shoulder_pan_joint": 8.168602429027956,
        "distance_wrist_1_joint": 5.380519875120699,
        "distance_wrist_2_joint": 5.465189395059877,
        "distance_wrist_3_joint": 3.7396341499023866,
        "smoothness": 0.49814218537695953,
        "time": 0.344523848,
        "traj_len": 5.315710281421694,
        "weighted_distance": 6.825082663675045
    },
    "planner": "BKPIECE",
    "start": {
        "state": {
            "elbow_joint": 2.39358713078474,
            "shoulder_lift_joint": -1.908514104345545,
            "shoulder_pan_joint": 0.7066247066606129,
            "wrist_1_joint": -0.4678290933515497,
            "wrist_2_joint": 0.7096259083745334,
            "wrist_3_joint": -3.1358149277392293
        }
    },
    "waypoints": [
        {
            "positions": [
                0.7066247066606129,
                -1.908514104345545,
                2.39358713078474,
                -0.4678290933515497,
                0.7096259083745334,
                -3.1358149277392293
            ]
        },
        {
            "positions": [
                0.6258062364652439,
                -1.9112809175379584,
                2.425329951724318,
                -0.5186626117821768,
                0.5936525269154156,
                -3.056632801154968
            ]
        },
        {
            "positions": [
                0.5449877662698749,
                -1.9140477307303716,
                2.457072772663896,
                -0.5694961302128039,
                0.4776791454562978,
                -2.9774506745707074
            ]
        },
        {
            "positions": [
                0.4641692960745058,
                -1.916814543922785,
                2.488815593603474,
                -0.6203296486434309,
                0.36170576399717996,
                -2.8982685479864463
            ]
        },
        {
            "positions": [
                0.3672942090321806,
                -1.935705184718672,
                2.413165899585798,
                -0.6815475222246788,
                0.28333408232641233,
                -2.8397742132910526
            ]
        },
        {
            "positions": [
                0.2704191219898554,
                -1.9545958255145588,
                2.3375162055681216,
                -0.7427653958059269,
                0.20496240065564472,
                -2.781279878595659
            ]
        },
        {
            "positions": [
                0.17354403494753023,
                -1.9734864663104459,
                2.261866511550445,
                -0.8039832693871749,
                0.1265907189848771,
                -2.7227855439002653
            ]
        },
        {
            "positions": [
                0.07666894790520501,
                -1.9923771071063328,
                2.186216817532769,
                -0.865201142968423,
                0.04821903731410948,
                -2.6642912092048716
            ]
        },
        {
            "positions": [
                -0.020206139137120216,
                -2.01126774790222,
                2.110567123515093,
                -0.926419016549671,
                -0.030152644356658154,
                -2.605796874509478
            ]
        },
        {
            "positions": [
                -0.11708122617944533,
                -2.0301583886981067,
                2.0349174294974164,
                -0.9876368901309189,
                -0.10852432602742579,
                -2.5473025398140843
            ]
        },
        {
            "positions": [
                -0.2139563132217706,
                -2.0490490294939936,
                1.95926773547974,
                -1.048854763712167,
                -0.18689600769819342,
                -2.4888082051186906
            ]
        },
        {
            "positions": [
                -0.3108314002640958,
                -2.0679396702898805,
                1.8836180414620638,
                -1.110072637293415,
                -0.265267689368961,
                -2.430313870423297
            ]
        },
        {
            "positions": [
                -0.40770648730642106,
                -2.0868303110857673,
                1.8079683474443875,
                -1.171290510874663,
                -0.3436393710397287,
                -2.371819535727903
            ]
        },
        {
            "positions": [
                -0.5045815743487463,
                -2.105720951881654,
                1.7323186534267112,
                -1.232508384455911,
                -0.42201105271049627,
                -2.313325201032509
            ]
        },
        {
            "positions": [
                -0.6014566613910712,
                -2.124611592677541,
                1.656668959409035,
                -1.2937262580371591,
                -0.5003827343812639,
                -2.2548308663371155
            ]
        },
        {
            "positions": [
                -0.6983317484333964,
                -2.143502233473428,
                1.5810192653913586,
                -1.354944131618407,
                -0.5787544160520315,
                -2.196336531641722
            ]
        },
        {
            "positions": [
                -0.7952068354757218,
                -2.162392874269315,
                1.5053695713736823,
                -1.4161620051996553,
                -0.6571260977227993,
                -2.137842196946328
            ]
        },
        {
            "positions": [
                -0.892081922518047,
                -2.1812835150652017,
                1.429719877356006,
                -1.4773798787809032,
                -0.7354977793935669,
                -2.0793478622509345
            ]
        },
        {
            "positions": [
                -0.9889570095603721,
                -2.200174155861089,
                1.3540701833383297,
                -1.538597752362151,
                -0.8138694610643344,
                -2.020853527555541
            ]
        },
        {
            "positions": [
                -1.0858320966026973,
                -2.219064796656976,
                1.2784204893206534,
                -1.599815625943399,
                -0.892241142735102,
                -1.9623591928601472
            ]
        },
        {
            "positions": [
                -1.1827071836450225,
                -2.2379554374528627,
                1.2027707953029771,
                -1.6610334995246472,
                -0.9706128244058696,
                -1.9038648581647535
            ]
        },
        {
            "positions": [
                -1.2795822706873479,
                -2.2568460782487496,
                1.1271211012853009,
                -1.7222513731058953,
                -1.0489845060766374,
                -1.8453705234693596
            ]
        },
        {
            "positions": [
                -1.376457357729673,
                -2.2757367190446365,
                1.0514714072676246,
                -1.7834692466871434,
                -1.127356187747405,
                -1.786876188773966
            ]
        },
        {
            "positions": [
                -1.4733324447719982,
                -2.2946273598405234,
                0.9758217132499483,
                -1.8446871202683912,
                -1.2057278694181726,
                -1.7283818540785723
            ]
        },
        {
            "positions": [
                -1.5702075318143236,
                -2.31351800063641,
                0.900172019232272,
                -1.9059049938496393,
                -1.2840995510889401,
                -1.6698875193831786
            ]
        },
        {
            "positions": [
                -1.6670826188566483,
                -2.332408641432297,
                0.8245223252145957,
                -1.9671228674308874,
                -1.362471232759708,
                -1.611393184687785
            ]
        },
        {
            "positions": [
                -1.7639577058989735,
                -2.351299282228184,
                0.7488726311969194,
                -2.0283407410121352,
                -1.4408429144304755,
                -1.5528988499923913
            ]
        },
        {
            "positions": [
                -1.8608327929412987,
                -2.3701899230240713,
                0.6732229371792431,
                -2.0895586145933835,
                -1.519214596101243,
                -1.4944045152969976
            ]
        },
        {
            "positions": [
                -1.9577078799836243,
                -2.389080563819958,
                0.5975732431615668,
                -2.1507764881746314,
                -1.597586277772011,
                -1.4359101806016037
            ]
        },
        {
            "positions": [
                -2.0545829670259494,
                -2.407971204615845,
                0.5219235491438905,
                -2.2119943617558793,
                -1.6759579594427785,
                -1.37741584590621
            ]
        },
        {
            "positions": [
                -2.1514580540682746,
                -2.426861845411732,
                0.446273855126214,
                -2.2732122353371276,
                -1.754329641113546,
                -1.3189215112108164
            ]
        },
        {
            "positions": [
                -2.2483331411106,
                -2.4457524862076188,
                0.3706241611085379,
                -2.3344301089183754,
                -1.8327013227843134,
                -1.2604271765154227
            ]
        },
        {
            "positions": [
                -2.0975548059456446,
                -2.4266880996994313,
                0.34583859929435856,
                -2.2692275495135754,
                -1.7501972693435888,
                -1.2995125048871172
            ]
        },
        {
            "positions": [
                -1.9467764707806896,
                -2.407623713191244,
                0.3210530374801792,
                -2.204024990108776,
                -1.6676932159028641,
                -1.3385978332588118
            ]
        },
        {
            "positions": [
                -1.7959981356157344,
                -2.3885593266830565,
                0.29626747566599987,
                -2.138822430703976,
                -1.5851891624621395,
                -1.3776831616305065
            ]
        },
        {
            "positions": [
                -1.6452198004507794,
                -2.3694949401748695,
                0.2714819138518205,
                -2.073619871299176,
                -1.502685109021415,
                -1.416768490002201
            ]
        },
        {
            "positions": [
                -1.4944414652858242,
                -2.350430553666682,
                0.24669635203764115,
                -2.008417311894376,
                -1.4201810555806904,
                -1.4558538183738956
            ]
        },
        {
            "positions": [
                -1.343663130120869,
                -2.3313661671584947,
                0.2219107902234618,
                -1.943214752489576,
                -1.3376770021399658,
                -1.4949391467455904
            ]
        },
        {
            "positions": [
                -1.192884794955914,
                -2.3123017806503072,
                0.19712522840928245,
                -1.8780121930847762,
                -1.2551729486992411,
                -1.5340244751172847
            ]
        },
        {
            "positions": [
                -1.0421064597909588,
                -2.29323739414212,
                0.17233966659510308,
                -1.8128096336799762,
                -1.1726688952585165,
                -1.5731098034889794
            ]
        },
        {
            "positions": [
                -0.8913281246260039,
                -2.2741730076339324,
                0.14755410478092376,
                -1.7476070742751764,
                -1.090164841817792,
                -1.612195131860674
            ]
        },
        {
            "positions": [
                -0.7405497894610487,
                -2.255108621125745,
                0.12276854296674439,
                -1.6824045148703763,
                -1.0076607883770672,
                -1.6512804602323685
            ]
        },
        {
            "positions": [
                -0.5897714542960937,
                -2.236044234617558,
                0.09798298115256504,
                -1.6172019554655765,
                -0.9251567349363427,
                -1.6903657886040633
            ]
        },
        {
            "positions": [
                -0.4389931191311385,
                -2.2169798481093705,
                0.0731974193383857,
                -1.5519993960607765,
                -0.842652681495618,
                -1.7294511169757578
            ]
        },
        {
            "positions": [
                -0.2882147839661835,
                -2.197915461601183,
                0.04841185752420635,
                -1.4867968366559767,
                -0.7601486280548935,
                -1.7685364453474524
            ]
        },
        {
            "positions": [
                -0.1374364488012283,
                -2.1788510750929957,
                0.023626295710027,
                -1.421594277251177,
                -0.6776445746141688,
                -1.807621773719147
            ]
        },
        {
            "positions": [
                0.013341886363726463,
                -2.1597866885848083,
                -0.0011592661041523455,
                -1.356391717846377,
                -0.5951405211734444,
                -1.8467071020908414
            ]
        },
        {
            "positions": [
                0.1641202215286821,
                -2.140722302076621,
                -0.025944827918331748,
                -1.291189158441577,
                -0.5126364677327195,
                -1.8857924304625362
            ]
        },
        {
            "positions": [
                0.31489855669363687,
                -2.1216579155684334,
                -0.05073038973251104,
                -1.225986599036777,
                -0.4301324142919951,
                -1.9248777588342307
            ]
        },
        {
            "positions": [
                0.46567689185859207,
                -2.102593529060246,
                -0.07551595154669039,
                -1.1607840396319773,
                -0.34762836085127047,
                -1.9639630872059253
            ]
        },
        {
            "positions": [
                0.6164552270235468,
                -2.083529142552059,
                -0.10030151336086973,
                -1.0955814802271775,
                -0.2651243074105458,
                -2.00304841557762
            ]
        },
        {
            "positions": [
                0.7672335621885025,
                -2.0644647560438716,
                -0.12508707517504913,
                -1.0303789208223773,
                -0.18262025396982118,
                -2.0421337439493144
            ]
        },
        {
            "positions": [
                0.9180118973534572,
                -2.045400369535684,
                -0.14987263698922848,
                -0.9651763614175775,
                -0.10011620052909653,
                -2.081219072321009
            ]
        },
        {
            "positions": [
                1.0687902325184124,
                -2.0263359830274967,
                -0.17465819880340783,
                -0.8999738020127777,
                -0.017612147088371888,
                -2.120304400692704
            ]
        },
        {
            "positions": [
                1.2195685676833672,
                -2.0072715965193093,
                -0.19944376061758717,
                -0.8347712426079779,
                0.06489190635235254,
                -2.159389729064398
            ]
        },
        {
            "positions": [
                1.3703469028483228,
                -1.9882072100111219,
                -0.22422932243176652,
                -0.7695686832031778,
                0.1473959597930774,
                -2.198475057436093
            ]
        },
        {
            "positions": [
                1.5211252380132776,
                -1.9691428235029347,
                -0.24901488424594587,
                -0.7043661237983778,
                0.22990001323380205,
                -2.2375603858077877
            ]
        },
        {
            "positions": [
                1.6719035731782328,
                -1.9500784369947473,
                -0.2738004460601252,
                -0.6391635643935779,
                0.31240406667452636,
                -2.276645714179482
            ]
        },
        {
            "positions": [
                1.8203436627563576,
                -1.9585620723249482,
                -0.41277653344754717,
                -0.6813884896863761,
                0.3004898125433654,
                -2.297207411189156
            ]
        },
        {
            "positions": [
                1.9687837523344824,
                -1.967045707655149,
                -0.5517526208349692,
                -0.7236134149791743,
                0.28857555841220445,
                -2.3177691081988296
            ]
        },
        {
            "positions": [
                2.1172238419126073,
                -1.97552934298535,
                -0.6907287082223912,
                -0.7658383402719724,
                0.2766613042810435,
                -2.3383308052085034
            ]
        },
        {
            "positions": [
                2.265663931490732,
                -1.9840129783155511,
                -0.8297047956098131,
                -0.8080632655647706,
                0.26474705014988253,
                -2.358892502218177
            ]
        },
        {
            "positions": [
                2.414104021068857,
                -1.992496613645752,
                -0.9686808829972352,
                -0.8502881908575688,
                0.25283279601872155,
                -2.3794541992278506
            ]
        },
        {
            "positions": [
                2.5625441106469817,
                -2.000980248975953,
                -1.107656970384657,
                -0.892513116150367,
                0.24091854188756062,
                -2.4000158962375244
            ]
        },
        {
            "positions": [
                2.7109842002251066,
                -2.009463884306154,
                -1.2466330577720792,
                -0.9347380414431652,
                0.22900428775639967,
                -2.4205775932471982
            ]
        },
        {
            "positions": [
                2.8127677888391003,
                -2.020080114027096,
                -1.3453689838589358,
                -0.9900596765369956,
                0.21326718262255784,
                -2.4563797545135744
            ]
        },
        {
            "positions": [
                2.799728981870369,
                -2.0427518105040026,
                -1.3921704775397954,
                -1.144324950279846,
                0.15176249019292434,
                -2.5404760998226
            ]
        },
        {
            "positions": [
                2.786690174901638,
                -2.065423506980909,
                -1.4389719712206552,
                -1.2985902240226963,
                0.09025779776329085,
                -2.624572445131626
            ]
        },
        {
            "positions": [
                2.7745714813650055,
                -2.0835079157752947,
                -1.4746500237204143,
                -1.4325474821154605,
                0.034186362266025914,
                -2.692518432427806
            ]
        },
        {
            "positions": [
                2.762452787828373,
                -2.1015923245696806,
                -1.5103280762201734,
                -1.5665047402082246,
                -0.02188507323123902,
                -2.7604644197239865
            ]
        },
        {
            "positions": [
                2.75033409429174,
                -2.1196767333640665,
                -1.5460061287199327,
                -1.7004619983009888,
                -0.07795650872850393,
                -2.8284104070201668
            ]
        },
        {
            "positions": [
                2.738215400755107,
                -2.1377611421584524,
                -1.5816841812196918,
                -1.8344192563937531,
                -0.13402794422576889,
                -2.896356394316347
            ]
        },
        {
            "positions": [
                2.7260967072184745,
                -2.1558455509528383,
                -1.6173622337194509,
                -1.9683765144865173,
                -0.1900993797230338,
                -2.9643023816125273
            ]
        },
        {
            "positions": [
                2.7041391839896707,
                -2.166684643362562,
                -1.6274378452186224,
                -2.1315229694652293,
                -0.281850489071243,
                -3.0177594461396864
            ]
        },
        {
            "positions": [
                2.6821816607608664,
                -2.177523735772285,
                -1.6375134567177938,
                -2.2946694244439416,
                -0.3736015984194522,
                -3.071216510666845
            ]
        },
        {
            "positions": [
                2.6602241375320625,
                -2.188362828182009,
                -1.6475890682169654,
                -2.457815879422654,
                -0.46535270776766136,
                -3.124673575194004
            ]
        }
    ]
}