{
    "goal": {
        "global_pose": {
            "orientation": {
                "w": 0.7031023502349854,
                "x": -0.7110244035720825,
                "y": 0.007748599164187908,
                "z": 0.005598929710686207
            },
            "position": {
                "x": 0.11585023208521307,
                "y": 0.44412534475326537,
                "z": 0.3711530566215515
            }
        },
        "name": "move_to_auspresseinheit_A"
    },
    "id": "BKPIECE_move_to_auspresseinheit_A_145",
    "joint_names": [
        "shoulder_pan_joint",
        "shoulder_lift_joint",
        "elbow_joint",
        "wrist_1_joint",
        "wrist_2_joint",
        "wrist_3_joint"
    ],
    "metrics": {
        "cart_traj_len": 2.0270226055664415,
        "distance_elbow_joint": 2.5763447114892237,
        "distance_shoulder_lift_joint": 0.6298263171537071,
        "distance_shoulder_pan_joint": 1.3583931560758375,
        "distance_wrist_1_joint": 3.463339713475189,
        "distance_wrist_2_joint": 1.3857831322344318,
        "distance_wrist_3_joint": 2.098723574390393,
        "smoothness": 0.5975064525549031,
        "time": 0.27814136,
        "traj_len": 3.392994341996282,
        "weighted_distance": 4.534201208516136
    },
    "planner": "BKPIECE",
    "start": {
        "state": {
            "elbow_joint": 2.422574709923281,
            "shoulder_lift_joint": -1.3736533754116391,
            "shoulder_pan_joint": -0.33786336945926293,
            "wrist_1_joint": -1.0288603412921917,
            "wrist_2_joint": 1.2330224858903978,
            "wrist_3_joint": -3.094022268022082
        }
    },
    "waypoints": [
        {
            "positions": [
                -0.33786336945926293,
                -1.3736533754116391,
                2.422574709923281,
                -1.0288603412921917,
                1.2330224858903978,
                -3.094022268022082
            ]
        },
        {
            "positions": [
                -0.2860646908155069,
                -1.4071098324508788,
                2.341121248232025,
                -0.9354131396103955,
                1.1743716110775784,
                -3.0295706332053918
            ]
        },
        {
            "positions": [
                -0.2342660121717509,
                -1.4405662894901186,
                2.259667786540769,
                -0.8419659379285993,
                1.1157207362647592,
                -2.965118998388701
            ]
        },
        {
            "positions": [
                -0.18246733352799488,
                -1.4740227465293585,
                2.178214324849513,
                -0.7485187362468032,
                1.0570698614519398,
                -2.9006673635720106
            ]
        },
        {
            "positions": [
                -0.13066865488423884,
                -1.5074792035685982,
                2.096760863158257,
                -0.655071534565007,
                0.9984189866391204,
                -2.8362157287553202
            ]
        },
        {
            "positions": [
                -0.07886997624048281,
                -1.540935660607838,
                2.015307401467001,
                -0.5616243328832108,
                0.9397681118263012,
                -2.77176409393863
            ]
        },
        {
            "positions": [
                -0.02707129759672683,
                -1.5743921176470779,
                1.933853939775745,
                -0.4681771312014147,
                0.8811172370134819,
                -2.7073124591219395
            ]
        },
        {
            "positions": [
                0.024727381047029207,
                -1.6078485746863176,
                1.8524004780844892,
                -0.3747299295196185,
                0.8224663622006625,
                -2.6428608243052487
            ]
        },
        {
            "positions": [
                0.07652605969078524,
                -1.6413050317255573,
                1.770947016393233,
                -0.28128272783782227,
                0.7638154873878432,
                -2.5784091894885584
            ]
        },
        {
            "positions": [
                0.12832473833454128,
                -1.674761488764797,
                1.689493554701977,
                -0.18783552615602606,
                0.7051646125750239,
                -2.513957554671868
            ]
        },
        {
            "positions": [
                0.1801234169782973,
                -1.7082179458040367,
                1.608040093010721,
                -0.09438832447422985,
                0.6465137377622046,
                -2.449505919855177
            ]
        },
        {
            "positions": [
                0.2319220956220533,
                -1.7416744028432767,
                1.5265866313194651,
                -0.0009411227924336352,
                0.5878628629493853,
                -2.385054285038487
            ]
        },
        {
            "positions": [
                0.2837207742658093,
                -1.7751308598825164,
                1.445133169628209,
                0.09250607888936235,
                0.529211988136566,
                -2.3206026502217965
            ]
        },
        {
            "positions": [
                0.33551945290956536,
                -1.8085873169217561,
                1.363679707936953,
                0.18595328057115856,
                0.4705611133237466,
                -2.256151015405106
            ]
        },
        {
            "positions": [
                0.38731813155332134,
                -1.842043773960996,
                1.282226246245697,
                0.2794004822529548,
                0.41191023851092734,
                -2.1916993805884157
            ]
        },
        {
            "positions": [
                0.43911681019707743,
                -1.8755002310002358,
                1.2007727845544411,
                0.372847683934751,
                0.35325936369810795,
                -2.127247745771725
            ]
        },
        {
            "positions": [
                0.49091548884083347,
                -1.9089566880394755,
                1.119319322863185,
                0.46629488561654714,
                0.29460848888528873,
                -2.0627961109550346
            ]
        },
        {
            "positions": [
                0.5837963769314085,
                -1.91885444345675,
                1.2356489545481166,
                0.59552926202189,
                0.28932035188103944,
                -2.0755521664476024
            ]
        },
        {
            "positions": [
                0.6766772650219834,
                -1.9287521988740244,
                1.3519785862330482,
                0.7247636384272329,
                0.28403221487679015,
                -2.0883082219401707
            ]
        },
        {
            "positions": [
                0.7695581531125585,
                -1.9386499542912987,
                1.46830821791798,
                0.8539980148325759,
                0.27874407787254085,
                -2.1010642774327386
            ]
        },
        {
            "positions": [
                0.8624390412031335,
                -1.9485477097085733,
                1.5846378496029117,
                0.9832323912379188,
                0.27345594086829156,
                -2.1138203329253065
            ]
        },
        {
            "positions": [
                0.8424879562246732,
                -1.949637210714911,
                1.6622883389064633,
                0.8969146337056737,
                0.32675288508010314,
                -2.221034797017196
            ]
        },
        {
            "positions": [
                0.8225368712462128,
                -1.9507267117212483,
                1.739938828210015,
                0.8105968761734286,
                0.3800498292919147,
                -2.328249261109086
            ]
        },
        {
            "positions": [
                0.8025857862677525,
                -1.951816212727586,
                1.8175893175135667,
                0.7242791186411834,
                0.4333467735037263,
                -2.435463725200975
            ]
        },
        {
            "positions": [
                0.7826347012892921,
                -1.9529057137339236,
                1.8952398068171186,
                0.6379613611089383,
                0.4866437177155379,
                -2.542678189292865
            ]
        },
        {
            "positions": [
                0.7626836163108317,
                -1.9539952147402613,
                1.9728902961206702,
                0.5516436035766932,
                0.5399406619273495,
                -2.6498926533847547
            ]
        },
        {
            "positions": [
                0.7427325313323714,
                -1.9550847157465987,
                2.050540785424222,
                0.46532584604444815,
                0.5932376061391611,
                -2.7571071174766444
            ]
        },
        {
            "positions": [
                0.7227814463539111,
                -1.9561742167529363,
                2.1281912747277736,
                0.379008088512203,
                0.6465345503509726,
                -2.864321581568534
            ]
        },
        {
            "positions": [
                0.7181731587128564,
                -1.944347847799834,
                2.1942456178689085,
                0.1672524189573623,
                0.6598190447833836,
                -2.930814568245996
            ]
        },
        {
            "positions": [
                0.7135648710718017,
                -1.9325214788467315,
                2.2602999610100434,
                -0.04450325059747845,
                0.6731035392157947,
                -2.997307554923457
            ]
        },
        {
            "positions": [
                0.7089565834307471,
                -1.920695109893629,
                2.3263543041511783,
                -0.2562589201523192,
                0.6863880336482057,
                -3.0638005416009184
            ]
        },
        {
            "positions": [
                0.7043482957896924,
                -1.9088687409405265,
                2.392408647292313,
                -0.4680145897071599,
                0.6996725280806166,
                -3.13029352827838
            ]
        }
    ]
}