{
    "goal": {
        "global_pose": {
            "orientation": {
                "w": 0.5084816217422485,
                "x": -0.49083608388900757,
                "y": 0.5182115435600281,
                "z": -0.4816462993621826
            },
            "position": {
                "x": 0.5540239810943604,
                "y": 0.030875300988554955,
                "z": 0.16403168439865112
            }
        },
        "name": "move_to_storage_A"
    },
    "id": "BKPIECE_move_to_storage_A_137",
    "joint_names": [
        "shoulder_pan_joint",
        "shoulder_lift_joint",
        "elbow_joint",
        "wrist_1_joint",
        "wrist_2_joint",
        "wrist_3_joint"
    ],
    "metrics": {
        "cart_traj_len": 0.3523849307834416,
        "distance_elbow_joint": 0.45383898302527736,
        "distance_shoulder_lift_joint": 0.23229231762028402,
        "distance_shoulder_pan_joint": 0.46068755283062157,
        "distance_wrist_1_joint": 0.2627860302924844,
        "distance_wrist_2_joint": 1.0972766732230563,
        "distance_wrist_3_joint": 0.10718822074196588,
        "smoothness": 0.0,
        "time": 0.207250455,
        "traj_len": 1.6168085161000636,
        "weighted_distance": 2.046584697180442
    },
    "planner": "BKPIECE",
    "start": {
        "state": {
            "elbow_joint": 1.9715463870305268,
            "shoulder_lift_joint": -1.1394903361783484,
            "shoulder_pan_joint": 0.12281147578464417,
            "wrist_1_joint": -0.7804599489681411,
            "wrist_2_joint": 0.12958660307563738,
            "wrist_3_joint": -3.1924946282119055
        }
    },
    "waypoints": [
        {
            "positions": [
                0.12281147578464417,
                -1.1394903361783484,
                1.9715463870305268,
                -0.7804599489681411,
                0.12958660307563738,
                -3.1924946282119055
            ]
        },
        {
            "positions": [
                0.05699896823741252,
                -1.1726749529812461,
                2.0363805274627094,
                -0.818000810438496,
                0.286340413536074,
                -3.1771820252487677
            ]
        },
        {
            "positions": [
                -0.008813539309819138,
                -1.2058595697841439,
                2.1012146678948915,
                -0.8555416719088509,
                0.44309422399651055,
                -3.1618694222856294
            ]
        },
        {
            "positions": [
                -0.07462604685705078,
                -1.2390441865870416,
                2.166048808327074,
                -0.8930825333792058,
                0.5998480344569472,
                -3.1465568193224915
            ]
        },
        {
            "positions": [
                -0.14043855440428243,
                -1.2722288033899392,
                2.2308829487592567,
                -0.9306233948495607,
                0.7566018449173838,
                -3.1312442163593537
            ]
        },
        {
            "positions": [
                -0.2062510619515141,
                -1.305413420192837,
                2.2957170891914394,
                -0.9681642563199157,
                0.9133556553778205,
                -3.115931613396216
            ]
        },
        {
            "positions": [
                -0.2720635694987457,
                -1.3385980369957347,
                2.3605512296236215,
                -1.0057051177902705,
                1.070109465838257,
                -3.1006190104330775
            ]
        },
        {
            "positions": [
                -0.3378760770459774,
                -1.3717826537986324,
                2.425385370055804,
                -1.0432459792606255,
                1.2268632762986937,
                -3.0853064074699397
            ]
        }
    ]
}