{
    "goal": {
        "global_pose": {
            "orientation": {
                "w": 0.7031023502349854,
                "x": -0.7110244035720825,
                "y": 0.007748599164187908,
                "z": 0.005598929710686207
            },
            "position": {
                "x": 0.11585023208521307,
                "y": 0.44412534475326537,
                "z": 0.3711530566215515
            }
        },
        "name": "move_to_auspresseinheit_A"
    },
    "id": "BKPIECE_move_to_auspresseinheit_A_66",
    "joint_names": [
        "shoulder_pan_joint",
        "shoulder_lift_joint",
        "elbow_joint",
        "wrist_1_joint",
        "wrist_2_joint",
        "wrist_3_joint"
    ],
    "metrics": {
        "cart_traj_len": 1.9800079644677004,
        "distance_elbow_joint": 2.2173789356825746,
        "distance_shoulder_lift_joint": 0.8882311089646722,
        "distance_shoulder_pan_joint": 1.353649518999144,
        "distance_wrist_1_joint": 0.6655675335212037,
        "distance_wrist_2_joint": 1.4123832458498358,
        "distance_wrist_3_joint": 3.2589228760941085,
        "smoothness": 0.4528924129624235,
        "time": 0.221269041,
        "traj_len": 3.129877508643356,
        "weighted_distance": 4.288581321447781
    },
    "planner": "BKPIECE",
    "start": {
        "state": {
            "elbow_joint": 2.422574709923281,
            "shoulder_lift_joint": -1.3736533754116391,
            "shoulder_pan_joint": -0.33786336945926293,
            "wrist_1_joint": -1.0288603412921917,
            "wrist_2_joint": 1.2330224858903978,
            "wrist_3_joint": -3.094022268022082
        }
    },
    "waypoints": [
        {
            "positions": [
                -0.33786336945926293,
                -1.3736533754116391,
                2.422574709923281,
                -1.0288603412921917,
                1.2330224858903978,
                -3.094022268022082
            ]
        },
        {
            "positions": [
                -0.2727070283390529,
                -1.4021863015552194,
                2.342336072324224,
                -1.0062519108099062,
                1.1643600646813665,
                -2.9869866108763534
            ]
        },
        {
            "positions": [
                -0.20755068721884296,
                -1.4307192276987999,
                2.2620974347251668,
                -0.9836434803276207,
                1.0956976434723351,
                -2.8799509537306247
            ]
        },
        {
            "positions": [
                -0.14239434609863297,
                -1.4592521538423802,
                2.181858797126109,
                -0.9610350498453352,
                1.027035222263304,
                -2.7729152965848964
            ]
        },
        {
            "positions": [
                -0.07723800497842298,
                -1.4877850799859604,
                2.101620159527052,
                -0.9384266193630497,
                0.9583728010542725,
                -2.6658796394391677
            ]
        },
        {
            "positions": [
                -0.012081663858212965,
                -1.516318006129541,
                2.021381521927995,
                -0.9158181888807642,
                0.8897103798452413,
                -2.558843982293439
            ]
        },
        {
            "positions": [
                0.053074677261996994,
                -1.5448509322731212,
                1.9411428843289376,
                -0.8932097583984787,
                0.8210479586362099,
                -2.4518083251477103
            ]
        },
        {
            "positions": [
                0.11823101838220701,
                -1.5733838584167015,
                1.8609042467298802,
                -0.8706013279161932,
                0.7523855374271786,
                -2.3447726680019816
            ]
        },
        {
            "positions": [
                0.18338735950241697,
                -1.6019167845602817,
                1.780665609130823,
                -0.8479928974339077,
                0.6837231162181473,
                -2.2377370108562533
            ]
        },
        {
            "positions": [
                0.24854370062262704,
                -1.6304497107038622,
                1.700426971531766,
                -0.8253844669516222,
                0.615060695009116,
                -2.1307013537105246
            ]
        },
        {
            "positions": [
                0.313700041742837,
                -1.6589826368474425,
                1.6201883339327086,
                -0.8027760364693366,
                0.5463982738000847,
                -2.023665696564796
            ]
        },
        {
            "positions": [
                0.37885638286304696,
                -1.6875155629910228,
                1.5399496963336512,
                -0.7801676059870511,
                0.47773585259105344,
                -1.9166300394190674
            ]
        },
        {
            "positions": [
                0.4440127239832569,
                -1.716048489134603,
                1.459711058734594,
                -0.7575591755047657,
                0.4090734313820221,
                -1.8095943822733387
            ]
        },
        {
            "positions": [
                0.509169065103467,
                -1.7445814152781836,
                1.3794724211355367,
                -0.7349507450224801,
                0.3404110101729908,
                -1.70255872512761
            ]
        },
        {
            "positions": [
                0.5743254062236769,
                -1.7731143414217638,
                1.2992337835364796,
                -0.7123423145401946,
                0.2717485889639595,
                -1.5955230679818815
            ]
        },
        {
            "positions": [
                0.645851334762837,
                -1.843172932720046,
                1.4149275786055153,
                -0.6487930523082028,
                0.2690923630441041,
                -1.567138075492138
            ]
        },
        {
            "positions": [
                0.717377263301997,
                -1.913231524018328,
                1.5306213736745513,
                -0.585243790076211,
                0.26643613712424874,
                -1.5387530830023946
            ]
        },
        {
            "positions": [
                0.7889031918411571,
                -1.98329011531661,
                1.646315168743587,
                -0.5216945278442192,
                0.26377991120439337,
                -1.5103680905126513
            ]
        },
        {
            "positions": [
                0.8604291203803172,
                -2.053348706614892,
                1.7620089638126228,
                -0.4581452656122274,
                0.261123685284538,
                -1.4819830980229078
            ]
        },
        {
            "positions": [
                0.8367308626559509,
                -2.061449714811422,
                1.8992115979610733,
                -0.44714475662413455,
                0.33252660843506165,
                -1.6029319068840426
            ]
        },
        {
            "positions": [
                0.8130326049315847,
                -2.0695507230079517,
                2.036414232109524,
                -0.43614424763604176,
                0.40392953158558537,
                -1.7238807157451774
            ]
        },
        {
            "positions": [
                0.7893343472072185,
                -2.0776517312044818,
                2.1736168662579747,
                -0.4251437386479489,
                0.4753324547361091,
                -1.8448295246063122
            ]
        },
        {
            "positions": [
                0.7656360894828522,
                -2.085752739401012,
                2.310819500406425,
                -0.41414322965985606,
                0.5467353778866327,
                -1.965778333467447
            ]
        },
        {
            "positions": [
                0.7513498593471567,
                -2.0837648936990707,
                2.360459457013353,
                -0.41384241735496385,
                0.5771535379672524,
                -2.024302997731806
            ]
        },
        {
            "positions": [
                0.7397804173155559,
                -2.040228918880731,
                2.368662540968078,
                -0.4264798197509578,
                0.6082671861075678,
                -2.300443949328315
            ]
        },
        {
            "positions": [
                0.7282109752839552,
                -1.9966929440623915,
                2.376865624922803,
                -0.4391172221469517,
                0.6393808342478833,
                -2.576584900924824
            ]
        },
        {
            "positions": [
                0.7166415332523544,
                -1.953156969244052,
                2.3850687088775278,
                -0.4517546245429457,
                0.6704944823881986,
                -2.852725852521333
            ]
        },
        {
            "positions": [
                0.7050720912207535,
                -1.9096209944257123,
                2.3932717928322527,
                -0.4643920269389396,
                0.701608130528514,
                -3.128866804117842
            ]
        }
    ]
}