{
    "goal": {
        "global_pose": {
            "orientation": {
                "w": 0.7031023502349854,
                "x": -0.7110244035720825,
                "y": 0.007748599164187908,
                "z": 0.005598929710686207
            },
            "position": {
                "x": 0.11585023208521307,
                "y": 0.44412534475326537,
                "z": 0.3711530566215515
            }
        },
        "name": "move_to_auspresseinheit_A"
    },
    "id": "BKPIECE_move_to_auspresseinheit_A_131",
    "joint_names": [
        "shoulder_pan_joint",
        "shoulder_lift_joint",
        "elbow_joint",
        "wrist_1_joint",
        "wrist_2_joint",
        "wrist_3_joint"
    ],
    "metrics": {
        "cart_traj_len": 0.7903488379802117,
        "distance_elbow_joint": 0.5363250036330718,
        "distance_shoulder_lift_joint": 1.4488542406152505,
        "distance_shoulder_pan_joint": 1.0422285860468392,
        "distance_wrist_1_joint": 0.9902157911649219,
        "distance_wrist_2_joint": 0.5313434122540464,
        "distance_wrist_3_joint": 0.35530790995416783,
        "smoothness": 1.250899743440874,
        "time": 0.15872472199999998,
        "traj_len": 2.214559762947999,
        "weighted_distance": 2.671413477355312
    },
    "planner": "BKPIECE",
    "start": {
        "state": {
            "elbow_joint": 2.422574709923281,
            "shoulder_lift_joint": -1.3736533754116391,
            "shoulder_pan_joint": -0.33786336945926293,
            "wrist_1_joint": -1.0288603412921917,
            "wrist_2_joint": 1.2330224858903978,
            "wrist_3_joint": -3.094022268022082
        }
    },
    "waypoints": [
        {
            "positions": [
                -0.33786336945926293,
                -1.3736533754116391,
                2.422574709923281,
                -1.0288603412921917,
                1.2330224858903978,
                -3.094022268022082
            ]
        },
        {
            "positions": [
                -0.23080760989526802,
                -1.497556936061848,
                2.4542831390528788,
                -0.9318999092255473,
                1.2201620132778133,
                -3.0747471560028368
            ]
        },
        {
            "positions": [
                -0.12375185033127312,
                -1.621460496712057,
                2.485991568182476,
                -0.8349394771589029,
                1.2073015406652288,
                -3.055472043983591
            ]
        },
        {
            "positions": [
                -0.016696090767278238,
                -1.745364057362266,
                2.5176999973120733,
                -0.7379790450922585,
                1.1944410680526443,
                -3.0361969319643456
            ]
        },
        {
            "positions": [
                0.0903596687967167,
                -1.8692676180124748,
                2.549408426441671,
                -0.6410186130256141,
                1.1815805954400598,
                -3.0169218199451002
            ]
        },
        {
            "positions": [
                0.19741542836071163,
                -1.9931711786626836,
                2.5811168555712687,
                -0.5440581809589697,
                1.1687201228274755,
                -2.9976467079258544
            ]
        },
        {
            "positions": [
                0.30447118792470645,
                -2.1170747393128924,
                2.612825284700866,
                -0.44709774889232545,
                1.155859650214891,
                -2.978371595906609
            ]
        },
        {
            "positions": [
                0.4115269474887014,
                -2.2409782999631016,
                2.644533713830463,
                -0.35013731682568106,
                1.1429991776023065,
                -2.9590964838873632
            ]
        },
        {
            "positions": [
                0.5185827070526963,
                -2.3648818606133104,
                2.676242142960061,
                -0.25317688475903666,
                1.130138704989722,
                -2.939821371868118
            ]
        },
        {
            "positions": [
                0.5557392089596722,
                -2.2733567095305944,
                2.6197106288408025,
                -0.29608335168539,
                1.044446778719048,
                -2.9800427746281586
            ]
        },
        {
            "positions": [
                0.5928957108666482,
                -2.181831558447879,
                2.563179114721544,
                -0.3389898186117434,
                0.9587548524483738,
                -3.0202641773881993
            ]
        },
        {
            "positions": [
                0.6300522127736242,
                -2.090306407365163,
                2.5066476006022858,
                -0.38189628553809674,
                0.8730629261776996,
                -3.06048558014824
            ]
        },
        {
            "positions": [
                0.6672087146806002,
                -1.998781256282447,
                2.4501160864830274,
                -0.4248027524644501,
                0.7873709999070255,
                -3.1007069829082807
            ]
        },
        {
            "positions": [
                0.7043652165875761,
                -1.9072561051997312,
                2.393584572363769,
                -0.46770921939080345,
                0.7016790736363514,
                -3.1409283856683214
            ]
        }
    ]
}