{
    "goal": {
        "global_pose": {
            "orientation": {
                "w": -0.00223480608172531,
                "x": 0.0024358444001904467,
                "y": 0.7094548369677653,
                "z": -0.704743149386269
            },
            "position": {
                "x": 0.6205249238014221,
                "y": -0.6371506643295288,
                "z": 0.19426114857196808
            }
        },
        "name": "move_to_magneteinheit_B"
    },
    "id": "BKPIECE_move_to_magneteinheit_B_74",
    "joint_names": [
        "shoulder_pan_joint",
        "shoulder_lift_joint",
        "elbow_joint",
        "wrist_1_joint",
        "wrist_2_joint",
        "wrist_3_joint"
    ],
    "metrics": {
        "cart_traj_len": 1.4522156794038623,
        "distance_elbow_joint": 0.7266512493515549,
        "distance_shoulder_lift_joint": 1.2452335900879445,
        "distance_shoulder_pan_joint": 1.6205694271778435,
        "distance_wrist_1_joint": 2.614217251293002,
        "distance_wrist_2_joint": 2.9370400560527874,
        "distance_wrist_3_joint": 3.1366390494591134,
        "smoothness": 4.996003619058102e-16,
        "time": 0.177544026,
        "traj_len": 3.5043331210691493,
        "weighted_distance": 4.909672700871847
    },
    "planner": "BKPIECE",
    "start": {
        "state": {
            "elbow_joint": 2.39358713078474,
            "shoulder_lift_joint": -1.908514104345545,
            "shoulder_pan_joint": 0.7066247066606129,
            "wrist_1_joint": -0.4678290933515497,
            "wrist_2_joint": 0.7096259083745334,
            "wrist_3_joint": -3.1358149277392293
        }
    },
    "waypoints": [
        {
            "positions": [
                0.7066247066606129,
                -1.908514104345545,
                2.39358713078474,
                -0.4678290933515497,
                0.7096259083745334,
                -3.1358149277392293
            ]
        },
        {
            "positions": [
                0.6543482735258438,
                -1.868345278858837,
                2.370146767902432,
                -0.3834995046001626,
                0.6148826807599274,
                -3.0346330229179674
            ]
        },
        {
            "positions": [
                0.6020718403910746,
                -1.8281764533721292,
                2.3467064050201234,
                -0.2991699158487754,
                0.5201394531453214,
                -2.933451118096706
            ]
        },
        {
            "positions": [
                0.5497954072563055,
                -1.7880076278854213,
                2.3232660421378153,
                -0.2148403270973882,
                0.4253962255307153,
                -2.832269213275444
            ]
        },
        {
            "positions": [
                0.49751897412153634,
                -1.7478388023987135,
                2.299825679255507,
                -0.13051073834600108,
                0.33065299791610925,
                -2.7310873084541827
            ]
        },
        {
            "positions": [
                0.44524254098676724,
                -1.7076699769120054,
                2.276385316373199,
                -0.04618114959461389,
                0.23590977030150323,
                -2.629905403632921
            ]
        },
        {
            "positions": [
                0.3929661078519981,
                -1.6675011514252975,
                2.2529449534908905,
                0.038148439156773295,
                0.1411665426868972,
                -2.528723498811659
            ]
        },
        {
            "positions": [
                0.34068967471722894,
                -1.6273323259385897,
                2.2295045906085824,
                0.12247802790816037,
                0.04642331507229114,
                -2.427541593990397
            ]
        },
        {
            "positions": [
                0.2884132415824598,
                -1.5871635004518818,
                2.2060642277262743,
                0.20680761665954756,
                -0.048319912542314936,
                -2.3263596891691356
            ]
        },
        {
            "positions": [
                0.23613680844769064,
                -1.546994674965174,
                2.182623864843966,
                0.29113720541093474,
                -0.143063140156921,
                -2.2251777843478737
            ]
        },
        {
            "positions": [
                0.18386037531292154,
                -1.506825849478466,
                2.1591835019616576,
                0.3754667941623219,
                -0.23780636777152697,
                -2.1239958795266123
            ]
        },
        {
            "positions": [
                0.13158394217815228,
                -1.466657023991758,
                2.1357431390793495,
                0.4597963829137091,
                -0.33254959538613316,
                -2.0228139747053504
            ]
        },
        {
            "positions": [
                0.07930750904338324,
                -1.4264881985050502,
                2.1123027761970414,
                0.5441259716650964,
                -0.427292823000739,
                -1.9216320698840887
            ]
        },
        {
            "positions": [
                0.02703107590861409,
                -1.3863193730183423,
                2.0888624133147333,
                0.6284555604164834,
                -0.5220360506153453,
                -1.8204501650628269
            ]
        },
        {
            "positions": [
                -0.025245357226155063,
                -1.3461505475316344,
                2.0654220504324248,
                0.7127851491678705,
                -0.6167792782299512,
                -1.7192682602415652
            ]
        },
        {
            "positions": [
                -0.07752179036092421,
                -1.3059817220449266,
                2.0419816875501167,
                0.7971147379192578,
                -0.7115225058445572,
                -1.6180863554203033
            ]
        },
        {
            "positions": [
                -0.12979822349569337,
                -1.2658128965582187,
                2.0185413246678086,
                0.8814443266706449,
                -0.8062657334591633,
                -1.5169044505990419
            ]
        },
        {
            "positions": [
                -0.1820746566304624,
                -1.2256440710715109,
                1.9951009617855002,
                0.965773915422032,
                -0.9010089610737692,
                -1.4157225457777802
            ]
        },
        {
            "positions": [
                -0.23435108976523167,
                -1.185475245584803,
                1.971660598903192,
                1.0501035041734192,
                -0.9957521886883755,
                -1.3145406409565181
            ]
        },
        {
            "positions": [
                -0.2866275229000008,
                -1.1453064200980951,
                1.9482202360208838,
                1.1344330929248063,
                -1.0904954163029816,
                -1.2133587361352565
            ]
        },
        {
            "positions": [
                -0.33890395603476986,
                -1.1051375946113873,
                1.9247798731385757,
                1.2187626816761936,
                -1.1852386439175873,
                -1.1121768313139948
            ]
        },
        {
            "positions": [
                -0.391180389169539,
                -1.0649687691246794,
                1.9013395102562674,
                1.3030922704275807,
                -1.2799818715321933,
                -1.0109949264927334
            ]
        },
        {
            "positions": [
                -0.4434568223043084,
                -1.0247999436379713,
                1.877899147373959,
                1.387421859178968,
                -1.3747250991467999,
                -0.9098130216714715
            ]
        },
        {
            "positions": [
                -0.4957332554390773,
                -0.9846311181512635,
                1.854458784491651,
                1.471751447930355,
                -1.469468326761406,
                -0.8086311168502096
            ]
        },
        {
            "positions": [
                -0.5480096885738465,
                -0.9444622926645556,
                1.8310184216093428,
                1.5560810366817424,
                -1.5642115543760116,
                -0.7074492120289482
            ]
        },
        {
            "positions": [
                -0.6002861217086156,
                -0.9042934671778478,
                1.8075780587270347,
                1.6404106254331294,
                -1.6589547819906176,
                -0.6062673072076863
            ]
        },
        {
            "positions": [
                -0.6525625548433848,
                -0.8641246416911397,
                1.7841376958447261,
                1.7247402141845165,
                -1.7536980096052242,
                -0.5050854023864244
            ]
        },
        {
            "positions": [
                -0.7048389879781539,
                -0.8239558162044318,
                1.760697332962418,
                1.8090698029359036,
                -1.8484412372198298,
                -0.40390349756516297
            ]
        },
        {
            "positions": [
                -0.7571154211129231,
                -0.7837869907177242,
                1.73725697008011,
                1.8933993916872907,
                -1.9431844648344359,
                -0.3027215927439011
            ]
        },
        {
            "positions": [
                -0.8093918542476922,
                -0.7436181652310163,
                1.7138166071978016,
                1.9777289804386777,
                -2.037927692449042,
                -0.20153968792263965
            ]
        },
        {
            "positions": [
                -0.8616682873824614,
                -0.7034493397443082,
                1.6903762443154933,
                2.0620585691900652,
                -2.132670920063648,
                -0.10035778310137733
            ]
        },
        {
            "positions": [
                -0.9139447205172304,
                -0.6632805142576005,
                1.6669358814331852,
                2.1463881579414523,
                -2.227414147678254,
                0.0008241217198841351
            ]
        }
    ]
}