{
    "goal": {
        "global_pose": {
            "orientation": {
                "w": 0.7047431468963623,
                "x": -0.7094548344612122,
                "y": 0.0024358443915843964,
                "z": -0.0022348060738295317
            },
            "position": {
                "x": 0.6094750761985779,
                "y": 0.3671506643295288,
                "z": 0.19426114857196808
            }
        },
        "name": "move_to_magneteinheit_A"
    },
    "id": "BKPIECE_move_to_magneteinheit_A_2",
    "joint_names": [
        "shoulder_pan_joint",
        "shoulder_lift_joint",
        "elbow_joint",
        "wrist_1_joint",
        "wrist_2_joint",
        "wrist_3_joint"
    ],
    "metrics": {
        "cart_traj_len": 1.8668910276575177,
        "distance_elbow_joint": 3.9424885429845498,
        "distance_shoulder_lift_joint": 0.7126389753790464,
        "distance_shoulder_pan_joint": 1.2413701516698805,
        "distance_wrist_1_joint": 1.5969691314655934,
        "distance_wrist_2_joint": 1.701639206244711,
        "distance_wrist_3_joint": 1.241928313106413,
        "smoothness": 5.392511849751758e-16,
        "time": 0.203622836,
        "traj_len": 3.2306399243571224,
        "weighted_distance": 4.02734394915226
    },
    "planner": "BKPIECE",
    "start": {
        "state": {
            "elbow_joint": -1.919643507792019,
            "shoulder_lift_joint": -0.07675430207160344,
            "shoulder_pan_joint": -1.1188671864651873,
            "wrist_1_joint": 0.42560062535961957,
            "wrist_2_joint": 1.5706038300724876,
            "wrist_3_joint": 1.1188968870953055
        }
    },
    "waypoints": [
        {
            "positions": [
                -1.1188671864651873,
                -0.07675430207160344,
                -1.919643507792019,
                0.42560062535961957,
                1.5706038300724876,
                1.1188968870953055
            ]
        },
        {
            "positions": [
                -1.0728905141811178,
                -0.10314833819675331,
                -1.773625413607406,
                0.4847476302287156,
                1.507580155767128,
                1.0728995421654384
            ]
        },
        {
            "positions": [
                -1.026913841897048,
                -0.1295423743219032,
                -1.6276073194227931,
                0.5438946350978117,
                1.4445564814617682,
                1.0269021972355712
            ]
        },
        {
            "positions": [
                -0.9809371696129784,
                -0.15593641044705303,
                -1.4815892252381802,
                0.6030416399669077,
                1.3815328071564086,
                0.9809048523057041
            ]
        },
        {
            "positions": [
                -0.9349604973289087,
                -0.18233044657220293,
                -1.3355711310535674,
                0.6621886448360037,
                1.318509132851049,
                0.9349075073758369
            ]
        },
        {
            "positions": [
                -0.8889838250448391,
                -0.2087244826973528,
                -1.1895530368689542,
                0.7213356497050998,
                1.2554854585456892,
                0.8889101624459699
            ]
        },
        {
            "positions": [
                -0.8430071527607694,
                -0.23511851882250265,
                -1.0435349426843414,
                0.7804826545741959,
                1.1924617842403296,
                0.8429128175161027
            ]
        },
        {
            "positions": [
                -0.7970304804766999,
                -0.2615125549476525,
                -0.8975168484997285,
                0.8396296594432919,
                1.12943810993497,
                0.7969154725862355
            ]
        },
        {
            "positions": [
                -0.7510538081926301,
                -0.28790659107280236,
                -0.7514987543151155,
                0.898776664312388,
                1.0664144356296104,
                0.7509181276563683
            ]
        },
        {
            "positions": [
                -0.7050771359085606,
                -0.31430062719795226,
                -0.6054806601305025,
                0.9579236691814841,
                1.0033907613242508,
                0.7049207827265013
            ]
        },
        {
            "positions": [
                -0.6591004636244908,
                -0.34069466332310216,
                -0.4594625659458895,
                1.01707067405058,
                0.9403670870188909,
                0.6589234377966341
            ]
        },
        {
            "positions": [
                -0.6131237913404213,
                -0.367088699448252,
                -0.31344447176127677,
                1.076217678919676,
                0.8773434127135313,
                0.612926092866767
            ]
        },
        {
            "positions": [
                -0.5671471190563516,
                -0.39348273557340185,
                -0.1674263775766638,
                1.135364683788772,
                0.8143197384081716,
                0.5669287479368998
            ]
        },
        {
            "positions": [
                -0.521170446772282,
                -0.41987677169855175,
                -0.02140828339205081,
                1.1945116886578682,
                0.751296064102812,
                0.5209314030070327
            ]
        },
        {
            "positions": [
                -0.4751937744882123,
                -0.4462708078237016,
                0.12460981079256217,
                1.2536586935269642,
                0.6882723897974523,
                0.4749340580771655
            ]
        },
        {
            "positions": [
                -0.42921710220414255,
                -0.47266484394885155,
                0.27062790497717537,
                1.3128056983960603,
                0.6252487154920926,
                0.4289367131472983
            ]
        },
        {
            "positions": [
                -0.383240429920073,
                -0.49905888007400134,
                0.4166459991617881,
                1.3719527032651564,
                0.5622250411867331,
                0.38293936821743124
            ]
        },
        {
            "positions": [
                -0.33726375763600325,
                -0.5254529161991512,
                0.5626640933464013,
                1.4310997081342525,
                0.4992013668813733,
                0.33694202328756406
            ]
        },
        {
            "positions": [
                -0.2912870853519337,
                -0.551846952324301,
                0.7086821875310141,
                1.4902467130033485,
                0.4361776925760137,
                0.290944678357697
            ]
        },
        {
            "positions": [
                -0.24531041306786405,
                -0.578240988449451,
                0.8547002817156273,
                1.5493937178724446,
                0.37315401827065386,
                0.2449473334278297
            ]
        },
        {
            "positions": [
                -0.1993337407837944,
                -0.6046350245746008,
                1.00071837590024,
                1.6085407227415405,
                0.31013034396529426,
                0.19894998849796264
            ]
        },
        {
            "positions": [
                -0.15335706849972475,
                -0.6310290606997508,
                1.1467364700848528,
                1.6676877276106368,
                0.24710666965993466,
                0.15295264356809546
            ]
        },
        {
            "positions": [
                -0.1073803962156552,
                -0.6574230968249006,
                1.2927545642694656,
                1.7268347324797326,
                0.18408299535457506,
                0.1069552986382285
            ]
        },
        {
            "positions": [
                -0.06140372393158544,
                -0.6838171329500504,
                1.4387726584540788,
                1.785981737348829,
                0.12105932104921524,
                0.0609579537083611
            ]
        },
        {
            "positions": [
                -0.0154270516475159,
                -0.7102111690752002,
                1.5847907526386915,
                1.8451287422179248,
                0.05803564674385564,
                0.014960608778494144
            ]
        },
        {
            "positions": [
                0.030549620636553865,
                -0.7366052052003502,
                1.7308088468233047,
                1.9042757470870209,
                -0.00498802756150396,
                -0.031036736151373034
            ]
        },
        {
            "positions": [
                0.0765262929206234,
                -0.7629992413255,
                1.8768269410079175,
                1.963422751956117,
                -0.06801170186686356,
                -0.07703408108124021
            ]
        },
        {
            "positions": [
                0.12250296520469324,
                -0.7893932774506499,
                2.022845035192531,
                2.022569756825213,
                -0.1310353761722234,
                -0.12303142601110748
            ]
        }
    ]
}