{
    "goal": {
        "global_pose": {
            "orientation": {
                "w": 0.7031023502349854,
                "x": -0.7110244035720825,
                "y": 0.007748599164187908,
                "z": 0.005598929710686207
            },
            "position": {
                "x": 0.11585023208521307,
                "y": 0.44412534475326537,
                "z": 0.3711530566215515
            }
        },
        "name": "move_to_auspresseinheit_A"
    },
    "id": "BKPIECE_move_to_auspresseinheit_A_19",
    "joint_names": [
        "shoulder_pan_joint",
        "shoulder_lift_joint",
        "elbow_joint",
        "wrist_1_joint",
        "wrist_2_joint",
        "wrist_3_joint"
    ],
    "metrics": {
        "cart_traj_len": 1.285082467897258,
        "distance_elbow_joint": 1.431894039575667,
        "distance_shoulder_lift_joint": 0.6642397333768035,
        "distance_shoulder_pan_joint": 1.0451426230790681,
        "distance_wrist_1_joint": 2.0809838736944775,
        "distance_wrist_2_joint": 2.1723688105963697,
        "distance_wrist_3_joint": 1.501998159249259,
        "smoothness": 0.6535320974869586,
        "time": 0.20364831700000002,
        "traj_len": 2.9827214485385065,
        "weighted_distance": 4.019200945755388
    },
    "planner": "BKPIECE",
    "start": {
        "state": {
            "elbow_joint": 2.422574709923281,
            "shoulder_lift_joint": -1.3736533754116391,
            "shoulder_pan_joint": -0.33786336945926293,
            "wrist_1_joint": -1.0288603412921917,
            "wrist_2_joint": 1.2330224858903978,
            "wrist_3_joint": -3.094022268022082
        }
    },
    "waypoints": [
        {
            "positions": [
                -0.33786336945926293,
                -1.3736533754116391,
                2.422574709923281,
                -1.0288603412921917,
                1.2330224858903978,
                -3.094022268022082
            ]
        },
        {
            "positions": [
                -0.2916193487381067,
                -1.4134495310492308,
                2.3702789333367034,
                -0.9346082728855272,
                1.1367955180032947,
                -3.0420805374865605
            ]
        },
        {
            "positions": [
                -0.2453753280169505,
                -1.4532456866868224,
                2.317983156750126,
                -0.8403562044788626,
                1.0405685501161916,
                -2.990138806951039
            ]
        },
        {
            "positions": [
                -0.19913130729579426,
                -1.493041842324414,
                2.2656873801635484,
                -0.746104136072198,
                0.9443415822290886,
                -2.9381970764155176
            ]
        },
        {
            "positions": [
                -0.15288728657463804,
                -1.5328379979620057,
                2.2133916035769707,
                -0.6518520676655336,
                0.8481146143419855,
                -2.886255345879996
            ]
        },
        {
            "positions": [
                -0.1066432658534818,
                -1.5726341535995976,
                2.1610958269903935,
                -0.5575999992588689,
                0.7518876464548824,
                -2.8343136153444743
            ]
        },
        {
            "positions": [
                -0.060399245132325585,
                -1.6124303092371892,
                2.108800050403816,
                -0.4633479308522045,
                0.6556606785677793,
                -2.7823718848089527
            ]
        },
        {
            "positions": [
                -0.014155224411169343,
                -1.6522264648747809,
                2.056504273817238,
                -0.36909586244553994,
                0.5594337106806763,
                -2.7304301542734315
            ]
        },
        {
            "positions": [
                0.032088796309986845,
                -1.6920226205123725,
                2.004208497230661,
                -0.2748437940388755,
                0.4632067427935732,
                -2.67848842373791
            ]
        },
        {
            "positions": [
                0.07833281703114314,
                -1.7318187761499644,
                1.9519127206440832,
                -0.18059172563221082,
                0.36697977490647005,
                -2.626546693202388
            ]
        },
        {
            "positions": [
                0.12457683775229933,
                -1.771614931787556,
                1.8996169440575055,
                -0.08633965722554626,
                0.270752807019367,
                -2.5746049626668666
            ]
        },
        {
            "positions": [
                0.17082085847345557,
                -1.8114110874251477,
                1.847321167470928,
                0.007912411181118184,
                0.17452583913226394,
                -2.522663232131345
            ]
        },
        {
            "positions": [
                0.21706487919461176,
                -1.8512072430627393,
                1.7950253908843505,
                0.10216447958778274,
                0.07829887124516088,
                -2.4707215015958237
            ]
        },
        {
            "positions": [
                0.26330889991576806,
                -1.891003398700331,
                1.7427296142977728,
                0.1964165479944473,
                -0.01792809664194217,
                -2.418779771060302
            ]
        },
        {
            "positions": [
                0.30955292063692424,
                -1.9307995543379226,
                1.6904338377111954,
                0.2906686164011118,
                -0.11415506452904524,
                -2.3668380405247804
            ]
        },
        {
            "positions": [
                0.3505755328378466,
                -1.9627506827431191,
                1.7660296703935807,
                0.29805453387055814,
                -0.06299867353226671,
                -2.4822008644263573
            ]
        },
        {
            "positions": [
                0.3855644264456167,
                -1.9643620439127847,
                1.8410662251675374,
                0.2273423575215665,
                0.019893506227016453,
                -2.565703780886981
            ]
        },
        {
            "positions": [
                0.4205533200533868,
                -1.9659734050824502,
                1.916102779941494,
                0.15663018117257488,
                0.10278568598629961,
                -2.6492066973476045
            ]
        },
        {
            "positions": [
                0.45554221366115694,
                -1.9675847662521155,
                1.9911393347154507,
                0.08591800482358325,
                0.1856778657455828,
                -2.732709613808228
            ]
        },
        {
            "positions": [
                0.490531107268927,
                -1.969196127421781,
                2.0661758894894073,
                0.01520582847459162,
                0.26857004550486596,
                -2.816212530268852
            ]
        },
        {
            "positions": [
                0.5255200008766971,
                -1.9708074885914466,
                2.141212444263364,
                -0.05550634787440001,
                0.35146222526414916,
                -2.8997154467294757
            ]
        },
        {
            "positions": [
                0.5605088944844673,
                -1.9724188497611121,
                2.2162489990373206,
                -0.12621852422339164,
                0.43435440502343226,
                -2.9832183631900993
            ]
        },
        {
            "positions": [
                0.6094323475295799,
                -1.950594096752002,
                2.2742283343831393,
                -0.23615050436931748,
                0.5265816685649152,
                -3.036029566218979
            ]
        },
        {
            "positions": [
                0.6583558005746925,
                -1.9287693437428919,
                2.332207669728958,
                -0.3460824845152433,
                0.6188089321063981,
                -3.088840769247858
            ]
        },
        {
            "positions": [
                0.707279253619805,
                -1.9069445907337816,
                2.3901870050747767,
                -0.4560144646611692,
                0.7110361956478811,
                -3.1416519722767378
            ]
        }
    ]
}