{
    "goal": {
        "global_pose": {
            "orientation": {
                "w": 0.7047431468963623,
                "x": -0.7094548344612122,
                "y": 0.0024358443915843964,
                "z": -0.0022348060738295317
            },
            "position": {
                "x": 0.6094750761985779,
                "y": 0.3671506643295288,
                "z": 0.19426114857196808
            }
        },
        "name": "move_to_magneteinheit_A"
    },
    "id": "BKPIECE_move_to_magneteinheit_A_103",
    "joint_names": [
        "shoulder_pan_joint",
        "shoulder_lift_joint",
        "elbow_joint",
        "wrist_1_joint",
        "wrist_2_joint",
        "wrist_3_joint"
    ],
    "metrics": {
        "cart_traj_len": 1.879236383595084,
        "distance_elbow_joint": 3.9131419959007934,
        "distance_shoulder_lift_joint": 0.6996886160790523,
        "distance_shoulder_pan_joint": 1.2422736356412234,
        "distance_wrist_1_joint": 1.490952462164788,
        "distance_wrist_2_joint": 1.7069144020286973,
        "distance_wrist_3_joint": 1.108146531886669,
        "smoothness": 4.934324546568501e-16,
        "time": 0.181046543,
        "traj_len": 3.1876508032877786,
        "weighted_distance": 3.9465526186366815
    },
    "planner": "BKPIECE",
    "start": {
        "state": {
            "elbow_joint": -1.919643507792019,
            "shoulder_lift_joint": -0.07675430207160344,
            "shoulder_pan_joint": -1.1188671864651873,
            "wrist_1_joint": 0.42560062535961957,
            "wrist_2_joint": 1.5706038300724876,
            "wrist_3_joint": 1.1188968870953055
        }
    },
    "waypoints": [
        {
            "positions": [
                -1.1188671864651873,
                -0.07675430207160344,
                -1.919643507792019,
                0.42560062535961957,
                1.5706038300724876,
                1.1188968870953055
            ]
        },
        {
            "positions": [
                -1.0710874312482173,
                -0.10366540269002852,
                -1.7691380464112194,
                0.48294495082749606,
                1.5049532761483069,
                1.076275866638126
            ]
        },
        {
            "positions": [
                -1.0233076760312472,
                -0.1305765033084536,
                -1.6186325850304195,
                0.5402892762953725,
                1.4393027222241264,
                1.0336548461809465
            ]
        },
        {
            "positions": [
                -0.975527920814277,
                -0.15748760392687872,
                -1.4681271236496198,
                0.597633601763249,
                1.3736521682999456,
                0.9910338257237667
            ]
        },
        {
            "positions": [
                -0.9277481655973068,
                -0.1843987045453038,
                -1.3176216622688202,
                0.6549779272311255,
                1.308001614375765,
                0.9484128052665872
            ]
        },
        {
            "positions": [
                -0.8799684103803367,
                -0.21130980516372888,
                -1.1671162008880205,
                0.7123222526990018,
                1.2423510604515844,
                0.9057917848094077
            ]
        },
        {
            "positions": [
                -0.8321886551633666,
                -0.238220905782154,
                -1.0166107395072206,
                0.7696665781668783,
                1.1767005065274037,
                0.8631707643522281
            ]
        },
        {
            "positions": [
                -0.7844088999463965,
                -0.26513200640057905,
                -0.8661052781264209,
                0.8270109036347548,
                1.111049952603223,
                0.8205497438950485
            ]
        },
        {
            "positions": [
                -0.7366291447294262,
                -0.29204310701900416,
                -0.715599816745621,
                0.8843552291026313,
                1.0453993986790424,
                0.7779287234378689
            ]
        },
        {
            "positions": [
                -0.6888493895124561,
                -0.3189542076374292,
                -0.5650943553648213,
                0.9416995545705078,
                0.9797488447548617,
                0.7353077029806894
            ]
        },
        {
            "positions": [
                -0.641069634295486,
                -0.3458653082558543,
                -0.41458889398402166,
                0.9990438800383843,
                0.914098290830681,
                0.6926866825235097
            ]
        },
        {
            "positions": [
                -0.5932898790785159,
                -0.37277640887427943,
                -0.264083432603222,
                1.0563882055062606,
                0.8484477369065003,
                0.6500656620663302
            ]
        },
        {
            "positions": [
                -0.5455101238615457,
                -0.39968750949270454,
                -0.11357797122242208,
                1.1137325309741373,
                0.7827971829823196,
                0.6074446416091506
            ]
        },
        {
            "positions": [
                -0.49773036864457565,
                -0.4265986101111296,
                0.036927490158377596,
                1.1710768564420135,
                0.717146629058139,
                0.564823621151971
            ]
        },
        {
            "positions": [
                -0.44995061342760556,
                -0.45350971072955465,
                0.18743295153917727,
                1.22842118190989,
                0.6514960751339584,
                0.5222026006947915
            ]
        },
        {
            "positions": [
                -0.4021708582106355,
                -0.48042081134797976,
                0.33793841291997695,
                1.2857655073777665,
                0.5858455212097777,
                0.479581580237612
            ]
        },
        {
            "positions": [
                -0.35439110299366516,
                -0.5073319119664048,
                0.48844387430077707,
                1.343109832845643,
                0.520194967285597,
                0.43696055978043224
            ]
        },
        {
            "positions": [
                -0.3066113477766951,
                -0.53424301258483,
                0.6389493356815767,
                1.4004541583135195,
                0.45454441336141627,
                0.3943395393232527
            ]
        },
        {
            "positions": [
                -0.258831592559725,
                -0.561154113203255,
                0.7894547970623764,
                1.457798483781396,
                0.38889385943723576,
                0.3517185188660732
            ]
        },
        {
            "positions": [
                -0.2110518373427549,
                -0.5880652138216802,
                0.9399602584431761,
                1.5151428092492725,
                0.323243305513055,
                0.30909749840889367
            ]
        },
        {
            "positions": [
                -0.1632720821257847,
                -0.6149763144401053,
                1.0904657198239758,
                1.572487134717149,
                0.2575927515888743,
                0.2664764779517139
            ]
        },
        {
            "positions": [
                -0.11549232690881461,
                -0.6418874150585303,
                1.2409711812047755,
                1.6298314601850254,
                0.19194219766469356,
                0.2238554574945344
            ]
        },
        {
            "positions": [
                -0.06771257169184453,
                -0.6687985156769554,
                1.3914766425855751,
                1.6871757856529017,
                0.12629164374051305,
                0.18123443703735487
            ]
        },
        {
            "positions": [
                -0.019932816474874437,
                -0.6957096162953804,
                1.5419821039663748,
                1.7445201111207782,
                0.060641089816332316,
                0.13861341658017534
            ]
        },
        {
            "positions": [
                0.027846938742095872,
                -0.7226207169138057,
                1.692487565347175,
                1.801864436588655,
                -0.005009464107848416,
                0.0959923961229956
            ]
        },
        {
            "positions": [
                0.07562669395906596,
                -0.7495318175322307,
                1.8429930267279746,
                1.8592087620565312,
                -0.07066001803202915,
                0.05337137566581607
            ]
        },
        {
            "positions": [
                0.12340644917603598,
                -0.7764429181506558,
                1.9934984881087745,
                1.9165530875244077,
                -0.1363105719562096,
                0.010750355208636622
            ]
        }
    ]
}