{
    "goal": {
        "global_pose": {
            "orientation": {
                "w": 0.5084816217422485,
                "x": -0.49083608388900757,
                "y": 0.5182115435600281,
                "z": -0.4816462993621826
            },
            "position": {
                "x": 0.5540239810943604,
                "y": 0.030875300988554955,
                "z": 0.16403168439865112
            }
        },
        "name": "move_to_storage_A"
    },
    "id": "BKPIECE_move_to_storage_A_36",
    "joint_names": [
        "shoulder_pan_joint",
        "shoulder_lift_joint",
        "elbow_joint",
        "wrist_1_joint",
        "wrist_2_joint",
        "wrist_3_joint"
    ],
    "metrics": {
        "cart_traj_len": 0.35374485635592334,
        "distance_elbow_joint": 0.44905561358920787,
        "distance_shoulder_lift_joint": 0.23668077987137925,
        "distance_shoulder_pan_joint": 0.46102687659705005,
        "distance_wrist_1_joint": 0.2337960426367064,
        "distance_wrist_2_joint": 1.1079369603827303,
        "distance_wrist_3_joint": 0.09729246197241359,
        "smoothness": 8.881784197001252e-16,
        "time": 0.20339898,
        "traj_len": 1.6080387853063394,
        "weighted_distance": 2.0302971856390264
    },
    "planner": "BKPIECE",
    "start": {
        "state": {
            "elbow_joint": 1.9715463870305268,
            "shoulder_lift_joint": -1.1394903361783484,
            "shoulder_pan_joint": 0.12281147578464417,
            "wrist_1_joint": -0.7804599489681411,
            "wrist_2_joint": 0.12958660307563738,
            "wrist_3_joint": -3.1924946282119055
        }
    },
    "waypoints": [
        {
            "positions": [
                0.12281147578464417,
                -1.1394903361783484,
                1.9715463870305268,
                -0.7804599489681411,
                0.12958660307563738,
                -3.1924946282119055
            ]
        },
        {
            "positions": [
                0.05695049341363703,
                -1.173301876159974,
                2.035697188971842,
                -0.8138593836305277,
                0.28786331170174173,
                -3.1785957050729894
            ]
        },
        {
            "positions": [
                -0.008910488957370108,
                -1.2071134161415995,
                2.0998479909131578,
                -0.8472588182929144,
                0.44614002032784605,
                -3.1646967819340732
            ]
        },
        {
            "positions": [
                -0.07477147132837726,
                -1.2409249561232252,
                2.163998792854473,
                -0.880658252955301,
                0.6044167289539504,
                -3.150797858795157
            ]
        },
        {
            "positions": [
                -0.14063245369938437,
                -1.2747364961048508,
                2.2281495947957883,
                -0.9140576876176876,
                0.7626934375800547,
                -3.1368989356562405
            ]
        },
        {
            "positions": [
                -0.20649343607039156,
                -1.3085480360864765,
                2.2923003967371036,
                -0.9474571222800743,
                0.920970146206159,
                -3.1230000125173243
            ]
        },
        {
            "positions": [
                -0.2723544184413987,
                -1.342359576068102,
                2.3564511986784193,
                -0.9808565569424608,
                1.0792468548322633,
                -3.109101089378408
            ]
        },
        {
            "positions": [
                -0.33821540081240586,
                -1.3761711160497276,
                2.4206020006197346,
                -1.0142559916048475,
                1.2375235634583677,
                -3.095202166239492
            ]
        }
    ]
}