{
    "goal": {
        "global_pose": {
            "orientation": {
                "w": 0.7047431468963623,
                "x": -0.7094548344612122,
                "y": 0.0024358443915843964,
                "z": -0.0022348060738295317
            },
            "position": {
                "x": 0.6094750761985779,
                "y": 0.3671506643295288,
                "z": 0.19426114857196808
            }
        },
        "name": "move_to_magneteinheit_A"
    },
    "id": "BKPIECE_move_to_magneteinheit_A_144",
    "joint_names": [
        "shoulder_pan_joint",
        "shoulder_lift_joint",
        "elbow_joint",
        "wrist_1_joint",
        "wrist_2_joint",
        "wrist_3_joint"
    ],
    "metrics": {
        "cart_traj_len": 2.069201942176797,
        "distance_elbow_joint": 3.9027390843943977,
        "distance_shoulder_lift_joint": 1.0699967592503439,
        "distance_shoulder_pan_joint": 1.241005788181217,
        "distance_wrist_1_joint": 1.2533982748854076,
        "distance_wrist_2_joint": 1.4348710590321434,
        "distance_wrist_3_joint": 2.012475563601496,
        "smoothness": 6.125368408395837e-16,
        "time": 0.190767243,
        "traj_len": 3.303707996985358,
        "weighted_distance": 4.1985362914312825
    },
    "planner": "BKPIECE",
    "start": {
        "state": {
            "elbow_joint": -1.919643507792019,
            "shoulder_lift_joint": -0.07675430207160344,
            "shoulder_pan_joint": -1.1188671864651873,
            "wrist_1_joint": 0.42560062535961957,
            "wrist_2_joint": 1.5706038300724876,
            "wrist_3_joint": 1.1188968870953055
        }
    },
    "waypoints": [
        {
            "positions": [
                -1.1188671864651873,
                -0.07675430207160344,
                -1.919643507792019,
                0.42560062535961957,
                1.5706038300724876,
                1.1188968870953055
            ]
        },
        {
            "positions": [
                -1.074545551173001,
                -0.11496847204483002,
                -1.7802599690636478,
                0.3808364012565693,
                1.519358435107054,
                1.1907710143667876
            ]
        },
        {
            "positions": [
                -1.0302239158808146,
                -0.1531826420180566,
                -1.6408764303352763,
                0.336072177153519,
                1.4681130401416203,
                1.2626451416382696
            ]
        },
        {
            "positions": [
                -0.9859022805886284,
                -0.19139681199128314,
                -1.501492891606905,
                0.29130795305046875,
                1.4168676451761866,
                1.3345192689097516
            ]
        },
        {
            "positions": [
                -0.941580645296442,
                -0.22961098196450971,
                -1.3621093528785337,
                0.2465437289474185,
                1.365622250210753,
                1.4063933961812336
            ]
        },
        {
            "positions": [
                -0.8972590100042557,
                -0.26782515193773626,
                -1.2227258141501625,
                0.2017795048443682,
                1.3143768552453192,
                1.4782675234527156
            ]
        },
        {
            "positions": [
                -0.8529373747120694,
                -0.30603932191096284,
                -1.0833422754217912,
                0.157015280741318,
                1.2631314602798855,
                1.5501416507241976
            ]
        },
        {
            "positions": [
                -0.8086157394198831,
                -0.3442534918841894,
                -0.9439587366934197,
                0.11225105663826768,
                1.2118860653144519,
                1.6220157779956796
            ]
        },
        {
            "positions": [
                -0.7642941041276967,
                -0.382467661857416,
                -0.8045751979650484,
                0.06748683253521742,
                1.160640670349018,
                1.6938899052671617
            ]
        },
        {
            "positions": [
                -0.7199724688355105,
                -0.42068183183064256,
                -0.6651916592366769,
                0.022722608432167113,
                1.1093952753835843,
                1.7657640325386437
            ]
        },
        {
            "positions": [
                -0.6756508335433241,
                -0.45889600180386914,
                -0.5258081205083056,
                -0.02204161567088314,
                1.0581498804181506,
                1.8376381598101257
            ]
        },
        {
            "positions": [
                -0.6313291982511378,
                -0.49711017177709566,
                -0.38642458177993433,
                -0.0668058397739334,
                1.0069044854527172,
                1.9095122870816075
            ]
        },
        {
            "positions": [
                -0.5870075629589515,
                -0.5353243417503222,
                -0.24704104305156305,
                -0.1115700638769836,
                0.9556590904872834,
                1.9813864143530895
            ]
        },
        {
            "positions": [
                -0.5426859276667652,
                -0.5735385117235487,
                -0.10765750432319154,
                -0.15633428798003396,
                0.9044136955218496,
                2.0532605416245717
            ]
        },
        {
            "positions": [
                -0.4983642923745788,
                -0.6117526816967753,
                0.03172603440517974,
                -0.2010985120830842,
                0.8531683005564159,
                2.1251346688960533
            ]
        },
        {
            "positions": [
                -0.45404265708239244,
                -0.6499668516700019,
                0.17110957313355102,
                -0.24586273618613447,
                0.8019229055909822,
                2.1970087961675357
            ]
        },
        {
            "positions": [
                -0.4097210217902062,
                -0.6881810216432285,
                0.3104931118619223,
                -0.2906269602891847,
                0.7506775106255485,
                2.2688829234390173
            ]
        },
        {
            "positions": [
                -0.36539938649801984,
                -0.726395191616455,
                0.4498766505902936,
                -0.335391184392235,
                0.6994321156601149,
                2.3407570507104993
            ]
        },
        {
            "positions": [
                -0.3210777512058335,
                -0.7646093615896816,
                0.5892601893186653,
                -0.38015540849528534,
                0.6481867206946811,
                2.4126311779819813
            ]
        },
        {
            "positions": [
                -0.2767561159136471,
                -0.8028235315629082,
                0.7286437280470366,
                -0.4249196325983356,
                0.5969413257292474,
                2.484505305253464
            ]
        },
        {
            "positions": [
                -0.23243448062146088,
                -0.8410377015361348,
                0.8680272667754079,
                -0.46968385670138585,
                0.5456959307638136,
                2.5563794325249454
            ]
        },
        {
            "positions": [
                -0.18811284532927453,
                -0.8792518715093613,
                1.0074108055037791,
                -0.514448080804436,
                0.49445053579838016,
                2.6282535597964274
            ]
        },
        {
            "positions": [
                -0.14379121003708817,
                -0.9174660414825879,
                1.1467943442321504,
                -0.5592123049074864,
                0.4432051408329465,
                2.7001276870679094
            ]
        },
        {
            "positions": [
                -0.09946957474490192,
                -0.9556802114558145,
                1.2861778829605217,
                -0.6039765290105366,
                0.3919597458675128,
                2.7720018143393914
            ]
        },
        {
            "positions": [
                -0.05514793945271568,
                -0.9938943814290411,
                1.425561421688893,
                -0.6487407531135867,
                0.34071435090207913,
                2.8438759416108734
            ]
        },
        {
            "positions": [
                -0.01082630416052921,
                -1.0321085514022676,
                1.5649449604172647,
                -0.6935049772166373,
                0.28946895593664523,
                2.915750068882356
            ]
        },
        {
            "positions": [
                0.033495331131657036,
                -1.0703227213754942,
                1.704328499145636,
                -0.7382692013196874,
                0.23822356097121156,
                2.9876241961538375
            ]
        },
        {
            "positions": [
                0.0778169664238435,
                -1.1085368913487208,
                1.8437120378740073,
                -0.7830334254227378,
                0.18697816600577788,
                3.0594983234253195
            ]
        },
        {
            "positions": [
                0.12213860171602979,
                -1.1467510613219474,
                1.9830955766023786,
                -0.8277976495257879,
                0.13573277104034423,
                3.1313724506968015
            ]
        }
    ]
}