{
    "goal": {
        "global_pose": {
            "orientation": {
                "w": 0.5084816217422485,
                "x": -0.49083608388900757,
                "y": 0.5182115435600281,
                "z": -0.4816462993621826
            },
            "position": {
                "x": 0.5540239810943604,
                "y": 0.030875300988554955,
                "z": 0.16403168439865112
            }
        },
        "name": "move_to_storage_A"
    },
    "id": "BKPIECE_move_to_storage_A_90",
    "joint_names": [
        "shoulder_pan_joint",
        "shoulder_lift_joint",
        "elbow_joint",
        "wrist_1_joint",
        "wrist_2_joint",
        "wrist_3_joint"
    ],
    "metrics": {
        "cart_traj_len": 0.3527837534636059,
        "distance_elbow_joint": 0.45293131073211423,
        "distance_shoulder_lift_joint": 0.2326801210336198,
        "distance_shoulder_pan_joint": 0.4625819206587401,
        "distance_wrist_1_joint": 0.256468902585126,
        "distance_wrist_2_joint": 1.0923769195625868,
        "distance_wrist_3_joint": 0.10971828397934935,
        "smoothness": 4.440892098500626e-16,
        "time": 0.10663862,
        "traj_len": 1.6145455888737041,
        "weighted_distance": 2.0432914252886074
    },
    "planner": "BKPIECE",
    "start": {
        "state": {
            "elbow_joint": 1.9715463870305268,
            "shoulder_lift_joint": -1.1394903361783484,
            "shoulder_pan_joint": 0.12281147578464417,
            "wrist_1_joint": -0.7804599489681411,
            "wrist_2_joint": 0.12958660307563738,
            "wrist_3_joint": -3.1924946282119055
        }
    },
    "waypoints": [
        {
            "positions": [
                0.12281147578464417,
                -1.1394903361783484,
                1.9715463870305268,
                -0.7804599489681411,
                0.12958660307563738,
                -3.1924946282119055
            ]
        },
        {
            "positions": [
                0.05672834426196702,
                -1.1727303534688656,
                2.0362508599922573,
                -0.8170983636231591,
                0.2856404487274355,
                -3.176820587643427
            ]
        },
        {
            "positions": [
                -0.009354787260710137,
                -1.2059703707593825,
                2.100955332953988,
                -0.8537367782781771,
                0.4416942943792336,
                -3.1611465470749485
            ]
        },
        {
            "positions": [
                -0.07543791878338728,
                -1.2392103880498997,
                2.1656598059157184,
                -0.8903751929331951,
                0.5977481400310317,
                -3.14547250650647
            ]
        },
        {
            "positions": [
                -0.14152105030606443,
                -1.2724504053404169,
                2.230364278877449,
                -0.927013607588213,
                0.7538019856828299,
                -3.129798465937992
            ]
        },
        {
            "positions": [
                -0.20760418182874163,
                -1.305690422630934,
                2.29506875183918,
                -0.9636520222432311,
                0.909855831334628,
                -3.1141244253695133
            ]
        },
        {
            "positions": [
                -0.2736873133514187,
                -1.338930439921451,
                2.3597732248009105,
                -1.000290436898249,
                1.065909676986426,
                -3.0984503848010347
            ]
        },
        {
            "positions": [
                -0.3397704448740959,
                -1.3721704572119682,
                2.424477697762641,
                -1.036928851553267,
                1.2219635226382242,
                -3.082776344232556
            ]
        }
    ]
}