{
    "goal": {
        "global_pose": {
            "orientation": {
                "w": 0.7047431468963623,
                "x": -0.7094548344612122,
                "y": 0.0024358443915843964,
                "z": -0.0022348060738295317
            },
            "position": {
                "x": 0.6094750761985779,
                "y": 0.3671506643295288,
                "z": 0.19426114857196808
            }
        },
        "name": "move_to_magneteinheit_A"
    },
    "id": "BKPIECE_move_to_magneteinheit_A_125",
    "joint_names": [
        "shoulder_pan_joint",
        "shoulder_lift_joint",
        "elbow_joint",
        "wrist_1_joint",
        "wrist_2_joint",
        "wrist_3_joint"
    ],
    "metrics": {
        "cart_traj_len": 2.064091665374945,
        "distance_elbow_joint": 3.8755360821680984,
        "distance_shoulder_lift_joint": 1.0536939650991297,
        "distance_shoulder_pan_joint": 1.24234113088702,
        "distance_wrist_1_joint": 1.1350428472745353,
        "distance_wrist_2_joint": 1.442633922032716,
        "distance_wrist_3_joint": 1.9004064502980045,
        "smoothness": 5.709718422464751e-16,
        "time": 0.39942197,
        "traj_len": 3.2633808232812034,
        "weighted_distance": 4.126517183735306
    },
    "planner": "BKPIECE",
    "start": {
        "state": {
            "elbow_joint": -1.919643507792019,
            "shoulder_lift_joint": -0.07675430207160344,
            "shoulder_pan_joint": -1.1188671864651873,
            "wrist_1_joint": 0.42560062535961957,
            "wrist_2_joint": 1.5706038300724876,
            "wrist_3_joint": 1.1188968870953055
        }
    },
    "waypoints": [
        {
            "positions": [
                -1.1188671864651873,
                -0.07675430207160344,
                -1.919643507792019,
                0.42560062535961957,
                1.5706038300724876,
                1.1188968870953055
            ]
        },
        {
            "positions": [
                -1.0728545519878903,
                -0.11578000448268232,
                -1.7761051343783858,
                0.38356200138648866,
                1.517172944071276,
                1.1892823111804167
            ]
        },
        {
            "positions": [
                -1.0268419175105932,
                -0.1548057068937612,
                -1.6325667609647525,
                0.3415233774133577,
                1.4637420580700642,
                1.259667735265528
            ]
        },
        {
            "positions": [
                -0.9808292830332963,
                -0.19383140930484005,
                -1.4890283875511192,
                0.2994847534402268,
                1.4103111720688526,
                1.3300531593506393
            ]
        },
        {
            "positions": [
                -0.9348166485559992,
                -0.23285711171591894,
                -1.3454900141374861,
                0.2574461294670959,
                1.3568802860676408,
                1.4004385834357507
            ]
        },
        {
            "positions": [
                -0.8888040140787021,
                -0.27188281412699783,
                -1.2019516407238529,
                0.21540750549396492,
                1.3034494000664292,
                1.4708240075208618
            ]
        },
        {
            "positions": [
                -0.8427913796014052,
                -0.3109085165380767,
                -1.0584132673102196,
                0.17336888152083402,
                1.2500185140652174,
                1.5412094316059732
            ]
        },
        {
            "positions": [
                -0.7967787451241082,
                -0.34993421894915555,
                -0.9148748938965863,
                0.13133025754770306,
                1.1965876280640058,
                1.6115948556910844
            ]
        },
        {
            "positions": [
                -0.7507661106468111,
                -0.38895992136023444,
                -0.771336520482953,
                0.08929163357457215,
                1.143156742062794,
                1.6819802797761958
            ]
        },
        {
            "positions": [
                -0.704753476169514,
                -0.42798562377131333,
                -0.6277981470693197,
                0.04725300960144124,
                1.0897258560615823,
                1.752365703861307
            ]
        },
        {
            "positions": [
                -0.6587408416922169,
                -0.4670113261823922,
                -0.4842597736556864,
                0.005214385628310281,
                1.0362949700603705,
                1.8227511279464181
            ]
        },
        {
            "positions": [
                -0.6127282072149199,
                -0.5060370285934711,
                -0.3407214002420531,
                -0.036824238344820626,
                0.9828640840591589,
                1.8931365520315295
            ]
        },
        {
            "positions": [
                -0.566715572737623,
                -0.5450627310045499,
                -0.19718302682841982,
                -0.07886286231795153,
                0.9294331980579472,
                1.963521976116641
            ]
        },
        {
            "positions": [
                -0.5207029382603259,
                -0.5840884334156289,
                -0.053644653414786525,
                -0.1209014862910825,
                0.8760023120567355,
                2.033907400201752
            ]
        },
        {
            "positions": [
                -0.4746903037830289,
                -0.6231141358267076,
                0.08989371999884654,
                -0.16294011026421346,
                0.8225714260555238,
                2.1042928242868633
            ]
        },
        {
            "positions": [
                -0.4286776693057317,
                -0.6621398382377865,
                0.23343209341248028,
                -0.20497873423734442,
                0.769140540054312,
                2.1746782483719747
            ]
        },
        {
            "positions": [
                -0.3826650348284347,
                -0.7011655406488655,
                0.3769704668261131,
                -0.24701735821047527,
                0.7157096540531004,
                2.2450636724570856
            ]
        },
        {
            "positions": [
                -0.33665240035113764,
                -0.7401912430599444,
                0.5205088402397469,
                -0.28905598218360623,
                0.6622787680518886,
                2.3154490965421974
            ]
        },
        {
            "positions": [
                -0.29063976587384066,
                -0.7792169454710232,
                0.6640472136533797,
                -0.3310946061567371,
                0.608847882050677,
                2.3858345206273084
            ]
        },
        {
            "positions": [
                -0.24462713139654357,
                -0.8182426478821021,
                0.807585587067013,
                -0.37313323012986815,
                0.5554169960494653,
                2.4562199447124198
            ]
        },
        {
            "positions": [
                -0.1986144969192466,
                -0.857268350293181,
                0.9511239604806463,
                -0.415171854102999,
                0.5019861100482537,
                2.526605368797531
            ]
        },
        {
            "positions": [
                -0.1526018624419495,
                -0.89629405270426,
                1.0946623338942796,
                -0.45721047807612997,
                0.44855522404704185,
                2.596990792882642
            ]
        },
        {
            "positions": [
                -0.10658922796465253,
                -0.9353197551153387,
                1.2382007073079129,
                -0.4992491020492608,
                0.39512433804583025,
                2.6673762169677535
            ]
        },
        {
            "positions": [
                -0.060576593487355446,
                -0.9743454575264177,
                1.3817390807215462,
                -0.5412877260223918,
                0.34169345204461843,
                2.737761641052865
            ]
        },
        {
            "positions": [
                -0.01456395901005858,
                -1.0133711599374964,
                1.5252774541351795,
                -0.5833263499955226,
                0.28826256604340683,
                2.808147065137976
            ]
        },
        {
            "positions": [
                0.03144867546723851,
                -1.0523968623485753,
                1.6688158275488127,
                -0.6253649739686535,
                0.234831680042195,
                2.8785324892230877
            ]
        },
        {
            "positions": [
                0.0774613099445356,
                -1.0914225647596543,
                1.812354200962446,
                -0.6674035979417845,
                0.18140079404098342,
                2.9489179133081986
            ]
        },
        {
            "positions": [
                0.12347394442183271,
                -1.1304482671707332,
                1.9558925743760793,
                -0.7094422219149156,
                0.12796990803977157,
                3.01930333739331
            ]
        }
    ]
}