{
    "goal": {
        "global_pose": {
            "orientation": {
                "w": -0.00223480608172531,
                "x": 0.0024358444001904467,
                "y": 0.7094548369677653,
                "z": -0.704743149386269
            },
            "position": {
                "x": 0.6205249238014221,
                "y": -0.6371506643295288,
                "z": 0.19426114857196808
            }
        },
        "name": "move_to_magneteinheit_B"
    },
    "id": "BKPIECE_move_to_magneteinheit_B_47",
    "joint_names": [
        "shoulder_pan_joint",
        "shoulder_lift_joint",
        "elbow_joint",
        "wrist_1_joint",
        "wrist_2_joint",
        "wrist_3_joint"
    ],
    "metrics": {
        "cart_traj_len": 3.422989517976357,
        "distance_elbow_joint": 5.923538879553275,
        "distance_shoulder_lift_joint": 2.2404026000320836,
        "distance_shoulder_pan_joint": 2.9489337980891333,
        "distance_wrist_1_joint": 3.8102838487362938,
        "distance_wrist_2_joint": 1.4471691413961185,
        "distance_wrist_3_joint": 3.130425360235864,
        "smoothness": 0.5306929750067341,
        "time": 0.704130704,
        "traj_len": 4.415965763911986,
        "weighted_distance": 5.569475499420652
    },
    "planner": "BKPIECE",
    "start": {
        "state": {
            "elbow_joint": 2.39358713078474,
            "shoulder_lift_joint": -1.908514104345545,
            "shoulder_pan_joint": 0.7066247066606129,
            "wrist_1_joint": -0.4678290933515497,
            "wrist_2_joint": 0.7096259083745334,
            "wrist_3_joint": -3.1358149277392293
        }
    },
    "waypoints": [
        {
            "positions": [
                0.7066247066606129,
                -1.908514104345545,
                2.39358713078474,
                -0.4678290933515497,
                0.7096259083745334,
                -3.1358149277392293
            ]
        },
        {
            "positions": [
                0.5724423612071723,
                -1.9969037012914637,
                2.408978173022892,
                -0.38768481894786255,
                0.7038878579782429,
                -3.0797210501748915
            ]
        },
        {
            "positions": [
                0.43826001575373175,
                -2.0852932982373824,
                2.424369215261044,
                -0.30754054454417545,
                0.6981498075819526,
                -3.023627172610554
            ]
        },
        {
            "positions": [
                0.3040776703002911,
                -2.173682895183301,
                2.439760257499196,
                -0.2273962701404883,
                0.6924117571856621,
                -2.9675332950462163
            ]
        },
        {
            "positions": [
                0.36338332048463473,
                -2.2138969587791477,
                2.350600721970255,
                -0.15595517436376763,
                0.7785526103597593,
                -2.948205647072824
            ]
        },
        {
            "positions": [
                0.4226889706689783,
                -2.2541110223749943,
                2.2614411864413144,
                -0.08451407858704696,
                0.8646934635338567,
                -2.928877999099432
            ]
        },
        {
            "positions": [
                0.48199462085332195,
                -2.294325085970841,
                2.1722816509123737,
                -0.013072982810326289,
                0.950834316707954,
                -2.9095503511260397
            ]
        },
        {
            "positions": [
                0.5413002710376655,
                -2.334539149566688,
                2.083122115383433,
                0.05836811296639438,
                1.0369751698820513,
                -2.8902227031526477
            ]
        },
        {
            "positions": [
                0.6006059212220092,
                -2.3747532131625344,
                1.993962579854492,
                0.12980920874311508,
                1.1231160230561485,
                -2.8708950551792554
            ]
        },
        {
            "positions": [
                0.6599115714063528,
                -2.414967276758381,
                1.9048030443255515,
                0.20125030451983572,
                1.209256876230246,
                -2.8515674072058634
            ]
        },
        {
            "positions": [
                0.7192172215906965,
                -2.4551813403542275,
                1.8156435087966105,
                0.27269140029655636,
                1.2953977294043433,
                -2.832239759232471
            ]
        },
        {
            "positions": [
                0.7848982780401462,
                -2.428300474636971,
                1.6748287165129547,
                0.33390432196377673,
                1.283951211158191,
                -2.7492073439091187
            ]
        },
        {
            "positions": [
                0.850579334489596,
                -2.401419608919715,
                1.5340139242292987,
                0.3951172436309971,
                1.2725046929120387,
                -2.6661749285857668
            ]
        },
        {
            "positions": [
                0.9162603909390458,
                -2.3745387432024585,
                1.393199131945643,
                0.45633016529821746,
                1.2610581746658867,
                -2.5831425132624144
            ]
        },
        {
            "positions": [
                0.9819414473884955,
                -2.347657877485202,
                1.2523843396619871,
                0.5175430869654378,
                1.2496116564197344,
                -2.5001100979390625
            ]
        },
        {
            "positions": [
                1.0476225038379452,
                -2.320777011767946,
                1.1115695473783314,
                0.5787560086326582,
                1.238165138173582,
                -2.41707768261571
            ]
        },
        {
            "positions": [
                1.113303560287395,
                -2.2938961460506895,
                0.9707547550946753,
                0.6399689302998786,
                1.2267186199274298,
                -2.3340452672923577
            ]
        },
        {
            "positions": [
                1.1789846167368447,
                -2.267015280333433,
                0.8299399628110196,
                0.7011818519670989,
                1.2152721016812775,
                -2.251012851969006
            ]
        },
        {
            "positions": [
                1.2446656731862946,
                -2.240134414616177,
                0.6891251705273638,
                0.7623947736343193,
                1.2038255834351255,
                -2.1679804366456534
            ]
        },
        {
            "positions": [
                1.3103467296357443,
                -2.2132535488989205,
                0.5483103782437078,
                0.8236076953015398,
                1.1923790651889732,
                -2.084948021322301
            ]
        },
        {
            "positions": [
                1.376027786085194,
                -2.186372683181664,
                0.407495585960052,
                0.88482061696876,
                1.180932546942821,
                -2.001915605998949
            ]
        },
        {
            "positions": [
                1.4417088425346438,
                -2.1594918174644078,
                0.26668079367639597,
                0.9460335386359805,
                1.1694860286966686,
                -1.9188831906755968
            ]
        },
        {
            "positions": [
                1.5073898989840937,
                -2.1326109517471514,
                0.12586600139274018,
                1.0072464603032008,
                1.1580395104505163,
                -1.8358507753522448
            ]
        },
        {
            "positions": [
                1.5730709554335434,
                -2.105730086029895,
                -0.01494879089091583,
                1.0684593819704213,
                1.146592992204364,
                -1.7528183600288925
            ]
        },
        {
            "positions": [
                1.638752011882993,
                -2.0788492203126387,
                -0.1557635831745714,
                1.1296723036376415,
                1.135146473958212,
                -1.6697859447055403
            ]
        },
        {
            "positions": [
                1.704433068332443,
                -2.0519683545953824,
                -0.2965783754582276,
                1.190885225304862,
                1.1236999557120597,
                -1.586753529382188
            ]
        },
        {
            "positions": [
                1.7701141247818926,
                -2.025087488878126,
                -0.43739316774188297,
                1.2520981469720822,
                1.1122534374659074,
                -1.503721114058836
            ]
        },
        {
            "positions": [
                1.8357951812313422,
                -1.99820662316087,
                -0.5782079600255388,
                1.3133110686393026,
                1.1008069192197552,
                -1.4206886987354839
            ]
        },
        {
            "positions": [
                1.901476237680792,
                -1.9713257574436134,
                -0.719022752309195,
                1.3745239903065232,
                1.0893604009736029,
                -1.3376562834121313
            ]
        },
        {
            "positions": [
                1.967157294130242,
                -1.944444891726357,
                -0.8598375445928508,
                1.4357369119737435,
                1.0779138827274508,
                -1.2546238680887793
            ]
        },
        {
            "positions": [
                2.0328383505796914,
                -1.9175640260091007,
                -1.0006523368765066,
                1.4969498336409637,
                1.0664673644812985,
                -1.1715914527654272
            ]
        },
        {
            "positions": [
                2.0985194070291415,
                -1.8906831602918446,
                -1.1414671291601624,
                1.558162755308184,
                1.0550208462351462,
                -1.088559037442075
            ]
        },
        {
            "positions": [
                2.164200463478591,
                -1.863802294574588,
                -1.2822819214438186,
                1.6193756769754046,
                1.043574327988994,
                -1.0055266221187227
            ]
        },
        {
            "positions": [
                2.229881519928041,
                -1.8369214288573317,
                -1.4230967137274744,
                1.680588598642625,
                1.0321278097428417,
                -0.9224942067953705
            ]
        },
        {
            "positions": [
                2.295562576377491,
                -1.8100405631400756,
                -1.5639115060111302,
                1.7418015203098454,
                1.0206812914966896,
                -0.8394617914720184
            ]
        },
        {
            "positions": [
                2.36124363282694,
                -1.7831596974228192,
                -1.704726298294786,
                1.8030144419770655,
                1.0092347732505373,
                -0.7564293761486662
            ]
        },
        {
            "positions": [
                2.4269246892763903,
                -1.7562788317055626,
                -1.8455410905784422,
                1.864227363644286,
                0.9977882550043851,
                -0.6733969608253139
            ]
        },
        {
            "positions": [
                2.49260574572584,
                -1.7293979659883065,
                -1.9863558828620975,
                1.9254402853115065,
                0.9863417367582328,
                -0.5903645455019615
            ]
        },
        {
            "positions": [
                2.5582868021752896,
                -1.7025171002710502,
                -2.127170675145753,
                1.9866532069787268,
                0.9748952185120806,
                -0.5073321301786096
            ]
        },
        {
            "positions": [
                2.6239678586247397,
                -1.6756362345537938,
                -2.2679854674294093,
                2.047866128645947,
                0.9634487002659284,
                -0.42429971485525764
            ]
        },
        {
            "positions": [
                2.6896489150741894,
                -1.6487553688365375,
                -2.4088002597130656,
                2.1090790503131673,
                0.9520021820197762,
                -0.3412672995319048
            ]
        },
        {
            "positions": [
                2.755329971523639,
                -1.6218745031192812,
                -2.5496150519967213,
                2.170291971980388,
                0.9405556637736239,
                -0.2582348842085529
            ]
        },
        {
            "positions": [
                2.7458165254730926,
                -1.7079173557981266,
                -2.460816007662431,
                2.0530756936399523,
                0.8933429685378392,
                -0.23295035253803417
            ]
        },
        {
            "positions": [
                2.7363030794225462,
                -1.7939602084769721,
                -2.372016963328141,
                1.9358594152995168,
                0.8461302733020546,
                -0.20766582086751545
            ]
        },
        {
            "positions": [
                2.726789633372,
                -1.8800030611558176,
                -2.283217918993851,
                1.8186431369590812,
                0.7989175780662698,
                -0.1823812891969967
            ]
        },
        {
            "positions": [
                2.7172761873214535,
                -1.966045913834663,
                -2.1944188746595605,
                1.7014268586186454,
                0.7517048828304852,
                -0.15709675752647798
            ]
        },
        {
            "positions": [
                2.7077627412709075,
                -2.0520887665135086,
                -2.1056198303252707,
                1.5842105802782098,
                0.7044921875947006,
                -0.13181222585595925
            ]
        },
        {
            "positions": [
                2.698249295220361,
                -2.138131619192354,
                -2.016820785990981,
                1.4669943019377742,
                0.6572794923589159,
                -0.10652769418544053
            ]
        },
        {
            "positions": [
                2.688735849169815,
                -2.2241744718711995,
                -1.9280217416566905,
                1.3497780235973387,
                0.6100667971231313,
                -0.08124316251492181
            ]
        },
        {
            "positions": [
                2.6792224031192684,
                -2.310217324550045,
                -1.8392226973224002,
                1.2325617452569029,
                0.5628541018873465,
                -0.05595863084440306
            ]
        },
        {
            "positions": [
                2.669708957068722,
                -2.39626017722889,
                -1.75042365298811,
                1.1153454669164673,
                0.5156414066515619,
                -0.030674099173884334
            ]
        },
        {
            "positions": [
                2.6601955110181756,
                -2.4823030299077358,
                -1.66162460865382,
                0.9981291885760316,
                0.46842871141577724,
                -0.005389567503365589
            ]
        }
    ]
}