{
    "goal": {
        "global_pose": {
            "orientation": {
                "w": -0.00223480608172531,
                "x": 0.0024358444001904467,
                "y": 0.7094548369677653,
                "z": -0.704743149386269
            },
            "position": {
                "x": 0.6205249238014221,
                "y": -0.6371506643295288,
                "z": 0.19426114857196808
            }
        },
        "name": "move_to_magneteinheit_B"
    },
    "id": "BKPIECE_move_to_magneteinheit_B_110",
    "joint_names": [
        "shoulder_pan_joint",
        "shoulder_lift_joint",
        "elbow_joint",
        "wrist_1_joint",
        "wrist_2_joint",
        "wrist_3_joint"
    ],
    "metrics": {
        "cart_traj_len": 4.418565047403434,
        "distance_elbow_joint": 6.436640219634848,
        "distance_shoulder_lift_joint": 3.086344542840815,
        "distance_shoulder_pan_joint": 3.2128136534468545,
        "distance_wrist_1_joint": 2.655007605656069,
        "distance_wrist_2_joint": 5.4090349816792624,
        "distance_wrist_3_joint": 4.566790163460131,
        "smoothness": 0.618593276373518,
        "time": 0.558592184,
        "traj_len": 5.036529674956556,
        "weighted_distance": 6.524128607022825
    },
    "planner": "BKPIECE",
    "start": {
        "state": {
            "elbow_joint": 2.39358713078474,
            "shoulder_lift_joint": -1.908514104345545,
            "shoulder_pan_joint": 0.7066247066606129,
            "wrist_1_joint": -0.4678290933515497,
            "wrist_2_joint": 0.7096259083745334,
            "wrist_3_joint": -3.1358149277392293
        }
    },
    "waypoints": [
        {
            "positions": [
                0.7066247066606129,
                -1.908514104345545,
                2.39358713078474,
                -0.4678290933515497,
                0.7096259083745334,
                -3.1358149277392293
            ]
        },
        {
            "positions": [
                0.6558168252135086,
                -1.9234870795201786,
                2.3753277260960624,
                -0.3339426979580532,
                0.664562000136142,
                -3.070236087450053
            ]
        },
        {
            "positions": [
                0.6050089437664041,
                -1.9384600546948125,
                2.357068321407384,
                -0.2000563025645567,
                0.6194980918977506,
                -3.0046572471608766
            ]
        },
        {
            "positions": [
                0.5542010623192998,
                -1.9534330298694464,
                2.3388089167187065,
                -0.0661699071710602,
                0.5744341836593592,
                -2.9390784068717006
            ]
        },
        {
            "positions": [
                0.5033931808721954,
                -1.9684060050440801,
                2.320549512030029,
                0.0677164882224363,
                0.5293702754209677,
                -2.8734995665825243
            ]
        },
        {
            "positions": [
                0.4834462703201833,
                -1.9716242246584406,
                2.2414161038871807,
                0.1606426342402824,
                0.46423438657165134,
                -2.755115061748303
            ]
        },
        {
            "positions": [
                0.4634993597681712,
                -1.9748424442728008,
                2.1622826957443326,
                0.2535687802581285,
                0.39909849772233497,
                -2.636730556914081
            ]
        },
        {
            "positions": [
                0.4435524492161591,
                -1.978060663887161,
                2.0831492876014845,
                0.34649492627597467,
                0.3339626088730186,
                -2.5183460520798597
            ]
        },
        {
            "positions": [
                0.42360553866414696,
                -1.9812788835015214,
                2.0040158794586365,
                0.43942107229382077,
                0.2688267200237022,
                -2.3999615472456384
            ]
        },
        {
            "positions": [
                0.506618900813361,
                -1.9841614098506726,
                1.8606949489873967,
                0.41310740525630046,
                0.23371403541259744,
                -2.30871797580565
            ]
        },
        {
            "positions": [
                0.5896322629625752,
                -1.9870439361998236,
                1.7173740185161568,
                0.3867937382187801,
                0.19860135080149266,
                -2.217474404365662
            ]
        },
        {
            "positions": [
                0.6726456251117893,
                -1.9899264625489748,
                1.574053088044917,
                0.3604800711812598,
                0.16348866619038788,
                -2.126230832925674
            ]
        },
        {
            "positions": [
                0.7556589872610033,
                -1.9928089888981257,
                1.430732157573677,
                0.33416640414373944,
                0.1283759815792831,
                -2.0349872614856857
            ]
        },
        {
            "positions": [
                0.8386723494102175,
                -1.995691515247277,
                1.2874112271024374,
                0.30785273710621913,
                0.09326329696817831,
                -1.9437436900456975
            ]
        },
        {
            "positions": [
                0.9216857115594316,
                -1.9985740415964282,
                1.1440902966311977,
                0.2815390700686988,
                0.05815061235707353,
                -1.8525001186057093
            ]
        },
        {
            "positions": [
                1.0046990737086459,
                -2.001456567945579,
                1.0007693661599577,
                0.25522540303117847,
                0.023037927745968717,
                -1.761256547165721
            ]
        },
        {
            "positions": [
                1.0877124358578598,
                -2.00433909429473,
                0.857448435688718,
                0.22891173599365816,
                -0.012074756865136038,
                -1.670012975725733
            ]
        },
        {
            "positions": [
                1.170725798007074,
                -2.0072216206438815,
                0.7141275052174783,
                0.20259806895613783,
                -0.04718744147624088,
                -1.5787694042857447
            ]
        },
        {
            "positions": [
                1.2537391601562882,
                -2.0101041469930325,
                0.5708065747462385,
                0.1762844019186175,
                -0.0823001260873456,
                -1.4875258328457566
            ]
        },
        {
            "positions": [
                1.3367525223055021,
                -2.0129866733421835,
                0.4274856442749986,
                0.1499707348810972,
                -0.11741281069845044,
                -1.3962822614057684
            ]
        },
        {
            "positions": [
                1.419765884454716,
                -2.015869199691335,
                0.28416471380375885,
                0.12365706784357683,
                -0.15252549530955517,
                -1.3050386899657802
            ]
        },
        {
            "positions": [
                1.5027792466039305,
                -2.018751726040486,
                0.14084378333251912,
                0.09734340080605652,
                -0.18763817992065995,
                -1.213795118525792
            ]
        },
        {
            "positions": [
                1.5857926087531444,
                -2.021634252389637,
                -0.0024771471387210475,
                0.07102973376853616,
                -0.2227508645317648,
                -1.1225515470858038
            ]
        },
        {
            "positions": [
                1.6688059709023588,
                -2.0245167787387883,
                -0.14579807760996077,
                0.04471606673101586,
                -0.2578635491428696,
                -1.0313079756458157
            ]
        },
        {
            "positions": [
                1.7518193330515728,
                -2.0273993050879393,
                -0.2891190080812005,
                0.018402399693495552,
                -0.2929762337539743,
                -0.9400644042058275
            ]
        },
        {
            "positions": [
                1.8348326952007867,
                -2.0302818314370903,
                -0.43243993855244023,
                -0.007911267344024753,
                -0.32808891836507914,
                -0.8488208327658393
            ]
        },
        {
            "positions": [
                1.9178460573500011,
                -2.0331643577862413,
                -0.57576086902368,
                -0.034224934381545113,
                -0.363201602976184,
                -0.7575772613258511
            ]
        },
        {
            "positions": [
                2.000859419499215,
                -2.0360468841353927,
                -0.7190817994949197,
                -0.06053860141906542,
                -0.3983142875872887,
                -0.666333689885863
            ]
        },
        {
            "positions": [
                2.083872781648429,
                -2.0389294104845437,
                -0.8624027299661594,
                -0.08685226845658578,
                -0.43342697219839343,
                -0.5750901184458748
            ]
        },
        {
            "positions": [
                2.166886143797643,
                -2.0418119368336947,
                -1.0057236604373991,
                -0.11316593549410603,
                -0.4685396568094983,
                -0.4838465470058868
            ]
        },
        {
            "positions": [
                2.2498995059468574,
                -2.044694463182846,
                -1.1490445909086393,
                -0.1394796025316264,
                -0.5036523414206031,
                -0.3926029755658984
            ]
        },
        {
            "positions": [
                2.3329128680960713,
                -2.047576989531997,
                -1.2923655213798793,
                -0.16579326956914672,
                -0.5387650260317078,
                -0.30135940412591045
            ]
        },
        {
            "positions": [
                2.366625482905421,
                -1.9846791120255858,
                -1.3704877958353696,
                -0.11317718791890527,
                -0.40965339516945515,
                -0.3364744060775478
            ]
        },
        {
            "positions": [
                2.400338097714771,
                -1.9217812345191745,
                -1.44861007029086,
                -0.06056110626866383,
                -0.28054176430720246,
                -0.3715894080291852
            ]
        },
        {
            "positions": [
                2.4340507125241206,
                -1.8588833570127632,
                -1.5267323447463501,
                -0.007945024618422392,
                -0.15143013344494982,
                -0.4067044099808226
            ]
        },
        {
            "positions": [
                2.4677633273334703,
                -1.795985479506352,
                -1.6048546192018405,
                0.04467105703181906,
                -0.022318502582697075,
                -0.44181941193246
            ]
        },
        {
            "positions": [
                2.5014759421428203,
                -1.7330876019999404,
                -1.6829768936573308,
                0.09728713868206049,
                0.10679312827955556,
                -0.47693441388409735
            ]
        },
        {
            "positions": [
                2.53518855695217,
                -1.6701897244935293,
                -1.7610991681128212,
                0.14990322033230194,
                0.2359047591418082,
                -0.5120494158357347
            ]
        },
        {
            "positions": [
                2.5689011717615196,
                -1.6072918469871178,
                -1.8392214425683115,
                0.20251930198254334,
                0.36501639000406083,
                -0.5471644177873721
            ]
        },
        {
            "positions": [
                2.6026137865708696,
                -1.5443939694807065,
                -1.917343717023802,
                0.2551353836327849,
                0.4941280208663137,
                -0.5822794197390095
            ]
        },
        {
            "positions": [
                2.6363264013802192,
                -1.4814960919742952,
                -1.9954659914792923,
                0.3077514652830262,
                0.6232396517285663,
                -0.6173944216906468
            ]
        },
        {
            "positions": [
                2.670039016189569,
                -1.418598214467884,
                -2.0735882659347826,
                0.36036754693326767,
                0.752351282590819,
                -0.6525094236422843
            ]
        },
        {
            "positions": [
                2.703751630998919,
                -1.3557003369614726,
                -2.151710540390273,
                0.4129836285835091,
                0.8814629134530718,
                -0.6876244255939217
            ]
        },
        {
            "positions": [
                2.7374642458082685,
                -1.2928024594550613,
                -2.2298328148457633,
                0.4655997102337506,
                1.0105745443153242,
                -0.722739427545559
            ]
        },
        {
            "positions": [
                2.7711768606176186,
                -1.22990458194865,
                -2.3079550893012533,
                0.518215791883992,
                1.139686175177577,
                -0.7578544294971964
            ]
        },
        {
            "positions": [
                2.804889475426968,
                -1.1670067044422388,
                -2.386077363756744,
                0.5708318735342334,
                1.2687978060398295,
                -0.7929694314488338
            ]
        },
        {
            "positions": [
                2.838602090236318,
                -1.1041088269358275,
                -2.464199638212234,
                0.6234479551844748,
                1.3979094369020824,
                -0.8280844334004711
            ]
        },
        {
            "positions": [
                2.872314705045668,
                -1.041210949429416,
                -2.542321912667725,
                0.6760640368347164,
                1.5270210677643352,
                -0.8631994353521085
            ]
        },
        {
            "positions": [
                2.9060273198550175,
                -0.9783130719230047,
                -2.6204441871232147,
                0.7286801184849577,
                1.6561326986265879,
                -0.8983144373037459
            ]
        },
        {
            "positions": [
                2.939739934664367,
                -0.9154151944165934,
                -2.698566461578705,
                0.7812962001351992,
                1.7852443294888405,
                -0.9334294392553834
            ]
        },
        {
            "positions": [
                2.973452549473717,
                -0.8525173169101821,
                -2.7766887360341954,
                0.8339122817854406,
                1.9143559603510931,
                -0.9685444412070207
            ]
        },
        {
            "positions": [
                3.007165164283067,
                -0.7896194394037708,
                -2.8548110104896858,
                0.8865283634356822,
                2.043467591213346,
                -1.003659443158658
            ]
        },
        {
            "positions": [
                2.984082840294302,
                -0.9022410465721799,
                -2.7755948719323236,
                0.8925431277785424,
                1.9382401625448147,
                -0.9349904697710536
            ]
        },
        {
            "positions": [
                2.9610005163055377,
                -1.014862653740589,
                -2.6963787333749614,
                0.8985578921214027,
                1.8330127338762832,
                -0.8663214963834491
            ]
        },
        {
            "positions": [
                2.937918192316773,
                -1.1274842609089981,
                -2.617162594817599,
                0.9045726564642629,
                1.7277853052077519,
                -0.7976525229958447
            ]
        },
        {
            "positions": [
                2.9148358683280082,
                -1.240105868077407,
                -2.537946456260237,
                0.9105874208071231,
                1.6225578765392203,
                -0.7289835496082402
            ]
        },
        {
            "positions": [
                2.891753544339244,
                -1.3527274752458163,
                -2.4587303177028748,
                0.9166021851499833,
                1.517330447870689,
                -0.6603145762206357
            ]
        },
        {
            "positions": [
                2.868671220350479,
                -1.4653490824142255,
                -2.3795141791455126,
                0.9226169494928436,
                1.4121030192021577,
                -0.5916456028330311
            ]
        },
        {
            "positions": [
                2.8455888963617144,
                -1.5779706895826346,
                -2.3002980405881504,
                0.9286317138357038,
                1.3068755905336262,
                -0.5229766294454267
            ]
        },
        {
            "positions": [
                2.82250657237295,
                -1.6905922967510434,
                -2.221081902030788,
                0.9346464781785639,
                1.201648161865095,
                -0.4543076560578222
            ]
        },
        {
            "positions": [
                2.7994242483841854,
                -1.8032139039194526,
                -2.141865763473426,
                0.9406612425214241,
                1.0964207331965636,
                -0.3856386826702177
            ]
        },
        {
            "positions": [
                2.7763419243954206,
                -1.9158355110878618,
                -2.0626496249160637,
                0.9466760068642844,
                0.9911933045280321,
                -0.31696970928261325
            ]
        },
        {
            "positions": [
                2.7532596004066563,
                -2.028457118256271,
                -1.9834334863587015,
                0.9526907712071446,
                0.8859658758595008,
                -0.24830073589500878
            ]
        },
        {
            "positions": [
                2.7301772764178915,
                -2.14107872542468,
                -1.9042173478013393,
                0.9587055355500048,
                0.7807384471909693,
                -0.1796317625074042
            ]
        },
        {
            "positions": [
                2.707094952429127,
                -2.2537003325930893,
                -1.8250012092439771,
                0.964720299892865,
                0.675511018522438,
                -0.11096278911979973
            ]
        },
        {
            "positions": [
                2.6840126284403625,
                -2.366321939761498,
                -1.745785070686615,
                0.9707350642357253,
                0.5702835898539065,
                -0.04229381573219526
            ]
        },
        {
            "positions": [
                2.6609303044515977,
                -2.4789435469299073,
                -1.6665689321292527,
                0.9767498285785855,
                0.4650561611853751,
                0.026375157655409265
            ]
        }
    ]
}