{
    "goal": {
        "global_pose": {
            "orientation": {
                "w": 0.7031023502349854,
                "x": -0.7110244035720825,
                "y": 0.007748599164187908,
                "z": 0.005598929710686207
            },
            "position": {
                "x": 0.11585023208521307,
                "y": 0.44412534475326537,
                "z": 0.3711530566215515
            }
        },
        "name": "move_to_auspresseinheit_A"
    },
    "id": "BKPIECE_move_to_auspresseinheit_A_54",
    "joint_names": [
        "shoulder_pan_joint",
        "shoulder_lift_joint",
        "elbow_joint",
        "wrist_1_joint",
        "wrist_2_joint",
        "wrist_3_joint"
    ],
    "metrics": {
        "cart_traj_len": 1.0257744933819004,
        "distance_elbow_joint": 1.0286628683949437,
        "distance_shoulder_lift_joint": 0.6202255976458853,
        "distance_shoulder_pan_joint": 1.0441720083072363,
        "distance_wrist_1_joint": 1.4173947675033467,
        "distance_wrist_2_joint": 1.7377249601156417,
        "distance_wrist_3_joint": 2.342412414180291,
        "smoothness": 0.6433253227810058,
        "time": 0.291706328,
        "traj_len": 2.861921140798143,
        "weighted_distance": 4.0038153269259205
    },
    "planner": "BKPIECE",
    "start": {
        "state": {
            "elbow_joint": 2.422574709923281,
            "shoulder_lift_joint": -1.3736533754116391,
            "shoulder_pan_joint": -0.33786336945926293,
            "wrist_1_joint": -1.0288603412921917,
            "wrist_2_joint": 1.2330224858903978,
            "wrist_3_joint": -3.094022268022082
        }
    },
    "waypoints": [
        {
            "positions": [
                -0.33786336945926293,
                -1.3736533754116391,
                2.422574709923281,
                -1.0288603412921917,
                1.2330224858903978,
                -3.094022268022082
            ]
        },
        {
            "positions": [
                -0.3054616983146671,
                -1.4086760249345607,
                2.3783724072963075,
                -0.9670656644888693,
                1.138826881619147,
                -2.9982538671051207
            ]
        },
        {
            "positions": [
                -0.27306002717007116,
                -1.443698674457482,
                2.3341701046693335,
                -0.9052709876855469,
                1.0446312773478963,
                -2.9024854661881587
            ]
        },
        {
            "positions": [
                -0.2406583560254753,
                -1.4787213239804036,
                2.2899678020423595,
                -0.8434763108822245,
                0.9504356730766454,
                -2.8067170652711972
            ]
        },
        {
            "positions": [
                -0.20825668488087945,
                -1.5137439735033251,
                2.245765499415386,
                -0.7816816340789022,
                0.8562400688053947,
                -2.7109486643542353
            ]
        },
        {
            "positions": [
                -0.17585501373628354,
                -1.5487666230262465,
                2.2015631967884124,
                -0.7198869572755797,
                0.7620444645341439,
                -2.615180263437274
            ]
        },
        {
            "positions": [
                -0.14345334259168768,
                -1.583789272549168,
                2.1573608941614384,
                -0.6580922804722574,
                0.6678488602628931,
                -2.519411862520312
            ]
        },
        {
            "positions": [
                -0.1110516714470918,
                -1.6188119220720896,
                2.1131585915344644,
                -0.596297603668935,
                0.5736532559916423,
                -2.4236434616033504
            ]
        },
        {
            "positions": [
                -0.07865000030249597,
                -1.653834571595011,
                2.068956288907491,
                -0.5345029268656127,
                0.4794576517203917,
                -2.327875060686389
            ]
        },
        {
            "positions": [
                -0.04624832915790006,
                -1.6888572211179325,
                2.0247539862805173,
                -0.47270825006229034,
                0.38526204744914083,
                -2.232106659769427
            ]
        },
        {
            "positions": [
                -0.013846658013304147,
                -1.723879870640854,
                1.9805516836535433,
                -0.4109135732589678,
                0.29106644317789,
                -2.136338258852465
            ]
        },
        {
            "positions": [
                0.018555013131291653,
                -1.7589025201637754,
                1.9363493810265695,
                -0.34911889645564553,
                0.19687083890663937,
                -2.0405698579355036
            ]
        },
        {
            "positions": [
                0.05095668427588759,
                -1.793925169686697,
                1.8921470783995957,
                -0.28732421965232313,
                0.10267523463538843,
                -1.944801457018542
            ]
        },
        {
            "positions": [
                0.1469200808664247,
                -1.831922581737675,
                1.9693063018815002,
                -0.2238055868388547,
                0.13067989105002834,
                -1.9943459755540405
            ]
        },
        {
            "positions": [
                0.2428834774569618,
                -1.869919993788653,
                2.0464655253634048,
                -0.1602869540253863,
                0.15868454746466826,
                -2.0438904940895393
            ]
        },
        {
            "positions": [
                0.3388468740474989,
                -1.9079174058396313,
                2.123624748845309,
                -0.09676832121191792,
                0.18668920387930818,
                -2.093435012625038
            ]
        },
        {
            "positions": [
                0.434810270638036,
                -1.9459148178906094,
                2.2007839723272133,
                -0.03324968839844951,
                0.2146938602939481,
                -2.1429795311605364
            ]
        },
        {
            "positions": [
                0.48215592787883443,
                -1.94752350730302,
                2.2421951252355115,
                -0.07175083225938679,
                0.2863272464053915,
                -2.2678313589057395
            ]
        },
        {
            "positions": [
                0.5295015851196329,
                -1.9491321967154303,
                2.28360627814381,
                -0.11025197612032407,
                0.35796063251683485,
                -2.3926831866509426
            ]
        },
        {
            "positions": [
                0.564862995865301,
                -1.9401828414470115,
                2.3049614855692186,
                -0.17920834149787013,
                0.4283790947126722,
                -2.5417451613598128
            ]
        },
        {
            "positions": [
                0.6002244066109691,
                -1.9312334861785927,
                2.3263166929946277,
                -0.2481647068754162,
                0.4987975569085096,
                -2.6908071360686825
            ]
        },
        {
            "positions": [
                0.6355858173566372,
                -1.9222841309101737,
                2.3476719004200364,
                -0.31712107225296227,
                0.5692160191043469,
                -2.8398691107775527
            ]
        },
        {
            "positions": [
                0.6709472281023053,
                -1.913334775641755,
                2.3690271078454455,
                -0.38607743763050834,
                0.6396344813001843,
                -2.9889310854864224
            ]
        },
        {
            "positions": [
                0.7063086388479735,
                -1.9043854203733361,
                2.390382315270854,
                -0.4550338030080544,
                0.7100529434960217,
                -3.1379930601952926
            ]
        }
    ]
}