{
    "goal": {
        "global_pose": {
            "orientation": {
                "w": 0.7047431468963623,
                "x": -0.7094548344612122,
                "y": 0.0024358443915843964,
                "z": -0.0022348060738295317
            },
            "position": {
                "x": 0.6094750761985779,
                "y": 0.3671506643295288,
                "z": 0.19426114857196808
            }
        },
        "name": "move_to_magneteinheit_A"
    },
    "id": "BKPIECE_move_to_magneteinheit_A_130",
    "joint_names": [
        "shoulder_pan_joint",
        "shoulder_lift_joint",
        "elbow_joint",
        "wrist_1_joint",
        "wrist_2_joint",
        "wrist_3_joint"
    ],
    "metrics": {
        "cart_traj_len": 1.877591833575189,
        "distance_elbow_joint": 3.9137419931476467,
        "distance_shoulder_lift_joint": 0.7006181235827191,
        "distance_shoulder_pan_joint": 1.2422203482759029,
        "distance_wrist_1_joint": 1.4970525693316257,
        "distance_wrist_2_joint": 1.70825175472758,
        "distance_wrist_3_joint": 1.1080710312258002,
        "smoothness": 4.605369601539975e-16,
        "time": 0.251815893,
        "traj_len": 3.1890368170172128,
        "weighted_distance": 3.9485949661622777
    },
    "planner": "BKPIECE",
    "start": {
        "state": {
            "elbow_joint": -1.919643507792019,
            "shoulder_lift_joint": -0.07675430207160344,
            "shoulder_pan_joint": -1.1188671864651873,
            "wrist_1_joint": 0.42560062535961957,
            "wrist_2_joint": 1.5706038300724876,
            "wrist_3_joint": 1.1188968870953055
        }
    },
    "waypoints": [
        {
            "positions": [
                -1.1188671864651873,
                -0.07675430207160344,
                -1.919643507792019,
                0.42560062535961957,
                1.5706038300724876,
                1.1188968870953055
            ]
        },
        {
            "positions": [
                -1.071089480762268,
                -0.1037011529786311,
                -1.7691149695940327,
                0.48317957033391284,
                1.5049018395060423,
                1.076278770509698
            ]
        },
        {
            "positions": [
                -1.0233117750593486,
                -0.13064800388565875,
                -1.6185864313960463,
                0.5407585153082062,
                1.4391998489395967,
                1.0336606539240902
            ]
        },
        {
            "positions": [
                -0.9755340693564293,
                -0.15759485479268642,
                -1.46805789319806,
                0.5983374602824995,
                1.3734978583731514,
                0.9910425373384825
            ]
        },
        {
            "positions": [
                -0.92775636365351,
                -0.18454170569971406,
                -1.3175293550000733,
                0.6559164052567927,
                1.307795867806706,
                0.9484244207528747
            ]
        },
        {
            "positions": [
                -0.8799786579505906,
                -0.21148855660674173,
                -1.1670008168020871,
                0.7134953502310861,
                1.2420938772402605,
                0.905806304167267
            ]
        },
        {
            "positions": [
                -0.8322009522476712,
                -0.2384354075137694,
                -1.0164722786041005,
                0.7710742952053793,
                1.1763918866738152,
                0.8631881875816594
            ]
        },
        {
            "positions": [
                -0.784423246544752,
                -0.26538225842079705,
                -0.8659437404061143,
                0.8286532401796727,
                1.11068989610737,
                0.8205700709960517
            ]
        },
        {
            "positions": [
                -0.7366455408418326,
                -0.29232910932782474,
                -0.7154152022081277,
                0.886232185153966,
                1.0449879055409244,
                0.777951954410444
            ]
        },
        {
            "positions": [
                -0.6888678351389133,
                -0.3192759602348524,
                -0.5648866640101413,
                0.9438111301282592,
                0.9792859149744791,
                0.7353338378248362
            ]
        },
        {
            "positions": [
                -0.6410901294359939,
                -0.34622281114188,
                -0.4143581258121549,
                1.0013900751025526,
                0.9135839244080337,
                0.6927157212392285
            ]
        },
        {
            "positions": [
                -0.5933124237330746,
                -0.37316966204890767,
                -0.2638295876141685,
                1.0589690200768458,
                0.8478819338415884,
                0.6500976046536209
            ]
        },
        {
            "positions": [
                -0.5455347180301552,
                -0.40011651295593537,
                -0.11330104941618213,
                1.1165479650511392,
                0.782179943275143,
                0.6074794880680131
            ]
        },
        {
            "positions": [
                -0.4977570123272359,
                -0.427063363862963,
                0.03722748878180426,
                1.1741269100254323,
                0.7164779527086976,
                0.5648613714824054
            ]
        },
        {
            "positions": [
                -0.4499793066243166,
                -0.45401021476999065,
                0.18775602697979044,
                1.2317058549997257,
                0.6507759621422523,
                0.5222432548967978
            ]
        },
        {
            "positions": [
                -0.40220160092139723,
                -0.4809570656770183,
                0.33828456517777705,
                1.289284799974019,
                0.585073971575807,
                0.47962513831119014
            ]
        },
        {
            "positions": [
                -0.35442389521847784,
                -0.507903916584046,
                0.48881310337576367,
                1.3468637449483123,
                0.5193719810093613,
                0.43700702172558237
            ]
        },
        {
            "positions": [
                -0.30664618951555855,
                -0.5348507674910736,
                0.6393416415737498,
                1.4044426899226057,
                0.453669990442916,
                0.3943889051399746
            ]
        },
        {
            "positions": [
                -0.25886848381263916,
                -0.5617976183981013,
                0.7898701797717365,
                1.4620216348968988,
                0.3879679998764707,
                0.35177078855436694
            ]
        },
        {
            "positions": [
                -0.21109077810971988,
                -0.5887444693051289,
                0.9403987179697226,
                1.5196005798711922,
                0.32226600931002536,
                0.3091526719687593
            ]
        },
        {
            "positions": [
                -0.16331307240680049,
                -0.6156913202121566,
                1.0909272561677092,
                1.5771795248454856,
                0.2565640187435798,
                0.2665345553831515
            ]
        },
        {
            "positions": [
                -0.1155353667038812,
                -0.6426381711191842,
                1.2414557943656954,
                1.6347584698197788,
                0.1908620281771345,
                0.22391643879754386
            ]
        },
        {
            "positions": [
                -0.06775766100096181,
                -0.6695850220262118,
                1.391984332563682,
                1.6923374147940722,
                0.12516003761068917,
                0.1812983222119362
            ]
        },
        {
            "positions": [
                -0.019979955298042418,
                -0.6965318729332395,
                1.5425128707616682,
                1.7499163597683653,
                0.059458047044243845,
                0.13868020562632843
            ]
        },
        {
            "positions": [
                0.027797750404876975,
                -0.7234787238402673,
                1.6930414089596548,
                1.8074953047426587,
                -0.0062439435222017,
                0.09606208904072067
            ]
        },
        {
            "positions": [
                0.07557545610779615,
                -0.750425574747295,
                1.8435699471576414,
                1.8650742497169521,
                -0.07194593408864702,
                0.05344397245511301
            ]
        },
        {
            "positions": [
                0.1233531618107156,
                -0.7773724256543226,
                1.9940984853556278,
                1.9226531946912453,
                -0.13764792465509237,
                0.010825855869505388
            ]
        }
    ]
}