{
    "goal": {
        "global_pose": {
            "orientation": {
                "w": -0.00223480608172531,
                "x": 0.0024358444001904467,
                "y": 0.7094548369677653,
                "z": -0.704743149386269
            },
            "position": {
                "x": 0.6205249238014221,
                "y": -0.6371506643295288,
                "z": 0.19426114857196808
            }
        },
        "name": "move_to_magneteinheit_B"
    },
    "id": "BKPIECE_move_to_magneteinheit_B_106",
    "joint_names": [
        "shoulder_pan_joint",
        "shoulder_lift_joint",
        "elbow_joint",
        "wrist_1_joint",
        "wrist_2_joint",
        "wrist_3_joint"
    ],
    "metrics": {
        "cart_traj_len": 3.5662486433741476,
        "distance_elbow_joint": 4.0690001255375225,
        "distance_shoulder_lift_joint": 0.9504622590447678,
        "distance_shoulder_pan_joint": 3.0313000313412046,
        "distance_wrist_1_joint": 3.3371272855402605,
        "distance_wrist_2_joint": 1.2602331151566317,
        "distance_wrist_3_joint": 3.153574451453527,
        "smoothness": 0.5199228555690913,
        "time": 0.531686306,
        "traj_len": 3.9751348741991035,
        "weighted_distance": 5.167804811685312
    },
    "planner": "BKPIECE",
    "start": {
        "state": {
            "elbow_joint": 2.39358713078474,
            "shoulder_lift_joint": -1.908514104345545,
            "shoulder_pan_joint": 0.7066247066606129,
            "wrist_1_joint": -0.4678290933515497,
            "wrist_2_joint": 0.7096259083745334,
            "wrist_3_joint": -3.1358149277392293
        }
    },
    "waypoints": [
        {
            "positions": [
                0.7066247066606129,
                -1.908514104345545,
                2.39358713078474,
                -0.4678290933515497,
                0.7096259083745334,
                -3.1358149277392293
            ]
        },
        {
            "positions": [
                0.632110244130977,
                -1.928512185846917,
                2.376184427282528,
                -0.49095127487190815,
                0.7612801216369554,
                -3.1110601569961203
            ]
        },
        {
            "positions": [
                0.5575957816013412,
                -1.948510267348289,
                2.3587817237803157,
                -0.5140734563922666,
                0.8129343348993774,
                -3.0863053862530108
            ]
        },
        {
            "positions": [
                0.5661898270739842,
                -1.9510198930969154,
                2.1937335198813237,
                -0.464758742314408,
                0.7894560708328657,
                -2.93998182670851
            ]
        },
        {
            "positions": [
                0.5747838725466273,
                -1.953529518845542,
                2.028685315982332,
                -0.4154440282365493,
                0.7659778067663542,
                -2.793658267164009
            ]
        },
        {
            "positions": [
                0.5833779180192704,
                -1.9560391445941683,
                1.8636371120833402,
                -0.36612931415869066,
                0.7424995426998425,
                -2.647334707619508
            ]
        },
        {
            "positions": [
                0.5919719634919135,
                -1.9585487703427946,
                1.6985889081843482,
                -0.31681460008083195,
                0.7190212786333309,
                -2.5010111480750075
            ]
        },
        {
            "positions": [
                0.6005660089645566,
                -1.961058396091421,
                1.5335407042853562,
                -0.2674998860029733,
                0.6955430145668192,
                -2.3546875885305063
            ]
        },
        {
            "positions": [
                0.6091600544371997,
                -1.9635680218400475,
                1.3684925003863644,
                -0.21818517192511466,
                0.6720647505003077,
                -2.208364028986006
            ]
        },
        {
            "positions": [
                0.6177540999098428,
                -1.9660776475886739,
                1.2034442964873724,
                -0.16887045784725596,
                0.648586486433796,
                -2.062040469441505
            ]
        },
        {
            "positions": [
                0.7150571544215684,
                -1.9584820130557892,
                1.088506640694868,
                -0.08681230973970894,
                0.6251145675080649,
                -1.9926801335672526
            ]
        },
        {
            "positions": [
                0.8123602089332939,
                -1.9508863785229043,
                0.9735689849023639,
                -0.004754161632161913,
                0.6016426485823338,
                -1.9233197976930003
            ]
        },
        {
            "positions": [
                0.9096632634450195,
                -1.9432907439900196,
                0.8586313291098596,
                0.07730398647538511,
                0.5781707296566028,
                -1.8539594618187483
            ]
        },
        {
            "positions": [
                1.006966317956745,
                -1.9356951094571346,
                0.7436936733173554,
                0.15936213458293214,
                0.5546988107308717,
                -1.7845991259444958
            ]
        },
        {
            "positions": [
                1.1042693724684707,
                -1.92809947492425,
                0.6287560175248511,
                0.24142028269047922,
                0.5312268918051405,
                -1.7152387900702437
            ]
        },
        {
            "positions": [
                1.2015724269801962,
                -1.9205038403913652,
                0.5138183617323469,
                0.3234784307980262,
                0.5077549728794094,
                -1.6458784541959914
            ]
        },
        {
            "positions": [
                1.2988754814919217,
                -1.9129082058584803,
                0.3988807059398426,
                0.40553657890557326,
                0.4842830539536783,
                -1.5765181183217392
            ]
        },
        {
            "positions": [
                1.3961785360036472,
                -1.9053125713255956,
                0.28394305014733834,
                0.48759472701312023,
                0.46081113502794724,
                -1.5071577824474869
            ]
        },
        {
            "positions": [
                1.4934815905153727,
                -1.8977169367927107,
                0.1690053943548342,
                0.5696528751206672,
                0.43733921610221616,
                -1.4377974465732346
            ]
        },
        {
            "positions": [
                1.5907846450270986,
                -1.890121302259826,
                0.054067738562329826,
                0.6517110232282144,
                0.41386729717648507,
                -1.3684371106989826
            ]
        },
        {
            "positions": [
                1.688087699538824,
                -1.8825256677269413,
                -0.06086991723017432,
                0.7337691713357614,
                0.39039537825075393,
                -1.29907677482473
            ]
        },
        {
            "positions": [
                1.7853907540505496,
                -1.8749300331940564,
                -0.1758075730226787,
                0.8158273194433083,
                0.36692345932502285,
                -1.229716438950478
            ]
        },
        {
            "positions": [
                1.882693808562275,
                -1.8673343986611717,
                -0.29074522881518283,
                0.8978854675508554,
                0.34345154039929177,
                -1.1603561030762257
            ]
        },
        {
            "positions": [
                1.9799968630740008,
                -1.8597387641282868,
                -0.4056828846076872,
                0.9799436156584025,
                0.3199796214735606,
                -1.0909957672019734
            ]
        },
        {
            "positions": [
                2.0772999175857265,
                -1.852143129595402,
                -0.5206205404001913,
                1.0620017637659493,
                0.2965077025478296,
                -1.0216354313277214
            ]
        },
        {
            "positions": [
                2.1746029720974516,
                -1.8445474950625174,
                -0.6355581961926957,
                1.1440599118734964,
                0.27303578362209846,
                -0.9522750954534689
            ]
        },
        {
            "positions": [
                2.2719060266091775,
                -1.8369518605296324,
                -0.7504958519852001,
                1.2261180599810435,
                0.24956386469636732,
                -0.8829147595792166
            ]
        },
        {
            "positions": [
                2.3692090811209026,
                -1.8293562259967477,
                -0.865433507777704,
                1.3081762080885904,
                0.2260919457706363,
                -0.8135544237049646
            ]
        },
        {
            "positions": [
                2.4665121356326285,
                -1.8217605914638628,
                -0.9803711635702086,
                1.3902343561961377,
                0.20262002684490515,
                -0.7441940878307123
            ]
        },
        {
            "positions": [
                2.5638151901443544,
                -1.8141649569309781,
                -1.0953088193627127,
                1.4722925043036847,
                0.17914810791917407,
                -0.67483375195646
            ]
        },
        {
            "positions": [
                2.6611182446560795,
                -1.8065693223980934,
                -1.2102464751552169,
                1.5543506524112316,
                0.155676188993443,
                -0.605473416082208
            ]
        },
        {
            "positions": [
                2.7584212991678054,
                -1.7989736878652085,
                -1.325184130947721,
                1.6364088005187787,
                0.13220427006771185,
                -0.5361130802079555
            ]
        },
        {
            "positions": [
                2.855724353679531,
                -1.7913780533323238,
                -1.4401217867402256,
                1.7184669486263258,
                0.10873235114198077,
                -0.4667527443337032
            ]
        },
        {
            "positions": [
                2.9530274081912564,
                -1.7837824187994389,
                -1.5550594425327298,
                1.8005250967338726,
                0.08526043221624968,
                -0.3973924084594511
            ]
        },
        {
            "positions": [
                3.050330462702982,
                -1.7761867842665542,
                -1.6699970983252341,
                1.8825832448414195,
                0.0617885132905186,
                -0.32803207258519884
            ]
        },
        {
            "positions": [
                2.9946824019629403,
                -1.8766164774779142,
                -1.6692233988355838,
                1.7548366418034398,
                0.11975692286522283,
                -0.278633273113842
            ]
        },
        {
            "positions": [
                2.9390343412228983,
                -1.977046170689274,
                -1.6684496993459337,
                1.6270900387654599,
                0.17772533243992705,
                -0.22923447364248511
            ]
        },
        {
            "positions": [
                2.8833862804828567,
                -2.077475863900634,
                -1.6676759998562833,
                1.49934343572748,
                0.23569374201463128,
                -0.17983567417112828
            ]
        },
        {
            "positions": [
                2.827738219742815,
                -2.177905557111994,
                -1.6669023003666332,
                1.3715968326895003,
                0.2936621515893355,
                -0.13043687469977142
            ]
        },
        {
            "positions": [
                2.772090159002773,
                -2.2783352503233534,
                -1.666128600876983,
                1.2438502296515204,
                0.35163056116403973,
                -0.08103807522841455
            ]
        },
        {
            "positions": [
                2.7164420982627315,
                -2.3787649435347133,
                -1.6653549013873328,
                1.1161036266135407,
                0.40959897073874396,
                -0.03163927575705772
            ]
        },
        {
            "positions": [
                2.66079403752269,
                -2.4791946367460733,
                -1.6645812018976824,
                0.9883570235755608,
                0.4675673803134482,
                0.01775952371429918
            ]
        }
    ]
}