{
    "goal": {
        "global_pose": {
            "orientation": {
                "w": 0.5084816217422485,
                "x": -0.49083608388900757,
                "y": 0.5182115435600281,
                "z": -0.4816462993621826
            },
            "position": {
                "x": 0.5540239810943604,
                "y": 0.030875300988554955,
                "z": 0.16403168439865112
            }
        },
        "name": "move_to_storage_A"
    },
    "id": "BKPIECE_move_to_storage_A_25",
    "joint_names": [
        "shoulder_pan_joint",
        "shoulder_lift_joint",
        "elbow_joint",
        "wrist_1_joint",
        "wrist_2_joint",
        "wrist_3_joint"
    ],
    "metrics": {
        "cart_traj_len": 0.35297053744928436,
        "distance_elbow_joint": 0.44938242217842284,
        "distance_shoulder_lift_joint": 0.23348965811092626,
        "distance_shoulder_pan_joint": 0.4616510549050897,
        "distance_wrist_1_joint": 0.23769040021240972,
        "distance_wrist_2_joint": 1.0981101425755282,
        "distance_wrist_3_joint": 0.10387270126431458,
        "smoothness": 8.881784197001252e-16,
        "time": 0.232583696,
        "traj_len": 1.6075435854889568,
        "weighted_distance": 2.0316846026298614
    },
    "planner": "BKPIECE",
    "start": {
        "state": {
            "elbow_joint": 1.9715463870305268,
            "shoulder_lift_joint": -1.1394903361783484,
            "shoulder_pan_joint": 0.12281147578464417,
            "wrist_1_joint": -0.7804599489681411,
            "wrist_2_joint": 0.12958660307563738,
            "wrist_3_joint": -3.1924946282119055
        }
    },
    "waypoints": [
        {
            "positions": [
                0.12281147578464417,
                -1.1394903361783484,
                1.9715463870305268,
                -0.7804599489681411,
                0.12958660307563738,
                -3.1924946282119055
            ]
        },
        {
            "positions": [
                0.056861325083917086,
                -1.1728460016227664,
                2.0357438759131585,
                -0.8144157204270568,
                0.2864594805864271,
                -3.177655670888432
            ]
        },
        {
            "positions": [
                -0.00908882561681,
                -1.2062016670671845,
                2.0999413647957903,
                -0.8483714918859724,
                0.4433323580972168,
                -3.1628167135649585
            ]
        },
        {
            "positions": [
                -0.0750389763175371,
                -1.2395573325116025,
                2.164138853678422,
                -0.8823272633448881,
                0.6002052356080065,
                -3.147977756241485
            ]
        },
        {
            "positions": [
                -0.14098912701826416,
                -1.2729129979560205,
                2.228336342561054,
                -0.9162830348038038,
                0.7570781131187964,
                -3.1331387989180115
            ]
        },
        {
            "positions": [
                -0.2069392777189913,
                -1.3062686634004386,
                2.292533831443686,
                -0.9502388062627194,
                0.9139509906295862,
                -3.118299841594538
            ]
        },
        {
            "positions": [
                -0.27288942841971836,
                -1.3396243288448566,
                2.356731320326318,
                -0.9841945777216351,
                1.0708238681403757,
                -3.1034608842710645
            ]
        },
        {
            "positions": [
                -0.3388395791204455,
                -1.3729799942892746,
                2.4209288092089496,
                -1.0181503491805508,
                1.2276967456511656,
                -3.088621926947591
            ]
        }
    ]
}