{
    "goal": {
        "global_pose": {
            "orientation": {
                "w": 0.5084816217422485,
                "x": -0.49083608388900757,
                "y": 0.5182115435600281,
                "z": -0.4816462993621826
            },
            "position": {
                "x": 0.5540239810943604,
                "y": 0.030875300988554955,
                "z": 0.16403168439865112
            }
        },
        "name": "move_to_storage_A"
    },
    "id": "BKPIECE_move_to_storage_A_14",
    "joint_names": [
        "shoulder_pan_joint",
        "shoulder_lift_joint",
        "elbow_joint",
        "wrist_1_joint",
        "wrist_2_joint",
        "wrist_3_joint"
    ],
    "metrics": {
        "cart_traj_len": 0.352975970360774,
        "distance_elbow_joint": 0.4540307315089356,
        "distance_shoulder_lift_joint": 0.23147086168027342,
        "distance_shoulder_pan_joint": 0.4572079109618724,
        "distance_wrist_1_joint": 0.2639549176371877,
        "distance_wrist_2_joint": 1.1164233437246376,
        "distance_wrist_3_joint": 0.09980084142639267,
        "smoothness": 6.661338165333112e-16,
        "time": 0.24535328900000003,
        "traj_len": 1.6195334534795196,
        "weighted_distance": 2.050089888554624
    },
    "planner": "BKPIECE",
    "start": {
        "state": {
            "elbow_joint": 1.9715463870305268,
            "shoulder_lift_joint": -1.1394903361783484,
            "shoulder_pan_joint": 0.12281147578464417,
            "wrist_1_joint": -0.7804599489681411,
            "wrist_2_joint": 0.12958660307563738,
            "wrist_3_joint": -3.1924946282119055
        }
    },
    "waypoints": [
        {
            "positions": [
                0.12281147578464417,
                -1.1394903361783484,
                1.9715463870305268,
                -0.7804599489681411,
                0.12958660307563738,
                -3.1924946282119055
            ]
        },
        {
            "positions": [
                0.057496059932948124,
                -1.1725576021326731,
                2.036407920103232,
                -0.8181677943448822,
                0.28907565217915704,
                -3.1782373651509923
            ]
        },
        {
            "positions": [
                -0.007819355918747925,
                -1.2056248680869979,
                2.101269453175937,
                -0.8558756397216233,
                0.44856470128267667,
                -3.163980102090079
            ]
        },
        {
            "positions": [
                -0.07313477177044399,
                -1.2386921340413226,
                2.166130986248642,
                -0.8935834850983644,
                0.6080537503861964,
                -3.149722839029166
            ]
        },
        {
            "positions": [
                -0.13845018762214,
                -1.2717593999956476,
                2.230992519321347,
                -0.9312913304751055,
                0.767542799489716,
                -3.1354655759682526
            ]
        },
        {
            "positions": [
                -0.2037656034738361,
                -1.3048266659499723,
                2.295854052394052,
                -0.9689991758518466,
                0.9270318485932357,
                -3.1212083129073394
            ]
        },
        {
            "positions": [
                -0.26908101932553213,
                -1.337893931904297,
                2.360715585466757,
                -1.0067070212285878,
                1.0865208976967553,
                -3.106951049846426
            ]
        },
        {
            "positions": [
                -0.3343964351772282,
                -1.3709611978586218,
                2.4255771185394623,
                -1.0444148666053288,
                1.246009946800275,
                -3.092693786785513
            ]
        }
    ]
}