{
    "goal": {
        "global_pose": {
            "orientation": {
                "w": 0.5084816217422485,
                "x": -0.49083608388900757,
                "y": 0.5182115435600281,
                "z": -0.4816462993621826
            },
            "position": {
                "x": 0.5540239810943604,
                "y": 0.030875300988554955,
                "z": 0.16403168439865112
            }
        },
        "name": "move_to_storage_A"
    },
    "id": "BKPIECE_move_to_storage_A_113",
    "joint_names": [
        "shoulder_pan_joint",
        "shoulder_lift_joint",
        "elbow_joint",
        "wrist_1_joint",
        "wrist_2_joint",
        "wrist_3_joint"
    ],
    "metrics": {
        "cart_traj_len": 0.3539156835089795,
        "distance_elbow_joint": 0.4491422122471187,
        "distance_shoulder_lift_joint": 0.23540053984213127,
        "distance_shoulder_pan_joint": 0.46295501062811617,
        "distance_wrist_1_joint": 0.2385319394622808,
        "distance_wrist_2_joint": 1.1000370419597256,
        "distance_wrist_3_joint": 0.10241928722378013,
        "smoothness": 8.881784197001252e-16,
        "time": 0.159416525,
        "traj_len": 1.6088772580166433,
        "weighted_distance": 2.032705976582132
    },
    "planner": "BKPIECE",
    "start": {
        "state": {
            "elbow_joint": 1.9715463870305268,
            "shoulder_lift_joint": -1.1394903361783484,
            "shoulder_pan_joint": 0.12281147578464417,
            "wrist_1_joint": -0.7804599489681411,
            "wrist_2_joint": 0.12958660307563738,
            "wrist_3_joint": -3.1924946282119055
        }
    },
    "waypoints": [
        {
            "positions": [
                0.12281147578464417,
                -1.1394903361783484,
                1.9715463870305268,
                -0.7804599489681411,
                0.12958660307563738,
                -3.1924946282119055
            ]
        },
        {
            "positions": [
                0.0566750456949133,
                -1.1731189847272243,
                2.0357095602086868,
                -0.8145359403198955,
                0.28673475192702674,
                -3.1778633014656514
            ]
        },
        {
            "positions": [
                -0.00946138439481757,
                -1.2067476332761002,
                2.0998727333868463,
                -0.8486119316716498,
                0.4438829007784161,
                -3.163231974719397
            ]
        },
        {
            "positions": [
                -0.07559781448454846,
                -1.2403762818249762,
                2.1640359065650063,
                -0.8826879230234043,
                0.6010310496298055,
                -3.1486006479731428
            ]
        },
        {
            "positions": [
                -0.1417342445742793,
                -1.2740049303738519,
                2.228199079743166,
                -0.9167639143751587,
                0.7581791984811949,
                -3.133969321226888
            ]
        },
        {
            "positions": [
                -0.2078706746640102,
                -1.3076335789227278,
                2.292362252921326,
                -0.950839905726913,
                0.9153273473325843,
                -3.119337994480634
            ]
        },
        {
            "positions": [
                -0.27400710475374107,
                -1.3412622274716037,
                2.3565254260994855,
                -0.9849158970786674,
                1.0724754961839735,
                -3.1047066677343795
            ]
        },
        {
            "positions": [
                -0.340143534843472,
                -1.3748908760204797,
                2.4206885992776455,
                -1.0189918884304219,
                1.229623645035363,
                -3.0900753409881254
            ]
        }
    ]
}