{
    "goal": {
        "global_pose": {
            "orientation": {
                "w": -0.00223480608172531,
                "x": 0.0024358444001904467,
                "y": 0.7094548369677653,
                "z": -0.704743149386269
            },
            "position": {
                "x": 0.6205249238014221,
                "y": -0.6371506643295288,
                "z": 0.19426114857196808
            }
        },
        "name": "move_to_magneteinheit_B"
    },
    "id": "BKPIECE_move_to_magneteinheit_B_81",
    "joint_names": [
        "shoulder_pan_joint",
        "shoulder_lift_joint",
        "elbow_joint",
        "wrist_1_joint",
        "wrist_2_joint",
        "wrist_3_joint"
    ],
    "metrics": {
        "cart_traj_len": 3.2668329810493537,
        "distance_elbow_joint": 4.479587257102607,
        "distance_shoulder_lift_joint": 1.0749619066588831,
        "distance_shoulder_pan_joint": 2.70752256610907,
        "distance_wrist_1_joint": 2.225280320216682,
        "distance_wrist_2_joint": 1.3530300349066264,
        "distance_wrist_3_joint": 5.063474550934207,
        "smoothness": 0.42450629086068903,
        "time": 0.25336903499999996,
        "traj_len": 4.111429998908905,
        "weighted_distance": 5.532550595604147
    },
    "planner": "BKPIECE",
    "start": {
        "state": {
            "elbow_joint": 2.39358713078474,
            "shoulder_lift_joint": -1.908514104345545,
            "shoulder_pan_joint": 0.7066247066606129,
            "wrist_1_joint": -0.4678290933515497,
            "wrist_2_joint": 0.7096259083745334,
            "wrist_3_joint": -3.1358149277392293
        }
    },
    "waypoints": [
        {
            "positions": [
                0.7066247066606129,
                -1.908514104345545,
                2.39358713078474,
                -0.4678290933515497,
                0.7096259083745334,
                -3.1358149277392293
            ]
        },
        {
            "positions": [
                0.6483595819039428,
                -2.023778790617044,
                2.4648811716610908,
                -0.46502864928966886,
                0.6256704890496823,
                -3.0989555039549503
            ]
        },
        {
            "positions": [
                0.5900944571472726,
                -2.1390434768885433,
                2.5361752125374415,
                -0.46222820522778796,
                0.541715069724831,
                -3.062096080170672
            ]
        },
        {
            "positions": [
                0.5318293323906025,
                -2.2543081631600423,
                2.607469253413792,
                -0.4594277611659071,
                0.4577596503999798,
                -3.025236656386393
            ]
        },
        {
            "positions": [
                0.5894555686300328,
                -2.245687629502571,
                2.5013761319541903,
                -0.3979725330691408,
                0.43889436358437794,
                -2.8913142886724654
            ]
        },
        {
            "positions": [
                0.6470818048694631,
                -2.2370670958451004,
                2.3952830104945884,
                -0.3365173049723746,
                0.42002907676877616,
                -2.7573919209585385
            ]
        },
        {
            "positions": [
                0.7047080411088935,
                -2.2284465621876293,
                2.2891898890349864,
                -0.27506207687560835,
                0.4011637899531743,
                -2.623469553244611
            ]
        },
        {
            "positions": [
                0.7623342773483238,
                -2.219826028530158,
                2.1830967675753845,
                -0.21360684877884206,
                0.3822985031375725,
                -2.4895471855306837
            ]
        },
        {
            "positions": [
                0.8199605135877541,
                -2.2112054948726874,
                2.0770036461157826,
                -0.15215162068207577,
                0.3634332163219707,
                -2.3556248178167563
            ]
        },
        {
            "positions": [
                0.8775867498271844,
                -2.202584961215216,
                1.9709105246561807,
                -0.09069639258530954,
                0.34456792950636883,
                -2.2217024501028293
            ]
        },
        {
            "positions": [
                0.9352129860666147,
                -2.193964427557745,
                1.8648174031965787,
                -0.029241164488543248,
                0.325702642690767,
                -2.087780082388902
            ]
        },
        {
            "positions": [
                0.9928392223060452,
                -2.1853438939002743,
                1.7587242817369768,
                0.03221406360822299,
                0.3068373558751652,
                -1.9538577146749747
            ]
        },
        {
            "positions": [
                1.0504654585454754,
                -2.176723360242803,
                1.6526311602773749,
                0.09366929170498928,
                0.28797206905956335,
                -1.8199353469610473
            ]
        },
        {
            "positions": [
                1.1080916947849058,
                -2.168102826585332,
                1.546538038817773,
                0.15512451980175557,
                0.2691067822439615,
                -1.6860129792471201
            ]
        },
        {
            "positions": [
                1.1657179310243362,
                -2.159482292927861,
                1.440444917358171,
                0.21657974789852175,
                0.2502414954283597,
                -1.552090611533193
            ]
        },
        {
            "positions": [
                1.2233441672637664,
                -2.15086175927039,
                1.3343517958985691,
                0.27803497599528804,
                0.23137620861275787,
                -1.4181682438192658
            ]
        },
        {
            "positions": [
                1.2809704035031966,
                -2.142241225612919,
                1.2282586744389672,
                0.3394902040920543,
                0.21251092179715605,
                -1.2842458761053384
            ]
        },
        {
            "positions": [
                1.3385966397426272,
                -2.133620691955448,
                1.1221655529793653,
                0.4009454321888206,
                0.19364563498155424,
                -1.150323508391411
            ]
        },
        {
            "positions": [
                1.3962228759820574,
                -2.125000158297977,
                1.0160724315197633,
                0.4624006602855869,
                0.1747803481659524,
                -1.0164011406774835
            ]
        },
        {
            "positions": [
                1.4538491122214876,
                -2.1163796246405058,
                0.9099793100601614,
                0.5238558883823531,
                0.1559150613503506,
                -0.8824787729635566
            ]
        },
        {
            "positions": [
                1.5114753484609178,
                -2.107759090983035,
                0.8038861886005597,
                0.5853111164791193,
                0.13704977453474876,
                -0.7485564052496296
            ]
        },
        {
            "positions": [
                1.5691015847003484,
                -2.099138557325564,
                0.6977930671409576,
                0.6467663445758857,
                0.11818448771914691,
                -0.6146340375357018
            ]
        },
        {
            "positions": [
                1.6267278209397786,
                -2.090518023668093,
                0.5916999456813556,
                0.7082215726726518,
                0.09931920090354512,
                -0.4807116698217748
            ]
        },
        {
            "positions": [
                1.684354057179209,
                -2.081897490010622,
                0.4856068242217537,
                0.7696768007694182,
                0.08045391408794322,
                -0.3467893021078474
            ]
        },
        {
            "positions": [
                1.7419802934186392,
                -2.073276956353151,
                0.3795137027621518,
                0.8311320288661844,
                0.061588627272341434,
                -0.21286693439392002
            ]
        },
        {
            "positions": [
                1.7996065296580697,
                -2.06465642269568,
                0.27342058130254987,
                0.8925872569629506,
                0.042723340456739645,
                -0.07894456667999306
            ]
        },
        {
            "positions": [
                1.8572327658975,
                -2.056035889038209,
                0.16732745984294795,
                0.954042485059717,
                0.0238580536411378,
                0.05497780103393435
            ]
        },
        {
            "positions": [
                1.9148590021369303,
                -2.0474153553807377,
                0.06123433838334602,
                1.015497713156483,
                0.004992766825535955,
                0.1889001687478613
            ]
        },
        {
            "positions": [
                1.9724852383763605,
                -2.038794821723267,
                -0.044858783076255904,
                1.0769529412532495,
                -0.013872519990065835,
                0.3228225364617887
            ]
        },
        {
            "positions": [
                2.030111474615791,
                -2.030174288065796,
                -0.15095190453585783,
                1.1384081693500159,
                -0.03273780680566768,
                0.4567449041757161
            ]
        },
        {
            "positions": [
                2.0877377108552215,
                -2.0215537544083246,
                -0.25704502599545975,
                1.1998633974467818,
                -0.05160309362126947,
                0.5906672718896431
            ]
        },
        {
            "positions": [
                2.1453639470946517,
                -2.012933220750854,
                -0.3631381474550617,
                1.2613186255435482,
                -0.07046838043687131,
                0.7245896396035709
            ]
        },
        {
            "positions": [
                2.202990183334082,
                -2.0043126870933827,
                -0.4692312689146635,
                1.3227738536403146,
                -0.08933366725247312,
                0.8585120073174981
            ]
        },
        {
            "positions": [
                2.3129074399608136,
                -2.0426489353518695,
                -0.6029030819208151,
                1.3327235218983744,
                -0.05330809003222196,
                0.8760781193208734
            ]
        },
        {
            "positions": [
                2.4228246965875453,
                -2.0809851836103563,
                -0.7365748949269666,
                1.3426731901564342,
                -0.017282512811970796,
                0.8936442313242486
            ]
        },
        {
            "positions": [
                2.532741953214277,
                -2.119321431868843,
                -0.8702467079331182,
                1.352622858414494,
                0.01874306440828037,
                0.911210343327624
            ]
        },
        {
            "positions": [
                2.6426592098410087,
                -2.15765768012733,
                -1.0039185209392698,
                1.3625725266725537,
                0.054768641628531525,
                0.9287764553309993
            ]
        },
        {
            "positions": [
                2.7525764664677403,
                -2.1959939283858168,
                -1.1375903339454214,
                1.3725221949306134,
                0.0907942188487827,
                0.9463425673343745
            ]
        },
        {
            "positions": [
                2.862493723094472,
                -2.2343301766443036,
                -1.271262146951573,
                1.3824718631886732,
                0.12681979606903387,
                0.9639086793377498
            ]
        },
        {
            "positions": [
                2.8415018978996556,
                -2.269638956823312,
                -1.3285674052614818,
                1.332017998130003,
                0.17544240929861402,
                0.8352336882817566
            ]
        },
        {
            "positions": [
                2.820510072704839,
                -2.304947737002321,
                -1.3858726635713905,
                1.2815641330713332,
                0.22406502252819416,
                0.7065586972257635
            ]
        },
        {
            "positions": [
                2.7884942425557275,
                -2.3406552013760784,
                -1.4403453070690648,
                1.2267498063595093,
                0.27219937642798453,
                0.5652785048767148
            ]
        },
        {
            "positions": [
                2.7564784124066164,
                -2.376362665749836,
                -1.4948179505667392,
                1.1719354796476853,
                0.32033373032777496,
                0.4239983125276661
            ]
        },
        {
            "positions": [
                2.724462582257505,
                -2.4120701301235936,
                -1.5492905940644133,
                1.1171211529358616,
                0.36846808422756533,
                0.28271812017861747
            ]
        },
        {
            "positions": [
                2.6924467521083937,
                -2.447777594497351,
                -1.6037632375620876,
                1.0623068262240376,
                0.41660243812735576,
                0.14143792782956877
            ]
        },
        {
            "positions": [
                2.660430921959282,
                -2.483485058871109,
                -1.658235881059762,
                1.0074924995122136,
                0.46473679202714613,
                0.00015773548052016662
            ]
        }
    ]
}