{
    "goal": {
        "global_pose": {
            "orientation": {
                "w": 0.7047431468963623,
                "x": -0.7094548344612122,
                "y": 0.0024358443915843964,
                "z": -0.0022348060738295317
            },
            "position": {
                "x": 0.6094750761985779,
                "y": 0.3671506643295288,
                "z": 0.19426114857196808
            }
        },
        "name": "move_to_magneteinheit_A"
    },
    "id": "BKPIECE_move_to_magneteinheit_A_73",
    "joint_names": [
        "shoulder_pan_joint",
        "shoulder_lift_joint",
        "elbow_joint",
        "wrist_1_joint",
        "wrist_2_joint",
        "wrist_3_joint"
    ],
    "metrics": {
        "cart_traj_len": 2.0633282435949307,
        "distance_elbow_joint": 3.8775280491147606,
        "distance_shoulder_lift_joint": 1.0557410057675607,
        "distance_shoulder_pan_joint": 1.2413602279337301,
        "distance_wrist_1_joint": 1.1385569211039517,
        "distance_wrist_2_joint": 1.4405467457777816,
        "distance_wrist_3_joint": 1.9206277857475724,
        "smoothness": 9.198990804254372e-16,
        "time": 0.127535216,
        "traj_len": 3.267164020285079,
        "weighted_distance": 4.134576154072173
    },
    "planner": "BKPIECE",
    "start": {
        "state": {
            "elbow_joint": -1.919643507792019,
            "shoulder_lift_joint": -0.07675430207160344,
            "shoulder_pan_joint": -1.1188671864651873,
            "wrist_1_joint": 0.42560062535961957,
            "wrist_2_joint": 1.5706038300724876,
            "wrist_3_joint": 1.1188968870953055
        }
    },
    "waypoints": [
        {
            "positions": [
                -1.1188671864651873,
                -0.07675430207160344,
                -1.919643507792019,
                0.42560062535961957,
                1.5706038300724876,
                1.1188968870953055
            ]
        },
        {
            "positions": [
                -1.072890881726901,
                -0.11585582080373533,
                -1.7760313578248057,
                0.38343185050391765,
                1.5172502468955327,
                1.1900312495304008
            ]
        },
        {
            "positions": [
                -1.0269145769886148,
                -0.1549573395358672,
                -1.6324192078575923,
                0.3412630756482158,
                1.463896663718578,
                1.2611656119654961
            ]
        },
        {
            "positions": [
                -0.9809382722503285,
                -0.19405885826799907,
                -1.4888070578903791,
                0.29909430079251387,
                1.410543080541623,
                1.3322999744005914
            ]
        },
        {
            "positions": [
                -0.9349619675120422,
                -0.23316037700013095,
                -1.3451949079231658,
                0.25692552593681195,
                1.357189497364668,
                1.4034343368356867
            ]
        },
        {
            "positions": [
                -0.8889856627737558,
                -0.2722618957322628,
                -1.2015827579559524,
                0.21475675108111006,
                1.3038359141877132,
                1.4745686992707818
            ]
        },
        {
            "positions": [
                -0.8430093580354696,
                -0.3113634144643947,
                -1.057970607988739,
                0.17258797622540817,
                1.2504823310107585,
                1.5457030617058771
            ]
        },
        {
            "positions": [
                -0.7970330532971832,
                -0.35046493319652655,
                -0.9143584580215256,
                0.13041920136970625,
                1.1971287478338035,
                1.6168374241409724
            ]
        },
        {
            "positions": [
                -0.751056748558897,
                -0.38956645192865846,
                -0.7707463080543122,
                0.08825042651400433,
                1.1437751646568486,
                1.6879717865760677
            ]
        },
        {
            "positions": [
                -0.7050804438206106,
                -0.4286679706607903,
                -0.627134158087099,
                0.046081651658302414,
                1.0904215814798937,
                1.759106149011163
            ]
        },
        {
            "positions": [
                -0.6591041390823243,
                -0.4677694893929222,
                -0.48352200811988566,
                0.003912876802600551,
                1.037067998302939,
                1.830240511446258
            ]
        },
        {
            "positions": [
                -0.6131278343440381,
                -0.506871008125054,
                -0.3399098581526723,
                -0.03825589805310137,
                0.983714415125984,
                1.9013748738813536
            ]
        },
        {
            "positions": [
                -0.5671515296057518,
                -0.545972526857186,
                -0.19629770818545889,
                -0.08042467290880323,
                0.9303608319490292,
                1.9725092363164487
            ]
        },
        {
            "positions": [
                -0.5211752248674655,
                -0.5850740455893177,
                -0.0526855582182455,
                -0.12259344776450515,
                0.8770072487720743,
                2.043643598751544
            ]
        },
        {
            "positions": [
                -0.4751989201291792,
                -0.6241755643214497,
                0.09092659174896789,
                -0.16476222262020707,
                0.8236536655951194,
                2.1147779611866393
            ]
        },
        {
            "positions": [
                -0.4292226153908928,
                -0.6632770830535817,
                0.23453874171618128,
                -0.2069309974759091,
                0.7703000824181644,
                2.185912323621735
            ]
        },
        {
            "positions": [
                -0.3832463106526066,
                -0.7023786017857134,
                0.37815089168339466,
                -0.2490997723316109,
                0.7169464992412097,
                2.25704668605683
            ]
        },
        {
            "positions": [
                -0.3372700059143202,
                -0.7414801205178454,
                0.521763041650608,
                -0.2912685471873128,
                0.6635929160642547,
                2.328181048491925
            ]
        },
        {
            "positions": [
                -0.2912937011760339,
                -0.7805816392499771,
                0.665375191617821,
                -0.33343732204301474,
                0.6102393328872999,
                2.3993154109270205
            ]
        },
        {
            "positions": [
                -0.24531739643774764,
                -0.8196831579821091,
                0.8089873415850348,
                -0.37560609689871666,
                0.556885749710345,
                2.470449773362116
            ]
        },
        {
            "positions": [
                -0.19934109169946135,
                -0.8587846767142409,
                0.9525994915522478,
                -0.41777487175441846,
                0.5035321665333901,
                2.541584135797211
            ]
        },
        {
            "positions": [
                -0.15336478696117506,
                -0.8978861954463728,
                1.0962116415194616,
                -0.4599436466101205,
                0.4501785833564351,
                2.612718498232306
            ]
        },
        {
            "positions": [
                -0.10738848222288877,
                -0.9369877141785048,
                1.2398237914866745,
                -0.5021124214658224,
                0.3968250001794804,
                2.6838528606674013
            ]
        },
        {
            "positions": [
                -0.06141217748460237,
                -0.9760892329106365,
                1.383435941453888,
                -0.5442811963215244,
                0.3434714170025255,
                2.754987223102497
            ]
        },
        {
            "positions": [
                -0.015435872746316193,
                -1.0151907516427685,
                1.5270480914211013,
                -0.586449971177226,
                0.29011783382557077,
                2.8261215855375923
            ]
        },
        {
            "positions": [
                0.030540431991970207,
                -1.0542922703749005,
                1.6706602413883147,
                -0.628618746032928,
                0.23676425064861562,
                2.8972559479726874
            ]
        },
        {
            "positions": [
                0.07651673673025639,
                -1.0933937891070322,
                1.814272391355528,
                -0.6707875208886298,
                0.1834106674716609,
                2.9683903104077825
            ]
        },
        {
            "positions": [
                0.12249304146854285,
                -1.1324953078391642,
                1.9578845413227415,
                -0.712956295744332,
                0.13005708429470603,
                3.039524672842878
            ]
        }
    ]
}