{
    "goal": {
        "global_pose": {
            "orientation": {
                "w": -0.00223480608172531,
                "x": 0.0024358444001904467,
                "y": 0.7094548369677653,
                "z": -0.704743149386269
            },
            "position": {
                "x": 0.6205249238014221,
                "y": -0.6371506643295288,
                "z": 0.19426114857196808
            }
        },
        "name": "move_to_magneteinheit_B"
    },
    "id": "BKPIECE_move_to_magneteinheit_B_23",
    "joint_names": [
        "shoulder_pan_joint",
        "shoulder_lift_joint",
        "elbow_joint",
        "wrist_1_joint",
        "wrist_2_joint",
        "wrist_3_joint"
    ],
    "metrics": {
        "cart_traj_len": 4.055102370094907,
        "distance_elbow_joint": 4.090234055866447,
        "distance_shoulder_lift_joint": 0.917263012966639,
        "distance_shoulder_pan_joint": 2.6958974651224534,
        "distance_wrist_1_joint": 2.2997118721895875,
        "distance_wrist_2_joint": 0.8600094471825883,
        "distance_wrist_3_joint": 4.303184520701329,
        "smoothness": 0.5300640030153607,
        "time": 0.61761395,
        "traj_len": 3.894393453932081,
        "weighted_distance": 5.189642640375528
    },
    "planner": "BKPIECE",
    "start": {
        "state": {
            "elbow_joint": 2.39358713078474,
            "shoulder_lift_joint": -1.908514104345545,
            "shoulder_pan_joint": 0.7066247066606129,
            "wrist_1_joint": -0.4678290933515497,
            "wrist_2_joint": 0.7096259083745334,
            "wrist_3_joint": -3.1358149277392293
        }
    },
    "waypoints": [
        {
            "positions": [
                0.7066247066606129,
                -1.908514104345545,
                2.39358713078474,
                -0.4678290933515497,
                0.7096259083745334,
                -3.1358149277392293
            ]
        },
        {
            "positions": [
                0.6151269592707798,
                -1.9127046687446492,
                2.400574686053706,
                -0.5247648769689345,
                0.7095649517599487,
                -3.067504485786534
            ]
        },
        {
            "positions": [
                0.5236292118809467,
                -1.9168952331437532,
                2.407562241322672,
                -0.5817006605863193,
                0.7095039951453641,
                -2.999194043833839
            ]
        },
        {
            "positions": [
                0.5252058739109672,
                -1.8951774188379957,
                2.2933748187538106,
                -0.6080756688623321,
                0.7489274559758755,
                -2.8169563098987207
            ]
        },
        {
            "positions": [
                0.5267825359409876,
                -1.8734596045322385,
                2.179187396184949,
                -0.6344506771383449,
                0.7883509168063869,
                -2.6347185759636025
            ]
        },
        {
            "positions": [
                0.528359197971008,
                -1.851741790226481,
                2.0649999736160876,
                -0.6608256854143578,
                0.8277743776368983,
                -2.4524808420284843
            ]
        },
        {
            "positions": [
                0.5299358600010284,
                -1.8300239759207235,
                1.950812551047226,
                -0.6872006936903706,
                0.8671978384674097,
                -2.270243108093366
            ]
        },
        {
            "positions": [
                0.5315125220310489,
                -1.808306161614966,
                1.8366251284783646,
                -0.7135757019663834,
                0.9066212992979211,
                -2.088005374158248
            ]
        },
        {
            "positions": [
                0.5330891840610694,
                -1.7865883473092086,
                1.722437705909503,
                -0.7399507102423963,
                0.9460447601284325,
                -1.9057676402231296
            ]
        },
        {
            "positions": [
                0.5346658460910898,
                -1.7648705330034513,
                1.6082502833406416,
                -0.7663257185184091,
                0.9854682209589439,
                -1.7235299062880114
            ]
        },
        {
            "positions": [
                0.5362425081211103,
                -1.7431527186976938,
                1.49406286077178,
                -0.7927007267944219,
                1.0248916817894553,
                -1.5412921723528932
            ]
        },
        {
            "positions": [
                0.624614576827227,
                -1.7491103976010225,
                1.3694320762890704,
                -0.7193603279279044,
                1.0213771993748082,
                -1.4484675565681666
            ]
        },
        {
            "positions": [
                0.7129866455333437,
                -1.7550680765043511,
                1.2448012918063607,
                -0.6460199290613868,
                1.0178627169601608,
                -1.35564294078344
            ]
        },
        {
            "positions": [
                0.8013587142394603,
                -1.7610257554076796,
                1.120170507323651,
                -0.5726795301948693,
                1.0143482345455137,
                -1.2628183249987135
            ]
        },
        {
            "positions": [
                0.889730782945577,
                -1.7669834343110082,
                0.9955397228409414,
                -0.4993391313283517,
                1.0108337521308666,
                -1.169993709213987
            ]
        },
        {
            "positions": [
                0.9781028516516936,
                -1.772941113214337,
                0.8709089383582317,
                -0.4259987324618342,
                1.0073192697162192,
                -1.0771690934292604
            ]
        },
        {
            "positions": [
                1.0664749203578103,
                -1.7788987921176656,
                0.746278153875522,
                -0.3526583335953166,
                1.003804787301572,
                -0.9843444776445337
            ]
        },
        {
            "positions": [
                1.1548469890639272,
                -1.7848564710209942,
                0.6216473693928123,
                -0.27931793472879907,
                1.000290304886925,
                -0.891519861859807
            ]
        },
        {
            "positions": [
                1.2432190577700437,
                -1.7908141499243226,
                0.4970165849101027,
                -0.2059775358622815,
                0.9967758224722777,
                -0.7986952460750806
            ]
        },
        {
            "positions": [
                1.3315911264761606,
                -1.7967718288276513,
                0.372385800427393,
                -0.13263713699576396,
                0.9932613400576304,
                -0.7058706302903539
            ]
        },
        {
            "positions": [
                1.419963195182277,
                -1.80272950773098,
                0.2477550159446833,
                -0.05929673812924641,
                0.9897468576429833,
                -0.6130460145056273
            ]
        },
        {
            "positions": [
                1.5083352638883938,
                -1.8086871866343086,
                0.1231242314619736,
                0.014043660737271146,
                0.9862323752283361,
                -0.5202213987209008
            ]
        },
        {
            "positions": [
                1.5967073325945105,
                -1.814644865537637,
                -0.001506553020736101,
                0.0873840596037887,
                0.9827178928136889,
                -0.4273967829361742
            ]
        },
        {
            "positions": [
                1.685079401300627,
                -1.8206025444409657,
                -0.12613733750344558,
                0.16072445847030614,
                0.9792034103990417,
                -0.33457216715144766
            ]
        },
        {
            "positions": [
                1.7734514700067439,
                -1.8265602233442944,
                -0.2507681219861555,
                0.2340648573368238,
                0.9756889279843944,
                -0.24174755136672088
            ]
        },
        {
            "positions": [
                1.8618235387128603,
                -1.832517902247623,
                -0.3753989064688652,
                0.30740525620334136,
                0.9721744455697473,
                -0.14892293558199454
            ]
        },
        {
            "positions": [
                1.9501956074189772,
                -1.8384755811509517,
                -0.5000296909515747,
                0.3807456550698589,
                0.9686599631551001,
                -0.05609831979726798
            ]
        },
        {
            "positions": [
                2.0385676761250937,
                -1.84443326005428,
                -0.6246604754342844,
                0.45408605393637647,
                0.9651454807404529,
                0.03672629598745858
            ]
        },
        {
            "positions": [
                2.1269397448312106,
                -1.8503909389576088,
                -0.7492912599169941,
                0.527426452802894,
                0.9616309983258057,
                0.12955091177218536
            ]
        },
        {
            "positions": [
                2.215311813537327,
                -1.8563486178609374,
                -0.8739220443997038,
                0.6007668516694116,
                0.9581165159111584,
                0.22237552755691192
            ]
        },
        {
            "positions": [
                2.303683882243444,
                -1.862306296764266,
                -0.9985528288824135,
                0.6741072505359291,
                0.9546020334965113,
                0.3152001433416385
            ]
        },
        {
            "positions": [
                2.3920559509495605,
                -1.8682639756675945,
                -1.1231836133651232,
                0.7474476494024467,
                0.951087551081864,
                0.4080247591263648
            ]
        },
        {
            "positions": [
                2.4804280196556774,
                -1.8742216545709232,
                -1.2478143978478329,
                0.8207880482689642,
                0.9475730686672169,
                0.5008493749110916
            ]
        },
        {
            "positions": [
                2.568800088361794,
                -1.8801793334742518,
                -1.3724451823305426,
                0.8941284471354818,
                0.9440585862525697,
                0.5936739906958182
            ]
        },
        {
            "positions": [
                2.62474013858798,
                -1.9744046269843338,
                -1.4305831844521915,
                0.8750830201181493,
                0.9223293749732631,
                0.48702653857733036
            ]
        },
        {
            "positions": [
                2.680680188814166,
                -2.068629920494416,
                -1.4887211865738403,
                0.8560375931008168,
                0.9006001636939566,
                0.38037908645884255
            ]
        },
        {
            "positions": [
                2.736620239040352,
                -2.162855214004498,
                -1.5468591886954894,
                0.8369921660834845,
                0.87887095241465,
                0.27373163434035475
            ]
        },
        {
            "positions": [
                2.7925602892665378,
                -2.25708050751458,
                -1.6049971908171383,
                0.817946739066152,
                0.8571417411353435,
                0.16708418222186694
            ]
        },
        {
            "positions": [
                2.8485003394927237,
                -2.351305801024662,
                -1.6631351929387872,
                0.7989013120488195,
                0.8354125298560369,
                0.060436730103379105
            ]
        },
        {
            "positions": [
                2.7858233919157205,
                -2.3936345634897966,
                -1.6649890299611387,
                0.8631626219588695,
                0.7170722980640671,
                0.04695061621209856
            ]
        },
        {
            "positions": [
                2.7231464443387168,
                -2.4359633259549307,
                -1.6668428669834905,
                0.9274239318689194,
                0.5987320662720974,
                0.03346450232081802
            ]
        },
        {
            "positions": [
                2.6604694967617135,
                -2.478292088420065,
                -1.668696704005842,
                0.9916852417789693,
                0.4803918344801276,
                0.019978388429537475
            ]
        }
    ]
}