{
    "goal": {
        "global_pose": {
            "orientation": {
                "w": 0.7031023502349854,
                "x": -0.7110244035720825,
                "y": 0.007748599164187908,
                "z": 0.005598929710686207
            },
            "position": {
                "x": 0.11585023208521307,
                "y": 0.44412534475326537,
                "z": 0.3711530566215515
            }
        },
        "name": "move_to_auspresseinheit_A"
    },
    "id": "BKPIECE_move_to_auspresseinheit_A_9",
    "joint_names": [
        "shoulder_pan_joint",
        "shoulder_lift_joint",
        "elbow_joint",
        "wrist_1_joint",
        "wrist_2_joint",
        "wrist_3_joint"
    ],
    "metrics": {
        "cart_traj_len": 5.57136893550793,
        "distance_elbow_joint": 6.6482505653676025,
        "distance_shoulder_lift_joint": 2.5973293114933096,
        "distance_shoulder_pan_joint": 5.787052899117574,
        "distance_wrist_1_joint": 7.591629682388191,
        "distance_wrist_2_joint": 3.015792337263685,
        "distance_wrist_3_joint": 9.712464276896466,
        "smoothness": 0.3656252935294297,
        "time": 0.41919743600000003,
        "traj_len": 5.9457984386057685,
        "weighted_distance": 8.086091122784335
    },
    "planner": "BKPIECE",
    "start": {
        "state": {
            "elbow_joint": 2.422574709923281,
            "shoulder_lift_joint": -1.3736533754116391,
            "shoulder_pan_joint": -0.33786336945926293,
            "wrist_1_joint": -1.0288603412921917,
            "wrist_2_joint": 1.2330224858903978,
            "wrist_3_joint": -3.094022268022082
        }
    },
    "waypoints": [
        {
            "positions": [
                -0.33786336945926293,
                -1.3736533754116391,
                2.422574709923281,
                -1.0288603412921917,
                1.2330224858903978,
                -3.094022268022082
            ]
        },
        {
            "positions": [
                -0.3010989109137769,
                -1.3859270222957294,
                2.2989477822390123,
                -0.8913409283052607,
                1.20083520049387,
                -3.0539427422253627
            ]
        },
        {
            "positions": [
                -0.2643344523682908,
                -1.3982006691798199,
                2.1753208545547436,
                -0.7538215153183296,
                1.1686479150973421,
                -3.013863216428643
            ]
        },
        {
            "positions": [
                -0.22756999382280474,
                -1.4104743160639102,
                2.051693926870475,
                -0.6163021023313986,
                1.1364606297008144,
                -2.9737836906319233
            ]
        },
        {
            "positions": [
                -0.1908055352773187,
                -1.4227479629480004,
                1.928066999186206,
                -0.47878268934446766,
                1.1042733443042865,
                -2.933704164835204
            ]
        },
        {
            "positions": [
                -0.15404107673183262,
                -1.4350216098320907,
                1.8044400715019373,
                -0.3412632763575366,
                1.0720860589077588,
                -2.8936246390384843
            ]
        },
        {
            "positions": [
                -0.11727661818634658,
                -1.4472952567161812,
                1.6808131438176686,
                -0.20374386337060557,
                1.039898773511231,
                -2.853545113241765
            ]
        },
        {
            "positions": [
                -0.0805121596408605,
                -1.4595689036002715,
                1.5571862161333998,
                -0.06622445038367464,
                1.0077114881147033,
                -2.8134655874450454
            ]
        },
        {
            "positions": [
                -0.04374770109537446,
                -1.4718425504843617,
                1.433559288449131,
                0.0712949626032564,
                0.9755242027181754,
                -2.7733860616483255
            ]
        },
        {
            "positions": [
                -0.006983242549888413,
                -1.484116197368452,
                1.3099323607648623,
                0.20881437559018745,
                0.9433369173216477,
                -2.733306535851606
            ]
        },
        {
            "positions": [
                0.029781215995597687,
                -1.4963898442525425,
                1.1863054330805936,
                0.3463337885771185,
                0.9111496319251199,
                -2.6932270100548865
            ]
        },
        {
            "positions": [
                0.06654567454108373,
                -1.5086634911366328,
                1.0626785053963248,
                0.48385320156404954,
                0.8789623465285921,
                -2.653147484258167
            ]
        },
        {
            "positions": [
                0.10331013308656978,
                -1.520937138020723,
                0.9390515777120558,
                0.6213726145509806,
                0.8467750611320644,
                -2.613067958461447
            ]
        },
        {
            "positions": [
                0.14007459163205582,
                -1.5332107849048133,
                0.8154246500277871,
                0.7588920275379116,
                0.8145877757355364,
                -2.5729884326647277
            ]
        },
        {
            "positions": [
                0.17683905017754192,
                -1.5454844317889038,
                0.6917977223435183,
                0.8964114405248425,
                0.7824004903390087,
                -2.532908906868008
            ]
        },
        {
            "positions": [
                0.21360350872302797,
                -1.557758078672994,
                0.5681707946592496,
                1.033930853511774,
                0.7502132049424808,
                -2.4928293810712887
            ]
        },
        {
            "positions": [
                0.250367967268514,
                -1.5700317255570844,
                0.44454386697498083,
                1.1714502664987045,
                0.7180259195459531,
                -2.4527498552745692
            ]
        },
        {
            "positions": [
                0.28713242581400017,
                -1.5823053724411746,
                0.32091693929071186,
                1.308969679485636,
                0.6858386341494253,
                -2.4126703294778493
            ]
        },
        {
            "positions": [
                0.3238968843594861,
                -1.5945790193252651,
                0.19729001160644355,
                1.4464890924725666,
                0.6536513487528975,
                -2.37259080368113
            ]
        },
        {
            "positions": [
                0.36066134290497226,
                -1.6068526662093554,
                0.07366308392217435,
                1.5840085054594977,
                0.6214640633563697,
                -2.3325112778844104
            ]
        },
        {
            "positions": [
                0.3974258014504583,
                -1.6191263130934457,
                -0.04996384376209395,
                1.7215279184464287,
                0.589276777959842,
                -2.292431752087691
            ]
        },
        {
            "positions": [
                0.43419025999594435,
                -1.6313999599775362,
                -0.17359077144636315,
                1.8590473314333598,
                0.5570894925633141,
                -2.252352226290971
            ]
        },
        {
            "positions": [
                0.4709547185414304,
                -1.6436736068616264,
                -0.29721769913063145,
                1.9965667444202908,
                0.5249022071667864,
                -2.2122727004942515
            ]
        },
        {
            "positions": [
                0.5077191770869165,
                -1.6559472537457167,
                -0.42084462681490065,
                2.134086157407222,
                0.49271492177025855,
                -2.172193174697532
            ]
        },
        {
            "positions": [
                0.5444836356324025,
                -1.668220900629807,
                -0.5444715544991694,
                2.271605570394153,
                0.46052763637373084,
                -2.1321136489008126
            ]
        },
        {
            "positions": [
                0.5812480941778886,
                -1.6804945475138973,
                -0.6680984821834381,
                2.409124983381084,
                0.4283403509772029,
                -2.092034123104093
            ]
        },
        {
            "positions": [
                0.6180125527233746,
                -1.6927681943979878,
                -0.7917254098677069,
                2.546644396368015,
                0.3961530655806752,
                -2.0519545973073736
            ]
        },
        {
            "positions": [
                0.6547770112688607,
                -1.705041841282078,
                -0.9153523375519758,
                2.684163809354946,
                0.3639657801841474,
                -2.0118750715106537
            ]
        },
        {
            "positions": [
                0.7354733867636043,
                -1.7461986539276655,
                -0.8157366352164988,
                2.696129827272199,
                0.33374449638274295,
                -1.886678974503545
            ]
        },
        {
            "positions": [
                0.816169762258348,
                -1.7873554665732527,
                -0.7161209328810219,
                2.7080958451894523,
                0.3035232125813385,
                -1.7614828774964364
            ]
        },
        {
            "positions": [
                0.8968661377530917,
                -1.8285122792188402,
                -0.6165052305455448,
                2.720061863106706,
                0.27330192877993403,
                -1.6362867804893275
            ]
        },
        {
            "positions": [
                0.9775625132478354,
                -1.8696690918644276,
                -0.5168895282100678,
                2.732027881023959,
                0.2430806449785296,
                -1.5110906834822189
            ]
        },
        {
            "positions": [
                1.058258888742579,
                -1.910825904510015,
                -0.41727382587459094,
                2.7439938989412123,
                0.21285936117712517,
                -1.3858945864751102
            ]
        },
        {
            "positions": [
                1.1389552642373226,
                -1.9519827171556026,
                -0.31765812353911393,
                2.7559599168584654,
                0.1826380773757207,
                -1.2606984894680013
            ]
        },
        {
            "positions": [
                1.2196516397320663,
                -1.9931395298011898,
                -0.21804242120363693,
                2.7679259347757186,
                0.15241679357431626,
                -1.135502392460893
            ]
        },
        {
            "positions": [
                1.30034801522681,
                -2.034296342446777,
                -0.11842671886816003,
                2.779891952692972,
                0.12219550977291183,
                -1.010306295453784
            ]
        },
        {
            "positions": [
                1.3810443907215535,
                -2.0754531550923647,
                -0.018811016532683023,
                2.7918579706102253,
                0.0919742259715074,
                -0.8851101984466754
            ]
        },
        {
            "positions": [
                1.4617407662162973,
                -2.116609967737952,
                0.08080468580279387,
                2.8038239885274785,
                0.061752942170102965,
                -0.7599141014395667
            ]
        },
        {
            "positions": [
                1.542437141711041,
                -2.1577667803835396,
                0.18042038813827077,
                2.8157900064447317,
                0.03153165836869848,
                -0.6347180044324581
            ]
        },
        {
            "positions": [
                1.6231335172057846,
                -2.198923593029127,
                0.2800360904737479,
                2.827756024361985,
                0.0013103745672939926,
                -0.5095219074253492
            ]
        },
        {
            "positions": [
                1.7038298927005284,
                -2.240080405674714,
                0.379651792809225,
                2.8397220422792384,
                -0.028910909234110438,
                -0.38432581041824054
            ]
        },
        {
            "positions": [
                1.784526268195272,
                -2.281237218320302,
                0.4792674951447019,
                2.8516880601964916,
                -0.05913219303551487,
                -0.2591297134111319
            ]
        },
        {
            "positions": [
                1.8652226436900157,
                -2.322394030965889,
                0.5788831974801788,
                2.8636540781137447,
                -0.0893534768369193,
                -0.13393361640402324
            ]
        },
        {
            "positions": [
                1.9459190191847593,
                -2.3635508436114767,
                0.6784988998156557,
                2.875620096030998,
                -0.11957476063832373,
                -0.008737519396914362
            ]
        },
        {
            "positions": [
                2.026615394679503,
                -2.404707656257064,
                0.7781146021511326,
                2.887586113948251,
                -0.14979604443972816,
                0.11645857761019407
            ]
        },
        {
            "positions": [
                2.1073117701742463,
                -2.445864468902651,
                0.8777303044866097,
                2.8995521318655046,
                -0.1800173282411326,
                0.24165467461730294
            ]
        },
        {
            "positions": [
                2.18800814566899,
                -2.487021281548239,
                0.9773460068220866,
                2.911518149782758,
                -0.21023861204253702,
                0.3668507716244114
            ]
        },
        {
            "positions": [
                2.268704521163734,
                -2.528178094193826,
                1.0769617091575636,
                2.923484167700011,
                -0.24045989584394145,
                0.49204686863152025
            ]
        },
        {
            "positions": [
                2.3494008966584774,
                -2.569334906839414,
                1.1765774114930405,
                2.935450185617264,
                -0.2706811796453459,
                0.6172429656386287
            ]
        },
        {
            "positions": [
                2.4300972721532212,
                -2.610491719485001,
                1.2761931138285174,
                2.9474162035345173,
                -0.3009024634467504,
                0.7424390626457376
            ]
        },
        {
            "positions": [
                2.510793647647965,
                -2.6516485321305883,
                1.3758088161639948,
                2.959382221451771,
                -0.33112374724815485,
                0.8676351596528464
            ]
        },
        {
            "positions": [
                2.5914900231427085,
                -2.692805344776176,
                1.4754245184994716,
                2.971348239369024,
                -0.3613450310495594,
                0.9928312566599553
            ]
        },
        {
            "positions": [
                2.6721863986374523,
                -2.733962157421763,
                1.5750402208349485,
                2.983314257286277,
                -0.3915663148509638,
                1.1180273536670637
            ]
        },
        {
            "positions": [
                2.752882774132196,
                -2.775118970067351,
                1.6746559231704259,
                2.9952802752035304,
                -0.42178759865236826,
                1.2432234506741726
            ]
        },
        {
            "positions": [
                2.8335791496269396,
                -2.816275782712938,
                1.7742716255059028,
                3.0072462931207835,
                -0.4520088824537727,
                1.368419547681281
            ]
        },
        {
            "positions": [
                2.9142755251216834,
                -2.8574325953585253,
                1.8738873278413797,
                3.019212311038037,
                -0.4822301662551771,
                1.49361564468839
            ]
        },
        {
            "positions": [
                2.994971900616427,
                -2.8985894080041126,
                1.9735030301768566,
                3.0311783289552903,
                -0.5124514500565815,
                1.6188117416954984
            ]
        },
        {
            "positions": [
                3.0756682761111707,
                -2.9397462206497003,
                2.0731187325123335,
                3.0431443468725434,
                -0.542672733857986,
                1.7440078387026072
            ]
        },
        {
            "positions": [
                3.005858827477431,
                -2.9094157363480755,
                2.0825849809778636,
                2.9396259646895007,
                -0.506199289225183,
                1.600642127815202
            ]
        },
        {
            "positions": [
                2.936049378843691,
                -2.8790852520464503,
                2.0920512294433937,
                2.8361075825064574,
                -0.46972584459238,
                1.457276416927797
            ]
        },
        {
            "positions": [
                2.8662399302099515,
                -2.8487547677448255,
                2.101517477908924,
                2.7325892003234147,
                -0.433252399959577,
                1.3139107060403916
            ]
        },
        {
            "positions": [
                2.7964304815762118,
                -2.8184242834432003,
                2.110983726374454,
                2.629070818140372,
                -0.39677895532677404,
                1.1705449951529865
            ]
        },
        {
            "positions": [
                2.726621032942472,
                -2.7880937991415755,
                2.120449974839984,
                2.5255524359573287,
                -0.36030551069397104,
                1.0271792842655811
            ]
        },
        {
            "positions": [
                2.6568115843087323,
                -2.7577633148399507,
                2.1299162233055142,
                2.422034053774286,
                -0.32383206606116804,
                0.8838135733781761
            ]
        },
        {
            "positions": [
                2.587002135674993,
                -2.7274328305383255,
                2.1393824717710443,
                2.318515671591243,
                -0.2873586214283651,
                0.7404478624907711
            ]
        },
        {
            "positions": [
                2.517192687041253,
                -2.6971023462367008,
                2.1488487202365745,
                2.2149972894082,
                -0.2508851767955621,
                0.5970821516033658
            ]
        },
        {
            "positions": [
                2.4473832384075136,
                -2.6667718619350755,
                2.1583149687021046,
                2.111478907225157,
                -0.2144117321627591,
                0.4537164407159606
            ]
        },
        {
            "positions": [
                2.3775737897737734,
                -2.6364413776334508,
                2.1677812171676347,
                2.0079605250421144,
                -0.1779382875299561,
                0.31035072982855527
            ]
        },
        {
            "positions": [
                2.307764341140034,
                -2.606110893331826,
                2.177247465633165,
                1.9044421428590714,
                -0.1414648428971531,
                0.16698501894115014
            ]
        },
        {
            "positions": [
                2.237954892506294,
                -2.575780409030201,
                2.186713714098695,
                1.8009237606760284,
                -0.10499139826435011,
                0.023619308053745014
            ]
        },
        {
            "positions": [
                2.1681454438725547,
                -2.545449924728576,
                2.196179962564225,
                1.6974053784929857,
                -0.06851795363154722,
                -0.11974640283365989
            ]
        },
        {
            "positions": [
                2.098335995238815,
                -2.5151194404269512,
                2.205646211029755,
                1.5938869963099427,
                -0.032044508998744226,
                -0.263112113721065
            ]
        },
        {
            "positions": [
                2.0285265466050753,
                -2.484788956125326,
                2.2151124594952853,
                1.4903686141269,
                0.004428935634058773,
                -0.4064778246084706
            ]
        },
        {
            "positions": [
                1.9587170979713355,
                -2.4544584718237012,
                2.2245787079608155,
                1.386850231943857,
                0.04090238026686177,
                -0.5498435354958757
            ]
        },
        {
            "positions": [
                1.8889076493375958,
                -2.424127987522076,
                2.234044956426345,
                1.283331849760814,
                0.07737582489966477,
                -0.6932092463832809
            ]
        },
        {
            "positions": [
                1.819098200703856,
                -2.3937975032204513,
                2.2435112048918757,
                1.179813467577771,
                0.11384926953246777,
                -0.836574957270686
            ]
        },
        {
            "positions": [
                1.7492887520701164,
                -2.3634670189188265,
                2.2529774533574054,
                1.076295085394728,
                0.15032271416527077,
                -0.9799406681580911
            ]
        },
        {
            "positions": [
                1.6794793034363766,
                -2.3331365346172013,
                2.2624437018229355,
                0.972776703211685,
                0.18679615879807376,
                -1.1233063790454967
            ]
        },
        {
            "positions": [
                1.609669854802637,
                -2.302806050315576,
                2.2719099502884657,
                0.8692583210286422,
                0.22326960343087676,
                -1.2666720899329018
            ]
        },
        {
            "positions": [
                1.5398604061688972,
                -2.2724755660139513,
                2.2813761987539958,
                0.7657399388455994,
                0.25974304806367976,
                -1.410037800820307
            ]
        },
        {
            "positions": [
                1.4700509575351575,
                -2.2421450817123265,
                2.290842447219526,
                0.6622215566625562,
                0.29621649269648276,
                -1.553403511707712
            ]
        },
        {
            "positions": [
                1.4002415089014177,
                -2.2118145974107013,
                2.300308695685056,
                0.5587031744795135,
                0.33268993732928576,
                -1.6967692225951172
            ]
        },
        {
            "positions": [
                1.330432060267678,
                -2.1814841131090765,
                2.309774944150586,
                0.45518479229647024,
                0.36916338196208875,
                -1.8401349334825228
            ]
        },
        {
            "positions": [
                1.2606226116339387,
                -2.1511536288074518,
                2.3192411926161163,
                0.3516664101134279,
                0.40563682659489153,
                -1.983500644369927
            ]
        },
        {
            "positions": [
                1.190813163000199,
                -2.1208231445058265,
                2.3287074410816464,
                0.24814802793038515,
                0.44211027122769453,
                -2.1268663552573326
            ]
        },
        {
            "positions": [
                1.1210037143664593,
                -2.0904926602042018,
                2.3381736895471765,
                0.14462964574734194,
                0.4785837158604975,
                -2.2702320661447373
            ]
        },
        {
            "positions": [
                1.0511942657327196,
                -2.060162175902577,
                2.3476399380127067,
                0.04111126356429917,
                0.5150571604933005,
                -2.4135977770321433
            ]
        },
        {
            "positions": [
                0.9813848170989798,
                -2.029831691600952,
                2.3571061864782368,
                -0.062407118618743596,
                0.5515306051261035,
                -2.5569634879195484
            ]
        },
        {
            "positions": [
                0.9115753684652401,
                -1.999501207299327,
                2.366572434943767,
                -0.1659255008017868,
                0.5880040497589065,
                -2.7003291988069535
            ]
        },
        {
            "positions": [
                0.8417659198315004,
                -1.9691707229977018,
                2.376038683409297,
                -0.2694438829848296,
                0.6244774943917095,
                -2.8436949096943587
            ]
        },
        {
            "positions": [
                0.7719564711977607,
                -1.938840238696077,
                2.385504931874827,
                -0.3729622651678728,
                0.6609509390245125,
                -2.987060620581764
            ]
        },
        {
            "positions": [
                0.7021470225640211,
                -1.908509754394452,
                2.3949711803403573,
                -0.4764806473509157,
                0.6974243836573155,
                -3.1304263314691694
            ]
        }
    ]
}