{
    "goal": {
        "global_pose": {
            "orientation": {
                "w": 0.5084816217422485,
                "x": -0.49083608388900757,
                "y": 0.5182115435600281,
                "z": -0.4816462993621826
            },
            "position": {
                "x": 0.5540239810943604,
                "y": 0.030875300988554955,
                "z": 0.16403168439865112
            }
        },
        "name": "move_to_storage_A"
    },
    "id": "BKPIECE_move_to_storage_A_3",
    "joint_names": [
        "shoulder_pan_joint",
        "shoulder_lift_joint",
        "elbow_joint",
        "wrist_1_joint",
        "wrist_2_joint",
        "wrist_3_joint"
    ],
    "metrics": {
        "cart_traj_len": 0.35324117123541743,
        "distance_elbow_joint": 0.44800789987988443,
        "distance_shoulder_lift_joint": 0.23509909411086527,
        "distance_shoulder_pan_joint": 0.4637227747831881,
        "distance_wrist_1_joint": 0.23705221706431112,
        "distance_wrist_2_joint": 1.0910713632538318,
        "distance_wrist_3_joint": 0.0939005803252102,
        "smoothness": 4.440892098500626e-16,
        "time": 0.3386336,
        "traj_len": 1.6027644647350061,
        "weighted_distance": 2.0210835386954824
    },
    "planner": "BKPIECE",
    "start": {
        "state": {
            "elbow_joint": 1.9715463870305268,
            "shoulder_lift_joint": -1.1394903361783484,
            "shoulder_pan_joint": 0.12281147578464417,
            "wrist_1_joint": -0.7804599489681411,
            "wrist_2_joint": 0.12958660307563738,
            "wrist_3_joint": -3.1924946282119055
        }
    },
    "waypoints": [
        {
            "positions": [
                0.12281147578464417,
                -1.1394903361783484,
                1.9715463870305268,
                -0.7804599489681411,
                0.12958660307563738,
                -3.1924946282119055
            ]
        },
        {
            "positions": [
                0.05656536510133159,
                -1.173075921051329,
                2.035547515584796,
                -0.8143245514058998,
                0.28545394068332763,
                -3.179080259594018
            ]
        },
        {
            "positions": [
                -0.009680745581980996,
                -1.20666150592431,
                2.099548644139065,
                -0.8481891538436586,
                0.44132127829101786,
                -3.1656658909761313
            ]
        },
        {
            "positions": [
                -0.07592685626529357,
                -1.2402470907972907,
                2.1635497726933344,
                -0.8820537562814172,
                0.5971886158987081,
                -3.152251522358244
            ]
        },
        {
            "positions": [
                -0.14217296694860615,
                -1.2738326756702714,
                2.2275509012476036,
                -0.915918358719176,
                0.7530559535063984,
                -3.138837153740357
            ]
        },
        {
            "positions": [
                -0.20841907763191875,
                -1.307418260543252,
                2.291552029801873,
                -0.9497829611569347,
                0.9089232911140888,
                -3.1254227851224696
            ]
        },
        {
            "positions": [
                -0.2746651883152313,
                -1.341003845416233,
                2.355553158356142,
                -0.9836475635946935,
                1.0647906287217788,
                -3.1120084165045827
            ]
        },
        {
            "positions": [
                -0.3409112989985439,
                -1.3745894302892137,
                2.419554286910411,
                -1.0175121660324522,
                1.2206579663294692,
                -3.0985940478866953
            ]
        }
    ]
}