{
    "goal": {
        "global_pose": {
            "orientation": {
                "w": 0.5084816217422485,
                "x": -0.49083608388900757,
                "y": 0.5182115435600281,
                "z": -0.4816462993621826
            },
            "position": {
                "x": 0.5540239810943604,
                "y": 0.030875300988554955,
                "z": 0.16403168439865112
            }
        },
        "name": "move_to_storage_A"
    },
    "id": "BKPIECE_move_to_storage_A_87",
    "joint_names": [
        "shoulder_pan_joint",
        "shoulder_lift_joint",
        "elbow_joint",
        "wrist_1_joint",
        "wrist_2_joint",
        "wrist_3_joint"
    ],
    "metrics": {
        "cart_traj_len": 0.35322123340876366,
        "distance_elbow_joint": 0.45261315733292884,
        "distance_shoulder_lift_joint": 0.23321693179365566,
        "distance_shoulder_pan_joint": 0.46147729561497736,
        "distance_wrist_1_joint": 0.2613695847962293,
        "distance_wrist_2_joint": 1.0999768005171975,
        "distance_wrist_3_joint": 0.09780677881287891,
        "smoothness": 8.881784232165597e-16,
        "time": 0.145796687,
        "traj_len": 1.6144536378812084,
        "weighted_distance": 2.040446150185555
    },
    "planner": "BKPIECE",
    "start": {
        "state": {
            "elbow_joint": 1.9715463870305268,
            "shoulder_lift_joint": -1.1394903361783484,
            "shoulder_pan_joint": 0.12281147578464417,
            "wrist_1_joint": -0.7804599489681411,
            "wrist_2_joint": 0.12958660307563738,
            "wrist_3_joint": -3.1924946282119055
        }
    },
    "waypoints": [
        {
            "positions": [
                0.12281147578464417,
                -1.1394903361783484,
                1.9715463870305268,
                -0.7804599489681411,
                0.12958660307563738,
                -3.1924946282119055
            ]
        },
        {
            "positions": [
                0.056886147839647405,
                -1.1728070407202993,
                2.0362054095066595,
                -0.8177984610818881,
                0.28672614600666557,
                -3.178522231238637
            ]
        },
        {
            "positions": [
                -0.009039180105349362,
                -1.20612374526225,
                2.1008644319827923,
                -0.8551369731956352,
                0.44386568893769374,
                -3.164549834265369
            ]
        },
        {
            "positions": [
                -0.07496450805034612,
                -1.2394404498042009,
                2.165523454458925,
                -0.8924754853093821,
                0.601005231868722,
                -3.1505774372921005
            ]
        },
        {
            "positions": [
                -0.14088983599534288,
                -1.2727571543461516,
                2.2301824769350573,
                -0.9298139974231292,
                0.7581447747997502,
                -3.1366050403188317
            ]
        },
        {
            "positions": [
                -0.20681516394033966,
                -1.3060738588881025,
                2.29484149941119,
                -0.9671525095368763,
                0.9152843177307785,
                -3.1226326433455633
            ]
        },
        {
            "positions": [
                -0.2727404918853364,
                -1.3393905634300531,
                2.359500521887323,
                -1.0044910216506233,
                1.0724238606618066,
                -3.108660246372295
            ]
        },
        {
            "positions": [
                -0.33866581983033317,
                -1.372707267972004,
                2.4241595443634556,
                -1.0418295337643704,
                1.229563403592835,
                -3.0946878493990266
            ]
        }
    ]
}