{
    "goal": {
        "global_pose": {
            "orientation": {
                "w": 0.5084816217422485,
                "x": -0.49083608388900757,
                "y": 0.5182115435600281,
                "z": -0.4816462993621826
            },
            "position": {
                "x": 0.5540239810943604,
                "y": 0.030875300988554955,
                "z": 0.16403168439865112
            }
        },
        "name": "move_to_storage_A"
    },
    "id": "BKPIECE_move_to_storage_A_81",
    "joint_names": [
        "shoulder_pan_joint",
        "shoulder_lift_joint",
        "elbow_joint",
        "wrist_1_joint",
        "wrist_2_joint",
        "wrist_3_joint"
    ],
    "metrics": {
        "cart_traj_len": 0.353958844350877,
        "distance_elbow_joint": 0.4489229584382928,
        "distance_shoulder_lift_joint": 0.2346347647116993,
        "distance_shoulder_pan_joint": 0.4636102495220989,
        "distance_wrist_1_joint": 0.23644722874049295,
        "distance_wrist_2_joint": 1.0973661386680793,
        "distance_wrist_3_joint": 0.09914787090162935,
        "smoothness": 8.881784232165597e-16,
        "time": 0.24753740100000002,
        "traj_len": 1.6062780615392505,
        "weighted_distance": 2.027865459095875
    },
    "planner": "BKPIECE",
    "start": {
        "state": {
            "elbow_joint": 1.9715463870305268,
            "shoulder_lift_joint": -1.1394903361783484,
            "shoulder_pan_joint": 0.12281147578464417,
            "wrist_1_joint": -0.7804599489681411,
            "wrist_2_joint": 0.12958660307563738,
            "wrist_3_joint": -3.1924946282119055
        }
    },
    "waypoints": [
        {
            "positions": [
                0.12281147578464417,
                -1.1394903361783484,
                1.9715463870305268,
                -0.7804599489681411,
                0.12958660307563738,
                -3.1924946282119055
            ]
        },
        {
            "positions": [
                0.05658144013863005,
                -1.1730095882800198,
                2.035678238235997,
                -0.8142381245024972,
                0.2863531943139344,
                -3.17833064665453
            ]
        },
        {
            "positions": [
                -0.009648595507384075,
                -1.206528840381691,
                2.0998100894414677,
                -0.8480163000368534,
                0.4431197855522314,
                -3.1641666650971545
            ]
        },
        {
            "positions": [
                -0.0758786311533982,
                -1.2400480924833623,
                2.163941940646938,
                -0.8817944755712095,
                0.5998863767905285,
                -3.1500026835397787
            ]
        },
        {
            "positions": [
                -0.1421086667994123,
                -1.2735673445850337,
                2.2280737918524083,
                -0.9155726511055656,
                0.7566529680288255,
                -3.135838701982403
            ]
        },
        {
            "positions": [
                -0.20833870244542646,
                -1.3070865966867051,
                2.292205643057879,
                -0.9493508266399218,
                0.9134195592671226,
                -3.1216747204250272
            ]
        },
        {
            "positions": [
                -0.27456873809144056,
                -1.3406058487883763,
                2.3563374942633493,
                -0.9831290021742779,
                1.0701861505054195,
                -3.107510738867652
            ]
        },
        {
            "positions": [
                -0.3407987737374547,
                -1.3741251008900477,
                2.4204693454688195,
                -1.016907177708634,
                1.2269527417437167,
                -3.093346757310276
            ]
        }
    ]
}