{
    "goal": {
        "global_pose": {
            "orientation": {
                "w": 0.5084816217422485,
                "x": -0.49083608388900757,
                "y": 0.5182115435600281,
                "z": -0.4816462993621826
            },
            "position": {
                "x": 0.5540239810943604,
                "y": 0.030875300988554955,
                "z": 0.16403168439865112
            }
        },
        "name": "move_to_storage_A"
    },
    "id": "BKPIECE_move_to_storage_A_122",
    "joint_names": [
        "shoulder_pan_joint",
        "shoulder_lift_joint",
        "elbow_joint",
        "wrist_1_joint",
        "wrist_2_joint",
        "wrist_3_joint"
    ],
    "metrics": {
        "cart_traj_len": 0.353329007294267,
        "distance_elbow_joint": 0.44780224068707186,
        "distance_shoulder_lift_joint": 0.23587322519078024,
        "distance_shoulder_pan_joint": 0.4636880441218248,
        "distance_wrist_1_joint": 0.23392438628949985,
        "distance_wrist_2_joint": 1.09235984715753,
        "distance_wrist_3_joint": 0.10278605892163206,
        "smoothness": 1.3322676330666223e-15,
        "time": 0.265960822,
        "traj_len": 1.6051273477105605,
        "weighted_distance": 2.0268917469018004
    },
    "planner": "BKPIECE",
    "start": {
        "state": {
            "elbow_joint": 1.9715463870305268,
            "shoulder_lift_joint": -1.1394903361783484,
            "shoulder_pan_joint": 0.12281147578464417,
            "wrist_1_joint": -0.7804599489681411,
            "wrist_2_joint": 0.12958660307563738,
            "wrist_3_joint": -3.1924946282119055
        }
    },
    "waypoints": [
        {
            "positions": [
                0.12281147578464417,
                -1.1394903361783484,
                1.9715463870305268,
                -0.7804599489681411,
                0.12958660307563738,
                -3.1924946282119055
            ]
        },
        {
            "positions": [
                0.05657032662438349,
                -1.1731865112056028,
                2.0355181357001086,
                -0.8138777184380697,
                0.2856380098124274,
                -3.177810905508815
            ]
        },
        {
            "positions": [
                -0.009670822535877185,
                -1.206882686232857,
                2.09948988436969,
                -0.8472954879079981,
                0.44168941654921734,
                -3.163127182805725
            ]
        },
        {
            "positions": [
                -0.07591197169613788,
                -1.2405788612601114,
                2.163461633039272,
                -0.8807132573779267,
                0.5977408232860073,
                -3.1484434601026345
            ]
        },
        {
            "positions": [
                -0.14215312085639853,
                -1.2742750362873656,
                2.2274333817088534,
                -0.9141310268478553,
                0.7537922300227974,
                -3.1337597373995445
            ]
        },
        {
            "positions": [
                -0.20839427001665922,
                -1.30797121131462,
                2.2914051303784353,
                -0.9475487963177838,
                0.9098436367595875,
                -3.119076014696454
            ]
        },
        {
            "positions": [
                -0.2746354191769199,
                -1.3416673863418742,
                2.3553768790480167,
                -0.9809665657877124,
                1.0658950434963772,
                -3.104392291993364
            ]
        },
        {
            "positions": [
                -0.3408765683371806,
                -1.3753635613691286,
                2.4193486277175986,
                -1.014384335257641,
                1.2219464502331674,
                -3.0897085692902735
            ]
        }
    ]
}