{
    "goal": {
        "global_pose": {
            "orientation": {
                "w": 0.7031023502349854,
                "x": -0.7110244035720825,
                "y": 0.007748599164187908,
                "z": 0.005598929710686207
            },
            "position": {
                "x": 0.11585023208521307,
                "y": 0.44412534475326537,
                "z": 0.3711530566215515
            }
        },
        "name": "move_to_auspresseinheit_A"
    },
    "id": "BKPIECE_move_to_auspresseinheit_A_129",
    "joint_names": [
        "shoulder_pan_joint",
        "shoulder_lift_joint",
        "elbow_joint",
        "wrist_1_joint",
        "wrist_2_joint",
        "wrist_3_joint"
    ],
    "metrics": {
        "cart_traj_len": 0.9542999734921598,
        "distance_elbow_joint": 1.1193713575758606,
        "distance_shoulder_lift_joint": 0.5327196573914159,
        "distance_shoulder_pan_joint": 1.045707851741708,
        "distance_wrist_1_joint": 1.5888906211566578,
        "distance_wrist_2_joint": 1.9021694331035897,
        "distance_wrist_3_joint": 1.8954031284411563,
        "smoothness": 0.9236225838014196,
        "time": 0.25497734,
        "traj_len": 2.843283673749489,
        "weighted_distance": 3.919965351958222
    },
    "planner": "BKPIECE",
    "start": {
        "state": {
            "elbow_joint": 2.422574709923281,
            "shoulder_lift_joint": -1.3736533754116391,
            "shoulder_pan_joint": -0.33786336945926293,
            "wrist_1_joint": -1.0288603412921917,
            "wrist_2_joint": 1.2330224858903978,
            "wrist_3_joint": -3.094022268022082
        }
    },
    "waypoints": [
        {
            "positions": [
                -0.33786336945926293,
                -1.3736533754116391,
                2.422574709923281,
                -1.0288603412921917,
                1.2330224858903978,
                -3.094022268022082
            ]
        },
        {
            "positions": [
                -0.3151742232773911,
                -1.3830656040700426,
                2.364964978752334,
                -0.9555302747574801,
                1.1268568993760144,
                -3.001412581414985
            ]
        },
        {
            "positions": [
                -0.2924850770955192,
                -1.3924778327284462,
                2.3073552475813868,
                -0.8822002082227685,
                1.0206913128616308,
                -2.908802894807888
            ]
        },
        {
            "positions": [
                -0.26979593091364734,
                -1.4018900613868495,
                2.2497455164104396,
                -0.8088701416880568,
                0.9145257263472475,
                -2.8161932082007906
            ]
        },
        {
            "positions": [
                -0.2471067847317755,
                -1.411302290045253,
                2.1921357852394925,
                -0.7355400751533452,
                0.8083601398328641,
                -2.723583521593693
            ]
        },
        {
            "positions": [
                -0.22441763854990363,
                -1.4207145187036565,
                2.1345260540685453,
                -0.6622100086186335,
                0.7021945533184807,
                -2.6309738349865963
            ]
        },
        {
            "positions": [
                -0.20172849236803178,
                -1.43012674736206,
                2.076916322897598,
                -0.5888799420839219,
                0.5960289668040973,
                -2.538364148379499
            ]
        },
        {
            "positions": [
                -0.1790393461861599,
                -1.4395389760204635,
                2.019306591726651,
                -0.5155498755492103,
                0.4898633802897139,
                -2.4457544617724016
            ]
        },
        {
            "positions": [
                -0.15635020000428804,
                -1.4489512046788668,
                1.961696860555704,
                -0.44221980901449853,
                0.3836977937753304,
                -2.3531447751653043
            ]
        },
        {
            "positions": [
                -0.13366105382241616,
                -1.4583634333372704,
                1.9040871293847568,
                -0.3688897424797869,
                0.27753220726094696,
                -2.2605350885582074
            ]
        },
        {
            "positions": [
                -0.11097190764054433,
                -1.4677756619956739,
                1.8464773982138096,
                -0.29555967594507526,
                0.17136662074656367,
                -2.16792540195111
            ]
        },
        {
            "positions": [
                -0.06295375708080385,
                -1.5067240957059993,
                1.8977134976390753,
                -0.22563044589910664,
                0.1412380345834236,
                -2.2930342021273726
            ]
        },
        {
            "positions": [
                -0.014935606521063363,
                -1.545672529416325,
                1.948949597064341,
                -0.15570121585313798,
                0.11110944842028353,
                -2.4181430023036348
            ]
        },
        {
            "positions": [
                0.033082544038677095,
                -1.5846209631266504,
                2.0001856964896065,
                -0.08577198580716935,
                0.08098086225714346,
                -2.5432518024798973
            ]
        },
        {
            "positions": [
                0.08110069459841761,
                -1.623569396836976,
                2.051421795914872,
                -0.0158427557612007,
                0.05085227609400339,
                -2.6683606026561595
            ]
        },
        {
            "positions": [
                0.12911884515815808,
                -1.6625178305473014,
                2.102657895340138,
                0.05408647428476793,
                0.02072368993086332,
                -2.793469402832422
            ]
        },
        {
            "positions": [
                0.16209885977830668,
                -1.6831806151120856,
                2.1338227217457613,
                0.015053888735044374,
                0.06981330216844578,
                -2.840515876400721
            ]
        },
        {
            "positions": [
                0.24006252013604076,
                -1.7150652462107956,
                2.170383967793538,
                -0.05164771412638061,
                0.16135344858365616,
                -2.88290384610366
            ]
        },
        {
            "positions": [
                0.31802618049377485,
                -1.7469498773095054,
                2.206945213841315,
                -0.1183493169878056,
                0.25289359499886654,
                -2.925291815806599
            ]
        },
        {
            "positions": [
                0.3959898408515089,
                -1.7788345084082153,
                2.2435064598890917,
                -0.18505091984923058,
                0.3444337414140769,
                -2.967679785509538
            ]
        },
        {
            "positions": [
                0.473953501209243,
                -1.8107191395069253,
                2.2800677059368684,
                -0.25175252271065557,
                0.4359738878292873,
                -3.0100677552124773
            ]
        },
        {
            "positions": [
                0.5519171615669771,
                -1.8426037706056353,
                2.316628951984645,
                -0.3184541255720806,
                0.5275140342444977,
                -3.0524557249154163
            ]
        },
        {
            "positions": [
                0.6298808219247112,
                -1.874488401704345,
                2.353190198032422,
                -0.38515572843350554,
                0.6190541806597081,
                -3.0948436946183553
            ]
        },
        {
            "positions": [
                0.7078444822824452,
                -1.906373032803055,
                2.389751444080199,
                -0.45185733129493055,
                0.7105943270749185,
                -3.1372316643212943
            ]
        }
    ]
}