{
    "goal": {
        "global_pose": {
            "orientation": {
                "w": 0.7031023502349854,
                "x": -0.7110244035720825,
                "y": 0.007748599164187908,
                "z": 0.005598929710686207
            },
            "position": {
                "x": 0.11585023208521307,
                "y": 0.44412534475326537,
                "z": 0.3711530566215515
            }
        },
        "name": "move_to_auspresseinheit_A"
    },
    "id": "BKPIECE_move_to_auspresseinheit_A_148",
    "joint_names": [
        "shoulder_pan_joint",
        "shoulder_lift_joint",
        "elbow_joint",
        "wrist_1_joint",
        "wrist_2_joint",
        "wrist_3_joint"
    ],
    "metrics": {
        "cart_traj_len": 4.115778235028905,
        "distance_elbow_joint": 5.493736992664839,
        "distance_shoulder_lift_joint": 1.1102194293535752,
        "distance_shoulder_pan_joint": 1.3443115362650342,
        "distance_wrist_1_joint": 3.5543387412279204,
        "distance_wrist_2_joint": 1.4337702532425576,
        "distance_wrist_3_joint": 5.220257290385396,
        "smoothness": 0.8628419186590027,
        "time": 0.26567858,
        "traj_len": 4.26106022524199,
        "weighted_distance": 5.795278924985458
    },
    "planner": "BKPIECE",
    "start": {
        "state": {
            "elbow_joint": 2.422574709923281,
            "shoulder_lift_joint": -1.3736533754116391,
            "shoulder_pan_joint": -0.33786336945926293,
            "wrist_1_joint": -1.0288603412921917,
            "wrist_2_joint": 1.2330224858903978,
            "wrist_3_joint": -3.094022268022082
        }
    },
    "waypoints": [
        {
            "positions": [
                -0.33786336945926293,
                -1.3736533754116391,
                2.422574709923281,
                -1.0288603412921917,
                1.2330224858903978,
                -3.094022268022082
            ]
        },
        {
            "positions": [
                -0.3441050174344161,
                -1.4064867167871955,
                2.307567631800274,
                -0.9465610327892734,
                1.193478271991748,
                -2.9858698589126234
            ]
        },
        {
            "positions": [
                -0.3503466654095693,
                -1.439320058162752,
                2.1925605536772665,
                -0.8642617242863551,
                1.1539340580930986,
                -2.877717449803165
            ]
        },
        {
            "positions": [
                -0.3565883133847226,
                -1.4721533995383085,
                2.0775534755542595,
                -0.7819624157834368,
                1.1143898441944489,
                -2.7695650406937062
            ]
        },
        {
            "positions": [
                -0.3628299613598758,
                -1.504986740913865,
                1.9625463974312523,
                -0.6996631072805185,
                1.0748456302957994,
                -2.6614126315842475
            ]
        },
        {
            "positions": [
                -0.36907160933502897,
                -1.5378200822894215,
                1.847539319308245,
                -0.6173637987776002,
                1.0353014163971497,
                -2.5532602224747887
            ]
        },
        {
            "positions": [
                -0.37531325731018217,
                -1.5706534236649778,
                1.7325322411852377,
                -0.5350644902746818,
                0.9957572024985001,
                -2.44510781336533
            ]
        },
        {
            "positions": [
                -0.3815549052853354,
                -1.6034867650405344,
                1.6175251630622305,
                -0.4527651817717635,
                0.9562129885998505,
                -2.3369554042558716
            ]
        },
        {
            "positions": [
                -0.3877965532604886,
                -1.6363201064160908,
                1.5025180849392235,
                -0.3704658732688453,
                0.9166687747012009,
                -2.228802995146413
            ]
        },
        {
            "positions": [
                -0.3940382012356418,
                -1.6691534477916474,
                1.387511006816216,
                -0.28816656476592684,
                0.8771245608025513,
                -2.120650586036954
            ]
        },
        {
            "positions": [
                -0.400279849210795,
                -1.7019867891672038,
                1.2725039286932087,
                -0.2058672562630085,
                0.8375803469039016,
                -2.0124981769274957
            ]
        },
        {
            "positions": [
                -0.4065214971859482,
                -1.7348201305427602,
                1.1574968505702017,
                -0.12356794776009028,
                0.7980361330052521,
                -1.9043457678180369
            ]
        },
        {
            "positions": [
                -0.41276314516110146,
                -1.7676534719183168,
                1.0424897724471944,
                -0.041268639257171946,
                0.7584919191066024,
                -1.796193358708578
            ]
        },
        {
            "positions": [
                -0.4190047931362546,
                -1.8004868132938732,
                0.9274826943241874,
                0.041030669245746276,
                0.7189477052079528,
                -1.6880409495991195
            ]
        },
        {
            "positions": [
                -0.42524644111140786,
                -1.8333201546694298,
                0.8124756162011799,
                0.12332997774866472,
                0.6794034913093031,
                -1.5798885404896608
            ]
        },
        {
            "positions": [
                -0.43148808908656106,
                -1.8661534960449861,
                0.6974685380781729,
                0.20562928625158294,
                0.6398592774106535,
                -1.4717361313802022
            ]
        },
        {
            "positions": [
                -0.43772973706171425,
                -1.8989868374205425,
                0.5824614599551656,
                0.28792859475450117,
                0.600315063512004,
                -1.3635837222707434
            ]
        },
        {
            "positions": [
                -0.4439713850368675,
                -1.9318201787960991,
                0.46745438183215815,
                0.3702279032574196,
                0.5607708496133543,
                -1.2554313131612846
            ]
        },
        {
            "positions": [
                -0.4502130330120207,
                -1.9646535201716557,
                0.3524473037091509,
                0.45252721176033806,
                0.5212266357147047,
                -1.147278904051826
            ]
        },
        {
            "positions": [
                -0.4564546809871739,
                -1.9974868615472121,
                0.23744022558614386,
                0.5348265202632563,
                0.48168242181605514,
                -1.0391264949423675
            ]
        },
        {
            "positions": [
                -0.4626963289623271,
                -2.0303202029227685,
                0.12243314746313638,
                0.6171258287661747,
                0.44213820791740543,
                -0.9309740858329087
            ]
        },
        {
            "positions": [
                -0.4689379769374803,
                -2.0631535442983253,
                0.007426069340129349,
                0.699425137269093,
                0.40259399401875595,
                -0.82282167672345
            ]
        },
        {
            "positions": [
                -0.47517962491263355,
                -2.0959868856738817,
                -0.10758100878287769,
                0.7817244457720112,
                0.36304978012010636,
                -0.7146692676139916
            ]
        },
        {
            "positions": [
                -0.48142127288778674,
                -2.128820227049438,
                -0.22258808690588516,
                0.8640237542749296,
                0.32350556622145665,
                -0.6065168585045329
            ]
        },
        {
            "positions": [
                -0.48766292086293994,
                -2.1616535684249945,
                -0.3375951650288924,
                0.9463230627778478,
                0.28396135232280706,
                -0.49836444939507407
            ]
        },
        {
            "positions": [
                -0.43925271184836034,
                -2.1485982515439854,
                -0.21540537418446112,
                0.8780305974798895,
                0.3046749159876496,
                -0.6142144393870528
            ]
        },
        {
            "positions": [
                -0.39084250283378075,
                -2.135542934662977,
                -0.09321558334002983,
                0.8097381321819312,
                0.3253884796524922,
                -0.7300644293790314
            ]
        },
        {
            "positions": [
                -0.34243229381920115,
                -2.122487617781968,
                0.02897420750440144,
                0.741445666883973,
                0.34610204331733474,
                -0.84591441937101
            ]
        },
        {
            "positions": [
                -0.29402208480462155,
                -2.1094323009009592,
                0.15116399834883276,
                0.6731532015860147,
                0.3668156069821773,
                -0.9617644093629887
            ]
        },
        {
            "positions": [
                -0.245611875790042,
                -2.09637698401995,
                0.27335378919326403,
                0.6048607362880563,
                0.38752917064701986,
                -1.0776143993549674
            ]
        },
        {
            "positions": [
                -0.19720166677546241,
                -2.083321667138941,
                0.3955435800376953,
                0.5365682709900981,
                0.4082427343118624,
                -1.1934643893469459
            ]
        },
        {
            "positions": [
                -0.14879145776088282,
                -2.0702663502579326,
                0.5177333708821267,
                0.4682758056921397,
                0.428956297976705,
                -1.3093143793389248
            ]
        },
        {
            "positions": [
                -0.10038124874630322,
                -2.0572110333769236,
                0.6399231617265579,
                0.3999833403941814,
                0.44966986164154754,
                -1.4251643693309033
            ]
        },
        {
            "positions": [
                -0.05197103973172362,
                -2.044155716495915,
                0.7621129525709893,
                0.3316908750962231,
                0.4703834253063901,
                -1.5410143593228822
            ]
        },
        {
            "positions": [
                -0.003560830717144081,
                -2.031100399614906,
                0.8843027434154205,
                0.2633984097982648,
                0.49109698897123266,
                -1.6568643493148607
            ]
        },
        {
            "positions": [
                0.044849378297435516,
                -2.018045082733897,
                1.0064925342598519,
                0.1951059445003065,
                0.5118105526360752,
                -1.7727143393068394
            ]
        },
        {
            "positions": [
                0.09325958731201511,
                -2.0049897658528884,
                1.128682325104283,
                0.1268134792023482,
                0.5325241163009178,
                -1.888564329298818
            ]
        },
        {
            "positions": [
                0.1416697963265947,
                -1.9919344489718795,
                1.2508721159487146,
                0.058521013904389796,
                0.5532376799657603,
                -2.004414319290797
            ]
        },
        {
            "positions": [
                0.1900800053411743,
                -1.9788791320908707,
                1.3730619067931458,
                -0.009771451393568387,
                0.5739512436306029,
                -2.120264309282775
            ]
        },
        {
            "positions": [
                0.2384902143557538,
                -1.9658238152098617,
                1.495251697637577,
                -0.07806391669152668,
                0.5946648072954455,
                -2.236114299274754
            ]
        },
        {
            "positions": [
                0.2869004233703335,
                -1.952768498328853,
                1.6174414884820083,
                -0.14635638198948508,
                0.615378370960288,
                -2.351964289266733
            ]
        },
        {
            "positions": [
                0.335310632384913,
                -1.939713181447844,
                1.7396312793264397,
                -0.21464884728744327,
                0.6360919346251306,
                -2.4678142792587114
            ]
        },
        {
            "positions": [
                0.3837208413994927,
                -1.9266578645668353,
                1.861821070170871,
                -0.28294131258540167,
                0.6568054982899731,
                -2.5836642692506904
            ]
        },
        {
            "positions": [
                0.4321310504140722,
                -1.9136025476858265,
                1.9840108610153024,
                -0.35123377788335985,
                0.6775190619548157,
                -2.699514259242669
            ]
        },
        {
            "positions": [
                0.4805412594286518,
                -1.9005472308048175,
                2.1062006518597336,
                -0.41952624318131826,
                0.6982326256196583,
                -2.8153642492346473
            ]
        },
        {
            "positions": [
                0.5289514684432315,
                -1.8874919139238087,
                2.228390442704165,
                -0.48781870847927666,
                0.7189461892845008,
                -2.9312142392266263
            ]
        },
        {
            "positions": [
                0.5773616774578109,
                -1.8744365970427999,
                2.3505802335485964,
                -0.5561111737772348,
                0.7396597529493434,
                -3.0470642292186048
            ]
        },
        {
            "positions": [
                0.7068490639984174,
                -1.9094388620008251,
                2.3959719526837717,
                -0.47939007317443777,
                0.7106490339009129,
                -3.122963921153461
            ]
        }
    ]
}