{
    "goal": {
        "global_pose": {
            "orientation": {
                "w": 0.5084816217422485,
                "x": -0.49083608388900757,
                "y": 0.5182115435600281,
                "z": -0.4816462993621826
            },
            "position": {
                "x": 0.5540239810943604,
                "y": 0.030875300988554955,
                "z": 0.16403168439865112
            }
        },
        "name": "move_to_storage_A"
    },
    "id": "BKPIECE_move_to_storage_A_69",
    "joint_names": [
        "shoulder_pan_joint",
        "shoulder_lift_joint",
        "elbow_joint",
        "wrist_1_joint",
        "wrist_2_joint",
        "wrist_3_joint"
    ],
    "metrics": {
        "cart_traj_len": 0.3525200525798631,
        "distance_elbow_joint": 0.4480074103771994,
        "distance_shoulder_lift_joint": 0.23373015012794074,
        "distance_shoulder_pan_joint": 0.4601997001770598,
        "distance_wrist_1_joint": 0.23733357659713283,
        "distance_wrist_2_joint": 1.100398399404717,
        "distance_wrist_3_joint": 0.08745563116366739,
        "smoothness": 4.440892098500626e-16,
        "time": 0.097969927,
        "traj_len": 1.6022249741680217,
        "weighted_distance": 2.01984358458196
    },
    "planner": "BKPIECE",
    "start": {
        "state": {
            "elbow_joint": 1.9715463870305268,
            "shoulder_lift_joint": -1.1394903361783484,
            "shoulder_pan_joint": 0.12281147578464417,
            "wrist_1_joint": -0.7804599489681411,
            "wrist_2_joint": 0.12958660307563738,
            "wrist_3_joint": -3.1924946282119055
        }
    },
    "waypoints": [
        {
            "positions": [
                0.12281147578464417,
                -1.1394903361783484,
                1.9715463870305268,
                -0.7804599489681411,
                0.12958660307563738,
                -3.1924946282119055
            ]
        },
        {
            "positions": [
                0.05706866147363564,
                -1.1728803576251972,
                2.035547445655841,
                -0.8143647456248744,
                0.2867863744191684,
                -3.180000966617096
            ]
        },
        {
            "positions": [
                -0.008674152837372898,
                -1.2062703790720457,
                2.099548504281155,
                -0.8482695422816076,
                0.44398614576269935,
                -3.167507305022286
            ]
        },
        {
            "positions": [
                -0.07441696714838143,
                -1.2396604005188945,
                2.163549562906469,
                -0.8821743389383409,
                0.6011859171062304,
                -3.1550136434274765
            ]
        },
        {
            "positions": [
                -0.14015978145938995,
                -1.273050421965743,
                2.2275506215317833,
                -0.9160791355950741,
                0.7583856884497614,
                -3.1425199818326672
            ]
        },
        {
            "positions": [
                -0.20590259577039854,
                -1.3064404434125918,
                2.291551680157098,
                -0.9499839322518073,
                0.9155854597932924,
                -3.1300263202378575
            ]
        },
        {
            "positions": [
                -0.271645410081407,
                -1.3398304648594404,
                2.355552738782412,
                -0.9838887289085406,
                1.0727852311368233,
                -3.117532658643048
            ]
        },
        {
            "positions": [
                -0.3373882243924156,
                -1.3732204863062891,
                2.419553797407726,
                -1.017793525565274,
                1.2299850024803545,
                -3.105038997048238
            ]
        }
    ]
}