{
    "goal": {
        "global_pose": {
            "orientation": {
                "w": 0.7031023502349854,
                "x": -0.7110244035720825,
                "y": 0.007748599164187908,
                "z": 0.005598929710686207
            },
            "position": {
                "x": 0.11585023208521307,
                "y": 0.44412534475326537,
                "z": 0.3711530566215515
            }
        },
        "name": "move_to_auspresseinheit_A"
    },
    "id": "BKPIECE_move_to_auspresseinheit_A_12",
    "joint_names": [
        "shoulder_pan_joint",
        "shoulder_lift_joint",
        "elbow_joint",
        "wrist_1_joint",
        "wrist_2_joint",
        "wrist_3_joint"
    ],
    "metrics": {
        "cart_traj_len": 1.2025408723290034,
        "distance_elbow_joint": 1.4457171376470654,
        "distance_shoulder_lift_joint": 0.557405895382252,
        "distance_shoulder_pan_joint": 1.0438539474775608,
        "distance_wrist_1_joint": 2.1947689764221043,
        "distance_wrist_2_joint": 1.4587468430574138,
        "distance_wrist_3_joint": 1.8568864404293128,
        "smoothness": 1.0028994259834862,
        "time": 0.246953419,
        "traj_len": 2.925299854786806,
        "weighted_distance": 3.990572382597997
    },
    "planner": "BKPIECE",
    "start": {
        "state": {
            "elbow_joint": 2.422574709923281,
            "shoulder_lift_joint": -1.3736533754116391,
            "shoulder_pan_joint": -0.33786336945926293,
            "wrist_1_joint": -1.0288603412921917,
            "wrist_2_joint": 1.2330224858903978,
            "wrist_3_joint": -3.094022268022082
        }
    },
    "waypoints": [
        {
            "positions": [
                -0.33786336945926293,
                -1.3736533754116391,
                2.422574709923281,
                -1.0288603412921917,
                1.2330224858903978,
                -3.094022268022082
            ]
        },
        {
            "positions": [
                -0.31466021773950503,
                -1.4094304801071036,
                2.3658875380831303,
                -0.9230082474375935,
                1.1564078463684107,
                -3.0237618679498235
            ]
        },
        {
            "positions": [
                -0.2914570660197472,
                -1.445207584802568,
                2.309200366242979,
                -0.8171561535829952,
                1.0797932068464235,
                -2.953501467877565
            ]
        },
        {
            "positions": [
                -0.26825391429998935,
                -1.4809846894980325,
                2.2525131944028285,
                -0.7113040597283968,
                1.0031785673244364,
                -2.8832410678053066
            ]
        },
        {
            "positions": [
                -0.24505076258023145,
                -1.5167617941934968,
                2.195826022562678,
                -0.6054519658737987,
                0.9265639278024492,
                -2.812980667733048
            ]
        },
        {
            "positions": [
                -0.22184761086047358,
                -1.5525388988889612,
                2.1391388507225266,
                -0.4995998720192003,
                0.849949288280462,
                -2.7427202676607894
            ]
        },
        {
            "positions": [
                -0.1986444591407157,
                -1.5883160035844257,
                2.082451678882376,
                -0.39374777816460205,
                0.7733346487584749,
                -2.6724598675885307
            ]
        },
        {
            "positions": [
                -0.17544130742095787,
                -1.6240931082798902,
                2.025764507042225,
                -0.2878956843100039,
                0.6967200092364879,
                -2.6021994675162725
            ]
        },
        {
            "positions": [
                -0.15223815570119997,
                -1.6598702129753546,
                1.9690773352020743,
                -0.18204359045540552,
                0.6201053697145007,
                -2.531939067444014
            ]
        },
        {
            "positions": [
                -0.12903500398144213,
                -1.695647317670819,
                1.9123901633619234,
                -0.07619149660080737,
                0.5434907301925136,
                -2.4616786673717552
            ]
        },
        {
            "positions": [
                -0.10583185226168423,
                -1.7314244223662834,
                1.8557029915217726,
                0.02966059725379111,
                0.4668760906705264,
                -2.3914182672994966
            ]
        },
        {
            "positions": [
                -0.08262870054192639,
                -1.7672015270617478,
                1.799015819681622,
                0.13551269110838926,
                0.3902614511485394,
                -2.321157867227238
            ]
        },
        {
            "positions": [
                -0.059425548822168495,
                -1.8029786317572123,
                1.7423286478414708,
                0.24136478496298763,
                0.31364681162655217,
                -2.2508974671549797
            ]
        },
        {
            "positions": [
                -0.03622239710241066,
                -1.8387557364526768,
                1.68564147600132,
                0.3472168788175857,
                0.23703217210456504,
                -2.180637067082721
            ]
        },
        {
            "positions": [
                0.02085083223219073,
                -1.8522223509254843,
                1.7671775771430114,
                0.28145949372739737,
                0.29232703557757506,
                -2.295567533218507
            ]
        },
        {
            "positions": [
                0.07792406156679213,
                -1.8656889653982918,
                1.848713678284703,
                0.21570210863720907,
                0.3476218990505851,
                -2.410497999354293
            ]
        },
        {
            "positions": [
                0.13499729090139354,
                -1.879155579871099,
                1.9302497794263942,
                0.14994472354702074,
                0.4029167625235951,
                -2.5254284654900787
            ]
        },
        {
            "positions": [
                0.1920705202359949,
                -1.8926221943439065,
                2.0117858805680857,
                0.08418733845683246,
                0.45821162599660514,
                -2.6403589316258644
            ]
        },
        {
            "positions": [
                0.24914374957059632,
                -1.906088808816714,
                2.093321981709777,
                0.018429953366644103,
                0.5135064894696152,
                -2.7552893977616506
            ]
        },
        {
            "positions": [
                0.3062169789051977,
                -1.9195554232895216,
                2.1748580828514683,
                -0.04732743172354422,
                0.5688013529426252,
                -2.8702198638974363
            ]
        },
        {
            "positions": [
                0.4061603786834727,
                -1.916679461413429,
                2.2297499070702074,
                -0.1533642931663435,
                0.6015481900510056,
                -2.9336994745662457
            ]
        },
        {
            "positions": [
                0.5061037784617477,
                -1.9138034995373367,
                2.2846417312889464,
                -0.2594011546091428,
                0.6342950271593858,
                -2.9971790852350546
            ]
        },
        {
            "positions": [
                0.6060471782400227,
                -1.9109275376612445,
                2.3395335555076855,
                -0.3654380160519421,
                0.667041864267766,
                -3.0606586959038635
            ]
        },
        {
            "positions": [
                0.7059905780182977,
                -1.908051575785152,
                2.3944253797264246,
                -0.4714748774947414,
                0.6997887013761463,
                -3.124138306572673
            ]
        }
    ]
}