{
    "goal": {
        "global_pose": {
            "orientation": {
                "w": 0.7047431468963623,
                "x": -0.7094548344612122,
                "y": 0.0024358443915843964,
                "z": -0.0022348060738295317
            },
            "position": {
                "x": 0.6094750761985779,
                "y": 0.3671506643295288,
                "z": 0.19426114857196808
            }
        },
        "name": "move_to_magneteinheit_A"
    },
    "id": "BKPIECE_move_to_magneteinheit_A_97",
    "joint_names": [
        "shoulder_pan_joint",
        "shoulder_lift_joint",
        "elbow_joint",
        "wrist_1_joint",
        "wrist_2_joint",
        "wrist_3_joint"
    ],
    "metrics": {
        "cart_traj_len": 2.0637783058763133,
        "distance_elbow_joint": 3.875184305685444,
        "distance_shoulder_lift_joint": 1.0533311341785097,
        "distance_shoulder_pan_joint": 1.2418511909000287,
        "distance_wrist_1_joint": 1.13601043143527,
        "distance_wrist_2_joint": 1.4405759888793384,
        "distance_wrist_3_joint": 1.903585221862779,
        "smoothness": 1.5860328959332069e-16,
        "time": 0.21001895599999998,
        "traj_len": 3.2635162437072953,
        "weighted_distance": 4.1272624264736955
    },
    "planner": "BKPIECE",
    "start": {
        "state": {
            "elbow_joint": -1.919643507792019,
            "shoulder_lift_joint": -0.07675430207160344,
            "shoulder_pan_joint": -1.1188671864651873,
            "wrist_1_joint": 0.42560062535961957,
            "wrist_2_joint": 1.5706038300724876,
            "wrist_3_joint": 1.1188968870953055
        }
    },
    "waypoints": [
        {
            "positions": [
                -1.1188671864651873,
                -0.07675430207160344,
                -1.919643507792019,
                0.42560062535961957,
                1.5706038300724876,
                1.1188968870953055
            ]
        },
        {
            "positions": [
                -1.0728726979133345,
                -0.11576656630043713,
                -1.7761181631370027,
                0.38352616493609104,
                1.5172491638176973,
                1.1894000434605936
            ]
        },
        {
            "positions": [
                -1.0268782093614814,
                -0.15477883052927083,
                -1.6325928184819862,
                0.34145170451256257,
                1.463894497562907,
                1.2599031998258818
            ]
        },
        {
            "positions": [
                -0.9808837208096286,
                -0.19379109475810452,
                -1.4890674738269698,
                0.299377244089034,
                1.4105398313081168,
                1.3304063561911699
            ]
        },
        {
            "positions": [
                -0.9348892322577758,
                -0.23280335898693819,
                -1.3455421291719534,
                0.2573027836655055,
                1.3571851650533264,
                1.400909512556458
            ]
        },
        {
            "positions": [
                -0.8888947437059228,
                -0.2718156232157719,
                -1.202016784516937,
                0.215228323241977,
                1.303830498798536,
                1.471412668921746
            ]
        },
        {
            "positions": [
                -0.8429002551540699,
                -0.31082788744460554,
                -1.0584914398619205,
                0.17315386281844847,
                1.2504758325437457,
                1.5419158252870342
            ]
        },
        {
            "positions": [
                -0.796905766602217,
                -0.34984015167343924,
                -0.9149660952069041,
                0.13107940239492,
                1.1971211662889556,
                1.6124189816523222
            ]
        },
        {
            "positions": [
                -0.7509112780503641,
                -0.38885241590227293,
                -0.7714407505518877,
                0.08900494197139147,
                1.143766500034165,
                1.6829221380176103
            ]
        },
        {
            "positions": [
                -0.7049167894985111,
                -0.4278646801311066,
                -0.6279154058968712,
                0.046930481547862946,
                1.090411833779375,
                1.7534252943828985
            ]
        },
        {
            "positions": [
                -0.6589223009466583,
                -0.4668769443599403,
                -0.4843900612418548,
                0.00485602112433442,
                1.0370571675245845,
                1.8239284507481865
            ]
        },
        {
            "positions": [
                -0.6129278123948053,
                -0.5058892085887741,
                -0.34086471658683837,
                -0.037218439299194106,
                0.9837025012697942,
                1.8944316071134746
            ]
        },
        {
            "positions": [
                -0.5669333238429524,
                -0.5449014728176077,
                -0.19733937193182194,
                -0.07929289972272263,
                0.930347835015004,
                1.9649347634787628
            ]
        },
        {
            "positions": [
                -0.5209388352910995,
                -0.5839137370464413,
                -0.05381402727680551,
                -0.1213673601462511,
                0.8769931687602136,
                2.0354379198440506
            ]
        },
        {
            "positions": [
                -0.47494434673924657,
                -0.6229260012752751,
                0.08971131737821092,
                -0.16344182056977957,
                0.8236385025054234,
                2.105941076209339
            ]
        },
        {
            "positions": [
                -0.4289498581873936,
                -0.6619382655041088,
                0.2332366620332278,
                -0.20551628099330815,
                0.7702838362506329,
                2.176444232574627
            ]
        },
        {
            "positions": [
                -0.3829553696355408,
                -0.7009505297329424,
                0.3767620066882438,
                -0.24759074141683662,
                0.7169291699958427,
                2.2469473889399154
            ]
        },
        {
            "positions": [
                -0.3369608810836877,
                -0.7399627939617761,
                0.5202873513432607,
                -0.2896652018403652,
                0.6635745037410523,
                2.3174505453052037
            ]
        },
        {
            "positions": [
                -0.29096639253183487,
                -0.7789750581906099,
                0.6638126959982766,
                -0.3317396622638937,
                0.6102198374862621,
                2.3879537016704915
            ]
        },
        {
            "positions": [
                -0.24497190397998192,
                -0.8179873224194436,
                0.8073380406532935,
                -0.37381412268742226,
                0.5568651712314716,
                2.4584568580357793
            ]
        },
        {
            "positions": [
                -0.19897741542812908,
                -0.8569995866482771,
                0.9508633853083095,
                -0.4158885831109507,
                0.5035105049766815,
                2.5289600144010675
            ]
        },
        {
            "positions": [
                -0.15298292687627613,
                -0.8960118508771109,
                1.0943887299633264,
                -0.4579630435344793,
                0.45015583872189113,
                2.599463170766356
            ]
        },
        {
            "positions": [
                -0.10698843832442329,
                -0.9350241151059446,
                1.2379140746183424,
                -0.5000375039580078,
                0.3968011724671008,
                2.669966327131644
            ]
        },
        {
            "positions": [
                -0.06099394977257022,
                -0.9740363793347784,
                1.3814394192733592,
                -0.5421119643815362,
                0.34344650621231043,
                2.7404694834969323
            ]
        },
        {
            "positions": [
                -0.01499946122071738,
                -1.013048643563612,
                1.5249647639283752,
                -0.5841864248050648,
                0.2900918399575203,
                2.81097263986222
            ]
        },
        {
            "positions": [
                0.03099502733113546,
                -1.0520609077924457,
                1.668490108583392,
                -0.6262608852285934,
                0.23673717370272995,
                2.881475796227508
            ]
        },
        {
            "positions": [
                0.0769895158829883,
                -1.0910731720212794,
                1.812015453238408,
                -0.6683353456521217,
                0.1833825074479396,
                2.951978952592796
            ]
        },
        {
            "positions": [
                0.12298400443484134,
                -1.1300854362501132,
                1.9555407978934247,
                -0.7104098060756504,
                0.1300278411931492,
                3.0224821089580844
            ]
        }
    ]
}