{
    "goal": {
        "global_pose": {
            "orientation": {
                "w": 0.5084816217422485,
                "x": -0.49083608388900757,
                "y": 0.5182115435600281,
                "z": -0.4816462993621826
            },
            "position": {
                "x": 0.5540239810943604,
                "y": 0.030875300988554955,
                "z": 0.16403168439865112
            }
        },
        "name": "move_to_storage_A"
    },
    "id": "BKPIECE_move_to_storage_A_57",
    "joint_names": [
        "shoulder_pan_joint",
        "shoulder_lift_joint",
        "elbow_joint",
        "wrist_1_joint",
        "wrist_2_joint",
        "wrist_3_joint"
    ],
    "metrics": {
        "cart_traj_len": 0.35284695750636363,
        "distance_elbow_joint": 0.4485180836036764,
        "distance_shoulder_lift_joint": 0.23377034244464956,
        "distance_shoulder_pan_joint": 0.46132268097567664,
        "distance_wrist_1_joint": 0.23712100212200793,
        "distance_wrist_2_joint": 1.0983049596614647,
        "distance_wrist_3_joint": 0.10440962312439694,
        "smoothness": 4.440892098500626e-16,
        "time": 0.32341454000000003,
        "traj_len": 1.6073103906625728,
        "weighted_distance": 2.0316721930380743
    },
    "planner": "BKPIECE",
    "start": {
        "state": {
            "elbow_joint": 1.9715463870305268,
            "shoulder_lift_joint": -1.1394903361783484,
            "shoulder_pan_joint": 0.12281147578464417,
            "wrist_1_joint": -0.7804599489681411,
            "wrist_2_joint": 0.12958660307563738,
            "wrist_3_joint": -3.1924946282119055
        }
    },
    "waypoints": [
        {
            "positions": [
                0.12281147578464417,
                -1.1394903361783484,
                1.9715463870305268,
                -0.7804599489681411,
                0.12958660307563738,
                -3.1924946282119055
            ]
        },
        {
            "positions": [
                0.056908235645261804,
                -1.172886099384727,
                2.0356203989739092,
                -0.8143343778427137,
                0.2864873115987038,
                -3.1775789677655633
            ]
        },
        {
            "positions": [
                -0.008995004494120565,
                -1.2062818625911054,
                2.0996944109172913,
                -0.8482088067172862,
                0.44338802012177014,
                -3.1626633073192205
            ]
        },
        {
            "positions": [
                -0.07489824463350293,
                -1.239677625797484,
                2.1637684228606737,
                -0.8820832355918587,
                0.6002887286448365,
                -3.1477476468728782
            ]
        },
        {
            "positions": [
                -0.1408014847728853,
                -1.2730733890038624,
                2.227842434804056,
                -0.9159576644664313,
                0.7571894371679029,
                -3.132831986426536
            ]
        },
        {
            "positions": [
                -0.2067047249122677,
                -1.306469152210241,
                2.2919164467474387,
                -0.9498320933410038,
                0.9140901456909694,
                -3.1179163259801936
            ]
        },
        {
            "positions": [
                -0.27260796505165,
                -1.3398649154166193,
                2.3559904586908207,
                -0.9837065222155764,
                1.0709908542140356,
                -3.103000665533851
            ]
        },
        {
            "positions": [
                -0.33851120519103245,
                -1.373260678622998,
                2.420064470634203,
                -1.017580951090149,
                1.227891562737102,
                -3.0880850050875086
            ]
        }
    ]
}