{
    "goal": {
        "global_pose": {
            "orientation": {
                "w": 0.5084816217422485,
                "x": -0.49083608388900757,
                "y": 0.5182115435600281,
                "z": -0.4816462993621826
            },
            "position": {
                "x": 0.5540239810943604,
                "y": 0.030875300988554955,
                "z": 0.16403168439865112
            }
        },
        "name": "move_to_storage_A"
    },
    "id": "BKPIECE_move_to_storage_A_24",
    "joint_names": [
        "shoulder_pan_joint",
        "shoulder_lift_joint",
        "elbow_joint",
        "wrist_1_joint",
        "wrist_2_joint",
        "wrist_3_joint"
    ],
    "metrics": {
        "cart_traj_len": 0.352864408887098,
        "distance_elbow_joint": 0.4536450179004188,
        "distance_shoulder_lift_joint": 0.23478147180865006,
        "distance_shoulder_pan_joint": 0.46067859557465485,
        "distance_wrist_1_joint": 0.25958578506897456,
        "distance_wrist_2_joint": 1.101999416540601,
        "distance_wrist_3_joint": 0.0983750567591648,
        "smoothness": 1.3322676295501878e-15,
        "time": 0.250337561,
        "traj_len": 1.6152601473609334,
        "weighted_distance": 2.0414212350174985
    },
    "planner": "BKPIECE",
    "start": {
        "state": {
            "elbow_joint": 1.9715463870305268,
            "shoulder_lift_joint": -1.1394903361783484,
            "shoulder_pan_joint": 0.12281147578464417,
            "wrist_1_joint": -0.7804599489681411,
            "wrist_2_joint": 0.12958660307563738,
            "wrist_3_joint": -3.1924946282119055
        }
    },
    "waypoints": [
        {
            "positions": [
                0.12281147578464417,
                -1.1394903361783484,
                1.9715463870305268,
                -0.7804599489681411,
                0.12958660307563738,
                -3.1924946282119055
            ]
        },
        {
            "positions": [
                0.057000247845407775,
                -1.173030546436727,
                2.036352818159158,
                -0.8175436325494232,
                0.2870150911528661,
                -3.178441048674882
            ]
        },
        {
            "positions": [
                -0.008810980093828621,
                -1.2065707566951056,
                2.101159249287789,
                -0.8546273161307052,
                0.4444435792300948,
                -3.1643874691378584
            ]
        },
        {
            "positions": [
                -0.07462220803306503,
                -1.2401109669534842,
                2.1659656804164205,
                -0.8917109997119873,
                0.6018720673073236,
                -3.150333889600835
            ]
        },
        {
            "positions": [
                -0.1404334359723014,
                -1.2736511772118626,
                2.230772111545052,
                -0.9287946832932694,
                0.7593005553845523,
                -3.1362803100638112
            ]
        },
        {
            "positions": [
                -0.20624466391153784,
                -1.3071913874702412,
                2.295578542673683,
                -0.9658783668745514,
                0.9167290434617811,
                -3.122226730526788
            ]
        },
        {
            "positions": [
                -0.2720558918507742,
                -1.3407315977286198,
                2.360384973802314,
                -1.0029620504558336,
                1.0741575315390097,
                -3.108173150989764
            ]
        },
        {
            "positions": [
                -0.33786711979001066,
                -1.3742718079869984,
                2.4251914049309455,
                -1.0400457340371156,
                1.2315860196162385,
                -3.0941195714527407
            ]
        }
    ]
}