{
    "goal": {
        "global_pose": {
            "orientation": {
                "w": 0.7031023502349854,
                "x": -0.7110244035720825,
                "y": 0.007748599164187908,
                "z": 0.005598929710686207
            },
            "position": {
                "x": 0.11585023208521307,
                "y": 0.44412534475326537,
                "z": 0.3711530566215515
            }
        },
        "name": "move_to_auspresseinheit_A"
    },
    "id": "BKPIECE_move_to_auspresseinheit_A_62",
    "joint_names": [
        "shoulder_pan_joint",
        "shoulder_lift_joint",
        "elbow_joint",
        "wrist_1_joint",
        "wrist_2_joint",
        "wrist_3_joint"
    ],
    "metrics": {
        "cart_traj_len": 2.5299927217452143,
        "distance_elbow_joint": 2.7947136200900533,
        "distance_shoulder_lift_joint": 0.9163273396412801,
        "distance_shoulder_pan_joint": 1.7855013359390823,
        "distance_wrist_1_joint": 2.0372685763590175,
        "distance_wrist_2_joint": 1.997865190515712,
        "distance_wrist_3_joint": 4.493629839063429,
        "smoothness": 0.6979460572554148,
        "time": 0.26794392499999997,
        "traj_len": 3.7450375033647636,
        "weighted_distance": 5.200740269097291
    },
    "planner": "BKPIECE",
    "start": {
        "state": {
            "elbow_joint": 2.422574709923281,
            "shoulder_lift_joint": -1.3736533754116391,
            "shoulder_pan_joint": -0.33786336945926293,
            "wrist_1_joint": -1.0288603412921917,
            "wrist_2_joint": 1.2330224858903978,
            "wrist_3_joint": -3.094022268022082
        }
    },
    "waypoints": [
        {
            "positions": [
                -0.33786336945926293,
                -1.3736533754116391,
                2.422574709923281,
                -1.0288603412921917,
                1.2330224858903978,
                -3.094022268022082
            ]
        },
        {
            "positions": [
                -0.2898128347565206,
                -1.3709539676219866,
                2.3188758108858845,
                -0.9730918926037238,
                1.152919357050205,
                -3.011055940425246
            ]
        },
        {
            "positions": [
                -0.24176230005377827,
                -1.368254559832334,
                2.215176911848488,
                -0.9173234439152558,
                1.0728162282100124,
                -2.9280896128284093
            ]
        },
        {
            "positions": [
                -0.19371176535103596,
                -1.3655551520426814,
                2.1114780128110913,
                -0.8615549952267878,
                0.9927130993698198,
                -2.845123285231573
            ]
        },
        {
            "positions": [
                -0.14566123064829362,
                -1.3628557442530287,
                2.0077791137736947,
                -0.8057865465383197,
                0.9126099705296271,
                -2.7621569576347365
            ]
        },
        {
            "positions": [
                -0.0976106959455513,
                -1.3601563364633762,
                1.904080214736298,
                -0.7500180978498517,
                0.8325068416894343,
                -2.6791906300379003
            ]
        },
        {
            "positions": [
                -0.04956016124280899,
                -1.3574569286737237,
                1.8003813156989015,
                -0.6942496491613838,
                0.7524037128492418,
                -2.596224302441064
            ]
        },
        {
            "positions": [
                -0.0015096265400666442,
                -1.354757520884071,
                1.6966824166615049,
                -0.6384812004729158,
                0.6723005840090491,
                -2.5132579748442274
            ]
        },
        {
            "positions": [
                0.0465409081626757,
                -1.3520581130944185,
                1.5929835176241083,
                -0.5827127517844477,
                0.5921974551688564,
                -2.430291647247391
            ]
        },
        {
            "positions": [
                0.09459144286541799,
                -1.3493587053047658,
                1.4892846185867117,
                -0.5269443030959797,
                0.5120943263286637,
                -2.3473253196505546
            ]
        },
        {
            "positions": [
                0.14264197756816033,
                -1.3466592975151133,
                1.385585719549315,
                -0.47117585440751175,
                0.43199119748847103,
                -2.2643589920537184
            ]
        },
        {
            "positions": [
                0.2202337469646065,
                -1.386143028640517,
                1.3542622142232714,
                -0.40896981074849675,
                0.39316598157432053,
                -2.1482685641727643
            ]
        },
        {
            "positions": [
                0.2978255163610527,
                -1.4256267597659207,
                1.3229387088972275,
                -0.34676376708948176,
                0.35434076566017003,
                -2.0321781362918108
            ]
        },
        {
            "positions": [
                0.3754172857574989,
                -1.4651104908913242,
                1.2916152035711836,
                -0.2845577234304668,
                0.3155155497460195,
                -1.9160877084108567
            ]
        },
        {
            "positions": [
                0.453009055153945,
                -1.5045942220167279,
                1.26029169824514,
                -0.22235167977145182,
                0.276690333831869,
                -1.799997280529903
            ]
        },
        {
            "positions": [
                0.5306008245503913,
                -1.5440779531421316,
                1.2289681929190963,
                -0.16014563611243682,
                0.23786511791771844,
                -1.683906852648949
            ]
        },
        {
            "positions": [
                0.6081925939468373,
                -1.5835616842675353,
                1.1976446875930524,
                -0.09793959245342182,
                0.19903990200356794,
                -1.567816424767995
            ]
        },
        {
            "positions": [
                0.6857843633432836,
                -1.623045415392939,
                1.1663211822670085,
                -0.03573354879440682,
                0.1602146860894174,
                -1.451725996887041
            ]
        },
        {
            "positions": [
                0.7633761327397297,
                -1.6625291465183425,
                1.1349976769409649,
                0.02647249486460812,
                0.12138947017526691,
                -1.3356355690060875
            ]
        },
        {
            "positions": [
                0.8409679021361759,
                -1.7020128776437464,
                1.1036741716149212,
                0.08867853852362317,
                0.08256425426111641,
                -1.2195451411251335
            ]
        },
        {
            "positions": [
                0.9185596715326221,
                -1.74149660876915,
                1.0723506662888773,
                0.15088458218263812,
                0.04373903834696585,
                -1.1034547132441794
            ]
        },
        {
            "positions": [
                0.9961514409290683,
                -1.7809803398945536,
                1.0410271609628334,
                0.21309062584165306,
                0.004913822432815407,
                -0.9873642853632258
            ]
        },
        {
            "positions": [
                1.0737432103255145,
                -1.8204640710199573,
                1.0097036556367898,
                0.2752966695006681,
                -0.033911393481335164,
                -0.8712738574822718
            ]
        },
        {
            "positions": [
                1.0398447856372972,
                -1.8432467191368624,
                1.1263595522905547,
                0.23785457983846892,
                0.016268247912373218,
                -1.0026056427627532
            ]
        },
        {
            "positions": [
                1.00594636094908,
                -1.8660293672537676,
                1.2430154489443197,
                0.20041249017626972,
                0.0664478893060816,
                -1.1339374280432348
            ]
        },
        {
            "positions": [
                0.9720479362608628,
                -1.8888120153706727,
                1.3596713455980844,
                0.16297040051407052,
                0.11662753069978997,
                -1.2652692133237164
            ]
        },
        {
            "positions": [
                0.9381495115726457,
                -1.9115946634875778,
                1.4763272422518494,
                0.1255283108518713,
                0.16680717209349838,
                -1.3966009986041978
            ]
        },
        {
            "positions": [
                0.9042510868844285,
                -1.9343773116044827,
                1.5929831389056144,
                0.0880862211896721,
                0.21698681348720672,
                -1.5279327838846792
            ]
        },
        {
            "positions": [
                0.8703526621962112,
                -1.9571599597213878,
                1.7096390355593791,
                0.050644131527472935,
                0.2671664548809151,
                -1.6592645691651609
            ]
        },
        {
            "positions": [
                0.836454237507994,
                -1.979942607838293,
                1.826294932213144,
                0.013202041865273684,
                0.3173460962746235,
                -1.7905963544456425
            ]
        },
        {
            "positions": [
                0.8025558128197768,
                -2.0027252559551982,
                1.942950828866909,
                -0.024240047796925512,
                0.3675257376683319,
                -1.9219281397261239
            ]
        },
        {
            "positions": [
                0.7686573881315596,
                -2.025507904072103,
                2.0596067255206743,
                -0.06168213745912471,
                0.4177053790620403,
                -2.0532599250066053
            ]
        },
        {
            "positions": [
                0.7347589634433425,
                -2.048290552189008,
                2.1762626221744386,
                -0.0991242271213239,
                0.4678850204557486,
                -2.184591710287087
            ]
        },
        {
            "positions": [
                0.7008605387551252,
                -2.0710732003059134,
                2.2929185188282037,
                -0.1365663167835231,
                0.518064661849457,
                -2.3159234955675685
            ]
        },
        {
            "positions": [
                0.7010629556719085,
                -2.0380893285151225,
                2.3126440593506334,
                -0.20081603263991638,
                0.5538557130120946,
                -2.4811698536552327
            ]
        },
        {
            "positions": [
                0.7012653725886917,
                -2.0051054567243316,
                2.332369599873063,
                -0.2650657484963096,
                0.589646764174732,
                -2.6464162117428973
            ]
        },
        {
            "positions": [
                0.7014677895054748,
                -1.972121584933541,
                2.3520951403954924,
                -0.32931546435270287,
                0.6254378153373696,
                -2.8116625698305615
            ]
        },
        {
            "positions": [
                0.7016702064222581,
                -1.93913771314275,
                2.371820680917922,
                -0.39356518020909614,
                0.6612288665000072,
                -2.976908927918226
            ]
        },
        {
            "positions": [
                0.7018726233390413,
                -1.9061538413519592,
                2.391546221440352,
                -0.45781489606548936,
                0.6970199176626447,
                -3.1421552860058903
            ]
        }
    ]
}