{
    "goal": {
        "global_pose": {
            "orientation": {
                "w": -0.00223480608172531,
                "x": 0.0024358444001904467,
                "y": 0.7094548369677653,
                "z": -0.704743149386269
            },
            "position": {
                "x": 0.6205249238014221,
                "y": -0.6371506643295288,
                "z": 0.19426114857196808
            }
        },
        "name": "move_to_magneteinheit_B"
    },
    "id": "BKPIECE_move_to_magneteinheit_B_129",
    "joint_names": [
        "shoulder_pan_joint",
        "shoulder_lift_joint",
        "elbow_joint",
        "wrist_1_joint",
        "wrist_2_joint",
        "wrist_3_joint"
    ],
    "metrics": {
        "cart_traj_len": 1.4542309370939985,
        "distance_elbow_joint": 0.7327100798500299,
        "distance_shoulder_lift_joint": 1.249178537437159,
        "distance_shoulder_pan_joint": 1.6199696908300045,
        "distance_wrist_1_joint": 2.610275553995019,
        "distance_wrist_2_joint": 2.9507980999550987,
        "distance_wrist_3_joint": 3.131418199881493,
        "smoothness": 3.2297397183914985e-16,
        "time": 0.296795127,
        "traj_len": 3.506330013268688,
        "weighted_distance": 4.911034536191119
    },
    "planner": "BKPIECE",
    "start": {
        "state": {
            "elbow_joint": 2.39358713078474,
            "shoulder_lift_joint": -1.908514104345545,
            "shoulder_pan_joint": 0.7066247066606129,
            "wrist_1_joint": -0.4678290933515497,
            "wrist_2_joint": 0.7096259083745334,
            "wrist_3_joint": -3.1358149277392293
        }
    },
    "waypoints": [
        {
            "positions": [
                0.7066247066606129,
                -1.908514104345545,
                2.39358713078474,
                -0.4678290933515497,
                0.7096259083745334,
                -3.1358149277392293
            ]
        },
        {
            "positions": [
                0.6560006538221753,
                -1.8694772750506337,
                2.3706899407894264,
                -0.3862579822892054,
                0.6174134677509366,
                -3.0379581089929326
            ]
        },
        {
            "positions": [
                0.6053766009837377,
                -1.8304404457557224,
                2.347792750794113,
                -0.304686871226861,
                0.5252010271273397,
                -2.940101290246636
            ]
        },
        {
            "positions": [
                0.5547525481453,
                -1.7914036164608114,
                2.3248955607987996,
                -0.22311576016451667,
                0.43298858650374294,
                -2.842244471500339
            ]
        },
        {
            "positions": [
                0.5041284953068623,
                -1.7523667871659,
                2.3019983708034863,
                -0.14154464910217235,
                0.3407761458801461,
                -2.7443876527540425
            ]
        },
        {
            "positions": [
                0.45350444246842475,
                -1.7133299578709889,
                2.2791011808081727,
                -0.05997353803982802,
                0.24856370525654925,
                -2.646530834007746
            ]
        },
        {
            "positions": [
                0.40288038962998707,
                -1.6742931285760776,
                2.2562039908128595,
                0.02159757302251636,
                0.15635126463295246,
                -2.548674015261449
            ]
        },
        {
            "positions": [
                0.35225633679154944,
                -1.6352562992811663,
                2.233306800817546,
                0.10316868408486063,
                0.06413882400935556,
                -2.450817196515153
            ]
        },
        {
            "positions": [
                0.3016322839531118,
                -1.5962194699862553,
                2.2104096108222326,
                0.184739795147205,
                -0.028073616614241237,
                -2.352960377768856
            ]
        },
        {
            "positions": [
                0.2510082311146742,
                -1.557182640691344,
                2.187512420826919,
                0.2663109062095494,
                -0.12028605723783803,
                -2.2551035590225594
            ]
        },
        {
            "positions": [
                0.20038417827623656,
                -1.5181458113964328,
                2.164615230831606,
                0.34788201727189366,
                -0.21249849786143493,
                -2.1572467402762627
            ]
        },
        {
            "positions": [
                0.14976012543779893,
                -1.4791089821015215,
                2.141718040836292,
                0.42945312833423804,
                -0.30471093848503183,
                -2.059389921529966
            ]
        },
        {
            "positions": [
                0.09913607259936119,
                -1.4400721528066103,
                2.118820850840979,
                0.5110242393965825,
                -0.3969233791086285,
                -1.9615331027836693
            ]
        },
        {
            "positions": [
                0.048512019760923564,
                -1.401035323511699,
                2.0959236608456653,
                0.5925953504589268,
                -0.4891358197322254,
                -1.8636762840373726
            ]
        },
        {
            "positions": [
                -0.002112033077514064,
                -1.3619984942167878,
                2.073026470850352,
                0.674166461521271,
                -0.5813482603558223,
                -1.7658194652910761
            ]
        },
        {
            "positions": [
                -0.05273608591595169,
                -1.3229616649218767,
                2.0501292808550384,
                0.7557375725836155,
                -0.673560700979419,
                -1.6679626465447794
            ]
        },
        {
            "positions": [
                -0.10336013875438932,
                -1.2839248356269655,
                2.0272320908597252,
                0.8373086836459598,
                -0.7657731416030159,
                -1.5701058277984827
            ]
        },
        {
            "positions": [
                -0.15398419159282695,
                -1.2448880063320542,
                2.0043349008644116,
                0.918879794708304,
                -0.8579855822266128,
                -1.472249009052186
            ]
        },
        {
            "positions": [
                -0.20460824443126457,
                -1.2058511770371432,
                1.9814377108690984,
                1.0004509057706485,
                -0.9501980228502095,
                -1.3743921903058893
            ]
        },
        {
            "positions": [
                -0.2552322972697022,
                -1.166814347742232,
                1.9585405208737847,
                1.0820220168329928,
                -1.0424104634738063,
                -1.2765353715595928
            ]
        },
        {
            "positions": [
                -0.30585635010813983,
                -1.1277775184473207,
                1.9356433308784715,
                1.163593127895337,
                -1.1346229040974034,
                -1.1786785528132961
            ]
        },
        {
            "positions": [
                -0.35648040294657746,
                -1.0887406891524094,
                1.9127461408831579,
                1.2451642389576816,
                -1.226835344721,
                -1.0808217340669994
            ]
        },
        {
            "positions": [
                -0.4071044557850151,
                -1.0497038598574981,
                1.8898489508878447,
                1.3267353500200258,
                -1.3190477853445972,
                -0.9829649153207027
            ]
        },
        {
            "positions": [
                -0.4577285086234527,
                -1.0106670305625869,
                1.866951760892531,
                1.4083064610823701,
                -1.411260225968194,
                -0.885108096574406
            ]
        },
        {
            "positions": [
                -0.5083525614618906,
                -0.9716302012676757,
                1.8440545708972176,
                1.4898775721447146,
                -1.5034726665917906,
                -0.7872512778281093
            ]
        },
        {
            "positions": [
                -0.5589766143003282,
                -0.9325933719727645,
                1.8211573809019042,
                1.5714486832070587,
                -1.5956851072153877,
                -0.6893944590818126
            ]
        },
        {
            "positions": [
                -0.6096006671387658,
                -0.8935565426778533,
                1.7982601909065907,
                1.6530197942694032,
                -1.6878975478389844,
                -0.5915376403355159
            ]
        },
        {
            "positions": [
                -0.6602247199772034,
                -0.8545197133829421,
                1.7753630009112773,
                1.7345909053317476,
                -1.780109988462581,
                -0.49368082158921966
            ]
        },
        {
            "positions": [
                -0.7108487728156411,
                -0.8154828840880308,
                1.7524658109159639,
                1.8161620163940917,
                -1.8723224290861782,
                -0.39582400284292296
            ]
        },
        {
            "positions": [
                -0.7614728256540787,
                -0.7764460547931196,
                1.7295686209206504,
                1.8977331274564362,
                -1.9645348697097749,
                -0.29796718409662626
            ]
        },
        {
            "positions": [
                -0.8120968784925163,
                -0.7374092254982085,
                1.706671430925337,
                1.9793042385187807,
                -2.0567473103333715,
                -0.20011036535032956
            ]
        },
        {
            "positions": [
                -0.862720931330954,
                -0.6983723962032973,
                1.6837742409300236,
                2.0608753495811247,
                -2.1489597509569687,
                -0.10225354660403285
            ]
        },
        {
            "positions": [
                -0.9133449841693916,
                -0.6593355669083859,
                1.6608770509347102,
                2.142446460643469,
                -2.2411721915805654,
                -0.004396727857736039
            ]
        }
    ]
}