{
    "goal": {
        "global_pose": {
            "orientation": {
                "w": 0.7031023502349854,
                "x": -0.7110244035720825,
                "y": 0.007748599164187908,
                "z": 0.005598929710686207
            },
            "position": {
                "x": 0.11585023208521307,
                "y": 0.44412534475326537,
                "z": 0.3711530566215515
            }
        },
        "name": "move_to_auspresseinheit_A"
    },
    "id": "BKPIECE_move_to_auspresseinheit_A_37",
    "joint_names": [
        "shoulder_pan_joint",
        "shoulder_lift_joint",
        "elbow_joint",
        "wrist_1_joint",
        "wrist_2_joint",
        "wrist_3_joint"
    ],
    "metrics": {
        "cart_traj_len": 0.765299655037565,
        "distance_elbow_joint": 0.10154195782379771,
        "distance_shoulder_lift_joint": 0.8746178003610785,
        "distance_shoulder_pan_joint": 1.0403991133925439,
        "distance_wrist_1_joint": 1.1341520576484863,
        "distance_wrist_2_joint": 0.8766996162596512,
        "distance_wrist_3_joint": 2.0627680584628134,
        "smoothness": 1.236866414393865,
        "time": 0.393918824,
        "traj_len": 2.467828722571396,
        "weighted_distance": 3.4966507396052773
    },
    "planner": "BKPIECE",
    "start": {
        "state": {
            "elbow_joint": 2.422574709923281,
            "shoulder_lift_joint": -1.3736533754116391,
            "shoulder_pan_joint": -0.33786336945926293,
            "wrist_1_joint": -1.0288603412921917,
            "wrist_2_joint": 1.2330224858903978,
            "wrist_3_joint": -3.094022268022082
        }
    },
    "waypoints": [
        {
            "positions": [
                -0.33786336945926293,
                -1.3736533754116391,
                2.422574709923281,
                -1.0288603412921917,
                1.2330224858903978,
                -3.094022268022082
            ]
        },
        {
            "positions": [
                -0.2575577416389646,
                -1.437730305355121,
                2.4166118979300797,
                -0.9517858997302047,
                1.1687515264032116,
                -3.0022931638695076
            ]
        },
        {
            "positions": [
                -0.17725211381866632,
                -1.5018072352986027,
                2.410649085936878,
                -0.8747114581682176,
                1.1044805669160254,
                -2.9105640597169335
            ]
        },
        {
            "positions": [
                -0.09694648599836803,
                -1.5658841652420843,
                2.4046862739436765,
                -0.7976370166062305,
                1.040209607428839,
                -2.818834955564359
            ]
        },
        {
            "positions": [
                -0.016640858178069706,
                -1.629961095185566,
                2.398723461950475,
                -0.7205625750442435,
                0.9759386479416527,
                -2.7271058514117845
            ]
        },
        {
            "positions": [
                0.06366476964222856,
                -1.6940380251290479,
                2.3927606499572733,
                -0.6434881334822564,
                0.9116676884544666,
                -2.6353767472592105
            ]
        },
        {
            "positions": [
                0.14397039746252688,
                -1.7581149550725297,
                2.386797837964072,
                -0.5664136919202694,
                0.8473967289672804,
                -2.543647643106636
            ]
        },
        {
            "positions": [
                0.22427602528282514,
                -1.8221918850160115,
                2.38083502597087,
                -0.4893392503582823,
                0.783125769480094,
                -2.451918538954062
            ]
        },
        {
            "positions": [
                0.3045816531031235,
                -1.886268814959493,
                2.374872213977669,
                -0.41226480879629523,
                0.7188548099929077,
                -2.3601894348014874
            ]
        },
        {
            "positions": [
                0.3848872809234219,
                -1.9503457449029749,
                2.3689094019844674,
                -0.3351903672343082,
                0.6545838505057215,
                -2.268460330648913
            ]
        },
        {
            "positions": [
                0.46519290874372005,
                -2.0144226748464567,
                2.3629465899912656,
                -0.2581159256723211,
                0.5903128910185353,
                -2.1767312264963388
            ]
        },
        {
            "positions": [
                0.5454985365640184,
                -2.0784996047899384,
                2.3569837779980642,
                -0.18104148411033405,
                0.526041931531349,
                -2.0850021223437643
            ]
        },
        {
            "positions": [
                0.5769059780378709,
                -2.0445452905933825,
                2.3641739831777806,
                -0.2383081242036597,
                0.5599857439114695,
                -2.2957517049006633
            ]
        },
        {
            "positions": [
                0.6083134195117235,
                -2.0105909763968266,
                2.3713641883574965,
                -0.29557476429698537,
                0.59392955629159,
                -2.5065012874575627
            ]
        },
        {
            "positions": [
                0.6397208609855759,
                -1.976636662200271,
                2.378554393537213,
                -0.352841404390311,
                0.6278733686717105,
                -2.7172508700144613
            ]
        },
        {
            "positions": [
                0.6711283024594284,
                -1.9426823480037152,
                2.385744598716929,
                -0.4101080444836367,
                0.6618171810518311,
                -2.9280004525713608
            ]
        },
        {
            "positions": [
                0.702535743933281,
                -1.9087280338071593,
                2.392934803896645,
                -0.4673746845769623,
                0.6957609934319515,
                -3.13875003512826
            ]
        }
    ]
}