{
    "goal": {
        "global_pose": {
            "orientation": {
                "w": 0.5084816217422485,
                "x": -0.49083608388900757,
                "y": 0.5182115435600281,
                "z": -0.4816462993621826
            },
            "position": {
                "x": 0.5540239810943604,
                "y": 0.030875300988554955,
                "z": 0.16403168439865112
            }
        },
        "name": "move_to_storage_A"
    },
    "id": "BKPIECE_move_to_storage_A_73",
    "joint_names": [
        "shoulder_pan_joint",
        "shoulder_lift_joint",
        "elbow_joint",
        "wrist_1_joint",
        "wrist_2_joint",
        "wrist_3_joint"
    ],
    "metrics": {
        "cart_traj_len": 0.35242429809483783,
        "distance_elbow_joint": 0.4499546565260477,
        "distance_shoulder_lift_joint": 0.2353779662498341,
        "distance_shoulder_pan_joint": 0.4572376747573676,
        "distance_wrist_1_joint": 0.24273089960291727,
        "distance_wrist_2_joint": 1.113493600752886,
        "distance_wrist_3_joint": 0.09927765294210555,
        "smoothness": 8.881784197001252e-16,
        "time": 0.098086969,
        "traj_len": 1.6118537312148267,
        "weighted_distance": 2.037854817466439
    },
    "planner": "BKPIECE",
    "start": {
        "state": {
            "elbow_joint": 1.9715463870305268,
            "shoulder_lift_joint": -1.1394903361783484,
            "shoulder_pan_joint": 0.12281147578464417,
            "wrist_1_joint": -0.7804599489681411,
            "wrist_2_joint": 0.12958660307563738,
            "wrist_3_joint": -3.1924946282119055
        }
    },
    "waypoints": [
        {
            "positions": [
                0.12281147578464417,
                -1.1394903361783484,
                1.9715463870305268,
                -0.7804599489681411,
                0.12958660307563738,
                -3.1924946282119055
            ]
        },
        {
            "positions": [
                0.05749180796216309,
                -1.1731157599283246,
                2.035825623677105,
                -0.8151357917685579,
                0.28865711746890677,
                -3.1783121063630335
            ]
        },
        {
            "positions": [
                -0.00782785986031799,
                -1.206741183678301,
                2.1001048603236834,
                -0.8498116345689746,
                0.44772763186217623,
                -3.164129584514161
            ]
        },
        {
            "positions": [
                -0.07314752768279907,
                -1.2403666074282773,
                2.1643840969702617,
                -0.8844874773693914,
                0.6067981462554456,
                -3.149947062665289
            ]
        },
        {
            "positions": [
                -0.13846719550528014,
                -1.2739920311782535,
                2.2286633336168395,
                -0.9191633201698081,
                0.7658686606487151,
                -3.1357645408164165
            ]
        },
        {
            "positions": [
                -0.20378686332776125,
                -1.3076174549282298,
                2.292942570263418,
                -0.9538391629702249,
                0.9249391750419845,
                -3.1215820189675445
            ]
        },
        {
            "positions": [
                -0.2691065311502423,
                -1.3412428786782062,
                2.357221806909996,
                -0.9885150057706416,
                1.0840096894352538,
                -3.107399497118672
            ]
        },
        {
            "positions": [
                -0.3344261989727234,
                -1.3748683024281825,
                2.4215010435565745,
                -1.0231908485710584,
                1.2430802038285234,
                -3.0932169752698
            ]
        }
    ]
}