{
    "goal": {
        "global_pose": {
            "orientation": {
                "w": -0.00223480608172531,
                "x": 0.0024358444001904467,
                "y": 0.7094548369677653,
                "z": -0.704743149386269
            },
            "position": {
                "x": 0.6205249238014221,
                "y": -0.6371506643295288,
                "z": 0.19426114857196808
            }
        },
        "name": "move_to_magneteinheit_B"
    },
    "id": "BKPIECE_move_to_magneteinheit_B_95",
    "joint_names": [
        "shoulder_pan_joint",
        "shoulder_lift_joint",
        "elbow_joint",
        "wrist_1_joint",
        "wrist_2_joint",
        "wrist_3_joint"
    ],
    "metrics": {
        "cart_traj_len": 1.4518531481800856,
        "distance_elbow_joint": 0.7296366063829405,
        "distance_shoulder_lift_joint": 1.248595908376672,
        "distance_shoulder_pan_joint": 1.6205946838328975,
        "distance_wrist_1_joint": 2.6032615224106443,
        "distance_wrist_2_joint": 2.934553129897046,
        "distance_wrist_3_joint": 3.1323199663901513,
        "smoothness": 3.053113318408425e-16,
        "time": 0.274517202,
        "traj_len": 3.5027077835997615,
        "weighted_distance": 4.906262977295281
    },
    "planner": "BKPIECE",
    "start": {
        "state": {
            "elbow_joint": 2.39358713078474,
            "shoulder_lift_joint": -1.908514104345545,
            "shoulder_pan_joint": 0.7066247066606129,
            "wrist_1_joint": -0.4678290933515497,
            "wrist_2_joint": 0.7096259083745334,
            "wrist_3_joint": -3.1358149277392293
        }
    },
    "waypoints": [
        {
            "positions": [
                0.7066247066606129,
                -1.908514104345545,
                2.39358713078474,
                -0.4678290933515497,
                0.7096259083745334,
                -3.1358149277392293
            ]
        },
        {
            "positions": [
                0.6543474587950356,
                -1.8682368169785555,
                2.3700504660627097,
                -0.38385291520927084,
                0.6149629041843061,
                -3.0347723481782567
            ]
        },
        {
            "positions": [
                0.6020702109294582,
                -1.827959529611566,
                2.3465138013406794,
                -0.299876737066992,
                0.5202998999940789,
                -2.933729768617284
            ]
        },
        {
            "positions": [
                0.5497929630638809,
                -1.7876822422445766,
                2.322977136618649,
                -0.21590055892471316,
                0.42563689580385156,
                -2.8326871890563114
            ]
        },
        {
            "positions": [
                0.4975157151983036,
                -1.7474049548775872,
                2.299440471896619,
                -0.1319243807824343,
                0.3309738916136243,
                -2.731644609495339
            ]
        },
        {
            "positions": [
                0.44523846733272626,
                -1.7071276675105977,
                2.2759038071745885,
                -0.04794820264015548,
                0.23631088742339695,
                -2.630602029934366
            ]
        },
        {
            "positions": [
                0.3929612194671489,
                -1.6668503801436083,
                2.252367142452558,
                0.03602797550212339,
                0.14164788323316968,
                -2.5295594503733936
            ]
        },
        {
            "positions": [
                0.3406839716015716,
                -1.6265730927766189,
                2.228830477730528,
                0.12000415364440226,
                0.04698487904294235,
                -2.428516870812421
            ]
        },
        {
            "positions": [
                0.28840672373599424,
                -1.5862958054096294,
                2.205293813008497,
                0.20398033178668112,
                -0.04767812514728487,
                -2.3274742912514483
            ]
        },
        {
            "positions": [
                0.23612947587041688,
                -1.54601851804264,
                2.181757148286467,
                0.28795650992896,
                -0.1423411293375123,
                -2.2264317116904757
            ]
        },
        {
            "positions": [
                0.18385222800483958,
                -1.5057412306756508,
                2.1582204835644365,
                0.37193268807123875,
                -0.23700413352773952,
                -2.125389132129503
            ]
        },
        {
            "positions": [
                0.13157498013926217,
                -1.4654639433086611,
                2.134683818842406,
                0.4559088662135177,
                -0.33166713771796685,
                -2.0243465525685305
            ]
        },
        {
            "positions": [
                0.07929773227368486,
                -1.425186655941672,
                2.111147154120376,
                0.5398850443557965,
                -0.42633014190819407,
                -1.9233039730075578
            ]
        },
        {
            "positions": [
                0.02702048440810756,
                -1.3849093685746823,
                2.0876104893983456,
                0.6238612224980755,
                -0.5209931460984215,
                -1.8222613934465852
            ]
        },
        {
            "positions": [
                -0.025256763457469744,
                -1.344632081207693,
                2.0640738246763153,
                0.7078374006403543,
                -0.6156561502886487,
                -1.7212188138856126
            ]
        },
        {
            "positions": [
                -0.07753401132304716,
                -1.3043547938407036,
                2.040537159954285,
                0.791813578782633,
                -0.7103191544788762,
                -1.62017623432464
            ]
        },
        {
            "positions": [
                -0.12981125918862446,
                -1.2640775064737142,
                2.0170004952322547,
                0.875789756924912,
                -0.8049821586691032,
                -1.5191336547636674
            ]
        },
        {
            "positions": [
                -0.18208850705420176,
                -1.223800219106725,
                1.9934638305102244,
                0.9597659350671908,
                -0.8996451628593304,
                -1.418091075202695
            ]
        },
        {
            "positions": [
                -0.23436575491977918,
                -1.1835229317397353,
                1.969927165788194,
                1.0437421132094697,
                -0.994308167049558,
                -1.3170484956417219
            ]
        },
        {
            "positions": [
                -0.2866430027853565,
                -1.143245644372746,
                1.9463905010661637,
                1.1277182913517485,
                -1.0889711712397854,
                -1.2160059160807495
            ]
        },
        {
            "positions": [
                -0.3389202506509338,
                -1.1029683570057567,
                1.9228538363441334,
                1.2116944694940273,
                -1.1836341754300124,
                -1.1149633365197769
            ]
        },
        {
            "positions": [
                -0.3911974985165111,
                -1.0626910696387672,
                1.8993171716221031,
                1.295670647636306,
                -1.2782971796202398,
                -1.0139207569588042
            ]
        },
        {
            "positions": [
                -0.4434747463820886,
                -1.0224137822717776,
                1.8757805069000726,
                1.3796468257785852,
                -1.3729601838104672,
                -0.9128781773978316
            ]
        },
        {
            "positions": [
                -0.4957519942476659,
                -0.9821364949047883,
                1.8522438421780423,
                1.463623003920864,
                -1.4676231880006947,
                -0.811835597836859
            ]
        },
        {
            "positions": [
                -0.5480292421132432,
                -0.9418592075377988,
                1.828707177456012,
                1.5475991820631427,
                -1.5622861921909217,
                -0.7107930182758864
            ]
        },
        {
            "positions": [
                -0.6003064899788205,
                -0.9015819201708095,
                1.8051705127339817,
                1.6315753602054213,
                -1.6569491963811491,
                -0.6097504387149137
            ]
        },
        {
            "positions": [
                -0.6525837378443978,
                -0.8613046328038199,
                1.7816338480119511,
                1.7155515383477007,
                -1.7516122005713766,
                -0.5087078591539411
            ]
        },
        {
            "positions": [
                -0.7048609857099751,
                -0.8210273454368306,
                1.7580971832899208,
                1.7995277164899792,
                -1.8462752047616036,
                -0.4076652795929685
            ]
        },
        {
            "positions": [
                -0.7571382335755524,
                -0.7807500580698412,
                1.7345605185678905,
                1.8835038946322582,
                -1.940938208951831,
                -0.3066227000319959
            ]
        },
        {
            "positions": [
                -0.8094154814411297,
                -0.7404727707028518,
                1.7110238538458602,
                1.9674800727745367,
                -2.035601213142058,
                -0.20558012047102325
            ]
        },
        {
            "positions": [
                -0.8616927293067073,
                -0.7001954833358623,
                1.68748718912383,
                2.0514562509168157,
                -2.130264217332286,
                -0.10453754091005063
            ]
        },
        {
            "positions": [
                -0.9139699771722846,
                -0.659918195968873,
                1.6639505244017996,
                2.1354324290590947,
                -2.224927221522513,
                -0.003494961349077972
            ]
        }
    ]
}