{
    "goal": {
        "global_pose": {
            "orientation": {
                "w": 0.7047431468963623,
                "x": -0.7094548344612122,
                "y": 0.0024358443915843964,
                "z": -0.0022348060738295317
            },
            "position": {
                "x": 0.6094750761985779,
                "y": 0.3671506643295288,
                "z": 0.19426114857196808
            }
        },
        "name": "move_to_magneteinheit_A"
    },
    "id": "BKPIECE_move_to_magneteinheit_A_20",
    "joint_names": [
        "shoulder_pan_joint",
        "shoulder_lift_joint",
        "elbow_joint",
        "wrist_1_joint",
        "wrist_2_joint",
        "wrist_3_joint"
    ],
    "metrics": {
        "cart_traj_len": 1.877540789637797,
        "distance_elbow_joint": 3.9174891890836347,
        "distance_shoulder_lift_joint": 0.7010636292998828,
        "distance_shoulder_pan_joint": 1.2408530503212927,
        "distance_wrist_1_joint": 1.508728515278617,
        "distance_wrist_2_joint": 1.6974733306038372,
        "distance_wrist_3_joint": 1.1410233031852726,
        "smoothness": 2.3026848007699876e-16,
        "time": 0.202761241,
        "traj_len": 3.19478184196864,
        "weighted_distance": 3.9616763459456834
    },
    "planner": "BKPIECE",
    "start": {
        "state": {
            "elbow_joint": -1.919643507792019,
            "shoulder_lift_joint": -0.07675430207160344,
            "shoulder_pan_joint": -1.1188671864651873,
            "wrist_1_joint": 0.42560062535961957,
            "wrist_2_joint": 1.5706038300724876,
            "wrist_3_joint": 1.1188968870953055
        }
    },
    "waypoints": [
        {
            "positions": [
                -1.1188671864651873,
                -0.07675430207160344,
                -1.919643507792019,
                0.42560062535961957,
                1.5706038300724876,
                1.1188968870953055
            ]
        },
        {
            "positions": [
                -1.0711420691451377,
                -0.10371828781390663,
                -1.7689708466734178,
                0.4836286451780279,
                1.5053163942800323,
                1.0750113754343336
            ]
        },
        {
            "positions": [
                -1.023416951825088,
                -0.13068227355620982,
                -1.6182981855548164,
                0.5416566649964363,
                1.440028958487577,
                1.0311258637733616
            ]
        },
        {
            "positions": [
                -0.9756918345050382,
                -0.157646259298513,
                -1.467625524436215,
                0.5996846848148446,
                1.3747415226951218,
                0.9872403521123895
            ]
        },
        {
            "positions": [
                -0.9279667171849885,
                -0.1846102450408162,
                -1.3169528633176137,
                0.6577127046332529,
                1.3094540869026665,
                0.9433548404514175
            ]
        },
        {
            "positions": [
                -0.8802415998649388,
                -0.21157423078311938,
                -1.1662802021990124,
                0.7157407244516614,
                1.2441666511102112,
                0.8994693287904454
            ]
        },
        {
            "positions": [
                -0.832516482544889,
                -0.23853821652542256,
                -1.015607541080411,
                0.7737687442700696,
                1.1788792153177559,
                0.8555838171294734
            ]
        },
        {
            "positions": [
                -0.7847913652248393,
                -0.26550220226772575,
                -0.8649348799618097,
                0.831796764088478,
                1.1135917795253008,
                0.8116983054685014
            ]
        },
        {
            "positions": [
                -0.7370662479047896,
                -0.29246618801002894,
                -0.7142622188432084,
                0.8898247839068864,
                1.0483043437328452,
                0.7678127938075294
            ]
        },
        {
            "positions": [
                -0.6893411305847399,
                -0.3194301737523321,
                -0.5635895577246071,
                0.9478528037252947,
                0.9830169079403901,
                0.7239272821465574
            ]
        },
        {
            "positions": [
                -0.6416160132646902,
                -0.3463941594946353,
                -0.4129168966060057,
                1.0058808235437031,
                0.9177294721479348,
                0.6800417704855852
            ]
        },
        {
            "positions": [
                -0.5938908959446405,
                -0.3733581452369385,
                -0.2622442354874044,
                1.0639088433621113,
                0.8524420363554795,
                0.6361562588246132
            ]
        },
        {
            "positions": [
                -0.5461657786245907,
                -0.4003221309792417,
                -0.11157157436880305,
                1.1219368631805198,
                0.7871546005630242,
                0.5922707471636413
            ]
        },
        {
            "positions": [
                -0.498440661304541,
                -0.4272861167215449,
                0.039101086749798286,
                1.179964882998928,
                0.721867164770569,
                0.5483852355026693
            ]
        },
        {
            "positions": [
                -0.4507155439844913,
                -0.45425010246384806,
                0.18977374786839962,
                1.2379929028173364,
                0.6565797289781138,
                0.5044997238416973
            ]
        },
        {
            "positions": [
                -0.4029904266644416,
                -0.4812140882061512,
                0.34044640898700096,
                1.2960209226357446,
                0.5912922931856586,
                0.4606142121807253
            ]
        },
        {
            "positions": [
                -0.3552653093443918,
                -0.5081780739484545,
                0.4911190701056023,
                1.354048942454153,
                0.526004857393203,
                0.4167287005197532
            ]
        },
        {
            "positions": [
                -0.30754019202434213,
                -0.5351420596907577,
                0.6417917312242036,
                1.4120769622725615,
                0.4607174216007479,
                0.3728431888587812
            ]
        },
        {
            "positions": [
                -0.25981507470429244,
                -0.5621060454330609,
                0.792464392342805,
                1.4701049820909697,
                0.3954299858082926,
                0.3289576771978092
            ]
        },
        {
            "positions": [
                -0.21208995738424274,
                -0.589070031175364,
                0.9431370534614063,
                1.5281330019093782,
                0.3301425500158375,
                0.28507216553683723
            ]
        },
        {
            "positions": [
                -0.16436484006419294,
                -0.6160340169176672,
                1.0938097145800076,
                1.5861610217277866,
                0.2648551142233819,
                0.24118665387586502
            ]
        },
        {
            "positions": [
                -0.11663972274414314,
                -0.6429980026599704,
                1.244482375698609,
                1.6441890415461948,
                0.19956767843092682,
                0.19730114221489303
            ]
        },
        {
            "positions": [
                -0.06891460542409367,
                -0.6699619884022736,
                1.3951550368172103,
                1.7022170613646033,
                0.1342802426384715,
                0.15341563055392105
            ]
        },
        {
            "positions": [
                -0.021189488104043974,
                -0.6969259741445768,
                1.5458276979358117,
                1.7602450811830115,
                0.06899280684601639,
                0.10953011889294917
            ]
        },
        {
            "positions": [
                0.02653562921600594,
                -0.72388995988688,
                1.696500359054413,
                1.81827310100142,
                0.0037053710535608353,
                0.06564460723197696
            ]
        },
        {
            "positions": [
                0.07426074653605563,
                -0.7508539456291832,
                1.8471730201730143,
                1.8763011208198284,
                -0.06158206473889427,
                0.02175909557100497
            ]
        },
        {
            "positions": [
                0.12198586385610534,
                -0.7778179313714862,
                1.9978456812916159,
                1.9343291406382366,
                -0.12686950053134965,
                -0.022126416089967026
            ]
        }
    ]
}