{
    "goal": {
        "global_pose": {
            "orientation": {
                "w": 0.7047431468963623,
                "x": -0.7094548344612122,
                "y": 0.0024358443915843964,
                "z": -0.0022348060738295317
            },
            "position": {
                "x": 0.6094750761985779,
                "y": 0.3671506643295288,
                "z": 0.19426114857196808
            }
        },
        "name": "move_to_magneteinheit_A"
    },
    "id": "BKPIECE_move_to_magneteinheit_A_85",
    "joint_names": [
        "shoulder_pan_joint",
        "shoulder_lift_joint",
        "elbow_joint",
        "wrist_1_joint",
        "wrist_2_joint",
        "wrist_3_joint"
    ],
    "metrics": {
        "cart_traj_len": 2.0644592625376736,
        "distance_elbow_joint": 3.876416060078557,
        "distance_shoulder_lift_joint": 1.054137618096265,
        "distance_shoulder_pan_joint": 1.2426338517130957,
        "distance_wrist_1_joint": 1.1312366502042086,
        "distance_wrist_2_joint": 1.4331172411946975,
        "distance_wrist_3_joint": 1.9017237182230269,
        "smoothness": 5.392511831857478e-16,
        "time": 0.253850054,
        "traj_len": 3.26178864114612,
        "weighted_distance": 4.123962471622991
    },
    "planner": "BKPIECE",
    "start": {
        "state": {
            "elbow_joint": -1.919643507792019,
            "shoulder_lift_joint": -0.07675430207160344,
            "shoulder_pan_joint": -1.1188671864651873,
            "wrist_1_joint": 0.42560062535961957,
            "wrist_2_joint": 1.5706038300724876,
            "wrist_3_joint": 1.1188968870953055
        }
    },
    "waypoints": [
        {
            "positions": [
                -1.1188671864651873,
                -0.07675430207160344,
                -1.919643507792019,
                0.42560062535961957,
                1.5706038300724876,
                1.1188968870953055
            ]
        },
        {
            "positions": [
                -1.0728437104758135,
                -0.11579643607516882,
                -1.7760725426039243,
                0.3837029716483526,
                1.5175254137319432,
                1.1893310988813435
            ]
        },
        {
            "positions": [
                -1.0268202344864394,
                -0.1548385700787342,
                -1.6325015774158298,
                0.3418053179370856,
                1.464446997391399,
                1.2597653106673816
            ]
        },
        {
            "positions": [
                -0.9807967584970656,
                -0.19388070408229954,
                -1.488930612227735,
                0.2999076642258186,
                1.4113685810508545,
                1.3301995224534195
            ]
        },
        {
            "positions": [
                -0.9347732825076918,
                -0.23292283808586492,
                -1.3453596470396403,
                0.25801001051455164,
                1.3582901647103103,
                1.4006337342394577
            ]
        },
        {
            "positions": [
                -0.8887498065183178,
                -0.27196497208943027,
                -1.2017886818515455,
                0.21611235680328464,
                1.3052117483697658,
                1.4710679460254956
            ]
        },
        {
            "positions": [
                -0.8427263305289439,
                -0.31100710609299564,
                -1.0582177166634508,
                0.17421470309201764,
                1.2521333320292216,
                1.5415021578115338
            ]
        },
        {
            "positions": [
                -0.79670285453957,
                -0.350049240096561,
                -0.9146467514753562,
                0.13231704938075067,
                1.1990549156886772,
                1.6119363695975717
            ]
        },
        {
            "positions": [
                -0.7506793785501961,
                -0.3890913741001264,
                -0.7710757862872615,
                0.0904193956694837,
                1.1459764993481327,
                1.6823705813836098
            ]
        },
        {
            "positions": [
                -0.7046559025608221,
                -0.4281335081036917,
                -0.6275048210991667,
                0.048521741958216735,
                1.0928980830075885,
                1.7528047931696478
            ]
        },
        {
            "positions": [
                -0.6586324265714483,
                -0.4671756421072571,
                -0.4839338559110722,
                0.006624088246949711,
                1.039819666667044,
                1.8232390049556857
            ]
        },
        {
            "positions": [
                -0.6126089505820743,
                -0.5062177761108224,
                -0.34036289072297743,
                -0.03527356546431726,
                0.9867412503264997,
                1.8936732167417238
            ]
        },
        {
            "positions": [
                -0.5665854745927004,
                -0.5452599101143878,
                -0.19679192553488267,
                -0.07717121917558428,
                0.9336628339859554,
                1.964107428527762
            ]
        },
        {
            "positions": [
                -0.5205619986033265,
                -0.5843020441179532,
                -0.053220960346787916,
                -0.11906887288685125,
                0.8805844176454111,
                2.0345416403138
            ]
        },
        {
            "positions": [
                -0.4745385226139526,
                -0.6233441781215185,
                0.09035000484130662,
                -0.16096652659811822,
                0.8275060013048667,
                2.104975852099838
            ]
        },
        {
            "positions": [
                -0.4285150466245786,
                -0.6623863121250839,
                0.23392097002940182,
                -0.2028641803093852,
                0.7744275849643223,
                2.175410063885876
            ]
        },
        {
            "positions": [
                -0.3824915706352048,
                -0.7014284461286493,
                0.37749193521749613,
                -0.24476183402065216,
                0.721349168623778,
                2.2458442756719137
            ]
        },
        {
            "positions": [
                -0.3364680946458307,
                -0.7404705801322147,
                0.5210629004055909,
                -0.28665948773191924,
                0.6682707522832336,
                2.316278487457952
            ]
        },
        {
            "positions": [
                -0.2904446186564569,
                -0.77951271413578,
                0.6646338655936856,
                -0.3285571414431861,
                0.6151923359426893,
                2.38671269924399
            ]
        },
        {
            "positions": [
                -0.24442114266708292,
                -0.8185548481393454,
                0.8082048307817804,
                -0.3704547951544532,
                0.562113919602145,
                2.457146911030028
            ]
        },
        {
            "positions": [
                -0.19839766667770908,
                -0.8575969821429108,
                0.9517757959698747,
                -0.41235244886572014,
                0.5090355032616005,
                2.5275811228160663
            ]
        },
        {
            "positions": [
                -0.15237419068833513,
                -0.8966391161464762,
                1.09534676115797,
                -0.4542501025769871,
                0.4559570869210561,
                2.5980153346021044
            ]
        },
        {
            "positions": [
                -0.10635071469896129,
                -0.9356812501500416,
                1.2389177263460642,
                -0.4961477562882541,
                0.40287867058051186,
                2.668449546388142
            ]
        },
        {
            "positions": [
                -0.06032723870958723,
                -0.9747233841536069,
                1.3824886915341594,
                -0.5380454099995211,
                0.3498002542399674,
                2.7388837581741803
            ]
        },
        {
            "positions": [
                -0.014303762720213387,
                -1.0137655181571723,
                1.5260596567222537,
                -0.5799430637107881,
                0.2967218378994232,
                2.809317969960218
            ]
        },
        {
            "positions": [
                0.031719713269160454,
                -1.0528076521607377,
                1.6696306219103485,
                -0.621840717422055,
                0.24364342155887875,
                2.879752181746256
            ]
        },
        {
            "positions": [
                0.0777431892585343,
                -1.091849786164303,
                1.8132015870984433,
                -0.663738371133322,
                0.19056500521833453,
                2.9501863935322943
            ]
        },
        {
            "positions": [
                0.12376666524790836,
                -1.1308919201678684,
                1.956772552286538,
                -0.705636024844589,
                0.13748658887779003,
                3.0206206053183324
            ]
        }
    ]
}