{
    "goal": {
        "global_pose": {
            "orientation": {
                "w": 0.5084816217422485,
                "x": -0.49083608388900757,
                "y": 0.5182115435600281,
                "z": -0.4816462993621826
            },
            "position": {
                "x": 0.5540239810943604,
                "y": 0.030875300988554955,
                "z": 0.16403168439865112
            }
        },
        "name": "move_to_storage_A"
    },
    "id": "BKPIECE_move_to_storage_A_63",
    "joint_names": [
        "shoulder_pan_joint",
        "shoulder_lift_joint",
        "elbow_joint",
        "wrist_1_joint",
        "wrist_2_joint",
        "wrist_3_joint"
    ],
    "metrics": {
        "cart_traj_len": 0.3529165291074994,
        "distance_elbow_joint": 0.4485386937469049,
        "distance_shoulder_lift_joint": 0.23503611060974516,
        "distance_shoulder_pan_joint": 0.46246490193215795,
        "distance_wrist_1_joint": 0.24031362956531066,
        "distance_wrist_2_joint": 1.0940021137259095,
        "distance_wrist_3_joint": 0.1057679377471552,
        "smoothness": 4.440892133664971e-16,
        "time": 0.156339955,
        "traj_len": 1.608142837974035,
        "weighted_distance": 2.0327260036986576
    },
    "planner": "BKPIECE",
    "start": {
        "state": {
            "elbow_joint": 1.9715463870305268,
            "shoulder_lift_joint": -1.1394903361783484,
            "shoulder_pan_joint": 0.12281147578464417,
            "wrist_1_joint": -0.7804599489681411,
            "wrist_2_joint": 0.12958660307563738,
            "wrist_3_joint": -3.1924946282119055
        }
    },
    "waypoints": [
        {
            "positions": [
                0.12281147578464417,
                -1.1394903361783484,
                1.9715463870305268,
                -0.7804599489681411,
                0.12958660307563738,
                -3.1924946282119055
            ]
        },
        {
            "positions": [
                0.05674506122290733,
                -1.173066923408312,
                2.0356233432800845,
                -0.8147904674774712,
                0.2858726193221959,
                -3.1773849228194546
            ]
        },
        {
            "positions": [
                -0.00932135333882951,
                -1.2066435106382756,
                2.0997002995296423,
                -0.8491209859868013,
                0.44215863556875434,
                -3.162275217427004
            ]
        },
        {
            "positions": [
                -0.07538776790056635,
                -1.2402200978682392,
                2.1637772557792,
                -0.8834515044961313,
                0.5984446518153128,
                -3.147165512034553
            ]
        },
        {
            "positions": [
                -0.14145418246230318,
                -1.2737966850982028,
                2.227854212028758,
                -0.9177820230054614,
                0.7547306680618714,
                -3.1320558066421027
            ]
        },
        {
            "positions": [
                -0.20752059702404008,
                -1.3073732723281664,
                2.291931168278316,
                -0.9521125415147915,
                0.91101668430843,
                -3.1169461012496518
            ]
        },
        {
            "positions": [
                -0.27358701158577686,
                -1.34094985955813,
                2.356008124527874,
                -0.9864430600241216,
                1.0673027005549882,
                -3.1018363958572013
            ]
        },
        {
            "positions": [
                -0.33965342614751376,
                -1.3745264467880935,
                2.4200850807774317,
                -1.0207735785334517,
                1.223588716801547,
                -3.0867266904647503
            ]
        }
    ]
}