{
    "goal": {
        "global_pose": {
            "orientation": {
                "w": -0.00223480608172531,
                "x": 0.0024358444001904467,
                "y": 0.7094548369677653,
                "z": -0.704743149386269
            },
            "position": {
                "x": 0.6205249238014221,
                "y": -0.6371506643295288,
                "z": 0.19426114857196808
            }
        },
        "name": "move_to_magneteinheit_B"
    },
    "id": "BKPIECE_move_to_magneteinheit_B_135",
    "joint_names": [
        "shoulder_pan_joint",
        "shoulder_lift_joint",
        "elbow_joint",
        "wrist_1_joint",
        "wrist_2_joint",
        "wrist_3_joint"
    ],
    "metrics": {
        "cart_traj_len": 4.376877846315372,
        "distance_elbow_joint": 6.0667062710736595,
        "distance_shoulder_lift_joint": 2.949607900788495,
        "distance_shoulder_pan_joint": 2.2794585225830875,
        "distance_wrist_1_joint": 4.400309653274105,
        "distance_wrist_2_joint": 3.170969440061257,
        "distance_wrist_3_joint": 4.786027819252154,
        "smoothness": 0.47617081950872414,
        "time": 0.752024323,
        "traj_len": 4.863443184312197,
        "weighted_distance": 6.387207084389267
    },
    "planner": "BKPIECE",
    "start": {
        "state": {
            "elbow_joint": 2.39358713078474,
            "shoulder_lift_joint": -1.908514104345545,
            "shoulder_pan_joint": 0.7066247066606129,
            "wrist_1_joint": -0.4678290933515497,
            "wrist_2_joint": 0.7096259083745334,
            "wrist_3_joint": -3.1358149277392293
        }
    },
    "waypoints": [
        {
            "positions": [
                0.7066247066606129,
                -1.908514104345545,
                2.39358713078474,
                -0.4678290933515497,
                0.7096259083745334,
                -3.1358149277392293
            ]
        },
        {
            "positions": [
                0.7138034450104063,
                -1.9308408037309734,
                2.396398113879232,
                -0.503432129499993,
                0.5678133033894379,
                -3.067927322814302
            ]
        },
        {
            "positions": [
                0.7209821833601996,
                -1.9531675031164022,
                2.3992090969737236,
                -0.5390351656484365,
                0.4260006984043424,
                -3.0000397178893743
            ]
        },
        {
            "positions": [
                0.7281609217099929,
                -1.9754942025018307,
                2.4020200800682154,
                -0.5746382017968797,
                0.28418809341924683,
                -2.932152112964447
            ]
        },
        {
            "positions": [
                0.7315390430667273,
                -1.978241618895569,
                2.335563685644058,
                -0.5797864823051542,
                0.17910260716336784,
                -2.835970804621346
            ]
        },
        {
            "positions": [
                0.7349171644234618,
                -1.9809890352893071,
                2.2691072912199006,
                -0.5849347628134285,
                0.07401712090748888,
                -2.739789496278245
            ]
        },
        {
            "positions": [
                0.8093430175056913,
                -1.9882041028136326,
                2.1751881487001894,
                -0.6394062387480379,
                0.13286409197686833,
                -2.634187515783587
            ]
        },
        {
            "positions": [
                0.8837688705879208,
                -1.9954191703379582,
                2.081269006180478,
                -0.6938777146826474,
                0.19171106304624774,
                -2.5285855352889284
            ]
        },
        {
            "positions": [
                0.9581947236701502,
                -2.0026342378622837,
                1.987349863660767,
                -0.7483491906172568,
                0.25055803411562716,
                -2.42298355479427
            ]
        },
        {
            "positions": [
                1.0326205767523797,
                -2.0098493053866093,
                1.8934307211410557,
                -0.8028206665518663,
                0.30940500518500663,
                -2.3173815742996116
            ]
        },
        {
            "positions": [
                1.1070464298346092,
                -2.0170643729109345,
                1.7995115786213445,
                -0.8572921424864758,
                0.3682519762543861,
                -2.211779593804953
            ]
        },
        {
            "positions": [
                1.1814722829168387,
                -2.02427944043526,
                1.7055924361016332,
                -0.9117636184210852,
                0.4270989473237655,
                -2.1061776133102947
            ]
        },
        {
            "positions": [
                1.2558981359990682,
                -2.031494507959586,
                1.611673293581922,
                -0.9662350943556948,
                0.48594591839314505,
                -2.000575632815636
            ]
        },
        {
            "positions": [
                1.3303239890812977,
                -2.038709575483911,
                1.5177541510622108,
                -1.0207065702903042,
                0.5447928894625244,
                -1.894973652320978
            ]
        },
        {
            "positions": [
                1.4047498421635272,
                -2.0459246430082367,
                1.4238350085424998,
                -1.0751780462249136,
                0.6036398605319039,
                -1.7893716718263195
            ]
        },
        {
            "positions": [
                1.4791756952457566,
                -2.0531397105325624,
                1.3299158660227883,
                -1.129649522159523,
                0.6624868316012833,
                -1.6837696913316609
            ]
        },
        {
            "positions": [
                1.5536015483279861,
                -2.0603547780568876,
                1.2359967235030773,
                -1.1841209980941325,
                0.7213338026706627,
                -1.5781677108370025
            ]
        },
        {
            "positions": [
                1.6280274014102156,
                -2.0675698455812133,
                1.142077580983366,
                -1.238592474028742,
                0.7801807737400421,
                -1.472565730342344
            ]
        },
        {
            "positions": [
                1.7024532544924451,
                -2.074784913105539,
                1.0481584384636549,
                -1.2930639499633514,
                0.8390277448094217,
                -1.3669637498476856
            ]
        },
        {
            "positions": [
                1.7768791075746746,
                -2.0819999806298646,
                0.9542392959439436,
                -1.347535425897961,
                0.8978747158788012,
                -1.261361769353027
            ]
        },
        {
            "positions": [
                1.851304960656904,
                -2.08921504815419,
                0.8603201534242324,
                -1.4020069018325703,
                0.9567216869481805,
                -1.1557597888583688
            ]
        },
        {
            "positions": [
                1.9257308137391336,
                -2.0964301156785154,
                0.7664010109045212,
                -1.45647837776718,
                1.0155686580175598,
                -1.0501578083637104
            ]
        },
        {
            "positions": [
                2.000156666821363,
                -2.103645183202841,
                0.6724818683848099,
                -1.5109498537017894,
                1.0744156290869395,
                -0.9445558278690518
            ]
        },
        {
            "positions": [
                2.0745825199035925,
                -2.1108602507271663,
                0.5785627258650989,
                -1.5654213296363988,
                1.1332626001563189,
                -0.8389538473743936
            ]
        },
        {
            "positions": [
                2.149008372985822,
                -2.118075318251492,
                0.4846435833453875,
                -1.6198928055710082,
                1.1921095712256982,
                -0.733351866879735
            ]
        },
        {
            "positions": [
                2.2234342260680515,
                -2.1252903857758176,
                0.39072444082567626,
                -1.6743642815056177,
                1.2509565422950777,
                -0.6277498863850766
            ]
        },
        {
            "positions": [
                2.297860079150281,
                -2.132505453300143,
                0.29680529830596525,
                -1.7288357574402269,
                1.309803513364457,
                -0.5221479058904182
            ]
        },
        {
            "positions": [
                2.3722859322325105,
                -2.1397205208244685,
                0.20288615578625402,
                -1.7833072333748365,
                1.3686504844338365,
                -0.41654592539575974
            ]
        },
        {
            "positions": [
                2.44671178531474,
                -2.146935588348794,
                0.10896701326654279,
                -1.837778709309446,
                1.427497455503216,
                -0.31094394490110133
            ]
        },
        {
            "positions": [
                2.5211376383969695,
                -2.1541506558731194,
                0.01504787074683156,
                -1.8922501852440554,
                1.4863444265725954,
                -0.20534196440644292
            ]
        },
        {
            "positions": [
                2.595563491479199,
                -2.161365723397445,
                -0.07887127177287967,
                -1.9467216611786649,
                1.5451913976419749,
                -0.09973998391178451
            ]
        },
        {
            "positions": [
                2.610741683821607,
                -2.0819036696955906,
                -0.2512692384279571,
                -1.9073409509544088,
                1.5198172763120634,
                -0.037364551234349924
            ]
        },
        {
            "positions": [
                2.6259198761640143,
                -2.002441615993736,
                -0.4236672050830346,
                -1.8679602407301525,
                1.494443154982152,
                0.025010881443084665
            ]
        },
        {
            "positions": [
                2.6410980685064223,
                -1.9229795622918817,
                -0.5960651717381121,
                -1.8285795305058965,
                1.4690690336522405,
                0.08738631412051925
            ]
        },
        {
            "positions": [
                2.6562762608488297,
                -1.8435175085900273,
                -0.7684631383931896,
                -1.7891988202816402,
                1.443694912322329,
                0.14976174679795384
            ]
        },
        {
            "positions": [
                2.6714544531912376,
                -1.7640554548881728,
                -0.940861105048267,
                -1.7498181100573842,
                1.4183207909924176,
                0.2121371794753884
            ]
        },
        {
            "positions": [
                2.686632645533645,
                -1.6845934011863182,
                -1.1132590717033446,
                -1.710437399833128,
                1.3929466696625061,
                0.274512612152823
            ]
        },
        {
            "positions": [
                2.701810837876053,
                -1.6051313474844637,
                -1.285657038358422,
                -1.6710566896088719,
                1.367572548332595,
                0.3368880448302576
            ]
        },
        {
            "positions": [
                2.7169890302184605,
                -1.5256692937826093,
                -1.4580550050134995,
                -1.6316759793846156,
                1.3421984270026832,
                0.3992634775076922
            ]
        },
        {
            "positions": [
                2.7321672225608684,
                -1.4462072400807549,
                -1.630452971668577,
                -1.5922952691603596,
                1.316824305672772,
                0.4616389101851267
            ]
        },
        {
            "positions": [
                2.747345414903276,
                -1.3667451863789004,
                -1.8028509383236544,
                -1.5529145589361035,
                1.2914501843428605,
                0.5240143428625613
            ]
        },
        {
            "positions": [
                2.762523607245684,
                -1.287283132677046,
                -1.9752489049787318,
                -1.5135338487118473,
                1.266076063012949,
                0.5863897755399959
            ]
        },
        {
            "positions": [
                2.7777017995880913,
                -1.2078210789751913,
                -2.1476468716338095,
                -1.474153138487591,
                1.2407019416830376,
                0.6487652082174306
            ]
        },
        {
            "positions": [
                2.792879991930499,
                -1.1283590252733369,
                -2.320044838288887,
                -1.434772428263335,
                1.2153278203531261,
                0.7111406408948652
            ]
        },
        {
            "positions": [
                2.808058184272907,
                -1.0488969715714824,
                -2.4924428049439644,
                -1.395391718039079,
                1.1899536990232147,
                0.7735160735722997
            ]
        },
        {
            "positions": [
                2.8232363766153146,
                -0.969434917869628,
                -2.664840771599042,
                -1.3560110078148226,
                1.1645795776933032,
                0.8358915062497343
            ]
        },
        {
            "positions": [
                2.8136571499901155,
                -1.057954063528968,
                -2.606522391003576,
                -1.2189106294569905,
                1.1243693096985357,
                0.7879902482930758
            ]
        },
        {
            "positions": [
                2.8040779233649165,
                -1.1464732091883079,
                -2.54820401040811,
                -1.0818102510991583,
                1.084159041703768,
                0.7400889903364174
            ]
        },
        {
            "positions": [
                2.794498696739717,
                -1.2349923548476476,
                -2.4898856298126444,
                -0.9447098727413261,
                1.0439487737090005,
                0.692187732379759
            ]
        },
        {
            "positions": [
                2.784919470114518,
                -1.3235115005069875,
                -2.4315672492171783,
                -0.8076094943834939,
                1.003738505714233,
                0.6442864744231005
            ]
        },
        {
            "positions": [
                2.775340243489319,
                -1.4120306461663275,
                -2.3732488686217126,
                -0.6705091160256617,
                0.9635282377194653,
                0.596385216466442
            ]
        },
        {
            "positions": [
                2.76576101686412,
                -1.5005497918256672,
                -2.3149304880262465,
                -0.5334087376678295,
                0.9233179697246976,
                0.5484839585097836
            ]
        },
        {
            "positions": [
                2.7561817902389203,
                -1.589068937485007,
                -2.2566121074307808,
                -0.3963083593099974,
                0.88310770172993,
                0.5005827005531251
            ]
        },
        {
            "positions": [
                2.7466025636137212,
                -1.677588083144347,
                -2.198293726835315,
                -0.25920798095216524,
                0.8428974337351625,
                0.45268144259646675
            ]
        },
        {
            "positions": [
                2.737023336988522,
                -1.766107228803687,
                -2.139975346239849,
                -0.12210760259433284,
                0.8026871657403949,
                0.4047801846398083
            ]
        },
        {
            "positions": [
                2.727444110363323,
                -1.854626374463027,
                -2.0816569656443833,
                0.014992775763499333,
                0.7624768977456273,
                0.35687892668314986
            ]
        },
        {
            "positions": [
                2.7178648837381236,
                -1.9431455201223669,
                -2.0233385850489176,
                0.1520931541213315,
                0.7222666297508596,
                0.30897766872649135
            ]
        },
        {
            "positions": [
                2.7082856571129246,
                -2.0316646657817063,
                -1.9650202044534515,
                0.2891935324791637,
                0.6820563617560921,
                0.2610764107698329
            ]
        },
        {
            "positions": [
                2.6987064304877255,
                -2.1201838114410467,
                -1.9067018238579858,
                0.42629391083699564,
                0.6418460937613245,
                0.21317515281317456
            ]
        },
        {
            "positions": [
                2.6891272038625265,
                -2.208702957100386,
                -1.8483834432625197,
                0.5633942891948278,
                0.6016358257665569,
                0.1652738948565161
            ]
        },
        {
            "positions": [
                2.679547977237327,
                -2.297222102759726,
                -1.790065062667054,
                0.7004946675526602,
                0.5614255577717894,
                0.11737263689985766
            ]
        },
        {
            "positions": [
                2.669968750612128,
                -2.385741248419066,
                -1.731746682071588,
                0.8375950459104922,
                0.5212152897770217,
                0.06947137894319921
            ]
        },
        {
            "positions": [
                2.660389523986929,
                -2.474260394078406,
                -1.6734283014761222,
                0.9746954242683247,
                0.4810050217822541,
                0.02157012098654079
            ]
        }
    ]
}