{
    "goal": {
        "global_pose": {
            "orientation": {
                "w": 0.7047431468963623,
                "x": -0.7094548344612122,
                "y": 0.0024358443915843964,
                "z": -0.0022348060738295317
            },
            "position": {
                "x": 0.6094750761985779,
                "y": 0.3671506643295288,
                "z": 0.19426114857196808
            }
        },
        "name": "move_to_magneteinheit_A"
    },
    "id": "BKPIECE_move_to_magneteinheit_A_70",
    "joint_names": [
        "shoulder_pan_joint",
        "shoulder_lift_joint",
        "elbow_joint",
        "wrist_1_joint",
        "wrist_2_joint",
        "wrist_3_joint"
    ],
    "metrics": {
        "cart_traj_len": 1.876376405411559,
        "distance_elbow_joint": 3.918865159115909,
        "distance_shoulder_lift_joint": 0.7019789626852402,
        "distance_shoulder_pan_joint": 1.2408316735109584,
        "distance_wrist_1_joint": 1.5198990594086492,
        "distance_wrist_2_joint": 1.6910846251310148,
        "distance_wrist_3_joint": 1.142867496131661,
        "smoothness": 2.631639764355545e-16,
        "time": 0.202052121,
        "traj_len": 3.1961738025306814,
        "weighted_distance": 3.9638675120122797
    },
    "planner": "BKPIECE",
    "start": {
        "state": {
            "elbow_joint": -1.919643507792019,
            "shoulder_lift_joint": -0.07675430207160344,
            "shoulder_pan_joint": -1.1188671864651873,
            "wrist_1_joint": 0.42560062535961957,
            "wrist_2_joint": 1.5706038300724876,
            "wrist_3_joint": 1.1188968870953055
        }
    },
    "waypoints": [
        {
            "positions": [
                -1.1188671864651873,
                -0.07675430207160344,
                -1.919643507792019,
                0.42560062535961957,
                1.5706038300724876,
                1.1188968870953055
            ]
        },
        {
            "positions": [
                -1.0711428913301504,
                -0.10375349294411268,
                -1.7689179247490996,
                0.48405828149072144,
                1.5055621137212947,
                1.0749404449363955
            ]
        },
        {
            "positions": [
                -1.0234185961951137,
                -0.13075268381662192,
                -1.6181923417061799,
                0.5425159376218234,
                1.440520397370102,
                1.0309840027774855
            ]
        },
        {
            "positions": [
                -0.9756943010600767,
                -0.15775187468913116,
                -1.4674667586632604,
                0.6009735937529253,
                1.375478681018909,
                0.9870275606185754
            ]
        },
        {
            "positions": [
                -0.9279700059250399,
                -0.1847510655616404,
                -1.3167411756203409,
                0.6594312498840271,
                1.310436964667716,
                0.9430711184596654
            ]
        },
        {
            "positions": [
                -0.880245710790003,
                -0.21175025643414963,
                -1.1660155925774212,
                0.717888906015129,
                1.2453952483165232,
                0.8991146763007554
            ]
        },
        {
            "positions": [
                -0.8325214156549662,
                -0.23874944730665887,
                -1.0152900095345014,
                0.7763465621462309,
                1.1803535319653302,
                0.8551582341418453
            ]
        },
        {
            "positions": [
                -0.7847971205199293,
                -0.2657486381791681,
                -0.8645644264915822,
                0.8348042182773328,
                1.1153118156141375,
                0.8112017919829353
            ]
        },
        {
            "positions": [
                -0.7370728253848924,
                -0.29274782905167734,
                -0.7138388434486624,
                0.8932618744084347,
                1.0502700992629446,
                0.7672453498240253
            ]
        },
        {
            "positions": [
                -0.6893485302498557,
                -0.3197470199241866,
                -0.5631132604057429,
                0.9517195305395365,
                0.9852283829117517,
                0.7232889076651152
            ]
        },
        {
            "positions": [
                -0.6416242351148187,
                -0.3467462107966958,
                -0.4123876773628232,
                1.0101771866706386,
                0.9201866665605588,
                0.6793324655062052
            ]
        },
        {
            "positions": [
                -0.5938999399797819,
                -0.37374540166920506,
                -0.2616620943199037,
                1.0686348428017405,
                0.855144950209366,
                0.6353760233472951
            ]
        },
        {
            "positions": [
                -0.546175644844745,
                -0.4007445925417143,
                -0.110936511276984,
                1.1270924989328424,
                0.790103233858173,
                0.5914195811883851
            ]
        },
        {
            "positions": [
                -0.49845134970970817,
                -0.42774378341422353,
                0.03978907176593549,
                1.1855501550639442,
                0.7250615175069802,
                0.5474631390294751
            ]
        },
        {
            "positions": [
                -0.4507270545746713,
                -0.45474297428673277,
                0.19051465480885477,
                1.244007811195046,
                0.6600198011557874,
                0.503506696870565
            ]
        },
        {
            "positions": [
                -0.4030027594396345,
                -0.48174216515924195,
                0.3412402378517745,
                1.302465467326148,
                0.5949780848045946,
                0.4595502547116551
            ]
        },
        {
            "positions": [
                -0.35527846430459753,
                -0.5087413560317513,
                0.4919658208946942,
                1.3609231234572499,
                0.5299363684534015,
                0.41559381255274497
            ]
        },
        {
            "positions": [
                -0.3075541691695607,
                -0.5357405469042604,
                0.6426914039376139,
                1.4193807795883517,
                0.4648946521022088,
                0.37163737039383493
            ]
        },
        {
            "positions": [
                -0.25982987403452384,
                -0.5627397377767698,
                0.7934169869805332,
                1.4778384357194536,
                0.3998529357510159,
                0.3276809282349249
            ]
        },
        {
            "positions": [
                -0.2121055788994871,
                -0.5897389286492789,
                0.9441425700234529,
                1.5362960918505555,
                0.33481121939982295,
                0.28372448607601486
            ]
        },
        {
            "positions": [
                -0.16438128376445005,
                -0.6167381195217883,
                1.0948681530663726,
                1.5947537479816576,
                0.26976950304863,
                0.23976804391710482
            ]
        },
        {
            "positions": [
                -0.11665698862941332,
                -0.6437373103942974,
                1.2455937361092924,
                1.6532114041127595,
                0.2047277866974373,
                0.1958116017581948
            ]
        },
        {
            "positions": [
                -0.06893269349437636,
                -0.6707365012668067,
                1.3963193191522116,
                1.7116690602438613,
                0.13968607034624436,
                0.15185515959928475
            ]
        },
        {
            "positions": [
                -0.02120839835933963,
                -0.6977356921393159,
                1.5470449021951314,
                1.7701267163749632,
                0.07464435399505143,
                0.10789871744037471
            ]
        },
        {
            "positions": [
                0.026515896775697323,
                -0.7247348830118252,
                1.697770485238051,
                1.828584372506065,
                0.009602637643858492,
                0.06394227528146468
            ]
        },
        {
            "positions": [
                0.07424019191073428,
                -0.7517340738843343,
                1.8484960682809708,
                1.887042028637167,
                -0.05543907870733422,
                0.01998583312255464
            ]
        },
        {
            "positions": [
                0.12196448704577094,
                -0.7787332647568437,
                1.99922165132389,
                1.9454996847682688,
                -0.12048079505852707,
                -0.02397060903635548
            ]
        }
    ]
}