{
    "goal": {
        "global_pose": {
            "orientation": {
                "w": 0.7047431468963623,
                "x": -0.7094548344612122,
                "y": 0.0024358443915843964,
                "z": -0.0022348060738295317
            },
            "position": {
                "x": 0.6094750761985779,
                "y": 0.3671506643295288,
                "z": 0.19426114857196808
            }
        },
        "name": "move_to_magneteinheit_A"
    },
    "id": "BKPIECE_move_to_magneteinheit_A_12",
    "joint_names": [
        "shoulder_pan_joint",
        "shoulder_lift_joint",
        "elbow_joint",
        "wrist_1_joint",
        "wrist_2_joint",
        "wrist_3_joint"
    ],
    "metrics": {
        "cart_traj_len": 2.0630327204961496,
        "distance_elbow_joint": 3.872384520044127,
        "distance_shoulder_lift_joint": 1.0526089345491345,
        "distance_shoulder_pan_joint": 1.242820943581946,
        "distance_wrist_1_joint": 1.130002918662987,
        "distance_wrist_2_joint": 1.4467484644406516,
        "distance_wrist_3_joint": 1.9080974631644319,
        "smoothness": 2.2204460585694095e-16,
        "time": 0.19642888900000002,
        "traj_len": 3.263841792189578,
        "weighted_distance": 4.128632891633232
    },
    "planner": "BKPIECE",
    "start": {
        "state": {
            "elbow_joint": -1.919643507792019,
            "shoulder_lift_joint": -0.07675430207160344,
            "shoulder_pan_joint": -1.1188671864651873,
            "wrist_1_joint": 0.42560062535961957,
            "wrist_2_joint": 1.5706038300724876,
            "wrist_3_joint": 1.1188968870953055
        }
    },
    "waypoints": [
        {
            "positions": [
                -1.1188671864651873,
                -0.07675430207160344,
                -1.919643507792019,
                0.42560062535961957,
                1.5706038300724876,
                1.1188968870953055
            ]
        },
        {
            "positions": [
                -1.0728367811473376,
                -0.11573981816601583,
                -1.7762218589014958,
                0.38374866540913855,
                1.5170205536117227,
                1.189567163508803
            ]
        },
        {
            "positions": [
                -1.0268063758294876,
                -0.15472533426042823,
                -1.6328002100109726,
                0.3418967054586576,
                1.4634372771509578,
                1.2602374399223004
            ]
        },
        {
            "positions": [
                -0.9807759705116378,
                -0.1937108503548406,
                -1.4893785611204495,
                0.3000447455081766,
                1.409854000690193,
                1.330907716335798
            ]
        },
        {
            "positions": [
                -0.9347455651937879,
                -0.23269636644925298,
                -1.3459569122299262,
                0.2581927855576956,
                1.356270724229428,
                1.4015779927492955
            ]
        },
        {
            "positions": [
                -0.8887151598759381,
                -0.2716818825436654,
                -1.2025352633394029,
                0.21634082560721457,
                1.3026874477686632,
                1.472248269162793
            ]
        },
        {
            "positions": [
                -0.8426847545580882,
                -0.3106673986380778,
                -1.0591136144488797,
                0.1744888656567336,
                1.2491041713078983,
                1.5429185455762904
            ]
        },
        {
            "positions": [
                -0.7966543492402385,
                -0.34965291473249016,
                -0.9156919655583566,
                0.13263690570625258,
                1.1955208948471334,
                1.6135888219897878
            ]
        },
        {
            "positions": [
                -0.7506239439223885,
                -0.3886384308269025,
                -0.7722703166678333,
                0.09078494575577162,
                1.1419376183863688,
                1.6842590984032855
            ]
        },
        {
            "positions": [
                -0.7045935386045388,
                -0.42762394692131495,
                -0.6288486677773102,
                0.048932985805290596,
                1.0883543419256037,
                1.7549293748167827
            ]
        },
        {
            "positions": [
                -0.6585631332866888,
                -0.4666094630157273,
                -0.48542701888678685,
                0.007081025854809575,
                1.034771065464839,
                1.8255996512302803
            ]
        },
        {
            "positions": [
                -0.6125327279688391,
                -0.5055949791101397,
                -0.34200536999626374,
                -0.03477093409567139,
                0.981187789004074,
                1.8962699276437778
            ]
        },
        {
            "positions": [
                -0.5665023226509892,
                -0.5445804952045521,
                -0.1985837211057404,
                -0.07662289404615236,
                0.9276045125433091,
                1.9669402040572752
            ]
        },
        {
            "positions": [
                -0.5204719173331394,
                -0.5835660112989645,
                -0.055162072215217295,
                -0.11847485399663343,
                0.8740212360825442,
                2.0376104804707724
            ]
        },
        {
            "positions": [
                -0.4744415120152895,
                -0.6225515273933768,
                0.08825957667530582,
                -0.1603268139471144,
                0.8204379596217793,
                2.10828075688427
            ]
        },
        {
            "positions": [
                -0.42841110669743954,
                -0.6615370434877894,
                0.23168122556582937,
                -0.20217877389759548,
                0.7668546831610145,
                2.1789510332977677
            ]
        },
        {
            "positions": [
                -0.3823807013795898,
                -0.7005225595822016,
                0.3751028744563525,
                -0.24403073384807633,
                0.7132714067002497,
                2.249621309711265
            ]
        },
        {
            "positions": [
                -0.33635029606173983,
                -0.7395080756766141,
                0.518524523346876,
                -0.2858826937985574,
                0.6596881302394847,
                2.3202915861247626
            ]
        },
        {
            "positions": [
                -0.2903198907438901,
                -0.7784935917710265,
                0.6619461722373987,
                -0.3277346537490384,
                0.6061048537787199,
                2.3909618625382603
            ]
        },
        {
            "positions": [
                -0.24428948542604023,
                -0.8174791078654389,
                0.8053678211279223,
                -0.36958661369951945,
                0.552521577317955,
                2.4616321389517575
            ]
        },
        {
            "positions": [
                -0.19825908010819038,
                -0.8564646239598512,
                0.9487894700184454,
                -0.4114385736500004,
                0.49893830085719015,
                2.5323024153652547
            ]
        },
        {
            "positions": [
                -0.15222867479034052,
                -0.8954501400542636,
                1.092211118908969,
                -0.4532905336004814,
                0.44535502439642527,
                2.602972691778753
            ]
        },
        {
            "positions": [
                -0.10619826947249078,
                -0.934435656148676,
                1.2356327677994916,
                -0.49514249355096235,
                0.3917717479356604,
                2.67364296819225
            ]
        },
        {
            "positions": [
                -0.060167864154640815,
                -0.9734211722430883,
                1.3790544166900152,
                -0.5369944535014435,
                0.3381884714748955,
                2.744313244605747
            ]
        },
        {
            "positions": [
                -0.014137458836791073,
                -1.0124066883375007,
                1.5224760655805383,
                -0.5788464134519242,
                0.2846051950141306,
                2.814983521019245
            ]
        },
        {
            "positions": [
                0.03189294648105889,
                -1.0513922044319133,
                1.6658977144710618,
                -0.6206983734024054,
                0.23102191855336573,
                2.8856537974327425
            ]
        },
        {
            "positions": [
                0.07792335179890864,
                -1.0903777205263256,
                1.8093193633615845,
                -0.6625503333528864,
                0.17743864209260085,
                2.9563240738462397
            ]
        },
        {
            "positions": [
                0.12395375711675868,
                -1.129363236620738,
                1.9527410122521083,
                -0.7044022933033673,
                0.12385536563183595,
                3.0269943502597374
            ]
        }
    ]
}