{
    "goal": {
        "global_pose": {
            "orientation": {
                "w": -0.00223480608172531,
                "x": 0.0024358444001904467,
                "y": 0.7094548369677653,
                "z": -0.704743149386269
            },
            "position": {
                "x": 0.6205249238014221,
                "y": -0.6371506643295288,
                "z": 0.19426114857196808
            }
        },
        "name": "move_to_magneteinheit_B"
    },
    "id": "BKPIECE_move_to_magneteinheit_B_8",
    "joint_names": [
        "shoulder_pan_joint",
        "shoulder_lift_joint",
        "elbow_joint",
        "wrist_1_joint",
        "wrist_2_joint",
        "wrist_3_joint"
    ],
    "metrics": {
        "cart_traj_len": 3.932148028139803,
        "distance_elbow_joint": 4.266609726949005,
        "distance_shoulder_lift_joint": 0.7638243841634167,
        "distance_shoulder_pan_joint": 2.969144326925186,
        "distance_wrist_1_joint": 2.784950356506722,
        "distance_wrist_2_joint": 1.179524687553657,
        "distance_wrist_3_joint": 6.274416489207962,
        "smoothness": 0.14749649349249785,
        "time": 0.642301875,
        "traj_len": 4.270652171660197,
        "weighted_distance": 5.895063866811134
    },
    "planner": "BKPIECE",
    "start": {
        "state": {
            "elbow_joint": 2.39358713078474,
            "shoulder_lift_joint": -1.908514104345545,
            "shoulder_pan_joint": 0.7066247066606129,
            "wrist_1_joint": -0.4678290933515497,
            "wrist_2_joint": 0.7096259083745334,
            "wrist_3_joint": -3.1358149277392293
        }
    },
    "waypoints": [
        {
            "positions": [
                0.7066247066606129,
                -1.908514104345545,
                2.39358713078474,
                -0.4678290933515497,
                0.7096259083745334,
                -3.1358149277392293
            ]
        },
        {
            "positions": [
                0.6024028985076965,
                -1.9118596629918698,
                2.369067209298174,
                -0.3873054509812659,
                0.6103235367437498,
                -3.1091205837391196
            ]
        },
        {
            "positions": [
                0.4981810903547801,
                -1.9152052216381945,
                2.3445472878116087,
                -0.30678180861098203,
                0.5110211651129661,
                -3.0824262397390103
            ]
        },
        {
            "positions": [
                0.3939592822018636,
                -1.9185507802845194,
                2.320027366325043,
                -0.22625816624069822,
                0.41171879348218254,
                -3.0557318957389006
            ]
        },
        {
            "positions": [
                0.3766678120731504,
                -1.8965804354756903,
                2.1982342002451145,
                -0.1990138386958107,
                0.38636015128856555,
                -2.906919675712534
            ]
        },
        {
            "positions": [
                0.35937634194443724,
                -1.8746100906668615,
                2.076441034165186,
                -0.1717695111509232,
                0.3610015090949485,
                -2.7581074556861678
            ]
        },
        {
            "positions": [
                0.34208487181572406,
                -1.8526397458580324,
                1.9546478680852577,
                -0.14452518360603567,
                0.3356428669013315,
                -2.6092952356598014
            ]
        },
        {
            "positions": [
                0.3247934016870109,
                -1.8306694010492033,
                1.8328547020053294,
                -0.11728085606114816,
                0.3102842247077145,
                -2.460483015633435
            ]
        },
        {
            "positions": [
                0.3075019315582977,
                -1.8086990562403744,
                1.711061535925401,
                -0.09003652851626062,
                0.28492558251409744,
                -2.3116707956070686
            ]
        },
        {
            "positions": [
                0.2902104614295845,
                -1.7867287114315453,
                1.5892683698454726,
                -0.06279220097137313,
                0.25956694032048044,
                -2.162858575580702
            ]
        },
        {
            "positions": [
                0.3599726991194929,
                -1.7822633316986576,
                1.4773093791202085,
                -0.10629343984068829,
                0.24383730724122551,
                -2.0125142267413847
            ]
        },
        {
            "positions": [
                0.4297349368094013,
                -1.7777979519657698,
                1.3653503883949445,
                -0.14979467871000346,
                0.22810767416197059,
                -1.8621698779020672
            ]
        },
        {
            "positions": [
                0.49949717449930964,
                -1.7733325722328819,
                1.2533913976696804,
                -0.19329591757931863,
                0.21237804108271566,
                -1.7118255290627498
            ]
        },
        {
            "positions": [
                0.569259412189218,
                -1.7688671924999941,
                1.1414324069444164,
                -0.2367971564486338,
                0.19664840800346073,
                -1.5614811802234323
            ]
        },
        {
            "positions": [
                0.6390216498791265,
                -1.7644018127671064,
                1.0294734162191523,
                -0.280298395317949,
                0.1809187749242058,
                -1.4111368313841148
            ]
        },
        {
            "positions": [
                0.7087838875690348,
                -1.7599364330342187,
                0.9175144254938885,
                -0.3237996341872641,
                0.16518914184495087,
                -1.2607924825447974
            ]
        },
        {
            "positions": [
                0.7785461252589432,
                -1.7554710533013307,
                0.8055554347686245,
                -0.3673008730565793,
                0.14945950876569594,
                -1.1104481337054797
            ]
        },
        {
            "positions": [
                0.8483083629488516,
                -1.751005673568443,
                0.6935964440433604,
                -0.41080211192589444,
                0.133729875686441,
                -0.9601037848661622
            ]
        },
        {
            "positions": [
                0.9180706006387599,
                -1.7465402938355552,
                0.5816374533180966,
                -0.4543033507952096,
                0.11800024260718611,
                -0.809759436026845
            ]
        },
        {
            "positions": [
                0.9878328383286684,
                -1.7420749141026675,
                0.4696784625928323,
                -0.4978045896645248,
                0.10227060952793116,
                -0.6594150871875273
            ]
        },
        {
            "positions": [
                1.0575950760185768,
                -1.7376095343697795,
                0.3577194718675685,
                -0.54130582853384,
                0.08654097644867623,
                -0.5090707383482098
            ]
        },
        {
            "positions": [
                1.127357313708485,
                -1.7331441546368918,
                0.24576048114230442,
                -0.5848070674031551,
                0.07081134336942133,
                -0.35872638950889235
            ]
        },
        {
            "positions": [
                1.1971195513983934,
                -1.728678774904004,
                0.13380149041704037,
                -0.6283083062724704,
                0.05508171029016637,
                -0.20838204066957489
            ]
        },
        {
            "positions": [
                1.266881789088302,
                -1.7242133951711163,
                0.021842499691776318,
                -0.6718095451417856,
                0.03935207721091144,
                -0.0580376918302572
            ]
        },
        {
            "positions": [
                1.33664402677821,
                -1.7197480154382283,
                -0.09011649103348751,
                -0.7153107840111006,
                0.02362244413165654,
                0.09230665700905982
            ]
        },
        {
            "positions": [
                1.4064062644681186,
                -1.7152826357053406,
                -0.20207548175875178,
                -0.7588120228804158,
                0.007892811052401583,
                0.24265100584837773
            ]
        },
        {
            "positions": [
                1.476168502158027,
                -1.7108172559724528,
                -0.31403447248401584,
                -0.802313261749731,
                -0.007836822026853374,
                0.3929953546876952
            ]
        },
        {
            "positions": [
                1.5459307398479352,
                -1.706351876239565,
                -0.42599346320927944,
                -0.8458145006190462,
                -0.02356645510610822,
                0.5433397035270122
            ]
        },
        {
            "positions": [
                1.6156929775378437,
                -1.7018864965066771,
                -0.5379524539345439,
                -0.8893157394883613,
                -0.039296088185363176,
                0.6936840523663301
            ]
        },
        {
            "positions": [
                1.6854552152277522,
                -1.6974211167737894,
                -0.649911444659808,
                -0.9328169783576765,
                -0.05502572126461813,
                0.8440284012056476
            ]
        },
        {
            "positions": [
                1.7552174529176603,
                -1.6929557370409016,
                -0.7618704353850716,
                -0.9763182172269916,
                -0.07075535434387303,
                0.9943727500449651
            ]
        },
        {
            "positions": [
                1.8249796906075688,
                -1.688490357308014,
                -0.8738294261103356,
                -1.0198194560963068,
                -0.08648498742312799,
                1.1447170988842825
            ]
        },
        {
            "positions": [
                1.8947419282974773,
                -1.684024977575126,
                -0.9857884168355997,
                -1.063320694965622,
                -0.10221462050238289,
                1.2950614477236
            ]
        },
        {
            "positions": [
                1.9645041659873854,
                -1.6795595978422382,
                -1.0977474075608638,
                -1.106821933834937,
                -0.11794425358163779,
                1.4454057965629175
            ]
        },
        {
            "positions": [
                2.034266403677294,
                -1.6750942181093504,
                -1.2097063982861278,
                -1.1503231727042522,
                -0.13367388666089275,
                1.5957501454022347
            ]
        },
        {
            "positions": [
                2.123957805538459,
                -1.6876297915160134,
                -1.278934516751844,
                -1.22670042201457,
                -0.14963285419783195,
                1.707894440528648
            ]
        },
        {
            "positions": [
                2.2136492073996235,
                -1.7001653649226764,
                -1.3481626352175602,
                -1.303077671324888,
                -0.16559182173477116,
                1.8200387356550616
            ]
        },
        {
            "positions": [
                2.303340609260788,
                -1.7127009383293395,
                -1.4173907536832764,
                -1.3794549206352058,
                -0.18155078927171034,
                1.932183030781475
            ]
        },
        {
            "positions": [
                2.393032011121953,
                -1.7252365117360022,
                -1.4866188721489926,
                -1.4558321699455234,
                -0.19750975680864954,
                2.0443273259078882
            ]
        },
        {
            "positions": [
                2.482723412983118,
                -1.7377720851426652,
                -1.5558469906147088,
                -1.5322094192558415,
                -0.21346872434558875,
                2.156471621034302
            ]
        },
        {
            "positions": [
                2.5724148148442825,
                -1.7503076585493282,
                -1.6250751090804252,
                -1.6085866685661592,
                -0.22942769188252793,
                2.268615916160715
            ]
        },
        {
            "positions": [
                2.662106216705447,
                -1.7628432319559912,
                -1.6943032275461414,
                -1.684963917876477,
                -0.24538665941946713,
                2.3807602112871287
            ]
        },
        {
            "positions": [
                2.751797618566612,
                -1.7753788053626542,
                -1.7635313460118576,
                -1.761341167186795,
                -0.26134562695640634,
                2.492904506413542
            ]
        },
        {
            "positions": [
                2.7399713454098302,
                -1.8462183761329718,
                -1.7440746109286518,
                -1.8834895759212902,
                -0.29973867400852827,
                2.6045422762953443
            ]
        },
        {
            "positions": [
                2.728145072253048,
                -1.9170579469032896,
                -1.724617875845446,
                -2.0056379846557855,
                -0.33813172106065026,
                2.716180046177146
            ]
        },
        {
            "positions": [
                2.7112724776921566,
                -1.984149801217123,
                -1.7069734308489468,
                -2.114904904766319,
                -0.3710734855902689,
                2.821785425000043
            ]
        },
        {
            "positions": [
                2.6943998831312648,
                -2.0512416555309567,
                -1.6893289858524474,
                -2.2241718248768523,
                -0.4040152501198876,
                2.9273908038229397
            ]
        },
        {
            "positions": [
                2.6775272885703734,
                -2.11833350984479,
                -1.671684540855948,
                -2.3334387449873857,
                -0.43695701464950626,
                3.0329961826458365
            ]
        },
        {
            "positions": [
                2.660654694009482,
                -2.1854253641586237,
                -1.6540400958594488,
                -2.442705665097919,
                -0.4698987791791249,
                3.1386015614687333
            ]
        }
    ]
}