{
    "goal": {
        "global_pose": {
            "orientation": {
                "w": 0.7031023502349854,
                "x": -0.7110244035720825,
                "y": 0.007748599164187908,
                "z": 0.005598929710686207
            },
            "position": {
                "x": 0.11585023208521307,
                "y": 0.44412534475326537,
                "z": 0.3711530566215515
            }
        },
        "name": "move_to_auspresseinheit_A"
    },
    "id": "BKPIECE_move_to_auspresseinheit_A_5",
    "joint_names": [
        "shoulder_pan_joint",
        "shoulder_lift_joint",
        "elbow_joint",
        "wrist_1_joint",
        "wrist_2_joint",
        "wrist_3_joint"
    ],
    "metrics": {
        "cart_traj_len": 1.6416301453982705,
        "distance_elbow_joint": 2.6142343281800526,
        "distance_shoulder_lift_joint": 0.5337477587373607,
        "distance_shoulder_pan_joint": 1.040147272005473,
        "distance_wrist_1_joint": 2.946949208446006,
        "distance_wrist_2_joint": 1.5509814966764202,
        "distance_wrist_3_joint": 2.338697548019518,
        "smoothness": 0.4069445543308017,
        "time": 0.182835458,
        "traj_len": 3.3203550430736817,
        "weighted_distance": 4.494450290438897
    },
    "planner": "BKPIECE",
    "start": {
        "state": {
            "elbow_joint": 2.422574709923281,
            "shoulder_lift_joint": -1.3736533754116391,
            "shoulder_pan_joint": -0.33786336945926293,
            "wrist_1_joint": -1.0288603412921917,
            "wrist_2_joint": 1.2330224858903978,
            "wrist_3_joint": -3.094022268022082
        }
    },
    "waypoints": [
        {
            "positions": [
                -0.33786336945926293,
                -1.3736533754116391,
                2.422574709923281,
                -1.0288603412921917,
                1.2330224858903978,
                -3.094022268022082
            ]
        },
        {
            "positions": [
                -0.30852667308250037,
                -1.3834778114143633,
                2.3208204844630793,
                -0.8972834815359185,
                1.2069424441737548,
                -3.005926103323492
            ]
        },
        {
            "positions": [
                -0.27918997670573775,
                -1.3933022474170875,
                2.2190662590028776,
                -0.7657066217796454,
                1.1808624024571117,
                -2.9178299386249016
            ]
        },
        {
            "positions": [
                -0.2498532803289752,
                -1.4031266834198117,
                2.1173120335426754,
                -0.6341297620233723,
                1.1547823607404688,
                -2.8297337739263115
            ]
        },
        {
            "positions": [
                -0.22051658395221263,
                -1.4129511194225357,
                2.0155578080824736,
                -0.5025529022670991,
                1.128702319023826,
                -2.7416376092277215
            ]
        },
        {
            "positions": [
                -0.19117988757545004,
                -1.42277555542526,
                1.913803582622272,
                -0.37097604251082605,
                1.1026222773071828,
                -2.653541444529131
            ]
        },
        {
            "positions": [
                -0.16184319119868748,
                -1.432599991427984,
                1.81204935716207,
                -0.23939918275455285,
                1.0765422355905399,
                -2.565445279830541
            ]
        },
        {
            "positions": [
                -0.13250649482192492,
                -1.4424244274307083,
                1.7102951317018682,
                -0.10782232299827987,
                1.050462193873897,
                -2.477349115131951
            ]
        },
        {
            "positions": [
                -0.10316979844516233,
                -1.4522488634334325,
                1.6085409062416662,
                0.02375453675799344,
                1.024382152157254,
                -2.3892529504333604
            ]
        },
        {
            "positions": [
                -0.07383310206839977,
                -1.4620732994361567,
                1.5067866807814645,
                0.15533139651426642,
                0.9983021104406109,
                -2.3011567857347703
            ]
        },
        {
            "positions": [
                -0.04449640569163715,
                -1.4718977354388807,
                1.4050324553212625,
                0.2869082562705396,
                0.972222068723968,
                -2.2130606210361803
            ]
        },
        {
            "positions": [
                -0.015159709314874648,
                -1.481722171441605,
                1.3032782298610608,
                0.4184851160268128,
                0.9461420270073251,
                -2.12496445633759
            ]
        },
        {
            "positions": [
                0.014176987061887969,
                -1.491546607444329,
                1.2015240044008588,
                0.550061975783086,
                0.920061985290682,
                -2.0368682916389993
            ]
        },
        {
            "positions": [
                0.0435136834386505,
                -1.5013710434470533,
                1.099769778940657,
                0.681638835539359,
                0.893981943574039,
                -1.9487721269404095
            ]
        },
        {
            "positions": [
                0.07793333470131558,
                -1.5528559364828858,
                1.180710082088953,
                0.6912962577425914,
                0.7529941638212783,
                -1.9927217068612917
            ]
        },
        {
            "positions": [
                0.11235298596398065,
                -1.604340829518718,
                1.261650385237249,
                0.7009536799458239,
                0.6120063840685175,
                -2.036671286782174
            ]
        },
        {
            "positions": [
                0.14677263722664569,
                -1.6558257225545505,
                1.3425906883855447,
                0.7106111021490563,
                0.4710186043157567,
                -2.080620866703056
            ]
        },
        {
            "positions": [
                0.1811922884893108,
                -1.7073106155903828,
                1.4235309915338408,
                0.7202685243522888,
                0.33003082456299593,
                -2.124570446623938
            ]
        },
        {
            "positions": [
                0.21561193975197585,
                -1.7587955086262153,
                1.5044712946821366,
                0.7299259465555212,
                0.18904304481023515,
                -2.1685200265448206
            ]
        },
        {
            "positions": [
                0.2514874127113642,
                -1.7793189415663642,
                1.6042647424549419,
                0.6306705518475033,
                0.19318904718114754,
                -2.253664895214583
            ]
        },
        {
            "positions": [
                0.2873628856707525,
                -1.7998423745065133,
                1.704058190227747,
                0.5314151571394855,
                0.19733504955205997,
                -2.338809763884345
            ]
        },
        {
            "positions": [
                0.3232383586301409,
                -1.8203658074466622,
                1.8038516380005523,
                0.4321597624314676,
                0.20148105192297236,
                -2.4239546325541075
            ]
        },
        {
            "positions": [
                0.35911383158952925,
                -1.8408892403868111,
                1.9036450857733573,
                0.3329043677234497,
                0.20562705429388475,
                -2.50909950122387
            ]
        },
        {
            "positions": [
                0.39498930454891756,
                -1.86141267332696,
                2.003438533546163,
                0.2336489730154318,
                0.20977305666479718,
                -2.5942443698936324
            ]
        },
        {
            "positions": [
                0.43086477750830593,
                -1.8819361062671092,
                2.103231981318968,
                0.13439357830741394,
                0.21391905903570957,
                -2.6793892385633944
            ]
        },
        {
            "positions": [
                0.4667402504676943,
                -1.902459539207258,
                2.203025429091773,
                0.03513818359939602,
                0.21806506140662196,
                -2.764534107233157
            ]
        },
        {
            "positions": [
                0.5138489808833975,
                -1.9034478581956065,
                2.2406601785010354,
                -0.06353684792903772,
                0.31366106920659614,
                -2.8400711925621764
            ]
        },
        {
            "positions": [
                0.5609577112991007,
                -1.9044361771839549,
                2.278294927910298,
                -0.16221187945747145,
                0.4092570770065703,
                -2.915608277891196
            ]
        },
        {
            "positions": [
                0.6080664417148037,
                -1.905424496172303,
                2.3159296773195606,
                -0.26088691098590516,
                0.5048530848065444,
                -2.9911453632202156
            ]
        },
        {
            "positions": [
                0.6551751721305069,
                -1.9064128151606514,
                2.3535644267288234,
                -0.35956194251433893,
                0.6004490926065187,
                -3.066682448549235
            ]
        },
        {
            "positions": [
                0.7022839025462101,
                -1.9074011341489998,
                2.3911991761380857,
                -0.45823697404277264,
                0.6960451004064928,
                -3.142219533878255
            ]
        }
    ]
}