{
    "goal": {
        "global_pose": {
            "orientation": {
                "w": -0.00223480608172531,
                "x": 0.0024358444001904467,
                "y": 0.7094548369677653,
                "z": -0.704743149386269
            },
            "position": {
                "x": 0.6205249238014221,
                "y": -0.6371506643295288,
                "z": 0.19426114857196808
            }
        },
        "name": "move_to_magneteinheit_B"
    },
    "id": "BKPIECE_move_to_magneteinheit_B_107",
    "joint_names": [
        "shoulder_pan_joint",
        "shoulder_lift_joint",
        "elbow_joint",
        "wrist_1_joint",
        "wrist_2_joint",
        "wrist_3_joint"
    ],
    "metrics": {
        "cart_traj_len": 4.566426883668037,
        "distance_elbow_joint": 5.23172390452922,
        "distance_shoulder_lift_joint": 1.0627939475180166,
        "distance_shoulder_pan_joint": 3.6214944395117525,
        "distance_wrist_1_joint": 4.550206700692109,
        "distance_wrist_2_joint": 4.254508202170534,
        "distance_wrist_3_joint": 3.6408570150364725,
        "smoothness": 0.669092815386932,
        "time": 0.33924264299999995,
        "traj_len": 4.728803676349664,
        "weighted_distance": 6.200646187486726
    },
    "planner": "BKPIECE",
    "start": {
        "state": {
            "elbow_joint": 2.39358713078474,
            "shoulder_lift_joint": -1.908514104345545,
            "shoulder_pan_joint": 0.7066247066606129,
            "wrist_1_joint": -0.4678290933515497,
            "wrist_2_joint": 0.7096259083745334,
            "wrist_3_joint": -3.1358149277392293
        }
    },
    "waypoints": [
        {
            "positions": [
                0.7066247066606129,
                -1.908514104345545,
                2.39358713078474,
                -0.4678290933515497,
                0.7096259083745334,
                -3.1358149277392293
            ]
        },
        {
            "positions": [
                0.6179487021199953,
                -1.887366854693868,
                2.355665429491842,
                -0.42201508875497573,
                0.6977019288023991,
                -3.1316309693581053
            ]
        },
        {
            "positions": [
                0.5292726975793777,
                -1.866219605042191,
                2.317743728198945,
                -0.3762010841584018,
                0.6857779492302647,
                -3.1274470109769816
            ]
        },
        {
            "positions": [
                0.4199749259776443,
                -1.8321490324806144,
                2.3661330009429644,
                -0.2731889983555881,
                0.7006973704758093,
                -3.1682361792988494
            ]
        },
        {
            "positions": [
                0.3106771543759109,
                -1.7980784599190378,
                2.4145222736869836,
                -0.1701769125527743,
                0.715616791721354,
                -3.2090253476207167
            ]
        },
        {
            "positions": [
                0.2013793827741775,
                -1.7640078873574612,
                2.462911546431003,
                -0.06716482674996055,
                0.7305362129668985,
                -3.2498145159425844
            ]
        },
        {
            "positions": [
                0.09208161117244412,
                -1.7299373147958845,
                2.511300819175023,
                0.035847259052853186,
                0.7454556342124431,
                -3.290603684264452
            ]
        },
        {
            "positions": [
                -0.017216160429289307,
                -1.6958667422343079,
                2.559690091919042,
                0.13885934485566698,
                0.7603750554579878,
                -3.3313928525863195
            ]
        },
        {
            "positions": [
                -0.1265139320310227,
                -1.6617961696727312,
                2.6080793646630616,
                0.2418714306584807,
                0.7752944767035324,
                -3.372182020908187
            ]
        },
        {
            "positions": [
                -0.09645482269865331,
                -1.672835317844758,
                2.470986031325553,
                0.16478033639114684,
                0.727292469068113,
                -3.290930385238624
            ]
        },
        {
            "positions": [
                -0.06639571336628391,
                -1.6838744660167846,
                2.333892697988045,
                0.08768924212381296,
                0.6792904614326937,
                -3.209678749569061
            ]
        },
        {
            "positions": [
                -0.03633660403391453,
                -1.694913614188811,
                2.196799364650537,
                0.010598147856479112,
                0.6312884537972743,
                -3.128427113899498
            ]
        },
        {
            "positions": [
                -0.006277494701545122,
                -1.7059527623608377,
                2.059706031313029,
                -0.06649294641085479,
                0.583286446161855,
                -3.047175478229935
            ]
        },
        {
            "positions": [
                0.02378161463082427,
                -1.7169919105328644,
                1.9226126979755205,
                -0.1435840406781886,
                0.5352844385264356,
                -2.965923842560372
            ]
        },
        {
            "positions": [
                0.10071031273799182,
                -1.7198925666265878,
                1.7966571962290172,
                -0.18523954733119252,
                0.4643772928427216,
                -2.8962193561669434
            ]
        },
        {
            "positions": [
                0.17763901084515935,
                -1.7227932227203115,
                1.6707016944825142,
                -0.2268950539841964,
                0.39347014715900763,
                -2.8265148697735154
            ]
        },
        {
            "positions": [
                0.2545677089523269,
                -1.725693878814035,
                1.5447461927360109,
                -0.26855056063720034,
                0.3225630014752937,
                -2.756810383380087
            ]
        },
        {
            "positions": [
                0.33149640705949446,
                -1.7285945349077587,
                1.4187906909895078,
                -0.3102060672902042,
                0.25165585579157973,
                -2.687105896986659
            ]
        },
        {
            "positions": [
                0.40842510516666203,
                -1.7314951910014822,
                1.2928351892430046,
                -0.35186157394320816,
                0.18074871010786575,
                -2.6174014105932306
            ]
        },
        {
            "positions": [
                0.48535380327382954,
                -1.7343958470952057,
                1.1668796874965013,
                -0.39351708059621204,
                0.10984156442415177,
                -2.547696924199802
            ]
        },
        {
            "positions": [
                0.5622825013809971,
                -1.7372965031889294,
                1.040924185749998,
                -0.4351725872492159,
                0.03893441874043779,
                -2.477992437806374
            ]
        },
        {
            "positions": [
                0.6392111994881646,
                -1.7401971592826528,
                0.914968684003495,
                -0.4768280939022198,
                -0.03197272694327613,
                -2.408287951412946
            ]
        },
        {
            "positions": [
                0.7161398975953323,
                -1.7430978153763765,
                0.7890131822569917,
                -0.5184836005552238,
                -0.10287987262699017,
                -2.3385834650195174
            ]
        },
        {
            "positions": [
                0.7930685957024998,
                -1.7459984714701,
                0.6630576805104884,
                -0.5601391072082277,
                -0.1737870183107041,
                -2.2688789786260894
            ]
        },
        {
            "positions": [
                0.8699972938096673,
                -1.7488991275638235,
                0.5371021787639854,
                -0.6017946138612316,
                -0.24469416399441812,
                -2.199174492232661
            ]
        },
        {
            "positions": [
                0.9469259919168348,
                -1.7517997836575472,
                0.4111466770174823,
                -0.6434501205142354,
                -0.31560130967813205,
                -2.1294700058392326
            ]
        },
        {
            "positions": [
                1.0238546900240024,
                -1.7547004397512707,
                0.2851911752709788,
                -0.6851056271672394,
                -0.3865084553618461,
                -2.059765519445804
            ]
        },
        {
            "positions": [
                1.10078338813117,
                -1.7576010958449944,
                0.15923567352447576,
                -0.7267611338202433,
                -0.45741560104556,
                -1.9900610330523762
            ]
        },
        {
            "positions": [
                1.1777120862383375,
                -1.7605017519387178,
                0.03328017177797271,
                -0.7684166404732472,
                -0.528322746729274,
                -1.920356546658948
            ]
        },
        {
            "positions": [
                1.254640784345505,
                -1.7634024080324413,
                -0.09267532996853056,
                -0.8100721471262511,
                -0.5992298924129879,
                -1.8506520602655199
            ]
        },
        {
            "positions": [
                1.3315694824526725,
                -1.766303064126165,
                -0.21863083171503384,
                -0.851727653779255,
                -0.6701370380967019,
                -1.7809475738720917
            ]
        },
        {
            "positions": [
                1.4084981805598402,
                -1.7692037202198885,
                -0.3445863334615371,
                -0.893383160432259,
                -0.7410441837804159,
                -1.711243087478663
            ]
        },
        {
            "positions": [
                1.4854268786670077,
                -1.772104376313612,
                -0.4705418352080404,
                -0.9350386670852628,
                -0.81195132946413,
                -1.6415386010852349
            ]
        },
        {
            "positions": [
                1.5623555767741752,
                -1.7750050324073356,
                -0.5964973369545437,
                -0.9766941737382667,
                -0.8828584751478438,
                -1.5718341146918067
            ]
        },
        {
            "positions": [
                1.6392842748813428,
                -1.7779056885010591,
                -0.7224528387010465,
                -1.0183496803912706,
                -0.9537656208315578,
                -1.5021296282983785
            ]
        },
        {
            "positions": [
                1.7162129729885103,
                -1.7808063445947828,
                -0.8484083404475498,
                -1.0600051870442746,
                -1.024672766515272,
                -1.4324251419049503
            ]
        },
        {
            "positions": [
                1.7931416710956778,
                -1.7837070006885063,
                -0.974363842194053,
                -1.1016606936972784,
                -1.0955799121989855,
                -1.362720655511522
            ]
        },
        {
            "positions": [
                1.8700703692028453,
                -1.7866076567822298,
                -1.1003193439405559,
                -1.1433162003502824,
                -1.1664870578826996,
                -1.293016169118094
            ]
        },
        {
            "positions": [
                1.946999067310013,
                -1.7895083128759535,
                -1.2262748456870596,
                -1.1849717070032861,
                -1.2373942035664136,
                -1.2233116827246653
            ]
        },
        {
            "positions": [
                2.0239277654171803,
                -1.792408968969677,
                -1.3522303474335629,
                -1.2266272136562901,
                -1.3083013492501276,
                -1.153607196331237
            ]
        },
        {
            "positions": [
                2.100856463524348,
                -1.7953096250634006,
                -1.4781858491800657,
                -1.268282720309294,
                -1.3792084949338417,
                -1.083902709937809
            ]
        },
        {
            "positions": [
                2.1777851616315154,
                -1.7982102811571241,
                -1.604141350926569,
                -1.309938226962298,
                -1.4501156406175557,
                -1.0141982235443807
            ]
        },
        {
            "positions": [
                2.194439691313612,
                -1.8311007733983928,
                -1.6297300824069263,
                -1.1624185670961293,
                -1.3354196780189718,
                -0.9665617272441702
            ]
        },
        {
            "positions": [
                2.211094220995709,
                -1.8639912656396613,
                -1.6553188138872834,
                -1.0148989072299606,
                -1.2207237154203878,
                -0.9189252309439596
            ]
        },
        {
            "positions": [
                2.2277487506778058,
                -1.89688175788093,
                -1.6809075453676408,
                -0.867379247363792,
                -1.1060277528218039,
                -0.8712887346437491
            ]
        },
        {
            "positions": [
                2.244403280359903,
                -1.9297722501221988,
                -1.706496276847998,
                -0.7198595874976234,
                -0.99133179022322,
                -0.8236522383435385
            ]
        },
        {
            "positions": [
                2.261057810042,
                -1.9626627423634673,
                -1.7320850083283552,
                -0.5723399276314547,
                -0.8766358276246361,
                -0.776015742043328
            ]
        },
        {
            "positions": [
                2.2777123397240966,
                -1.995553234604736,
                -1.7576737398087126,
                -0.42482026776528603,
                -0.7619398650260522,
                -0.7283792457431175
            ]
        },
        {
            "positions": [
                2.2943668694061934,
                -2.0284437268460045,
                -1.7832624712890697,
                -0.27730060789911737,
                -0.6472439024274682,
                -0.6807427494429069
            ]
        },
        {
            "positions": [
                2.31102139908829,
                -2.061334219087273,
                -1.808851202769427,
                -0.12978094803294882,
                -0.5325479398288844,
                -0.6331062531426964
            ]
        },
        {
            "positions": [
                2.327675928770387,
                -2.094224711328542,
                -1.8344399342497844,
                0.017738711833219956,
                -0.4178519772303002,
                -0.5854697568424858
            ]
        },
        {
            "positions": [
                2.344330458452484,
                -2.1271152035698107,
                -1.8600286657301415,
                0.1652583716993885,
                -0.3031560146317165,
                -0.5378332605422753
            ]
        },
        {
            "positions": [
                2.360984988134581,
                -2.160005695811079,
                -1.8856173972104988,
                0.3127780315655573,
                -0.18846005203313254,
                -0.4901967642420647
            ]
        },
        {
            "positions": [
                2.377639517816678,
                -2.1928961880523477,
                -1.9112061286908562,
                0.46029769143172583,
                -0.0737640894345486,
                -0.4425602679418542
            ]
        },
        {
            "positions": [
                2.3942940474987746,
                -2.2257866802936164,
                -1.9367948601712133,
                0.6078173512978946,
                0.04093187316403535,
                -0.3949237716416436
            ]
        },
        {
            "positions": [
                2.4109485771808714,
                -2.258677172534885,
                -1.9623835916515706,
                0.7553370111640629,
                0.1556278357626192,
                -0.34728727534143317
            ]
        },
        {
            "positions": [
                2.4611272355025164,
                -2.302516174531495,
                -1.9033672098186352,
                0.8000212673510506,
                0.21762586013296606,
                -0.27471540678618034
            ]
        },
        {
            "positions": [
                2.511305893824161,
                -2.3463551765281045,
                -1.8443508279857,
                0.8447055235380384,
                0.2796238845033129,
                -0.2021435382309275
            ]
        },
        {
            "positions": [
                2.561484552145806,
                -2.3901941785247147,
                -1.7853344461527645,
                0.8893897797250261,
                0.34162190887365973,
                -0.12957166967567468
            ]
        },
        {
            "positions": [
                2.6116632104674506,
                -2.4340331805213244,
                -1.726318064319829,
                0.9340740359120139,
                0.4036199332440066,
                -0.056999801120421856
            ]
        },
        {
            "positions": [
                2.6618418687890957,
                -2.477872182517934,
                -1.6673016824868938,
                0.9787582920990016,
                0.4656179576143535,
                0.015572067434830974
            ]
        }
    ]
}