{
    "goal": {
        "global_pose": {
            "orientation": {
                "w": 0.5084816217422485,
                "x": -0.49083608388900757,
                "y": 0.5182115435600281,
                "z": -0.4816462993621826
            },
            "position": {
                "x": 0.5540239810943604,
                "y": 0.030875300988554955,
                "z": 0.16403168439865112
            }
        },
        "name": "move_to_storage_A"
    },
    "id": "BKPIECE_move_to_storage_A_19",
    "joint_names": [
        "shoulder_pan_joint",
        "shoulder_lift_joint",
        "elbow_joint",
        "wrist_1_joint",
        "wrist_2_joint",
        "wrist_3_joint"
    ],
    "metrics": {
        "cart_traj_len": 0.3535742652638498,
        "distance_elbow_joint": 0.45163729439971334,
        "distance_shoulder_lift_joint": 0.23646819147626807,
        "distance_shoulder_pan_joint": 0.46301310494888376,
        "distance_wrist_1_joint": 0.24403131748670093,
        "distance_wrist_2_joint": 1.098339723232682,
        "distance_wrist_3_joint": 0.10367283128018157,
        "smoothness": 6.661338165333112e-16,
        "time": 0.215233129,
        "traj_len": 1.6115714265351162,
        "weighted_distance": 2.0363887561328204
    },
    "planner": "BKPIECE",
    "start": {
        "state": {
            "elbow_joint": 1.9715463870305268,
            "shoulder_lift_joint": -1.1394903361783484,
            "shoulder_pan_joint": 0.12281147578464417,
            "wrist_1_joint": -0.7804599489681411,
            "wrist_2_joint": 0.12958660307563738,
            "wrist_3_joint": -3.1924946282119055
        }
    },
    "waypoints": [
        {
            "positions": [
                0.12281147578464417,
                -1.1394903361783484,
                1.9715463870305268,
                -0.7804599489681411,
                0.12958660307563738,
                -3.1924946282119055
            ]
        },
        {
            "positions": [
                0.05666674650623221,
                -1.1732715063892438,
                2.0360660005162,
                -0.8153215657519555,
                0.28649227782316333,
                -3.177684223743308
            ]
        },
        {
            "positions": [
                -0.009477982772179747,
                -1.2070526766001393,
                2.1005856140018735,
                -0.85018318253577,
                0.44339795257068937,
                -3.162873819274711
            ]
        },
        {
            "positions": [
                -0.07562271205059172,
                -1.2408338468110347,
                2.1651052274875466,
                -0.8850447993195844,
                0.6003036273182153,
                -3.1480634148061135
            ]
        },
        {
            "positions": [
                -0.14176744132900365,
                -1.2746150170219301,
                2.2296248409732202,
                -0.9199064161033987,
                0.7572093020657413,
                -3.133253010337516
            ]
        },
        {
            "positions": [
                -0.20791217060741563,
                -1.3083961872328256,
                2.2941444544588934,
                -0.9547680328872132,
                0.9141149768132674,
                -3.1184426058689185
            ]
        },
        {
            "positions": [
                -0.2740568998858276,
                -1.342177357443721,
                2.3586640679445665,
                -0.9896296496710275,
                1.0710206515607932,
                -3.1036322014003215
            ]
        },
        {
            "positions": [
                -0.34020162916423957,
                -1.3759585276546165,
                2.42318368143024,
                -1.024491266454842,
                1.2279263263083193,
                -3.088821796931724
            ]
        }
    ]
}