{
    "goal": {
        "global_pose": {
            "orientation": {
                "w": -0.00223480608172531,
                "x": 0.0024358444001904467,
                "y": 0.7094548369677653,
                "z": -0.704743149386269
            },
            "position": {
                "x": 0.6205249238014221,
                "y": -0.6371506643295288,
                "z": 0.19426114857196808
            }
        },
        "name": "move_to_magneteinheit_B"
    },
    "id": "BKPIECE_move_to_magneteinheit_B_128",
    "joint_names": [
        "shoulder_pan_joint",
        "shoulder_lift_joint",
        "elbow_joint",
        "wrist_1_joint",
        "wrist_2_joint",
        "wrist_3_joint"
    ],
    "metrics": {
        "cart_traj_len": 1.4527450677923703,
        "distance_elbow_joint": 0.7306187139013054,
        "distance_shoulder_lift_joint": 1.2481601544792458,
        "distance_shoulder_pan_joint": 1.6212922315990537,
        "distance_wrist_1_joint": 2.6047377806661625,
        "distance_wrist_2_joint": 2.9353172294800056,
        "distance_wrist_3_joint": 3.1312748753507447,
        "smoothness": 6.383782419854264e-16,
        "time": 0.375491996,
        "traj_len": 3.503055949521291,
        "weighted_distance": 4.90652685168686
    },
    "planner": "BKPIECE",
    "start": {
        "state": {
            "elbow_joint": 2.39358713078474,
            "shoulder_lift_joint": -1.908514104345545,
            "shoulder_pan_joint": 0.7066247066606129,
            "wrist_1_joint": -0.4678290933515497,
            "wrist_2_joint": 0.7096259083745334,
            "wrist_3_joint": -3.1358149277392293
        }
    },
    "waypoints": [
        {
            "positions": [
                0.7066247066606129,
                -1.908514104345545,
                2.39358713078474,
                -0.4678290933515497,
                0.7096259083745334,
                -3.1358149277392293
            ]
        },
        {
            "positions": [
                0.6543249572541918,
                -1.8682508735558918,
                2.3700187851750205,
                -0.3838052939752219,
                0.6149382558106623,
                -3.034806060792431
            ]
        },
        {
            "positions": [
                0.6020252078477708,
                -1.8279876427662387,
                2.346450439565301,
                -0.2997814945988941,
                0.5202506032467912,
                -2.933797193845633
            ]
        },
        {
            "positions": [
                0.5497254584413497,
                -1.7877244119765856,
                2.3228820939555814,
                -0.21575769522256627,
                0.42556295068292,
                -2.8327883268988345
            ]
        },
        {
            "positions": [
                0.4974257090349286,
                -1.7474611811869325,
                2.299313748345862,
                -0.13173389584623846,
                0.33087529811904887,
                -2.7317794599520364
            ]
        },
        {
            "positions": [
                0.44512595962850754,
                -1.7071979503972794,
                2.2757454027361423,
                -0.04771009646991059,
                0.23618764555517768,
                -2.6307705930052383
            ]
        },
        {
            "positions": [
                0.3928262102220864,
                -1.6669347196076263,
                2.252177057126423,
                0.03631370290641717,
                0.14149999299130656,
                -2.52976172605844
            ]
        },
        {
            "positions": [
                0.34052646081566534,
                -1.6266714888179732,
                2.2286087115167033,
                0.12033750228274503,
                0.04681234042743543,
                -2.4287528591116416
            ]
        },
        {
            "positions": [
                0.2882267114092443,
                -1.58640825802832,
                2.2050403659069837,
                0.2043613016590728,
                -0.0478753121364357,
                -2.3277439921648435
            ]
        },
        {
            "positions": [
                0.23592696200282315,
                -1.546145027238667,
                2.181472020297264,
                0.28838510103540077,
                -0.14256296470030694,
                -2.2267351252180454
            ]
        },
        {
            "positions": [
                0.18362721259640213,
                -1.505881796449014,
                2.1579036746875446,
                0.3724089004117285,
                -0.23725061726417807,
                -2.1257262582712473
            ]
        },
        {
            "positions": [
                0.131327463189981,
                -1.4656185656593608,
                2.134335329077825,
                0.4564326997880564,
                -0.3319382698280492,
                -2.024717391324449
            ]
        },
        {
            "positions": [
                0.07902771378355988,
                -1.425355334869708,
                2.1107669834681055,
                0.5404564991643841,
                -0.4266259223919203,
                -1.9237085243776508
            ]
        },
        {
            "positions": [
                0.026727964377138758,
                -1.3850921040800546,
                2.087198637858386,
                0.6244802985407121,
                -0.5213135749557914,
                -1.8226996574308525
            ]
        },
        {
            "positions": [
                -0.025571785029282257,
                -1.3448288732904017,
                2.063630292248667,
                0.7085040979170398,
                -0.6160012275196626,
                -1.7216907904840544
            ]
        },
        {
            "positions": [
                -0.07787153443570338,
                -1.3045656425007486,
                2.0400619466389474,
                0.7925278972933678,
                -0.7106888800835339,
                -1.620681923537256
            ]
        },
        {
            "positions": [
                -0.1301712838421244,
                -1.2643024117110955,
                2.016493601029228,
                0.8765516966696953,
                -0.8053765326474048,
                -1.519673056590458
            ]
        },
        {
            "positions": [
                -0.1824710332485454,
                -1.2240391809214426,
                1.992925255419508,
                0.9605754960460231,
                -0.900064185211276,
                -1.4186641896436598
            ]
        },
        {
            "positions": [
                -0.23477078265496665,
                -1.1837759501317893,
                1.9693569098097885,
                1.0445992954223513,
                -0.9947518377751473,
                -1.3176553226968613
            ]
        },
        {
            "positions": [
                -0.28707053206138766,
                -1.1435127193421362,
                1.945788564200069,
                1.128623094798679,
                -1.0894394903390183,
                -1.2166464557500631
            ]
        },
        {
            "positions": [
                -0.3393702814678087,
                -1.1032494885524833,
                1.9222202185903494,
                1.2126468941750068,
                -1.1841271429028897,
                -1.1156375888032652
            ]
        },
        {
            "positions": [
                -0.3916700308742297,
                -1.0629862577628302,
                1.89865187298063,
                1.2966706935513346,
                -1.2788147954667606,
                -1.0146287218564671
            ]
        },
        {
            "positions": [
                -0.4439697802806509,
                -1.0227230269731769,
                1.8750835273709106,
                1.3806944929276626,
                -1.373502448030632,
                -0.9136198549096686
            ]
        },
        {
            "positions": [
                -0.49626952968707194,
                -0.9824597961835239,
                1.851515181761191,
                1.4647182923039903,
                -1.4681901005945033,
                -0.8126109879628705
            ]
        },
        {
            "positions": [
                -0.5485692790934932,
                -0.9421965653938708,
                1.8279468361514715,
                1.5487420916803178,
                -1.5628777531583742,
                -0.7116021210160723
            ]
        },
        {
            "positions": [
                -0.6008690284999142,
                -0.9019333346042178,
                1.804378490541752,
                1.6327658910566458,
                -1.657565405722245,
                -0.6105932540692742
            ]
        },
        {
            "positions": [
                -0.6531687779063354,
                -0.8616701038145644,
                1.7808101449320324,
                1.7167896904329738,
                -1.7522530582861164,
                -0.5095843871224757
            ]
        },
        {
            "positions": [
                -0.7054685273127564,
                -0.8214068730249116,
                1.7572417993223128,
                1.8008134898093013,
                -1.8469407108499878,
                -0.40857552017567755
            ]
        },
        {
            "positions": [
                -0.7577682767191775,
                -0.7811436422352585,
                1.7336734537125933,
                1.8848372891856293,
                -1.9416283634138587,
                -0.30756665322887944
            ]
        },
        {
            "positions": [
                -0.8100680261255985,
                -0.7408804114456053,
                1.7101051081028737,
                1.9688610885619569,
                -2.03631601597773,
                -0.20655778628208132
            ]
        },
        {
            "positions": [
                -0.8623677755320197,
                -0.7006171806559522,
                1.6865367624931542,
                2.0528848879382853,
                -2.1310036685416014,
                -0.10554891933528276
            ]
        },
        {
            "positions": [
                -0.9146675249384406,
                -0.660353949866299,
                1.6629684168834347,
                2.136908687314613,
                -2.2256913211054723,
                -0.004540052388484824
            ]
        }
    ]
}