{
    "goal": {
        "global_pose": {
            "orientation": {
                "w": 0.7047431468963623,
                "x": -0.7094548344612122,
                "y": 0.0024358443915843964,
                "z": -0.0022348060738295317
            },
            "position": {
                "x": 0.6094750761985779,
                "y": 0.3671506643295288,
                "z": 0.19426114857196808
            }
        },
        "name": "move_to_magneteinheit_A"
    },
    "id": "BKPIECE_move_to_magneteinheit_A_9",
    "joint_names": [
        "shoulder_pan_joint",
        "shoulder_lift_joint",
        "elbow_joint",
        "wrist_1_joint",
        "wrist_2_joint",
        "wrist_3_joint"
    ],
    "metrics": {
        "cart_traj_len": 1.8772781519476591,
        "distance_elbow_joint": 3.9182378138070906,
        "distance_shoulder_lift_joint": 0.7016630655506322,
        "distance_shoulder_pan_joint": 1.2408783230163603,
        "distance_wrist_1_joint": 1.512806507961408,
        "distance_wrist_2_joint": 1.6937622663924994,
        "distance_wrist_3_joint": 1.1405932099636025,
        "smoothness": 2.9605947464981317e-16,
        "time": 0.28015853,
        "traj_len": 3.1949868836493827,
        "weighted_distance": 3.9617794462807625
    },
    "planner": "BKPIECE",
    "start": {
        "state": {
            "elbow_joint": -1.919643507792019,
            "shoulder_lift_joint": -0.07675430207160344,
            "shoulder_pan_joint": -1.1188671864651873,
            "wrist_1_joint": 0.42560062535961957,
            "wrist_2_joint": 1.5706038300724876,
            "wrist_3_joint": 1.1188968870953055
        }
    },
    "waypoints": [
        {
            "positions": [
                -1.1188671864651873,
                -0.07675430207160344,
                -1.919643507792019,
                0.42560062535961957,
                1.5706038300724876,
                1.1188968870953055
            ]
        },
        {
            "positions": [
                -1.0711410971184043,
                -0.10374134305432006,
                -1.7689420534148232,
                0.48378549105044294,
                1.50545912751893,
                1.0750279174813209
            ]
        },
        {
            "positions": [
                -1.023415007771621,
                -0.13072838403703668,
                -1.6182405990376276,
                0.5419703567412664,
                1.4403144249653723,
                1.0311589478673362
            ]
        },
        {
            "positions": [
                -0.9756889184248381,
                -0.15771542501975333,
                -1.4675391446604316,
                0.6001552224320897,
                1.3751697224118147,
                0.9872899782533514
            ]
        },
        {
            "positions": [
                -0.927962829078055,
                -0.18470246600246992,
                -1.316837690283236,
                0.6583400881229131,
                1.3100250198582568,
                0.9434210086393667
            ]
        },
        {
            "positions": [
                -0.8802367397312719,
                -0.21168950698518657,
                -1.16613623590604,
                0.7165249538137365,
                1.2448803173046992,
                0.8995520390253819
            ]
        },
        {
            "positions": [
                -0.8325106503844888,
                -0.2386765479679032,
                -1.0154347815288443,
                0.7747098195045599,
                1.1797356147511415,
                0.8556830694113973
            ]
        },
        {
            "positions": [
                -0.7847845610377058,
                -0.2656635889506198,
                -0.8647333271516486,
                0.8328946851953832,
                1.1145909121975839,
                0.8118140997974126
            ]
        },
        {
            "positions": [
                -0.7370584716909226,
                -0.29265062993333646,
                -0.7140318727744528,
                0.8910795508862066,
                1.0494462096440262,
                0.7679451301834279
            ]
        },
        {
            "positions": [
                -0.6893323823441395,
                -0.319637670916053,
                -0.563330418397257,
                0.9492644165770301,
                0.9843015070904686,
                0.7240761605694432
            ]
        },
        {
            "positions": [
                -0.6416062929973565,
                -0.3466247118987697,
                -0.4126289640200611,
                1.0074492822678534,
                0.9191568045369108,
                0.6802071909554583
            ]
        },
        {
            "positions": [
                -0.5938802036505734,
                -0.3736117528814863,
                -0.2619275096428655,
                1.0656341479586768,
                0.8540121019833533,
                0.6363382213414737
            ]
        },
        {
            "positions": [
                -0.5461541143037902,
                -0.40059879386420294,
                -0.11122605526566942,
                1.1238190136495,
                0.7888673994297956,
                0.592469251727489
            ]
        },
        {
            "positions": [
                -0.4984280249570072,
                -0.42758583484691953,
                0.0394753991115262,
                1.1820038793403236,
                0.7237226968762379,
                0.5486002821135043
            ]
        },
        {
            "positions": [
                -0.4507019356102242,
                -0.4545728758296361,
                0.19017685348872182,
                1.2401887450311468,
                0.6585779943226803,
                0.5047313124995196
            ]
        },
        {
            "positions": [
                -0.4029758462634411,
                -0.4815599168123527,
                0.34087830786591744,
                1.29837361072197,
                0.5934332917691226,
                0.46086234288553496
            ]
        },
        {
            "positions": [
                -0.35524975691665794,
                -0.5085469577950694,
                0.4915797622431135,
                1.3565584764127938,
                0.5282885892155649,
                0.41699337327155017
            ]
        },
        {
            "positions": [
                -0.3075236675698748,
                -0.5355339987777861,
                0.6422812166203096,
                1.414743342103617,
                0.46314388666200723,
                0.3731244036575655
            ]
        },
        {
            "positions": [
                -0.2597975782230918,
                -0.5625210397605026,
                0.7929826709975052,
                1.4729282077944406,
                0.3979991841084496,
                0.3292554340435808
            ]
        },
        {
            "positions": [
                -0.21207148887630878,
                -0.5895080807432191,
                0.9436841253747008,
                1.5311130734852638,
                0.33285448155489195,
                0.28538646442959614
            ]
        },
        {
            "positions": [
                -0.16434539952952554,
                -0.616495121725936,
                1.0943855797518969,
                1.5892979391760873,
                0.2677097790013341,
                0.24151749481561124
            ]
        },
        {
            "positions": [
                -0.11661931018274241,
                -0.6434821627086524,
                1.2450870341290925,
                1.6474828048669106,
                0.20256507644777644,
                0.19764852520162657
            ]
        },
        {
            "positions": [
                -0.06889322083595939,
                -0.6704692036913691,
                1.3957884885062881,
                1.705667670557734,
                0.13742037389421902,
                0.1537795555876419
            ]
        },
        {
            "positions": [
                -0.021167131489176372,
                -0.6974562446740857,
                1.5464899428834842,
                1.7638525362485573,
                0.07227567134066137,
                0.10991058597365733
            ]
        },
        {
            "positions": [
                0.02655895785760687,
                -0.7244432856568024,
                1.6971913972606802,
                1.8220374019393808,
                0.007130968787103509,
                0.06604161635967243
            ]
        },
        {
            "positions": [
                0.07428504720438989,
                -0.751430326639519,
                1.8478928516378759,
                1.8802222676302043,
                -0.058013733766454134,
                0.022172646745687752
            ]
        },
        {
            "positions": [
                0.12201113655117284,
                -0.7784173676222357,
                1.9985943060150717,
                1.9384071333210275,
                -0.12315843632001187,
                -0.021696322868296942
            ]
        }
    ]
}