{
    "goal": {
        "global_pose": {
            "orientation": {
                "w": 0.5084816217422485,
                "x": -0.49083608388900757,
                "y": 0.5182115435600281,
                "z": -0.4816462993621826
            },
            "position": {
                "x": 0.5540239810943604,
                "y": 0.030875300988554955,
                "z": 0.16403168439865112
            }
        },
        "name": "move_to_storage_A"
    },
    "id": "BKPIECE_move_to_storage_A_107",
    "joint_names": [
        "shoulder_pan_joint",
        "shoulder_lift_joint",
        "elbow_joint",
        "wrist_1_joint",
        "wrist_2_joint",
        "wrist_3_joint"
    ],
    "metrics": {
        "cart_traj_len": 0.3536632838848681,
        "distance_elbow_joint": 0.45271259444347667,
        "distance_shoulder_lift_joint": 0.2358080644724736,
        "distance_shoulder_pan_joint": 0.46476642030728965,
        "distance_wrist_1_joint": 0.2494817797673431,
        "distance_wrist_2_joint": 1.0912272716701588,
        "distance_wrist_3_joint": 0.10472777972812652,
        "smoothness": 6.661338165333112e-16,
        "time": 0.247899922,
        "traj_len": 1.6120558025046368,
        "weighted_distance": 2.036882058756133
    },
    "planner": "BKPIECE",
    "start": {
        "state": {
            "elbow_joint": 1.9715463870305268,
            "shoulder_lift_joint": -1.1394903361783484,
            "shoulder_pan_joint": 0.12281147578464417,
            "wrist_1_joint": -0.7804599489681411,
            "wrist_2_joint": 0.12958660307563738,
            "wrist_3_joint": -3.1924946282119055
        }
    },
    "waypoints": [
        {
            "positions": [
                0.12281147578464417,
                -1.1394903361783484,
                1.9715463870305268,
                -0.7804599489681411,
                0.12958660307563738,
                -3.1924946282119055
            ]
        },
        {
            "positions": [
                0.05641627288360279,
                -1.173177202531559,
                2.036219614808166,
                -0.8161002032206187,
                0.28547621331423145,
                -3.177533516822173
            ]
        },
        {
            "positions": [
                -0.00997893001743859,
                -1.2068640688847694,
                2.100892842585806,
                -0.8517404574730962,
                0.4413658235528256,
                -3.162572405432441
            ]
        },
        {
            "positions": [
                -0.07637413291847996,
                -1.24055093523798,
                2.1655660703634454,
                -0.8873807117255739,
                0.5972554337914197,
                -3.1476112940427083
            ]
        },
        {
            "positions": [
                -0.14276933581952134,
                -1.2742378015911904,
                2.230239298141085,
                -0.9230209659780514,
                0.7531450440300138,
                -3.1326501826529762
            ]
        },
        {
            "positions": [
                -0.20916453872056273,
                -1.307924667944401,
                2.2949125259187246,
                -0.958661220230529,
                0.909034654268608,
                -3.1176890712632437
            ]
        },
        {
            "positions": [
                -0.27555974162160407,
                -1.3416115342976114,
                2.359585753696364,
                -0.9943014744830065,
                1.064924264507202,
                -3.1027279598735116
            ]
        },
        {
            "positions": [
                -0.34195494452264547,
                -1.375298400650822,
                2.4242589814740034,
                -1.0299417287354842,
                1.2208138747457962,
                -3.087766848483779
            ]
        }
    ]
}