{
    "goal": {
        "global_pose": {
            "orientation": {
                "w": 0.7031023502349854,
                "x": -0.7110244035720825,
                "y": 0.007748599164187908,
                "z": 0.005598929710686207
            },
            "position": {
                "x": 0.11585023208521307,
                "y": 0.44412534475326537,
                "z": 0.3711530566215515
            }
        },
        "name": "move_to_auspresseinheit_A"
    },
    "id": "BKPIECE_move_to_auspresseinheit_A_71",
    "joint_names": [
        "shoulder_pan_joint",
        "shoulder_lift_joint",
        "elbow_joint",
        "wrist_1_joint",
        "wrist_2_joint",
        "wrist_3_joint"
    ],
    "metrics": {
        "cart_traj_len": 1.8750467002263642,
        "distance_elbow_joint": 2.23347177751223,
        "distance_shoulder_lift_joint": 0.5884567619480237,
        "distance_shoulder_pan_joint": 1.1249133097022157,
        "distance_wrist_1_joint": 1.8848822871221573,
        "distance_wrist_2_joint": 1.7667619696054662,
        "distance_wrist_3_joint": 1.8314812385420187,
        "smoothness": 0.3666505706482932,
        "time": 0.26388886899999997,
        "traj_len": 3.070825189494204,
        "weighted_distance": 4.092013450398687
    },
    "planner": "BKPIECE",
    "start": {
        "state": {
            "elbow_joint": 2.422574709923281,
            "shoulder_lift_joint": -1.3736533754116391,
            "shoulder_pan_joint": -0.33786336945926293,
            "wrist_1_joint": -1.0288603412921917,
            "wrist_2_joint": 1.2330224858903978,
            "wrist_3_joint": -3.094022268022082
        }
    },
    "waypoints": [
        {
            "positions": [
                -0.33786336945926293,
                -1.3736533754116391,
                2.422574709923281,
                -1.0288603412921917,
                1.2330224858903978,
                -3.094022268022082
            ]
        },
        {
            "positions": [
                -0.3437223622725426,
                -1.369895957860399,
                2.2814800005583096,
                -0.9405515196709063,
                1.1621526988242372,
                -3.012095422240878
            ]
        },
        {
            "positions": [
                -0.34958135508582233,
                -1.3661385403091588,
                2.140385291193338,
                -0.8522426980496208,
                1.091282911758077,
                -2.9301685764596734
            ]
        },
        {
            "positions": [
                -0.355440347899102,
                -1.3623811227579188,
                1.999290581828367,
                -0.7639338764283354,
                1.0204131246919164,
                -2.848241730678469
            ]
        },
        {
            "positions": [
                -0.3612993407123817,
                -1.3586237052066785,
                1.8581958724633956,
                -0.6756250548070499,
                0.9495433376257559,
                -2.766314884897265
            ]
        },
        {
            "positions": [
                -0.36715833352566135,
                -1.3548662876554385,
                1.717101163098424,
                -0.5873162331857645,
                0.8786735505595955,
                -2.684388039116061
            ]
        },
        {
            "positions": [
                -0.3730173263389411,
                -1.3511088701041982,
                1.5760064537334528,
                -0.49900741156447914,
                0.807803763493435,
                -2.6024611933348565
            ]
        },
        {
            "positions": [
                -0.37887631915222075,
                -1.3473514525529582,
                1.4349117443684813,
                -0.4106985899431936,
                0.7369339764272745,
                -2.520534347553652
            ]
        },
        {
            "positions": [
                -0.2848650194607291,
                -1.3772378435684187,
                1.4142847923223398,
                -0.33091138169780443,
                0.6439237325437904,
                -2.4743010081978123
            ]
        },
        {
            "positions": [
                -0.19085371976923746,
                -1.4071242345838795,
                1.393657840276198,
                -0.25112417345241533,
                0.5509134886603063,
                -2.4280676688419724
            ]
        },
        {
            "positions": [
                -0.0968424200777458,
                -1.43701062559934,
                1.3730308882300566,
                -0.17133696520702615,
                0.45790324477682215,
                -2.3818343294861326
            ]
        },
        {
            "positions": [
                -0.00283112038625416,
                -1.4668970166148005,
                1.3524039361839149,
                -0.09154975696163703,
                0.36489300089333804,
                -2.3356009901302923
            ]
        },
        {
            "positions": [
                0.09118017930523753,
                -1.4967834076302613,
                1.3317769841377733,
                -0.011762548716247878,
                0.27188275700985387,
                -2.2893676507744525
            ]
        },
        {
            "positions": [
                0.18519147899672916,
                -1.5266697986457218,
                1.3111500320916316,
                0.06802465952914127,
                0.17887251312636976,
                -2.2431343114186126
            ]
        },
        {
            "positions": [
                0.27920277868822085,
                -1.5565561896611824,
                1.29052308004549,
                0.14781186777453043,
                0.08586226924288562,
                -2.196900972062773
            ]
        },
        {
            "positions": [
                0.30293082266097277,
                -1.5981327633057087,
                1.4594251114929038,
                0.1577953286879802,
                0.10337927574792236,
                -2.276815668184873
            ]
        },
        {
            "positions": [
                0.3266588666337247,
                -1.6397093369502351,
                1.6283271429403177,
                0.16777878960143,
                0.12089628225295909,
                -2.3567303643069732
            ]
        },
        {
            "positions": [
                0.35038691060647664,
                -1.6812859105947617,
                1.7972291743877313,
                0.17776225051487982,
                0.1384132887579958,
                -2.4366450604290733
            ]
        },
        {
            "positions": [
                0.37411495457922855,
                -1.7228624842392881,
                1.9661312058351452,
                0.1877457114283296,
                0.15593029526303254,
                -2.5165597565511737
            ]
        },
        {
            "positions": [
                0.39784299855198046,
                -1.7644390578838145,
                2.135033237282559,
                0.1977291723417794,
                0.17344730176806927,
                -2.5964744526732737
            ]
        },
        {
            "positions": [
                0.43215313380712317,
                -1.7872695960193543,
                2.1991496232944883,
                0.15915194363791377,
                0.21386616252320834,
                -2.657082128295308
            ]
        },
        {
            "positions": [
                0.4664632690622659,
                -1.8101001341548941,
                2.2632660093064176,
                0.12057471493404816,
                0.2542850232783474,
                -2.7176898039173425
            ]
        },
        {
            "positions": [
                0.5141754234212201,
                -1.8299813656523756,
                2.28900145298112,
                0.004347051717957157,
                0.34452082306284587,
                -2.8004040260629703
            ]
        },
        {
            "positions": [
                0.5618875777801744,
                -1.8498625971498568,
                2.3147368966558224,
                -0.11188061149813384,
                0.43475662284734434,
                -2.883118248208598
            ]
        },
        {
            "positions": [
                0.6095997321391285,
                -1.8697438286473382,
                2.3404723403305243,
                -0.22810827471422485,
                0.5249924226318428,
                -2.9658324703542265
            ]
        },
        {
            "positions": [
                0.6573118864980828,
                -1.8896250601448195,
                2.3662077840052267,
                -0.34433593793031586,
                0.6152282224163412,
                -3.0485466924998543
            ]
        },
        {
            "positions": [
                0.7050240408570371,
                -1.909506291642301,
                2.391943227679929,
                -0.46056360114640676,
                0.7054640222008397,
                -3.131260914645482
            ]
        }
    ]
}