{
    "goal": {
        "global_pose": {
            "orientation": {
                "w": -0.00223480608172531,
                "x": 0.0024358444001904467,
                "y": 0.7094548369677653,
                "z": -0.704743149386269
            },
            "position": {
                "x": 0.6205249238014221,
                "y": -0.6371506643295288,
                "z": 0.19426114857196808
            }
        },
        "name": "move_to_magneteinheit_B"
    },
    "id": "BKPIECE_move_to_magneteinheit_B_7",
    "joint_names": [
        "shoulder_pan_joint",
        "shoulder_lift_joint",
        "elbow_joint",
        "wrist_1_joint",
        "wrist_2_joint",
        "wrist_3_joint"
    ],
    "metrics": {
        "cart_traj_len": 1.4540341663701015,
        "distance_elbow_joint": 0.7287121293858065,
        "distance_shoulder_lift_joint": 1.246300791687231,
        "distance_shoulder_pan_joint": 1.6213846980417048,
        "distance_wrist_1_joint": 2.6158234011965673,
        "distance_wrist_2_joint": 2.9434862260780434,
        "distance_wrist_3_joint": 3.1475893446859042,
        "smoothness": 3.2297397195523344e-16,
        "time": 0.13001754,
        "traj_len": 3.507605535272639,
        "weighted_distance": 4.915056958746427
    },
    "planner": "BKPIECE",
    "start": {
        "state": {
            "elbow_joint": 2.39358713078474,
            "shoulder_lift_joint": -1.908514104345545,
            "shoulder_pan_joint": 0.7066247066606129,
            "wrist_1_joint": -0.4678290933515497,
            "wrist_2_joint": 0.7096259083745334,
            "wrist_3_joint": -3.1358149277392293
        }
    },
    "waypoints": [
        {
            "positions": [
                0.7066247066606129,
                -1.908514104345545,
                2.39358713078474,
                -0.4678290933515497,
                0.7096259083745334,
                -3.1358149277392293
            ]
        },
        {
            "positions": [
                0.6559564348468097,
                -1.8695672046053189,
                2.3708148767414334,
                -0.386084612064157,
                0.6176419638095946,
                -3.037452760717795
            ]
        },
        {
            "positions": [
                0.6052881630330064,
                -1.8306203048650929,
                2.3480426226981272,
                -0.30434013077676425,
                0.5256580192446557,
                -2.9390905936963603
            ]
        },
        {
            "positions": [
                0.5546198912192031,
                -1.791673405124867,
                2.3252703686548206,
                -0.22259564948937152,
                0.43367407467971686,
                -2.840728426674926
            ]
        },
        {
            "positions": [
                0.5039516194053999,
                -1.752726505384641,
                2.3024981146115144,
                -0.1408511682019788,
                0.341690130114778,
                -2.7423662596534912
            ]
        },
        {
            "positions": [
                0.45328334759159655,
                -1.713779605644415,
                2.279725860568208,
                -0.05910668691458604,
                0.24970618554983914,
                -2.644004092632057
            ]
        },
        {
            "positions": [
                0.4026150757777933,
                -1.6748327059041892,
                2.256953606524901,
                0.022637794372806663,
                0.15772224098490029,
                -2.545641925610622
            ]
        },
        {
            "positions": [
                0.35194680396399003,
                -1.6358858061639632,
                2.234181352481595,
                0.10438227566019936,
                0.06573829641996143,
                -2.447279758589188
            ]
        },
        {
            "positions": [
                0.30127853215018674,
                -1.5969389064237371,
                2.2114090984382884,
                0.18612675694759212,
                -0.02624564814497743,
                -2.348917591567753
            ]
        },
        {
            "positions": [
                0.25061026033638345,
                -1.5579920066835111,
                2.188636844394982,
                0.2678712382349849,
                -0.11822959270991629,
                -2.250555424546319
            ]
        },
        {
            "positions": [
                0.19994198852258016,
                -1.519045106943285,
                2.1658645903516756,
                0.34961571952237763,
                -0.21021353727485514,
                -2.152193257524884
            ]
        },
        {
            "positions": [
                0.14927371670877687,
                -1.4800982072030593,
                2.143092336308369,
                0.4313602008097703,
                -0.302197481839794,
                -2.05383109050345
            ]
        },
        {
            "positions": [
                0.09860544489497369,
                -1.4411513074628333,
                2.1203200822650627,
                0.513104682097163,
                -0.39418142640473286,
                -1.9554689234820153
            ]
        },
        {
            "positions": [
                0.0479371730811704,
                -1.4022044077226072,
                2.097547828221756,
                0.5948491633845558,
                -0.4861653709696717,
                -1.8571067564605808
            ]
        },
        {
            "positions": [
                -0.002731098732632886,
                -1.3632575079823814,
                2.0747755741784495,
                0.6765936446719485,
                -0.5781493155346106,
                -1.7587445894391462
            ]
        },
        {
            "positions": [
                -0.053399370546436176,
                -1.3243106082421554,
                2.0520033201351433,
                0.7583381259593414,
                -0.6701332600995494,
                -1.6603824224177117
            ]
        },
        {
            "positions": [
                -0.10406764236023947,
                -1.2853637085019294,
                2.0292310660918367,
                0.840082607246734,
                -0.7621172046644883,
                -1.5620202553962772
            ]
        },
        {
            "positions": [
                -0.15473591417404275,
                -1.2464168087617034,
                2.0064588120485305,
                0.9218270885341266,
                -0.8541011492294271,
                -1.4636580883748427
            ]
        },
        {
            "positions": [
                -0.20540418598784604,
                -1.2074699090214773,
                1.9836865580052239,
                1.0035715698215195,
                -0.946085093794366,
                -1.3652959213534082
            ]
        },
        {
            "positions": [
                -0.25607245780164933,
                -1.1685230092812515,
                1.9609143039619175,
                1.0853160511089122,
                -1.0380690383593048,
                -1.2669337543319736
            ]
        },
        {
            "positions": [
                -0.3067407296154526,
                -1.1295761095410255,
                1.938142049918611,
                1.167060532396305,
                -1.1300529829242438,
                -1.1685715873105391
            ]
        },
        {
            "positions": [
                -0.3574090014292558,
                -1.0906292098007995,
                1.9153697958753044,
                1.2488050136836977,
                -1.2220369274891825,
                -1.0702094202891046
            ]
        },
        {
            "positions": [
                -0.4080772732430592,
                -1.0516823100605737,
                1.892597541831998,
                1.3305494949710903,
                -1.3140208720541215,
                -0.9718472532676703
            ]
        },
        {
            "positions": [
                -0.4587455450568624,
                -1.0127354103203476,
                1.8698252877886916,
                1.4122939762584832,
                -1.4060048166190602,
                -0.8734850862462356
            ]
        },
        {
            "positions": [
                -0.5094138168706656,
                -0.9737885105801216,
                1.8470530337453852,
                1.4940384575458758,
                -1.4979887611839993,
                -0.7751229192248013
            ]
        },
        {
            "positions": [
                -0.560082088684469,
                -0.9348416108398956,
                1.8242807797020788,
                1.5757829388332687,
                -1.5899727057489383,
                -0.6767607522033665
            ]
        },
        {
            "positions": [
                -0.6107503604982721,
                -0.8958947110996696,
                1.8015085256587722,
                1.6575274201206613,
                -1.681956650313877,
                -0.5783985851819322
            ]
        },
        {
            "positions": [
                -0.6614186323120755,
                -0.8569478113594438,
                1.7787362716154658,
                1.739271901408054,
                -1.7739405948788156,
                -0.48003641816049747
            ]
        },
        {
            "positions": [
                -0.7120869041258787,
                -0.8180009116192177,
                1.7559640175721594,
                1.8210163826954466,
                -1.8659245394437547,
                -0.38167425113906317
            ]
        },
        {
            "positions": [
                -0.7627551759396821,
                -0.7790540118789917,
                1.7331917635288527,
                1.9027608639828393,
                -1.9579084840086938,
                -0.2833120841176284
            ]
        },
        {
            "positions": [
                -0.8134234477534853,
                -0.7401071121387659,
                1.7104195094855466,
                1.9845053452702324,
                -2.0498924285736324,
                -0.18494991709619413
            ]
        },
        {
            "positions": [
                -0.8640917195672887,
                -0.7011602123985399,
                1.68764725544224,
                2.066249826557625,
                -2.141876373138571,
                -0.08658775007475938
            ]
        },
        {
            "positions": [
                -0.9147599913810918,
                -0.6622133126583137,
                1.6648750013989335,
                2.1479943078450177,
                -2.23386031770351,
                0.011774416946675087
            ]
        }
    ]
}