{
    "goal": {
        "global_pose": {
            "orientation": {
                "w": 0.5084816217422485,
                "x": -0.49083608388900757,
                "y": 0.5182115435600281,
                "z": -0.4816462993621826
            },
            "position": {
                "x": 0.5540239810943604,
                "y": 0.030875300988554955,
                "z": 0.16403168439865112
            }
        },
        "name": "move_to_storage_A"
    },
    "id": "BKPIECE_move_to_storage_A_76",
    "joint_names": [
        "shoulder_pan_joint",
        "shoulder_lift_joint",
        "elbow_joint",
        "wrist_1_joint",
        "wrist_2_joint",
        "wrist_3_joint"
    ],
    "metrics": {
        "cart_traj_len": 0.3521256955103177,
        "distance_elbow_joint": 0.4504619013343141,
        "distance_shoulder_lift_joint": 0.23474992934748995,
        "distance_shoulder_pan_joint": 0.45871881203640924,
        "distance_wrist_1_joint": 0.2445728263226984,
        "distance_wrist_2_joint": 1.104730016509826,
        "distance_wrist_3_joint": 0.09329737236705293,
        "smoothness": 6.661338165333112e-16,
        "time": 0.288076,
        "traj_len": 1.6082695227845953,
        "weighted_distance": 2.030376429503756
    },
    "planner": "BKPIECE",
    "start": {
        "state": {
            "elbow_joint": 1.9715463870305268,
            "shoulder_lift_joint": -1.1394903361783484,
            "shoulder_pan_joint": 0.12281147578464417,
            "wrist_1_joint": -0.7804599489681411,
            "wrist_2_joint": 0.12958660307563738,
            "wrist_3_joint": -3.1924946282119055
        }
    },
    "waypoints": [
        {
            "positions": [
                0.12281147578464417,
                -1.1394903361783484,
                1.9715463870305268,
                -0.7804599489681411,
                0.12958660307563738,
                -3.1924946282119055
            ]
        },
        {
            "positions": [
                0.057280216922299995,
                -1.173026040370847,
                2.035898087221143,
                -0.815398924157098,
                0.28740517686275535,
                -3.1791664321594695
            ]
        },
        {
            "positions": [
                -0.008251041940044182,
                -1.2065617445633454,
                2.100249787411759,
                -0.8503378993460549,
                0.4452237506498733,
                -3.1658382361070334
            ]
        },
        {
            "positions": [
                -0.07378230080238836,
                -1.240097448755844,
                2.1646014876023756,
                -0.8852768745350118,
                0.6030423244369914,
                -3.1525100400545973
            ]
        },
        {
            "positions": [
                -0.13931355966473252,
                -1.2736331529483427,
                2.228953187792992,
                -0.9202158497239687,
                0.7608608982241093,
                -3.139181844002161
            ]
        },
        {
            "positions": [
                -0.2048448185270767,
                -1.3071688571408413,
                2.2933048879836084,
                -0.9551548249129256,
                0.9186794720112273,
                -3.1258536479497248
            ]
        },
        {
            "positions": [
                -0.2703760773894209,
                -1.3407045613333397,
                2.3576565881742244,
                -0.9900938001018825,
                1.0764980457983453,
                -3.1125254518972887
            ]
        },
        {
            "positions": [
                -0.33590733625176505,
                -1.3742402655258383,
                2.422008288364841,
                -1.0250327752908395,
                1.2343166195854633,
                -3.0991972558448526
            ]
        }
    ]
}