{
    "goal": {
        "global_pose": {
            "orientation": {
                "w": 0.7031023502349854,
                "x": -0.7110244035720825,
                "y": 0.007748599164187908,
                "z": 0.005598929710686207
            },
            "position": {
                "x": 0.11585023208521307,
                "y": 0.44412534475326537,
                "z": 0.3711530566215515
            }
        },
        "name": "move_to_auspresseinheit_A"
    },
    "id": "BKPIECE_move_to_auspresseinheit_A_120",
    "joint_names": [
        "shoulder_pan_joint",
        "shoulder_lift_joint",
        "elbow_joint",
        "wrist_1_joint",
        "wrist_2_joint",
        "wrist_3_joint"
    ],
    "metrics": {
        "cart_traj_len": 0.9460070285923774,
        "distance_elbow_joint": 0.24813235860252547,
        "distance_shoulder_lift_joint": 1.3316213668779928,
        "distance_shoulder_pan_joint": 1.0403476984531008,
        "distance_wrist_1_joint": 0.766909899130197,
        "distance_wrist_2_joint": 1.1477397444867896,
        "distance_wrist_3_joint": 1.4538984964120463,
        "smoothness": 1.340697669983048,
        "time": 0.350859171,
        "traj_len": 2.44717174794959,
        "weighted_distance": 3.2880231447487915
    },
    "planner": "BKPIECE",
    "start": {
        "state": {
            "elbow_joint": 2.422574709923281,
            "shoulder_lift_joint": -1.3736533754116391,
            "shoulder_pan_joint": -0.33786336945926293,
            "wrist_1_joint": -1.0288603412921917,
            "wrist_2_joint": 1.2330224858903978,
            "wrist_3_joint": -3.094022268022082
        }
    },
    "waypoints": [
        {
            "positions": [
                -0.33786336945926293,
                -1.3736533754116391,
                2.422574709923281,
                -1.0288603412921917,
                1.2330224858903978,
                -3.094022268022082
            ]
        },
        {
            "positions": [
                -0.2682093427193044,
                -1.4584688360040852,
                2.40993343700216,
                -0.9684227558336521,
                1.156518263186574,
                -3.0296858203859167
            ]
        },
        {
            "positions": [
                -0.19855531597934595,
                -1.5432842965965312,
                2.3972921640810383,
                -0.9079851703751126,
                1.08001404048275,
                -2.965349372749751
            ]
        },
        {
            "positions": [
                -0.12890128923938746,
                -1.6280997571889773,
                2.384650891159917,
                -0.847547584916573,
                1.0035098177789263,
                -2.9010129251135854
            ]
        },
        {
            "positions": [
                -0.059247262499428965,
                -1.7129152177814233,
                2.372009618238796,
                -0.7871099994580335,
                0.9270055950751024,
                -2.83667647747742
            ]
        },
        {
            "positions": [
                0.010406764240529554,
                -1.7977306783738691,
                2.3593683453176744,
                -0.7266724139994939,
                0.8505013723712787,
                -2.772340029841254
            ]
        },
        {
            "positions": [
                0.08006079098048802,
                -1.8825461389663154,
                2.346727072396553,
                -0.6662348285409543,
                0.7739971496674548,
                -2.7080035822050887
            ]
        },
        {
            "positions": [
                0.14971481772044654,
                -1.9673615995587612,
                2.3340857994754316,
                -0.6057972430824148,
                0.697492926963631,
                -2.643667134568923
            ]
        },
        {
            "positions": [
                0.219368844460405,
                -2.0521770601512075,
                2.3214445265543104,
                -0.5453596576238752,
                0.6209887042598071,
                -2.5793306869327575
            ]
        },
        {
            "positions": [
                0.2890228712003636,
                -2.1369925207436533,
                2.3088032536331893,
                -0.48492207216533556,
                0.5444844815559832,
                -2.514994239296592
            ]
        },
        {
            "positions": [
                0.35867689794032204,
                -2.2218079813360996,
                2.2961619807120677,
                -0.42448448670679606,
                0.46798025885215944,
                -2.4506577916604266
            ]
        },
        {
            "positions": [
                0.42833092468028056,
                -2.3066234419285454,
                2.2835207077909465,
                -0.36404690124825645,
                0.39147603614833554,
                -2.3863213440242608
            ]
        },
        {
            "positions": [
                0.48316160554299203,
                -2.2268931818563282,
                2.305336379084985,
                -0.3844661930655088,
                0.452714695097281,
                -2.5355608585071057
            ]
        },
        {
            "positions": [
                0.5379922864057036,
                -2.1471629217841106,
                2.327152050379023,
                -0.4048854848827611,
                0.5139533540462264,
                -2.6848003729899506
            ]
        },
        {
            "positions": [
                0.5928229672684151,
                -2.0674326617118934,
                2.348967721673061,
                -0.42530477670001343,
                0.575192012995172,
                -2.834039887472796
            ]
        },
        {
            "positions": [
                0.6476536481311266,
                -1.9877024016396763,
                2.370783392967099,
                -0.4457240685172658,
                0.6364306719441175,
                -2.983279401955641
            ]
        },
        {
            "positions": [
                0.7024843289938381,
                -1.9079721415674589,
                2.3925990642611374,
                -0.46614336033451814,
                0.6976693308930629,
                -3.1325189164384857
            ]
        }
    ]
}