{
    "goal": {
        "global_pose": {
            "orientation": {
                "w": 0.7031023502349854,
                "x": -0.7110244035720825,
                "y": 0.007748599164187908,
                "z": 0.005598929710686207
            },
            "position": {
                "x": 0.11585023208521307,
                "y": 0.44412534475326537,
                "z": 0.3711530566215515
            }
        },
        "name": "move_to_auspresseinheit_A"
    },
    "id": "BKPIECE_move_to_auspresseinheit_A_45",
    "joint_names": [
        "shoulder_pan_joint",
        "shoulder_lift_joint",
        "elbow_joint",
        "wrist_1_joint",
        "wrist_2_joint",
        "wrist_3_joint"
    ],
    "metrics": {
        "cart_traj_len": 2.601458398134091,
        "distance_elbow_joint": 1.7732978452224577,
        "distance_shoulder_lift_joint": 0.7237564701728334,
        "distance_shoulder_pan_joint": 3.085830651564404,
        "distance_wrist_1_joint": 0.6299868617911888,
        "distance_wrist_2_joint": 0.7264378478665459,
        "distance_wrist_3_joint": 4.307838176629131,
        "smoothness": 0.2198118654012321,
        "time": 0.35324073699999997,
        "traj_len": 3.3536767663635323,
        "weighted_distance": 4.606435597743939
    },
    "planner": "BKPIECE",
    "start": {
        "state": {
            "elbow_joint": 2.422574709923281,
            "shoulder_lift_joint": -1.3736533754116391,
            "shoulder_pan_joint": -0.33786336945926293,
            "wrist_1_joint": -1.0288603412921917,
            "wrist_2_joint": 1.2330224858903978,
            "wrist_3_joint": -3.094022268022082
        }
    },
    "waypoints": [
        {
            "positions": [
                -0.33786336945926293,
                -1.3736533754116391,
                2.422574709923281,
                -1.0288603412921917,
                1.2330224858903978,
                -3.094022268022082
            ]
        },
        {
            "positions": [
                -0.2889769584776052,
                -1.3971647126031717,
                2.3507136722523727,
                -0.9991458035242289,
                1.1789262051688998,
                -2.960083763212488
            ]
        },
        {
            "positions": [
                -0.24009054749594744,
                -1.4206760497947042,
                2.2788526345814644,
                -0.9694312657562659,
                1.1248299244474016,
                -2.8261452584028937
            ]
        },
        {
            "positions": [
                -0.19120413651428972,
                -1.4441873869862367,
                2.206991596910556,
                -0.9397167279883031,
                1.0707336437259034,
                -2.6922067535932994
            ]
        },
        {
            "positions": [
                -0.14231772553263197,
                -1.4676987241777693,
                2.1351305592396472,
                -0.9100021902203401,
                1.0166373630044054,
                -2.5582682487837047
            ]
        },
        {
            "positions": [
                -0.09343131455097423,
                -1.4912100613693018,
                2.063269521568739,
                -0.8802876524523773,
                0.9625410822829074,
                -2.4243297439741105
            ]
        },
        {
            "positions": [
                -0.04454490356931651,
                -1.5147213985608343,
                1.9914084838978305,
                -0.8505731146844144,
                0.9084448015614093,
                -2.2903912391645163
            ]
        },
        {
            "positions": [
                0.004341507412341239,
                -1.5382327357523669,
                1.9195474462269222,
                -0.8208585769164516,
                0.8543485208399112,
                -2.156452734354922
            ]
        },
        {
            "positions": [
                0.053227918393998985,
                -1.5617440729438994,
                1.8476864085560136,
                -0.7911440391484886,
                0.8002522401184131,
                -2.022514229545328
            ]
        },
        {
            "positions": [
                0.10211432937565679,
                -1.585255410135432,
                1.775825370885105,
                -0.7614295013805257,
                0.7461559593969149,
                -1.888575724735733
            ]
        },
        {
            "positions": [
                0.15100074035731448,
                -1.6087667473269645,
                1.7039643332141967,
                -0.7317149636125628,
                0.692059678675417,
                -1.754637219926139
            ]
        },
        {
            "positions": [
                0.19988715133897228,
                -1.632278084518497,
                1.6321032955432884,
                -0.7020004258446,
                0.6379633979539189,
                -1.6206987151165446
            ]
        },
        {
            "positions": [
                0.39311581682161006,
                -1.6818432189956118,
                1.6653464779169278,
                -0.6996233709813894,
                0.6389146405369551,
                -1.5181751785489028
            ]
        },
        {
            "positions": [
                0.5863444823042478,
                -1.7314083534727265,
                1.6985896602905672,
                -0.6972463161181788,
                0.6398658831199914,
                -1.415651641981261
            ]
        },
        {
            "positions": [
                0.7795731477868856,
                -1.7809734879498413,
                1.7318328426642065,
                -0.6948692612549682,
                0.6408171257030275,
                -1.313128105413619
            ]
        },
        {
            "positions": [
                0.9728018132695234,
                -1.830538622426956,
                1.7650760250378459,
                -0.6924922063917576,
                0.6417683682860638,
                -1.2106045688459772
            ]
        },
        {
            "positions": [
                1.1660304787521611,
                -1.8801037569040708,
                1.7983192074114853,
                -0.690115151528547,
                0.6427196108691,
                -1.1080810322783354
            ]
        },
        {
            "positions": [
                1.3154262304779296,
                -1.9179393671428975,
                1.827298831477679,
                -0.6899340601421593,
                0.6459766709353286,
                -1.0340121530818176
            ]
        },
        {
            "positions": [
                1.4648219822036983,
                -1.9557749773817243,
                1.8562784555438727,
                -0.6897529687557717,
                0.6492337310015572,
                -0.9599432738852998
            ]
        },
        {
            "positions": [
                1.5785370801964855,
                -1.979860953724678,
                1.9121299700464354,
                -0.7062781437147203,
                0.6767308541972846,
                -0.9586212108160832
            ]
        },
        {
            "positions": [
                1.6922521781892728,
                -2.003946930067632,
                1.9679814845489978,
                -0.7228033186736689,
                0.704227977393012,
                -0.9572991477468666
            ]
        },
        {
            "positions": [
                1.7105104996286946,
                -2.0004522789161587,
                2.0376861313365024,
                -0.7277699326226933,
                0.7235392603310847,
                -1.0984066033721924
            ]
        },
        {
            "positions": [
                1.7287688210681162,
                -1.9969576277646852,
                2.1073907781240067,
                -0.7327365465717177,
                0.7428505432691574,
                -1.2395140589975182
            ]
        },
        {
            "positions": [
                1.7220991157374876,
                -1.9821902510300966,
                2.1958483392432124,
                -0.716908201411668,
                0.7424164024359954,
                -1.4902860096831527
            ]
        },
        {
            "positions": [
                1.715429410406859,
                -1.967422874295508,
                2.284305900362418,
                -0.7010798562516183,
                0.7419822616028333,
                -1.741057960368787
            ]
        },
        {
            "positions": [
                1.7087597050762304,
                -1.9526554975609196,
                2.372763461481624,
                -0.6852515110915686,
                0.7415481207696711,
                -1.9918299110544213
            ]
        },
        {
            "positions": [
                1.7020899997456018,
                -1.937888120826331,
                2.4612210226008298,
                -0.6694231659315188,
                0.7411139799365091,
                -2.242601861740056
            ]
        },
        {
            "positions": [
                1.6475807491836194,
                -1.9320606090229266,
                2.4839182445941823,
                -0.6548804282978118,
                0.7393680200546228,
                -2.3634060797868472
            ]
        },
        {
            "positions": [
                1.593071498621637,
                -1.9262330972195225,
                2.5066154665875344,
                -0.6403376906641046,
                0.7376220601727365,
                -2.4842102978336387
            ]
        },
        {
            "positions": [
                1.4163712709035279,
                -1.9230832806857763,
                2.4849526146278906,
                -0.6092382795578627,
                0.733369433869055,
                -2.6130510790870676
            ]
        },
        {
            "positions": [
                1.2396710431854188,
                -1.91993346415203,
                2.463289762668247,
                -0.5781388684516207,
                0.7291168075653734,
                -2.741891860340496
            ]
        },
        {
            "positions": [
                1.0629708154673099,
                -1.9167836476182836,
                2.441626910708603,
                -0.5470394573453787,
                0.724864181261692,
                -2.870732641593925
            ]
        },
        {
            "positions": [
                0.8862705877492008,
                -1.9136338310845373,
                2.4199640587489593,
                -0.5159400462391368,
                0.7206115549580105,
                -2.9995734228473534
            ]
        },
        {
            "positions": [
                0.7095703600310918,
                -1.910484014550791,
                2.3983012067893155,
                -0.4848406351328948,
                0.716358928654329,
                -3.1284142041007823
            ]
        }
    ]
}