{
    "goal": {
        "global_pose": {
            "orientation": {
                "w": -0.00223480608172531,
                "x": 0.0024358444001904467,
                "y": 0.7094548369677653,
                "z": -0.704743149386269
            },
            "position": {
                "x": 0.6205249238014221,
                "y": -0.6371506643295288,
                "z": 0.19426114857196808
            }
        },
        "name": "move_to_magneteinheit_B"
    },
    "id": "BKPIECE_move_to_magneteinheit_B_127",
    "joint_names": [
        "shoulder_pan_joint",
        "shoulder_lift_joint",
        "elbow_joint",
        "wrist_1_joint",
        "wrist_2_joint",
        "wrist_3_joint"
    ],
    "metrics": {
        "cart_traj_len": 3.643754375021515,
        "distance_elbow_joint": 4.1209847770699,
        "distance_shoulder_lift_joint": 0.8024012596734931,
        "distance_shoulder_pan_joint": 2.1650567684810005,
        "distance_wrist_1_joint": 2.248701234917472,
        "distance_wrist_2_joint": 1.1743626881303069,
        "distance_wrist_3_joint": 2.8307218595826193,
        "smoothness": 0.28782701695775276,
        "time": 0.499797783,
        "traj_len": 3.652701546507022,
        "weighted_distance": 4.735687513980184
    },
    "planner": "BKPIECE",
    "start": {
        "state": {
            "elbow_joint": 2.39358713078474,
            "shoulder_lift_joint": -1.908514104345545,
            "shoulder_pan_joint": 0.7066247066606129,
            "wrist_1_joint": -0.4678290933515497,
            "wrist_2_joint": 0.7096259083745334,
            "wrist_3_joint": -3.1358149277392293
        }
    },
    "waypoints": [
        {
            "positions": [
                0.7066247066606129,
                -1.908514104345545,
                2.39358713078474,
                -0.4678290933515497,
                0.7096259083745334,
                -3.1358149277392293
            ]
        },
        {
            "positions": [
                0.7340499764128043,
                -1.9474885617538875,
                2.3825217934574736,
                -0.43290460716057066,
                0.6565811352421785,
                -3.0376493096290167
            ]
        },
        {
            "positions": [
                0.7614752461649956,
                -1.9864630191622301,
                2.3714564561302076,
                -0.3979801209695917,
                0.6035363621098236,
                -2.9394836915188045
            ]
        },
        {
            "positions": [
                0.7889005159171869,
                -2.0254374765705725,
                2.3603911188029416,
                -0.36305563477861263,
                0.5504915889774687,
                -2.8413180734085923
            ]
        },
        {
            "positions": [
                0.8163257856693783,
                -2.0644119339789153,
                2.349325781475675,
                -0.3281311485876336,
                0.4974468158451139,
                -2.7431524552983797
            ]
        },
        {
            "positions": [
                0.8793559590329765,
                -2.047998396530017,
                2.1763743118638894,
                -0.3815771719480773,
                0.48055147338756354,
                -2.679508689780095
            ]
        },
        {
            "positions": [
                0.9423861323965748,
                -2.0315848590811187,
                2.0034228422521037,
                -0.43502319530852096,
                0.46365613093001323,
                -2.6158649242618104
            ]
        },
        {
            "positions": [
                1.0054163057601728,
                -2.0151713216322205,
                1.830471372640318,
                -0.48846921866896464,
                0.44676078847246287,
                -2.5522211587435257
            ]
        },
        {
            "positions": [
                1.068446479123771,
                -1.9987577841833222,
                1.6575199030285321,
                -0.5419152420294083,
                0.4298654460149125,
                -2.488577393225241
            ]
        },
        {
            "positions": [
                1.1314766524873692,
                -1.9823442467344239,
                1.4845684334167464,
                -0.5953612653898521,
                0.4129701035573622,
                -2.4249336277069564
            ]
        },
        {
            "positions": [
                1.1945068258509675,
                -1.9659307092855256,
                1.3116169638049604,
                -0.6488072887502958,
                0.3960747610998118,
                -2.3612898621886718
            ]
        },
        {
            "positions": [
                1.2575369992145657,
                -1.9495171718366273,
                1.1386654941931746,
                -0.7022533121107395,
                0.37917941864226146,
                -2.297646096670387
            ]
        },
        {
            "positions": [
                1.3205671725781638,
                -1.933103634387729,
                0.9657140245813889,
                -0.7556993354711832,
                0.36228407618471115,
                -2.2340023311521024
            ]
        },
        {
            "positions": [
                1.383597345941762,
                -1.9166900969388307,
                0.7927625549696031,
                -0.8091453588316269,
                0.3453887337271608,
                -2.170358565633818
            ]
        },
        {
            "positions": [
                1.4466275193053604,
                -1.9002765594899325,
                0.6198110853578174,
                -0.8625913821920705,
                0.3284933912696104,
                -2.106714800115533
            ]
        },
        {
            "positions": [
                1.5096576926689584,
                -1.8838630220410342,
                0.4468596157460316,
                -0.9160374055525142,
                0.3115980488120601,
                -2.0430710345972485
            ]
        },
        {
            "positions": [
                1.5726878660325567,
                -1.8674494845921359,
                0.27390814613424563,
                -0.9694834289129579,
                0.29470270635450974,
                -1.979427269078964
            ]
        },
        {
            "positions": [
                1.635718039396155,
                -1.8510359471432376,
                0.10095667652245988,
                -1.0229294522734016,
                0.27780736389695937,
                -1.9157835035606794
            ]
        },
        {
            "positions": [
                1.698748212759753,
                -1.8346224096943393,
                -0.07199479308932588,
                -1.0763754756338453,
                0.26091202143940906,
                -1.8521397380423947
            ]
        },
        {
            "positions": [
                1.7617783861233514,
                -1.818208872245441,
                -0.24494626270111164,
                -1.129821498994289,
                0.2440166789818587,
                -1.78849597252411
            ]
        },
        {
            "positions": [
                1.8248085594869494,
                -1.8017953347965427,
                -0.41789773231289723,
                -1.1832675223547326,
                0.22712133652430833,
                -1.7248522070058254
            ]
        },
        {
            "positions": [
                1.9242137472903666,
                -1.8126104193757326,
                -0.5570886480367855,
                -1.27022131883392,
                0.21899218694043784,
                -1.75967124364212
            ]
        },
        {
            "positions": [
                2.023618935093784,
                -1.8234255039549225,
                -0.6962795637606737,
                -1.3571751153131073,
                0.2108630373565674,
                -1.7944902802784146
            ]
        },
        {
            "positions": [
                2.1230241228972013,
                -1.8342405885341124,
                -0.835470479484562,
                -1.4441289117922946,
                0.2027338877726969,
                -1.8293093169147092
            ]
        },
        {
            "positions": [
                2.2224293107006186,
                -1.8450556731133023,
                -0.9746613952084502,
                -1.531082708271482,
                0.19460473818882645,
                -1.8641283535510036
            ]
        },
        {
            "positions": [
                2.321834498504036,
                -1.8558707576924922,
                -1.1138523109323386,
                -1.6180365047506693,
                0.18647558860495594,
                -1.8989473901872982
            ]
        },
        {
            "positions": [
                2.4212396863074535,
                -1.866685842271682,
                -1.2530432266562266,
                -1.7049903012298564,
                0.1783464390210855,
                -1.9337664268235928
            ]
        },
        {
            "positions": [
                2.5206448741108707,
                -1.877500926850872,
                -1.392234142380115,
                -1.791944097709044,
                0.170217289437215,
                -1.9685854634598874
            ]
        },
        {
            "positions": [
                2.620050061914288,
                -1.888316011430062,
                -1.531425058104003,
                -1.878897894188231,
                0.16208813985334455,
                -2.003404500096182
            ]
        },
        {
            "positions": [
                2.719455249717705,
                -1.8991310960092518,
                -1.6706159738278914,
                -1.9658516906674184,
                0.15395899026947407,
                -2.0382235367324766
            ]
        },
        {
            "positions": [
                2.731247289628495,
                -1.9361735549339265,
                -1.6756572807231411,
                -2.0305628627854775,
                0.09443645644123888,
                -2.160957199169407
            ]
        },
        {
            "positions": [
                2.7430393295392856,
                -1.9732160138586015,
                -1.6806985876183909,
                -2.095274034903537,
                0.0349139226130037,
                -2.283690861606338
            ]
        },
        {
            "positions": [
                2.754831369450076,
                -2.0102584727832764,
                -1.6857398945136404,
                -2.1599852070215957,
                -0.024608611215231474,
                -2.4064245240432687
            ]
        },
        {
            "positions": [
                2.766623409360866,
                -2.047300931707951,
                -1.69078120140889,
                -2.224696379139655,
                -0.08413114504346667,
                -2.529158186480199
            ]
        },
        {
            "positions": [
                2.7403588929156792,
                -2.0818962401945367,
                -1.681627090189823,
                -2.2778058940400387,
                -0.17928255372154336,
                -2.6830214763239093
            ]
        },
        {
            "positions": [
                2.7140943764704923,
                -2.1164915486811218,
                -1.672472978970756,
                -2.330915408940422,
                -0.27443396239962004,
                -2.83688476616762
            ]
        },
        {
            "positions": [
                2.6878298600253054,
                -2.1510868571677073,
                -1.6633188677516888,
                -2.3840249238408058,
                -0.36958537107769673,
                -2.9907480560113306
            ]
        },
        {
            "positions": [
                2.6615653435801185,
                -2.185682165654293,
                -1.6541647565326216,
                -2.4371344387411895,
                -0.4647367797557735,
                -3.144611345855041
            ]
        }
    ]
}