{
    "goal": {
        "global_pose": {
            "orientation": {
                "w": 0.7031023502349854,
                "x": -0.7110244035720825,
                "y": 0.007748599164187908,
                "z": 0.005598929710686207
            },
            "position": {
                "x": 0.11585023208521307,
                "y": 0.44412534475326537,
                "z": 0.3711530566215515
            }
        },
        "name": "move_to_auspresseinheit_A"
    },
    "id": "BKPIECE_move_to_auspresseinheit_A_13",
    "joint_names": [
        "shoulder_pan_joint",
        "shoulder_lift_joint",
        "elbow_joint",
        "wrist_1_joint",
        "wrist_2_joint",
        "wrist_3_joint"
    ],
    "metrics": {
        "cart_traj_len": 0.7145104791362358,
        "distance_elbow_joint": 0.17157918972048192,
        "distance_shoulder_lift_joint": 0.5345667249431745,
        "distance_shoulder_pan_joint": 1.0415648618056177,
        "distance_wrist_1_joint": 0.6497563118728275,
        "distance_wrist_2_joint": 0.5319044939411535,
        "distance_wrist_3_joint": 0.03494284986073959,
        "smoothness": 0.6483798167115962,
        "time": 0.38589363899999995,
        "traj_len": 1.7217184532158545,
        "weighted_distance": 2.053256179262455
    },
    "planner": "BKPIECE",
    "start": {
        "state": {
            "elbow_joint": 2.422574709923281,
            "shoulder_lift_joint": -1.3736533754116391,
            "shoulder_pan_joint": -0.33786336945926293,
            "wrist_1_joint": -1.0288603412921917,
            "wrist_2_joint": 1.2330224858903978,
            "wrist_3_joint": -3.094022268022082
        }
    },
    "waypoints": [
        {
            "positions": [
                -0.33786336945926293,
                -1.3736533754116391,
                2.422574709923281,
                -1.0288603412921917,
                1.2330224858903978,
                -3.094022268022082
            ]
        },
        {
            "positions": [
                -0.20898094254892088,
                -1.4465550305474968,
                2.4081848592121147,
                -0.9422496021450705,
                1.1572896126055416,
                -3.095585129703435
            ]
        },
        {
            "positions": [
                -0.08009851563857884,
                -1.5194566856833547,
                2.3937950085009483,
                -0.8556388629979492,
                1.0815567393206857,
                -3.097147991384788
            ]
        },
        {
            "positions": [
                0.048783911271763236,
                -1.5923583408192123,
                2.379405157789782,
                -0.7690281238508279,
                1.0058238660358296,
                -3.098710853066141
            ]
        },
        {
            "positions": [
                0.17766633818210525,
                -1.6652599959550702,
                2.365015307078615,
                -0.6824173847037066,
                0.9300909927509735,
                -3.100273714747494
            ]
        },
        {
            "positions": [
                0.3065487650924474,
                -1.738161651090928,
                2.3506254563674487,
                -0.5958066455565854,
                0.8543581194661175,
                -3.101836576428847
            ]
        },
        {
            "positions": [
                0.4354311920027894,
                -1.8110633062267856,
                2.3362356056562823,
                -0.5091959064094641,
                0.7786252461812615,
                -3.1033994381102
            ]
        },
        {
            "positions": [
                0.5643136189131315,
                -1.8839649613626435,
                2.321845754945116,
                -0.42258516726234274,
                0.7028923728964054,
                -3.104962299791553
            ]
        },
        {
            "positions": [
                0.7037014923463546,
                -1.9082201003548136,
                2.3926959896874327,
                -0.4660663051053212,
                0.7046667538435665,
                -3.1289651178828217
            ]
        }
    ]
}