{
    "goal": {
        "global_pose": {
            "orientation": {
                "w": 0.7031023502349854,
                "x": -0.7110244035720825,
                "y": 0.007748599164187908,
                "z": 0.005598929710686207
            },
            "position": {
                "x": 0.11585023208521307,
                "y": 0.44412534475326537,
                "z": 0.3711530566215515
            }
        },
        "name": "move_to_auspresseinheit_A"
    },
    "id": "BKPIECE_move_to_auspresseinheit_A_124",
    "joint_names": [
        "shoulder_pan_joint",
        "shoulder_lift_joint",
        "elbow_joint",
        "wrist_1_joint",
        "wrist_2_joint",
        "wrist_3_joint"
    ],
    "metrics": {
        "cart_traj_len": 1.8075737049413048,
        "distance_elbow_joint": 2.053305890842687,
        "distance_shoulder_lift_joint": 0.6028453667912945,
        "distance_shoulder_pan_joint": 1.068543831336739,
        "distance_wrist_1_joint": 1.5082505598780913,
        "distance_wrist_2_joint": 2.3839305346179005,
        "distance_wrist_3_joint": 2.8795684045966308,
        "smoothness": 0.5961275636965527,
        "time": 0.303159268,
        "traj_len": 3.239821690782278,
        "weighted_distance": 4.488625902406281
    },
    "planner": "BKPIECE",
    "start": {
        "state": {
            "elbow_joint": 2.422574709923281,
            "shoulder_lift_joint": -1.3736533754116391,
            "shoulder_pan_joint": -0.33786336945926293,
            "wrist_1_joint": -1.0288603412921917,
            "wrist_2_joint": 1.2330224858903978,
            "wrist_3_joint": -3.094022268022082
        }
    },
    "waypoints": [
        {
            "positions": [
                -0.33786336945926293,
                -1.3736533754116391,
                2.422574709923281,
                -1.0288603412921917,
                1.2330224858903978,
                -3.094022268022082
            ]
        },
        {
            "positions": [
                -0.2741245098259258,
                -1.399072263970897,
                2.344069523836608,
                -1.0097159991354865,
                1.158031797275861,
                -2.985683178179491
            ]
        },
        {
            "positions": [
                -0.21038565019258865,
                -1.424491152530155,
                2.2655643377499346,
                -0.9905716569787812,
                1.083041108661324,
                -2.8773440883369
            ]
        },
        {
            "positions": [
                -0.1466467905592515,
                -1.4499100410894128,
                2.1870591516632616,
                -0.971427314822076,
                1.0080504200467872,
                -2.769004998494309
            ]
        },
        {
            "positions": [
                -0.08290793092591436,
                -1.4753289296486707,
                2.1085539655765886,
                -0.9522829726653708,
                0.9330597314322502,
                -2.6606659086517173
            ]
        },
        {
            "positions": [
                -0.019169071292577222,
                -1.5007478182079286,
                2.030048779489915,
                -0.9331386305086655,
                0.8580690428177133,
                -2.552326818809126
            ]
        },
        {
            "positions": [
                0.04456978834075992,
                -1.5261667067671867,
                1.9515435934032421,
                -0.9139942883519604,
                0.7830783542031765,
                -2.443987728966535
            ]
        },
        {
            "positions": [
                0.108308647974097,
                -1.5515855953264446,
                1.8730384073165691,
                -0.8948499461952552,
                0.7080876655886397,
                -2.335648639123944
            ]
        },
        {
            "positions": [
                0.1720475076074342,
                -1.5770044838857025,
                1.794533221229896,
                -0.8757056040385499,
                0.6330969769741027,
                -2.227309549281353
            ]
        },
        {
            "positions": [
                0.23578636724077134,
                -1.6024233724449604,
                1.7160280351432227,
                -0.8565612618818447,
                0.5581062883595659,
                -2.1189704594387617
            ]
        },
        {
            "positions": [
                0.29952522687410854,
                -1.6278422610042182,
                1.6375228490565497,
                -0.8374169197251394,
                0.48311559974502905,
                -2.0106313695961706
            ]
        },
        {
            "positions": [
                0.3613603762345134,
                -1.6601862987495055,
                1.5862740850781991,
                -0.7748518312841022,
                0.3928272354952179,
                -1.9427679720555406
            ]
        },
        {
            "positions": [
                0.42319552559491824,
                -1.6925303364947928,
                1.5350253210998486,
                -0.712286742843065,
                0.3025388712454068,
                -1.8749045745149107
            ]
        },
        {
            "positions": [
                0.48503067495532315,
                -1.7248743742400798,
                1.483776557121498,
                -0.6497216544020278,
                0.21225050699559572,
                -1.8070411769742805
            ]
        },
        {
            "positions": [
                0.546865824315728,
                -1.757218411985367,
                1.4325277931431475,
                -0.5871565659609905,
                0.1219621427457846,
                -1.7391777794336505
            ]
        },
        {
            "positions": [
                0.6087009736761329,
                -1.7895624497306544,
                1.381279029164797,
                -0.5245914775199534,
                0.0316737784959735,
                -1.6713143818930205
            ]
        },
        {
            "positions": [
                0.6295575192644851,
                -1.8179437737873303,
                1.4520043574024823,
                -0.42653094704165706,
                -0.01830288654744159,
                -1.7604186680680294
            ]
        },
        {
            "positions": [
                0.6504140648528375,
                -1.8463250978440062,
                1.522729685640168,
                -0.32847041656336073,
                -0.06827955159085668,
                -1.8495229542430385
            ]
        },
        {
            "positions": [
                0.6712706104411897,
                -1.8747064219006824,
                1.5934550138778534,
                -0.2304098860850644,
                -0.11825621663427174,
                -1.9386272404180473
            ]
        },
        {
            "positions": [
                0.6921271560295421,
                -1.9030877459573583,
                1.664180342115539,
                -0.13234935560676808,
                -0.16823288167768685,
                -2.0277315265930564
            ]
        },
        {
            "positions": [
                0.7129837016178944,
                -1.9314690700140342,
                1.7349056703532244,
                -0.03428882512847174,
                -0.21820954672110193,
                -2.1168358127680653
            ]
        },
        {
            "positions": [
                0.7165265388283841,
                -1.9416698543273183,
                1.7778722219552237,
                0.005376435774161546,
                -0.22708261690399575,
                -2.1703750062262666
            ]
        },
        {
            "positions": [
                0.7142942969225305,
                -1.9418136268715243,
                1.874340873684953,
                -0.027848190032608758,
                -0.12055709048578435,
                -2.3122260028369346
            ]
        },
        {
            "positions": [
                0.7120620550166769,
                -1.9419573994157304,
                1.9708095254146822,
                -0.06107281583937906,
                -0.014031564067572944,
                -2.4540769994476026
            ]
        },
        {
            "positions": [
                0.7098298131108233,
                -1.9421011719599364,
                2.0672781771444115,
                -0.09429744164614937,
                0.09249396235063842,
                -2.59592799605827
            ]
        },
        {
            "positions": [
                0.7075975712049696,
                -1.9422449445041425,
                2.1637468288741406,
                -0.12752206745291966,
                0.19901948876884987,
                -2.737778992668938
            ]
        },
        {
            "positions": [
                0.705365329299116,
                -1.9423887170483485,
                2.26021548060387,
                -0.16074669325968996,
                0.30554501518706123,
                -2.8796299892796062
            ]
        },
        {
            "positions": [
                0.7043677581258415,
                -1.9310187086634867,
                2.304573400152247,
                -0.2633769111856521,
                0.43594428176454464,
                -2.9624782929732674
            ]
        },
        {
            "positions": [
                0.7033701869525669,
                -1.919648700278625,
                2.348931319700623,
                -0.3660071291116142,
                0.566343548342028,
                -3.0453265966669285
            ]
        },
        {
            "positions": [
                0.7023726157792924,
                -1.9082786918937633,
                2.393289239249,
                -0.46863734703757637,
                0.6967428149195115,
                -3.1281749003605896
            ]
        }
    ]
}