{
    "goal": {
        "global_pose": {
            "orientation": {
                "w": 0.7047431468963623,
                "x": -0.7094548344612122,
                "y": 0.0024358443915843964,
                "z": -0.0022348060738295317
            },
            "position": {
                "x": 0.6094750761985779,
                "y": 0.3671506643295288,
                "z": 0.19426114857196808
            }
        },
        "name": "move_to_magneteinheit_A"
    },
    "id": "BKPIECE_move_to_magneteinheit_A_1",
    "joint_names": [
        "shoulder_pan_joint",
        "shoulder_lift_joint",
        "elbow_joint",
        "wrist_1_joint",
        "wrist_2_joint",
        "wrist_3_joint"
    ],
    "metrics": {
        "cart_traj_len": 2.0281965770235337,
        "distance_elbow_joint": 3.875280594427477,
        "distance_shoulder_lift_joint": 1.0547291426646124,
        "distance_shoulder_pan_joint": 1.2422462691272032,
        "distance_wrist_1_joint": 1.1382489934785258,
        "distance_wrist_2_joint": 1.4449872194654518,
        "distance_wrist_3_joint": 4.372256375870638,
        "smoothness": 6.090366311794259e-16,
        "time": 0.35284522500000004,
        "traj_len": 3.623223508843183,
        "weighted_distance": 4.945249999718837
    },
    "planner": "BKPIECE",
    "start": {
        "state": {
            "elbow_joint": -1.919643507792019,
            "shoulder_lift_joint": -0.07675430207160344,
            "shoulder_pan_joint": -1.1188671864651873,
            "wrist_1_joint": 0.42560062535961957,
            "wrist_2_joint": 1.5706038300724876,
            "wrist_3_joint": 1.1188968870953055
        }
    },
    "waypoints": [
        {
            "positions": [
                -1.1188671864651873,
                -0.07675430207160344,
                -1.919643507792019,
                0.42560062535961957,
                1.5706038300724876,
                1.1188968870953055
            ]
        },
        {
            "positions": [
                -1.0817773055436486,
                -0.1096838700631581,
                -1.80519286246982,
                0.3934936859893785,
                1.5257003161719433,
                0.9921247856513343
            ]
        },
        {
            "positions": [
                -1.0446874246221096,
                -0.14261343805471277,
                -1.6907422171476207,
                0.3613867466191375,
                1.480796802271399,
                0.8653526842073631
            ]
        },
        {
            "positions": [
                -1.0075975437005709,
                -0.17554300604626744,
                -1.5762915718254216,
                0.32927980724889644,
                1.4358932883708548,
                0.7385805827633919
            ]
        },
        {
            "positions": [
                -0.9705076627790319,
                -0.2084725740378221,
                -1.4618409265032224,
                0.2971728678786554,
                1.3909897744703108,
                0.6118084813194207
            ]
        },
        {
            "positions": [
                -0.933417781857493,
                -0.24140214202937677,
                -1.3473902811810232,
                0.2650659285084143,
                1.3460862605697665,
                0.48503637987544945
            ]
        },
        {
            "positions": [
                -0.8963279009359542,
                -0.27433171002093143,
                -1.232939635858824,
                0.23295898913817328,
                1.3011827466692223,
                0.35826427843147823
            ]
        },
        {
            "positions": [
                -0.8592380200144154,
                -0.3072612780124861,
                -1.1184889905366249,
                0.20085204976793225,
                1.256279232768678,
                0.23149217698750701
            ]
        },
        {
            "positions": [
                -0.8221481390928764,
                -0.34019084600404076,
                -1.0040383452144257,
                0.1687451103976912,
                1.2113757188681338,
                0.1047200755435358
            ]
        },
        {
            "positions": [
                -0.7850582581713377,
                -0.3731204139955954,
                -0.8895876998922265,
                0.13663817102745013,
                1.1664722049675895,
                -0.022052025900435535
            ]
        },
        {
            "positions": [
                -0.7479683772497987,
                -0.4060499819871501,
                -0.7751370545700274,
                0.10453123165720907,
                1.1215686910670453,
                -0.14882412734440664
            ]
        },
        {
            "positions": [
                -0.71087849632826,
                -0.43897954997870475,
                -0.6606864092478282,
                0.07242429228696806,
                1.0766651771665012,
                -0.27559622878837775
            ]
        },
        {
            "positions": [
                -0.6737886154067211,
                -0.4719091179702594,
                -0.546235763925629,
                0.040317352916727,
                1.0317616632659568,
                -0.4023683302323491
            ]
        },
        {
            "positions": [
                -0.6366987344851822,
                -0.5048386859618141,
                -0.43178511860342983,
                0.00821041354648594,
                0.9868581493654126,
                -0.5291404316763204
            ]
        },
        {
            "positions": [
                -0.5996088535636434,
                -0.5377682539533688,
                -0.31733447328123066,
                -0.023896525823755066,
                0.9419546354648685,
                -0.6559125331202915
            ]
        },
        {
            "positions": [
                -0.5625189726421045,
                -0.5706978219449235,
                -0.20288382795903148,
                -0.05600346519399613,
                0.8970511215643242,
                -0.7826846345642626
            ]
        },
        {
            "positions": [
                -0.5254290917205656,
                -0.6036273899364781,
                -0.08843318263683231,
                -0.08811040456423719,
                0.85214760766378,
                -0.909456736008234
            ]
        },
        {
            "positions": [
                -0.48833921079902676,
                -0.6365569579280328,
                0.026017462685366866,
                -0.1202173439344782,
                0.8072440937632357,
                -1.0362288374522053
            ]
        },
        {
            "positions": [
                -0.4512493298774879,
                -0.6694865259195875,
                0.14046810800756604,
                -0.1523242833047193,
                0.7623405798626914,
                -1.1630009388961766
            ]
        },
        {
            "positions": [
                -0.41415944895594903,
                -0.7024160939111421,
                0.25491875332976544,
                -0.18443122267496032,
                0.7174370659621473,
                -1.2897730403401475
            ]
        },
        {
            "positions": [
                -0.37706956803441016,
                -0.7353456619026968,
                0.3693693986519644,
                -0.21653816204520143,
                0.672533552061603,
                -1.4165451417841188
            ]
        },
        {
            "positions": [
                -0.3399796871128713,
                -0.7682752298942515,
                0.48382004397416334,
                -0.24864510141544244,
                0.6276300381610588,
                -1.5433172432280902
            ]
        },
        {
            "positions": [
                -0.30288980619133243,
                -0.8012047978858061,
                0.5982706892963627,
                -0.28075204078568344,
                0.5827265242605146,
                -1.670089344672061
            ]
        },
        {
            "positions": [
                -0.26579992526979357,
                -0.8341343658773608,
                0.7127213346185621,
                -0.31285898015592456,
                0.5378230103599704,
                -1.7968614461160324
            ]
        },
        {
            "positions": [
                -0.22871004434825482,
                -0.8670639338689154,
                0.8271719799407611,
                -0.34496591952616557,
                0.4929194964594261,
                -1.9236335475600037
            ]
        },
        {
            "positions": [
                -0.19162016342671595,
                -0.8999935018604701,
                0.94162262526296,
                -0.37707285889640657,
                0.44801598255888186,
                -2.050405649003975
            ]
        },
        {
            "positions": [
                -0.15453028250517709,
                -0.9329230698520248,
                1.0560732705851594,
                -0.4091797982666477,
                0.4031124686583376,
                -2.1771777504479464
            ]
        },
        {
            "positions": [
                -0.11744040158363811,
                -0.9658526378435794,
                1.1705239159073588,
                -0.4412867376368887,
                0.35820895475779335,
                -2.3039498518919173
            ]
        },
        {
            "positions": [
                -0.08035052066209936,
                -0.9987822058351341,
                1.2849745612295578,
                -0.4733936770071297,
                0.3133054408572493,
                -2.4307219533358886
            ]
        },
        {
            "positions": [
                -0.04326063974056038,
                -1.0317117738266888,
                1.3994252065517567,
                -0.5055006163773708,
                0.26840192695670506,
                -2.55749405477986
            ]
        },
        {
            "positions": [
                -0.006170758819021627,
                -1.0646413418182434,
                1.5138758518739561,
                -0.5376075557476119,
                0.2234984130561608,
                -2.684266156223831
            ]
        },
        {
            "positions": [
                0.03091912210251735,
                -1.097570909809798,
                1.6283264971961555,
                -0.569714495117853,
                0.17859489915561655,
                -2.811038257667802
            ]
        },
        {
            "positions": [
                0.06800900302405602,
                -1.1305004778013528,
                1.7427771425183542,
                -0.601821434488094,
                0.13369138525507218,
                -2.9378103591117735
            ]
        },
        {
            "positions": [
                0.09569404284303581,
                -1.1309919612687844,
                1.849207114576906,
                -0.6572349013035002,
                0.12965399793105384,
                -3.0955849239435533
            ]
        },
        {
            "positions": [
                0.12337908266201561,
                -1.1314834447362159,
                1.9556370866354575,
                -0.7126483681189064,
                0.1256166106070355,
                -3.2533594887753328
            ]
        }
    ]
}