{
    "goal": {
        "global_pose": {
            "orientation": {
                "w": -0.00223480608172531,
                "x": 0.0024358444001904467,
                "y": 0.7094548369677653,
                "z": -0.704743149386269
            },
            "position": {
                "x": 0.6205249238014221,
                "y": -0.6371506643295288,
                "z": 0.19426114857196808
            }
        },
        "name": "move_to_magneteinheit_B"
    },
    "id": "BKPIECE_move_to_magneteinheit_B_48",
    "joint_names": [
        "shoulder_pan_joint",
        "shoulder_lift_joint",
        "elbow_joint",
        "wrist_1_joint",
        "wrist_2_joint",
        "wrist_3_joint"
    ],
    "metrics": {
        "cart_traj_len": 1.4539769425625626,
        "distance_elbow_joint": 0.7341512312868737,
        "distance_shoulder_lift_joint": 1.2507340580489648,
        "distance_shoulder_pan_joint": 1.6204777844516456,
        "distance_wrist_1_joint": 2.603523705697914,
        "distance_wrist_2_joint": 2.950930042570789,
        "distance_wrist_3_joint": 3.134281121751119,
        "smoothness": 2.9605947481851345e-16,
        "time": 0.249781994,
        "traj_len": 3.50629404696858,
        "weighted_distance": 4.910917830261289
    },
    "planner": "BKPIECE",
    "start": {
        "state": {
            "elbow_joint": 2.39358713078474,
            "shoulder_lift_joint": -1.908514104345545,
            "shoulder_pan_joint": 0.7066247066606129,
            "wrist_1_joint": -0.4678290933515497,
            "wrist_2_joint": 0.7096259083745334,
            "wrist_3_joint": -3.1358149277392293
        }
    },
    "waypoints": [
        {
            "positions": [
                0.7066247066606129,
                -1.908514104345545,
                2.39358713078474,
                -0.4678290933515497,
                0.7096259083745334,
                -3.1358149277392293
            ]
        },
        {
            "positions": [
                0.6559847758964991,
                -1.8694286650315148,
                2.3706449048070253,
                -0.3864689775484899,
                0.6174093445441963,
                -3.037868642684507
            ]
        },
        {
            "positions": [
                0.6053448451323851,
                -1.8303432257174845,
                2.3477026788293105,
                -0.30510886174543006,
                0.5251927807138591,
                -2.9399223576297846
            ]
        },
        {
            "positions": [
                0.5547049143682712,
                -1.7912577864034545,
                2.3247604528515957,
                -0.22374874594237026,
                0.43297621688352195,
                -2.841976072575062
            ]
        },
        {
            "positions": [
                0.5040649836041573,
                -1.7521723470894244,
                2.301818226873881,
                -0.14238863013931047,
                0.3407596530531848,
                -2.7440297875203394
            ]
        },
        {
            "positions": [
                0.4534250528400433,
                -1.713086907775394,
                2.278876000896166,
                -0.06102851433625067,
                0.24854308922284762,
                -2.646083502465617
            ]
        },
        {
            "positions": [
                0.4027851220759294,
                -1.674001468461364,
                2.2559337749184514,
                0.02033160146680918,
                0.15632652539251046,
                -2.5481372174108943
            ]
        },
        {
            "positions": [
                0.3521451913118155,
                -1.634916029147334,
                2.2329915489407366,
                0.10169171726986898,
                0.0641099615621733,
                -2.450190932356172
            ]
        },
        {
            "positions": [
                0.30150526054770155,
                -1.5958305898333038,
                2.210049322963022,
                0.18305183307292877,
                -0.02810660226816386,
                -2.3522446473014496
            ]
        },
        {
            "positions": [
                0.2508653297835876,
                -1.5567451505192735,
                2.187107096985307,
                0.26441194887598857,
                -0.12032316609850102,
                -2.254298362246727
            ]
        },
        {
            "positions": [
                0.20022539901947367,
                -1.5176597112052435,
                2.164164871007592,
                0.34577206467904836,
                -0.21253972992883818,
                -2.156352077192005
            ]
        },
        {
            "positions": [
                0.1495854682553598,
                -1.4785742718912132,
                2.1412226450298775,
                0.42713218048210816,
                -0.30475629375917535,
                -2.058405792137282
            ]
        },
        {
            "positions": [
                0.0989455374912459,
                -1.439488832577183,
                2.1182804190521622,
                0.5084922962851681,
                -0.3969728575895125,
                -1.9604595070825597
            ]
        },
        {
            "positions": [
                0.04830560672713191,
                -1.400403393263153,
                2.0953381930744475,
                0.5898524120882278,
                -0.48918942141984967,
                -1.8625132220278373
            ]
        },
        {
            "positions": [
                -0.0023343240369819718,
                -1.361317953949123,
                2.0723959670967327,
                0.6712125278912877,
                -0.5814059852501868,
                -1.7645669369731147
            ]
        },
        {
            "positions": [
                -0.052974254801095966,
                -1.3222325146350928,
                2.049453741119018,
                0.7525726436943474,
                -0.673622549080524,
                -1.6666206519183921
            ]
        },
        {
            "positions": [
                -0.10361418556520985,
                -1.2831470753210625,
                2.026511515141303,
                0.8339327594974073,
                -0.7658391129108612,
                -1.5686743668636698
            ]
        },
        {
            "positions": [
                -0.15425411632932373,
                -1.2440616360070322,
                2.0035692891635883,
                0.9152928753004672,
                -0.8580556767411983,
                -1.4707280818089474
            ]
        },
        {
            "positions": [
                -0.20489404709343773,
                -1.2049761966930022,
                1.9806270631858736,
                0.9966529911035269,
                -0.9502722405715355,
                -1.3727817967542248
            ]
        },
        {
            "positions": [
                -0.2555339778575516,
                -1.165890757378972,
                1.9576848372081588,
                1.0780131069065868,
                -1.0424888044018727,
                -1.2748355116995023
            ]
        },
        {
            "positions": [
                -0.3061739086216656,
                -1.126805318064942,
                1.934742611230444,
                1.1593732227096465,
                -1.13470536823221,
                -1.17688922664478
            ]
        },
        {
            "positions": [
                -0.3568138393857795,
                -1.087719878750912,
                1.9118003852527292,
                1.2407333385127064,
                -1.226921932062547,
                -1.0789429415900575
            ]
        },
        {
            "positions": [
                -0.40745377014989337,
                -1.0486344394368816,
                1.8888581592750144,
                1.322093454315766,
                -1.3191384958928842,
                -0.9809966565353347
            ]
        },
        {
            "positions": [
                -0.45809370091400725,
                -1.0095490001228515,
                1.8659159332972997,
                1.403453570118826,
                -1.4113550597232214,
                -0.8830503714806124
            ]
        },
        {
            "positions": [
                -0.5087336316781211,
                -0.9704635608088213,
                1.8429737073195849,
                1.484813685921886,
                -1.5035716235535586,
                -0.78510408642589
            ]
        },
        {
            "positions": [
                -0.5593735624422352,
                -0.9313781214947912,
                1.82003148134187,
                1.5661738017249456,
                -1.5957881873838957,
                -0.6871578013711677
            ]
        },
        {
            "positions": [
                -0.6100134932063491,
                -0.8922926821807611,
                1.7970892553641553,
                1.6475339175280053,
                -1.6880047512142329,
                -0.5892115163164453
            ]
        },
        {
            "positions": [
                -0.660653423970463,
                -0.853207242866731,
                1.7741470293864405,
                1.7288940333310654,
                -1.78022131504457,
                -0.4912652312617225
            ]
        },
        {
            "positions": [
                -0.7112933547345769,
                -0.8141218035527007,
                1.7512048034087258,
                1.810254149134125,
                -1.8724378788749072,
                -0.39331894620700014
            ]
        },
        {
            "positions": [
                -0.7619332854986908,
                -0.7750363642386706,
                1.728262577431011,
                1.8916142649371848,
                -1.9646544427052444,
                -0.2953726611522778
            ]
        },
        {
            "positions": [
                -0.8125732162628049,
                -0.7359509249246405,
                1.705320351453296,
                1.9729743807402444,
                -2.0568710065355815,
                -0.19742637609755498
            ]
        },
        {
            "positions": [
                -0.8632131470269188,
                -0.6968654856106102,
                1.6823781254755812,
                2.0543344965433046,
                -2.1490875703659187,
                -0.09948009104283262
            ]
        },
        {
            "positions": [
                -0.9138530777910328,
                -0.65778004629658,
                1.6594358994978664,
                2.1356946123463643,
                -2.241304134196256,
                -0.0015338059881104696
            ]
        }
    ]
}