{
    "goal": {
        "global_pose": {
            "orientation": {
                "w": 0.5084816217422485,
                "x": -0.49083608388900757,
                "y": 0.5182115435600281,
                "z": -0.4816462993621826
            },
            "position": {
                "x": 0.5540239810943604,
                "y": 0.030875300988554955,
                "z": 0.16403168439865112
            }
        },
        "name": "move_to_storage_A"
    },
    "id": "BKPIECE_move_to_storage_A_39",
    "joint_names": [
        "shoulder_pan_joint",
        "shoulder_lift_joint",
        "elbow_joint",
        "wrist_1_joint",
        "wrist_2_joint",
        "wrist_3_joint"
    ],
    "metrics": {
        "cart_traj_len": 0.35285189162042924,
        "distance_elbow_joint": 0.4475498961500608,
        "distance_shoulder_lift_joint": 0.23380985067047022,
        "distance_shoulder_pan_joint": 0.46128828410726463,
        "distance_wrist_1_joint": 0.23528680155021375,
        "distance_wrist_2_joint": 1.098180480615818,
        "distance_wrist_3_joint": 0.10076481905315271,
        "smoothness": 4.440892098500626e-16,
        "time": 0.285518134,
        "traj_len": 1.6052663742030417,
        "weighted_distance": 2.027776381265774
    },
    "planner": "BKPIECE",
    "start": {
        "state": {
            "elbow_joint": 1.9715463870305268,
            "shoulder_lift_joint": -1.1394903361783484,
            "shoulder_pan_joint": 0.12281147578464417,
            "wrist_1_joint": -0.7804599489681411,
            "wrist_2_joint": 0.12958660307563738,
            "wrist_3_joint": -3.1924946282119055
        }
    },
    "waypoints": [
        {
            "positions": [
                0.12281147578464417,
                -1.1394903361783484,
                1.9715463870305268,
                -0.7804599489681411,
                0.12958660307563738,
                -3.1924946282119055
            ]
        },
        {
            "positions": [
                0.05691314948360637,
                -1.172891743416987,
                2.0354820864805356,
                -0.8140723491896001,
                0.2864695288778971,
                -3.1780996540614552
            ]
        },
        {
            "positions": [
                -0.008985176817431426,
                -1.2062931506556256,
                2.099417785930544,
                -0.8476847494110593,
                0.4433524546801568,
                -3.163704679911005
            ]
        },
        {
            "positions": [
                -0.07488350311846924,
                -1.2396945578942642,
                2.163353485380553,
                -0.8812971496325184,
                0.6002353804824165,
                -3.1493097057605546
            ]
        },
        {
            "positions": [
                -0.140781829419507,
                -1.2730959651329028,
                2.2272891848305614,
                -0.9149095498539775,
                0.7571183062846762,
                -3.134914731610104
            ]
        },
        {
            "positions": [
                -0.20668015572054482,
                -1.3064973723715414,
                2.2912248842805703,
                -0.9485219500754366,
                0.914001232086936,
                -3.1205197574596535
            ]
        },
        {
            "positions": [
                -0.27257848202158264,
                -1.33989877961018,
                2.3551605837305787,
                -0.9821343502968958,
                1.0708841578891957,
                -3.106124783309203
            ]
        },
        {
            "positions": [
                -0.33847680832262045,
                -1.3733001868488186,
                2.4190962831805876,
                -1.0157467505183548,
                1.2277670836914554,
                -3.091729809158753
            ]
        }
    ]
}