{
    "goal": {
        "global_pose": {
            "orientation": {
                "w": 0.5084816217422485,
                "x": -0.49083608388900757,
                "y": 0.5182115435600281,
                "z": -0.4816462993621826
            },
            "position": {
                "x": 0.5540239810943604,
                "y": 0.030875300988554955,
                "z": 0.16403168439865112
            }
        },
        "name": "move_to_storage_A"
    },
    "id": "BKPIECE_move_to_storage_A_30",
    "joint_names": [
        "shoulder_pan_joint",
        "shoulder_lift_joint",
        "elbow_joint",
        "wrist_1_joint",
        "wrist_2_joint",
        "wrist_3_joint"
    ],
    "metrics": {
        "cart_traj_len": 0.3527069612501807,
        "distance_elbow_joint": 0.4507908174859163,
        "distance_shoulder_lift_joint": 0.23444826792124096,
        "distance_shoulder_pan_joint": 0.46110844044158833,
        "distance_wrist_1_joint": 0.24362152431118622,
        "distance_wrist_2_joint": 1.0989452179426935,
        "distance_wrist_3_joint": 0.1062018107192162,
        "smoothness": 0.0,
        "time": 0.21056518800000001,
        "traj_len": 1.6109363981305536,
        "weighted_distance": 2.0371760951165108
    },
    "planner": "BKPIECE",
    "start": {
        "state": {
            "elbow_joint": 1.9715463870305268,
            "shoulder_lift_joint": -1.1394903361783484,
            "shoulder_pan_joint": 0.12281147578464417,
            "wrist_1_joint": -0.7804599489681411,
            "wrist_2_joint": 0.12958660307563738,
            "wrist_3_joint": -3.1924946282119055
        }
    },
    "waypoints": [
        {
            "positions": [
                0.12281147578464417,
                -1.1394903361783484,
                1.9715463870305268,
                -0.7804599489681411,
                0.12958660307563738,
                -3.1924946282119055
            ]
        },
        {
            "positions": [
                0.05693884143584585,
                -1.1729829458813827,
                2.0359450752428003,
                -0.8152630238697391,
                0.2865787770674507,
                -3.1773229409663033
            ]
        },
        {
            "positions": [
                -0.008933792912952473,
                -1.2064755555844173,
                2.1003437634550743,
                -0.8500660987713371,
                0.44357095105926403,
                -3.162151253720701
            ]
        },
        {
            "positions": [
                -0.07480642726175081,
                -1.2399681652874517,
                2.164742451667348,
                -0.8848691736729352,
                0.6005631250510775,
                -3.146979566475099
            ]
        },
        {
            "positions": [
                -0.1406790616105491,
                -1.273460774990486,
                2.229141139879622,
                -0.9196722485745332,
                0.7575552990428908,
                -3.131807879229496
            ]
        },
        {
            "positions": [
                -0.20655169595934747,
                -1.3069533846935206,
                2.2935398280918955,
                -0.9544753234761312,
                0.9145474730347042,
                -3.116636191983894
            ]
        },
        {
            "positions": [
                -0.2724243303081458,
                -1.340445994396555,
                2.357938516304169,
                -0.9892783983777292,
                1.0715396470265175,
                -3.1014645047382916
            ]
        },
        {
            "positions": [
                -0.33829696465694414,
                -1.3739386040995893,
                2.422337204516443,
                -1.0240814732793273,
                1.228531821018331,
                -3.0862928174926894
            ]
        }
    ]
}