{
    "goal": {
        "global_pose": {
            "orientation": {
                "w": 0.7031023502349854,
                "x": -0.7110244035720825,
                "y": 0.007748599164187908,
                "z": 0.005598929710686207
            },
            "position": {
                "x": 0.11585023208521307,
                "y": 0.44412534475326537,
                "z": 0.3711530566215515
            }
        },
        "name": "move_to_auspresseinheit_A"
    },
    "id": "BKPIECE_move_to_auspresseinheit_A_23",
    "joint_names": [
        "shoulder_pan_joint",
        "shoulder_lift_joint",
        "elbow_joint",
        "wrist_1_joint",
        "wrist_2_joint",
        "wrist_3_joint"
    ],
    "metrics": {
        "cart_traj_len": 0.7065570660472241,
        "distance_elbow_joint": 0.05889775166844302,
        "distance_shoulder_lift_joint": 1.0677998762728023,
        "distance_shoulder_pan_joint": 1.0458066675250706,
        "distance_wrist_1_joint": 1.014034666475322,
        "distance_wrist_2_joint": 0.5201525942703943,
        "distance_wrist_3_joint": 0.46215213614271766,
        "smoothness": 1.218871647240207,
        "time": 0.386587047,
        "traj_len": 2.041774642891509,
        "weighted_distance": 2.5743611295593127
    },
    "planner": "BKPIECE",
    "start": {
        "state": {
            "elbow_joint": 2.422574709923281,
            "shoulder_lift_joint": -1.3736533754116391,
            "shoulder_pan_joint": -0.33786336945926293,
            "wrist_1_joint": -1.0288603412921917,
            "wrist_2_joint": 1.2330224858903978,
            "wrist_3_joint": -3.094022268022082
        }
    },
    "waypoints": [
        {
            "positions": [
                -0.33786336945926293,
                -1.3736533754116391,
                2.422574709923281,
                -1.0288603412921917,
                1.2330224858903978,
                -3.094022268022082
            ]
        },
        {
            "positions": [
                -0.2534520349045326,
                -1.4736892142801619,
                2.4242732338082917,
                -0.9295423270684898,
                1.1911498889309726,
                -3.1256557864713437
            ]
        },
        {
            "positions": [
                -0.16904070034980223,
                -1.5737250531486844,
                2.425971757693303,
                -0.8302243128447879,
                1.1492772919715475,
                -3.1572893049206048
            ]
        },
        {
            "positions": [
                -0.08462936579507191,
                -1.673760892017207,
                2.4276702815783135,
                -0.7309062986210861,
                1.1074046950121221,
                -3.1889228233698663
            ]
        },
        {
            "positions": [
                -0.00021803124034153187,
                -1.7737967308857296,
                2.4293688054633247,
                -0.6315882843973841,
                1.065532098052697,
                -3.220556341819128
            ]
        },
        {
            "positions": [
                0.08419330331438885,
                -1.8738325697542524,
                2.4310673293483354,
                -0.5322702701736823,
                1.0236595010932719,
                -3.252189860268389
            ]
        },
        {
            "positions": [
                0.1686046378691191,
                -1.973868408622775,
                2.432765853233346,
                -0.43295225594998044,
                0.9817869041338466,
                -3.2838233787176505
            ]
        },
        {
            "positions": [
                0.2530159724238495,
                -2.0739042474912974,
                2.434464377118357,
                -0.33363424172627854,
                0.9399143071744214,
                -3.3154568971669116
            ]
        },
        {
            "positions": [
                0.3374273069785799,
                -2.17394008635982,
                2.436162901003368,
                -0.23431622750257664,
                0.8980417102149962,
                -3.347090415616173
            ]
        },
        {
            "positions": [
                0.4300563047503869,
                -2.107061795028665,
                2.424835510856279,
                -0.2891888656740033,
                0.8517487555662481,
                -3.2948194184790163
            ]
        },
        {
            "positions": [
                0.5226853025221938,
                -2.0401835036975093,
                2.4135081207091895,
                -0.34406150384543,
                0.8054558009174999,
                -3.24254842134186
            ]
        },
        {
            "positions": [
                0.6153143002940008,
                -1.9733052123663541,
                2.4021807305621006,
                -0.39893414201685673,
                0.7591628462687516,
                -3.1902774242047034
            ]
        },
        {
            "positions": [
                0.7079432980658078,
                -1.906426921035199,
                2.3908533404150116,
                -0.4538067801882834,
                0.7128698916200035,
                -3.1380064270675465
            ]
        }
    ]
}