{
    "goal": {
        "global_pose": {
            "orientation": {
                "w": 0.5084816217422485,
                "x": -0.49083608388900757,
                "y": 0.5182115435600281,
                "z": -0.4816462993621826
            },
            "position": {
                "x": 0.5540239810943604,
                "y": 0.030875300988554955,
                "z": 0.16403168439865112
            }
        },
        "name": "move_to_storage_A"
    },
    "id": "BKPIECE_move_to_storage_A_129",
    "joint_names": [
        "shoulder_pan_joint",
        "shoulder_lift_joint",
        "elbow_joint",
        "wrist_1_joint",
        "wrist_2_joint",
        "wrist_3_joint"
    ],
    "metrics": {
        "cart_traj_len": 0.35271617965025004,
        "distance_elbow_joint": 0.45411626353466295,
        "distance_shoulder_lift_joint": 0.2334049608377926,
        "distance_shoulder_pan_joint": 0.46258848181105816,
        "distance_wrist_1_joint": 0.2618950685647724,
        "distance_wrist_2_joint": 1.0921697425893617,
        "distance_wrist_3_joint": 0.10510270927716725,
        "smoothness": 0.0,
        "time": 0.208172097,
        "traj_len": 1.6153257339047178,
        "weighted_distance": 2.0429261994314145
    },
    "planner": "BKPIECE",
    "start": {
        "state": {
            "elbow_joint": 1.9715463870305268,
            "shoulder_lift_joint": -1.1394903361783484,
            "shoulder_pan_joint": 0.12281147578464417,
            "wrist_1_joint": -0.7804599489681411,
            "wrist_2_joint": 0.12958660307563738,
            "wrist_3_joint": -3.1924946282119055
        }
    },
    "waypoints": [
        {
            "positions": [
                0.12281147578464417,
                -1.1394903361783484,
                1.9715463870305268,
                -0.7804599489681411,
                0.12958660307563738,
                -3.1924946282119055
            ]
        },
        {
            "positions": [
                0.056727406954493007,
                -1.1728339020123189,
                2.03642013896405,
                -0.81787353019168,
                0.2856108520169748,
                -3.1774799554580246
            ]
        },
        {
            "positions": [
                -0.00935666187565816,
                -1.206177467846289,
                2.101293890897573,
                -0.855287111415219,
                0.44163510095831215,
                -3.1624652827041433
            ]
        },
        {
            "positions": [
                -0.07544073070580933,
                -1.2395210336802596,
                2.1661676428310965,
                -0.8927006926387578,
                0.5976593498996495,
                -3.1474506099502624
            ]
        },
        {
            "positions": [
                -0.14152479953596048,
                -1.2728645995142298,
                2.23104139476462,
                -0.9301142738622967,
                0.7536835988409869,
                -3.1324359371963815
            ]
        },
        {
            "positions": [
                -0.20760886836611164,
                -1.3062081653482003,
                2.2959151466981433,
                -0.9675278550858357,
                0.9097078477823244,
                -3.1174212644425006
            ]
        },
        {
            "positions": [
                -0.2736929371962628,
                -1.3395517311821705,
                2.3607888986316663,
                -1.0049414363093745,
                1.0657320967236616,
                -3.102406591688619
            ]
        },
        {
            "positions": [
                -0.339777006026414,
                -1.372895297016141,
                2.4256626505651897,
                -1.0423550175329135,
                1.2217563456649991,
                -3.0873919189347383
            ]
        }
    ]
}