{
    "goal": {
        "global_pose": {
            "orientation": {
                "w": 0.7047431468963623,
                "x": -0.7094548344612122,
                "y": 0.0024358443915843964,
                "z": -0.0022348060738295317
            },
            "position": {
                "x": 0.6094750761985779,
                "y": 0.3671506643295288,
                "z": 0.19426114857196808
            }
        },
        "name": "move_to_magneteinheit_A"
    },
    "id": "BKPIECE_move_to_magneteinheit_A_10",
    "joint_names": [
        "shoulder_pan_joint",
        "shoulder_lift_joint",
        "elbow_joint",
        "wrist_1_joint",
        "wrist_2_joint",
        "wrist_3_joint"
    ],
    "metrics": {
        "cart_traj_len": 1.871740439661068,
        "distance_elbow_joint": 3.930186583692258,
        "distance_shoulder_lift_joint": 0.7075660766021096,
        "distance_shoulder_pan_joint": 1.2404039438111905,
        "distance_wrist_1_joint": 1.5460806537341485,
        "distance_wrist_2_joint": 1.7059766841983988,
        "distance_wrist_3_joint": 1.1818009166028611,
        "smoothness": 6.66133812431477e-16,
        "time": 0.254050106,
        "traj_len": 3.2112326073707225,
        "weighted_distance": 3.9909490136782293
    },
    "planner": "BKPIECE",
    "start": {
        "state": {
            "elbow_joint": -1.919643507792019,
            "shoulder_lift_joint": -0.07675430207160344,
            "shoulder_pan_joint": -1.1188671864651873,
            "wrist_1_joint": 0.42560062535961957,
            "wrist_2_joint": 1.5706038300724876,
            "wrist_3_joint": 1.1188968870953055
        }
    },
    "waypoints": [
        {
            "positions": [
                -1.1188671864651873,
                -0.07675430207160344,
                -1.919643507792019,
                0.42560062535961957,
                1.5706038300724876,
                1.1188968870953055
            ]
        },
        {
            "positions": [
                -1.0729262996573654,
                -0.10296045305686677,
                -1.7740810417293429,
                0.48286287179421766,
                1.50741950843551,
                1.075126482776681
            ]
        },
        {
            "positions": [
                -1.0269854128495437,
                -0.1291666040421301,
                -1.6285185756666667,
                0.5401251182288157,
                1.4442351867985321,
                1.0313560784580567
            ]
        },
        {
            "positions": [
                -0.9810445260417218,
                -0.1553727550273934,
                -1.4829561096039905,
                0.5973873646634138,
                1.3810508651615545,
                0.9875856741394321
            ]
        },
        {
            "positions": [
                -0.9351036392338998,
                -0.18157890601265672,
                -1.337393643541314,
                0.6546496110980119,
                1.3178665435245767,
                0.9438152698208075
            ]
        },
        {
            "positions": [
                -0.889162752426078,
                -0.20778505699792005,
                -1.191831177478638,
                0.71191185753261,
                1.254682221887599,
                0.9000448655021831
            ]
        },
        {
            "positions": [
                -0.8432218656182562,
                -0.23399120798318337,
                -1.0462687114159617,
                0.7691741039672081,
                1.1914979002506212,
                0.8562744611835587
            ]
        },
        {
            "positions": [
                -0.7972809788104342,
                -0.26019735896844665,
                -0.9007062453532855,
                0.8264363504018062,
                1.1283135786136436,
                0.8125040568649342
            ]
        },
        {
            "positions": [
                -0.7513400920026124,
                -0.28640350995371,
                -0.7551437792906093,
                0.8836985968364043,
                1.065129256976666,
                0.7687336525463097
            ]
        },
        {
            "positions": [
                -0.7053992051947906,
                -0.31260966093897335,
                -0.6095813132279331,
                0.9409608432710024,
                1.001944935339688,
                0.7249632482276852
            ]
        },
        {
            "positions": [
                -0.6594583183869687,
                -0.33881581192423665,
                -0.4640188471652569,
                0.9982230897056004,
                0.9387606137027104,
                0.6811928439090607
            ]
        },
        {
            "positions": [
                -0.6135174315791468,
                -0.36502196290949995,
                -0.3184563811025807,
                1.0554853361401986,
                0.8755762920657326,
                0.6374224395904362
            ]
        },
        {
            "positions": [
                -0.5675765447713249,
                -0.3912281138947633,
                -0.17289391503990448,
                1.1127475825747966,
                0.8123919704287549,
                0.5936520352718118
            ]
        },
        {
            "positions": [
                -0.5216356579635031,
                -0.4174342648800266,
                -0.02733144897722828,
                1.1700098290093948,
                0.7492076487917771,
                0.5498816309531872
            ]
        },
        {
            "positions": [
                -0.47569477115568126,
                -0.4436404158652899,
                0.11823101708544814,
                1.2272720754439927,
                0.6860233271547994,
                0.5061112266345628
            ]
        },
        {
            "positions": [
                -0.4297538843478593,
                -0.46984656685055326,
                0.26379348314812456,
                1.284534321878591,
                0.6228390055178216,
                0.4623408223159382
            ]
        },
        {
            "positions": [
                -0.3838129975400375,
                -0.49605271783581656,
                0.40935594921080054,
                1.341796568313189,
                0.559654683880844,
                0.41857041799731376
            ]
        },
        {
            "positions": [
                -0.33787211073221557,
                -0.5222588688210799,
                0.554918415273477,
                1.3990588147477871,
                0.4964703622438662,
                0.3748000136786892
            ]
        },
        {
            "positions": [
                -0.29193122392439375,
                -0.5484650198063432,
                0.7004808813361529,
                1.4563210611823851,
                0.4332860406068886,
                0.33102960936006487
            ]
        },
        {
            "positions": [
                -0.2459903371165718,
                -0.5746711707916066,
                0.8460433473988294,
                1.5135833076169833,
                0.37010171896991073,
                0.2872592050414403
            ]
        },
        {
            "positions": [
                -0.20004945030875,
                -0.6008773217768699,
                0.9916058134615053,
                1.5708455540515813,
                0.3069173973329331,
                0.24348880072281587
            ]
        },
        {
            "positions": [
                -0.15410856350092805,
                -0.6270834727621333,
                1.1371682795241818,
                1.6281078004861795,
                0.24373307569595526,
                0.1997183964041913
            ]
        },
        {
            "positions": [
                -0.10816767669310634,
                -0.6532896237473964,
                1.2827307455868577,
                1.6853700469207775,
                0.18054875405897763,
                0.15594799208556687
            ]
        },
        {
            "positions": [
                -0.062226789885284406,
                -0.6794957747326598,
                1.4282932116495342,
                1.7426322933553757,
                0.11736443242199979,
                0.11217758776694242
            ]
        },
        {
            "positions": [
                -0.01628590307746247,
                -0.7057019257179231,
                1.5738556777122101,
                1.7998945397899737,
                0.05418011078502216,
                0.06840718344831798
            ]
        },
        {
            "positions": [
                0.029654983730359463,
                -0.7319080767031865,
                1.7194181437748866,
                1.857156786224572,
                -0.009004210851955685,
                0.02463677912969331
            ]
        },
        {
            "positions": [
                0.07559587053818118,
                -0.7581142276884498,
                1.8649806098375625,
                1.91441903265917,
                -0.07218853248893331,
                -0.019133625188931136
            ]
        },
        {
            "positions": [
                0.12153675734600314,
                -0.7843203786737131,
                2.0105430759002387,
                1.9716812790937681,
                -0.13537285412591124,
                -0.06290402950755558
            ]
        }
    ]
}