{
    "goal": {
        "global_pose": {
            "orientation": {
                "w": 0.7047431468963623,
                "x": -0.7094548344612122,
                "y": 0.0024358443915843964,
                "z": -0.0022348060738295317
            },
            "position": {
                "x": 0.6094750761985779,
                "y": 0.3671506643295288,
                "z": 0.19426114857196808
            }
        },
        "name": "move_to_magneteinheit_A"
    },
    "id": "BKPIECE_move_to_magneteinheit_A_30",
    "joint_names": [
        "shoulder_pan_joint",
        "shoulder_lift_joint",
        "elbow_joint",
        "wrist_1_joint",
        "wrist_2_joint",
        "wrist_3_joint"
    ],
    "metrics": {
        "cart_traj_len": 2.345888550647513,
        "distance_elbow_joint": 3.8859609951562435,
        "distance_shoulder_lift_joint": 1.0597980625393109,
        "distance_shoulder_pan_joint": 1.2429179611344645,
        "distance_wrist_1_joint": 1.4066587588047286,
        "distance_wrist_2_joint": 1.647306447150195,
        "distance_wrist_3_joint": 4.319629249163478,
        "smoothness": 0.0825195779074964,
        "time": 0.221627239,
        "traj_len": 3.682698938814904,
        "weighted_distance": 5.025484571484655
    },
    "planner": "BKPIECE",
    "start": {
        "state": {
            "elbow_joint": -1.919643507792019,
            "shoulder_lift_joint": -0.07675430207160344,
            "shoulder_pan_joint": -1.1188671864651873,
            "wrist_1_joint": 0.42560062535961957,
            "wrist_2_joint": 1.5706038300724876,
            "wrist_3_joint": 1.1188968870953055
        }
    },
    "waypoints": [
        {
            "positions": [
                -1.1188671864651873,
                -0.07675430207160344,
                -1.919643507792019,
                0.42560062535961957,
                1.5706038300724876,
                1.1188968870953055
            ]
        },
        {
            "positions": [
                -1.0956490029240529,
                -0.09755409851339764,
                -1.8074780539306965,
                0.38086617859681365,
                1.5173291716617336,
                0.9848263036474983
            ]
        },
        {
            "positions": [
                -1.0724308193829184,
                -0.11835389495519183,
                -1.695312600069374,
                0.33613173183400774,
                1.4640545132509797,
                0.8507557201996911
            ]
        },
        {
            "positions": [
                -1.049212635841784,
                -0.13915369139698602,
                -1.5831471462080513,
                0.29139728507120183,
                1.4107798548402257,
                0.7166851367518841
            ]
        },
        {
            "positions": [
                -1.0259944523006495,
                -0.15995348783878022,
                -1.4709816923467285,
                0.24666283830839592,
                1.3575051964294718,
                0.5826145533040767
            ]
        },
        {
            "positions": [
                -1.002776268759515,
                -0.18075328428057444,
                -1.358816238485406,
                0.20192839154558997,
                1.3042305380187176,
                0.44854396985626954
            ]
        },
        {
            "positions": [
                -0.9795580852183805,
                -0.20155308072236863,
                -1.2466507846240833,
                0.1571939447827841,
                1.2509558796079636,
                0.31447338640846245
            ]
        },
        {
            "positions": [
                -0.956339901677246,
                -0.22235287716416283,
                -1.1344853307627605,
                0.11245949801997818,
                1.1976812211972097,
                0.18040280296065514
            ]
        },
        {
            "positions": [
                -0.9331217181361116,
                -0.24315267360595702,
                -1.022319876901438,
                0.06772505125717226,
                1.1444065627864557,
                0.04633221951284794
            ]
        },
        {
            "positions": [
                -0.9099035345949771,
                -0.26395247004775124,
                -0.9101544230401153,
                0.02299060449436635,
                1.0911319043757017,
                -0.08773836393495915
            ]
        },
        {
            "positions": [
                -0.8866853510538426,
                -0.28475226648954544,
                -0.7979889691787927,
                -0.021743842268439617,
                1.0378572459649478,
                -0.22180894738276646
            ]
        },
        {
            "positions": [
                -0.8634671675127081,
                -0.30555206293133963,
                -0.6858235153174701,
                -0.06647828903124547,
                0.9845825875541939,
                -0.35587953083057355
            ]
        },
        {
            "positions": [
                -0.8402489839715737,
                -0.3263518593731338,
                -0.5736580614561475,
                -0.11121273579405139,
                0.9313079291434398,
                -0.48995011427838064
            ]
        },
        {
            "positions": [
                -0.8170308004304392,
                -0.347151655814928,
                -0.4614926075948249,
                -0.1559471825568573,
                0.8780332707326859,
                -0.624020697726188
            ]
        },
        {
            "positions": [
                -0.7938126168893047,
                -0.3679514522567222,
                -0.3493271537335021,
                -0.2006816293196632,
                0.8247586123219319,
                -0.7580912811739953
            ]
        },
        {
            "positions": [
                -0.7705944333481702,
                -0.3887512486985164,
                -0.2371616998721795,
                -0.24541607608246913,
                0.7714839539111779,
                -0.8921618646218024
            ]
        },
        {
            "positions": [
                -0.7473762498070358,
                -0.4095510451403106,
                -0.1249962460108569,
                -0.29015052284527504,
                0.718209295500424,
                -1.0262324480696097
            ]
        },
        {
            "positions": [
                -0.7241580662659013,
                -0.4303508415821048,
                -0.012830792149534531,
                -0.33488496960808084,
                0.66493463708967,
                -1.1603030315174165
            ]
        },
        {
            "positions": [
                -0.7009398827247668,
                -0.451150638023899,
                0.09933466171178851,
                -0.37961941637088686,
                0.611659978678916,
                -1.2943736149652239
            ]
        },
        {
            "positions": [
                -0.6777216991836323,
                -0.4719504344656932,
                0.21150011557311088,
                -0.4243538631336928,
                0.5583853202681621,
                -1.4284441984130312
            ]
        },
        {
            "positions": [
                -0.6545035156424979,
                -0.49275023090748743,
                0.3236655694344337,
                -0.4690883098964988,
                0.5051106618574079,
                -1.5625147818608385
            ]
        },
        {
            "positions": [
                -0.6312853321013634,
                -0.5135500273492816,
                0.43583102329575607,
                -0.5138227566593045,
                0.4518360034466542,
                -1.6965853653086453
            ]
        },
        {
            "positions": [
                -0.6080671485602289,
                -0.5343498237910758,
                0.5479964771570789,
                -0.5585572034221105,
                0.39856134503590024,
                -1.8306559487564527
            ]
        },
        {
            "positions": [
                -0.5848489650190944,
                -0.5551496202328701,
                0.6601619310184017,
                -0.6032916501849164,
                0.34528668662514606,
                -1.96472653220426
            ]
        },
        {
            "positions": [
                -0.56163078147796,
                -0.5759494166746641,
                0.7723273848797241,
                -0.6480260969477223,
                0.2920120282143921,
                -2.098797115652067
            ]
        },
        {
            "positions": [
                -0.5384125979368255,
                -0.5967492131164585,
                0.8844928387410464,
                -0.6927605437105282,
                0.23873736980363836,
                -2.232867699099874
            ]
        },
        {
            "positions": [
                -0.515194414395691,
                -0.6175490095582525,
                0.9966582926023693,
                -0.7374949904733341,
                0.18546271139288417,
                -2.3669382825476815
            ]
        },
        {
            "positions": [
                -0.49197623085455655,
                -0.6383488060000468,
                1.108823746463692,
                -0.78222943723614,
                0.1321880529821302,
                -2.5010088659954883
            ]
        },
        {
            "positions": [
                -0.4687580473134221,
                -0.6591486024418409,
                1.220989200325015,
                -0.8269638839989459,
                0.07891339457137625,
                -2.635079449443296
            ]
        },
        {
            "positions": [
                -0.4455398637722876,
                -0.6799483988836352,
                1.333154654186337,
                -0.8716983307617518,
                0.025638736160622233,
                -2.769150032891103
            ]
        },
        {
            "positions": [
                -0.3506080906986935,
                -0.7560490598381817,
                1.4386817930493183,
                -0.8534716969811923,
                0.04269562836701042,
                -2.8410804210872813
            ]
        },
        {
            "positions": [
                -0.2556763176250994,
                -0.8321497207927282,
                1.5442089319122996,
                -0.8352450632006327,
                0.05975252057339861,
                -2.9130108092834597
            ]
        },
        {
            "positions": [
                -0.16074454455150528,
                -0.9082503817472748,
                1.649736070775281,
                -0.8170184294200731,
                0.0768094127797868,
                -2.984941197479638
            ]
        },
        {
            "positions": [
                -0.0658127714779112,
                -0.9843510427018213,
                1.755263209638262,
                -0.7987917956395135,
                0.09386630498617499,
                -3.056871585675816
            ]
        },
        {
            "positions": [
                0.02911900159568298,
                -1.0604517036563679,
                1.8607903485012436,
                -0.780565161858954,
                0.11092319719256317,
                -3.1288019738719943
            ]
        },
        {
            "positions": [
                0.12405077466927707,
                -1.1365523646109144,
                1.9663174873642248,
                -0.7623385280783944,
                0.12798008939895136,
                -3.2007323620681727
            ]
        }
    ]
}