{
    "goal": {
        "global_pose": {
            "orientation": {
                "w": 0.7031023502349854,
                "x": -0.7110244035720825,
                "y": 0.007748599164187908,
                "z": 0.005598929710686207
            },
            "position": {
                "x": 0.11585023208521307,
                "y": 0.44412534475326537,
                "z": 0.3711530566215515
            }
        },
        "name": "move_to_auspresseinheit_A"
    },
    "id": "BKPIECE_move_to_auspresseinheit_A_4",
    "joint_names": [
        "shoulder_pan_joint",
        "shoulder_lift_joint",
        "elbow_joint",
        "wrist_1_joint",
        "wrist_2_joint",
        "wrist_3_joint"
    ],
    "metrics": {
        "cart_traj_len": 0.899250891114591,
        "distance_elbow_joint": 0.641503222435075,
        "distance_shoulder_lift_joint": 0.5603063055247473,
        "distance_shoulder_pan_joint": 1.0589674289771742,
        "distance_wrist_1_joint": 1.0284664042546758,
        "distance_wrist_2_joint": 0.6569605255410277,
        "distance_wrist_3_joint": 1.7427046114217783,
        "smoothness": 1.3199761465037387,
        "time": 0.228926116,
        "traj_len": 2.3851432867135,
        "weighted_distance": 3.2954126677540305
    },
    "planner": "BKPIECE",
    "start": {
        "state": {
            "elbow_joint": 2.422574709923281,
            "shoulder_lift_joint": -1.3736533754116391,
            "shoulder_pan_joint": -0.33786336945926293,
            "wrist_1_joint": -1.0288603412921917,
            "wrist_2_joint": 1.2330224858903978,
            "wrist_3_joint": -3.094022268022082
        }
    },
    "waypoints": [
        {
            "positions": [
                -0.33786336945926293,
                -1.3736533754116391,
                2.422574709923281,
                -1.0288603412921917,
                1.2330224858903978,
                -3.094022268022082
            ]
        },
        {
            "positions": [
                -0.2953039910981757,
                -1.4316891059852876,
                2.3852095982960675,
                -0.9398355264121665,
                1.1841078037215602,
                -2.9996946207689437
            ]
        },
        {
            "positions": [
                -0.2527446127370885,
                -1.4897248365589362,
                2.347844486668854,
                -0.8508107115321412,
                1.135193121552723,
                -2.9053669735158048
            ]
        },
        {
            "positions": [
                -0.21018523437600123,
                -1.5477605671325845,
                2.3104793750416404,
                -0.7617858966521159,
                1.0862784393838854,
                -2.8110393262626663
            ]
        },
        {
            "positions": [
                -0.16762585601491398,
                -1.605796297706233,
                2.273114263414427,
                -0.6727610817720906,
                1.0373637572150478,
                -2.716711679009528
            ]
        },
        {
            "positions": [
                -0.12506647765382672,
                -1.6638320282798815,
                2.2357491517872137,
                -0.5837362668920654,
                0.9884490750462104,
                -2.622384031756389
            ]
        },
        {
            "positions": [
                -0.08250709929273953,
                -1.7218677588535298,
                2.19838404016,
                -0.49471145201204014,
                0.939534392877373,
                -2.5280563845032504
            ]
        },
        {
            "positions": [
                -0.03994772093165222,
                -1.7799034894271784,
                2.1610189285327865,
                -0.4056866371320148,
                0.8906197107085354,
                -2.433728737250112
            ]
        },
        {
            "positions": [
                0.002611657429434977,
                -1.8379392200008269,
                2.123653816905573,
                -0.3166618222519896,
                0.8417050285396979,
                -2.339401089996973
            ]
        },
        {
            "positions": [
                0.04517103579052223,
                -1.8959749505744754,
                2.0862887052783594,
                -0.22763700737196424,
                0.7927903463708604,
                -2.2450734427438346
            ]
        },
        {
            "positions": [
                0.1607356166126665,
                -1.9014818373323283,
                2.141596275382965,
                -0.2623911691390974,
                0.78139587799291,
                -2.4008644107588895
            ]
        },
        {
            "positions": [
                0.2763001974348108,
                -1.9069887240901815,
                2.1969038454875705,
                -0.2971453309062305,
                0.7700014096149594,
                -2.5566553787739443
            ]
        },
        {
            "positions": [
                0.3918647782569551,
                -1.9124956108480347,
                2.252211415592176,
                -0.3318994926733637,
                0.7586069412370089,
                -2.712446346788999
            ]
        },
        {
            "positions": [
                0.5074293590790994,
                -1.9180024976058876,
                2.307518985696782,
                -0.36665365444049686,
                0.7472124728590585,
                -2.868237314804054
            ]
        },
        {
            "positions": [
                0.5017132704718228,
                -1.9038503865940812,
                2.3570076888816125,
                -0.3818254366003686,
                0.6489648189186693,
                -2.894394172803775
            ]
        },
        {
            "positions": [
                0.6056925763875904,
                -1.9047529227534274,
                2.3742568059750626,
                -0.4183527571533905,
                0.6854162482033189,
                -3.01661170084557
            ]
        },
        {
            "positions": [
                0.7096718823033582,
                -1.9056554589127737,
                2.3915059230685127,
                -0.45488007770641237,
                0.7218676774879685,
                -3.1388292288873654
            ]
        }
    ]
}