{
    "goal": {
        "global_pose": {
            "orientation": {
                "w": 0.7047431468963623,
                "x": -0.7094548344612122,
                "y": 0.0024358443915843964,
                "z": -0.0022348060738295317
            },
            "position": {
                "x": 0.6094750761985779,
                "y": 0.3671506643295288,
                "z": 0.19426114857196808
            }
        },
        "name": "move_to_magneteinheit_A"
    },
    "id": "BKPIECE_move_to_magneteinheit_A_38",
    "joint_names": [
        "shoulder_pan_joint",
        "shoulder_lift_joint",
        "elbow_joint",
        "wrist_1_joint",
        "wrist_2_joint",
        "wrist_3_joint"
    ],
    "metrics": {
        "cart_traj_len": 1.8792569715758183,
        "distance_elbow_joint": 3.907997919431805,
        "distance_shoulder_lift_joint": 0.6981771022517559,
        "distance_shoulder_pan_joint": 1.2418252734624424,
        "distance_wrist_1_joint": 1.491154084019846,
        "distance_wrist_2_joint": 1.6917526638226625,
        "distance_wrist_3_joint": 1.0997687896959736,
        "smoothness": 3.289549710083688e-16,
        "time": 0.18138210400000002,
        "traj_len": 3.182872261446332,
        "weighted_distance": 3.9386698465241974
    },
    "planner": "BKPIECE",
    "start": {
        "state": {
            "elbow_joint": -1.919643507792019,
            "shoulder_lift_joint": -0.07675430207160344,
            "shoulder_pan_joint": -1.1188671864651873,
            "wrist_1_joint": 0.42560062535961957,
            "wrist_2_joint": 1.5706038300724876,
            "wrist_3_joint": 1.1188968870953055
        }
    },
    "waypoints": [
        {
            "positions": [
                -1.1188671864651873,
                -0.07675430207160344,
                -1.919643507792019,
                0.42560062535961957,
                1.5706038300724876,
                1.1188968870953055
            ]
        },
        {
            "positions": [
                -1.071104675947401,
                -0.10360726754282483,
                -1.7693358955061804,
                0.48295270551422903,
                1.5055364199254622,
                1.0765980874916143
            ]
        },
        {
            "positions": [
                -1.0233421654296149,
                -0.13046023301404622,
                -1.6190282832203418,
                0.5403047856688385,
                1.4404690097784367,
                1.034299287887923
            ]
        },
        {
            "positions": [
                -0.9755796549118286,
                -0.1573131984852676,
                -1.468720670934503,
                0.597656865823448,
                1.375401599631411,
                0.9920004882842317
            ]
        },
        {
            "positions": [
                -0.9278171443940424,
                -0.184166163956489,
                -1.3184130586486644,
                0.6550089459780575,
                1.3103341894843856,
                0.9497016886805404
            ]
        },
        {
            "positions": [
                -0.880054633876256,
                -0.21101912942771037,
                -1.1681054463628258,
                0.7123610261326669,
                1.2452667793373602,
                0.9074028890768491
            ]
        },
        {
            "positions": [
                -0.8322921233584699,
                -0.23787209489893177,
                -1.017797834076987,
                0.7697131062872764,
                1.1801993691903347,
                0.8651040894731579
            ]
        },
        {
            "positions": [
                -0.7845296128406836,
                -0.2647250603701531,
                -0.8674902217911487,
                0.8270651864418859,
                1.1151319590433093,
                0.8228052898694664
            ]
        },
        {
            "positions": [
                -0.7367671023228973,
                -0.29157802584137454,
                -0.7171826095053098,
                0.8844172665964953,
                1.0500645488962839,
                0.7805064902657752
            ]
        },
        {
            "positions": [
                -0.6890045918051111,
                -0.3184309913125959,
                -0.5668749972194713,
                0.9417693467511048,
                0.9849971387492583,
                0.7382076906620839
            ]
        },
        {
            "positions": [
                -0.6412420812873248,
                -0.3452839567838173,
                -0.41656738493363243,
                0.9991214269057143,
                0.9199297286022328,
                0.6959088910583926
            ]
        },
        {
            "positions": [
                -0.5934795707695386,
                -0.3721369222550387,
                -0.266259772647794,
                1.0564735070603237,
                0.8548623184552073,
                0.6536100914547014
            ]
        },
        {
            "positions": [
                -0.5457170602517524,
                -0.3989898877262601,
                -0.1159521603619551,
                1.1138255872149332,
                0.7897949083081818,
                0.6113112918510101
            ]
        },
        {
            "positions": [
                -0.49795454973396613,
                -0.42584285319748144,
                0.03435545192388334,
                1.1711776673695427,
                0.7247274981611563,
                0.5690124922473188
            ]
        },
        {
            "positions": [
                -0.4501920392161799,
                -0.4526958186687028,
                0.18466306420972178,
                1.2285297475241521,
                0.6596600880141309,
                0.5267136926436274
            ]
        },
        {
            "positions": [
                -0.40242952869839366,
                -0.4795487841399242,
                0.33497067649556045,
                1.2858818276787614,
                0.5945926778671055,
                0.48441489303993623
            ]
        },
        {
            "positions": [
                -0.3546670181806073,
                -0.5064017496111457,
                0.48527828878139956,
                1.343233907833371,
                0.5295252677200799,
                0.4421160934362448
            ]
        },
        {
            "positions": [
                -0.3069045076628212,
                -0.533254715082367,
                0.6355859010672378,
                1.4005859879879805,
                0.46445785757305447,
                0.3998172938325536
            ]
        },
        {
            "positions": [
                -0.25914199714503494,
                -0.5601076805535883,
                0.7858935133530764,
                1.45793806814259,
                0.399390447426029,
                0.3575184942288623
            ]
        },
        {
            "positions": [
                -0.2113794866272487,
                -0.5869606460248098,
                0.9362011256389151,
                1.5152901482971994,
                0.3343230372790036,
                0.3152196946251711
            ]
        },
        {
            "positions": [
                -0.16361697610946235,
                -0.6138136114960311,
                1.0865087379247542,
                1.572642228451809,
                0.2692556271319779,
                0.27292089502147965
            ]
        },
        {
            "positions": [
                -0.11585446559167623,
                -0.6406665769672526,
                1.2368163502105924,
                1.6299943086064184,
                0.2041882169849525,
                0.23062209541778844
            ]
        },
        {
            "positions": [
                -0.06809195507388988,
                -0.6675195424384739,
                1.387123962496431,
                1.6873463887610278,
                0.13912080683792705,
                0.18832329581409712
            ]
        },
        {
            "positions": [
                -0.02032944455610375,
                -0.6943725079096952,
                1.5374315747822698,
                1.7446984689156373,
                0.07405339669090161,
                0.14602449621040592
            ]
        },
        {
            "positions": [
                0.0274330659616826,
                -0.7212254733809167,
                1.6877391870681089,
                1.8020505490702468,
                0.008985986543875946,
                0.1037256966067146
            ]
        },
        {
            "positions": [
                0.07519557647946895,
                -0.748078438852138,
                1.838046799353947,
                1.8594026292248562,
                -0.056081423603149494,
                0.06142689700302317
            ]
        },
        {
            "positions": [
                0.12295808699725518,
                -0.7749314043233594,
                1.9883544116397858,
                1.9167547093794657,
                -0.12114883375017492,
                0.019128097399332057
            ]
        }
    ]
}