{
    "goal": {
        "global_pose": {
            "orientation": {
                "w": 0.7047431468963623,
                "x": -0.7094548344612122,
                "y": 0.0024358443915843964,
                "z": -0.0022348060738295317
            },
            "position": {
                "x": 0.6094750761985779,
                "y": 0.3671506643295288,
                "z": 0.19426114857196808
            }
        },
        "name": "move_to_magneteinheit_A"
    },
    "id": "BKPIECE_move_to_magneteinheit_A_147",
    "joint_names": [
        "shoulder_pan_joint",
        "shoulder_lift_joint",
        "elbow_joint",
        "wrist_1_joint",
        "wrist_2_joint",
        "wrist_3_joint"
    ],
    "metrics": {
        "cart_traj_len": 2.063570511791817,
        "distance_elbow_joint": 3.8783581024034297,
        "distance_shoulder_lift_joint": 1.0554338875348583,
        "distance_shoulder_pan_joint": 1.240552768224094,
        "distance_wrist_1_joint": 1.1385030385354344,
        "distance_wrist_2_joint": 1.435106320124274,
        "distance_wrist_3_joint": 1.9144705935661523,
        "smoothness": 2.537652629914275e-16,
        "time": 0.300502761,
        "traj_len": 3.26533684485816,
        "weighted_distance": 4.130977518237089
    },
    "planner": "BKPIECE",
    "start": {
        "state": {
            "elbow_joint": -1.919643507792019,
            "shoulder_lift_joint": -0.07675430207160344,
            "shoulder_pan_joint": -1.1188671864651873,
            "wrist_1_joint": 0.42560062535961957,
            "wrist_2_joint": 1.5706038300724876,
            "wrist_3_joint": 1.1188968870953055
        }
    },
    "waypoints": [
        {
            "positions": [
                -1.1188671864651873,
                -0.07675430207160344,
                -1.919643507792019,
                0.42560062535961957,
                1.5706038300724876,
                1.1188968870953055
            ]
        },
        {
            "positions": [
                -1.0729207876420728,
                -0.11584444605437597,
                -1.7760006151104106,
                0.38343384615460346,
                1.517451744141959,
                1.1898032053755334
            ]
        },
        {
            "positions": [
                -1.0269743888189582,
                -0.1549345900371485,
                -1.6323577224288022,
                0.3412670669495874,
                1.4642996582114303,
                1.2607095236557613
            ]
        },
        {
            "positions": [
                -0.9810279899958436,
                -0.19402473401992104,
                -1.4887148297471935,
                0.2991002877445713,
                1.4111475722809017,
                1.3316158419359891
            ]
        },
        {
            "positions": [
                -0.935081591172729,
                -0.23311487800269357,
                -1.345071937065585,
                0.2569335085395552,
                1.357995486350373,
                1.402522160216217
            ]
        },
        {
            "positions": [
                -0.8891351923496144,
                -0.2722050219854661,
                -1.2014290443839766,
                0.21476672933453914,
                1.3048434004198444,
                1.4734284784964449
            ]
        },
        {
            "positions": [
                -0.8431887935264998,
                -0.3112951659682386,
                -1.0577861517023681,
                0.17259995012952306,
                1.2516913144893156,
                1.5443347967766727
            ]
        },
        {
            "positions": [
                -0.7972423947033852,
                -0.35038530995101114,
                -0.9141432590207597,
                0.13043317092450696,
                1.198539228558787,
                1.6152411150569006
            ]
        },
        {
            "positions": [
                -0.7512959958802706,
                -0.3894754539337837,
                -0.7705003663391512,
                0.08826639171949086,
                1.1453871426282582,
                1.6861474333371285
            ]
        },
        {
            "positions": [
                -0.705349597057156,
                -0.4285655979165562,
                -0.6268574736575425,
                0.04609961251447475,
                1.0922350566977297,
                1.7570537516173563
            ]
        },
        {
            "positions": [
                -0.6594031982340414,
                -0.46765574189932874,
                -0.48321458097593406,
                0.003932833309458705,
                1.039082970767201,
                1.8279600698975842
            ]
        },
        {
            "positions": [
                -0.6134567994109269,
                -0.5067458858821012,
                -0.3395716882943256,
                -0.0382339458955574,
                0.9859308848366723,
                1.898866388177812
            ]
        },
        {
            "positions": [
                -0.5675104005878122,
                -0.5458360298648738,
                -0.19592879561271714,
                -0.08040072510057344,
                0.9327787989061437,
                1.96977270645804
            ]
        },
        {
            "positions": [
                -0.5215640017646976,
                -0.5849261738476463,
                -0.052285902931108685,
                -0.12256750430558955,
                0.879626712975615,
                2.040679024738268
            ]
        },
        {
            "positions": [
                -0.47561760294158306,
                -0.6240163178304188,
                0.09135698975049977,
                -0.16473428351060565,
                0.8264746270450863,
                2.1115853430184957
            ]
        },
        {
            "positions": [
                -0.4296712041184685,
                -0.6631064618131914,
                0.23499988243210868,
                -0.20690106271562186,
                0.7733225411145576,
                2.1824916612987235
            ]
        },
        {
            "positions": [
                -0.3837248052953539,
                -0.7021966057959639,
                0.3786427751137167,
                -0.24906784192063786,
                0.720170455184029,
                2.2533979795789514
            ]
        },
        {
            "positions": [
                -0.3377784064722392,
                -0.7412867497787365,
                0.5222856677953256,
                -0.29123462112565396,
                0.6670183692535002,
                2.3243042978591792
            ]
        },
        {
            "positions": [
                -0.29183200764912476,
                -0.780376893761509,
                0.665928560476934,
                -0.33340140033067006,
                0.6138662833229717,
                2.395210616139407
            ]
        },
        {
            "positions": [
                -0.24588560882601007,
                -0.8194670377442816,
                0.8095714531585425,
                -0.37556817953568616,
                0.560714197392443,
                2.466116934419635
            ]
        },
        {
            "positions": [
                -0.1999392100028955,
                -0.8585571817270541,
                0.953214345840151,
                -0.41773495874070216,
                0.5075621114619144,
                2.537023252699863
            ]
        },
        {
            "positions": [
                -0.15399281117978092,
                -0.8976473257098265,
                1.0968572385217594,
                -0.45990173794571837,
                0.45441002553138565,
                2.6079295709800907
            ]
        },
        {
            "positions": [
                -0.10804641235666645,
                -0.936737469692599,
                1.2405001312033679,
                -0.5020685171507344,
                0.4012579396008571,
                2.6788358892603186
            ]
        },
        {
            "positions": [
                -0.06210001353355166,
                -0.9758276136753716,
                1.3841430238849768,
                -0.5442352963557506,
                0.3481058536703283,
                2.7497422075405464
            ]
        },
        {
            "positions": [
                -0.01615361471043708,
                -1.014917757658144,
                1.5277859165665848,
                -0.5864020755607664,
                0.29495376773979975,
                2.8206485258207743
            ]
        },
        {
            "positions": [
                0.029792784112677495,
                -1.0540079016409167,
                1.6714288092481937,
                -0.6285688547657826,
                0.24180168180927097,
                2.891554844101002
            ]
        },
        {
            "positions": [
                0.07573918293579207,
                -1.0930980456236892,
                1.8150717019298017,
                -0.6707356339707986,
                0.18864959587874242,
                2.96246116238123
            ]
        },
        {
            "positions": [
                0.12168558175890673,
                -1.1321881896064618,
                1.9587145946114106,
                -0.7129024131758149,
                0.1354975099482136,
                3.033367480661458
            ]
        }
    ]
}