{
    "goal": {
        "global_pose": {
            "orientation": {
                "w": 0.5084816217422485,
                "x": -0.49083608388900757,
                "y": 0.5182115435600281,
                "z": -0.4816462993621826
            },
            "position": {
                "x": 0.5540239810943604,
                "y": 0.030875300988554955,
                "z": 0.16403168439865112
            }
        },
        "name": "move_to_storage_A"
    },
    "id": "BKPIECE_move_to_storage_A_110",
    "joint_names": [
        "shoulder_pan_joint",
        "shoulder_lift_joint",
        "elbow_joint",
        "wrist_1_joint",
        "wrist_2_joint",
        "wrist_3_joint"
    ],
    "metrics": {
        "cart_traj_len": 0.3527259918932872,
        "distance_elbow_joint": 0.4483492680104626,
        "distance_shoulder_lift_joint": 0.23321750372982808,
        "distance_shoulder_pan_joint": 0.4589099931423045,
        "distance_wrist_1_joint": 0.2379311251045727,
        "distance_wrist_2_joint": 1.1074588061680075,
        "distance_wrist_3_joint": 0.09667585580798699,
        "smoothness": 1.1102230263833737e-15,
        "time": 0.152944291,
        "traj_len": 1.6070291073789431,
        "weighted_distance": 2.0300946270683338
    },
    "planner": "BKPIECE",
    "start": {
        "state": {
            "elbow_joint": 1.9715463870305268,
            "shoulder_lift_joint": -1.1394903361783484,
            "shoulder_pan_joint": 0.12281147578464417,
            "wrist_1_joint": -0.7804599489681411,
            "wrist_2_joint": 0.12958660307563738,
            "wrist_3_joint": -3.1924946282119055
        }
    },
    "waypoints": [
        {
            "positions": [
                0.12281147578464417,
                -1.1394903361783484,
                1.9715463870305268,
                -0.7804599489681411,
                0.12958660307563738,
                -3.1924946282119055
            ]
        },
        {
            "positions": [
                0.05725290533574354,
                -1.1728071224254666,
                2.0355962824605927,
                -0.8144501096973658,
                0.2877950039567813,
                -3.1786837916679076
            ]
        },
        {
            "positions": [
                -0.008305665113157099,
                -1.206123908672585,
                2.099646177890659,
                -0.8484402704265904,
                0.4460034048379252,
                -3.164872955123909
            ]
        },
        {
            "positions": [
                -0.07386423556205775,
                -1.2394406949197032,
                2.163696073320725,
                -0.8824304311558151,
                0.6042118057190692,
                -3.1510621185799113
            ]
        },
        {
            "positions": [
                -0.13942280601095836,
                -1.2727574811668216,
                2.2277459687507912,
                -0.9164205918850398,
                0.7624202066002131,
                -3.137251282035913
            ]
        },
        {
            "positions": [
                -0.20498137645985903,
                -1.3060742674139398,
                2.291795864180857,
                -0.9504107526142644,
                0.9206286074813571,
                -3.123440445491915
            ]
        },
        {
            "positions": [
                -0.27053994690875965,
                -1.3393910536610583,
                2.355845759610923,
                -0.9844009133434891,
                1.078837008362501,
                -3.1096296089479165
            ]
        },
        {
            "positions": [
                -0.33609851735766033,
                -1.3727078399081765,
                2.4198956550409894,
                -1.0183910740727138,
                1.237045409243645,
                -3.0958187724039186
            ]
        }
    ]
}