{
    "goal": {
        "global_pose": {
            "orientation": {
                "w": 0.7031023502349854,
                "x": -0.7110244035720825,
                "y": 0.007748599164187908,
                "z": 0.005598929710686207
            },
            "position": {
                "x": 0.11585023208521307,
                "y": 0.44412534475326537,
                "z": 0.3711530566215515
            }
        },
        "name": "move_to_auspresseinheit_A"
    },
    "id": "BKPIECE_move_to_auspresseinheit_A_147",
    "joint_names": [
        "shoulder_pan_joint",
        "shoulder_lift_joint",
        "elbow_joint",
        "wrist_1_joint",
        "wrist_2_joint",
        "wrist_3_joint"
    ],
    "metrics": {
        "cart_traj_len": 1.4310097386029452,
        "distance_elbow_joint": 0.9996604927949382,
        "distance_shoulder_lift_joint": 0.9216741003168962,
        "distance_shoulder_pan_joint": 1.0953362998243548,
        "distance_wrist_1_joint": 1.4550566201354722,
        "distance_wrist_2_joint": 1.0935646645531452,
        "distance_wrist_3_joint": 2.7835722286960993,
        "smoothness": 0.7151862830622221,
        "time": 0.37700934799999997,
        "traj_len": 2.8894401544799138,
        "weighted_distance": 4.057663138852425
    },
    "planner": "BKPIECE",
    "start": {
        "state": {
            "elbow_joint": 2.422574709923281,
            "shoulder_lift_joint": -1.3736533754116391,
            "shoulder_pan_joint": -0.33786336945926293,
            "wrist_1_joint": -1.0288603412921917,
            "wrist_2_joint": 1.2330224858903978,
            "wrist_3_joint": -3.094022268022082
        }
    },
    "waypoints": [
        {
            "positions": [
                -0.33786336945926293,
                -1.3736533754116391,
                2.422574709923281,
                -1.0288603412921917,
                1.2330224858903978,
                -3.094022268022082
            ]
        },
        {
            "positions": [
                -0.3441423974005362,
                -1.3617469302044747,
                2.3086248799022546,
                -1.0438438162493808,
                1.1846590491704099,
                -2.955173827544788
            ]
        },
        {
            "positions": [
                -0.35042142534180953,
                -1.3498404849973102,
                2.194675049881228,
                -1.0588272912065697,
                1.136295612450422,
                -2.8163253870674936
            ]
        },
        {
            "positions": [
                -0.35670045328308286,
                -1.3379340397901458,
                2.0807252198602013,
                -1.0738107661637586,
                1.0879321757304343,
                -2.6774769465901995
            ]
        },
        {
            "positions": [
                -0.36297948122435614,
                -1.3260275945829814,
                1.9667753898391749,
                -1.0887942411209477,
                1.0395687390104464,
                -2.5386285061129055
            ]
        },
        {
            "positions": [
                -0.29536467071007033,
                -1.3879172859874136,
                1.9600885094218825,
                -0.9911856617577173,
                0.9711706412562581,
                -2.448138898454365
            ]
        },
        {
            "positions": [
                -0.22774986019578458,
                -1.4498069773918458,
                1.9534016290045901,
                -0.8935770823944869,
                0.9027725435020698,
                -2.357649290795824
            ]
        },
        {
            "positions": [
                -0.16013504968149883,
                -1.511696668796278,
                1.9467147485872978,
                -0.7959685030312564,
                0.8343744457478814,
                -2.2671596831372836
            ]
        },
        {
            "positions": [
                -0.09252023916721303,
                -1.5735863602007103,
                1.9400278681700054,
                -0.698359923668026,
                0.7659763479936932,
                -2.176670075478743
            ]
        },
        {
            "positions": [
                -0.024905428652927275,
                -1.6354760516051425,
                1.9333409877527128,
                -0.6007513443047956,
                0.6975782502395047,
                -2.0861804678202023
            ]
        },
        {
            "positions": [
                0.042709381861358475,
                -1.6973657430095748,
                1.9266541073354204,
                -0.5031427649415653,
                0.6291801524853164,
                -1.9956908601616619
            ]
        },
        {
            "positions": [
                0.11032419237564428,
                -1.7592554344140072,
                1.919967226918128,
                -0.40553418557833487,
                0.5607820547311282,
                -1.905201252503121
            ]
        },
        {
            "positions": [
                0.1779390028899301,
                -1.8211451258184395,
                1.9132803465008357,
                -0.30792560621510445,
                0.4923839569769398,
                -1.8147116448445806
            ]
        },
        {
            "positions": [
                0.24555381340421586,
                -1.8830348172228717,
                1.9065934660835433,
                -0.210317026851874,
                0.42398585922275145,
                -1.72422203718604
            ]
        },
        {
            "positions": [
                0.31745098759830614,
                -1.923895894231882,
                1.9996722980115957,
                -0.17646659400723844,
                0.4544111275255488,
                -1.829409743452233
            ]
        },
        {
            "positions": [
                0.3893481617923965,
                -1.964756971240892,
                2.092751129939648,
                -0.14261616116260287,
                0.4848363958283461,
                -1.9345974497184262
            ]
        },
        {
            "positions": [
                0.46124533598648676,
                -2.0056180482499024,
                2.185829961867701,
                -0.1087657283179673,
                0.5152616641311434,
                -2.039785155984619
            ]
        },
        {
            "positions": [
                0.5331425101805771,
                -2.0464791252589127,
                2.2789087937957535,
                -0.07491529547333171,
                0.5456869324339407,
                -2.144972862250812
            ]
        },
        {
            "positions": [
                0.5852920710456679,
                -2.0539278385594573,
                2.3535307497270868,
                -0.10012617427363404,
                0.5928660295323251,
                -2.3072109398203704
            ]
        },
        {
            "positions": [
                0.6096817982035155,
                -2.0246982234571047,
                2.3608791427894182,
                -0.17133275344539367,
                0.6159956030475101,
                -2.4733675588655157
            ]
        },
        {
            "positions": [
                0.6340715253613631,
                -1.9954686083547521,
                2.3682275358517497,
                -0.24253933261715327,
                0.6391251765626951,
                -2.639524177910661
            ]
        },
        {
            "positions": [
                0.6584612525192107,
                -1.9662389932523998,
                2.3755759289140808,
                -0.31374591178891287,
                0.66225475007788,
                -2.8056807969558064
            ]
        },
        {
            "positions": [
                0.6828509796770583,
                -1.9370093781500473,
                2.3829243219764122,
                -0.3849524909606725,
                0.685384323593065,
                -2.9718374160009517
            ]
        },
        {
            "positions": [
                0.7072407068349059,
                -1.9077797630476947,
                2.3902727150387437,
                -0.4561590701324321,
                0.70851389710825,
                -3.137994035046097
            ]
        }
    ]
}