{
    "goal": {
        "global_pose": {
            "orientation": {
                "w": 0.7031023502349854,
                "x": -0.7110244035720825,
                "y": 0.007748599164187908,
                "z": 0.005598929710686207
            },
            "position": {
                "x": 0.11585023208521307,
                "y": 0.44412534475326537,
                "z": 0.3711530566215515
            }
        },
        "name": "move_to_auspresseinheit_A"
    },
    "id": "BKPIECE_move_to_auspresseinheit_A_130",
    "joint_names": [
        "shoulder_pan_joint",
        "shoulder_lift_joint",
        "elbow_joint",
        "wrist_1_joint",
        "wrist_2_joint",
        "wrist_3_joint"
    ],
    "metrics": {
        "cart_traj_len": 0.9865029311763828,
        "distance_elbow_joint": 0.7304178161703354,
        "distance_shoulder_lift_joint": 0.9131619984329469,
        "distance_shoulder_pan_joint": 1.0420898822577023,
        "distance_wrist_1_joint": 1.8790623019395374,
        "distance_wrist_2_joint": 1.3526932486885537,
        "distance_wrist_3_joint": 5.57614247552501,
        "smoothness": 0.8449109736319312,
        "time": 0.247396216,
        "traj_len": 3.390216471409176,
        "weighted_distance": 5.087003855384052
    },
    "planner": "BKPIECE",
    "start": {
        "state": {
            "elbow_joint": 2.422574709923281,
            "shoulder_lift_joint": -1.3736533754116391,
            "shoulder_pan_joint": -0.33786336945926293,
            "wrist_1_joint": -1.0288603412921917,
            "wrist_2_joint": 1.2330224858903978,
            "wrist_3_joint": -3.094022268022082
        }
    },
    "waypoints": [
        {
            "positions": [
                -0.33786336945926293,
                -1.3736533754116391,
                2.422574709923281,
                -1.0288603412921917,
                1.2330224858903978,
                -3.094022268022082
            ]
        },
        {
            "positions": [
                -0.3220382195448113,
                -1.4188896493511114,
                2.398825369251824,
                -0.9522295764423824,
                1.1741576657613184,
                -2.9211901562840192
            ]
        },
        {
            "positions": [
                -0.3062130696303597,
                -1.4641259232905837,
                2.3750760285803674,
                -0.8755988115925729,
                1.1152928456322393,
                -2.748358044545957
            ]
        },
        {
            "positions": [
                -0.2903879197159081,
                -1.509362197230056,
                2.3513266879089105,
                -0.7989680467427636,
                1.05642802550316,
                -2.575525932807894
            ]
        },
        {
            "positions": [
                -0.2745627698014565,
                -1.5545984711695282,
                2.3275773472374537,
                -0.7223372818929541,
                0.9975632053740808,
                -2.4026938210698314
            ]
        },
        {
            "positions": [
                -0.2587376198870049,
                -1.5998347451090003,
                2.303828006565997,
                -0.6457065170431447,
                0.9386983852450015,
                -2.2298617093317685
            ]
        },
        {
            "positions": [
                -0.24291246997255328,
                -1.6450710190484725,
                2.28007866589454,
                -0.5690757521933354,
                0.8798335651159223,
                -2.057029597593706
            ]
        },
        {
            "positions": [
                -0.22708732005810167,
                -1.6903072929879448,
                2.256329325223083,
                -0.49244498734352593,
                0.820968744986843,
                -1.8841974858556432
            ]
        },
        {
            "positions": [
                -0.21126217014365006,
                -1.735543566927417,
                2.2325799845516263,
                -0.4158142224937166,
                0.7621039248577638,
                -1.7113653741175805
            ]
        },
        {
            "positions": [
                -0.19543702022919845,
                -1.7807798408668893,
                2.2088306438801695,
                -0.3391834576439072,
                0.7032391047286846,
                -1.5385332623795178
            ]
        },
        {
            "positions": [
                -0.17961187031474685,
                -1.8260161148063616,
                2.1850813032087126,
                -0.26255269279409776,
                0.6443742845996053,
                -1.3657011506414551
            ]
        },
        {
            "positions": [
                -0.16378672040029524,
                -1.8712523887458339,
                2.161331962537256,
                -0.1859219279442884,
                0.5855094644705261,
                -1.1928690389033925
            ]
        },
        {
            "positions": [
                -0.14796157048584363,
                -1.916488662685306,
                2.137582621865799,
                -0.10929116309447906,
                0.5266446443414468,
                -1.0200369271653296
            ]
        },
        {
            "positions": [
                -0.13213642057139202,
                -1.9617249366247784,
                2.113833281194342,
                -0.0326603982446696,
                0.4677798242123675,
                -0.8472048154272671
            ]
        },
        {
            "positions": [
                -0.11631127065694041,
                -2.0069612105642505,
                2.0900839405228853,
                0.043970366605139866,
                0.4089150040832883,
                -0.6743727036892042
            ]
        },
        {
            "positions": [
                -0.1004861207424888,
                -2.052197484503723,
                2.0663345998514284,
                0.1206011314549491,
                0.35005018395420906,
                -0.5015405919511418
            ]
        },
        {
            "positions": [
                -0.0846609708280372,
                -2.097433758443195,
                2.0425852591799716,
                0.19723189630475849,
                0.2911853638251299,
                -0.3287084802130789
            ]
        },
        {
            "positions": [
                -0.01605349851558492,
                -2.0914942619059977,
                2.07755383734395,
                0.14933279854202852,
                0.3146843411075246,
                -0.5066330709752174
            ]
        },
        {
            "positions": [
                0.052553973796867354,
                -2.0855547653688005,
                2.1125224155079287,
                0.10143370077929856,
                0.33818331838991933,
                -0.6845576617373559
            ]
        },
        {
            "positions": [
                0.12116144610931964,
                -2.0796152688316036,
                2.1474909936719078,
                0.05353460301656862,
                0.361682295672314,
                -0.8624822524994944
            ]
        },
        {
            "positions": [
                0.1897689184217719,
                -2.0736757722944064,
                2.1824595718358863,
                0.00563550525383863,
                0.3851812729547087,
                -1.040406843261633
            ]
        },
        {
            "positions": [
                0.2583763907342242,
                -2.067736275757209,
                2.217428149999865,
                -0.04226359250889131,
                0.4086802502371034,
                -1.2183314340237712
            ]
        },
        {
            "positions": [
                0.3269838630466765,
                -2.061796779220012,
                2.2523967281638435,
                -0.09016269027162124,
                0.4321792275194981,
                -1.3962560247859097
            ]
        },
        {
            "positions": [
                0.3955913353591287,
                -2.0558572826828145,
                2.287365306327822,
                -0.13806178803435118,
                0.45567820480189286,
                -1.574180615548048
            ]
        },
        {
            "positions": [
                0.464198807671581,
                -2.0499177861456177,
                2.322333884491801,
                -0.18596088579708123,
                0.4791771820842876,
                -1.7521052063101867
            ]
        },
        {
            "positions": [
                0.5328062799840334,
                -2.0439782896084204,
                2.3573024626557797,
                -0.23385998355981116,
                0.5026761593666823,
                -1.930029797072325
            ]
        },
        {
            "positions": [
                0.6014137522964855,
                -2.038038793071223,
                2.3922710408197583,
                -0.2817590813225411,
                0.526175136649077,
                -2.1079543878344635
            ]
        },
        {
            "positions": [
                0.6219763043968762,
                -2.0120414630653394,
                2.3921225240623105,
                -0.31655489866559855,
                0.5613484074089449,
                -2.314270943853388
            ]
        },
        {
            "positions": [
                0.6425388564972669,
                -1.9860441330594556,
                2.3919740073048628,
                -0.3513507160086559,
                0.5965216781688127,
                -2.5205874998723123
            ]
        },
        {
            "positions": [
                0.6631014085976578,
                -1.9600468030535716,
                2.3918254905474146,
                -0.38614653335171334,
                0.6316949489286807,
                -2.7269040558912367
            ]
        },
        {
            "positions": [
                0.6836639606980485,
                -1.9340494730476878,
                2.391676973789967,
                -0.4209423506947707,
                0.6668682196885486,
                -2.9332206119101616
            ]
        },
        {
            "positions": [
                0.7042265127984392,
                -1.908052143041804,
                2.391528457032519,
                -0.45573816803782813,
                0.7020414904484165,
                -3.139537167929086
            ]
        }
    ]
}