{
    "goal": {
        "global_pose": {
            "orientation": {
                "w": -0.00223480608172531,
                "x": 0.0024358444001904467,
                "y": 0.7094548369677653,
                "z": -0.704743149386269
            },
            "position": {
                "x": 0.6205249238014221,
                "y": -0.6371506643295288,
                "z": 0.19426114857196808
            }
        },
        "name": "move_to_magneteinheit_B"
    },
    "id": "BKPIECE_move_to_magneteinheit_B_61",
    "joint_names": [
        "shoulder_pan_joint",
        "shoulder_lift_joint",
        "elbow_joint",
        "wrist_1_joint",
        "wrist_2_joint",
        "wrist_3_joint"
    ],
    "metrics": {
        "cart_traj_len": 1.4534632371187697,
        "distance_elbow_joint": 0.7328198207859804,
        "distance_shoulder_lift_joint": 1.248718667379946,
        "distance_shoulder_pan_joint": 1.6207297148010786,
        "distance_wrist_1_joint": 2.6054428390313737,
        "distance_wrist_2_joint": 2.9453374106842807,
        "distance_wrist_3_joint": 3.1245487608135902,
        "smoothness": 3.330669084591233e-16,
        "time": 0.31305062699999997,
        "traj_len": 3.503940241142284,
        "weighted_distance": 4.906880371971491
    },
    "planner": "BKPIECE",
    "start": {
        "state": {
            "elbow_joint": 2.39358713078474,
            "shoulder_lift_joint": -1.908514104345545,
            "shoulder_pan_joint": 0.7066247066606129,
            "wrist_1_joint": -0.4678290933515497,
            "wrist_2_joint": 0.7096259083745334,
            "wrist_3_joint": -3.1358149277392293
        }
    },
    "waypoints": [
        {
            "positions": [
                0.7066247066606129,
                -1.908514104345545,
                2.39358713078474,
                -0.4678290933515497,
                0.7096259083745334,
                -3.1358149277392293
            ]
        },
        {
            "positions": [
                0.6543431029573523,
                -1.8682328570107078,
                2.3699477817271277,
                -0.38378255015698926,
                0.6146150241589114,
                -3.0350230322291134
            ]
        },
        {
            "positions": [
                0.6020614992540918,
                -1.827951609675871,
                2.3463084326695154,
                -0.29973600696242886,
                0.5196041399432896,
                -2.9342311367189975
            ]
        },
        {
            "positions": [
                0.5497798955508312,
                -1.787670362341034,
                2.322669083611903,
                -0.2156894637678684,
                0.42459325572766754,
                -2.833439241208882
            ]
        },
        {
            "positions": [
                0.49749829184757055,
                -1.747389115006197,
                2.299029734554291,
                -0.13164292057330795,
                0.3295823715120456,
                -2.732647345698766
            ]
        },
        {
            "positions": [
                0.4452166881443099,
                -1.70710786767136,
                2.275390385496679,
                -0.0475963773787475,
                0.23457148729642363,
                -2.63185545018865
            ]
        },
        {
            "positions": [
                0.39293508444104935,
                -1.6668266203365232,
                2.2517510364390665,
                0.036450165815812896,
                0.13956060308080165,
                -2.5310635546785347
            ]
        },
        {
            "positions": [
                0.3406534807377887,
                -1.6265453730016861,
                2.228111687381454,
                0.1204967090103734,
                0.04454971886517978,
                -2.430271659168419
            ]
        },
        {
            "positions": [
                0.28837187703452816,
                -1.5862641256668493,
                2.204472338323842,
                0.2045432522049338,
                -0.050461165350442205,
                -2.329479763658303
            ]
        },
        {
            "positions": [
                0.23609027333126748,
                -1.5459828783320122,
                2.1808329892662295,
                0.2885897953994943,
                -0.1454720495660642,
                -2.228687868148187
            ]
        },
        {
            "positions": [
                0.1838086696280069,
                -1.5057016309971751,
                2.157193640208617,
                0.3726363385940547,
                -0.24048293378168617,
                -2.127895972638071
            ]
        },
        {
            "positions": [
                0.13152706592474628,
                -1.4654203836623383,
                2.1335542911510053,
                0.4566828817886152,
                -0.33549381799730804,
                -2.027104077127955
            ]
        },
        {
            "positions": [
                0.07924546222148576,
                -1.4251391363275014,
                2.109914942093393,
                0.5407294249831756,
                -0.43050470221293013,
                -1.9263121816178397
            ]
        },
        {
            "positions": [
                0.026963858518225137,
                -1.3848578889926644,
                2.0862755930357806,
                0.6247759681777361,
                -0.525515586428552,
                -1.8255202861077238
            ]
        },
        {
            "positions": [
                -0.02531774518503549,
                -1.3445766416578273,
                2.0626362439781682,
                0.7088225113722966,
                -0.6205264706441739,
                -1.7247283905976079
            ]
        },
        {
            "positions": [
                -0.07759934888829612,
                -1.3042953943229905,
                2.038996894920556,
                0.7928690545668571,
                -0.715537354859796,
                -1.6239364950874922
            ]
        },
        {
            "positions": [
                -0.12988095259155663,
                -1.2640141469881536,
                2.0153575458629436,
                0.8769155977614174,
                -0.8105482390754178,
                -1.5231445995773762
            ]
        },
        {
            "positions": [
                -0.18216255629481726,
                -1.2237328996533166,
                1.9917181968053315,
                0.9609621409559779,
                -0.9055591232910397,
                -1.4223527040672606
            ]
        },
        {
            "positions": [
                -0.234444159998078,
                -1.1834516523184795,
                1.9680788477477191,
                1.0450086841505384,
                -1.0005700075066617,
                -1.3215608085571446
            ]
        },
        {
            "positions": [
                -0.2867257637013385,
                -1.1431704049836426,
                1.944439498690107,
                1.1290552273450989,
                -1.0955808917222836,
                -1.2207689130470287
            ]
        },
        {
            "positions": [
                -0.33900736740459914,
                -1.1028891576488056,
                1.9208001496324947,
                1.2131017705396592,
                -1.1905917759379059,
                -1.1199770175369133
            ]
        },
        {
            "positions": [
                -0.39128897110785965,
                -1.0626079103139685,
                1.8971608005748823,
                1.2971483137342195,
                -1.2856026601535278,
                -1.0191851220267973
            ]
        },
        {
            "positions": [
                -0.4435705748111204,
                -1.0223266629791317,
                1.87352145151727,
                1.3811948569287802,
                -1.3806135443691496,
                -0.9183932265166814
            ]
        },
        {
            "positions": [
                -0.4958521785143809,
                -0.9820454156442947,
                1.8498821024596577,
                1.4652414001233405,
                -1.4756244285847715,
                -0.8176013310065655
            ]
        },
        {
            "positions": [
                -0.5481337822176414,
                -0.9417641683094577,
                1.8262427534020456,
                1.5492879433179008,
                -1.5706353128003938,
                -0.71680943549645
            ]
        },
        {
            "positions": [
                -0.6004153859209019,
                -0.9014829209746209,
                1.8026034043444334,
                1.6333344865124615,
                -1.6656461970160157,
                -0.6160175399863341
            ]
        },
        {
            "positions": [
                -0.6526969896241627,
                -0.8612016736397838,
                1.7789640552868211,
                1.7173810297070218,
                -1.7606570812316376,
                -0.5152256444762182
            ]
        },
        {
            "positions": [
                -0.7049785933274232,
                -0.8209204263049468,
                1.7553247062292088,
                1.8014275729015825,
                -1.8556679654472594,
                -0.4144337489661023
            ]
        },
        {
            "positions": [
                -0.7572601970306839,
                -0.7806391789701099,
                1.7316853571715964,
                1.8854741160961428,
                -1.9506788496628813,
                -0.3136418534559864
            ]
        },
        {
            "positions": [
                -0.8095418007339444,
                -0.7403579316352729,
                1.708046008113984,
                1.969520659290703,
                -2.045689733878503,
                -0.21284995794587092
            ]
        },
        {
            "positions": [
                -0.8618234044372052,
                -0.7000766843004358,
                1.6844066590563718,
                2.053567202485264,
                -2.1407006180941255,
                -0.112058062435755
            ]
        },
        {
            "positions": [
                -0.9141050081404656,
                -0.659795436965599,
                1.6607673099987597,
                2.137613745679824,
                -2.2357115023097474,
                -0.01126616692563907
            ]
        }
    ]
}