{
    "goal": {
        "global_pose": {
            "orientation": {
                "w": 0.5084816217422485,
                "x": -0.49083608388900757,
                "y": 0.5182115435600281,
                "z": -0.4816462993621826
            },
            "position": {
                "x": 0.5540239810943604,
                "y": 0.030875300988554955,
                "z": 0.16403168439865112
            }
        },
        "name": "move_to_storage_A"
    },
    "id": "BKPIECE_move_to_storage_A_95",
    "joint_names": [
        "shoulder_pan_joint",
        "shoulder_lift_joint",
        "elbow_joint",
        "wrist_1_joint",
        "wrist_2_joint",
        "wrist_3_joint"
    ],
    "metrics": {
        "cart_traj_len": 0.35342970089300085,
        "distance_elbow_joint": 0.4524632791598351,
        "distance_shoulder_lift_joint": 0.23477988915653225,
        "distance_shoulder_pan_joint": 0.4641915029185633,
        "distance_wrist_1_joint": 0.2516342003850732,
        "distance_wrist_2_joint": 1.0912503606873845,
        "distance_wrist_3_joint": 0.10651343954993076,
        "smoothness": 0.0,
        "time": 0.210995523,
        "traj_len": 1.612709729572349,
        "weighted_distance": 2.0388094839954123
    },
    "planner": "BKPIECE",
    "start": {
        "state": {
            "elbow_joint": 1.9715463870305268,
            "shoulder_lift_joint": -1.1394903361783484,
            "shoulder_pan_joint": 0.12281147578464417,
            "wrist_1_joint": -0.7804599489681411,
            "wrist_2_joint": 0.12958660307563738,
            "wrist_3_joint": -3.1924946282119055
        }
    },
    "waypoints": [
        {
            "positions": [
                0.12281147578464417,
                -1.1394903361783484,
                1.9715463870305268,
                -0.7804599489681411,
                0.12958660307563738,
                -3.1924946282119055
            ]
        },
        {
            "positions": [
                0.05649840393913513,
                -1.1730303203435672,
                2.036183998339075,
                -0.8164076918802944,
                0.28547951174526376,
                -3.1772784225619155
            ]
        },
        {
            "positions": [
                -0.009814667906373906,
                -1.206570304508786,
                2.1008216096476224,
                -0.8523554347924477,
                0.4413724204148901,
                -3.1620622169119255
            ]
        },
        {
            "positions": [
                -0.07612773975188296,
                -1.240110288674005,
                2.1654592209561705,
                -0.888303177704601,
                0.5972653290845165,
                -3.1468460112619354
            ]
        },
        {
            "positions": [
                -0.14244081159739197,
                -1.273650272839224,
                2.230096832264718,
                -0.9242509206167544,
                0.7531582377541428,
                -3.131629805611945
            ]
        },
        {
            "positions": [
                -0.20875388344290102,
                -1.307190257004443,
                2.294734443573266,
                -0.9601986635289077,
                0.9090511464237692,
                -3.116413599961955
            ]
        },
        {
            "positions": [
                -0.2750669552884101,
                -1.3407302411696618,
                2.359372054881814,
                -0.996146406441061,
                1.0649440550933955,
                -3.101197394311965
            ]
        },
        {
            "positions": [
                -0.34138002713391913,
                -1.3742702253348806,
                2.424009666190362,
                -1.0320941493532143,
                1.2208369637630219,
                -3.085981188661975
            ]
        }
    ]
}