{
    "goal": {
        "global_pose": {
            "orientation": {
                "w": 0.5084816217422485,
                "x": -0.49083608388900757,
                "y": 0.5182115435600281,
                "z": -0.4816462993621826
            },
            "position": {
                "x": 0.5540239810943604,
                "y": 0.030875300988554955,
                "z": 0.16403168439865112
            }
        },
        "name": "move_to_storage_A"
    },
    "id": "BKPIECE_move_to_storage_A_5",
    "joint_names": [
        "shoulder_pan_joint",
        "shoulder_lift_joint",
        "elbow_joint",
        "wrist_1_joint",
        "wrist_2_joint",
        "wrist_3_joint"
    ],
    "metrics": {
        "cart_traj_len": 0.3530207300056739,
        "distance_elbow_joint": 0.4476297958421891,
        "distance_shoulder_lift_joint": 0.23598877792521789,
        "distance_shoulder_pan_joint": 0.45925563122450497,
        "distance_wrist_1_joint": 0.23508300883130617,
        "distance_wrist_2_joint": 1.1090331748804316,
        "distance_wrist_3_joint": 0.09766438392630494,
        "smoothness": 4.440892133664971e-16,
        "time": 0.152976851,
        "traj_len": 1.607686154891543,
        "weighted_distance": 2.0307879564824836
    },
    "planner": "BKPIECE",
    "start": {
        "state": {
            "elbow_joint": 1.9715463870305268,
            "shoulder_lift_joint": -1.1394903361783484,
            "shoulder_pan_joint": 0.12281147578464417,
            "wrist_1_joint": -0.7804599489681411,
            "wrist_2_joint": 0.12958660307563738,
            "wrist_3_joint": -3.1924946282119055
        }
    },
    "waypoints": [
        {
            "positions": [
                0.12281147578464417,
                -1.1394903361783484,
                1.9715463870305268,
                -0.7804599489681411,
                0.12958660307563738,
                -3.1924946282119055
            ]
        },
        {
            "positions": [
                0.05720352846685775,
                -1.1732030187390938,
                2.035493500722268,
                -0.8140432359440419,
                0.28801991377284186,
                -3.1785425733652906
            ]
        },
        {
            "positions": [
                -0.008404418850928672,
                -1.2069157012998393,
                2.0994406144140094,
                -0.8476265229199429,
                0.44645322447004643,
                -3.1645905185186756
            ]
        },
        {
            "positions": [
                -0.07401236616871508,
                -1.2406283838605847,
                2.1633877281057505,
                -0.8812098098958437,
                0.6048865351672509,
                -3.1506384636720606
            ]
        },
        {
            "positions": [
                -0.1396203134865015,
                -1.27434106642133,
                2.227334841797492,
                -0.9147930968717446,
                0.7633198458644554,
                -3.1366864088254456
            ]
        },
        {
            "positions": [
                -0.20522826080428797,
                -1.3080537489820754,
                2.291281955489233,
                -0.9483763838476456,
                0.92175315656166,
                -3.1227343539788306
            ]
        },
        {
            "positions": [
                -0.2708362081220743,
                -1.3417664315428208,
                2.3552290691809743,
                -0.9819596708235463,
                1.0801864672588644,
                -3.1087822991322156
            ]
        },
        {
            "positions": [
                -0.3364441554398608,
                -1.3754791141035663,
                2.419176182872716,
                -1.0155429577994473,
                1.238619777956069,
                -3.0948302442856006
            ]
        }
    ]
}