{
    "goal": {
        "global_pose": {
            "orientation": {
                "w": -0.00223480608172531,
                "x": 0.0024358444001904467,
                "y": 0.7094548369677653,
                "z": -0.704743149386269
            },
            "position": {
                "x": 0.6205249238014221,
                "y": -0.6371506643295288,
                "z": 0.19426114857196808
            }
        },
        "name": "move_to_magneteinheit_B"
    },
    "id": "BKPIECE_move_to_magneteinheit_B_58",
    "joint_names": [
        "shoulder_pan_joint",
        "shoulder_lift_joint",
        "elbow_joint",
        "wrist_1_joint",
        "wrist_2_joint",
        "wrist_3_joint"
    ],
    "metrics": {
        "cart_traj_len": 1.453791666532434,
        "distance_elbow_joint": 0.7324412386531931,
        "distance_shoulder_lift_joint": 1.2491792184023693,
        "distance_shoulder_pan_joint": 1.6213233716370823,
        "distance_wrist_1_joint": 2.605332847867612,
        "distance_wrist_2_joint": 2.9421400631820216,
        "distance_wrist_3_joint": 3.1278312311972587,
        "smoothness": 3.0531133340659197e-16,
        "time": 0.13622951,
        "traj_len": 3.504033100719732,
        "weighted_distance": 4.907278608799758
    },
    "planner": "BKPIECE",
    "start": {
        "state": {
            "elbow_joint": 2.39358713078474,
            "shoulder_lift_joint": -1.908514104345545,
            "shoulder_pan_joint": 0.7066247066606129,
            "wrist_1_joint": -0.4678290933515497,
            "wrist_2_joint": 0.7096259083745334,
            "wrist_3_joint": -3.1358149277392293
        }
    },
    "waypoints": [
        {
            "positions": [
                0.7066247066606129,
                -1.908514104345545,
                2.39358713078474,
                -0.4678290933515497,
                0.7096259083745334,
                -3.1358149277392293
            ]
        },
        {
            "positions": [
                0.6543239527368361,
                -1.8682180005261138,
                2.3699599940539917,
                -0.3837860982590461,
                0.6147181644009199,
                -3.0349171460877047
            ]
        },
        {
            "positions": [
                0.6020231988130592,
                -1.8279218967066824,
                2.346332857323244,
                -0.2997431031665425,
                0.5198104204273062,
                -2.9340193644361805
            ]
        },
        {
            "positions": [
                0.5497224448892823,
                -1.7876257928872512,
                2.3227057205924955,
                -0.2157001080740389,
                0.4249026764536926,
                -2.833121582784656
            ]
        },
        {
            "positions": [
                0.4974216909655056,
                -1.7473296890678198,
                2.2990785838617476,
                -0.13165711298153526,
                0.32999493248007905,
                -2.7322238011331317
            ]
        },
        {
            "positions": [
                0.4451209370417287,
                -1.7070335852483887,
                2.2754514471309992,
                -0.04761411788903169,
                0.23508718850646543,
                -2.631326019481607
            ]
        },
        {
            "positions": [
                0.39282018311795186,
                -1.6667374814289573,
                2.251824310400251,
                0.03642887720347193,
                0.1401794445328518,
                -2.5304282378300824
            ]
        },
        {
            "positions": [
                0.340519429194175,
                -1.6264413776095261,
                2.228197173669503,
                0.1204718722959755,
                0.04527170055923824,
                -2.429530456178558
            ]
        },
        {
            "positions": [
                0.2882186752703982,
                -1.5861452737900947,
                2.2045700369387546,
                0.20451486738847918,
                -0.04963604341437533,
                -2.3286326745270336
            ]
        },
        {
            "positions": [
                0.23591792134662126,
                -1.5458491699706634,
                2.1809429002080067,
                0.28855786248098286,
                -0.144543787387989,
                -2.227734892875509
            ]
        },
        {
            "positions": [
                0.1836171674228445,
                -1.5055530661512322,
                2.1573157634772584,
                0.3726008575734863,
                -0.23945153136160258,
                -2.1268371112239848
            ]
        },
        {
            "positions": [
                0.13131641349906764,
                -1.465256962331801,
                2.13368862674651,
                0.45664385266599,
                -0.33435927533521614,
                -2.02593932957246
            ]
        },
        {
            "positions": [
                0.07901565957529078,
                -1.4249608585123696,
                2.110061490015762,
                0.5406868477584936,
                -0.4292670193088298,
                -1.9250415479209357
            ]
        },
        {
            "positions": [
                0.02671490565151391,
                -1.3846647546929383,
                2.086434353285014,
                0.6247298428509973,
                -0.5241747632824435,
                -1.824143766269411
            ]
        },
        {
            "positions": [
                -0.025585848272262957,
                -1.3443686508735073,
                2.062807216554266,
                0.7087728379435008,
                -0.619082507256057,
                -1.7232459846178867
            ]
        },
        {
            "positions": [
                -0.07788660219603982,
                -1.304072547054076,
                2.0391800798235176,
                0.7928158330360044,
                -0.7139902512296706,
                -1.622348202966362
            ]
        },
        {
            "positions": [
                -0.13018735611981658,
                -1.2637764432346446,
                2.0155529430927697,
                0.8768588281285081,
                -0.8088979952032841,
                -1.5214504213148379
            ]
        },
        {
            "positions": [
                -0.18248811004359344,
                -1.2234803394152134,
                1.9919258063620213,
                0.9609018232210116,
                -0.9038057391768975,
                -1.4205526396633135
            ]
        },
        {
            "positions": [
                -0.23478886396737042,
                -1.183184235595782,
                1.968298669631273,
                1.0449448183135155,
                -0.9987134831505114,
                -1.3196548580117886
            ]
        },
        {
            "positions": [
                -0.2870896178911472,
                -1.1428881317763508,
                1.9446715329005249,
                1.128987813406019,
                -1.093621227124125,
                -1.2187570763602642
            ]
        },
        {
            "positions": [
                -0.33939037181492393,
                -1.1025920279569195,
                1.9210443961697767,
                1.2130308084985224,
                -1.1885289710977385,
                -1.1178592947087398
            ]
        },
        {
            "positions": [
                -0.3916911257387007,
                -1.0622959241374883,
                1.8974172594390286,
                1.297073803591026,
                -1.283436715071352,
                -1.0169615130572156
            ]
        },
        {
            "positions": [
                -0.44399187966247766,
                -1.021999820318057,
                1.8737901227082805,
                1.3811167986835298,
                -1.3783444590449658,
                -0.916063731405691
            ]
        },
        {
            "positions": [
                -0.49629263358625464,
                -0.9817037164986258,
                1.8501629859775321,
                1.4651597937760334,
                -1.4732522030185793,
                -0.8151659497541663
            ]
        },
        {
            "positions": [
                -0.5485933875100314,
                -0.9414076126791945,
                1.8265358492467842,
                1.549202788868537,
                -1.5681599469921932,
                -0.7142681681026422
            ]
        },
        {
            "positions": [
                -0.6008941414338081,
                -0.9011115088597632,
                1.802908712516036,
                1.6332457839610406,
                -1.6630676909658066,
                -0.6133703864511175
            ]
        },
        {
            "positions": [
                -0.6531948953575851,
                -0.8608154050403318,
                1.7792815757852878,
                1.7172887790535443,
                -1.7579754349394205,
                -0.5124726047995929
            ]
        },
        {
            "positions": [
                -0.7054956492813619,
                -0.8205193012209007,
                1.7556544390545397,
                1.801331774146048,
                -1.852883178913034,
                -0.4115748231480687
            ]
        },
        {
            "positions": [
                -0.7577964032051389,
                -0.7802231974014695,
                1.7320273023237913,
                1.8853747692385512,
                -1.9477909228866475,
                -0.31067704149654407
            ]
        },
        {
            "positions": [
                -0.8100971571289156,
                -0.7399270935820381,
                1.7084001655930434,
                1.9694177643310549,
                -2.042698666860261,
                -0.20977925984501988
            ]
        },
        {
            "positions": [
                -0.8623979110526926,
                -0.6996309897626067,
                1.684773028862295,
                2.0534607594235585,
                -2.137606410833875,
                -0.10888147819349481
            ]
        },
        {
            "positions": [
                -0.9146986649764693,
                -0.6593348859431755,
                1.661145892131547,
                2.1375037545160622,
                -2.2325141548074883,
                -0.007983696541970725
            ]
        }
    ]
}