{
    "goal": {
        "global_pose": {
            "orientation": {
                "w": 0.5084816217422485,
                "x": -0.49083608388900757,
                "y": 0.5182115435600281,
                "z": -0.4816462993621826
            },
            "position": {
                "x": 0.5540239810943604,
                "y": 0.030875300988554955,
                "z": 0.16403168439865112
            }
        },
        "name": "move_to_storage_A"
    },
    "id": "BKPIECE_move_to_storage_A_146",
    "joint_names": [
        "shoulder_pan_joint",
        "shoulder_lift_joint",
        "elbow_joint",
        "wrist_1_joint",
        "wrist_2_joint",
        "wrist_3_joint"
    ],
    "metrics": {
        "cart_traj_len": 0.35291785798950187,
        "distance_elbow_joint": 0.4476079299683926,
        "distance_shoulder_lift_joint": 0.2346858969733121,
        "distance_shoulder_pan_joint": 0.46308295938974836,
        "distance_wrist_1_joint": 0.23612091726912754,
        "distance_wrist_2_joint": 1.091147006804213,
        "distance_wrist_3_joint": 0.09564849048775015,
        "smoothness": 1.1102230263833737e-15,
        "time": 0.337178421,
        "traj_len": 1.6025895297588038,
        "weighted_distance": 2.0215979090663367
    },
    "planner": "BKPIECE",
    "start": {
        "state": {
            "elbow_joint": 1.9715463870305268,
            "shoulder_lift_joint": -1.1394903361783484,
            "shoulder_pan_joint": 0.12281147578464417,
            "wrist_1_joint": -0.7804599489681411,
            "wrist_2_joint": 0.12958660307563738,
            "wrist_3_joint": -3.1924946282119055
        }
    },
    "waypoints": [
        {
            "positions": [
                0.12281147578464417,
                -1.1394903361783484,
                1.9715463870305268,
                -0.7804599489681411,
                0.12958660307563738,
                -3.1924946282119055
            ]
        },
        {
            "positions": [
                0.056656767300394414,
                -1.1730168928888216,
                2.0354903770260115,
                -0.8141915085780165,
                0.28546474690481066,
                -3.178830558142227
            ]
        },
        {
            "positions": [
                -0.009497941183855343,
                -1.2065434495992946,
                2.099434367021496,
                -0.8479230681878918,
                0.4413428907339839,
                -3.1651664880725483
            ]
        },
        {
            "positions": [
                -0.0756526496681051,
                -1.2400700063097678,
                2.1633783570169807,
                -0.8816546277977672,
                0.5972210345631572,
                -3.15150241800287
            ]
        },
        {
            "positions": [
                -0.14180735815235485,
                -1.273596563020241,
                2.2273223470124655,
                -0.9153861874076425,
                0.7530991783923305,
                -3.137838347933191
            ]
        },
        {
            "positions": [
                -0.20796206663660466,
                -1.3071231197307143,
                2.2912663370079502,
                -0.9491177470175178,
                0.9089773222215038,
                -3.1241742778635126
            ]
        },
        {
            "positions": [
                -0.27411677512085436,
                -1.3406496764411873,
                2.3552103270034346,
                -0.9828493066273932,
                1.064855466050677,
                -3.110510207793834
            ]
        },
        {
            "positions": [
                -0.3402714836051042,
                -1.3741762331516605,
                2.4191543169989194,
                -1.0165808662372686,
                1.2207336098798505,
                -3.0968461377241554
            ]
        }
    ]
}