{
    "goal": {
        "global_pose": {
            "orientation": {
                "w": 0.5084816217422485,
                "x": -0.49083608388900757,
                "y": 0.5182115435600281,
                "z": -0.4816462993621826
            },
            "position": {
                "x": 0.5540239810943604,
                "y": 0.030875300988554955,
                "z": 0.16403168439865112
            }
        },
        "name": "move_to_storage_A"
    },
    "id": "BKPIECE_move_to_storage_A_62",
    "joint_names": [
        "shoulder_pan_joint",
        "shoulder_lift_joint",
        "elbow_joint",
        "wrist_1_joint",
        "wrist_2_joint",
        "wrist_3_joint"
    ],
    "metrics": {
        "cart_traj_len": 0.3538788835731515,
        "distance_elbow_joint": 0.4532638204740653,
        "distance_shoulder_lift_joint": 0.23487565895639162,
        "distance_shoulder_pan_joint": 0.46491720162727374,
        "distance_wrist_1_joint": 0.252790388721721,
        "distance_wrist_2_joint": 1.0918411875685878,
        "distance_wrist_3_joint": 0.09797334277117153,
        "smoothness": 0.0,
        "time": 0.190535839,
        "traj_len": 1.6111057073076276,
        "weighted_distance": 2.0337747815212635
    },
    "planner": "BKPIECE",
    "start": {
        "state": {
            "elbow_joint": 1.9715463870305268,
            "shoulder_lift_joint": -1.1394903361783484,
            "shoulder_pan_joint": 0.12281147578464417,
            "wrist_1_joint": -0.7804599489681411,
            "wrist_2_joint": 0.12958660307563738,
            "wrist_3_joint": -3.1924946282119055
        }
    },
    "waypoints": [
        {
            "positions": [
                0.12281147578464417,
                -1.1394903361783484,
                1.9715463870305268,
                -0.7804599489681411,
                0.12958660307563738,
                -3.1924946282119055
            ]
        },
        {
            "positions": [
                0.056394732695033645,
                -1.1730440017435473,
                2.0362983613839645,
                -0.8165728616426726,
                0.28556391558543565,
                -3.1784984363874527
            ]
        },
        {
            "positions": [
                -0.010022010394576883,
                -1.206597667308746,
                2.1010503357374026,
                -0.8526857743172043,
                0.4415412280952339,
                -3.1645022445629993
            ]
        },
        {
            "positions": [
                -0.07643875348418742,
                -1.2401513328739449,
                2.1658023100908403,
                -0.8887986869917358,
                0.5975185406050322,
                -3.1505060527385464
            ]
        },
        {
            "positions": [
                -0.14285549657379792,
                -1.2737049984391435,
                2.2305542844442785,
                -0.9249115996662673,
                0.7534958531148305,
                -3.136509860914093
            ]
        },
        {
            "positions": [
                -0.20927223966340847,
                -1.3072586640043424,
                2.295306258797716,
                -0.961024512340799,
                0.9094731656246288,
                -3.1225136690896402
            ]
        },
        {
            "positions": [
                -0.275688982753019,
                -1.340812329569541,
                2.360058233151154,
                -0.9971374250153304,
                1.065450478134427,
                -3.108517477265187
            ]
        },
        {
            "positions": [
                -0.34210572584262955,
                -1.37436599513474,
                2.424810207504592,
                -1.033250337689862,
                1.2214277906442252,
                -3.094521285440734
            ]
        }
    ]
}