{
    "goal": {
        "global_pose": {
            "orientation": {
                "w": -0.00223480608172531,
                "x": 0.0024358444001904467,
                "y": 0.7094548369677653,
                "z": -0.704743149386269
            },
            "position": {
                "x": 0.6205249238014221,
                "y": -0.6371506643295288,
                "z": 0.19426114857196808
            }
        },
        "name": "move_to_magneteinheit_B"
    },
    "id": "BKPIECE_move_to_magneteinheit_B_12",
    "joint_names": [
        "shoulder_pan_joint",
        "shoulder_lift_joint",
        "elbow_joint",
        "wrist_1_joint",
        "wrist_2_joint",
        "wrist_3_joint"
    ],
    "metrics": {
        "cart_traj_len": 1.4529709183131692,
        "distance_elbow_joint": 0.7301581413002136,
        "distance_shoulder_lift_joint": 1.2480984238551056,
        "distance_shoulder_pan_joint": 1.622064798086717,
        "distance_wrist_1_joint": 2.6046817424691637,
        "distance_wrist_2_joint": 2.937921091907758,
        "distance_wrist_3_joint": 3.137259213827245,
        "smoothness": 3.608224835116546e-16,
        "time": 0.211472259,
        "traj_len": 3.5043092630996773,
        "weighted_distance": 4.908900556486922
    },
    "planner": "BKPIECE",
    "start": {
        "state": {
            "elbow_joint": 2.39358713078474,
            "shoulder_lift_joint": -1.908514104345545,
            "shoulder_pan_joint": 0.7066247066606129,
            "wrist_1_joint": -0.4678290933515497,
            "wrist_2_joint": 0.7096259083745334,
            "wrist_3_joint": -3.1358149277392293
        }
    },
    "waypoints": [
        {
            "positions": [
                0.7066247066606129,
                -1.908514104345545,
                2.39358713078474,
                -0.4678290933515497,
                0.7096259083745334,
                -3.1358149277392293
            ]
        },
        {
            "positions": [
                0.6543000357545898,
                -1.868252864866348,
                2.370033642355701,
                -0.383807101658996,
                0.6148542602484768,
                -3.03461301761577
            ]
        },
        {
            "positions": [
                0.6019753648485667,
                -1.827991625387151,
                2.3464801539266618,
                -0.29978510996644236,
                0.52008261212242,
                -2.93341110749231
            ]
        },
        {
            "positions": [
                0.5496506939425435,
                -1.787730385907954,
                2.3229266654976226,
                -0.21576311827388872,
                0.4253109639963633,
                -2.832209197368851
            ]
        },
        {
            "positions": [
                0.4973260230365204,
                -1.747469146428757,
                2.2993731770685835,
                -0.13174112658133502,
                0.3305393158703066,
                -2.7310072872453914
            ]
        },
        {
            "positions": [
                0.4450013521304973,
                -1.7072079069495603,
                2.2758196886395443,
                -0.04771913488878138,
                0.2357676677442499,
                -2.6298053771219316
            ]
        },
        {
            "positions": [
                0.39267668122447413,
                -1.6669466674703632,
                2.252266200210505,
                0.036302856803772265,
                0.1409960196181932,
                -2.5286034669984723
            ]
        },
        {
            "positions": [
                0.340352010318451,
                -1.6266854279911662,
                2.228712711781466,
                0.12032484849632591,
                0.04622437149213643,
                -2.4274015568750125
            ]
        },
        {
            "positions": [
                0.2880273394124279,
                -1.5864241885119692,
                2.205159223352427,
                0.20434684018887966,
                -0.04854727663392022,
                -2.326199646751553
            ]
        },
        {
            "positions": [
                0.2357026685064047,
                -1.5461629490327722,
                2.1816057349233877,
                0.2883688318814333,
                -0.14331892475997698,
                -2.2249977366280937
            ]
        },
        {
            "positions": [
                0.18337799760038165,
                -1.5059017095535754,
                2.1580522464943486,
                0.37239082357398695,
                -0.23809057288603364,
                -2.123795826504634
            ]
        },
        {
            "positions": [
                0.13105332669435843,
                -1.4656404700743784,
                2.1344987580653094,
                0.4564128152665407,
                -0.3328622210120905,
                -2.0225939163811746
            ]
        },
        {
            "positions": [
                0.07872865578833532,
                -1.4253792305951816,
                2.1109452696362703,
                0.5404348069590943,
                -0.42763386913814705,
                -1.9213920062577152
            ]
        },
        {
            "positions": [
                0.026403984882312215,
                -1.3851179911159845,
                2.087391781207231,
                0.624456798651648,
                -0.5224055172642038,
                -1.8201900961342556
            ]
        },
        {
            "positions": [
                -0.025920686023710893,
                -1.3448567516367875,
                2.063838292778192,
                0.7084787903442016,
                -0.6171771653902606,
                -1.718988186010796
            ]
        },
        {
            "positions": [
                -0.07824535692973411,
                -1.3045955121575905,
                2.040284804349153,
                0.7925007820367553,
                -0.7119488135163173,
                -1.6177862758873365
            ]
        },
        {
            "positions": [
                -0.1305700278357571,
                -1.2643342726783935,
                2.0167313159201137,
                0.8765227737293091,
                -0.8067204616423739,
                -1.5165843657638771
            ]
        },
        {
            "positions": [
                -0.18289469874178022,
                -1.2240730331991967,
                1.9931778274910745,
                0.9605447654218626,
                -0.9014921097684306,
                -1.4153824556404178
            ]
        },
        {
            "positions": [
                -0.23521936964780354,
                -1.1838117937199997,
                1.9696243390620354,
                1.0445667571144164,
                -0.9962637578944874,
                -1.314180545516958
            ]
        },
        {
            "positions": [
                -0.28754404055382654,
                -1.1435505542408029,
                1.9460708506329962,
                1.1285887488069701,
                -1.091035406020544,
                -1.2129786353934984
            ]
        },
        {
            "positions": [
                -0.33986871145984965,
                -1.1032893147616059,
                1.922517362203957,
                1.2126107404995237,
                -1.1858070541466006,
                -1.111776725270039
            ]
        },
        {
            "positions": [
                -0.39219338236587287,
                -1.0630280752824088,
                1.898963873774918,
                1.2966327321920772,
                -1.2805787022726576,
                -1.0105748151465797
            ]
        },
        {
            "positions": [
                -0.4445180532718961,
                -1.0227668358032118,
                1.8754103853458788,
                1.3806547238846312,
                -1.3753503503987146,
                -0.9093729050231198
            ]
        },
        {
            "positions": [
                -0.4968427241779191,
                -0.9825055963240149,
                1.8518568969168396,
                1.4646767155771847,
                -1.470121998524771,
                -0.8081709948996605
            ]
        },
        {
            "positions": [
                -0.5491673950839423,
                -0.942244356844818,
                1.8283034084878005,
                1.5486987072697382,
                -1.5648936466508276,
                -0.7069690847762011
            ]
        },
        {
            "positions": [
                -0.6014920659899653,
                -0.9019831173656212,
                1.8047499200587613,
                1.632720698962292,
                -1.6596652947768842,
                -0.6057671746527413
            ]
        },
        {
            "positions": [
                -0.6538167368959885,
                -0.861721877886424,
                1.7811964316297222,
                1.7167426906548457,
                -1.7544369429029412,
                -0.504565264529282
            ]
        },
        {
            "positions": [
                -0.7061414078020117,
                -0.8214606384072272,
                1.757642943200683,
                1.8007646823473995,
                -1.8492085910289977,
                -0.40336335440582216
            ]
        },
        {
            "positions": [
                -0.7584660787080347,
                -0.7811993989280301,
                1.734089454771644,
                1.8847866740399528,
                -1.9439802391550547,
                -0.3021614442823628
            ]
        },
        {
            "positions": [
                -0.8107907496140577,
                -0.7409381594488333,
                1.7105359663426047,
                1.9688086657325066,
                -2.0387518872811112,
                -0.20095953415890344
            ]
        },
        {
            "positions": [
                -0.8631154205200812,
                -0.7006769199696363,
                1.6869824779135656,
                2.0528306574250603,
                -2.133523535407168,
                -0.09975762403544364
            ]
        },
        {
            "positions": [
                -0.915440091426104,
                -0.6604156804904393,
                1.6634289894845264,
                2.136852649117614,
                -2.2282951835332248,
                0.0014442860880157068
            ]
        }
    ]
}