{
    "goal": {
        "global_pose": {
            "orientation": {
                "w": -0.00223480608172531,
                "x": 0.0024358444001904467,
                "y": 0.7094548369677653,
                "z": -0.704743149386269
            },
            "position": {
                "x": 0.6205249238014221,
                "y": -0.6371506643295288,
                "z": 0.19426114857196808
            }
        },
        "name": "move_to_magneteinheit_B"
    },
    "id": "BKPIECE_move_to_magneteinheit_B_119",
    "joint_names": [
        "shoulder_pan_joint",
        "shoulder_lift_joint",
        "elbow_joint",
        "wrist_1_joint",
        "wrist_2_joint",
        "wrist_3_joint"
    ],
    "metrics": {
        "cart_traj_len": 1.4532519361672054,
        "distance_elbow_joint": 0.7306873781422225,
        "distance_shoulder_lift_joint": 1.2480303385750329,
        "distance_shoulder_pan_joint": 1.6211219444722937,
        "distance_wrist_1_joint": 2.607588967754819,
        "distance_wrist_2_joint": 2.9393950764687506,
        "distance_wrist_3_joint": 3.131588277074534,
        "smoothness": 2.775557567883112e-16,
        "time": 0.219410543,
        "traj_len": 3.5040565038948293,
        "weighted_distance": 4.908011061607369
    },
    "planner": "BKPIECE",
    "start": {
        "state": {
            "elbow_joint": 2.39358713078474,
            "shoulder_lift_joint": -1.908514104345545,
            "shoulder_pan_joint": 0.7066247066606129,
            "wrist_1_joint": -0.4678290933515497,
            "wrist_2_joint": 0.7096259083745334,
            "wrist_3_joint": -3.1358149277392293
        }
    },
    "waypoints": [
        {
            "positions": [
                0.7066247066606129,
                -1.908514104345545,
                2.39358713078474,
                -0.4678290933515497,
                0.7096259083745334,
                -3.1358149277392293
            ]
        },
        {
            "positions": [
                0.6543304503873132,
                -1.8682550611657052,
                2.3700165701995073,
                -0.38371332019816845,
                0.6148067123594124,
                -3.034795951059406
            ]
        },
        {
            "positions": [
                0.6020361941140133,
                -1.8279960179858654,
                2.346446009614274,
                -0.2995975470447872,
                0.5199875163442915,
                -2.933776974379582
            ]
        },
        {
            "positions": [
                0.5497419378407136,
                -1.7877369748060257,
                2.3228754490290413,
                -0.21548177389140594,
                0.42516832032917046,
                -2.8327579976997583
            ]
        },
        {
            "positions": [
                0.49744768156741376,
                -1.747477931626186,
                2.299304888443808,
                -0.13136600073802468,
                0.3303491243140495,
                -2.731739021019935
            ]
        },
        {
            "positions": [
                0.44515342529411395,
                -1.707218888446346,
                2.2757343278585753,
                -0.04725022758464342,
                0.2355299282989285,
                -2.630720044340111
            ]
        },
        {
            "positions": [
                0.3928591690208142,
                -1.6669598452665064,
                2.252163767273342,
                0.036865545568737834,
                0.14071073228380748,
                -2.5297010676602874
            ]
        },
        {
            "positions": [
                0.3405649127475144,
                -1.6267008020866665,
                2.2285932066881093,
                0.12098131872211909,
                0.045891536268686584,
                -2.4286820909804634
            ]
        },
        {
            "positions": [
                0.28827065647421457,
                -1.5864417589068267,
                2.205022646102876,
                0.20509709187550035,
                -0.048927659746434427,
                -2.32766311430064
            ]
        },
        {
            "positions": [
                0.2359764002009147,
                -1.546182715726987,
                2.1814520855176434,
                0.2892128650288817,
                -0.14374685576155555,
                -2.2266441376208164
            ]
        },
        {
            "positions": [
                0.18368214392761495,
                -1.5059236725471472,
                2.15788152493241,
                0.37332863818226286,
                -0.23856605177667645,
                -2.1256251609409924
            ]
        },
        {
            "positions": [
                0.13138788765431508,
                -1.4656646293673075,
                2.1343109643471774,
                0.45744441133564423,
                -0.33338524779179746,
                -2.024606184261169
            ]
        },
        {
            "positions": [
                0.07909363138101544,
                -1.4254055861874677,
                2.110740403761944,
                0.5415601844890254,
                -0.42820444380691847,
                -1.9235872075813454
            ]
        },
        {
            "positions": [
                0.026799375107715573,
                -1.385146543007628,
                2.0871698431767114,
                0.6256759576424069,
                -0.5230236398220395,
                -1.8225682309015216
            ]
        },
        {
            "positions": [
                -0.025494881165584182,
                -1.344887499827788,
                2.063599282591478,
                0.709791730795788,
                -0.6178428358371603,
                -1.721549254221698
            ]
        },
        {
            "positions": [
                -0.07778913743888405,
                -1.3046284566479485,
                2.0400287220062454,
                0.7939075039491694,
                -0.7126620318522815,
                -1.6205302775418742
            ]
        },
        {
            "positions": [
                -0.1300833937121838,
                -1.2643694134681085,
                2.016458161421012,
                0.8780232771025505,
                -0.8074812278674023,
                -1.5195113008620507
            ]
        },
        {
            "positions": [
                -0.18237764998548356,
                -1.224110370288269,
                1.9928876008357794,
                0.9621390502559317,
                -0.9023004238825233,
                -1.4184923241822271
            ]
        },
        {
            "positions": [
                -0.23467190625878354,
                -1.183851327108429,
                1.9693170402505462,
                1.0462548234093132,
                -0.9971196198976445,
                -1.3174733475024032
            ]
        },
        {
            "positions": [
                -0.2869661625320833,
                -1.1435922839285892,
                1.9457464796653134,
                1.1303705965626945,
                -1.0919388159127652,
                -1.2164543708225795
            ]
        },
        {
            "positions": [
                -0.33926041880538305,
                -1.1033332407487495,
                1.9221759190800805,
                1.2144863697160755,
                -1.1867580119278864,
                -1.115435394142756
            ]
        },
        {
            "positions": [
                -0.3915546750786828,
                -1.0630741975689098,
                1.8986053584948475,
                1.2986021428694567,
                -1.2815772079430072,
                -1.0144164174629324
            ]
        },
        {
            "positions": [
                -0.4438489313519828,
                -1.02281515438907,
                1.8750347979096142,
                1.3827179160228382,
                -1.3763964039581285,
                -0.9133974407831085
            ]
        },
        {
            "positions": [
                -0.49614318762528253,
                -0.9825561112092301,
                1.8514642373243815,
                1.4668336891762195,
                -1.4712155999732492,
                -0.812378464103285
            ]
        },
        {
            "positions": [
                -0.5484374438985821,
                -0.9422970680293905,
                1.8278936767391485,
                1.5509494623296005,
                -1.5660347959883705,
                -0.7113594874234614
            ]
        },
        {
            "positions": [
                -0.6007317001718818,
                -0.9020380248495508,
                1.8043231161539155,
                1.635065235482982,
                -1.6608539920034913,
                -0.6103405107436375
            ]
        },
        {
            "positions": [
                -0.6530259564451818,
                -0.8617789816697108,
                1.7807525555686823,
                1.7191810086363635,
                -1.7556731880186125,
                -0.509321534063814
            ]
        },
        {
            "positions": [
                -0.7053202127184816,
                -0.821519938489871,
                1.7571819949834495,
                1.8032967817897445,
                -1.8504923840337333,
                -0.40830255738399
            ]
        },
        {
            "positions": [
                -0.7576144689917813,
                -0.7812608953100313,
                1.7336114343982165,
                1.8874125549431255,
                -1.945311580048854,
                -0.3072835807041665
            ]
        },
        {
            "positions": [
                -0.8099087252650811,
                -0.7410018521301915,
                1.7100408738129835,
                1.971528328096507,
                -2.0401307760639753,
                -0.206264604024343
            ]
        },
        {
            "positions": [
                -0.862202981538381,
                -0.7007428089503518,
                1.6864703132277505,
                2.0556441012498885,
                -2.1349499720790965,
                -0.10524562734451903
            ]
        },
        {
            "positions": [
                -0.9144972378116808,
                -0.660483765770512,
                1.6628997526425175,
                2.1397598744032695,
                -2.2297691680942173,
                -0.004226650664695416
            ]
        }
    ]
}