{
    "goal": {
        "global_pose": {
            "orientation": {
                "w": 0.7047431468963623,
                "x": -0.7094548344612122,
                "y": 0.0024358443915843964,
                "z": -0.0022348060738295317
            },
            "position": {
                "x": 0.6094750761985779,
                "y": 0.3671506643295288,
                "z": 0.19426114857196808
            }
        },
        "name": "move_to_magneteinheit_A"
    },
    "id": "BKPIECE_move_to_magneteinheit_A_64",
    "joint_names": [
        "shoulder_pan_joint",
        "shoulder_lift_joint",
        "elbow_joint",
        "wrist_1_joint",
        "wrist_2_joint",
        "wrist_3_joint"
    ],
    "metrics": {
        "cart_traj_len": 1.8807916162197593,
        "distance_elbow_joint": 3.905953642759991,
        "distance_shoulder_lift_joint": 0.6974829454058104,
        "distance_shoulder_pan_joint": 1.2404209103517259,
        "distance_wrist_1_joint": 1.4772035588331238,
        "distance_wrist_2_joint": 1.6892012439846114,
        "distance_wrist_3_joint": 1.0933608761141564,
        "smoothness": 3.289549710083688e-16,
        "time": 0.223444121,
        "traj_len": 3.1786196968887954,
        "weighted_distance": 3.9315073104975222
    },
    "planner": "BKPIECE",
    "start": {
        "state": {
            "elbow_joint": -1.919643507792019,
            "shoulder_lift_joint": -0.07675430207160344,
            "shoulder_pan_joint": -1.1188671864651873,
            "wrist_1_joint": 0.42560062535961957,
            "wrist_2_joint": 1.5706038300724876,
            "wrist_3_joint": 1.1188968870953055
        }
    },
    "waypoints": [
        {
            "positions": [
                -1.1188671864651873,
                -0.07675430207160344,
                -1.919643507792019,
                0.42560062535961957,
                1.5706038300724876,
                1.1188968870953055
            ]
        },
        {
            "positions": [
                -1.071158689913198,
                -0.10358056920259615,
                -1.7694145215320194,
                0.4824161468532013,
                1.5056345514576948,
                1.0768445457062996
            ]
        },
        {
            "positions": [
                -1.0234501933612083,
                -0.13040683633358885,
                -1.61918553527202,
                0.5392316683467829,
                1.4406652728429021,
                1.0347922043172935
            ]
        },
        {
            "positions": [
                -0.975741696809219,
                -0.15723310346458158,
                -1.4689565490120202,
                0.5960471898403646,
                1.3756959942281093,
                0.9927398629282875
            ]
        },
        {
            "positions": [
                -0.9280332002572296,
                -0.18405937059557428,
                -1.3187275627520205,
                0.6528627113339464,
                1.3107267156133167,
                0.9506875215392815
            ]
        },
        {
            "positions": [
                -0.8803247037052401,
                -0.210885637726567,
                -1.1684985764920208,
                0.709678232827528,
                1.2457574369985238,
                0.9086351801502754
            ]
        },
        {
            "positions": [
                -0.8326162071532506,
                -0.23771190485755972,
                -1.0182695902320211,
                0.7664937543211097,
                1.1807881583837312,
                0.8665828387612695
            ]
        },
        {
            "positions": [
                -0.7849077106012612,
                -0.2645381719885524,
                -0.8680406039720217,
                0.8233092758146914,
                1.1158188797689383,
                0.8245304973722634
            ]
        },
        {
            "positions": [
                -0.7371992140492717,
                -0.2913644391195451,
                -0.717811617712022,
                0.8801247973082731,
                1.0508496011541455,
                0.7824781559832574
            ]
        },
        {
            "positions": [
                -0.6894907174972822,
                -0.3181907062505378,
                -0.5675826314520223,
                0.9369403188018548,
                0.9858803225393529,
                0.7404258145942514
            ]
        },
        {
            "positions": [
                -0.6417822209452928,
                -0.34501697338153053,
                -0.41735364519202256,
                0.9937558402954365,
                0.9209110439245601,
                0.6983734732052453
            ]
        },
        {
            "positions": [
                -0.5940737243933033,
                -0.37184324051252327,
                -0.2671246589320231,
                1.050571361789018,
                0.8559417653097674,
                0.6563211318162394
            ]
        },
        {
            "positions": [
                -0.5463652278413138,
                -0.398669507643516,
                -0.11689567267202317,
                1.1073868832826,
                0.7909724866949747,
                0.6142687904272334
            ]
        },
        {
            "positions": [
                -0.4986567312893244,
                -0.4254957747745087,
                0.03333331358797631,
                1.1642024047761814,
                0.7260032080801819,
                0.5722164490382273
            ]
        },
        {
            "positions": [
                -0.45094823473733503,
                -0.45232204190550135,
                0.18356229984797579,
                1.2210179262697631,
                0.6610339294653892,
                0.5301641076492213
            ]
        },
        {
            "positions": [
                -0.40323973818534553,
                -0.4791483090364941,
                0.3337912861079755,
                1.2778334477633448,
                0.5960646508505966,
                0.48811176626021535
            ]
        },
        {
            "positions": [
                -0.35553124163335603,
                -0.5059745761674868,
                0.4840202723679752,
                1.3346489692569266,
                0.5310953722358036,
                0.4460594248712092
            ]
        },
        {
            "positions": [
                -0.30782274508136653,
                -0.5328008432984795,
                0.6342492586279749,
                1.3914644907505083,
                0.466126093621011,
                0.40400708348220327
            ]
        },
        {
            "positions": [
                -0.26011424852937715,
                -0.5596271104294722,
                0.7844782448879746,
                1.44828001224409,
                0.40115681500621814,
                0.3619547420931972
            ]
        },
        {
            "positions": [
                -0.21240575197738776,
                -0.586453377560465,
                0.9347072311479738,
                1.5050955337376717,
                0.3361875363914255,
                0.3199024007041913
            ]
        },
        {
            "positions": [
                -0.16469725542539815,
                -0.6132796446914577,
                1.084936217407974,
                1.5619110552312534,
                0.27121825777663267,
                0.27785005931518514
            ]
        },
        {
            "positions": [
                -0.11698875887340865,
                -0.6401059118224504,
                1.2351652036679737,
                1.618726576724835,
                0.20624897916184004,
                0.2357977179261792
            ]
        },
        {
            "positions": [
                -0.06928026232141926,
                -0.666932178953443,
                1.385394189927973,
                1.6755420982184166,
                0.1412797005470472,
                0.19374537653717316
            ]
        },
        {
            "positions": [
                -0.021571765769429874,
                -0.6937584460844357,
                1.5356231761879726,
                1.7323576197119983,
                0.07631042193225457,
                0.15169303514816723
            ]
        },
        {
            "positions": [
                0.026136730782559736,
                -0.7205847132154286,
                1.6858521624479728,
                1.7891731412055802,
                0.011341143317461722,
                0.10964069375916119
            ]
        },
        {
            "positions": [
                0.07384522733454912,
                -0.7474109803464213,
                1.836081148707972,
                1.8459886626991617,
                -0.053628135297331125,
                0.06758835237015504
            ]
        },
        {
            "positions": [
                0.12155372388653843,
                -0.7742372474774138,
                1.9863101349679717,
                1.9028041841927434,
                -0.11859741391212365,
                0.02553601098114915
            ]
        }
    ]
}