{
    "goal": {
        "global_pose": {
            "orientation": {
                "w": 0.7031023502349854,
                "x": -0.7110244035720825,
                "y": 0.007748599164187908,
                "z": 0.005598929710686207
            },
            "position": {
                "x": 0.11585023208521307,
                "y": 0.44412534475326537,
                "z": 0.3711530566215515
            }
        },
        "name": "move_to_auspresseinheit_A"
    },
    "id": "BKPIECE_move_to_auspresseinheit_A_30",
    "joint_names": [
        "shoulder_pan_joint",
        "shoulder_lift_joint",
        "elbow_joint",
        "wrist_1_joint",
        "wrist_2_joint",
        "wrist_3_joint"
    ],
    "metrics": {
        "cart_traj_len": 0.7041769696790383,
        "distance_elbow_joint": 0.22493033931529727,
        "distance_shoulder_lift_joint": 0.5326187697941107,
        "distance_shoulder_pan_joint": 1.045411261065091,
        "distance_wrist_1_joint": 1.3121878388139974,
        "distance_wrist_2_joint": 1.1423701498768613,
        "distance_wrist_3_joint": 0.05375294727385738,
        "smoothness": 1.6476967088580414,
        "time": 0.2816627,
        "traj_len": 2.076360109937391,
        "weighted_distance": 2.6217046342747667
    },
    "planner": "BKPIECE",
    "start": {
        "state": {
            "elbow_joint": 2.422574709923281,
            "shoulder_lift_joint": -1.3736533754116391,
            "shoulder_pan_joint": -0.33786336945926293,
            "wrist_1_joint": -1.0288603412921917,
            "wrist_2_joint": 1.2330224858903978,
            "wrist_3_joint": -3.094022268022082
        }
    },
    "waypoints": [
        {
            "positions": [
                -0.33786336945926293,
                -1.3736533754116391,
                2.422574709923281,
                -1.0288603412921917,
                1.2330224858903978,
                -3.094022268022082
            ]
        },
        {
            "positions": [
                -0.2463175815067712,
                -1.4283864940589495,
                2.408224313533827,
                -0.9238588848932683,
                1.1402410674242156,
                -3.099048977586275
            ]
        },
        {
            "positions": [
                -0.15477179355427947,
                -1.4831196127062598,
                2.393873917144373,
                -0.818857428494345,
                1.0474596489580335,
                -3.104075687150468
            ]
        },
        {
            "positions": [
                -0.06322600560178776,
                -1.5378527313535701,
                2.379523520754919,
                -0.7138559720954216,
                0.9546782304918513,
                -3.1091023967146607
            ]
        },
        {
            "positions": [
                0.02831978235070398,
                -1.5925858500008805,
                2.365173124365465,
                -0.6088545156964982,
                0.8618968120256691,
                -3.1141291062788534
            ]
        },
        {
            "positions": [
                0.11986557030319578,
                -1.6473189686481908,
                2.3508227279760106,
                -0.5038530592975747,
                0.7691153935594868,
                -3.1191558158430466
            ]
        },
        {
            "positions": [
                0.2114113582556874,
                -1.7020520872955012,
                2.3364723315865565,
                -0.3988516028986514,
                0.6763339750933047,
                -3.1241825254072393
            ]
        },
        {
            "positions": [
                0.3029571462081792,
                -1.7567852059428115,
                2.3221219351971025,
                -0.29385014649972796,
                0.5835525566271225,
                -3.129209234971432
            ]
        },
        {
            "positions": [
                0.3945029341606709,
                -1.8115183245901219,
                2.3077715388076485,
                -0.18884869010080463,
                0.4907711381609404,
                -3.134235944535625
            ]
        },
        {
            "positions": [
                0.48604872211316263,
                -1.8662514432374322,
                2.2934211424181945,
                -0.08384723370188121,
                0.3979897196947581,
                -3.139262654099818
            ]
        },
        {
            "positions": [
                0.5598817786107178,
                -1.8795916772268715,
                2.3253467330215982,
                -0.20623881077644352,
                0.5004355142551653,
                -3.142100174498525
            ]
        },
        {
            "positions": [
                0.6337148351082728,
                -1.8929319112163105,
                2.3572723236250015,
                -0.32863038785100585,
                0.6028813088155724,
                -3.1449376948972323
            ]
        },
        {
            "positions": [
                0.7075478916058279,
                -1.9062721452057498,
                2.389197914228405,
                -0.4510219649255681,
                0.7053271033759797,
                -3.1477752152959395
            ]
        }
    ]
}