{
    "goal": {
        "global_pose": {
            "orientation": {
                "w": 0.7047431468963623,
                "x": -0.7094548344612122,
                "y": 0.0024358443915843964,
                "z": -0.0022348060738295317
            },
            "position": {
                "x": 0.6094750761985779,
                "y": 0.3671506643295288,
                "z": 0.19426114857196808
            }
        },
        "name": "move_to_magneteinheit_A"
    },
    "id": "BKPIECE_move_to_magneteinheit_A_87",
    "joint_names": [
        "shoulder_pan_joint",
        "shoulder_lift_joint",
        "elbow_joint",
        "wrist_1_joint",
        "wrist_2_joint",
        "wrist_3_joint"
    ],
    "metrics": {
        "cart_traj_len": 2.062346229291319,
        "distance_elbow_joint": 3.8726069775708316,
        "distance_shoulder_lift_joint": 1.0525743218951042,
        "distance_shoulder_pan_joint": 1.241397339876974,
        "distance_wrist_1_joint": 1.1256433042177982,
        "distance_wrist_2_joint": 1.4473771353489455,
        "distance_wrist_3_joint": 1.9094020193142525,
        "smoothness": 6.978544746369029e-16,
        "time": 0.297810791,
        "traj_len": 3.2632807262360846,
        "weighted_distance": 4.128053485169391
    },
    "planner": "BKPIECE",
    "start": {
        "state": {
            "elbow_joint": -1.919643507792019,
            "shoulder_lift_joint": -0.07675430207160344,
            "shoulder_pan_joint": -1.1188671864651873,
            "wrist_1_joint": 0.42560062535961957,
            "wrist_2_joint": 1.5706038300724876,
            "wrist_3_joint": 1.1188968870953055
        }
    },
    "waypoints": [
        {
            "positions": [
                -1.1188671864651873,
                -0.07675430207160344,
                -1.919643507792019,
                0.42560062535961957,
                1.5706038300724876,
                1.1188968870953055
            ]
        },
        {
            "positions": [
                -1.0728895072104847,
                -0.11573853621586655,
                -1.77621361973384,
                0.38391013261081225,
                1.5169972695040082,
                1.1896154804032408
            ]
        },
        {
            "positions": [
                -1.0269118279557818,
                -0.15472277036012966,
                -1.6327837316756613,
                0.3422196398620049,
                1.4633907089355287,
                1.2603340737111761
            ]
        },
        {
            "positions": [
                -0.9809341487010792,
                -0.1937070045043928,
                -1.4893538436174822,
                0.30052914711319756,
                1.4097841483670492,
                1.3310526670191114
            ]
        },
        {
            "positions": [
                -0.9349564694463763,
                -0.2326912386486559,
                -1.3459239555593032,
                0.25883865436439024,
                1.3561775877985698,
                1.4017712603270467
            ]
        },
        {
            "positions": [
                -0.8889787901916737,
                -0.27167547279291904,
                -1.2024940675011244,
                0.21714816161558287,
                1.3025710272300903,
                1.472489853634982
            ]
        },
        {
            "positions": [
                -0.8430011109369709,
                -0.31065970693718215,
                -1.0590641794429454,
                0.17545766886677555,
                1.2489644666616109,
                1.5432084469429173
            ]
        },
        {
            "positions": [
                -0.7970234316822682,
                -0.34964394108144525,
                -0.9156342913847666,
                0.13376717611796818,
                1.1953579060931314,
                1.6139270402508523
            ]
        },
        {
            "positions": [
                -0.7510457524275654,
                -0.38862817522570836,
                -0.7722044033265876,
                0.09207668336916086,
                1.141751345524652,
                1.6846456335587878
            ]
        },
        {
            "positions": [
                -0.7050680731728627,
                -0.4276124093699715,
                -0.6287745152684086,
                0.05038619062035349,
                1.0881447849561725,
                1.7553642268667229
            ]
        },
        {
            "positions": [
                -0.65909039391816,
                -0.46659664351423463,
                -0.48534462721022975,
                0.00869569787154617,
                1.034538224387693,
                1.8260828201746584
            ]
        },
        {
            "positions": [
                -0.6131127146634572,
                -0.5055808776584978,
                -0.34191473915205073,
                -0.03299479487726115,
                0.9809316638192135,
                1.8968014134825935
            ]
        },
        {
            "positions": [
                -0.5671350354087545,
                -0.5445651118027608,
                -0.1984848510938717,
                -0.07468528762606846,
                0.927325103250734,
                1.967520006790529
            ]
        },
        {
            "positions": [
                -0.5211573561540518,
                -0.583549345947024,
                -0.055054963035692905,
                -0.11637578037487589,
                0.8737185426822546,
                2.038238600098464
            ]
        },
        {
            "positions": [
                -0.47517967689934903,
                -0.622533580091287,
                0.0883749250224859,
                -0.1580662731236832,
                0.8201119821137751,
                2.1089571934063995
            ]
        },
        {
            "positions": [
                -0.42920199764464617,
                -0.6615178142355502,
                0.23180481308066514,
                -0.19975676587249064,
                0.7665054215452957,
                2.179675786714335
            ]
        },
        {
            "positions": [
                -0.38322431838994353,
                -0.7005020483798132,
                0.37523470113884394,
                -0.24144725862129784,
                0.7128988609768162,
                2.2503943800222697
            ]
        },
        {
            "positions": [
                -0.3372466391352408,
                -0.7394862825240764,
                0.5186645891970232,
                -0.2831377513701053,
                0.6592923004083366,
                2.321112973330205
            ]
        },
        {
            "positions": [
                -0.291268959880538,
                -0.7784705166683397,
                0.662094477255202,
                -0.3248282441189126,
                0.6056857398398573,
                2.3918315666381407
            ]
        },
        {
            "positions": [
                -0.24529128062583527,
                -0.8174547508126027,
                0.8055243653133808,
                -0.3665187368677199,
                0.5520791792713777,
                2.4625501599460757
            ]
        },
        {
            "positions": [
                -0.19931360137113263,
                -0.8564389849568659,
                0.9489542533715596,
                -0.4082092296165272,
                0.4984726187028985,
                2.533268753254011
            ]
        },
        {
            "positions": [
                -0.15333592211642977,
                -0.8954232191011289,
                1.0923841414297388,
                -0.44989972236533465,
                0.4448660581344188,
                2.6039873465619463
            ]
        },
        {
            "positions": [
                -0.10735824286172702,
                -0.9344074532453921,
                1.2358140294879176,
                -0.49159021511414186,
                0.39125949756593936,
                2.674705939869882
            ]
        },
        {
            "positions": [
                -0.061380563607024374,
                -0.9733916873896553,
                1.3792439175460969,
                -0.5332807078629493,
                0.3376529369974599,
                2.745424533177817
            ]
        },
        {
            "positions": [
                -0.015402884352321733,
                -1.0123759215339183,
                1.5226738056042757,
                -0.5749712006117564,
                0.28404637642898045,
                2.816143126485752
            ]
        },
        {
            "positions": [
                0.03057479490238113,
                -1.0513601556781815,
                1.6661036936624545,
                -0.616661693360564,
                0.230439815860501,
                2.8868617197936874
            ]
        },
        {
            "positions": [
                0.07655247415708377,
                -1.0903443898224445,
                1.8095335817206333,
                -0.6583521861093713,
                0.17683325529202154,
                2.957580313101623
            ]
        },
        {
            "positions": [
                0.12253015341178673,
                -1.1293286239667077,
                1.9529634697788123,
                -0.7000426788581787,
                0.12322669472354217,
                3.028298906409558
            ]
        }
    ]
}