{
    "goal": {
        "global_pose": {
            "orientation": {
                "w": 0.5084816217422485,
                "x": -0.49083608388900757,
                "y": 0.5182115435600281,
                "z": -0.4816462993621826
            },
            "position": {
                "x": 0.5540239810943604,
                "y": 0.030875300988554955,
                "z": 0.16403168439865112
            }
        },
        "name": "move_to_storage_A"
    },
    "id": "BKPIECE_move_to_storage_A_56",
    "joint_names": [
        "shoulder_pan_joint",
        "shoulder_lift_joint",
        "elbow_joint",
        "wrist_1_joint",
        "wrist_2_joint",
        "wrist_3_joint"
    ],
    "metrics": {
        "cart_traj_len": 0.3524868400844497,
        "distance_elbow_joint": 0.4494498771763098,
        "distance_shoulder_lift_joint": 0.2358840411337002,
        "distance_shoulder_pan_joint": 0.46161398663172604,
        "distance_wrist_1_joint": 0.24084610797220563,
        "distance_wrist_2_joint": 1.0951653931003484,
        "distance_wrist_3_joint": 0.10483261656247045,
        "smoothness": 0.0,
        "time": 0.242727438,
        "traj_len": 1.608661562472592,
        "weighted_distance": 2.0330933959792046
    },
    "planner": "BKPIECE",
    "start": {
        "state": {
            "elbow_joint": 1.9715463870305268,
            "shoulder_lift_joint": -1.1394903361783484,
            "shoulder_pan_joint": 0.12281147578464417,
            "wrist_1_joint": -0.7804599489681411,
            "wrist_2_joint": 0.12958660307563738,
            "wrist_3_joint": -3.1924946282119055
        }
    },
    "waypoints": [
        {
            "positions": [
                0.12281147578464417,
                -1.1394903361783484,
                1.9715463870305268,
                -0.7804599489681411,
                0.12958660307563738,
                -3.1924946282119055
            ]
        },
        {
            "positions": [
                0.05686662055154046,
                -1.1731880563403057,
                2.035753512341428,
                -0.8148665358213133,
                0.2860388020899729,
                -3.1775185401315524
            ]
        },
        {
            "positions": [
                -0.009078234681563255,
                -1.2068857765022627,
                2.0999606376523294,
                -0.8492731226744855,
                0.4424910011043084,
                -3.1625424520511998
            ]
        },
        {
            "positions": [
                -0.07502308991466698,
                -1.24058349666422,
                2.1641677629632308,
                -0.8836797095276577,
                0.5989432001186439,
                -3.1475663639708467
            ]
        },
        {
            "positions": [
                -0.14096794514777067,
                -1.274281216826177,
                2.228374888274132,
                -0.9180862963808301,
                0.7553953991329794,
                -3.132590275890494
            ]
        },
        {
            "positions": [
                -0.2069128003808744,
                -1.3079789369881343,
                2.292582013585034,
                -0.9524928832340023,
                0.9118475981473149,
                -3.117614187810141
            ]
        },
        {
            "positions": [
                -0.2728576556139781,
                -1.3416766571500913,
                2.356789138895935,
                -0.9868994700871745,
                1.0682997971616504,
                -3.102638099729788
            ]
        },
        {
            "positions": [
                -0.33880251084708185,
                -1.3753743773120486,
                2.4209962642068366,
                -1.0213060569403467,
                1.2247519961759858,
                -3.087662011649435
            ]
        }
    ]
}