{
    "goal": {
        "global_pose": {
            "orientation": {
                "w": -0.00223480608172531,
                "x": 0.0024358444001904467,
                "y": 0.7094548369677653,
                "z": -0.704743149386269
            },
            "position": {
                "x": 0.6205249238014221,
                "y": -0.6371506643295288,
                "z": 0.19426114857196808
            }
        },
        "name": "move_to_magneteinheit_B"
    },
    "id": "BKPIECE_move_to_magneteinheit_B_20",
    "joint_names": [
        "shoulder_pan_joint",
        "shoulder_lift_joint",
        "elbow_joint",
        "wrist_1_joint",
        "wrist_2_joint",
        "wrist_3_joint"
    ],
    "metrics": {
        "cart_traj_len": 1.4534141289007123,
        "distance_elbow_joint": 0.7325887768727279,
        "distance_shoulder_lift_joint": 1.2491254494397173,
        "distance_shoulder_pan_joint": 1.6204910134664632,
        "distance_wrist_1_joint": 2.605354621982511,
        "distance_wrist_2_joint": 2.9405836779198147,
        "distance_wrist_3_joint": 3.138123561567281,
        "smoothness": 5.382899510408464e-16,
        "time": 0.144081073,
        "traj_len": 3.505177185428508,
        "weighted_distance": 4.91003589847217
    },
    "planner": "BKPIECE",
    "start": {
        "state": {
            "elbow_joint": 2.39358713078474,
            "shoulder_lift_joint": -1.908514104345545,
            "shoulder_pan_joint": 0.7066247066606129,
            "wrist_1_joint": -0.4678290933515497,
            "wrist_2_joint": 0.7096259083745334,
            "wrist_3_joint": -3.1358149277392293
        }
    },
    "waypoints": [
        {
            "positions": [
                0.7066247066606129,
                -1.908514104345545,
                2.39358713078474,
                -0.4678290933515497,
                0.7096259083745334,
                -3.1358149277392293
            ]
        },
        {
            "positions": [
                0.655984362489786,
                -1.8694789340505538,
                2.370693731507467,
                -0.3864117614145962,
                0.6177326684395392,
                -3.0377485664402517
            ]
        },
        {
            "positions": [
                0.605344018318959,
                -1.8304437637555626,
                2.3478003322301944,
                -0.30499442947764277,
                0.525839428504545,
                -2.939682205141274
            ]
        },
        {
            "positions": [
                0.554703674148132,
                -1.7914085934605715,
                2.324906932952922,
                -0.2235770975406893,
                0.4339461885695508,
                -2.8416158438422965
            ]
        },
        {
            "positions": [
                0.5040633299773051,
                -1.7523734231655803,
                2.302013533675649,
                -0.14215976560373583,
                0.3420529486345566,
                -2.7435494825433193
            ]
        },
        {
            "positions": [
                0.45342298580647805,
                -1.7133382528705892,
                2.2791201343983762,
                -0.06074243366678239,
                0.2501597086995624,
                -2.6454831212443417
            ]
        },
        {
            "positions": [
                0.4027826416356511,
                -1.674303082575598,
                2.2562267351211034,
                0.020674898270171105,
                0.15826646876456818,
                -2.547416759945364
            ]
        },
        {
            "positions": [
                0.3521422974648241,
                -1.6352679122806069,
                2.233333335843831,
                0.1020922302071246,
                0.06637322882957397,
                -2.4493503986463865
            ]
        },
        {
            "positions": [
                0.30150195329399715,
                -1.5962327419856157,
                2.210439936566558,
                0.18350956214407804,
                -0.025520011105420237,
                -2.3512840373474093
            ]
        },
        {
            "positions": [
                0.2508616091231702,
                -1.5571975716906246,
                2.1875465372892853,
                0.2649268940810315,
                -0.11741325104041445,
                -2.2532176760484317
            ]
        },
        {
            "positions": [
                0.20022126495234316,
                -1.5181624013956334,
                2.1646531380120124,
                0.3463442260179849,
                -0.20930649097540865,
                -2.155151314749454
            ]
        },
        {
            "positions": [
                0.1495809207815162,
                -1.479127231100642,
                2.14175973873474,
                0.4277615579549385,
                -0.30119973091040275,
                -2.0570849534504765
            ]
        },
        {
            "positions": [
                0.09894057661068922,
                -1.4400920608056509,
                2.118866339457467,
                0.5091788898918919,
                -0.39309297084539707,
                -1.9590185921514989
            ]
        },
        {
            "positions": [
                0.048300232439862256,
                -1.4010568905106597,
                2.0959729401801943,
                0.5905962218288454,
                -0.4849862107803914,
                -1.8609522308525215
            ]
        },
        {
            "positions": [
                -0.0023401117309647113,
                -1.3620217202156686,
                2.0730795409029215,
                0.672013553765799,
                -0.5768794507153855,
                -1.7628858695535439
            ]
        },
        {
            "positions": [
                -0.05298045590179168,
                -1.3229865499206774,
                2.050186141625649,
                0.7534308857027523,
                -0.6687726906503796,
                -1.6648195082545665
            ]
        },
        {
            "positions": [
                -0.10362080007261865,
                -1.2839513796256863,
                2.027292742348376,
                0.8348482176397058,
                -0.7606659305853739,
                -1.5667531469555889
            ]
        },
        {
            "positions": [
                -0.1542611442434456,
                -1.2449162093306951,
                2.0043993430711033,
                0.9162655495766594,
                -0.8525591705203682,
                -1.4686867856566113
            ]
        },
        {
            "positions": [
                -0.20490148841427258,
                -1.205881039035704,
                1.9815059437938305,
                0.9976828815136127,
                -0.9444524104553623,
                -1.3706204243576339
            ]
        },
        {
            "positions": [
                -0.25554183258509955,
                -1.1668458687407128,
                1.9586125445165579,
                1.0791002134505663,
                -1.0363456503903565,
                -1.2725540630586563
            ]
        },
        {
            "positions": [
                -0.3061821767559266,
                -1.1278106984457217,
                1.9357191452392852,
                1.1605175453875196,
                -1.1282388903253509,
                -1.1744877017596789
            ]
        },
        {
            "positions": [
                -0.3568225209267536,
                -1.0887755281507303,
                1.9128257459620124,
                1.2419348773244732,
                -1.2201321302603452,
                -1.0764213404607013
            ]
        },
        {
            "positions": [
                -0.40746286509758056,
                -1.0497403578557392,
                1.8899323466847395,
                1.3233522092614267,
                -1.312025370195339,
                -0.9783549791617236
            ]
        },
        {
            "positions": [
                -0.45810320926840753,
                -1.010705187560748,
                1.867038947407467,
                1.40476954119838,
                -1.4039186101303334,
                -0.880288617862746
            ]
        },
        {
            "positions": [
                -0.5087435534392345,
                -0.971670017265757,
                1.844145548130194,
                1.4861868731353336,
                -1.4958118500653277,
                -0.7822222565637684
            ]
        },
        {
            "positions": [
                -0.5593838976100615,
                -0.9326348469707658,
                1.8212521488529214,
                1.567604205072287,
                -1.587705090000322,
                -0.6841558952647913
            ]
        },
        {
            "positions": [
                -0.6100242417808884,
                -0.8935996766757746,
                1.7983587495756486,
                1.6490215370092405,
                -1.6795983299353163,
                -0.5860895339658136
            ]
        },
        {
            "positions": [
                -0.6606645859517154,
                -0.8545645063807834,
                1.7754653502983757,
                1.730438868946194,
                -1.7714915698703102,
                -0.48802317266683604
            ]
        },
        {
            "positions": [
                -0.7113049301225424,
                -0.8155293360857923,
                1.752571951021103,
                1.8118562008831476,
                -1.8633848098053045,
                -0.3899568113678584
            ]
        },
        {
            "positions": [
                -0.7619452742933693,
                -0.7764941657908011,
                1.7296785517438305,
                1.8932735328201011,
                -1.9552780497402988,
                -0.2918904500688808
            ]
        },
        {
            "positions": [
                -0.8125856184641963,
                -0.73745899549581,
                1.7067851524665576,
                1.9746908647570542,
                -2.0471712896752927,
                -0.19382408876990365
            ]
        },
        {
            "positions": [
                -0.8632259626350233,
                -0.6984238252008188,
                1.6838917531892847,
                2.056108196694008,
                -2.139064529610287,
                -0.09575772747092604
            ]
        },
        {
            "positions": [
                -0.9138663068058502,
                -0.6593886549058275,
                1.6609983539120121,
                2.1375255286309613,
                -2.2309577695452814,
                0.0023086338280513714
            ]
        }
    ]
}