{
    "goal": {
        "global_pose": {
            "orientation": {
                "w": -0.00223480608172531,
                "x": 0.0024358444001904467,
                "y": 0.7094548369677653,
                "z": -0.704743149386269
            },
            "position": {
                "x": 0.6205249238014221,
                "y": -0.6371506643295288,
                "z": 0.19426114857196808
            }
        },
        "name": "move_to_magneteinheit_B"
    },
    "id": "BKPIECE_move_to_magneteinheit_B_118",
    "joint_names": [
        "shoulder_pan_joint",
        "shoulder_lift_joint",
        "elbow_joint",
        "wrist_1_joint",
        "wrist_2_joint",
        "wrist_3_joint"
    ],
    "metrics": {
        "cart_traj_len": 3.539465568021462,
        "distance_elbow_joint": 4.495494678178468,
        "distance_shoulder_lift_joint": 0.6832355893090023,
        "distance_shoulder_pan_joint": 2.543246279282467,
        "distance_wrist_1_joint": 1.985377957665134,
        "distance_wrist_2_joint": 1.2149075421627953,
        "distance_wrist_3_joint": 3.1354980253852283,
        "smoothness": 0.18989879576141055,
        "time": 0.298953271,
        "traj_len": 3.749367956333853,
        "weighted_distance": 4.850674347199726
    },
    "planner": "BKPIECE",
    "start": {
        "state": {
            "elbow_joint": 2.39358713078474,
            "shoulder_lift_joint": -1.908514104345545,
            "shoulder_pan_joint": 0.7066247066606129,
            "wrist_1_joint": -0.4678290933515497,
            "wrist_2_joint": 0.7096259083745334,
            "wrist_3_joint": -3.1358149277392293
        }
    },
    "waypoints": [
        {
            "positions": [
                0.7066247066606129,
                -1.908514104345545,
                2.39358713078474,
                -0.4678290933515497,
                0.7096259083745334,
                -3.1358149277392293
            ]
        },
        {
            "positions": [
                0.6283955999075164,
                -1.894227495051653,
                2.389309836978244,
                -0.39907269605102547,
                0.682868052164942,
                -2.990530788971789
            ]
        },
        {
            "positions": [
                0.5501664931544197,
                -1.8799408857577613,
                2.3850325431717483,
                -0.33031629875050117,
                0.6561101959553506,
                -2.845246650204349
            ]
        },
        {
            "positions": [
                0.5108403723946213,
                -1.8712084488711704,
                2.3294185579842686,
                -0.30373590103663334,
                0.611185160486816,
                -2.697005746719813
            ]
        },
        {
            "positions": [
                0.471514251634823,
                -1.8624760119845793,
                2.2738045727967884,
                -0.27715550332276545,
                0.5662601250182815,
                -2.548764843235277
            ]
        },
        {
            "positions": [
                0.43218813087502467,
                -1.8537435750979885,
                2.2181905876093087,
                -0.2505751056088976,
                0.5213350895497469,
                -2.400523939750741
            ]
        },
        {
            "positions": [
                0.4979823400974745,
                -1.8583908173837576,
                2.069523261109925,
                -0.20027891992664348,
                0.49983280118091394,
                -2.3076851787704347
            ]
        },
        {
            "positions": [
                0.5637765493199243,
                -1.8630380596695264,
                1.920855934610541,
                -0.14998273424438935,
                0.4783305128120809,
                -2.2148464177901284
            ]
        },
        {
            "positions": [
                0.6295707585423741,
                -1.8676853019552955,
                1.7721886081111573,
                -0.09968654856213519,
                0.4568282244432479,
                -2.1220076568098216
            ]
        },
        {
            "positions": [
                0.6953649677648239,
                -1.8723325442410643,
                1.6235212816117734,
                -0.04939036287988105,
                0.4353259360744149,
                -2.0291688958295153
            ]
        },
        {
            "positions": [
                0.7611591769872738,
                -1.8769797865268334,
                1.4748539551123896,
                0.000905822802373113,
                0.4138236477055819,
                -1.936330134849209
            ]
        },
        {
            "positions": [
                0.8269533862097236,
                -1.8816270288126022,
                1.326186628613006,
                0.05120200848462725,
                0.39232135933674883,
                -1.8434913738689027
            ]
        },
        {
            "positions": [
                0.8927475954321734,
                -1.8862742710983713,
                1.177519302113622,
                0.10149819416688144,
                0.37081907096791583,
                -1.7506526128885962
            ]
        },
        {
            "positions": [
                0.9585418046546232,
                -1.8909215133841402,
                1.0288519756142382,
                0.15179437984913552,
                0.34931678259908283,
                -1.6578138519082897
            ]
        },
        {
            "positions": [
                1.024336013877073,
                -1.8955687556699092,
                0.8801846491148546,
                0.20209056553138965,
                0.3278144942302498,
                -1.5649750909279834
            ]
        },
        {
            "positions": [
                1.090130223099523,
                -1.9002159979556783,
                0.7315173226154705,
                0.25238675121364385,
                0.3063122058614168,
                -1.472136329947677
            ]
        },
        {
            "positions": [
                1.1559244323219726,
                -1.9048632402414472,
                0.5828499961160869,
                0.302682936895898,
                0.2848099174925838,
                -1.3792975689673708
            ]
        },
        {
            "positions": [
                1.2217186415444223,
                -1.9095104825272162,
                0.43418266961670327,
                0.3529791225781521,
                0.2633076291237508,
                -1.2864588079870642
            ]
        },
        {
            "positions": [
                1.2875128507668723,
                -1.914157724812985,
                0.2855153431173192,
                0.40327530826040625,
                0.24180534075491772,
                -1.193620047006758
            ]
        },
        {
            "positions": [
                1.3533070599893222,
                -1.9188049670987541,
                0.13684801661793555,
                0.4535714939426605,
                0.22030305238608472,
                -1.1007812860264514
            ]
        },
        {
            "positions": [
                1.419101269211772,
                -1.923452209384523,
                -0.011819309881448081,
                0.5038676796249145,
                0.19880076401725172,
                -1.0079425250461451
            ]
        },
        {
            "positions": [
                1.4848954784342216,
                -1.928099451670292,
                -0.16048663638083216,
                0.5541638653071687,
                0.17729847564841866,
                -0.9151037640658386
            ]
        },
        {
            "positions": [
                1.5506896876566716,
                -1.9327466939560611,
                -0.30915396288021624,
                0.6044600509894229,
                0.15579618727958566,
                -0.8222650030855323
            ]
        },
        {
            "positions": [
                1.6164838968791213,
                -1.93739393624183,
                -0.4578212893795994,
                0.6547562366716769,
                0.13429389891075266,
                -0.729426242105226
            ]
        },
        {
            "positions": [
                1.682278106101571,
                -1.942041178527599,
                -0.6064886158789835,
                0.7050524223539312,
                0.11279161054191966,
                -0.6365874811249195
            ]
        },
        {
            "positions": [
                1.748072315324021,
                -1.946688420813368,
                -0.7551559423783676,
                0.7553486080361853,
                0.0912893221730866,
                -0.5437487201446132
            ]
        },
        {
            "positions": [
                1.8138665245464707,
                -1.951335663099137,
                -0.9038232688777508,
                0.8056447937184394,
                0.0697870338042536,
                -0.4509099591643069
            ]
        },
        {
            "positions": [
                1.8796607337689206,
                -1.9559829053849058,
                -1.0524905953771349,
                0.8559409794006936,
                0.048284745435420606,
                -0.35807119818400057
            ]
        },
        {
            "positions": [
                1.9454549429913703,
                -1.960630147670675,
                -1.201157921876519,
                0.9062371650829477,
                0.02678245706658755,
                -0.2652324372036938
            ]
        },
        {
            "positions": [
                2.01124915221382,
                -1.9652773899564437,
                -1.3498252483759021,
                0.9565333507652019,
                0.005280168697754606,
                -0.17239367622338753
            ]
        },
        {
            "positions": [
                2.07704336143627,
                -1.9699246322422128,
                -1.4984925748752862,
                1.006829536447456,
                -0.016222119671078478,
                -0.07955491524308131
            ]
        },
        {
            "positions": [
                2.190358171881342,
                -1.9863258788372726,
                -1.6263494710364854,
                1.0904844698309308,
                0.006442362583617252,
                -0.06760536947199167
            ]
        },
        {
            "positions": [
                2.3036729823264137,
                -2.0027271254323322,
                -1.7542063671976846,
                1.1741394032144055,
                0.02910684483831298,
                -0.05565582370090204
            ]
        },
        {
            "positions": [
                2.4169877927714856,
                -2.0191283720273923,
                -1.882063263358884,
                1.2577943365978803,
                0.05177132709300872,
                -0.0437062779298124
            ]
        },
        {
            "positions": [
                2.5047831329310615,
                -2.112878569101333,
                -1.8772929988698266,
                1.2535061277419044,
                0.1403920993759347,
                -0.02961878526844814
            ]
        },
        {
            "positions": [
                2.5925784730906374,
                -2.2066287661752733,
                -1.8725227343807689,
                1.2492179188859285,
                0.22901287165886067,
                -0.015531292607083878
            ]
        },
        {
            "positions": [
                2.6803738132502133,
                -2.300378963249214,
                -1.8677524698917114,
                1.2449297100299526,
                0.31763364394178667,
                -0.001443799945719618
            ]
        },
        {
            "positions": [
                2.6734991395429835,
                -2.3609888538859543,
                -1.7992413063691544,
                1.1626330763140271,
                0.3693682274432261,
                -0.001068167415146658
            ]
        },
        {
            "positions": [
                2.666624465835753,
                -2.421598744522694,
                -1.7307301428465975,
                1.0803364425981017,
                0.4211028109446655,
                -0.000692534884573698
            ]
        },
        {
            "positions": [
                2.6597497921285234,
                -2.4822086351594344,
                -1.6622189793240405,
                0.9980398088821761,
                0.47283739444610495,
                -0.00031690235400073805
            ]
        }
    ]
}