{
    "goal": {
        "global_pose": {
            "orientation": {
                "w": 0.5084816217422485,
                "x": -0.49083608388900757,
                "y": 0.5182115435600281,
                "z": -0.4816462993621826
            },
            "position": {
                "x": 0.5540239810943604,
                "y": 0.030875300988554955,
                "z": 0.16403168439865112
            }
        },
        "name": "move_to_storage_A"
    },
    "id": "BKPIECE_move_to_storage_A_9",
    "joint_names": [
        "shoulder_pan_joint",
        "shoulder_lift_joint",
        "elbow_joint",
        "wrist_1_joint",
        "wrist_2_joint",
        "wrist_3_joint"
    ],
    "metrics": {
        "cart_traj_len": 0.3529165249516408,
        "distance_elbow_joint": 0.4502989721823263,
        "distance_shoulder_lift_joint": 0.23603634515049965,
        "distance_shoulder_pan_joint": 0.46359711600450254,
        "distance_wrist_1_joint": 0.24018783732339044,
        "distance_wrist_2_joint": 1.090391107614185,
        "distance_wrist_3_joint": 0.10121093710606033,
        "smoothness": 9.992007159366741e-16,
        "time": 0.215751752,
        "traj_len": 1.606773884334994,
        "weighted_distance": 2.028478034027152
    },
    "planner": "BKPIECE",
    "start": {
        "state": {
            "elbow_joint": 1.9715463870305268,
            "shoulder_lift_joint": -1.1394903361783484,
            "shoulder_pan_joint": 0.12281147578464417,
            "wrist_1_joint": -0.7804599489681411,
            "wrist_2_joint": 0.12958660307563738,
            "wrist_3_joint": -3.1924946282119055
        }
    },
    "waypoints": [
        {
            "positions": [
                0.12281147578464417,
                -1.1394903361783484,
                1.9715463870305268,
                -0.7804599489681411,
                0.12958660307563738,
                -3.1924946282119055
            ]
        },
        {
            "positions": [
                0.05658331635542953,
                -1.173209814056991,
                2.035874811628002,
                -0.8147724971571969,
                0.2853567613062352,
                -3.17803592291104
            ]
        },
        {
            "positions": [
                -0.009644843073785117,
                -1.206929291935634,
                2.100203236225477,
                -0.8490850453462526,
                0.44112691953683303,
                -3.163577217610174
            ]
        },
        {
            "positions": [
                -0.07587300250299976,
                -1.2406487698142767,
                2.164531660822952,
                -0.8833975935353084,
                0.596897077767431,
                -3.1491185123093084
            ]
        },
        {
            "positions": [
                -0.1421011619322144,
                -1.2743682476929197,
                2.2288600854204272,
                -0.9177101417243642,
                0.7526672359980288,
                -3.1346598070084424
            ]
        },
        {
            "positions": [
                -0.20832932136142907,
                -1.3080877255715624,
                2.293188510017903,
                -0.95202268991342,
                0.9084373942286267,
                -3.120201101707577
            ]
        },
        {
            "positions": [
                -0.2745574807906437,
                -1.3418072034502053,
                2.357516934615378,
                -0.9863352381024757,
                1.0642075524592245,
                -3.105742396406711
            ]
        },
        {
            "positions": [
                -0.34078564021985835,
                -1.375526681328848,
                2.421845359212853,
                -1.0206477862915315,
                1.2199777106898224,
                -3.091283691105845
            ]
        }
    ]
}