{
    "goal": {
        "global_pose": {
            "orientation": {
                "w": 0.7031023502349854,
                "x": -0.7110244035720825,
                "y": 0.007748599164187908,
                "z": 0.005598929710686207
            },
            "position": {
                "x": 0.11585023208521307,
                "y": 0.44412534475326537,
                "z": 0.3711530566215515
            }
        },
        "name": "move_to_auspresseinheit_A"
    },
    "id": "BKPIECE_move_to_auspresseinheit_A_136",
    "joint_names": [
        "shoulder_pan_joint",
        "shoulder_lift_joint",
        "elbow_joint",
        "wrist_1_joint",
        "wrist_2_joint",
        "wrist_3_joint"
    ],
    "metrics": {
        "cart_traj_len": 2.15329229262331,
        "distance_elbow_joint": 0.36003650388357444,
        "distance_shoulder_lift_joint": 2.579141895927421,
        "distance_shoulder_pan_joint": 5.817081375435257,
        "distance_wrist_1_joint": 0.8688101028413617,
        "distance_wrist_2_joint": 1.953292774467303,
        "distance_wrist_3_joint": 11.442417914130083,
        "smoothness": 0.5498516735759293,
        "time": 0.253981118,
        "traj_len": 4.7979975580115735,
        "weighted_distance": 6.980524283479993
    },
    "planner": "BKPIECE",
    "start": {
        "state": {
            "elbow_joint": 2.422574709923281,
            "shoulder_lift_joint": -1.3736533754116391,
            "shoulder_pan_joint": -0.33786336945926293,
            "wrist_1_joint": -1.0288603412921917,
            "wrist_2_joint": 1.2330224858903978,
            "wrist_3_joint": -3.094022268022082
        }
    },
    "waypoints": [
        {
            "positions": [
                -0.33786336945926293,
                -1.3736533754116391,
                2.422574709923281,
                -1.0288603412921917,
                1.2330224858903978,
                -3.094022268022082
            ]
        },
        {
            "positions": [
                -0.42628713167362875,
                -1.4312535092402683,
                2.428652999379786,
                -1.0343752256414493,
                1.259413167339272,
                -2.882923690335412
            ]
        },
        {
            "positions": [
                -0.5147108938879946,
                -1.4888536430688974,
                2.4347312888362906,
                -1.039890109990707,
                1.2858038487881467,
                -2.6718251126487416
            ]
        },
        {
            "positions": [
                -0.6031346561023605,
                -1.5464537768975268,
                2.4408095782927957,
                -1.0454049943399646,
                1.312194530237021,
                -2.4607265349620717
            ]
        },
        {
            "positions": [
                -0.6915584183167263,
                -1.604053910726156,
                2.4468878677493007,
                -1.0509198786892222,
                1.3385852116858956,
                -2.2496279572754014
            ]
        },
        {
            "positions": [
                -0.7799821805310923,
                -1.6616540445547852,
                2.4529661572058052,
                -1.0564347630384798,
                1.36497589313477,
                -2.038529379588731
            ]
        },
        {
            "positions": [
                -0.868405942745458,
                -1.7192541783834143,
                2.4590444466623103,
                -1.0619496473877374,
                1.3913665745836445,
                -1.827430801902061
            ]
        },
        {
            "positions": [
                -0.9568297049598238,
                -1.7768543122120435,
                2.4651227361188153,
                -1.0674645317369948,
                1.417757256032519,
                -1.6163322242153908
            ]
        },
        {
            "positions": [
                -1.0452534671741898,
                -1.8344544460406726,
                2.47120102557532,
                -1.0729794160862525,
                1.4441479374813935,
                -1.4052336465287205
            ]
        },
        {
            "positions": [
                -1.1336772293885555,
                -1.8920545798693018,
                2.477279315031825,
                -1.07849430043551,
                1.4705386189302678,
                -1.1941350688420505
            ]
        },
        {
            "positions": [
                -1.2221009916029215,
                -1.9496547136979312,
                2.48335760448833,
                -1.0840091847847677,
                1.4969293003791422,
                -0.9830364911553802
            ]
        },
        {
            "positions": [
                -1.3105247538172873,
                -2.0072548475265606,
                2.4894358939448344,
                -1.0895240691340253,
                1.5233199818280168,
                -0.7719379134687099
            ]
        },
        {
            "positions": [
                -1.3989485160316533,
                -2.0648549813551895,
                2.4955141834013395,
                -1.095038953483283,
                1.549710663276891,
                -0.56083933578204
            ]
        },
        {
            "positions": [
                -1.487372278246019,
                -2.1224551151838185,
                2.5015924728578445,
                -1.1005538378325406,
                1.5761013447257657,
                -0.34974075809536975
            ]
        },
        {
            "positions": [
                -1.5757960404603848,
                -2.180055249012448,
                2.507670762314349,
                -1.1060687221817982,
                1.60249202617464,
                -0.13864218040869947
            ]
        },
        {
            "positions": [
                -1.6642198026747508,
                -2.2376553828410772,
                2.513749051770854,
                -1.1115836065310558,
                1.6288827076235146,
                0.07245639727797126
            ]
        },
        {
            "positions": [
                -1.7526435648891165,
                -2.295255516669706,
                2.519827341227359,
                -1.1170984908803134,
                1.655273389072389,
                0.2835549749646411
            ]
        },
        {
            "positions": [
                -1.8410673271034825,
                -2.3528556504983356,
                2.5259056306838636,
                -1.122613375229571,
                1.6816640705212635,
                0.4946535526513114
            ]
        },
        {
            "positions": [
                -1.9294910893178483,
                -2.410455784326965,
                2.5319839201403687,
                -1.1281282595788287,
                1.708054751970138,
                0.7057521303379812
            ]
        },
        {
            "positions": [
                -2.0179148515322143,
                -2.468055918155594,
                2.5380622095968737,
                -1.1336431439280863,
                1.7344454334190123,
                0.916850708024652
            ]
        },
        {
            "positions": [
                -2.10633861374658,
                -2.525656051984223,
                2.5441404990533782,
                -1.1391580282773437,
                1.7608361148678868,
                1.1279492857113218
            ]
        },
        {
            "positions": [
                -2.194762375960946,
                -2.5832561858128527,
                2.5502187885098833,
                -1.1446729126266013,
                1.7872267963167614,
                1.3390478633979925
            ]
        },
        {
            "positions": [
                -2.2831861381753114,
                -2.6408563196414816,
                2.5562970779663883,
                -1.150187796975859,
                1.8136174777656358,
                1.5501464410846624
            ]
        },
        {
            "positions": [
                -2.3716099003896773,
                -2.6984564534701105,
                2.562375367422893,
                -1.1557026813251166,
                1.84000815921451,
                1.7612450187713322
            ]
        },
        {
            "positions": [
                -2.4600336626040433,
                -2.75605658729874,
                2.568453656879398,
                -1.1612175656743742,
                1.8663988406633845,
                1.972343596458002
            ]
        },
        {
            "positions": [
                -2.5484574248184093,
                -2.8136567211273693,
                2.574531946335903,
                -1.1667324500236318,
                1.892789522112259,
                2.183442174144673
            ]
        },
        {
            "positions": [
                -2.636881187032775,
                -2.8712568549559983,
                2.5806102357924074,
                -1.1722473343728894,
                1.9191802035611336,
                2.3945407518313426
            ]
        },
        {
            "positions": [
                -2.725304949247141,
                -2.9288569887846276,
                2.5866885252489125,
                -1.177762218722147,
                1.945570885010008,
                2.6056393295180134
            ]
        },
        {
            "positions": [
                -2.6181287056331604,
                -2.896858917454802,
                2.5805659412314768,
                -1.1552650866780405,
                1.9067976232803925,
                2.4261781946245757
            ]
        },
        {
            "positions": [
                -2.5109524620191794,
                -2.8648608461249756,
                2.574443357214041,
                -1.1327679546339342,
                1.8680243615507772,
                2.2467170597311386
            ]
        },
        {
            "positions": [
                -2.403776218405199,
                -2.83286277479515,
                2.5683207731966053,
                -1.1102708225898277,
                1.8292510998211617,
                2.067255924837701
            ]
        },
        {
            "positions": [
                -2.2965999747912185,
                -2.8008647034653236,
                2.5621981891791696,
                -1.0877736905457212,
                1.7904778380915465,
                1.8877947899442635
            ]
        },
        {
            "positions": [
                -2.1894237311772375,
                -2.7688666321354978,
                2.556075605161734,
                -1.0652765585016148,
                1.751704576361931,
                1.7083336550508261
            ]
        },
        {
            "positions": [
                -2.082247487563257,
                -2.7368685608056715,
                2.5499530211442982,
                -1.0427794264575083,
                1.7129313146323155,
                1.5288725201573885
            ]
        },
        {
            "positions": [
                -1.9750712439492766,
                -2.7048704894758457,
                2.5438304371268625,
                -1.0202822944134018,
                1.6741580529027003,
                1.349411385263951
            ]
        },
        {
            "positions": [
                -1.8678950003352959,
                -2.6728724181460195,
                2.537707853109427,
                -0.9977851623692955,
                1.6353847911730848,
                1.1699502503705137
            ]
        },
        {
            "positions": [
                -1.7607187567213152,
                -2.6408743468161937,
                2.531585269091991,
                -0.975288030325189,
                1.5966115294434693,
                0.9904891154770763
            ]
        },
        {
            "positions": [
                -1.6535425131073347,
                -2.6088762754863675,
                2.5254626850745554,
                -0.9527908982810825,
                1.557838267713854,
                0.8110279805836389
            ]
        },
        {
            "positions": [
                -1.546366269493354,
                -2.5768782041565417,
                2.5193401010571197,
                -0.9302937662369761,
                1.5190650059842385,
                0.6315668456902013
            ]
        },
        {
            "positions": [
                -1.4391900258793733,
                -2.5448801328267154,
                2.513217517039684,
                -0.9077966341928696,
                1.480291744254623,
                0.45210571079676365
            ]
        },
        {
            "positions": [
                -1.3320137822653928,
                -2.5128820614968896,
                2.5070949330222483,
                -0.8852995021487632,
                1.4415184825250078,
                0.27264457590332647
            ]
        },
        {
            "positions": [
                -1.224837538651412,
                -2.4808839901670634,
                2.5009723490048126,
                -0.8628023701046568,
                1.4027452207953923,
                0.09318344100988885
            ]
        },
        {
            "positions": [
                -1.1176612950374316,
                -2.4488859188372376,
                2.494849764987377,
                -0.8403052380605502,
                1.3639719590657768,
                -0.08627769388354833
            ]
        },
        {
            "positions": [
                -1.010485051423451,
                -2.4168878475074114,
                2.488727180969941,
                -0.8178081060164438,
                1.3251986973361616,
                -0.26573882877698596
            ]
        },
        {
            "positions": [
                -0.9033088078094702,
                -2.3848897761775856,
                2.482604596952505,
                -0.7953109739723374,
                1.2864254356065463,
                -0.4451999636704236
            ]
        },
        {
            "positions": [
                -0.7961325641954897,
                -2.3528917048477593,
                2.4764820129350693,
                -0.7728138419282309,
                1.2476521738769308,
                -0.6246610985638608
            ]
        },
        {
            "positions": [
                -0.688956320581509,
                -2.3208936335179335,
                2.4703594289176336,
                -0.7503167098841245,
                1.2088789121473154,
                -0.8041222334572984
            ]
        },
        {
            "positions": [
                -0.5817800769675285,
                -2.2888955621881073,
                2.464236844900198,
                -0.727819577840018,
                1.1701056504177,
                -0.9835833683507356
            ]
        },
        {
            "positions": [
                -0.4746038333535476,
                -2.2568974908582815,
                2.458114260882762,
                -0.7053224457959115,
                1.1313323886880846,
                -1.1630445032441732
            ]
        },
        {
            "positions": [
                -0.36742758973956713,
                -2.2248994195284553,
                2.4519916768653265,
                -0.6828253137518051,
                1.0925591269584691,
                -1.3425056381376108
            ]
        },
        {
            "positions": [
                -0.26025134612558665,
                -2.1929013481986295,
                2.445869092847891,
                -0.6603281817076987,
                1.0537858652288539,
                -1.5219667730310484
            ]
        },
        {
            "positions": [
                -0.15307510251160572,
                -2.1609032768688037,
                2.439746508830455,
                -0.6378310496635922,
                1.0150126034992384,
                -1.701427907924486
            ]
        },
        {
            "positions": [
                -0.04589885889762524,
                -2.1289052055389774,
                2.4336239248130194,
                -0.6153339176194857,
                0.976239341769623,
                -1.8808890428179228
            ]
        },
        {
            "positions": [
                0.06127738471635524,
                -2.096907134209151,
                2.4275013407955837,
                -0.5928367855753793,
                0.9374660800400076,
                -2.0603501777113604
            ]
        },
        {
            "positions": [
                0.16845362833033573,
                -2.0649090628793254,
                2.421378756778148,
                -0.5703396535312729,
                0.8986928183103922,
                -2.239811312604798
            ]
        },
        {
            "positions": [
                0.27562987194431665,
                -2.0329109915494996,
                2.4152561727607122,
                -0.5478425214871664,
                0.8599195565807767,
                -2.4192724474982357
            ]
        },
        {
            "positions": [
                0.38280611555829713,
                -2.0009129202196734,
                2.4091335887432765,
                -0.52534538944306,
                0.8211462948511614,
                -2.5987335823916733
            ]
        },
        {
            "positions": [
                0.4899823591722776,
                -1.9689148488898474,
                2.403011004725841,
                -0.5028482573989536,
                0.7823730331215459,
                -2.77819471728511
            ]
        },
        {
            "positions": [
                0.5971586027862585,
                -1.9369167775600213,
                2.396888420708405,
                -0.48035112535484703,
                0.7435997713919307,
                -2.9576558521785477
            ]
        },
        {
            "positions": [
                0.7043348464002388,
                -1.9049187062301953,
                2.3907658366909694,
                -0.45785399331074067,
                0.7048265096623152,
                -3.137116987071985
            ]
        }
    ]
}