{
    "goal": {
        "global_pose": {
            "orientation": {
                "w": 0.5084816217422485,
                "x": -0.49083608388900757,
                "y": 0.5182115435600281,
                "z": -0.4816462993621826
            },
            "position": {
                "x": 0.5540239810943604,
                "y": 0.030875300988554955,
                "z": 0.16403168439865112
            }
        },
        "name": "move_to_storage_A"
    },
    "id": "BKPIECE_move_to_storage_A_88",
    "joint_names": [
        "shoulder_pan_joint",
        "shoulder_lift_joint",
        "elbow_joint",
        "wrist_1_joint",
        "wrist_2_joint",
        "wrist_3_joint"
    ],
    "metrics": {
        "cart_traj_len": 0.35327129789344686,
        "distance_elbow_joint": 0.45018203088331576,
        "distance_shoulder_lift_joint": 0.2338458000235233,
        "distance_shoulder_pan_joint": 0.4613739601456806,
        "distance_wrist_1_joint": 0.24216331317826445,
        "distance_wrist_2_joint": 1.101668508575088,
        "distance_wrist_3_joint": 0.10602375200188074,
        "smoothness": 4.440892098500626e-16,
        "time": 0.15985755,
        "traj_len": 1.6109802496640835,
        "weighted_distance": 2.0374338493715243
    },
    "planner": "BKPIECE",
    "start": {
        "state": {
            "elbow_joint": 1.9715463870305268,
            "shoulder_lift_joint": -1.1394903361783484,
            "shoulder_pan_joint": 0.12281147578464417,
            "wrist_1_joint": -0.7804599489681411,
            "wrist_2_joint": 0.12958660307563738,
            "wrist_3_joint": -3.1924946282119055
        }
    },
    "waypoints": [
        {
            "positions": [
                0.12281147578464417,
                -1.1394903361783484,
                1.9715463870305268,
                -0.7804599489681411,
                0.12958660307563738,
                -3.1924946282119055
            ]
        },
        {
            "positions": [
                0.05690091004954695,
                -1.1728968790388516,
                2.0358581057281433,
                -0.8150547079936075,
                0.2869678185863642,
                -3.1773483779259224
            ]
        },
        {
            "positions": [
                -0.009009655685550275,
                -1.2063034218993551,
                2.10016982442576,
                -0.8496494670190737,
                0.44434903409709103,
                -3.1622021276399397
            ]
        },
        {
            "positions": [
                -0.07492022142064751,
                -1.2397099647598584,
                2.1644815431233764,
                -0.8842442260445401,
                0.6017302496078178,
                -3.1470558773539565
            ]
        },
        {
            "positions": [
                -0.1408307871557447,
                -1.2731165076203617,
                2.228793261820993,
                -0.9188389850700065,
                0.7591114651185448,
                -3.131909627067974
            ]
        },
        {
            "positions": [
                -0.20674135289084195,
                -1.3065230504808651,
                2.2931049805186094,
                -0.9534337440954728,
                0.9164926806292717,
                -3.1167633767819907
            ]
        },
        {
            "positions": [
                -0.2726519186259392,
                -1.3399295933413684,
                2.357416699216226,
                -0.9880285031209391,
                1.0738738961399983,
                -3.101617126496008
            ]
        },
        {
            "positions": [
                -0.3385624843610364,
                -1.3733361362018717,
                2.4217284179138425,
                -1.0226232621464055,
                1.2312551116507253,
                -3.086470876210025
            ]
        }
    ]
}