{
    "goal": {
        "global_pose": {
            "orientation": {
                "w": 0.5084816217422485,
                "x": -0.49083608388900757,
                "y": 0.5182115435600281,
                "z": -0.4816462993621826
            },
            "position": {
                "x": 0.5540239810943604,
                "y": 0.030875300988554955,
                "z": 0.16403168439865112
            }
        },
        "name": "move_to_storage_A"
    },
    "id": "BKPIECE_move_to_storage_A_20",
    "joint_names": [
        "shoulder_pan_joint",
        "shoulder_lift_joint",
        "elbow_joint",
        "wrist_1_joint",
        "wrist_2_joint",
        "wrist_3_joint"
    ],
    "metrics": {
        "cart_traj_len": 0.3535187103651767,
        "distance_elbow_joint": 0.44896763961908537,
        "distance_shoulder_lift_joint": 0.23558486130860712,
        "distance_shoulder_pan_joint": 0.46328355844835845,
        "distance_wrist_1_joint": 0.23574144999222024,
        "distance_wrist_2_joint": 1.0958831163513658,
        "distance_wrist_3_joint": 0.10176451922576524,
        "smoothness": 1.1102230263833737e-15,
        "time": 0.333878619,
        "traj_len": 1.6066191661203977,
        "weighted_distance": 2.0288860859448268
    },
    "planner": "BKPIECE",
    "start": {
        "state": {
            "elbow_joint": 1.9715463870305268,
            "shoulder_lift_joint": -1.1394903361783484,
            "shoulder_pan_joint": 0.12281147578464417,
            "wrist_1_joint": -0.7804599489681411,
            "wrist_2_joint": 0.12958660307563738,
            "wrist_3_joint": -3.1924946282119055
        }
    },
    "waypoints": [
        {
            "positions": [
                0.12281147578464417,
                -1.1394903361783484,
                1.9715463870305268,
                -0.7804599489681411,
                0.12958660307563738,
                -3.1924946282119055
            ]
        },
        {
            "positions": [
                0.05662811029202154,
                -1.1731453163652923,
                2.0356846212618245,
                -0.8141372989670297,
                0.28614133398297537,
                -3.177956839751082
            ]
        },
        {
            "positions": [
                -0.00955525520060109,
                -1.2068002965522362,
                2.0998228554931226,
                -0.8478146489659183,
                0.4426960648903133,
                -3.1634190512902585
            ]
        },
        {
            "positions": [
                -0.07573862069322372,
                -1.24045527673918,
                2.1639610897244204,
                -0.8814919989648069,
                0.5992507957976513,
                -3.148881262829435
            ]
        },
        {
            "positions": [
                -0.14192198618584634,
                -1.2741102569261238,
                2.2280993239557185,
                -0.9151693489636955,
                0.7558055267049892,
                -3.134343474368611
            ]
        },
        {
            "positions": [
                -0.208105351678469,
                -1.3077652371130677,
                2.2922375581870162,
                -0.9488466989625841,
                0.9123602576123273,
                -3.1198056859077874
            ]
        },
        {
            "positions": [
                -0.2742887171710916,
                -1.3414202173000116,
                2.356375792418314,
                -0.9825240489614727,
                1.0689149885196652,
                -3.105267897446964
            ]
        },
        {
            "positions": [
                -0.34047208266371426,
                -1.3750751974869555,
                2.420514026649612,
                -1.0162013989603613,
                1.2254697194270032,
                -3.0907301089861403
            ]
        }
    ]
}