{
    "goal": {
        "global_pose": {
            "orientation": {
                "w": 0.5084816217422485,
                "x": -0.49083608388900757,
                "y": 0.5182115435600281,
                "z": -0.4816462993621826
            },
            "position": {
                "x": 0.5540239810943604,
                "y": 0.030875300988554955,
                "z": 0.16403168439865112
            }
        },
        "name": "move_to_storage_A"
    },
    "id": "BKPIECE_move_to_storage_A_59",
    "joint_names": [
        "shoulder_pan_joint",
        "shoulder_lift_joint",
        "elbow_joint",
        "wrist_1_joint",
        "wrist_2_joint",
        "wrist_3_joint"
    ],
    "metrics": {
        "cart_traj_len": 0.352699871779687,
        "distance_elbow_joint": 0.4496354691857012,
        "distance_shoulder_lift_joint": 0.23250574811772595,
        "distance_shoulder_pan_joint": 0.4622271688082474,
        "distance_wrist_1_joint": 0.2425102594878833,
        "distance_wrist_2_joint": 1.0928857633816307,
        "distance_wrist_3_joint": 0.10532278005311957,
        "smoothness": 1.8873791468826667e-15,
        "time": 0.222925061,
        "traj_len": 1.6078206333525853,
        "weighted_distance": 2.0325178405145823
    },
    "planner": "BKPIECE",
    "start": {
        "state": {
            "elbow_joint": 1.9715463870305268,
            "shoulder_lift_joint": -1.1394903361783484,
            "shoulder_pan_joint": 0.12281147578464417,
            "wrist_1_joint": -0.7804599489681411,
            "wrist_2_joint": 0.12958660307563738,
            "wrist_3_joint": -3.1924946282119055
        }
    },
    "waypoints": [
        {
            "positions": [
                0.12281147578464417,
                -1.1394903361783484,
                1.9715463870305268,
                -0.7804599489681411,
                0.12958660307563738,
                -3.1924946282119055
            ]
        },
        {
            "positions": [
                0.056779023097751694,
                -1.1727054430523092,
                2.035780025485627,
                -0.8151042717521244,
                0.2857131407015846,
                -3.177448516775746
            ]
        },
        {
            "positions": [
                -0.009253429589140785,
                -1.2059205499262702,
                2.100013663940727,
                -0.8497485945361077,
                0.4418396783275318,
                -3.1624024053395856
            ]
        },
        {
            "positions": [
                -0.07528588227603326,
                -1.239135656800231,
                2.164247302395827,
                -0.8843929173200911,
                0.5979662159534791,
                -3.147356293903426
            ]
        },
        {
            "positions": [
                -0.14131833496292573,
                -1.2723507636741918,
                2.228480940850927,
                -0.9190372401040744,
                0.7540927535794263,
                -3.1323101824672657
            ]
        },
        {
            "positions": [
                -0.20735078764981824,
                -1.3055658705481528,
                2.2927145793060277,
                -0.9536815628880577,
                0.9102192912053736,
                -3.117264071031106
            ]
        },
        {
            "positions": [
                -0.2733832403367107,
                -1.3387809774221135,
                2.356948217761128,
                -0.988325885672041,
                1.0663458288313208,
                -3.1022179595949457
            ]
        },
        {
            "positions": [
                -0.3394156930236032,
                -1.3719960842960743,
                2.421181856216228,
                -1.0229702084560244,
                1.222472366457268,
                -3.087171848158786
            ]
        }
    ]
}