{
    "goal": {
        "global_pose": {
            "orientation": {
                "w": 0.5084816217422485,
                "x": -0.49083608388900757,
                "y": 0.5182115435600281,
                "z": -0.4816462993621826
            },
            "position": {
                "x": 0.5540239810943604,
                "y": 0.030875300988554955,
                "z": 0.16403168439865112
            }
        },
        "name": "move_to_storage_A"
    },
    "id": "BKPIECE_move_to_storage_A_31",
    "joint_names": [
        "shoulder_pan_joint",
        "shoulder_lift_joint",
        "elbow_joint",
        "wrist_1_joint",
        "wrist_2_joint",
        "wrist_3_joint"
    ],
    "metrics": {
        "cart_traj_len": 0.35278801336965254,
        "distance_elbow_joint": 0.44921336274375845,
        "distance_shoulder_lift_joint": 0.237099877289354,
        "distance_shoulder_pan_joint": 0.46181123126875906,
        "distance_wrist_1_joint": 0.23644506240519159,
        "distance_wrist_2_joint": 1.097310098116178,
        "distance_wrist_3_joint": 0.10257679550430021,
        "smoothness": 1.3322676330666223e-15,
        "time": 0.137701154,
        "traj_len": 1.6076244671338955,
        "weighted_distance": 2.0306070961309852
    },
    "planner": "BKPIECE",
    "start": {
        "state": {
            "elbow_joint": 1.9715463870305268,
            "shoulder_lift_joint": -1.1394903361783484,
            "shoulder_pan_joint": 0.12281147578464417,
            "wrist_1_joint": -0.7804599489681411,
            "wrist_2_joint": 0.12958660307563738,
            "wrist_3_joint": -3.1924946282119055
        }
    },
    "waypoints": [
        {
            "positions": [
                0.12281147578464417,
                -1.1394903361783484,
                1.9715463870305268,
                -0.7804599489681411,
                0.12958660307563738,
                -3.1924946282119055
            ]
        },
        {
            "positions": [
                0.05683844274625002,
                -1.1733617472196847,
                2.0357197245653493,
                -0.8142378150260255,
                0.2863451885208057,
                -3.17784080028272
            ]
        },
        {
            "positions": [
                -0.009134590292144126,
                -1.207233158261021,
                2.099893062100172,
                -0.8480156810839101,
                0.443103773965974,
                -3.163186972353534
            ]
        },
        {
            "positions": [
                -0.07510762333053826,
                -1.2411045693023572,
                2.1640663996349945,
                -0.8817935471417946,
                0.5998623594111423,
                -3.1485331444243485
            ]
        },
        {
            "positions": [
                -0.1410806563689324,
                -1.2749759803436935,
                2.228239737169817,
                -0.9155714131996792,
                0.7566209448563106,
                -3.1338793164951624
            ]
        },
        {
            "positions": [
                -0.2070536894073266,
                -1.3088473913850298,
                2.29241307470464,
                -0.9493492792575636,
                0.9133795303014789,
                -3.1192254885659767
            ]
        },
        {
            "positions": [
                -0.2730267224457207,
                -1.342718802426366,
                2.3565864122394626,
                -0.9831271453154482,
                1.0701381157466472,
                -3.104571660636791
            ]
        },
        {
            "positions": [
                -0.3389997554841149,
                -1.3765902134677024,
                2.420759749774285,
                -1.0169050113733327,
                1.2268967011918155,
                -3.0899178327076053
            ]
        }
    ]
}