{
    "goal": {
        "global_pose": {
            "orientation": {
                "w": 0.7031023502349854,
                "x": -0.7110244035720825,
                "y": 0.007748599164187908,
                "z": 0.005598929710686207
            },
            "position": {
                "x": 0.11585023208521307,
                "y": 0.44412534475326537,
                "z": 0.3711530566215515
            }
        },
        "name": "move_to_auspresseinheit_A"
    },
    "id": "BKPIECE_move_to_auspresseinheit_A_27",
    "joint_names": [
        "shoulder_pan_joint",
        "shoulder_lift_joint",
        "elbow_joint",
        "wrist_1_joint",
        "wrist_2_joint",
        "wrist_3_joint"
    ],
    "metrics": {
        "cart_traj_len": 1.498616468423456,
        "distance_elbow_joint": 1.3592463048160948,
        "distance_shoulder_lift_joint": 1.4514984202999581,
        "distance_shoulder_pan_joint": 1.0941277262936087,
        "distance_wrist_1_joint": 1.354437960397438,
        "distance_wrist_2_joint": 2.690474619711985,
        "distance_wrist_3_joint": 5.393496815337591,
        "smoothness": 0.6274688258011323,
        "time": 0.169748714,
        "traj_len": 3.6528457190054815,
        "weighted_distance": 5.308030525311746
    },
    "planner": "BKPIECE",
    "start": {
        "state": {
            "elbow_joint": 2.422574709923281,
            "shoulder_lift_joint": -1.3736533754116391,
            "shoulder_pan_joint": -0.33786336945926293,
            "wrist_1_joint": -1.0288603412921917,
            "wrist_2_joint": 1.2330224858903978,
            "wrist_3_joint": -3.094022268022082
        }
    },
    "waypoints": [
        {
            "positions": [
                -0.33786336945926293,
                -1.3736533754116391,
                2.422574709923281,
                -1.0288603412921917,
                1.2330224858903978,
                -3.094022268022082
            ]
        },
        {
            "positions": [
                -0.34008610467658285,
                -1.4350736671200401,
                2.379025503893579,
                -1.059644577834857,
                1.1290595018821186,
                -2.943896763040343
            ]
        },
        {
            "positions": [
                -0.3423088398939027,
                -1.4964939588284414,
                2.335476297863876,
                -1.0904288143775227,
                1.0250965178738392,
                -2.793771258058604
            ]
        },
        {
            "positions": [
                -0.3445315751112226,
                -1.5579142505368426,
                2.291927091834174,
                -1.121213050920188,
                0.92113353386556,
                -2.6436457530768642
            ]
        },
        {
            "positions": [
                -0.34675431032854254,
                -1.6193345422452436,
                2.248377885804471,
                -1.1519972874628535,
                0.8171705498572808,
                -2.493520248095125
            ]
        },
        {
            "positions": [
                -0.34897704554586245,
                -1.6807548339536447,
                2.204828679774769,
                -1.182781524005519,
                0.7132075658490014,
                -2.343394743113386
            ]
        },
        {
            "positions": [
                -0.35119978076318237,
                -1.742175125662046,
                2.1612794737450662,
                -1.2135657605481844,
                0.6092445818407222,
                -2.1932692381316468
            ]
        },
        {
            "positions": [
                -0.3534225159805022,
                -1.8035954173704472,
                2.117730267715364,
                -1.2443499970908498,
                0.5052815978324429,
                -2.0431437331499076
            ]
        },
        {
            "positions": [
                -0.35564525119782214,
                -1.8650157090788482,
                2.0741810616856613,
                -1.2751342336335154,
                0.4013186138241637,
                -1.8930182281681682
            ]
        },
        {
            "positions": [
                -0.35786798641514206,
                -1.9264360007872492,
                2.030631855655959,
                -1.3059184701761808,
                0.29735562981588437,
                -1.7428927231864288
            ]
        },
        {
            "positions": [
                -0.3600907216324619,
                -1.9878562924956504,
                1.9870826496262566,
                -1.3367027067188464,
                0.19339264580760496,
                -1.5927672182046897
            ]
        },
        {
            "positions": [
                -0.36231345684978183,
                -2.0492765842040517,
                1.9435334435965541,
                -1.3674869432615115,
                0.08942966179932599,
                -1.4426417132229505
            ]
        },
        {
            "positions": [
                -0.36453619206710175,
                -2.1106968759124527,
                1.8999842375668516,
                -1.3982711798041771,
                -0.014533322208953536,
                -1.2925162082412112
            ]
        },
        {
            "positions": [
                -0.25418713108693053,
                -2.1429283356426847,
                1.9834172584719076,
                -1.4026430113662023,
                -0.060239242543671544,
                -1.1830089298544337
            ]
        },
        {
            "positions": [
                -0.1438380701067593,
                -2.1751597953729167,
                2.0668502793769634,
                -1.4070148429282274,
                -0.10594516287838955,
                -1.0735016514676563
            ]
        },
        {
            "positions": [
                -0.03348900912658809,
                -2.2073912551031487,
                2.1502833002820196,
                -1.4113866744902523,
                -0.15165108321310755,
                -0.9639943730808788
            ]
        },
        {
            "positions": [
                0.07686005185358313,
                -2.2396227148333807,
                2.2337163211870754,
                -1.4157585060522775,
                -0.19735700354782557,
                -0.8544870946941013
            ]
        },
        {
            "positions": [
                0.1872091128337543,
                -2.2718541745636123,
                2.3171493420921316,
                -1.4201303376143026,
                -0.24306292388254358,
                -0.7449798163073239
            ]
        },
        {
            "positions": [
                0.2975581738139256,
                -2.3040856342938443,
                2.4005823629971874,
                -1.4245021691763275,
                -0.28876884421726157,
                -0.6354725379205464
            ]
        },
        {
            "positions": [
                0.40790723479409685,
                -2.3363170940240763,
                2.4840153839022436,
                -1.4288740007383527,
                -0.3344747645519796,
                -0.5259652595337689
            ]
        },
        {
            "positions": [
                0.518256295774268,
                -2.3685485537543083,
                2.5674484048072994,
                -1.4332458323003778,
                -0.3801806848866976,
                -0.4164579811469915
            ]
        },
        {
            "positions": [
                0.5338845493272409,
                -2.3369200477228858,
                2.555368654182302,
                -1.3667770375133375,
                -0.3060344799836,
                -0.5969684468839239
            ]
        },
        {
            "positions": [
                0.5495128028802139,
                -2.305291541691463,
                2.5432889035573045,
                -1.300308242726297,
                -0.2318882750805024,
                -0.7774789126208563
            ]
        },
        {
            "positions": [
                0.5651410564331868,
                -2.2736630356600407,
                2.5312091529323073,
                -1.2338394479392565,
                -0.15774207017740477,
                -0.9579893783577889
            ]
        },
        {
            "positions": [
                0.5807693099861597,
                -2.2420345296286186,
                2.5191294023073096,
                -1.167370653152216,
                -0.08359586527430718,
                -1.1384998440947212
            ]
        },
        {
            "positions": [
                0.5963975635391328,
                -2.210406023597196,
                2.5070496516823124,
                -1.1009018583651757,
                -0.009449660371209534,
                -1.3190103098316537
            ]
        },
        {
            "positions": [
                0.6120258170921057,
                -2.1787775175657735,
                2.4949699010573148,
                -1.0344330635781351,
                0.06469654453188806,
                -1.4995207755685862
            ]
        },
        {
            "positions": [
                0.6276540706450786,
                -2.147149011534351,
                2.4828901504323175,
                -0.9679642687910948,
                0.13884274943498567,
                -1.6800312413055187
            ]
        },
        {
            "positions": [
                0.6370621507667772,
                -2.1177485490671843,
                2.472310974076788,
                -0.9073679055560987,
                0.20862375126163646,
                -1.8615761498435153
            ]
        },
        {
            "positions": [
                0.6464702308884758,
                -2.088348086600018,
                2.4617317977212587,
                -0.8467715423211026,
                0.27840475308828727,
                -2.043121058381512
            ]
        },
        {
            "positions": [
                0.6558783110101745,
                -2.0589476241328515,
                2.451152621365729,
                -0.7861751790861066,
                0.34818575491493803,
                -2.224665966919509
            ]
        },
        {
            "positions": [
                0.665286391131873,
                -2.0295471616656853,
                2.4405734450102,
                -0.7255788158511105,
                0.4179667567415888,
                -2.4062108754575053
            ]
        },
        {
            "positions": [
                0.6746944712535716,
                -2.0001466991985186,
                2.4299942686546703,
                -0.6649824526161143,
                0.4877477585682396,
                -2.587755783995502
            ]
        },
        {
            "positions": [
                0.6841025513752703,
                -1.9707462367313522,
                2.4194150922991406,
                -0.6043860893811184,
                0.5575287603948904,
                -2.7693006925334984
            ]
        },
        {
            "positions": [
                0.6935106314969689,
                -1.9413457742641858,
                2.4088359159436115,
                -0.5437897261461222,
                0.6273097622215411,
                -2.950845601071495
            ]
        },
        {
            "positions": [
                0.7029187116186675,
                -1.9119453117970193,
                2.398256739588082,
                -0.4831933629111262,
                0.6970907640481919,
                -3.1323905096094915
            ]
        }
    ]
}