{
    "goal": {
        "global_pose": {
            "orientation": {
                "w": 0.5084816217422485,
                "x": -0.49083608388900757,
                "y": 0.5182115435600281,
                "z": -0.4816462993621826
            },
            "position": {
                "x": 0.5540239810943604,
                "y": 0.030875300988554955,
                "z": 0.16403168439865112
            }
        },
        "name": "move_to_storage_A"
    },
    "id": "BKPIECE_move_to_storage_A_136",
    "joint_names": [
        "shoulder_pan_joint",
        "shoulder_lift_joint",
        "elbow_joint",
        "wrist_1_joint",
        "wrist_2_joint",
        "wrist_3_joint"
    ],
    "metrics": {
        "cart_traj_len": 0.35280182197096477,
        "distance_elbow_joint": 0.4506840279762492,
        "distance_shoulder_lift_joint": 0.2324039572483021,
        "distance_shoulder_pan_joint": 0.462585891493028,
        "distance_wrist_1_joint": 0.24969276810306418,
        "distance_wrist_2_joint": 1.0918967077854607,
        "distance_wrist_3_joint": 0.10626198221135574,
        "smoothness": 1.3322676295501878e-15,
        "time": 0.162635485,
        "traj_len": 1.6104425897303698,
        "weighted_distance": 2.0365752564363286
    },
    "planner": "BKPIECE",
    "start": {
        "state": {
            "elbow_joint": 1.9715463870305268,
            "shoulder_lift_joint": -1.1394903361783484,
            "shoulder_pan_joint": 0.12281147578464417,
            "wrist_1_joint": -0.7804599489681411,
            "wrist_2_joint": 0.12958660307563738,
            "wrist_3_joint": -3.1924946282119055
        }
    },
    "waypoints": [
        {
            "positions": [
                0.12281147578464417,
                -1.1394903361783484,
                1.9715463870305268,
                -0.7804599489681411,
                0.12958660307563738,
                -3.1924946282119055
            ]
        },
        {
            "positions": [
                0.0567277769999259,
                -1.1726909014995344,
                2.0359298195985622,
                -0.816130344411436,
                0.2855718470449889,
                -3.177314345038855
            ]
        },
        {
            "positions": [
                -0.009355921784792373,
                -1.2058914668207203,
                2.100313252166598,
                -0.8518007398547308,
                0.4415570910143404,
                -3.162134061865804
            ]
        },
        {
            "positions": [
                -0.07543962056951066,
                -1.2390920321419063,
                2.1646966847346336,
                -0.8874711352980257,
                0.5975423349836919,
                -3.1469537786927533
            ]
        },
        {
            "positions": [
                -0.1415233193542289,
                -1.2722925974630925,
                2.229080117302669,
                -0.9231415307413207,
                0.7535275789530435,
                -3.131773495519702
            ]
        },
        {
            "positions": [
                -0.20760701813894722,
                -1.3054931627842785,
                2.2934635498707046,
                -0.9588119261846155,
                0.909512822922395,
                -3.1165932123466513
            ]
        },
        {
            "positions": [
                -0.2736907169236655,
                -1.3386937281054645,
                2.3578469824387405,
                -0.9944823216279104,
                1.0654980668917464,
                -3.1014129291736006
            ]
        },
        {
            "positions": [
                -0.3397744157083838,
                -1.3718942934266505,
                2.422230415006776,
                -1.0301527170712053,
                1.221483310861098,
                -3.08623264600055
            ]
        }
    ]
}