{
    "goal": {
        "global_pose": {
            "orientation": {
                "w": 0.7031023502349854,
                "x": -0.7110244035720825,
                "y": 0.007748599164187908,
                "z": 0.005598929710686207
            },
            "position": {
                "x": 0.11585023208521307,
                "y": 0.44412534475326537,
                "z": 0.3711530566215515
            }
        },
        "name": "move_to_auspresseinheit_A"
    },
    "id": "BKPIECE_move_to_auspresseinheit_A_103",
    "joint_names": [
        "shoulder_pan_joint",
        "shoulder_lift_joint",
        "elbow_joint",
        "wrist_1_joint",
        "wrist_2_joint",
        "wrist_3_joint"
    ],
    "metrics": {
        "cart_traj_len": 1.7030247813319153,
        "distance_elbow_joint": 0.778851923462323,
        "distance_shoulder_lift_joint": 1.1088251249346512,
        "distance_shoulder_pan_joint": 3.9998480880707845,
        "distance_wrist_1_joint": 7.077311045245138,
        "distance_wrist_2_joint": 4.210731468927065,
        "distance_wrist_3_joint": 5.062153544003071,
        "smoothness": 0.581132242467451,
        "time": 0.448433191,
        "traj_len": 4.71568883564671,
        "weighted_distance": 6.606820021524832
    },
    "planner": "BKPIECE",
    "start": {
        "state": {
            "elbow_joint": 2.422574709923281,
            "shoulder_lift_joint": -1.3736533754116391,
            "shoulder_pan_joint": -0.33786336945926293,
            "wrist_1_joint": -1.0288603412921917,
            "wrist_2_joint": 1.2330224858903978,
            "wrist_3_joint": -3.094022268022082
        }
    },
    "waypoints": [
        {
            "positions": [
                -0.33786336945926293,
                -1.3736533754116391,
                2.422574709923281,
                -1.0288603412921917,
                1.2330224858903978,
                -3.094022268022082
            ]
        },
        {
            "positions": [
                -0.38878613762986414,
                -1.4020618070082302,
                2.4355912950368372,
                -0.8974192732513858,
                1.151572097671533,
                -3.007189826880136
            ]
        },
        {
            "positions": [
                -0.43970890580046534,
                -1.4304702386048211,
                2.448607880150394,
                -0.7659782052105799,
                1.0701217094526683,
                -2.92035738573819
            ]
        },
        {
            "positions": [
                -0.49063167397106655,
                -1.4588786702014123,
                2.46162446526395,
                -0.6345371371697739,
                0.9886713212338034,
                -2.8335249445962436
            ]
        },
        {
            "positions": [
                -0.5415544421416678,
                -1.4872871017980034,
                2.4746410503775067,
                -0.503096069128968,
                0.9072209330149388,
                -2.7466925034542973
            ]
        },
        {
            "positions": [
                -0.5924772103122691,
                -1.5156955333945943,
                2.487657635491063,
                -0.3716550010881621,
                0.8257705447960739,
                -2.659860062312351
            ]
        },
        {
            "positions": [
                -0.6433999784828702,
                -1.5441039649911854,
                2.5006742206046195,
                -0.24021393304735617,
                0.7443201565772092,
                -2.5730276211704046
            ]
        },
        {
            "positions": [
                -0.6943227466534714,
                -1.5725123965877765,
                2.5136908057181757,
                -0.10877286500655015,
                0.6628697683583444,
                -2.4861951800284587
            ]
        },
        {
            "positions": [
                -0.7452455148240726,
                -1.6009208281843674,
                2.5267073908317323,
                0.022668203034255763,
                0.5814193801394797,
                -2.3993627388865124
            ]
        },
        {
            "positions": [
                -0.7961682829946739,
                -1.6293292597809585,
                2.5397239759452885,
                0.15410927107506156,
                0.49996899192061484,
                -2.312530297744566
            ]
        },
        {
            "positions": [
                -0.8470910511652752,
                -1.6577376913775497,
                2.552740561058845,
                0.2855503391158676,
                0.4185186037017501,
                -2.2256978566026198
            ]
        },
        {
            "positions": [
                -0.8980138193358762,
                -1.6861461229741406,
                2.5657571461724014,
                0.4169914071566734,
                0.33706821548288546,
                -2.138865415460674
            ]
        },
        {
            "positions": [
                -0.9489365875064775,
                -1.7145545545707317,
                2.578773731285958,
                0.5484324751974794,
                0.2556178272640206,
                -2.0520329743187276
            ]
        },
        {
            "positions": [
                -0.9998593556770787,
                -1.7429629861673228,
                2.591790316399514,
                0.6798735432382854,
                0.17416743904515575,
                -1.9652005331767812
            ]
        },
        {
            "positions": [
                -1.05078212384768,
                -1.7713714177639137,
                2.604806901513071,
                0.8113146112790914,
                0.09271705082629111,
                -1.8783680920348351
            ]
        },
        {
            "positions": [
                -1.1017048920182813,
                -1.7997798493605048,
                2.617823486626627,
                0.9427556793198972,
                0.011266662607426259,
                -1.7915356508928888
            ]
        },
        {
            "positions": [
                -1.1526276601888823,
                -1.8281882809570957,
                2.6308400717401836,
                1.0741967473607033,
                -0.07018372561143837,
                -1.7047032097509427
            ]
        },
        {
            "positions": [
                -1.2035504283594836,
                -1.8565967125536869,
                2.64385665685374,
                1.2056378154015088,
                -0.151634113830303,
                -1.6178707686089966
            ]
        },
        {
            "positions": [
                -1.2544731965300848,
                -1.885005144150278,
                2.6568732419672965,
                1.3370788834423148,
                -0.23308450204916809,
                -1.53103832746705
            ]
        },
        {
            "positions": [
                -1.305395964700686,
                -1.913413575746869,
                2.6698898270808527,
                1.4685199514831209,
                -0.3145348902680327,
                -1.444205886325104
            ]
        },
        {
            "positions": [
                -1.3563187328712873,
                -1.9418220073434602,
                2.6829064121944093,
                1.5999610195239269,
                -0.3959852784868976,
                -1.3573734451831576
            ]
        },
        {
            "positions": [
                -1.4072415010418886,
                -1.9702304389400511,
                2.6959229973079655,
                1.731402087564733,
                -0.4774356667057622,
                -1.2705410040412115
            ]
        },
        {
            "positions": [
                -1.4581642692124896,
                -1.998638870536642,
                2.708939582421522,
                1.8628431556055385,
                -0.5588860549246268,
                -1.1837085628992654
            ]
        },
        {
            "positions": [
                -1.509087037383091,
                -2.027047302133233,
                2.7219561675350783,
                1.994284223646345,
                -0.6403364431434919,
                -1.096876121757319
            ]
        },
        {
            "positions": [
                -1.5600098055536922,
                -2.0554557337298243,
                2.734972752648635,
                2.1257252916871505,
                -0.7217868313623566,
                -1.010043680615373
            ]
        },
        {
            "positions": [
                -1.6109325737242932,
                -2.083864165326415,
                2.747989337762191,
                2.257166359727956,
                -0.8032372195812214,
                -0.9232112394734266
            ]
        },
        {
            "positions": [
                -1.6618553418948947,
                -2.112272596923006,
                2.7610059228757478,
                2.3886074277687626,
                -0.8846876078000863,
                -0.8363787983314803
            ]
        },
        {
            "positions": [
                -1.7127781100654957,
                -2.140681028519597,
                2.774022507989304,
                2.520048495809568,
                -0.9661379960189507,
                -0.7495463571895344
            ]
        },
        {
            "positions": [
                -1.763700878236097,
                -2.1690894601161883,
                2.7870390931028606,
                2.6514895638503746,
                -1.0475883842378155,
                -0.6627139160475881
            ]
        },
        {
            "positions": [
                -1.8146236464066983,
                -2.1974978917127794,
                2.8000556782164168,
                2.78293063189118,
                -1.1290387724566804,
                -0.5758814749056418
            ]
        },
        {
            "positions": [
                -1.724513367438007,
                -2.1873200128330113,
                2.7857210012460887,
                2.6663049150318314,
                -1.063014836364538,
                -0.6667390731515929
            ]
        },
        {
            "positions": [
                -1.634403088469316,
                -2.177142133953243,
                2.7713863242757606,
                2.5496791981724827,
                -0.9969909002723957,
                -0.7575966713975439
            ]
        },
        {
            "positions": [
                -1.5442928095006248,
                -2.166964255073475,
                2.7570516473054325,
                2.433053481313134,
                -0.9309669641802533,
                -0.8484542696434951
            ]
        },
        {
            "positions": [
                -1.4541825305319338,
                -2.1567863761937063,
                2.7427169703351044,
                2.316427764453785,
                -0.864943028088111,
                -0.9393118678894461
            ]
        },
        {
            "positions": [
                -1.3640722515632426,
                -2.146608497313938,
                2.7283822933647763,
                2.199802047594436,
                -0.7989190919959686,
                -1.0301694661353973
            ]
        },
        {
            "positions": [
                -1.2739619725945515,
                -2.13643061843417,
                2.7140476163944482,
                2.0831763307350872,
                -0.7328951559038261,
                -1.1210270643813485
            ]
        },
        {
            "positions": [
                -1.1838516936258603,
                -2.1262527395544017,
                2.6997129394241197,
                1.9665506138757385,
                -0.6668712198116837,
                -1.2118846626272994
            ]
        },
        {
            "positions": [
                -1.0937414146571691,
                -2.1160748606746336,
                2.6853782624537916,
                1.8499248970163897,
                -0.6008472837195414,
                -1.3027422608732504
            ]
        },
        {
            "positions": [
                -1.003631135688478,
                -2.1058969817948654,
                2.6710435854834635,
                1.733299180157041,
                -0.5348233476273989,
                -1.3935998591192016
            ]
        },
        {
            "positions": [
                -0.9135208567197869,
                -2.0957191029150968,
                2.6567089085131355,
                1.6166734632976922,
                -0.4687994115352566,
                -1.4844574573651528
            ]
        },
        {
            "positions": [
                -0.8234105777510957,
                -2.0855412240353286,
                2.6423742315428074,
                1.5000477464383435,
                -0.4027754754431142,
                -1.5753150556111037
            ]
        },
        {
            "positions": [
                -0.7333002987824047,
                -2.0753633451555604,
                2.6280395545724793,
                1.3834220295789947,
                -0.3367515393509719,
                -1.666172653857055
            ]
        },
        {
            "positions": [
                -0.6431900198137135,
                -2.0651854662757922,
                2.613704877602151,
                1.2667963127196458,
                -0.2707276032588294,
                -1.7570302521030061
            ]
        },
        {
            "positions": [
                -0.5530797408450223,
                -2.055007587396024,
                2.599370200631823,
                1.150170595860297,
                -0.2047036671666871,
                -1.847887850348957
            ]
        },
        {
            "positions": [
                -0.46296946187633115,
                -2.044829708516256,
                2.585035523661495,
                1.0335448790009483,
                -0.1386797310745448,
                -1.938745448594908
            ]
        },
        {
            "positions": [
                -0.3728591829076402,
                -2.0346518296364873,
                2.570700846691167,
                0.9169191621415995,
                -0.07265579498240249,
                -2.029603046840859
            ]
        },
        {
            "positions": [
                -0.282748903938949,
                -2.024473950756719,
                2.556366169720839,
                0.8002934452822508,
                -0.006631858890260078,
                -2.12046064508681
            ]
        },
        {
            "positions": [
                -0.19263862497025763,
                -2.014296071876951,
                2.5420314927505108,
                0.6836677284229018,
                0.059392077201882554,
                -2.2113182433327614
            ]
        },
        {
            "positions": [
                -0.10252834600156646,
                -2.0041181929971827,
                2.5276968157801827,
                0.567042011563553,
                0.12541601329402496,
                -2.3021758415787126
            ]
        },
        {
            "positions": [
                -0.012418067032875513,
                -1.9939403141174146,
                2.513362138809854,
                0.4504162947042043,
                0.19143994938616715,
                -2.3930334398246638
            ]
        },
        {
            "positions": [
                0.07769221193581566,
                -1.9837624352376462,
                2.4990274618395265,
                0.33379057784485555,
                0.25746388547830956,
                -2.483891038070615
            ]
        },
        {
            "positions": [
                0.16780249090450683,
                -1.973584556357878,
                2.484692784869198,
                0.2171648609855068,
                0.32348782157045197,
                -2.5747486363165657
            ]
        },
        {
            "positions": [
                0.257912769873198,
                -1.9634066774781098,
                2.47035810789887,
                0.10053914412615805,
                0.38951175766259416,
                -2.665606234562517
            ]
        },
        {
            "positions": [
                0.34802304884188895,
                -1.9532287985983414,
                2.456023430928542,
                -0.016086572733190696,
                0.45553569375473657,
                -2.756463832808468
            ]
        },
        {
            "positions": [
                0.43813332781058034,
                -1.9430509197185732,
                2.4416887539582137,
                -0.1327122895925399,
                0.5215596298468792,
                -2.8473214310544193
            ]
        },
        {
            "positions": [
                0.5282436067792713,
                -1.932873040838805,
                2.4273540769878856,
                -0.24933800645188864,
                0.5875835659390216,
                -2.9381790293003704
            ]
        },
        {
            "positions": [
                0.6183538857479627,
                -1.9226951619590367,
                2.4130194000175575,
                -0.3659637233112374,
                0.6536075020311638,
                -3.029036627546321
            ]
        },
        {
            "positions": [
                0.7084641647166536,
                -1.9125172830792685,
                2.3986847230472295,
                -0.48258944017058614,
                0.7196314381233062,
                -3.1198942257922724
            ]
        }
    ]
}