{
    "goal": {
        "global_pose": {
            "orientation": {
                "w": 0.7031023502349854,
                "x": -0.7110244035720825,
                "y": 0.007748599164187908,
                "z": 0.005598929710686207
            },
            "position": {
                "x": 0.11585023208521307,
                "y": 0.44412534475326537,
                "z": 0.3711530566215515
            }
        },
        "name": "move_to_auspresseinheit_A"
    },
    "id": "BKPIECE_move_to_auspresseinheit_A_100",
    "joint_names": [
        "shoulder_pan_joint",
        "shoulder_lift_joint",
        "elbow_joint",
        "wrist_1_joint",
        "wrist_2_joint",
        "wrist_3_joint"
    ],
    "metrics": {
        "cart_traj_len": 0.730074922600859,
        "distance_elbow_joint": 0.04787210696237132,
        "distance_shoulder_lift_joint": 0.5351835710540065,
        "distance_shoulder_pan_joint": 1.0439533384841955,
        "distance_wrist_1_joint": 0.5563067796305559,
        "distance_wrist_2_joint": 0.5330568763789613,
        "distance_wrist_3_joint": 0.2968346918582796,
        "smoothness": 0.28476254113010524,
        "time": 0.303645853,
        "traj_len": 1.7358592582258419,
        "weighted_distance": 2.1670810792617905
    },
    "planner": "BKPIECE",
    "start": {
        "state": {
            "elbow_joint": 2.422574709923281,
            "shoulder_lift_joint": -1.3736533754116391,
            "shoulder_pan_joint": -0.33786336945926293,
            "wrist_1_joint": -1.0288603412921917,
            "wrist_2_joint": 1.2330224858903978,
            "wrist_3_joint": -3.094022268022082
        }
    },
    "waypoints": [
        {
            "positions": [
                -0.33786336945926293,
                -1.3736533754116391,
                2.422574709923281,
                -1.0288603412921917,
                1.2330224858903978,
                -3.094022268022082
            ]
        },
        {
            "positions": [
                -0.3380862133019774,
                -1.3811261183829453,
                2.3842658825960212,
                -1.01359763920978,
                1.2234312493407955,
                -2.964342259592893
            ]
        },
        {
            "positions": [
                -0.20761990147179232,
                -1.4470899718932828,
                2.38546129255041,
                -0.945967129516262,
                1.1579980443621256,
                -2.9852365950215294
            ]
        },
        {
            "positions": [
                -0.07715358964160723,
                -1.5130538254036203,
                2.386656702504799,
                -0.878336619822744,
                1.0925648393834557,
                -3.006130930450166
            ]
        },
        {
            "positions": [
                0.053312722188577855,
                -1.5790176789139578,
                2.3878521124591883,
                -0.810706110129226,
                1.0271316344047858,
                -3.027025265878802
            ]
        },
        {
            "positions": [
                0.18377903401876294,
                -1.6449815324242953,
                2.389047522413577,
                -0.743075600435708,
                0.9616984294261159,
                -3.0479196013074388
            ]
        },
        {
            "positions": [
                0.31424534584894803,
                -1.7109453859346329,
                2.3902429323679657,
                -0.67544509074219,
                0.896265224447446,
                -3.068813936736075
            ]
        },
        {
            "positions": [
                0.4447116576791331,
                -1.7769092394449706,
                2.391438342322355,
                -0.6078145810486719,
                0.8308320194687763,
                -3.089708272164711
            ]
        },
        {
            "positions": [
                0.5751779695093182,
                -1.842873092955308,
                2.392633752276744,
                -0.5401840713551539,
                0.7653988144901064,
                -3.1106026075933477
            ]
        },
        {
            "positions": [
                0.7056442813395034,
                -1.9088369464656456,
                2.3938291622311327,
                -0.4725535616616359,
                0.6999656095114365,
                -3.131496943021984
            ]
        }
    ]
}