{
    "goal": {
        "global_pose": {
            "orientation": {
                "w": 0.7031023502349854,
                "x": -0.7110244035720825,
                "y": 0.007748599164187908,
                "z": 0.005598929710686207
            },
            "position": {
                "x": 0.11585023208521307,
                "y": 0.44412534475326537,
                "z": 0.3711530566215515
            }
        },
        "name": "move_to_auspresseinheit_A"
    },
    "id": "BKPIECE_move_to_auspresseinheit_A_89",
    "joint_names": [
        "shoulder_pan_joint",
        "shoulder_lift_joint",
        "elbow_joint",
        "wrist_1_joint",
        "wrist_2_joint",
        "wrist_3_joint"
    ],
    "metrics": {
        "cart_traj_len": 2.550348445717635,
        "distance_elbow_joint": 2.2739934936152073,
        "distance_shoulder_lift_joint": 1.1423604434964338,
        "distance_shoulder_pan_joint": 1.6055653555198428,
        "distance_wrist_1_joint": 0.6408380461608755,
        "distance_wrist_2_joint": 0.5130796050015206,
        "distance_wrist_3_joint": 3.005307815822839,
        "smoothness": 0.842845587432528,
        "time": 0.19236661700000002,
        "traj_len": 3.030040389106508,
        "weighted_distance": 4.042978857528789
    },
    "planner": "BKPIECE",
    "start": {
        "state": {
            "elbow_joint": 2.422574709923281,
            "shoulder_lift_joint": -1.3736533754116391,
            "shoulder_pan_joint": -0.33786336945926293,
            "wrist_1_joint": -1.0288603412921917,
            "wrist_2_joint": 1.2330224858903978,
            "wrist_3_joint": -3.094022268022082
        }
    },
    "waypoints": [
        {
            "positions": [
                -0.33786336945926293,
                -1.3736533754116391,
                2.422574709923281,
                -1.0288603412921917,
                1.2330224858903978,
                -3.094022268022082
            ]
        },
        {
            "positions": [
                -0.25251405320423115,
                -1.4335896150390248,
                2.3420718908311997,
                -1.0024796430540497,
                1.2118364107875332,
                -2.9884598709583106
            ]
        },
        {
            "positions": [
                -0.1671647369491994,
                -1.4935258546664105,
                2.261569071739119,
                -0.9760989448159078,
                1.1906503356846687,
                -2.882897473894539
            ]
        },
        {
            "positions": [
                -0.08181542069416764,
                -1.553462094293796,
                2.1810662526470375,
                -0.9497182465777658,
                1.1694642605818042,
                -2.7773350768307674
            ]
        },
        {
            "positions": [
                0.003533895560864142,
                -1.6133983339211817,
                2.100563433554956,
                -0.9233375483396238,
                1.1482781854789395,
                -2.671772679766996
            ]
        },
        {
            "positions": [
                0.08888321181589592,
                -1.6733345735485674,
                2.0200606144628748,
                -0.8969568501014819,
                1.127092110376075,
                -2.5662102827032243
            ]
        },
        {
            "positions": [
                0.17423252807092765,
                -1.733270813175953,
                1.9395577953707939,
                -0.8705761518633399,
                1.1059060352732104,
                -2.4606478856394527
            ]
        },
        {
            "positions": [
                0.2595818443259595,
                -1.7932070528033388,
                1.8590549762787125,
                -0.8441954536251979,
                1.0847199601703459,
                -2.355085488575681
            ]
        },
        {
            "positions": [
                0.3449311605809912,
                -1.8531432924307245,
                1.7785521571866312,
                -0.817814755387056,
                1.0635338850674814,
                -2.2495230915119095
            ]
        },
        {
            "positions": [
                0.43028047683602305,
                -1.9130795320581102,
                1.69804933809455,
                -0.7914340571489139,
                1.0423478099646168,
                -2.143960694448138
            ]
        },
        {
            "positions": [
                0.5156297930910547,
                -1.9730157716854957,
                1.617546519002469,
                -0.765053358910772,
                1.021161734861752,
                -2.0383982973843664
            ]
        },
        {
            "positions": [
                0.6009791093460866,
                -2.0329520113128816,
                1.5370436999103876,
                -0.7386726606726299,
                0.9999756597588877,
                -1.9328359003205948
            ]
        },
        {
            "positions": [
                0.6863284256011182,
                -2.092888250940267,
                1.4565408808183065,
                -0.712291962434488,
                0.9787895846560231,
                -1.8272735032568233
            ]
        },
        {
            "positions": [
                0.77167774185615,
                -2.152824490567653,
                1.3760380617262251,
                -0.6859112641963461,
                0.9576035095531585,
                -1.7217111061930517
            ]
        },
        {
            "positions": [
                0.8570270581111818,
                -2.2127607301950385,
                1.295535242634144,
                -0.659530565958204,
                0.936417434450294,
                -1.61614870912928
            ]
        },
        {
            "positions": [
                0.8832297567715537,
                -2.2065098228478672,
                1.4786208056303622,
                -0.6179027873857402,
                0.9336572060892265,
                -1.7406997947060066
            ]
        },
        {
            "positions": [
                0.9094324554319256,
                -2.200258915500696,
                1.6617063686265807,
                -0.5762750088132764,
                0.930896977728159,
                -1.8652508802827332
            ]
        },
        {
            "positions": [
                0.9356351540922975,
                -2.1940080081535247,
                1.844791931622799,
                -0.5346472302408126,
                0.9281367493670917,
                -1.9898019658594597
            ]
        },
        {
            "positions": [
                0.9618378527526694,
                -2.1877571008063534,
                2.0278774946190175,
                -0.4930194516683488,
                0.9253765210060242,
                -2.1143530514361863
            ]
        },
        {
            "positions": [
                0.9880405514130413,
                -2.181506193459182,
                2.2109630576152357,
                -0.45139167309588507,
                0.9226162926449567,
                -2.238904137012913
            ]
        },
        {
            "positions": [
                0.9585253292895145,
                -2.143666332667846,
                2.288382374711764,
                -0.4405245439794968,
                0.8962831954973945,
                -2.3916268038138337
            ]
        },
        {
            "positions": [
                0.9290101071659878,
                -2.10582647187651,
                2.3658016918082927,
                -0.4296574148631085,
                0.8699500983498324,
                -2.5443494706147547
            ]
        },
        {
            "positions": [
                0.9093332924169698,
                -2.080599898015619,
                2.4174145698726455,
                -0.4224126621188496,
                0.8523947002514576,
                -2.646164581815369
            ]
        },
        {
            "positions": [
                0.8423485671998141,
                -2.0235691458377474,
                2.409056336843456,
                -0.43387611778136076,
                0.8082440937972641,
                -2.811970709896685
            ]
        },
        {
            "positions": [
                0.7753638419826584,
                -1.9665383936598757,
                2.4006981038142663,
                -0.44533957344387187,
                0.7640934873430706,
                -2.9777768379780007
            ]
        },
        {
            "positions": [
                0.7083791167655027,
                -1.909507641482004,
                2.3923398707850767,
                -0.45680302910638304,
                0.7199428808888771,
                -3.143582966059317
            ]
        }
    ]
}