{
    "goal": {
        "global_pose": {
            "orientation": {
                "w": 0.7047431468963623,
                "x": -0.7094548344612122,
                "y": 0.0024358443915843964,
                "z": -0.0022348060738295317
            },
            "position": {
                "x": 0.6094750761985779,
                "y": 0.3671506643295288,
                "z": 0.19426114857196808
            }
        },
        "name": "move_to_magneteinheit_A"
    },
    "id": "BKPIECE_move_to_magneteinheit_A_5",
    "joint_names": [
        "shoulder_pan_joint",
        "shoulder_lift_joint",
        "elbow_joint",
        "wrist_1_joint",
        "wrist_2_joint",
        "wrist_3_joint"
    ],
    "metrics": {
        "cart_traj_len": 1.8700136275559616,
        "distance_elbow_joint": 3.9350214917573343,
        "distance_shoulder_lift_joint": 0.7107480306204832,
        "distance_shoulder_pan_joint": 1.2421265651279623,
        "distance_wrist_1_joint": 1.5644323264177626,
        "distance_wrist_2_joint": 1.7059722909603865,
        "distance_wrist_3_joint": 1.2017439134525663,
        "smoothness": 2.2204460578853453e-16,
        "time": 0.235832183,
        "traj_len": 3.2187023190000805,
        "weighted_distance": 4.004239885748577
    },
    "planner": "BKPIECE",
    "start": {
        "state": {
            "elbow_joint": -1.919643507792019,
            "shoulder_lift_joint": -0.07675430207160344,
            "shoulder_pan_joint": -1.1188671864651873,
            "wrist_1_joint": 0.42560062535961957,
            "wrist_2_joint": 1.5706038300724876,
            "wrist_3_joint": 1.1188968870953055
        }
    },
    "waypoints": [
        {
            "positions": [
                -1.1188671864651873,
                -0.07675430207160344,
                -1.919643507792019,
                0.42560062535961957,
                1.5706038300724876,
                1.1188968870953055
            ]
        },
        {
            "positions": [
                -1.0728624988678555,
                -0.10307830320569542,
                -1.773901971060266,
                0.48354256337509227,
                1.5074196711480288,
                1.074387853263729
            ]
        },
        {
            "positions": [
                -1.0268578112705236,
                -0.1294023043397874,
                -1.628160434328513,
                0.5414845013905649,
                1.4442355122235702,
                1.0298788194321524
            ]
        },
        {
            "positions": [
                -0.9808531236731916,
                -0.15572630547387933,
                -1.4824188975967598,
                0.5994264394060376,
                1.3810513532991113,
                0.985369785600576
            ]
        },
        {
            "positions": [
                -0.9348484360758595,
                -0.18205030660797134,
                -1.3366773608650067,
                0.6573683774215103,
                1.3178671943746525,
                0.9408607517689994
            ]
        },
        {
            "positions": [
                -0.8888437484785277,
                -0.20837430774206328,
                -1.1909358241332535,
                0.715310315436983,
                1.2546830354501939,
                0.896351717937423
            ]
        },
        {
            "positions": [
                -0.8428390608811958,
                -0.23469830887615525,
                -1.0451942874015003,
                0.7732522534524557,
                1.191498876525735,
                0.8518426841058464
            ]
        },
        {
            "positions": [
                -0.7968343732838639,
                -0.2610223100102472,
                -0.8994527506697474,
                0.8311941914679284,
                1.1283147176012762,
                0.8073336502742698
            ]
        },
        {
            "positions": [
                -0.7508296856865319,
                -0.2873463111443392,
                -0.7537112139379942,
                0.889136129483401,
                1.0651305586768176,
                0.7628246164426933
            ]
        },
        {
            "positions": [
                -0.7048249980892,
                -0.3136703122784312,
                -0.6079696772062411,
                0.9470780674988737,
                1.0019463997523588,
                0.7183155826111168
            ]
        },
        {
            "positions": [
                -0.658820310491868,
                -0.3399943134125231,
                -0.4622281404744879,
                1.0050200055143463,
                0.9387622408279,
                0.6738065487795403
            ]
        },
        {
            "positions": [
                -0.6128156228945361,
                -0.3663183145466151,
                -0.31648660374273474,
                1.0629619435298192,
                0.8755780819034413,
                0.6292975149479638
            ]
        },
        {
            "positions": [
                -0.5668109352972042,
                -0.39264231568070707,
                -0.1707450670109818,
                1.1209038815452919,
                0.8123939229789825,
                0.5847884811163873
            ]
        },
        {
            "positions": [
                -0.5208062476998722,
                -0.418966316814799,
                -0.025003530279228636,
                1.1788458195607645,
                0.7492097640545238,
                0.5402794472848107
            ]
        },
        {
            "positions": [
                -0.47480156010254027,
                -0.445290317948891,
                0.1207380064525243,
                1.2367877575762372,
                0.686025605130065,
                0.49577041345323414
            ]
        },
        {
            "positions": [
                -0.42879687250520826,
                -0.471614319082983,
                0.2664795431842777,
                1.29472969559171,
                0.6228414462056062,
                0.4512613796216576
            ]
        },
        {
            "positions": [
                -0.38279218490787636,
                -0.49793832021707496,
                0.41222107991603063,
                1.3526716336071825,
                0.5596572872811476,
                0.4067523457900811
            ]
        },
        {
            "positions": [
                -0.33678749731054436,
                -0.524262321351167,
                0.557962616647784,
                1.4106135716226553,
                0.4964731283566888,
                0.36224331195850457
            ]
        },
        {
            "positions": [
                -0.2907828097132126,
                -0.550586322485259,
                0.703704153379537,
                1.468555509638128,
                0.43328896943222994,
                0.3177342781269281
            ]
        },
        {
            "positions": [
                -0.24477812211588057,
                -0.5769103236193509,
                0.8494456901112903,
                1.5264974476536008,
                0.3701048105077711,
                0.27322524429535144
            ]
        },
        {
            "positions": [
                -0.19877343451854868,
                -0.6032343247534429,
                0.9951872268430433,
                1.5844393856690733,
                0.3069206515833125,
                0.228716210463775
            ]
        },
        {
            "positions": [
                -0.15276874692121667,
                -0.6295583258875348,
                1.1409287635747967,
                1.6423813236845461,
                0.24373649265885367,
                0.18420717663219843
            ]
        },
        {
            "positions": [
                -0.10676405932388477,
                -0.6558823270216267,
                1.2866703003065496,
                1.7003232617000188,
                0.18055233373439505,
                0.13969814280062198
            ]
        },
        {
            "positions": [
                -0.06075937172655288,
                -0.6822063281557187,
                1.4324118370383025,
                1.7582651997154914,
                0.11736817480993622,
                0.09518910896904531
            ]
        },
        {
            "positions": [
                -0.014754684129220985,
                -0.7085303292898106,
                1.5781533737700555,
                1.816207137730964,
                0.05418401588547739,
                0.05068007513746897
            ]
        },
        {
            "positions": [
                0.03125000346811113,
                -0.7348543304239028,
                1.7238949105018089,
                1.874149075746437,
                -0.009000143038981445,
                0.006171041305892411
            ]
        },
        {
            "positions": [
                0.07725469106544303,
                -0.7611783315579945,
                1.8696364472335618,
                1.9320910137619094,
                -0.07218430196344006,
                -0.03833799252568415
            ]
        },
        {
            "positions": [
                0.1232593786627749,
                -0.7875023326920867,
                2.0153779839653154,
                1.9900329517773823,
                -0.13536846088789892,
                -0.08284702635726066
            ]
        }
    ]
}