{
    "goal": {
        "global_pose": {
            "orientation": {
                "w": 0.7047431468963623,
                "x": -0.7094548344612122,
                "y": 0.0024358443915843964,
                "z": -0.0022348060738295317
            },
            "position": {
                "x": 0.6094750761985779,
                "y": 0.3671506643295288,
                "z": 0.19426114857196808
            }
        },
        "name": "move_to_magneteinheit_A"
    },
    "id": "BKPIECE_move_to_magneteinheit_A_41",
    "joint_names": [
        "shoulder_pan_joint",
        "shoulder_lift_joint",
        "elbow_joint",
        "wrist_1_joint",
        "wrist_2_joint",
        "wrist_3_joint"
    ],
    "metrics": {
        "cart_traj_len": 2.0632478011240143,
        "distance_elbow_joint": 3.8760235974348274,
        "distance_shoulder_lift_joint": 1.0543980250943792,
        "distance_shoulder_pan_joint": 1.2413133611609866,
        "distance_wrist_1_joint": 1.1271934419907303,
        "distance_wrist_2_joint": 1.4385736226689236,
        "distance_wrist_3_joint": 1.9046366484594763,
        "smoothness": 4.75809868779962e-16,
        "time": 0.104954331,
        "traj_len": 3.2622290993750456,
        "weighted_distance": 4.125188366412851
    },
    "planner": "BKPIECE",
    "start": {
        "state": {
            "elbow_joint": -1.919643507792019,
            "shoulder_lift_joint": -0.07675430207160344,
            "shoulder_pan_joint": -1.1188671864651873,
            "wrist_1_joint": 0.42560062535961957,
            "wrist_2_joint": 1.5706038300724876,
            "wrist_3_joint": 1.1188968870953055
        }
    },
    "waypoints": [
        {
            "positions": [
                -1.1188671864651873,
                -0.07675430207160344,
                -1.919643507792019,
                0.42560062535961957,
                1.5706038300724876,
                1.1188968870953055
            ]
        },
        {
            "positions": [
                -1.072892617533299,
                -0.11580608077880267,
                -1.7760870782573959,
                0.38385272010070365,
                1.5173233255291942,
                1.1894389851863973
            ]
        },
        {
            "positions": [
                -1.0269180486014107,
                -0.1548578594860019,
                -1.6325306487227726,
                0.34210481484178773,
                1.4640428209859007,
                1.259981083277489
            ]
        },
        {
            "positions": [
                -0.9809434796695222,
                -0.19390963819320112,
                -1.4889742191881494,
                0.30035690958287176,
                1.4107623164426073,
                1.3305231813685807
            ]
        },
        {
            "positions": [
                -0.9349689107376338,
                -0.23296141690040034,
                -1.3454177896535262,
                0.25860900432395584,
                1.3574818118993137,
                1.4010652794596723
            ]
        },
        {
            "positions": [
                -0.8889943418057454,
                -0.27201319560759957,
                -1.201861360118903,
                0.21686109906503992,
                1.3042013073560204,
                1.471607377550764
            ]
        },
        {
            "positions": [
                -0.843019772873857,
                -0.3110649743147988,
                -1.0583049305842798,
                0.175113193806124,
                1.2509208028127268,
                1.542149475641856
            ]
        },
        {
            "positions": [
                -0.7970452039419686,
                -0.350116753021998,
                -0.9147485010496565,
                0.13336528854720808,
                1.1976402982694334,
                1.6126915737329475
            ]
        },
        {
            "positions": [
                -0.7510706350100802,
                -0.38916853172919724,
                -0.7711920715150333,
                0.09161738328829216,
                1.1443597937261398,
                1.6832336718240393
            ]
        },
        {
            "positions": [
                -0.7050960660781919,
                -0.42822031043639647,
                -0.6276356419804101,
                0.04986947802937619,
                1.0910792891828465,
                1.7537757699151308
            ]
        },
        {
            "positions": [
                -0.6591214971463035,
                -0.4672720891435957,
                -0.4840792124457869,
                0.008121572770460272,
                1.0377987846395529,
                1.8243178680062226
            ]
        },
        {
            "positions": [
                -0.6131469282144151,
                -0.5063238678507949,
                -0.34052278291116367,
                -0.033626332488455646,
                0.9845182800962595,
                1.8948599660973144
            ]
        },
        {
            "positions": [
                -0.5671723592825266,
                -0.5453756465579942,
                -0.19696635337654045,
                -0.07537423774737156,
                0.931237775552966,
                1.9654020641884062
            ]
        },
        {
            "positions": [
                -0.5211977903506383,
                -0.5844274252651933,
                -0.05340992384191723,
                -0.11712214300628748,
                0.8779572710096726,
                2.035944162279498
            ]
        },
        {
            "positions": [
                -0.47522322141874995,
                -0.6234792039723926,
                0.09014650569270599,
                -0.1588700482652034,
                0.8246767664663791,
                2.1064862603705894
            ]
        },
        {
            "positions": [
                -0.4292486524868615,
                -0.662530982679592,
                0.23370293522732966,
                -0.20061795352411943,
                0.7713962619230855,
                2.1770283584616816
            ]
        },
        {
            "positions": [
                -0.38327408355497317,
                -0.7015827613867911,
                0.37725936476195243,
                -0.24236585878303524,
                0.7181157573797922,
                2.247570456552773
            ]
        },
        {
            "positions": [
                -0.3372995146230847,
                -0.7406345400939904,
                0.5208157942965761,
                -0.28411376404195127,
                0.6648352528364986,
                2.318112554643865
            ]
        },
        {
            "positions": [
                -0.2913249456911964,
                -0.7796863188011895,
                0.6643722238311989,
                -0.3258616693008672,
                0.6115547482932052,
                2.3886546527349566
            ]
        },
        {
            "positions": [
                -0.24535037675930793,
                -0.8187380975083889,
                0.8079286533658225,
                -0.3676095745597831,
                0.5582742437499117,
                2.459196750826048
            ]
        },
        {
            "positions": [
                -0.1993758078274196,
                -0.857789876215588,
                0.9514850829004453,
                -0.409357479818699,
                0.5049937392066184,
                2.5297388489171397
            ]
        },
        {
            "positions": [
                -0.15340123889553114,
                -0.8968416549227873,
                1.095041512435069,
                -0.45110538507761494,
                0.4517132346633248,
                2.6002809470082315
            ]
        },
        {
            "positions": [
                -0.1074266699636428,
                -0.9358934336299864,
                1.2385979419696918,
                -0.49285329033653086,
                0.39843273012003144,
                2.670823045099323
            ]
        },
        {
            "positions": [
                -0.06145210103175436,
                -0.9749452123371858,
                1.3821543715043154,
                -0.5346011955954468,
                0.34515222557673786,
                2.741365143190415
            ]
        },
        {
            "positions": [
                -0.01547753209986591,
                -1.013996991044385,
                1.5257108010389382,
                -0.5763491008543626,
                0.2918717210334445,
                2.8119072412815065
            ]
        },
        {
            "positions": [
                0.03049703683202254,
                -1.0530487697515842,
                1.6692672305735619,
                -0.6180970061132787,
                0.23859121649015091,
                2.8824493393725987
            ]
        },
        {
            "positions": [
                0.07647160576391077,
                -1.0921005484587833,
                1.8128236601081846,
                -0.6598449113721945,
                0.18531071194685755,
                2.95299143746369
            ]
        },
        {
            "positions": [
                0.12244617469579923,
                -1.1311523271659827,
                1.9563800896428083,
                -0.7015928166311106,
                0.13203020740356405,
                3.023533535554782
            ]
        }
    ]
}