{
    "goal": {
        "global_pose": {
            "orientation": {
                "w": 0.7047431468963623,
                "x": -0.7094548344612122,
                "y": 0.0024358443915843964,
                "z": -0.0022348060738295317
            },
            "position": {
                "x": 0.6094750761985779,
                "y": 0.3671506643295288,
                "z": 0.19426114857196808
            }
        },
        "name": "move_to_magneteinheit_A"
    },
    "id": "BKPIECE_move_to_magneteinheit_A_91",
    "joint_names": [
        "shoulder_pan_joint",
        "shoulder_lift_joint",
        "elbow_joint",
        "wrist_1_joint",
        "wrist_2_joint",
        "wrist_3_joint"
    ],
    "metrics": {
        "cart_traj_len": 1.993716914961859,
        "distance_elbow_joint": 3.9074911345032257,
        "distance_shoulder_lift_joint": 1.580154233784589,
        "distance_shoulder_pan_joint": 1.2405190045978567,
        "distance_wrist_1_joint": 1.5669525556352182,
        "distance_wrist_2_joint": 2.709182824040549,
        "distance_wrist_3_joint": 4.607334244239589,
        "smoothness": 0.31716935247634215,
        "time": 0.287905132,
        "traj_len": 3.9511560329606104,
        "weighted_distance": 5.394667539798535
    },
    "planner": "BKPIECE",
    "start": {
        "state": {
            "elbow_joint": -1.919643507792019,
            "shoulder_lift_joint": -0.07675430207160344,
            "shoulder_pan_joint": -1.1188671864651873,
            "wrist_1_joint": 0.42560062535961957,
            "wrist_2_joint": 1.5706038300724876,
            "wrist_3_joint": 1.1188968870953055
        }
    },
    "waypoints": [
        {
            "positions": [
                -1.1188671864651873,
                -0.07675430207160344,
                -1.919643507792019,
                0.42560062535961957,
                1.5706038300724876,
                1.1188968870953055
            ]
        },
        {
            "positions": [
                -1.1093244820960841,
                -0.11575288254833942,
                -1.815244305197589,
                0.38375459587206034,
                1.5095947773001879,
                0.9886633595804765
            ]
        },
        {
            "positions": [
                -1.099781777726981,
                -0.1547514630250754,
                -1.710845102603159,
                0.3419085663845012,
                1.4485857245278881,
                0.8584298320656474
            ]
        },
        {
            "positions": [
                -1.0902390733578775,
                -0.19375004350181138,
                -1.606445900008729,
                0.30006253689694196,
                1.3875766717555884,
                0.7281963045508184
            ]
        },
        {
            "positions": [
                -1.0806963689887743,
                -0.23274862397854734,
                -1.502046697414299,
                0.25821650740938273,
                1.3265676189832887,
                0.5979627770359893
            ]
        },
        {
            "positions": [
                -1.071153664619671,
                -0.27174720445528333,
                -1.397647494819869,
                0.21637047792182354,
                1.265558566210989,
                0.46772924952116024
            ]
        },
        {
            "positions": [
                -1.061610960250568,
                -0.3107457849320193,
                -1.293248292225439,
                0.17452444843426435,
                1.2045495134386892,
                0.33749572200633116
            ]
        },
        {
            "positions": [
                -1.0520682558814645,
                -0.34974436540875525,
                -1.1888490896310089,
                0.13267841894670518,
                1.1435404606663895,
                0.20726219449150218
            ]
        },
        {
            "positions": [
                -1.0425255515123613,
                -0.38874294588549124,
                -1.0844498870365789,
                0.09083238945914596,
                1.0825314078940897,
                0.0770286669766731
            ]
        },
        {
            "positions": [
                -1.032982847143258,
                -0.42774152636222723,
                -0.9800506844421488,
                0.048986359971586735,
                1.02152235512179,
                -0.053204860538156096
            ]
        },
        {
            "positions": [
                -1.0234401427741548,
                -0.4667401068389632,
                -0.8756514818477188,
                0.007140330484027513,
                0.9605133023494903,
                -0.18343838805298507
            ]
        },
        {
            "positions": [
                -1.0138974384050514,
                -0.5057386873156993,
                -0.7712522792532888,
                -0.03470569900353171,
                0.8995042495771906,
                -0.31367191556781426
            ]
        },
        {
            "positions": [
                -1.0043547340359482,
                -0.5447372677924351,
                -0.6668530766588587,
                -0.07655172849109088,
                0.8384951968048908,
                -0.44390544308264324
            ]
        },
        {
            "positions": [
                -0.994812029666845,
                -0.583735848269171,
                -0.5624538740644287,
                -0.11839775797864999,
                0.7774861440325911,
                -0.5741389705974722
            ]
        },
        {
            "positions": [
                -0.9852693252977418,
                -0.6227344287459071,
                -0.4580546714699987,
                -0.1602437874662092,
                0.7164770912602914,
                -0.7043724981123012
            ]
        },
        {
            "positions": [
                -0.9757266209286385,
                -0.661733009222643,
                -0.35365546887556865,
                -0.20208981695376843,
                0.6554680384879916,
                -0.8346060256271304
            ]
        },
        {
            "positions": [
                -0.9661839165595352,
                -0.7007315896993791,
                -0.24925626628113862,
                -0.24393584644132765,
                0.5944589857156919,
                -0.9648395531419593
            ]
        },
        {
            "positions": [
                -0.956641212190432,
                -0.739730170176115,
                -0.1448570636867086,
                -0.2857818759288869,
                0.5334499329433922,
                -1.0950730806567885
            ]
        },
        {
            "positions": [
                -0.9470985078213288,
                -0.7787287506528511,
                -0.04045786109227856,
                -0.3276279054164461,
                0.4724408801710924,
                -1.2253066081716177
            ]
        },
        {
            "positions": [
                -0.9375558034522254,
                -0.817727331129587,
                0.06394134150215147,
                -0.3694739349040053,
                0.4114318273987927,
                -1.355540135686447
            ]
        },
        {
            "positions": [
                -0.9280130990831221,
                -0.856725911606323,
                0.1683405440965815,
                -0.41131996439156454,
                0.35042277462649296,
                -1.4857736632012757
            ]
        },
        {
            "positions": [
                -0.9184703947140189,
                -0.8957244920830589,
                0.27273974669101153,
                -0.45316599387912376,
                0.28941372185419323,
                -1.6160071907161049
            ]
        },
        {
            "positions": [
                -0.9089276903449157,
                -0.934723072559795,
                0.37713894928544156,
                -0.495012023366683,
                0.2284046690818935,
                -1.746240718230934
            ]
        },
        {
            "positions": [
                -0.8993849859758124,
                -0.9737216530365309,
                0.4815381518798716,
                -0.5368580528542422,
                0.16739561630959376,
                -1.8764742457457633
            ]
        },
        {
            "positions": [
                -0.8898422816067091,
                -1.012720233513267,
                0.5859373544743016,
                -0.5787040823418013,
                0.10638656353729403,
                -2.006707773260592
            ]
        },
        {
            "positions": [
                -0.8802995772376059,
                -1.0517188139900029,
                0.6903365570687316,
                -0.6205501118293606,
                0.0453775107649943,
                -2.136941300775421
            ]
        },
        {
            "positions": [
                -0.8707568728685027,
                -1.0907173944667388,
                0.7947357596631617,
                -0.6623961413169195,
                -0.015631542007305432,
                -2.26717482829025
            ]
        },
        {
            "positions": [
                -0.8612141684993995,
                -1.1297159749434749,
                0.8991349622575917,
                -0.7042421708044788,
                -0.07664059477960516,
                -2.397408355805079
            ]
        },
        {
            "positions": [
                -0.8516714641302962,
                -1.1687145554202107,
                1.0035341648520217,
                -0.7460882002920379,
                -0.1376496475519049,
                -2.527641883319908
            ]
        },
        {
            "positions": [
                -0.8421287597611928,
                -1.2077131358969468,
                1.1079333674464518,
                -0.7879342297795973,
                -0.19865870032420463,
                -2.657875410834737
            ]
        },
        {
            "positions": [
                -0.8325860553920896,
                -1.2467117163736827,
                1.2123325700408818,
                -0.8297802592671564,
                -0.25966775309650436,
                -2.7881089383495663
            ]
        },
        {
            "positions": [
                -0.8230433510229864,
                -1.2857102968504188,
                1.3167317726353118,
                -0.8716262887547157,
                -0.3206768058688041,
                -2.9183424658643955
            ]
        },
        {
            "positions": [
                -0.8135006466538831,
                -1.3247088773271547,
                1.4211309752297419,
                -0.9134723182422748,
                -0.3816858586411038,
                -3.0485759933792242
            ]
        },
        {
            "positions": [
                -0.8039579422847798,
                -1.3637074578038908,
                1.5255301778241719,
                -0.9553183477298341,
                -0.44269491141340356,
                -3.178809520894054
            ]
        },
        {
            "positions": [
                -0.7944152379156766,
                -1.4027060382806267,
                1.6299293804186017,
                -0.9971643772173934,
                -0.5037039641857033,
                -3.3090430484088826
            ]
        },
        {
            "positions": [
                -0.6635485156230557,
                -1.3663913957698315,
                1.6810605584604026,
                -0.9765661553519355,
                -0.4130075313596522,
                -3.283415290018111
            ]
        },
        {
            "positions": [
                -0.5326817933304349,
                -1.3300767532590365,
                1.7321917365022033,
                -0.9559679334864775,
                -0.32231109853360107,
                -3.2577875316273395
            ]
        },
        {
            "positions": [
                -0.40181507103781405,
                -1.2937621107482413,
                1.7833229145440042,
                -0.9353697116210196,
                -0.2316146657075499,
                -3.232159773236568
            ]
        },
        {
            "positions": [
                -0.27094834874519325,
                -1.2574474682374461,
                1.8344540925858048,
                -0.9147714897555616,
                -0.1409182328814988,
                -3.2065320148457968
            ]
        },
        {
            "positions": [
                -0.14008162645257238,
                -1.221132825726651,
                1.8855852706276057,
                -0.8941732678901037,
                -0.05022180005544763,
                -3.180904256455025
            ]
        },
        {
            "positions": [
                -0.00921490415995152,
                -1.184818183215856,
                1.9367164486694064,
                -0.8735750460246456,
                0.04047463277060348,
                -3.1552764980642536
            ]
        },
        {
            "positions": [
                0.12165181813266938,
                -1.1485035407050608,
                1.9878476267112073,
                -0.8529768241591877,
                0.13117106559665456,
                -3.129648739673482
            ]
        }
    ]
}