{
    "goal": {
        "global_pose": {
            "orientation": {
                "w": 0.7047431468963623,
                "x": -0.7094548344612122,
                "y": 0.0024358443915843964,
                "z": -0.0022348060738295317
            },
            "position": {
                "x": 0.6094750761985779,
                "y": 0.3671506643295288,
                "z": 0.19426114857196808
            }
        },
        "name": "move_to_magneteinheit_A"
    },
    "id": "BKPIECE_move_to_magneteinheit_A_61",
    "joint_names": [
        "shoulder_pan_joint",
        "shoulder_lift_joint",
        "elbow_joint",
        "wrist_1_joint",
        "wrist_2_joint",
        "wrist_3_joint"
    ],
    "metrics": {
        "cart_traj_len": 1.8813560157576876,
        "distance_elbow_joint": 3.906253478059286,
        "distance_shoulder_lift_joint": 0.6979747954942841,
        "distance_shoulder_pan_joint": 1.24192085001771,
        "distance_wrist_1_joint": 1.4771766967773499,
        "distance_wrist_2_joint": 1.69110598424228,
        "distance_wrist_3_joint": 1.0992366953892494,
        "smoothness": 3.9474596232001423e-16,
        "time": 0.20650461999999997,
        "traj_len": 3.1801994434280627,
        "weighted_distance": 3.9345170697022382
    },
    "planner": "BKPIECE",
    "start": {
        "state": {
            "elbow_joint": -1.919643507792019,
            "shoulder_lift_joint": -0.07675430207160344,
            "shoulder_pan_joint": -1.1188671864651873,
            "wrist_1_joint": 0.42560062535961957,
            "wrist_2_joint": 1.5706038300724876,
            "wrist_3_joint": 1.1188968870953055
        }
    },
    "waypoints": [
        {
            "positions": [
                -1.1188671864651873,
                -0.07675430207160344,
                -1.919643507792019,
                0.42560062535961957,
                1.5706038300724876,
                1.1188968870953055
            ]
        },
        {
            "positions": [
                -1.0711009999260446,
                -0.10359948651369129,
                -1.7694029894051235,
                0.48241511369720996,
                1.5055612922170152,
                1.0766185526572576
            ]
        },
        {
            "positions": [
                -1.023334813386902,
                -0.13044467095577914,
                -1.6191624710182277,
                0.5392296020348003,
                1.440518754361543,
                1.0343402182192094
            ]
        },
        {
            "positions": [
                -0.9755686268477592,
                -0.157289855397867,
                -1.4689219526313322,
                0.5960440903723907,
                1.3754762165060708,
                0.9920618837811614
            ]
        },
        {
            "positions": [
                -0.9278024403086166,
                -0.18413503983995483,
                -1.3186814342444366,
                0.6528585787099811,
                1.3104336786505983,
                0.9497835493431133
            ]
        },
        {
            "positions": [
                -0.8800362537694739,
                -0.2109802242820427,
                -1.1684409158575408,
                0.7096730670475715,
                1.245391140795126,
                0.9075052149050653
            ]
        },
        {
            "positions": [
                -0.8322700672303311,
                -0.23782540872413055,
                -1.0182003974706455,
                0.7664875553851618,
                1.1803486029396537,
                0.8652268804670172
            ]
        },
        {
            "positions": [
                -0.7845038806911886,
                -0.2646705931662184,
                -0.8679598790837499,
                0.8233020437227523,
                1.1153060650841815,
                0.8229485460289692
            ]
        },
        {
            "positions": [
                -0.7367376941520458,
                -0.29151577760830627,
                -0.7177193606968542,
                0.8801165320603426,
                1.050263527228709,
                0.7806702115909211
            ]
        },
        {
            "positions": [
                -0.6889715076129032,
                -0.3183609620503941,
                -0.5674788423099586,
                0.9369310203979331,
                0.9852209893732369,
                0.738391877152873
            ]
        },
        {
            "positions": [
                -0.6412053210737605,
                -0.34520614649248194,
                -0.4172383239230628,
                0.9937455087355234,
                0.9201784515177645,
                0.6961135427148251
            ]
        },
        {
            "positions": [
                -0.5934391345346178,
                -0.37205133093456977,
                -0.2669978055361675,
                1.0505599970731136,
                0.8551359136622922,
                0.6538352082767769
            ]
        },
        {
            "positions": [
                -0.545672947995475,
                -0.39889651537665766,
                -0.1167572871492717,
                1.1073744854107042,
                0.7900933758068199,
                0.6115568738387289
            ]
        },
        {
            "positions": [
                -0.4979067614563324,
                -0.4257416998187455,
                0.03348323123762387,
                1.1641889737482944,
                0.7250508379513476,
                0.5692785394006808
            ]
        },
        {
            "positions": [
                -0.45014057491718973,
                -0.4525868842608333,
                0.1837237496245192,
                1.221003462085885,
                0.6600083000958753,
                0.5270002049626328
            ]
        },
        {
            "positions": [
                -0.40237438837804707,
                -0.47943206870292115,
                0.333964268011415,
                1.2778179504234752,
                0.5949657622404031,
                0.4847218705245848
            ]
        },
        {
            "positions": [
                -0.3546082018389043,
                -0.506277253145009,
                0.48420478639831077,
                1.3346324387610657,
                0.5299232243849306,
                0.44244353608653664
            ]
        },
        {
            "positions": [
                -0.30684201529976163,
                -0.5331224375870969,
                0.6344453047852066,
                1.391446927098656,
                0.46488068652945835,
                0.4001652016484887
            ]
        },
        {
            "positions": [
                -0.25907582876061896,
                -0.5599676220291847,
                0.7846858231721019,
                1.4482614154362465,
                0.39983814867398615,
                0.3578868672104406
            ]
        },
        {
            "positions": [
                -0.2113096422214763,
                -0.5868128064712725,
                0.9349263415589972,
                1.5050759037738368,
                0.33479561081851394,
                0.31560853277239254
            ]
        },
        {
            "positions": [
                -0.16354345568233353,
                -0.6136579909133604,
                1.0851668599458935,
                1.5618903921114273,
                0.2697530729630413,
                0.27333019833434447
            ]
        },
        {
            "positions": [
                -0.11577726914319086,
                -0.6405031753554482,
                1.2354073783327888,
                1.6187048804490176,
                0.2047105351075691,
                0.2310518638962964
            ]
        },
        {
            "positions": [
                -0.06801108260404831,
                -0.667348359797536,
                1.3856478967196841,
                1.675519368786608,
                0.1396679972520969,
                0.18877352945824832
            ]
        },
        {
            "positions": [
                -0.020244896064905538,
                -0.6941935442396239,
                1.53588841510658,
                1.7323338571241984,
                0.07462545939662468,
                0.14649519502020036
            ]
        },
        {
            "positions": [
                0.027521290474237237,
                -0.7210387286817119,
                1.6861289334934757,
                1.7891483454617887,
                0.009582921541152256,
                0.1042168605821523
            ]
        },
        {
            "positions": [
                0.07528747701338001,
                -0.7478839131237998,
                1.8363694518803715,
                1.8459628337993792,
                -0.05545961631432017,
                0.06193852614410411
            ]
        },
        {
            "positions": [
                0.12305366355252263,
                -0.7747290975658876,
                1.9866099702672668,
                1.9027773221369695,
                -0.12050215416979229,
                0.019660191706056252
            ]
        }
    ]
}