{
    "goal": {
        "global_pose": {
            "orientation": {
                "w": 0.5084816217422485,
                "x": -0.49083608388900757,
                "y": 0.5182115435600281,
                "z": -0.4816462993621826
            },
            "position": {
                "x": 0.5540239810943604,
                "y": 0.030875300988554955,
                "z": 0.16403168439865112
            }
        },
        "name": "move_to_storage_A"
    },
    "id": "BKPIECE_move_to_storage_A_86",
    "joint_names": [
        "shoulder_pan_joint",
        "shoulder_lift_joint",
        "elbow_joint",
        "wrist_1_joint",
        "wrist_2_joint",
        "wrist_3_joint"
    ],
    "metrics": {
        "cart_traj_len": 0.3532302518856488,
        "distance_elbow_joint": 0.4538361544090761,
        "distance_shoulder_lift_joint": 0.23322258063220835,
        "distance_shoulder_pan_joint": 0.4630000244041026,
        "distance_wrist_1_joint": 0.2617170199993467,
        "distance_wrist_2_joint": 1.094073968267812,
        "distance_wrist_3_joint": 0.11055396901414172,
        "smoothness": 7.771561204992932e-16,
        "time": 0.198521018,
        "traj_len": 1.6175301285375452,
        "weighted_distance": 2.047755513488397
    },
    "planner": "BKPIECE",
    "start": {
        "state": {
            "elbow_joint": 1.9715463870305268,
            "shoulder_lift_joint": -1.1394903361783484,
            "shoulder_pan_joint": 0.12281147578464417,
            "wrist_1_joint": -0.7804599489681411,
            "wrist_2_joint": 0.12958660307563738,
            "wrist_3_joint": -3.1924946282119055
        }
    },
    "waypoints": [
        {
            "positions": [
                0.12281147578464417,
                -1.1394903361783484,
                1.9715463870305268,
                -0.7804599489681411,
                0.12958660307563738,
                -3.1924946282119055
            ]
        },
        {
            "positions": [
                0.05666861515548666,
                -1.1728078476972352,
                2.0363801233746806,
                -0.8178480946823334,
                0.28588288425675334,
                -3.176701204067028
            ]
        },
        {
            "positions": [
                -0.009474245473670859,
                -1.2061253592161223,
                2.1012138597188343,
                -0.8552362403965259,
                0.4421791654378694,
                -3.1609077799221508
            ]
        },
        {
            "positions": [
                -0.07561710610282836,
                -1.2394428707350091,
                2.166047596062988,
                -0.8926243861107183,
                0.5984754466189853,
                -3.1451143557772734
            ]
        },
        {
            "positions": [
                -0.14175996673198588,
                -1.272760382253896,
                2.2308813324071415,
                -0.9300125318249106,
                0.7547717278001014,
                -3.129320931632396
            ]
        },
        {
            "positions": [
                -0.2079028273611434,
                -1.306077893772783,
                2.2957150687512953,
                -0.9674006775391031,
                0.9110680089812174,
                -3.1135275074875186
            ]
        },
        {
            "positions": [
                -0.2740456879903009,
                -1.33939540529167,
                2.360548805095449,
                -1.0047888232532953,
                1.0673642901623333,
                -3.097734083342641
            ]
        },
        {
            "positions": [
                -0.3401885486194584,
                -1.3727129168105567,
                2.425382541439603,
                -1.0421769689674878,
                1.2236605713434494,
                -3.081940659197764
            ]
        }
    ]
}