{
    "goal": {
        "global_pose": {
            "orientation": {
                "w": 0.5084816217422485,
                "x": -0.49083608388900757,
                "y": 0.5182115435600281,
                "z": -0.4816462993621826
            },
            "position": {
                "x": 0.5540239810943604,
                "y": 0.030875300988554955,
                "z": 0.16403168439865112
            }
        },
        "name": "move_to_storage_A"
    },
    "id": "BKPIECE_move_to_storage_A_6",
    "joint_names": [
        "shoulder_pan_joint",
        "shoulder_lift_joint",
        "elbow_joint",
        "wrist_1_joint",
        "wrist_2_joint",
        "wrist_3_joint"
    ],
    "metrics": {
        "cart_traj_len": 0.35351828009893155,
        "distance_elbow_joint": 0.4525351108938347,
        "distance_shoulder_lift_joint": 0.23264361941550193,
        "distance_shoulder_pan_joint": 0.4616225864294603,
        "distance_wrist_1_joint": 0.26111305437400156,
        "distance_wrist_2_joint": 1.1013715627444969,
        "distance_wrist_3_joint": 0.10844989061874033,
        "smoothness": 8.881784197001252e-16,
        "time": 0.17190512600000002,
        "traj_len": 1.617941848298645,
        "weighted_distance": 2.048687439028222
    },
    "planner": "BKPIECE",
    "start": {
        "state": {
            "elbow_joint": 1.9715463870305268,
            "shoulder_lift_joint": -1.1394903361783484,
            "shoulder_pan_joint": 0.12281147578464417,
            "wrist_1_joint": -0.7804599489681411,
            "wrist_2_joint": 0.12958660307563738,
            "wrist_3_joint": -3.1924946282119055
        }
    },
    "waypoints": [
        {
            "positions": [
                0.12281147578464417,
                -1.1394903361783484,
                1.9715463870305268,
                -0.7804599489681411,
                0.12958660307563738,
                -3.1924946282119055
            ]
        },
        {
            "positions": [
                0.05686539200900699,
                -1.1727251389519915,
                2.0361942600153604,
                -0.8177618138787127,
                0.28692539775342263,
                -3.1770017866949427
            ]
        },
        {
            "positions": [
                -0.009080691766630192,
                -1.2059599417256346,
                2.1008421330001936,
                -0.8550636787892844,
                0.44426419243120785,
                -3.16150894517798
            ]
        },
        {
            "positions": [
                -0.07502677554226737,
                -1.2391947444992777,
                2.1654900059850273,
                -0.892365543699856,
                0.6016029871089932,
                -3.146016103661017
            ]
        },
        {
            "positions": [
                -0.14097285931790454,
                -1.272429547272921,
                2.230137878969861,
                -0.9296674086104277,
                0.7589417817867784,
                -3.1305232621440537
            ]
        },
        {
            "positions": [
                -0.20691894309354175,
                -1.3056643500465641,
                2.2947857519546946,
                -0.9669692735209994,
                0.9162805764645637,
                -3.115030420627091
            ]
        },
        {
            "positions": [
                -0.2728650268691789,
                -1.3388991528202072,
                2.359433624939528,
                -1.004271138431571,
                1.073619371142349,
                -3.099537579110128
            ]
        },
        {
            "positions": [
                -0.3388111106448161,
                -1.3721339555938503,
                2.4240814979243615,
                -1.0415730033421426,
                1.2309581658201343,
                -3.084044737593165
            ]
        }
    ]
}