{
    "goal": {
        "global_pose": {
            "orientation": {
                "w": -0.00223480608172531,
                "x": 0.0024358444001904467,
                "y": 0.7094548369677653,
                "z": -0.704743149386269
            },
            "position": {
                "x": 0.6205249238014221,
                "y": -0.6371506643295288,
                "z": 0.19426114857196808
            }
        },
        "name": "move_to_magneteinheit_B"
    },
    "id": "BKPIECE_move_to_magneteinheit_B_60",
    "joint_names": [
        "shoulder_pan_joint",
        "shoulder_lift_joint",
        "elbow_joint",
        "wrist_1_joint",
        "wrist_2_joint",
        "wrist_3_joint"
    ],
    "metrics": {
        "cart_traj_len": 3.5330063752654057,
        "distance_elbow_joint": 4.364409598746315,
        "distance_shoulder_lift_joint": 1.929017869965378,
        "distance_shoulder_pan_joint": 2.3416609130529857,
        "distance_wrist_1_joint": 1.854019615061174,
        "distance_wrist_2_joint": 3.497254349715107,
        "distance_wrist_3_joint": 3.2449302584844593,
        "smoothness": 0.6439139155490362,
        "time": 0.422959199,
        "traj_len": 4.151059214830044,
        "weighted_distance": 5.391885299852976
    },
    "planner": "BKPIECE",
    "start": {
        "state": {
            "elbow_joint": 2.39358713078474,
            "shoulder_lift_joint": -1.908514104345545,
            "shoulder_pan_joint": 0.7066247066606129,
            "wrist_1_joint": -0.4678290933515497,
            "wrist_2_joint": 0.7096259083745334,
            "wrist_3_joint": -3.1358149277392293
        }
    },
    "waypoints": [
        {
            "positions": [
                0.7066247066606129,
                -1.908514104345545,
                2.39358713078474,
                -0.4678290933515497,
                0.7096259083745334,
                -3.1358149277392293
            ]
        },
        {
            "positions": [
                0.6096443530979496,
                -1.8914833898553711,
                2.3964987284531873,
                -0.5717615939845596,
                0.7931307905220155,
                -3.098179186887792
            ]
        },
        {
            "positions": [
                0.5126639995352862,
                -1.8744526753651976,
                2.3994103261216346,
                -0.6756940946175696,
                0.8766356726694975,
                -3.0605434460363545
            ]
        },
        {
            "positions": [
                0.5653387122473237,
                -1.9688056701903665,
                2.390021634431473,
                -0.6101138396718622,
                0.9470287919528916,
                -2.9708393946919056
            ]
        },
        {
            "positions": [
                0.6180134249593612,
                -2.063158665015535,
                2.3806329427413115,
                -0.5445335847261547,
                1.0174219112362857,
                -2.8811353433474562
            ]
        },
        {
            "positions": [
                0.6706881376713987,
                -2.1575116598407043,
                2.3712442510511496,
                -0.4789533297804472,
                1.0878150305196796,
                -2.7914312920030073
            ]
        },
        {
            "positions": [
                0.7233628503834362,
                -2.251864654665873,
                2.361855559360988,
                -0.41337307483473973,
                1.1582081498030738,
                -2.7017272406585584
            ]
        },
        {
            "positions": [
                0.7760375630954737,
                -2.346217649491042,
                2.3524668676708265,
                -0.34779281988903227,
                1.228601269086468,
                -2.612023189314109
            ]
        },
        {
            "positions": [
                0.8287122758075112,
                -2.4405706443162107,
                2.343078175980665,
                -0.2822125649433248,
                1.298994388369862,
                -2.52231913796966
            ]
        },
        {
            "positions": [
                0.8609803492703113,
                -2.40977229982646,
                2.178032699914385,
                -0.28201552746724357,
                1.212371984199665,
                -2.4471612367544293
            ]
        },
        {
            "positions": [
                0.8932484227331114,
                -2.3789739553367086,
                2.0129872238481052,
                -0.28181848999116227,
                1.125749580029468,
                -2.3720033355391985
            ]
        },
        {
            "positions": [
                0.9255164961959116,
                -2.3481756108469574,
                1.847941747781825,
                -0.28162145251508103,
                1.0391271758592708,
                -2.2968454343239677
            ]
        },
        {
            "positions": [
                0.9577845696587117,
                -2.3173772663572065,
                1.6828962717155451,
                -0.2814244150389998,
                0.9525047716890738,
                -2.221687533108737
            ]
        },
        {
            "positions": [
                0.9900526431215119,
                -2.2865789218674557,
                1.5178507956492653,
                -0.28122737756291855,
                0.8658823675188767,
                -2.146529631893506
            ]
        },
        {
            "positions": [
                1.022320716584312,
                -2.2557805773777044,
                1.3528053195829852,
                -0.28103034008683725,
                0.7792599633486796,
                -2.0713717306782753
            ]
        },
        {
            "positions": [
                1.0545887900471123,
                -2.224982232887953,
                1.1877598435167052,
                -0.280833302610756,
                0.6926375591784826,
                -1.9962138294630443
            ]
        },
        {
            "positions": [
                1.0868568635099123,
                -2.1941838883982023,
                1.0227143674504253,
                -0.28063626513467477,
                0.6060151550082855,
                -1.9210559282478132
            ]
        },
        {
            "positions": [
                1.1191249369727125,
                -2.1633855439084515,
                0.8576688913841453,
                -0.28043922765859347,
                0.5193927508380884,
                -1.8458980270325824
            ]
        },
        {
            "positions": [
                1.1513930104355126,
                -2.1325871994187002,
                0.6926234153178654,
                -0.28024219018251223,
                0.43277034666789127,
                -1.7707401258173516
            ]
        },
        {
            "positions": [
                1.1836610838983128,
                -2.101788854928949,
                0.5275779392515851,
                -0.280045152706431,
                0.3461479424976942,
                -1.6955822246021208
            ]
        },
        {
            "positions": [
                1.2159291573611128,
                -2.070990510439198,
                0.3625324631853055,
                -0.27984811523034975,
                0.25952553832749725,
                -1.62042432338689
            ]
        },
        {
            "positions": [
                1.248197230823913,
                -2.0401921659494473,
                0.19748698711902524,
                -0.27965107775426845,
                0.17290313415729996,
                -1.5452664221716592
            ]
        },
        {
            "positions": [
                1.2804653042867131,
                -2.009393821459696,
                0.0324415110527454,
                -0.2794540402781872,
                0.08628072998710312,
                -1.4701085209564284
            ]
        },
        {
            "positions": [
                1.3127333777495134,
                -1.978595476969945,
                -0.13260396501353444,
                -0.27925700280210597,
                -0.000341674183094165,
                -1.3949506197411974
            ]
        },
        {
            "positions": [
                1.3450014512123136,
                -1.947797132480194,
                -0.2976494410798143,
                -0.2790599653260247,
                -0.08696407835329101,
                -1.3197927185259666
            ]
        },
        {
            "positions": [
                1.3772695246751137,
                -1.9169987879904429,
                -0.46269491714609456,
                -0.27886292784994343,
                -0.1735864825234883,
                -1.2446348173107358
            ]
        },
        {
            "positions": [
                1.4095375981379137,
                -1.8862004435006918,
                -0.6277403932123744,
                -0.2786658903738622,
                -0.26020888669368514,
                -1.169476916095505
            ]
        },
        {
            "positions": [
                1.441805671600714,
                -1.8554020990109408,
                -0.7927858692786542,
                -0.27846885289778095,
                -0.3468312908638824,
                -1.094319014880274
            ]
        },
        {
            "positions": [
                1.4740737450635142,
                -1.8246037545211897,
                -0.9578313453449341,
                -0.27827181542169965,
                -0.4334536950340795,
                -1.0191611136650434
            ]
        },
        {
            "positions": [
                1.5063418185263142,
                -1.7938054100314387,
                -1.1228768214112141,
                -0.2780747779456184,
                -0.5200760992042766,
                -0.9440032124498124
            ]
        },
        {
            "positions": [
                1.5983450463435191,
                -1.81743622899534,
                -1.2381629492016173,
                -0.23238129916830716,
                -0.5286807786688387,
                -0.8589846723930822
            ]
        },
        {
            "positions": [
                1.6903482741607243,
                -1.8410670479592415,
                -1.3534490769920204,
                -0.1866878203909959,
                -0.5372854581334008,
                -0.7739661323363518
            ]
        },
        {
            "positions": [
                1.7823515019779292,
                -1.864697866923143,
                -1.4687352047824236,
                -0.14099434161368465,
                -0.5458901375979628,
                -0.6889475922796215
            ]
        },
        {
            "positions": [
                1.8743547297951342,
                -1.8883286858870445,
                -1.5840213325728267,
                -0.0953008628363734,
                -0.5544948170625249,
                -0.6039290522228913
            ]
        },
        {
            "positions": [
                1.9663579576123393,
                -1.911959504850946,
                -1.6993074603632299,
                -0.04960738405906215,
                -0.563099496527087,
                -0.5189105121661609
            ]
        },
        {
            "positions": [
                2.0583611854295443,
                -1.9355903238148473,
                -1.814593588153633,
                -0.003913905281750896,
                -0.5717041759916491,
                -0.43389197210943065
            ]
        },
        {
            "positions": [
                2.1428144201976758,
                -1.990117012865429,
                -1.7834661891594124,
                0.06839227396369013,
                -0.5258840786938354,
                -0.4462181368055084
            ]
        },
        {
            "positions": [
                2.227267654965807,
                -2.044643701916011,
                -1.7523387901651917,
                0.14069845320913116,
                -0.4800639813960216,
                -0.45854430150158626
            ]
        },
        {
            "positions": [
                2.3117208897339383,
                -2.0991703909665924,
                -1.721211391170971,
                0.21300463245457218,
                -0.4342438840982078,
                -0.47087046619766404
            ]
        },
        {
            "positions": [
                2.36607902402625,
                -2.151797206135933,
                -1.7187588235315328,
                0.3169562210743,
                -0.31879652977782136,
                -0.40843521077557654
            ]
        },
        {
            "positions": [
                2.4204371583185615,
                -2.204424021305273,
                -1.7163062558920945,
                0.42090780969402786,
                -0.20334917545743486,
                -0.34599995535348904
            ]
        },
        {
            "positions": [
                2.474795292610873,
                -2.2570508364746136,
                -1.7138536882526565,
                0.5248593983137557,
                -0.08790182113704836,
                -0.28356469993140154
            ]
        },
        {
            "positions": [
                2.529153426903185,
                -2.309677651643954,
                -1.7114011206132183,
                0.6288109869334835,
                0.027545533183338078,
                -0.2211294445093141
            ]
        },
        {
            "positions": [
                2.5835115611954964,
                -2.362304466813294,
                -1.70894855297378,
                0.7327625755532114,
                0.14299288750372463,
                -0.1586941890872266
            ]
        },
        {
            "positions": [
                2.637869695487808,
                -2.4149312819826347,
                -1.7064959853343418,
                0.8367141641729391,
                0.25844024182411107,
                -0.09625893366513912
            ]
        },
        {
            "positions": [
                2.649116950475377,
                -2.4454049648816594,
                -1.6882535421769116,
                0.9035873416752621,
                0.36196168559536457,
                -0.030550295548188056
            ]
        },
        {
            "positions": [
                2.6603642054629453,
                -2.475878647780684,
                -1.6700110990194814,
                0.9704605191775851,
                0.4654831293666181,
                0.03515834256876301
            ]
        }
    ]
}