{
    "goal": {
        "global_pose": {
            "orientation": {
                "w": 0.5084816217422485,
                "x": -0.49083608388900757,
                "y": 0.5182115435600281,
                "z": -0.4816462993621826
            },
            "position": {
                "x": 0.5540239810943604,
                "y": 0.030875300988554955,
                "z": 0.16403168439865112
            }
        },
        "name": "move_to_storage_A"
    },
    "id": "BKPIECE_move_to_storage_A_117",
    "joint_names": [
        "shoulder_pan_joint",
        "shoulder_lift_joint",
        "elbow_joint",
        "wrist_1_joint",
        "wrist_2_joint",
        "wrist_3_joint"
    ],
    "metrics": {
        "cart_traj_len": 0.35282621456389146,
        "distance_elbow_joint": 0.4509354053811041,
        "distance_shoulder_lift_joint": 0.2356282088839292,
        "distance_shoulder_pan_joint": 0.45837837679031873,
        "distance_wrist_1_joint": 0.24329868888063355,
        "distance_wrist_2_joint": 1.1121226603876129,
        "distance_wrist_3_joint": 0.09692355387772311,
        "smoothness": 4.440892098500626e-16,
        "time": 0.143780717,
        "traj_len": 1.6116100316768078,
        "weighted_distance": 2.0363092474437705
    },
    "planner": "BKPIECE",
    "start": {
        "state": {
            "elbow_joint": 1.9715463870305268,
            "shoulder_lift_joint": -1.1394903361783484,
            "shoulder_pan_joint": 0.12281147578464417,
            "wrist_1_joint": -0.7804599489681411,
            "wrist_2_joint": 0.12958660307563738,
            "wrist_3_joint": -3.1924946282119055
        }
    },
    "waypoints": [
        {
            "positions": [
                0.12281147578464417,
                -1.1394903361783484,
                1.9715463870305268,
                -0.7804599489681411,
                0.12958660307563738,
                -3.1924946282119055
            ]
        },
        {
            "positions": [
                0.057328850528884354,
                -1.1731515088760525,
                2.035965730656399,
                -0.8152169045225173,
                0.2884612688452963,
                -3.1786484062293736
            ]
        },
        {
            "positions": [
                -0.008153774726875465,
                -1.2068126815737568,
                2.1003850742822707,
                -0.8499738600768936,
                0.44733593461495536,
                -3.1648021842468417
            ]
        },
        {
            "positions": [
                -0.07363639998263528,
                -1.2404738542714608,
                2.164804417908143,
                -0.8847308156312698,
                0.6062106003846143,
                -3.1509559622643097
            ]
        },
        {
            "positions": [
                -0.1391190252383951,
                -1.2741350269691651,
                2.2292237615340147,
                -0.919487771185646,
                0.7650852661542733,
                -3.1371097402817782
            ]
        },
        {
            "positions": [
                -0.2046016504941549,
                -1.3077961996668692,
                2.293643105159887,
                -0.9542447267400223,
                0.9239599319239323,
                -3.1232635182992463
            ]
        },
        {
            "positions": [
                -0.2700842757499147,
                -1.3414573723645735,
                2.3580624487857587,
                -0.9890016822943983,
                1.0828345976935911,
                -3.1094172963167144
            ]
        },
        {
            "positions": [
                -0.33556690100567454,
                -1.3751185450622776,
                2.422481792411631,
                -1.0237586378487746,
                1.2417092634632503,
                -3.0955710743341824
            ]
        }
    ]
}