{
    "goal": {
        "global_pose": {
            "orientation": {
                "w": 0.7031023502349854,
                "x": -0.7110244035720825,
                "y": 0.007748599164187908,
                "z": 0.005598929710686207
            },
            "position": {
                "x": 0.11585023208521307,
                "y": 0.44412534475326537,
                "z": 0.3711530566215515
            }
        },
        "name": "move_to_auspresseinheit_A"
    },
    "id": "EST_move_to_auspresseinheit_A_138",
    "joint_names": [
        "shoulder_pan_joint",
        "shoulder_lift_joint",
        "elbow_joint",
        "wrist_1_joint",
        "wrist_2_joint",
        "wrist_3_joint"
    ],
    "metrics": {
        "cart_traj_len": 1.4621199971958208,
        "distance_elbow_joint": 1.8191501834917942,
        "distance_shoulder_lift_joint": 0.6749899761645062,
        "distance_shoulder_pan_joint": 1.1088836321694957,
        "distance_wrist_1_joint": 2.1163634541999574,
        "distance_wrist_2_joint": 0.5197293719168922,
        "distance_wrist_3_joint": 2.9830000976394175,
        "smoothness": 1.1950794428601694,
        "time": 0.238551139,
        "traj_len": 3.0367938217109938,
        "weighted_distance": 4.221872776029347
    },
    "planner": "EST",
    "start": {
        "state": {
            "elbow_joint": 2.422574709923281,
            "shoulder_lift_joint": -1.3736533754116391,
            "shoulder_pan_joint": -0.33786336945926293,
            "wrist_1_joint": -1.0288603412921917,
            "wrist_2_joint": 1.2330224858903978,
            "wrist_3_joint": -3.094022268022082
        }
    },
    "waypoints": [
        {
            "positions": [
                -0.33786336945926293,
                -1.3736533754116391,
                2.422574709923281,
                -1.0288603412921917,
                1.2330224858903978,
                -3.094022268022082
            ]
        },
        {
            "positions": [
                -0.34076930528915583,
                -1.3975504299907957,
                2.338467212359115,
                -0.9122964504269533,
                1.219216113658442,
                -2.9609469249518225
            ]
        },
        {
            "positions": [
                -0.34367524111904874,
                -1.4214474845699523,
                2.254359714794949,
                -0.7957325595617148,
                1.2054097414264864,
                -2.8278715818815634
            ]
        },
        {
            "positions": [
                -0.34658117694894164,
                -1.4453445391491089,
                2.1702522172307828,
                -0.6791686686964764,
                1.1916033691945307,
                -2.694796238811304
            ]
        },
        {
            "positions": [
                -0.34948711277883454,
                -1.4692415937282657,
                2.086144719666617,
                -0.5626047778312379,
                1.177796996962575,
                -2.5617208957410447
            ]
        },
        {
            "positions": [
                -0.35239304860872744,
                -1.4931386483074223,
                2.0020372221024507,
                -0.4460408869659994,
                1.1639906247306193,
                -2.428645552670785
            ]
        },
        {
            "positions": [
                -0.3552989844386203,
                -1.5170357028865789,
                1.917929724538285,
                -0.329476996100761,
                1.1501842524986636,
                -2.295570209600526
            ]
        },
        {
            "positions": [
                -0.3582049202685132,
                -1.5409327574657354,
                1.8338222269741187,
                -0.21291310523552254,
                1.1363778802667077,
                -2.1624948665302663
            ]
        },
        {
            "positions": [
                -0.3611108560984061,
                -1.5648298120448922,
                1.7497147294099527,
                -0.09634921437028399,
                1.122571508034752,
                -2.0294195234600068
            ]
        },
        {
            "positions": [
                -0.364016791928299,
                -1.5887268666240488,
                1.6656072318457866,
                0.020214676494954453,
                1.1087651358027963,
                -1.8963441803897476
            ]
        },
        {
            "positions": [
                -0.3669227277581919,
                -1.6126239212032054,
                1.5814997342816206,
                0.1367785673601929,
                1.0949587635708407,
                -1.7632688373194882
            ]
        },
        {
            "positions": [
                -0.3698286635880848,
                -1.636520975782362,
                1.4973922367174546,
                0.25334245822543133,
                1.081152391338885,
                -1.6301934942492289
            ]
        },
        {
            "positions": [
                -0.3034983679334723,
                -1.6675969084170086,
                1.5666434191081706,
                0.1871885267252862,
                1.0607458679578354,
                -1.7479197226706544
            ]
        },
        {
            "positions": [
                -0.23716807227885983,
                -1.698672841051655,
                1.6358946014988867,
                0.12103459522514101,
                1.0403393445767861,
                -1.8656459510920798
            ]
        },
        {
            "positions": [
                -0.17083777662424735,
                -1.7297487736863015,
                1.7051457838896025,
                0.054880663724995865,
                1.0199328211957366,
                -1.983372179513505
            ]
        },
        {
            "positions": [
                -0.10450748096963486,
                -1.7608247063209481,
                1.7743969662803185,
                -0.01127326777514931,
                0.9995262978146872,
                -2.1010984079349306
            ]
        },
        {
            "positions": [
                -0.038177185315022344,
                -1.7919006389555947,
                1.8436481486710345,
                -0.07742719927529446,
                0.9791197744336377,
                -2.2188246363563557
            ]
        },
        {
            "positions": [
                0.028153110339590115,
                -1.822976571590241,
                1.9128993310617504,
                -0.1435811307754396,
                0.9587132510525883,
                -2.3365508647777813
            ]
        },
        {
            "positions": [
                0.09448340599420263,
                -1.8540525042248877,
                1.9821505134524664,
                -0.20973506227558475,
                0.9383067276715389,
                -2.454277093199207
            ]
        },
        {
            "positions": [
                0.1608137016488151,
                -1.8851284368595342,
                2.0514016958431824,
                -0.27588899377572995,
                0.9179002042904894,
                -2.5720033216206324
            ]
        },
        {
            "positions": [
                0.22714399730342766,
                -1.9162043694941806,
                2.1206528782338983,
                -0.3420429252758751,
                0.8974936809094399,
                -2.689729550042058
            ]
        },
        {
            "positions": [
                0.2934742929580401,
                -1.9472803021288272,
                2.189904060624614,
                -0.40819685677602024,
                0.8770871575283905,
                -2.807455778463483
            ]
        },
        {
            "positions": [
                0.3598045886126525,
                -1.9783562347634738,
                2.2591552430153303,
                -0.4743507882761654,
                0.8566806341473411,
                -2.9251820068849086
            ]
        },
        {
            "positions": [
                0.4582419374120732,
                -1.9564085755057277,
                2.295042857912066,
                -0.4542548860816636,
                0.8092864593110227,
                -2.973353636367408
            ]
        },
        {
            "positions": [
                0.556679286211494,
                -1.9344609162479816,
                2.330930472808802,
                -0.43415898388716173,
                0.7618922844747044,
                -3.0215252658499074
            ]
        },
        {
            "positions": [
                0.6551166350109147,
                -1.9125132569902354,
                2.3668180877055374,
                -0.41406308169265993,
                0.714498109638386,
                -3.069696895332407
            ]
        },
        {
            "positions": [
                0.7070896744525891,
                -1.9080691179508023,
                2.3913599470034224,
                -0.46024278328989204,
                0.7132931139735056,
                -3.149364818115793
            ]
        }
    ]
}