{
    "goal": {
        "global_pose": {
            "orientation": {
                "w": 0.7047431468963623,
                "x": -0.7094548344612122,
                "y": 0.0024358443915843964,
                "z": -0.0022348060738295317
            },
            "position": {
                "x": 0.6094750761985779,
                "y": 0.3671506643295288,
                "z": 0.19426114857196808
            }
        },
        "name": "move_to_magneteinheit_A"
    },
    "id": "EST_move_to_magneteinheit_A_128",
    "joint_names": [
        "shoulder_pan_joint",
        "shoulder_lift_joint",
        "elbow_joint",
        "wrist_1_joint",
        "wrist_2_joint",
        "wrist_3_joint"
    ],
    "metrics": {
        "cart_traj_len": 1.8662619609286035,
        "distance_elbow_joint": 3.939772831682264,
        "distance_shoulder_lift_joint": 0.7130676434414797,
        "distance_shoulder_pan_joint": 1.2421935328612574,
        "distance_wrist_1_joint": 1.5988230845553837,
        "distance_wrist_2_joint": 1.6948818376296733,
        "distance_wrist_3_joint": 1.2377116041862504,
        "smoothness": 5.709718421780688e-16,
        "time": 0.049102237,
        "traj_len": 3.2290014763632904,
        "weighted_distance": 4.024373077252388
    },
    "planner": "EST",
    "start": {
        "state": {
            "elbow_joint": -1.919643507792019,
            "shoulder_lift_joint": -0.07675430207160344,
            "shoulder_pan_joint": -1.1188671864651873,
            "wrist_1_joint": 0.42560062535961957,
            "wrist_2_joint": 1.5706038300724876,
            "wrist_3_joint": 1.1188968870953055
        }
    },
    "waypoints": [
        {
            "positions": [
                -1.1188671864651873,
                -0.07675430207160344,
                -1.919643507792019,
                0.42560062535961957,
                1.5706038300724876,
                1.1188968870953055
            ]
        },
        {
            "positions": [
                -1.072860018581437,
                -0.10316421479165824,
                -1.7737259955074909,
                0.4848162951579671,
                1.507830428678796,
                1.0730557165698889
            ]
        },
        {
            "positions": [
                -1.0268528506976868,
                -0.12957412751171304,
                -1.6278084832229625,
                0.5440319649563147,
                1.4450570272851044,
                1.0272145460444722
            ]
        },
        {
            "positions": [
                -0.9808456828139365,
                -0.15598404023176787,
                -1.4818909709384342,
                0.6032476347546623,
                1.3822836258914128,
                0.9813733755190555
            ]
        },
        {
            "positions": [
                -0.9348385149301862,
                -0.18239395295182265,
                -1.335973458653906,
                0.6624633045530097,
                1.3195102244977213,
                0.9355322049936389
            ]
        },
        {
            "positions": [
                -0.888831347046436,
                -0.20880386567187748,
                -1.1900559463693776,
                0.7216789743513572,
                1.2567368231040297,
                0.8896910344682222
            ]
        },
        {
            "positions": [
                -0.8428241791626857,
                -0.23521377839193228,
                -1.0441384340848494,
                0.7808946441497049,
                1.193963421710338,
                0.8438498639428055
            ]
        },
        {
            "positions": [
                -0.7968170112789354,
                -0.2616236911119871,
                -0.898220921800321,
                0.8401103139480524,
                1.1311900203166463,
                0.7980086934173888
            ]
        },
        {
            "positions": [
                -0.7508098433951851,
                -0.2880336038320419,
                -0.7523034095157928,
                0.8993259837463998,
                1.0684166189229547,
                0.7521675228919722
            ]
        },
        {
            "positions": [
                -0.7048026755114349,
                -0.3144435165520967,
                -0.6063858972312646,
                0.9585416535447475,
                1.0056432175292631,
                0.7063263523665555
            ]
        },
        {
            "positions": [
                -0.6587955076276846,
                -0.3408534292721515,
                -0.46046838494673614,
                1.017757323343095,
                0.9428698161355716,
                0.6604851818411388
            ]
        },
        {
            "positions": [
                -0.6127883397439343,
                -0.3672633419922063,
                -0.31455087266220794,
                1.0769729931414425,
                0.88009641474188,
                0.6146440113157221
            ]
        },
        {
            "positions": [
                -0.5667811718601841,
                -0.3936732547122611,
                -0.16863336037767973,
                1.1361886629397902,
                0.8173230133481885,
                0.5688028407903054
            ]
        },
        {
            "positions": [
                -0.5207740039764338,
                -0.4200831674323159,
                -0.022715848093151303,
                1.1954043327381376,
                0.7545496119544968,
                0.5229616702648887
            ]
        },
        {
            "positions": [
                -0.47476683609268355,
                -0.4464930801523707,
                0.12320166419137712,
                1.254620002536485,
                0.6917762105608052,
                0.477120499739472
            ]
        },
        {
            "positions": [
                -0.4287596682089332,
                -0.47290299287242554,
                0.26911917647590555,
                1.3138356723348328,
                0.6290028091671135,
                0.4312793292140553
            ]
        },
        {
            "positions": [
                -0.38275250032518293,
                -0.4993129055924803,
                0.41503668876043354,
                1.3730513421331803,
                0.566229407773422,
                0.38543815868863873
            ]
        },
        {
            "positions": [
                -0.3367453324414327,
                -0.5257228183125351,
                0.560954201044962,
                1.432267011931528,
                0.5034560063797304,
                0.3395969881632219
            ]
        },
        {
            "positions": [
                -0.2907381645576824,
                -0.5521327310325899,
                0.70687171332949,
                1.4914826817298754,
                0.44068260498603884,
                0.29375581763780534
            ]
        },
        {
            "positions": [
                -0.24473099667393206,
                -0.5785426437526449,
                0.8527892256140188,
                1.5506983515282229,
                0.37790920359234703,
                0.24791464711238864
            ]
        },
        {
            "positions": [
                -0.1987238287901819,
                -0.6049525564726996,
                0.9987067378985468,
                1.6099140213265704,
                0.31513580219865567,
                0.20207347658697195
            ]
        },
        {
            "positions": [
                -0.15271666090643155,
                -0.6313624691927544,
                1.1446242501830752,
                1.669129691124918,
                0.25236240080496386,
                0.15623230606155525
            ]
        },
        {
            "positions": [
                -0.10670949302268129,
                -0.6577723819128092,
                1.2905417624676032,
                1.7283453609232655,
                0.1895889994112725,
                0.11039113553613866
            ]
        },
        {
            "positions": [
                -0.060702325138930924,
                -0.684182294632864,
                1.4364592747521316,
                1.7875610307216132,
                0.1268155980175807,
                0.06454996501072197
            ]
        },
        {
            "positions": [
                -0.01469515725518078,
                -0.7105922073529187,
                1.5823767870366596,
                1.8467767005199607,
                0.06404219662388932,
                0.01870879448530527
            ]
        },
        {
            "positions": [
                0.031312010628569587,
                -0.7370021200729735,
                1.7282942993211885,
                1.9059923703183081,
                0.001268795230197517,
                -0.027132376040111428
            ]
        },
        {
            "positions": [
                0.07731917851231973,
                -0.7634120327930283,
                1.8742118116057165,
                1.9652080401166556,
                -0.06150460616349407,
                -0.07297354656552812
            ]
        },
        {
            "positions": [
                0.12332634639607015,
                -0.7898219455130832,
                2.0201293238902447,
                2.0244237099150033,
                -0.1242780075571856,
                -0.11881471709094475
            ]
        }
    ]
}