{
    "goal": {
        "global_pose": {
            "orientation": {
                "w": -0.00223480608172531,
                "x": 0.0024358444001904467,
                "y": 0.7094548369677653,
                "z": -0.704743149386269
            },
            "position": {
                "x": 0.6205249238014221,
                "y": -0.6371506643295288,
                "z": 0.19426114857196808
            }
        },
        "name": "move_to_magneteinheit_B"
    },
    "id": "EST_move_to_magneteinheit_B_122",
    "joint_names": [
        "shoulder_pan_joint",
        "shoulder_lift_joint",
        "elbow_joint",
        "wrist_1_joint",
        "wrist_2_joint",
        "wrist_3_joint"
    ],
    "metrics": {
        "cart_traj_len": 1.454131765938904,
        "distance_elbow_joint": 0.7283617080224665,
        "distance_shoulder_lift_joint": 1.247568385542467,
        "distance_shoulder_pan_joint": 1.6220280909918894,
        "distance_wrist_1_joint": 2.6132739367957596,
        "distance_wrist_2_joint": 2.933902451070867,
        "distance_wrist_3_joint": 3.1412918873073594,
        "smoothness": 1.6148698516042368e-16,
        "time": 0.160475291,
        "traj_len": 3.5051999172273773,
        "weighted_distance": 4.910823415906151
    },
    "planner": "EST",
    "start": {
        "state": {
            "elbow_joint": 2.39358713078474,
            "shoulder_lift_joint": -1.908514104345545,
            "shoulder_pan_joint": 0.7066247066606129,
            "wrist_1_joint": -0.4678290933515497,
            "wrist_2_joint": 0.7096259083745334,
            "wrist_3_joint": -3.1358149277392293
        }
    },
    "waypoints": [
        {
            "positions": [
                0.7066247066606129,
                -1.908514104345545,
                2.39358713078474,
                -0.4678290933515497,
                0.7096259083745334,
                -3.1358149277392293
            ]
        },
        {
            "positions": [
                0.6559363288171164,
                -1.8695275922973429,
                2.370825827409038,
                -0.38616428282668225,
                0.6179414567785688,
                -3.0376495562608743
            ]
        },
        {
            "positions": [
                0.6052479509736198,
                -1.8305410802491406,
                2.3480645240333358,
                -0.30449947230181473,
                0.5262570051826042,
                -2.9394841847825193
            ]
        },
        {
            "positions": [
                0.5545595731301234,
                -1.7915545682009386,
                2.325303220657634,
                -0.22283466177694725,
                0.43457255358663965,
                -2.8413188133041642
            ]
        },
        {
            "positions": [
                0.5038711952866268,
                -1.7525680561527366,
                2.302541917281932,
                -0.14116985125207976,
                0.34288810199067504,
                -2.7431534418258092
            ]
        },
        {
            "positions": [
                0.4531828174431302,
                -1.7135815441045343,
                2.2797806139062295,
                -0.059505040727212244,
                0.25120365039471043,
                -2.6449880703474546
            ]
        },
        {
            "positions": [
                0.4024944395996337,
                -1.6745950320563323,
                2.2570193105305276,
                0.022159769797655215,
                0.15951919879874588,
                -2.546822698869099
            ]
        },
        {
            "positions": [
                0.35180606175613716,
                -1.6356085200081303,
                2.2342580071548257,
                0.10382458032252267,
                0.06783474720278126,
                -2.4486573273907446
            ]
        },
        {
            "positions": [
                0.3011176839126406,
                -1.5966220079599283,
                2.2114967037791233,
                0.1854893908473902,
                -0.023849704393183346,
                -2.3504919559123896
            ]
        },
        {
            "positions": [
                0.25042930606914404,
                -1.557635495911726,
                2.1887354004034214,
                0.2671542013722577,
                -0.11553415598914796,
                -2.2523265844340346
            ]
        },
        {
            "positions": [
                0.19974092822564748,
                -1.518648983863524,
                2.1659740970277195,
                0.3488190118971252,
                -0.20721860758511257,
                -2.1541612129556795
            ]
        },
        {
            "positions": [
                0.14905255038215093,
                -1.4796624718153217,
                2.143212793652017,
                0.4304838224219926,
                -0.2989030591810772,
                -2.0559958414773245
            ]
        },
        {
            "positions": [
                0.09836417253865448,
                -1.4406759597671197,
                2.120451490276315,
                0.5121486329468601,
                -0.3905875107770417,
                -1.9578304699989695
            ]
        },
        {
            "positions": [
                0.047675794695157925,
                -1.4016894477189177,
                2.0976901869006133,
                0.5938134434717277,
                -0.4822719623730064,
                -1.8596650985206145
            ]
        },
        {
            "positions": [
                -0.0030125831483386323,
                -1.3627029356707157,
                2.074928883524911,
                0.6754782539965951,
                -0.5739564139689709,
                -1.7614997270422597
            ]
        },
        {
            "positions": [
                -0.05370096099183519,
                -1.3237164236225136,
                2.052167580149209,
                0.7571430645214627,
                -0.6656408655649356,
                -1.6633343555639046
            ]
        },
        {
            "positions": [
                -0.10438933883533175,
                -1.2847299115743114,
                2.029406276773507,
                0.8388078750463301,
                -0.7573253171609001,
                -1.5651689840855496
            ]
        },
        {
            "positions": [
                -0.1550777166788283,
                -1.2457433995261091,
                2.0066449733978047,
                0.9204726855711975,
                -0.8490097687568646,
                -1.4670036126071946
            ]
        },
        {
            "positions": [
                -0.20576609452232486,
                -1.206756887477907,
                1.9838836700221028,
                1.0021374960960652,
                -0.9406942203528293,
                -1.3688382411288396
            ]
        },
        {
            "positions": [
                -0.2564544723658214,
                -1.167770375429705,
                1.9611223666464006,
                1.0838023066209326,
                -1.032378671948794,
                -1.2706728696504848
            ]
        },
        {
            "positions": [
                -0.307142850209318,
                -1.128783863381503,
                1.9383610632706985,
                1.1654671171458002,
                -1.1240631235447585,
                -1.1725074981721297
            ]
        },
        {
            "positions": [
                -0.35783122805281453,
                -1.089797351333301,
                1.9155997598949965,
                1.2471319276706676,
                -1.215747575140723,
                -1.0743421266937747
            ]
        },
        {
            "positions": [
                -0.4085196058963111,
                -1.0508108392850988,
                1.8928384565192944,
                1.328796738195535,
                -1.307432026736688,
                -0.9761767552154197
            ]
        },
        {
            "positions": [
                -0.45920798373980765,
                -1.0118243272368967,
                1.8700771531435922,
                1.4104615487204026,
                -1.3991164783326524,
                -0.8780113837370647
            ]
        },
        {
            "positions": [
                -0.509896361583304,
                -0.9728378151886946,
                1.8473158497678903,
                1.49212635924527,
                -1.490800929928617,
                -0.7798460122587096
            ]
        },
        {
            "positions": [
                -0.5605847394268005,
                -0.9338513031404925,
                1.8245545463921882,
                1.5737911697701374,
                -1.5824853815245814,
                -0.6816806407803546
            ]
        },
        {
            "positions": [
                -0.6112731172702971,
                -0.8948647910922904,
                1.801793243016486,
                1.655455980295005,
                -1.6741698331205463,
                -0.5835152693019996
            ]
        },
        {
            "positions": [
                -0.6619614951137937,
                -0.8558782790440884,
                1.779031939640784,
                1.7371207908198727,
                -1.7658542847165108,
                -0.485349897823645
            ]
        },
        {
            "positions": [
                -0.7126498729572902,
                -0.8168917669958862,
                1.756270636265082,
                1.8187856013447399,
                -1.8575387363124753,
                -0.38718452634529
            ]
        },
        {
            "positions": [
                -0.7633382508007868,
                -0.7779052549476841,
                1.7335093328893798,
                1.9004504118696075,
                -1.9492231879084398,
                -0.28901915486693497
            ]
        },
        {
            "positions": [
                -0.8140266286442833,
                -0.7389187428994821,
                1.7107480295136779,
                1.9821152223944751,
                -2.040907639504405,
                -0.19085378338857995
            ]
        },
        {
            "positions": [
                -0.8647150064877799,
                -0.6999322308512799,
                1.6879867261379755,
                2.0637800329193423,
                -2.1325920911003693,
                -0.09268841191022492
            ]
        },
        {
            "positions": [
                -0.9154033843312763,
                -0.6609457188030778,
                1.6652254227622736,
                2.14544484344421,
                -2.224276542696334,
                0.0054769595681302425
            ]
        }
    ]
}