{
    "goal": {
        "global_pose": {
            "orientation": {
                "w": -0.00223480608172531,
                "x": 0.0024358444001904467,
                "y": 0.7094548369677653,
                "z": -0.704743149386269
            },
            "position": {
                "x": 0.6205249238014221,
                "y": -0.6371506643295288,
                "z": 0.19426114857196808
            }
        },
        "name": "move_to_magneteinheit_B"
    },
    "id": "EST_move_to_magneteinheit_B_131",
    "joint_names": [
        "shoulder_pan_joint",
        "shoulder_lift_joint",
        "elbow_joint",
        "wrist_1_joint",
        "wrist_2_joint",
        "wrist_3_joint"
    ],
    "metrics": {
        "cart_traj_len": 3.740928636858687,
        "distance_elbow_joint": 4.055123974172863,
        "distance_shoulder_lift_joint": 1.4608645164744156,
        "distance_shoulder_pan_joint": 2.552167241863795,
        "distance_wrist_1_joint": 1.9714830037105275,
        "distance_wrist_2_joint": 1.4140983698164564,
        "distance_wrist_3_joint": 6.278987449725227,
        "smoothness": 0.23214579219178558,
        "time": 0.944409948,
        "traj_len": 4.211024169458456,
        "weighted_distance": 5.803126814807748
    },
    "planner": "EST",
    "start": {
        "state": {
            "elbow_joint": 2.39358713078474,
            "shoulder_lift_joint": -1.908514104345545,
            "shoulder_pan_joint": 0.7066247066606129,
            "wrist_1_joint": -0.4678290933515497,
            "wrist_2_joint": 0.7096259083745334,
            "wrist_3_joint": -3.1358149277392293
        }
    },
    "waypoints": [
        {
            "positions": [
                0.7066247066606129,
                -1.908514104345545,
                2.39358713078474,
                -0.4678290933515497,
                0.7096259083745334,
                -3.1358149277392293
            ]
        },
        {
            "positions": [
                0.607309394154128,
                -1.9293990161859615,
                2.3976564564182876,
                -0.4785911076859318,
                0.7618640458886892,
                -2.9942544982760255
            ]
        },
        {
            "positions": [
                0.5628829466167985,
                -1.9522463673342982,
                2.3391595497979063,
                -0.5383021214151282,
                0.782792430934194,
                -2.8490840533759987
            ]
        },
        {
            "positions": [
                0.518456499079469,
                -1.9750937184826352,
                2.2806626431775254,
                -0.5980131351443245,
                0.803720815979699,
                -2.7039136084759723
            ]
        },
        {
            "positions": [
                0.47403005154213945,
                -1.9979410696309718,
                2.222165736557144,
                -0.6577241488735209,
                0.8246492010252039,
                -2.5587431635759454
            ]
        },
        {
            "positions": [
                0.5406548342256902,
                -1.9697735217506904,
                2.0655382752273224,
                -0.6839955667431185,
                0.7901866597502669,
                -2.482959623829667
            ]
        },
        {
            "positions": [
                0.6072796169092409,
                -1.941605973870409,
                1.9089108138975004,
                -0.710266984612716,
                0.7557241184753298,
                -2.4071760840833885
            ]
        },
        {
            "positions": [
                0.6739043995927916,
                -1.9134384259901276,
                1.7522833525676786,
                -0.7365384024823134,
                0.7212615772003927,
                -2.33139254433711
            ]
        },
        {
            "positions": [
                0.7405291822763422,
                -1.8852708781098462,
                1.5956558912378567,
                -0.7628098203519109,
                0.6867990359254558,
                -2.255609004590832
            ]
        },
        {
            "positions": [
                0.8071539649598929,
                -1.8571033302295645,
                1.439028429908035,
                -0.7890812382215084,
                0.6523364946505188,
                -2.1798254648445536
            ]
        },
        {
            "positions": [
                0.8737787476434437,
                -1.8289357823492831,
                1.2824009685782132,
                -0.815352656091106,
                0.6178739533755817,
                -2.104041925098275
            ]
        },
        {
            "positions": [
                0.9404035303269944,
                -1.8007682344690017,
                1.1257735072483914,
                -0.8416240739607035,
                0.5834114121006446,
                -2.0282583853519967
            ]
        },
        {
            "positions": [
                1.007028313010545,
                -1.7726006865887203,
                0.9691460459185695,
                -0.867895491830301,
                0.5489488708257076,
                -1.9524748456057184
            ]
        },
        {
            "positions": [
                1.0736530956940957,
                -1.7444331387084389,
                0.8125185845887477,
                -0.8941669096998985,
                0.5144863295507707,
                -1.8766913058594399
            ]
        },
        {
            "positions": [
                1.1402778783776464,
                -1.7162655908281574,
                0.655891123258926,
                -0.9204383275694961,
                0.4800237882758336,
                -1.8009077661131614
            ]
        },
        {
            "positions": [
                1.2069026610611973,
                -1.688098042947876,
                0.49926366192910376,
                -0.9467097454390936,
                0.4455612470008965,
                -1.7251242263668831
            ]
        },
        {
            "positions": [
                1.273527443744748,
                -1.6599304950675946,
                0.34263620059928224,
                -0.972981163308691,
                0.4110987057259595,
                -1.6493406866206048
            ]
        },
        {
            "positions": [
                1.3401522264282986,
                -1.6317629471873132,
                0.18600873926946004,
                -0.9992525811782885,
                0.37663616445102244,
                -1.5735571468743261
            ]
        },
        {
            "positions": [
                1.4067770091118492,
                -1.6035953993070318,
                0.02938127793963874,
                -1.025523999047886,
                0.34217362317608546,
                -1.4977736071280479
            ]
        },
        {
            "positions": [
                1.4734017917954,
                -1.5754278514267503,
                -0.12724618339018345,
                -1.0517954169174835,
                0.3077110819011484,
                -1.4219900673817694
            ]
        },
        {
            "positions": [
                1.5400265744789507,
                -1.547260303546469,
                -0.2838736447200052,
                -1.078066834787081,
                0.2732485406262114,
                -1.346206527635491
            ]
        },
        {
            "positions": [
                1.6066513571625014,
                -1.5190927556661873,
                -0.44050110604982695,
                -1.1043382526566785,
                0.23878599935127431,
                -1.2704229878892126
            ]
        },
        {
            "positions": [
                1.673276139846052,
                -1.490925207785906,
                -0.5971285673796487,
                -1.130609670526276,
                0.20432345807633734,
                -1.1946394481429343
            ]
        },
        {
            "positions": [
                1.739900922529603,
                -1.4627576599056245,
                -0.7537560287094709,
                -1.1568810883958736,
                0.16986091680140025,
                -1.1188559083966558
            ]
        },
        {
            "positions": [
                1.8065257052131534,
                -1.434590112025343,
                -0.9103834900392922,
                -1.183152506265471,
                0.13539837552646328,
                -1.0430723686503776
            ]
        },
        {
            "positions": [
                1.8731504878967042,
                -1.4064225641450616,
                -1.0670109513691144,
                -1.2094239241350686,
                0.10093583425152625,
                -0.9672888289040991
            ]
        },
        {
            "positions": [
                1.9315849350242482,
                -1.4446765630249632,
                -1.105578523345273,
                -1.2841555088877747,
                0.08606937057875189,
                -0.8257191045976966
            ]
        },
        {
            "positions": [
                1.9900193821517924,
                -1.4829305619048645,
                -1.1441460953214317,
                -1.3588870936404809,
                0.07120290690597753,
                -0.684149380291294
            ]
        },
        {
            "positions": [
                2.048453829279336,
                -1.521184560784766,
                -1.1827136672975904,
                -1.433618678393187,
                0.05633644323320316,
                -0.5425796559848914
            ]
        },
        {
            "positions": [
                2.1068882764068806,
                -1.5594385596646676,
                -1.221281239273749,
                -1.5083502631458932,
                0.0414699795604288,
                -0.401009931678489
            ]
        },
        {
            "positions": [
                2.1653227235344246,
                -1.5976925585445692,
                -1.259848811249908,
                -1.5830818478985995,
                0.02660351588765443,
                -0.2594402073720863
            ]
        },
        {
            "positions": [
                2.2237571706619685,
                -1.6359465574244707,
                -1.2984163832260665,
                -1.6578134326513057,
                0.01173705221488007,
                -0.11787048306568382
            ]
        },
        {
            "positions": [
                2.2821916177895125,
                -1.674200556304372,
                -1.3369839552022253,
                -1.732545017404012,
                -0.0031294114578943044,
                0.02369924124071876
            ]
        },
        {
            "positions": [
                2.3406260649170565,
                -1.7124545551842736,
                -1.3755515271783838,
                -1.807276602156718,
                -0.01799587513066865,
                0.16526896554712112
            ]
        },
        {
            "positions": [
                2.399060512044601,
                -1.7507085540641751,
                -1.4141190991545427,
                -1.8820081869094243,
                -0.032862338803443025,
                0.3068386898535238
            ]
        },
        {
            "positions": [
                2.457494959172145,
                -1.7889625529440765,
                -1.4526866711307014,
                -1.9567397716621304,
                -0.047728802476217386,
                0.4484084141599265
            ]
        },
        {
            "positions": [
                2.515929406299689,
                -1.827216551823978,
                -1.49125424310686,
                -2.0314713564148366,
                -0.06259526614899175,
                0.5899781384663287
            ]
        },
        {
            "positions": [
                2.574363853427233,
                -1.8654705507038796,
                -1.5298218150830187,
                -2.1062029411675427,
                -0.0774617298217661,
                0.7315478627727314
            ]
        },
        {
            "positions": [
                2.6048316330713064,
                -1.9030914979475575,
                -1.5521764209238593,
                -2.164564514916316,
                -0.10020763495111916,
                0.9198827495324124
            ]
        },
        {
            "positions": [
                2.63529941271538,
                -1.9407124451912354,
                -1.5745310267647001,
                -2.22292608866509,
                -0.12295354008047221,
                1.1082176362920935
            ]
        },
        {
            "positions": [
                2.665767192359453,
                -1.9783333924349131,
                -1.5968856326055407,
                -2.2812876624138636,
                -0.14569944520982525,
                1.2965525230517745
            ]
        },
        {
            "positions": [
                2.6962349720035266,
                -2.0159543396785913,
                -1.6192402384463815,
                -2.3396492361626375,
                -0.16844535033917832,
                1.4848874098114557
            ]
        },
        {
            "positions": [
                2.7267027516476,
                -2.053575286922269,
                -1.6415948442872221,
                -2.398010809911411,
                -0.19119125546853136,
                1.6732222965711367
            ]
        },
        {
            "positions": [
                2.7203922147042725,
                -2.0775104569932457,
                -1.64593443118377,
                -2.41088498596474,
                -0.23556180296988743,
                1.9116769137549592
            ]
        },
        {
            "positions": [
                2.7140816777609444,
                -2.1014456270642223,
                -1.650274018080318,
                -2.4237591620180687,
                -0.27993235047124354,
                2.1501315309387814
            ]
        },
        {
            "positions": [
                2.700511974572643,
                -2.1226696227602018,
                -1.651055061590496,
                -2.4276473957790707,
                -0.32855573188857823,
                2.398391778700585
            ]
        },
        {
            "positions": [
                2.686942271384342,
                -2.143893618456181,
                -1.6518361051006738,
                -2.4315356295400727,
                -0.3771791133059129,
                2.646652026462389
            ]
        },
        {
            "positions": [
                2.6733725681960405,
                -2.1651176141521606,
                -1.6526171486108518,
                -2.435423863301075,
                -0.4258024947232476,
                2.894912274224193
            ]
        },
        {
            "positions": [
                2.659802865007739,
                -2.18634160984814,
                -1.65339819212103,
                -2.439312097062077,
                -0.4744258761405823,
                3.1431725219859965
            ]
        }
    ]
}