{
    "goal": {
        "global_pose": {
            "orientation": {
                "w": 0.7031023502349854,
                "x": -0.7110244035720825,
                "y": 0.007748599164187908,
                "z": 0.005598929710686207
            },
            "position": {
                "x": 0.11585023208521307,
                "y": 0.44412534475326537,
                "z": 0.3711530566215515
            }
        },
        "name": "move_to_auspresseinheit_A"
    },
    "id": "EST_move_to_auspresseinheit_A_35",
    "joint_names": [
        "shoulder_pan_joint",
        "shoulder_lift_joint",
        "elbow_joint",
        "wrist_1_joint",
        "wrist_2_joint",
        "wrist_3_joint"
    ],
    "metrics": {
        "cart_traj_len": 1.9922311452684096,
        "distance_elbow_joint": 2.8341514939476675,
        "distance_shoulder_lift_joint": 0.6636900405274353,
        "distance_shoulder_pan_joint": 1.0674440989722171,
        "distance_wrist_1_joint": 2.4419251388129495,
        "distance_wrist_2_joint": 1.703985144771925,
        "distance_wrist_3_joint": 3.2282229821308697,
        "smoothness": 0.8853510931334371,
        "time": 0.408288861,
        "traj_len": 3.455346422453625,
        "weighted_distance": 4.747817935326677
    },
    "planner": "EST",
    "start": {
        "state": {
            "elbow_joint": 2.422574709923281,
            "shoulder_lift_joint": -1.3736533754116391,
            "shoulder_pan_joint": -0.33786336945926293,
            "wrist_1_joint": -1.0288603412921917,
            "wrist_2_joint": 1.2330224858903978,
            "wrist_3_joint": -3.094022268022082
        }
    },
    "waypoints": [
        {
            "positions": [
                -0.33786336945926293,
                -1.3736533754116391,
                2.422574709923281,
                -1.0288603412921917,
                1.2330224858903978,
                -3.094022268022082
            ]
        },
        {
            "positions": [
                -0.34433158570093336,
                -1.3407733981390537,
                2.3214013586902187,
                -0.9808380277326099,
                1.21111851783636,
                -3.015645595186615
            ]
        },
        {
            "positions": [
                -0.3507998019426038,
                -1.3078934208664685,
                2.220228007457156,
                -0.9328157141730281,
                1.189214549782322,
                -2.937268922351148
            ]
        },
        {
            "positions": [
                -0.3049378091552184,
                -1.3271423631563306,
                2.1432914987342944,
                -0.8447115423484737,
                1.1220008891349618,
                -2.847436491061922
            ]
        },
        {
            "positions": [
                -0.25907581636783306,
                -1.3463913054461927,
                2.066354990011433,
                -0.7566073705239192,
                1.0547872284876014,
                -2.7576040597726954
            ]
        },
        {
            "positions": [
                -0.21321382358044766,
                -1.3656402477360547,
                1.9894184812885716,
                -0.6685031986993648,
                0.9875735678402413,
                -2.6677716284834694
            ]
        },
        {
            "positions": [
                -0.1673518307930623,
                -1.3848891900259168,
                1.91248197256571,
                -0.5803990268748103,
                0.920359907192881,
                -2.577939197194243
            ]
        },
        {
            "positions": [
                -0.12148983800567692,
                -1.4041381323157789,
                1.8355454638428486,
                -0.4922948550502559,
                0.8531462465455206,
                -2.488106765905017
            ]
        },
        {
            "positions": [
                -0.07562784521829152,
                -1.423387074605641,
                1.7586089551199873,
                -0.4041906832257014,
                0.7859325858981604,
                -2.398274334615791
            ]
        },
        {
            "positions": [
                -0.02976585243090618,
                -1.442636016895503,
                1.6816724463971258,
                -0.31608651140114696,
                0.7187189252508002,
                -2.3084419033265644
            ]
        },
        {
            "positions": [
                0.016096140356479216,
                -1.461884959185365,
                1.6047359376742643,
                -0.22798233957659253,
                0.6515052646034398,
                -2.218609472037338
            ]
        },
        {
            "positions": [
                0.06195813314386461,
                -1.4811339014752272,
                1.5277994289514027,
                -0.1398781677520381,
                0.5842916039560795,
                -2.128777040748112
            ]
        },
        {
            "positions": [
                0.10782012593124995,
                -1.5003828437650892,
                1.4508629202285412,
                -0.05177399592748366,
                0.5170779433087193,
                -2.038944609458886
            ]
        },
        {
            "positions": [
                0.1536821187186353,
                -1.5196317860549513,
                1.37392641150568,
                0.03633017589707077,
                0.449864282661359,
                -1.9491121781696594
            ]
        },
        {
            "positions": [
                0.19954411150602075,
                -1.5388807283448134,
                1.2969899027828184,
                0.12443434772162532,
                0.3826506220139987,
                -1.8592797468804334
            ]
        },
        {
            "positions": [
                0.2454061042934061,
                -1.5581296706346754,
                1.220053394059957,
                0.21253851954617964,
                0.31543696136663835,
                -1.7694473155912072
            ]
        },
        {
            "positions": [
                0.29126809708079143,
                -1.5773786129245375,
                1.1431168853370957,
                0.3006426913707342,
                0.24822330071927812,
                -1.679614884301981
            ]
        },
        {
            "positions": [
                0.3371300898681769,
                -1.5966275552143996,
                1.0661803766142341,
                0.3887468631952885,
                0.1810096400719179,
                -1.5897824530127547
            ]
        },
        {
            "positions": [
                0.3829920826555622,
                -1.6158764975042617,
                0.9892438678913728,
                0.476851035019843,
                0.1137959794245576,
                -1.4999500217235284
            ]
        },
        {
            "positions": [
                0.39561961813839774,
                -1.6326862589283158,
                1.097926167510487,
                0.4127420047517266,
                0.15590304629296176,
                -1.6232045650394478
            ]
        },
        {
            "positions": [
                0.4082471536212333,
                -1.64949602035237,
                1.2066084671296013,
                0.34863297448361025,
                0.19801011316136594,
                -1.746459108355367
            ]
        },
        {
            "positions": [
                0.42087468910406883,
                -1.6663057817764242,
                1.3152907667487157,
                0.2845239442154939,
                0.24011718002977012,
                -1.8697136516712867
            ]
        },
        {
            "positions": [
                0.4335022245869044,
                -1.6831155432004783,
                1.4239730663678298,
                0.2204149139473775,
                0.28222424689817427,
                -1.9929681949872058
            ]
        },
        {
            "positions": [
                0.4461297600697399,
                -1.6999253046245324,
                1.5326553659869442,
                0.15630588367926113,
                0.3243313137665785,
                -2.1162227383031254
            ]
        },
        {
            "positions": [
                0.4587572955525755,
                -1.7167350660485865,
                1.6413376656060583,
                0.09219685341114475,
                0.36643838063498263,
                -2.2394772816190445
            ]
        },
        {
            "positions": [
                0.471384831035411,
                -1.7335448274726408,
                1.7500199652251727,
                0.028087823143028323,
                0.40854544750338684,
                -2.362731824934964
            ]
        },
        {
            "positions": [
                0.48401236651824653,
                -1.750354588896695,
                1.858702264844287,
                -0.036021207125087995,
                0.45065251437179094,
                -2.4859863682508836
            ]
        },
        {
            "positions": [
                0.4966399020010821,
                -1.767164350320749,
                1.9673845644634014,
                -0.10013023739320442,
                0.49275958124019514,
                -2.6092409115668027
            ]
        },
        {
            "positions": [
                0.5092674374839177,
                -1.7839741117448034,
                2.0760668640825157,
                -0.16423926766132074,
                0.5348666481085993,
                -2.7324954548827223
            ]
        },
        {
            "positions": [
                0.5218949729667531,
                -1.8007838731688575,
                2.1847491637016296,
                -0.22834829792943706,
                0.5769737149770034,
                -2.8557499981986414
            ]
        },
        {
            "positions": [
                0.5345225084495887,
                -1.8175936345929116,
                2.293431463320744,
                -0.29245732819755355,
                0.6190807818454077,
                -2.979004541514561
            ]
        },
        {
            "positions": [
                0.6191151864979305,
                -1.8617085707208223,
                2.341747991563938,
                -0.3759100278393125,
                0.6588176997880248,
                -3.0565526495352024
            ]
        },
        {
            "positions": [
                0.7037078645462723,
                -1.9058235068487333,
                2.3900645198071317,
                -0.4593627274810715,
                0.6985546177306419,
                -3.1341007575558444
            ]
        }
    ]
}