{
    "goal": {
        "global_pose": {
            "orientation": {
                "w": 0.5084816217422485,
                "x": -0.49083608388900757,
                "y": 0.5182115435600281,
                "z": -0.4816462993621826
            },
            "position": {
                "x": 0.5540239810943604,
                "y": 0.030875300988554955,
                "z": 0.16403168439865112
            }
        },
        "name": "move_to_storage_A"
    },
    "id": "EST_move_to_storage_A_72",
    "joint_names": [
        "shoulder_pan_joint",
        "shoulder_lift_joint",
        "elbow_joint",
        "wrist_1_joint",
        "wrist_2_joint",
        "wrist_3_joint"
    ],
    "metrics": {
        "cart_traj_len": 0.3528080400562517,
        "distance_elbow_joint": 0.44969614816168324,
        "distance_shoulder_lift_joint": 0.2336867140059895,
        "distance_shoulder_pan_joint": 0.4597984657963956,
        "distance_wrist_1_joint": 0.2430927735691092,
        "distance_wrist_2_joint": 1.104588817791318,
        "distance_wrist_3_joint": 0.10082525344378945,
        "smoothness": 1.1102230263833737e-15,
        "time": 0.052358343,
        "traj_len": 1.6098720982637982,
        "weighted_distance": 2.0349496974166934
    },
    "planner": "EST",
    "start": {
        "state": {
            "elbow_joint": 1.9715463870305268,
            "shoulder_lift_joint": -1.1394903361783484,
            "shoulder_pan_joint": 0.12281147578464417,
            "wrist_1_joint": -0.7804599489681411,
            "wrist_2_joint": 0.12958660307563738,
            "wrist_3_joint": -3.1924946282119055
        }
    },
    "waypoints": [
        {
            "positions": [
                0.12281147578464417,
                -1.1394903361783484,
                1.9715463870305268,
                -0.7804599489681411,
                0.12958660307563738,
                -3.1924946282119055
            ]
        },
        {
            "positions": [
                0.05712598067087338,
                -1.1728741524649182,
                2.0357886939107672,
                -0.8151874880494424,
                0.2873850056172542,
                -3.1780910205770785
            ]
        },
        {
            "positions": [
                -0.008559514442897417,
                -1.2062579687514883,
                2.1000310007910077,
                -0.8499150271307437,
                0.44518340815887103,
                -3.1636874129422514
            ]
        },
        {
            "positions": [
                -0.07424500955666823,
                -1.239641785038058,
                2.164273307671248,
                -0.884642566212045,
                0.6029818107004878,
                -3.1492838053074244
            ]
        },
        {
            "positions": [
                -0.139930504670439,
                -1.2730256013246282,
                2.2285156145514886,
                -0.9193701052933463,
                0.7607802132421048,
                -3.1348801976725973
            ]
        },
        {
            "positions": [
                -0.2056159997842098,
                -1.306409417611198,
                2.292757921431729,
                -0.9540976443746476,
                0.9185786157837217,
                -3.1204765900377702
            ]
        },
        {
            "positions": [
                -0.2713014948979806,
                -1.339793233897768,
                2.3570002283119695,
                -0.9888251834559489,
                1.0763770183253383,
                -3.106072982402943
            ]
        },
        {
            "positions": [
                -0.3369869900117514,
                -1.3731770501843379,
                2.42124253519221,
                -1.0235527225372503,
                1.2341754208669553,
                -3.091669374768116
            ]
        }
    ]
}