{
    "goal": {
        "global_pose": {
            "orientation": {
                "w": 0.7047431468963623,
                "x": -0.7094548344612122,
                "y": 0.0024358443915843964,
                "z": -0.0022348060738295317
            },
            "position": {
                "x": 0.6094750761985779,
                "y": 0.3671506643295288,
                "z": 0.19426114857196808
            }
        },
        "name": "move_to_magneteinheit_A"
    },
    "id": "EST_move_to_magneteinheit_A_113",
    "joint_names": [
        "shoulder_pan_joint",
        "shoulder_lift_joint",
        "elbow_joint",
        "wrist_1_joint",
        "wrist_2_joint",
        "wrist_3_joint"
    ],
    "metrics": {
        "cart_traj_len": 2.064143895950756,
        "distance_elbow_joint": 3.8783051629238363,
        "distance_shoulder_lift_joint": 1.055425114946847,
        "distance_shoulder_pan_joint": 1.2415902184398437,
        "distance_wrist_1_joint": 1.1344762875783978,
        "distance_wrist_2_joint": 1.4307507484030821,
        "distance_wrist_3_joint": 1.9094563066300334,
        "smoothness": 4.440892115770691e-16,
        "time": 0.165180972,
        "traj_len": 3.26343436258829,
        "weighted_distance": 4.12724405483412
    },
    "planner": "EST",
    "start": {
        "state": {
            "elbow_joint": -1.919643507792019,
            "shoulder_lift_joint": -0.07675430207160344,
            "shoulder_pan_joint": -1.1188671864651873,
            "wrist_1_joint": 0.42560062535961957,
            "wrist_2_joint": 1.5706038300724876,
            "wrist_3_joint": 1.1188968870953055
        }
    },
    "waypoints": [
        {
            "positions": [
                -1.1188671864651873,
                -0.07675430207160344,
                -1.919643507792019,
                0.42560062535961957,
                1.5706038300724876,
                1.1188968870953055
            ]
        },
        {
            "positions": [
                -1.072882363560008,
                -0.11584412114370889,
                -1.776002575831877,
                0.3835829850789382,
                1.5176130616131143,
                1.189617491044566
            ]
        },
        {
            "positions": [
                -1.0268975406548286,
                -0.15493394021581433,
                -1.632361643871735,
                0.3415653447982568,
                1.4646222931537407,
                1.2603380949938265
            ]
        },
        {
            "positions": [
                -0.9809127177496492,
                -0.19402375928791976,
                -1.4887207119115928,
                0.2995477045175754,
                1.4116315246943674,
                1.331058698943087
            ]
        },
        {
            "positions": [
                -0.9349278948444697,
                -0.23311357836002522,
                -1.3450797799514507,
                0.257530064236894,
                1.358640756234994,
                1.4017793028923475
            ]
        },
        {
            "positions": [
                -0.8889430719392903,
                -0.2722033974321306,
                -1.2014388479913087,
                0.21551242395621262,
                1.3056499877756207,
                1.472499906841608
            ]
        },
        {
            "positions": [
                -0.842958249034111,
                -0.3112932165042361,
                -1.0577979160311666,
                0.17349478367553123,
                1.2526592193162471,
                1.5432205107908685
            ]
        },
        {
            "positions": [
                -0.7969734261289316,
                -0.35038303557634154,
                -0.9141569840710246,
                0.13147714339484984,
                1.1996684508568738,
                1.613941114740129
            ]
        },
        {
            "positions": [
                -0.7509886032237522,
                -0.389472854648447,
                -0.7705160521108825,
                0.08945950311416845,
                1.1466776823975002,
                1.6846617186893895
            ]
        },
        {
            "positions": [
                -0.7050037803185728,
                -0.4285626737205524,
                -0.6268751201507403,
                0.04744186283348706,
                1.093686913938127,
                1.75538232263865
            ]
        },
        {
            "positions": [
                -0.6590189574133933,
                -0.46765249279265786,
                -0.4832341881905984,
                0.005424222552805669,
                1.0406961454787536,
                1.8261029265879105
            ]
        },
        {
            "positions": [
                -0.613034134508214,
                -0.5067423118647634,
                -0.3395932562304562,
                -0.03659341772787572,
                0.9877053770193801,
                1.896823530537171
            ]
        },
        {
            "positions": [
                -0.5670493116030346,
                -0.5458321309368688,
                -0.19595232427031406,
                -0.07861105800855711,
                0.9347146085600067,
                1.9675441344864315
            ]
        },
        {
            "positions": [
                -0.5210644886978552,
                -0.5849219500089742,
                -0.05231139231017212,
                -0.12062869828923845,
                0.8817238401006333,
                2.038264738435692
            ]
        },
        {
            "positions": [
                -0.4750796657926758,
                -0.6240117690810796,
                0.09132953964996982,
                -0.1626463385699199,
                0.8287330716412599,
                2.1089853423849525
            ]
        },
        {
            "positions": [
                -0.42909484288749633,
                -0.6631015881531852,
                0.2349704716101122,
                -0.20466397885060134,
                0.7757423031818864,
                2.179705946334213
            ]
        },
        {
            "positions": [
                -0.383110019982317,
                -0.7021914072252906,
                0.37861140357025413,
                -0.24668161913128267,
                0.7227515347225131,
                2.2504265502834735
            ]
        },
        {
            "positions": [
                -0.3371251970771375,
                -0.741281226297396,
                0.5222523355303965,
                -0.2886992594119641,
                0.6697607662631395,
                2.321147154232734
            ]
        },
        {
            "positions": [
                -0.29114037417195826,
                -0.7803710453695014,
                0.6658932674905385,
                -0.33071689969264545,
                0.6167699978037662,
                2.3918677581819945
            ]
        },
        {
            "positions": [
                -0.2451555512667788,
                -0.8194608644416068,
                0.8095341994506804,
                -0.3727345399733269,
                0.5637792293443928,
                2.462588362131255
            ]
        },
        {
            "positions": [
                -0.19917072836159944,
                -0.8585506835137122,
                0.9531751314108223,
                -0.41475218025400823,
                0.5107884608850195,
                2.5333089660805155
            ]
        },
        {
            "positions": [
                -0.15318590545641997,
                -0.8976405025858178,
                1.0968160633709647,
                -0.4567698205346897,
                0.45779769242564594,
                2.604029570029776
            ]
        },
        {
            "positions": [
                -0.10720108255124061,
                -0.9367303216579232,
                1.2404569953311066,
                -0.498787460815371,
                0.4048069239662726,
                2.6747501739790365
            ]
        },
        {
            "positions": [
                -0.061216259646061255,
                -0.9758201407300287,
                1.384097927291249,
                -0.5408051010960524,
                0.35181615550689904,
                2.745470777928297
            ]
        },
        {
            "positions": [
                -0.015231436740881898,
                -1.014909959802134,
                1.527738859251391,
                -0.5828227413767337,
                0.2988253870475257,
                2.8161913818775575
            ]
        },
        {
            "positions": [
                0.03075338616429768,
                -1.0539997788742395,
                1.671379791211533,
                -0.6248403816574153,
                0.24583461858815236,
                2.886911985826818
            ]
        },
        {
            "positions": [
                0.07673820906947704,
                -1.093089597946345,
                1.8150207231716748,
                -0.6668580219380964,
                0.19284385012877903,
                2.9576325897760785
            ]
        },
        {
            "positions": [
                0.12272303197465635,
                -1.1321794170184505,
                1.958661655131817,
                -0.7088756622187781,
                0.13985308166940544,
                3.028353193725339
            ]
        }
    ]
}