{
    "goal": {
        "global_pose": {
            "orientation": {
                "w": 0.5084816217422485,
                "x": -0.49083608388900757,
                "y": 0.5182115435600281,
                "z": -0.4816462993621826
            },
            "position": {
                "x": 0.5540239810943604,
                "y": 0.030875300988554955,
                "z": 0.16403168439865112
            }
        },
        "name": "move_to_storage_A"
    },
    "id": "EST_move_to_storage_A_18",
    "joint_names": [
        "shoulder_pan_joint",
        "shoulder_lift_joint",
        "elbow_joint",
        "wrist_1_joint",
        "wrist_2_joint",
        "wrist_3_joint"
    ],
    "metrics": {
        "cart_traj_len": 0.3524361927452516,
        "distance_elbow_joint": 0.4516071120388778,
        "distance_shoulder_lift_joint": 0.2343494782097053,
        "distance_shoulder_pan_joint": 0.4598553096285488,
        "distance_wrist_1_joint": 0.24989147395722033,
        "distance_wrist_2_joint": 1.1020890891420956,
        "distance_wrist_3_joint": 0.10598563753425605,
        "smoothness": 9.992007236661072e-16,
        "time": 0.052589525,
        "traj_len": 1.6136226636084112,
        "weighted_distance": 2.041501883094535
    },
    "planner": "EST",
    "start": {
        "state": {
            "elbow_joint": 1.9715463870305268,
            "shoulder_lift_joint": -1.1394903361783484,
            "shoulder_pan_joint": 0.12281147578464417,
            "wrist_1_joint": -0.7804599489681411,
            "wrist_2_joint": 0.12958660307563738,
            "wrist_3_joint": -3.1924946282119055
        }
    },
    "waypoints": [
        {
            "positions": [
                0.12281147578464417,
                -1.1394903361783484,
                1.9715463870305268,
                -0.7804599489681411,
                0.12958660307563738,
                -3.1924946282119055
            ]
        },
        {
            "positions": [
                0.05711786012342292,
                -1.172968833065449,
                2.0360616887503666,
                -0.8161587309620297,
                0.2870279015245082,
                -3.177353822849869
            ]
        },
        {
            "positions": [
                -0.008575755537798338,
                -1.20644732995255,
                2.100576990470206,
                -0.8518575129559183,
                0.44446919997337897,
                -3.1622130174878325
            ]
        },
        {
            "positions": [
                -0.0742693711990196,
                -1.2399258268396507,
                2.165092292190046,
                -0.8875562949498069,
                0.6019104984222498,
                -3.1470722121257957
            ]
        },
        {
            "positions": [
                -0.13996298686024083,
                -1.2734043237267514,
                2.2296075939098854,
                -0.9232550769436956,
                0.7593517968711205,
                -3.1319314067637594
            ]
        },
        {
            "positions": [
                -0.20565660252146212,
                -1.3068828206138523,
                2.2941228956297253,
                -0.9589538589375841,
                0.9167930953199914,
                -3.1167906014017226
            ]
        },
        {
            "positions": [
                -0.27135021818268334,
                -1.340361317500953,
                2.3586381973495647,
                -0.9946526409314728,
                1.074234393768862,
                -3.1016497960396863
            ]
        },
        {
            "positions": [
                -0.33704383384390463,
                -1.3738398143880537,
                2.4231534990694046,
                -1.0303514229253614,
                1.231675692217733,
                -3.0865089906776495
            ]
        }
    ]
}