{
    "goal": {
        "global_pose": {
            "orientation": {
                "w": 0.7031023502349854,
                "x": -0.7110244035720825,
                "y": 0.007748599164187908,
                "z": 0.005598929710686207
            },
            "position": {
                "x": 0.11585023208521307,
                "y": 0.44412534475326537,
                "z": 0.3711530566215515
            }
        },
        "name": "move_to_auspresseinheit_A"
    },
    "id": "EST_move_to_auspresseinheit_A_118",
    "joint_names": [
        "shoulder_pan_joint",
        "shoulder_lift_joint",
        "elbow_joint",
        "wrist_1_joint",
        "wrist_2_joint",
        "wrist_3_joint"
    ],
    "metrics": {
        "cart_traj_len": 1.9162155649684405,
        "distance_elbow_joint": 2.530867531484936,
        "distance_shoulder_lift_joint": 0.8364118748930529,
        "distance_shoulder_pan_joint": 1.2236962179437763,
        "distance_wrist_1_joint": 2.958353788518516,
        "distance_wrist_2_joint": 1.5105554152334144,
        "distance_wrist_3_joint": 2.1796470109263044,
        "smoothness": 0.6915255934021712,
        "time": 0.314301212,
        "traj_len": 3.3525411017614677,
        "weighted_distance": 4.479702564300954
    },
    "planner": "EST",
    "start": {
        "state": {
            "elbow_joint": 2.422574709923281,
            "shoulder_lift_joint": -1.3736533754116391,
            "shoulder_pan_joint": -0.33786336945926293,
            "wrist_1_joint": -1.0288603412921917,
            "wrist_2_joint": 1.2330224858903978,
            "wrist_3_joint": -3.094022268022082
        }
    },
    "waypoints": [
        {
            "positions": [
                -0.33786336945926293,
                -1.3736533754116391,
                2.422574709923281,
                -1.0288603412921917,
                1.2330224858903978,
                -3.094022268022082
            ]
        },
        {
            "positions": [
                -0.2984572643842435,
                -1.407569541601762,
                2.3425994670109764,
                -0.9190063004010647,
                1.1692619110399147,
                -3.027028575238934
            ]
        },
        {
            "positions": [
                -0.2590511593092241,
                -1.4414857077918848,
                2.2626242240986723,
                -0.8091522595099376,
                1.105501336189432,
                -2.9600348824557856
            ]
        },
        {
            "positions": [
                -0.21964505423420472,
                -1.4754018739820074,
                2.1826489811863676,
                -0.6992982186188107,
                1.041740761338949,
                -2.8930411896726373
            ]
        },
        {
            "positions": [
                -0.1802389491591853,
                -1.5093180401721302,
                2.102673738274063,
                -0.5894441777276836,
                0.9779801864884661,
                -2.826047496889489
            ]
        },
        {
            "positions": [
                -0.1408328440841659,
                -1.543234206362253,
                2.022698495361759,
                -0.4795901368365566,
                0.9142196116379832,
                -2.759053804106341
            ]
        },
        {
            "positions": [
                -0.1014267390091465,
                -1.577150372552376,
                1.9427232524494542,
                -0.36973609594542967,
                0.8504590367875002,
                -2.6920601113231926
            ]
        },
        {
            "positions": [
                -0.0620206339341271,
                -1.6110665387424987,
                1.8627480095371496,
                -0.2598820550543026,
                0.7866984619370173,
                -2.6250664185400447
            ]
        },
        {
            "positions": [
                -0.022614528859107697,
                -1.6449827049326213,
                1.7827727666248452,
                -0.15002801416317557,
                0.7229378870865344,
                -2.5580727257568965
            ]
        },
        {
            "positions": [
                0.016791576215911708,
                -1.6788988711227442,
                1.7027975237125408,
                -0.040173973272048524,
                0.6591773122360515,
                -2.491079032973748
            ]
        },
        {
            "positions": [
                0.05619768129093111,
                -1.712815037312867,
                1.6228222808002362,
                0.06968006761907852,
                0.5954167373855686,
                -2.4240853401906
            ]
        },
        {
            "positions": [
                0.09560378636595052,
                -1.7467312035029898,
                1.5428470378879318,
                0.17953410851020557,
                0.5316561625350856,
                -2.3570916474074517
            ]
        },
        {
            "positions": [
                0.13500989144096992,
                -1.7806473696931127,
                1.4628717949756274,
                0.2893881494013324,
                0.4678955876846027,
                -2.2900979546243034
            ]
        },
        {
            "positions": [
                0.17441599651598932,
                -1.8145635358832353,
                1.3828965520633227,
                0.39924219029245944,
                0.4041350128341198,
                -2.223104261841155
            ]
        },
        {
            "positions": [
                0.21382210159100873,
                -1.8484797020733583,
                1.3029213091510183,
                0.5090962311835865,
                0.34037443798363687,
                -2.156110569058007
            ]
        },
        {
            "positions": [
                0.25322820666602813,
                -1.882395868263481,
                1.2229460662387137,
                0.6189502720747135,
                0.27661386313315395,
                -2.0891168762748586
            ]
        },
        {
            "positions": [
                0.29263431174104754,
                -1.9163120344536038,
                1.1429708233264093,
                0.7288043129658406,
                0.21285328828267097,
                -2.0221231834917104
            ]
        },
        {
            "positions": [
                0.3727705751468533,
                -1.9447859984169793,
                1.2578651161743553,
                0.6911872787160211,
                0.241055173170469,
                -2.1269957670119584
            ]
        },
        {
            "positions": [
                0.45290683855265906,
                -1.9732599623803546,
                1.3727594090223012,
                0.6535702444662016,
                0.26925705805826705,
                -2.2318683505322063
            ]
        },
        {
            "positions": [
                0.5330431019584648,
                -2.00173392634373,
                1.4876537018702471,
                0.6159532102163822,
                0.29745894294606506,
                -2.3367409340524548
            ]
        },
        {
            "positions": [
                0.6131793653642705,
                -2.0302078903071057,
                1.6025479947181933,
                0.5783361759665626,
                0.32566082783386313,
                -2.4416135175727027
            ]
        },
        {
            "positions": [
                0.6933156287700764,
                -2.058681854270481,
                1.7174422875661393,
                0.5407191417167432,
                0.35386271272166114,
                -2.5464861010929507
            ]
        },
        {
            "positions": [
                0.7104396880821252,
                -2.0515389108562805,
                1.8090956059732086,
                0.44809420479829865,
                0.3985492422527057,
                -2.630233532822233
            ]
        },
        {
            "positions": [
                0.7275637473941741,
                -2.0443959674420795,
                1.9007489243802778,
                0.35546926787985406,
                0.4432357717837503,
                -2.7139809645515154
            ]
        },
        {
            "positions": [
                0.7446878067062229,
                -2.037253024027879,
                1.992402242787347,
                0.26284433096140947,
                0.48792230131479486,
                -2.7977283962807977
            ]
        },
        {
            "positions": [
                0.7618118660182718,
                -2.0301100806136785,
                2.0840555611944165,
                0.17021939404296493,
                0.5326088308458394,
                -2.88147582801008
            ]
        },
        {
            "positions": [
                0.7789359253303206,
                -2.0229671371994775,
                2.1757088796014856,
                0.07759445712452029,
                0.577295360376884,
                -2.9652232597393624
            ]
        },
        {
            "positions": [
                0.7960599846423695,
                -2.015824193785277,
                2.2673621980085548,
                -0.015030479793924231,
                0.6219818899079286,
                -3.0489706914686447
            ]
        },
        {
            "positions": [
                0.7661356966949885,
                -1.9796489486022746,
                2.309652954743861,
                -0.1673152602941641,
                0.6490677619080719,
                -3.0759374976083107
            ]
        },
        {
            "positions": [
                0.7362114087476074,
                -1.9434737034192724,
                2.351943711479167,
                -0.31960004079440396,
                0.6761536339082151,
                -3.102904303747977
            ]
        },
        {
            "positions": [
                0.7062871208002264,
                -1.90729845823627,
                2.3942344682144734,
                -0.4718848212946438,
                0.7032395059083585,
                -3.129871109887643
            ]
        }
    ]
}