{
    "goal": {
        "global_pose": {
            "orientation": {
                "w": 0.7047431468963623,
                "x": -0.7094548344612122,
                "y": 0.0024358443915843964,
                "z": -0.0022348060738295317
            },
            "position": {
                "x": 0.6094750761985779,
                "y": 0.3671506643295288,
                "z": 0.19426114857196808
            }
        },
        "name": "move_to_magneteinheit_A"
    },
    "id": "EST_move_to_magneteinheit_A_109",
    "joint_names": [
        "shoulder_pan_joint",
        "shoulder_lift_joint",
        "elbow_joint",
        "wrist_1_joint",
        "wrist_2_joint",
        "wrist_3_joint"
    ],
    "metrics": {
        "cart_traj_len": 1.8807563903583462,
        "distance_elbow_joint": 3.910884402051714,
        "distance_shoulder_lift_joint": 0.6993750209250458,
        "distance_shoulder_pan_joint": 1.2419544242277778,
        "distance_wrist_1_joint": 1.480088820894078,
        "distance_wrist_2_joint": 1.7025324791314265,
        "distance_wrist_3_joint": 1.0966466171135036,
        "smoothness": 7.565964329481075e-16,
        "time": 0.021752797,
        "traj_len": 3.182998863390238,
        "weighted_distance": 3.937943155836059
    },
    "planner": "EST",
    "start": {
        "state": {
            "elbow_joint": -1.919643507792019,
            "shoulder_lift_joint": -0.07675430207160344,
            "shoulder_pan_joint": -1.1188671864651873,
            "wrist_1_joint": 0.42560062535961957,
            "wrist_2_joint": 1.5706038300724876,
            "wrist_3_joint": 1.1188968870953055
        }
    },
    "waypoints": [
        {
            "positions": [
                -1.1188671864651873,
                -0.07675430207160344,
                -1.919643507792019,
                0.42560062535961957,
                1.5706038300724876,
                1.1188968870953055
            ]
        },
        {
            "positions": [
                -1.071099708610273,
                -0.10365334133795136,
                -1.7692248769438763,
                0.48252711847093027,
                1.5051218116443559,
                1.0767181710524785
            ]
        },
        {
            "positions": [
                -1.0233322307553583,
                -0.13055238060429927,
                -1.6188062460957333,
                0.5394536115822409,
                1.439639793216224,
                1.0345394550096514
            ]
        },
        {
            "positions": [
                -0.9755647529004438,
                -0.1574514198706472,
                -1.4683876152475905,
                0.5963801046935516,
                1.3741577747880922,
                0.9923607389668243
            ]
        },
        {
            "positions": [
                -0.9277972750455292,
                -0.1843504591369951,
                -1.3179689843994478,
                0.6533065978048623,
                1.3086757563599605,
                0.9501820229239972
            ]
        },
        {
            "positions": [
                -0.8800297971906147,
                -0.21124949840334303,
                -1.167550353551305,
                0.710233090916173,
                1.2431937379318287,
                0.9080033068811703
            ]
        },
        {
            "positions": [
                -0.8322623193357002,
                -0.23814853766969094,
                -1.017131722703162,
                0.7671595840274836,
                1.1777117195036968,
                0.8658245908383432
            ]
        },
        {
            "positions": [
                -0.7844948414807856,
                -0.26504757693603886,
                -0.8667130918550192,
                0.8240860771387943,
                1.112229701075565,
                0.8236458747955161
            ]
        },
        {
            "positions": [
                -0.7367273636258711,
                -0.29194661620238677,
                -0.7162944610068762,
                0.881012570250105,
                1.0467476826474331,
                0.781467158752689
            ]
        },
        {
            "positions": [
                -0.6889598857709566,
                -0.31884565546873467,
                -0.5658758301587334,
                0.9379390633614157,
                0.9812656642193015,
                0.739288442709862
            ]
        },
        {
            "positions": [
                -0.641192407916042,
                -0.3457446947350826,
                -0.41545719931059066,
                0.9948655564727265,
                0.9157836457911697,
                0.697109726667035
            ]
        },
        {
            "positions": [
                -0.5934249300611275,
                -0.37264373400143047,
                -0.2650385684624479,
                1.0517920495840372,
                0.8503016273630379,
                0.6549310106242079
            ]
        },
        {
            "positions": [
                -0.545657452206213,
                -0.39954277326777843,
                -0.11461993761430489,
                1.1087185426953479,
                0.7848196089349061,
                0.6127522945813808
            ]
        },
        {
            "positions": [
                -0.49788997435129845,
                -0.42644181253412633,
                0.035798693233837886,
                1.1656450358066586,
                0.7193375905067744,
                0.5705735785385537
            ]
        },
        {
            "positions": [
                -0.4501224964963839,
                -0.45334085180047423,
                0.18621732408198066,
                1.2225715289179693,
                0.6538555720786426,
                0.5283948624957266
            ]
        },
        {
            "positions": [
                -0.4023550186414695,
                -0.48023989106682213,
                0.33663595493012344,
                1.2794980220292798,
                0.5883735536505109,
                0.4862161464528997
            ]
        },
        {
            "positions": [
                -0.35458754078655486,
                -0.5071389303331701,
                0.48705458577826666,
                1.3364245151405907,
                0.5228915352223789,
                0.4440374304100725
            ]
        },
        {
            "positions": [
                -0.3068200629316403,
                -0.534037969599518,
                0.6374732166264094,
                1.3933510082519012,
                0.45740951679424713,
                0.4018587143672455
            ]
        },
        {
            "positions": [
                -0.2590525850767258,
                -0.5609370088658658,
                0.7878918474745522,
                1.450277501363212,
                0.3919274983661154,
                0.35967999832441844
            ]
        },
        {
            "positions": [
                -0.21128510722181126,
                -0.5878360481322138,
                0.938310478322695,
                1.5072039944745226,
                0.3264454799379837,
                0.31750128228159136
            ]
        },
        {
            "positions": [
                -0.16351762936689673,
                -0.6147350873985618,
                1.0887291091708378,
                1.5641304875858335,
                0.2609634615098517,
                0.2753225662387643
            ]
        },
        {
            "positions": [
                -0.11575015151198209,
                -0.6416341266649097,
                1.2391477400189805,
                1.621056980697144,
                0.19548144308172,
                0.2331438501959372
            ]
        },
        {
            "positions": [
                -0.06798267365706767,
                -0.6685331659312574,
                1.3895663708671233,
                1.6779834738084547,
                0.12999942465358827,
                0.19096513415311012
            ]
        },
        {
            "positions": [
                -0.020215195802153252,
                -0.6954322051976054,
                1.539985001715266,
                1.7349099669197654,
                0.06451740622545654,
                0.14878641811028315
            ]
        },
        {
            "positions": [
                0.02755228205276139,
                -0.7223312444639534,
                1.6904036325634093,
                1.791836460031076,
                -0.0009646122026754078,
                0.10660770206745607
            ]
        },
        {
            "positions": [
                0.07531975990767603,
                -0.7492302837303013,
                1.840822263411552,
                1.8487629531423868,
                -0.06644663063080714,
                0.06442898602462899
            ]
        },
        {
            "positions": [
                0.12308723776259041,
                -0.7761293229966493,
                1.991240894259695,
                1.9056894462536975,
                -0.13192864905893883,
                0.022250269981801848
            ]
        }
    ]
}