{
    "goal": {
        "global_pose": {
            "orientation": {
                "w": 0.7031023502349854,
                "x": -0.7110244035720825,
                "y": 0.007748599164187908,
                "z": 0.005598929710686207
            },
            "position": {
                "x": 0.11585023208521307,
                "y": 0.44412534475326537,
                "z": 0.3711530566215515
            }
        },
        "name": "move_to_auspresseinheit_A"
    },
    "id": "EST_move_to_auspresseinheit_A_77",
    "joint_names": [
        "shoulder_pan_joint",
        "shoulder_lift_joint",
        "elbow_joint",
        "wrist_1_joint",
        "wrist_2_joint",
        "wrist_3_joint"
    ],
    "metrics": {
        "cart_traj_len": 0.9142782716566048,
        "distance_elbow_joint": 0.9319792491496002,
        "distance_shoulder_lift_joint": 0.5315373792281681,
        "distance_shoulder_pan_joint": 1.0430265170320143,
        "distance_wrist_1_joint": 2.155136949307554,
        "distance_wrist_2_joint": 1.3804225690724705,
        "distance_wrist_3_joint": 3.0879736164525045,
        "smoothness": 0.9972929150437325,
        "time": 1.493991437,
        "traj_len": 3.0216016084590485,
        "weighted_distance": 4.340689234617855
    },
    "planner": "EST",
    "start": {
        "state": {
            "elbow_joint": 2.422574709923281,
            "shoulder_lift_joint": -1.3736533754116391,
            "shoulder_pan_joint": -0.33786336945926293,
            "wrist_1_joint": -1.0288603412921917,
            "wrist_2_joint": 1.2330224858903978,
            "wrist_3_joint": -3.094022268022082
        }
    },
    "waypoints": [
        {
            "positions": [
                -0.33786336945926293,
                -1.3736533754116391,
                2.422574709923281,
                -1.0288603412921917,
                1.2330224858903978,
                -3.094022268022082
            ]
        },
        {
            "positions": [
                -0.3263278701215045,
                -1.3996847743663796,
                2.3855673107964632,
                -0.924471275183477,
                1.1593620220592413,
                -2.97678501781631
            ]
        },
        {
            "positions": [
                -0.3147923707837461,
                -1.4257161733211203,
                2.3485599116696454,
                -0.8200822090747623,
                1.0857015582280851,
                -2.8595477676105383
            ]
        },
        {
            "positions": [
                -0.3032568714459877,
                -1.4517475722758608,
                2.311552512542828,
                -0.7156931429660476,
                1.0120410943969287,
                -2.742310517404766
            ]
        },
        {
            "positions": [
                -0.2917213721082293,
                -1.4777789712306013,
                2.27454511341601,
                -0.6113040768573328,
                0.9383806305657723,
                -2.625073267198994
            ]
        },
        {
            "positions": [
                -0.28018587277047086,
                -1.503810370185342,
                2.2375377142891923,
                -0.5069150107486181,
                0.8647201667346159,
                -2.507836016993222
            ]
        },
        {
            "positions": [
                -0.2686503734327125,
                -1.5298417691400825,
                2.2005303151623745,
                -0.4025259446399033,
                0.7910597029034596,
                -2.39059876678745
            ]
        },
        {
            "positions": [
                -0.25711487409495404,
                -1.555873168094823,
                2.163522916035557,
                -0.29813687853118875,
                0.7173992390723033,
                -2.2733615165816783
            ]
        },
        {
            "positions": [
                -0.24557937475719563,
                -1.5819045670495635,
                2.1265155169087393,
                -0.19374781242247396,
                0.6437387752411469,
                -2.1561242663759064
            ]
        },
        {
            "positions": [
                -0.23404387541943722,
                -1.6079359660043042,
                2.0895081177819215,
                -0.08935874631375929,
                0.5700783114099905,
                -2.0388870161701345
            ]
        },
        {
            "positions": [
                -0.2225083760816788,
                -1.6339673649590447,
                2.0525007186551036,
                0.015030319794955505,
                0.4964178475788341,
                -1.9216497659643623
            ]
        },
        {
            "positions": [
                -0.2109728767439204,
                -1.6599987639137852,
                2.015493319528286,
                0.1194193859036703,
                0.4227573837476778,
                -1.8044125157585904
            ]
        },
        {
            "positions": [
                -0.199437377406162,
                -1.686030162868526,
                1.9784859204014684,
                0.22380845201238508,
                0.34909691991652136,
                -1.6871752655528183
            ]
        },
        {
            "positions": [
                -0.18790187806840358,
                -1.7120615618232664,
                1.9414785212746506,
                0.32819751812109965,
                0.27543645608536504,
                -1.5699380153470464
            ]
        },
        {
            "positions": [
                -0.11451293009709718,
                -1.7329803525419265,
                1.988716172458097,
                0.261395804121129,
                0.31539519062585425,
                -1.6905239005552741
            ]
        },
        {
            "positions": [
                -0.04112398212579077,
                -1.7538991432605866,
                2.0359538236415435,
                0.19459409012115833,
                0.3553539251663435,
                -1.811109785763502
            ]
        },
        {
            "positions": [
                0.032264965845515636,
                -1.7748179339792467,
                2.0831914748249902,
                0.12779237612118766,
                0.3953126597068327,
                -1.9316956709717297
            ]
        },
        {
            "positions": [
                0.10565391381682204,
                -1.795736724697907,
                2.1304291260084365,
                0.06099066212121701,
                0.435271394247322,
                -2.0522815561799574
            ]
        },
        {
            "positions": [
                0.1790428617881285,
                -1.8166555154165671,
                2.177666777191883,
                -0.0058110518787536924,
                0.4752301287878112,
                -2.172867441388185
            ]
        },
        {
            "positions": [
                0.25243180975943486,
                -1.8375743061352272,
                2.2249044283753294,
                -0.07261276587872434,
                0.5151888633283004,
                -2.293453326596413
            ]
        },
        {
            "positions": [
                0.32582075773074126,
                -1.8584930968538873,
                2.272142079558776,
                -0.13941447987869507,
                0.5551475978687896,
                -2.4140392118046408
            ]
        },
        {
            "positions": [
                0.4016892356991432,
                -1.8678326284110713,
                2.296185980002145,
                -0.20550789825758878,
                0.5837726773655922,
                -2.5579968452686157
            ]
        },
        {
            "positions": [
                0.4775577136675452,
                -1.8771721599682554,
                2.3202298804455137,
                -0.27160131663648246,
                0.6123977568623947,
                -2.7019544787325906
            ]
        },
        {
            "positions": [
                0.5534261916359472,
                -1.8865116915254392,
                2.3442737808888827,
                -0.33769473501537617,
                0.6410228363591973,
                -2.845912112196565
            ]
        },
        {
            "positions": [
                0.6292946696043491,
                -1.8958512230826232,
                2.3683176813322513,
                -0.4037881533942699,
                0.6696479158559998,
                -2.98986974566054
            ]
        },
        {
            "positions": [
                0.7051631475727511,
                -1.9051907546398072,
                2.3923615817756203,
                -0.4698815717731636,
                0.6982729953528024,
                -3.133827379124515
            ]
        }
    ]
}