{
    "goal": {
        "global_pose": {
            "orientation": {
                "w": 0.5084816217422485,
                "x": -0.49083608388900757,
                "y": 0.5182115435600281,
                "z": -0.4816462993621826
            },
            "position": {
                "x": 0.5540239810943604,
                "y": 0.030875300988554955,
                "z": 0.16403168439865112
            }
        },
        "name": "move_to_storage_A"
    },
    "id": "EST_move_to_storage_A_106",
    "joint_names": [
        "shoulder_pan_joint",
        "shoulder_lift_joint",
        "elbow_joint",
        "wrist_1_joint",
        "wrist_2_joint",
        "wrist_3_joint"
    ],
    "metrics": {
        "cart_traj_len": 0.35259749242254784,
        "distance_elbow_joint": 0.44855080031173733,
        "distance_shoulder_lift_joint": 0.2357175663777722,
        "distance_shoulder_pan_joint": 0.45960861692383753,
        "distance_wrist_1_joint": 0.23605949179678143,
        "distance_wrist_2_joint": 1.1046219951823595,
        "distance_wrist_3_joint": 0.10322718647675844,
        "smoothness": 6.661338165333112e-16,
        "time": 0.027092003,
        "traj_len": 1.6086595839608973,
        "weighted_distance": 2.0334506428733166
    },
    "planner": "EST",
    "start": {
        "state": {
            "elbow_joint": 1.9715463870305268,
            "shoulder_lift_joint": -1.1394903361783484,
            "shoulder_pan_joint": 0.12281147578464417,
            "wrist_1_joint": -0.7804599489681411,
            "wrist_2_joint": 0.12958660307563738,
            "wrist_3_joint": -3.1924946282119055
        }
    },
    "waypoints": [
        {
            "positions": [
                0.12281147578464417,
                -1.1394903361783484,
                1.9715463870305268,
                -0.7804599489681411,
                0.12958660307563738,
                -3.1924946282119055
            ]
        },
        {
            "positions": [
                0.057153101938381676,
                -1.1731642742323158,
                2.0356250727893466,
                -0.8141827335105384,
                0.28738974524454586,
                -3.1777478872866545
            ]
        },
        {
            "positions": [
                -0.008505271907880821,
                -1.2068382122862833,
                2.099703758548166,
                -0.8479055180529358,
                0.4451928874134543,
                -3.163001146361403
            ]
        },
        {
            "positions": [
                -0.07416364575414332,
                -1.2405121503402508,
                2.1637824443069857,
                -0.8816283025953331,
                0.6029960295823629,
                -3.148254405436152
            ]
        },
        {
            "positions": [
                -0.1398220196004058,
                -1.2741860883942182,
                2.227861130065805,
                -0.9153510871377305,
                0.7607991717512713,
                -3.133507664510901
            ]
        },
        {
            "positions": [
                -0.20548039344666835,
                -1.3078600264481857,
                2.291939815824625,
                -0.9490738716801278,
                0.9186023139201799,
                -3.1187609235856497
            ]
        },
        {
            "positions": [
                -0.2711387672929308,
                -1.3415339645021531,
                2.3560185015834443,
                -0.9827966562225252,
                1.0764054560890883,
                -3.104014182660398
            ]
        },
        {
            "positions": [
                -0.33679714113919335,
                -1.3752079025561206,
                2.420097187342264,
                -1.0165194407649225,
                1.234208598257997,
                -3.089267441735147
            ]
        }
    ]
}