{
    "goal": {
        "global_pose": {
            "orientation": {
                "w": 0.5084816217422485,
                "x": -0.49083608388900757,
                "y": 0.5182115435600281,
                "z": -0.4816462993621826
            },
            "position": {
                "x": 0.5540239810943604,
                "y": 0.030875300988554955,
                "z": 0.16403168439865112
            }
        },
        "name": "move_to_storage_A"
    },
    "id": "EST_move_to_storage_A_12",
    "joint_names": [
        "shoulder_pan_joint",
        "shoulder_lift_joint",
        "elbow_joint",
        "wrist_1_joint",
        "wrist_2_joint",
        "wrist_3_joint"
    ],
    "metrics": {
        "cart_traj_len": 0.3531560167372847,
        "distance_elbow_joint": 0.44870224999254926,
        "distance_shoulder_lift_joint": 0.2364997938777622,
        "distance_shoulder_pan_joint": 0.46256009271728693,
        "distance_wrist_1_joint": 0.23417414581356988,
        "distance_wrist_2_joint": 1.0966057069916408,
        "distance_wrist_3_joint": 0.0964454698025845,
        "smoothness": 1.1102230263833737e-15,
        "time": 0.02696251,
        "traj_len": 1.6046767460131632,
        "weighted_distance": 2.0245143248704793
    },
    "planner": "EST",
    "start": {
        "state": {
            "elbow_joint": 1.9715463870305268,
            "shoulder_lift_joint": -1.1394903361783484,
            "shoulder_pan_joint": 0.12281147578464417,
            "wrist_1_joint": -0.7804599489681411,
            "wrist_2_joint": 0.12958660307563738,
            "wrist_3_joint": -3.1924946282119055
        }
    },
    "waypoints": [
        {
            "positions": [
                0.12281147578464417,
                -1.1394903361783484,
                1.9715463870305268,
                -0.7804599489681411,
                0.12958660307563738,
                -3.1924946282119055
            ]
        },
        {
            "positions": [
                0.056731462539317476,
                -1.1732760210180286,
                2.035646708458034,
                -0.8139133983700796,
                0.28624456121730035,
                -3.1787167039543935
            ]
        },
        {
            "positions": [
                -0.00934855070600922,
                -1.207061705857709,
                2.099747029885541,
                -0.8473668477720182,
                0.4429025193589633,
                -3.1649387796968815
            ]
        },
        {
            "positions": [
                -0.07542856395133592,
                -1.2408473906973894,
                2.163847351313048,
                -0.8808202971739567,
                0.5995604775006262,
                -3.1511608554393695
            ]
        },
        {
            "positions": [
                -0.1415085771966626,
                -1.2746330755370696,
                2.2279476727405547,
                -0.9142737465758953,
                0.7562184356422893,
                -3.137382931181857
            ]
        },
        {
            "positions": [
                -0.20758859044198935,
                -1.30841876037675,
                2.292047994168062,
                -0.9477271959778338,
                0.9128763937839524,
                -3.123605006924345
            ]
        },
        {
            "positions": [
                -0.273668603687316,
                -1.3422044452164303,
                2.356148315595569,
                -0.9811806453797725,
                1.069534351925615,
                -3.109827082666833
            ]
        },
        {
            "positions": [
                -0.33974861693264274,
                -1.3759901300561106,
                2.420248637023076,
                -1.014634094781711,
                1.2261923100672782,
                -3.096049158409321
            ]
        }
    ]
}