{
    "goal": {
        "global_pose": {
            "orientation": {
                "w": 0.7047431468963623,
                "x": -0.7094548344612122,
                "y": 0.0024358443915843964,
                "z": -0.0022348060738295317
            },
            "position": {
                "x": 0.6094750761985779,
                "y": 0.3671506643295288,
                "z": 0.19426114857196808
            }
        },
        "name": "move_to_magneteinheit_A"
    },
    "id": "EST_move_to_magneteinheit_A_92",
    "joint_names": [
        "shoulder_pan_joint",
        "shoulder_lift_joint",
        "elbow_joint",
        "wrist_1_joint",
        "wrist_2_joint",
        "wrist_3_joint"
    ],
    "metrics": {
        "cart_traj_len": 2.063016369700582,
        "distance_elbow_joint": 3.8766643058253756,
        "distance_shoulder_lift_joint": 1.0546059113649544,
        "distance_shoulder_pan_joint": 1.2404298320725646,
        "distance_wrist_1_joint": 1.146888681862305,
        "distance_wrist_2_joint": 1.445997300522739,
        "distance_wrist_3_joint": 1.9165692091369597,
        "smoothness": 5.075305277722828e-16,
        "time": 0.057182725000000004,
        "traj_len": 3.268203671863934,
        "weighted_distance": 4.1360826444165575
    },
    "planner": "EST",
    "start": {
        "state": {
            "elbow_joint": -1.919643507792019,
            "shoulder_lift_joint": -0.07675430207160344,
            "shoulder_pan_joint": -1.1188671864651873,
            "wrist_1_joint": 0.42560062535961957,
            "wrist_2_joint": 1.5706038300724876,
            "wrist_3_joint": 1.1188968870953055
        }
    },
    "waypoints": [
        {
            "positions": [
                -1.1188671864651873,
                -0.07675430207160344,
                -1.919643507792019,
                0.42560062535961957,
                1.5706038300724876,
                1.1188968870953055
            ]
        },
        {
            "positions": [
                -1.07292534083287,
                -0.11581378027030545,
                -1.7760633483170052,
                0.38312326677212677,
                1.5170483744975714,
                1.1898809318781558
            ]
        },
        {
            "positions": [
                -1.026983495200553,
                -0.15487325846900746,
                -1.6324831888419913,
                0.340645908184634,
                1.463492918922655,
                1.2608649766610063
            ]
        },
        {
            "positions": [
                -0.9810416495682357,
                -0.1939327366677095,
                -1.4889030293669774,
                0.29816854959714123,
                1.4099374633477388,
                1.3318490214438565
            ]
        },
        {
            "positions": [
                -0.9350998039359185,
                -0.2329922148664115,
                -1.3453228698919635,
                0.25569119100964843,
                1.3563820077728226,
                1.402833066226707
            ]
        },
        {
            "positions": [
                -0.8891579583036013,
                -0.2720516930651135,
                -1.2017427104169496,
                0.2132138324221557,
                1.3028265521979063,
                1.4738171110095573
            ]
        },
        {
            "positions": [
                -0.843216112671284,
                -0.3111111712638155,
                -1.0581625509419357,
                0.1707364738346629,
                1.24927109662299,
                1.5448011557924077
            ]
        },
        {
            "positions": [
                -0.797274267038967,
                -0.3501706494625175,
                -0.9145823914669218,
                0.12825911524717015,
                1.1957156410480738,
                1.615785200575258
            ]
        },
        {
            "positions": [
                -0.7513324214066497,
                -0.38923012766121956,
                -0.7710022319919079,
                0.08578175665967736,
                1.1421601854731576,
                1.6867692453581085
            ]
        },
        {
            "positions": [
                -0.7053905757743325,
                -0.42828960585992154,
                -0.627422072516894,
                0.04330439807218461,
                1.0886047298982413,
                1.7577532901409587
            ]
        },
        {
            "positions": [
                -0.6594487301420153,
                -0.4673490840586236,
                -0.48384191304188007,
                0.0008270394846918161,
                1.035049274323325,
                1.828737334923809
            ]
        },
        {
            "positions": [
                -0.613506884509698,
                -0.5064085622573256,
                -0.34026175356686617,
                -0.041650319102800926,
                0.9814938187484088,
                1.8997213797066594
            ]
        },
        {
            "positions": [
                -0.5675650388773809,
                -0.5454680404560276,
                -0.19668159409185226,
                -0.08412767769029378,
                0.9279383631734925,
                1.97070542448951
            ]
        },
        {
            "positions": [
                -0.5216231932450637,
                -0.5845275186547296,
                -0.05310143461683836,
                -0.12660503627778646,
                0.8743829075985763,
                2.0416894692723604
            ]
        },
        {
            "positions": [
                -0.4756813476127465,
                -0.6235869968534316,
                0.09047872485817554,
                -0.16908239486527926,
                0.82082745202366,
                2.1126735140552104
            ]
        },
        {
            "positions": [
                -0.4297395019804292,
                -0.6626464750521337,
                0.23405888433318967,
                -0.21155975345277206,
                0.7672719964487438,
                2.183657558838061
            ]
        },
        {
            "positions": [
                -0.383797656348112,
                -0.7017059532508356,
                0.37763904380820335,
                -0.25403711204026486,
                0.7137165408738275,
                2.254641603620911
            ]
        },
        {
            "positions": [
                -0.33785581071579474,
                -0.7407654314495378,
                0.5212192032832175,
                -0.29651447062775765,
                0.6601610852989113,
                2.3256256484037614
            ]
        },
        {
            "positions": [
                -0.29191396508347767,
                -0.7798249096482397,
                0.6647993627582311,
                -0.33899182921525034,
                0.606605629723995,
                2.396609693186612
            ]
        },
        {
            "positions": [
                -0.24597211945116038,
                -0.8188843878469418,
                0.8083795222332453,
                -0.38146918780274325,
                0.5530501741490788,
                2.4675937379694624
            ]
        },
        {
            "positions": [
                -0.2000302738188432,
                -0.8579438660456438,
                0.951959681708259,
                -0.42394654639023593,
                0.4994947185741625,
                2.538577782752313
            ]
        },
        {
            "positions": [
                -0.1540884281865259,
                -0.8970033442443457,
                1.095539841183273,
                -0.46642390497772873,
                0.44593926299924624,
                2.6095618275351633
            ]
        },
        {
            "positions": [
                -0.10814658255420873,
                -0.9360628224430476,
                1.2391200006582868,
                -0.5089012635652215,
                0.39238380742433,
                2.6805458723180133
            ]
        },
        {
            "positions": [
                -0.062204736921891435,
                -0.9751223006417498,
                1.3827001601333009,
                -0.5513786221527144,
                0.33882835184941373,
                2.751529917100864
            ]
        },
        {
            "positions": [
                -0.016262891289574366,
                -1.0141817788404517,
                1.5262803196083146,
                -0.5938559807402071,
                0.2852728962744975,
                2.822513961883714
            ]
        },
        {
            "positions": [
                0.029678954342742925,
                -1.0532412570391538,
                1.6698604790833287,
                -0.6363333393276998,
                0.23171744069958122,
                2.8934980066665643
            ]
        },
        {
            "positions": [
                0.07562079997506,
                -1.0923007352378558,
                1.8134406385583424,
                -0.6788106979151924,
                0.17816198512466497,
                2.964482051449415
            ]
        },
        {
            "positions": [
                0.1215626456073772,
                -1.131360213436558,
                1.9570207980333563,
                -0.7212880565026855,
                0.12460652954974866,
                3.0354660962322653
            ]
        }
    ]
}