{
    "goal": {
        "global_pose": {
            "orientation": {
                "w": -0.00223480608172531,
                "x": 0.0024358444001904467,
                "y": 0.7094548369677653,
                "z": -0.704743149386269
            },
            "position": {
                "x": 0.6205249238014221,
                "y": -0.6371506643295288,
                "z": 0.19426114857196808
            }
        },
        "name": "move_to_magneteinheit_B"
    },
    "id": "EST_move_to_magneteinheit_B_29",
    "joint_names": [
        "shoulder_pan_joint",
        "shoulder_lift_joint",
        "elbow_joint",
        "wrist_1_joint",
        "wrist_2_joint",
        "wrist_3_joint"
    ],
    "metrics": {
        "cart_traj_len": 3.367413912476165,
        "distance_elbow_joint": 4.0596657057455054,
        "distance_shoulder_lift_joint": 0.8204102086447969,
        "distance_shoulder_pan_joint": 2.3657246213657475,
        "distance_wrist_1_joint": 2.0438136377651452,
        "distance_wrist_2_joint": 0.9074660092627973,
        "distance_wrist_3_joint": 4.762159727050138,
        "smoothness": 0.45613189639906226,
        "time": 0.585943439,
        "traj_len": 3.867717661597616,
        "weighted_distance": 5.2378276996253295
    },
    "planner": "EST",
    "start": {
        "state": {
            "elbow_joint": 2.39358713078474,
            "shoulder_lift_joint": -1.908514104345545,
            "shoulder_pan_joint": 0.7066247066606129,
            "wrist_1_joint": -0.4678290933515497,
            "wrist_2_joint": 0.7096259083745334,
            "wrist_3_joint": -3.1358149277392293
        }
    },
    "waypoints": [
        {
            "positions": [
                0.7066247066606129,
                -1.908514104345545,
                2.39358713078474,
                -0.4678290933515497,
                0.7096259083745334,
                -3.1358149277392293
            ]
        },
        {
            "positions": [
                0.7964303095214911,
                -1.9312390377734003,
                2.3734510098250823,
                -0.3953871466375083,
                0.7309777781933287,
                -3.014759394034282
            ]
        },
        {
            "positions": [
                0.8862359123823691,
                -1.9539639712012558,
                2.353314888865425,
                -0.32294519992346693,
                0.7523296480121238,
                -2.8937038603293344
            ]
        },
        {
            "positions": [
                0.9340077650674639,
                -1.9638413839391728,
                2.3279786166081715,
                -0.2709934753861958,
                0.7712737258948976,
                -2.780207444797934
            ]
        },
        {
            "positions": [
                0.9817796177525586,
                -1.9737187966770902,
                2.3026423443509185,
                -0.21904175084892463,
                0.7902178037776714,
                -2.666711029266534
            ]
        },
        {
            "positions": [
                1.0295514704376534,
                -1.9835962094150072,
                2.277306072093665,
                -0.16709002631165348,
                0.8091618816604452,
                -2.5532146137351335
            ]
        },
        {
            "positions": [
                1.0937003697968144,
                -1.9791239538656018,
                2.141648916971926,
                -0.11541833388744517,
                0.7918654728867274,
                -2.432506701254575
            ]
        },
        {
            "positions": [
                1.1578492691559754,
                -1.9746516983161964,
                2.005991761850187,
                -0.06374664146323686,
                0.7745690641130094,
                -2.311798788774017
            ]
        },
        {
            "positions": [
                1.2219981685151367,
                -1.970179442766791,
                1.8703346067284476,
                -0.012074949039028532,
                0.7572726553392916,
                -2.1910908762934582
            ]
        },
        {
            "positions": [
                1.2861470678742977,
                -1.9657071872173855,
                1.7346774516067085,
                0.03959674338517977,
                0.7399762465655737,
                -2.0703829638129
            ]
        },
        {
            "positions": [
                1.3502959672334587,
                -1.9612349316679798,
                1.5990202964849694,
                0.0912684358093881,
                0.7226798377918557,
                -1.9496750513323415
            ]
        },
        {
            "positions": [
                1.4144448665926197,
                -1.9567626761185744,
                1.4633631413632302,
                0.14294012823359642,
                0.7053834290181379,
                -1.828967138851783
            ]
        },
        {
            "positions": [
                1.4785937659517807,
                -1.952290420569169,
                1.327705986241491,
                0.19461182065780475,
                0.68808702024442,
                -1.7082592263712246
            ]
        },
        {
            "positions": [
                1.542742665310942,
                -1.9478181650197635,
                1.192048831119752,
                0.24628351308201302,
                0.6707906114707021,
                -1.5875513138906663
            ]
        },
        {
            "positions": [
                1.606891564670103,
                -1.943345909470358,
                1.0563916759980128,
                0.2979552055062214,
                0.6534942026969842,
                -1.4668434014101077
            ]
        },
        {
            "positions": [
                1.671040464029264,
                -1.9388736539209526,
                0.9207345208762736,
                0.34962689793042967,
                0.6361977939232664,
                -1.3461354889295494
            ]
        },
        {
            "positions": [
                1.7351893633884252,
                -1.9344013983715471,
                0.7850773657545345,
                0.401298590354638,
                0.6189013851495484,
                -1.225427576448991
            ]
        },
        {
            "positions": [
                1.799338262747586,
                -1.9299291428221417,
                0.6494202106327953,
                0.4529702827788463,
                0.6016049763758305,
                -1.1047196639684327
            ]
        },
        {
            "positions": [
                1.8634871621067473,
                -1.9254568872727362,
                0.5137630555110562,
                0.5046419752030546,
                0.5843085676021126,
                -0.9840117514878741
            ]
        },
        {
            "positions": [
                1.9276360614659083,
                -1.9209846317233308,
                0.378105900389317,
                0.556313667627263,
                0.5670121588283947,
                -0.8633038390073158
            ]
        },
        {
            "positions": [
                1.9917849608250693,
                -1.9165123761739251,
                0.24244874526757787,
                0.6079853600514713,
                0.5497157500546768,
                -0.7425959265267574
            ]
        },
        {
            "positions": [
                2.05593386018423,
                -1.9120401206245197,
                0.10679159014583872,
                0.6596570524756795,
                0.532419341280959,
                -0.6218880140461991
            ]
        },
        {
            "positions": [
                2.1200827595433913,
                -1.9075678650751142,
                -0.028865564975900426,
                0.7113287448998878,
                0.5151229325072411,
                -0.5011801015656405
            ]
        },
        {
            "positions": [
                2.1842316589025526,
                -1.9030956095257088,
                -0.16452272009763957,
                0.7630004373240963,
                0.49782652373352315,
                -0.38047218908508196
            ]
        },
        {
            "positions": [
                2.2483805582617133,
                -1.8986233539763033,
                -0.3001798752193787,
                0.8146721297483046,
                0.48053011495980524,
                -0.25976427660452384
            ]
        },
        {
            "positions": [
                2.3125294576208746,
                -1.8941510984268979,
                -0.43583703034111787,
                0.8663438221725128,
                0.4632337061860874,
                -0.13905636412396527
            ]
        },
        {
            "positions": [
                2.376678356980036,
                -1.8896788428774924,
                -0.571494185462857,
                0.9180155145967213,
                0.4459372974123695,
                -0.018348451643406705
            ]
        },
        {
            "positions": [
                2.4408272563391966,
                -1.885206587328087,
                -0.7071513405845962,
                0.9696872070209295,
                0.4286408886386516,
                0.10235946083715142
            ]
        },
        {
            "positions": [
                2.504976155698358,
                -1.8807343317786815,
                -0.8428084957063353,
                1.0213588994451377,
                0.4113444798649337,
                0.22306737331770998
            ]
        },
        {
            "positions": [
                2.569125055057519,
                -1.8762620762292759,
                -0.9784656508280745,
                1.0730305918693461,
                0.3940480710912158,
                0.3437752857982681
            ]
        },
        {
            "positions": [
                2.63327395441668,
                -1.8717898206798704,
                -1.1141228059498136,
                1.1247022842935546,
                0.3767516623174979,
                0.46448319827882667
            ]
        },
        {
            "positions": [
                2.697422853775841,
                -1.867317565130465,
                -1.2497799610715528,
                1.1763739767177628,
                0.35945525354378,
                0.5851911107593852
            ]
        },
        {
            "positions": [
                2.7615717531350024,
                -1.8628453095810595,
                -1.385437116193292,
                1.2280456691419712,
                0.34215884477006214,
                0.7058990232399434
            ]
        },
        {
            "positions": [
                2.825720652494163,
                -1.858373054031654,
                -1.521094271315031,
                1.2797173615661794,
                0.32486243599634423,
                0.8266069357205018
            ]
        },
        {
            "positions": [
                2.8338667480695747,
                -1.97773566881761,
                -1.5478654603745339,
                1.2213800351765602,
                0.30732597645792586,
                0.7389316916882096
            ]
        },
        {
            "positions": [
                2.8420128436449863,
                -2.097098283603566,
                -1.5746366494340367,
                1.1630427087869413,
                0.28978951691950744,
                0.6512564476559173
            ]
        },
        {
            "positions": [
                2.850158939220398,
                -2.2164608983895215,
                -1.6014078384935397,
                1.104705382397322,
                0.27225305738108907,
                0.5635812036236251
            ]
        },
        {
            "positions": [
                2.8583050347958094,
                -2.3358235131754777,
                -1.6281790275530426,
                1.046368056007703,
                0.2547165978426707,
                0.47590595959133275
            ]
        },
        {
            "positions": [
                2.866451130371221,
                -2.4551861279614333,
                -1.6549502166125454,
                0.9880307296180839,
                0.2371801383042523,
                0.38823071555904054
            ]
        },
        {
            "positions": [
                2.797818397819508,
                -2.462950086048834,
                -1.6586596693952858,
                0.9865038793183106,
                0.3158295691778164,
                0.26777683441605804
            ]
        },
        {
            "positions": [
                2.729185665267795,
                -2.4707140441362347,
                -1.662369122178026,
                0.9849770290185375,
                0.3944790000513805,
                0.14732295327307554
            ]
        },
        {
            "positions": [
                2.6605529327160817,
                -2.4784780022236355,
                -1.6660785749607663,
                0.9834501787187642,
                0.4731284309249446,
                0.02686907213009305
            ]
        }
    ]
}