{
    "goal": {
        "global_pose": {
            "orientation": {
                "w": 0.7047431468963623,
                "x": -0.7094548344612122,
                "y": 0.0024358443915843964,
                "z": -0.0022348060738295317
            },
            "position": {
                "x": 0.6094750761985779,
                "y": 0.3671506643295288,
                "z": 0.19426114857196808
            }
        },
        "name": "move_to_magneteinheit_A"
    },
    "id": "EST_move_to_magneteinheit_A_45",
    "joint_names": [
        "shoulder_pan_joint",
        "shoulder_lift_joint",
        "elbow_joint",
        "wrist_1_joint",
        "wrist_2_joint",
        "wrist_3_joint"
    ],
    "metrics": {
        "cart_traj_len": 1.8740163834821302,
        "distance_elbow_joint": 3.9222464450692813,
        "distance_shoulder_lift_joint": 0.7047526975516092,
        "distance_shoulder_pan_joint": 1.2426227730491066,
        "distance_wrist_1_joint": 1.534069916738286,
        "distance_wrist_2_joint": 1.697821506040085,
        "distance_wrist_3_joint": 1.1502716668976538,
        "smoothness": 9.210739184522919e-16,
        "time": 0.021440479,
        "traj_len": 3.2018408775805867,
        "weighted_distance": 3.972935912133457
    },
    "planner": "EST",
    "start": {
        "state": {
            "elbow_joint": -1.919643507792019,
            "shoulder_lift_joint": -0.07675430207160344,
            "shoulder_pan_joint": -1.1188671864651873,
            "wrist_1_joint": 0.42560062535961957,
            "wrist_2_joint": 1.5706038300724876,
            "wrist_3_joint": 1.1188968870953055
        }
    },
    "waypoints": [
        {
            "positions": [
                -1.1188671864651873,
                -0.07675430207160344,
                -1.919643507792019,
                0.42560062535961957,
                1.5706038300724876,
                1.1188968870953055
            ]
        },
        {
            "positions": [
                -1.0710740028863754,
                -0.10386017505435764,
                -1.7687878752893544,
                0.48460331446493826,
                1.5053030029170997,
                1.0746556691377034
            ]
        },
        {
            "positions": [
                -1.0232808193075638,
                -0.13096604803711184,
                -1.6179322427866898,
                0.543606003570257,
                1.4400021757617119,
                1.0304144511801014
            ]
        },
        {
            "positions": [
                -0.975487635728752,
                -0.15807192101986606,
                -1.4670766102840251,
                0.6026086926755756,
                1.374701348606324,
                0.9861732332224993
            ]
        },
        {
            "positions": [
                -0.9276944521499402,
                -0.18517779400262024,
                -1.3162209777813603,
                0.6616113817808944,
                1.309400521450936,
                0.9419320152648972
            ]
        },
        {
            "positions": [
                -0.8799012685711284,
                -0.21228366698537446,
                -1.1653653452786958,
                0.720614070886213,
                1.2440996942955482,
                0.8976907973072952
            ]
        },
        {
            "positions": [
                -0.8321080849923166,
                -0.23938953996812865,
                -1.014509712776031,
                0.7796167599915318,
                1.1787988671401604,
                0.8534495793496931
            ]
        },
        {
            "positions": [
                -0.7843149014135048,
                -0.26649541295088286,
                -0.8636540802733665,
                0.8386194490968504,
                1.1134980399847725,
                0.8092083613920911
            ]
        },
        {
            "positions": [
                -0.736521717834693,
                -0.29360128593363705,
                -0.7127984477707017,
                0.8976221382021692,
                1.0481972128293844,
                0.7649671434344889
            ]
        },
        {
            "positions": [
                -0.6887285342558812,
                -0.32070715891639123,
                -0.561942815268037,
                0.9566248273074878,
                0.9828963856739966,
                0.720725925476887
            ]
        },
        {
            "positions": [
                -0.6409353506770694,
                -0.3478130318991455,
                -0.41108718276537237,
                1.0156275164128066,
                0.9175955585186087,
                0.6764847075192848
            ]
        },
        {
            "positions": [
                -0.5931421670982576,
                -0.3749189048818996,
                -0.2602315502627077,
                1.0746302055181252,
                0.8522947313632209,
                0.6322434895616829
            ]
        },
        {
            "positions": [
                -0.5453489835194458,
                -0.40202477786465385,
                -0.10937591776004307,
                1.133632894623444,
                0.786993904207833,
                0.5880022716040807
            ]
        },
        {
            "positions": [
                -0.49755579994063404,
                -0.42913065084740804,
                0.041479714742621576,
                1.1926355837287625,
                0.7216930770524451,
                0.5437610536464786
            ]
        },
        {
            "positions": [
                -0.44976261636182224,
                -0.4562365238301622,
                0.192335347245286,
                1.2516382728340814,
                0.6563922498970572,
                0.4995198356888766
            ]
        },
        {
            "positions": [
                -0.40196943278301056,
                -0.4833423968129164,
                0.3431909797479509,
                1.3106409619394,
                0.5910914227416695,
                0.45527861773127454
            ]
        },
        {
            "positions": [
                -0.35417624920419866,
                -0.5104482697956707,
                0.49404661225061575,
                1.3696436510447187,
                0.5257905955862814,
                0.4110373997736724
            ]
        },
        {
            "positions": [
                -0.30638306562538686,
                -0.5375541427784248,
                0.6449022447532802,
                1.4286463401500376,
                0.4604897684308935,
                0.3667961818160703
            ]
        },
        {
            "positions": [
                -0.25858988204657507,
                -0.564660015761179,
                0.795757877255945,
                1.4876490292553561,
                0.39518894127550563,
                0.32255496385846827
            ]
        },
        {
            "positions": [
                -0.21079669846776328,
                -0.5917658887439332,
                0.9466135097586095,
                1.5466517183606747,
                0.329888114120118,
                0.2783137459008663
            ]
        },
        {
            "positions": [
                -0.16300351488895148,
                -0.6188717617266875,
                1.0974691422612743,
                1.6056544074659935,
                0.2645872869647299,
                0.23407252794326405
            ]
        },
        {
            "positions": [
                -0.11521033131013958,
                -0.6459776347094417,
                1.2483247747639388,
                1.6646570965713123,
                0.199286459809342,
                0.1898313099856621
            ]
        },
        {
            "positions": [
                -0.0674171477313279,
                -0.6730835076921957,
                1.3991804072666036,
                1.723659785676631,
                0.13398563265395413,
                0.14559009202806006
            ]
        },
        {
            "positions": [
                -0.019623964152516216,
                -0.70018938067495,
                1.550036039769268,
                1.7826624747819495,
                0.06868480549856626,
                0.101348874070458
            ]
        },
        {
            "positions": [
                0.02816921942629569,
                -0.7272952536577042,
                1.700891672271933,
                1.8416651638872683,
                0.0033839783431783843,
                0.05710765611285584
            ]
        },
        {
            "positions": [
                0.07596240300510759,
                -0.7544011266404584,
                1.8517473047745978,
                1.9006678529925871,
                -0.06191684881220949,
                0.012866438155253679
            ]
        },
        {
            "positions": [
                0.12375558658391922,
                -0.7815069996232127,
                2.002602937277262,
                1.9596705420979057,
                -0.12721767596759745,
                -0.03137477980234833
            ]
        }
    ]
}