{
    "goal": {
        "global_pose": {
            "orientation": {
                "w": 0.7031023502349854,
                "x": -0.7110244035720825,
                "y": 0.007748599164187908,
                "z": 0.005598929710686207
            },
            "position": {
                "x": 0.11585023208521307,
                "y": 0.44412534475326537,
                "z": 0.3711530566215515
            }
        },
        "name": "move_to_auspresseinheit_A"
    },
    "id": "EST_move_to_auspresseinheit_A_75",
    "joint_names": [
        "shoulder_pan_joint",
        "shoulder_lift_joint",
        "elbow_joint",
        "wrist_1_joint",
        "wrist_2_joint",
        "wrist_3_joint"
    ],
    "metrics": {
        "cart_traj_len": 0.6983875703162501,
        "distance_elbow_joint": 0.14797067086376492,
        "distance_shoulder_lift_joint": 1.155412405688137,
        "distance_shoulder_pan_joint": 1.0455529802147143,
        "distance_wrist_1_joint": 1.4371233206888556,
        "distance_wrist_2_joint": 0.5214962306516497,
        "distance_wrist_3_joint": 2.3741734890607185,
        "smoothness": 1.117362488953131,
        "time": 0.461950629,
        "traj_len": 2.584904078910442,
        "weighted_distance": 3.6590566580240025
    },
    "planner": "EST",
    "start": {
        "state": {
            "elbow_joint": 2.422574709923281,
            "shoulder_lift_joint": -1.3736533754116391,
            "shoulder_pan_joint": -0.33786336945926293,
            "wrist_1_joint": -1.0288603412921917,
            "wrist_2_joint": 1.2330224858903978,
            "wrist_3_joint": -3.094022268022082
        }
    },
    "waypoints": [
        {
            "positions": [
                -0.33786336945926293,
                -1.3736533754116391,
                2.422574709923281,
                -1.0288603412921917,
                1.2330224858903978,
                -3.094022268022082
            ]
        },
        {
            "positions": [
                -0.2923847262361486,
                -1.4676260315904728,
                2.429127691094406,
                -0.9177070233074652,
                1.231938056063611,
                -2.964085787887554
            ]
        },
        {
            "positions": [
                -0.24690608301303424,
                -1.5615986877693064,
                2.435680672265531,
                -0.8065537053227387,
                1.2308536262368246,
                -2.834149307753026
            ]
        },
        {
            "positions": [
                -0.2014274397899199,
                -1.65557134394814,
                2.4422336534366558,
                -0.6954003873380122,
                1.229769196410038,
                -2.704212827618498
            ]
        },
        {
            "positions": [
                -0.15594879656680555,
                -1.7495440001269738,
                2.4487866346077807,
                -0.5842470693532857,
                1.2286847665832514,
                -2.57427634748397
            ]
        },
        {
            "positions": [
                -0.1104701533436912,
                -1.8435166563058076,
                2.455339615778906,
                -0.47309375136855913,
                1.2276003367564647,
                -2.444339867349442
            ]
        },
        {
            "positions": [
                -0.06499151012057686,
                -1.937489312484641,
                2.461892596950031,
                -0.36194043338383275,
                1.2265159069296783,
                -2.314403387214914
            ]
        },
        {
            "positions": [
                -0.01951286689746251,
                -2.031461968663475,
                2.468445578121156,
                -0.25078711539910614,
                1.2254314771028916,
                -2.1844669070803855
            ]
        },
        {
            "positions": [
                0.025965776325651835,
                -2.1254346248423084,
                2.4749985592922807,
                -0.13963379741437976,
                1.224347047276105,
                -2.054530426945858
            ]
        },
        {
            "positions": [
                0.07144441954876618,
                -2.2194072810211423,
                2.4815515404634056,
                -0.028480479429653094,
                1.2232626174493184,
                -1.9245939468113296
            ]
        },
        {
            "positions": [
                0.14213832968284232,
                -2.185000781012405,
                2.4716633359830014,
                -0.07700753041035505,
                1.166403021648144,
                -2.0584545210168814
            ]
        },
        {
            "positions": [
                0.21283223981691846,
                -2.1505942810036682,
                2.4617751315025966,
                -0.125534581391057,
                1.1095434258469694,
                -2.1923150952224333
            ]
        },
        {
            "positions": [
                0.2835261499509946,
                -2.116187780994931,
                2.4518869270221924,
                -0.17406163237175895,
                1.052683830045795,
                -2.3261756694279847
            ]
        },
        {
            "positions": [
                0.35422006008507073,
                -2.0817812809861937,
                2.4419987225417876,
                -0.2225886833524609,
                0.9958242342446204,
                -2.4600362436335366
            ]
        },
        {
            "positions": [
                0.42491397021914695,
                -2.047374780977457,
                2.4321105180613833,
                -0.2711157343331629,
                0.938964638443446,
                -2.5938968178390884
            ]
        },
        {
            "positions": [
                0.49560788035322306,
                -2.0129682809687197,
                2.4222223135809786,
                -0.3196427853138648,
                0.8821050426422715,
                -2.72775739204464
            ]
        },
        {
            "positions": [
                0.5663017904872992,
                -1.9785617809599827,
                2.4123341091005743,
                -0.3681698362945668,
                0.825245446841097,
                -2.8616179662501917
            ]
        },
        {
            "positions": [
                0.6369957006213753,
                -1.9441552809512457,
                2.4024459046201696,
                -0.4166968872752687,
                0.7683858510399225,
                -2.9954785404557436
            ]
        },
        {
            "positions": [
                0.7076896107554514,
                -1.9097487809425084,
                2.3925577001397653,
                -0.4652239382559707,
                0.711526255238748,
                -3.1293391146612954
            ]
        }
    ]
}