{
    "goal": {
        "global_pose": {
            "orientation": {
                "w": 0.7047431468963623,
                "x": -0.7094548344612122,
                "y": 0.0024358443915843964,
                "z": -0.0022348060738295317
            },
            "position": {
                "x": 0.6094750761985779,
                "y": 0.3671506643295288,
                "z": 0.19426114857196808
            }
        },
        "name": "move_to_magneteinheit_A"
    },
    "id": "EST_move_to_magneteinheit_A_119",
    "joint_names": [
        "shoulder_pan_joint",
        "shoulder_lift_joint",
        "elbow_joint",
        "wrist_1_joint",
        "wrist_2_joint",
        "wrist_3_joint"
    ],
    "metrics": {
        "cart_traj_len": 2.0643569726937105,
        "distance_elbow_joint": 3.880298830937408,
        "distance_shoulder_lift_joint": 1.057053551504736,
        "distance_shoulder_pan_joint": 1.241616551528346,
        "distance_wrist_1_joint": 1.147066878606212,
        "distance_wrist_2_joint": 1.4348787725717589,
        "distance_wrist_3_joint": 1.9105941321234141,
        "smoothness": 3.489272363895343e-16,
        "time": 0.170210695,
        "traj_len": 3.266727524185615,
        "weighted_distance": 4.132147460182982
    },
    "planner": "EST",
    "start": {
        "state": {
            "elbow_joint": -1.919643507792019,
            "shoulder_lift_joint": -0.07675430207160344,
            "shoulder_pan_joint": -1.1188671864651873,
            "wrist_1_joint": 0.42560062535961957,
            "wrist_2_joint": 1.5706038300724876,
            "wrist_3_joint": 1.1188968870953055
        }
    },
    "waypoints": [
        {
            "positions": [
                -1.1188671864651873,
                -0.07675430207160344,
                -1.919643507792019,
                0.42560062535961957,
                1.5706038300724876,
                1.1188968870953055
            ]
        },
        {
            "positions": [
                -1.0728813882604338,
                -0.11590443360881589,
                -1.7759287362758187,
                0.38311666689272283,
                1.5174601718290892,
                1.1896596327295061
            ]
        },
        {
            "positions": [
                -1.0268955900556802,
                -0.15505456514602833,
                -1.6322139647596186,
                0.3406327084258261,
                1.4643165135856906,
                1.2604223783637065
            ]
        },
        {
            "positions": [
                -0.9809097918509266,
                -0.19420469668324075,
                -1.4884991932434182,
                0.29814874995892937,
                1.4111728553422922,
                1.3311851239979071
            ]
        },
        {
            "positions": [
                -0.9349239936461732,
                -0.2333548282204532,
                -1.3447844217272178,
                0.2556647914920326,
                1.3580291970988938,
                1.4019478696321075
            ]
        },
        {
            "positions": [
                -0.8889381954414196,
                -0.27250495975766564,
                -1.2010696502110176,
                0.21318083302513588,
                1.3048855388554952,
                1.472710615266308
            ]
        },
        {
            "positions": [
                -0.842952397236666,
                -0.31165509129487806,
                -1.0573548786948175,
                0.17069687455823918,
                1.2517418806120968,
                1.5434733609005087
            ]
        },
        {
            "positions": [
                -0.7969665990319125,
                -0.35080522283209054,
                -0.9136401071786171,
                0.12821291609134244,
                1.1985982223686982,
                1.614236106534709
            ]
        },
        {
            "positions": [
                -0.750980800827159,
                -0.38995535436930295,
                -0.7699253356624167,
                0.08572895762444566,
                1.1454545641252998,
                1.6849988521689097
            ]
        },
        {
            "positions": [
                -0.7049950026224054,
                -0.42910548590651537,
                -0.6262105641462166,
                0.043244999157548925,
                1.0923109058819014,
                1.7557615978031103
            ]
        },
        {
            "positions": [
                -0.6590092044176519,
                -0.46825561744372785,
                -0.4824957926300162,
                0.0007610406906521927,
                1.039167247638503,
                1.8265243434373106
            ]
        },
        {
            "positions": [
                -0.6130234062128983,
                -0.5074057489809403,
                -0.3387810211138158,
                -0.04172291777624454,
                0.9860235893951044,
                1.8972870890715112
            ]
        },
        {
            "positions": [
                -0.5670376080081447,
                -0.5465558805181527,
                -0.19506624959761565,
                -0.08420687624314122,
                0.9328799311517059,
                1.9680498347057118
            ]
        },
        {
            "positions": [
                -0.5210518098033912,
                -0.5857060120553652,
                -0.05135147808141527,
                -0.126690834710038,
                0.8797362729083075,
                2.038812580339912
            ]
        },
        {
            "positions": [
                -0.4750660115986376,
                -0.6248561435925777,
                0.09236329343478489,
                -0.16917479317693468,
                0.826592614664909,
                2.109575325974113
            ]
        },
        {
            "positions": [
                -0.429080213393884,
                -0.6640062751297902,
                0.23607806495098527,
                -0.21165875164383158,
                0.7734489564215105,
                2.1803380716083134
            ]
        },
        {
            "positions": [
                -0.38309441518913057,
                -0.7031564066670024,
                0.37979283646718565,
                -0.25414271011072825,
                0.7203052981781121,
                2.2511008172425138
            ]
        },
        {
            "positions": [
                -0.3371086169843769,
                -0.7423065382042149,
                0.523507607983386,
                -0.29662666857762504,
                0.6671616399347134,
                2.3218635628767146
            ]
        },
        {
            "positions": [
                -0.2911228187796234,
                -0.7814566697414274,
                0.667222379499586,
                -0.3391106270445217,
                0.614017981691315,
                2.392626308510915
            ]
        },
        {
            "positions": [
                -0.24513702057486986,
                -0.8206068012786398,
                0.8109371510157868,
                -0.3815945855114185,
                0.5608743234479165,
                2.4633890541451153
            ]
        },
        {
            "positions": [
                -0.1991512223701163,
                -0.8597569328158523,
                0.9546519225319867,
                -0.4240785439783152,
                0.5077306652045182,
                2.534151799779316
            ]
        },
        {
            "positions": [
                -0.15316542416536272,
                -0.8989070643530648,
                1.098366694048187,
                -0.46656250244521197,
                0.45458700696111953,
                2.6049145454135165
            ]
        },
        {
            "positions": [
                -0.10717962596060926,
                -0.938057195890277,
                1.2420814655643875,
                -0.5090464609121086,
                0.40144334871772114,
                2.675677291047717
            ]
        },
        {
            "positions": [
                -0.06119382775585569,
                -0.9772073274274895,
                1.3857962370805879,
                -0.5515304193790054,
                0.3482996904743225,
                2.7464400366819177
            ]
        },
        {
            "positions": [
                -0.01520802955110212,
                -1.016357458964702,
                1.5295110085967878,
                -0.5940143778459019,
                0.2951560322309241,
                2.817202782316118
            ]
        },
        {
            "positions": [
                0.03077776865365145,
                -1.0555075905019144,
                1.6732257801129882,
                -0.6364983363127987,
                0.24201237398752573,
                2.8879655279503185
            ]
        },
        {
            "positions": [
                0.07676356685840502,
                -1.094657722039127,
                1.8169405516291885,
                -0.6789822947796955,
                0.18886871574412734,
                2.9587282735845193
            ]
        },
        {
            "positions": [
                0.12274936506315866,
                -1.1338078535763394,
                1.960655323145389,
                -0.7214662532465923,
                0.13572505750072864,
                3.0294910192187197
            ]
        }
    ]
}