{
    "goal": {
        "global_pose": {
            "orientation": {
                "w": 0.5084816217422485,
                "x": -0.49083608388900757,
                "y": 0.5182115435600281,
                "z": -0.4816462993621826
            },
            "position": {
                "x": 0.5540239810943604,
                "y": 0.030875300988554955,
                "z": 0.16403168439865112
            }
        },
        "name": "move_to_storage_A"
    },
    "id": "EST_move_to_storage_A_38",
    "joint_names": [
        "shoulder_pan_joint",
        "shoulder_lift_joint",
        "elbow_joint",
        "wrist_1_joint",
        "wrist_2_joint",
        "wrist_3_joint"
    ],
    "metrics": {
        "cart_traj_len": 0.35295932599446594,
        "distance_elbow_joint": 0.44956163732318677,
        "distance_shoulder_lift_joint": 0.2359423201716293,
        "distance_shoulder_pan_joint": 0.4587494165793996,
        "distance_wrist_1_joint": 0.241321806666433,
        "distance_wrist_2_joint": 1.111121975922339,
        "distance_wrist_3_joint": 0.09906956488397212,
        "smoothness": 2.2204460668324854e-16,
        "time": 0.052853501000000004,
        "traj_len": 1.6111383309781193,
        "weighted_distance": 2.036258734518695
    },
    "planner": "EST",
    "start": {
        "state": {
            "elbow_joint": 1.9715463870305268,
            "shoulder_lift_joint": -1.1394903361783484,
            "shoulder_pan_joint": 0.12281147578464417,
            "wrist_1_joint": -0.7804599489681411,
            "wrist_2_joint": 0.12958660307563738,
            "wrist_3_joint": -3.1924946282119055
        }
    },
    "waypoints": [
        {
            "positions": [
                0.12281147578464417,
                -1.1394903361783484,
                1.9715463870305268,
                -0.7804599489681411,
                0.12958660307563738,
                -3.1924946282119055
            ]
        },
        {
            "positions": [
                0.057275844844729945,
                -1.1731963819171525,
                2.035769478076696,
                -0.8149344927776315,
                0.28831831392168583,
                -3.178341833228481
            ]
        },
        {
            "positions": [
                -0.008259786095184282,
                -1.2069024276559568,
                2.099992569122866,
                -0.849409036587122,
                0.44705002476773426,
                -3.1641890382450564
            ]
        },
        {
            "positions": [
                -0.0737954170350985,
                -1.2406084733947609,
                2.1642156601690354,
                -0.8838835803966123,
                0.6057817356137827,
                -3.150036243261632
            ]
        },
        {
            "positions": [
                -0.13933104797501272,
                -1.2743145191335652,
                2.228438751215205,
                -0.9183581242061027,
                0.7645134464598311,
                -3.135883448278207
            ]
        },
        {
            "positions": [
                -0.204866678914927,
                -1.3080205648723693,
                2.2926618422613743,
                -0.9528326680155932,
                0.9232451573058795,
                -3.1217306532947826
            ]
        },
        {
            "positions": [
                -0.27040230985484115,
                -1.3417266106111736,
                2.356884933307544,
                -0.9873072118250836,
                1.081976868151928,
                -3.107577858311358
            ]
        },
        {
            "positions": [
                -0.3359379407947554,
                -1.3754326563499777,
                2.4211080243537135,
                -1.021781755634574,
                1.2407085789979764,
                -3.0934250633279334
            ]
        }
    ]
}