{
    "goal": {
        "global_pose": {
            "orientation": {
                "w": 0.5084816217422485,
                "x": -0.49083608388900757,
                "y": 0.5182115435600281,
                "z": -0.4816462993621826
            },
            "position": {
                "x": 0.5540239810943604,
                "y": 0.030875300988554955,
                "z": 0.16403168439865112
            }
        },
        "name": "move_to_storage_A"
    },
    "id": "EST_move_to_storage_A_49",
    "joint_names": [
        "shoulder_pan_joint",
        "shoulder_lift_joint",
        "elbow_joint",
        "wrist_1_joint",
        "wrist_2_joint",
        "wrist_3_joint"
    ],
    "metrics": {
        "cart_traj_len": 0.35320124258544916,
        "distance_elbow_joint": 0.4542532051102892,
        "distance_shoulder_lift_joint": 0.23491500791935538,
        "distance_shoulder_pan_joint": 0.464103715428345,
        "distance_wrist_1_joint": 0.2563009977391718,
        "distance_wrist_2_joint": 1.0904272818007743,
        "distance_wrist_3_joint": 0.09869031833677244,
        "smoothness": 4.440892098500626e-16,
        "time": 0.094724478,
        "traj_len": 1.6120454479743145,
        "weighted_distance": 2.035386804159887
    },
    "planner": "EST",
    "start": {
        "state": {
            "elbow_joint": 1.9715463870305268,
            "shoulder_lift_joint": -1.1394903361783484,
            "shoulder_pan_joint": 0.12281147578464417,
            "wrist_1_joint": -0.7804599489681411,
            "wrist_2_joint": 0.12958660307563738,
            "wrist_3_joint": -3.1924946282119055
        }
    },
    "waypoints": [
        {
            "positions": [
                0.12281147578464417,
                -1.1394903361783484,
                1.9715463870305268,
                -0.7804599489681411,
                0.12958660307563738,
                -3.1924946282119055
            ]
        },
        {
            "positions": [
                0.056510945009166313,
                -1.1730496230239706,
                2.0364397020462826,
                -0.8170743772165941,
                0.28536192904717655,
                -3.1783960113066523
            ]
        },
        {
            "positions": [
                -0.009789585766311545,
                -1.2066089098695927,
                2.101333017062038,
                -0.8536888054650473,
                0.4411372550187157,
                -3.164297394401399
            ]
        },
        {
            "positions": [
                -0.07609011654178939,
                -1.240168196715215,
                2.1662263320777937,
                -0.8903032337135004,
                0.5969125809902549,
                -3.1501987774961457
            ]
        },
        {
            "positions": [
                -0.14239064731726725,
                -1.2737274835608372,
                2.231119647093549,
                -0.9269176619619536,
                0.7526879069617941,
                -3.136100160590893
            ]
        },
        {
            "positions": [
                -0.20869117809274512,
                -1.3072867704064595,
                2.296012962109305,
                -0.9635320902104066,
                0.9084632329333333,
                -3.1220015436856396
            ]
        },
        {
            "positions": [
                -0.27499170886822294,
                -1.3408460572520815,
                2.36090627712506,
                -1.0001465184588598,
                1.0642385589048724,
                -3.1079029267803864
            ]
        },
        {
            "positions": [
                -0.3412922396437008,
                -1.3744053440977038,
                2.425799592140816,
                -1.036760946707313,
                1.2200138848764117,
                -3.093804309875133
            ]
        }
    ]
}