{
    "goal": {
        "global_pose": {
            "orientation": {
                "w": -0.00223480608172531,
                "x": 0.0024358444001904467,
                "y": 0.7094548369677653,
                "z": -0.704743149386269
            },
            "position": {
                "x": 0.6205249238014221,
                "y": -0.6371506643295288,
                "z": 0.19426114857196808
            }
        },
        "name": "move_to_magneteinheit_B"
    },
    "id": "EST_move_to_magneteinheit_B_94",
    "joint_names": [
        "shoulder_pan_joint",
        "shoulder_lift_joint",
        "elbow_joint",
        "wrist_1_joint",
        "wrist_2_joint",
        "wrist_3_joint"
    ],
    "metrics": {
        "cart_traj_len": 1.4530710954088648,
        "distance_elbow_joint": 0.7314097387396072,
        "distance_shoulder_lift_joint": 1.2480629896554496,
        "distance_shoulder_pan_joint": 1.6206451344195538,
        "distance_wrist_1_joint": 2.6066683982269434,
        "distance_wrist_2_joint": 2.9392386087127282,
        "distance_wrist_3_joint": 3.1404721292536912,
        "smoothness": 2.6914497627957446e-16,
        "time": 0.050558831,
        "traj_len": 3.505209979303376,
        "weighted_distance": 4.910534417398479
    },
    "planner": "EST",
    "start": {
        "state": {
            "elbow_joint": 2.39358713078474,
            "shoulder_lift_joint": -1.908514104345545,
            "shoulder_pan_joint": 0.7066247066606129,
            "wrist_1_joint": -0.4678290933515497,
            "wrist_2_joint": 0.7096259083745334,
            "wrist_3_joint": -3.1358149277392293
        }
    },
    "waypoints": [
        {
            "positions": [
                0.7066247066606129,
                -1.908514104345545,
                2.39358713078474,
                -0.4678290933515497,
                0.7096259083745334,
                -3.1358149277392293
            ]
        },
        {
            "positions": [
                0.6559795462100019,
                -1.869512135918812,
                2.3707305764491275,
                -0.3863707059069577,
                0.6177747018522607,
                -3.0376751737000514
            ]
        },
        {
            "positions": [
                0.6053343857593908,
                -1.8305101674920794,
                2.3478740221135146,
                -0.3049123184623658,
                0.5259234953299879,
                -2.9395354196608734
            ]
        },
        {
            "positions": [
                0.5546892253087798,
                -1.7915081990653465,
                2.325017467777902,
                -0.22345393101777378,
                0.43407228880771515,
                -2.841395665621696
            ]
        },
        {
            "positions": [
                0.5040440648581688,
                -1.7525062306386137,
                2.302160913442289,
                -0.14199554357318178,
                0.3422210822854424,
                -2.743255911582518
            ]
        },
        {
            "positions": [
                0.45339890440755765,
                -1.713504262211881,
                2.2793043591066766,
                -0.060537156128589786,
                0.25036987576316966,
                -2.64511615754334
            ]
        },
        {
            "positions": [
                0.40275374395694663,
                -1.6745022937851481,
                2.2564478047710637,
                0.020921231316002153,
                0.15851866924089686,
                -2.5469764035041624
            ]
        },
        {
            "positions": [
                0.35210858350633556,
                -1.6355003253584153,
                2.233591250435451,
                0.10237961876059415,
                0.06666746271862412,
                -2.4488366494649845
            ]
        },
        {
            "positions": [
                0.3014634230557245,
                -1.5964983569316824,
                2.210734696099838,
                0.18383800620518614,
                -0.02518374380364863,
                -2.3506968954258065
            ]
        },
        {
            "positions": [
                0.2508182626051134,
                -1.5574963885049498,
                2.1878781417642257,
                0.26529639364977814,
                -0.11703495032592137,
                -2.2525571413866285
            ]
        },
        {
            "positions": [
                0.20017310215450235,
                -1.5184944200782169,
                2.1650215874286127,
                0.34675478109437013,
                -0.20888615684819412,
                -2.1544173873474506
            ]
        },
        {
            "positions": [
                0.14952794170389128,
                -1.4794924516514842,
                2.142165033093,
                0.42821316853896213,
                -0.30073736337046697,
                -2.056277633308273
            ]
        },
        {
            "positions": [
                0.09888278125328032,
                -1.4404904832247514,
                2.1193084787573873,
                0.5096715559835541,
                -0.3925885698927397,
                -1.958137879269095
            ]
        },
        {
            "positions": [
                0.048237620802669245,
                -1.4014885147980185,
                2.0964519244217747,
                0.5911299434281461,
                -0.48443977641501246,
                -1.8599981252299171
            ]
        },
        {
            "positions": [
                -0.0024075396479418254,
                -1.3624865463712856,
                2.073595370086162,
                0.6725883308727381,
                -0.5762909829372852,
                -1.7618583711907394
            ]
        },
        {
            "positions": [
                -0.053052700098552896,
                -1.3234845779445528,
                2.0507388157505493,
                0.7540467183173301,
                -0.668142189459558,
                -1.6637186171515617
            ]
        },
        {
            "positions": [
                -0.10369786054916397,
                -1.2844826095178201,
                2.0278822614149363,
                0.835505105761922,
                -0.7599933959818307,
                -1.5655788631123837
            ]
        },
        {
            "positions": [
                -0.15434302099977504,
                -1.2454806410910875,
                2.005025707079324,
                0.916963493206514,
                -0.8518446025041034,
                -1.4674391090732057
            ]
        },
        {
            "positions": [
                -0.2049881814503861,
                -1.2064786726643546,
                1.9821691527437109,
                0.998421880651106,
                -0.9436958090263762,
                -1.369299355034028
            ]
        },
        {
            "positions": [
                -0.2556333419009972,
                -1.1674767042376217,
                1.9593125984080983,
                1.079880268095698,
                -1.0355470155486488,
                -1.2711596009948503
            ]
        },
        {
            "positions": [
                -0.30627850235160825,
                -1.1284747358108889,
                1.9364560440724854,
                1.16133865554029,
                -1.1273982220709216,
                -1.1730198469556723
            ]
        },
        {
            "positions": [
                -0.3569236628022193,
                -1.089472767384156,
                1.9135994897368729,
                1.242797042984882,
                -1.2192494285931943,
                -1.0748800929164943
            ]
        },
        {
            "positions": [
                -0.4075688232528304,
                -1.0504707989574233,
                1.89074293540126,
                1.324255430429474,
                -1.3111006351154675,
                -0.9767403388773168
            ]
        },
        {
            "positions": [
                -0.45821398370344146,
                -1.0114688305306905,
                1.8678863810656474,
                1.405713817874066,
                -1.4029518416377402,
                -0.8786005848381389
            ]
        },
        {
            "positions": [
                -0.5088591441540523,
                -0.9724668621039577,
                1.8450298267300347,
                1.4871722053186578,
                -1.494803048160013,
                -0.7804608307989609
            ]
        },
        {
            "positions": [
                -0.5595043046046634,
                -0.933464893677225,
                1.822173272394422,
                1.5686305927632498,
                -1.5866542546822857,
                -0.6823210767597829
            ]
        },
        {
            "positions": [
                -0.6101494650552745,
                -0.8944629252504921,
                1.7993167180588092,
                1.6500889802078418,
                -1.6785054612045585,
                -0.584181322720605
            ]
        },
        {
            "positions": [
                -0.6607946255058855,
                -0.8554609568237592,
                1.7764601637231965,
                1.7315473676524338,
                -1.7703566677268312,
                -0.48604156868142745
            ]
        },
        {
            "positions": [
                -0.7114397859564966,
                -0.8164589883970266,
                1.7536036093875838,
                1.8130057550970258,
                -1.862207874249104,
                -0.3879018146422495
            ]
        },
        {
            "positions": [
                -0.7620849464071077,
                -0.7774570199702937,
                1.730747055051971,
                1.8944641425416178,
                -1.9540590807713767,
                -0.2897620606030715
            ]
        },
        {
            "positions": [
                -0.8127301068577187,
                -0.7384550515435608,
                1.7078905007163583,
                1.9759225299862098,
                -2.0459102872936494,
                -0.191622306563894
            ]
        },
        {
            "positions": [
                -0.8633752673083298,
                -0.6994530831168282,
                1.6850339463807456,
                2.0573809174308018,
                -2.137761493815922,
                -0.09348255252471604
            ]
        },
        {
            "positions": [
                -0.914020427758941,
                -0.6604511146900953,
                1.6621773920451328,
                2.1388393048753938,
                -2.229612700338195,
                0.004657201514461999
            ]
        }
    ]
}