{
    "goal": {
        "global_pose": {
            "orientation": {
                "w": 0.5084816217422485,
                "x": -0.49083608388900757,
                "y": 0.5182115435600281,
                "z": -0.4816462993621826
            },
            "position": {
                "x": 0.5540239810943604,
                "y": 0.030875300988554955,
                "z": 0.16403168439865112
            }
        },
        "name": "move_to_storage_A"
    },
    "id": "EST_move_to_storage_A_68",
    "joint_names": [
        "shoulder_pan_joint",
        "shoulder_lift_joint",
        "elbow_joint",
        "wrist_1_joint",
        "wrist_2_joint",
        "wrist_3_joint"
    ],
    "metrics": {
        "cart_traj_len": 0.3537934609540828,
        "distance_elbow_joint": 0.45283050950608184,
        "distance_shoulder_lift_joint": 0.2340374956983995,
        "distance_shoulder_pan_joint": 0.4622726994691578,
        "distance_wrist_1_joint": 0.2529812150970002,
        "distance_wrist_2_joint": 1.1020871035730218,
        "distance_wrist_3_joint": 0.0978249474808508,
        "smoothness": 2.2204460668324854e-16,
        "time": 0.063686409,
        "traj_len": 1.6130821339363077,
        "weighted_distance": 2.0378302638974217
    },
    "planner": "EST",
    "start": {
        "state": {
            "elbow_joint": 1.9715463870305268,
            "shoulder_lift_joint": -1.1394903361783484,
            "shoulder_pan_joint": 0.12281147578464417,
            "wrist_1_joint": -0.7804599489681411,
            "wrist_2_joint": 0.12958660307563738,
            "wrist_3_joint": -3.1924946282119055
        }
    },
    "waypoints": [
        {
            "positions": [
                0.12281147578464417,
                -1.1394903361783484,
                1.9715463870305268,
                -0.7804599489681411,
                0.12958660307563738,
                -3.1924946282119055
            ]
        },
        {
            "positions": [
                0.05677251871762164,
                -1.1729242641352626,
                2.03623645981711,
                -0.8166001225534268,
                0.2870276178717833,
                -3.178519635714641
            ]
        },
        {
            "positions": [
                -0.009266438349400899,
                -1.2063581920921769,
                2.100926532603693,
                -0.8527402961387126,
                0.44446863266792924,
                -3.164544643217377
            ]
        },
        {
            "positions": [
                -0.07530539541642343,
                -1.2397921200490911,
                2.165616605390276,
                -0.8888804697239983,
                0.6019096474640753,
                -3.1505696507201124
            ]
        },
        {
            "positions": [
                -0.14134435248344596,
                -1.2732260480060051,
                2.2303066781768592,
                -0.925020643309284,
                0.7593506622602212,
                -3.136594658222848
            ]
        },
        {
            "positions": [
                -0.20738330955046852,
                -1.3066599759629194,
                2.2949967509634424,
                -0.9611608168945698,
                0.9167916770563672,
                -3.1226196657255834
            ]
        },
        {
            "positions": [
                -0.273422266617491,
                -1.3400939039198336,
                2.3596868237500255,
                -0.9973009904798555,
                1.0742326918525131,
                -3.1086446732283193
            ]
        },
        {
            "positions": [
                -0.3394612236845136,
                -1.3735278318767479,
                2.4243768965366086,
                -1.0334411640651413,
                1.2316737066486592,
                -3.0946696807310548
            ]
        }
    ]
}