{
    "goal": {
        "global_pose": {
            "orientation": {
                "w": 0.5084816217422485,
                "x": -0.49083608388900757,
                "y": 0.5182115435600281,
                "z": -0.4816462993621826
            },
            "position": {
                "x": 0.5540239810943604,
                "y": 0.030875300988554955,
                "z": 0.16403168439865112
            }
        },
        "name": "move_to_storage_A"
    },
    "id": "EST_move_to_storage_A_30",
    "joint_names": [
        "shoulder_pan_joint",
        "shoulder_lift_joint",
        "elbow_joint",
        "wrist_1_joint",
        "wrist_2_joint",
        "wrist_3_joint"
    ],
    "metrics": {
        "cart_traj_len": 0.3524983191574627,
        "distance_elbow_joint": 0.4470231850884274,
        "distance_shoulder_lift_joint": 0.23413844202091139,
        "distance_shoulder_pan_joint": 0.4617856418131882,
        "distance_wrist_1_joint": 0.23593853111336893,
        "distance_wrist_2_joint": 1.093125611228417,
        "distance_wrist_3_joint": 0.09889666152419796,
        "smoothness": 4.440892133664971e-16,
        "time": 0.042552811,
        "traj_len": 1.6034051492958699,
        "weighted_distance": 2.02429383691664
    },
    "planner": "EST",
    "start": {
        "state": {
            "elbow_joint": 1.9715463870305268,
            "shoulder_lift_joint": -1.1394903361783484,
            "shoulder_pan_joint": 0.12281147578464417,
            "wrist_1_joint": -0.7804599489681411,
            "wrist_2_joint": 0.12958660307563738,
            "wrist_3_joint": -3.1924946282119055
        }
    },
    "waypoints": [
        {
            "positions": [
                0.12281147578464417,
                -1.1394903361783484,
                1.9715463870305268,
                -0.7804599489681411,
                0.12958660307563738,
                -3.1924946282119055
            ]
        },
        {
            "positions": [
                0.05684209838276015,
                -1.1729386850384786,
                2.0354068420431592,
                -0.814165453412908,
                0.28574740467969695,
                -3.1783665337084486
            ]
        },
        {
            "positions": [
                -0.009127279019123871,
                -1.2063870338986087,
                2.0992672970557917,
                -0.8478709578576751,
                0.4419082062837565,
                -3.164238439204992
            ]
        },
        {
            "positions": [
                -0.07509665642100789,
                -1.239835382758739,
                2.1631277520684242,
                -0.881576462302442,
                0.598069007887816,
                -3.150110344701535
            ]
        },
        {
            "positions": [
                -0.1410660338228919,
                -1.2732837316188692,
                2.2269882070810567,
                -0.9152819667472091,
                0.7542298094918756,
                -3.135982250198078
            ]
        },
        {
            "positions": [
                -0.20703541122477598,
                -1.3067320804789995,
                2.290848662093689,
                -0.948987471191976,
                0.9103906110959352,
                -3.121854155694621
            ]
        },
        {
            "positions": [
                -0.27300478862665994,
                -1.3401804293391295,
                2.3547091171063217,
                -0.9826929756367431,
                1.0665514126999946,
                -3.1077260611911646
            ]
        },
        {
            "positions": [
                -0.338974166028544,
                -1.3736287781992598,
                2.418569572118954,
                -1.01639848008151,
                1.2227122143040543,
                -3.0935979666877076
            ]
        }
    ]
}