{
    "goal": {
        "global_pose": {
            "orientation": {
                "w": -0.00223480608172531,
                "x": 0.0024358444001904467,
                "y": 0.7094548369677653,
                "z": -0.704743149386269
            },
            "position": {
                "x": 0.6205249238014221,
                "y": -0.6371506643295288,
                "z": 0.19426114857196808
            }
        },
        "name": "move_to_magneteinheit_B"
    },
    "id": "EST_move_to_magneteinheit_B_145",
    "joint_names": [
        "shoulder_pan_joint",
        "shoulder_lift_joint",
        "elbow_joint",
        "wrist_1_joint",
        "wrist_2_joint",
        "wrist_3_joint"
    ],
    "metrics": {
        "cart_traj_len": 5.145387756688561,
        "distance_elbow_joint": 5.095355700592263,
        "distance_shoulder_lift_joint": 4.143994226449719,
        "distance_shoulder_pan_joint": 4.118138493500915,
        "distance_wrist_1_joint": 3.3011923091861473,
        "distance_wrist_2_joint": 4.7887246793687535,
        "distance_wrist_3_joint": 6.600872576624756,
        "smoothness": 0.491259984356654,
        "time": 4.189126613,
        "traj_len": 5.2960624982832805,
        "weighted_distance": 7.0242394696883
    },
    "planner": "EST",
    "start": {
        "state": {
            "elbow_joint": 2.39358713078474,
            "shoulder_lift_joint": -1.908514104345545,
            "shoulder_pan_joint": 0.7066247066606129,
            "wrist_1_joint": -0.4678290933515497,
            "wrist_2_joint": 0.7096259083745334,
            "wrist_3_joint": -3.1358149277392293
        }
    },
    "waypoints": [
        {
            "positions": [
                0.7066247066606129,
                -1.908514104345545,
                2.39358713078474,
                -0.4678290933515497,
                0.7096259083745334,
                -3.1358149277392293
            ]
        },
        {
            "positions": [
                0.6347121829203863,
                -1.9721453149725723,
                2.4314557084067157,
                -0.43420387495296725,
                0.7673504930444826,
                -3.0161324919615295
            ]
        },
        {
            "positions": [
                0.5627996591801598,
                -2.0357765255995997,
                2.4693242860286917,
                -0.40057865655438485,
                0.8250750777144316,
                -2.89645005618383
            ]
        },
        {
            "positions": [
                0.4908871354399333,
                -2.0994077362266275,
                2.5071928636506673,
                -0.3669534381558024,
                0.8827996623843807,
                -2.7767676204061296
            ]
        },
        {
            "positions": [
                0.41897461169970673,
                -2.163038946853655,
                2.545061441272643,
                -0.33332821975721993,
                0.9405242470543298,
                -2.65708518462843
            ]
        },
        {
            "positions": [
                0.3915839124219813,
                -2.0963744169248892,
                2.4347123132398107,
                -0.39653465358052786,
                0.9701376732489023,
                -2.5595902095569927
            ]
        },
        {
            "positions": [
                0.3641932131442559,
                -2.029709886996123,
                2.324363185206978,
                -0.45974108740383574,
                0.9997510994434748,
                -2.4620952344855556
            ]
        },
        {
            "positions": [
                0.33680251386653043,
                -1.9630453570673576,
                2.214014057174146,
                -0.5229475212271436,
                1.0293645256380475,
                -2.3646002594141184
            ]
        },
        {
            "positions": [
                0.309411814588805,
                -1.896380827138592,
                2.1036649291413134,
                -0.5861539550504515,
                1.05897795183262,
                -2.2671052843426813
            ]
        },
        {
            "positions": [
                0.28202111531107954,
                -1.8297162972098262,
                1.9933158011084813,
                -0.6493603888737595,
                1.0885913780271925,
                -2.1696103092712438
            ]
        },
        {
            "positions": [
                0.2546304160333541,
                -1.7630517672810604,
                1.882966673075649,
                -0.7125668226970674,
                1.1182048042217652,
                -2.0721153341998066
            ]
        },
        {
            "positions": [
                0.2272397167556287,
                -1.6963872373522948,
                1.7726175450428165,
                -0.7757732565203752,
                1.1478182304163376,
                -1.9746203591283695
            ]
        },
        {
            "positions": [
                0.1998490174779033,
                -1.629722707423529,
                1.6622684170099844,
                -0.8389796903436831,
                1.1774316566109102,
                -1.8771253840569324
            ]
        },
        {
            "positions": [
                0.17245831820017785,
                -1.5630581774947632,
                1.5519192889771518,
                -0.9021861241669911,
                1.2070450828054828,
                -1.7796304089854953
            ]
        },
        {
            "positions": [
                0.1450676189224524,
                -1.4963936475659976,
                1.4415701609443194,
                -0.965392557990299,
                1.2366585090000553,
                -1.6821354339140582
            ]
        },
        {
            "positions": [
                0.11767691964472698,
                -1.429729117637232,
                1.3312210329114873,
                -1.028598991813607,
                1.2662719351946279,
                -1.584640458842621
            ]
        },
        {
            "positions": [
                0.09028622036700157,
                -1.363064587708466,
                1.220871904878655,
                -1.0918054256369147,
                1.2958853613892005,
                -1.487145483771184
            ]
        },
        {
            "positions": [
                0.0628955210892761,
                -1.2964000577797004,
                1.1105227768458226,
                -1.1550118594602226,
                1.325498787583773,
                -1.3896505086997466
            ]
        },
        {
            "positions": [
                0.03550482181155068,
                -1.2297355278509345,
                1.0001736488129902,
                -1.2182182932835306,
                1.3551122137783456,
                -1.2921555336283095
            ]
        },
        {
            "positions": [
                0.008114122533825208,
                -1.1630709979221687,
                0.8898245207801578,
                -1.2814247271068386,
                1.3847256399729182,
                -1.1946605585568721
            ]
        },
        {
            "positions": [
                -0.019276576743900153,
                -1.0964064679934031,
                0.7794753927473257,
                -1.3446311609301462,
                1.4143390661674906,
                -1.0971655834854352
            ]
        },
        {
            "positions": [
                -0.04666727602162557,
                -1.0297419380646375,
                0.6691262647144935,
                -1.4078375947534543,
                1.443952492362063,
                -0.9996706084139981
            ]
        },
        {
            "positions": [
                -0.07405797529935104,
                -0.9630774081358717,
                0.558777136681661,
                -1.4710440285767623,
                1.4735659185566357,
                -0.9021756333425608
            ]
        },
        {
            "positions": [
                -0.1014486745770764,
                -0.8964128782071059,
                0.4484280086488286,
                -1.53425046240007,
                1.5031793447512083,
                -0.8046806582711237
            ]
        },
        {
            "positions": [
                -0.12883937385480193,
                -0.8297483482783401,
                0.338078880615996,
                -1.597456896223378,
                1.5327927709457807,
                -0.7071856831996863
            ]
        },
        {
            "positions": [
                -0.15623007313252735,
                -0.7630838183495745,
                0.22772975258316386,
                -1.660663330046686,
                1.5624061971403533,
                -0.6096907081282494
            ]
        },
        {
            "positions": [
                -0.18362077241025276,
                -0.6964192884208089,
                0.11738062455033171,
                -1.7238697638699936,
                1.592019623334926,
                -0.5121957330568123
            ]
        },
        {
            "positions": [
                -0.21101147168797818,
                -0.6297547584920429,
                0.007031496517499125,
                -1.7870761976933016,
                1.6216330495294984,
                -0.41470075798537476
            ]
        },
        {
            "positions": [
                -0.2384021709657036,
                -0.5630902285632773,
                -0.10331763151533302,
                -1.8502826315166097,
                1.651246475724071,
                -0.3172057829139381
            ]
        },
        {
            "positions": [
                -0.265792870243429,
                -0.4964256986345117,
                -0.21366675954816516,
                -1.9134890653399172,
                1.6808599019186437,
                -0.21971080784250097
            ]
        },
        {
            "positions": [
                -0.29318356952115454,
                -0.4297611687057459,
                -0.32401588758099775,
                -1.9766954991632253,
                1.710473328113216,
                -0.1222158327710634
            ]
        },
        {
            "positions": [
                -0.32057426879887996,
                -0.36309663877698006,
                -0.4343650156138299,
                -2.0399019329865333,
                1.7400867543077885,
                -0.024720857699626286
            ]
        },
        {
            "positions": [
                -0.3479649680766054,
                -0.29643210884821425,
                -0.5447141436466625,
                -2.1031083668098414,
                1.7697001805023613,
                0.07277411737181083
            ]
        },
        {
            "positions": [
                -0.3753556673543308,
                -0.22976757891944866,
                -0.6550632716794946,
                -2.166314800633149,
                1.7993136066969337,
                0.17026909244324795
            ]
        },
        {
            "positions": [
                -0.2888585526661034,
                -0.2778063166512348,
                -0.6954206227330876,
                -2.1483338612976626,
                1.696194222774703,
                0.08195264574818065
            ]
        },
        {
            "positions": [
                -0.20236143797787604,
                -0.3258450543830209,
                -0.7357779737866804,
                -2.130352921962176,
                1.5930748388524727,
                -0.006363800946886655
            ]
        },
        {
            "positions": [
                -0.11586432328964869,
                -0.3738837921148071,
                -0.7761353248402734,
                -2.1123719826266893,
                1.489955454930242,
                -0.09468024764195393
            ]
        },
        {
            "positions": [
                -0.02936720860142128,
                -0.42192252984659323,
                -0.8164926758938662,
                -2.094391043291203,
                1.3868360710080117,
                -0.18299669433702126
            ]
        },
        {
            "positions": [
                0.057129906086806126,
                -0.4699612675783794,
                -0.8568500269474592,
                -2.0764101039557166,
                1.2837166870857808,
                -0.2713131410320886
            ]
        },
        {
            "positions": [
                0.14362702077503342,
                -0.5180000053101655,
                -0.8972073780010521,
                -2.05842916462023,
                1.1805973031635504,
                -0.3596295877271558
            ]
        },
        {
            "positions": [
                0.23012413546326083,
                -0.5660387430419517,
                -0.9375647290546449,
                -2.0404482252847433,
                1.07747791924132,
                -0.44794603442222325
            ]
        },
        {
            "positions": [
                0.31662125015148823,
                -0.6140774807737378,
                -0.9779220801082379,
                -2.022467285949257,
                0.9743585353190893,
                -0.5362624811172905
            ]
        },
        {
            "positions": [
                0.40311836483971564,
                -0.662116218505524,
                -1.0182794311618308,
                -2.0044863466137706,
                0.8712391513968588,
                -0.6245789278123578
            ]
        },
        {
            "positions": [
                0.48961547952794304,
                -0.7101549562373102,
                -1.0586367822154237,
                -1.986505407278284,
                0.7681197674746281,
                -0.7128953745074251
            ]
        },
        {
            "positions": [
                0.5761125942161703,
                -0.7581936939690962,
                -1.0989941332690165,
                -1.9685244679427976,
                0.6650003835523977,
                -0.8012118212024923
            ]
        },
        {
            "positions": [
                0.6626097089043976,
                -0.8062324317008824,
                -1.1393514843226096,
                -1.950543528607311,
                0.5618809996301672,
                -0.8895282678975596
            ]
        },
        {
            "positions": [
                0.749106823592625,
                -0.8542711694326686,
                -1.1797088353762024,
                -1.9325625892718246,
                0.4587616157079366,
                -0.977844714592627
            ]
        },
        {
            "positions": [
                0.8356039382808524,
                -0.9023099071644547,
                -1.2200661864297953,
                -1.914581649936338,
                0.355642231785706,
                -1.0661611612876944
            ]
        },
        {
            "positions": [
                0.9221010529690798,
                -0.9503486448962409,
                -1.2604235374833883,
                -1.8966007106008516,
                0.25252284786347534,
                -1.1544776079827617
            ]
        },
        {
            "positions": [
                1.0085981676573073,
                -0.998387382628027,
                -1.3007808885369812,
                -1.878619771265365,
                0.14940346394124493,
                -1.2427940546778289
            ]
        },
        {
            "positions": [
                1.0950952823455344,
                -1.046426120359813,
                -1.341138239590574,
                -1.8606388319298786,
                0.04628408001901452,
                -1.331110501372896
            ]
        },
        {
            "positions": [
                1.181592397033762,
                -1.0944648580915994,
                -1.381495590644167,
                -1.842657892594392,
                -0.05683530390321612,
                -1.4194269480679635
            ]
        },
        {
            "positions": [
                1.2680895117219892,
                -1.1425035958233853,
                -1.4218529416977599,
                -1.8246769532589056,
                -0.15995468782544653,
                -1.5077433947630308
            ]
        },
        {
            "positions": [
                1.3545866264102169,
                -1.1905423335551717,
                -1.4622102927513527,
                -1.806696013923419,
                -0.2630740717476776,
                -1.5960598414580982
            ]
        },
        {
            "positions": [
                1.441083741098444,
                -1.2385810712869576,
                -1.5025676438049458,
                -1.7887150745879326,
                -0.366193455669908,
                -1.6843762881531654
            ]
        },
        {
            "positions": [
                1.5275808557866715,
                -1.2866198090187437,
                -1.5429249948585384,
                -1.7707341352524462,
                -0.46931283959213843,
                -1.7726927348482326
            ]
        },
        {
            "positions": [
                1.6140779704748989,
                -1.33465854675053,
                -1.5832823459121315,
                -1.7527531959169595,
                -0.5724322235143688,
                -1.8610091815433
            ]
        },
        {
            "positions": [
                1.700575085163126,
                -1.3826972844823162,
                -1.6236396969657245,
                -1.734772256581473,
                -0.6755516074365993,
                -1.949325628238367
            ]
        },
        {
            "positions": [
                1.7870721998513535,
                -1.4307360222141021,
                -1.6639970480193171,
                -1.7167913172459865,
                -0.7786709913588297,
                -2.0376420749334345
            ]
        },
        {
            "positions": [
                1.8735693145395809,
                -1.4787747599458885,
                -1.7043543990729102,
                -1.6988103779105002,
                -0.8817903752810605,
                -2.125958521628502
            ]
        },
        {
            "positions": [
                1.9600664292278083,
                -1.5268134976776746,
                -1.744711750126503,
                -1.6808294385750135,
                -0.9849097592032909,
                -2.214274968323569
            ]
        },
        {
            "positions": [
                2.0465635439160357,
                -1.5748522354094607,
                -1.785069101180096,
                -1.662848499239527,
                -1.0880291431255218,
                -2.302591415018637
            ]
        },
        {
            "positions": [
                2.133060658604263,
                -1.6228909731412469,
                -1.825426452233689,
                -1.6448675599040405,
                -1.1911485270477522,
                -2.390907861713704
            ]
        },
        {
            "positions": [
                2.2167801689107027,
                -1.6487241602867548,
                -1.8752883631303994,
                -1.7266532403435935,
                -1.1864103792952734,
                -2.4754360556798765
            ]
        },
        {
            "positions": [
                2.3004996792171424,
                -1.674557347432263,
                -1.9251502740271098,
                -1.8084389207831464,
                -1.1816722315427943,
                -2.5599642496460486
            ]
        },
        {
            "positions": [
                2.384219189523582,
                -1.700390534577771,
                -1.9750121849238202,
                -1.890224601222699,
                -1.1769340837903153,
                -2.6444924436122212
            ]
        },
        {
            "positions": [
                2.4679386998300217,
                -1.726223721723279,
                -2.0248740958205307,
                -1.972010281662252,
                -1.1721959360378365,
                -2.729020637578394
            ]
        },
        {
            "positions": [
                2.4991427265464443,
                -1.7818246868502305,
                -1.9873113328013225,
                -2.036574633384675,
                -1.0924703365716242,
                -2.7835877399608906
            ]
        },
        {
            "positions": [
                2.530346753262867,
                -1.837425651977182,
                -1.9497485697821142,
                -2.1011389851070974,
                -1.0127447371054117,
                -2.8381548423433878
            ]
        },
        {
            "positions": [
                2.561550779979289,
                -1.8930266171041334,
                -1.9121858067629058,
                -2.1657033368295204,
                -0.9330191376391994,
                -2.892721944725885
            ]
        },
        {
            "positions": [
                2.592754806695712,
                -1.948627582231085,
                -1.8746230437436977,
                -2.230267688551943,
                -0.853293538172987,
                -2.9472890471083817
            ]
        },
        {
            "positions": [
                2.6097667180546935,
                -2.007962085405026,
                -1.818699343510109,
                -2.2869820598866633,
                -0.7606135735662616,
                -2.9915966513310432
            ]
        },
        {
            "positions": [
                2.6267786294136757,
                -2.067296588578967,
                -1.7627756432765205,
                -2.3436964312213835,
                -0.6679336089595361,
                -3.035904255553705
            ]
        },
        {
            "positions": [
                2.6437905407726574,
                -2.126631091752908,
                -1.7068519430429316,
                -2.4004108025561033,
                -0.5752536443528107,
                -3.0802118597763664
            ]
        },
        {
            "positions": [
                2.660802452131639,
                -2.185965594926849,
                -1.650928242809343,
                -2.4571251738908235,
                -0.4825736797460853,
                -3.124519463999028
            ]
        }
    ]
}