{
    "goal": {
        "global_pose": {
            "orientation": {
                "w": 0.5084816217422485,
                "x": -0.49083608388900757,
                "y": 0.5182115435600281,
                "z": -0.4816462993621826
            },
            "position": {
                "x": 0.5540239810943604,
                "y": 0.030875300988554955,
                "z": 0.16403168439865112
            }
        },
        "name": "move_to_storage_A"
    },
    "id": "EST_move_to_storage_A_149",
    "joint_names": [
        "shoulder_pan_joint",
        "shoulder_lift_joint",
        "elbow_joint",
        "wrist_1_joint",
        "wrist_2_joint",
        "wrist_3_joint"
    ],
    "metrics": {
        "cart_traj_len": 0.3531148175109816,
        "distance_elbow_joint": 0.45003649142252433,
        "distance_shoulder_lift_joint": 0.23240575822635168,
        "distance_shoulder_pan_joint": 0.4623910125906197,
        "distance_wrist_1_joint": 0.24570696771655454,
        "distance_wrist_2_joint": 1.0951616841189011,
        "distance_wrist_3_joint": 0.09917028251916049,
        "smoothness": 4.440892133664971e-16,
        "time": 0.067824554,
        "traj_len": 1.6077537736214809,
        "weighted_distance": 2.0307834481962592
    },
    "planner": "EST",
    "start": {
        "state": {
            "elbow_joint": 1.9715463870305268,
            "shoulder_lift_joint": -1.1394903361783484,
            "shoulder_pan_joint": 0.12281147578464417,
            "wrist_1_joint": -0.7804599489681411,
            "wrist_2_joint": 0.12958660307563738,
            "wrist_3_joint": -3.1924946282119055
        }
    },
    "waypoints": [
        {
            "positions": [
                0.12281147578464417,
                -1.1394903361783484,
                1.9715463870305268,
                -0.7804599489681411,
                0.12958660307563738,
                -3.1924946282119055
            ]
        },
        {
            "positions": [
                0.05675561684312708,
                -1.172691158782113,
                2.0358373143766015,
                -0.8155609443562203,
                0.2860382722354804,
                -3.1783274449948826
            ]
        },
        {
            "positions": [
                -0.009300242098390019,
                -1.2058919813858775,
                2.1001282417226768,
                -0.8506619397442995,
                0.4424899413953234,
                -3.1641602617778597
            ]
        },
        {
            "positions": [
                -0.07535610103990713,
                -1.239092803989642,
                2.1644191690687515,
                -0.8857629351323787,
                0.5989416105551664,
                -3.1499930785608368
            ]
        },
        {
            "positions": [
                -0.1414119599814242,
                -1.2722936265934064,
                2.2287100964148263,
                -0.920863930520458,
                0.7553932797150095,
                -3.135825895343814
            ]
        },
        {
            "positions": [
                -0.2074678189229413,
                -1.305494449197171,
                2.293001023760901,
                -0.9559649259085372,
                0.9118449488748526,
                -3.121658712126791
            ]
        },
        {
            "positions": [
                -0.2735236778644584,
                -1.3386952718009355,
                2.3572919511069763,
                -0.9910659212966164,
                1.0682966180346953,
                -3.107491528909768
            ]
        },
        {
            "positions": [
                -0.3395795368059755,
                -1.3718960944047,
                2.421582878453051,
                -1.0261669166846956,
                1.2247482871945385,
                -3.093324345692745
            ]
        }
    ]
}