{
    "goal": {
        "global_pose": {
            "orientation": {
                "w": 0.7047431468963623,
                "x": -0.7094548344612122,
                "y": 0.0024358443915843964,
                "z": -0.0022348060738295317
            },
            "position": {
                "x": 0.6094750761985779,
                "y": 0.3671506643295288,
                "z": 0.19426114857196808
            }
        },
        "name": "move_to_magneteinheit_A"
    },
    "id": "EST_move_to_magneteinheit_A_81",
    "joint_names": [
        "shoulder_pan_joint",
        "shoulder_lift_joint",
        "elbow_joint",
        "wrist_1_joint",
        "wrist_2_joint",
        "wrist_3_joint"
    ],
    "metrics": {
        "cart_traj_len": 1.8704448580080593,
        "distance_elbow_joint": 3.930707567128353,
        "distance_shoulder_lift_joint": 0.7092022753286339,
        "distance_shoulder_pan_joint": 1.2416185434807336,
        "distance_wrist_1_joint": 1.5524156701421858,
        "distance_wrist_2_joint": 1.7074058814586213,
        "distance_wrist_3_joint": 1.1704081190299982,
        "smoothness": 5.075305259828549e-16,
        "time": 0.081364078,
        "traj_len": 3.2111926221527924,
        "weighted_distance": 3.9890344503688273
    },
    "planner": "EST",
    "start": {
        "state": {
            "elbow_joint": -1.919643507792019,
            "shoulder_lift_joint": -0.07675430207160344,
            "shoulder_pan_joint": -1.1188671864651873,
            "wrist_1_joint": 0.42560062535961957,
            "wrist_2_joint": 1.5706038300724876,
            "wrist_3_joint": 1.1188968870953055
        }
    },
    "waypoints": [
        {
            "positions": [
                -1.1188671864651873,
                -0.07675430207160344,
                -1.919643507792019,
                0.42560062535961957,
                1.5706038300724876,
                1.1188968870953055
            ]
        },
        {
            "positions": [
                -1.0728813144844194,
                -0.10302105300970099,
                -1.7740617460465244,
                0.4830975020315524,
                1.5073665752036498,
                1.0755484382423426
            ]
        },
        {
            "positions": [
                -1.0268954425036516,
                -0.12928780394779854,
                -1.62847998430103,
                0.5405943787034851,
                1.444129320334812,
                1.0321999893893798
            ]
        },
        {
            "positions": [
                -0.9809095705228836,
                -0.1555545548858961,
                -1.4828982225555354,
                0.598091255375418,
                1.3808920654659742,
                0.9888515405364169
            ]
        },
        {
            "positions": [
                -0.9349236985421157,
                -0.18182130582399364,
                -1.3373164608100407,
                0.6555881320473508,
                1.3176548105971362,
                0.9455030916834539
            ]
        },
        {
            "positions": [
                -0.8889378265613478,
                -0.20808805676209122,
                -1.1917346990645463,
                0.7130850087192836,
                1.2544175557282986,
                0.9021546428304911
            ]
        },
        {
            "positions": [
                -0.8429519545805799,
                -0.23435480770018877,
                -1.046152937319052,
                0.7705818853912164,
                1.1911803008594606,
                0.8588061939775282
            ]
        },
        {
            "positions": [
                -0.7969660825998119,
                -0.2606215586382863,
                -0.9005711755735573,
                0.8280787620631492,
                1.1279430459906228,
                0.8154577451245653
            ]
        },
        {
            "positions": [
                -0.7509802106190441,
                -0.2868883095763839,
                -0.7549894138280626,
                0.8855756387350819,
                1.064705791121785,
                0.7721092962716024
            ]
        },
        {
            "positions": [
                -0.7049943386382762,
                -0.31315506051448144,
                -0.6094076520825682,
                0.9430725154070148,
                1.0014685362529472,
                0.7287608474186396
            ]
        },
        {
            "positions": [
                -0.6590084666575082,
                -0.339421811452579,
                -0.46382589033707355,
                1.0005693920789476,
                0.9382312813841094,
                0.6854123985656766
            ]
        },
        {
            "positions": [
                -0.6130225946767404,
                -0.36568856239067654,
                -0.3182441285915789,
                1.0580662687508804,
                0.8749940265152716,
                0.6420639497127137
            ]
        },
        {
            "positions": [
                -0.5670367226959724,
                -0.3919553133287741,
                -0.1726623668460845,
                1.1155631454228132,
                0.8117567716464338,
                0.5987155008597508
            ]
        },
        {
            "positions": [
                -0.5210508507152045,
                -0.41822206426687164,
                -0.02708060510058985,
                1.173060022094746,
                0.748519516777596,
                0.5553670520067879
            ]
        },
        {
            "positions": [
                -0.47506497873443665,
                -0.4444888152049692,
                0.11850115664490457,
                1.2305568987666788,
                0.6852822619087581,
                0.5120186031538251
            ]
        },
        {
            "positions": [
                -0.42907910675366867,
                -0.4707555661430668,
                0.2640829183903992,
                1.2880537754386117,
                0.6220450070399202,
                0.4686701543008621
            ]
        },
        {
            "positions": [
                -0.3830932347729008,
                -0.4970223170811643,
                0.40966468013589385,
                1.3455506521105445,
                0.5588077521710824,
                0.42532170544789927
            ]
        },
        {
            "positions": [
                -0.3371073627921328,
                -0.5232890680192619,
                0.5552464418813885,
                1.4030475287824773,
                0.49557049730224456,
                0.3819732565949363
            ]
        },
        {
            "positions": [
                -0.29112149081136496,
                -0.5495558189573595,
                0.7008282036268827,
                1.46054440545441,
                0.43233324243340676,
                0.33862480774197345
            ]
        },
        {
            "positions": [
                -0.24513561883059698,
                -0.575822569895457,
                0.8464099653723778,
                1.518041282126343,
                0.36909598756456896,
                0.2952763588890105
            ]
        },
        {
            "positions": [
                -0.1991497468498291,
                -0.6020893208335545,
                0.991991727117872,
                1.5755381587982757,
                0.30585873269573116,
                0.25192791003604764
            ]
        },
        {
            "positions": [
                -0.15316387486906113,
                -0.6283560717716521,
                1.1375734888633666,
                1.6330350354702086,
                0.24262147782689336,
                0.20857946118308468
            ]
        },
        {
            "positions": [
                -0.10717800288829338,
                -0.6546228227097497,
                1.2831552506088613,
                1.6905319121421414,
                0.17938422295805556,
                0.16523101233012194
            ]
        },
        {
            "positions": [
                -0.0611921309075254,
                -0.6808895736478473,
                1.428737012354356,
                1.7480287888140742,
                0.11614696808921754,
                0.12188256347715898
            ]
        },
        {
            "positions": [
                -0.015206258926757421,
                -0.7071563245859447,
                1.57431877409985,
                1.805525665486007,
                0.05290971322037996,
                0.07853411462419602
            ]
        },
        {
            "positions": [
                0.030779613054010557,
                -0.7334230755240423,
                1.7199005358453447,
                1.8630225421579398,
                -0.01032754164845806,
                0.035185665771233054
            ]
        },
        {
            "positions": [
                0.07676548503477831,
                -0.7596898264621399,
                1.8654822975908394,
                1.9205194188298726,
                -0.07356479651729564,
                -0.008162783081729685
            ]
        },
        {
            "positions": [
                0.12275135701554621,
                -0.7859565774002374,
                2.0110640593363343,
                1.9780162955018055,
                -0.13680205138613366,
                -0.05151123193469257
            ]
        }
    ]
}