{
    "goal": {
        "global_pose": {
            "orientation": {
                "w": 0.7031023502349854,
                "x": -0.7110244035720825,
                "y": 0.007748599164187908,
                "z": 0.005598929710686207
            },
            "position": {
                "x": 0.11585023208521307,
                "y": 0.44412534475326537,
                "z": 0.3711530566215515
            }
        },
        "name": "move_to_auspresseinheit_A"
    },
    "id": "EST_move_to_auspresseinheit_A_132",
    "joint_names": [
        "shoulder_pan_joint",
        "shoulder_lift_joint",
        "elbow_joint",
        "wrist_1_joint",
        "wrist_2_joint",
        "wrist_3_joint"
    ],
    "metrics": {
        "cart_traj_len": 0.7151368269706811,
        "distance_elbow_joint": 0.1622936385672431,
        "distance_shoulder_lift_joint": 0.5316476192808617,
        "distance_shoulder_pan_joint": 1.0432984197886324,
        "distance_wrist_1_joint": 1.1379813936155467,
        "distance_wrist_2_joint": 1.2620961455715043,
        "distance_wrist_3_joint": 0.5965382095915785,
        "smoothness": 1.6680244292575466,
        "time": 0.24649725300000003,
        "traj_len": 2.1757425000250756,
        "weighted_distance": 2.8856557980441075
    },
    "planner": "EST",
    "start": {
        "state": {
            "elbow_joint": 2.422574709923281,
            "shoulder_lift_joint": -1.3736533754116391,
            "shoulder_pan_joint": -0.33786336945926293,
            "wrist_1_joint": -1.0288603412921917,
            "wrist_2_joint": 1.2330224858903978,
            "wrist_3_joint": -3.094022268022082
        }
    },
    "waypoints": [
        {
            "positions": [
                -0.33786336945926293,
                -1.3736533754116391,
                2.422574709923281,
                -1.0288603412921917,
                1.2330224858903978,
                -3.094022268022082
            ]
        },
        {
            "positions": [
                -0.3364805447952767,
                -1.3821314914918976,
                2.4031991752401805,
                -1.0004393490140397,
                1.2984561230368765,
                -2.935553448591843
            ]
        },
        {
            "positions": [
                -0.24440431750209005,
                -1.4441139949649784,
                2.393380645965421,
                -0.8968654098437047,
                1.1863963312488726,
                -2.9208779028822764
            ]
        },
        {
            "positions": [
                -0.15232809020890337,
                -1.5060964984380592,
                2.3835621166906624,
                -0.7932914706733697,
                1.0743365394608684,
                -2.9062023571727105
            ]
        },
        {
            "positions": [
                -0.06025186291571666,
                -1.5680790019111401,
                2.373743587415903,
                -0.6897175315030346,
                0.9622767476728643,
                -2.8915268114631445
            ]
        },
        {
            "positions": [
                0.031824364377469994,
                -1.630061505384221,
                2.3639250581411444,
                -0.5861435923326996,
                0.8502169558848602,
                -2.876851265753578
            ]
        },
        {
            "positions": [
                0.12390059167065665,
                -1.6920440088573017,
                2.354106528866385,
                -0.48256965316236455,
                0.7381571640968562,
                -2.8621757200440117
            ]
        },
        {
            "positions": [
                0.2159768189638434,
                -1.7540265123303826,
                2.344287999591626,
                -0.37899571399202947,
                0.6260973723088521,
                -2.8475001743344457
            ]
        },
        {
            "positions": [
                0.30805304625703006,
                -1.8160090158034634,
                2.334469470316867,
                -0.2754217748216945,
                0.514037580520848,
                -2.8328246286248797
            ]
        },
        {
            "positions": [
                0.4001292735502167,
                -1.8779915192765442,
                2.324650941042108,
                -0.17184783565135942,
                0.40197778873284395,
                -2.8181490829153133
            ]
        },
        {
            "positions": [
                0.47645571774500484,
                -1.8848188881305332,
                2.3407434084636254,
                -0.242090057645038,
                0.47702383226309225,
                -2.8983153390365155
            ]
        },
        {
            "positions": [
                0.552782161939793,
                -1.8916462569845225,
                2.356835875885143,
                -0.31233227963871657,
                0.5520698757933405,
                -2.978481595157718
            ]
        },
        {
            "positions": [
                0.6291086061345812,
                -1.8984736258385118,
                2.3729283433066604,
                -0.38257450163239515,
                0.6271159193235889,
                -3.058647851278921
            ]
        },
        {
            "positions": [
                0.7054350503293693,
                -1.9053009946925008,
                2.389020810728178,
                -0.4528167236260737,
                0.7021619628538371,
                -3.138814107400123
            ]
        }
    ]
}