{
    "goal": {
        "global_pose": {
            "orientation": {
                "w": 0.7031023502349854,
                "x": -0.7110244035720825,
                "y": 0.007748599164187908,
                "z": 0.005598929710686207
            },
            "position": {
                "x": 0.11585023208521307,
                "y": 0.44412534475326537,
                "z": 0.3711530566215515
            }
        },
        "name": "move_to_auspresseinheit_A"
    },
    "id": "EST_move_to_auspresseinheit_A_99",
    "joint_names": [
        "shoulder_pan_joint",
        "shoulder_lift_joint",
        "elbow_joint",
        "wrist_1_joint",
        "wrist_2_joint",
        "wrist_3_joint"
    ],
    "metrics": {
        "cart_traj_len": 0.7366193488703526,
        "distance_elbow_joint": 0.3958173634521174,
        "distance_shoulder_lift_joint": 0.5319455241670055,
        "distance_shoulder_pan_joint": 1.0450244590809166,
        "distance_wrist_1_joint": 1.3512345498680025,
        "distance_wrist_2_joint": 0.8962831279670768,
        "distance_wrist_3_joint": 1.298619135012506,
        "smoothness": 1.2408456803161225,
        "time": 0.249607164,
        "traj_len": 2.349239059684566,
        "weighted_distance": 3.2192670139967756
    },
    "planner": "EST",
    "start": {
        "state": {
            "elbow_joint": 2.422574709923281,
            "shoulder_lift_joint": -1.3736533754116391,
            "shoulder_pan_joint": -0.33786336945926293,
            "wrist_1_joint": -1.0288603412921917,
            "wrist_2_joint": 1.2330224858903978,
            "wrist_3_joint": -3.094022268022082
        }
    },
    "waypoints": [
        {
            "positions": [
                -0.33786336945926293,
                -1.3736533754116391,
                2.422574709923281,
                -1.0288603412921917,
                1.2330224858903978,
                -3.094022268022082
            ]
        },
        {
            "positions": [
                -0.27397851402168777,
                -1.4247754574389413,
                2.3987469987584626,
                -0.921849681399358,
                1.1538402898819107,
                -3.024394573801152
            ]
        },
        {
            "positions": [
                -0.21009365858411264,
                -1.4758975394662432,
                2.3749192875936442,
                -0.8148390215065241,
                1.0746580938734238,
                -2.954766879580222
            ]
        },
        {
            "positions": [
                -0.1462088031465375,
                -1.5270196214935454,
                2.3510915764288254,
                -0.7078283616136903,
                0.9954758978649368,
                -2.885139185359292
            ]
        },
        {
            "positions": [
                -0.08232394770896234,
                -1.5781417035208474,
                2.327263865264007,
                -0.6008177017208565,
                0.9162937018564499,
                -2.815511491138362
            ]
        },
        {
            "positions": [
                -0.01843909227138718,
                -1.6292637855481495,
                2.3034361540991886,
                -0.4938070418280227,
                0.8371115058479628,
                -2.745883796917432
            ]
        },
        {
            "positions": [
                0.045445763166187925,
                -1.6803858675754515,
                2.27960844293437,
                -0.38679638193518895,
                0.7579293098394759,
                -2.676256102696502
            ]
        },
        {
            "positions": [
                0.10933061860376314,
                -1.7315079496027537,
                2.2557807317695513,
                -0.2797857220423551,
                0.6787471138309888,
                -2.6066284084755718
            ]
        },
        {
            "positions": [
                0.17321547404133825,
                -1.7826300316300556,
                2.231953020604733,
                -0.17277506214952132,
                0.5995649178225019,
                -2.537000714254642
            ]
        },
        {
            "positions": [
                0.23710032947891346,
                -1.8337521136573578,
                2.2081253094399145,
                -0.0657644022566875,
                0.5203827218140149,
                -2.467373020033712
            ]
        },
        {
            "positions": [
                0.33111248150746153,
                -1.8481214708416152,
                2.2443989020336645,
                -0.14339212442318722,
                0.5571113945921536,
                -2.601766997438539
            ]
        },
        {
            "positions": [
                0.4251246335360096,
                -1.8624908280258725,
                2.2806724946274146,
                -0.2210198465896869,
                0.5938400673702925,
                -2.736160974843366
            ]
        },
        {
            "positions": [
                0.5191367855645577,
                -1.8768601852101299,
                2.316946087221165,
                -0.2986475687561866,
                0.6305687401484312,
                -2.8705549522481935
            ]
        },
        {
            "positions": [
                0.6131489375931056,
                -1.8912295423943872,
                2.353219679814915,
                -0.3762752909226863,
                0.6672974129265701,
                -3.0049489296530205
            ]
        },
        {
            "positions": [
                0.7071610896216537,
                -1.9055988995786446,
                2.3894932724086653,
                -0.45390301308918596,
                0.7040260857047088,
                -3.1393429070578476
            ]
        }
    ]
}