{
    "goal": {
        "global_pose": {
            "orientation": {
                "w": 0.7031023502349854,
                "x": -0.7110244035720825,
                "y": 0.007748599164187908,
                "z": 0.005598929710686207
            },
            "position": {
                "x": 0.11585023208521307,
                "y": 0.44412534475326537,
                "z": 0.3711530566215515
            }
        },
        "name": "move_to_auspresseinheit_A"
    },
    "id": "EST_move_to_auspresseinheit_A_79",
    "joint_names": [
        "shoulder_pan_joint",
        "shoulder_lift_joint",
        "elbow_joint",
        "wrist_1_joint",
        "wrist_2_joint",
        "wrist_3_joint"
    ],
    "metrics": {
        "cart_traj_len": 1.4409790529120645,
        "distance_elbow_joint": 0.5366164317088216,
        "distance_shoulder_lift_joint": 0.5569744527359972,
        "distance_shoulder_pan_joint": 2.4761500148388516,
        "distance_wrist_1_joint": 6.167553091001273,
        "distance_wrist_2_joint": 2.4484633689574613,
        "distance_wrist_3_joint": 8.72140869019815,
        "smoothness": 0.6019679579603562,
        "time": 0.203918708,
        "traj_len": 4.572435461484454,
        "weighted_distance": 6.853174438885645
    },
    "planner": "EST",
    "start": {
        "state": {
            "elbow_joint": 2.422574709923281,
            "shoulder_lift_joint": -1.3736533754116391,
            "shoulder_pan_joint": -0.33786336945926293,
            "wrist_1_joint": -1.0288603412921917,
            "wrist_2_joint": 1.2330224858903978,
            "wrist_3_joint": -3.094022268022082
        }
    },
    "waypoints": [
        {
            "positions": [
                -0.33786336945926293,
                -1.3736533754116391,
                2.422574709923281,
                -1.0288603412921917,
                1.2330224858903978,
                -3.094022268022082
            ]
        },
        {
            "positions": [
                -0.3634300543868128,
                -1.3931767006356566,
                2.4125449834719492,
                -0.9089540548158426,
                1.179936578932873,
                -2.9388402997966083
            ]
        },
        {
            "positions": [
                -0.3889967393143626,
                -1.4127000258596742,
                2.4025152570206174,
                -0.7890477683394933,
                1.1268506719753486,
                -2.783658331571134
            ]
        },
        {
            "positions": [
                -0.4145634242419125,
                -1.4322233510836917,
                2.3924855305692856,
                -0.6691414818631441,
                1.073764765017824,
                -2.6284763633456603
            ]
        },
        {
            "positions": [
                -0.4401301091694623,
                -1.4517466763077091,
                2.3824558041179538,
                -0.5492351953867949,
                1.0206788580602995,
                -2.4732943951201865
            ]
        },
        {
            "positions": [
                -0.4656967940970122,
                -1.4712700015317266,
                2.372426077666622,
                -0.42932890891044573,
                0.9675929511027748,
                -2.318112426894712
            ]
        },
        {
            "positions": [
                -0.491263479024562,
                -1.4907933267557443,
                2.36239635121529,
                -0.3094226224340966,
                0.9145070441452501,
                -2.1629304586692384
            ]
        },
        {
            "positions": [
                -0.5168301639521119,
                -1.5103166519797617,
                2.3523666247639583,
                -0.1895163359577473,
                0.8614211371877255,
                -2.007748490443764
            ]
        },
        {
            "positions": [
                -0.5423968488796618,
                -1.5298399772037792,
                2.3423368983126265,
                -0.06961004948139815,
                0.8083352302302009,
                -1.8525665222182905
            ]
        },
        {
            "positions": [
                -0.5679635338072117,
                -1.5493633024277969,
                2.3323071718612947,
                0.050296236994951116,
                0.7552493232726762,
                -1.6973845539928163
            ]
        },
        {
            "positions": [
                -0.5935302187347615,
                -1.5688866276518143,
                2.322277445409963,
                0.17020252347130027,
                0.7021634163151517,
                -1.5422025857673425
            ]
        },
        {
            "positions": [
                -0.6190969036623113,
                -1.5884099528758318,
                2.312247718958631,
                0.2901088099476494,
                0.6490775093576271,
                -1.3870206175418685
            ]
        },
        {
            "positions": [
                -0.6446635885898612,
                -1.6079332780998492,
                2.302217992507299,
                0.4100150964239986,
                0.5959916024001025,
                -1.2318386493163946
            ]
        },
        {
            "positions": [
                -0.670230273517411,
                -1.6274566033238669,
                2.2921882660559674,
                0.529921382900348,
                0.5429056954425778,
                -1.0766566810909204
            ]
        },
        {
            "positions": [
                -0.6957969584449608,
                -1.6469799285478843,
                2.2821585396046355,
                0.6498276693766971,
                0.48981978848505325,
                -0.9214747128654466
            ]
        },
        {
            "positions": [
                -0.7213636433725107,
                -1.6665032537719018,
                2.2721288131533037,
                0.7697339558530463,
                0.4367338815275287,
                -0.7662927446399728
            ]
        },
        {
            "positions": [
                -0.7469303283000606,
                -1.6860265789959192,
                2.262099086701972,
                0.8896402423293954,
                0.3836479745700041,
                -0.611110776414499
            ]
        },
        {
            "positions": [
                -0.7724970132276103,
                -1.705549904219937,
                2.25206936025064,
                1.0095465288057444,
                0.3305620676124795,
                -0.4559288081890247
            ]
        },
        {
            "positions": [
                -0.7980636981551603,
                -1.7250732294439544,
                2.2420396337993083,
                1.129452815282094,
                0.27747616065495473,
                -0.30074683996355045
            ]
        },
        {
            "positions": [
                -0.8236303830827101,
                -1.744596554667972,
                2.2320099073479764,
                1.2493591017584431,
                0.22439025369743026,
                -0.14556487173807664
            ]
        },
        {
            "positions": [
                -0.8491970680102601,
                -1.7641198798919895,
                2.2219801808966446,
                1.3692653882347923,
                0.17130434673990558,
                0.00961709648739717
            ]
        },
        {
            "positions": [
                -0.8747637529378098,
                -1.783643205116007,
                2.211950454445313,
                1.4891716747111414,
                0.11821843978238089,
                0.16479906471287142
            ]
        },
        {
            "positions": [
                -0.9003304378653596,
                -1.8031665303400244,
                2.201920727993981,
                1.6090779611874906,
                0.06513253282485643,
                0.31998103293834523
            ]
        },
        {
            "positions": [
                -0.9258971227929096,
                -1.8226898555640418,
                2.191891001542649,
                1.7289842476638397,
                0.01204662586733174,
                0.47516300116381904
            ]
        },
        {
            "positions": [
                -0.9514638077204594,
                -1.8422131807880595,
                2.1818612750913173,
                1.848890534140189,
                -0.041039281090192725,
                0.6303449693892929
            ]
        },
        {
            "positions": [
                -0.9770304926480093,
                -1.861736506012077,
                2.1718315486399855,
                1.9687968206165385,
                -0.09412518804771741,
                0.7855269376147671
            ]
        },
        {
            "positions": [
                -1.002597177575559,
                -1.8812598312360946,
                2.1618018221886537,
                2.0887031070928876,
                -0.1472110950052421,
                0.9407089058402414
            ]
        },
        {
            "positions": [
                -1.0281638625031089,
                -1.900783156460112,
                2.151772095737322,
                2.208609393569237,
                -0.20029700196276656,
                1.0958908740657152
            ]
        },
        {
            "positions": [
                -1.0537305474306589,
                -1.9203064816841295,
                2.14174236928599,
                2.328515680045586,
                -0.25338290892029125,
                1.251072842291189
            ]
        },
        {
            "positions": [
                -0.9860273613972952,
                -1.9199095068201486,
                2.151580218942587,
                2.2204319465969897,
                -0.21638067914541534,
                1.0827530892186938
            ]
        },
        {
            "positions": [
                -0.9183241753639314,
                -1.9195125319561674,
                2.161418068599185,
                2.112348213148394,
                -0.17937844937053943,
                0.9144333361461987
            ]
        },
        {
            "positions": [
                -0.8506209893305676,
                -1.9191155570921865,
                2.171255918255782,
                2.004264479699798,
                -0.14237621959566354,
                0.7461135830737035
            ]
        },
        {
            "positions": [
                -0.782917803297204,
                -1.9187185822282053,
                2.181093767912379,
                1.896180746251202,
                -0.10537398982078763,
                0.5777938300012083
            ]
        },
        {
            "positions": [
                -0.7152146172638403,
                -1.9183216073642244,
                2.190931617568977,
                1.788097012802606,
                -0.06837176004591175,
                0.4094740769287132
            ]
        },
        {
            "positions": [
                -0.6475114312304765,
                -1.9179246325002433,
                2.200769467225574,
                1.68001327935401,
                -0.03136953027103584,
                0.24115432385621793
            ]
        },
        {
            "positions": [
                -0.5798082451971128,
                -1.9175276576362623,
                2.210607316882171,
                1.571929545905414,
                0.005632699503840044,
                0.07283457078372302
            ]
        },
        {
            "positions": [
                -0.512105059163749,
                -1.9171306827722814,
                2.2204451665387688,
                1.4638458124568179,
                0.04263492927871598,
                -0.09548518228877234
            ]
        },
        {
            "positions": [
                -0.44440187313038537,
                -1.9167337079083002,
                2.230283016195366,
                1.3557620790082219,
                0.07963715905359187,
                -0.2638049353612675
            ]
        },
        {
            "positions": [
                -0.3766986870970216,
                -1.9163367330443193,
                2.240120865851963,
                1.2476783455596259,
                0.11663938882846775,
                -0.4321246884337626
            ]
        },
        {
            "positions": [
                -0.3089955010636579,
                -1.9159397581803381,
                2.2499587155085607,
                1.1395946121110299,
                0.15364161860334363,
                -0.6004444415062578
            ]
        },
        {
            "positions": [
                -0.24129231503029414,
                -1.9155427833163572,
                2.259796565165158,
                1.0315108786624338,
                0.19064384837821957,
                -0.7687641945787531
            ]
        },
        {
            "positions": [
                -0.17358912899693046,
                -1.915145808452376,
                2.2696344148217555,
                0.9234271452138378,
                0.22764607815309545,
                -0.937083947651248
            ]
        },
        {
            "positions": [
                -0.10588594296356679,
                -1.914748833588395,
                2.2794722644783527,
                0.8153434117652418,
                0.26464830792797134,
                -1.105403700723743
            ]
        },
        {
            "positions": [
                -0.03818275693020312,
                -1.9143518587244142,
                2.28931011413495,
                0.707259678316646,
                0.3016505377028472,
                -1.2737234537962383
            ]
        },
        {
            "positions": [
                0.029520429103160772,
                -1.913954883860433,
                2.2991479637915475,
                0.5991759448680498,
                0.3386527674777232,
                -1.4420432068687337
            ]
        },
        {
            "positions": [
                0.09722361513652444,
                -1.913557908996452,
                2.3089858134481447,
                0.4910922114194538,
                0.3756549972525991,
                -1.6103629599412286
            ]
        },
        {
            "positions": [
                0.16492680116988812,
                -1.913160934132471,
                2.318823663104742,
                0.3830084779708578,
                0.412657227027475,
                -1.778682713013724
            ]
        },
        {
            "positions": [
                0.2326299872032518,
                -1.91276395926849,
                2.3286615127613395,
                0.274924744522262,
                0.44965945680235087,
                -1.9470024660862189
            ]
        },
        {
            "positions": [
                0.3003331732366157,
                -1.912366984404509,
                2.3384993624179367,
                0.16684101107366578,
                0.48666168657722675,
                -2.115322219158714
            ]
        },
        {
            "positions": [
                0.36803635926997935,
                -1.9119700095405279,
                2.348337212074534,
                0.05875727762506955,
                0.5236639163521026,
                -2.283641972231209
            ]
        },
        {
            "positions": [
                0.435739545303343,
                -1.911573034676547,
                2.3581750617311314,
                -0.04932645582352624,
                0.5606661461269785,
                -2.4519617253037045
            ]
        },
        {
            "positions": [
                0.5034427313367067,
                -1.9111760598125658,
                2.3680129113877286,
                -0.15741018927212203,
                0.5976683759018544,
                -2.6202814783761994
            ]
        },
        {
            "positions": [
                0.5711459173700706,
                -1.9107790849485848,
                2.377850761044326,
                -0.26549392272071826,
                0.6346706056767304,
                -2.788601231448695
            ]
        },
        {
            "positions": [
                0.6388491034034343,
                -1.9103821100846037,
                2.3876886107009234,
                -0.3735776561693145,
                0.6716728354516063,
                -2.9569209845211897
            ]
        },
        {
            "positions": [
                0.7065522894367978,
                -1.9099851352206227,
                2.3975264603575206,
                -0.4816613896179102,
                0.7086750652264822,
                -3.1252407375936855
            ]
        }
    ]
}