{
    "goal": {
        "global_pose": {
            "orientation": {
                "w": 0.7047431468963623,
                "x": -0.7094548344612122,
                "y": 0.0024358443915843964,
                "z": -0.0022348060738295317
            },
            "position": {
                "x": 0.6094750761985779,
                "y": 0.3671506643295288,
                "z": 0.19426114857196808
            }
        },
        "name": "move_to_magneteinheit_A"
    },
    "id": "EST_move_to_magneteinheit_A_58",
    "joint_names": [
        "shoulder_pan_joint",
        "shoulder_lift_joint",
        "elbow_joint",
        "wrist_1_joint",
        "wrist_2_joint",
        "wrist_3_joint"
    ],
    "metrics": {
        "cart_traj_len": 1.8765499491536364,
        "distance_elbow_joint": 3.915499408787875,
        "distance_shoulder_lift_joint": 0.7011122859964037,
        "distance_shoulder_pan_joint": 1.241747034716002,
        "distance_wrist_1_joint": 1.5136148828450757,
        "distance_wrist_2_joint": 1.694440348030235,
        "distance_wrist_3_joint": 1.143743300530168,
        "smoothness": 3.9474596558118316e-16,
        "time": 0.069505486,
        "traj_len": 3.1953336697293064,
        "weighted_distance": 3.963041646619602
    },
    "planner": "EST",
    "start": {
        "state": {
            "elbow_joint": -1.919643507792019,
            "shoulder_lift_joint": -0.07675430207160344,
            "shoulder_pan_joint": -1.1188671864651873,
            "wrist_1_joint": 0.42560062535961957,
            "wrist_2_joint": 1.5706038300724876,
            "wrist_3_joint": 1.1188968870953055
        }
    },
    "waypoints": [
        {
            "positions": [
                -1.1188671864651873,
                -0.07675430207160344,
                -1.919643507792019,
                0.42560062535961957,
                1.5706038300724876,
                1.1188968870953055
            ]
        },
        {
            "positions": [
                -1.0711076851299566,
                -0.10372015922531128,
                -1.7690473766847932,
                0.4838165823921225,
                1.50543304745594,
                1.0749067601518376
            ]
        },
        {
            "positions": [
                -1.0233481837947256,
                -0.1306860163790191,
                -1.618451245577567,
                0.5420325394246254,
                1.4402622648393926,
                1.0309166332083695
            ]
        },
        {
            "positions": [
                -0.9755886824594948,
                -0.15765187353272697,
                -1.4678551144703411,
                0.6002484964571283,
                1.375091482222845,
                0.9869265062649015
            ]
        },
        {
            "positions": [
                -0.9278291811242639,
                -0.1846177306864348,
                -1.3172589833631152,
                0.6584644534896312,
                1.3099206996062975,
                0.9429363793214336
            ]
        },
        {
            "positions": [
                -0.880069679789033,
                -0.21158358784014264,
                -1.166662852255889,
                0.7166804105221342,
                1.24474991698975,
                0.8989462523779655
            ]
        },
        {
            "positions": [
                -0.8323101784538023,
                -0.2385494449938505,
                -1.0160667211486634,
                0.7748963675546371,
                1.1795791343732025,
                0.8549561254344975
            ]
        },
        {
            "positions": [
                -0.7845506771185715,
                -0.2655153021475583,
                -0.8654705900414374,
                0.8331123245871399,
                1.1144083517566552,
                0.8109659984910296
            ]
        },
        {
            "positions": [
                -0.7367911757833405,
                -0.29248115930126617,
                -0.7148744589342113,
                0.8913282816196428,
                1.0492375691401077,
                0.7669758715475615
            ]
        },
        {
            "positions": [
                -0.6890316744481098,
                -0.319447016454974,
                -0.5642783278269854,
                0.9495442386521458,
                0.9840667865235602,
                0.7229857446040935
            ]
        },
        {
            "positions": [
                -0.6412721731128789,
                -0.34641287360868184,
                -0.41368219671975925,
                1.0077601956846487,
                0.9188960039070125,
                0.6789956176606256
            ]
        },
        {
            "positions": [
                -0.593512671777648,
                -0.3733787307623897,
                -0.26308606561253356,
                1.0659761527171516,
                0.8537252212904651,
                0.6350054907171576
            ]
        },
        {
            "positions": [
                -0.5457531704424171,
                -0.40034458791609756,
                -0.11248993450530742,
                1.1241921097496546,
                0.7885544386739175,
                0.5910153637736895
            ]
        },
        {
            "positions": [
                -0.49799366910718634,
                -0.42731044506980537,
                0.038106196601918496,
                1.1824080667821575,
                0.7233836560573701,
                0.5470252368302215
            ]
        },
        {
            "positions": [
                -0.4502341677719556,
                -0.4542763022235132,
                0.1887023277091442,
                1.2406240238146602,
                0.6582128734408227,
                0.5030351098867536
            ]
        },
        {
            "positions": [
                -0.4024746664367247,
                -0.48124215937722103,
                0.33929845881637033,
                1.2988399808471631,
                0.5930420908242752,
                0.45904498294328555
            ]
        },
        {
            "positions": [
                -0.3547151651014938,
                -0.5082080165309288,
                0.48989458992359647,
                1.3570559378796663,
                0.5278713082077275,
                0.4150548559998175
            ]
        },
        {
            "positions": [
                -0.30695566376626293,
                -0.5351738736846368,
                0.6404907210308226,
                1.4152718949121692,
                0.46270052559118,
                0.37106472905634946
            ]
        },
        {
            "positions": [
                -0.25919616243103216,
                -0.5621397308383446,
                0.7910868521380483,
                1.473487851944672,
                0.3975297429746327,
                0.32707460211288153
            ]
        },
        {
            "positions": [
                -0.21143666109580128,
                -0.5891055879920524,
                0.941682983245274,
                1.5317038089771748,
                0.3323589603580852,
                0.2830844751694136
            ]
        },
        {
            "positions": [
                -0.1636771597605704,
                -0.6160714451457603,
                1.0922791143525006,
                1.589919766009678,
                0.26718817774153747,
                0.23909434822594544
            ]
        },
        {
            "positions": [
                -0.11591765842533963,
                -0.6430373022994682,
                1.2428752454597263,
                1.648135723042181,
                0.20201739512498995,
                0.1951042212824775
            ]
        },
        {
            "positions": [
                -0.06815815709010864,
                -0.6700031594531759,
                1.393471376566952,
                1.7063516800746836,
                0.13684661250844266,
                0.15111409433900957
            ]
        },
        {
            "positions": [
                -0.02039865575487787,
                -0.6969690166068838,
                1.544067507674178,
                1.7645676371071866,
                0.07167582989189514,
                0.10712396739554153
            ]
        },
        {
            "positions": [
                0.02736084558035312,
                -0.7239348737605917,
                1.6946636387814042,
                1.8227835941396897,
                0.006505047275347398,
                0.06313384045207338
            ]
        },
        {
            "positions": [
                0.07512034691558389,
                -0.7509007309142994,
                1.8452597698886304,
                1.8809995511721924,
                -0.0586657353411999,
                0.019143713508605442
            ]
        },
        {
            "positions": [
                0.12287984825081472,
                -0.7778665880680072,
                1.9958559009958559,
                1.9392155082046953,
                -0.12383651795774751,
                -0.024846413434862585
            ]
        }
    ]
}