{
    "goal": {
        "global_pose": {
            "orientation": {
                "w": 0.5084816217422485,
                "x": -0.49083608388900757,
                "y": 0.5182115435600281,
                "z": -0.4816462993621826
            },
            "position": {
                "x": 0.5540239810943604,
                "y": 0.030875300988554955,
                "z": 0.16403168439865112
            }
        },
        "name": "move_to_storage_A"
    },
    "id": "EST_move_to_storage_A_24",
    "joint_names": [
        "shoulder_pan_joint",
        "shoulder_lift_joint",
        "elbow_joint",
        "wrist_1_joint",
        "wrist_2_joint",
        "wrist_3_joint"
    ],
    "metrics": {
        "cart_traj_len": 0.3526312870362329,
        "distance_elbow_joint": 0.4509904041676229,
        "distance_shoulder_lift_joint": 0.23449047994231242,
        "distance_shoulder_pan_joint": 0.4615793534975322,
        "distance_wrist_1_joint": 0.24262339746585904,
        "distance_wrist_2_joint": 1.0965549158143262,
        "distance_wrist_3_joint": 0.10591627269650505,
        "smoothness": 6.661338165333112e-16,
        "time": 0.043306112,
        "traj_len": 1.6100170258677882,
        "weighted_distance": 2.035476770257365
    },
    "planner": "EST",
    "start": {
        "state": {
            "elbow_joint": 1.9715463870305268,
            "shoulder_lift_joint": -1.1394903361783484,
            "shoulder_pan_joint": 0.12281147578464417,
            "wrist_1_joint": -0.7804599489681411,
            "wrist_2_joint": 0.12958660307563738,
            "wrist_3_joint": -3.1924946282119055
        }
    },
    "waypoints": [
        {
            "positions": [
                0.12281147578464417,
                -1.1394903361783484,
                1.9715463870305268,
                -0.7804599489681411,
                0.12958660307563738,
                -3.1924946282119055
            ]
        },
        {
            "positions": [
                0.056871568142139575,
                -1.1729889761701073,
                2.0359735876259015,
                -0.8151204343204067,
                0.28623730533482683,
                -3.1773637321124046
            ]
        },
        {
            "positions": [
                -0.009068339500365022,
                -1.2064876161618663,
                2.1004007882212763,
                -0.8497809196726722,
                0.44288800759401625,
                -3.162232836012904
            ]
        },
        {
            "positions": [
                -0.07500824714286962,
                -1.2399862561536252,
                2.164827988816651,
                -0.8844414050249378,
                0.5995387098532057,
                -3.1471019399134033
            ]
        },
        {
            "positions": [
                -0.1409481547853742,
                -1.273484896145384,
                2.2292551894120254,
                -0.9191018903772034,
                0.7561894121123952,
                -3.131971043813903
            ]
        },
        {
            "positions": [
                -0.20688806242787883,
                -1.306983536137143,
                2.2936823900074,
                -0.953762375729469,
                0.9128401143715847,
                -3.116840147714402
            ]
        },
        {
            "positions": [
                -0.2728279700703834,
                -1.3404821761289019,
                2.358109590602775,
                -0.9884228610817345,
                1.069490816630774,
                -3.1017092516149014
            ]
        },
        {
            "positions": [
                -0.338767877712888,
                -1.3739808161206608,
                2.4225367911981497,
                -1.0230833464340001,
                1.2261415188899636,
                -3.0865783555154005
            ]
        }
    ]
}