{
    "goal": {
        "global_pose": {
            "orientation": {
                "w": 0.5084816217422485,
                "x": -0.49083608388900757,
                "y": 0.5182115435600281,
                "z": -0.4816462993621826
            },
            "position": {
                "x": 0.5540239810943604,
                "y": 0.030875300988554955,
                "z": 0.16403168439865112
            }
        },
        "name": "move_to_storage_A"
    },
    "id": "EST_move_to_storage_A_141",
    "joint_names": [
        "shoulder_pan_joint",
        "shoulder_lift_joint",
        "elbow_joint",
        "wrist_1_joint",
        "wrist_2_joint",
        "wrist_3_joint"
    ],
    "metrics": {
        "cart_traj_len": 0.3529315191835197,
        "distance_elbow_joint": 0.447282609915177,
        "distance_shoulder_lift_joint": 0.23545290140862507,
        "distance_shoulder_pan_joint": 0.4630296967887724,
        "distance_wrist_1_joint": 0.23362549821608758,
        "distance_wrist_2_joint": 1.0918233552602268,
        "distance_wrist_3_joint": 0.099675246457128,
        "smoothness": 0.0,
        "time": 0.03916575,
        "traj_len": 1.6033992977564937,
        "weighted_distance": 2.0237807822085343
    },
    "planner": "EST",
    "start": {
        "state": {
            "elbow_joint": 1.9715463870305268,
            "shoulder_lift_joint": -1.1394903361783484,
            "shoulder_pan_joint": 0.12281147578464417,
            "wrist_1_joint": -0.7804599489681411,
            "wrist_2_joint": 0.12958660307563738,
            "wrist_3_joint": -3.1924946282119055
        }
    },
    "waypoints": [
        {
            "positions": [
                0.12281147578464417,
                -1.1394903361783484,
                1.9715463870305268,
                -0.7804599489681411,
                0.12958660307563738,
                -3.1924946282119055
            ]
        },
        {
            "positions": [
                0.056664376243390976,
                -1.1731264649510091,
                2.0354439027326947,
                -0.8138350201418679,
                0.28556136811281263,
                -3.178255307289459
            ]
        },
        {
            "positions": [
                -0.00948272329786222,
                -1.20676259372367,
                2.099341418434863,
                -0.8472100913155947,
                0.44153613314998785,
                -3.1640159863670116
            ]
        },
        {
            "positions": [
                -0.07562982283911542,
                -1.2403987224963307,
                2.163238934137031,
                -0.8805851624893215,
                0.5975108981871631,
                -3.149776665444565
            ]
        },
        {
            "positions": [
                -0.1417769223803686,
                -1.2740348512689912,
                2.2271364498391995,
                -0.9139602336630482,
                0.7534856632243384,
                -3.135537344522118
            ]
        },
        {
            "positions": [
                -0.20792402192162185,
                -1.307670980041652,
                2.2910339655413674,
                -0.9473353048367751,
                0.9094604282615137,
                -3.1212980235996715
            ]
        },
        {
            "positions": [
                -0.274071121462875,
                -1.3413071088143127,
                2.3549314812435354,
                -0.9807103760105018,
                1.0654351932986887,
                -3.1070587026772243
            ]
        },
        {
            "positions": [
                -0.34021822100412824,
                -1.3749432375869735,
                2.4188289969457037,
                -1.0140854471842287,
                1.2214099583358642,
                -3.0928193817547776
            ]
        }
    ]
}