{
    "goal": {
        "global_pose": {
            "orientation": {
                "w": 0.7047431468963623,
                "x": -0.7094548344612122,
                "y": 0.0024358443915843964,
                "z": -0.0022348060738295317
            },
            "position": {
                "x": 0.6094750761985779,
                "y": 0.3671506643295288,
                "z": 0.19426114857196808
            }
        },
        "name": "move_to_magneteinheit_A"
    },
    "id": "EST_move_to_magneteinheit_A_106",
    "joint_names": [
        "shoulder_pan_joint",
        "shoulder_lift_joint",
        "elbow_joint",
        "wrist_1_joint",
        "wrist_2_joint",
        "wrist_3_joint"
    ],
    "metrics": {
        "cart_traj_len": 2.0634806634851004,
        "distance_elbow_joint": 3.87657698656358,
        "distance_shoulder_lift_joint": 1.0548825152111236,
        "distance_shoulder_pan_joint": 1.2416126945881873,
        "distance_wrist_1_joint": 1.1321461736746183,
        "distance_wrist_2_joint": 1.4410498572661514,
        "distance_wrist_3_joint": 1.9111708657070174,
        "smoothness": 1.903239485856416e-16,
        "time": 0.224230809,
        "traj_len": 3.2645733401182273,
        "weighted_distance": 4.129525015708888
    },
    "planner": "EST",
    "start": {
        "state": {
            "elbow_joint": -1.919643507792019,
            "shoulder_lift_joint": -0.07675430207160344,
            "shoulder_pan_joint": -1.1188671864651873,
            "wrist_1_joint": 0.42560062535961957,
            "wrist_2_joint": 1.5706038300724876,
            "wrist_3_joint": 1.1188968870953055
        }
    },
    "waypoints": [
        {
            "positions": [
                -1.1188671864651873,
                -0.07675430207160344,
                -1.919643507792019,
                0.42560062535961957,
                1.5706038300724876,
                1.1188968870953055
            ]
        },
        {
            "positions": [
                -1.0728815311100692,
                -0.11582402485720061,
                -1.7760665823637383,
                0.38366928559389296,
                1.5172316131367043,
                1.1896809932326025
            ]
        },
        {
            "positions": [
                -1.0268958757549513,
                -0.15489374764279779,
                -1.6324896569354577,
                0.34173794582816636,
                1.4638593962009208,
                1.2604650993698994
            ]
        },
        {
            "positions": [
                -0.9809102203998332,
                -0.19396347042839496,
                -1.4889127315071768,
                0.29980660606243975,
                1.4104871792651374,
                1.3312492055071963
            ]
        },
        {
            "positions": [
                -0.9349245650447151,
                -0.23303319321399213,
                -1.345335806078896,
                0.25787526629671315,
                1.3571149623293541,
                1.4020333116444932
            ]
        },
        {
            "positions": [
                -0.8889389096895971,
                -0.2721029159995893,
                -1.2017588806506154,
                0.21594392653098654,
                1.3037427453935706,
                1.4728174177817903
            ]
        },
        {
            "positions": [
                -0.8429532543344791,
                -0.3111726387851865,
                -1.0581819552223346,
                0.17401258676525994,
                1.2503705284577873,
                1.5436015239190872
            ]
        },
        {
            "positions": [
                -0.796967598979361,
                -0.35024236157078364,
                -0.914605029794054,
                0.13208124699953333,
                1.196998311522004,
                1.6143856300563841
            ]
        },
        {
            "positions": [
                -0.750981943624243,
                -0.3893120843563808,
                -0.7710281043657732,
                0.09014990723380673,
                1.1436260945862204,
                1.685169736193681
            ]
        },
        {
            "positions": [
                -0.704996288269125,
                -0.428381807141978,
                -0.6274511789374924,
                0.04821856746808012,
                1.0902538776504371,
                1.755953842330978
            ]
        },
        {
            "positions": [
                -0.6590106329140069,
                -0.46745152992757516,
                -0.48387425350921176,
                0.006287227702353515,
                1.0368816607146538,
                1.826737948468275
            ]
        },
        {
            "positions": [
                -0.6130249775588889,
                -0.5065212527131724,
                -0.34029732808093094,
                -0.03564411206337309,
                0.9835094437788704,
                1.897522054605572
            ]
        },
        {
            "positions": [
                -0.5670393222037707,
                -0.5455909754987696,
                -0.19672040265265012,
                -0.0775754518290997,
                0.930137226843087,
                1.968306160742869
            ]
        },
        {
            "positions": [
                -0.5210536668486527,
                -0.5846606982843667,
                -0.05314347722436952,
                -0.1195067915948263,
                0.8767650099073037,
                2.039090266880166
            ]
        },
        {
            "positions": [
                -0.4750680114935347,
                -0.6237304210699639,
                0.09043344820391108,
                -0.1614381313605529,
                0.8233927929715202,
                2.1098743730174627
            ]
        },
        {
            "positions": [
                -0.4290823561384166,
                -0.6628001438555611,
                0.23401037363219213,
                -0.2033694711262795,
                0.7700205760357368,
                2.1806584791547596
            ]
        },
        {
            "positions": [
                -0.3830967007832986,
                -0.7018698666411582,
                0.3775872990604727,
                -0.24530081089200612,
                0.7166483590999535,
                2.2514425852920565
            ]
        },
        {
            "positions": [
                -0.3371110454281805,
                -0.7409395894267554,
                0.5211642244887538,
                -0.2872321506577327,
                0.66327614216417,
                2.3222266914293535
            ]
        },
        {
            "positions": [
                -0.2911253900730625,
                -0.7800093122123526,
                0.6647411499170344,
                -0.3291634904234593,
                0.6099039252283867,
                2.3930107975666504
            ]
        },
        {
            "positions": [
                -0.24513973471794437,
                -0.8190790349979498,
                0.808318075345315,
                -0.37109483018918593,
                0.5565317082926033,
                2.4637949037039473
            ]
        },
        {
            "positions": [
                -0.19915407936282636,
                -0.8581487577835469,
                0.9518950007735956,
                -0.41302616995491254,
                0.50315949135682,
                2.534579009841244
            ]
        },
        {
            "positions": [
                -0.15316842400770825,
                -0.8972184805691441,
                1.0954719262018766,
                -0.45495750972063914,
                0.4497872744210365,
                2.605363115978541
            ]
        },
        {
            "positions": [
                -0.10718276865259035,
                -0.9362882033547413,
                1.2390488516301572,
                -0.49688884948636575,
                0.3964150574852532,
                2.676147222115838
            ]
        },
        {
            "positions": [
                -0.06119711329747224,
                -0.9753579261403384,
                1.3826257770584383,
                -0.5388201892520923,
                0.34304284054946965,
                2.746931328253135
            ]
        },
        {
            "positions": [
                -0.015211457942354123,
                -1.0144276489259356,
                1.5262027024867189,
                -0.5807515290178189,
                0.28967062361368634,
                2.817715434390432
            ]
        },
        {
            "positions": [
                0.030774197412763993,
                -1.0534973717115328,
                1.6697796279149995,
                -0.6226828687835455,
                0.23629840667790303,
                2.888499540527729
            ]
        },
        {
            "positions": [
                0.07675985276788189,
                -1.09256709449713,
                1.81335655334328,
                -0.6646142085492721,
                0.18292618974211972,
                2.9592836466650256
            ]
        },
        {
            "positions": [
                0.12274550812299999,
                -1.1316368172827271,
                1.9569334787715613,
                -0.7065455483149987,
                0.1295539728063361,
                3.030067752802323
            ]
        }
    ]
}