{
    "goal": {
        "global_pose": {
            "orientation": {
                "w": 0.7031023502349854,
                "x": -0.7110244035720825,
                "y": 0.007748599164187908,
                "z": 0.005598929710686207
            },
            "position": {
                "x": 0.11585023208521307,
                "y": 0.44412534475326537,
                "z": 0.3711530566215515
            }
        },
        "name": "move_to_auspresseinheit_A"
    },
    "id": "EST_move_to_auspresseinheit_A_36",
    "joint_names": [
        "shoulder_pan_joint",
        "shoulder_lift_joint",
        "elbow_joint",
        "wrist_1_joint",
        "wrist_2_joint",
        "wrist_3_joint"
    ],
    "metrics": {
        "cart_traj_len": 1.902013523747033,
        "distance_elbow_joint": 1.8153424658926305,
        "distance_shoulder_lift_joint": 1.0762525606663078,
        "distance_shoulder_pan_joint": 1.3018531077381859,
        "distance_wrist_1_joint": 2.0969789278704316,
        "distance_wrist_2_joint": 0.897342972540412,
        "distance_wrist_3_joint": 5.164772284964119,
        "smoothness": 0.7240557110804997,
        "time": 0.447327978,
        "traj_len": 3.5146183746848085,
        "weighted_distance": 5.067189436957254
    },
    "planner": "EST",
    "start": {
        "state": {
            "elbow_joint": 2.422574709923281,
            "shoulder_lift_joint": -1.3736533754116391,
            "shoulder_pan_joint": -0.33786336945926293,
            "wrist_1_joint": -1.0288603412921917,
            "wrist_2_joint": 1.2330224858903978,
            "wrist_3_joint": -3.094022268022082
        }
    },
    "waypoints": [
        {
            "positions": [
                -0.33786336945926293,
                -1.3736533754116391,
                2.422574709923281,
                -1.0288603412921917,
                1.2330224858903978,
                -3.094022268022082
            ]
        },
        {
            "positions": [
                -0.302057800664313,
                -1.3856974981709438,
                2.338626569958075,
                -0.9762565743848991,
                1.1799675379706211,
                -2.9636474859380537
            ]
        },
        {
            "positions": [
                -0.266252231869363,
                -1.3977416209302482,
                2.2546784299928695,
                -0.9236528074776064,
                1.1269125900508448,
                -2.8332727038540253
            ]
        },
        {
            "positions": [
                -0.23044666307441306,
                -1.409785743689553,
                2.1707302900276635,
                -0.8710490405703137,
                1.0738576421310682,
                -2.7028979217699964
            ]
        },
        {
            "positions": [
                -0.19464109427946308,
                -1.4218298664488576,
                2.086782150062458,
                -0.8184452736630211,
                1.0208026942112916,
                -2.572523139685968
            ]
        },
        {
            "positions": [
                -0.15883552548451313,
                -1.4338739892081622,
                2.002834010097252,
                -0.7658415067557285,
                0.9677477462915152,
                -2.4421483576019396
            ]
        },
        {
            "positions": [
                -0.12302995668956318,
                -1.4459181119674667,
                1.9188858701320464,
                -0.7132377398484357,
                0.9146927983717386,
                -2.311773575517911
            ]
        },
        {
            "positions": [
                -0.08722438789461323,
                -1.4579622347267713,
                1.8349377301668404,
                -0.6606339729411431,
                0.8616378504519621,
                -2.1813987934338828
            ]
        },
        {
            "positions": [
                -0.05141881909966323,
                -1.470006357486076,
                1.7509895902016346,
                -0.6080302060338505,
                0.8085829025321856,
                -2.0510240113498543
            ]
        },
        {
            "positions": [
                -0.015613250304713278,
                -1.4820504802453807,
                1.6670414502364288,
                -0.5554264391265578,
                0.755527954612409,
                -1.9206492292658255
            ]
        },
        {
            "positions": [
                0.02019231849023667,
                -1.494094603004685,
                1.583093310271223,
                -0.5028226722192651,
                0.7024730066926325,
                -1.7902744471817973
            ]
        },
        {
            "positions": [
                0.05599788728518661,
                -1.5061387257639898,
                1.4991451703060172,
                -0.45021890531197256,
                0.649418058772856,
                -1.6598996650977687
            ]
        },
        {
            "positions": [
                0.1175870291338938,
                -1.5751401141855261,
                1.5107554650373825,
                -0.3562472928658744,
                0.6331003543960727,
                -1.5187503071368278
            ]
        },
        {
            "positions": [
                0.17917617098260097,
                -1.6441415026070625,
                1.5223657597687474,
                -0.26227568041977634,
                0.6167826500192896,
                -1.3776009491758867
            ]
        },
        {
            "positions": [
                0.2407653128313082,
                -1.713142891028599,
                1.5339760545001127,
                -0.1683040679736782,
                0.6004649456425063,
                -1.2364515912149456
            ]
        },
        {
            "positions": [
                0.30235445468001537,
                -1.7821442794501354,
                1.5455863492314776,
                -0.07433245552758011,
                0.5841472412657231,
                -1.0953022332540048
            ]
        },
        {
            "positions": [
                0.36394359652872255,
                -1.8511456678716718,
                1.5571966439628429,
                0.019639156918517975,
                0.5678295368889399,
                -0.9541528752930638
            ]
        },
        {
            "positions": [
                0.4255327383774298,
                -1.9201470562932084,
                1.568806938694208,
                0.11361076936461617,
                0.5515118325121566,
                -0.8130035173321228
            ]
        },
        {
            "positions": [
                0.48712188022613695,
                -1.9891484447147447,
                1.580417233425573,
                0.20758238181071426,
                0.5351941281353735,
                -0.6718541593711819
            ]
        },
        {
            "positions": [
                0.5487110220748441,
                -2.058149833136281,
                1.5920275281569383,
                0.3015539942568123,
                0.5188764237585902,
                -0.5307048014102409
            ]
        },
        {
            "positions": [
                0.5804679491813335,
                -2.071466377752733,
                1.676811439325856,
                0.24190222967502217,
                0.5389822706837397,
                -0.6952649922815257
            ]
        },
        {
            "positions": [
                0.6122248762878227,
                -2.084782922369185,
                1.7615953504947734,
                0.18225046509323206,
                0.5590881176088893,
                -0.8598251831528105
            ]
        },
        {
            "positions": [
                0.6439818033943121,
                -2.098099466985637,
                1.8463792616636912,
                0.12259870051144192,
                0.5791939645340388,
                -1.0243853740240954
            ]
        },
        {
            "positions": [
                0.6757387305008014,
                -2.1114160116020892,
                1.9311631728326089,
                0.06294693592965181,
                0.5992998114591884,
                -1.1889455648953802
            ]
        },
        {
            "positions": [
                0.7074956576072908,
                -2.124732556218541,
                2.0159470840015263,
                0.0032951713478616695,
                0.6194056583843379,
                -1.3535057557666654
            ]
        },
        {
            "positions": [
                0.7392525847137801,
                -2.138049100834993,
                2.1007309951704443,
                -0.05635659323392844,
                0.6395115053094875,
                -1.51806594663795
            ]
        },
        {
            "positions": [
                0.7710095118202694,
                -2.151365645451445,
                2.1855149063393617,
                -0.11600835781571861,
                0.659617352234637,
                -1.682626137509235
            ]
        },
        {
            "positions": [
                0.8027664389267587,
                -2.164682190067897,
                2.270298817508279,
                -0.17566012239750867,
                0.6797231991597865,
                -1.8471863283805197
            ]
        },
        {
            "positions": [
                0.8345233660332481,
                -2.177998734684349,
                2.355082728677197,
                -0.23531188697929878,
                0.6998290460849361,
                -2.0117465192518047
            ]
        },
        {
            "positions": [
                0.808630091584113,
                -2.1236172944056295,
                2.3622778022580344,
                -0.2812516291963621,
                0.7002779037013879,
                -2.2358291393539473
            ]
        },
        {
            "positions": [
                0.782736817134978,
                -2.06923585412691,
                2.3694728758388717,
                -0.32719137141342536,
                0.7007267613178395,
                -2.4599117594560904
            ]
        },
        {
            "positions": [
                0.7568435426858429,
                -2.01485441384819,
                2.3766679494197094,
                -0.3731311136304887,
                0.7011756189342913,
                -2.683994379558233
            ]
        },
        {
            "positions": [
                0.7309502682367078,
                -1.9604729735694706,
                2.3838630230005466,
                -0.419070855847552,
                0.7016244765507429,
                -2.908076999660376
            ]
        },
        {
            "positions": [
                0.7050569937875728,
                -1.906091533290751,
                2.391058096581384,
                -0.46501059806461525,
                0.7020733341671946,
                -3.1321596197625188
            ]
        }
    ]
}