{
    "goal": {
        "global_pose": {
            "orientation": {
                "w": 0.7047431468963623,
                "x": -0.7094548344612122,
                "y": 0.0024358443915843964,
                "z": -0.0022348060738295317
            },
            "position": {
                "x": 0.6094750761985779,
                "y": 0.3671506643295288,
                "z": 0.19426114857196808
            }
        },
        "name": "move_to_magneteinheit_A"
    },
    "id": "EST_move_to_magneteinheit_A_125",
    "joint_names": [
        "shoulder_pan_joint",
        "shoulder_lift_joint",
        "elbow_joint",
        "wrist_1_joint",
        "wrist_2_joint",
        "wrist_3_joint"
    ],
    "metrics": {
        "cart_traj_len": 2.8752150644541157,
        "distance_elbow_joint": 3.9027203918962274,
        "distance_shoulder_lift_joint": 1.0697380939601049,
        "distance_shoulder_pan_joint": 2.3238439270986495,
        "distance_wrist_1_joint": 1.257454008618053,
        "distance_wrist_2_joint": 1.6610951780436556,
        "distance_wrist_3_joint": 4.849672586467204,
        "smoothness": 0.25531478391921547,
        "time": 0.080048111,
        "traj_len": 3.881304443880163,
        "weighted_distance": 5.261408418444629
    },
    "planner": "EST",
    "start": {
        "state": {
            "elbow_joint": -1.919643507792019,
            "shoulder_lift_joint": -0.07675430207160344,
            "shoulder_pan_joint": -1.1188671864651873,
            "wrist_1_joint": 0.42560062535961957,
            "wrist_2_joint": 1.5706038300724876,
            "wrist_3_joint": 1.1188968870953055
        }
    },
    "waypoints": [
        {
            "positions": [
                -1.1188671864651873,
                -0.07675430207160344,
                -1.919643507792019,
                0.42560062535961957,
                1.5706038300724876,
                1.1188968870953055
            ]
        },
        {
            "positions": [
                -1.1962173914627874,
                -0.12241130925752833,
                -1.8272720351932537,
                0.3437831920117403,
                1.5861923532605973,
                1.1602970525782823
            ]
        },
        {
            "positions": [
                -1.2735675964603872,
                -0.16806831644345321,
                -1.7349005625944882,
                0.26196575866386096,
                1.601780876448707,
                1.201697218061259
            ]
        },
        {
            "positions": [
                -1.3509178014579872,
                -0.2137253236293781,
                -1.6425290899957228,
                0.1801483253159817,
                1.6173693996368166,
                1.2430973835442358
            ]
        },
        {
            "positions": [
                -1.4282680064555873,
                -0.259382330815303,
                -1.5501576173969573,
                0.09833089196810241,
                1.6329579228249262,
                1.2844975490272124
            ]
        },
        {
            "positions": [
                -1.505618211453187,
                -0.3050393380012279,
                -1.457786144798192,
                0.016513458620223076,
                1.648546446013036,
                1.3258977145101891
            ]
        },
        {
            "positions": [
                -1.5829684164507871,
                -0.35069634518715276,
                -1.3654146721994265,
                -0.06530397472765614,
                1.6641349692011456,
                1.3672978799931659
            ]
        },
        {
            "positions": [
                -1.6603186214483872,
                -0.39635335237307767,
                -1.273043199600661,
                -0.14712140807553542,
                1.6797234923892552,
                1.4086980454761426
            ]
        },
        {
            "positions": [
                -1.6046188560697794,
                -0.4197951974874099,
                -1.1712894469848838,
                -0.16851928230000096,
                1.63122425752279,
                1.2662020633484437
            ]
        },
        {
            "positions": [
                -1.5489190906911716,
                -0.44323704260174207,
                -1.0695356943691068,
                -0.1899171565244665,
                1.5827250226563248,
                1.1237060812207447
            ]
        },
        {
            "positions": [
                -1.4932193253125638,
                -0.4666788877160743,
                -0.9677819417533295,
                -0.21131503074893201,
                1.5342257877898595,
                0.9812100990930457
            ]
        },
        {
            "positions": [
                -1.4375195599339559,
                -0.49012073283040647,
                -0.8660281891375525,
                -0.23271290497339756,
                1.4857265529233943,
                0.8387141169653467
            ]
        },
        {
            "positions": [
                -1.381819794555348,
                -0.5135625779447387,
                -0.7642744365217753,
                -0.25411077919786307,
                1.437227318056929,
                0.6962181348376477
            ]
        },
        {
            "positions": [
                -1.3261200291767403,
                -0.5370044230590709,
                -0.6625206839059982,
                -0.2755086534223286,
                1.3887280831904638,
                0.5537221527099487
            ]
        },
        {
            "positions": [
                -1.2704202637981326,
                -0.560446268173403,
                -0.560766931290221,
                -0.29690652764679415,
                1.3402288483239984,
                0.41122617058224975
            ]
        },
        {
            "positions": [
                -1.2147204984195246,
                -0.5838881132877353,
                -0.4590131786744439,
                -0.3183044018712597,
                1.2917296134575333,
                0.26873018845455077
            ]
        },
        {
            "positions": [
                -1.1590207330409168,
                -0.6073299584020675,
                -0.3572594260586668,
                -0.33970227609572523,
                1.2432303785910679,
                0.12623420632685178
            ]
        },
        {
            "positions": [
                -1.103320967662309,
                -0.6307718035163997,
                -0.25550567344288955,
                -0.36110015032019077,
                1.1947311437246029,
                -0.0162617758008472
            ]
        },
        {
            "positions": [
                -1.0476212022837013,
                -0.654213648630732,
                -0.15375192082711253,
                -0.3824980245446563,
                1.1462319088581374,
                -0.15875775792854618
            ]
        },
        {
            "positions": [
                -0.9919214369050935,
                -0.6776554937450641,
                -0.051998168211335294,
                -0.4038958987691218,
                1.0977326739916722,
                -0.30125374005624517
            ]
        },
        {
            "positions": [
                -0.9362216715264856,
                -0.7010973388593963,
                0.04975558440444172,
                -0.42529377299358734,
                1.049233439125207,
                -0.44374972218394415
            ]
        },
        {
            "positions": [
                -0.8805219061478778,
                -0.7245391839737285,
                0.15150933702021896,
                -0.4466916472180529,
                1.0007342042587417,
                -0.5862457043116431
            ]
        },
        {
            "positions": [
                -0.82482214076927,
                -0.7479810290880606,
                0.253263089635996,
                -0.4680895214425184,
                0.9522349693922765,
                -0.7287416864393421
            ]
        },
        {
            "positions": [
                -0.7691223753906622,
                -0.771422874202393,
                0.3550168422517732,
                -0.48948739566698396,
                0.9037357345258112,
                -0.8712376685670411
            ]
        },
        {
            "positions": [
                -0.7134226100120544,
                -0.7948647193167251,
                0.45677059486755045,
                -0.5108852698914494,
                0.855236499659346,
                -1.01373365069474
            ]
        },
        {
            "positions": [
                -0.6577228446334467,
                -0.8183065644310573,
                0.5585243474833275,
                -0.532283144115915,
                0.8067372647928808,
                -1.156229632822439
            ]
        },
        {
            "positions": [
                -0.6020230792548387,
                -0.8417484095453895,
                0.6602781000991047,
                -0.5536810183403806,
                0.7582380299264155,
                -1.298725614950138
            ]
        },
        {
            "positions": [
                -0.5463233138762309,
                -0.8651902546597217,
                0.7620318527148819,
                -0.5750788925648461,
                0.7097387950599503,
                -1.441221597077837
            ]
        },
        {
            "positions": [
                -0.49062354849762313,
                -0.888632099774054,
                0.8637856053306587,
                -0.5964767667893116,
                0.6612395601934851,
                -1.583717579205536
            ]
        },
        {
            "positions": [
                -0.43492378311901536,
                -0.9120739448883861,
                0.965539357946436,
                -0.6178746410137772,
                0.6127403253270198,
                -1.726213561333235
            ]
        },
        {
            "positions": [
                -0.3792240177404076,
                -0.9355157900027183,
                1.0672931105622132,
                -0.6392725152382427,
                0.5642410904605546,
                -1.868709543460934
            ]
        },
        {
            "positions": [
                -0.3235242523617998,
                -0.9589576351170506,
                1.1690468631779904,
                -0.6606703894627082,
                0.5157418555940891,
                -2.011205525588633
            ]
        },
        {
            "positions": [
                -0.26782448698319183,
                -0.9823994802313828,
                1.2708006157937677,
                -0.6820682636871738,
                0.4672426207276239,
                -2.153701507716332
            ]
        },
        {
            "positions": [
                -0.21212472160458407,
                -1.005841325345715,
                1.3725543684095445,
                -0.7034661379116393,
                0.41874338586115867,
                -2.296197489844031
            ]
        },
        {
            "positions": [
                -0.1564249562259763,
                -1.0292831704600471,
                1.4743081210253217,
                -0.7248640121361049,
                0.37024415099469343,
                -2.43869347197173
            ]
        },
        {
            "positions": [
                -0.10072519084736853,
                -1.0527250155743793,
                1.576061873641099,
                -0.7462618863605703,
                0.3217449161282282,
                -2.581189454099429
            ]
        },
        {
            "positions": [
                -0.04502542546876076,
                -1.0761668606887116,
                1.6778156262568762,
                -0.7676597605850359,
                0.27324568126176296,
                -2.7236854362271274
            ]
        },
        {
            "positions": [
                0.01067433990984723,
                -1.0996087058030437,
                1.779569378872653,
                -0.7890576348095014,
                0.22474644639529773,
                -2.866181418354827
            ]
        },
        {
            "positions": [
                0.066374105288455,
                -1.1230505509173758,
                1.8813231314884302,
                -0.810455509033967,
                0.1762472115288325,
                -3.0086774004825263
            ]
        },
        {
            "positions": [
                0.12207387066706274,
                -1.1464923960317082,
                1.9830768841042075,
                -0.8318533832584325,
                0.1277479766623672,
                -3.1511733826102253
            ]
        }
    ]
}