{
    "goal": {
        "global_pose": {
            "orientation": {
                "w": 0.7047431468963623,
                "x": -0.7094548344612122,
                "y": 0.0024358443915843964,
                "z": -0.0022348060738295317
            },
            "position": {
                "x": 0.6094750761985779,
                "y": 0.3671506643295288,
                "z": 0.19426114857196808
            }
        },
        "name": "move_to_magneteinheit_A"
    },
    "id": "EST_move_to_magneteinheit_A_142",
    "joint_names": [
        "shoulder_pan_joint",
        "shoulder_lift_joint",
        "elbow_joint",
        "wrist_1_joint",
        "wrist_2_joint",
        "wrist_3_joint"
    ],
    "metrics": {
        "cart_traj_len": 2.0642600358743017,
        "distance_elbow_joint": 3.879045464892635,
        "distance_shoulder_lift_joint": 1.0568920900739787,
        "distance_shoulder_pan_joint": 1.2427712976033531,
        "distance_wrist_1_joint": 1.1470902835203556,
        "distance_wrist_2_joint": 1.4315446463746704,
        "distance_wrist_3_joint": 1.9234708164245826,
        "smoothness": 6.661338156445819e-16,
        "time": 0.055744615,
        "traj_len": 3.268151556903317,
        "weighted_distance": 4.135987326096849
    },
    "planner": "EST",
    "start": {
        "state": {
            "elbow_joint": -1.919643507792019,
            "shoulder_lift_joint": -0.07675430207160344,
            "shoulder_pan_joint": -1.1188671864651873,
            "wrist_1_joint": 0.42560062535961957,
            "wrist_2_joint": 1.5706038300724876,
            "wrist_3_joint": 1.1188968870953055
        }
    },
    "waypoints": [
        {
            "positions": [
                -1.1188671864651873,
                -0.07675430207160344,
                -1.919643507792019,
                0.42560062535961957,
                1.5706038300724876,
                1.1188968870953055
            ]
        },
        {
            "positions": [
                -1.0728386198872855,
                -0.11589845355582487,
                -1.77597515724044,
                0.3831158000440508,
                1.5175836579845368,
                1.1901365469628826
            ]
        },
        {
            "positions": [
                -1.0268100533093834,
                -0.1550426050400463,
                -1.6323068066888609,
                0.34063097472848214,
                1.4645634858965861,
                1.2613762068304597
            ]
        },
        {
            "positions": [
                -0.9807814867314815,
                -0.19418675652426773,
                -1.4886384561372819,
                0.2981461494129134,
                1.4115433138086353,
                1.332615866698037
            ]
        },
        {
            "positions": [
                -0.9347529201535795,
                -0.23333090800848916,
                -1.3449701055857028,
                0.25566132409734466,
                1.3585231417206847,
                1.403855526565614
            ]
        },
        {
            "positions": [
                -0.8887243535756775,
                -0.27247505949271056,
                -1.2013017550341236,
                0.21317649878177594,
                1.3055029696327338,
                1.4750951864331912
            ]
        },
        {
            "positions": [
                -0.8426957869977756,
                -0.311619210976932,
                -1.0576334044825446,
                0.17069167346620723,
                1.2524827975447832,
                1.5463348463007685
            ]
        },
        {
            "positions": [
                -0.7966672204198736,
                -0.35076336246115347,
                -0.9139650539309656,
                0.12820684815063849,
                1.1994626254568324,
                1.6175745061683455
            ]
        },
        {
            "positions": [
                -0.7506386538419716,
                -0.3899075139453749,
                -0.7702967033793866,
                0.0857220228350698,
                1.1464424533688815,
                1.6888141660359226
            ]
        },
        {
            "positions": [
                -0.7046100872640697,
                -0.42905166542959633,
                -0.6266283528278074,
                0.04323719751950106,
                1.0934222812809309,
                1.7600538259034997
            ]
        },
        {
            "positions": [
                -0.6585815206861677,
                -0.46819581691381773,
                -0.4829600022762284,
                0.0007523722039323166,
                1.04040210919298,
                1.8312934857710768
            ]
        },
        {
            "positions": [
                -0.6125529541082657,
                -0.5073399683980392,
                -0.33929165172464937,
                -0.04173245311163637,
                0.9873819371050293,
                1.902533145638654
            ]
        },
        {
            "positions": [
                -0.5665243875303637,
                -0.5464841198822605,
                -0.19562330117307014,
                -0.08421727842720511,
                0.9343617650170786,
                1.9737728055062311
            ]
        },
        {
            "positions": [
                -0.5204958209524618,
                -0.585628271366482,
                -0.051954950621491136,
                -0.12670210374277385,
                0.8813415929291278,
                2.045012465373808
            ]
        },
        {
            "positions": [
                -0.47446725437455983,
                -0.6247724228507034,
                0.09171339993008787,
                -0.1691869290583426,
                0.8283214208411771,
                2.1162521252413855
            ]
        },
        {
            "positions": [
                -0.42843868779665784,
                -0.6639165743349249,
                0.2353817504816671,
                -0.21167175437391134,
                0.7753012487532263,
                2.1874917851089624
            ]
        },
        {
            "positions": [
                -0.38241012121875595,
                -0.7030607258191464,
                0.3790501010332459,
                -0.25415657968947997,
                0.7222810766652755,
                2.2587314449765397
            ]
        },
        {
            "positions": [
                -0.33638155464085384,
                -0.7422048773033678,
                0.5227184515848255,
                -0.2966414050050488,
                0.6692609045773248,
                2.329971104844117
            ]
        },
        {
            "positions": [
                -0.29035298806295196,
                -0.7813490287875893,
                0.6663868021364043,
                -0.33912623032061745,
                0.616240732489374,
                2.401210764711694
            ]
        },
        {
            "positions": [
                -0.24432442148504996,
                -0.8204931802718107,
                0.8100551526879836,
                -0.3816110556361862,
                0.5632205604014233,
                2.472450424579271
            ]
        },
        {
            "positions": [
                -0.19829585490714807,
                -0.859637331756032,
                0.9537235032395623,
                -0.42409588095175493,
                0.5102003883134725,
                2.5436900844468484
            ]
        },
        {
            "positions": [
                -0.15226728832924596,
                -0.8987814832402534,
                1.0973918537911416,
                -0.4665807062673237,
                0.45718021622552163,
                2.6149297443144253
            ]
        },
        {
            "positions": [
                -0.10623872175134408,
                -0.9379256347244749,
                1.2410602043427204,
                -0.5090655315828923,
                0.404160044137571,
                2.686169404182002
            ]
        },
        {
            "positions": [
                -0.06021015517344197,
                -0.9770697862086963,
                1.3847285548942996,
                -0.5515503568984612,
                0.35113987204962016,
                2.75740906404958
            ]
        },
        {
            "positions": [
                -0.014181588595540084,
                -1.0162139376929178,
                1.5283969054458788,
                -0.5940351822140297,
                0.29811969996166954,
                2.8286487239171567
            ]
        },
        {
            "positions": [
                0.0318469779823618,
                -1.0553580891771392,
                1.672065255997458,
                -0.6365200075295985,
                0.2450995278737187,
                2.899888383784734
            ]
        },
        {
            "positions": [
                0.07787554456026369,
                -1.0945022406613607,
                1.8157336065490368,
                -0.6790048328451672,
                0.19207935578576807,
                2.971128043652311
            ]
        },
        {
            "positions": [
                0.12390411113816573,
                -1.1336463921455822,
                1.9594019571006158,
                -0.721489658160736,
                0.13905918369781725,
                3.042367703519888
            ]
        }
    ]
}