{
    "goal": {
        "global_pose": {
            "orientation": {
                "w": 0.7031023502349854,
                "x": -0.7110244035720825,
                "y": 0.007748599164187908,
                "z": 0.005598929710686207
            },
            "position": {
                "x": 0.11585023208521307,
                "y": 0.44412534475326537,
                "z": 0.3711530566215515
            }
        },
        "name": "move_to_auspresseinheit_A"
    },
    "id": "EST_move_to_auspresseinheit_A_127",
    "joint_names": [
        "shoulder_pan_joint",
        "shoulder_lift_joint",
        "elbow_joint",
        "wrist_1_joint",
        "wrist_2_joint",
        "wrist_3_joint"
    ],
    "metrics": {
        "cart_traj_len": 1.2867150825895584,
        "distance_elbow_joint": 1.070996211089132,
        "distance_shoulder_lift_joint": 0.8574090367461382,
        "distance_shoulder_pan_joint": 1.7301011633771122,
        "distance_wrist_1_joint": 1.3075943364085125,
        "distance_wrist_2_joint": 1.7732680398329714,
        "distance_wrist_3_joint": 1.962418036030293,
        "smoothness": 0.991201648052916,
        "time": 0.439118646,
        "traj_len": 2.9498791201478336,
        "weighted_distance": 3.963266994764071
    },
    "planner": "EST",
    "start": {
        "state": {
            "elbow_joint": 2.422574709923281,
            "shoulder_lift_joint": -1.3736533754116391,
            "shoulder_pan_joint": -0.33786336945926293,
            "wrist_1_joint": -1.0288603412921917,
            "wrist_2_joint": 1.2330224858903978,
            "wrist_3_joint": -3.094022268022082
        }
    },
    "waypoints": [
        {
            "positions": [
                -0.33786336945926293,
                -1.3736533754116391,
                2.422574709923281,
                -1.0288603412921917,
                1.2330224858903978,
                -3.094022268022082
            ]
        },
        {
            "positions": [
                -0.3665460529542129,
                -1.4316351701380412,
                2.376721194103853,
                -0.9507800262352273,
                1.1368163646618301,
                -3.013978244531507
            ]
        },
        {
            "positions": [
                -0.3952287364491628,
                -1.4896169648644433,
                2.3308676782844246,
                -0.8726997111782627,
                1.0406102434332625,
                -2.933934221040931
            ]
        },
        {
            "positions": [
                -0.42391141994411274,
                -1.5475987595908451,
                2.2850141624649964,
                -0.7946193961212982,
                0.944404122204695,
                -2.853890197550356
            ]
        },
        {
            "positions": [
                -0.45259410343906264,
                -1.6055805543172472,
                2.2391606466455682,
                -0.7165390810643337,
                0.8481980009761274,
                -2.77384617405978
            ]
        },
        {
            "positions": [
                -0.4812767869340126,
                -1.6635623490436493,
                2.19330713082614,
                -0.6384587660073693,
                0.7519918797475598,
                -2.693802150569205
            ]
        },
        {
            "positions": [
                -0.5099594704289625,
                -1.7215441437700514,
                2.147453615006712,
                -0.5603784509504047,
                0.6557857585189922,
                -2.613758127078629
            ]
        },
        {
            "positions": [
                -0.5386421539239125,
                -1.7795259384964535,
                2.101600099187283,
                -0.48229813589344017,
                0.5595796372904246,
                -2.533714103588054
            ]
        },
        {
            "positions": [
                -0.5673248374188624,
                -1.8375077332228553,
                2.055746583367855,
                -0.4042178208364757,
                0.46337351606185706,
                -2.4536700800974787
            ]
        },
        {
            "positions": [
                -0.5960075209138123,
                -1.8954895279492576,
                2.009893067548427,
                -0.3261375057795113,
                0.3671673948332894,
                -2.373626056606903
            ]
        },
        {
            "positions": [
                -0.6246902044087623,
                -1.9534713226756595,
                1.9640395517289986,
                -0.24805719072254673,
                0.2709612736047219,
                -2.2935820331163277
            ]
        },
        {
            "positions": [
                -0.6533728879037122,
                -2.011453117402062,
                1.9181860359095704,
                -0.16997687566558228,
                0.17475515237615435,
                -2.2135380096257524
            ]
        },
        {
            "positions": [
                -0.6820555713986621,
                -2.0694349121284636,
                1.8723325200901422,
                -0.09189656060861776,
                0.07854903114758668,
                -2.1334939861351767
            ]
        },
        {
            "positions": [
                -0.5556697643116778,
                -2.056095794426806,
                1.9217032768176887,
                -0.12210292446949657,
                0.13591057980423132,
                -2.223169098166836
            ]
        },
        {
            "positions": [
                -0.4292839572246935,
                -2.042756676725148,
                1.9710740335452352,
                -0.15230928833037538,
                0.193272128460876,
                -2.3128442101984956
            ]
        },
        {
            "positions": [
                -0.30289815013770915,
                -2.0294175590234906,
                2.020444790272782,
                -0.1825156521912542,
                0.2506336771175206,
                -2.402519322230155
            ]
        },
        {
            "positions": [
                -0.17651234305072483,
                -2.0160784413218327,
                2.0698155470003283,
                -0.21272201605213303,
                0.30799522577416527,
                -2.492194434261814
            ]
        },
        {
            "positions": [
                -0.050126535963740504,
                -2.002739323620175,
                2.119186303727875,
                -0.24292837991301183,
                0.36535677443080994,
                -2.5818695462934738
            ]
        },
        {
            "positions": [
                0.07625927112324382,
                -1.9894002059185174,
                2.168557060455421,
                -0.27313474377389063,
                0.4227183230874545,
                -2.671544658325133
            ]
        },
        {
            "positions": [
                0.20264507821022804,
                -1.9760610882168597,
                2.2179278171829675,
                -0.30334110763476946,
                0.48007987174409916,
                -2.7612197703567922
            ]
        },
        {
            "positions": [
                0.32903088529721247,
                -1.9627219705152021,
                2.267298573910514,
                -0.3335474714956483,
                0.5374414204007438,
                -2.8508948823884515
            ]
        },
        {
            "positions": [
                0.4554166923841968,
                -1.9493828528135444,
                2.3166693306380606,
                -0.36375383535652706,
                0.5948029690573885,
                -2.940569994420111
            ]
        },
        {
            "positions": [
                0.581802499471181,
                -1.9360437351118867,
                2.366040087365607,
                -0.3939601992174059,
                0.6521645177140332,
                -3.0302451064517704
            ]
        },
        {
            "positions": [
                0.6428279447551158,
                -1.9219255736055183,
                2.379563314355871,
                -0.42824365777548096,
                0.67475406697589,
                -3.0828144233651673
            ]
        },
        {
            "positions": [
                0.7038533900390507,
                -1.90780741209915,
                2.3930865413461353,
                -0.46252711633355603,
                0.6973436162377469,
                -3.1353837402785643
            ]
        }
    ]
}