{
    "goal": {
        "global_pose": {
            "orientation": {
                "w": 0.5084816217422485,
                "x": -0.49083608388900757,
                "y": 0.5182115435600281,
                "z": -0.4816462993621826
            },
            "position": {
                "x": 0.5540239810943604,
                "y": 0.030875300988554955,
                "z": 0.16403168439865112
            }
        },
        "name": "move_to_storage_A"
    },
    "id": "EST_move_to_storage_A_9",
    "joint_names": [
        "shoulder_pan_joint",
        "shoulder_lift_joint",
        "elbow_joint",
        "wrist_1_joint",
        "wrist_2_joint",
        "wrist_3_joint"
    ],
    "metrics": {
        "cart_traj_len": 0.35312438971515997,
        "distance_elbow_joint": 0.4502561270820218,
        "distance_shoulder_lift_joint": 0.23356307588869996,
        "distance_shoulder_pan_joint": 0.46291107065440257,
        "distance_wrist_1_joint": 0.2503323861405383,
        "distance_wrist_2_joint": 1.0930256817719484,
        "distance_wrist_3_joint": 0.09966835159177334,
        "smoothness": 2.442490657182277e-15,
        "time": 0.037056634000000005,
        "traj_len": 1.609272100401105,
        "weighted_distance": 2.0328431971564895
    },
    "planner": "EST",
    "start": {
        "state": {
            "elbow_joint": 1.9715463870305268,
            "shoulder_lift_joint": -1.1394903361783484,
            "shoulder_pan_joint": 0.12281147578464417,
            "wrist_1_joint": -0.7804599489681411,
            "wrist_2_joint": 0.12958660307563738,
            "wrist_3_joint": -3.1924946282119055
        }
    },
    "waypoints": [
        {
            "positions": [
                0.12281147578464417,
                -1.1394903361783484,
                1.9715463870305268,
                -0.7804599489681411,
                0.12958660307563738,
                -3.1924946282119055
            ]
        },
        {
            "positions": [
                0.05668132283401524,
                -1.1728564898767342,
                2.035868690899387,
                -0.8162217184167894,
                0.2857331290430586,
                -3.1782562922702238
            ]
        },
        {
            "positions": [
                -0.009448830116613696,
                -1.2062226435751198,
                2.1001909947682473,
                -0.8519834878654378,
                0.44187965501047977,
                -3.1640179563285415
            ]
        },
        {
            "positions": [
                -0.07557898306724263,
                -1.2395887972735056,
                2.1645132986371074,
                -0.887745257314086,
                0.598026180977901,
                -3.1497796203868598
            ]
        },
        {
            "positions": [
                -0.14170913601787155,
                -1.2729549509718912,
                2.228835602505968,
                -0.9235070267627344,
                0.7541727069453221,
                -3.135541284445178
            ]
        },
        {
            "positions": [
                -0.2078392889685005,
                -1.306321104670277,
                2.293157906374828,
                -0.9592687962113827,
                0.9103192329127434,
                -3.121302948503496
            ]
        },
        {
            "positions": [
                -0.2739694419191294,
                -1.3396872583686625,
                2.357480210243688,
                -0.9950305656600311,
                1.0664657588801645,
                -3.107064612561814
            ]
        },
        {
            "positions": [
                -0.3400995948697584,
                -1.3730534120670483,
                2.4218025141125485,
                -1.0307923351086794,
                1.2226122848475858,
                -3.092826276620132
            ]
        }
    ]
}