{
    "goal": {
        "global_pose": {
            "orientation": {
                "w": -0.00223480608172531,
                "x": 0.0024358444001904467,
                "y": 0.7094548369677653,
                "z": -0.704743149386269
            },
            "position": {
                "x": 0.6205249238014221,
                "y": -0.6371506643295288,
                "z": 0.19426114857196808
            }
        },
        "name": "move_to_magneteinheit_B"
    },
    "id": "EST_move_to_magneteinheit_B_67",
    "joint_names": [
        "shoulder_pan_joint",
        "shoulder_lift_joint",
        "elbow_joint",
        "wrist_1_joint",
        "wrist_2_joint",
        "wrist_3_joint"
    ],
    "metrics": {
        "cart_traj_len": 3.230739044653453,
        "distance_elbow_joint": 4.466981550185199,
        "distance_shoulder_lift_joint": 0.5706967091450292,
        "distance_shoulder_pan_joint": 2.176079070329815,
        "distance_wrist_1_joint": 2.929544109147101,
        "distance_wrist_2_joint": 0.708668032605516,
        "distance_wrist_3_joint": 3.6330588557036965,
        "smoothness": 0.47241542876699016,
        "time": 3.517714678,
        "traj_len": 3.8059201682531856,
        "weighted_distance": 5.03878538740006
    },
    "planner": "EST",
    "start": {
        "state": {
            "elbow_joint": 2.39358713078474,
            "shoulder_lift_joint": -1.908514104345545,
            "shoulder_pan_joint": 0.7066247066606129,
            "wrist_1_joint": -0.4678290933515497,
            "wrist_2_joint": 0.7096259083745334,
            "wrist_3_joint": -3.1358149277392293
        }
    },
    "waypoints": [
        {
            "positions": [
                0.7066247066606129,
                -1.908514104345545,
                2.39358713078474,
                -0.4678290933515497,
                0.7096259083745334,
                -3.1358149277392293
            ]
        },
        {
            "positions": [
                0.7732477381710968,
                -1.9183539730903432,
                2.387397668082234,
                -0.4374249325114121,
                0.6624320351296789,
                -2.931713804594035
            ]
        },
        {
            "positions": [
                0.8398707696815808,
                -1.9281938418351414,
                2.3812082053797283,
                -0.40702077167127454,
                0.6152381618848243,
                -2.727612681448841
            ]
        },
        {
            "positions": [
                0.9064938011920647,
                -1.9380337105799397,
                2.3750187426772222,
                -0.37661661083113696,
                0.5680442886399697,
                -2.523511558303647
            ]
        },
        {
            "positions": [
                0.9731168327025486,
                -1.947873579324738,
                2.368829279974716,
                -0.3462124499909993,
                0.5208504153951152,
                -2.319410435158453
            ]
        },
        {
            "positions": [
                1.0397398642130324,
                -1.9577134480695362,
                2.3626398172722105,
                -0.3158082891508618,
                0.47365654215026065,
                -2.1153093120132587
            ]
        },
        {
            "positions": [
                1.1063628957235163,
                -1.9675533168143344,
                2.3564503545697044,
                -0.28540412831072415,
                0.4264626689054061,
                -1.9112081888680643
            ]
        },
        {
            "positions": [
                1.1729859272340004,
                -1.9773931855591327,
                2.3502608918671983,
                -0.2549999674705866,
                0.3792687956605515,
                -1.7071070657228702
            ]
        },
        {
            "positions": [
                1.2396089587444843,
                -1.987233054303931,
                2.3440714291646922,
                -0.22459580663044898,
                0.3320749224156969,
                -1.5030059425776758
            ]
        },
        {
            "positions": [
                1.3062319902549682,
                -1.9970729230487292,
                2.3378819664621866,
                -0.1941916457903114,
                0.2848810491708424,
                -1.2989048194324817
            ]
        },
        {
            "positions": [
                1.372855021765452,
                -2.0069127917935274,
                2.3316925037596805,
                -0.1637874849501738,
                0.23768717592598781,
                -1.0948036962872876
            ]
        },
        {
            "positions": [
                1.4336255032640182,
                -2.0175606315950185,
                2.15812748015923,
                -0.07790341848224307,
                0.23816281623671245,
                -1.038290102938121
            ]
        },
        {
            "positions": [
                1.4943959847625845,
                -2.02820847139651,
                1.9845624565587792,
                0.007980647985687678,
                0.2386384565474371,
                -0.9817765095889547
            ]
        },
        {
            "positions": [
                1.5551664662611506,
                -2.0388563111980016,
                1.8109974329583287,
                0.09386471445361838,
                0.23911409685816176,
                -0.9252629162397883
            ]
        },
        {
            "positions": [
                1.6159369477597167,
                -2.0495041509994927,
                1.6374324093578778,
                0.17974878092154917,
                0.2395897371688864,
                -0.8687493228906218
            ]
        },
        {
            "positions": [
                1.6767074292582829,
                -2.0601519908009838,
                1.4638673857574274,
                0.2656328473894799,
                0.24006537747961104,
                -0.8122357295414554
            ]
        },
        {
            "positions": [
                1.7374779107568492,
                -2.0707998306024753,
                1.2903023621569767,
                0.3515169138574106,
                0.24054101779033568,
                -0.755722136192289
            ]
        },
        {
            "positions": [
                1.7982483922554153,
                -2.081447670403967,
                1.116737338556526,
                0.43740098032534136,
                0.24101665810106032,
                -0.6992085428431225
            ]
        },
        {
            "positions": [
                1.8590188737539814,
                -2.092095510205458,
                0.9431723149560753,
                0.5232850467932721,
                0.24149229841178496,
                -0.642694949493956
            ]
        },
        {
            "positions": [
                1.9197893552525476,
                -2.102743350006949,
                0.7696072913556247,
                0.6091691132612029,
                0.24196793872250963,
                -0.5861813561447896
            ]
        },
        {
            "positions": [
                1.9805598367511137,
                -2.1133911898084405,
                0.5960422677551742,
                0.6950531797291336,
                0.24244357903323427,
                -0.5296677627956232
            ]
        },
        {
            "positions": [
                2.0413303182496803,
                -2.124039029609932,
                0.42247724415472354,
                0.7809372461970644,
                0.2429192193439589,
                -0.4731541694464567
            ]
        },
        {
            "positions": [
                2.1021007997482464,
                -2.134686869411423,
                0.24891222055427287,
                0.866821312664995,
                0.24339485965468355,
                -0.4166405760972903
            ]
        },
        {
            "positions": [
                2.1628712812468125,
                -2.1453347092129142,
                0.07534719695382197,
                0.952705379132926,
                0.2438704999654082,
                -0.3601269827481238
            ]
        },
        {
            "positions": [
                2.2236417627453786,
                -2.155982549014406,
                -0.09821782664662848,
                1.0385894456008566,
                0.24434614027613286,
                -0.30361338939895743
            ]
        },
        {
            "positions": [
                2.2844122442439447,
                -2.1666303888158973,
                -0.27178285024707893,
                1.1244735120687874,
                0.2448217805868575,
                -0.24709979604979104
            ]
        },
        {
            "positions": [
                2.345182725742511,
                -2.1772782286173884,
                -0.44534787384752983,
                1.2103575785367182,
                0.24529742089758214,
                -0.19058620270062454
            ]
        },
        {
            "positions": [
                2.405953207241077,
                -2.1879260684188795,
                -0.6189128974479803,
                1.296241645004649,
                0.24577306120830678,
                -0.13407260935145804
            ]
        },
        {
            "positions": [
                2.466723688739643,
                -2.198573908220371,
                -0.7924779210484312,
                1.3821257114725798,
                0.24624870151903142,
                -0.07755901600229165
            ]
        },
        {
            "positions": [
                2.527494170238209,
                -2.2092217480218626,
                -0.9660429446488816,
                1.4680097779405106,
                0.24672434182975606,
                -0.021045422653125145
            ]
        },
        {
            "positions": [
                2.5882646517367753,
                -2.2198695878233536,
                -1.139607968249332,
                1.553893844408441,
                0.24719998214048072,
                0.035468170696041135
            ]
        },
        {
            "positions": [
                2.649035133235342,
                -2.2305174276248447,
                -1.313172991849783,
                1.6397779108763721,
                0.24767562245120536,
                0.09198176404520764
            ]
        },
        {
            "positions": [
                2.709805614733908,
                -2.2411652674263363,
                -1.4867380154502334,
                1.7256619773443027,
                0.24815126276193,
                0.14849535739437408
            ]
        },
        {
            "positions": [
                2.7305248869112435,
                -2.2565183806487235,
                -1.6145312043097764,
                1.5407146015509425,
                0.25652953270903156,
                0.1856661720158883
            ]
        },
        {
            "positions": [
                2.7512441590885794,
                -2.2718714938711106,
                -1.7423243931693193,
                1.3557672257575826,
                0.2649078026561331,
                0.22283698663740253
            ]
        },
        {
            "positions": [
                2.771963431265915,
                -2.287224607093498,
                -1.8701175820288622,
                1.1708198499642224,
                0.2732860726032347,
                0.26000780125891676
            ]
        },
        {
            "positions": [
                2.7350499826910775,
                -2.3512200092258566,
                -1.8023586362383297,
                1.1104162129404997,
                0.34032954042980906,
                0.18092909235706697
            ]
        },
        {
            "positions": [
                2.6981365341162395,
                -2.4152154113582154,
                -1.734599690447797,
                1.050012575916777,
                0.40737300825638345,
                0.10185038345521719
            ]
        },
        {
            "positions": [
                2.661223085541402,
                -2.479210813490574,
                -1.6668407446572644,
                0.9896089388930545,
                0.4744164760829579,
                0.022771674553367406
            ]
        }
    ]
}