{
    "goal": {
        "global_pose": {
            "orientation": {
                "w": 0.5084816217422485,
                "x": -0.49083608388900757,
                "y": 0.5182115435600281,
                "z": -0.4816462993621826
            },
            "position": {
                "x": 0.5540239810943604,
                "y": 0.030875300988554955,
                "z": 0.16403168439865112
            }
        },
        "name": "move_to_storage_A"
    },
    "id": "EST_move_to_storage_A_70",
    "joint_names": [
        "shoulder_pan_joint",
        "shoulder_lift_joint",
        "elbow_joint",
        "wrist_1_joint",
        "wrist_2_joint",
        "wrist_3_joint"
    ],
    "metrics": {
        "cart_traj_len": 0.35257440539377255,
        "distance_elbow_joint": 0.4499787615579245,
        "distance_shoulder_lift_joint": 0.2358435580119238,
        "distance_shoulder_pan_joint": 0.4588530212754407,
        "distance_wrist_1_joint": 0.2406885904971129,
        "distance_wrist_2_joint": 1.10802857622646,
        "distance_wrist_3_joint": 0.08764120806279596,
        "smoothness": 0.0,
        "time": 0.096628114,
        "traj_len": 1.6065595898165923,
        "weighted_distance": 2.0260881763834524
    },
    "planner": "EST",
    "start": {
        "state": {
            "elbow_joint": 1.9715463870305268,
            "shoulder_lift_joint": -1.1394903361783484,
            "shoulder_pan_joint": 0.12281147578464417,
            "wrist_1_joint": -0.7804599489681411,
            "wrist_2_joint": 0.12958660307563738,
            "wrist_3_joint": -3.1924946282119055
        }
    },
    "waypoints": [
        {
            "positions": [
                0.12281147578464417,
                -1.1394903361783484,
                1.9715463870305268,
                -0.7804599489681411,
                0.12958660307563738,
                -3.1924946282119055
            ]
        },
        {
            "positions": [
                0.05726104417386693,
                -1.1731822730371946,
                2.035829067253087,
                -0.8148440333248715,
                0.28787639967941736,
                -3.179974455631506
            ]
        },
        {
            "positions": [
                -0.008289387436910309,
                -1.206874209896041,
                2.100111747475648,
                -0.8492281176816019,
                0.4461661962831973,
                -3.1674542830511068
            ]
        },
        {
            "positions": [
                -0.07383981904768754,
                -1.2405661467548872,
                2.1643944276982086,
                -0.8836122020383324,
                0.6044559928869773,
                -3.154934110470707
            ]
        },
        {
            "positions": [
                -0.13939025065846478,
                -1.2742580836137334,
                2.2286771079207695,
                -0.9179962863950627,
                0.7627457894907573,
                -3.142413937890308
            ]
        },
        {
            "positions": [
                -0.20494068226924206,
                -1.3079500204725796,
                2.29295978814333,
                -0.9523803707517932,
                0.9210355860945374,
                -3.1298937653099084
            ]
        },
        {
            "positions": [
                -0.27049111388001923,
                -1.341641957331426,
                2.3572424683658904,
                -0.9867644551085235,
                1.0793253826983171,
                -3.117373592729509
            ]
        },
        {
            "positions": [
                -0.3360415454907965,
                -1.3753338941902722,
                2.4215251485884512,
                -1.021148539465254,
                1.2376151793020973,
                -3.1048534201491096
            ]
        }
    ]
}