{
    "goal": {
        "global_pose": {
            "orientation": {
                "w": 0.7047431468963623,
                "x": -0.7094548344612122,
                "y": 0.0024358443915843964,
                "z": -0.0022348060738295317
            },
            "position": {
                "x": 0.6094750761985779,
                "y": 0.3671506643295288,
                "z": 0.19426114857196808
            }
        },
        "name": "move_to_magneteinheit_A"
    },
    "id": "EST_move_to_magneteinheit_A_123",
    "joint_names": [
        "shoulder_pan_joint",
        "shoulder_lift_joint",
        "elbow_joint",
        "wrist_1_joint",
        "wrist_2_joint",
        "wrist_3_joint"
    ],
    "metrics": {
        "cart_traj_len": 1.879572978499305,
        "distance_elbow_joint": 3.908018008035254,
        "distance_shoulder_lift_joint": 0.697957030742654,
        "distance_shoulder_pan_joint": 1.2414284686638892,
        "distance_wrist_1_joint": 1.488425178930116,
        "distance_wrist_2_joint": 1.6925089061085405,
        "distance_wrist_3_joint": 1.096812638605532,
        "smoothness": 1.644774855041844e-16,
        "time": 0.097599197,
        "traj_len": 3.1820041217895967,
        "weighted_distance": 3.936967055149904
    },
    "planner": "EST",
    "start": {
        "state": {
            "elbow_joint": -1.919643507792019,
            "shoulder_lift_joint": -0.07675430207160344,
            "shoulder_pan_joint": -1.1188671864651873,
            "wrist_1_joint": 0.42560062535961957,
            "wrist_2_joint": 1.5706038300724876,
            "wrist_3_joint": 1.1188968870953055
        }
    },
    "waypoints": [
        {
            "positions": [
                -1.1188671864651873,
                -0.07675430207160344,
                -1.919643507792019,
                0.42560062535961957,
                1.5706038300724876,
                1.1188968870953055
            ]
        },
        {
            "positions": [
                -1.0711199376704224,
                -0.10359880325401322,
                -1.7693351228675862,
                0.4828477476261625,
                1.5055073336836975,
                1.0767117856104773
            ]
        },
        {
            "positions": [
                -1.0233726888756574,
                -0.130443304436423,
                -1.6190267379431533,
                0.5400948698927054,
                1.4404108372949076,
                1.0345266841256493
            ]
        },
        {
            "positions": [
                -0.9756254400808924,
                -0.15728780561883277,
                -1.4687183530187204,
                0.5973419921592483,
                1.3753143409061175,
                0.9923415826408211
            ]
        },
        {
            "positions": [
                -0.9278781912861275,
                -0.18413230680124254,
                -1.3184099680942878,
                0.6545891144257913,
                1.3102178445173276,
                0.9501564811559929
            ]
        },
        {
            "positions": [
                -0.8801309424913625,
                -0.21097680798365231,
                -1.1681015831698547,
                0.7118362366923342,
                1.2451213481285375,
                0.9079713796711648
            ]
        },
        {
            "positions": [
                -0.8323836936965975,
                -0.2378213091660621,
                -1.017793198245422,
                0.769083358958877,
                1.1800248517397476,
                0.8657862781863366
            ]
        },
        {
            "positions": [
                -0.7846364449018326,
                -0.26466581034847186,
                -0.8674848133209891,
                0.82633048122542,
                1.1149283553509575,
                0.8236011767015086
            ]
        },
        {
            "positions": [
                -0.7368891961070676,
                -0.29151031153088164,
                -0.7171764283965563,
                0.8835776034919629,
                1.0498318589621674,
                0.7814160752166803
            ]
        },
        {
            "positions": [
                -0.6891419473123026,
                -0.3183548127132914,
                -0.5668680434721236,
                0.9408247257585058,
                0.9847353625733775,
                0.7392309737318522
            ]
        },
        {
            "positions": [
                -0.6413946985175376,
                -0.3451993138957012,
                -0.4165596585476905,
                0.9980718480250488,
                0.9196388661845873,
                0.6970458722470241
            ]
        },
        {
            "positions": [
                -0.5936474497227727,
                -0.37204381507811096,
                -0.26625127362325784,
                1.0553189702915917,
                0.8545423697957973,
                0.6548607707621958
            ]
        },
        {
            "positions": [
                -0.5459002009280076,
                -0.39888831626052074,
                -0.11594288869882474,
                1.1125660925581347,
                0.7894458734070073,
                0.6126756692773677
            ]
        },
        {
            "positions": [
                -0.49815295213324273,
                -0.4257328174429305,
                0.03436549622560792,
                1.1698132148246776,
                0.7243493770182173,
                0.5704905677925396
            ]
        },
        {
            "positions": [
                -0.45040570333847785,
                -0.4525773186253403,
                0.1846738811500408,
                1.2270603370912205,
                0.6592528806294273,
                0.5283054663077115
            ]
        },
        {
            "positions": [
                -0.40265845454371285,
                -0.47942181980775,
                0.33498226607447346,
                1.2843074593577632,
                0.5941563842406373,
                0.48612036482288334
            ]
        },
        {
            "positions": [
                -0.35491120574894774,
                -0.5062663209901599,
                0.48529065099890656,
                1.3415545816243064,
                0.5290598878518473,
                0.4439352633380551
            ]
        },
        {
            "positions": [
                -0.30716395695418286,
                -0.5331108221725696,
                0.6355990359233392,
                1.3988017038908491,
                0.4639633914630572,
                0.401750161853227
            ]
        },
        {
            "positions": [
                -0.25941670815941786,
                -0.5599553233549794,
                0.7859074208477719,
                1.4560488261573923,
                0.3988668950742673,
                0.35956506036839886
            ]
        },
        {
            "positions": [
                -0.21166945936465298,
                -0.5867998245373891,
                0.936215805772205,
                1.513295948423935,
                0.3337703986854772,
                0.31737995888357073
            ]
        },
        {
            "positions": [
                -0.16392221056988787,
                -0.613644325719799,
                1.086524190696638,
                1.5705430706904782,
                0.2686739022966871,
                0.2751948573987425
            ]
        },
        {
            "positions": [
                -0.11617496177512288,
                -0.6404888269022087,
                1.2368325756210707,
                1.6277901929570209,
                0.2035774059078972,
                0.23300975591391437
            ]
        },
        {
            "positions": [
                -0.0684277129803581,
                -0.6673333280846185,
                1.3871409605455034,
                1.6850373152235638,
                0.13848090951910708,
                0.19082465442908625
            ]
        },
        {
            "positions": [
                -0.020680464185593106,
                -0.6941778292670282,
                1.537449345469936,
                1.7422844374901068,
                0.07338441313031718,
                0.14863955294425812
            ]
        },
        {
            "positions": [
                0.027066784609172112,
                -0.7210223304494381,
                1.6877577303943696,
                1.7995315597566497,
                0.008287916741527068,
                0.10645445145942989
            ]
        },
        {
            "positions": [
                0.07481403340393689,
                -0.7478668316318478,
                1.8380661153188023,
                1.8567786820231926,
                -0.05680857964726305,
                0.06426934997460165
            ]
        },
        {
            "positions": [
                0.12256128219870198,
                -0.7747113328142575,
                1.988374500243235,
                1.9140258042897356,
                -0.12190507603605287,
                0.02208424848977364
            ]
        }
    ]
}