{
    "goal": {
        "global_pose": {
            "orientation": {
                "w": 0.7031023502349854,
                "x": -0.7110244035720825,
                "y": 0.007748599164187908,
                "z": 0.005598929710686207
            },
            "position": {
                "x": 0.11585023208521307,
                "y": 0.44412534475326537,
                "z": 0.3711530566215515
            }
        },
        "name": "move_to_auspresseinheit_A"
    },
    "id": "EST_move_to_auspresseinheit_A_105",
    "joint_names": [
        "shoulder_pan_joint",
        "shoulder_lift_joint",
        "elbow_joint",
        "wrist_1_joint",
        "wrist_2_joint",
        "wrist_3_joint"
    ],
    "metrics": {
        "cart_traj_len": 1.3575907851562858,
        "distance_elbow_joint": 0.7435363696539281,
        "distance_shoulder_lift_joint": 0.6736415331924182,
        "distance_shoulder_pan_joint": 1.9678400524972433,
        "distance_wrist_1_joint": 1.06252920542069,
        "distance_wrist_2_joint": 1.6529423756884218,
        "distance_wrist_3_joint": 1.68787556656526,
        "smoothness": 0.8199685061383246,
        "time": 0.476620182,
        "traj_len": 2.790764250705881,
        "weighted_distance": 3.725531883806337
    },
    "planner": "EST",
    "start": {
        "state": {
            "elbow_joint": 2.422574709923281,
            "shoulder_lift_joint": -1.3736533754116391,
            "shoulder_pan_joint": -0.33786336945926293,
            "wrist_1_joint": -1.0288603412921917,
            "wrist_2_joint": 1.2330224858903978,
            "wrist_3_joint": -3.094022268022082
        }
    },
    "waypoints": [
        {
            "positions": [
                -0.33786336945926293,
                -1.3736533754116391,
                2.422574709923281,
                -1.0288603412921917,
                1.2330224858903978,
                -3.094022268022082
            ]
        },
        {
            "positions": [
                -0.39568176209927797,
                -1.3737469506305624,
                2.3740683099155335,
                -1.0132499393120298,
                1.0962869627233576,
                -2.991949993743148
            ]
        },
        {
            "positions": [
                -0.45350015473929295,
                -1.3738405258494857,
                2.325561909907786,
                -0.9976395373318677,
                0.9595514395563174,
                -2.889877719464214
            ]
        },
        {
            "positions": [
                -0.511318547379308,
                -1.373934101068409,
                2.2770555099000385,
                -0.9820291353517058,
                0.8228159163892771,
                -2.78780544518528
            ]
        },
        {
            "positions": [
                -0.569136940019323,
                -1.3740276762873322,
                2.228549109892291,
                -0.9664187333715437,
                0.6860803932222369,
                -2.685733170906346
            ]
        },
        {
            "positions": [
                -0.626955332659338,
                -1.3741212515062553,
                2.1800427098845434,
                -0.9508083313913818,
                0.5493448700551967,
                -2.5836608966274115
            ]
        },
        {
            "positions": [
                -0.6847737252993531,
                -1.3742148267251786,
                2.131536309876796,
                -0.9351979294112198,
                0.4126093468881564,
                -2.4815886223484775
            ]
        },
        {
            "positions": [
                -0.742592117939368,
                -1.3743084019441019,
                2.0830299098690483,
                -0.9195875274310578,
                0.27587382372111624,
                -2.3795163480695436
            ]
        },
        {
            "positions": [
                -0.8004105105793831,
                -1.3744019771630251,
                2.034523509861301,
                -0.9039771254508958,
                0.139138300554076,
                -2.277444073790609
            ]
        },
        {
            "positions": [
                -0.6559256393919399,
                -1.4413162815425957,
                2.059551525091995,
                -0.8269442835680361,
                0.15792255867047655,
                -2.311530823626325
            ]
        },
        {
            "positions": [
                -0.5114407682044969,
                -1.5082305859221663,
                2.08457954032269,
                -0.7499114416851762,
                0.17670681678687714,
                -2.345617573462041
            ]
        },
        {
            "positions": [
                -0.36695589701705383,
                -1.575144890301737,
                2.109607555553384,
                -0.6728785998023165,
                0.1954910749032777,
                -2.3797043232977564
            ]
        },
        {
            "positions": [
                -0.22247102582961076,
                -1.6420591946813077,
                2.134635570784079,
                -0.5958457579194567,
                0.21427533301967827,
                -2.4137910731334724
            ]
        },
        {
            "positions": [
                -0.07798615464216763,
                -1.7089734990608783,
                2.1596635860147733,
                -0.5188129160365968,
                0.23305959113607883,
                -2.447877822969188
            ]
        },
        {
            "positions": [
                0.0664987165452754,
                -1.7758878034404488,
                2.184691601245468,
                -0.4417800741537371,
                0.2518438492524794,
                -2.481964572804904
            ]
        },
        {
            "positions": [
                0.21098358773271864,
                -1.8428021078200194,
                2.2097196164761623,
                -0.36474723227087735,
                0.27062810736888,
                -2.5160513226406196
            ]
        },
        {
            "positions": [
                0.35546845892016155,
                -1.90971641219959,
                2.234747631706857,
                -0.2877143903880176,
                0.2894123654852805,
                -2.5501380724763356
            ]
        },
        {
            "positions": [
                0.49995333010760473,
                -1.9766307165791608,
                2.2597756469375514,
                -0.21068154850515772,
                0.3081966236016811,
                -2.584224822312051
            ]
        },
        {
            "positions": [
                0.5409391442456317,
                -1.9624978781741815,
                2.2858222534406907,
                -0.25955163103188894,
                0.3861965970625801,
                -2.6971281470745203
            ]
        },
        {
            "positions": [
                0.5819249583836588,
                -1.9483650397692023,
                2.3118688599438304,
                -0.30842171355862014,
                0.46419657052347907,
                -2.8100314718369894
            ]
        },
        {
            "positions": [
                0.6229107725216858,
                -1.9342322013642228,
                2.3379154664469697,
                -0.3572917960853514,
                0.542196543984378,
                -2.922934796599458
            ]
        },
        {
            "positions": [
                0.6638965866597129,
                -1.9200993629592435,
                2.3639620729501094,
                -0.40616187861208264,
                0.620196517445277,
                -3.035838121361927
            ]
        },
        {
            "positions": [
                0.7048824007977398,
                -1.9059665245542643,
                2.3900086794532487,
                -0.45503196113881383,
                0.698196490906176,
                -3.1487414461243963
            ]
        }
    ]
}