{
    "goal": {
        "global_pose": {
            "orientation": {
                "w": -0.00223480608172531,
                "x": 0.0024358444001904467,
                "y": 0.7094548369677653,
                "z": -0.704743149386269
            },
            "position": {
                "x": 0.6205249238014221,
                "y": -0.6371506643295288,
                "z": 0.19426114857196808
            }
        },
        "name": "move_to_magneteinheit_B"
    },
    "id": "EST_move_to_magneteinheit_B_150",
    "joint_names": [
        "shoulder_pan_joint",
        "shoulder_lift_joint",
        "elbow_joint",
        "wrist_1_joint",
        "wrist_2_joint",
        "wrist_3_joint"
    ],
    "metrics": {
        "cart_traj_len": 3.8251299059927537,
        "distance_elbow_joint": 4.129549441812983,
        "distance_shoulder_lift_joint": 0.918179907352664,
        "distance_shoulder_pan_joint": 2.8016973254593456,
        "distance_wrist_1_joint": 5.249158394160775,
        "distance_wrist_2_joint": 1.901773911774503,
        "distance_wrist_3_joint": 6.2733639994151895,
        "smoothness": 0.16108444033937375,
        "time": 2.870238111,
        "traj_len": 4.612344629358853,
        "weighted_distance": 6.400889257340821
    },
    "planner": "EST",
    "start": {
        "state": {
            "elbow_joint": 2.39358713078474,
            "shoulder_lift_joint": -1.908514104345545,
            "shoulder_pan_joint": 0.7066247066606129,
            "wrist_1_joint": -0.4678290933515497,
            "wrist_2_joint": 0.7096259083745334,
            "wrist_3_joint": -3.1358149277392293
        }
    },
    "waypoints": [
        {
            "positions": [
                0.7066247066606129,
                -1.908514104345545,
                2.39358713078474,
                -0.4678290933515497,
                0.7096259083745334,
                -3.1358149277392293
            ]
        },
        {
            "positions": [
                0.646950767718937,
                -1.8836306487053789,
                2.371654247673749,
                -0.35242559323169287,
                0.6414660062327857,
                -3.083215906926344
            ]
        },
        {
            "positions": [
                0.5872768287772611,
                -1.858747193065213,
                2.349721364562758,
                -0.23702209311183603,
                0.573306104091038,
                -3.030616886113458
            ]
        },
        {
            "positions": [
                0.5276028898355851,
                -1.833863737425047,
                2.327788481451767,
                -0.12161859299197925,
                0.5051462019492904,
                -2.9780178653005724
            ]
        },
        {
            "positions": [
                0.4679289508939092,
                -1.8089802817848812,
                2.305855598340776,
                -0.006215092872122352,
                0.4369862998075426,
                -2.9254188444876865
            ]
        },
        {
            "positions": [
                0.40825501195223324,
                -1.7840968261447152,
                2.2839227152297847,
                0.10918840724773449,
                0.36882639766579495,
                -2.872819823674801
            ]
        },
        {
            "positions": [
                0.3984998670908071,
                -1.762694680674583,
                2.2395360482801925,
                0.21617524928179688,
                0.30674953486355844,
                -2.7402832222691784
            ]
        },
        {
            "positions": [
                0.38874472222938095,
                -1.7412925352044506,
                2.1951493813306002,
                0.32316209131585927,
                0.2446726720613219,
                -2.6077466208635562
            ]
        },
        {
            "positions": [
                0.3789895773679548,
                -1.7198903897343183,
                2.1507627143810075,
                0.4301489333499216,
                0.18259580925908536,
                -2.4752100194579336
            ]
        },
        {
            "positions": [
                0.36923443250652865,
                -1.698488244264186,
                2.1063760474314153,
                0.537135775383984,
                0.12051894645684885,
                -2.3426734180523114
            ]
        },
        {
            "positions": [
                0.35947928764510245,
                -1.677086098794054,
                2.061989380481823,
                0.6441226174180464,
                0.05844208365461229,
                -2.210136816646689
            ]
        },
        {
            "positions": [
                0.3497241427836763,
                -1.6556839533239216,
                2.0176027135322308,
                0.7511094594521087,
                -0.003634779147624223,
                -2.077600215241066
            ]
        },
        {
            "positions": [
                0.33996899792225016,
                -1.6342818078537893,
                1.9732160465826383,
                0.8580963014861711,
                -0.06571164194986073,
                -1.945063613835444
            ]
        },
        {
            "positions": [
                0.330213853060824,
                -1.612879662383657,
                1.9288293796330458,
                0.9650831435202335,
                -0.12778850475209724,
                -1.8125270124298214
            ]
        },
        {
            "positions": [
                0.32045870819939787,
                -1.5914775169135247,
                1.8844427126834535,
                1.072069985554296,
                -0.1898653675543338,
                -1.679990411024199
            ]
        },
        {
            "positions": [
                0.3789143576272167,
                -1.5898817477829272,
                1.8447973422408646,
                1.0910505027966264,
                -0.19940967424105505,
                -1.5458252370760546
            ]
        },
        {
            "positions": [
                0.4373700070550355,
                -1.5882859786523298,
                1.8051519717982756,
                1.110031020038957,
                -0.20895398092777628,
                -1.4116600631279104
            ]
        },
        {
            "positions": [
                0.5002351154403712,
                -1.5984884038722196,
                1.7043016410128204,
                1.0035882133713425,
                -0.19731017501096723,
                -1.3120732262440817
            ]
        },
        {
            "positions": [
                0.563100223825707,
                -1.6086908290921096,
                1.603451310227365,
                0.8971454067037283,
                -0.18566636909415818,
                -1.212486389360253
            ]
        },
        {
            "positions": [
                0.6259653322110428,
                -1.6188932543119994,
                1.50260097944191,
                0.7907026000361139,
                -0.17402256317734913,
                -1.1128995524764245
            ]
        },
        {
            "positions": [
                0.6888304405963785,
                -1.6290956795318892,
                1.4017506486564548,
                0.6842597933684996,
                -0.16237875726054007,
                -1.0133127155925958
            ]
        },
        {
            "positions": [
                0.7516955489817143,
                -1.6392981047517792,
                1.3009003178709997,
                0.5778169867008853,
                -0.15073495134373105,
                -0.9137258787087672
            ]
        },
        {
            "positions": [
                0.8145606573670501,
                -1.649500529971669,
                1.2000499870855443,
                0.47137418003327103,
                -0.13909114542692197,
                -0.8141390418249386
            ]
        },
        {
            "positions": [
                0.8774257657523858,
                -1.659702955191559,
                1.099199656300089,
                0.36493137336565673,
                -0.12744733951011294,
                -0.7145522049411099
            ]
        },
        {
            "positions": [
                0.9402908741377215,
                -1.6699053804114488,
                0.998349325514634,
                0.2584885666980423,
                -0.11580353359330389,
                -0.6149653680572813
            ]
        },
        {
            "positions": [
                1.0031559825230574,
                -1.6801078056313385,
                0.8974989947291786,
                0.1520457600304279,
                -0.10415972767649483,
                -0.5153785311734526
            ]
        },
        {
            "positions": [
                1.066021090908393,
                -1.6903102308512286,
                0.7966486639437236,
                0.045602953362813725,
                -0.09251592175968579,
                -0.41579169428962404
            ]
        },
        {
            "positions": [
                1.128886199293729,
                -1.7005126560711183,
                0.6957983331582682,
                -0.060839853304800684,
                -0.08087211584287674,
                -0.3162048574057952
            ]
        },
        {
            "positions": [
                1.1917513076790645,
                -1.7107150812910081,
                0.5949480023728131,
                -0.16728265997241487,
                -0.06922830992606768,
                -0.21661802052196677
            ]
        },
        {
            "positions": [
                1.2546164160644002,
                -1.7209175065108981,
                0.49409767158735773,
                -0.2737254666400293,
                -0.05758450400925863,
                -0.11703118363813791
            ]
        },
        {
            "positions": [
                1.317481524449736,
                -1.731119931730788,
                0.3932473408019026,
                -0.38016827330764347,
                -0.045940698092449606,
                -0.017444346754309503
            ]
        },
        {
            "positions": [
                1.3803466328350718,
                -1.7413223569506777,
                0.29239701001644725,
                -0.4866110799752579,
                -0.034296892175640525,
                0.08214249012951935
            ]
        },
        {
            "positions": [
                1.4432117412204075,
                -1.7515247821705677,
                0.19154667923099233,
                -0.5930538866428723,
                -0.0226530862588315,
                0.18172932701334776
            ]
        },
        {
            "positions": [
                1.5060768496057433,
                -1.7617272073904575,
                0.0906963484455372,
                -0.6994966933104865,
                -0.011009280342022448,
                0.2813161638971764
            ]
        },
        {
            "positions": [
                1.5689419579910793,
                -1.7719296326103473,
                -0.010153982339918377,
                -0.8059394999781011,
                0.0006345255747866319,
                0.38090300078100525
            ]
        },
        {
            "positions": [
                1.6318070663764148,
                -1.7821320578302373,
                -0.11100431312537351,
                -0.9123823066457151,
                0.012278331491595657,
                0.4804898376648339
            ]
        },
        {
            "positions": [
                1.6946721747617506,
                -1.792334483050127,
                -0.21185464391082842,
                -1.0188251133133295,
                0.02392213740840471,
                0.5800766745486623
            ]
        },
        {
            "positions": [
                1.7575372831470863,
                -1.802536908270017,
                -0.3127049746962838,
                -1.1252679199809439,
                0.035565943325213734,
                0.6796635114324912
            ]
        },
        {
            "positions": [
                1.8204023915324223,
                -1.812739333489907,
                -0.41355530548173913,
                -1.2317107266485583,
                0.047209749242022814,
                0.77925034831632
            ]
        },
        {
            "positions": [
                1.8832674999177579,
                -1.8229417587097967,
                -0.5144056362671945,
                -1.3381535333161727,
                0.05885355515883184,
                0.8788371852001484
            ]
        },
        {
            "positions": [
                1.9461326083030936,
                -1.8331441839296865,
                -0.6152559670526494,
                -1.4445963399837867,
                0.07049736107564092,
                0.9784240220839768
            ]
        },
        {
            "positions": [
                2.0089977166884294,
                -1.8433466091495765,
                -0.7161062978381048,
                -1.551039146651401,
                0.08214116699244994,
                1.0780108589678057
            ]
        },
        {
            "positions": [
                2.071862825073765,
                -1.8535490343694663,
                -0.8169566286235601,
                -1.6574819533190155,
                0.09378497290925902,
                1.1775976958516345
            ]
        },
        {
            "positions": [
                2.134727933459101,
                -1.863751459589356,
                -0.917806959409015,
                -1.76392475998663,
                0.10542877882606805,
                1.277184532735463
            ]
        },
        {
            "positions": [
                2.1975930418444367,
                -1.873953884809246,
                -1.0186572901944704,
                -1.8703675666542439,
                0.11707258474287707,
                1.3767713696192914
            ]
        },
        {
            "positions": [
                2.2604581502297725,
                -1.8841563100291359,
                -1.1195076209799253,
                -1.9768103733218583,
                0.12871639065968615,
                1.4763582065031202
            ]
        },
        {
            "positions": [
                2.3233232586151082,
                -1.8943587352490259,
                -1.220357951765381,
                -2.0832531799894727,
                0.14036019657649523,
                1.575945043386949
            ]
        },
        {
            "positions": [
                2.386188367000444,
                -1.9045611604689157,
                -1.3212082825508358,
                -2.189695986657087,
                0.15200400249330426,
                1.6755318802707777
            ]
        },
        {
            "positions": [
                2.4594922937385957,
                -1.9230591501915544,
                -1.408542338095037,
                -2.2652660263364806,
                0.0993247979756007,
                1.7232311514391128
            ]
        },
        {
            "positions": [
                2.532796220476748,
                -1.9415571399141929,
                -1.495876393639238,
                -2.3408360660158736,
                0.04664559345789715,
                1.7709304226074478
            ]
        },
        {
            "positions": [
                2.6061001472148995,
                -1.9600551296368316,
                -1.5832104491834393,
                -2.416406105695267,
                -0.006033611059806404,
                1.8186296937757829
            ]
        },
        {
            "positions": [
                2.6291893363440844,
                -1.9888724040003611,
                -1.6108158421870902,
                -2.4389351262462897,
                -0.06905622592954441,
                1.9743427420046498
            ]
        },
        {
            "positions": [
                2.6522785254732697,
                -2.0176896783638907,
                -1.6384212351907408,
                -2.461464146797313,
                -0.13207884079928242,
                2.130055790233517
            ]
        },
        {
            "positions": [
                2.675367714602455,
                -2.0465069527274204,
                -1.6660266281943916,
                -2.483993167348336,
                -0.19510145566902043,
                2.2857688384623835
            ]
        },
        {
            "positions": [
                2.69845690373164,
                -2.0753242270909498,
                -1.6936320211980425,
                -2.5065221878993587,
                -0.25812407053875847,
                2.4414818866912507
            ]
        },
        {
            "positions": [
                2.685945859909677,
                -2.112295404831226,
                -1.6795219245879753,
                -2.488273830288706,
                -0.3288267258784412,
                2.6735042816861547
            ]
        },
        {
            "positions": [
                2.673434816087714,
                -2.1492665825715025,
                -1.6654118279779082,
                -2.4700254726780537,
                -0.399529381218124,
                2.9055266766810592
            ]
        },
        {
            "positions": [
                2.6609237722657513,
                -2.1862377603117786,
                -1.651301731367841,
                -2.4517771150674013,
                -0.4702320365578067,
                3.1375490716759633
            ]
        }
    ]
}