{
    "goal": {
        "global_pose": {
            "orientation": {
                "w": 0.7047431468963623,
                "x": -0.7094548344612122,
                "y": 0.0024358443915843964,
                "z": -0.0022348060738295317
            },
            "position": {
                "x": 0.6094750761985779,
                "y": 0.3671506643295288,
                "z": 0.19426114857196808
            }
        },
        "name": "move_to_magneteinheit_A"
    },
    "id": "EST_move_to_magneteinheit_A_60",
    "joint_names": [
        "shoulder_pan_joint",
        "shoulder_lift_joint",
        "elbow_joint",
        "wrist_1_joint",
        "wrist_2_joint",
        "wrist_3_joint"
    ],
    "metrics": {
        "cart_traj_len": 1.8787205942663197,
        "distance_elbow_joint": 3.9126011730065478,
        "distance_shoulder_lift_joint": 0.7001435585678442,
        "distance_shoulder_pan_joint": 1.242165259897501,
        "distance_wrist_1_joint": 1.4883746095983048,
        "distance_wrist_2_joint": 1.7097754603736803,
        "distance_wrist_3_joint": 1.1059653987066285,
        "smoothness": 3.6185046922262754e-16,
        "time": 0.146212919,
        "traj_len": 3.1873226162643946,
        "weighted_distance": 3.945770688665999
    },
    "planner": "EST",
    "start": {
        "state": {
            "elbow_joint": -1.919643507792019,
            "shoulder_lift_joint": -0.07675430207160344,
            "shoulder_pan_joint": -1.1188671864651873,
            "wrist_1_joint": 0.42560062535961957,
            "wrist_2_joint": 1.5706038300724876,
            "wrist_3_joint": 1.1188968870953055
        }
    },
    "waypoints": [
        {
            "positions": [
                -1.1188671864651873,
                -0.07675430207160344,
                -1.919643507792019,
                0.42560062535961957,
                1.5706038300724876,
                1.1188968870953055
            ]
        },
        {
            "positions": [
                -1.0710915995460526,
                -0.10368290047805899,
                -1.7691588472917672,
                0.48284580265186205,
                1.5048432354427306,
                1.0763597563758198
            ]
        },
        {
            "positions": [
                -1.023316012626918,
                -0.13061149888451454,
                -1.6186741867915155,
                0.5400909799441046,
                1.4390826408129738,
                1.033822625656334
            ]
        },
        {
            "positions": [
                -0.9755404257077833,
                -0.15754009729097007,
                -1.4681895262912636,
                0.597336157236347,
                1.3733220461832167,
                0.9912854949368484
            ]
        },
        {
            "positions": [
                -0.9277648387886487,
                -0.18446869569742563,
                -1.3177048657910118,
                0.6545813345285896,
                1.30756145155346,
                0.9487483642173626
            ]
        },
        {
            "positions": [
                -0.879989251869514,
                -0.21139729410388117,
                -1.1672202052907599,
                0.711826511820832,
                1.241800856923703,
                0.9062112334978769
            ]
        },
        {
            "positions": [
                -0.8322136649503794,
                -0.23832589251033673,
                -1.016735544790508,
                0.7690716891130746,
                1.176040262293946,
                0.8636741027783912
            ]
        },
        {
            "positions": [
                -0.7844380780312448,
                -0.2652544909167922,
                -0.8662508842902563,
                0.826316866405317,
                1.110279667664189,
                0.8211369720589055
            ]
        },
        {
            "positions": [
                -0.73666249111211,
                -0.2921830893232478,
                -0.7157662237900044,
                0.8835620436975595,
                1.044519073034432,
                0.7785998413394197
            ]
        },
        {
            "positions": [
                -0.6888869041929755,
                -0.31911168772970333,
                -0.5652815632897525,
                0.940807220989802,
                0.9787584784046752,
                0.7360627106199341
            ]
        },
        {
            "positions": [
                -0.6411113172738407,
                -0.3460402861361589,
                -0.41479690278950065,
                0.9980523982820446,
                0.9129978837749182,
                0.6935255799004483
            ]
        },
        {
            "positions": [
                -0.5933357303547061,
                -0.37296888454261445,
                -0.264312242289249,
                1.055297575574287,
                0.8472372891451613,
                0.6509884491809627
            ]
        },
        {
            "positions": [
                -0.5455601434355715,
                -0.39989748294907,
                -0.11382758178899688,
                1.1125427528665295,
                0.7814766945154044,
                0.6084513184614769
            ]
        },
        {
            "positions": [
                -0.4977845565164368,
                -0.4268260813555255,
                0.03665707871125479,
                1.169787930158772,
                0.7157160998856474,
                0.5659141877419912
            ]
        },
        {
            "positions": [
                -0.4500089695973022,
                -0.45375467976198103,
                0.18714173921150645,
                1.2270331074510143,
                0.6499555052558905,
                0.5233770570225055
            ]
        },
        {
            "positions": [
                -0.40223338267816755,
                -0.4806832781684366,
                0.33762639971175834,
                1.2842782847432568,
                0.5841949106261336,
                0.48083992630301986
            ]
        },
        {
            "positions": [
                -0.3544577957590328,
                -0.5076118765748923,
                0.48811106021201023,
                1.3415234620354994,
                0.5184343159963767,
                0.438302795583534
            ]
        },
        {
            "positions": [
                -0.30668220883989816,
                -0.5345404749813477,
                0.6385957207122621,
                1.3987686393277419,
                0.45267372136661965,
                0.3957656648640483
            ]
        },
        {
            "positions": [
                -0.2589066219207635,
                -0.5614690733878032,
                0.789080381212514,
                1.4560138166199845,
                0.38691312673686284,
                0.3532285341445627
            ]
        },
        {
            "positions": [
                -0.211131035001629,
                -0.5883976717942587,
                0.9395650417127654,
                1.513258993912227,
                0.3211525321071058,
                0.31069140342507695
            ]
        },
        {
            "positions": [
                -0.16335544808249414,
                -0.6153262702007143,
                1.0900497022130178,
                1.5705041712044696,
                0.2553919374773488,
                0.2681542727055911
            ]
        },
        {
            "positions": [
                -0.11557986116335961,
                -0.6422548686071698,
                1.2405343627132697,
                1.627749348496712,
                0.18963134284759198,
                0.22561714198610539
            ]
        },
        {
            "positions": [
                -0.06780427424422486,
                -0.6691834670136254,
                1.391019023213521,
                1.6849945257889545,
                0.12387074821783495,
                0.18308001126661977
            ]
        },
        {
            "positions": [
                -0.020028687325090333,
                -0.696112065420081,
                1.541503683713773,
                1.742239703081197,
                0.05811015358807814,
                0.14054288054713404
            ]
        },
        {
            "positions": [
                0.027746899594044416,
                -0.7230406638265365,
                1.6919883442140253,
                1.7994848803734396,
                -0.00765044104167889,
                0.09800574982764831
            ]
        },
        {
            "positions": [
                0.07552248651317917,
                -0.7499692622329921,
                1.8424730047142768,
                1.856730057665682,
                -0.07341103567143592,
                0.05546861910816259
            ]
        },
        {
            "positions": [
                0.12329807343231364,
                -0.7768978606394477,
                1.9929576652145287,
                1.9139752349579244,
                -0.13917163030119273,
                0.012931488388676969
            ]
        }
    ]
}