{
    "goal": {
        "global_pose": {
            "orientation": {
                "w": 0.7047431468963623,
                "x": -0.7094548344612122,
                "y": 0.0024358443915843964,
                "z": -0.0022348060738295317
            },
            "position": {
                "x": 0.6094750761985779,
                "y": 0.3671506643295288,
                "z": 0.19426114857196808
            }
        },
        "name": "move_to_magneteinheit_A"
    },
    "id": "EST_move_to_magneteinheit_A_28",
    "joint_names": [
        "shoulder_pan_joint",
        "shoulder_lift_joint",
        "elbow_joint",
        "wrist_1_joint",
        "wrist_2_joint",
        "wrist_3_joint"
    ],
    "metrics": {
        "cart_traj_len": 1.880188762990354,
        "distance_elbow_joint": 3.9111335417165174,
        "distance_shoulder_lift_joint": 0.6991450633253187,
        "distance_shoulder_pan_joint": 1.241608780030384,
        "distance_wrist_1_joint": 1.4827824456734093,
        "distance_wrist_2_joint": 1.7032222266239554,
        "distance_wrist_3_joint": 1.1088517519483876,
        "smoothness": 6.579099457281438e-17,
        "time": 0.080960934,
        "traj_len": 3.1853953929328727,
        "weighted_distance": 3.943406140066239
    },
    "planner": "EST",
    "start": {
        "state": {
            "elbow_joint": -1.919643507792019,
            "shoulder_lift_joint": -0.07675430207160344,
            "shoulder_pan_joint": -1.1188671864651873,
            "wrist_1_joint": 0.42560062535961957,
            "wrist_2_joint": 1.5706038300724876,
            "wrist_3_joint": 1.1188968870953055
        }
    },
    "waypoints": [
        {
            "positions": [
                -1.1188671864651873,
                -0.07675430207160344,
                -1.919643507792019,
                0.42560062535961957,
                1.5706038300724876,
                1.1188968870953055
            ]
        },
        {
            "positions": [
                -1.0711130026178648,
                -0.10364449681488493,
                -1.769215294649076,
                0.48263071942398145,
                1.5050952828946431,
                1.0762487427895984
            ]
        },
        {
            "positions": [
                -1.0233588187705425,
                -0.1305346915581664,
                -1.6187870815061332,
                0.5396608134883434,
                1.4395867357167986,
                1.0336005984838912
            ]
        },
        {
            "positions": [
                -0.9756046349232199,
                -0.1574248863014479,
                -1.46835886836319,
                0.5966909075527053,
                1.3740781885389544,
                0.9909524541781839
            ]
        },
        {
            "positions": [
                -0.9278504510758975,
                -0.18431508104472938,
                -1.317930655220247,
                0.6537210016170671,
                1.3085696413611099,
                0.9483043098724767
            ]
        },
        {
            "positions": [
                -0.880096267228575,
                -0.21120527578801088,
                -1.1675024420773041,
                0.7107510956814291,
                1.2430610941832654,
                0.9056561655667694
            ]
        },
        {
            "positions": [
                -0.8323420833812525,
                -0.23809547053129237,
                -1.0170742289343613,
                0.7677811897457909,
                1.177552547005421,
                0.8630080212610622
            ]
        },
        {
            "positions": [
                -0.7845878995339302,
                -0.26498566527457385,
                -0.8666460157914182,
                0.8248112838101529,
                1.1120439998275766,
                0.8203598769553551
            ]
        },
        {
            "positions": [
                -0.7368337156866076,
                -0.29187586001785537,
                -0.7162178026484751,
                0.8818413778745148,
                1.046535452649732,
                0.7777117326496479
            ]
        },
        {
            "positions": [
                -0.6890795318392852,
                -0.31876605476113684,
                -0.5657895895055323,
                0.9388714719388767,
                0.9810269054718876,
                0.7350635883439407
            ]
        },
        {
            "positions": [
                -0.6413253479919627,
                -0.3456562495044183,
                -0.4153613763625892,
                0.9959015660032386,
                0.9155183582940432,
                0.6924154440382333
            ]
        },
        {
            "positions": [
                -0.5935711641446403,
                -0.3725464442476998,
                -0.26493316321964633,
                1.0529316600676004,
                0.8500098111161988,
                0.6497672997325261
            ]
        },
        {
            "positions": [
                -0.5458169802973177,
                -0.3994366389909813,
                -0.11450495007670325,
                1.1099617541319624,
                0.7845012639383543,
                0.6071191554268189
            ]
        },
        {
            "positions": [
                -0.4980627964499953,
                -0.4263268337342628,
                0.03592326306623961,
                1.1669918481963242,
                0.7189927167605099,
                0.5644710111211118
            ]
        },
        {
            "positions": [
                -0.45030861260267285,
                -0.45321702847754425,
                0.1863514762091827,
                1.2240219422606862,
                0.6534841695826655,
                0.5218228668154046
            ]
        },
        {
            "positions": [
                -0.4025544287553504,
                -0.4801072232208257,
                0.3367796893521253,
                1.281052036325048,
                0.5879756224048212,
                0.4791747225096974
            ]
        },
        {
            "positions": [
                -0.35480024490802786,
                -0.5069974179641072,
                0.48720790249506885,
                1.33808213038941,
                0.5224670752269764,
                0.4365265782039901
            ]
        },
        {
            "positions": [
                -0.3070460610607054,
                -0.5338876127073887,
                0.6376361156380115,
                1.395112224453772,
                0.4569585280491322,
                0.3938784338982829
            ]
        },
        {
            "positions": [
                -0.259291877213383,
                -0.5607778074506702,
                0.7880643287809546,
                1.4521423185181337,
                0.3914499808712877,
                0.35123028959257574
            ]
        },
        {
            "positions": [
                -0.21153769336606054,
                -0.5876680021939518,
                0.9384925419238972,
                1.5091724125824957,
                0.3259414336934434,
                0.30858214528686856
            ]
        },
        {
            "positions": [
                -0.163783509518738,
                -0.6145581969372331,
                1.0889207550668407,
                1.5662025066468577,
                0.2604328865155987,
                0.26593400098116116
            ]
        },
        {
            "positions": [
                -0.11602932567141555,
                -0.6414483916805147,
                1.2393489682097834,
                1.6232326007112194,
                0.19492433933775444,
                0.22328585667545398
            ]
        },
        {
            "positions": [
                -0.06827514182409322,
                -0.6683385864237961,
                1.3897771813527264,
                1.6802626947755814,
                0.12941579215990995,
                0.1806377123697468
            ]
        },
        {
            "positions": [
                -0.02052095797677067,
                -0.6952287811670776,
                1.540205394495669,
                1.7372927888399432,
                0.06390724498206568,
                0.1379895680640396
            ]
        },
        {
            "positions": [
                0.02723322587055188,
                -0.7221189759103592,
                1.6906336076386126,
                1.7943228829043052,
                -0.0016013021957790308,
                0.09534142375833232
            ]
        },
        {
            "positions": [
                0.07498740971787443,
                -0.7490091706536406,
                1.8410618207815552,
                1.8513529769686672,
                -0.0671098493736233,
                0.05269327945262514
            ]
        },
        {
            "positions": [
                0.12274159356519665,
                -0.7758993653969222,
                1.9914900339244983,
                1.908383071033029,
                -0.13261839655146784,
                0.010045135146917903
            ]
        }
    ]
}