{
    "goal": {
        "global_pose": {
            "orientation": {
                "w": 0.7047431468963623,
                "x": -0.7094548344612122,
                "y": 0.0024358443915843964,
                "z": -0.0022348060738295317
            },
            "position": {
                "x": 0.6094750761985779,
                "y": 0.3671506643295288,
                "z": 0.19426114857196808
            }
        },
        "name": "move_to_magneteinheit_A"
    },
    "id": "EST_move_to_magneteinheit_A_50",
    "joint_names": [
        "shoulder_pan_joint",
        "shoulder_lift_joint",
        "elbow_joint",
        "wrist_1_joint",
        "wrist_2_joint",
        "wrist_3_joint"
    ],
    "metrics": {
        "cart_traj_len": 1.8725139362883256,
        "distance_elbow_joint": 3.925331479923484,
        "distance_shoulder_lift_joint": 0.7066211152378302,
        "distance_shoulder_pan_joint": 1.2426853284592032,
        "distance_wrist_1_joint": 1.5462605217934542,
        "distance_wrist_2_joint": 1.695447860256145,
        "distance_wrist_3_joint": 1.1749985433500634,
        "smoothness": 7.894919293066631e-16,
        "time": 0.10981224499999999,
        "traj_len": 3.2080126011317627,
        "weighted_distance": 3.9853544783080346
    },
    "planner": "EST",
    "start": {
        "state": {
            "elbow_joint": -1.919643507792019,
            "shoulder_lift_joint": -0.07675430207160344,
            "shoulder_pan_joint": -1.1188671864651873,
            "wrist_1_joint": 0.42560062535961957,
            "wrist_2_joint": 1.5706038300724876,
            "wrist_3_joint": 1.1188968870953055
        }
    },
    "waypoints": [
        {
            "positions": [
                -1.1188671864651873,
                -0.07675430207160344,
                -1.919643507792019,
                0.42560062535961957,
                1.5706038300724876,
                1.1188968870953055
            ]
        },
        {
            "positions": [
                -1.071071596909064,
                -0.10393203727305846,
                -1.7686692201026544,
                0.48507218389013707,
                1.5053942969857128,
                1.0737046354279953
            ]
        },
        {
            "positions": [
                -1.023276007352941,
                -0.13110977247451347,
                -1.6176949324132894,
                0.5445437424206545,
                1.440184763898938,
                1.0285123837606853
            ]
        },
        {
            "positions": [
                -0.9754804177968177,
                -0.1582875076759685,
                -1.4667206447239247,
                0.604015300951172,
                1.3749752308121632,
                0.9833201320933751
            ]
        },
        {
            "positions": [
                -0.9276848282406945,
                -0.1854652428774235,
                -1.31574635703456,
                0.6634868594816894,
                1.3097656977253884,
                0.938127880426065
            ]
        },
        {
            "positions": [
                -0.8798892386845714,
                -0.21264297807887853,
                -1.164772069345195,
                0.722958418012207,
                1.2445561646386136,
                0.8929356287587549
            ]
        },
        {
            "positions": [
                -0.8320936491284481,
                -0.23982071328033353,
                -1.0137977816558306,
                0.7824299765427244,
                1.1793466315518388,
                0.8477433770914448
            ]
        },
        {
            "positions": [
                -0.784298059572325,
                -0.26699844848178855,
                -0.8628234939664658,
                0.8419015350732418,
                1.114137098465064,
                0.8025511254241346
            ]
        },
        {
            "positions": [
                -0.7365024700162017,
                -0.29417618368324355,
                -0.7118492062771009,
                0.9013730936037594,
                1.048927565378289,
                0.7573588737568244
            ]
        },
        {
            "positions": [
                -0.6887068804600786,
                -0.32135391888469855,
                -0.5608749185877362,
                0.9608446521342768,
                0.9837180322915143,
                0.7121666220895144
            ]
        },
        {
            "positions": [
                -0.6409112909039554,
                -0.3485316540861536,
                -0.40990063089837125,
                1.0203162106647943,
                0.9185084992047395,
                0.6669743704222042
            ]
        },
        {
            "positions": [
                -0.5931157013478322,
                -0.37570938928760855,
                -0.25892634320900676,
                1.0797877691953117,
                0.8532989661179647,
                0.6217821187548942
            ]
        },
        {
            "positions": [
                -0.5453201117917089,
                -0.4028871244890636,
                -0.10795205551964182,
                1.1392593277258292,
                0.78808943303119,
                0.576589867087584
            ]
        },
        {
            "positions": [
                -0.49752452223558574,
                -0.4300648596905186,
                0.043022232169722896,
                1.1987308862563466,
                0.7228798999444151,
                0.5313976154202739
            ]
        },
        {
            "positions": [
                -0.44972893267946257,
                -0.4572425948919736,
                0.1939965198590874,
                1.258202444786864,
                0.6576703668576404,
                0.48620536375296375
            ]
        },
        {
            "positions": [
                -0.4019333431233394,
                -0.4844203300934286,
                0.34497080754845233,
                1.3176740033173815,
                0.5924608337708657,
                0.44101311208565364
            ]
        },
        {
            "positions": [
                -0.3541377535672161,
                -0.5115980652948837,
                0.49594509523781727,
                1.3771455618478992,
                0.5272513006840907,
                0.3958208604183434
            ]
        },
        {
            "positions": [
                -0.30634216401109293,
                -0.5387758004963387,
                0.6469193829271822,
                1.4366171203784166,
                0.46204176759731586,
                0.3506286087510333
            ]
        },
        {
            "positions": [
                -0.25854657445496976,
                -0.5659535356977936,
                0.7978936706165467,
                1.496088678908934,
                0.39683223451054106,
                0.3054363570837232
            ]
        },
        {
            "positions": [
                -0.21075098489884658,
                -0.5931312708992487,
                0.9488679583059112,
                1.5555602374394515,
                0.3316227014237665,
                0.2602441054164132
            ]
        },
        {
            "positions": [
                -0.1629553953427233,
                -0.6203090061007037,
                1.0998422459952766,
                1.6150317959699692,
                0.26641316833699147,
                0.21505185374910285
            ]
        },
        {
            "positions": [
                -0.11515980578660012,
                -0.6474867413021588,
                1.250816533684641,
                1.6745033545004866,
                0.20120363525021667,
                0.16985960208179285
            ]
        },
        {
            "positions": [
                -0.06736421623047706,
                -0.6746644765036136,
                1.4017908213740056,
                1.7339749130310038,
                0.13599410216344188,
                0.12466735041448274
            ]
        },
        {
            "positions": [
                -0.019568626674353773,
                -0.7018422117050687,
                1.5527651090633705,
                1.7934464715615213,
                0.07078456907666708,
                0.07947509874717262
            ]
        },
        {
            "positions": [
                0.028226962881769513,
                -0.7290199469065237,
                1.7037393967527354,
                1.852918030092039,
                0.005575035989892285,
                0.0342828470798624
            ]
        },
        {
            "positions": [
                0.0760225524378928,
                -0.7561976821079788,
                1.8547136844421004,
                1.9123895886225564,
                -0.05963449709688251,
                -0.010909404587447824
            ]
        },
        {
            "positions": [
                0.12381814199401589,
                -0.7833754173094337,
                2.0056879721314647,
                1.9718611471530738,
                -0.12484403018365722,
                -0.056101656254757735
            ]
        }
    ]
}