{
    "goal": {
        "global_pose": {
            "orientation": {
                "w": 0.7031023502349854,
                "x": -0.7110244035720825,
                "y": 0.007748599164187908,
                "z": 0.005598929710686207
            },
            "position": {
                "x": 0.11585023208521307,
                "y": 0.44412534475326537,
                "z": 0.3711530566215515
            }
        },
        "name": "move_to_auspresseinheit_A"
    },
    "id": "EST_move_to_auspresseinheit_A_9",
    "joint_names": [
        "shoulder_pan_joint",
        "shoulder_lift_joint",
        "elbow_joint",
        "wrist_1_joint",
        "wrist_2_joint",
        "wrist_3_joint"
    ],
    "metrics": {
        "cart_traj_len": 2.5041641718809906,
        "distance_elbow_joint": 5.159729225903231,
        "distance_shoulder_lift_joint": 0.9497729777037078,
        "distance_shoulder_pan_joint": 1.0416484640070864,
        "distance_wrist_1_joint": 4.768899304606094,
        "distance_wrist_2_joint": 2.239424082013666,
        "distance_wrist_3_joint": 5.350224575518775,
        "smoothness": 0.584881093240597,
        "time": 0.778971174,
        "traj_len": 4.4169784502250575,
        "weighted_distance": 6.100694318469815
    },
    "planner": "EST",
    "start": {
        "state": {
            "elbow_joint": 2.422574709923281,
            "shoulder_lift_joint": -1.3736533754116391,
            "shoulder_pan_joint": -0.33786336945926293,
            "wrist_1_joint": -1.0288603412921917,
            "wrist_2_joint": 1.2330224858903978,
            "wrist_3_joint": -3.094022268022082
        }
    },
    "waypoints": [
        {
            "positions": [
                -0.33786336945926293,
                -1.3736533754116391,
                2.422574709923281,
                -1.0288603412921917,
                1.2330224858903978,
                -3.094022268022082
            ]
        },
        {
            "positions": [
                -0.3178714713199743,
                -1.3704843419198791,
                2.3187898636785946,
                -0.9223666888170959,
                1.1775140831023982,
                -2.9876262759471066
            ]
        },
        {
            "positions": [
                -0.2978795731806857,
                -1.3673153084281193,
                2.215005017433908,
                -0.8158730363420001,
                1.122005680314399,
                -2.881230283872131
            ]
        },
        {
            "positions": [
                -0.2778876750413971,
                -1.3641462749363593,
                2.111220171189222,
                -0.7093793838669042,
                1.0664972775263997,
                -2.774834291797155
            ]
        },
        {
            "positions": [
                -0.25789577690210846,
                -1.3609772414445995,
                2.0074353249445354,
                -0.6028857313918086,
                1.0109888747384002,
                -2.6684382997221796
            ]
        },
        {
            "positions": [
                -0.23790387876281985,
                -1.3578082079528395,
                1.903650478699849,
                -0.49639207891671266,
                0.9554804719504006,
                -2.562042307647204
            ]
        },
        {
            "positions": [
                -0.21791198062353123,
                -1.3546391744610797,
                1.7998656324551625,
                -0.3898984264416169,
                0.8999720691624014,
                -2.4556463155722286
            ]
        },
        {
            "positions": [
                -0.19792008248424262,
                -1.3514701409693197,
                1.6960807862104759,
                -0.2834047739665211,
                0.8444636663744018,
                -2.3492503234972526
            ]
        },
        {
            "positions": [
                -0.177928184344954,
                -1.34830110747756,
                1.5922959399657897,
                -0.1769111214914253,
                0.7889552635864026,
                -2.242854331422277
            ]
        },
        {
            "positions": [
                -0.1579362862056654,
                -1.3451320739858,
                1.4885110937211032,
                -0.0704174690163295,
                0.7334468607984032,
                -2.1364583393473016
            ]
        },
        {
            "positions": [
                -0.13794438806637677,
                -1.34196304049404,
                1.3847262474764166,
                0.0360761834587664,
                0.6779384580104036,
                -2.030062347272326
            ]
        },
        {
            "positions": [
                -0.11795248992708815,
                -1.3387940070022801,
                1.2809414012317302,
                0.14256983593386208,
                0.6224300552224044,
                -1.9236663551973505
            ]
        },
        {
            "positions": [
                -0.09796059178779956,
                -1.3356249735105201,
                1.1771565549870437,
                0.24906348840895798,
                0.566921652434405,
                -1.8172703631223748
            ]
        },
        {
            "positions": [
                -0.07796869364851094,
                -1.3324559400187603,
                1.0733717087423573,
                0.35555714088405366,
                0.5114132496464054,
                -1.7108743710473993
            ]
        },
        {
            "positions": [
                -0.0579767955092223,
                -1.3292869065270003,
                0.9695868624976707,
                0.46205079335914956,
                0.45590484685840604,
                -1.6044783789724235
            ]
        },
        {
            "positions": [
                -0.03798489736993371,
                -1.3261178730352405,
                0.8658020162529845,
                0.5685444458342452,
                0.40039644407040675,
                -1.498082386897448
            ]
        },
        {
            "positions": [
                -0.017992999230645068,
                -1.3229488395434805,
                0.762017170008298,
                0.6750380983093411,
                0.34488804128240724,
                -1.3916863948224723
            ]
        },
        {
            "positions": [
                0.001998898908643576,
                -1.3197798060517205,
                0.6582323237636114,
                0.781531750784437,
                0.28937963849440784,
                -1.2852904027474967
            ]
        },
        {
            "positions": [
                0.02199079704793211,
                -1.3166107725599607,
                0.5544474775189252,
                0.8880254032595327,
                0.23387123570640855,
                -1.1788944106725212
            ]
        },
        {
            "positions": [
                0.04198269518722075,
                -1.3134417390682007,
                0.45066263127423856,
                0.9945190557346284,
                0.17836283291840904,
                -1.0724984185975455
            ]
        },
        {
            "positions": [
                0.0619745933265094,
                -1.310272705576441,
                0.34687778502955213,
                1.1010127082097245,
                0.12285443013040953,
                -0.96610242652257
            ]
        },
        {
            "positions": [
                0.08196649146579799,
                -1.307103672084681,
                0.2430929387848657,
                1.2075063606848202,
                0.06734602734241024,
                -0.8597064344475944
            ]
        },
        {
            "positions": [
                0.10195838960508663,
                -1.3039346385929211,
                0.13930809254017928,
                1.3140000131599159,
                0.011837624554410953,
                -0.7533104423726189
            ]
        },
        {
            "positions": [
                0.12195028774437522,
                -1.3007656051011611,
                0.03552324629549286,
                1.420493665635012,
                -0.04367077823358856,
                -0.6469144502976429
            ]
        },
        {
            "positions": [
                0.1419421858836638,
                -1.2975965716094013,
                -0.06826159994919356,
                1.5269873181101077,
                -0.09917918102158785,
                -0.5405184582226674
            ]
        },
        {
            "positions": [
                0.16193408402295242,
                -1.2944275381176413,
                -0.1720464461938801,
                1.6334809705852034,
                -0.15468758380958728,
                -0.4341224661476917
            ]
        },
        {
            "positions": [
                0.1846763109025202,
                -1.3357743448946502,
                -0.04770312164732374,
                1.5696851021638183,
                -0.13031319812913897,
                -0.5342514512023854
            ]
        },
        {
            "positions": [
                0.207418537782088,
                -1.3771211516716588,
                0.07664020289923262,
                1.5058892337424332,
                -0.10593881244869069,
                -0.6343804362570791
            ]
        },
        {
            "positions": [
                0.23016076466165575,
                -1.4184679584486677,
                0.200983527445789,
                1.442093365321048,
                -0.08156442676824238,
                -0.7345094213117729
            ]
        },
        {
            "positions": [
                0.25290299154122353,
                -1.4598147652256763,
                0.32532685199234535,
                1.3782974968996629,
                -0.05719004108779409,
                -0.8346384063664665
            ]
        },
        {
            "positions": [
                0.2756452184207913,
                -1.5011615720026852,
                0.44967017653890173,
                1.3145016284782778,
                -0.032815655407345795,
                -0.9347673914211603
            ]
        },
        {
            "positions": [
                0.2983874453003591,
                -1.5425083787796938,
                0.5740135010854581,
                1.2507057600568927,
                -0.008441269726897488,
                -1.0348963764758539
            ]
        },
        {
            "positions": [
                0.3211296721799269,
                -1.5838551855567027,
                0.6983568256320143,
                1.1869098916355076,
                0.015933115953550764,
                -1.1350253615305474
            ]
        },
        {
            "positions": [
                0.34387189905949467,
                -1.6252019923337113,
                0.8227001501785708,
                1.1231140232141223,
                0.0403075016339991,
                -1.2351543465852415
            ]
        },
        {
            "positions": [
                0.3666141259390624,
                -1.6665487991107202,
                0.947043474725127,
                1.0593181547927375,
                0.06468188731444738,
                -1.335283331639935
            ]
        },
        {
            "positions": [
                0.38935635281863024,
                -1.707895605887729,
                1.0713867992716835,
                0.9955222863713523,
                0.08905627299489569,
                -1.4354123166946289
            ]
        },
        {
            "positions": [
                0.41209857969819796,
                -1.7492424126647377,
                1.1957301238182398,
                0.9317264179499672,
                0.11343065867534394,
                -1.5355413017493225
            ]
        },
        {
            "positions": [
                0.4348408065777658,
                -1.7905892194417463,
                1.3200734483647962,
                0.8679305495285821,
                0.1378050443557923,
                -1.6356702868040163
            ]
        },
        {
            "positions": [
                0.4575830334573336,
                -1.8319360262187552,
                1.4444167729113524,
                0.804134681107197,
                0.16217943003624058,
                -1.7357992718587099
            ]
        },
        {
            "positions": [
                0.4798223397630667,
                -1.8610153868196166,
                1.5464810211932682,
                0.7344914884235676,
                0.19338709809020677,
                -1.8356785799762692
            ]
        },
        {
            "positions": [
                0.5020616460687999,
                -1.8900947474204783,
                1.6485452694751839,
                0.6648482957399381,
                0.22459476614417292,
                -1.9355578880938287
            ]
        },
        {
            "positions": [
                0.524300952374533,
                -1.9191741080213398,
                1.7506095177570997,
                0.5952051030563087,
                0.2558024341981391,
                -2.035437196211388
            ]
        },
        {
            "positions": [
                0.5465402586802661,
                -1.9482534686222015,
                1.8526737660390153,
                0.5255619103726792,
                0.28701010225210527,
                -2.1353165043289475
            ]
        },
        {
            "positions": [
                0.5687795649859994,
                -1.977332829223063,
                1.9547380143209312,
                0.4559187176890498,
                0.31821777030607146,
                -2.235195812446507
            ]
        },
        {
            "positions": [
                0.5910188712917325,
                -2.0064121898239247,
                2.056802262602847,
                0.3862755250054204,
                0.34942543836003764,
                -2.335075120564066
            ]
        },
        {
            "positions": [
                0.6132581775974656,
                -2.035491550424786,
                2.1588665108847627,
                0.31663233232179094,
                0.38063310641400383,
                -2.4349544286816256
            ]
        },
        {
            "positions": [
                0.6283459970891919,
                -2.0139110290743587,
                2.1978990296693337,
                0.18501410657757658,
                0.4333653267623522,
                -2.549869897200034
            ]
        },
        {
            "positions": [
                0.6434338165809181,
                -1.992330507723931,
                2.2369315484539047,
                0.05339588083336222,
                0.48609754711070047,
                -2.664785365718443
            ]
        },
        {
            "positions": [
                0.6585216360726445,
                -1.9707499863735034,
                2.275964067238476,
                -0.07822234491085217,
                0.5388297674590488,
                -2.779700834236851
            ]
        },
        {
            "positions": [
                0.6736094555643708,
                -1.949169465023076,
                2.3149965860230473,
                -0.2098405706550665,
                0.5915619878073971,
                -2.8946163027552596
            ]
        },
        {
            "positions": [
                0.688697275056097,
                -1.9275889436726485,
                2.3540291048076183,
                -0.34145879639928095,
                0.6442942081557455,
                -3.0095317712736684
            ]
        },
        {
            "positions": [
                0.7037850945478233,
                -1.906008422322221,
                2.3930616235921893,
                -0.47307702214349534,
                0.6970264285040938,
                -3.124447239792077
            ]
        }
    ]
}