{
    "goal": {
        "global_pose": {
            "orientation": {
                "w": 0.7047431468963623,
                "x": -0.7094548344612122,
                "y": 0.0024358443915843964,
                "z": -0.0022348060738295317
            },
            "position": {
                "x": 0.6094750761985779,
                "y": 0.3671506643295288,
                "z": 0.19426114857196808
            }
        },
        "name": "move_to_magneteinheit_A"
    },
    "id": "EST_move_to_magneteinheit_A_88",
    "joint_names": [
        "shoulder_pan_joint",
        "shoulder_lift_joint",
        "elbow_joint",
        "wrist_1_joint",
        "wrist_2_joint",
        "wrist_3_joint"
    ],
    "metrics": {
        "cart_traj_len": 2.0633963444977534,
        "distance_elbow_joint": 3.8747170447577655,
        "distance_shoulder_lift_joint": 1.053659544212208,
        "distance_shoulder_pan_joint": 1.2421026901450756,
        "distance_wrist_1_joint": 1.1317965273546586,
        "distance_wrist_2_joint": 1.4423560946579852,
        "distance_wrist_3_joint": 1.9005948014106093,
        "smoothness": 4.440892115770691e-16,
        "time": 0.098420032,
        "traj_len": 3.262702361929188,
        "weighted_distance": 4.125599220400858
    },
    "planner": "EST",
    "start": {
        "state": {
            "elbow_joint": -1.919643507792019,
            "shoulder_lift_joint": -0.07675430207160344,
            "shoulder_pan_joint": -1.1188671864651873,
            "wrist_1_joint": 0.42560062535961957,
            "wrist_2_joint": 1.5706038300724876,
            "wrist_3_joint": 1.1188968870953055
        }
    },
    "waypoints": [
        {
            "positions": [
                -1.1188671864651873,
                -0.07675430207160344,
                -1.919643507792019,
                0.42560062535961957,
                1.5706038300724876,
                1.1188968870953055
            ]
        },
        {
            "positions": [
                -1.0728633831264809,
                -0.11577872963501856,
                -1.776135469097287,
                0.38368223545759517,
                1.5171832339740436,
                1.1892892871475502
            ]
        },
        {
            "positions": [
                -1.0268595797877744,
                -0.15480315719843368,
                -1.632627430402555,
                0.34176384555557077,
                1.4637626378756,
                1.2596816871997951
            ]
        },
        {
            "positions": [
                -0.9808557764490679,
                -0.19382758476184878,
                -1.489119391707823,
                0.29984545565354637,
                1.410342041777156,
                1.33007408725204
            ]
        },
        {
            "positions": [
                -0.9348519731103613,
                -0.2328520123252639,
                -1.3456113530130909,
                0.257927065751522,
                1.356921445678712,
                1.4004664873042847
            ]
        },
        {
            "positions": [
                -0.8888481697716548,
                -0.271876439888679,
                -1.2021033143183588,
                0.21600867584949762,
                1.303500849580268,
                1.4708588873565294
            ]
        },
        {
            "positions": [
                -0.8428443664329484,
                -0.3109008674520941,
                -1.0585952756236268,
                0.17409028594747322,
                1.2500802534818243,
                1.5412512874087743
            ]
        },
        {
            "positions": [
                -0.7968405630942419,
                -0.34992529501550923,
                -0.9150872369288947,
                0.13217189604544882,
                1.1966596573833803,
                1.6116436874610192
            ]
        },
        {
            "positions": [
                -0.7508367597555353,
                -0.38894972257892435,
                -0.7715791982341627,
                0.09025350614342442,
                1.1432390612849366,
                1.6820360875132638
            ]
        },
        {
            "positions": [
                -0.7048329564168289,
                -0.42797415014233947,
                -0.6280711595394306,
                0.04833511624140002,
                1.0898184651864926,
                1.7524284875655085
            ]
        },
        {
            "positions": [
                -0.6588291530781223,
                -0.46699857770575454,
                -0.48456312084469855,
                0.006416726339375678,
                1.0363978690880487,
                1.8228208876177534
            ]
        },
        {
            "positions": [
                -0.6128253497394158,
                -0.5060230052691697,
                -0.3410550821499665,
                -0.03550166356264872,
                0.9829772729896048,
                1.8932132876699983
            ]
        },
        {
            "positions": [
                -0.5668215464007094,
                -0.5450474328325847,
                -0.19754704345523444,
                -0.07742005346467312,
                0.9295566768911608,
                1.963605687722243
            ]
        },
        {
            "positions": [
                -0.5208177430620028,
                -0.584071860396,
                -0.054039004760502385,
                -0.11933844336669758,
                0.876136080792717,
                2.0339980877744877
            ]
        },
        {
            "positions": [
                -0.47481393972329633,
                -0.6230962879594151,
                0.08946903393422967,
                -0.16125683326872192,
                0.8227154846942731,
                2.1043904878267323
            ]
        },
        {
            "positions": [
                -0.42881013638458976,
                -0.6621207155228301,
                0.23297707262896172,
                -0.20317522317074638,
                0.7692948885958292,
                2.1747828878789774
            ]
        },
        {
            "positions": [
                -0.3828063330458833,
                -0.7011451430862452,
                0.3764851113236938,
                -0.24509361307277072,
                0.7158742924973853,
                2.245175287931222
            ]
        },
        {
            "positions": [
                -0.3368025297071767,
                -0.7401695706496605,
                0.5199931500184258,
                -0.2870120029747952,
                0.6624536963989414,
                2.3155676879834672
            ]
        },
        {
            "positions": [
                -0.2907987263684704,
                -0.7791939982130756,
                0.6635011887131579,
                -0.3289303928768195,
                0.6090331003004975,
                2.385960088035712
            ]
        },
        {
            "positions": [
                -0.2447949230297638,
                -0.8182184257764906,
                0.8070092274078899,
                -0.370848782778844,
                0.5556125042020537,
                2.4563524880879566
            ]
        },
        {
            "positions": [
                -0.19879111969105734,
                -0.8572428533399057,
                0.950517266102622,
                -0.4127671726808682,
                0.5021919081036097,
                2.5267448881402013
            ]
        },
        {
            "positions": [
                -0.15278731635235077,
                -0.8962672809033208,
                1.094025304797354,
                -0.45468556258289267,
                0.44877131200516573,
                2.597137288192446
            ]
        },
        {
            "positions": [
                -0.1067835130136443,
                -0.9352917084667358,
                1.237533343492086,
                -0.496603952484917,
                0.395350715906722,
                2.6675296882446906
            ]
        },
        {
            "positions": [
                -0.06077970967493784,
                -0.9743161360301511,
                1.3810413821868182,
                -0.5385223423869414,
                0.34193011980827803,
                2.7379220882969357
            ]
        },
        {
            "positions": [
                -0.014775906336231381,
                -1.0133405635935662,
                1.5245494208815502,
                -0.5804407322889658,
                0.28850952370983407,
                2.8083144883491804
            ]
        },
        {
            "positions": [
                0.031227897002475302,
                -1.0523649911569812,
                1.6680574595762823,
                -0.6223591221909903,
                0.2350889276113901,
                2.8787068884014255
            ]
        },
        {
            "positions": [
                0.07723170034118176,
                -1.0913894187203965,
                1.8115654982710143,
                -0.6642775120930147,
                0.18166833151294637,
                2.94909928845367
            ]
        },
        {
            "positions": [
                0.1232355036798882,
                -1.1304138462838116,
                1.9550735369657464,
                -0.706195901995039,
                0.1282477354145024,
                3.019491688505915
            ]
        }
    ]
}