{
    "goal": {
        "global_pose": {
            "orientation": {
                "w": 0.5084816217422485,
                "x": -0.49083608388900757,
                "y": 0.5182115435600281,
                "z": -0.4816462993621826
            },
            "position": {
                "x": 0.5540239810943604,
                "y": 0.030875300988554955,
                "z": 0.16403168439865112
            }
        },
        "name": "move_to_storage_A"
    },
    "id": "EST_move_to_storage_A_97",
    "joint_names": [
        "shoulder_pan_joint",
        "shoulder_lift_joint",
        "elbow_joint",
        "wrist_1_joint",
        "wrist_2_joint",
        "wrist_3_joint"
    ],
    "metrics": {
        "cart_traj_len": 0.3525392909692185,
        "distance_elbow_joint": 0.44925023112294715,
        "distance_shoulder_lift_joint": 0.23642786192514054,
        "distance_shoulder_pan_joint": 0.45835406275956475,
        "distance_wrist_1_joint": 0.23826451883297672,
        "distance_wrist_2_joint": 1.1099767041231139,
        "distance_wrist_3_joint": 0.10249771228723192,
        "smoothness": 4.440892133664971e-16,
        "time": 0.044572841,
        "traj_len": 1.6108293177897448,
        "weighted_distance": 2.036665838713246
    },
    "planner": "EST",
    "start": {
        "state": {
            "elbow_joint": 1.9715463870305268,
            "shoulder_lift_joint": -1.1394903361783484,
            "shoulder_pan_joint": 0.12281147578464417,
            "wrist_1_joint": -0.7804599489681411,
            "wrist_2_joint": 0.12958660307563738,
            "wrist_3_joint": -3.1924946282119055
        }
    },
    "waypoints": [
        {
            "positions": [
                0.12281147578464417,
                -1.1394903361783484,
                1.9715463870305268,
                -0.7804599489681411,
                0.12958660307563738,
                -3.1924946282119055
            ]
        },
        {
            "positions": [
                0.057332323961849216,
                -1.173265745024797,
                2.035724991476662,
                -0.814497737372852,
                0.2881547036646537,
                -3.1778520978851583
            ]
        },
        {
            "positions": [
                -0.00814682786094574,
                -1.2070411538712458,
                2.099903595922797,
                -0.848535525777563,
                0.44672280425366995,
                -3.1632095675584107
            ]
        },
        {
            "positions": [
                -0.0736259796837407,
                -1.2408165627176944,
                2.1640822003689326,
                -0.8825733141822739,
                0.6052909048426862,
                -3.1485670372316634
            ]
        },
        {
            "positions": [
                -0.13910513150653564,
                -1.274591971564143,
                2.228260804815068,
                -0.916611102586985,
                0.7638590054317025,
                -3.1339245069049158
            ]
        },
        {
            "positions": [
                -0.20458428332933065,
                -1.3083673804105915,
                2.2924394092612035,
                -0.9506488909916959,
                0.9224271060207188,
                -3.1192819765781685
            ]
        },
        {
            "positions": [
                -0.27006343515212555,
                -1.3421427892570403,
                2.3566180137073385,
                -0.9846866793964069,
                1.080995206609735,
                -3.104639446251421
            ]
        },
        {
            "positions": [
                -0.33554258697492056,
                -1.375918198103489,
                2.420796618153474,
                -1.0187244678011178,
                1.2395633071987513,
                -3.0899969159246736
            ]
        }
    ]
}