{
    "goal": {
        "global_pose": {
            "orientation": {
                "w": 0.7047431468963623,
                "x": -0.7094548344612122,
                "y": 0.0024358443915843964,
                "z": -0.0022348060738295317
            },
            "position": {
                "x": 0.6094750761985779,
                "y": 0.3671506643295288,
                "z": 0.19426114857196808
            }
        },
        "name": "move_to_magneteinheit_A"
    },
    "id": "EST_move_to_magneteinheit_A_40",
    "joint_names": [
        "shoulder_pan_joint",
        "shoulder_lift_joint",
        "elbow_joint",
        "wrist_1_joint",
        "wrist_2_joint",
        "wrist_3_joint"
    ],
    "metrics": {
        "cart_traj_len": 2.0686467134345885,
        "distance_elbow_joint": 4.106550394455796,
        "distance_shoulder_lift_joint": 2.033480720938473,
        "distance_shoulder_pan_joint": 1.2418923159749442,
        "distance_wrist_1_joint": 2.2659553126579346,
        "distance_wrist_2_joint": 3.188460973705703,
        "distance_wrist_3_joint": 4.2510018974818475,
        "smoothness": 0.350524815071203,
        "time": 0.10892521999999999,
        "traj_len": 4.13368378268279,
        "weighted_distance": 5.5716928932364915
    },
    "planner": "EST",
    "start": {
        "state": {
            "elbow_joint": -1.919643507792019,
            "shoulder_lift_joint": -0.07675430207160344,
            "shoulder_pan_joint": -1.1188671864651873,
            "wrist_1_joint": 0.42560062535961957,
            "wrist_2_joint": 1.5706038300724876,
            "wrist_3_joint": 1.1188968870953055
        }
    },
    "waypoints": [
        {
            "positions": [
                -1.1188671864651873,
                -0.07675430207160344,
                -1.919643507792019,
                0.42560062535961957,
                1.5706038300724876,
                1.1188968870953055
            ]
        },
        {
            "positions": [
                -1.1120790475460955,
                -0.12239872856789458,
                -1.8018071197485719,
                0.37353080331782956,
                1.5025616270162026,
                1.0158867530782623
            ]
        },
        {
            "positions": [
                -1.1052909086270035,
                -0.1680431550641857,
                -1.6839707317051245,
                0.3214609812760396,
                1.4345194239599173,
                0.9128766190612191
            ]
        },
        {
            "positions": [
                -1.0985027697079117,
                -0.21368758156047687,
                -1.5661343436616773,
                0.2693911592342496,
                1.3664772209036322,
                0.8098664850441758
            ]
        },
        {
            "positions": [
                -1.09171463078882,
                -0.259332008056768,
                -1.44829795561823,
                0.2173213371924596,
                1.2984350178473472,
                0.7068563510271326
            ]
        },
        {
            "positions": [
                -1.0849264918697281,
                -0.3049764345530591,
                -1.3304615675747826,
                0.1652515151506696,
                1.2303928147910619,
                0.6038462170100893
            ]
        },
        {
            "positions": [
                -1.078138352950636,
                -0.3506208610493503,
                -1.2126251795313352,
                0.1131816931088796,
                1.1623506117347768,
                0.500836082993046
            ]
        },
        {
            "positions": [
                -1.0713502140315443,
                -0.3962652875456414,
                -1.094788791487888,
                0.06111187106708965,
                1.0943084086784918,
                0.3978259489760029
            ]
        },
        {
            "positions": [
                -1.0645620751124525,
                -0.4419097140419325,
                -0.9769524034444408,
                0.009042049025299648,
                1.0262662056222065,
                0.2948158149589596
            ]
        },
        {
            "positions": [
                -1.0577739361933605,
                -0.4875541405382237,
                -0.8591160154009936,
                -0.043027773016490356,
                0.9582240025659216,
                0.1918056809419163
            ]
        },
        {
            "positions": [
                -1.0509857972742687,
                -0.5331985670345148,
                -0.7412796273575462,
                -0.09509759505828036,
                0.8901817995096364,
                0.08879554692487313
            ]
        },
        {
            "positions": [
                -1.0441976583551769,
                -0.5788429935308059,
                -0.623443239314099,
                -0.14716741710007036,
                0.8221395964533512,
                -0.014214587092170161
            ]
        },
        {
            "positions": [
                -1.0374095194360848,
                -0.6244874200270971,
                -0.5056068512706515,
                -0.19923723914186037,
                0.754097393397066,
                -0.11722472110921345
            ]
        },
        {
            "positions": [
                -1.030621380516993,
                -0.6701318465233883,
                -0.38777046322720454,
                -0.25130706118365026,
                0.6860551903407811,
                -0.2202348551262565
            ]
        },
        {
            "positions": [
                -1.0238332415979012,
                -0.7157762730196793,
                -0.2699340751837571,
                -0.30337688322544026,
                0.6180129872844959,
                -0.3232449891432998
            ]
        },
        {
            "positions": [
                -1.0170451026788094,
                -0.7614206995159705,
                -0.1520976871403099,
                -0.35544670526723027,
                0.5499707842282109,
                -0.4262551231603431
            ]
        },
        {
            "positions": [
                -1.0102569637597174,
                -0.8070651260122617,
                -0.034261299096862485,
                -0.40751652730902027,
                0.4819285811719256,
                -0.5292652571773864
            ]
        },
        {
            "positions": [
                -1.0034688248406256,
                -0.8527095525085528,
                0.08357508894658472,
                -0.4595863493508103,
                0.41388637811564055,
                -0.6322753911944297
            ]
        },
        {
            "positions": [
                -0.9966806859215337,
                -0.898353979004844,
                0.20141147699003192,
                -0.5116561713926002,
                0.3458441750593555,
                -0.735285525211473
            ]
        },
        {
            "positions": [
                -0.9898925470024419,
                -0.943998405501135,
                0.31924786503347913,
                -0.5637259934343903,
                0.2778019720030702,
                -0.8382956592285162
            ]
        },
        {
            "positions": [
                -0.98310440808335,
                -0.9896428319974262,
                0.4370842530769268,
                -0.6157958154761802,
                0.20975976894678516,
                -0.9413057932455593
            ]
        },
        {
            "positions": [
                -0.9763162691642582,
                -1.0352872584937174,
                0.554920641120374,
                -0.6678656375179701,
                0.1417175658905001,
                -1.0443159272626028
            ]
        },
        {
            "positions": [
                -0.9695281302451663,
                -1.0809316849900086,
                0.6727570291638212,
                -0.7199354595597602,
                0.07367536283421483,
                -1.1473260612796459
            ]
        },
        {
            "positions": [
                -0.9627399913260744,
                -1.1265761114862998,
                0.7905934172072684,
                -0.7720052816015501,
                0.005633159777929775,
                -1.2503361952966894
            ]
        },
        {
            "positions": [
                -0.9559518524069825,
                -1.172220537982591,
                0.908429805250716,
                -0.8240751036433402,
                -0.0624090432783555,
                -1.3533463293137324
            ]
        },
        {
            "positions": [
                -0.9491637134878906,
                -1.217864964478882,
                1.0262661932941632,
                -0.8761449256851301,
                -0.13045124633464056,
                -1.456356463330776
            ]
        },
        {
            "positions": [
                -0.9423755745687988,
                -1.2635093909751731,
                1.14410258133761,
                -0.92821474772692,
                -0.1984934493909254,
                -1.5593665973478186
            ]
        },
        {
            "positions": [
                -0.9355874356497069,
                -1.309153817471464,
                1.2619389693810572,
                -0.9802845697687101,
                -0.26653565244721045,
                -1.662376731364862
            ]
        },
        {
            "positions": [
                -0.9287992967306151,
                -1.3547982439677553,
                1.3797753574245049,
                -1.0323543918105,
                -0.3345778555034957,
                -1.7653868653819051
            ]
        },
        {
            "positions": [
                -0.9220111578115232,
                -1.4004426704640465,
                1.497611745467952,
                -1.0844242138522902,
                -0.4026200585597808,
                -1.8683969993989487
            ]
        },
        {
            "positions": [
                -0.9152230188924313,
                -1.4460870969603377,
                1.6154481335113993,
                -1.13649403589408,
                -0.47066226161606584,
                -1.9714071334159917
            ]
        },
        {
            "positions": [
                -0.9084348799733395,
                -1.4917315234566288,
                1.7332845215548465,
                -1.1885638579358702,
                -0.5387044646723511,
                -2.0744172674330352
            ]
        },
        {
            "positions": [
                -0.9016467410542476,
                -1.5373759499529198,
                1.8511209095982941,
                -1.24063367997766,
                -0.6067466677286364,
                -2.1774274014500783
            ]
        },
        {
            "positions": [
                -0.8948586021351557,
                -1.583020376449211,
                1.9689572976417413,
                -1.2927035020194502,
                -0.6747888707849212,
                -2.280437535467122
            ]
        },
        {
            "positions": [
                -0.8880704632160639,
                -1.6286648029455022,
                2.0867936856851883,
                -1.34477332406124,
                -0.7428310738412066,
                -2.383447669484165
            ]
        },
        {
            "positions": [
                -0.7869609039434817,
                -1.5805077809390449,
                2.0767823655873294,
                -1.2952151877375326,
                -0.6553284668620059,
                -2.4583134035744028
            ]
        },
        {
            "positions": [
                -0.6858513446708997,
                -1.5323507589325873,
                2.066771045489471,
                -1.2456570514138252,
                -0.567825859882805,
                -2.53317913766464
            ]
        },
        {
            "positions": [
                -0.5847417853983177,
                -1.48419373692613,
                2.056759725391612,
                -1.1960989150901176,
                -0.4803232529036042,
                -2.608044871754878
            ]
        },
        {
            "positions": [
                -0.4836322261257355,
                -1.4360367149196724,
                2.0467484052937537,
                -1.1465407787664101,
                -0.3928206459244034,
                -2.6829106058451155
            ]
        },
        {
            "positions": [
                -0.3825226668531534,
                -1.3878796929132151,
                2.036737085195895,
                -1.0969826424427027,
                -0.30531803894520265,
                -2.7577763399353534
            ]
        },
        {
            "positions": [
                -0.28141310758057136,
                -1.3397226709067578,
                2.0267257650980364,
                -1.047424506118995,
                -0.21781543196600184,
                -2.8326420740255913
            ]
        },
        {
            "positions": [
                -0.18030354830798923,
                -1.2915656489003002,
                2.0167144450001775,
                -0.9978663697952876,
                -0.13031282498680108,
                -2.9075078081158288
            ]
        },
        {
            "positions": [
                -0.07919398903540709,
                -1.243408626893843,
                2.006703124902319,
                -0.9483082334715802,
                -0.04281021800760021,
                -2.9823735422060667
            ]
        },
        {
            "positions": [
                0.021915570237175053,
                -1.1952516048873854,
                1.9966918048044602,
                -0.8987500971478728,
                0.04469238897160055,
                -3.057239276296304
            ]
        },
        {
            "positions": [
                0.12302512950975705,
                -1.147094582880928,
                1.9866804847066015,
                -0.8491919608241653,
                0.13219499595080134,
                -3.132105010386542
            ]
        }
    ]
}