{
    "goal": {
        "global_pose": {
            "orientation": {
                "w": 0.7031023502349854,
                "x": -0.7110244035720825,
                "y": 0.007748599164187908,
                "z": 0.005598929710686207
            },
            "position": {
                "x": 0.11585023208521307,
                "y": 0.44412534475326537,
                "z": 0.3711530566215515
            }
        },
        "name": "move_to_auspresseinheit_A"
    },
    "id": "EST_move_to_auspresseinheit_A_121",
    "joint_names": [
        "shoulder_pan_joint",
        "shoulder_lift_joint",
        "elbow_joint",
        "wrist_1_joint",
        "wrist_2_joint",
        "wrist_3_joint"
    ],
    "metrics": {
        "cart_traj_len": 0.7372069836063407,
        "distance_elbow_joint": 0.08870295290660879,
        "distance_shoulder_lift_joint": 0.536962251927841,
        "distance_shoulder_pan_joint": 1.0434110104106646,
        "distance_wrist_1_joint": 0.5481439516132295,
        "distance_wrist_2_joint": 0.62923122905929,
        "distance_wrist_3_joint": 0.8123218758857478,
        "smoothness": 0.731681917087224,
        "time": 0.700034299,
        "traj_len": 1.9127920095513211,
        "weighted_distance": 2.5418088449463303
    },
    "planner": "EST",
    "start": {
        "state": {
            "elbow_joint": 2.422574709923281,
            "shoulder_lift_joint": -1.3736533754116391,
            "shoulder_pan_joint": -0.33786336945926293,
            "wrist_1_joint": -1.0288603412921917,
            "wrist_2_joint": 1.2330224858903978,
            "wrist_3_joint": -3.094022268022082
        }
    },
    "waypoints": [
        {
            "positions": [
                -0.33786336945926293,
                -1.3736533754116391,
                2.422574709923281,
                -1.0288603412921917,
                1.2330224858903978,
                -3.094022268022082
            ]
        },
        {
            "positions": [
                -0.24114725190365638,
                -1.4630185110779794,
                2.4130456943961156,
                -0.997479257977708,
                1.136503302520111,
                -3.028274853179437
            ]
        },
        {
            "positions": [
                -0.1444311343480498,
                -1.55238364674432,
                2.40351667886895,
                -0.9660981746632242,
                1.0399841191498245,
                -2.9625274383367914
            ]
        },
        {
            "positions": [
                -0.04771501679244322,
                -1.6417487824106602,
                2.393987663341785,
                -0.9347170913487405,
                0.9434649357795378,
                -2.896780023494146
            ]
        },
        {
            "positions": [
                0.04900110076316333,
                -1.7311139180770005,
                2.3844586478146197,
                -0.9033360080342567,
                0.8469457524092512,
                -2.8310326086515007
            ]
        },
        {
            "positions": [
                0.14571721831876994,
                -1.820479053743341,
                2.3749296322874542,
                -0.871954924719773,
                0.7504265690389645,
                -2.7652851938088556
            ]
        },
        {
            "positions": [
                0.24243333587437654,
                -1.9098441894096814,
                2.365400616760289,
                -0.8405738414052892,
                0.6539073856686779,
                -2.69953777896621
            ]
        },
        {
            "positions": [
                0.3582119121436329,
                -1.910037048892131,
                2.373282831696193,
                -0.7506094784737075,
                0.6664364178780704,
                -2.803997125673679
            ]
        },
        {
            "positions": [
                0.4739904884128892,
                -1.9102299083745806,
                2.381165046632097,
                -0.6606451155421258,
                0.6789654500874629,
                -2.9084564723811477
            ]
        },
        {
            "positions": [
                0.5897690646821455,
                -1.9104227678570305,
                2.389047261568001,
                -0.570680752610544,
                0.6914944822968555,
                -3.012915819088617
            ]
        },
        {
            "positions": [
                0.7055476409514019,
                -1.91061562733948,
                2.3969294765039053,
                -0.48071638967896224,
                0.704023514506248,
                -3.1173751657960858
            ]
        }
    ]
}