{
    "goal": {
        "global_pose": {
            "orientation": {
                "w": 0.7047431468963623,
                "x": -0.7094548344612122,
                "y": 0.0024358443915843964,
                "z": -0.0022348060738295317
            },
            "position": {
                "x": 0.6094750761985779,
                "y": 0.3671506643295288,
                "z": 0.19426114857196808
            }
        },
        "name": "move_to_magneteinheit_A"
    },
    "id": "EST_move_to_magneteinheit_A_146",
    "joint_names": [
        "shoulder_pan_joint",
        "shoulder_lift_joint",
        "elbow_joint",
        "wrist_1_joint",
        "wrist_2_joint",
        "wrist_3_joint"
    ],
    "metrics": {
        "cart_traj_len": 1.8645378892269082,
        "distance_elbow_joint": 3.944770245417436,
        "distance_shoulder_lift_joint": 0.7151977429942696,
        "distance_shoulder_pan_joint": 1.2420378864370754,
        "distance_wrist_1_joint": 1.6130679622356972,
        "distance_wrist_2_joint": 1.6979206389934725,
        "distance_wrist_3_joint": 1.256903671870906,
        "smoothness": 1.0467817128158651e-15,
        "time": 0.190410611,
        "traj_len": 3.235722198821904,
        "weighted_distance": 4.036668687534294
    },
    "planner": "EST",
    "start": {
        "state": {
            "elbow_joint": -1.919643507792019,
            "shoulder_lift_joint": -0.07675430207160344,
            "shoulder_pan_joint": -1.1188671864651873,
            "wrist_1_joint": 0.42560062535961957,
            "wrist_2_joint": 1.5706038300724876,
            "wrist_3_joint": 1.1188968870953055
        }
    },
    "waypoints": [
        {
            "positions": [
                -1.1188671864651873,
                -0.07675430207160344,
                -1.919643507792019,
                0.42560062535961957,
                1.5706038300724876,
                1.1188968870953055
            ]
        },
        {
            "positions": [
                -1.0728657832638142,
                -0.1032431073676875,
                -1.773540906109892,
                0.48534388322020094,
                1.5077178804801368,
                1.072344899248235
            ]
        },
        {
            "positions": [
                -1.026864380062441,
                -0.12973191266377157,
                -1.6274383044277645,
                0.5450871410807823,
                1.444831930887786,
                1.0257929114011644
            ]
        },
        {
            "positions": [
                -0.9808629768610679,
                -0.15622071795985565,
                -1.4813357027456373,
                0.6048303989413637,
                1.381945981295435,
                0.9792409235540938
            ]
        },
        {
            "positions": [
                -0.9348615736596947,
                -0.1827095232559397,
                -1.3352331010635101,
                0.664573656801945,
                1.3190600317030843,
                0.9326889357070232
            ]
        },
        {
            "positions": [
                -0.8888601704583216,
                -0.20919832855202375,
                -1.189130499381383,
                0.7243169146625265,
                1.2561740821107334,
                0.8861369478599526
            ]
        },
        {
            "positions": [
                -0.8428587672569484,
                -0.23568713384810783,
                -1.0430278976992557,
                0.7840601725231078,
                1.1932881325183826,
                0.839584960012882
            ]
        },
        {
            "positions": [
                -0.7968573640555752,
                -0.2621759391441919,
                -0.8969252960171283,
                0.8438034303836892,
                1.1304021829260318,
                0.7930329721658114
            ]
        },
        {
            "positions": [
                -0.750855960854202,
                -0.28866474444027596,
                -0.7508226943350012,
                0.9035466882442705,
                1.067516233333681,
                0.7464809843187409
            ]
        },
        {
            "positions": [
                -0.7048545576528289,
                -0.31515354973636,
                -0.604720092652874,
                0.9632899461048519,
                1.0046302837413301,
                0.6999289964716703
            ]
        },
        {
            "positions": [
                -0.6588531544514558,
                -0.34164235503244406,
                -0.45861749097074656,
                1.0230332039654333,
                0.9417443341489793,
                0.6533770086245997
            ]
        },
        {
            "positions": [
                -0.6128517512500826,
                -0.36813116032852816,
                -0.31251488928861937,
                1.0827764618260147,
                0.8788583845566285,
                0.6068250207775291
            ]
        },
        {
            "positions": [
                -0.5668503480487095,
                -0.3946199656246122,
                -0.16641228760649218,
                1.142519719686596,
                0.8159724349642776,
                0.5602730329304585
            ]
        },
        {
            "positions": [
                -0.5208489448473362,
                -0.42110877092069626,
                -0.020309685924364995,
                1.2022629775471774,
                0.7530864853719268,
                0.5137210450833879
            ]
        },
        {
            "positions": [
                -0.4748475416459631,
                -0.4475975762167803,
                0.1257929157577624,
                1.2620062354077588,
                0.690200535779576,
                0.4671690572363173
            ]
        },
        {
            "positions": [
                -0.42884613844458985,
                -0.4740863815128644,
                0.2718955174398896,
                1.3217494932683402,
                0.6273145861872251,
                0.4206170693892467
            ]
        },
        {
            "positions": [
                -0.3828447352432168,
                -0.5005751868089485,
                0.4179981191220168,
                1.3814927511289214,
                0.5644286365948743,
                0.3740650815421762
            ]
        },
        {
            "positions": [
                -0.3368433320418436,
                -0.5270639921050326,
                0.5641007208041444,
                1.441236008989503,
                0.5015426870025235,
                0.3275130936951055
            ]
        },
        {
            "positions": [
                -0.29084192884047044,
                -0.5535527974011165,
                0.7102033224862712,
                1.5009792668500843,
                0.43865673741017264,
                0.280961105848035
            ]
        },
        {
            "positions": [
                -0.2448405256390973,
                -0.5800416026972006,
                0.8563059241683988,
                1.5607225247106657,
                0.3757707878178218,
                0.2344091180009643
            ]
        },
        {
            "positions": [
                -0.19883912243772417,
                -0.6065304079932847,
                1.002408525850526,
                1.6204657825712472,
                0.312884838225471,
                0.18785713015389383
            ]
        },
        {
            "positions": [
                -0.15283771923635092,
                -0.6330192132893688,
                1.1485111275326532,
                1.6802090404318286,
                0.24999888863312014,
                0.14130514230682312
            ]
        },
        {
            "positions": [
                -0.1068363160349779,
                -0.6595080185854529,
                1.2946137292147804,
                1.7399522982924098,
                0.1871129390407693,
                0.09475315445975263
            ]
        },
        {
            "positions": [
                -0.06083491283360454,
                -0.685996823881537,
                1.4407163308969075,
                1.7996955561529913,
                0.12422698944841848,
                0.048201166612682034
            ]
        },
        {
            "positions": [
                -0.014833509632231623,
                -0.7124856291776209,
                1.5868189325790347,
                1.8594388140135725,
                0.06134103985606765,
                0.0016491787656114365
            ]
        },
        {
            "positions": [
                0.031167893569141736,
                -0.738974434473705,
                1.7329215342611624,
                1.9191820718741541,
                -0.0015449097362831843,
                -0.04490280908145916
            ]
        },
        {
            "positions": [
                0.07716929677051487,
                -0.7654632397697891,
                1.879024135943289,
                1.9789253297347353,
                -0.06443085932863402,
                -0.09145479692852976
            ]
        },
        {
            "positions": [
                0.12317069997188795,
                -0.7919520450658731,
                2.025126737625417,
                2.0386685875953168,
                -0.12731680892098482,
                -0.13800678477560038
            ]
        }
    ]
}