{
    "goal": {
        "global_pose": {
            "orientation": {
                "w": 0.5084816217422485,
                "x": -0.49083608388900757,
                "y": 0.5182115435600281,
                "z": -0.4816462993621826
            },
            "position": {
                "x": 0.5540239810943604,
                "y": 0.030875300988554955,
                "z": 0.16403168439865112
            }
        },
        "name": "move_to_storage_A"
    },
    "id": "EST_move_to_storage_A_142",
    "joint_names": [
        "shoulder_pan_joint",
        "shoulder_lift_joint",
        "elbow_joint",
        "wrist_1_joint",
        "wrist_2_joint",
        "wrist_3_joint"
    ],
    "metrics": {
        "cart_traj_len": 0.35334041203838734,
        "distance_elbow_joint": 0.44963835871541,
        "distance_shoulder_lift_joint": 0.23471930782333406,
        "distance_shoulder_pan_joint": 0.46339499076557805,
        "distance_wrist_1_joint": 0.23671389675208043,
        "distance_wrist_2_joint": 1.094017125985503,
        "distance_wrist_3_joint": 0.09545706248098362,
        "smoothness": 1.5543122343307022e-15,
        "time": 0.036572927,
        "traj_len": 1.6043505672149367,
        "weighted_distance": 2.023755392882855
    },
    "planner": "EST",
    "start": {
        "state": {
            "elbow_joint": 1.9715463870305268,
            "shoulder_lift_joint": -1.1394903361783484,
            "shoulder_pan_joint": 0.12281147578464417,
            "wrist_1_joint": -0.7804599489681411,
            "wrist_2_joint": 0.12958660307563738,
            "wrist_3_joint": -3.1924946282119055
        }
    },
    "waypoints": [
        {
            "positions": [
                0.12281147578464417,
                -1.1394903361783484,
                1.9715463870305268,
                -0.7804599489681411,
                0.12958660307563738,
                -3.1924946282119055
            ]
        },
        {
            "positions": [
                0.0566121913895616,
                -1.1730216658673962,
                2.0357804382755855,
                -0.814276219932724,
                0.2858747639307092,
                -3.1788579050003363
            ]
        },
        {
            "positions": [
                -0.009587093005520977,
                -1.2065529955564438,
                2.100014489520644,
                -0.8480924908973069,
                0.442162924785781,
                -3.1652211817887674
            ]
        },
        {
            "positions": [
                -0.07578637740060355,
                -1.2400843252454916,
                2.1642485407657026,
                -0.8819087618618898,
                0.5984510856408529,
                -3.151584458577198
            ]
        },
        {
            "positions": [
                -0.1419856617956861,
                -1.2736156549345392,
                2.228482592010761,
                -0.9157250328264728,
                0.7547392464959247,
                -3.1379477353656293
            ]
        },
        {
            "positions": [
                -0.20818494619076872,
                -1.307146984623587,
                2.2927166432558197,
                -0.9495413037910556,
                0.9110274073509966,
                -3.12431101215406
            ]
        },
        {
            "positions": [
                -0.27438423058585126,
                -1.3406783143126346,
                2.356950694500878,
                -0.9833575747556386,
                1.0673155682060684,
                -3.110674288942491
            ]
        },
        {
            "positions": [
                -0.34058351498093387,
                -1.3742096440016824,
                2.421184745745937,
                -1.0171738457202215,
                1.2236037290611403,
                -3.097037565730922
            ]
        }
    ]
}