{
    "goal": {
        "global_pose": {
            "orientation": {
                "w": 0.7047431468963623,
                "x": -0.7094548344612122,
                "y": 0.0024358443915843964,
                "z": -0.0022348060738295317
            },
            "position": {
                "x": 0.6094750761985779,
                "y": 0.3671506643295288,
                "z": 0.19426114857196808
            }
        },
        "name": "move_to_magneteinheit_A"
    },
    "id": "EST_move_to_magneteinheit_A_30",
    "joint_names": [
        "shoulder_pan_joint",
        "shoulder_lift_joint",
        "elbow_joint",
        "wrist_1_joint",
        "wrist_2_joint",
        "wrist_3_joint"
    ],
    "metrics": {
        "cart_traj_len": 2.409591419348581,
        "distance_elbow_joint": 3.9027833844982833,
        "distance_shoulder_lift_joint": 1.0687083919538967,
        "distance_shoulder_pan_joint": 1.2405259698551574,
        "distance_wrist_1_joint": 1.24762734013404,
        "distance_wrist_2_joint": 1.4327184369220218,
        "distance_wrist_3_joint": 4.272104021083704,
        "smoothness": 8.635067979976606e-16,
        "time": 0.252815615,
        "traj_len": 3.6282871364387774,
        "weighted_distance": 4.938524209080135
    },
    "planner": "EST",
    "start": {
        "state": {
            "elbow_joint": -1.919643507792019,
            "shoulder_lift_joint": -0.07675430207160344,
            "shoulder_pan_joint": -1.1188671864651873,
            "wrist_1_joint": 0.42560062535961957,
            "wrist_2_joint": 1.5706038300724876,
            "wrist_3_joint": 1.1188968870953055
        }
    },
    "waypoints": [
        {
            "positions": [
                -1.1188671864651873,
                -0.07675430207160344,
                -1.919643507792019,
                0.42560062535961957,
                1.5706038300724876,
                1.1188968870953055
            ]
        },
        {
            "positions": [
                -1.0906263250178956,
                -0.1277920279020152,
                -1.8729094928422887,
                0.3961812986473455,
                1.518490789073093,
                0.9543085300813238
            ]
        },
        {
            "positions": [
                -1.0623854635706038,
                -0.17882975373242693,
                -1.8261754778925583,
                0.3667619719350715,
                1.4663777480736981,
                0.789720173067342
            ]
        },
        {
            "positions": [
                -1.034144602123312,
                -0.22986747956283868,
                -1.7794414629428281,
                0.33734264522279744,
                1.4142647070743035,
                0.6251318160533603
            ]
        },
        {
            "positions": [
                -1.0059037406760205,
                -0.28090520539325037,
                -1.7327074479930977,
                0.30792331851052346,
                1.362151666074909,
                0.46054345903937854
            ]
        },
        {
            "positions": [
                -0.9776628792287287,
                -0.33194293122366214,
                -1.6859734330433673,
                0.2785039917982494,
                1.310038625075514,
                0.2959551020253969
            ]
        },
        {
            "positions": [
                -0.949422017781437,
                -0.3829806570540739,
                -1.639239418093637,
                0.24908466508597538,
                1.2579255840761194,
                0.1313667450114151
            ]
        },
        {
            "positions": [
                -0.9211811563341452,
                -0.4340183828844856,
                -1.5925054031439068,
                0.2196653383737014,
                1.2058125430767248,
                -0.03322161200256657
            ]
        },
        {
            "positions": [
                -0.8929402948868534,
                -0.48505610871489735,
                -1.5457713881941764,
                0.19024601166142732,
                1.15369950207733,
                -0.19780996901654846
            ]
        },
        {
            "positions": [
                -0.8646994334395618,
                -0.536093834545309,
                -1.499037373244446,
                0.1608266849491533,
                1.1015864610779353,
                -0.3623983260305301
            ]
        },
        {
            "positions": [
                -0.83645857199227,
                -0.5871315603757208,
                -1.4523033582947156,
                0.13140735823687927,
                1.0494734200785407,
                -0.5269866830445118
            ]
        },
        {
            "positions": [
                -0.8082177105449784,
                -0.6381692862061326,
                -1.4055693433449852,
                0.10198803152460528,
                0.997360379079146,
                -0.6915750400584935
            ]
        },
        {
            "positions": [
                -0.7799768490976866,
                -0.6892070120365443,
                -1.358835328395255,
                0.07256870481233119,
                0.9452473380797513,
                -0.8561633970724754
            ]
        },
        {
            "positions": [
                -0.7517359876503948,
                -0.7402447378669561,
                -1.3121013134455246,
                0.043149378100057215,
                0.8931342970803566,
                -1.020751754086457
            ]
        },
        {
            "positions": [
                -0.7120362253303782,
                -0.7586637358741627,
                -1.1623176229840797,
                0.0038231920603082267,
                0.8588048014471797,
                -1.1176815440819998
            ]
        },
        {
            "positions": [
                -0.6723364630103617,
                -0.7770827338813692,
                -1.0125339325226346,
                -0.03550299397944076,
                0.8244753058140029,
                -1.2146113340775426
            ]
        },
        {
            "positions": [
                -0.6326367006903452,
                -0.7955017318885758,
                -0.8627502420611897,
                -0.07482918001918974,
                0.7901458101808261,
                -1.3115411240730854
            ]
        },
        {
            "positions": [
                -0.5929369383703286,
                -0.8139207298957823,
                -0.7129665515997448,
                -0.11415536605893874,
                0.7558163145476491,
                -1.4084709140686282
            ]
        },
        {
            "positions": [
                -0.553237176050312,
                -0.8323397279029888,
                -0.5631828611382997,
                -0.1534815520986877,
                0.7214868189144723,
                -1.5054007040641708
            ]
        },
        {
            "positions": [
                -0.5135374137302954,
                -0.8507587259101954,
                -0.41339917067685483,
                -0.1928077381384367,
                0.6871573232812954,
                -1.6023304940597138
            ]
        },
        {
            "positions": [
                -0.47383765141027884,
                -0.8691777239174019,
                -0.2636154802154098,
                -0.23213392417818568,
                0.6528278276481185,
                -1.6992602840552564
            ]
        },
        {
            "positions": [
                -0.43413788909026224,
                -0.8875967219246085,
                -0.11383178975396491,
                -0.2714601102179347,
                0.6184983320149416,
                -1.7961900740507994
            ]
        },
        {
            "positions": [
                -0.39443812677024565,
                -0.9060157199318151,
                0.03595190070748022,
                -0.3107862962576837,
                0.5841688363817648,
                -1.893119864046342
            ]
        },
        {
            "positions": [
                -0.3547383644502291,
                -0.9244347179390215,
                0.18573559116892513,
                -0.35011248229743264,
                0.549839340748588,
                -1.9900496540418848
            ]
        },
        {
            "positions": [
                -0.3150386021302125,
                -0.9428537159462281,
                0.33551928163037004,
                -0.38943866833718166,
                0.515509845115411,
                -2.0869794440374276
            ]
        },
        {
            "positions": [
                -0.27533883981019597,
                -0.9612727139534347,
                0.48530297209181494,
                -0.4287648543769306,
                0.4811803494822342,
                -2.1839092340329707
            ]
        },
        {
            "positions": [
                -0.23563907749017932,
                -0.9796917119606412,
                0.6350866625532601,
                -0.46809104041667965,
                0.44685085384905726,
                -2.2808390240285132
            ]
        },
        {
            "positions": [
                -0.19593931517016283,
                -0.9981107099678478,
                0.784870353014705,
                -0.5074172264564285,
                0.41252135821588043,
                -2.377768814024056
            ]
        },
        {
            "positions": [
                -0.15623955285014623,
                -1.0165297079750544,
                0.9346540434761497,
                -0.5467434124961775,
                0.37819186258270354,
                -2.474698604019599
            ]
        },
        {
            "positions": [
                -0.11653979053012964,
                -1.0349487059822609,
                1.0844377339375948,
                -0.5860695985359266,
                0.34386236694952665,
                -2.571628394015142
            ]
        },
        {
            "positions": [
                -0.07684002821011304,
                -1.0533677039894673,
                1.23422142439904,
                -0.6253957845756755,
                0.30953287131634977,
                -2.668558184010684
            ]
        },
        {
            "positions": [
                -0.03714026589009645,
                -1.071786701996674,
                1.384005114860485,
                -0.6647219706154246,
                0.2752033756831729,
                -2.765487974006227
            ]
        },
        {
            "positions": [
                0.0025594964299201495,
                -1.0902057000038805,
                1.5337888053219297,
                -0.7040481566551735,
                0.2408738800499961,
                -2.86241776400177
            ]
        },
        {
            "positions": [
                0.042259258749936635,
                -1.108624698011087,
                1.6835724957833749,
                -0.7433743426949224,
                0.20654438441681922,
                -2.9593475539973126
            ]
        },
        {
            "positions": [
                0.08195902106995323,
                -1.1270436960182937,
                1.83335618624482,
                -0.7827005287346716,
                0.17221488878364233,
                -3.0562773439928557
            ]
        },
        {
            "positions": [
                0.12165878338996987,
                -1.1454626940255002,
                1.9831398767062645,
                -0.8220267147744205,
                0.1378853931504654,
                -3.1532071339883982
            ]
        }
    ]
}