{
    "goal": {
        "global_pose": {
            "orientation": {
                "w": -0.00223480608172531,
                "x": 0.0024358444001904467,
                "y": 0.7094548369677653,
                "z": -0.704743149386269
            },
            "position": {
                "x": 0.6205249238014221,
                "y": -0.6371506643295288,
                "z": 0.19426114857196808
            }
        },
        "name": "move_to_magneteinheit_B"
    },
    "id": "EST_move_to_magneteinheit_B_9",
    "joint_names": [
        "shoulder_pan_joint",
        "shoulder_lift_joint",
        "elbow_joint",
        "wrist_1_joint",
        "wrist_2_joint",
        "wrist_3_joint"
    ],
    "metrics": {
        "cart_traj_len": 1.4531849156575176,
        "distance_elbow_joint": 0.7302096741065869,
        "distance_shoulder_lift_joint": 1.2493116584077555,
        "distance_shoulder_pan_joint": 1.622053689599912,
        "distance_wrist_1_joint": 2.603841063327303,
        "distance_wrist_2_joint": 2.9342066530445856,
        "distance_wrist_3_joint": 3.1293651195692154,
        "smoothness": 1.9428903006496772e-16,
        "time": 0.09782342499999999,
        "traj_len": 3.5027115008312286,
        "weighted_distance": 4.9056870888353314
    },
    "planner": "EST",
    "start": {
        "state": {
            "elbow_joint": 2.39358713078474,
            "shoulder_lift_joint": -1.908514104345545,
            "shoulder_pan_joint": 0.7066247066606129,
            "wrist_1_joint": -0.4678290933515497,
            "wrist_2_joint": 0.7096259083745334,
            "wrist_3_joint": -3.1358149277392293
        }
    },
    "waypoints": [
        {
            "positions": [
                0.7066247066606129,
                -1.908514104345545,
                2.39358713078474,
                -0.4678290933515497,
                0.7096259083745334,
                -3.1358149277392293
            ]
        },
        {
            "positions": [
                0.6543003940928739,
                -1.8682137282678755,
                2.3700319800071084,
                -0.38383422034099157,
                0.6149740808569661,
                -3.0348676658176417
            ]
        },
        {
            "positions": [
                0.6019760815251347,
                -1.8279133521902058,
                2.346476829229476,
                -0.2998393473304334,
                0.5203222533393989,
                -2.933920403896054
            ]
        },
        {
            "positions": [
                0.5496517689573956,
                -1.7876129761125363,
                2.3229216784518445,
                -0.21584447431987525,
                0.4256704258218316,
                -2.8329731419744664
            ]
        },
        {
            "positions": [
                0.4973274563896566,
                -1.7473126000348669,
                2.299366527674213,
                -0.13184960130931705,
                0.33101859830426433,
                -2.7320258800528787
            ]
        },
        {
            "positions": [
                0.44500314382191747,
                -1.7070122239571972,
                2.275811376896581,
                -0.04785472829875892,
                0.23636677078669704,
                -2.6310786181312915
            ]
        },
        {
            "positions": [
                0.39267883125417835,
                -1.6667118478795278,
                2.252256226118949,
                0.036140144711799216,
                0.1417149432691298,
                -2.530131356209704
            ]
        },
        {
            "positions": [
                0.3403545186864393,
                -1.626411471801858,
                2.2287010753413172,
                0.1201350177223574,
                0.04706311575156252,
                -2.429184094288116
            ]
        },
        {
            "positions": [
                0.28803020611870017,
                -1.5861110957241886,
                2.2051459245636855,
                0.2041298907329156,
                -0.047588711766004765,
                -2.3282368323665286
            ]
        },
        {
            "positions": [
                0.23570589355096105,
                -1.5458107196465192,
                2.1815907737860534,
                0.2881247637434738,
                -0.14224053928357216,
                -2.227289570444941
            ]
        },
        {
            "positions": [
                0.183381580983222,
                -1.5055103435688495,
                2.1580356230084217,
                0.37211963675403187,
                -0.23689236680113934,
                -2.1263423085233537
            ]
        },
        {
            "positions": [
                0.13105726841548282,
                -1.46520996749118,
                2.13448047223079,
                0.45611450976459017,
                -0.33154419431870663,
                -2.0253950466017656
            ]
        },
        {
            "positions": [
                0.07873295584774376,
                -1.4249095914135106,
                2.1109253214531583,
                0.5401093827751482,
                -0.4261960218362738,
                -1.9244477846801782
            ]
        },
        {
            "positions": [
                0.026408643280004696,
                -1.384609215335841,
                2.087370170675526,
                0.6241042557857066,
                -0.5208478493538412,
                -1.8235005227585905
            ]
        },
        {
            "positions": [
                -0.025915669287734366,
                -1.3443088392581715,
                2.0638150198978944,
                0.7080991287962646,
                -0.6154996768714084,
                -1.722553260837003
            ]
        },
        {
            "positions": [
                -0.07823998185547354,
                -1.304008463180502,
                2.0402598691202627,
                0.7920940018068228,
                -0.7101515043889758,
                -1.6216059989154155
            ]
        },
        {
            "positions": [
                -0.1305642944232126,
                -1.2637080871028323,
                2.0167047183426305,
                0.876088874817381,
                -0.804803331906543,
                -1.5206587369938278
            ]
        },
        {
            "positions": [
                -0.18288860699095166,
                -1.2234077110251629,
                1.9931495675649988,
                0.9600837478279389,
                -0.8994551594241101,
                -1.4197114750722404
            ]
        },
        {
            "positions": [
                -0.23521291955869084,
                -1.1831073349474934,
                1.9695944167873671,
                1.0440786208384973,
                -0.9941069869416778,
                -1.3187642131506525
            ]
        },
        {
            "positions": [
                -0.2875372321264299,
                -1.1428069588698238,
                1.9460392660097352,
                1.1280734938490555,
                -1.0887588144592448,
                -1.217816951229065
            ]
        },
        {
            "positions": [
                -0.33986154469416896,
                -1.1025065827921543,
                1.9224841152321033,
                1.2120683668596135,
                -1.183410641976812,
                -1.1168696893074777
            ]
        },
        {
            "positions": [
                -0.392185857261908,
                -1.0622062067144848,
                1.8989289644544716,
                1.2960632398701717,
                -1.2780624694943792,
                -1.01592242738589
            ]
        },
        {
            "positions": [
                -0.4445101698296473,
                -1.0219058306368152,
                1.8753738136768396,
                1.38005811288073,
                -1.3727142970119468,
                -0.9149751654643024
            ]
        },
        {
            "positions": [
                -0.49683448239738637,
                -0.9816054545591457,
                1.8518186628992077,
                1.464052985891288,
                -1.467366124529514,
                -0.8140279035427147
            ]
        },
        {
            "positions": [
                -0.5491587949651254,
                -0.9413050784814762,
                1.828263512121576,
                1.548047858901846,
                -1.5620179520470812,
                -0.713080641621127
            ]
        },
        {
            "positions": [
                -0.6014831075328645,
                -0.9010047024038066,
                1.8047083613439443,
                1.6320427319124042,
                -1.6566697795646483,
                -0.6121333796995398
            ]
        },
        {
            "positions": [
                -0.6538074201006036,
                -0.8607043263261371,
                1.7811532105663124,
                1.7160376049229629,
                -1.751321607082216,
                -0.5111861177779518
            ]
        },
        {
            "positions": [
                -0.7061317326683426,
                -0.8204039502484675,
                1.7575980597886804,
                1.8000324779335206,
                -1.8459734345997831,
                -0.4102388558563641
            ]
        },
        {
            "positions": [
                -0.7584560452360817,
                -0.780103574170798,
                1.7340429090110487,
                1.8840273509440788,
                -1.9406252621173503,
                -0.3092915939347769
            ]
        },
        {
            "positions": [
                -0.8107803578038207,
                -0.7398031980931286,
                1.710487758233417,
                1.968022223954637,
                -2.0352770896349175,
                -0.20834433201318925
            ]
        },
        {
            "positions": [
                -0.86310467037156,
                -0.6995028220154589,
                1.6869326074557849,
                2.052017096965195,
                -2.129928917152485,
                -0.1073970700916016
            ]
        },
        {
            "positions": [
                -0.9154289829392992,
                -0.6592024459377893,
                1.6633774566781532,
                2.1360119699757534,
                -2.2245807446700523,
                -0.006449808170013983
            ]
        }
    ]
}