{
    "goal": {
        "global_pose": {
            "orientation": {
                "w": 0.7047431468963623,
                "x": -0.7094548344612122,
                "y": 0.0024358443915843964,
                "z": -0.0022348060738295317
            },
            "position": {
                "x": 0.6094750761985779,
                "y": 0.3671506643295288,
                "z": 0.19426114857196808
            }
        },
        "name": "move_to_magneteinheit_A"
    },
    "id": "EST_move_to_magneteinheit_A_19",
    "joint_names": [
        "shoulder_pan_joint",
        "shoulder_lift_joint",
        "elbow_joint",
        "wrist_1_joint",
        "wrist_2_joint",
        "wrist_3_joint"
    ],
    "metrics": {
        "cart_traj_len": 1.9585005208529693,
        "distance_elbow_joint": 3.906514090129673,
        "distance_shoulder_lift_joint": 1.6186852834482433,
        "distance_shoulder_pan_joint": 1.2417979079592554,
        "distance_wrist_1_joint": 2.0165622235278873,
        "distance_wrist_2_joint": 2.4908792419881904,
        "distance_wrist_3_joint": 4.271149569467486,
        "smoothness": 0.32152020726770175,
        "time": 0.162468058,
        "traj_len": 3.9427894080867083,
        "weighted_distance": 5.347460043887358
    },
    "planner": "EST",
    "start": {
        "state": {
            "elbow_joint": -1.919643507792019,
            "shoulder_lift_joint": -0.07675430207160344,
            "shoulder_pan_joint": -1.1188671864651873,
            "wrist_1_joint": 0.42560062535961957,
            "wrist_2_joint": 1.5706038300724876,
            "wrist_3_joint": 1.1188968870953055
        }
    },
    "waypoints": [
        {
            "positions": [
                -1.1188671864651873,
                -0.07675430207160344,
                -1.919643507792019,
                0.42560062535961957,
                1.5706038300724876,
                1.1188968870953055
            ]
        },
        {
            "positions": [
                -1.0864566331970917,
                -0.11516772388687818,
                -1.8170153559131783,
                0.3787710370738737,
                1.5145741967676234,
                1.0002674942780527
            ]
        },
        {
            "positions": [
                -1.0540460799289963,
                -0.15358114570215292,
                -1.7143872040343375,
                0.33194144878812787,
                1.4585445634627594,
                0.8816381014608001
            ]
        },
        {
            "positions": [
                -1.0216355266609007,
                -0.19199456751742766,
                -1.6117590521554968,
                0.285111860502382,
                1.4025149301578952,
                0.7630087086435473
            ]
        },
        {
            "positions": [
                -0.9892249733928051,
                -0.23040798933270237,
                -1.509130900276656,
                0.2382822722166362,
                1.346485296853031,
                0.6443793158262947
            ]
        },
        {
            "positions": [
                -0.9568144201247096,
                -0.2688214111479771,
                -1.4065027483978154,
                0.19145268393089038,
                1.290455663548167,
                0.525749923009042
            ]
        },
        {
            "positions": [
                -0.9244038668566141,
                -0.3072348329632518,
                -1.3038745965189746,
                0.14462309564514453,
                1.2344260302433028,
                0.4071205301917892
            ]
        },
        {
            "positions": [
                -0.8919933135885185,
                -0.34564825477852656,
                -1.2012464446401336,
                0.09779350735939868,
                1.1783963969384386,
                0.28849113737453647
            ]
        },
        {
            "positions": [
                -0.859582760320423,
                -0.3840616765938013,
                -1.098618292761293,
                0.05096391907365283,
                1.1223667636335746,
                0.16986174455728387
            ]
        },
        {
            "positions": [
                -0.8271722070523275,
                -0.422475098409076,
                -0.9959901408824523,
                0.004134330787907037,
                1.0663371303287104,
                0.05123235174003127
            ]
        },
        {
            "positions": [
                -0.7947616537842319,
                -0.46088852022435073,
                -0.8933619890036115,
                -0.04269525749783881,
                1.0103074970238461,
                -0.06739704107722155
            ]
        },
        {
            "positions": [
                -0.7623511005161364,
                -0.4993019420396255,
                -0.7907338371247707,
                -0.08952484578358472,
                0.9542778637189822,
                -0.18602643389447437
            ]
        },
        {
            "positions": [
                -0.7299405472480409,
                -0.5377153638549003,
                -0.68810568524593,
                -0.1363544340693305,
                0.8982482304141179,
                -0.3046558267117272
            ]
        },
        {
            "positions": [
                -0.6975299939799453,
                -0.576128785670175,
                -0.5854775333670892,
                -0.18318402235507641,
                0.8422185971092538,
                -0.4232852195289798
            ]
        },
        {
            "positions": [
                -0.6651194407118497,
                -0.6145422074854496,
                -0.4828493814882482,
                -0.2300136106408222,
                0.7861889638043896,
                -0.5419146123462326
            ]
        },
        {
            "positions": [
                -0.6327088874437543,
                -0.6529556293007244,
                -0.38022122960940763,
                -0.276843198926568,
                0.7301593304995256,
                -0.6605440051634852
            ]
        },
        {
            "positions": [
                -0.6002983341756587,
                -0.6913690511159991,
                -0.27759307773056685,
                -0.3236727872123139,
                0.6741296971946614,
                -0.7791733979807378
            ]
        },
        {
            "positions": [
                -0.5678877809075632,
                -0.7297824729312739,
                -0.17496492585172607,
                -0.3705023754980597,
                0.6181000638897973,
                -0.8978027907979906
            ]
        },
        {
            "positions": [
                -0.5354772276394677,
                -0.7681958947465486,
                -0.07233677397288552,
                -0.4173319637838055,
                0.5620704305849333,
                -1.016432183615243
            ]
        },
        {
            "positions": [
                -0.5030666743713721,
                -0.8066093165618233,
                0.030291377905955263,
                -0.4641615520695514,
                0.5060407972800691,
                -1.1350615764324958
            ]
        },
        {
            "positions": [
                -0.4706561211032766,
                -0.8450227383770981,
                0.13291952978479604,
                -0.5109911403552971,
                0.4500111639752049,
                -1.2536909692497487
            ]
        },
        {
            "positions": [
                -0.438245567835181,
                -0.8834361601923728,
                0.23554768166363682,
                -0.557820728641043,
                0.3939815306703407,
                -1.3723203620670015
            ]
        },
        {
            "positions": [
                -0.4058350145670855,
                -0.9218495820076475,
                0.3381758335424776,
                -0.6046503169267889,
                0.3379518973654767,
                -1.4909497548842543
            ]
        },
        {
            "positions": [
                -0.3734244612989899,
                -0.9602630038229223,
                0.4408039854213184,
                -0.6514799052125346,
                0.2819222640606125,
                -1.6095791477015071
            ]
        },
        {
            "positions": [
                -0.3410139080308944,
                -0.998676425638197,
                0.5434321373001592,
                -0.6983094934982805,
                0.22589263075574828,
                -1.72820854051876
            ]
        },
        {
            "positions": [
                -0.3086033547627989,
                -1.0370898474534718,
                0.6460602891789999,
                -0.7451390817840264,
                0.16986299745088407,
                -1.8468379333360123
            ]
        },
        {
            "positions": [
                -0.27619280149470327,
                -1.0755032692687465,
                0.7486884410578407,
                -0.7919686700697723,
                0.11383336414602008,
                -1.9654673261532651
            ]
        },
        {
            "positions": [
                -0.24378224822660777,
                -1.1139166910840212,
                0.8513165929366819,
                -0.8387982583555182,
                0.057803730841155865,
                -2.084096718970518
            ]
        },
        {
            "positions": [
                -0.21137169495851216,
                -1.152330112899296,
                0.9539447448155227,
                -0.8856278466412639,
                0.0017740975362916522,
                -2.202726111787771
            ]
        },
        {
            "positions": [
                -0.17896114169041666,
                -1.1907435347145707,
                1.0565728966943635,
                -0.9324574349270098,
                -0.05425553576857256,
                -2.3213555046050236
            ]
        },
        {
            "positions": [
                -0.14655058842232116,
                -1.2291569565298455,
                1.1592010485732038,
                -0.9792870232127555,
                -0.11028516907343633,
                -2.439984897422276
            ]
        },
        {
            "positions": [
                -0.11414003515422566,
                -1.2675703783451202,
                1.2618292004520446,
                -1.0261166114985014,
                -0.16631480237830054,
                -2.558614290239529
            ]
        },
        {
            "positions": [
                -0.08172948188613005,
                -1.305983800160395,
                1.3644573523308854,
                -1.0729461997842473,
                -0.22234443568316475,
                -2.677243683056781
            ]
        },
        {
            "positions": [
                -0.04931892861803444,
                -1.3443972219756697,
                1.4670855042097262,
                -1.119775788069993,
                -0.27837406898802897,
                -2.795873075874034
            ]
        },
        {
            "positions": [
                -0.016908375349939053,
                -1.3828106437909444,
                1.569713656088567,
                -1.166605376355739,
                -0.33440370229289296,
                -2.914502468691287
            ]
        },
        {
            "positions": [
                0.015502177918156619,
                -1.4212240656062192,
                1.6723418079674075,
                -1.2134349646414848,
                -0.39043333559775706,
                -3.03313186150854
            ]
        },
        {
            "positions": [
                0.03698788663333887,
                -1.3663809616234937,
                1.7352475628414568,
                -1.1379296379361283,
                -0.28446492033416804,
                -3.056956025681268
            ]
        },
        {
            "positions": [
                0.058473595348521125,
                -1.3115378576407681,
                1.798153317715506,
                -1.0624243112307719,
                -0.17849650507057904,
                -3.0807801898539955
            ]
        },
        {
            "positions": [
                0.07995930406370336,
                -1.2566947536580426,
                1.8610590725895555,
                -0.9869189845254154,
                -0.07252808980699005,
                -3.1046043540267236
            ]
        },
        {
            "positions": [
                0.10144501277888562,
                -1.201851649675317,
                1.9239648274636048,
                -0.9114136578200588,
                0.033440325456598974,
                -3.1284285181994513
            ]
        },
        {
            "positions": [
                0.12293072149406788,
                -1.1470085456925916,
                1.986870582337654,
                -0.8359083311147023,
                0.139408740720188,
                -3.152252682372179
            ]
        }
    ]
}