{
    "goal": {
        "global_pose": {
            "orientation": {
                "w": 0.7031023502349854,
                "x": -0.7110244035720825,
                "y": 0.007748599164187908,
                "z": 0.005598929710686207
            },
            "position": {
                "x": 0.11585023208521307,
                "y": 0.44412534475326537,
                "z": 0.3711530566215515
            }
        },
        "name": "move_to_auspresseinheit_A"
    },
    "id": "EST_move_to_auspresseinheit_A_87",
    "joint_names": [
        "shoulder_pan_joint",
        "shoulder_lift_joint",
        "elbow_joint",
        "wrist_1_joint",
        "wrist_2_joint",
        "wrist_3_joint"
    ],
    "metrics": {
        "cart_traj_len": 0.6793665813378128,
        "distance_elbow_joint": 0.11757681481068083,
        "distance_shoulder_lift_joint": 0.5544713647216895,
        "distance_shoulder_pan_joint": 1.0430665113238917,
        "distance_wrist_1_joint": 0.8992527159815632,
        "distance_wrist_2_joint": 0.5315404059616581,
        "distance_wrist_3_joint": 0.29767144835088555,
        "smoothness": 1.199523824145587,
        "time": 0.475892045,
        "traj_len": 1.8556883523777286,
        "weighted_distance": 2.3387422431288494
    },
    "planner": "EST",
    "start": {
        "state": {
            "elbow_joint": 2.422574709923281,
            "shoulder_lift_joint": -1.3736533754116391,
            "shoulder_pan_joint": -0.33786336945926293,
            "wrist_1_joint": -1.0288603412921917,
            "wrist_2_joint": 1.2330224858903978,
            "wrist_3_joint": -3.094022268022082
        }
    },
    "waypoints": [
        {
            "positions": [
                -0.33786336945926293,
                -1.3736533754116391,
                2.422574709923281,
                -1.0288603412921917,
                1.2330224858903978,
                -3.094022268022082
            ]
        },
        {
            "positions": [
                -0.22262836793819624,
                -1.4463485323581196,
                2.42760242733747,
                -0.9251250447109699,
                1.1671369204575295,
                -3.0745632235334135
            ]
        },
        {
            "positions": [
                -0.10739336641712952,
                -1.5190436893045998,
                2.4326301447516596,
                -0.8213897481297481,
                1.1012513550246614,
                -3.055104179044745
            ]
        },
        {
            "positions": [
                0.007841635103937206,
                -1.5917388462510802,
                2.4376578621658487,
                -0.7176544515485264,
                1.0353657895917934,
                -3.035645134556076
            ]
        },
        {
            "positions": [
                0.1230766366250039,
                -1.6644340031975604,
                2.4426855795800377,
                -0.6139191549673045,
                0.9694802241589251,
                -3.016186090067407
            ]
        },
        {
            "positions": [
                0.23831163814607065,
                -1.7371291601440408,
                2.447713296994227,
                -0.5101838583860827,
                0.9035946587260569,
                -2.9967270455787385
            ]
        },
        {
            "positions": [
                0.35354663966713734,
                -1.809824317090521,
                2.4527410144084163,
                -0.4064485618048609,
                0.8377090932931888,
                -2.97726800109007
            ]
        },
        {
            "positions": [
                0.4687816411882041,
                -1.8825194740370015,
                2.4577687318226054,
                -0.30271326522363906,
                0.7718235278603206,
                -2.957808956601401
            ]
        },
        {
            "positions": [
                0.5674638519572153,
                -1.9011307654091243,
                2.4215956484258734,
                -0.37484669555088834,
                0.737611930257752,
                -3.0255410429556893
            ]
        },
        {
            "positions": [
                0.6661460627262266,
                -1.919742056781247,
                2.3854225650291414,
                -0.4469801258781376,
                0.7034003326551833,
                -3.0932731293099778
            ]
        },
        {
            "positions": [
                0.7052031418646288,
                -1.9113593734291656,
                2.395459191147034,
                -0.4758189051366496,
                0.705318585381627,
                -3.119267093531606
            ]
        }
    ]
}