{
    "goal": {
        "global_pose": {
            "orientation": {
                "w": 0.7031023502349854,
                "x": -0.7110244035720825,
                "y": 0.007748599164187908,
                "z": 0.005598929710686207
            },
            "position": {
                "x": 0.11585023208521307,
                "y": 0.44412534475326537,
                "z": 0.3711530566215515
            }
        },
        "name": "move_to_auspresseinheit_A"
    },
    "id": "EST_move_to_auspresseinheit_A_11",
    "joint_names": [
        "shoulder_pan_joint",
        "shoulder_lift_joint",
        "elbow_joint",
        "wrist_1_joint",
        "wrist_2_joint",
        "wrist_3_joint"
    ],
    "metrics": {
        "cart_traj_len": 0.6869557698443804,
        "distance_elbow_joint": 0.032281944826490605,
        "distance_shoulder_lift_joint": 0.532125677358952,
        "distance_shoulder_pan_joint": 1.039691309169072,
        "distance_wrist_1_joint": 0.5757247355368902,
        "distance_wrist_2_joint": 0.5349165698568873,
        "distance_wrist_3_joint": 0.05875132101762892,
        "smoothness": 1.9737298215558337e-16,
        "time": 0.044270919,
        "traj_len": 1.6653803042446254,
        "weighted_distance": 2.0004088345123243
    },
    "planner": "EST",
    "start": {
        "state": {
            "elbow_joint": 2.422574709923281,
            "shoulder_lift_joint": -1.3736533754116391,
            "shoulder_pan_joint": -0.33786336945926293,
            "wrist_1_joint": -1.0288603412921917,
            "wrist_2_joint": 1.2330224858903978,
            "wrist_3_joint": -3.094022268022082
        }
    },
    "waypoints": [
        {
            "positions": [
                -0.33786336945926293,
                -1.3736533754116391,
                2.422574709923281,
                -1.0288603412921917,
                1.2330224858903978,
                -3.094022268022082
            ]
        },
        {
            "positions": [
                -0.20790195581312892,
                -1.440169085081508,
                2.41853946681997,
                -0.9568947493500805,
                1.1661579146582868,
                -3.1013661831492856
            ]
        },
        {
            "positions": [
                -0.07794054216699492,
                -1.506684794751377,
                2.4145042237166585,
                -0.8849291574079692,
                1.099293343426176,
                -3.1087100982764895
            ]
        },
        {
            "positions": [
                0.052020871479139086,
                -1.573200504421246,
                2.4104689806133472,
                -0.8129635654658579,
                1.032428772194065,
                -3.116054013403693
            ]
        },
        {
            "positions": [
                0.1819822851252731,
                -1.639716214091115,
                2.406433737510036,
                -0.7409979735237466,
                0.9655642009619541,
                -3.1233979285308964
            ]
        },
        {
            "positions": [
                0.3119436987714071,
                -1.706231923760984,
                2.4023984944067243,
                -0.6690323815816354,
                0.8986996297298432,
                -3.1307418436581003
            ]
        },
        {
            "positions": [
                0.4419051124175411,
                -1.7727476334308532,
                2.398363251303413,
                -0.5970667896395241,
                0.8318350584977323,
                -3.1380857587853037
            ]
        },
        {
            "positions": [
                0.571866526063675,
                -1.8392633431007221,
                2.3943280082001017,
                -0.5251011976974128,
                0.7649704872656213,
                -3.1454296739125076
            ]
        },
        {
            "positions": [
                0.7018279397098092,
                -1.9057790527705911,
                2.3902927650967905,
                -0.4531356057553016,
                0.6981059160335105,
                -3.152773589039711
            ]
        }
    ]
}