{
    "goal": {
        "global_pose": {
            "orientation": {
                "w": 0.7031023502349854,
                "x": -0.7110244035720825,
                "y": 0.007748599164187908,
                "z": 0.005598929710686207
            },
            "position": {
                "x": 0.11585023208521307,
                "y": 0.44412534475326537,
                "z": 0.3711530566215515
            }
        },
        "name": "move_to_auspresseinheit_A"
    },
    "id": "EST_move_to_auspresseinheit_A_37",
    "joint_names": [
        "shoulder_pan_joint",
        "shoulder_lift_joint",
        "elbow_joint",
        "wrist_1_joint",
        "wrist_2_joint",
        "wrist_3_joint"
    ],
    "metrics": {
        "cart_traj_len": 0.7021210720737993,
        "distance_elbow_joint": 0.09508437491728072,
        "distance_shoulder_lift_joint": 0.5319246630315686,
        "distance_shoulder_pan_joint": 1.045344023436583,
        "distance_wrist_1_joint": 0.5705336938108232,
        "distance_wrist_2_joint": 0.5165360957169048,
        "distance_wrist_3_joint": 0.1231253372130996,
        "smoothness": 0.17479942801121695,
        "time": 0.7828437229999999,
        "traj_len": 1.6978068759803808,
        "weighted_distance": 2.053258057838855
    },
    "planner": "EST",
    "start": {
        "state": {
            "elbow_joint": 2.422574709923281,
            "shoulder_lift_joint": -1.3736533754116391,
            "shoulder_pan_joint": -0.33786336945926293,
            "wrist_1_joint": -1.0288603412921917,
            "wrist_2_joint": 1.2330224858903978,
            "wrist_3_joint": -3.094022268022082
        }
    },
    "waypoints": [
        {
            "positions": [
                -0.33786336945926293,
                -1.3736533754116391,
                2.422574709923281,
                -1.0288603412921917,
                1.2330224858903978,
                -3.094022268022082
            ]
        },
        {
            "positions": [
                -0.2036065109128043,
                -1.44838132976005,
                2.4134928756508174,
                -0.9507053648167366,
                1.1602658666936847,
                -3.0881855221644243
            ]
        },
        {
            "positions": [
                -0.06934965236634566,
                -1.523109284108461,
                2.404411041378354,
                -0.8725503883412815,
                1.0875092474969719,
                -3.0823487763067665
            ]
        },
        {
            "positions": [
                0.06490720618011298,
                -1.597837238456872,
                2.3953292071058905,
                -0.7943954118658265,
                1.0147526283002588,
                -3.0765120304491087
            ]
        },
        {
            "positions": [
                0.1991640647265716,
                -1.672565192805283,
                2.386247372833427,
                -0.7162404353903713,
                0.9419960091035458,
                -3.0706752845914513
            ]
        },
        {
            "positions": [
                0.33342092327303036,
                -1.747293147153694,
                2.377165538560963,
                -0.6380854589149163,
                0.8692393899068328,
                -3.0648385387337935
            ]
        },
        {
            "positions": [
                0.4676777818194889,
                -1.822021101502105,
                2.3680837042885,
                -0.5599304824394612,
                0.7964827707101199,
                -3.0590017928761357
            ]
        },
        {
            "positions": [
                0.6019346403659477,
                -1.896749055850516,
                2.3590018700160362,
                -0.4817755059640061,
                0.7237261515134068,
                -3.053165047018478
            ]
        },
        {
            "positions": [
                0.70748065397732,
                -1.9055780384432077,
                2.390513405026072,
                -0.4583266474813686,
                0.7164863901734929,
                -3.1354331632279733
            ]
        }
    ]
}