{
    "goal": {
        "global_pose": {
            "orientation": {
                "w": 0.7031023502349854,
                "x": -0.7110244035720825,
                "y": 0.007748599164187908,
                "z": 0.005598929710686207
            },
            "position": {
                "x": 0.11585023208521307,
                "y": 0.44412534475326537,
                "z": 0.3711530566215515
            }
        },
        "name": "move_to_auspresseinheit_A"
    },
    "id": "EST_move_to_auspresseinheit_A_66",
    "joint_names": [
        "shoulder_pan_joint",
        "shoulder_lift_joint",
        "elbow_joint",
        "wrist_1_joint",
        "wrist_2_joint",
        "wrist_3_joint"
    ],
    "metrics": {
        "cart_traj_len": 1.492221793187329,
        "distance_elbow_joint": 0.4542480295159934,
        "distance_shoulder_lift_joint": 0.5791348165635855,
        "distance_shoulder_pan_joint": 2.058128582620421,
        "distance_wrist_1_joint": 0.5460550343888976,
        "distance_wrist_2_joint": 0.9808881896196693,
        "distance_wrist_3_joint": 0.722787949970654,
        "smoothness": 1.4625351957355668,
        "time": 0.274388482,
        "traj_len": 2.311112849403772,
        "weighted_distance": 2.8833594515129564
    },
    "planner": "EST",
    "start": {
        "state": {
            "elbow_joint": 2.422574709923281,
            "shoulder_lift_joint": -1.3736533754116391,
            "shoulder_pan_joint": -0.33786336945926293,
            "wrist_1_joint": -1.0288603412921917,
            "wrist_2_joint": 1.2330224858903978,
            "wrist_3_joint": -3.094022268022082
        }
    },
    "waypoints": [
        {
            "positions": [
                -0.33786336945926293,
                -1.3736533754116391,
                2.422574709923281,
                -1.0288603412921917,
                1.2330224858903978,
                -3.094022268022082
            ]
        },
        {
            "positions": [
                -0.4388742209022357,
                -1.443469689106756,
                2.374558442945854,
                -1.0195585423032878,
                1.2800732185193744,
                -3.02551055239415
            ]
        },
        {
            "positions": [
                -0.5398850723452084,
                -1.5132860028018729,
                2.3265421759684273,
                -1.0102567433143839,
                1.3271239511483508,
                -2.956998836766218
            ]
        },
        {
            "positions": [
                -0.6408959237881812,
                -1.5831023164969897,
                2.278525908991,
                -1.00095494432548,
                1.3741746837773274,
                -2.8884871211382865
            ]
        },
        {
            "positions": [
                -0.7419067752311539,
                -1.6529186301921066,
                2.230509642013573,
                -0.991653145336576,
                1.4212254164063038,
                -2.8199754055103545
            ]
        },
        {
            "positions": [
                -0.8429176266741267,
                -1.7227349438872235,
                2.182493375036146,
                -0.9823513463476721,
                1.4682761490352805,
                -2.7514636898824225
            ]
        },
        {
            "positions": [
                -0.6774907354410122,
                -1.7459793062041065,
                2.20397460922598,
                -0.9274728376648708,
                1.3887225309976028,
                -2.7902423720150815
            ]
        },
        {
            "positions": [
                -0.5120638442078977,
                -1.7692236685209892,
                2.225455843415814,
                -0.8725943289820695,
                1.3091689129599253,
                -2.829021054147741
            ]
        },
        {
            "positions": [
                -0.34663695297478314,
                -1.7924680308378722,
                2.246937077605647,
                -0.8177158202992681,
                1.2296152949222476,
                -2.8677997362804
            ]
        },
        {
            "positions": [
                -0.18121006174166865,
                -1.815712393154755,
                2.268418311795481,
                -0.7628373116164668,
                1.1500616768845702,
                -2.906578418413059
            ]
        },
        {
            "positions": [
                -0.015783170508553934,
                -1.838956755471638,
                2.289899545985315,
                -0.7079588029336655,
                1.0705080588468925,
                -2.9453571005457184
            ]
        },
        {
            "positions": [
                0.14964372072456045,
                -1.8622011177885207,
                2.3113807801751487,
                -0.6530802942508642,
                0.990954440809215,
                -2.9841357826783774
            ]
        },
        {
            "positions": [
                0.31507061195767516,
                -1.8854454801054037,
                2.332862014364982,
                -0.5982017855680629,
                0.9114008227715373,
                -3.0229144648110364
            ]
        },
        {
            "positions": [
                0.48049750319078943,
                -1.9086898424222865,
                2.354343248554816,
                -0.5433232768852616,
                0.8318472047338598,
                -3.061693146943696
            ]
        },
        {
            "positions": [
                0.6459243944239041,
                -1.9319342047391694,
                2.3758244827446497,
                -0.4884447682024603,
                0.7522935866961822,
                -3.100471829076355
            ]
        },
        {
            "positions": [
                0.7101566987314306,
                -1.9110802175031143,
                2.3966600696650047,
                -0.48280530690329415,
                0.7226416225604939,
                -3.131693061713417
            ]
        }
    ]
}