{
    "goal": {
        "global_pose": {
            "orientation": {
                "w": -0.00223480608172531,
                "x": 0.0024358444001904467,
                "y": 0.7094548369677653,
                "z": -0.704743149386269
            },
            "position": {
                "x": 0.6205249238014221,
                "y": -0.6371506643295288,
                "z": 0.19426114857196808
            }
        },
        "name": "move_to_magneteinheit_B"
    },
    "id": "EST_move_to_magneteinheit_B_142",
    "joint_names": [
        "shoulder_pan_joint",
        "shoulder_lift_joint",
        "elbow_joint",
        "wrist_1_joint",
        "wrist_2_joint",
        "wrist_3_joint"
    ],
    "metrics": {
        "cart_traj_len": 3.757768003487386,
        "distance_elbow_joint": 5.254648505423258,
        "distance_shoulder_lift_joint": 1.0027614073646474,
        "distance_shoulder_pan_joint": 1.9538404417868076,
        "distance_wrist_1_joint": 2.4988975060689596,
        "distance_wrist_2_joint": 3.097324900637085,
        "distance_wrist_3_joint": 6.278555694873813,
        "smoothness": 0.2633174481726547,
        "time": 2.543709696,
        "traj_len": 4.481743907917382,
        "weighted_distance": 6.18379836771933
    },
    "planner": "EST",
    "start": {
        "state": {
            "elbow_joint": 2.39358713078474,
            "shoulder_lift_joint": -1.908514104345545,
            "shoulder_pan_joint": 0.7066247066606129,
            "wrist_1_joint": -0.4678290933515497,
            "wrist_2_joint": 0.7096259083745334,
            "wrist_3_joint": -3.1358149277392293
        }
    },
    "waypoints": [
        {
            "positions": [
                0.7066247066606129,
                -1.908514104345545,
                2.39358713078474,
                -0.4678290933515497,
                0.7096259083745334,
                -3.1358149277392293
            ]
        },
        {
            "positions": [
                0.7505461821695081,
                -1.930022213296615,
                2.3715722816338354,
                -0.3800905412033214,
                0.6387885955076238,
                -3.033460699353118
            ]
        },
        {
            "positions": [
                0.7944676576784032,
                -1.9515303222476852,
                2.3495574324829307,
                -0.2923519890550931,
                0.5679512826407142,
                -2.9311064709670065
            ]
        },
        {
            "positions": [
                0.8383891331872984,
                -1.9730384311987552,
                2.327542583332026,
                -0.20461343690686473,
                0.4971139697738045,
                -2.828752242580895
            ]
        },
        {
            "positions": [
                0.8617087955250878,
                -1.9613512767911316,
                2.197561625571864,
                -0.24951594359119636,
                0.4441811233436683,
                -2.7038447552539155
            ]
        },
        {
            "positions": [
                0.8850284578628772,
                -1.9496641223835078,
                2.0675806678117015,
                -0.294418450275528,
                0.3912482769135321,
                -2.578937267926936
            ]
        },
        {
            "positions": [
                0.9083481202006667,
                -1.9379769679758843,
                1.9375997100515392,
                -0.3393209569598596,
                0.3383154304833959,
                -2.454029780599957
            ]
        },
        {
            "positions": [
                0.9316677825384561,
                -1.9262898135682605,
                1.807618752291377,
                -0.38422346364419124,
                0.28538258405325967,
                -2.3291222932729774
            ]
        },
        {
            "positions": [
                0.9549874448762455,
                -1.9146026591606369,
                1.6776377945312146,
                -0.42912597032852284,
                0.2324497376231235,
                -2.204214805945998
            ]
        },
        {
            "positions": [
                0.978307107214035,
                -1.902915504753013,
                1.5476568367710524,
                -0.47402847701285444,
                0.1795168911929873,
                -2.0793073186190183
            ]
        },
        {
            "positions": [
                1.0016267695518244,
                -1.8912283503453895,
                1.4176758790108903,
                -0.518930983697186,
                0.12658404476285107,
                -1.9543998312920392
            ]
        },
        {
            "positions": [
                1.0249464318896138,
                -1.8795411959377657,
                1.2876949212507278,
                -0.5638334903815176,
                0.07365119833271488,
                -1.8294923439650597
            ]
        },
        {
            "positions": [
                1.0482660942274034,
                -1.8678540415301421,
                1.1577139634905655,
                -0.6087359970658494,
                0.020718351902578647,
                -1.7045848566380801
            ]
        },
        {
            "positions": [
                1.0715857565651927,
                -1.8561668871225183,
                1.0277330057304033,
                -0.653638503750181,
                -0.032214494527557536,
                -1.5796773693111008
            ]
        },
        {
            "positions": [
                1.0949054189029823,
                -1.8444797327148947,
                0.897752047970241,
                -0.6985410104345127,
                -0.08514734095769372,
                -1.4547698819841213
            ]
        },
        {
            "positions": [
                1.1182250812407717,
                -1.832792578307271,
                0.7677710902100789,
                -0.7434435171188442,
                -0.1380801873878299,
                -1.329862394657142
            ]
        },
        {
            "positions": [
                1.141544743578561,
                -1.8211054238996474,
                0.6377901324499164,
                -0.7883460238031759,
                -0.1910130338179662,
                -1.2049549073301624
            ]
        },
        {
            "positions": [
                1.1648644059163504,
                -1.8094182694920236,
                0.5078091746897544,
                -0.8332485304875075,
                -0.24394588024810238,
                -1.080047420003183
            ]
        },
        {
            "positions": [
                1.18818406825414,
                -1.7977311150844,
                0.3778282169295919,
                -0.8781510371718391,
                -0.29687872667823856,
                -0.9551399326762036
            ]
        },
        {
            "positions": [
                1.2115037305919294,
                -1.7860439606767762,
                0.24784725916942962,
                -0.9230535438561707,
                -0.34981157310837474,
                -0.830232445349224
            ]
        },
        {
            "positions": [
                1.2348233929297188,
                -1.7743568062691526,
                0.11786630140926757,
                -0.9679560505405023,
                -0.4027444195385109,
                -0.7053249580222447
            ]
        },
        {
            "positions": [
                1.2581430552675084,
                -1.7626696518615288,
                -0.012114656350894926,
                -1.0128585572248339,
                -0.4556772659686472,
                -0.5804174706952652
            ]
        },
        {
            "positions": [
                1.2814627176052977,
                -1.7509824974539052,
                -0.14209561411105698,
                -1.0577610639091657,
                -0.5086101123987834,
                -0.45550998336828563
            ]
        },
        {
            "positions": [
                1.304782379943087,
                -1.7392953430462814,
                -0.2720765718712195,
                -1.102663570593497,
                -0.5615429588289196,
                -0.33060249604130654
            ]
        },
        {
            "positions": [
                1.3281020422808765,
                -1.7276081886386578,
                -0.4020575296313815,
                -1.1475660772778287,
                -0.6144758052590558,
                -0.205695008714327
            ]
        },
        {
            "positions": [
                1.351421704618666,
                -1.715921034231034,
                -0.532038487391544,
                -1.1924685839621605,
                -0.667408651689192,
                -0.08078752138734746
            ]
        },
        {
            "positions": [
                1.3747413669564557,
                -1.7042338798234105,
                -0.6620194451517061,
                -1.237371090646492,
                -0.7203414981193281,
                0.04411996593963208
            ]
        },
        {
            "positions": [
                1.398061029294245,
                -1.6925467254157867,
                -0.7920004029118681,
                -1.2822735973308235,
                -0.7732743445494643,
                0.16902745326661117
            ]
        },
        {
            "positions": [
                1.4213806916320344,
                -1.680859571008163,
                -0.9219813606720306,
                -1.3271761040151553,
                -0.8262071909796005,
                0.2939349405935907
            ]
        },
        {
            "positions": [
                1.4447003539698238,
                -1.6691724166005393,
                -1.0519623184321931,
                -1.3720786106994871,
                -0.8791400374097369,
                0.41884242792057025
            ]
        },
        {
            "positions": [
                1.4680200163076131,
                -1.6574852621929157,
                -1.1819432761923552,
                -1.4169811173838185,
                -0.9320728838398731,
                0.5437499152475498
            ]
        },
        {
            "positions": [
                1.4913396786454027,
                -1.645798107785292,
                -1.3119242339525172,
                -1.4618836240681503,
                -0.9850057302700093,
                0.6686574025745289
            ]
        },
        {
            "positions": [
                1.514659340983192,
                -1.6341109533776683,
                -1.4419051917126797,
                -1.5067861307524817,
                -1.0379385767001452,
                0.7935648899015084
            ]
        },
        {
            "positions": [
                1.5379790033209817,
                -1.6224237989700447,
                -1.5718861494728422,
                -1.5516886374368135,
                -1.0908714231302816,
                0.918472377228488
            ]
        },
        {
            "positions": [
                1.561298665658771,
                -1.610736644562421,
                -1.7018671072330047,
                -1.5965911441211451,
                -1.1438042695604178,
                1.0433798645554677
            ]
        },
        {
            "positions": [
                1.6287055552987149,
                -1.61990120646791,
                -1.7811604893871849,
                -1.6681928226354719,
                -1.1842230441850334,
                1.1215353837207849
            ]
        },
        {
            "positions": [
                1.6961124449386586,
                -1.629065768373399,
                -1.860453871541365,
                -1.7397945011497986,
                -1.2246418188096493,
                1.1996909028861018
            ]
        },
        {
            "positions": [
                1.7635193345786022,
                -1.6382303302788879,
                -1.9397472536955453,
                -1.8113961796641254,
                -1.265060593434265,
                1.277846422051419
            ]
        },
        {
            "positions": [
                1.830926224218546,
                -1.6473948921843766,
                -2.0190406358497253,
                -1.8829978581784523,
                -1.3054793680588805,
                1.356001941216736
            ]
        },
        {
            "positions": [
                1.8983331138584898,
                -1.6565594540898656,
                -2.098334018003906,
                -1.954599536692779,
                -1.3458981426834962,
                1.434157460382053
            ]
        },
        {
            "positions": [
                1.9657400034984336,
                -1.6657240159953546,
                -2.177627400158086,
                -2.026201215207106,
                -1.386316917308112,
                1.51231297954737
            ]
        },
        {
            "positions": [
                2.0331468931383774,
                -1.6748885779008436,
                -2.256920782312266,
                -2.0978028937214326,
                -1.4267356919327276,
                1.5904684987126871
            ]
        },
        {
            "positions": [
                2.085423414414131,
                -1.7175371912789001,
                -2.2065757329517455,
                -2.126343926455575,
                -1.3466554169052425,
                1.7198245210811787
            ]
        },
        {
            "positions": [
                2.1376999356898847,
                -1.760185804656957,
                -2.156230683591225,
                -2.154884959189717,
                -1.266575141877757,
                1.8491805434496702
            ]
        },
        {
            "positions": [
                2.1899764569656384,
                -1.8028344180350135,
                -2.105885634230704,
                -2.1834259919238592,
                -1.1864948668502717,
                1.978536565818162
            ]
        },
        {
            "positions": [
                2.2422529782413916,
                -1.8454830314130704,
                -2.0555405848701835,
                -2.2119670246580014,
                -1.1064145918227866,
                2.1078925881866537
            ]
        },
        {
            "positions": [
                2.2945294995171452,
                -1.888131644791127,
                -2.005195535509663,
                -2.2405080573921436,
                -1.0263343167953014,
                2.2372486105551452
            ]
        },
        {
            "positions": [
                2.346806020792899,
                -1.9307802581691837,
                -1.9548504861491423,
                -2.269049090126286,
                -0.946254041767816,
                2.3666046329236368
            ]
        },
        {
            "positions": [
                2.3990825420686526,
                -1.9734288715472403,
                -1.9045054367886216,
                -2.297590122860428,
                -0.8661737667403308,
                2.4959606552921283
            ]
        },
        {
            "positions": [
                2.4513590633444062,
                -2.016077484925297,
                -1.854160387428101,
                -2.3261311555945703,
                -0.7860934917128455,
                2.62531667766062
            ]
        },
        {
            "positions": [
                2.5036355846201594,
                -2.0587260983033535,
                -1.8038153380675803,
                -2.3546721883287125,
                -0.7060132166853602,
                2.7546727000291114
            ]
        },
        {
            "positions": [
                2.5559121058959136,
                -2.1013747116814105,
                -1.7534702887070597,
                -2.3832132210628547,
                -0.6259329416578749,
                2.8840287223976033
            ]
        },
        {
            "positions": [
                2.6081886271716668,
                -2.144023325059467,
                -1.703125239346539,
                -2.411754253796997,
                -0.5458526666303897,
                3.0133847447660944
            ]
        },
        {
            "positions": [
                2.6604651484474204,
                -2.1866719384375237,
                -1.6527801899860184,
                -2.440295286531139,
                -0.4657723916029044,
                3.1427407671345864
            ]
        }
    ]
}