{
    "goal": {
        "global_pose": {
            "orientation": {
                "w": 0.7047431468963623,
                "x": -0.7094548344612122,
                "y": 0.0024358443915843964,
                "z": -0.0022348060738295317
            },
            "position": {
                "x": 0.6094750761985779,
                "y": 0.3671506643295288,
                "z": 0.19426114857196808
            }
        },
        "name": "move_to_magneteinheit_A"
    },
    "id": "EST_move_to_magneteinheit_A_4",
    "joint_names": [
        "shoulder_pan_joint",
        "shoulder_lift_joint",
        "elbow_joint",
        "wrist_1_joint",
        "wrist_2_joint",
        "wrist_3_joint"
    ],
    "metrics": {
        "cart_traj_len": 2.064048148875379,
        "distance_elbow_joint": 3.88070741182237,
        "distance_shoulder_lift_joint": 1.0575620807437909,
        "distance_shoulder_pan_joint": 1.2413287944021618,
        "distance_wrist_1_joint": 1.1504005118444218,
        "distance_wrist_2_joint": 1.433365120695197,
        "distance_wrist_3_joint": 1.922000094206628,
        "smoothness": 6.026925011703896e-16,
        "time": 0.100895837,
        "traj_len": 3.268847505423673,
        "weighted_distance": 4.136801884870419
    },
    "planner": "EST",
    "start": {
        "state": {
            "elbow_joint": -1.919643507792019,
            "shoulder_lift_joint": -0.07675430207160344,
            "shoulder_pan_joint": -1.1188671864651873,
            "wrist_1_joint": 0.42560062535961957,
            "wrist_2_joint": 1.5706038300724876,
            "wrist_3_joint": 1.1188968870953055
        }
    },
    "waypoints": [
        {
            "positions": [
                -1.1188671864651873,
                -0.07675430207160344,
                -1.919643507792019,
                0.42560062535961957,
                1.5706038300724876,
                1.1188968870953055
            ]
        },
        {
            "positions": [
                -1.072892045931774,
                -0.11592326802507719,
                -1.77591360365045,
                0.38299319899501133,
                1.5175162330097025,
                1.190082075769625
            ]
        },
        {
            "positions": [
                -1.0269169053983604,
                -0.15509223397855093,
                -1.6321836995088805,
                0.34038577263040315,
                1.4644286359469174,
                1.2612672644439447
            ]
        },
        {
            "positions": [
                -0.9809417648649472,
                -0.19426119993202465,
                -1.4884537953673114,
                0.2977783462657949,
                1.4113410388841323,
                1.3324524531182642
            ]
        },
        {
            "positions": [
                -0.9349666243315338,
                -0.2334301658854984,
                -1.3447238912257422,
                0.2551709199011867,
                1.3582534418213474,
                1.4036376417925838
            ]
        },
        {
            "positions": [
                -0.8889914837981203,
                -0.2725991318389721,
                -1.2009939870841728,
                0.2125634935365785,
                1.3051658447585623,
                1.4748228304669033
            ]
        },
        {
            "positions": [
                -0.843016343264707,
                -0.31176809779244585,
                -1.0572640829426034,
                0.16995606717197026,
                1.2520782476957772,
                1.5460080191412229
            ]
        },
        {
            "positions": [
                -0.7970412027312936,
                -0.3509370637459196,
                -0.9135341788010343,
                0.12734864080736208,
                1.1989906506329921,
                1.6171932078155424
            ]
        },
        {
            "positions": [
                -0.7510660621978802,
                -0.39010602969939334,
                -0.7698042746594651,
                0.08474121444275384,
                1.145903053570207,
                1.688378396489862
            ]
        },
        {
            "positions": [
                -0.7050909216644667,
                -0.42927499565286703,
                -0.6260743705178957,
                0.04213378807814566,
                1.092815456507422,
                1.7595635851641815
            ]
        },
        {
            "positions": [
                -0.6591157811310533,
                -0.4684439616063408,
                -0.48234446637632655,
                -0.00047363828646257433,
                1.0397278594446369,
                1.830748773838501
            ]
        },
        {
            "positions": [
                -0.61314064059764,
                -0.5076129275598145,
                -0.3386145622347574,
                -0.043081064651070755,
                0.9866402623818519,
                1.9019339625128207
            ]
        },
        {
            "positions": [
                -0.5671655000642266,
                -0.5467818935132882,
                -0.194884658093188,
                -0.08568849101567905,
                0.9335526653190668,
                1.9731191511871402
            ]
        },
        {
            "positions": [
                -0.5211903595308132,
                -0.585950859466762,
                -0.05115475395161884,
                -0.12829591738028717,
                0.8804650682562817,
                2.0443043398614598
            ]
        },
        {
            "positions": [
                -0.4752152189973998,
                -0.6251198254202357,
                0.09257515018995055,
                -0.1709033437448954,
                0.8273774711934966,
                2.1154895285357793
            ]
        },
        {
            "positions": [
                -0.42924007846398626,
                -0.6642887913737094,
                0.23630505433152016,
                -0.21351077010950364,
                0.7742898741307115,
                2.186674717210099
            ]
        },
        {
            "positions": [
                -0.3832649379305729,
                -0.7034577573271832,
                0.3800349584730889,
                -0.2561181964741119,
                0.7212022770679265,
                2.2578599058844184
            ]
        },
        {
            "positions": [
                -0.3372897973971595,
                -0.7426267232806569,
                0.5237648626146585,
                -0.2987256228387201,
                0.6681146800051414,
                2.329045094558738
            ]
        },
        {
            "positions": [
                -0.29131465686374614,
                -0.7817956892341307,
                0.6674947667562277,
                -0.34133304920332824,
                0.6150270829423563,
                2.4002302832330575
            ]
        },
        {
            "positions": [
                -0.24533951633033269,
                -0.8209646551876044,
                0.8112246708977968,
                -0.3839404755679366,
                0.5619394858795712,
                2.471415471907377
            ]
        },
        {
            "positions": [
                -0.19936437579691935,
                -0.8601336211410782,
                0.954954575039366,
                -0.4265479019325447,
                0.5088518888167861,
                2.5426006605816966
            ]
        },
        {
            "positions": [
                -0.1533892352635059,
                -0.8993025870945519,
                1.0986844791809356,
                -0.46915532829715295,
                0.455764291754001,
                2.613785849256016
            ]
        },
        {
            "positions": [
                -0.10741409473009256,
                -0.9384715530480257,
                1.2424143833225043,
                -0.5117627546617611,
                0.40267669469121614,
                2.6849710379303358
            ]
        },
        {
            "positions": [
                -0.06143895419667911,
                -0.9776405190014994,
                1.386144287464074,
                -0.5543701810263695,
                0.34958909762843104,
                2.7561562266046553
            ]
        },
        {
            "positions": [
                -0.01546381366326588,
                -1.0168094849549731,
                1.529874191605643,
                -0.5969776073909776,
                0.29650150056564595,
                2.827341415278975
            ]
        },
        {
            "positions": [
                0.03051132687014757,
                -1.0559784509084469,
                1.6736040957472127,
                -0.6395850337555857,
                0.24341390350286085,
                2.8985266039532944
            ]
        },
        {
            "positions": [
                0.07648646740356102,
                -1.0951474168619206,
                1.8173339998887814,
                -0.6821924601201939,
                0.19032630644007575,
                2.969711792627614
            ]
        },
        {
            "positions": [
                0.1224616079369745,
                -1.1343163828153944,
                1.9610639040303508,
                -0.7247998864848023,
                0.1372387093772907,
                3.0408969813019335
            ]
        }
    ]
}