{
    "goal": {
        "global_pose": {
            "orientation": {
                "w": -0.00223480608172531,
                "x": 0.0024358444001904467,
                "y": 0.7094548369677653,
                "z": -0.704743149386269
            },
            "position": {
                "x": 0.6205249238014221,
                "y": -0.6371506643295288,
                "z": 0.19426114857196808
            }
        },
        "name": "move_to_magneteinheit_B"
    },
    "id": "EST_move_to_magneteinheit_B_139",
    "joint_names": [
        "shoulder_pan_joint",
        "shoulder_lift_joint",
        "elbow_joint",
        "wrist_1_joint",
        "wrist_2_joint",
        "wrist_3_joint"
    ],
    "metrics": {
        "cart_traj_len": 3.929796707623589,
        "distance_elbow_joint": 4.941714305838527,
        "distance_shoulder_lift_joint": 0.8269800948458488,
        "distance_shoulder_pan_joint": 2.1387306035374367,
        "distance_wrist_1_joint": 2.045743591194035,
        "distance_wrist_2_joint": 2.3886451891373,
        "distance_wrist_3_joint": 6.672230803863728,
        "smoothness": 0.5129112271654175,
        "time": 0.168525771,
        "traj_len": 4.360509670717045,
        "weighted_distance": 6.065714712750319
    },
    "planner": "EST",
    "start": {
        "state": {
            "elbow_joint": 2.39358713078474,
            "shoulder_lift_joint": -1.908514104345545,
            "shoulder_pan_joint": 0.7066247066606129,
            "wrist_1_joint": -0.4678290933515497,
            "wrist_2_joint": 0.7096259083745334,
            "wrist_3_joint": -3.1358149277392293
        }
    },
    "waypoints": [
        {
            "positions": [
                0.7066247066606129,
                -1.908514104345545,
                2.39358713078474,
                -0.4678290933515497,
                0.7096259083745334,
                -3.1358149277392293
            ]
        },
        {
            "positions": [
                0.7382907712401976,
                -1.9361147169027908,
                2.408594437900728,
                -0.5345153343072001,
                0.6244258644471279,
                -3.114785108068651
            ]
        },
        {
            "positions": [
                0.8110372550411508,
                -1.8883084528735306,
                2.3881772398946524,
                -0.5226763278327098,
                0.539887900757242,
                -3.1819549688958193
            ]
        },
        {
            "positions": [
                0.8837837388421038,
                -1.8405021888442703,
                2.3677600418885763,
                -0.5108373213582196,
                0.4553499370673562,
                -3.2491248297229873
            ]
        },
        {
            "positions": [
                0.956530222643057,
                -1.79269592481501,
                2.3473428438825006,
                -0.49899831488372925,
                0.37081197337747035,
                -3.316294690550156
            ]
        },
        {
            "positions": [
                1.0128159913583696,
                -1.7874235971465766,
                2.1758917025233138,
                -0.5189082806335173,
                0.39505139531946315,
                -3.2096110517607266
            ]
        },
        {
            "positions": [
                1.0691017600736823,
                -1.7821512694781432,
                2.004440561164127,
                -0.5388182463833056,
                0.41929081726145595,
                -3.102927412971297
            ]
        },
        {
            "positions": [
                1.1253875287889947,
                -1.77687894180971,
                1.8329894198049401,
                -0.5587282121330936,
                0.4435302392034487,
                -2.9962437741818677
            ]
        },
        {
            "positions": [
                1.1816732975043074,
                -1.7716066141412765,
                1.6615382784457533,
                -0.5786381778828817,
                0.4677696611454415,
                -2.889560135392438
            ]
        },
        {
            "positions": [
                1.23795906621962,
                -1.766334286472843,
                1.4900871370865663,
                -0.59854814363267,
                0.4920090830874343,
                -2.782876496603009
            ]
        },
        {
            "positions": [
                1.2942448349349327,
                -1.7610619588044096,
                1.3186359957273794,
                -0.618458109382458,
                0.5162485050294271,
                -2.6761928578135796
            ]
        },
        {
            "positions": [
                1.3505306036502454,
                -1.7557896311359764,
                1.1471848543681924,
                -0.6383680751322461,
                0.5404879269714199,
                -2.56950921902415
            ]
        },
        {
            "positions": [
                1.406816372365558,
                -1.750517303467543,
                0.9757337130090058,
                -0.6582780408820343,
                0.5647273489134127,
                -2.4628255802347208
            ]
        },
        {
            "positions": [
                1.4631021410808704,
                -1.7452449757991095,
                0.804282571649819,
                -0.6781880066318224,
                0.5889667708554055,
                -2.3561419414452915
            ]
        },
        {
            "positions": [
                1.519387909796183,
                -1.739972648130676,
                0.6328314302906319,
                -0.6980979723816105,
                0.6132061927973983,
                -2.249458302655862
            ]
        },
        {
            "positions": [
                1.5756736785114958,
                -1.7347003204622429,
                0.4613802889314451,
                -0.7180079381313986,
                0.637445614739391,
                -2.1427746638664327
            ]
        },
        {
            "positions": [
                1.6319594472268082,
                -1.7294279927938094,
                0.2899291475722583,
                -0.7379179038811868,
                0.6616850366813838,
                -2.0360910250770035
            ]
        },
        {
            "positions": [
                1.6882452159421208,
                -1.724155665125376,
                0.11847800621307147,
                -0.7578278696309749,
                0.6859244586233766,
                -1.9294073862875738
            ]
        },
        {
            "positions": [
                1.7445309846574335,
                -1.7188833374569426,
                -0.05297313514611579,
                -0.7777378353807631,
                0.7101638805653694,
                -1.8227237474981444
            ]
        },
        {
            "positions": [
                1.8008167533727462,
                -1.7136110097885093,
                -0.22442427650530217,
                -0.7976478011305512,
                0.7344033025073622,
                -1.7160401087087152
            ]
        },
        {
            "positions": [
                1.8571025220880588,
                -1.708338682120076,
                -0.395875417864489,
                -0.8175577668803393,
                0.758642724449355,
                -1.6093564699192857
            ]
        },
        {
            "positions": [
                1.9133882908033715,
                -1.7030663544516425,
                -0.5673265592236763,
                -0.8374677326301274,
                0.7828821463913478,
                -1.5026728311298563
            ]
        },
        {
            "positions": [
                1.969674059518684,
                -1.697794026783209,
                -0.7387777005828626,
                -0.8573776983799155,
                0.8071215683333406,
                -1.395989192340427
            ]
        },
        {
            "positions": [
                2.0259598282339963,
                -1.6925216991147758,
                -0.9102288419420499,
                -0.8772876641297037,
                0.8313609902753334,
                -1.2893055535509976
            ]
        },
        {
            "positions": [
                2.082245596949309,
                -1.6872493714463423,
                -1.0816799833012367,
                -0.8971976298794919,
                0.8556004122173262,
                -1.1826219147615684
            ]
        },
        {
            "positions": [
                2.1385313656646217,
                -1.681977043777909,
                -1.253131124660423,
                -0.91710759562928,
                0.879839834159319,
                -1.0759382759721392
            ]
        },
        {
            "positions": [
                2.1948171343799343,
                -1.6767047161094755,
                -1.4245822660196104,
                -0.9370175613790681,
                0.9040792561013118,
                -0.9692546371827095
            ]
        },
        {
            "positions": [
                2.251102903095247,
                -1.6714323884410422,
                -1.5960334073787972,
                -0.9569275271288562,
                0.9283186780433046,
                -0.8625709983932799
            ]
        },
        {
            "positions": [
                2.3073886718105596,
                -1.6661600607726088,
                -1.767484548737984,
                -0.9768374928786443,
                0.9525580999852974,
                -0.7558873596038511
            ]
        },
        {
            "positions": [
                2.3636744405258723,
                -1.6608877331041754,
                -1.938935690097171,
                -0.9967474586284325,
                0.9767975219272902,
                -0.6492037208144212
            ]
        },
        {
            "positions": [
                2.3915106055813884,
                -1.6927512558359763,
                -1.908046538772451,
                -1.0737971563017168,
                0.9279989557672572,
                -0.48664313778860147
            ]
        },
        {
            "positions": [
                2.4193467706369045,
                -1.724614778567777,
                -1.8771573874477308,
                -1.1508468539750012,
                0.8792003896072241,
                -0.32408255476278175
            ]
        },
        {
            "positions": [
                2.4471829356924206,
                -1.756478301299578,
                -1.8462682361230107,
                -1.2278965516482856,
                0.830401823447191,
                -0.16152197173696198
            ]
        },
        {
            "positions": [
                2.4750191007479367,
                -1.7883418240313789,
                -1.8153790847982907,
                -1.3049462493215698,
                0.7816032572871581,
                0.0010386112888577381
            ]
        },
        {
            "positions": [
                2.502855265803453,
                -1.8202053467631798,
                -1.7844899334735707,
                -1.3819959469948542,
                0.7328046911271251,
                0.1635991943146775
            ]
        },
        {
            "positions": [
                2.530691430858969,
                -1.8520688694949805,
                -1.7536007821488504,
                -1.4590456446681386,
                0.684006124967092,
                0.3261597773404973
            ]
        },
        {
            "positions": [
                2.5585275959144846,
                -1.8839323922267814,
                -1.7227116308241304,
                -1.5360953423414228,
                0.6352075588070589,
                0.48872036036631705
            ]
        },
        {
            "positions": [
                2.5863637609700008,
                -1.9157959149585824,
                -1.6918224794994103,
                -1.6131450400147072,
                0.586408992647026,
                0.6512809433921367
            ]
        },
        {
            "positions": [
                2.614199926025517,
                -1.9476594376903833,
                -1.66093332817469,
                -1.6901947376879916,
                0.5376104264869929,
                0.8138415264179566
            ]
        },
        {
            "positions": [
                2.642036091081033,
                -1.979522960422184,
                -1.63004417684997,
                -1.7672444353612757,
                0.4888118603269599,
                0.9764021094437763
            ]
        },
        {
            "positions": [
                2.669872256136549,
                -2.0113864831539847,
                -1.59915502552525,
                -1.8442941330345604,
                0.4400132941669269,
                1.1389626924695961
            ]
        },
        {
            "positions": [
                2.697708421192065,
                -2.0432500058857856,
                -1.56826587420053,
                -1.9213438307078445,
                0.39121472800689383,
                1.3015232754954158
            ]
        },
        {
            "positions": [
                2.7255445862475813,
                -2.0751135286175866,
                -1.5373767228758097,
                -1.9983935283811287,
                0.34241616184686074,
                1.4640838585212357
            ]
        },
        {
            "positions": [
                2.7533807513030975,
                -2.1069770513493875,
                -1.5064875715510897,
                -2.0754432260544133,
                0.29361759568682777,
                1.6266444415470553
            ]
        },
        {
            "positions": [
                2.748911318292629,
                -2.1222210523731295,
                -1.5242015836820113,
                -2.1319148865794015,
                0.1979480720121115,
                1.831569117981113
            ]
        },
        {
            "positions": [
                2.74444188528216,
                -2.137465053396872,
                -1.5419155958129331,
                -2.1883865471043897,
                0.10227854833739525,
                2.0364937944151706
            ]
        },
        {
            "positions": [
                2.7399724522716915,
                -2.1527090544206144,
                -1.5596296079438547,
                -2.244858207629378,
                0.006609024662678986,
                2.2414184708492284
            ]
        },
        {
            "positions": [
                2.735503019261223,
                -2.1679530554443565,
                -1.5773436200747764,
                -2.301329868154366,
                -0.08906049901203728,
                2.446343147283286
            ]
        },
        {
            "positions": [
                2.7169788125479535,
                -2.172224849481808,
                -1.5963117959884943,
                -2.3366320625404353,
                -0.18355742017480964,
                2.6181065382528375
            ]
        },
        {
            "positions": [
                2.698454605834684,
                -2.1764966435192594,
                -1.6152799719022122,
                -2.3719342569265045,
                -0.278054341337582,
                2.7898699292223883
            ]
        },
        {
            "positions": [
                2.6799303991214147,
                -2.1807684375567113,
                -1.63424814781593,
                -2.4072364513125737,
                -0.37255126250035436,
                2.9616333201919396
            ]
        },
        {
            "positions": [
                2.6614061924081454,
                -2.185040231594163,
                -1.653216323729648,
                -2.442538645698643,
                -0.4670481836631267,
                3.133396711161491
            ]
        }
    ]
}