{
    "goal": {
        "global_pose": {
            "orientation": {
                "w": 0.7031023502349854,
                "x": -0.7110244035720825,
                "y": 0.007748599164187908,
                "z": 0.005598929710686207
            },
            "position": {
                "x": 0.11585023208521307,
                "y": 0.44412534475326537,
                "z": 0.3711530566215515
            }
        },
        "name": "move_to_auspresseinheit_A"
    },
    "id": "EST_move_to_auspresseinheit_A_85",
    "joint_names": [
        "shoulder_pan_joint",
        "shoulder_lift_joint",
        "elbow_joint",
        "wrist_1_joint",
        "wrist_2_joint",
        "wrist_3_joint"
    ],
    "metrics": {
        "cart_traj_len": 0.6939736386997815,
        "distance_elbow_joint": 0.0924125546843424,
        "distance_shoulder_lift_joint": 0.5361153659652593,
        "distance_shoulder_pan_joint": 1.0914617685771497,
        "distance_wrist_1_joint": 0.5510829936772296,
        "distance_wrist_2_joint": 0.5175898972299084,
        "distance_wrist_3_joint": 0.33836575775743016,
        "smoothness": 0.5312471213846305,
        "time": 0.053248927,
        "traj_len": 1.7683405604948723,
        "weighted_distance": 2.207358771091215
    },
    "planner": "EST",
    "start": {
        "state": {
            "elbow_joint": 2.422574709923281,
            "shoulder_lift_joint": -1.3736533754116391,
            "shoulder_pan_joint": -0.33786336945926293,
            "wrist_1_joint": -1.0288603412921917,
            "wrist_2_joint": 1.2330224858903978,
            "wrist_3_joint": -3.094022268022082
        }
    },
    "waypoints": [
        {
            "positions": [
                -0.33786336945926293,
                -1.3736533754116391,
                2.422574709923281,
                -1.0288603412921917,
                1.2330224858903978,
                -3.094022268022082
            ]
        },
        {
            "positions": [
                -0.3600839788965513,
                -1.3981146589320435,
                2.4551948000108164,
                -1.0040236234575526,
                1.185319372347031,
                -2.9406360816249775
            ]
        },
        {
            "positions": [
                -0.22642883400406866,
                -1.4620714192376503,
                2.4477207419362155,
                -0.9382428389772288,
                1.1265835243862132,
                -2.9637585280450183
            ]
        },
        {
            "positions": [
                -0.09277368911158601,
                -1.5260281795432573,
                2.4402466838616146,
                -0.872462054496905,
                1.0678476764253957,
                -2.986880974465059
            ]
        },
        {
            "positions": [
                0.040881455780896636,
                -1.5899849398488641,
                2.4327726257870137,
                -0.8066812700165812,
                1.009111828464578,
                -3.0100034208850994
            ]
        },
        {
            "positions": [
                0.17453660067337928,
                -1.653941700154471,
                2.425298567712413,
                -0.7409004855362573,
                0.9503759805037602,
                -3.0331258673051402
            ]
        },
        {
            "positions": [
                0.30819174556586193,
                -1.7178984604600778,
                2.417824509637812,
                -0.6751197010559336,
                0.8916401325429424,
                -3.056248313725181
            ]
        },
        {
            "positions": [
                0.4418468904583446,
                -1.7818552207656846,
                2.410350451563211,
                -0.6093389165756098,
                0.8329042845821247,
                -3.0793707601452214
            ]
        },
        {
            "positions": [
                0.5755020353508272,
                -1.8458119810712916,
                2.40287639348861,
                -0.543558132095286,
                0.7741684366213071,
                -3.102493206565262
            ]
        },
        {
            "positions": [
                0.70915718024331,
                -1.9097687413768984,
                2.3954023354140093,
                -0.47777734761496216,
                0.7154325886604893,
                -3.125615652985303
            ]
        }
    ]
}