{
    "goal": {
        "global_pose": {
            "orientation": {
                "w": 0.7047431468963623,
                "x": -0.7094548344612122,
                "y": 0.0024358443915843964,
                "z": -0.0022348060738295317
            },
            "position": {
                "x": 0.6094750761985779,
                "y": 0.3671506643295288,
                "z": 0.19426114857196808
            }
        },
        "name": "move_to_magneteinheit_A"
    },
    "id": "EST_move_to_magneteinheit_A_67",
    "joint_names": [
        "shoulder_pan_joint",
        "shoulder_lift_joint",
        "elbow_joint",
        "wrist_1_joint",
        "wrist_2_joint",
        "wrist_3_joint"
    ],
    "metrics": {
        "cart_traj_len": 2.063712980753398,
        "distance_elbow_joint": 3.8757178415619387,
        "distance_shoulder_lift_joint": 1.0535978836069668,
        "distance_shoulder_pan_joint": 1.2413563985249145,
        "distance_wrist_1_joint": 1.1370077879990337,
        "distance_wrist_2_joint": 1.4459927225150022,
        "distance_wrist_3_joint": 1.908272399802474,
        "smoothness": 2.2204460578853453e-16,
        "time": 0.059917202,
        "traj_len": 3.2652633942777625,
        "weighted_distance": 4.130555694350256
    },
    "planner": "EST",
    "start": {
        "state": {
            "elbow_joint": -1.919643507792019,
            "shoulder_lift_joint": -0.07675430207160344,
            "shoulder_pan_joint": -1.1188671864651873,
            "wrist_1_joint": 0.42560062535961957,
            "wrist_2_joint": 1.5706038300724876,
            "wrist_3_joint": 1.1188968870953055
        }
    },
    "waypoints": [
        {
            "positions": [
                -1.1188671864651873,
                -0.07675430207160344,
                -1.919643507792019,
                0.42560062535961957,
                1.5706038300724876,
                1.1188968870953055
            ]
        },
        {
            "positions": [
                -1.0728910235568572,
                -0.11577644590889852,
                -1.7760984025489843,
                0.38348922580409983,
                1.5170485440534134,
                1.1895736426435453
            ]
        },
        {
            "positions": [
                -1.026914860648527,
                -0.1547985897461936,
                -1.6325532973059496,
                0.34137782624858004,
                1.4634932580343394,
                1.260250398191785
            ]
        },
        {
            "positions": [
                -0.9809386977401968,
                -0.19382073358348864,
                -1.4890081920629148,
                0.29926642669306025,
                1.4099379720152652,
                1.330927153740025
            ]
        },
        {
            "positions": [
                -0.9349625348318666,
                -0.23284287742078372,
                -1.34546308681988,
                0.2571550271375405,
                1.356382685996191,
                1.4016039092882646
            ]
        },
        {
            "positions": [
                -0.8889863719235365,
                -0.27186502125807877,
                -1.2019179815768453,
                0.21504362758202075,
                1.302827399977117,
                1.4722806648365045
            ]
        },
        {
            "positions": [
                -0.8430102090152063,
                -0.31088716509537384,
                -1.0583728763338105,
                0.172932228026501,
                1.2492721139580427,
                1.5429574203847443
            ]
        },
        {
            "positions": [
                -0.7970340461068761,
                -0.3499093089326689,
                -0.9148277710907757,
                0.1308208284709812,
                1.1957168279389685,
                1.613634175932984
            ]
        },
        {
            "positions": [
                -0.751057883198546,
                -0.388931452769964,
                -0.771282665847741,
                0.08870942891546146,
                1.1421615419198945,
                1.6843109314812237
            ]
        },
        {
            "positions": [
                -0.7050817202902159,
                -0.427953596607259,
                -0.6277375606047062,
                0.04659802935994167,
                1.0886062559008203,
                1.7549876870294634
            ]
        },
        {
            "positions": [
                -0.6591055573818857,
                -0.4669757404445541,
                -0.48419245536167144,
                0.004486629804421938,
                1.035050969881746,
                1.8256644425777033
            ]
        },
        {
            "positions": [
                -0.6131293944735555,
                -0.5059978842818491,
                -0.34064735011863667,
                -0.03762476975109785,
                0.9814956838626719,
                1.896341198125943
            ]
        },
        {
            "positions": [
                -0.5671532315652253,
                -0.5450200281191442,
                -0.1971022448756019,
                -0.07973616930661759,
                0.9279403978435977,
                1.967017953674183
            ]
        },
        {
            "positions": [
                -0.5211770686568952,
                -0.5840421719564393,
                -0.05355713963256714,
                -0.12184756886213738,
                0.8743851118245236,
                2.0376947092224227
            ]
        },
        {
            "positions": [
                -0.475200905748565,
                -0.6230643157937343,
                0.08998796561046762,
                -0.16395896841765717,
                0.8208298258054495,
                2.1083714647706624
            ]
        },
        {
            "positions": [
                -0.4292247428402348,
                -0.6620864596310294,
                0.2335330708535024,
                -0.20607036797317696,
                0.7672745397863753,
                2.1790482203189026
            ]
        },
        {
            "positions": [
                -0.38324857993190475,
                -0.7011086034683245,
                0.37707817609653715,
                -0.24818176752869664,
                0.7137192537673012,
                2.249724975867142
            ]
        },
        {
            "positions": [
                -0.33727241702357447,
                -0.7401307473056196,
                0.5206232813395719,
                -0.29029316708421643,
                0.6601639677482269,
                2.320401731415382
            ]
        },
        {
            "positions": [
                -0.2912962541152444,
                -0.7791528911429146,
                0.6641683865826067,
                -0.3324045666397362,
                0.6066086817291528,
                2.3910784869636217
            ]
        },
        {
            "positions": [
                -0.24532009120691411,
                -0.8181750349802097,
                0.8077134918256414,
                -0.374515966195256,
                0.5530533957100787,
                2.4617552425118614
            ]
        },
        {
            "positions": [
                -0.19934392829858405,
                -0.8571971788175048,
                0.9512585970686762,
                -0.4166273657507757,
                0.4994981096910045,
                2.532431998060101
            ]
        },
        {
            "positions": [
                -0.15336776539025376,
                -0.8962193226547999,
                1.094803702311711,
                -0.4587387653062955,
                0.4459428236719303,
                2.603108753608341
            ]
        },
        {
            "positions": [
                -0.1073916024819237,
                -0.9352414664920949,
                1.2383488075547457,
                -0.5008501648618153,
                0.3923875376528563,
                2.6737855091565805
            ]
        },
        {
            "positions": [
                -0.06141543957359352,
                -0.97426361032939,
                1.3818939127977805,
                -0.5429615644173351,
                0.33883225163378206,
                2.7444622647048202
            ]
        },
        {
            "positions": [
                -0.015439276665263346,
                -1.013285754166685,
                1.5254390180408153,
                -0.5850729639728547,
                0.28527696561470783,
                2.81513902025306
            ]
        },
        {
            "positions": [
                0.03053688624306683,
                -1.0523078980039802,
                1.66898412328385,
                -0.6271843635283745,
                0.2317216795956336,
                2.8858157758012997
            ]
        },
        {
            "positions": [
                0.076513049151397,
                -1.0913300418412752,
                1.8125292285268848,
                -0.6692957630838943,
                0.1781663935765596,
                2.9564925313495394
            ]
        },
        {
            "positions": [
                0.12248921205972714,
                -1.1303521856785703,
                1.9560743337699196,
                -0.7114071626394141,
                0.12461110755748545,
                3.0271692868977795
            ]
        }
    ]
}