{
    "goal": {
        "global_pose": {
            "orientation": {
                "w": 0.7047431468963623,
                "x": -0.7094548344612122,
                "y": 0.0024358443915843964,
                "z": -0.0022348060738295317
            },
            "position": {
                "x": 0.6094750761985779,
                "y": 0.3671506643295288,
                "z": 0.19426114857196808
            }
        },
        "name": "move_to_magneteinheit_A"
    },
    "id": "EST_move_to_magneteinheit_A_34",
    "joint_names": [
        "shoulder_pan_joint",
        "shoulder_lift_joint",
        "elbow_joint",
        "wrist_1_joint",
        "wrist_2_joint",
        "wrist_3_joint"
    ],
    "metrics": {
        "cart_traj_len": 1.879775517946043,
        "distance_elbow_joint": 3.907532799747523,
        "distance_shoulder_lift_joint": 0.6987421714342607,
        "distance_shoulder_pan_joint": 1.2403940459093707,
        "distance_wrist_1_joint": 1.4815419668886325,
        "distance_wrist_2_joint": 1.6905201172951971,
        "distance_wrist_3_joint": 1.0972627438585503,
        "smoothness": 3.289549710083688e-16,
        "time": 0.158893959,
        "traj_len": 3.180565019793423,
        "weighted_distance": 3.93479115291199
    },
    "planner": "EST",
    "start": {
        "state": {
            "elbow_joint": -1.919643507792019,
            "shoulder_lift_joint": -0.07675430207160344,
            "shoulder_pan_joint": -1.1188671864651873,
            "wrist_1_joint": 0.42560062535961957,
            "wrist_2_joint": 1.5706038300724876,
            "wrist_3_joint": 1.1188968870953055
        }
    },
    "waypoints": [
        {
            "positions": [
                -1.1188671864651873,
                -0.07675430207160344,
                -1.919643507792019,
                0.42560062535961957,
                1.5706038300724876,
                1.1188968870953055
            ]
        },
        {
            "positions": [
                -1.0711597231609808,
                -0.10362900097292116,
                -1.7693537847248066,
                0.48258300870149007,
                1.5055838255611338,
                1.0766944738699766
            ]
        },
        {
            "positions": [
                -1.0234522598567741,
                -0.13050369987423888,
                -1.6190640616575942,
                0.5395653920433605,
                1.4405638210497802,
                1.0344920606446477
            ]
        },
        {
            "positions": [
                -0.9757447965525676,
                -0.1573783987755566,
                -1.4687743385903818,
                0.5965477753852311,
                1.3755438165384264,
                0.992289647419319
            ]
        },
        {
            "positions": [
                -0.9280373332483611,
                -0.18425309767687434,
                -1.3184846155231693,
                0.6535301587271015,
                1.3105238120270726,
                0.9500872341939901
            ]
        },
        {
            "positions": [
                -0.8803298699441545,
                -0.21112779657819206,
                -1.1681948924559569,
                0.710512542068972,
                1.245503807515719,
                0.9078848209686612
            ]
        },
        {
            "positions": [
                -0.8326224066399479,
                -0.23800249547950977,
                -1.0179051693887444,
                0.7674949254108425,
                1.1804838030043652,
                0.8656824077433324
            ]
        },
        {
            "positions": [
                -0.7849149433357414,
                -0.26487719438082746,
                -0.8676154463215322,
                0.8244773087527129,
                1.1154637984930114,
                0.8234799945180036
            ]
        },
        {
            "positions": [
                -0.7372074800315348,
                -0.29175189328214524,
                -0.7173257232543195,
                0.8814596920945834,
                1.0504437939816578,
                0.7812775812926747
            ]
        },
        {
            "positions": [
                -0.6895000167273282,
                -0.3186265921834629,
                -0.5670360001871073,
                0.938442075436454,
                0.985423789470304,
                0.7390751680673459
            ]
        },
        {
            "positions": [
                -0.6417925534231217,
                -0.34550129108478067,
                -0.41674627711989465,
                0.9954244587783243,
                0.9204037849589503,
                0.6968727548420169
            ]
        },
        {
            "positions": [
                -0.5940850901189151,
                -0.3723759899860984,
                -0.2664565540526824,
                1.0524068421201949,
                0.8553837804475966,
                0.6546703416166881
            ]
        },
        {
            "positions": [
                -0.5463776268147085,
                -0.3992506888874161,
                -0.11616683098546976,
                1.1093892254620654,
                0.7903637759362427,
                0.6124679283913592
            ]
        },
        {
            "positions": [
                -0.498670163510502,
                -0.4261253877887338,
                0.03412289208174246,
                1.1663716088039358,
                0.725343771424889,
                0.5702655151660304
            ]
        },
        {
            "positions": [
                -0.4509627002062955,
                -0.45300008669005154,
                0.18441261514895468,
                1.2233539921458063,
                0.6603237669135353,
                0.5280631019407016
            ]
        },
        {
            "positions": [
                -0.40325523690208886,
                -0.47987478559136926,
                0.3347023382161669,
                1.2803363754876766,
                0.5953037624021816,
                0.4858606887153728
            ]
        },
        {
            "positions": [
                -0.35554777359788226,
                -0.506749484492687,
                0.48499206128338,
                1.3373187588295472,
                0.5302837578908277,
                0.4436582754900438
            ]
        },
        {
            "positions": [
                -0.30784031029367565,
                -0.5336241833940047,
                0.6352817843505922,
                1.3943011421714178,
                0.4652637533794741,
                0.40145586226471497
            ]
        },
        {
            "positions": [
                -0.26013284698946915,
                -0.5604988822953224,
                0.7855715074178045,
                1.4512835255132883,
                0.4002437488681203,
                0.35925344903938616
            ]
        },
        {
            "positions": [
                -0.21242538368526265,
                -0.5873735811966401,
                0.9358612304850167,
                1.5082659088551587,
                0.3352237443567667,
                0.31705103581405736
            ]
        },
        {
            "positions": [
                -0.16471792038105593,
                -0.6142482800979578,
                1.0861509535522298,
                1.5652482921970292,
                0.2702037398454129,
                0.27484862258872833
            ]
        },
        {
            "positions": [
                -0.11701045707684932,
                -0.6411229789992756,
                1.236440676619442,
                1.6222306755388998,
                0.2051837353340591,
                0.23264620936339953
            ]
        },
        {
            "positions": [
                -0.06930299377264282,
                -0.6679976779005934,
                1.3867303996866542,
                1.67921305888077,
                0.1401637308227055,
                0.19044379613807072
            ]
        },
        {
            "positions": [
                -0.02159553046843632,
                -0.6948723768019109,
                1.5370201227538665,
                1.7361954422226407,
                0.07514372631135169,
                0.14824138291274191
            ]
        },
        {
            "positions": [
                0.0261119328357704,
                -0.7217470757032287,
                1.6873098458210796,
                1.7931778255645112,
                0.010123721799997876,
                0.10603896968741289
            ]
        },
        {
            "positions": [
                0.0738193961399769,
                -0.7486217746045465,
                1.8375995688882918,
                1.8501602089063818,
                -0.05489628271135594,
                0.06383655646208419
            ]
        },
        {
            "positions": [
                0.12152685944418348,
                -0.7754964735058641,
                1.987889291955504,
                1.9071425922482521,
                -0.1199162872227095,
                0.021634143236755336
            ]
        }
    ]
}