{
    "goal": {
        "global_pose": {
            "orientation": {
                "w": -0.00223480608172531,
                "x": 0.0024358444001904467,
                "y": 0.7094548369677653,
                "z": -0.704743149386269
            },
            "position": {
                "x": 0.6205249238014221,
                "y": -0.6371506643295288,
                "z": 0.19426114857196808
            }
        },
        "name": "move_to_magneteinheit_B"
    },
    "id": "EST_move_to_magneteinheit_B_90",
    "joint_names": [
        "shoulder_pan_joint",
        "shoulder_lift_joint",
        "elbow_joint",
        "wrist_1_joint",
        "wrist_2_joint",
        "wrist_3_joint"
    ],
    "metrics": {
        "cart_traj_len": 1.4532647209187246,
        "distance_elbow_joint": 0.7307341941807104,
        "distance_shoulder_lift_joint": 1.2482374293647864,
        "distance_shoulder_pan_joint": 1.6204614057693396,
        "distance_wrist_1_joint": 2.6089637959547334,
        "distance_wrist_2_joint": 2.942929884879877,
        "distance_wrist_3_joint": 3.130509077747351,
        "smoothness": 4.996003619058102e-16,
        "time": 0.21534349000000003,
        "traj_len": 3.5045450186717244,
        "weighted_distance": 4.9086400992765915
    },
    "planner": "EST",
    "start": {
        "state": {
            "elbow_joint": 2.39358713078474,
            "shoulder_lift_joint": -1.908514104345545,
            "shoulder_pan_joint": 0.7066247066606129,
            "wrist_1_joint": -0.4678290933515497,
            "wrist_2_joint": 0.7096259083745334,
            "wrist_3_joint": -3.1358149277392293
        }
    },
    "waypoints": [
        {
            "positions": [
                0.7066247066606129,
                -1.908514104345545,
                2.39358713078474,
                -0.4678290933515497,
                0.7096259083745334,
                -3.1358149277392293
            ]
        },
        {
            "positions": [
                0.6543517580874084,
                -1.8682483808176487,
                2.370015060004717,
                -0.383668970901397,
                0.6146926862816342,
                -3.0348307639409278
            ]
        },
        {
            "positions": [
                0.6020788095142039,
                -1.8279826572897522,
                2.3464429892246943,
                -0.29950884845124437,
                0.5197594641887349,
                -2.933846600142626
            ]
        },
        {
            "positions": [
                0.5498058609409995,
                -1.787716933761856,
                2.3228709184446714,
                -0.21534872600109167,
                0.4248262420958357,
                -2.832862436344324
            ]
        },
        {
            "positions": [
                0.49753291236779495,
                -1.7474512102339597,
                2.2992988476646485,
                -0.13118860355093898,
                0.3298930200029364,
                -2.7318782725460227
            ]
        },
        {
            "positions": [
                0.44525996379459043,
                -1.7071854867060632,
                2.2757267768846257,
                -0.04702848110078628,
                0.23495979791003718,
                -2.630894108747721
            ]
        },
        {
            "positions": [
                0.3929870152213859,
                -1.666919763178167,
                2.2521547061046023,
                0.03713164134936636,
                0.14002657581713795,
                -2.5299099449494196
            ]
        },
        {
            "positions": [
                0.34071406664818144,
                -1.6266540396502704,
                2.2285826353245795,
                0.12129176379951906,
                0.04509335372423873,
                -2.4289257811511176
            ]
        },
        {
            "positions": [
                0.2884411180749769,
                -1.5863883161223742,
                2.2050105645445566,
                0.20545188624967176,
                -0.04983986836866061,
                -2.327941617352816
            ]
        },
        {
            "positions": [
                0.23616816950177238,
                -1.546122592594478,
                2.1814384937645337,
                0.28961200869982456,
                -0.14477309046155995,
                -2.2269574535545145
            ]
        },
        {
            "positions": [
                0.18389522092856792,
                -1.5058568690665814,
                2.157866422984511,
                0.37377213114997715,
                -0.23970631255445907,
                -2.125973289756213
            ]
        },
        {
            "positions": [
                0.1316222723553634,
                -1.4655911455386852,
                2.134294352204488,
                0.45793225360012996,
                -0.3346395346473584,
                -2.0249891259579114
            ]
        },
        {
            "positions": [
                0.07934932378215886,
                -1.425325422010789,
                2.110722281424465,
                0.5420923760502825,
                -0.4295727567402575,
                -1.9240049621596096
            ]
        },
        {
            "positions": [
                0.02707637520895434,
                -1.3850596984828925,
                2.087150210644442,
                0.6262524985004354,
                -0.5245059788331569,
                -1.8230207983613078
            ]
        },
        {
            "positions": [
                -0.025196573364250074,
                -1.3447939749549962,
                2.0635781398644193,
                0.7104126209505879,
                -0.619439200926056,
                -1.7220366345630063
            ]
        },
        {
            "positions": [
                -0.0774695219374546,
                -1.3045282514271,
                2.0400060690843964,
                0.7945727434007408,
                -0.7143724230189553,
                -1.6210524707647045
            ]
        },
        {
            "positions": [
                -0.12974247051065912,
                -1.2642625278992035,
                2.0164339983043735,
                0.8787328658508933,
                -0.8093056451118547,
                -1.520068306966403
            ]
        },
        {
            "positions": [
                -0.18201541908386354,
                -1.2239968043713072,
                1.9928619275243507,
                0.962892988301046,
                -0.9042388672047538,
                -1.4190841431681014
            ]
        },
        {
            "positions": [
                -0.23428836765706818,
                -1.183731080843411,
                1.9692898567443275,
                1.047053110751199,
                -0.9991720892976533,
                -1.3180999793697994
            ]
        },
        {
            "positions": [
                -0.2865613162302726,
                -1.1434653573155145,
                1.9457177859643047,
                1.1312132332013516,
                -1.0941053113905523,
                -1.2171158155714978
            ]
        },
        {
            "positions": [
                -0.3388342648034771,
                -1.1031996337876182,
                1.9221457151842818,
                1.215373355651504,
                -1.1890385334834517,
                -1.1161316517731965
            ]
        },
        {
            "positions": [
                -0.39110721337668164,
                -1.062933910259722,
                1.898573644404259,
                1.2995334781016568,
                -1.2839717555763506,
                -1.015147487974895
            ]
        },
        {
            "positions": [
                -0.44338016194988616,
                -1.0226681867318255,
                1.8750015736242358,
                1.3836936005518097,
                -1.3789049776692504,
                -0.914163324176593
            ]
        },
        {
            "positions": [
                -0.4956531105230907,
                -0.9824024632039292,
                1.851429502844213,
                1.4678537230019622,
                -1.4738381997621497,
                -0.8131791603782914
            ]
        },
        {
            "positions": [
                -0.5479260590962952,
                -0.9421367396760328,
                1.82785743206419,
                1.5520138454521146,
                -1.5687714218550486,
                -0.7121949965799899
            ]
        },
        {
            "positions": [
                -0.6001990076694995,
                -0.9018710161481365,
                1.8042853612841672,
                1.6361739679022675,
                -1.663704643947948,
                -0.6112108327816883
            ]
        },
        {
            "positions": [
                -0.6524719562427043,
                -0.8616052926202402,
                1.7807132905041443,
                1.7203340903524205,
                -1.7586378660408473,
                -0.5102266689833863
            ]
        },
        {
            "positions": [
                -0.7047449048159086,
                -0.8213395690923437,
                1.7571412197241214,
                1.804494212802573,
                -1.8535710881337466,
                -0.40924250518508476
            ]
        },
        {
            "positions": [
                -0.7570178533891131,
                -0.7810738455644475,
                1.7335691489440985,
                1.8886543352527254,
                -1.9485043102266455,
                -0.3082583413867832
            ]
        },
        {
            "positions": [
                -0.8092908019623176,
                -0.7408081220365512,
                1.7099970781640756,
                1.9728144577028783,
                -2.043437532319545,
                -0.20727417758848166
            ]
        },
        {
            "positions": [
                -0.8615637505355221,
                -0.7005423985086547,
                1.6864250073840525,
                2.0569745801530313,
                -2.138370754412444,
                -0.10629001379017966
            ]
        },
        {
            "positions": [
                -0.9138366991087266,
                -0.6602766749807585,
                1.6628529366040297,
                2.1411347026031837,
                -2.2333039765053435,
                -0.005305849991878059
            ]
        }
    ]
}