{
    "goal": {
        "global_pose": {
            "orientation": {
                "w": 0.5084816217422485,
                "x": -0.49083608388900757,
                "y": 0.5182115435600281,
                "z": -0.4816462993621826
            },
            "position": {
                "x": 0.5540239810943604,
                "y": 0.030875300988554955,
                "z": 0.16403168439865112
            }
        },
        "name": "move_to_storage_A"
    },
    "id": "EST_move_to_storage_A_45",
    "joint_names": [
        "shoulder_pan_joint",
        "shoulder_lift_joint",
        "elbow_joint",
        "wrist_1_joint",
        "wrist_2_joint",
        "wrist_3_joint"
    ],
    "metrics": {
        "cart_traj_len": 0.3538893599144711,
        "distance_elbow_joint": 0.4501544714852699,
        "distance_shoulder_lift_joint": 0.2354723567468726,
        "distance_shoulder_pan_joint": 0.465294668288824,
        "distance_wrist_1_joint": 0.23845927951340984,
        "distance_wrist_2_joint": 1.0902944919984168,
        "distance_wrist_3_joint": 0.09709684961667131,
        "smoothness": 2.2204460668324854e-16,
        "time": 0.085992476,
        "traj_len": 1.6052327300580014,
        "weighted_distance": 2.024776429237222
    },
    "planner": "EST",
    "start": {
        "state": {
            "elbow_joint": 1.9715463870305268,
            "shoulder_lift_joint": -1.1394903361783484,
            "shoulder_pan_joint": 0.12281147578464417,
            "wrist_1_joint": -0.7804599489681411,
            "wrist_2_joint": 0.12958660307563738,
            "wrist_3_joint": -3.1924946282119055
        }
    },
    "waypoints": [
        {
            "positions": [
                0.12281147578464417,
                -1.1394903361783484,
                1.9715463870305268,
                -0.7804599489681411,
                0.12958660307563738,
                -3.1924946282119055
            ]
        },
        {
            "positions": [
                0.056340808886240754,
                -1.1731292442850445,
                2.0358541686712797,
                -0.8145255603271996,
                0.2853429590754112,
                -3.178623649695238
            ]
        },
        {
            "positions": [
                -0.010129858012162665,
                -1.2067681523917406,
                2.1001619503120326,
                -0.8485911716862582,
                0.44109931507518496,
                -3.164752671178571
            ]
        },
        {
            "positions": [
                -0.07660052491056608,
                -1.2404070604984367,
                2.1644697319527855,
                -0.8826567830453167,
                0.5968556710749588,
                -3.1508816926619034
            ]
        },
        {
            "positions": [
                -0.1430711918089695,
                -1.2740459686051326,
                2.228777513593538,
                -0.9167223944043753,
                0.7526120270747326,
                -3.1370107141452364
            ]
        },
        {
            "positions": [
                -0.20954185870737296,
                -1.3076848767118288,
                2.293085295234291,
                -0.9507880057634338,
                0.9083683830745065,
                -3.123139735628569
            ]
        },
        {
            "positions": [
                -0.2760125256057763,
                -1.3413237848185249,
                2.3573930768750437,
                -0.9848536171224924,
                1.0641247390742803,
                -3.1092687571119018
            ]
        },
        {
            "positions": [
                -0.3424831925041798,
                -1.374962692925221,
                2.4217008585157966,
                -1.018919228481551,
                1.2198810950740542,
                -3.0953977785952342
            ]
        }
    ]
}