{
    "goal": {
        "global_pose": {
            "orientation": {
                "w": -0.00223480608172531,
                "x": 0.0024358444001904467,
                "y": 0.7094548369677653,
                "z": -0.704743149386269
            },
            "position": {
                "x": 0.6205249238014221,
                "y": -0.6371506643295288,
                "z": 0.19426114857196808
            }
        },
        "name": "move_to_magneteinheit_B"
    },
    "id": "EST_move_to_magneteinheit_B_44",
    "joint_names": [
        "shoulder_pan_joint",
        "shoulder_lift_joint",
        "elbow_joint",
        "wrist_1_joint",
        "wrist_2_joint",
        "wrist_3_joint"
    ],
    "metrics": {
        "cart_traj_len": 1.45379277904408,
        "distance_elbow_joint": 0.7341473331370358,
        "distance_shoulder_lift_joint": 1.2500032985013891,
        "distance_shoulder_pan_joint": 1.6199616279554143,
        "distance_wrist_1_joint": 2.6050022399913675,
        "distance_wrist_2_joint": 2.944577816846155,
        "distance_wrist_3_joint": 3.1239264236049715,
        "smoothness": 8.326672719306828e-16,
        "time": 0.110283053,
        "traj_len": 3.503943312902812,
        "weighted_distance": 4.906633432821714
    },
    "planner": "EST",
    "start": {
        "state": {
            "elbow_joint": 2.39358713078474,
            "shoulder_lift_joint": -1.908514104345545,
            "shoulder_pan_joint": 0.7066247066606129,
            "wrist_1_joint": -0.4678290933515497,
            "wrist_2_joint": 0.7096259083745334,
            "wrist_3_joint": -3.1358149277392293
        }
    },
    "waypoints": [
        {
            "positions": [
                0.7066247066606129,
                -1.908514104345545,
                2.39358713078474,
                -0.4678290933515497,
                0.7096259083745334,
                -3.1358149277392293
            ]
        },
        {
            "positions": [
                0.6543678799523738,
                -1.868191417297113,
                2.3699049587480614,
                -0.38379676302924753,
                0.6146395271859478,
                -3.03504310762294
            ]
        },
        {
            "positions": [
                0.6021110532441346,
                -1.8278687302486811,
                2.3462227867113827,
                -0.29976443270694536,
                0.5196531459973621,
                -2.9342712875066503
            ]
        },
        {
            "positions": [
                0.5498542265358954,
                -1.7875460432002492,
                2.3225406146747045,
                -0.2157321023846432,
                0.4246667648087765,
                -2.8334994673903613
            ]
        },
        {
            "positions": [
                0.4975973998276563,
                -1.7472233561518173,
                2.298858442638026,
                -0.13169977206234101,
                0.32968038362019086,
                -2.732727647274072
            ]
        },
        {
            "positions": [
                0.4453405731194171,
                -1.7069006691033854,
                2.275176270601347,
                -0.04766744174003884,
                0.2346940024316052,
                -2.6319558271577823
            ]
        },
        {
            "positions": [
                0.39308374641117794,
                -1.6665779820549536,
                2.2514940985646685,
                0.03636488858226333,
                0.1397076212430196,
                -2.531184007041493
            ]
        },
        {
            "positions": [
                0.34082691970293877,
                -1.6262552950065214,
                2.22781192652799,
                0.1203972189045655,
                0.0447212400544339,
                -2.4304121869252038
            ]
        },
        {
            "positions": [
                0.2885700929946996,
                -1.5859326079580898,
                2.2041297544913117,
                0.20442954922686768,
                -0.0502651411341517,
                -2.3296403668089143
            ]
        },
        {
            "positions": [
                0.23631326628646038,
                -1.5456099209096577,
                2.180447582454633,
                0.28846187954916996,
                -0.14525152232273741,
                -2.228868546692625
            ]
        },
        {
            "positions": [
                0.18405643957822126,
                -1.505287233861226,
                2.1567654104179543,
                0.372494209871472,
                -0.24023790351132301,
                -2.1280967265763353
            ]
        },
        {
            "positions": [
                0.13179961286998199,
                -1.4649645468127939,
                2.1330832383812757,
                0.4565265401937743,
                -0.3352242846999086,
                -2.027324906460046
            ]
        },
        {
            "positions": [
                0.07954278616174293,
                -1.424641859764362,
                2.109401066344597,
                0.5405588705160764,
                -0.4302106658884942,
                -1.9265530863437565
            ]
        },
        {
            "positions": [
                0.02728595945350365,
                -1.38431917271593,
                2.0857188943079183,
                0.6245912008383787,
                -0.52519704707708,
                -1.825781266227467
            ]
        },
        {
            "positions": [
                -0.024970867254735407,
                -1.3439964856674982,
                2.06203672227124,
                0.7086235311606808,
                -0.6201834282656656,
                -1.7250094461111778
            ]
        },
        {
            "positions": [
                -0.07722769396297469,
                -1.3036737986190663,
                2.0383545502345615,
                0.7926558614829831,
                -0.7151698094542512,
                -1.6242376259948883
            ]
        },
        {
            "positions": [
                -0.12948452067121374,
                -1.2633511115706344,
                2.014672378197883,
                0.8766881918052851,
                -0.8101561906428368,
                -1.5234658058785988
            ]
        },
        {
            "positions": [
                -0.1817413473794529,
                -1.2230284245222025,
                1.9909902061612044,
                0.9607205221275872,
                -0.9051425718314224,
                -1.4226939857623095
            ]
        },
        {
            "positions": [
                -0.2339981740876922,
                -1.1827057374737704,
                1.9673080341245257,
                1.0447528524498897,
                -1.0001289530200084,
                -1.3219221656460198
            ]
        },
        {
            "positions": [
                -0.28625500079593136,
                -1.1423830504253387,
                1.943625862087847,
                1.1287851827721918,
                -1.095115334208594,
                -1.2211503455297306
            ]
        },
        {
            "positions": [
                -0.3385118275041704,
                -1.1020603633769068,
                1.9199436900511686,
                1.2128175130944938,
                -1.1901017153971796,
                -1.1203785254134413
            ]
        },
        {
            "positions": [
                -0.39076865421240947,
                -1.061737676328475,
                1.89626151801449,
                1.2968498434167959,
                -1.2850880965857647,
                -1.0196067052971518
            ]
        },
        {
            "positions": [
                -0.443025480920649,
                -1.0214149892800428,
                1.8725793459778113,
                1.3808821737390984,
                -1.3800744777743508,
                -0.9188348851808623
            ]
        },
        {
            "positions": [
                -0.49528230762888803,
                -0.981092302231611,
                1.8488971739411328,
                1.4649145040614004,
                -1.4750608589629364,
                -0.8180630650645728
            ]
        },
        {
            "positions": [
                -0.5475391343371271,
                -0.9407696151831791,
                1.8252150019044544,
                1.5489468343837025,
                -1.570047240151522,
                -0.7172912449482838
            ]
        },
        {
            "positions": [
                -0.5997959610453664,
                -0.9004469281347474,
                1.8015328298677757,
                1.6329791647060046,
                -1.6650336213401076,
                -0.6165194248319943
            ]
        },
        {
            "positions": [
                -0.6520527877536056,
                -0.8601242410863152,
                1.777850657831097,
                1.717011495028307,
                -1.7600200025286936,
                -0.5157476047157048
            ]
        },
        {
            "positions": [
                -0.7043096144618447,
                -0.8198015540378834,
                1.7541684857944184,
                1.8010438253506091,
                -1.8550063837172792,
                -0.4149757845994153
            ]
        },
        {
            "positions": [
                -0.7565664411700838,
                -0.7794788669894515,
                1.73048631375774,
                1.8850761556729112,
                -1.9499927649058648,
                -0.31420396448312626
            ]
        },
        {
            "positions": [
                -0.808823267878323,
                -0.7391561799410196,
                1.7068041417210615,
                1.9691084859952133,
                -2.04497914609445,
                -0.21343214436683677
            ]
        },
        {
            "positions": [
                -0.8610800945865623,
                -0.6988334928925877,
                1.6831219696843829,
                2.0531408163175158,
                -2.139965527283036,
                -0.11266032425054728
            ]
        },
        {
            "positions": [
                -0.9133369212948013,
                -0.6585108058441558,
                1.6594397976477042,
                2.137173146639818,
                -2.2349519084716216,
                -0.011888504134257705
            ]
        }
    ]
}