{
    "goal": {
        "global_pose": {
            "orientation": {
                "w": 0.7031023502349854,
                "x": -0.7110244035720825,
                "y": 0.007748599164187908,
                "z": 0.005598929710686207
            },
            "position": {
                "x": 0.11585023208521307,
                "y": 0.44412534475326537,
                "z": 0.3711530566215515
            }
        },
        "name": "move_to_auspresseinheit_A"
    },
    "id": "EST_move_to_auspresseinheit_A_113",
    "joint_names": [
        "shoulder_pan_joint",
        "shoulder_lift_joint",
        "elbow_joint",
        "wrist_1_joint",
        "wrist_2_joint",
        "wrist_3_joint"
    ],
    "metrics": {
        "cart_traj_len": 2.6353037163439197,
        "distance_elbow_joint": 4.286945051852291,
        "distance_shoulder_lift_joint": 0.5384792353257171,
        "distance_shoulder_pan_joint": 1.0407801900311031,
        "distance_wrist_1_joint": 3.056862530742453,
        "distance_wrist_2_joint": 0.6951939284812064,
        "distance_wrist_3_joint": 2.3907727815278483,
        "smoothness": 0.736200464613346,
        "time": 0.45801859100000003,
        "traj_len": 3.4654052747060646,
        "weighted_distance": 4.532398453384253
    },
    "planner": "EST",
    "start": {
        "state": {
            "elbow_joint": 2.422574709923281,
            "shoulder_lift_joint": -1.3736533754116391,
            "shoulder_pan_joint": -0.33786336945926293,
            "wrist_1_joint": -1.0288603412921917,
            "wrist_2_joint": 1.2330224858903978,
            "wrist_3_joint": -3.094022268022082
        }
    },
    "waypoints": [
        {
            "positions": [
                -0.33786336945926293,
                -1.3736533754116391,
                2.422574709923281,
                -1.0288603412921917,
                1.2330224858903978,
                -3.094022268022082
            ]
        },
        {
            "positions": [
                -0.2966571626504033,
                -1.3874987527916536,
                2.295602386627241,
                -0.9222479858289312,
                1.2092961784624947,
                -3.0249103582100894
            ]
        },
        {
            "positions": [
                -0.2554509558415437,
                -1.401344130171668,
                2.1686300633312015,
                -0.8156356303656705,
                1.1855698710345917,
                -2.9557984483980966
            ]
        },
        {
            "positions": [
                -0.21424474903268412,
                -1.4151895075516825,
                2.0416577400351614,
                -0.7090232749024099,
                1.1618435636066886,
                -2.886686538586104
            ]
        },
        {
            "positions": [
                -0.1730385422238245,
                -1.429034884931697,
                1.9146854167391218,
                -0.6024109194391494,
                1.1381172561787856,
                -2.8175746287741115
            ]
        },
        {
            "positions": [
                -0.13183233541496492,
                -1.4428802623117114,
                1.7877130934430818,
                -0.49579856397588873,
                1.1143909487508825,
                -2.7484627189621187
            ]
        },
        {
            "positions": [
                -0.0906261286061053,
                -1.4567256396917259,
                1.6607407701470418,
                -0.3891862085126282,
                1.0906646413229795,
                -2.679350809150126
            ]
        },
        {
            "positions": [
                -0.04941992179724569,
                -1.4705710170717403,
                1.5337684468510022,
                -0.28257385304936766,
                1.0669383338950764,
                -2.610238899338133
            ]
        },
        {
            "positions": [
                -0.008213714988386078,
                -1.4844163944517548,
                1.4067961235549624,
                -0.17596149758610702,
                1.0432120264671734,
                -2.5411269895261404
            ]
        },
        {
            "positions": [
                0.03299249182047348,
                -1.498261771831769,
                1.2798238002589224,
                -0.06934914212284649,
                1.0194857190392703,
                -2.4720150797141476
            ]
        },
        {
            "positions": [
                0.07419869862933309,
                -1.5121071492117835,
                1.1528514769628826,
                0.03726321334041427,
                0.9957594116113672,
                -2.402903169902155
            ]
        },
        {
            "positions": [
                0.1154049054381927,
                -1.525952526591798,
                1.0258791536668428,
                0.1438755688036748,
                0.972033104183464,
                -2.3337912600901625
            ]
        },
        {
            "positions": [
                0.15661111224705232,
                -1.5397979039718124,
                0.8989068303708028,
                0.25048792426693534,
                0.948306796755561,
                -2.2646793502781697
            ]
        },
        {
            "positions": [
                0.19781731905591188,
                -1.5536432813518268,
                0.7719345070747632,
                0.35710027973019587,
                0.9245804893276579,
                -2.195567440466177
            ]
        },
        {
            "positions": [
                0.23902352586477155,
                -1.5674886587318413,
                0.6449621837787234,
                0.4637126351934564,
                0.9008541818997549,
                -2.126455530654184
            ]
        },
        {
            "positions": [
                0.2802297326736311,
                -1.5813340361118557,
                0.5179898604826836,
                0.5703249906567169,
                0.8771278744718518,
                -2.0573436208421914
            ]
        },
        {
            "positions": [
                0.3214359394824908,
                -1.5951794134918702,
                0.3910175371866438,
                0.6769373461199777,
                0.8534015670439488,
                -1.9882317110301988
            ]
        },
        {
            "positions": [
                0.3626421462913504,
                -1.6090247908718847,
                0.26404521389060376,
                0.7835497015832382,
                0.8296752596160457,
                -1.919119801218206
            ]
        },
        {
            "positions": [
                0.36861960232193824,
                -1.639043488292831,
                0.4585657758029241,
                0.7409962815644053,
                0.8085400137805364,
                -1.998347407802526
            ]
        },
        {
            "positions": [
                0.37459705835252616,
                -1.6690621857137775,
                0.6530863377152445,
                0.6984428615455724,
                0.787404767945027,
                -2.077575014386846
            ]
        },
        {
            "positions": [
                0.380574514383114,
                -1.6990808831347237,
                0.8476068996275649,
                0.6558894415267394,
                0.7662695221095177,
                -2.156802620971166
            ]
        },
        {
            "positions": [
                0.38655197041370193,
                -1.7290995805556701,
                1.0421274615398852,
                0.6133360215079066,
                0.7451342762740083,
                -2.236030227555486
            ]
        },
        {
            "positions": [
                0.3925294264442898,
                -1.7591182779766166,
                1.2366480234522057,
                0.5707826014890737,
                0.723999030438499,
                -2.315257834139806
            ]
        },
        {
            "positions": [
                0.39850688247487764,
                -1.789136975397563,
                1.431168585364526,
                0.5282291814702407,
                0.7028637846029897,
                -2.394485440724126
            ]
        },
        {
            "positions": [
                0.40448433850546556,
                -1.8191556728185092,
                1.6256891472768464,
                0.48567576145140784,
                0.6817285387674803,
                -2.473713047308446
            ]
        },
        {
            "positions": [
                0.4104617945360534,
                -1.8491743702394556,
                1.820209709189167,
                0.4431223414325749,
                0.660593292931971,
                -2.552940653892766
            ]
        },
        {
            "positions": [
                0.41643925056664133,
                -1.879193067660402,
                2.014730271101487,
                0.40056892141374195,
                0.6394580470964616,
                -2.632168260477086
            ]
        },
        {
            "positions": [
                0.4224167065972292,
                -1.9092117650813485,
                2.2092508330138076,
                0.35801550139490906,
                0.6183228012609523,
                -2.7113958670614062
            ]
        },
        {
            "positions": [
                0.4785167293921514,
                -1.9086275959501469,
                2.2458928203530895,
                0.1942318438591702,
                0.6344216500313045,
                -2.7961147168375606
            ]
        },
        {
            "positions": [
                0.5346167521870737,
                -1.9080434268189455,
                2.2825348076923713,
                0.030448186323431325,
                0.6505204988016566,
                -2.880833566613715
            ]
        },
        {
            "positions": [
                0.5907167749819959,
                -1.9074592576877438,
                2.3191767950316535,
                -0.13333547121230743,
                0.6666193475720089,
                -2.9655524163898694
            ]
        },
        {
            "positions": [
                0.6468167977769181,
                -1.9068750885565424,
                2.3558187823709353,
                -0.2971191287480464,
                0.6827181963423611,
                -3.050271266166024
            ]
        },
        {
            "positions": [
                0.7029168205718404,
                -1.9062909194253408,
                2.392460769710217,
                -0.46090278628378517,
                0.6988170451127133,
                -3.1349901159421782
            ]
        }
    ]
}