{
    "goal": {
        "global_pose": {
            "orientation": {
                "w": 0.5084816217422485,
                "x": -0.49083608388900757,
                "y": 0.5182115435600281,
                "z": -0.4816462993621826
            },
            "position": {
                "x": 0.5540239810943604,
                "y": 0.030875300988554955,
                "z": 0.16403168439865112
            }
        },
        "name": "move_to_storage_A"
    },
    "id": "EST_move_to_storage_A_135",
    "joint_names": [
        "shoulder_pan_joint",
        "shoulder_lift_joint",
        "elbow_joint",
        "wrist_1_joint",
        "wrist_2_joint",
        "wrist_3_joint"
    ],
    "metrics": {
        "cart_traj_len": 0.3530723850135037,
        "distance_elbow_joint": 0.45195943463844435,
        "distance_shoulder_lift_joint": 0.23415648161794778,
        "distance_shoulder_pan_joint": 0.45953319640477724,
        "distance_wrist_1_joint": 0.2555781942871044,
        "distance_wrist_2_joint": 1.1078164877496657,
        "distance_wrist_3_joint": 0.10074130514999924,
        "smoothness": 4.440892098500626e-16,
        "time": 0.07313916200000001,
        "traj_len": 1.6154829308438818,
        "weighted_distance": 2.0431990583848427
    },
    "planner": "EST",
    "start": {
        "state": {
            "elbow_joint": 1.9715463870305268,
            "shoulder_lift_joint": -1.1394903361783484,
            "shoulder_pan_joint": 0.12281147578464417,
            "wrist_1_joint": -0.7804599489681411,
            "wrist_2_joint": 0.12958660307563738,
            "wrist_3_joint": -3.1924946282119055
        }
    },
    "waypoints": [
        {
            "positions": [
                0.12281147578464417,
                -1.1394903361783484,
                1.9715463870305268,
                -0.7804599489681411,
                0.12958660307563738,
                -3.1924946282119055
            ]
        },
        {
            "positions": [
                0.05716387629824743,
                -1.1729412621237696,
                2.0361120205503047,
                -0.8169711195805845,
                0.28784610132558963,
                -3.1781030131904773
            ]
        },
        {
            "positions": [
                -0.008483723188149314,
                -1.2063921880691906,
                2.1006776540700822,
                -0.853482290193028,
                0.44610559957554186,
                -3.1637113981690486
            ]
        },
        {
            "positions": [
                -0.07413132267454607,
                -1.2398431140146118,
                2.16524328758986,
                -0.8899934608054715,
                0.6043650978254941,
                -3.1493197831476203
            ]
        },
        {
            "positions": [
                -0.1397789221609428,
                -1.2732940399600328,
                2.2298089211096377,
                -0.9265046314179151,
                0.7626245960754463,
                -3.1349281681261916
            ]
        },
        {
            "positions": [
                -0.20542652164733954,
                -1.306744965905454,
                2.2943745546294156,
                -0.9630158020303585,
                0.9208840943253986,
                -3.1205365531047633
            ]
        },
        {
            "positions": [
                -0.2710741211337363,
                -1.340195891850875,
                2.358940188149193,
                -0.999526972642802,
                1.0791435925753508,
                -3.1061449380833346
            ]
        },
        {
            "positions": [
                -0.33672172062013306,
                -1.3736468177962962,
                2.423505821668971,
                -1.0360381432552455,
                1.237403090825303,
                -3.0917533230619063
            ]
        }
    ]
}