{
    "goal": {
        "global_pose": {
            "orientation": {
                "w": 0.7047431468963623,
                "x": -0.7094548344612122,
                "y": 0.0024358443915843964,
                "z": -0.0022348060738295317
            },
            "position": {
                "x": 0.6094750761985779,
                "y": 0.3671506643295288,
                "z": 0.19426114857196808
            }
        },
        "name": "move_to_magneteinheit_A"
    },
    "id": "EST_move_to_magneteinheit_A_117",
    "joint_names": [
        "shoulder_pan_joint",
        "shoulder_lift_joint",
        "elbow_joint",
        "wrist_1_joint",
        "wrist_2_joint",
        "wrist_3_joint"
    ],
    "metrics": {
        "cart_traj_len": 2.0622393396906307,
        "distance_elbow_joint": 3.870635855571988,
        "distance_shoulder_lift_joint": 1.051450721722296,
        "distance_shoulder_pan_joint": 1.2420704024196056,
        "distance_wrist_1_joint": 1.1172102665958485,
        "distance_wrist_2_joint": 1.4491217942373351,
        "distance_wrist_3_joint": 1.8838658168164155,
        "smoothness": 1.5860328959332069e-16,
        "time": 0.124045115,
        "traj_len": 3.2579679030591273,
        "weighted_distance": 4.116845704156217
    },
    "planner": "EST",
    "start": {
        "state": {
            "elbow_joint": -1.919643507792019,
            "shoulder_lift_joint": -0.07675430207160344,
            "shoulder_pan_joint": -1.1188671864651873,
            "wrist_1_joint": 0.42560062535961957,
            "wrist_2_joint": 1.5706038300724876,
            "wrist_3_joint": 1.1188968870953055
        }
    },
    "waypoints": [
        {
            "positions": [
                -1.1188671864651873,
                -0.07675430207160344,
                -1.919643507792019,
                0.42560062535961957,
                1.5706038300724876,
                1.1188968870953055
            ]
        },
        {
            "positions": [
                -1.072864578968165,
                -0.11569692139465143,
                -1.7762866242523159,
                0.3842224673375511,
                1.516932652508142,
                1.188669695125543
            ]
        },
        {
            "positions": [
                -1.0268619714711424,
                -0.15463954071769942,
                -1.6329297407126127,
                0.34284430931548265,
                1.4632614749437962,
                1.2584425031557807
            ]
        },
        {
            "positions": [
                -0.9808593639741201,
                -0.1935821600407474,
                -1.4895728571729094,
                0.3014661512934142,
                1.4095902973794503,
                1.3282153111860184
            ]
        },
        {
            "positions": [
                -0.9348567564770977,
                -0.23252477936379543,
                -1.346215973633206,
                0.2600879932713457,
                1.3559191198151046,
                1.397988119216256
            ]
        },
        {
            "positions": [
                -0.8888541489800752,
                -0.27146739868684344,
                -1.202859090093503,
                0.21870983524927726,
                1.302247942250759,
                1.4677609272464935
            ]
        },
        {
            "positions": [
                -0.8428515414830527,
                -0.31041001800989143,
                -1.0595022065537996,
                0.1773316772272088,
                1.2485767646864132,
                1.5375337352767313
            ]
        },
        {
            "positions": [
                -0.7968489339860303,
                -0.3493526373329394,
                -0.9161453230140963,
                0.13595351920514032,
                1.1949055871220673,
                1.6073065433069689
            ]
        },
        {
            "positions": [
                -0.750846326489008,
                -0.3882952566559874,
                -0.7727884394743931,
                0.09457536118307186,
                1.1412344095577216,
                1.6770793513372064
            ]
        },
        {
            "positions": [
                -0.7048437189919855,
                -0.4272378759790354,
                -0.6294315559346899,
                0.053197203161003404,
                1.087563231993376,
                1.746852159367444
            ]
        },
        {
            "positions": [
                -0.658841111494963,
                -0.4661804953020834,
                -0.4860746723949867,
                0.011819045138934947,
                1.0338920544290302,
                1.8166249673976815
            ]
        },
        {
            "positions": [
                -0.6128385039979406,
                -0.5051231146251314,
                -0.34271778885528326,
                -0.02955911288313351,
                0.9802208768646844,
                1.8863977754279193
            ]
        },
        {
            "positions": [
                -0.5668358965009181,
                -0.5440657339481794,
                -0.19936090531558004,
                -0.07093727090520197,
                0.9265496993003387,
                1.9561705834581569
            ]
        },
        {
            "positions": [
                -0.5208332890038958,
                -0.5830083532712274,
                -0.05600402177587682,
                -0.11231542892727048,
                0.872878521735993,
                2.0259433914883944
            ]
        },
        {
            "positions": [
                -0.47483068150687335,
                -0.6219509725942753,
                0.0873528617638264,
                -0.15369358694933893,
                0.8192073441716472,
                2.095716199518632
            ]
        },
        {
            "positions": [
                -0.4288280740098509,
                -0.6608935919173233,
                0.23070974530352983,
                -0.1950717449714074,
                0.7655361666073014,
                2.16548900754887
            ]
        },
        {
            "positions": [
                -0.38282546651282845,
                -0.6998362112403713,
                0.37406662884323283,
                -0.23644990299347585,
                0.7118649890429557,
                2.2352618155791073
            ]
        },
        {
            "positions": [
                -0.336822859015806,
                -0.7387788305634193,
                0.5174235123829363,
                -0.2778280610155443,
                0.6581938114786099,
                2.305034623609345
            ]
        },
        {
            "positions": [
                -0.29082025151878366,
                -0.7777214498864673,
                0.6607803959226393,
                -0.31920621903761276,
                0.6045226339142642,
                2.3748074316395824
            ]
        },
        {
            "positions": [
                -0.2448176440217611,
                -0.8166640692095155,
                0.8041372794623427,
                -0.3605843770596813,
                0.5508514563499185,
                2.44458023966982
            ]
        },
        {
            "positions": [
                -0.19881503652473875,
                -0.8556066885325633,
                0.9474941630020457,
                -0.40196253508174967,
                0.4971802787855728,
                2.514353047700058
            ]
        },
        {
            "positions": [
                -0.1528124290277163,
                -0.8945493078556115,
                1.0908510465417496,
                -0.44334069310381824,
                0.4435091012212269,
                2.5841258557302957
            ]
        },
        {
            "positions": [
                -0.10680982153069385,
                -0.9334919271786593,
                1.2342079300814526,
                -0.4847188511258866,
                0.3898379236568812,
                2.6538986637605326
            ]
        },
        {
            "positions": [
                -0.06080721403367151,
                -0.9724345465017075,
                1.377564813621156,
                -0.5260970091479551,
                0.3361667460925355,
                2.7236714717907704
            ]
        },
        {
            "positions": [
                -0.014804606536648945,
                -1.0113771658247552,
                1.520921697160859,
                -0.5674751671700236,
                0.2824955685281898,
                2.793444279821008
            ]
        },
        {
            "positions": [
                0.031198000960373395,
                -1.0503197851478034,
                1.6642785807005624,
                -0.608853325192092,
                0.22882439096384388,
                2.863217087851246
            ]
        },
        {
            "positions": [
                0.07720060845739574,
                -1.0892624044708514,
                1.8076354642402654,
                -0.6502314832141605,
                0.1751532133994984,
                2.9329898958814833
            ]
        },
        {
            "positions": [
                0.1232032159544184,
                -1.1282050237938994,
                1.9509923477799689,
                -0.691609641236229,
                0.12148203583515257,
                3.002762703911721
            ]
        }
    ]
}