{
    "goal": {
        "global_pose": {
            "orientation": {
                "w": 0.5084816217422485,
                "x": -0.49083608388900757,
                "y": 0.5182115435600281,
                "z": -0.4816462993621826
            },
            "position": {
                "x": 0.5540239810943604,
                "y": 0.030875300988554955,
                "z": 0.16403168439865112
            }
        },
        "name": "move_to_storage_A"
    },
    "id": "EST_move_to_storage_A_39",
    "joint_names": [
        "shoulder_pan_joint",
        "shoulder_lift_joint",
        "elbow_joint",
        "wrist_1_joint",
        "wrist_2_joint",
        "wrist_3_joint"
    ],
    "metrics": {
        "cart_traj_len": 0.3528582998121331,
        "distance_elbow_joint": 0.44771874790747734,
        "distance_shoulder_lift_joint": 0.23605760725492386,
        "distance_shoulder_pan_joint": 0.4620903910718338,
        "distance_wrist_1_joint": 0.2334291197023285,
        "distance_wrist_2_joint": 1.0957985780394952,
        "distance_wrist_3_joint": 0.08828317002030728,
        "smoothness": 4.440892098500626e-16,
        "time": 0.027586734,
        "traj_len": 1.6010551564503848,
        "weighted_distance": 2.017218791251659
    },
    "planner": "EST",
    "start": {
        "state": {
            "elbow_joint": 1.9715463870305268,
            "shoulder_lift_joint": -1.1394903361783484,
            "shoulder_pan_joint": 0.12281147578464417,
            "wrist_1_joint": -0.7804599489681411,
            "wrist_2_joint": 0.12958660307563738,
            "wrist_3_joint": -3.1924946282119055
        }
    },
    "waypoints": [
        {
            "positions": [
                0.12281147578464417,
                -1.1394903361783484,
                1.9715463870305268,
                -0.7804599489681411,
                0.12958660307563738,
                -3.1924946282119055
            ]
        },
        {
            "positions": [
                0.05679856277438221,
                -1.1732128515004803,
                2.0355062081601663,
                -0.8138069660684737,
                0.28612925708127956,
                -3.179882746780433
            ]
        },
        {
            "positions": [
                -0.009214350235879756,
                -1.2069353668226124,
                2.099466029289806,
                -0.8471539831688064,
                0.4426719110869217,
                -3.1672708653489607
            ]
        },
        {
            "positions": [
                -0.07522726324614172,
                -1.2406578821447443,
                2.1634258504194457,
                -0.880501000269139,
                0.5992145650925639,
                -3.1546589839174883
            ]
        },
        {
            "positions": [
                -0.14124017625640367,
                -1.2743803974668764,
                2.227385671549085,
                -0.9138480173694716,
                0.755757219098206,
                -3.1420471024860155
            ]
        },
        {
            "positions": [
                -0.2072530892666657,
                -1.3081029127890083,
                2.291345492678725,
                -0.9471950344698044,
                0.9122998731038483,
                -3.129435221054543
            ]
        },
        {
            "positions": [
                -0.2732660022769276,
                -1.3418254281111404,
                2.3553053138083646,
                -0.9805420515701369,
                1.0688425271094903,
                -3.1168233396230707
            ]
        },
        {
            "positions": [
                -0.3392789152871896,
                -1.3755479434332722,
                2.419265134938004,
                -1.0138890686704696,
                1.2253851811151326,
                -3.1042114581915983
            ]
        }
    ]
}