{
    "goal": {
        "global_pose": {
            "orientation": {
                "w": 0.7047431468963623,
                "x": -0.7094548344612122,
                "y": 0.0024358443915843964,
                "z": -0.0022348060738295317
            },
            "position": {
                "x": 0.6094750761985779,
                "y": 0.3671506643295288,
                "z": 0.19426114857196808
            }
        },
        "name": "move_to_magneteinheit_A"
    },
    "id": "EST_move_to_magneteinheit_A_84",
    "joint_names": [
        "shoulder_pan_joint",
        "shoulder_lift_joint",
        "elbow_joint",
        "wrist_1_joint",
        "wrist_2_joint",
        "wrist_3_joint"
    ],
    "metrics": {
        "cart_traj_len": 3.1378757348063933,
        "distance_elbow_joint": 3.878689890143397,
        "distance_shoulder_lift_joint": 1.4990820618258127,
        "distance_shoulder_pan_joint": 3.6089978032019414,
        "distance_wrist_1_joint": 1.139051831391869,
        "distance_wrist_2_joint": 1.436029184708141,
        "distance_wrist_3_joint": 4.37070948840249,
        "smoothness": 0.12839746053369233,
        "time": 0.106433077,
        "traj_len": 3.991561130644707,
        "weighted_distance": 5.22006324220106
    },
    "planner": "EST",
    "start": {
        "state": {
            "elbow_joint": -1.919643507792019,
            "shoulder_lift_joint": -0.07675430207160344,
            "shoulder_pan_joint": -1.1188671864651873,
            "wrist_1_joint": 0.42560062535961957,
            "wrist_2_joint": 1.5706038300724876,
            "wrist_3_joint": 1.1188968870953055
        }
    },
    "waypoints": [
        {
            "positions": [
                -1.1188671864651873,
                -0.07675430207160344,
                -1.919643507792019,
                0.42560062535961957,
                1.5706038300724876,
                1.1188968870953055
            ]
        },
        {
            "positions": [
                -1.17031891574558,
                -0.1322843059171554,
                -1.817901724413037,
                0.42163798016432114,
                1.5228380828825039,
                0.9964663737753844
            ]
        },
        {
            "positions": [
                -1.2217706450259727,
                -0.18781430976270735,
                -1.7161599410340551,
                0.4176753349690227,
                1.47507233569252,
                0.8740358604554632
            ]
        },
        {
            "positions": [
                -1.273222374306365,
                -0.2433443136082593,
                -1.6144181576550731,
                0.4137126897737242,
                1.4273065885025362,
                0.751605347135542
            ]
        },
        {
            "positions": [
                -1.3246741035867577,
                -0.29887431745381127,
                -1.512676374276091,
                0.4097500445784258,
                1.3795408413125525,
                0.6291748338156208
            ]
        },
        {
            "positions": [
                -1.3761258328671504,
                -0.3544043212993632,
                -1.4109345908971092,
                0.40578739938312736,
                1.3317750941225686,
                0.5067443204956996
            ]
        },
        {
            "positions": [
                -1.427577562147543,
                -0.4099343251449152,
                -1.309192807518127,
                0.4018247541878289,
                1.2840093469325848,
                0.38431380717577834
            ]
        },
        {
            "positions": [
                -1.4790292914279357,
                -0.46546432899046714,
                -1.207451024139145,
                0.3978621089925305,
                1.236243599742601,
                0.26188329385585707
            ]
        },
        {
            "positions": [
                -1.5304810207083281,
                -0.5209943328360191,
                -1.105709240760163,
                0.39389946379723206,
                1.1884778525526172,
                0.13945278053593602
            ]
        },
        {
            "positions": [
                -1.5819327499887208,
                -0.5765243366815711,
                -1.0039674573811808,
                0.3899368186019336,
                1.1407121053626335,
                0.01702226721601474
            ]
        },
        {
            "positions": [
                -1.6333844792691135,
                -0.6320543405271231,
                -0.902225674002199,
                0.38597417340663515,
                1.0929463581726497,
                -0.10540824610390631
            ]
        },
        {
            "positions": [
                -1.6848362085495059,
                -0.687584344372675,
                -0.8004838906232168,
                0.3820115282113367,
                1.0451806109826658,
                -0.22783875942382759
            ]
        },
        {
            "positions": [
                -1.7362879378298985,
                -0.743114348218227,
                -0.698742107244235,
                0.3780488830160383,
                0.9974148637926821,
                -0.35026927274374886
            ]
        },
        {
            "positions": [
                -1.7877396671102912,
                -0.7986443520637789,
                -0.597000323865253,
                0.37408623782073985,
                0.9496491166026982,
                -0.4726997860636699
            ]
        },
        {
            "positions": [
                -1.8391913963906839,
                -0.8541743559093309,
                -0.4952585404862708,
                0.37012359262544137,
                0.9018833694127144,
                -0.5951302993835914
            ]
        },
        {
            "positions": [
                -1.8906431256710765,
                -0.9097043597548828,
                -0.39351675710728884,
                0.36616094743014294,
                0.8541176222227306,
                -0.7175608127035125
            ]
        },
        {
            "positions": [
                -1.9420948549514692,
                -0.9652343636004348,
                -0.29177497372830685,
                0.3621983022348445,
                0.8063518750327469,
                -0.8399913260234335
            ]
        },
        {
            "positions": [
                -1.9935465842318616,
                -1.0207643674459865,
                -0.19003319034932487,
                0.3582356570395461,
                0.7585861278427631,
                -0.9624218393433548
            ]
        },
        {
            "positions": [
                -2.0449983135122545,
                -1.0762943712915387,
                -0.08829140697034266,
                0.35427301184424764,
                0.7108203806527792,
                -1.084852352663276
            ]
        },
        {
            "positions": [
                -2.0964500427926467,
                -1.1318243751370907,
                0.01345037640863933,
                0.3503103666489492,
                0.6630546334627955,
                -1.2072828659831973
            ]
        },
        {
            "positions": [
                -2.1479017720730393,
                -1.1873543789826426,
                0.1151921597876211,
                0.3463477214536508,
                0.6152888862728116,
                -1.3297133793031182
            ]
        },
        {
            "positions": [
                -2.199353501353432,
                -1.2428843828281946,
                0.2169339431666033,
                0.34238507625835235,
                0.5675231390828279,
                -1.4521438926230394
            ]
        },
        {
            "positions": [
                -2.2508052306338246,
                -1.2984143866737465,
                0.3186757265455855,
                0.33842243106305386,
                0.519757391892844,
                -1.5745744059429607
            ]
        },
        {
            "positions": [
                -2.3022569599142173,
                -1.3539443905192985,
                0.4204175099245674,
                0.33445978586775543,
                0.4719916447028603,
                -1.6970049192628818
            ]
        },
        {
            "positions": [
                -2.167500958261278,
                -1.3416170586649585,
                0.5058968917260569,
                0.2762425085399774,
                0.45324625585072065,
                -1.7833831238208986
            ]
        },
        {
            "positions": [
                -2.0327449566083384,
                -1.3292897268106187,
                0.5913762735275464,
                0.21802523121219936,
                0.434500866998581,
                -1.8697613283789154
            ]
        },
        {
            "positions": [
                -1.8979889549553988,
                -1.316962394956279,
                0.6768556553290359,
                0.15980795388442132,
                0.41575547814644126,
                -1.9561395329369322
            ]
        },
        {
            "positions": [
                -1.763232953302459,
                -1.304635063101939,
                0.7623350371305253,
                0.10159067655664328,
                0.3970100892943016,
                -2.0425177374949492
            ]
        },
        {
            "positions": [
                -1.6284769516495197,
                -1.292307731247599,
                0.8478144189320149,
                0.04337339922886524,
                0.3782647004421619,
                -2.128895942052966
            ]
        },
        {
            "positions": [
                -1.4937209499965802,
                -1.2799803993932592,
                0.9332938007335043,
                -0.0148438780989128,
                0.35951931159002226,
                -2.215274146610983
            ]
        },
        {
            "positions": [
                -1.3589649483436406,
                -1.2676530675389195,
                1.0187731825349937,
                -0.07306115542669084,
                0.34077392273788254,
                -2.3016523511689995
            ]
        },
        {
            "positions": [
                -1.2242089466907011,
                -1.2553257356845795,
                1.1042525643364833,
                -0.13127843275446888,
                0.32202853388574293,
                -2.3880305557270165
            ]
        },
        {
            "positions": [
                -1.0894529450377615,
                -1.2429984038302395,
                1.189731946137973,
                -0.18949571008224692,
                0.3032831450336032,
                -2.474408760285033
            ]
        },
        {
            "positions": [
                -0.9546969433848218,
                -1.2306710719758998,
                1.2752113279394623,
                -0.24771298741002495,
                0.2845377561814635,
                -2.56078696484305
            ]
        },
        {
            "positions": [
                -0.8199409417318824,
                -1.21834374012156,
                1.3606907097409517,
                -0.305930264737803,
                0.2657923673293239,
                -2.6471651694010667
            ]
        },
        {
            "positions": [
                -0.6851849400789429,
                -1.20601640826722,
                1.4461700915424411,
                -0.36414754206558103,
                0.24704697847718418,
                -2.7335433739590833
            ]
        },
        {
            "positions": [
                -0.5504289384260033,
                -1.19368907641288,
                1.531649473343931,
                -0.42236481939335907,
                0.2283015896250445,
                -2.819921578517101
            ]
        },
        {
            "positions": [
                -0.41567293677306383,
                -1.1813617445585403,
                1.6171288551454204,
                -0.4805820967211371,
                0.20955620077290482,
                -2.9062997830751174
            ]
        },
        {
            "positions": [
                -0.28091693512012395,
                -1.1690344127042005,
                1.7026082369469098,
                -0.5387993740489152,
                0.1908108119207651,
                -2.992677987633134
            ]
        },
        {
            "positions": [
                -0.14616093346718495,
                -1.1567070808498605,
                1.7880876187483992,
                -0.5970166513766932,
                0.1720654230686255,
                -3.079056192191151
            ]
        },
        {
            "positions": [
                -0.011404931814245067,
                -1.1443797489955205,
                1.8735670005498886,
                -0.6552339287044713,
                0.15332003421648577,
                -3.165434396749168
            ]
        },
        {
            "positions": [
                0.12335106983869455,
                -1.1320524171411808,
                1.9590463823513782,
                -0.7134512060322492,
                0.1345746453643461,
                -3.2518126013071846
            ]
        }
    ]
}