{
    "goal": {
        "global_pose": {
            "orientation": {
                "w": 0.7047431468963623,
                "x": -0.7094548344612122,
                "y": 0.0024358443915843964,
                "z": -0.0022348060738295317
            },
            "position": {
                "x": 0.6094750761985779,
                "y": 0.3671506643295288,
                "z": 0.19426114857196808
            }
        },
        "name": "move_to_magneteinheit_A"
    },
    "id": "EST_move_to_magneteinheit_A_132",
    "joint_names": [
        "shoulder_pan_joint",
        "shoulder_lift_joint",
        "elbow_joint",
        "wrist_1_joint",
        "wrist_2_joint",
        "wrist_3_joint"
    ],
    "metrics": {
        "cart_traj_len": 1.8804522018604055,
        "distance_elbow_joint": 3.9094850963263648,
        "distance_shoulder_lift_joint": 0.6989717006482877,
        "distance_shoulder_pan_joint": 1.2418955514567362,
        "distance_wrist_1_joint": 1.4771432041543013,
        "distance_wrist_2_joint": 1.705306343891041,
        "distance_wrist_3_joint": 1.098598619856699,
        "smoothness": 7.565964296869386e-16,
        "time": 0.089248903,
        "traj_len": 3.1829861005561164,
        "weighted_distance": 3.9384066961262607
    },
    "planner": "EST",
    "start": {
        "state": {
            "elbow_joint": -1.919643507792019,
            "shoulder_lift_joint": -0.07675430207160344,
            "shoulder_pan_joint": -1.1188671864651873,
            "wrist_1_joint": 0.42560062535961957,
            "wrist_2_joint": 1.5706038300724876,
            "wrist_3_joint": 1.1188968870953055
        }
    },
    "waypoints": [
        {
            "positions": [
                -1.1188671864651873,
                -0.07675430207160344,
                -1.919643507792019,
                0.42560062535961957,
                1.5706038300724876,
                1.1188968870953055
            ]
        },
        {
            "positions": [
                -1.0711019729476206,
                -0.10363782901961452,
                -1.7692786963948512,
                0.4824138255194004,
                1.5050151245382168,
                1.076643094023894
            ]
        },
        {
            "positions": [
                -1.0233367594300538,
                -0.1305213559676256,
                -1.6189138849976832,
                0.5392270256791812,
                1.439426419003946,
                1.0343893009524825
            ]
        },
        {
            "positions": [
                -0.975571545912487,
                -0.15740488291563665,
                -1.4685490736005153,
                0.5960402258389621,
                1.373837713469675,
                0.9921355078810711
            ]
        },
        {
            "positions": [
                -0.9278063323949202,
                -0.18428840986364775,
                -1.3181842622033475,
                0.6528534259987429,
                1.3082490079354043,
                0.9498817148096595
            ]
        },
        {
            "positions": [
                -0.8800411188773535,
                -0.2111719368116588,
                -1.1678194508061797,
                0.7096666261585236,
                1.2426603024011336,
                0.907627921738248
            ]
        },
        {
            "positions": [
                -0.8322759053597867,
                -0.23805546375966988,
                -1.0174546394090118,
                0.7664798263183046,
                1.1770715968668628,
                0.8653741286668366
            ]
        },
        {
            "positions": [
                -0.7845106918422199,
                -0.2649389907076809,
                -0.867089828011844,
                0.8232930264780853,
                1.111482891332592,
                0.8231203355954251
            ]
        },
        {
            "positions": [
                -0.7367454783246531,
                -0.291822517655692,
                -0.7167250166146759,
                0.8801062266378661,
                1.0458941857983213,
                0.7808665425240136
            ]
        },
        {
            "positions": [
                -0.6889802648070864,
                -0.3187060446037031,
                -0.5663602052175083,
                0.9369194267976468,
                0.9803054802640504,
                0.738612749452602
            ]
        },
        {
            "positions": [
                -0.6412150512895196,
                -0.34558957155171416,
                -0.41599539382034023,
                0.9937326269574278,
                0.9147167747297795,
                0.6963589563811905
            ]
        },
        {
            "positions": [
                -0.5934498377719528,
                -0.3724730984997252,
                -0.2656305824231724,
                1.0505458271172086,
                0.8491280691955088,
                0.654105163309779
            ]
        },
        {
            "positions": [
                -0.545684624254386,
                -0.3993566254477363,
                -0.11526577102600455,
                1.1073590272769895,
                0.7835393636612379,
                0.6118513702383676
            ]
        },
        {
            "positions": [
                -0.4979194107368192,
                -0.42624015239574736,
                0.03509904037116329,
                1.1641722274367703,
                0.7179506581269671,
                0.569597577166956
            ]
        },
        {
            "positions": [
                -0.4501541972192524,
                -0.4531236793437584,
                0.18546385176833113,
                1.220985427596551,
                0.6523619525926964,
                0.5273437840955445
            ]
        },
        {
            "positions": [
                -0.40238898370168574,
                -0.48000720629176946,
                0.335828663165499,
                1.2777986277563318,
                0.5867732470584256,
                0.4850899910241331
            ]
        },
        {
            "positions": [
                -0.35462377018411884,
                -0.5068907332397806,
                0.48619347456266726,
                1.3346118279161128,
                0.5211845415241547,
                0.44283619795272144
            ]
        },
        {
            "positions": [
                -0.30685855666655215,
                -0.5337742601877917,
                0.6365582859598347,
                1.3914250280758935,
                0.45559583598988396,
                0.40058240488131003
            ]
        },
        {
            "positions": [
                -0.25909334314898536,
                -0.5606577871358027,
                0.7869230973570025,
                1.4482382282356743,
                0.3900071304556132,
                0.3583286118098985
            ]
        },
        {
            "positions": [
                -0.21132812963141856,
                -0.5875413140838137,
                0.9372879087541703,
                1.5050514283954552,
                0.32441842492134243,
                0.3160748187384871
            ]
        },
        {
            "positions": [
                -0.16356291611385176,
                -0.6144248410318249,
                1.0876527201513386,
                1.561864628555236,
                0.25882971938707144,
                0.27382102566707545
            ]
        },
        {
            "positions": [
                -0.11579770259628508,
                -0.6413083679798359,
                1.2380175315485065,
                1.618677828715017,
                0.19324101385280068,
                0.23156723259566403
            ]
        },
        {
            "positions": [
                -0.06803248907871828,
                -0.6681918949278469,
                1.3883823429456743,
                1.6754910288747977,
                0.12765230831852992,
                0.1893134395242525
            ]
        },
        {
            "positions": [
                -0.020267275561151488,
                -0.6950754218758581,
                1.5387471543428417,
                1.7323042290345785,
                0.06206360278425915,
                0.1470596464528411
            ]
        },
        {
            "positions": [
                0.027497937956415308,
                -0.7219589488238691,
                1.68911196574001,
                1.7891174291943595,
                -0.0035251027500118326,
                0.10480585338142956
            ]
        },
        {
            "positions": [
                0.0752631514739821,
                -0.7488424757718801,
                1.8394767771371778,
                1.8459306293541402,
                -0.0691138082842826,
                0.06255206031001803
            ]
        },
        {
            "positions": [
                0.12302836499154884,
                -0.7757260027198912,
                1.989841588534346,
                1.902743829513921,
                -0.13470251381855328,
                0.020298267238606598
            ]
        }
    ]
}