{
    "goal": {
        "global_pose": {
            "orientation": {
                "w": 0.5084816217422485,
                "x": -0.49083608388900757,
                "y": 0.5182115435600281,
                "z": -0.4816462993621826
            },
            "position": {
                "x": 0.5540239810943604,
                "y": 0.030875300988554955,
                "z": 0.16403168439865112
            }
        },
        "name": "move_to_storage_A"
    },
    "id": "EST_move_to_storage_A_81",
    "joint_names": [
        "shoulder_pan_joint",
        "shoulder_lift_joint",
        "elbow_joint",
        "wrist_1_joint",
        "wrist_2_joint",
        "wrist_3_joint"
    ],
    "metrics": {
        "cart_traj_len": 0.3533816049890685,
        "distance_elbow_joint": 0.45198427764424,
        "distance_shoulder_lift_joint": 0.23500360757525018,
        "distance_shoulder_pan_joint": 0.4617564491106555,
        "distance_wrist_1_joint": 0.24579150728843457,
        "distance_wrist_2_joint": 1.1018199185557969,
        "distance_wrist_3_joint": 0.09383500457541061,
        "smoothness": 6.661338165333112e-16,
        "time": 0.066144992,
        "traj_len": 1.6094069605757855,
        "weighted_distance": 2.031125845373654
    },
    "planner": "EST",
    "start": {
        "state": {
            "elbow_joint": 1.9715463870305268,
            "shoulder_lift_joint": -1.1394903361783484,
            "shoulder_pan_joint": 0.12281147578464417,
            "wrist_1_joint": -0.7804599489681411,
            "wrist_2_joint": 0.12958660307563738,
            "wrist_3_joint": -3.1924946282119055
        }
    },
    "waypoints": [
        {
            "positions": [
                0.12281147578464417,
                -1.1394903361783484,
                1.9715463870305268,
                -0.7804599489681411,
                0.12958660307563738,
                -3.1924946282119055
            ]
        },
        {
            "positions": [
                0.05684626876883625,
                -1.1730622801176698,
                2.0361155695511326,
                -0.8155730214379174,
                0.28698944858360836,
                -3.1790896275582754
            ]
        },
        {
            "positions": [
                -0.009118938246971672,
                -1.2066342240569914,
                2.100684752071738,
                -0.8506860939076938,
                0.4443922940915793,
                -3.1656846269046452
            ]
        },
        {
            "positions": [
                -0.07508414526277961,
                -1.2402061679963128,
                2.165253934592344,
                -0.8857991663774701,
                0.6017951395995503,
                -3.152279626251015
            ]
        },
        {
            "positions": [
                -0.1410493522785875,
                -1.2737781119356342,
                2.2298231171129497,
                -0.9209122388472466,
                0.7591979851075213,
                -3.1388746255973854
            ]
        },
        {
            "positions": [
                -0.20701455929439544,
                -1.3073500558749558,
                2.2943922996335555,
                -0.956025311317023,
                0.9166008306154924,
                -3.1254696249437552
            ]
        },
        {
            "positions": [
                -0.2729797663102034,
                -1.3409219998142772,
                2.358961482154161,
                -0.9911383837867993,
                1.0740036761234633,
                -3.112064624290125
            ]
        },
        {
            "positions": [
                -0.3389449733260113,
                -1.3744939437535986,
                2.4235306646747667,
                -1.0262514562565757,
                1.2314065216314343,
                -3.098659623636495
            ]
        }
    ]
}