{
    "goal": {
        "global_pose": {
            "orientation": {
                "w": 0.7047431468963623,
                "x": -0.7094548344612122,
                "y": 0.0024358443915843964,
                "z": -0.0022348060738295317
            },
            "position": {
                "x": 0.6094750761985779,
                "y": 0.3671506643295288,
                "z": 0.19426114857196808
            }
        },
        "name": "move_to_magneteinheit_A"
    },
    "id": "EST_move_to_magneteinheit_A_87",
    "joint_names": [
        "shoulder_pan_joint",
        "shoulder_lift_joint",
        "elbow_joint",
        "wrist_1_joint",
        "wrist_2_joint",
        "wrist_3_joint"
    ],
    "metrics": {
        "cart_traj_len": 2.6004294752464547,
        "distance_elbow_joint": 3.8705230214444004,
        "distance_shoulder_lift_joint": 1.0503840653302605,
        "distance_shoulder_pan_joint": 2.29486449624072,
        "distance_wrist_1_joint": 1.1177272906499471,
        "distance_wrist_2_joint": 1.4475658298823342,
        "distance_wrist_3_joint": 4.3984331435068516,
        "smoothness": 0.13020257676955974,
        "time": 0.158592022,
        "traj_len": 3.765567400413185,
        "weighted_distance": 5.053875468845716
    },
    "planner": "EST",
    "start": {
        "state": {
            "elbow_joint": -1.919643507792019,
            "shoulder_lift_joint": -0.07675430207160344,
            "shoulder_pan_joint": -1.1188671864651873,
            "wrist_1_joint": 0.42560062535961957,
            "wrist_2_joint": 1.5706038300724876,
            "wrist_3_joint": 1.1188968870953055
        }
    },
    "waypoints": [
        {
            "positions": [
                -1.1188671864651873,
                -0.07675430207160344,
                -1.919643507792019,
                0.42560062535961957,
                1.5706038300724876,
                1.1188968870953055
            ]
        },
        {
            "positions": [
                -1.2067333733246641,
                -0.11259859366921945,
                -1.8584049318595341,
                0.3816238216229392,
                1.4853178649814456,
                1.0614007059404111
            ]
        },
        {
            "positions": [
                -1.294599560184141,
                -0.14844288526683547,
                -1.7971663559270492,
                0.33764701788625884,
                1.4000318998904036,
                1.0039045247855167
            ]
        },
        {
            "positions": [
                -1.3824657470436175,
                -0.1842871768644515,
                -1.7359277799945643,
                0.29367021414957845,
                1.3147459347993615,
                0.9464083436306224
            ]
        },
        {
            "positions": [
                -1.4703319339030942,
                -0.22013146846206752,
                -1.6746892040620796,
                0.24969341041289808,
                1.2294599697083195,
                0.8889121624757281
            ]
        },
        {
            "positions": [
                -1.558198120762571,
                -0.2559757600596836,
                -1.6134506281295946,
                0.2057166066762177,
                1.1441740046172775,
                0.8314159813208337
            ]
        },
        {
            "positions": [
                -1.6460643076220478,
                -0.2918200516572996,
                -1.5522120521971097,
                0.1617398029395373,
                1.0588880395262354,
                0.7739198001659393
            ]
        },
        {
            "positions": [
                -1.5890427793935362,
                -0.318765803778092,
                -1.4392090984600294,
                0.13419572331921906,
                1.0286993285799102,
                0.6431631531795688
            ]
        },
        {
            "positions": [
                -1.5320212511650246,
                -0.34571155589888436,
                -1.326206144722949,
                0.10665164369890083,
                0.9985106176335851,
                0.5124065061931984
            ]
        },
        {
            "positions": [
                -1.4749997229365128,
                -0.3726573080196768,
                -1.2132031909858685,
                0.0791075640785826,
                0.9683219066872598,
                0.3816498592068278
            ]
        },
        {
            "positions": [
                -1.4179781947080012,
                -0.3996030601404692,
                -1.1002002372487882,
                0.051563484458264364,
                0.9381331957409346,
                0.25089321222045735
            ]
        },
        {
            "positions": [
                -1.3609566664794897,
                -0.4265488122612616,
                -0.9871972835117079,
                0.024019404837946123,
                0.9079444847946094,
                0.12013656523408678
            ]
        },
        {
            "positions": [
                -1.303935138250978,
                -0.453494564382054,
                -0.8741943297746275,
                -0.003524674782372089,
                0.8777557738482842,
                -0.010620081752283683
            ]
        },
        {
            "positions": [
                -1.2469136100224665,
                -0.48044031650284635,
                -0.7611913760375472,
                -0.03106875440269033,
                0.8475670629019589,
                -0.14137672873865414
            ]
        },
        {
            "positions": [
                -1.189892081793955,
                -0.5073860686236388,
                -0.6481884223004668,
                -0.05861283402300857,
                0.8173783519556338,
                -0.2721333757250246
            ]
        },
        {
            "positions": [
                -1.1328705535654433,
                -0.5343318207444312,
                -0.5351854685633863,
                -0.08615691364332681,
                0.7871896410093084,
                -0.4028900227113952
            ]
        },
        {
            "positions": [
                -1.0758490253369315,
                -0.5612775728652236,
                -0.4221825148263061,
                -0.11370099326364505,
                0.7570009300629834,
                -0.5336466696977658
            ]
        },
        {
            "positions": [
                -1.01882749710842,
                -0.588223324986016,
                -0.3091795610892256,
                -0.1412450728839633,
                0.7268122191166582,
                -0.6644033166841363
            ]
        },
        {
            "positions": [
                -0.9618059688799083,
                -0.6151690771068083,
                -0.19617660735214537,
                -0.16878915250428148,
                0.6966235081703329,
                -0.7951599636705067
            ]
        },
        {
            "positions": [
                -0.9047844406513967,
                -0.6421148292276009,
                -0.0831736536150649,
                -0.19633323212459977,
                0.6664347972240077,
                -0.9259166106568772
            ]
        },
        {
            "positions": [
                -0.8477629124228852,
                -0.6690605813483932,
                0.029829300122015345,
                -0.22387731174491796,
                0.6362460862776824,
                -1.0566732576432476
            ]
        },
        {
            "positions": [
                -0.7907413841943735,
                -0.6960063334691856,
                0.14283225385909581,
                -0.2514213913652362,
                0.6060573753313572,
                -1.1874299046296182
            ]
        },
        {
            "positions": [
                -0.7337198559658619,
                -0.722952085589978,
                0.25583520759617606,
                -0.27896547098555446,
                0.5758686643850321,
                -1.3181865516159885
            ]
        },
        {
            "positions": [
                -0.6766983277373503,
                -0.7498978377107703,
                0.3688381613332563,
                -0.3065095506058726,
                0.5456799534387069,
                -1.448943198602359
            ]
        },
        {
            "positions": [
                -0.6196767995088386,
                -0.7768435898315629,
                0.481841115070337,
                -0.33405363022619095,
                0.5154912424923815,
                -1.5796998455887297
            ]
        },
        {
            "positions": [
                -0.562655271280327,
                -0.8037893419523552,
                0.5948440688074172,
                -0.3615977098465092,
                0.4853025315460564,
                -1.7104564925751002
            ]
        },
        {
            "positions": [
                -0.5056337430518154,
                -0.8307350940731477,
                0.7078470225444975,
                -0.3891417894668274,
                0.45511382059973127,
                -1.8412131395614708
            ]
        },
        {
            "positions": [
                -0.4486122148233038,
                -0.85768084619394,
                0.8208499762815777,
                -0.41668586908714556,
                0.424925109653406,
                -1.971969786547841
            ]
        },
        {
            "positions": [
                -0.391590686594792,
                -0.8846265983147326,
                0.9338529300186584,
                -0.4442299487074639,
                0.39473639870708077,
                -2.1027264335342117
            ]
        },
        {
            "positions": [
                -0.33456915836628043,
                -0.9115723504355249,
                1.0468558837557387,
                -0.47177402832778215,
                0.3645476877607555,
                -2.233483080520582
            ]
        },
        {
            "positions": [
                -0.27754763013776884,
                -0.9385181025563172,
                1.159858837492819,
                -0.4993181079481003,
                0.3343589768144304,
                -2.364239727506953
            ]
        },
        {
            "positions": [
                -0.22052610190925725,
                -0.9654638546771097,
                1.2728617912298992,
                -0.5268621875684185,
                0.30417026586810514,
                -2.494996374493323
            ]
        },
        {
            "positions": [
                -0.16350457368074567,
                -0.992409606797902,
                1.3858647449669799,
                -0.5544062671887369,
                0.2739815549217799,
                -2.625753021479694
            ]
        },
        {
            "positions": [
                -0.10648304545223408,
                -1.0193553589186946,
                1.4988676987040601,
                -0.581950346809055,
                0.24379284397545475,
                -2.756509668466064
            ]
        },
        {
            "positions": [
                -0.049461517223722495,
                -1.0463011110394869,
                1.6118706524411404,
                -0.6094944264293732,
                0.2136041330291295,
                -2.8872663154524343
            ]
        },
        {
            "positions": [
                0.007560011004789091,
                -1.0732468631602792,
                1.7248736061782206,
                -0.6370385060496915,
                0.18341542208280437,
                -3.0180229624388053
            ]
        },
        {
            "positions": [
                0.0645815392333009,
                -1.1001926152810717,
                1.8378765599153013,
                -0.6645825856700097,
                0.153226711136479,
                -3.1487796094251754
            ]
        },
        {
            "positions": [
                0.12160306746181256,
                -1.127138367401864,
                1.9508795136523818,
                -0.692126665290328,
                0.12303800019015391,
                -3.279536256411546
            ]
        }
    ]
}