{
    "goal": {
        "global_pose": {
            "orientation": {
                "w": -0.00223480608172531,
                "x": 0.0024358444001904467,
                "y": 0.7094548369677653,
                "z": -0.704743149386269
            },
            "position": {
                "x": 0.6205249238014221,
                "y": -0.6371506643295288,
                "z": 0.19426114857196808
            }
        },
        "name": "move_to_magneteinheit_B"
    },
    "id": "EST_move_to_magneteinheit_B_31",
    "joint_names": [
        "shoulder_pan_joint",
        "shoulder_lift_joint",
        "elbow_joint",
        "wrist_1_joint",
        "wrist_2_joint",
        "wrist_3_joint"
    ],
    "metrics": {
        "cart_traj_len": 3.5881833069278977,
        "distance_elbow_joint": 4.909101180026232,
        "distance_shoulder_lift_joint": 0.6497251161034767,
        "distance_shoulder_pan_joint": 3.151205178721134,
        "distance_wrist_1_joint": 1.517464000554833,
        "distance_wrist_2_joint": 1.866663867665584,
        "distance_wrist_3_joint": 4.082235286057469,
        "smoothness": 0.47322871953688384,
        "time": 1.301353826,
        "traj_len": 4.0219888897321345,
        "weighted_distance": 5.265452788646395
    },
    "planner": "EST",
    "start": {
        "state": {
            "elbow_joint": 2.39358713078474,
            "shoulder_lift_joint": -1.908514104345545,
            "shoulder_pan_joint": 0.7066247066606129,
            "wrist_1_joint": -0.4678290933515497,
            "wrist_2_joint": 0.7096259083745334,
            "wrist_3_joint": -3.1358149277392293
        }
    },
    "waypoints": [
        {
            "positions": [
                0.7066247066606129,
                -1.908514104345545,
                2.39358713078474,
                -0.4678290933515497,
                0.7096259083745334,
                -3.1358149277392293
            ]
        },
        {
            "positions": [
                0.6432358993238065,
                -1.9085558473821658,
                2.3923528440078625,
                -0.4051606763612951,
                0.6422495552595767,
                -2.966278178109673
            ]
        },
        {
            "positions": [
                0.5798470919870002,
                -1.9085975904187866,
                2.391118557230985,
                -0.34249225937104055,
                0.57487320214462,
                -2.7967414284801175
            ]
        },
        {
            "positions": [
                0.5164582846501938,
                -1.9086393334554075,
                2.3898842704541075,
                -0.27982384238078595,
                0.5074968490296633,
                -2.6272046788505614
            ]
        },
        {
            "positions": [
                0.4530694773133875,
                -1.9086810764920286,
                2.38864998367723,
                -0.21715542539053134,
                0.44012049591470653,
                -2.4576679292210053
            ]
        },
        {
            "positions": [
                0.3896806699765811,
                -1.9087228195286494,
                2.3874156969003524,
                -0.15448700840027674,
                0.37274414279974977,
                -2.288131179591449
            ]
        },
        {
            "positions": [
                0.3262918626397748,
                -1.9087645625652703,
                2.386181410123475,
                -0.09181859141002219,
                0.3053677896847931,
                -2.1185944299618935
            ]
        },
        {
            "positions": [
                0.26290305530296837,
                -1.9088063056018911,
                2.3849471233465973,
                -0.029150174419767583,
                0.23799143656983635,
                -1.9490576803323374
            ]
        },
        {
            "positions": [
                0.2763183285545221,
                -1.9061343345984358,
                2.2844424716932794,
                0.026152543018160557,
                0.199315481941848,
                -1.7877778459954308
            ]
        },
        {
            "positions": [
                0.28973360180607577,
                -1.9034623635949808,
                2.1839378200399615,
                0.0814552604560887,
                0.16063952731385966,
                -1.626498011658524
            ]
        },
        {
            "positions": [
                0.3031488750576295,
                -1.9007903925915255,
                2.083433168386643,
                0.13675797789401684,
                0.12196357268587132,
                -1.465218177321617
            ]
        },
        {
            "positions": [
                0.3165641483091832,
                -1.8981184215880702,
                1.9829285167333253,
                0.19206069533194498,
                0.08328761805788298,
                -1.3039383429847105
            ]
        },
        {
            "positions": [
                0.3299794215607369,
                -1.895446450584615,
                1.8824238650800074,
                0.24736341276987311,
                0.044611663429894644,
                -1.1426585086478038
            ]
        },
        {
            "positions": [
                0.3433946948122907,
                -1.8927744795811599,
                1.7819192134266895,
                0.30266613020780125,
                0.005935708801906303,
                -0.9813786743108969
            ]
        },
        {
            "positions": [
                0.35680996806384435,
                -1.8901025085777046,
                1.6814145617733713,
                0.3579688476457294,
                -0.03274024582608204,
                -0.8200988399739901
            ]
        },
        {
            "positions": [
                0.3702252413153981,
                -1.8874305375742493,
                1.5809099101200534,
                0.41327156508365753,
                -0.07141620045407038,
                -0.6588190056370835
            ]
        },
        {
            "positions": [
                0.3836405145669518,
                -1.884758566570794,
                1.4804052584667353,
                0.46857428252158567,
                -0.11009215508205872,
                -0.49753917130017666
            ]
        },
        {
            "positions": [
                0.3970557878185055,
                -1.882086595567339,
                1.3799006068134174,
                0.5238769999595139,
                -0.14876810971004706,
                -0.33625933696327004
            ]
        },
        {
            "positions": [
                0.4104710610700592,
                -1.8794146245638836,
                1.2793959551600995,
                0.579179717397442,
                -0.18744406433803534,
                -0.17497950262636341
            ]
        },
        {
            "positions": [
                0.42388633432161293,
                -1.8767426535604284,
                1.1788913035067814,
                0.6344824348353701,
                -0.22612001896602374,
                -0.013699668289456346
            ]
        },
        {
            "positions": [
                0.4373016075731666,
                -1.874070682556973,
                1.0783866518534635,
                0.6897851522732983,
                -0.2647959735940121,
                0.1475801660474505
            ]
        },
        {
            "positions": [
                0.4507168808247204,
                -1.871398711553518,
                0.9778820002001454,
                0.7450878697112264,
                -0.3034719282220004,
                0.3088600003843571
            ]
        },
        {
            "positions": [
                0.46413215407627406,
                -1.8687267405500627,
                0.8773773485468275,
                0.8003905871491546,
                -0.34214788284998876,
                0.4701398347212638
            ]
        },
        {
            "positions": [
                0.602479290655122,
                -1.8783271674023705,
                0.7027389141944607,
                0.7984637575675956,
                -0.3059974355837759,
                0.4429153270095866
            ]
        },
        {
            "positions": [
                0.74082642723397,
                -1.887927594254678,
                0.5281004798420937,
                0.7965369279860366,
                -0.269846988317563,
                0.41569081929790935
            ]
        },
        {
            "positions": [
                0.8791735638128179,
                -1.8975280211069858,
                0.3534620454897268,
                0.7946100984044775,
                -0.2336965410513501,
                0.3884663115862321
            ]
        },
        {
            "positions": [
                1.0175207003916658,
                -1.9071284479592934,
                0.17882361113736,
                0.7926832688229185,
                -0.1975460937851372,
                0.36124180387455485
            ]
        },
        {
            "positions": [
                1.1558678369705135,
                -1.9167288748116011,
                0.004185176784993083,
                0.7907564392413595,
                -0.16139564651892432,
                0.3340172961628776
            ]
        },
        {
            "positions": [
                1.2942149735493618,
                -1.926329301663909,
                -0.17045325756737384,
                0.7888296096598005,
                -0.12524519925271144,
                0.3067927884512004
            ]
        },
        {
            "positions": [
                1.4325621101282096,
                -1.9359297285162165,
                -0.34509169191974043,
                0.7869027800782414,
                -0.08909475198649858,
                0.27956828073952317
            ]
        },
        {
            "positions": [
                1.5709092467070573,
                -1.9455301553685242,
                -0.5197301262721075,
                0.7849759504966825,
                -0.05294430472028566,
                0.25234377302784594
            ]
        },
        {
            "positions": [
                1.7092563832859051,
                -1.9551305822208318,
                -0.6943685606244743,
                0.7830491209151235,
                -0.016793857454072803,
                0.2251192653161687
            ]
        },
        {
            "positions": [
                1.8476035198647534,
                -1.9647310090731396,
                -0.8690069949768413,
                0.7811222913335645,
                0.019356589812140113,
                0.19789475760449143
            ]
        },
        {
            "positions": [
                1.9859506564436011,
                -1.9743314359254471,
                -1.0436454293292081,
                0.7791954617520054,
                0.05550703707835303,
                0.1706702498928142
            ]
        },
        {
            "positions": [
                2.1242977930224494,
                -1.983931862777755,
                -1.2182838636815752,
                0.7772686321704464,
                0.09165748434456589,
                0.14344574218113698
            ]
        },
        {
            "positions": [
                2.2626449296012967,
                -1.9935322896300627,
                -1.3929222980339415,
                0.7753418025888874,
                0.12780793161077875,
                0.11622123446945976
            ]
        },
        {
            "positions": [
                2.400992066180145,
                -2.0031327164823702,
                -1.5675607323863083,
                0.7734149730073284,
                0.1639583788769916,
                0.08899672675778253
            ]
        },
        {
            "positions": [
                2.5393392027589927,
                -2.012733143334678,
                -1.7421991667386756,
                0.7714881434257693,
                0.20010882614320447,
                0.0617722190461053
            ]
        },
        {
            "positions": [
                2.677686339337841,
                -2.022333570186986,
                -1.9168376010910424,
                0.7695613138442103,
                0.23625927340941744,
                0.03454771133442802
            ]
        },
        {
            "positions": [
                2.8160334759166887,
                -2.0319339970392933,
                -2.091476035443409,
                0.7676344842626514,
                0.2724097206756303,
                0.007323203622750796
            ]
        },
        {
            "positions": [
                2.7774451992292466,
                -2.143470520365811,
                -1.9854665319938887,
                0.8217565385545575,
                0.32249283890449104,
                0.01068917674736693
            ]
        },
        {
            "positions": [
                2.738856922541804,
                -2.255007043692329,
                -1.8794570285443684,
                0.8758785928464636,
                0.3725759571333518,
                0.014055149871983065
            ]
        },
        {
            "positions": [
                2.700268645854362,
                -2.366543567018847,
                -1.773447525094848,
                0.9300006471383698,
                0.42265907536221253,
                0.0174211229965992
            ]
        },
        {
            "positions": [
                2.6616803691669197,
                -2.478080090345365,
                -1.6674380216453275,
                0.984122701430276,
                0.4727421935910733,
                0.020787096121215334
            ]
        }
    ]
}