{
    "goal": {
        "global_pose": {
            "orientation": {
                "w": 0.7031023502349854,
                "x": -0.7110244035720825,
                "y": 0.007748599164187908,
                "z": 0.005598929710686207
            },
            "position": {
                "x": 0.11585023208521307,
                "y": 0.44412534475326537,
                "z": 0.3711530566215515
            }
        },
        "name": "move_to_auspresseinheit_A"
    },
    "id": "EST_move_to_auspresseinheit_A_57",
    "joint_names": [
        "shoulder_pan_joint",
        "shoulder_lift_joint",
        "elbow_joint",
        "wrist_1_joint",
        "wrist_2_joint",
        "wrist_3_joint"
    ],
    "metrics": {
        "cart_traj_len": 0.6881223190309708,
        "distance_elbow_joint": 0.033468616180985844,
        "distance_shoulder_lift_joint": 0.5329026802846759,
        "distance_shoulder_pan_joint": 1.0424161347576573,
        "distance_wrist_1_joint": 0.5787767251407872,
        "distance_wrist_2_joint": 0.5306649367982681,
        "distance_wrist_3_joint": 0.05526221545077492,
        "smoothness": 1.9737298371844314e-16,
        "time": 0.238592984,
        "traj_len": 1.6653802294410573,
        "weighted_distance": 1.9983636809784535
    },
    "planner": "EST",
    "start": {
        "state": {
            "elbow_joint": 2.422574709923281,
            "shoulder_lift_joint": -1.3736533754116391,
            "shoulder_pan_joint": -0.33786336945926293,
            "wrist_1_joint": -1.0288603412921917,
            "wrist_2_joint": 1.2330224858903978,
            "wrist_3_joint": -3.094022268022082
        }
    },
    "waypoints": [
        {
            "positions": [
                -0.33786336945926293,
                -1.3736533754116391,
                2.422574709923281,
                -1.0288603412921917,
                1.2330224858903978,
                -3.094022268022082
            ]
        },
        {
            "positions": [
                -0.2075613526145558,
                -1.4402662104472237,
                2.4183911329006578,
                -0.9565132506495934,
                1.1666893687906144,
                -3.100930044953429
            ]
        },
        {
            "positions": [
                -0.07725933576984867,
                -1.506879045482808,
                2.4142075558780345,
                -0.884166160006995,
                1.1003562516908307,
                -3.1078378218847758
            ]
        },
        {
            "positions": [
                0.05304268107485849,
                -1.5734918805183926,
                2.410023978855411,
                -0.8118190693643965,
                1.034023134591047,
                -3.1147455988161226
            ]
        },
        {
            "positions": [
                0.1833446979195656,
                -1.640104715553977,
                2.405840401832788,
                -0.7394719787217982,
                0.9676900174912637,
                -3.12165337574747
            ]
        },
        {
            "positions": [
                0.3136467147642727,
                -1.7067175505895615,
                2.401656824810165,
                -0.6671248880791998,
                0.9013569003914802,
                -3.1285611526788166
            ]
        },
        {
            "positions": [
                0.4439487316089799,
                -1.773330385625146,
                2.397473247787542,
                -0.5947777974366013,
                0.8350237832916967,
                -3.1354689296101634
            ]
        },
        {
            "positions": [
                0.574250748453687,
                -1.8399432206607305,
                2.3932896707649185,
                -0.5224307067940029,
                0.7686906661919132,
                -3.1423767065415102
            ]
        },
        {
            "positions": [
                0.7045527652983942,
                -1.906556055696315,
                2.389106093742295,
                -0.4500836161514046,
                0.7023575490921297,
                -3.149284483472857
            ]
        }
    ]
}