{
    "goal": {
        "global_pose": {
            "orientation": {
                "w": 0.7031023502349854,
                "x": -0.7110244035720825,
                "y": 0.007748599164187908,
                "z": 0.005598929710686207
            },
            "position": {
                "x": 0.11585023208521307,
                "y": 0.44412534475326537,
                "z": 0.3711530566215515
            }
        },
        "name": "move_to_auspresseinheit_A"
    },
    "id": "EST_move_to_auspresseinheit_A_131",
    "joint_names": [
        "shoulder_pan_joint",
        "shoulder_lift_joint",
        "elbow_joint",
        "wrist_1_joint",
        "wrist_2_joint",
        "wrist_3_joint"
    ],
    "metrics": {
        "cart_traj_len": 0.7065536071741865,
        "distance_elbow_joint": 0.35595355497941217,
        "distance_shoulder_lift_joint": 0.5329688046088417,
        "distance_shoulder_pan_joint": 1.043906455066526,
        "distance_wrist_1_joint": 1.6485109966958773,
        "distance_wrist_2_joint": 0.6785531517204593,
        "distance_wrist_3_joint": 0.9089922357928364,
        "smoothness": 1.2222228875704695,
        "time": 1.025529966,
        "traj_len": 2.273518242474415,
        "weighted_distance": 3.051873820928048
    },
    "planner": "EST",
    "start": {
        "state": {
            "elbow_joint": 2.422574709923281,
            "shoulder_lift_joint": -1.3736533754116391,
            "shoulder_pan_joint": -0.33786336945926293,
            "wrist_1_joint": -1.0288603412921917,
            "wrist_2_joint": 1.2330224858903978,
            "wrist_3_joint": -3.094022268022082
        }
    },
    "waypoints": [
        {
            "positions": [
                -0.33786336945926293,
                -1.3736533754116391,
                2.422574709923281,
                -1.0288603412921917,
                1.2330224858903978,
                -3.094022268022082
            ]
        },
        {
            "positions": [
                -0.2804145109915177,
                -1.4210855199928885,
                2.4009786885341016,
                -0.9053307192544728,
                1.1664770807469511,
                -3.045949068408089
            ]
        },
        {
            "positions": [
                -0.22296565252377248,
                -1.468517664574138,
                2.3793826671449216,
                -0.7818010972167541,
                1.0999316756035045,
                -2.9978758687940963
            ]
        },
        {
            "positions": [
                -0.16551679405602726,
                -1.5159498091553874,
                2.357786645755742,
                -0.6582714751790353,
                1.033386270460058,
                -2.9498026691801034
            ]
        },
        {
            "positions": [
                -0.10806793558828204,
                -1.563381953736637,
                2.3361906243665627,
                -0.5347418531413164,
                0.9668408653166114,
                -2.9017294695661104
            ]
        },
        {
            "positions": [
                -0.05061907712053676,
                -1.6108140983178862,
                2.3145946029773827,
                -0.4112122311035975,
                0.9002954601731648,
                -2.8536562699521175
            ]
        },
        {
            "positions": [
                0.006829781347208408,
                -1.6582462428991356,
                2.2929985815882032,
                -0.2876826090658787,
                0.8337500550297182,
                -2.8055830703381246
            ]
        },
        {
            "positions": [
                0.06427863981495369,
                -1.7056783874803851,
                2.2714025601990238,
                -0.16415298702815984,
                0.7672046498862716,
                -2.7575098707241317
            ]
        },
        {
            "positions": [
                0.12172749828269885,
                -1.7531105320616347,
                2.249806538809844,
                -0.04062336499044106,
                0.700659244742825,
                -2.7094366711101388
            ]
        },
        {
            "positions": [
                0.17917635675044413,
                -1.800542676642884,
                2.2282105174206643,
                0.08290625704727778,
                0.6341138395993784,
                -2.661363471496146
            ]
        },
        {
            "positions": [
                0.28454970252180795,
                -1.8217585773184033,
                2.2605283899160233,
                -0.024442622624003735,
                0.6500427406852664,
                -2.756630159349526
            ]
        },
        {
            "positions": [
                0.3899230482931717,
                -1.8429744779939228,
                2.2928462624113823,
                -0.13179150229528525,
                0.6659716417711543,
                -2.851896847202906
            ]
        },
        {
            "positions": [
                0.4952963940645355,
                -1.864190378669442,
                2.325164134906742,
                -0.23914038196656673,
                0.6819005428570424,
                -2.9471635350562857
            ]
        },
        {
            "positions": [
                0.6006697398358993,
                -1.8854062793449615,
                2.357482007402101,
                -0.34648926163784827,
                0.6978294439429303,
                -3.042430222909666
            ]
        },
        {
            "positions": [
                0.7060430856072631,
                -1.9066221800204808,
                2.38979987989746,
                -0.4538381413091298,
                0.7137583450288183,
                -3.137696910763046
            ]
        }
    ]
}