{
    "goal": {
        "global_pose": {
            "orientation": {
                "w": 0.5084816217422485,
                "x": -0.49083608388900757,
                "y": 0.5182115435600281,
                "z": -0.4816462993621826
            },
            "position": {
                "x": 0.5540239810943604,
                "y": 0.030875300988554955,
                "z": 0.16403168439865112
            }
        },
        "name": "move_to_storage_A"
    },
    "id": "EST_move_to_storage_A_59",
    "joint_names": [
        "shoulder_pan_joint",
        "shoulder_lift_joint",
        "elbow_joint",
        "wrist_1_joint",
        "wrist_2_joint",
        "wrist_3_joint"
    ],
    "metrics": {
        "cart_traj_len": 0.3529068475394996,
        "distance_elbow_joint": 0.44897856485300025,
        "distance_shoulder_lift_joint": 0.23511766865871175,
        "distance_shoulder_pan_joint": 0.45973802959710947,
        "distance_wrist_1_joint": 0.23929586850170181,
        "distance_wrist_2_joint": 1.1060862932178321,
        "distance_wrist_3_joint": 0.09296504865910826,
        "smoothness": 0.0,
        "time": 0.043418,
        "traj_len": 1.6069167599746614,
        "weighted_distance": 2.028174975815749
    },
    "planner": "EST",
    "start": {
        "state": {
            "elbow_joint": 1.9715463870305268,
            "shoulder_lift_joint": -1.1394903361783484,
            "shoulder_pan_joint": 0.12281147578464417,
            "wrist_1_joint": -0.7804599489681411,
            "wrist_2_joint": 0.12958660307563738,
            "wrist_3_joint": -3.1924946282119055
        }
    },
    "waypoints": [
        {
            "positions": [
                0.12281147578464417,
                -1.1394903361783484,
                1.9715463870305268,
                -0.7804599489681411,
                0.12958660307563738,
                -3.1924946282119055
            ]
        },
        {
            "positions": [
                0.057134614413628534,
                -1.1730785745581644,
                2.0356861820095267,
                -0.8146450730398128,
                0.2875989306781848,
                -3.17921390697489
            ]
        },
        {
            "positions": [
                -0.008542246957387103,
                -1.2066668129379803,
                2.099825976988527,
                -0.8488301971114844,
                0.4456112582807322,
                -3.1659331857378747
            ]
        },
        {
            "positions": [
                -0.07421910832840274,
                -1.2402550513177963,
                2.163965771967527,
                -0.8830153211831562,
                0.6036235858832797,
                -3.1526524645008593
            ]
        },
        {
            "positions": [
                -0.13989596969941837,
                -1.2738432896976122,
                2.228105566946527,
                -0.9172004452548278,
                0.7616359134858272,
                -3.1393717432638435
            ]
        },
        {
            "positions": [
                -0.205572831070434,
                -1.3074315280774282,
                2.292245361925527,
                -0.9513855693264995,
                0.9196482410883746,
                -3.126091022026828
            ]
        },
        {
            "positions": [
                -0.27124969244144964,
                -1.341019766457244,
                2.356385156904527,
                -0.9855706933981712,
                1.077660568690922,
                -3.1128103007898127
            ]
        },
        {
            "positions": [
                -0.3369265538124653,
                -1.3746080048370601,
                2.420524951883527,
                -1.019755817469843,
                1.2356728962934695,
                -3.0995295795527973
            ]
        }
    ]
}