{
    "goal": {
        "global_pose": {
            "orientation": {
                "w": -0.00223480608172531,
                "x": 0.0024358444001904467,
                "y": 0.7094548369677653,
                "z": -0.704743149386269
            },
            "position": {
                "x": 0.6205249238014221,
                "y": -0.6371506643295288,
                "z": 0.19426114857196808
            }
        },
        "name": "move_to_magneteinheit_B"
    },
    "id": "EST_move_to_magneteinheit_B_87",
    "joint_names": [
        "shoulder_pan_joint",
        "shoulder_lift_joint",
        "elbow_joint",
        "wrist_1_joint",
        "wrist_2_joint",
        "wrist_3_joint"
    ],
    "metrics": {
        "cart_traj_len": 3.4029363707155484,
        "distance_elbow_joint": 4.287922203828739,
        "distance_shoulder_lift_joint": 0.7987131247036032,
        "distance_shoulder_pan_joint": 3.246631804315351,
        "distance_wrist_1_joint": 1.4609787360170927,
        "distance_wrist_2_joint": 1.8111384435849391,
        "distance_wrist_3_joint": 4.699891171091694,
        "smoothness": 0.4699181828891545,
        "time": 3.019509804,
        "traj_len": 4.0379791336188715,
        "weighted_distance": 5.383045142419562
    },
    "planner": "EST",
    "start": {
        "state": {
            "elbow_joint": 2.39358713078474,
            "shoulder_lift_joint": -1.908514104345545,
            "shoulder_pan_joint": 0.7066247066606129,
            "wrist_1_joint": -0.4678290933515497,
            "wrist_2_joint": 0.7096259083745334,
            "wrist_3_joint": -3.1358149277392293
        }
    },
    "waypoints": [
        {
            "positions": [
                0.7066247066606129,
                -1.908514104345545,
                2.39358713078474,
                -0.4678290933515497,
                0.7096259083745334,
                -3.1358149277392293
            ]
        },
        {
            "positions": [
                0.6592704420113957,
                -1.8989157489275377,
                2.3715052666777607,
                -0.36490418387900003,
                0.6241349094321167,
                -3.0323438929123143
            ]
        },
        {
            "positions": [
                0.6119161773621784,
                -1.8893173935095307,
                2.3494234025707814,
                -0.2619792744064503,
                0.5386439104897,
                -2.9288728580853993
            ]
        },
        {
            "positions": [
                0.5645619127129612,
                -1.8797190380915234,
                2.327341538463802,
                -0.15905436493390063,
                0.4531529115472832,
                -2.825401823258484
            ]
        },
        {
            "positions": [
                0.517207648063744,
                -1.8701206826735162,
                2.3052596743568223,
                -0.05612945546135095,
                0.36766191260486647,
                -2.721930788431569
            ]
        },
        {
            "positions": [
                0.46985338341452665,
                -1.8605223272555091,
                2.283177810249843,
                0.046795454011198834,
                0.28217091366244973,
                -2.618459753604654
            ]
        },
        {
            "positions": [
                0.4224991187653094,
                -1.850923971837502,
                2.2610959461428637,
                0.14972036348374845,
                0.196679914720033,
                -2.5149887187777384
            ]
        },
        {
            "positions": [
                0.3751448541160921,
                -1.8413256164194947,
                2.2390140820358844,
                0.2526452729562982,
                0.11118891577761625,
                -2.4115176839508234
            ]
        },
        {
            "positions": [
                0.3277905894668749,
                -1.8317272610014876,
                2.216932217928905,
                0.3555701824288478,
                0.025697916835199508,
                -2.3080466491239084
            ]
        },
        {
            "positions": [
                0.28043632481765757,
                -1.8221289055834804,
                2.1948503538219253,
                0.45849509190139753,
                -0.05979308210721723,
                -2.2045756142969934
            ]
        },
        {
            "positions": [
                0.2330820601684403,
                -1.8125305501654732,
                2.172768489714946,
                0.5614200013739474,
                -0.14528408104963397,
                -2.1011045794700784
            ]
        },
        {
            "positions": [
                0.18572779551922314,
                -1.8029321947474661,
                2.1506866256079666,
                0.6643449108464969,
                -0.2307750799920507,
                -1.9976335446431632
            ]
        },
        {
            "positions": [
                0.13837353087000578,
                -1.793333839329459,
                2.1286047615009873,
                0.7672698203190467,
                -0.31626607893446745,
                -1.894162509816248
            ]
        },
        {
            "positions": [
                0.23753649295137344,
                -1.801328468163938,
                1.9788469156311883,
                0.7668323423539721,
                -0.28768446384702034,
                -1.7907912707742166
            ]
        },
        {
            "positions": [
                0.3366994550327411,
                -1.8093230969984173,
                1.8290890697613893,
                0.7663948643888975,
                -0.2591028487595733,
                -1.6874200317321852
            ]
        },
        {
            "positions": [
                0.4358624171141088,
                -1.8173177258328965,
                1.67933122389159,
                0.7659573864238229,
                -0.23052123367212618,
                -1.5840487926901539
            ]
        },
        {
            "positions": [
                0.5350253791954764,
                -1.8253123546673757,
                1.529573378021791,
                0.7655199084587484,
                -0.20193961858467913,
                -1.4806775536481225
            ]
        },
        {
            "positions": [
                0.6341883412768441,
                -1.833306983501855,
                1.379815532151992,
                0.7650824304936739,
                -0.17335800349723202,
                -1.3773063146060913
            ]
        },
        {
            "positions": [
                0.7333513033582117,
                -1.8413016123363342,
                1.230057686282193,
                0.7646449525285992,
                -0.14477638840978493,
                -1.2739350755640597
            ]
        },
        {
            "positions": [
                0.8325142654395794,
                -1.8492962411708134,
                1.080299840412394,
                0.7642074745635247,
                -0.11619477332233788,
                -1.1705638365220286
            ]
        },
        {
            "positions": [
                0.9316772275209471,
                -1.8572908700052926,
                0.9305419945425948,
                0.7637699965984501,
                -0.08761315823489077,
                -1.067192597479997
            ]
        },
        {
            "positions": [
                1.0308401896023147,
                -1.8652854988397718,
                0.780784148672796,
                0.7633325186333756,
                -0.05903154314744369,
                -0.9638213584379658
            ]
        },
        {
            "positions": [
                1.1300031516836824,
                -1.873280127674251,
                0.6310263028029968,
                0.7628950406683009,
                -0.030449928059996578,
                -0.8604501193959344
            ]
        },
        {
            "positions": [
                1.22916611376505,
                -1.8812747565087302,
                0.48126845693319775,
                0.7624575627032264,
                -0.001868312972549524,
                -0.757078880353903
            ]
        },
        {
            "positions": [
                1.3283290758464177,
                -1.8892693853432094,
                0.33151061106339874,
                0.7620200847381519,
                0.026713302114897586,
                -0.6537076413118716
            ]
        },
        {
            "positions": [
                1.4274920379277853,
                -1.8972640141776886,
                0.18175276519359973,
                0.7615826067730773,
                0.05529491720234464,
                -0.5503364022698403
            ]
        },
        {
            "positions": [
                1.526655000009153,
                -1.9052586430121679,
                0.03199491932380072,
                0.7611451288080027,
                0.0838765322897917,
                -0.4469651632278089
            ]
        },
        {
            "positions": [
                1.6258179620905204,
                -1.913253271846647,
                -0.11776292654599807,
                0.7607076508429281,
                0.11245814737723875,
                -0.3435939241857777
            ]
        },
        {
            "positions": [
                1.7249809241718883,
                -1.9212479006811263,
                -0.26752077241579775,
                0.7602701728778536,
                0.1410397624646859,
                -0.24022268514374612
            ]
        },
        {
            "positions": [
                1.824143886253256,
                -1.9292425295156055,
                -0.41727861828559654,
                0.7598326949127789,
                0.16962137755213297,
                -0.13685144610171474
            ]
        },
        {
            "positions": [
                1.9233068483346236,
                -1.9372371583500847,
                -0.5670364641553953,
                0.7593952169477044,
                0.19820299263958008,
                -0.033480207059683575
            ]
        },
        {
            "positions": [
                2.0224698104159913,
                -1.945231787184564,
                -0.7167943100251946,
                0.7589577389826299,
                0.22678460772702713,
                0.0698910319823478
            ]
        },
        {
            "positions": [
                2.121632772497359,
                -1.9532264160190431,
                -0.8665521558949938,
                0.7585202610175553,
                0.2553662228144743,
                0.1732622710243792
            ]
        },
        {
            "positions": [
                2.2207957345787266,
                -1.9612210448535223,
                -1.0163100017647926,
                0.7580827830524807,
                0.28394783790192135,
                0.2766335100664108
            ]
        },
        {
            "positions": [
                2.3199586966600942,
                -1.9692156736880015,
                -1.1660678476345918,
                0.7576453050874061,
                0.3125294529893684,
                0.38000474910844195
            ]
        },
        {
            "positions": [
                2.419121658741462,
                -1.9772103025224808,
                -1.3158256935043906,
                0.7572078271223316,
                0.34111106807681546,
                0.4833759881504731
            ]
        },
        {
            "positions": [
                2.5182846208228296,
                -1.98520493135696,
                -1.4655835393741898,
                0.756770349157257,
                0.3696926831642626,
                0.5867472271925047
            ]
        },
        {
            "positions": [
                2.617447582904197,
                -1.9931995601914392,
                -1.615341385243989,
                0.7563328711921824,
                0.3982742982517097,
                0.6901184662345363
            ]
        },
        {
            "positions": [
                2.716610544985565,
                -2.0011941890259184,
                -1.7650992311137879,
                0.7558953932271079,
                0.42685591333915673,
                0.7934897052765673
            ]
        },
        {
            "positions": [
                2.739129217618906,
                -2.077736656090527,
                -1.7817718269005611,
                0.7858224013914312,
                0.4254959206667952,
                0.7227151593054377
            ]
        },
        {
            "positions": [
                2.7197229821749453,
                -2.1775191668221394,
                -1.753631015364702,
                0.8319669981639899,
                0.43568703849928286,
                0.547762161279246
            ]
        },
        {
            "positions": [
                2.7003167467309845,
                -2.2773016775537513,
                -1.7254902038288429,
                0.8781115949365486,
                0.4458781563317705,
                0.3728091632530544
            ]
        },
        {
            "positions": [
                2.6809105112870233,
                -2.3770841882853637,
                -1.6973493922929839,
                0.9242561917091073,
                0.4560692741642582,
                0.19785616522686278
            ]
        },
        {
            "positions": [
                2.6615042758430625,
                -2.476866699016976,
                -1.6692085807571246,
                0.970400788481666,
                0.46626039199674585,
                0.02290316720067111
            ]
        }
    ]
}