{
    "goal": {
        "global_pose": {
            "orientation": {
                "w": 0.5084816217422485,
                "x": -0.49083608388900757,
                "y": 0.5182115435600281,
                "z": -0.4816462993621826
            },
            "position": {
                "x": 0.5540239810943604,
                "y": 0.030875300988554955,
                "z": 0.16403168439865112
            }
        },
        "name": "move_to_storage_A"
    },
    "id": "EST_move_to_storage_A_60",
    "joint_names": [
        "shoulder_pan_joint",
        "shoulder_lift_joint",
        "elbow_joint",
        "wrist_1_joint",
        "wrist_2_joint",
        "wrist_3_joint"
    ],
    "metrics": {
        "cart_traj_len": 0.35313085531201943,
        "distance_elbow_joint": 0.45124198439138263,
        "distance_shoulder_lift_joint": 0.23548901138605105,
        "distance_shoulder_pan_joint": 0.4591373792571218,
        "distance_wrist_1_joint": 0.25018144615589544,
        "distance_wrist_2_joint": 1.110575353421461,
        "distance_wrist_3_joint": 0.09978678187900814,
        "smoothness": 4.440892098500626e-16,
        "time": 0.033144515,
        "traj_len": 1.6144385886403114,
        "weighted_distance": 2.041259983399051
    },
    "planner": "EST",
    "start": {
        "state": {
            "elbow_joint": 1.9715463870305268,
            "shoulder_lift_joint": -1.1394903361783484,
            "shoulder_pan_joint": 0.12281147578464417,
            "wrist_1_joint": -0.7804599489681411,
            "wrist_2_joint": 0.12958660307563738,
            "wrist_3_joint": -3.1924946282119055
        }
    },
    "waypoints": [
        {
            "positions": [
                0.12281147578464417,
                -1.1394903361783484,
                1.9715463870305268,
                -0.7804599489681411,
                0.12958660307563738,
                -3.1924946282119055
            ]
        },
        {
            "positions": [
                0.05722042160505535,
                -1.1731316235192129,
                2.036009527657867,
                -0.8162001555618404,
                0.28824022499298896,
                -3.1782393736577617
            ]
        },
        {
            "positions": [
                -0.00837063257453348,
                -1.2067729108600773,
                2.1004726682852075,
                -0.8519403621555398,
                0.4468938469103405,
                -3.1639841191036173
            ]
        },
        {
            "positions": [
                -0.0739616867541223,
                -1.2404141982009418,
                2.164935808912548,
                -0.8876805687492391,
                0.6055474688276921,
                -3.1497288645494734
            ]
        },
        {
            "positions": [
                -0.13955274093371112,
                -1.274055485541806,
                2.2293989495398883,
                -0.9234207753429384,
                0.7642010907450437,
                -3.1354736099953295
            ]
        },
        {
            "positions": [
                -0.20514379511329994,
                -1.3076967728826705,
                2.2938620901672286,
                -0.9591609819366378,
                0.9228547126623954,
                -3.1212183554411856
            ]
        },
        {
            "positions": [
                -0.27073484929288877,
                -1.341338060223535,
                2.358325230794569,
                -0.9949011885303372,
                1.0815083345797467,
                -3.1069631008870413
            ]
        },
        {
            "positions": [
                -0.3363259034724776,
                -1.3749793475643994,
                2.4227883714219094,
                -1.0306413951240365,
                1.2401619564970985,
                -3.0927078463328974
            ]
        }
    ]
}