{
    "goal": {
        "global_pose": {
            "orientation": {
                "w": -0.00223480608172531,
                "x": 0.0024358444001904467,
                "y": 0.7094548369677653,
                "z": -0.704743149386269
            },
            "position": {
                "x": 0.6205249238014221,
                "y": -0.6371506643295288,
                "z": 0.19426114857196808
            }
        },
        "name": "move_to_magneteinheit_B"
    },
    "id": "EST_move_to_magneteinheit_B_70",
    "joint_names": [
        "shoulder_pan_joint",
        "shoulder_lift_joint",
        "elbow_joint",
        "wrist_1_joint",
        "wrist_2_joint",
        "wrist_3_joint"
    ],
    "metrics": {
        "cart_traj_len": 1.4536399649589296,
        "distance_elbow_joint": 0.7237815917986128,
        "distance_shoulder_lift_joint": 1.2445704542377345,
        "distance_shoulder_pan_joint": 1.6226746084469361,
        "distance_wrist_1_joint": 2.6205538566554902,
        "distance_wrist_2_joint": 2.932465932951965,
        "distance_wrist_3_joint": 3.149580489358339,
        "smoothness": 4.575464614972395e-16,
        "time": 0.467546758,
        "traj_len": 3.506226879916512,
        "weighted_distance": 4.913838387836255
    },
    "planner": "EST",
    "start": {
        "state": {
            "elbow_joint": 2.39358713078474,
            "shoulder_lift_joint": -1.908514104345545,
            "shoulder_pan_joint": 0.7066247066606129,
            "wrist_1_joint": -0.4678290933515497,
            "wrist_2_joint": 0.7096259083745334,
            "wrist_3_joint": -3.1358149277392293
        }
    },
    "waypoints": [
        {
            "positions": [
                0.7066247066606129,
                -1.908514104345545,
                2.39358713078474,
                -0.4678290933515497,
                0.7096259083745334,
                -3.1358149277392293
            ]
        },
        {
            "positions": [
                0.6559161251466462,
                -1.8696212776506158,
                2.3709689560410334,
                -0.3859367853310656,
                0.6179863479697845,
                -3.037390537446781
            ]
        },
        {
            "positions": [
                0.6052075436326795,
                -1.8307284509556865,
                2.3483507812973268,
                -0.3040444773105816,
                0.5263467875650356,
                -2.938966147154333
            ]
        },
        {
            "positions": [
                0.5544989621187126,
                -1.7918356242607574,
                2.32573260655362,
                -0.2221521692900975,
                0.4347072271602867,
                -2.840541756861885
            ]
        },
        {
            "positions": [
                0.5037903806047459,
                -1.752942797565828,
                2.3031144318099135,
                -0.14025986126961343,
                0.3430676667555378,
                -2.742117366569437
            ]
        },
        {
            "positions": [
                0.45308179909077917,
                -1.714049970870899,
                2.280496257066207,
                -0.058367553249129345,
                0.2514281063507889,
                -2.6436929762769887
            ]
        },
        {
            "positions": [
                0.40237321757681244,
                -1.6751571441759696,
                2.2578780823225,
                0.023524754771354683,
                0.15978854594603997,
                -2.545268585984541
            ]
        },
        {
            "positions": [
                0.35166463606284565,
                -1.6362643174810405,
                2.2352599075787936,
                0.10541706279183877,
                0.06814898554129101,
                -2.4468441956920928
            ]
        },
        {
            "positions": [
                0.3009560545488789,
                -1.5973714907861112,
                2.212641732835087,
                0.18730937081232285,
                -0.023490574863457847,
                -2.3484198053996446
            ]
        },
        {
            "positions": [
                0.2502474730349122,
                -1.558478664091182,
                2.1900235580913803,
                0.26920167883280693,
                -0.1151301352682067,
                -2.2499954151071964
            ]
        },
        {
            "positions": [
                0.1995388915209454,
                -1.519585837396253,
                2.1674053833476736,
                0.351093986853291,
                -0.20676969567295567,
                -2.151571024814748
            ]
        },
        {
            "positions": [
                0.14883031000697866,
                -1.4806930107013236,
                2.144787208603967,
                0.4329862948737751,
                -0.29840925607770463,
                -2.0531466345223004
            ]
        },
        {
            "positions": [
                0.09812172849301193,
                -1.4418001840063945,
                2.1221690338602603,
                0.5148786028942591,
                -0.3900488164824535,
                -1.9547222442298522
            ]
        },
        {
            "positions": [
                0.047413146979045195,
                -1.4029073573114652,
                2.0995508591165537,
                0.5967709109147432,
                -0.48168837688720234,
                -1.856297853937404
            ]
        },
        {
            "positions": [
                -0.0032954345349216485,
                -1.364014530616536,
                2.076932684372847,
                0.6786632189352273,
                -0.5733279372919514,
                -1.757873463644956
            ]
        },
        {
            "positions": [
                -0.05400401604888838,
                -1.325121703921607,
                2.0543145096291404,
                0.7605555269557114,
                -0.6649674976967003,
                -1.659449073352508
            ]
        },
        {
            "positions": [
                -0.10471259756285511,
                -1.2862288772266777,
                2.0316963348854338,
                0.8424478349761955,
                -0.7566070581014491,
                -1.5610246830600598
            ]
        },
        {
            "positions": [
                -0.15542117907682185,
                -1.2473360505317483,
                2.009078160141727,
                0.9243401429966795,
                -0.848246618506198,
                -1.4626002927676116
            ]
        },
        {
            "positions": [
                -0.20612976059078858,
                -1.2084432238368192,
                1.9864599853980205,
                1.0062324510171636,
                -0.9398861789109468,
                -1.3641759024751636
            ]
        },
        {
            "positions": [
                -0.2568383421047554,
                -1.1695503971418901,
                1.9638418106543138,
                1.0881247590376477,
                -1.031525739315696,
                -1.2657515121827156
            ]
        },
        {
            "positions": [
                -0.30754692361872216,
                -1.1306575704469608,
                1.9412236359106072,
                1.1700170670581318,
                -1.1231652997204447,
                -1.1673271218902674
            ]
        },
        {
            "positions": [
                -0.3582555051326889,
                -1.0917647437520317,
                1.9186054611669003,
                1.2519093750786159,
                -1.2148048601251937,
                -1.0689027315978192
            ]
        },
        {
            "positions": [
                -0.4089640866466556,
                -1.0528719170571024,
                1.8959872864231937,
                1.3338016830991,
                -1.3064444205299428,
                -0.9704783413053715
            ]
        },
        {
            "positions": [
                -0.45967266816062236,
                -1.0139790903621733,
                1.8733691116794873,
                1.415693991119584,
                -1.3980839809346914,
                -0.8720539510129233
            ]
        },
        {
            "positions": [
                -0.5103812496745891,
                -0.975086263667244,
                1.8507509369357804,
                1.497586299140068,
                -1.4897235413394405,
                -0.7736295607204751
            ]
        },
        {
            "positions": [
                -0.5610898311885558,
                -0.9361934369723148,
                1.8281327621920738,
                1.579478607160552,
                -1.5813631017441896,
                -0.6752051704280269
            ]
        },
        {
            "positions": [
                -0.6117984127025226,
                -0.8973006102773857,
                1.8055145874483671,
                1.661370915181036,
                -1.6730026621489382,
                -0.5767807801355787
            ]
        },
        {
            "positions": [
                -0.6625069942164895,
                -0.8584077835824564,
                1.7828964127046605,
                1.7432632232015202,
                -1.7646422225536873,
                -0.4783563898431309
            ]
        },
        {
            "positions": [
                -0.7132155757304562,
                -0.8195149568875273,
                1.7602782379609538,
                1.8251555312220042,
                -1.8562817829584364,
                -0.3799319995506827
            ]
        },
        {
            "positions": [
                -0.763924157244423,
                -0.780622130192598,
                1.7376600632172472,
                1.9070478392424883,
                -1.947921343363185,
                -0.2815076092582345
            ]
        },
        {
            "positions": [
                -0.8146327387583897,
                -0.7417293034976689,
                1.7150418884735406,
                1.9889401472629724,
                -2.039560903767934,
                -0.18308321896578672
            ]
        },
        {
            "positions": [
                -0.8653413202723564,
                -0.7028364768027395,
                1.692423713729834,
                2.0708324552834565,
                -2.1312004641726827,
                -0.08465882867333852
            ]
        },
        {
            "positions": [
                -0.9160499017863232,
                -0.6639436501078104,
                1.6698055389861273,
                2.1527247633039406,
                -2.222840024577432,
                0.013765561619109553
            ]
        }
    ]
}