{
    "goal": {
        "global_pose": {
            "orientation": {
                "w": -0.00223480608172531,
                "x": 0.0024358444001904467,
                "y": 0.7094548369677653,
                "z": -0.704743149386269
            },
            "position": {
                "x": 0.6205249238014221,
                "y": -0.6371506643295288,
                "z": 0.19426114857196808
            }
        },
        "name": "move_to_magneteinheit_B"
    },
    "id": "EST_move_to_magneteinheit_B_11",
    "joint_names": [
        "shoulder_pan_joint",
        "shoulder_lift_joint",
        "elbow_joint",
        "wrist_1_joint",
        "wrist_2_joint",
        "wrist_3_joint"
    ],
    "metrics": {
        "cart_traj_len": 1.4522844473081424,
        "distance_elbow_joint": 0.7294932545168875,
        "distance_shoulder_lift_joint": 1.2476824294508004,
        "distance_shoulder_pan_joint": 1.6206086339795942,
        "distance_wrist_1_joint": 2.6067072083908704,
        "distance_wrist_2_joint": 2.9365505702992425,
        "distance_wrist_3_joint": 3.1392695832127835,
        "smoothness": 4.440892118007475e-16,
        "time": 0.773243882,
        "traj_len": 3.504327564576431,
        "weighted_distance": 4.90938984243112
    },
    "planner": "EST",
    "start": {
        "state": {
            "elbow_joint": 2.39358713078474,
            "shoulder_lift_joint": -1.908514104345545,
            "shoulder_pan_joint": 0.7066247066606129,
            "wrist_1_joint": -0.4678290933515497,
            "wrist_2_joint": 0.7096259083745334,
            "wrist_3_joint": -3.1358149277392293
        }
    },
    "waypoints": [
        {
            "positions": [
                0.7066247066606129,
                -1.908514104345545,
                2.39358713078474,
                -0.4678290933515497,
                0.7096259083745334,
                -3.1358149277392293
            ]
        },
        {
            "positions": [
                0.6543470087903035,
                -1.8682662840406803,
                2.3700550903164532,
                -0.3837417640486184,
                0.614898470622945,
                -3.03454816699043
            ]
        },
        {
            "positions": [
                0.6020693109199939,
                -1.828018463735816,
                2.346523049848167,
                -0.2996544347456871,
                0.5201710328713565,
                -2.9332814062416306
            ]
        },
        {
            "positions": [
                0.5497916130496845,
                -1.7877706434309513,
                2.32299100937988,
                -0.2155671054427558,
                0.42544359511976804,
                -2.8320146454928308
            ]
        },
        {
            "positions": [
                0.497513915179375,
                -1.7475228231260869,
                2.299458968911593,
                -0.13147977613982448,
                0.33071615736817955,
                -2.7307478847440314
            ]
        },
        {
            "positions": [
                0.4452362173090655,
                -1.7072750028212222,
                2.275926928443307,
                -0.0473924468368932,
                0.23598871961659112,
                -2.629481123995232
            ]
        },
        {
            "positions": [
                0.39295851943875604,
                -1.6670271825163576,
                2.25239488797502,
                0.03669488246603808,
                0.14126128186500264,
                -2.5282143632464327
            ]
        },
        {
            "positions": [
                0.34068082156844653,
                -1.6267793622114932,
                2.228862847506733,
                0.12078221176896936,
                0.04653384411341421,
                -2.4269476024976333
            ]
        },
        {
            "positions": [
                0.28840312369813703,
                -1.5865315419066288,
                2.2053308070384463,
                0.20486954107190075,
                -0.048193593638174326,
                -2.3256808417488335
            ]
        },
        {
            "positions": [
                0.23612542582782747,
                -1.5462837216017642,
                2.18179876657016,
                0.28895687037483203,
                -0.14292103138976286,
                -2.224414081000034
            ]
        },
        {
            "positions": [
                0.18384772795751803,
                -1.5060359012968996,
                2.158266726101873,
                0.3730441996777633,
                -0.23764846914135118,
                -2.1231473202512348
            ]
        },
        {
            "positions": [
                0.13157003008720847,
                -1.4657880809920352,
                2.1347346856335863,
                0.4571315289806947,
                -0.33237590689293983,
                -2.021880559502435
            ]
        },
        {
            "positions": [
                0.07929233221689913,
                -1.4255402606871705,
                2.1112026451653,
                0.5412188582836259,
                -0.42710334464452815,
                -1.9206137987536358
            ]
        },
        {
            "positions": [
                0.027014634346589572,
                -1.385292440382306,
                2.087670604697013,
                0.6253061875865573,
                -0.5218307823961167,
                -1.8193470380048362
            ]
        },
        {
            "positions": [
                -0.025263063523719875,
                -1.3450446200774415,
                2.064138564228726,
                0.7093935168894885,
                -0.616558220147705,
                -1.7180802772560368
            ]
        },
        {
            "positions": [
                -0.07754076139402943,
                -1.304796799772577,
                2.04060652376044,
                0.7934808461924199,
                -0.7112856578992935,
                -1.6168135165072373
            ]
        },
        {
            "positions": [
                -0.12981845926433888,
                -1.2645489794677125,
                2.017074483292153,
                0.8775681754953513,
                -0.8060130956508821,
                -1.515546755758438
            ]
        },
        {
            "positions": [
                -0.18209615713464833,
                -1.2243011591628479,
                1.9935424428238662,
                0.9616555047982824,
                -0.9007405334024704,
                -1.4142799950096385
            ]
        },
        {
            "positions": [
                -0.234373855004958,
                -1.1840533388579835,
                1.9700104023555796,
                1.0457428341012138,
                -0.9954679711540592,
                -1.3130132342608387
            ]
        },
        {
            "positions": [
                -0.28665155287526745,
                -1.1438055185531188,
                1.946478361887293,
                1.1298301634041452,
                -1.0901954089056476,
                -1.2117464735120393
            ]
        },
        {
            "positions": [
                -0.3389292507455769,
                -1.1035576982482542,
                1.9229463214190061,
                1.2139174927070764,
                -1.1849228466572357,
                -1.1104797127632402
            ]
        },
        {
            "positions": [
                -0.39120694861588634,
                -1.0633098779433898,
                1.8994142809507195,
                1.2980048220100076,
                -1.2796502844088242,
                -1.0092129520144408
            ]
        },
        {
            "positions": [
                -0.443484646486196,
                -1.0230620576385252,
                1.875882240482433,
                1.3820921513129392,
                -1.3743777221604132,
                -0.907946191265641
            ]
        },
        {
            "positions": [
                -0.49576234435650546,
                -0.9828142373336607,
                1.852350200014146,
                1.4661794806158703,
                -1.4691051599120013,
                -0.8066794305168417
            ]
        },
        {
            "positions": [
                -0.5480400422268147,
                -0.9425664170287962,
                1.8288181595458595,
                1.5502668099188015,
                -1.5638325976635898,
                -0.7054126697680423
            ]
        },
        {
            "positions": [
                -0.6003177400971241,
                -0.9023185967239318,
                1.8052861190775729,
                1.634354139221733,
                -1.6585600354151784,
                -0.6041459090192429
            ]
        },
        {
            "positions": [
                -0.6525954379674338,
                -0.8620707764190672,
                1.781754078609286,
                1.7184414685246643,
                -1.753287473166767,
                -0.5028791482704431
            ]
        },
        {
            "positions": [
                -0.7048731358377432,
                -0.8218229561142025,
                1.7582220381409992,
                1.8025287978275957,
                -1.8480149109183555,
                -0.40161238752164374
            ]
        },
        {
            "positions": [
                -0.7571508337080527,
                -0.7815751358093381,
                1.7346899976727126,
                1.8866161271305266,
                -1.9427423486699436,
                -0.3003456267728444
            ]
        },
        {
            "positions": [
                -0.8094285315783621,
                -0.7413273155044735,
                1.711157957204426,
                1.970703456433458,
                -2.037469786421532,
                -0.199078866024045
            ]
        },
        {
            "positions": [
                -0.8617062294486718,
                -0.7010794951996089,
                1.6876259167361392,
                2.0547907857363894,
                -2.1321972241731206,
                -0.0978121052752452
            ]
        },
        {
            "positions": [
                -0.9139839273189813,
                -0.6608316748947444,
                1.6640938762678525,
                2.138878115039321,
                -2.226924661924709,
                0.0034546554735541656
            ]
        }
    ]
}