{
    "goal": {
        "global_pose": {
            "orientation": {
                "w": 0.7047431468963623,
                "x": -0.7094548344612122,
                "y": 0.0024358443915843964,
                "z": -0.0022348060738295317
            },
            "position": {
                "x": 0.6094750761985779,
                "y": 0.3671506643295288,
                "z": 0.19426114857196808
            }
        },
        "name": "move_to_magneteinheit_A"
    },
    "id": "EST_move_to_magneteinheit_A_51",
    "joint_names": [
        "shoulder_pan_joint",
        "shoulder_lift_joint",
        "elbow_joint",
        "wrist_1_joint",
        "wrist_2_joint",
        "wrist_3_joint"
    ],
    "metrics": {
        "cart_traj_len": 2.365286689276255,
        "distance_elbow_joint": 3.8794850952927318,
        "distance_shoulder_lift_joint": 1.056328431566675,
        "distance_shoulder_pan_joint": 1.2407146009436356,
        "distance_wrist_1_joint": 1.7274811376289239,
        "distance_wrist_2_joint": 1.4483991149046185,
        "distance_wrist_3_joint": 4.358397567260145,
        "smoothness": 0.06620456310021275,
        "time": 0.22427440599999998,
        "traj_len": 3.70281054708403,
        "weighted_distance": 5.05998827416137
    },
    "planner": "EST",
    "start": {
        "state": {
            "elbow_joint": -1.919643507792019,
            "shoulder_lift_joint": -0.07675430207160344,
            "shoulder_pan_joint": -1.1188671864651873,
            "wrist_1_joint": 0.42560062535961957,
            "wrist_2_joint": 1.5706038300724876,
            "wrist_3_joint": 1.1188968870953055
        }
    },
    "waypoints": [
        {
            "positions": [
                -1.1188671864651873,
                -0.07675430207160344,
                -1.919643507792019,
                0.42560062535961957,
                1.5706038300724876,
                1.1188968870953055
            ]
        },
        {
            "positions": [
                -1.0901652315416157,
                -0.09829524721639678,
                -1.8016496860210314,
                0.3700640007840504,
                1.53781917449024,
                0.9879621164450879
            ]
        },
        {
            "positions": [
                -1.0614632766180438,
                -0.11983619236119011,
                -1.6836558642500437,
                0.3145273762084812,
                1.5050345189079926,
                0.8570273457948703
            ]
        },
        {
            "positions": [
                -1.0327613216944722,
                -0.14137713750598346,
                -1.565662042479056,
                0.258990751632912,
                1.472249863325745,
                0.7260925751446526
            ]
        },
        {
            "positions": [
                -1.0040593667709006,
                -0.16291808265077679,
                -1.4476682207080684,
                0.20345412705734284,
                1.4394652077434975,
                0.595157804494435
            ]
        },
        {
            "positions": [
                -0.9753574118473288,
                -0.18445902779557016,
                -1.3296743989370807,
                0.14791750248177366,
                1.4066805521612502,
                0.46422303384421737
            ]
        },
        {
            "positions": [
                -0.9466554569237571,
                -0.20599997294036348,
                -1.211680577166093,
                0.09238087790620447,
                1.3738958965790027,
                0.33328826319399973
            ]
        },
        {
            "positions": [
                -0.9179535020001854,
                -0.2275409180851568,
                -1.0936867553951055,
                0.03684425333063529,
                1.3411112409967552,
                0.2023534925437822
            ]
        },
        {
            "positions": [
                -0.8892515470766137,
                -0.24908186322995016,
                -0.9756929336241177,
                -0.018692371244933892,
                1.3083265854145076,
                0.07141872189356446
            ]
        },
        {
            "positions": [
                -0.8605495921530419,
                -0.2706228083747435,
                -0.8576991118531301,
                -0.07422899582050307,
                1.2755419298322601,
                -0.05951604875665306
            ]
        },
        {
            "positions": [
                -0.8318476372294703,
                -0.29216375351953683,
                -0.7397052900821424,
                -0.12976562039607226,
                1.2427572742500126,
                -0.1904508194068708
            ]
        },
        {
            "positions": [
                -0.8031456823058986,
                -0.31370469866433015,
                -0.6217114683111549,
                -0.18530224497164144,
                1.209972618667765,
                -0.32138559005708833
            ]
        },
        {
            "positions": [
                -0.7744437273823268,
                -0.33524564380912353,
                -0.5037176465401669,
                -0.24083886954721062,
                1.1771879630855175,
                -0.4523203607073061
            ]
        },
        {
            "positions": [
                -0.7457417724587552,
                -0.35678658895391685,
                -0.38572382476917944,
                -0.2963754941227798,
                1.14440330750327,
                -0.5832551313575236
            ]
        },
        {
            "positions": [
                -0.7170398175351834,
                -0.37832753409871017,
                -0.26773000299819194,
                -0.351912118698349,
                1.1116186519210227,
                -0.7141899020077411
            ]
        },
        {
            "positions": [
                -0.6883378626116117,
                -0.3998684792435035,
                -0.14973618122720422,
                -0.40744874327391806,
                1.0788339963387752,
                -0.8451246726579587
            ]
        },
        {
            "positions": [
                -0.65963590768804,
                -0.42140942438829687,
                -0.031742359456216285,
                -0.46298536784948735,
                1.0460493407565274,
                -0.9760594433081766
            ]
        },
        {
            "positions": [
                -0.6309339527644683,
                -0.4429503695330902,
                0.08625146231477143,
                -0.5185219924250566,
                1.0132646851742801,
                -1.106994213958394
            ]
        },
        {
            "positions": [
                -0.6022319978408965,
                -0.4644913146778835,
                0.20424528408575893,
                -0.5740586170006257,
                0.9804800295920326,
                -1.2379289846086117
            ]
        },
        {
            "positions": [
                -0.5735300429173249,
                -0.48603225982267684,
                0.3222391058567464,
                -0.6295952415761947,
                0.9476953740097852,
                -1.3688637552588294
            ]
        },
        {
            "positions": [
                -0.5448280879937532,
                -0.5075732049674703,
                0.44023292762773436,
                -0.685131866151764,
                0.9149107184275376,
                -1.4997985259090472
            ]
        },
        {
            "positions": [
                -0.5161261330701814,
                -0.5291141501122636,
                0.5582267493987219,
                -0.7406684907273333,
                0.8821260628452902,
                -1.6307332965592645
            ]
        },
        {
            "positions": [
                -0.48742417814660977,
                -0.5506550952570569,
                0.6762205711697094,
                -0.7962051153029024,
                0.8493414072630426,
                -1.7616680672094822
            ]
        },
        {
            "positions": [
                -0.458722223223038,
                -0.5721960404018502,
                0.7942143929406973,
                -0.8517417398784715,
                0.8165567516807952,
                -1.8926028378597
            ]
        },
        {
            "positions": [
                -0.43002026829946627,
                -0.5937369855466437,
                0.9122082147116852,
                -0.9072783644540408,
                0.7837720960985476,
                -2.0235376085099177
            ]
        },
        {
            "positions": [
                -0.4013183133758945,
                -0.6152779306914369,
                1.0302020364826727,
                -0.96281498902961,
                0.7509874405163002,
                -2.154472379160135
            ]
        },
        {
            "positions": [
                -0.3726163584523229,
                -0.6368188758362303,
                1.14819585825366,
                -1.0183516136051791,
                0.7182027849340527,
                -2.2854071498103528
            ]
        },
        {
            "positions": [
                -0.3231699811592457,
                -0.6864452616164352,
                1.2293604311783652,
                -0.9899987237387666,
                0.6586029779574344,
                -2.3808165028458013
            ]
        },
        {
            "positions": [
                -0.27372360386616856,
                -0.73607164739664,
                1.3105250041030707,
                -0.9616458338723541,
                0.599003170980816,
                -2.47622585588125
            ]
        },
        {
            "positions": [
                -0.2242772265730914,
                -0.7856980331768447,
                1.391689577027776,
                -0.9332929440059415,
                0.5394033640041977,
                -2.5716352089166987
            ]
        },
        {
            "positions": [
                -0.17483084928001424,
                -0.8353244189570496,
                1.4728541499524812,
                -0.904940054139529,
                0.4798035570275795,
                -2.6670445619521477
            ]
        },
        {
            "positions": [
                -0.12538447198693708,
                -0.8849508047372544,
                1.5540187228771867,
                -0.8765871642731166,
                0.42020375005096117,
                -2.762453914987596
            ]
        },
        {
            "positions": [
                -0.07593809469385993,
                -0.9345771905174591,
                1.635183295801892,
                -0.8482342744067041,
                0.3606039430743429,
                -2.8578632680230447
            ]
        },
        {
            "positions": [
                -0.026491717400782766,
                -0.984203576297664,
                1.7163478687265972,
                -0.8198813845402916,
                0.3010041360977246,
                -2.9532726210584936
            ]
        },
        {
            "positions": [
                0.022954659892294393,
                -1.0338299620778688,
                1.7975124416513024,
                -0.791528494673879,
                0.24140432912110626,
                -3.048681974093942
            ]
        },
        {
            "positions": [
                0.07240103718537155,
                -1.0834563478580737,
                1.8786770145760079,
                -0.7631756048074665,
                0.18180452214448795,
                -3.144091327129391
            ]
        },
        {
            "positions": [
                0.12184741447844873,
                -1.1330827336382785,
                1.9598415875007131,
                -0.734822714941054,
                0.12220471516786964,
                -3.2395006801648396
            ]
        }
    ]
}