{
    "goal": {
        "global_pose": {
            "orientation": {
                "w": 0.5084816217422485,
                "x": -0.49083608388900757,
                "y": 0.5182115435600281,
                "z": -0.4816462993621826
            },
            "position": {
                "x": 0.5540239810943604,
                "y": 0.030875300988554955,
                "z": 0.16403168439865112
            }
        },
        "name": "move_to_storage_A"
    },
    "id": "EST_move_to_storage_A_82",
    "joint_names": [
        "shoulder_pan_joint",
        "shoulder_lift_joint",
        "elbow_joint",
        "wrist_1_joint",
        "wrist_2_joint",
        "wrist_3_joint"
    ],
    "metrics": {
        "cart_traj_len": 0.35230360927652105,
        "distance_elbow_joint": 0.44970820163919,
        "distance_shoulder_lift_joint": 0.2333845710123399,
        "distance_shoulder_pan_joint": 0.4615212162466009,
        "distance_wrist_1_joint": 0.24364716385595286,
        "distance_wrist_2_joint": 1.0931853447402504,
        "distance_wrist_3_joint": 0.10402163141232457,
        "smoothness": 0.0,
        "time": 0.092280865,
        "traj_len": 1.6079390936558071,
        "weighted_distance": 2.0323247526730346
    },
    "planner": "EST",
    "start": {
        "state": {
            "elbow_joint": 1.9715463870305268,
            "shoulder_lift_joint": -1.1394903361783484,
            "shoulder_pan_joint": 0.12281147578464417,
            "wrist_1_joint": -0.7804599489681411,
            "wrist_2_joint": 0.12958660307563738,
            "wrist_3_joint": -3.1924946282119055
        }
    },
    "waypoints": [
        {
            "positions": [
                0.12281147578464417,
                -1.1394903361783484,
                1.9715463870305268,
                -0.7804599489681411,
                0.12958660307563738,
                -3.1924946282119055
            ]
        },
        {
            "positions": [
                0.056879873463701186,
                -1.1728309891801112,
                2.0357904158361255,
                -0.8152666866618486,
                0.2857559380385303,
                -3.177634395153002
            ]
        },
        {
            "positions": [
                -0.0090517288572418,
                -1.206171642181874,
                2.100034444641724,
                -0.8500734243555562,
                0.44192527300142315,
                -3.1627741620940983
            ]
        },
        {
            "positions": [
                -0.07498333117818477,
                -1.2395122951836368,
                2.1642784734473226,
                -0.8848801620492637,
                0.5980946079643161,
                -3.147913929035195
            ]
        },
        {
            "positions": [
                -0.14091493349912776,
                -1.2728529481853998,
                2.228522502252921,
                -0.9196868997429712,
                0.754263942927209,
                -3.1330536959762916
            ]
        },
        {
            "positions": [
                -0.2068465358200708,
                -1.3061936011871627,
                2.2927665310585197,
                -0.9544936374366788,
                0.910433277890102,
                -3.118193462917388
            ]
        },
        {
            "positions": [
                -0.2727781381410137,
                -1.3395342541889255,
                2.357010559864118,
                -0.9893003751303864,
                1.0666026128529948,
                -3.1033332298584844
            ]
        },
        {
            "positions": [
                -0.33870974046195673,
                -1.3728749071906883,
                2.4212545886697168,
                -1.024107112824094,
                1.2227719478158878,
                -3.088472996799581
            ]
        }
    ]
}