{
    "goal": {
        "global_pose": {
            "orientation": {
                "w": 0.7031023502349854,
                "x": -0.7110244035720825,
                "y": 0.007748599164187908,
                "z": 0.005598929710686207
            },
            "position": {
                "x": 0.11585023208521307,
                "y": 0.44412534475326537,
                "z": 0.3711530566215515
            }
        },
        "name": "move_to_auspresseinheit_A"
    },
    "id": "EST_move_to_auspresseinheit_A_104",
    "joint_names": [
        "shoulder_pan_joint",
        "shoulder_lift_joint",
        "elbow_joint",
        "wrist_1_joint",
        "wrist_2_joint",
        "wrist_3_joint"
    ],
    "metrics": {
        "cart_traj_len": 1.7878740499331782,
        "distance_elbow_joint": 1.5944674547810567,
        "distance_shoulder_lift_joint": 0.5339900334233967,
        "distance_shoulder_pan_joint": 3.1071367661964846,
        "distance_wrist_1_joint": 4.83905418530634,
        "distance_wrist_2_joint": 0.8866813974738661,
        "distance_wrist_3_joint": 3.164682350176969,
        "smoothness": 0.7972213111910796,
        "time": 0.254142692,
        "traj_len": 3.758458751583967,
        "weighted_distance": 5.116748232079849
    },
    "planner": "EST",
    "start": {
        "state": {
            "elbow_joint": 2.422574709923281,
            "shoulder_lift_joint": -1.3736533754116391,
            "shoulder_pan_joint": -0.33786336945926293,
            "wrist_1_joint": -1.0288603412921917,
            "wrist_2_joint": 1.2330224858903978,
            "wrist_3_joint": -3.094022268022082
        }
    },
    "waypoints": [
        {
            "positions": [
                -0.33786336945926293,
                -1.3736533754116391,
                2.422574709923281,
                -1.0288603412921917,
                1.2330224858903978,
                -3.094022268022082
            ]
        },
        {
            "positions": [
                -0.39210177304363114,
                -1.3982905616145493,
                2.3797839555027998,
                -0.8863793352477365,
                1.1961054495964563,
                -3.011939784901838
            ]
        },
        {
            "positions": [
                -0.4463401766279994,
                -1.4229277478174593,
                2.336993201082319,
                -0.7438983292032812,
                1.1591884133025145,
                -2.929857301781594
            ]
        },
        {
            "positions": [
                -0.5005785802123677,
                -1.4475649340203696,
                2.2942024466618376,
                -0.6014173231588261,
                1.122271377008573,
                -2.8477748186613505
            ]
        },
        {
            "positions": [
                -0.5548169837967358,
                -1.4722021202232798,
                2.2514116922413563,
                -0.4589363171143709,
                1.0853543407146315,
                -2.7656923355411065
            ]
        },
        {
            "positions": [
                -0.6090553873811041,
                -1.4968393064261898,
                2.2086209378208754,
                -0.31645531106991565,
                1.0484373044206898,
                -2.6836098524208625
            ]
        },
        {
            "positions": [
                -0.6632937909654724,
                -1.5214764926291,
                2.165830183400394,
                -0.17397430502546052,
                1.0115202681267483,
                -2.6015273693006185
            ]
        },
        {
            "positions": [
                -0.7175321945498405,
                -1.5461136788320102,
                2.123039428979913,
                -0.03149329898100528,
                0.9746032318328068,
                -2.5194448861803744
            ]
        },
        {
            "positions": [
                -0.7717705981342088,
                -1.5707508650349202,
                2.080248674559432,
                0.11098770706344996,
                0.9376861955388652,
                -2.437362403060131
            ]
        },
        {
            "positions": [
                -0.826009001718577,
                -1.5953880512378305,
                2.0374579201389507,
                0.2534687131079052,
                0.9007691592449236,
                -2.355279919939887
            ]
        },
        {
            "positions": [
                -0.8802474053029452,
                -1.6200252374407407,
                1.9946671657184696,
                0.39594971915236044,
                0.8638521229509821,
                -2.273197436819643
            ]
        },
        {
            "positions": [
                -0.9344858088873136,
                -1.6446624236436507,
                1.9518764112979885,
                0.5384307251968157,
                0.8269350866570405,
                -2.191114953699399
            ]
        },
        {
            "positions": [
                -0.9887242124716817,
                -1.669299609846561,
                1.9090856568775072,
                0.6809117312412707,
                0.7900180503630989,
                -2.109032470579155
            ]
        },
        {
            "positions": [
                -1.0429626160560501,
                -1.6939367960494711,
                1.8662949024570261,
                0.8233927372857262,
                0.7531010140691574,
                -2.026949987458911
            ]
        },
        {
            "positions": [
                -1.0972010196404183,
                -1.7185739822523813,
                1.823504148036545,
                0.9658737433301812,
                0.7161839777752158,
                -1.9448675043386672
            ]
        },
        {
            "positions": [
                -1.1514394232247864,
                -1.7432111684552913,
                1.7807133936160637,
                1.1083547493746364,
                0.6792669414812742,
                -1.8627850212184232
            ]
        },
        {
            "positions": [
                -1.2056778268091546,
                -1.7678483546582016,
                1.7379226391955827,
                1.2508357554190916,
                0.6423499051873327,
                -1.7807025380981794
            ]
        },
        {
            "positions": [
                -1.259916230393523,
                -1.7924855408611118,
                1.6951318847751016,
                1.3933167614635469,
                0.6054328688933911,
                -1.6986200549779353
            ]
        },
        {
            "positions": [
                -1.3141546339778911,
                -1.8171227270640218,
                1.6523411303546203,
                1.5357977675080021,
                0.5685158325994496,
                -1.6165375718576915
            ]
        },
        {
            "positions": [
                -1.3683930375622595,
                -1.841759913266932,
                1.6095503759341392,
                1.6782787735524574,
                0.531598796305508,
                -1.5344550887374475
            ]
        },
        {
            "positions": [
                -1.2530259765570657,
                -1.84542010746516,
                1.6529638826448012,
                1.559839047415697,
                0.5418908911882289,
                -1.6236281537870216
            ]
        },
        {
            "positions": [
                -1.137658915551872,
                -1.8490803016633879,
                1.696377389355463,
                1.4413993212789362,
                0.5521829860709498,
                -1.7128012188365958
            ]
        },
        {
            "positions": [
                -1.0222918545466781,
                -1.852740495861616,
                1.739790896066125,
                1.3229595951421758,
                0.5624750809536707,
                -1.8019742838861699
            ]
        },
        {
            "positions": [
                -0.9069247935414844,
                -1.856400690059844,
                1.7832044027767868,
                1.204519869005415,
                0.5727671758363916,
                -1.891147348935744
            ]
        },
        {
            "positions": [
                -0.7915577325362906,
                -1.860060884258072,
                1.8266179094874488,
                1.0860801428686546,
                0.5830592707191126,
                -1.980320413985318
            ]
        },
        {
            "positions": [
                -0.6761906715310968,
                -1.8637210784562999,
                1.8700314161981106,
                0.967640416731894,
                0.5933513656018334,
                -2.0694934790348922
            ]
        },
        {
            "positions": [
                -0.560823610525903,
                -1.867381272654528,
                1.9134449229087727,
                0.8492006905951335,
                0.6036434604845543,
                -2.1586665440844666
            ]
        },
        {
            "positions": [
                -0.44545654952070923,
                -1.871041466852756,
                1.9568584296194347,
                0.7307609644583729,
                0.6139355553672753,
                -2.2478396091340405
            ]
        },
        {
            "positions": [
                -0.33008948851551545,
                -1.874701661050984,
                2.0002719363300967,
                0.6123212383216123,
                0.6242276502499962,
                -2.3370126741836144
            ]
        },
        {
            "positions": [
                -0.21472242751032167,
                -1.8783618552492118,
                2.0436854430407587,
                0.49388151218485166,
                0.634519745132717,
                -2.4261857392331887
            ]
        },
        {
            "positions": [
                -0.09935536650512788,
                -1.8820220494474398,
                2.0870989497514207,
                0.3754417860480912,
                0.644811840015438,
                -2.515358804282763
            ]
        },
        {
            "positions": [
                0.0160116945000659,
                -1.885682243645668,
                2.1305124564620823,
                0.25700205991133074,
                0.6551039348981589,
                -2.604531869332337
            ]
        },
        {
            "positions": [
                0.13137875550525968,
                -1.8893424378438959,
                2.1739259631727443,
                0.13856233377457006,
                0.6653960297808797,
                -2.693704934381911
            ]
        },
        {
            "positions": [
                0.24674581651045346,
                -1.8930026320421238,
                2.2173394698834064,
                0.020122607637809597,
                0.6756881246636007,
                -2.782877999431485
            ]
        },
        {
            "positions": [
                0.36211287751564725,
                -1.8966628262403518,
                2.2607529765940684,
                -0.09831711849895108,
                0.6859802195463216,
                -2.8720510644810595
            ]
        },
        {
            "positions": [
                0.47747993852084103,
                -1.90032302043858,
                2.30416648330473,
                -0.21675684463571154,
                0.6962723144290425,
                -2.9612241295306334
            ]
        },
        {
            "positions": [
                0.5928469995260348,
                -1.9039832146368079,
                2.347579990015392,
                -0.3351965707724722,
                0.7065644093117635,
                -3.0503971945802073
            ]
        },
        {
            "positions": [
                0.7082140605312287,
                -1.9076434088350358,
                2.390993496726054,
                -0.45363629690923285,
                0.7168565041944843,
                -3.1395702596297816
            ]
        }
    ]
}