{
    "goal": {
        "global_pose": {
            "orientation": {
                "w": 0.7031023502349854,
                "x": -0.7110244035720825,
                "y": 0.007748599164187908,
                "z": 0.005598929710686207
            },
            "position": {
                "x": 0.11585023208521307,
                "y": 0.44412534475326537,
                "z": 0.3711530566215515
            }
        },
        "name": "move_to_auspresseinheit_A"
    },
    "id": "EST_move_to_auspresseinheit_A_51",
    "joint_names": [
        "shoulder_pan_joint",
        "shoulder_lift_joint",
        "elbow_joint",
        "wrist_1_joint",
        "wrist_2_joint",
        "wrist_3_joint"
    ],
    "metrics": {
        "cart_traj_len": 0.7378736001804584,
        "distance_elbow_joint": 0.4417374964272125,
        "distance_shoulder_lift_joint": 0.5330458523859218,
        "distance_shoulder_pan_joint": 1.0485515677970847,
        "distance_wrist_1_joint": 1.769386995922536,
        "distance_wrist_2_joint": 0.5138375371107841,
        "distance_wrist_3_joint": 3.7778243539644762,
        "smoothness": 0.9661373825148887,
        "time": 0.802499739,
        "traj_len": 2.8433050845113357,
        "weighted_distance": 4.233586782454127
    },
    "planner": "EST",
    "start": {
        "state": {
            "elbow_joint": 2.422574709923281,
            "shoulder_lift_joint": -1.3736533754116391,
            "shoulder_pan_joint": -0.33786336945926293,
            "wrist_1_joint": -1.0288603412921917,
            "wrist_2_joint": 1.2330224858903978,
            "wrist_3_joint": -3.094022268022082
        }
    },
    "waypoints": [
        {
            "positions": [
                -0.33786336945926293,
                -1.3736533754116391,
                2.422574709923281,
                -1.0288603412921917,
                1.2330224858903978,
                -3.094022268022082
            ]
        },
        {
            "positions": [
                -0.2857670830496506,
                -1.4119532133963242,
                2.404389863856429,
                -0.9389649588936508,
                1.2078598716224933,
                -2.9502701843819366
            ]
        },
        {
            "positions": [
                -0.2336707966400382,
                -1.4502530513810092,
                2.3862050177895773,
                -0.8490695764951098,
                1.1826972573545889,
                -2.806518100741791
            ]
        },
        {
            "positions": [
                -0.18157451023042584,
                -1.4885528893656943,
                2.3680201717227254,
                -0.7591741940965689,
                1.1575346430866844,
                -2.6627660171016454
            ]
        },
        {
            "positions": [
                -0.1294782238208135,
                -1.5268527273503794,
                2.349835325655873,
                -0.6692788116980279,
                1.1323720288187797,
                -2.5190139334615003
            ]
        },
        {
            "positions": [
                -0.07738193741120114,
                -1.5651525653350644,
                2.331650479589021,
                -0.579383429299487,
                1.1072094145508753,
                -2.3752618498213547
            ]
        },
        {
            "positions": [
                -0.02528565100158875,
                -1.6034524033197495,
                2.3134656335221693,
                -0.48948804690094616,
                1.0820468002829708,
                -2.231509766181209
            ]
        },
        {
            "positions": [
                0.02681063540802353,
                -1.6417522413044345,
                2.2952807874553174,
                -0.39959266450240527,
                1.0568841860150664,
                -2.0877576825410635
            ]
        },
        {
            "positions": [
                0.07890692181763592,
                -1.6800520792891196,
                2.2770959413884655,
                -0.30969728210386427,
                1.031721571747162,
                -1.944005598900918
            ]
        },
        {
            "positions": [
                0.13100320822724826,
                -1.7183519172738044,
                2.2589110953216136,
                -0.21980189970532338,
                1.0065589574792575,
                -1.8002535152607726
            ]
        },
        {
            "positions": [
                0.18309949463686065,
                -1.7566517552584895,
                2.2407262492547613,
                -0.12990651730678238,
                0.9813963432113529,
                -1.656501431620627
            ]
        },
        {
            "positions": [
                0.23519578104647304,
                -1.7949515932431745,
                2.2225414031879094,
                -0.0400111349082416,
                0.9562337289434484,
                -1.5127493479804814
            ]
        },
        {
            "positions": [
                0.28729206745608543,
                -1.8332514312278596,
                2.2043565571210575,
                0.049884247490299405,
                0.9310711146755439,
                -1.3689972643403359
            ]
        },
        {
            "positions": [
                0.33938835386569766,
                -1.8715512692125447,
                2.1861717110542056,
                0.13977962988884035,
                0.9059085004076395,
                -1.2252451807001905
            ]
        },
        {
            "positions": [
                0.3820007361905409,
                -1.8757634445919091,
                2.2103299142353805,
                0.07597124394550753,
                0.8856176196160691,
                -1.4337616763480072
            ]
        },
        {
            "positions": [
                0.4246131185153842,
                -1.8799756199712738,
                2.234488117416556,
                0.012162858002174703,
                0.8653267388244987,
                -1.642278171995824
            ]
        },
        {
            "positions": [
                0.4672255008402275,
                -1.8841877953506383,
                2.2586463205977307,
                -0.05164552794115812,
                0.8450358580329284,
                -1.8507946676436404
            ]
        },
        {
            "positions": [
                0.5098378831650707,
                -1.8883999707300028,
                2.2828045237789056,
                -0.11545391388449094,
                0.824744977241358,
                -2.059311163291457
            ]
        },
        {
            "positions": [
                0.552450265489914,
                -1.8926121461093672,
                2.3069627269600805,
                -0.17926229982782382,
                0.8044540964497875,
                -2.267827658939274
            ]
        },
        {
            "positions": [
                0.5950626478147574,
                -1.896824321488732,
                2.331120930141256,
                -0.2430706857711566,
                0.7841632156582171,
                -2.476344154587091
            ]
        },
        {
            "positions": [
                0.6376750301396006,
                -1.9010364968680964,
                2.3552791333224308,
                -0.30687907171448947,
                0.7638723348666467,
                -2.6848606502349073
            ]
        },
        {
            "positions": [
                0.6741816142387111,
                -1.9038678623328287,
                2.3733926709673865,
                -0.38392323328357664,
                0.7415286418231302,
                -2.9095765487888414
            ]
        },
        {
            "positions": [
                0.7106881983378217,
                -1.906699227797561,
                2.3915062086123426,
                -0.4609673948526638,
                0.7191849487796137,
                -3.1342924473427756
            ]
        }
    ]
}