{
    "goal": {
        "global_pose": {
            "orientation": {
                "w": 0.7047431468963623,
                "x": -0.7094548344612122,
                "y": 0.0024358443915843964,
                "z": -0.0022348060738295317
            },
            "position": {
                "x": 0.6094750761985779,
                "y": 0.3671506643295288,
                "z": 0.19426114857196808
            }
        },
        "name": "move_to_magneteinheit_A"
    },
    "id": "EST_move_to_magneteinheit_A_79",
    "joint_names": [
        "shoulder_pan_joint",
        "shoulder_lift_joint",
        "elbow_joint",
        "wrist_1_joint",
        "wrist_2_joint",
        "wrist_3_joint"
    ],
    "metrics": {
        "cart_traj_len": 2.0213866687011697,
        "distance_elbow_joint": 3.8804418912818504,
        "distance_shoulder_lift_joint": 1.1284379926518076,
        "distance_shoulder_pan_joint": 1.2421832379051674,
        "distance_wrist_1_joint": 1.1532892705841817,
        "distance_wrist_2_joint": 1.47525725818286,
        "distance_wrist_3_joint": 4.35775343058569,
        "smoothness": 0.06847759458574942,
        "time": 0.218619573,
        "traj_len": 3.6383187162742563,
        "weighted_distance": 4.957964952591939
    },
    "planner": "EST",
    "start": {
        "state": {
            "elbow_joint": -1.919643507792019,
            "shoulder_lift_joint": -0.07675430207160344,
            "shoulder_pan_joint": -1.1188671864651873,
            "wrist_1_joint": 0.42560062535961957,
            "wrist_2_joint": 1.5706038300724876,
            "wrist_3_joint": 1.1188968870953055
        }
    },
    "waypoints": [
        {
            "positions": [
                -1.1188671864651873,
                -0.07675430207160344,
                -1.919643507792019,
                0.42560062535961957,
                1.5706038300724876,
                1.1188968870953055
            ]
        },
        {
            "positions": [
                -1.0839731175747722,
                -0.11089934295439013,
                -1.8020343343069951,
                0.3908074660710089,
                1.5250875168932103,
                0.9939392949507422
            ]
        },
        {
            "positions": [
                -1.0490790486843569,
                -0.14504438383717683,
                -1.6844251608219711,
                0.3560143067823982,
                1.479571203713933,
                0.8689817028061787
            ]
        },
        {
            "positions": [
                -1.0141849797939417,
                -0.17918942471996352,
                -1.566815987336947,
                0.3212211474937875,
                1.4340548905346555,
                0.7440241106616153
            ]
        },
        {
            "positions": [
                -0.9792909109035264,
                -0.2133344656027502,
                -1.449206813851923,
                0.28642798820517684,
                1.3885385773553782,
                0.6190665185170519
            ]
        },
        {
            "positions": [
                -0.9443968420131112,
                -0.2474795064855369,
                -1.331597640366899,
                0.2516348289165662,
                1.343022264176101,
                0.4941089263724885
            ]
        },
        {
            "positions": [
                -0.909502773122696,
                -0.2816245473683236,
                -1.213988466881875,
                0.21684166962795548,
                1.2975059509968236,
                0.3691513342279251
            ]
        },
        {
            "positions": [
                -0.8746087042322808,
                -0.3157695882511103,
                -1.096379293396851,
                0.1820485103393448,
                1.2519896378175464,
                0.24419374208336164
            ]
        },
        {
            "positions": [
                -0.8397146353418655,
                -0.349914629133897,
                -0.978770119911827,
                0.14725535105073412,
                1.206473324638269,
                0.11923614993879827
            ]
        },
        {
            "positions": [
                -0.8048205664514503,
                -0.3840596700166837,
                -0.8611609464268031,
                0.11246219176212341,
                1.1609570114589916,
                -0.005721442205765204
            ]
        },
        {
            "positions": [
                -0.769926497561035,
                -0.41820471089947037,
                -0.7435517729417791,
                0.07766903247351276,
                1.1154406982797143,
                -0.13067903435032857
            ]
        },
        {
            "positions": [
                -0.7350324286706198,
                -0.45234975178225706,
                -0.6259425994567551,
                0.0428758731849021,
                1.069924385100437,
                -0.25563662649489194
            ]
        },
        {
            "positions": [
                -0.7001383597802047,
                -0.48649479266504375,
                -0.5083334259717309,
                0.008082713896291394,
                1.0244080719211597,
                -0.3805942186394553
            ]
        },
        {
            "positions": [
                -0.6652442908897893,
                -0.5206398335478304,
                -0.39072425248670695,
                -0.026710445392319315,
                0.9788917587418823,
                -0.5055518107840187
            ]
        },
        {
            "positions": [
                -0.6303502219993742,
                -0.5547848744306172,
                -0.27311507900168297,
                -0.06150360468092997,
                0.933375445562605,
                -0.6305094029285823
            ]
        },
        {
            "positions": [
                -0.5954561531089589,
                -0.5889299153134038,
                -0.155505905516659,
                -0.09629676396954062,
                0.8878591323833276,
                -0.7554669950731456
            ]
        },
        {
            "positions": [
                -0.5605620842185437,
                -0.6230749561961906,
                -0.037896732031635016,
                -0.13108992325815133,
                0.8423428192040503,
                -0.880424587217709
            ]
        },
        {
            "positions": [
                -0.5256680153281285,
                -0.6572199970789772,
                0.07971244145338896,
                -0.16588308254676204,
                0.796826506024773,
                -1.0053821793622726
            ]
        },
        {
            "positions": [
                -0.4907739464377132,
                -0.691365037961764,
                0.19732161493841294,
                -0.20067624183537275,
                0.7513101928454956,
                -1.130339771506836
            ]
        },
        {
            "positions": [
                -0.455879877547298,
                -0.7255100788445505,
                0.3149307884234369,
                -0.23546940112398335,
                0.7057938796662183,
                -1.2552973636513993
            ]
        },
        {
            "positions": [
                -0.42098580865688273,
                -0.7596551197273373,
                0.4325399619084609,
                -0.27026256041259406,
                0.6602775664869409,
                -1.3802549557959627
            ]
        },
        {
            "positions": [
                -0.3860917397664676,
                -0.7938001606101239,
                0.5501491353934849,
                -0.30505571970120476,
                0.6147612533076636,
                -1.505212547940526
            ]
        },
        {
            "positions": [
                -0.35119767087605236,
                -0.8279452014929107,
                0.6677583088785088,
                -0.33984887898981536,
                0.5692449401283863,
                -1.6301701400850894
            ]
        },
        {
            "positions": [
                -0.3163036019856371,
                -0.8620902423756973,
                0.7853674823635328,
                -0.37464203827842607,
                0.523728626949109,
                -1.7551277322296528
            ]
        },
        {
            "positions": [
                -0.2814095330952219,
                -0.8962352832584841,
                0.9029766558485572,
                -0.4094351975670368,
                0.47821231376983175,
                -1.8800853243742162
            ]
        },
        {
            "positions": [
                -0.24651546420480663,
                -0.9303803241412707,
                1.0205858293335812,
                -0.4442283568556475,
                0.43269600059055424,
                -2.0050429165187795
            ]
        },
        {
            "positions": [
                -0.2116213953143914,
                -0.9645253650240575,
                1.1381950028186052,
                -0.4790215161442582,
                0.38717968741127695,
                -2.130000508663343
            ]
        },
        {
            "positions": [
                -0.17672732642397615,
                -0.9986704059068441,
                1.2558041763036292,
                -0.5138146754328687,
                0.34166337423199966,
                -2.2549581008079067
            ]
        },
        {
            "positions": [
                -0.14183325753356102,
                -1.0328154467896309,
                1.3734133497886531,
                -0.5486078347214796,
                0.29614706105272237,
                -2.37991569295247
            ]
        },
        {
            "positions": [
                -0.10693918864314567,
                -1.0669604876724175,
                1.4910225232736771,
                -0.5834009940100902,
                0.2506307478734451,
                -2.5048732850970334
            ]
        },
        {
            "positions": [
                -0.07204511975273054,
                -1.1011055285552043,
                1.608631696758701,
                -0.6181941532987008,
                0.20511443469416757,
                -2.629830877241597
            ]
        },
        {
            "positions": [
                -0.03715105086231518,
                -1.135250569437991,
                1.726240870243725,
                -0.6529873125873116,
                0.15959812151489028,
                -2.75478846938616
            ]
        },
        {
            "positions": [
                -0.0022569819719000447,
                -1.1693956103207777,
                1.843850043728749,
                -0.6877804718759223,
                0.11408180833561299,
                -2.8797460615307235
            ]
        },
        {
            "positions": [
                0.060529534734039984,
                -1.1514972681194608,
                1.9023242136092904,
                -0.7077345585502423,
                0.12344942655860573,
                -3.059301302510554
            ]
        },
        {
            "positions": [
                0.12331605143998002,
                -1.1335989259181443,
                1.9607983834898315,
                -0.7276886452245622,
                0.13281704478159848,
                -3.238856543490384
            ]
        }
    ]
}