{
    "goal": {
        "global_pose": {
            "orientation": {
                "w": 0.5084816217422485,
                "x": -0.49083608388900757,
                "y": 0.5182115435600281,
                "z": -0.4816462993621826
            },
            "position": {
                "x": 0.5540239810943604,
                "y": 0.030875300988554955,
                "z": 0.16403168439865112
            }
        },
        "name": "move_to_storage_A"
    },
    "id": "EST_move_to_storage_A_91",
    "joint_names": [
        "shoulder_pan_joint",
        "shoulder_lift_joint",
        "elbow_joint",
        "wrist_1_joint",
        "wrist_2_joint",
        "wrist_3_joint"
    ],
    "metrics": {
        "cart_traj_len": 0.3527283347908683,
        "distance_elbow_joint": 0.4477600329062752,
        "distance_shoulder_lift_joint": 0.2340665206725585,
        "distance_shoulder_pan_joint": 0.4574220041363597,
        "distance_wrist_1_joint": 0.2353873757896473,
        "distance_wrist_2_joint": 1.1141332644840638,
        "distance_wrist_3_joint": 0.10525867941336164,
        "smoothness": 1.1102230298998083e-15,
        "time": 0.062066883,
        "traj_len": 1.6105986084069073,
        "weighted_distance": 2.038152564579674
    },
    "planner": "EST",
    "start": {
        "state": {
            "elbow_joint": 1.9715463870305268,
            "shoulder_lift_joint": -1.1394903361783484,
            "shoulder_pan_joint": 0.12281147578464417,
            "wrist_1_joint": -0.7804599489681411,
            "wrist_2_joint": 0.12958660307563738,
            "wrist_3_joint": -3.1924946282119055
        }
    },
    "waypoints": [
        {
            "positions": [
                0.12281147578464417,
                -1.1394903361783484,
                1.9715463870305268,
                -0.7804599489681411,
                0.12958660307563738,
                -3.1924946282119055
            ]
        },
        {
            "positions": [
                0.057465475193735654,
                -1.1729284105601425,
                2.0355121060171375,
                -0.8140867169380906,
                0.2887484980019322,
                -3.1774576740099967
            ]
        },
        {
            "positions": [
                -0.007880525397172863,
                -1.2063664849419364,
                2.0994778250037482,
                -0.8477134849080403,
                0.447910392928227,
                -3.162420719808088
            ]
        },
        {
            "positions": [
                -0.0732265259880814,
                -1.2398045593237306,
                2.163443543990359,
                -0.8813402528779899,
                0.6070722878545218,
                -3.147383765606179
            ]
        },
        {
            "positions": [
                -0.13857252657898989,
                -1.2732426337055247,
                2.2274092629769697,
                -0.9149670208479396,
                0.7662341827808167,
                -3.1323468114042705
            ]
        },
        {
            "positions": [
                -0.20391852716989844,
                -1.3066807080873188,
                2.2913749819635805,
                -0.9485937888178891,
                0.9253960777071115,
                -3.1173098572023616
            ]
        },
        {
            "positions": [
                -0.26926452776080695,
                -1.3401187824691128,
                2.355340700950191,
                -0.9822205567878388,
                1.0845579726334063,
                -3.1022729030004528
            ]
        },
        {
            "positions": [
                -0.3346105283517155,
                -1.373556856850907,
                2.419306419936802,
                -1.0158473247577884,
                1.2437198675597012,
                -3.087235948798544
            ]
        }
    ]
}