{
    "goal": {
        "global_pose": {
            "orientation": {
                "w": -0.00223480608172531,
                "x": 0.0024358444001904467,
                "y": 0.7094548369677653,
                "z": -0.704743149386269
            },
            "position": {
                "x": 0.6205249238014221,
                "y": -0.6371506643295288,
                "z": 0.19426114857196808
            }
        },
        "name": "move_to_magneteinheit_B"
    },
    "id": "EST_move_to_magneteinheit_B_119",
    "joint_names": [
        "shoulder_pan_joint",
        "shoulder_lift_joint",
        "elbow_joint",
        "wrist_1_joint",
        "wrist_2_joint",
        "wrist_3_joint"
    ],
    "metrics": {
        "cart_traj_len": 1.4527073040782426,
        "distance_elbow_joint": 0.7304962010355225,
        "distance_shoulder_lift_joint": 1.2479121562149023,
        "distance_shoulder_pan_joint": 1.6202956645282396,
        "distance_wrist_1_joint": 2.607466879893673,
        "distance_wrist_2_joint": 2.9396138509376977,
        "distance_wrist_3_joint": 3.1392217297457425,
        "smoothness": 2.9605947481851345e-16,
        "time": 0.050788298,
        "traj_len": 3.504997358394979,
        "weighted_distance": 4.9102475164372965
    },
    "planner": "EST",
    "start": {
        "state": {
            "elbow_joint": 2.39358713078474,
            "shoulder_lift_joint": -1.908514104345545,
            "shoulder_pan_joint": 0.7066247066606129,
            "wrist_1_joint": -0.4678290933515497,
            "wrist_2_joint": 0.7096259083745334,
            "wrist_3_joint": -3.1358149277392293
        }
    },
    "waypoints": [
        {
            "positions": [
                0.7066247066606129,
                -1.908514104345545,
                2.39358713078474,
                -0.4678290933515497,
                0.7096259083745334,
                -3.1358149277392293
            ]
        },
        {
            "positions": [
                0.6559904671441055,
                -1.8695168494638292,
                2.37075912450238,
                -0.3863457533548724,
                0.6177629755327304,
                -3.037714248684675
            ]
        },
        {
            "positions": [
                0.605356227627598,
                -1.8305195945821136,
                2.34793111822002,
                -0.30486241335819514,
                0.5259000426909273,
                -2.9396135696301204
            ]
        },
        {
            "positions": [
                0.5547219881110905,
                -1.7915223397003979,
                2.32510311193766,
                -0.22337907336151785,
                0.43403710984912425,
                -2.841512890575566
            ]
        },
        {
            "positions": [
                0.5040877485945829,
                -1.7525250848186822,
                2.3022751056553,
                -0.14189573336484057,
                0.3421741770073212,
                -2.7434122115210116
            ]
        },
        {
            "positions": [
                0.4534535090780755,
                -1.7135278299369665,
                2.27944709937294,
                -0.060412393368163286,
                0.2503112441655182,
                -2.645311532466457
            ]
        },
        {
            "positions": [
                0.402819269561568,
                -1.6745305750552508,
                2.2566190930905794,
                0.021070946628513998,
                0.15844831132371506,
                -2.5472108534119027
            ]
        },
        {
            "positions": [
                0.3521850300450605,
                -1.635533320173535,
                2.2337910868082194,
                0.10255428662519134,
                0.06658537848191204,
                -2.4491101743573482
            ]
        },
        {
            "positions": [
                0.30155079052855305,
                -1.5965360652918195,
                2.2109630805258593,
                0.18403762662186857,
                -0.025277554359890986,
                -2.351009495302794
            ]
        },
        {
            "positions": [
                0.2509165510120456,
                -1.5575388104101036,
                2.1881350742434993,
                0.2655209666185458,
                -0.11714048720169401,
                -2.2529088162482394
            ]
        },
        {
            "positions": [
                0.2002823114955381,
                -1.518541555528388,
                2.1653070679611393,
                0.34700430661522313,
                -0.20900342004349703,
                -2.154808137193685
            ]
        },
        {
            "positions": [
                0.14964807197903063,
                -1.4795443006466722,
                2.142479061678779,
                0.4284876466119005,
                -0.30086635288530006,
                -2.0567074581391305
            ]
        },
        {
            "positions": [
                0.09901383246252304,
                -1.4405470457649565,
                2.119651055396419,
                0.5099709866085778,
                -0.3927292857271033,
                -1.9586067790845758
            ]
        },
        {
            "positions": [
                0.04837959294601557,
                -1.4015497908832408,
                2.096823049114059,
                0.591454326605255,
                -0.48459221856890633,
                -1.8605061000300214
            ]
        },
        {
            "positions": [
                -0.0022546465704919028,
                -1.3625525360015251,
                2.073995042831699,
                0.6729376666019324,
                -0.5764551514107094,
                -1.762405420975467
            ]
        },
        {
            "positions": [
                -0.052888886086999376,
                -1.3235552811198095,
                2.051167036549339,
                0.7544210065986097,
                -0.6683180842525124,
                -1.6643047419209125
            ]
        },
        {
            "positions": [
                -0.10352312560350685,
                -1.2845580262380938,
                2.028339030266979,
                0.8359043465952869,
                -0.7601810170943154,
                -1.566204062866358
            ]
        },
        {
            "positions": [
                -0.15415736512001432,
                -1.245560771356378,
                2.0055110239846186,
                0.9173876865919641,
                -0.8520439499361184,
                -1.4681033838118036
            ]
        },
        {
            "positions": [
                -0.2047916046365218,
                -1.2065635164746624,
                1.9826830177022585,
                0.9988710265886414,
                -0.9439068827779215,
                -1.3700027047572492
            ]
        },
        {
            "positions": [
                -0.25542584415302927,
                -1.1675662615929467,
                1.9598550114198985,
                1.0803543665853188,
                -1.0357698156197244,
                -1.2719020257026947
            ]
        },
        {
            "positions": [
                -0.30606008366953674,
                -1.128569006711231,
                1.9370270051375384,
                1.161837706581996,
                -1.1276327484615276,
                -1.1738013466481403
            ]
        },
        {
            "positions": [
                -0.3566943231860443,
                -1.0895717518295154,
                1.9141989988551784,
                1.2433210465786733,
                -1.2194956813033309,
                -1.0757006675935856
            ]
        },
        {
            "positions": [
                -0.4073285627025517,
                -1.0505744969477995,
                1.8913709925728184,
                1.3248043865753507,
                -1.3113586141451337,
                -0.9775999885390312
            ]
        },
        {
            "positions": [
                -0.4579628022190593,
                -1.011577242066084,
                1.8685429862904583,
                1.406287726572028,
                -1.403221546986937,
                -0.8794993094844767
            ]
        },
        {
            "positions": [
                -0.5085970417355669,
                -0.9725799871843682,
                1.8457149800080983,
                1.4877710665687052,
                -1.4950844798287402,
                -0.7813986304299223
            ]
        },
        {
            "positions": [
                -0.5592312812520742,
                -0.9335827323026525,
                1.8228869737257383,
                1.5692544065653826,
                -1.586947412670543,
                -0.6832979513753679
            ]
        },
        {
            "positions": [
                -0.6098655207685818,
                -0.8945854774209367,
                1.800058967443378,
                1.6507377465620596,
                -1.6788103455123462,
                -0.5851972723208134
            ]
        },
        {
            "positions": [
                -0.6604997602850892,
                -0.8555882225392211,
                1.777230961161018,
                1.732221086558737,
                -1.770673278354149,
                -0.487096593266259
            ]
        },
        {
            "positions": [
                -0.7111339998015968,
                -0.8165909676575054,
                1.754402954878658,
                1.8137044265554145,
                -1.8625362111959523,
                -0.38899591421170454
            ]
        },
        {
            "positions": [
                -0.7617682393181041,
                -0.7775937127757897,
                1.7315749485962977,
                1.8951877665520915,
                -1.954399144037755,
                -0.2908952351571501
            ]
        },
        {
            "positions": [
                -0.8124024788346117,
                -0.738596457894074,
                1.7087469423139376,
                1.976671106548769,
                -2.0462620768795583,
                -0.19279455610259566
            ]
        },
        {
            "positions": [
                -0.8630367183511191,
                -0.6995992030123583,
                1.6859189360315776,
                2.058154446545446,
                -2.138125009721361,
                -0.09469387704804122
            ]
        },
        {
            "positions": [
                -0.9136709578676266,
                -0.6606019481306428,
                1.6630909297492176,
                2.1396377865421234,
                -2.2299879425631643,
                0.003406802006513339
            ]
        }
    ]
}