{
    "goal": {
        "global_pose": {
            "orientation": {
                "w": -0.00223480608172531,
                "x": 0.0024358444001904467,
                "y": 0.7094548369677653,
                "z": -0.704743149386269
            },
            "position": {
                "x": 0.6205249238014221,
                "y": -0.6371506643295288,
                "z": 0.19426114857196808
            }
        },
        "name": "move_to_magneteinheit_B"
    },
    "id": "EST_move_to_magneteinheit_B_96",
    "joint_names": [
        "shoulder_pan_joint",
        "shoulder_lift_joint",
        "elbow_joint",
        "wrist_1_joint",
        "wrist_2_joint",
        "wrist_3_joint"
    ],
    "metrics": {
        "cart_traj_len": 1.4530534174039613,
        "distance_elbow_joint": 0.7256130354640802,
        "distance_shoulder_lift_joint": 1.2451355992996358,
        "distance_shoulder_pan_joint": 1.6207192215404942,
        "distance_wrist_1_joint": 2.6191541925278625,
        "distance_wrist_2_joint": 2.933876453244323,
        "distance_wrist_3_joint": 3.1530658956770155,
        "smoothness": 4.844609569995735e-16,
        "time": 0.21240077899999998,
        "traj_len": 3.5067883309024253,
        "weighted_distance": 4.914949321700034
    },
    "planner": "EST",
    "start": {
        "state": {
            "elbow_joint": 2.39358713078474,
            "shoulder_lift_joint": -1.908514104345545,
            "shoulder_pan_joint": 0.7066247066606129,
            "wrist_1_joint": -0.4678290933515497,
            "wrist_2_joint": 0.7096259083745334,
            "wrist_3_joint": -3.1358149277392293
        }
    },
    "waypoints": [
        {
            "positions": [
                0.7066247066606129,
                -1.908514104345545,
                2.39358713078474,
                -0.4678290933515497,
                0.7096259083745334,
                -3.1358149277392293
            ]
        },
        {
            "positions": [
                0.6559772309874725,
                -1.8696036168674313,
                2.3709117234264876,
                -0.385980524835054,
                0.6179422692106483,
                -3.0372816184993225
            ]
        },
        {
            "positions": [
                0.6053297553143321,
                -1.8306931293893176,
                2.348236316068235,
                -0.30413195631855827,
                0.5262586300467632,
                -2.9387483092594158
            ]
        },
        {
            "positions": [
                0.5546822796411917,
                -1.7917826419112042,
                2.3255609087099827,
                -0.22228338780206258,
                0.43457499088287815,
                -2.840215000019509
            ]
        },
        {
            "positions": [
                0.5040348039680511,
                -1.7528721544330905,
                2.30288550135173,
                -0.1404348192855669,
                0.34289135171899304,
                -2.741681690779602
            ]
        },
        {
            "positions": [
                0.45338732829491074,
                -1.7139616669549769,
                2.2802100939934777,
                -0.0585862507690712,
                0.25120771255510793,
                -2.643148381539696
            ]
        },
        {
            "positions": [
                0.40273985262177026,
                -1.6750511794768632,
                2.257534686635225,
                0.023262317747424544,
                0.15952407339122288,
                -2.5446150722997887
            ]
        },
        {
            "positions": [
                0.3520923769486298,
                -1.6361406919987496,
                2.2348592792769724,
                0.10511088626392023,
                0.06784043422733776,
                -2.4460817630598823
            ]
        },
        {
            "positions": [
                0.3014449012754894,
                -1.597230204520636,
                2.21218387191872,
                0.18695945478041592,
                -0.023843204936547346,
                -2.3475484538199756
            ]
        },
        {
            "positions": [
                0.25079742560234897,
                -1.5583197170425223,
                2.1895084645604674,
                0.2688080232969116,
                -0.11552684410043246,
                -2.249015144580069
            ]
        },
        {
            "positions": [
                0.20014994992920854,
                -1.5194092295644088,
                2.166833057202215,
                0.3506565918134073,
                -0.20721048326431757,
                -2.150481835340162
            ]
        },
        {
            "positions": [
                0.1495024742560681,
                -1.4804987420862952,
                2.1441576498439625,
                0.432505160329903,
                -0.29889412242820257,
                -2.0519485261002552
            ]
        },
        {
            "positions": [
                0.09885499858292757,
                -1.4415882546081815,
                2.12148224248571,
                0.5143537288463988,
                -0.3905777615920877,
                -1.9534152168603485
            ]
        },
        {
            "positions": [
                0.04820752290978714,
                -1.4026777671300679,
                2.0988068351274576,
                0.5962022973628944,
                -0.4822614007559728,
                -1.8548819076204417
            ]
        },
        {
            "positions": [
                -0.0024399527633532925,
                -1.3637672796519542,
                2.076131427769205,
                0.6780508658793902,
                -0.5739450399198579,
                -1.7563485983805351
            ]
        },
        {
            "positions": [
                -0.05308742843649372,
                -1.3248567921738408,
                2.0534560204109527,
                0.7598994343958858,
                -0.665628679083743,
                -1.6578152891406284
            ]
        },
        {
            "positions": [
                -0.10373490410963415,
                -1.285946304695727,
                2.0307806130527,
                0.8417480029123816,
                -0.7573123182476281,
                -1.5592819799007216
            ]
        },
        {
            "positions": [
                -0.15438237978277458,
                -1.2470358172176135,
                2.0081052056944473,
                0.9235965714288774,
                -0.8489959574115132,
                -1.4607486706608148
            ]
        },
        {
            "positions": [
                -0.205029855455915,
                -1.2081253297394998,
                1.9854297983361948,
                1.005445139945373,
                -0.9406795965753983,
                -1.362215361420908
            ]
        },
        {
            "positions": [
                -0.25567733112905544,
                -1.1692148422613862,
                1.9627543909779424,
                1.0872937084618688,
                -1.0323632357392833,
                -1.2636820521810015
            ]
        },
        {
            "positions": [
                -0.30632480680219587,
                -1.1303043547832725,
                1.94007898361969,
                1.1691422769783644,
                -1.1240468749031685,
                -1.1651487429410947
            ]
        },
        {
            "positions": [
                -0.3569722824753364,
                -1.0913938673051589,
                1.9174035762614374,
                1.2509908454948602,
                -1.2157305140670536,
                -1.066615433701188
            ]
        },
        {
            "positions": [
                -0.40761975814847673,
                -1.0524833798270454,
                1.894728168903185,
                1.3328394140113557,
                -1.3074141532309387,
                -0.9680821244612812
            ]
        },
        {
            "positions": [
                -0.45826723382161727,
                -1.0135728923489316,
                1.8720527615449325,
                1.4146879825278516,
                -1.3990977923948238,
                -0.8695488152213744
            ]
        },
        {
            "positions": [
                -0.5089147094947578,
                -0.9746624048708181,
                1.84937735418668,
                1.4965365510443474,
                -1.490781431558709,
                -0.7710155059814676
            ]
        },
        {
            "positions": [
                -0.5595621851678981,
                -0.9357519173927045,
                1.8267019468284276,
                1.578385119560843,
                -1.582465070722594,
                -0.6724821967415608
            ]
        },
        {
            "positions": [
                -0.6102096608410387,
                -0.8968414299145908,
                1.8040265394701749,
                1.6602336880773385,
                -1.6741487098864791,
                -0.5739488875016541
            ]
        },
        {
            "positions": [
                -0.660857136514179,
                -0.8579309424364772,
                1.7813511321119224,
                1.7420822565938345,
                -1.7658323490503642,
                -0.47541557826174774
            ]
        },
        {
            "positions": [
                -0.7115046121873195,
                -0.8190204549583635,
                1.75867572475367,
                1.8239308251103301,
                -1.8575159882142493,
                -0.37688226902184097
            ]
        },
        {
            "positions": [
                -0.7621520878604598,
                -0.7801099674802501,
                1.7360003173954173,
                1.9057793936268257,
                -1.9491996273781345,
                -0.2783489597819342
            ]
        },
        {
            "positions": [
                -0.8127995635336004,
                -0.7411994800021364,
                1.7133249100371648,
                1.9876279621433213,
                -2.0408832665420196,
                -0.17981565054202742
            ]
        },
        {
            "positions": [
                -0.8634470392067407,
                -0.7022889925240228,
                1.6906495026789123,
                2.0694765306598173,
                -2.1325669057059047,
                -0.08128234130212064
            ]
        },
        {
            "positions": [
                -0.9140945148798812,
                -0.6633785050459091,
                1.6679740953206599,
                2.151325099176313,
                -2.22425054486979,
                0.017250967937786087
            ]
        }
    ]
}