{
    "goal": {
        "global_pose": {
            "orientation": {
                "w": 0.7047431468963623,
                "x": -0.7094548344612122,
                "y": 0.0024358443915843964,
                "z": -0.0022348060738295317
            },
            "position": {
                "x": 0.6094750761985779,
                "y": 0.3671506643295288,
                "z": 0.19426114857196808
            }
        },
        "name": "move_to_magneteinheit_A"
    },
    "id": "EST_move_to_magneteinheit_A_97",
    "joint_names": [
        "shoulder_pan_joint",
        "shoulder_lift_joint",
        "elbow_joint",
        "wrist_1_joint",
        "wrist_2_joint",
        "wrist_3_joint"
    ],
    "metrics": {
        "cart_traj_len": 2.277574542778289,
        "distance_elbow_joint": 4.041228734262713,
        "distance_shoulder_lift_joint": 1.0537488544256555,
        "distance_shoulder_pan_joint": 1.2406419430624593,
        "distance_wrist_1_joint": 1.1491498024607596,
        "distance_wrist_2_joint": 1.441090327260698,
        "distance_wrist_3_joint": 4.375672381197079,
        "smoothness": 0.11638707746912365,
        "time": 0.076588849,
        "traj_len": 3.6471265460180247,
        "weighted_distance": 4.964183410671384
    },
    "planner": "EST",
    "start": {
        "state": {
            "elbow_joint": -1.919643507792019,
            "shoulder_lift_joint": -0.07675430207160344,
            "shoulder_pan_joint": -1.1188671864651873,
            "wrist_1_joint": 0.42560062535961957,
            "wrist_2_joint": 1.5706038300724876,
            "wrist_3_joint": 1.1188968870953055
        }
    },
    "waypoints": [
        {
            "positions": [
                -1.1188671864651873,
                -0.07675430207160344,
                -1.919643507792019,
                0.42560062535961957,
                1.5706038300724876,
                1.1188968870953055
            ]
        },
        {
            "positions": [
                -1.083198365003212,
                -0.10595587555234415,
                -1.7959682448745256,
                0.39004324498420057,
                1.5307511531071682,
                0.9903017080619103
            ]
        },
        {
            "positions": [
                -1.0475295435412366,
                -0.13515744903308485,
                -1.6722929819570322,
                0.35448586460878156,
                1.4908984761418487,
                0.8617065290285151
            ]
        },
        {
            "positions": [
                -1.0118607220792613,
                -0.1643590225138256,
                -1.5486177190395387,
                0.3189284842333626,
                1.4510457991765293,
                0.7331113499951197
            ]
        },
        {
            "positions": [
                -0.9761919006172858,
                -0.1935605959945663,
                -1.4249424561220452,
                0.2833711038579436,
                1.41119312221121,
                0.6045161709617245
            ]
        },
        {
            "positions": [
                -0.9405230791553104,
                -0.222762169475307,
                -1.3012671932045516,
                0.2478137234825246,
                1.3713404452458906,
                0.47592099192832926
            ]
        },
        {
            "positions": [
                -0.9048542576933349,
                -0.25196374295604773,
                -1.177591930287058,
                0.21225634310710562,
                1.3314877682805712,
                0.3473258128949339
            ]
        },
        {
            "positions": [
                -0.8691854362313596,
                -0.28116531643678844,
                -1.0539166673695648,
                0.17669896273168662,
                1.2916350913152517,
                0.21873063386153868
            ]
        },
        {
            "positions": [
                -0.8335166147693842,
                -0.31036688991752914,
                -0.9302414044520713,
                0.14114158235626761,
                1.2517824143499323,
                0.09013545482814345
            ]
        },
        {
            "positions": [
                -0.7978477933074088,
                -0.33956846339826985,
                -0.8065661415345777,
                0.10558420198084861,
                1.211929737384613,
                -0.03845972420525179
            ]
        },
        {
            "positions": [
                -0.7621789718454335,
                -0.36877003687901055,
                -0.6828908786170842,
                0.07002682160542961,
                1.1720770604192934,
                -0.16705490323864702
            ]
        },
        {
            "positions": [
                -0.726510150383458,
                -0.39797161035975126,
                -0.5592156156995909,
                0.03446944123001061,
                1.132224383453974,
                -0.29565008227204226
            ]
        },
        {
            "positions": [
                -0.6908413289214826,
                -0.427173183840492,
                -0.43554035278209735,
                -0.0010879391454083343,
                1.0923717064886547,
                -0.4242452613054377
            ]
        },
        {
            "positions": [
                -0.6551725074595073,
                -0.4563747573212327,
                -0.3118650898646038,
                -0.036645319520827335,
                1.0525190295233353,
                -0.552840440338833
            ]
        },
        {
            "positions": [
                -0.6195036859975318,
                -0.48557633080197343,
                -0.1881898269471105,
                -0.07220269989624634,
                1.012666352558016,
                -0.6814356193722282
            ]
        },
        {
            "positions": [
                -0.5838348645355564,
                -0.5147779042827141,
                -0.06451456402961697,
                -0.10776008027166534,
                0.9728136755926964,
                -0.8100307984056234
            ]
        },
        {
            "positions": [
                -0.5481660430735811,
                -0.5439794777634548,
                0.05916069888787656,
                -0.14331746064708434,
                0.932960998627377,
                -0.9386259774390187
            ]
        },
        {
            "positions": [
                -0.5124972216116057,
                -0.5731810512441955,
                0.1828359618053701,
                -0.17887484102250334,
                0.8931083216620577,
                -1.0672211564724141
            ]
        },
        {
            "positions": [
                -0.47682840014963035,
                -0.6023826247249362,
                0.30651122472286363,
                -0.21443222139792234,
                0.8532556446967382,
                -1.1958163355058091
            ]
        },
        {
            "positions": [
                -0.4411595786876549,
                -0.6315841982056769,
                0.43018648764035716,
                -0.24998960177334134,
                0.8134029677314187,
                -1.3244115145392046
            ]
        },
        {
            "positions": [
                -0.4054907572256795,
                -0.6607857716864176,
                0.5538617505578507,
                -0.28554698214876034,
                0.7735502907660994,
                -1.4530066935725996
            ]
        },
        {
            "positions": [
                -0.36982193576370415,
                -0.6899873451671583,
                0.6775370134753438,
                -0.32110436252417934,
                0.73369761380078,
                -1.581601872605995
            ]
        },
        {
            "positions": [
                -0.33415311430172867,
                -0.719188918647899,
                0.8012122763928373,
                -0.35666174289959834,
                0.6938449368354606,
                -1.71019705163939
            ]
        },
        {
            "positions": [
                -0.2984842928397533,
                -0.7483904921286397,
                0.9248875393103309,
                -0.39221912327501735,
                0.6539922598701411,
                -1.8387922306727855
            ]
        },
        {
            "positions": [
                -0.26281547137777794,
                -0.7775920656093807,
                1.0485628022278244,
                -0.42777650365043624,
                0.6141395829048217,
                -1.967387409706181
            ]
        },
        {
            "positions": [
                -0.22714664991580258,
                -0.8067936390901214,
                1.172238065145318,
                -0.46333388402585524,
                0.5742869059395024,
                -2.095982588739576
            ]
        },
        {
            "positions": [
                -0.19147782845382721,
                -0.8359952125708621,
                1.2959133280628115,
                -0.49889126440127424,
                0.534434228974183,
                -2.2245777677729714
            ]
        },
        {
            "positions": [
                -0.15580900699185174,
                -0.8651967860516028,
                1.419588590980305,
                -0.5344486447766932,
                0.49458155200886345,
                -2.3531729468063665
            ]
        },
        {
            "positions": [
                -0.12014018552987638,
                -0.8943983595323435,
                1.543263853897798,
                -0.5700060251521122,
                0.4547288750435441,
                -2.481768125839762
            ]
        },
        {
            "positions": [
                -0.0844713640679009,
                -0.9235999330130842,
                1.6669391168152916,
                -0.6055634055275312,
                0.41487619807822473,
                -2.610363304873157
            ]
        },
        {
            "positions": [
                -0.048802542605925536,
                -0.9528015064938249,
                1.7906143797327851,
                -0.6411207859029502,
                0.37502352111290516,
                -2.7389584839065524
            ]
        },
        {
            "positions": [
                -0.013133721143950172,
                -0.9820030799745656,
                1.9142896426502787,
                -0.6766781662783692,
                0.3351708441475858,
                -2.8675536629399474
            ]
        },
        {
            "positions": [
                0.022535100318025136,
                -1.0112046534553063,
                2.037964905567772,
                -0.7122355466537883,
                0.29531816718226644,
                -2.996148841973343
            ]
        },
        {
            "positions": [
                0.07215492845764854,
                -1.0708539049762826,
                1.9961547451163113,
                -0.7065787314301126,
                0.21241583499702793,
                -3.126462168037558
            ]
        },
        {
            "positions": [
                0.12177475659727192,
                -1.130503156497259,
                1.9543445846648506,
                -0.7009219162064368,
                0.12951350281178944,
                -3.256775494101773
            ]
        }
    ]
}