{
    "goal": {
        "global_pose": {
            "orientation": {
                "w": 0.7031023502349854,
                "x": -0.7110244035720825,
                "y": 0.007748599164187908,
                "z": 0.005598929710686207
            },
            "position": {
                "x": 0.11585023208521307,
                "y": 0.44412534475326537,
                "z": 0.3711530566215515
            }
        },
        "name": "move_to_auspresseinheit_A"
    },
    "id": "EST_move_to_auspresseinheit_A_32",
    "joint_names": [
        "shoulder_pan_joint",
        "shoulder_lift_joint",
        "elbow_joint",
        "wrist_1_joint",
        "wrist_2_joint",
        "wrist_3_joint"
    ],
    "metrics": {
        "cart_traj_len": 0.7167950709414568,
        "distance_elbow_joint": 0.30122765689851816,
        "distance_shoulder_lift_joint": 0.5340186143768162,
        "distance_shoulder_pan_joint": 1.0399805086102818,
        "distance_wrist_1_joint": 1.361559394837442,
        "distance_wrist_2_joint": 1.5054900463534548,
        "distance_wrist_3_joint": 0.19499466463906456,
        "smoothness": 1.4114945989751966,
        "time": 0.231897207,
        "traj_len": 2.2219970489889445,
        "weighted_distance": 2.862570463095119
    },
    "planner": "EST",
    "start": {
        "state": {
            "elbow_joint": 2.422574709923281,
            "shoulder_lift_joint": -1.3736533754116391,
            "shoulder_pan_joint": -0.33786336945926293,
            "wrist_1_joint": -1.0288603412921917,
            "wrist_2_joint": 1.2330224858903978,
            "wrist_3_joint": -3.094022268022082
        }
    },
    "waypoints": [
        {
            "positions": [
                -0.33786336945926293,
                -1.3736533754116391,
                2.422574709923281,
                -1.0288603412921917,
                1.2330224858903978,
                -3.094022268022082
            ]
        },
        {
            "positions": [
                -0.26775229421760205,
                -1.4266301526520222,
                2.4041327207024024,
                -0.9216400464838665,
                1.1195247361239924,
                -3.085875661748966
            ]
        },
        {
            "positions": [
                -0.1976412189759412,
                -1.4796069298924053,
                2.385690731481524,
                -0.8144197516755414,
                1.0060269863575868,
                -3.07772905547585
            ]
        },
        {
            "positions": [
                -0.12753014373428032,
                -1.5325837071327881,
                2.3672487422606454,
                -0.7071994568672162,
                0.8925292365911814,
                -3.0695824492027337
            ]
        },
        {
            "positions": [
                -0.05741906849261946,
                -1.5855604843731712,
                2.3488067530397667,
                -0.599979162058891,
                0.7790314868247761,
                -3.0614358429296176
            ]
        },
        {
            "positions": [
                0.012692006749041473,
                -1.6385372616135543,
                2.3303647638188885,
                -0.49275886725056584,
                0.6655337370583705,
                -3.0532892366565014
            ]
        },
        {
            "positions": [
                0.0828030819907023,
                -1.6915140388539371,
                2.3119227745980098,
                -0.38553857244224066,
                0.5520359872919651,
                -3.0451426303833853
            ]
        },
        {
            "positions": [
                0.15291415723236318,
                -1.7444908160943204,
                2.293480785377131,
                -0.2783182776339155,
                0.43853823752555965,
                -3.036996024110269
            ]
        },
        {
            "positions": [
                0.223025232474024,
                -1.7974675933347033,
                2.275038796156253,
                -0.1710979828255903,
                0.3250404877591543,
                -3.028849417837153
            ]
        },
        {
            "positions": [
                0.29313630771568494,
                -1.8504443705750864,
                2.256596806935374,
                -0.06387768801726507,
                0.21154273799274892,
                -3.020702811564037
            ]
        },
        {
            "positions": [
                0.37493247400275176,
                -1.8618898944177602,
                2.2836467577174964,
                -0.1431930363297682,
                0.3083447976839101,
                -3.045037853200241
            ]
        },
        {
            "positions": [
                0.4567286402898186,
                -1.873335418260434,
                2.3106967084996186,
                -0.22250838464227138,
                0.4051468573750713,
                -3.0693728948364445
            ]
        },
        {
            "positions": [
                0.5385248065768854,
                -1.8847809421031076,
                2.337746659281741,
                -0.3018237329547745,
                0.5019489170662325,
                -3.0937079364726485
            ]
        },
        {
            "positions": [
                0.6203209728639523,
                -1.8962264659457815,
                2.364796610063863,
                -0.3811390812672777,
                0.5987509767573936,
                -3.118042978108852
            ]
        },
        {
            "positions": [
                0.702117139151019,
                -1.9076719897884553,
                2.3918465608459853,
                -0.46045442957978083,
                0.6955530364485548,
                -3.142378019745056
            ]
        }
    ]
}