{
    "goal": {
        "global_pose": {
            "orientation": {
                "w": 0.5084816217422485,
                "x": -0.49083608388900757,
                "y": 0.5182115435600281,
                "z": -0.4816462993621826
            },
            "position": {
                "x": 0.5540239810943604,
                "y": 0.030875300988554955,
                "z": 0.16403168439865112
            }
        },
        "name": "move_to_storage_A"
    },
    "id": "EST_move_to_storage_A_147",
    "joint_names": [
        "shoulder_pan_joint",
        "shoulder_lift_joint",
        "elbow_joint",
        "wrist_1_joint",
        "wrist_2_joint",
        "wrist_3_joint"
    ],
    "metrics": {
        "cart_traj_len": 0.35392556391199714,
        "distance_elbow_joint": 0.44970130580491574,
        "distance_shoulder_lift_joint": 0.2353995529376922,
        "distance_shoulder_pan_joint": 0.4607223998483398,
        "distance_wrist_1_joint": 0.23512824838439672,
        "distance_wrist_2_joint": 1.1103717449935882,
        "distance_wrist_3_joint": 0.09267446903622734,
        "smoothness": 1.5543122432663052e-15,
        "time": 0.013597338,
        "traj_len": 1.607481794921846,
        "weighted_distance": 2.0285084797593527
    },
    "planner": "EST",
    "start": {
        "state": {
            "elbow_joint": 1.9715463870305268,
            "shoulder_lift_joint": -1.1394903361783484,
            "shoulder_pan_joint": 0.12281147578464417,
            "wrist_1_joint": -0.7804599489681411,
            "wrist_2_joint": 0.12958660307563738,
            "wrist_3_joint": -3.1924946282119055
        }
    },
    "waypoints": [
        {
            "positions": [
                0.12281147578464417,
                -1.1394903361783484,
                1.9715463870305268,
                -0.7804599489681411,
                0.12958660307563738,
                -3.1924946282119055
            ]
        },
        {
            "positions": [
                0.0569939900920242,
                -1.173118843740876,
                2.0357894307169433,
                -0.8140496987373406,
                0.28821113807472143,
                -3.1792554183495874
            ]
        },
        {
            "positions": [
                -0.008823495600595768,
                -1.2067473513034033,
                2.10003247440336,
                -0.8476394485065402,
                0.44683567307380545,
                -3.166016208487269
            ]
        },
        {
            "positions": [
                -0.07464098129321574,
                -1.2403758588659308,
                2.1642755180897764,
                -0.8812291982757396,
                0.6054602080728895,
                -3.152776998624951
            ]
        },
        {
            "positions": [
                -0.1404584669858357,
                -1.2740043664284582,
                2.228518561776193,
                -0.9148189480449392,
                0.7640847430719735,
                -3.139537788762633
            ]
        },
        {
            "positions": [
                -0.20627595267845567,
                -1.3076328739909857,
                2.2927616054626094,
                -0.9484086978141387,
                0.9227092780710575,
                -3.1262985789003146
            ]
        },
        {
            "positions": [
                -0.27209343837107564,
                -1.341261381553513,
                2.357004649149026,
                -0.9819984475833383,
                1.0813338130701415,
                -3.1130593690379964
            ]
        },
        {
            "positions": [
                -0.3379109240636956,
                -1.3748898891160406,
                2.4212476928354425,
                -1.0155881973525378,
                1.2399583480692256,
                -3.099820159175678
            ]
        }
    ]
}