{
    "goal": {
        "global_pose": {
            "orientation": {
                "w": 0.7047431468963623,
                "x": -0.7094548344612122,
                "y": 0.0024358443915843964,
                "z": -0.0022348060738295317
            },
            "position": {
                "x": 0.6094750761985779,
                "y": 0.3671506643295288,
                "z": 0.19426114857196808
            }
        },
        "name": "move_to_magneteinheit_A"
    },
    "id": "EST_move_to_magneteinheit_A_23",
    "joint_names": [
        "shoulder_pan_joint",
        "shoulder_lift_joint",
        "elbow_joint",
        "wrist_1_joint",
        "wrist_2_joint",
        "wrist_3_joint"
    ],
    "metrics": {
        "cart_traj_len": 1.9230964961951893,
        "distance_elbow_joint": 3.8835490314245855,
        "distance_shoulder_lift_joint": 1.0577521368768392,
        "distance_shoulder_pan_joint": 1.240433556586481,
        "distance_wrist_1_joint": 1.1725384002244272,
        "distance_wrist_2_joint": 1.535262288098534,
        "distance_wrist_3_joint": 4.332709220319365,
        "smoothness": 0.021152266002561933,
        "time": 0.205082296,
        "traj_len": 3.6362404532057875,
        "weighted_distance": 4.959381389093998
    },
    "planner": "EST",
    "start": {
        "state": {
            "elbow_joint": -1.919643507792019,
            "shoulder_lift_joint": -0.07675430207160344,
            "shoulder_pan_joint": -1.1188671864651873,
            "wrist_1_joint": 0.42560062535961957,
            "wrist_2_joint": 1.5706038300724876,
            "wrist_3_joint": 1.1188968870953055
        }
    },
    "waypoints": [
        {
            "positions": [
                -1.1188671864651873,
                -0.07675430207160344,
                -1.919643507792019,
                0.42560062535961957,
                1.5706038300724876,
                1.1188968870953055
            ]
        },
        {
            "positions": [
                -1.0873011265772619,
                -0.11224878556234846,
                -1.8066401383092048,
                0.4050564059683089,
                1.5192062745462482,
                0.9817284025866977
            ]
        },
        {
            "positions": [
                -1.0557350666893361,
                -0.14774326905309348,
                -1.6936367688263902,
                0.3845121865769982,
                1.4678087190200086,
                0.8445599180780899
            ]
        },
        {
            "positions": [
                -1.0241690068014107,
                -0.1832377525438385,
                -1.580633399343576,
                0.3639679671856875,
                1.4164111634937693,
                0.7073914335694822
            ]
        },
        {
            "positions": [
                -0.9926029469134849,
                -0.21873223603458353,
                -1.4676300298607616,
                0.34342374779437684,
                1.36501360796753,
                0.5702229490608743
            ]
        },
        {
            "positions": [
                -0.9610368870255593,
                -0.2542267195253286,
                -1.354626660377947,
                0.32287952840306616,
                1.3136160524412903,
                0.4330544645522665
            ]
        },
        {
            "positions": [
                -0.9294708271376337,
                -0.2897212030160736,
                -1.241623290895133,
                0.30233530901175554,
                1.262218496915051,
                0.29588598004365874
            ]
        },
        {
            "positions": [
                -0.8979047672497081,
                -0.32521568650681865,
                -1.1286199214123185,
                0.28179108962044486,
                1.2108209413888116,
                0.15871749553505088
            ]
        },
        {
            "positions": [
                -0.8663387073617825,
                -0.3607101699975636,
                -1.0156165519295042,
                0.2612468702291342,
                1.159423385862572,
                0.021549011026443132
            ]
        },
        {
            "positions": [
                -0.8347726474738569,
                -0.3962046534883087,
                -0.9026131824466899,
                0.24070265083782347,
                1.1080258303363326,
                -0.11561947348216473
            ]
        },
        {
            "positions": [
                -0.8032065875859313,
                -0.4316991369790537,
                -0.7896098129638753,
                0.2201584314465128,
                1.0566282748100932,
                -0.2527879579907726
            ]
        },
        {
            "positions": [
                -0.7716405276980058,
                -0.4671936204697987,
                -0.6766064434810612,
                0.19961421205520213,
                1.0052307192838539,
                -0.3899564424993802
            ]
        },
        {
            "positions": [
                -0.7400744678100801,
                -0.5026881039605438,
                -0.5636030739982467,
                0.17906999266389145,
                0.9538331637576144,
                -0.5271249270079881
            ]
        },
        {
            "positions": [
                -0.7085084079221546,
                -0.5381825874512888,
                -0.4505997045154324,
                0.15852577327258077,
                0.9024356082313749,
                -0.6642934115165959
            ]
        },
        {
            "positions": [
                -0.6769423480342289,
                -0.5736770709420338,
                -0.3375963350326179,
                0.1379815538812701,
                0.8510380527051354,
                -0.8014618960252038
            ]
        },
        {
            "positions": [
                -0.6453762881463033,
                -0.6091715544327789,
                -0.22459296554980357,
                0.11743733448995941,
                0.799640497178896,
                -0.9386303805338114
            ]
        },
        {
            "positions": [
                -0.6138102282583778,
                -0.6446660379235238,
                -0.11158959606698926,
                0.09689311509864873,
                0.7482429416526566,
                -1.0757988650424193
            ]
        },
        {
            "positions": [
                -0.5822441683704522,
                -0.6801605214142687,
                0.001413773415824826,
                0.0763488957073381,
                0.6968453861264172,
                -1.2129673495510267
            ]
        },
        {
            "positions": [
                -0.5506781084825265,
                -0.7156550049050139,
                0.11441714289863936,
                0.05580467631602737,
                0.6454478306001777,
                -1.350135834059635
            ]
        },
        {
            "positions": [
                -0.519112048594601,
                -0.7511494883957588,
                0.2274205123814539,
                0.03526045692471674,
                0.5940502750739384,
                -1.4873043185682424
            ]
        },
        {
            "positions": [
                -0.4875459887066753,
                -0.7866439718865039,
                0.3404238818642684,
                0.014716237533406007,
                0.5426527195476987,
                -1.6244728030768507
            ]
        },
        {
            "positions": [
                -0.4559799288187498,
                -0.8221384553772491,
                0.4534272513470825,
                -0.005827981857904674,
                0.4912551640214593,
                -1.7616412875854581
            ]
        },
        {
            "positions": [
                -0.4244138689308242,
                -0.857632938867994,
                0.5664306208298966,
                -0.0263722012492153,
                0.43985760849521993,
                -1.898809772094066
            ]
        },
        {
            "positions": [
                -0.3928478090428986,
                -0.8931274223587391,
                0.6794339903127116,
                -0.046916420640526035,
                0.38846005296898056,
                -2.035978256602674
            ]
        },
        {
            "positions": [
                -0.361281749154973,
                -0.928621905849484,
                0.7924373597955257,
                -0.06746064003183666,
                0.3370624974427412,
                -2.1731467411112817
            ]
        },
        {
            "positions": [
                -0.3297156892670474,
                -0.9641163893402289,
                0.9054407292783397,
                -0.08800485942314734,
                0.2856649419165018,
                -2.310315225619889
            ]
        },
        {
            "positions": [
                -0.2981496293791218,
                -0.999610872830974,
                1.0184440987611543,
                -0.10854907881445802,
                0.23426738639026223,
                -2.4474837101284974
            ]
        },
        {
            "positions": [
                -0.2665835694911962,
                -1.0351053563217192,
                1.1314474682439688,
                -0.1290932982057687,
                0.18286983086402286,
                -2.584652194637105
            ]
        },
        {
            "positions": [
                -0.2350175096032706,
                -1.070599839812464,
                1.2444508377267833,
                -0.14963751759707938,
                0.13147227533778327,
                -2.721820679145713
            ]
        },
        {
            "positions": [
                -0.20345144971534504,
                -1.1060943233032092,
                1.3574542072095976,
                -0.17018173698839006,
                0.0800747198115439,
                -2.8589891636543205
            ]
        },
        {
            "positions": [
                -0.1384478857480173,
                -1.1117767464322559,
                1.4787444704941914,
                -0.2855329445636736,
                0.08902135537906194,
                -2.9299537975682686
            ]
        },
        {
            "positions": [
                -0.07344432178068955,
                -1.1174591695613025,
                1.6000347337787852,
                -0.4008841521389571,
                0.09796799094657999,
                -3.000918431482216
            ]
        },
        {
            "positions": [
                -0.008440757813361843,
                -1.1231415926903494,
                1.721324997063379,
                -0.5162353597142406,
                0.10691462651409803,
                -3.071883065396164
            ]
        },
        {
            "positions": [
                0.056562806153965944,
                -1.128824015819396,
                1.8426152603479728,
                -0.6315865672895242,
                0.11586126208161607,
                -3.1428476993101118
            ]
        },
        {
            "positions": [
                0.12156637012129362,
                -1.1345064389484427,
                1.9639055236325667,
                -0.7469377748648076,
                0.12480789764913411,
                -3.21381233322406
            ]
        }
    ]
}