{
    "goal": {
        "global_pose": {
            "orientation": {
                "w": 0.7047431468963623,
                "x": -0.7094548344612122,
                "y": 0.0024358443915843964,
                "z": -0.0022348060738295317
            },
            "position": {
                "x": 0.6094750761985779,
                "y": 0.3671506643295288,
                "z": 0.19426114857196808
            }
        },
        "name": "move_to_magneteinheit_A"
    },
    "id": "EST_move_to_magneteinheit_A_95",
    "joint_names": [
        "shoulder_pan_joint",
        "shoulder_lift_joint",
        "elbow_joint",
        "wrist_1_joint",
        "wrist_2_joint",
        "wrist_3_joint"
    ],
    "metrics": {
        "cart_traj_len": 2.034596311635986,
        "distance_elbow_joint": 3.9067746632368987,
        "distance_shoulder_lift_joint": 1.0699997893100202,
        "distance_shoulder_pan_joint": 1.2407152969334887,
        "distance_wrist_1_joint": 2.1694840263674484,
        "distance_wrist_2_joint": 2.045114018203168,
        "distance_wrist_3_joint": 4.24166525553656,
        "smoothness": 0.12518476467500056,
        "time": 0.07019320700000001,
        "traj_len": 3.830633504994648,
        "weighted_distance": 5.231795256432664
    },
    "planner": "EST",
    "start": {
        "state": {
            "elbow_joint": -1.919643507792019,
            "shoulder_lift_joint": -0.07675430207160344,
            "shoulder_pan_joint": -1.1188671864651873,
            "wrist_1_joint": 0.42560062535961957,
            "wrist_2_joint": 1.5706038300724876,
            "wrist_3_joint": 1.1188968870953055
        }
    },
    "waypoints": [
        {
            "positions": [
                -1.1188671864651873,
                -0.07675430207160344,
                -1.919643507792019,
                0.42560062535961957,
                1.5706038300724876,
                1.1188968870953055
            ]
        },
        {
            "positions": [
                -1.092390963907964,
                -0.11775288097364868,
                -1.7883334923297964,
                0.35644970331040643,
                1.5006620144165368,
                1.0613075091121127
            ]
        },
        {
            "positions": [
                -1.0659147413507408,
                -0.15875145987569392,
                -1.6570234768675738,
                0.28729878126119335,
                1.4307201987605862,
                1.0037181311289198
            ]
        },
        {
            "positions": [
                -1.0394385187935176,
                -0.19975003877773914,
                -1.5257134614053511,
                0.2181478592119802,
                1.3607783831046354,
                0.9461287531457272
            ]
        },
        {
            "positions": [
                -1.0129622962362945,
                -0.2407486176797844,
                -1.3944034459431285,
                0.14899693716276707,
                1.2908365674486848,
                0.8885393751625343
            ]
        },
        {
            "positions": [
                -0.9864860736790712,
                -0.2817471965818296,
                -1.2630934304809058,
                0.07984601511355394,
                1.220894751792734,
                0.8309499971793415
            ]
        },
        {
            "positions": [
                -0.960009851121848,
                -0.32274577548387484,
                -1.1317834150186832,
                0.010695093064340855,
                1.1509529361367834,
                0.7733606191961487
            ]
        },
        {
            "positions": [
                -0.9335336285646247,
                -0.3637443543859201,
                -1.0004733995564603,
                -0.05845582898487234,
                1.0810111204808326,
                0.7157712412129559
            ]
        },
        {
            "positions": [
                -0.9070574060074015,
                -0.40474293328796535,
                -0.8691633840942379,
                -0.12760675103408542,
                1.0110693048248818,
                0.6581818632297631
            ]
        },
        {
            "positions": [
                -0.8805811834501782,
                -0.44574151219001057,
                -0.7378533686320152,
                -0.19675767308329856,
                0.9411274891689312,
                0.6005924852465703
            ]
        },
        {
            "positions": [
                -0.854104960892955,
                -0.4867400910920558,
                -0.6065433531697926,
                -0.2659085951325117,
                0.8711856735129804,
                0.5430031072633775
            ]
        },
        {
            "positions": [
                -0.8276287383357317,
                -0.527738669994101,
                -0.4752333377075699,
                -0.33505951718172483,
                0.8012438578570298,
                0.48541372928018467
            ]
        },
        {
            "positions": [
                -0.8011525157785085,
                -0.5687372488961462,
                -0.3439233222453473,
                -0.40421043923093786,
                0.7313020422010791,
                0.4278243512969919
            ]
        },
        {
            "positions": [
                -0.7746762932212853,
                -0.6097358277981915,
                -0.21261330678312462,
                -0.4733613612801511,
                0.6613602265451283,
                0.37023497331379907
            ]
        },
        {
            "positions": [
                -0.748200070664062,
                -0.6507344067002367,
                -0.08130329132090175,
                -0.5425122833293643,
                0.5914184108891775,
                0.3126455953306062
            ]
        },
        {
            "positions": [
                -0.7217238481068389,
                -0.691732985602282,
                0.05000672414132068,
                -0.6116632053785771,
                0.521476595233227,
                0.25505621734741346
            ]
        },
        {
            "positions": [
                -0.6952476255496156,
                -0.7327315645043273,
                0.18131673960354333,
                -0.6808141274277903,
                0.45153477957727617,
                0.19746683936422071
            ]
        },
        {
            "positions": [
                -0.6687714029923923,
                -0.7737301434063726,
                0.312626755065766,
                -0.7499650494770036,
                0.38159296392132536,
                0.13987746138102786
            ]
        },
        {
            "positions": [
                -0.6422951804351691,
                -0.8147287223084176,
                0.44393677052798863,
                -0.8191159715262166,
                0.31165114826537477,
                0.082288083397835
            ]
        },
        {
            "positions": [
                -0.6158189578779459,
                -0.8557273012104629,
                0.5752467859902113,
                -0.8882668935754297,
                0.24170933260942395,
                0.024698705414642363
            ]
        },
        {
            "positions": [
                -0.5893427353207227,
                -0.8967258801125082,
                0.7065568014524339,
                -0.9574178156246429,
                0.17176751695347314,
                -0.032890672568550494
            ]
        },
        {
            "positions": [
                -0.5628665127634994,
                -0.9377244590145533,
                0.8378668169146566,
                -1.026568737673856,
                0.10182570129752255,
                -0.09048005055174335
            ]
        },
        {
            "positions": [
                -0.5363902902062762,
                -0.9787230379165985,
                0.9691768323768792,
                -1.0957196597230692,
                0.03188388564157196,
                -0.1480694285349362
            ]
        },
        {
            "positions": [
                -0.5099140676490529,
                -1.0197216168186438,
                1.100486847839102,
                -1.1648705817722822,
                -0.03805793001437885,
                -0.20565880651812907
            ]
        },
        {
            "positions": [
                -0.48343784509182974,
                -1.060720195720689,
                1.2317968633013245,
                -1.2340215038214952,
                -0.10799974567032944,
                -0.2632481845013217
            ]
        },
        {
            "positions": [
                -0.4569616225346065,
                -1.1017187746227344,
                1.3631068787635474,
                -1.3031724258707085,
                -0.17794156132628028,
                -0.32083756248451456
            ]
        },
        {
            "positions": [
                -0.4124377969189982,
                -1.1051830297580336,
                1.4111087462005731,
                -1.2692715816293916,
                -0.1551285900336341,
                -0.5363707014042638
            ]
        },
        {
            "positions": [
                -0.3679139713033899,
                -1.1086472848933326,
                1.4591106136375989,
                -1.2353707373880745,
                -0.13231561874098796,
                -0.7519038403240129
            ]
        },
        {
            "positions": [
                -0.32339014568778157,
                -1.1121115400286319,
                1.5071124810746246,
                -1.2014698931467576,
                -0.10950264744834179,
                -0.967436979243762
            ]
        },
        {
            "positions": [
                -0.2788663200721732,
                -1.1155757951639311,
                1.55511434851165,
                -1.1675690489054407,
                -0.08668967615569563,
                -1.1829701181635113
            ]
        },
        {
            "positions": [
                -0.2343424944565649,
                -1.1190400502992301,
                1.6031162159486758,
                -1.1336682046641235,
                -0.06387670486304946,
                -1.3985032570832605
            ]
        },
        {
            "positions": [
                -0.1898186688409566,
                -1.1225043054345294,
                1.6511180833857015,
                -1.0997673604228067,
                -0.0410637335704033,
                -1.6140363960030095
            ]
        },
        {
            "positions": [
                -0.1452948432253483,
                -1.1259685605698286,
                1.6991199508227273,
                -1.0658665161814898,
                -0.018250762277757154,
                -1.8295695349227588
            ]
        },
        {
            "positions": [
                -0.10077101760973994,
                -1.1294328157051279,
                1.747121818259753,
                -1.0319656719401729,
                0.004562209014889018,
                -2.045102673842508
            ]
        },
        {
            "positions": [
                -0.056247191994131696,
                -1.132897070840427,
                1.7951236856967787,
                -0.9980648276988557,
                0.027375180307535163,
                -2.2606358127622572
            ]
        },
        {
            "positions": [
                -0.011723366378523337,
                -1.1363613259757261,
                1.8431255531338042,
                -0.9641639834575388,
                0.05018815160018136,
                -2.4761689516820065
            ]
        },
        {
            "positions": [
                0.03280045923708497,
                -1.1398255811110254,
                1.8911274205708302,
                -0.930263139216222,
                0.07300112289282748,
                -2.6917020906017552
            ]
        },
        {
            "positions": [
                0.07732428485269327,
                -1.1432898362463244,
                1.9391292880078557,
                -0.8963622949749048,
                0.09581409418547368,
                -2.9072352295215045
            ]
        },
        {
            "positions": [
                0.12184811046830153,
                -1.1467540913816237,
                1.9871311554448814,
                -0.8624614507335879,
                0.11862706547811984,
                -3.1227683684412537
            ]
        }
    ]
}