{
    "goal": {
        "global_pose": {
            "orientation": {
                "w": 0.7031023502349854,
                "x": -0.7110244035720825,
                "y": 0.007748599164187908,
                "z": 0.005598929710686207
            },
            "position": {
                "x": 0.11585023208521307,
                "y": 0.44412534475326537,
                "z": 0.3711530566215515
            }
        },
        "name": "move_to_auspresseinheit_A"
    },
    "id": "EST_move_to_auspresseinheit_A_19",
    "joint_names": [
        "shoulder_pan_joint",
        "shoulder_lift_joint",
        "elbow_joint",
        "wrist_1_joint",
        "wrist_2_joint",
        "wrist_3_joint"
    ],
    "metrics": {
        "cart_traj_len": 2.441921913465188,
        "distance_elbow_joint": 0.14812631093068251,
        "distance_shoulder_lift_joint": 2.207302181804556,
        "distance_shoulder_pan_joint": 6.351656901587899,
        "distance_wrist_1_joint": 1.8821099822115896,
        "distance_wrist_2_joint": 1.1005359013565355,
        "distance_wrist_3_joint": 3.3742789085973453,
        "smoothness": 0.8137426310938112,
        "time": 0.892065326,
        "traj_len": 3.881238228515303,
        "weighted_distance": 4.979479278724978
    },
    "planner": "EST",
    "start": {
        "state": {
            "elbow_joint": 2.422574709923281,
            "shoulder_lift_joint": -1.3736533754116391,
            "shoulder_pan_joint": -0.33786336945926293,
            "wrist_1_joint": -1.0288603412921917,
            "wrist_2_joint": 1.2330224858903978,
            "wrist_3_joint": -3.094022268022082
        }
    },
    "waypoints": [
        {
            "positions": [
                -0.33786336945926293,
                -1.3736533754116391,
                2.422574709923281,
                -1.0288603412921917,
                1.2330224858903978,
                -3.094022268022082
            ]
        },
        {
            "positions": [
                -0.4940620006139429,
                -1.4544051076433495,
                2.426196020781563,
                -1.0681846836419355,
                1.2496077925332847,
                -2.9955784641707206
            ]
        },
        {
            "positions": [
                -0.6502606317686229,
                -1.53515683987506,
                2.429817331639845,
                -1.1075090259916796,
                1.2661930991761716,
                -2.897134660319359
            ]
        },
        {
            "positions": [
                -0.8064592629233029,
                -1.6159085721067703,
                2.433438642498127,
                -1.1468333683414234,
                1.2827784058190583,
                -2.7986908564679975
            ]
        },
        {
            "positions": [
                -0.9626578940779829,
                -1.6966603043384807,
                2.437059953356409,
                -1.1861577106911672,
                1.2993637124619453,
                -2.700247052616636
            ]
        },
        {
            "positions": [
                -1.118856525232663,
                -1.777412036570191,
                2.4406812642146907,
                -1.2254820530409112,
                1.3159490191048322,
                -2.6018032487652745
            ]
        },
        {
            "positions": [
                -1.275055156387343,
                -1.8581637688019015,
                2.4443025750729728,
                -1.264806395390655,
                1.3325343257477191,
                -2.5033594449139125
            ]
        },
        {
            "positions": [
                -1.4312537875420228,
                -1.938915501033612,
                2.447923885931255,
                -1.3041307377403988,
                1.349119632390606,
                -2.4049156410625514
            ]
        },
        {
            "positions": [
                -1.587452418696703,
                -2.0196672332653223,
                2.4515451967895365,
                -1.3434550800901426,
                1.365704939033493,
                -2.3064718372111894
            ]
        },
        {
            "positions": [
                -1.7436510498513829,
                -2.100418965497033,
                2.4551665076478186,
                -1.3827794224398866,
                1.3822902456763797,
                -2.2080280333598283
            ]
        },
        {
            "positions": [
                -1.899849681006063,
                -2.181170697728743,
                2.4587878185061003,
                -1.4221037647896304,
                1.3988755523192666,
                -2.1095842295084664
            ]
        },
        {
            "positions": [
                -2.0560483121607427,
                -2.2619224299604537,
                2.4624091293643824,
                -1.4614281071393742,
                1.4154608589621536,
                -2.011140425657105
            ]
        },
        {
            "positions": [
                -2.212246943315423,
                -2.3426741621921643,
                2.4660304402226645,
                -1.5007524494891182,
                1.4320461656050405,
                -1.9126966218057433
            ]
        },
        {
            "positions": [
                -2.3684455744701025,
                -2.4234258944238745,
                2.469651751080946,
                -1.540076791838862,
                1.4486314722479274,
                -1.814252817954382
            ]
        },
        {
            "positions": [
                -2.5246442056247824,
                -2.5041776266555846,
                2.4732730619392282,
                -1.5794011341886058,
                1.4652167788908144,
                -1.7158090141030204
            ]
        },
        {
            "positions": [
                -2.6808428367794623,
                -2.5849293588872952,
                2.4768943727975103,
                -1.6187254765383496,
                1.481802085533701,
                -1.6173652102516587
            ]
        },
        {
            "positions": [
                -2.8370414679341427,
                -2.665681091119006,
                2.480515683655792,
                -1.6580498188880934,
                1.498387392176588,
                -1.5189214064002972
            ]
        },
        {
            "positions": [
                -2.9932400990888226,
                -2.746432823350716,
                2.484136994514074,
                -1.6973741612378375,
                1.514972698819475,
                -1.4204776025489356
            ]
        },
        {
            "positions": [
                -2.825227363999807,
                -2.708499971811376,
                2.480202266044079,
                -1.6422106993166583,
                1.4777642584364086,
                -1.4977837045091265
            ]
        },
        {
            "positions": [
                -2.6572146289107916,
                -2.670567120272036,
                2.4762675375740844,
                -1.587047237395479,
                1.4405558180533424,
                -1.5750898064693173
            ]
        },
        {
            "positions": [
                -2.489201893821776,
                -2.632634268732696,
                2.4723328091040893,
                -1.5318837754742995,
                1.403347377670276,
                -1.6523959084295081
            ]
        },
        {
            "positions": [
                -2.3211891587327607,
                -2.594701417193356,
                2.468398080634094,
                -1.4767203135531204,
                1.3661389372872097,
                -1.729702010389699
            ]
        },
        {
            "positions": [
                -2.153176423643745,
                -2.556768565654016,
                2.464463352164099,
                -1.4215568516319412,
                1.3289304969041436,
                -1.80700811234989
            ]
        },
        {
            "positions": [
                -1.98516368855473,
                -2.5188357141146764,
                2.4605286236941044,
                -1.3663933897107619,
                1.2917220565210772,
                -1.8843142143100806
            ]
        },
        {
            "positions": [
                -1.8171509534657144,
                -2.4809028625753364,
                2.4565938952241093,
                -1.3112299277895825,
                1.254513616138011,
                -1.9616203162702717
            ]
        },
        {
            "positions": [
                -1.649138218376699,
                -2.4429700110359964,
                2.452659166754114,
                -1.2560664658684033,
                1.2173051757549447,
                -2.0389264182304627
            ]
        },
        {
            "positions": [
                -1.4811254832876835,
                -2.4050371594966564,
                2.448724438284119,
                -1.200903003947224,
                1.1800967353718783,
                -2.1162325201906533
            ]
        },
        {
            "positions": [
                -1.3131127481986682,
                -2.3671043079573164,
                2.4447897098141245,
                -1.1457395420260448,
                1.1428882949888122,
                -2.193538622150844
            ]
        },
        {
            "positions": [
                -1.1451000131096527,
                -2.3291714564179764,
                2.4408549813441294,
                -1.0905760801048654,
                1.1056798546057458,
                -2.270844724111035
            ]
        },
        {
            "positions": [
                -0.9770872780206372,
                -2.2912386048786364,
                2.4369202528741343,
                -1.0354126181836862,
                1.0684714142226794,
                -2.348150826071226
            ]
        },
        {
            "positions": [
                -0.8090745429316217,
                -2.2533057533392964,
                2.4329855244041396,
                -0.980249156262507,
                1.0312629738396133,
                -2.4254569280314167
            ]
        },
        {
            "positions": [
                -0.6410618078426062,
                -2.2153729017999564,
                2.4290507959341445,
                -0.9250856943413277,
                0.9940545334565469,
                -2.5027630299916073
            ]
        },
        {
            "positions": [
                -0.4730490727535912,
                -2.177440050260617,
                2.4251160674641494,
                -0.8699222324201485,
                0.9568460930734807,
                -2.5800691319517983
            ]
        },
        {
            "positions": [
                -0.3050363376645753,
                -2.139507198721277,
                2.4211813389941543,
                -0.8147587704989692,
                0.9196376526904143,
                -2.6573752339119894
            ]
        },
        {
            "positions": [
                -0.13702360257556023,
                -2.101574347181937,
                2.4172466105241597,
                -0.7595953085777899,
                0.8824292123073482,
                -2.73468133587218
            ]
        },
        {
            "positions": [
                0.030989132513455697,
                -2.063641495642597,
                2.4133118820541646,
                -0.7044318466566105,
                0.8452207719242818,
                -2.811987437832371
            ]
        },
        {
            "positions": [
                0.19900186760247074,
                -2.025708644103257,
                2.4093771535841695,
                -0.6492683847354312,
                0.8080123315412155,
                -2.889293539792562
            ]
        },
        {
            "positions": [
                0.3670146026914862,
                -1.9877757925639168,
                2.4054424251141744,
                -0.5941049228142521,
                0.7708038911581493,
                -2.9665996417527527
            ]
        },
        {
            "positions": [
                0.5350273377805017,
                -1.9498429410245768,
                2.4015076966441797,
                -0.5389414608930727,
                0.7335954507750829,
                -3.0439057437129433
            ]
        },
        {
            "positions": [
                0.7030400728695173,
                -1.9119100894852368,
                2.3975729681741846,
                -0.48377799897189355,
                0.6963870103920167,
                -3.1212118456731344
            ]
        }
    ]
}