{
    "goal": {
        "global_pose": {
            "orientation": {
                "w": 0.5084816217422485,
                "x": -0.49083608388900757,
                "y": 0.5182115435600281,
                "z": -0.4816462993621826
            },
            "position": {
                "x": 0.5540239810943604,
                "y": 0.030875300988554955,
                "z": 0.16403168439865112
            }
        },
        "name": "move_to_storage_A"
    },
    "id": "EST_move_to_storage_A_48",
    "joint_names": [
        "shoulder_pan_joint",
        "shoulder_lift_joint",
        "elbow_joint",
        "wrist_1_joint",
        "wrist_2_joint",
        "wrist_3_joint"
    ],
    "metrics": {
        "cart_traj_len": 0.3533554860538288,
        "distance_elbow_joint": 0.45433359393649786,
        "distance_shoulder_lift_joint": 0.23250986487736958,
        "distance_shoulder_pan_joint": 0.4627294223380884,
        "distance_wrist_1_joint": 0.2633192060078563,
        "distance_wrist_2_joint": 1.0960426108742576,
        "distance_wrist_3_joint": 0.10286592647360937,
        "smoothness": 4.440892133664971e-16,
        "time": 0.164267414,
        "traj_len": 1.6161066253523246,
        "weighted_distance": 2.043745163746452
    },
    "planner": "EST",
    "start": {
        "state": {
            "elbow_joint": 1.9715463870305268,
            "shoulder_lift_joint": -1.1394903361783484,
            "shoulder_pan_joint": 0.12281147578464417,
            "wrist_1_joint": -0.7804599489681411,
            "wrist_2_joint": 0.12958660307563738,
            "wrist_3_joint": -3.1924946282119055
        }
    },
    "waypoints": [
        {
            "positions": [
                0.12281147578464417,
                -1.1394903361783484,
                1.9715463870305268,
                -0.7804599489681411,
                0.12958660307563738,
                -3.1924946282119055
            ]
        },
        {
            "positions": [
                0.05670727259348869,
                -1.1727060311608297,
                2.036451186164312,
                -0.8180769783978349,
                0.286164118914817,
                -3.1777994958585327
            ]
        },
        {
            "positions": [
                -0.009396930597666789,
                -1.205921726143311,
                2.1013559852980976,
                -0.8556940078275286,
                0.44274163475399664,
                -3.16310436350516
            ]
        },
        {
            "positions": [
                -0.07550113378882227,
                -1.2391374211257924,
                2.166260784431883,
                -0.8933110372572224,
                0.5993191505931763,
                -3.148409231151787
            ]
        },
        {
            "positions": [
                -0.14160533697997774,
                -1.272353116108274,
                2.2311655835656685,
                -0.9309280666869161,
                0.755896666432356,
                -3.1337140987984147
            ]
        },
        {
            "positions": [
                -0.20770954017113324,
                -1.3055688110907553,
                2.2960703826994537,
                -0.9685450961166099,
                0.9124741822715356,
                -3.119018966445042
            ]
        },
        {
            "positions": [
                -0.2738137433622887,
                -1.3387845060732366,
                2.360975181833239,
                -1.0061621255463036,
                1.0690516981107152,
                -3.104323834091669
            ]
        },
        {
            "positions": [
                -0.3399179465534442,
                -1.372000201055718,
                2.4258799809670246,
                -1.0437791549759974,
                1.225629213949895,
                -3.089628701738296
            ]
        }
    ]
}