{
    "goal": {
        "global_pose": {
            "orientation": {
                "w": 0.7031023502349854,
                "x": -0.7110244035720825,
                "y": 0.007748599164187908,
                "z": 0.005598929710686207
            },
            "position": {
                "x": 0.11585023208521307,
                "y": 0.44412534475326537,
                "z": 0.3711530566215515
            }
        },
        "name": "move_to_auspresseinheit_A"
    },
    "id": "EST_move_to_auspresseinheit_A_43",
    "joint_names": [
        "shoulder_pan_joint",
        "shoulder_lift_joint",
        "elbow_joint",
        "wrist_1_joint",
        "wrist_2_joint",
        "wrist_3_joint"
    ],
    "metrics": {
        "cart_traj_len": 7.064119284439575,
        "distance_elbow_joint": 8.23156674256244,
        "distance_shoulder_lift_joint": 5.957938535382143,
        "distance_shoulder_pan_joint": 8.59990753743314,
        "distance_wrist_1_joint": 6.705471772481459,
        "distance_wrist_2_joint": 7.603929816448167,
        "distance_wrist_3_joint": 17.511029848854747,
        "smoothness": 0.44103522444868265,
        "time": 0.18271236800000001,
        "traj_len": 7.389847376851714,
        "weighted_distance": 10.19516088837254
    },
    "planner": "EST",
    "start": {
        "state": {
            "elbow_joint": 2.422574709923281,
            "shoulder_lift_joint": -1.3736533754116391,
            "shoulder_pan_joint": -0.33786336945926293,
            "wrist_1_joint": -1.0288603412921917,
            "wrist_2_joint": 1.2330224858903978,
            "wrist_3_joint": -3.094022268022082
        }
    },
    "waypoints": [
        {
            "positions": [
                -0.33786336945926293,
                -1.3736533754116391,
                2.422574709923281,
                -1.0288603412921917,
                1.2330224858903978,
                -3.094022268022082
            ]
        },
        {
            "positions": [
                -0.3868113674750859,
                -1.3972651715495301,
                2.36518488658729,
                -1.0151468096582406,
                1.1018576785566319,
                -2.974585674735823
            ]
        },
        {
            "positions": [
                -0.4357593654909089,
                -1.4208769676874213,
                2.307795063251299,
                -1.0014332780242894,
                0.970692871222866,
                -2.8551490814495635
            ]
        },
        {
            "positions": [
                -0.4847073635067318,
                -1.4444887638253123,
                2.250405239915308,
                -0.9877197463903382,
                0.8395280638891001,
                -2.7357124881633044
            ]
        },
        {
            "positions": [
                -0.5336553615225548,
                -1.4681005599632033,
                2.1930154165793168,
                -0.974006214756387,
                0.7083632565553342,
                -2.616275894877045
            ]
        },
        {
            "positions": [
                -0.5826033595383777,
                -1.4917123561010945,
                2.1356255932433257,
                -0.960292683122436,
                0.5771984492215683,
                -2.4968393015907857
            ]
        },
        {
            "positions": [
                -0.6315513575542007,
                -1.5153241522389855,
                2.0782357699073346,
                -0.9465791514884848,
                0.4460336418878025,
                -2.377402708304526
            ]
        },
        {
            "positions": [
                -0.6804993555700237,
                -1.5389359483768765,
                2.0208459465713435,
                -0.9328656198545336,
                0.3148688345540366,
                -2.257966115018267
            ]
        },
        {
            "positions": [
                -0.7294473535858467,
                -1.5625477445147675,
                1.9634561232353525,
                -0.9191520882205825,
                0.18370402722027057,
                -2.1385295217320075
            ]
        },
        {
            "positions": [
                -0.7783953516016697,
                -1.5861595406526587,
                1.9060662998993614,
                -0.9054385565866313,
                0.05253921988650467,
                -2.0190929284457484
            ]
        },
        {
            "positions": [
                -0.8273433496174927,
                -1.6097713367905497,
                1.8486764765633703,
                -0.8917250249526801,
                -0.07862558744726122,
                -1.8996563351594888
            ]
        },
        {
            "positions": [
                -0.8762913476333156,
                -1.633383132928441,
                1.7912866532273792,
                -0.878011493318729,
                -0.20979039478102712,
                -1.7802197418732295
            ]
        },
        {
            "positions": [
                -0.9252393456491386,
                -1.656994929066332,
                1.7338968298913882,
                -0.8642979616847779,
                -0.3409552021147928,
                -1.6607831485869704
            ]
        },
        {
            "positions": [
                -0.9741873436649615,
                -1.680606725204223,
                1.676507006555397,
                -0.8505844300508267,
                -0.4721200094485589,
                -1.5413465553007109
            ]
        },
        {
            "positions": [
                -1.0231353416807845,
                -1.704218521342114,
                1.619117183219406,
                -0.8368708984168756,
                -0.6032848167823246,
                -1.4219099620144517
            ]
        },
        {
            "positions": [
                -1.0720833396966074,
                -1.7278303174800052,
                1.561727359883415,
                -0.8231573667829244,
                -0.7344496241160907,
                -1.3024733687281922
            ]
        },
        {
            "positions": [
                -1.1210313377124304,
                -1.7514421136178961,
                1.5043375365474239,
                -0.8094438351489732,
                -0.8656144314498566,
                -1.183036775441933
            ]
        },
        {
            "positions": [
                -1.1699793357282533,
                -1.7750539097557871,
                1.4469477132114328,
                -0.795730303515022,
                -0.9967792387836223,
                -1.0636001821556738
            ]
        },
        {
            "positions": [
                -1.2189273337440765,
                -1.7986657058936784,
                1.3895578898754415,
                -0.7820167718810709,
                -1.1279440461173884,
                -0.9441635888694142
            ]
        },
        {
            "positions": [
                -1.2678753317598994,
                -1.8222775020315694,
                1.3321680665394504,
                -0.7683032402471197,
                -1.259108853451154,
                -0.8247269955831551
            ]
        },
        {
            "positions": [
                -1.3168233297757224,
                -1.8458892981694603,
                1.2747782432034593,
                -0.7545897086131685,
                -1.3902736607849202,
                -0.7052904022968955
            ]
        },
        {
            "positions": [
                -1.3657713277915453,
                -1.8695010943073513,
                1.2173884198674685,
                -0.7408761769792175,
                -1.5214384681186859,
                -0.5858538090106364
            ]
        },
        {
            "positions": [
                -1.4147193258073683,
                -1.8931128904452426,
                1.1599985965314772,
                -0.7271626453452662,
                -1.652603275452452,
                -0.4664172157243769
            ]
        },
        {
            "positions": [
                -1.4636673238231912,
                -1.9167246865831338,
                1.1026087731954861,
                -0.7134491137113151,
                -1.7837680827862177,
                -0.3469806224381178
            ]
        },
        {
            "positions": [
                -1.5126153218390141,
                -1.9403364827210248,
                1.045218949859495,
                -0.699735582077364,
                -1.9149328901199834,
                -0.22754402915185867
            ]
        },
        {
            "positions": [
                -1.561563319854837,
                -1.9639482788589158,
                0.9878291265235042,
                -0.6860220504434129,
                -2.0460976974537495,
                -0.10810743586559912
            ]
        },
        {
            "positions": [
                -1.6105113178706603,
                -1.9875600749968068,
                0.9304393031875129,
                -0.6723085188094616,
                -2.1772625047875156,
                0.01132915742066043
            ]
        },
        {
            "positions": [
                -1.6594593158864832,
                -2.0111718711346978,
                0.8730494798515218,
                -0.6585949871755106,
                -2.3084273121212813,
                0.13076575070691954
            ]
        },
        {
            "positions": [
                -1.7084073139023062,
                -2.034783667272589,
                0.8156596565155307,
                -0.6448814555415594,
                -2.439592119455047,
                0.25020234399317864
            ]
        },
        {
            "positions": [
                -1.7573553119181289,
                -2.0583954634104797,
                0.7582698331795397,
                -0.6311679239076082,
                -2.570756926788813,
                0.3696389372794382
            ]
        },
        {
            "positions": [
                -1.806303309933952,
                -2.082007259548371,
                0.7008800098435486,
                -0.6174543922736571,
                -2.701921734122579,
                0.48907553056569775
            ]
        },
        {
            "positions": [
                -1.855251307949775,
                -2.105619055686262,
                0.6434901865075575,
                -0.6037408606397059,
                -2.8330865414563453,
                0.6085121238519569
            ]
        },
        {
            "positions": [
                -1.8912949927587712,
                -2.046411059885938,
                0.5762760661335274,
                -0.5653581553650346,
                -2.7630636540125635,
                0.4917100520482463
            ]
        },
        {
            "positions": [
                -1.9273386775677677,
                -1.9872030640856138,
                0.5090619457594974,
                -0.5269754500903634,
                -2.693040766568781,
                0.37490798024453575
            ]
        },
        {
            "positions": [
                -1.963382362376764,
                -1.9279950682852893,
                0.4418478253854674,
                -0.48859274481569204,
                -2.6230178791249994,
                0.25810590844082515
            ]
        },
        {
            "positions": [
                -1.9994260471857601,
                -1.8687870724849651,
                0.37463370501143733,
                -0.4502100395410208,
                -2.5529949916812176,
                0.1413038366371146
            ]
        },
        {
            "positions": [
                -2.0354697319947563,
                -1.809579076684641,
                0.3074195846374073,
                -0.41182733426634954,
                -2.4829721042374358,
                0.02450176483340405
            ]
        },
        {
            "positions": [
                -2.071513416803753,
                -1.7503710808843165,
                0.24020546426337724,
                -0.3734446289916782,
                -2.4129492167936535,
                -0.09230030697030656
            ]
        },
        {
            "positions": [
                -2.1075571016127492,
                -1.6911630850839923,
                0.17299134388934717,
                -0.33506192371700694,
                -2.3429263293498717,
                -0.20910237877401716
            ]
        },
        {
            "positions": [
                -2.1436007864217452,
                -1.631955089283668,
                0.10577722351531715,
                -0.2966792184423357,
                -2.27290344190609,
                -0.32590445057772766
            ]
        },
        {
            "positions": [
                -2.1796444712307417,
                -1.5727470934833438,
                0.03856310314128719,
                -0.2582965131676644,
                -2.2028805544623076,
                -0.44270652238143815
            ]
        },
        {
            "positions": [
                -2.2156881560397377,
                -1.5135390976830196,
                -0.02865101723274288,
                -0.21991380789299314,
                -2.1328576670185257,
                -0.5595085941851488
            ]
        },
        {
            "positions": [
                -2.251731840848734,
                -1.4543311018826954,
                -0.09586513760677295,
                -0.18153110261832184,
                -2.062834779574744,
                -0.6763106659888594
            ]
        },
        {
            "positions": [
                -2.2877755256577306,
                -1.395123106082371,
                -0.16307925798080303,
                -0.14314839734365054,
                -1.9928118921309619,
                -0.79311273779257
            ]
        },
        {
            "positions": [
                -2.323819210466727,
                -1.3359151102820468,
                -0.2302933783548331,
                -0.10476569206897923,
                -1.9227890046871798,
                -0.9099148095962806
            ]
        },
        {
            "positions": [
                -2.359862895275723,
                -1.2767071144817224,
                -0.2975074987288632,
                -0.06638298679430799,
                -1.852766117243398,
                -1.0267168813999912
            ]
        },
        {
            "positions": [
                -2.3959065800847195,
                -1.2174991186813984,
                -0.364721619102893,
                -0.02800028151963674,
                -1.7827432297996162,
                -1.1435189532037016
            ]
        },
        {
            "positions": [
                -2.4319502648937155,
                -1.158291122881074,
                -0.4319357394769232,
                0.010382423755034509,
                -1.7127203423558341,
                -1.2603210250074122
            ]
        },
        {
            "positions": [
                -2.467993949702712,
                -1.0990831270807497,
                -0.49914985985095317,
                0.04876512902970587,
                -1.642697454912052,
                -1.3771230968111228
            ]
        },
        {
            "positions": [
                -2.5040376345117084,
                -1.0398751312804255,
                -0.5663639802249831,
                0.08714783430437711,
                -1.5726745674682703,
                -1.4939251686148332
            ]
        },
        {
            "positions": [
                -2.5400813193207044,
                -0.9806671354801013,
                -0.6335781005990133,
                0.12553053957904836,
                -1.5026516800244885,
                -1.6107272404185435
            ]
        },
        {
            "positions": [
                -2.576125004129701,
                -0.9214591396797771,
                -0.7007922209730433,
                0.1639132448537196,
                -1.4326287925807064,
                -1.7275293122222544
            ]
        },
        {
            "positions": [
                -2.6121686889386972,
                -0.8622511438794527,
                -0.7680063413470735,
                0.20229595012839097,
                -1.3626059051369244,
                -1.8443313840259647
            ]
        },
        {
            "positions": [
                -2.6482123737476932,
                -0.8030431480791285,
                -0.8352204617211034,
                0.2406786554030622,
                -1.2925830176931425,
                -1.9611334558296756
            ]
        },
        {
            "positions": [
                -2.6842560585566897,
                -0.7438351522788043,
                -0.9024345820951336,
                0.27906136067773357,
                -1.2225601302493605,
                -2.077935527633386
            ]
        },
        {
            "positions": [
                -2.720299743365686,
                -0.6846271564784798,
                -0.9696487024691636,
                0.3174440659524048,
                -1.1525372428055785,
                -2.194737599437097
            ]
        },
        {
            "positions": [
                -2.7563434281746826,
                -0.6254191606781556,
                -1.0368628228431935,
                0.35582677122707607,
                -1.0825143553617966,
                -2.311539671240807
            ]
        },
        {
            "positions": [
                -2.7923871129836786,
                -0.5662111648778314,
                -1.1040769432172237,
                0.3942094765017474,
                -1.0124914679180146,
                -2.428341743044518
            ]
        },
        {
            "positions": [
                -2.828430797792675,
                -0.5070031690775072,
                -1.1712910635912537,
                0.43259218177641867,
                -0.9424685804742325,
                -2.5451438148482284
            ]
        },
        {
            "positions": [
                -2.864474482601671,
                -0.44779517327718277,
                -1.2385051839652839,
                0.4709748870510899,
                -0.8724456930304507,
                -2.661945886651939
            ]
        },
        {
            "positions": [
                -2.9005181674106675,
                -0.38858717747685856,
                -1.3057193043393138,
                0.5093575923257612,
                -0.8024228055866685,
                -2.7787479584556496
            ]
        },
        {
            "positions": [
                -2.936561852219664,
                -0.32937918167653457,
                -1.3729334247133436,
                0.5477402976004324,
                -0.7323999181428871,
                -2.89555003025936
            ]
        },
        {
            "positions": [
                -2.9726055370286604,
                -0.27017118587621014,
                -1.4401475450873737,
                0.5861230028751037,
                -0.6623770306991048,
                -3.0123521020630704
            ]
        },
        {
            "positions": [
                -3.0086492218376564,
                -0.21096319007588593,
                -1.507361665461404,
                0.6245057081497749,
                -0.592354143255323,
                -3.129154173866781
            ]
        },
        {
            "positions": [
                -3.0446929066466524,
                -0.15175519427556172,
                -1.5745757858354341,
                0.6628884134244464,
                -0.5223312558115412,
                -3.2459562456704916
            ]
        },
        {
            "positions": [
                -3.080736591455649,
                -0.09254719847523729,
                -1.6417899062094639,
                0.7012711186991176,
                -0.4523083683677589,
                -3.3627583174742024
            ]
        },
        {
            "positions": [
                -3.1167802762646453,
                -0.03333920267491308,
                -1.709004026583494,
                0.7396538239737889,
                -0.3822854809239771,
                -3.4795603892779123
            ]
        },
        {
            "positions": [
                -3.016336395130835,
                -0.08571258324729411,
                -1.6356071529669016,
                0.7786687266964432,
                -0.36366891739571405,
                -3.3748684619628375
            ]
        },
        {
            "positions": [
                -2.9158925139970244,
                -0.13808596381967514,
                -1.5622102793503094,
                0.8176836294190976,
                -0.34505235386745103,
                -3.2701765346477627
            ]
        },
        {
            "positions": [
                -2.8154486328632142,
                -0.19045934439205617,
                -1.4888134057337172,
                0.856698532141752,
                -0.326435790339188,
                -3.1654846073326883
            ]
        },
        {
            "positions": [
                -2.7150047517294036,
                -0.2428327249644372,
                -1.4154165321171248,
                0.8957134348644062,
                -0.30781922681092505,
                -3.0607926800176135
            ]
        },
        {
            "positions": [
                -2.6145608705955934,
                -0.29520610553681825,
                -1.3420196585005324,
                0.9347283375870605,
                -0.28920266328266203,
                -2.9561007527025387
            ]
        },
        {
            "positions": [
                -2.514116989461783,
                -0.34757948610919925,
                -1.2686227848839402,
                0.9737432403097149,
                -0.270586099754399,
                -2.8514088253874643
            ]
        },
        {
            "positions": [
                -2.4136731083279725,
                -0.3999528666815803,
                -1.195225911267348,
                1.0127581430323693,
                -0.251969536226136,
                -2.7467168980723895
            ]
        },
        {
            "positions": [
                -2.3132292271941624,
                -0.4523262472539613,
                -1.1218290376507556,
                1.0517730457550236,
                -0.233352972697873,
                -2.6420249707573147
            ]
        },
        {
            "positions": [
                -2.212785346060352,
                -0.5046996278263424,
                -1.0484321640341632,
                1.090787948477678,
                -0.21473640916960998,
                -2.53733304344224
            ]
        },
        {
            "positions": [
                -2.1123414649265415,
                -0.5570730083987234,
                -0.975035290417571,
                1.1298028512003322,
                -0.19611984564134696,
                -2.432641116127165
            ]
        },
        {
            "positions": [
                -2.0118975837927313,
                -0.6094463889711044,
                -0.9016384168009787,
                1.1688177539229867,
                -0.17750328211308397,
                -2.3279491888120907
            ]
        },
        {
            "positions": [
                -1.911453702658921,
                -0.6618197695434854,
                -0.8282415431843864,
                1.207832656645641,
                -0.15888671858482095,
                -2.223257261497016
            ]
        },
        {
            "positions": [
                -1.8110098215251107,
                -0.7141931501158664,
                -0.7548446695677942,
                1.2468475593682953,
                -0.14027015505655796,
                -2.118565334181941
            ]
        },
        {
            "positions": [
                -1.7105659403913,
                -0.7665665306882475,
                -0.6814477959512018,
                1.2858624620909498,
                -0.12165359152829491,
                -2.0138734068668667
            ]
        },
        {
            "positions": [
                -1.6101220592574899,
                -0.8189399112606285,
                -0.6080509223346093,
                1.324877364813604,
                -0.1030370280000319,
                -1.9091814795517918
            ]
        },
        {
            "positions": [
                -1.5096781781236794,
                -0.8713132918330095,
                -0.5346540487180171,
                1.3638922675362584,
                -0.08442046447176893,
                -1.804489552236717
            ]
        },
        {
            "positions": [
                -1.409234296989869,
                -0.9236866724053906,
                -0.4612571751014247,
                1.4029071702589127,
                -0.06580390094350591,
                -1.6997976249216422
            ]
        },
        {
            "positions": [
                -1.3087904158560586,
                -0.9760600529777717,
                -0.3878603014848325,
                1.441922072981567,
                -0.04718733741524289,
                -1.5951056976065676
            ]
        },
        {
            "positions": [
                -1.2083465347222484,
                -1.0284334335501526,
                -0.31446342786824033,
                1.4809369757042212,
                -0.028570773886979872,
                -1.490413770291493
            ]
        },
        {
            "positions": [
                -1.1079026535884378,
                -1.0808068141225338,
                -0.2410665542516479,
                1.5199518784268757,
                -0.009954210358716853,
                -1.3857218429764182
            ]
        },
        {
            "positions": [
                -1.0074587724546276,
                -1.1331801946949147,
                -0.16766968063505572,
                1.55896678114953,
                0.008662353169546111,
                -1.2810299156613434
            ]
        },
        {
            "positions": [
                -0.9070148913208174,
                -1.1855535752672957,
                -0.0942728070184633,
                1.5979816838721845,
                0.02727891669780913,
                -1.176337988346269
            ]
        },
        {
            "positions": [
                -0.8065710101870067,
                -1.2379269558396768,
                -0.020875933401870883,
                1.6369965865948388,
                0.04589548022607215,
                -1.0716460610311942
            ]
        },
        {
            "positions": [
                -0.7061271290531965,
                -1.2903003364120578,
                0.05252094021472131,
                1.676011489317493,
                0.06451204375433517,
                -0.9669541337161194
            ]
        },
        {
            "positions": [
                -0.6056832479193859,
                -1.342673716984439,
                0.12591781383131373,
                1.7150263920401474,
                0.08312860728259819,
                -0.8622622064010446
            ]
        },
        {
            "positions": [
                -0.5052393667855761,
                -1.3950470975568197,
                0.1993146874479057,
                1.7540412947628017,
                0.10174517081086115,
                -0.7575702790859702
            ]
        },
        {
            "positions": [
                -0.4047954856517655,
                -1.4474204781292008,
                0.27271156106449834,
                1.7930561974854562,
                0.12036173433912423,
                -0.6528783517708954
            ]
        },
        {
            "positions": [
                -0.30435160451795484,
                -1.499793858701582,
                0.34610843468109054,
                1.8320711002081105,
                0.13897829786738725,
                -0.5481864244558206
            ]
        },
        {
            "positions": [
                -0.2039077233841451,
                -1.5521672392739627,
                0.41950530829768273,
                1.8710860029307648,
                0.15759486139565015,
                -0.4434944971407462
            ]
        },
        {
            "positions": [
                -0.10346384225033445,
                -1.6045406198463439,
                0.4929021819142754,
                1.9101009056534193,
                0.17621142492391328,
                -0.33880256982567136
            ]
        },
        {
            "positions": [
                -0.003019961116523806,
                -1.656914000418725,
                0.5662990555308676,
                1.9491158083760736,
                0.1948279884521763,
                -0.2341106425105961
            ]
        },
        {
            "positions": [
                0.09742392001728639,
                -1.709287380991106,
                0.6396959291474598,
                1.9881307110987279,
                0.2134445519804392,
                -0.12941871519552173
            ]
        },
        {
            "positions": [
                0.1978678011510966,
                -1.761660761563487,
                0.713092802764052,
                2.027145613821382,
                0.23206111550870223,
                -0.02472678788044691
            ]
        },
        {
            "positions": [
                0.29831168228490723,
                -1.814034142135868,
                0.7864896763806446,
                2.066160516544037,
                0.25067767903696525,
                0.07996513943462791
            ]
        },
        {
            "positions": [
                0.39875556341871743,
                -1.866407522708249,
                0.8598865499972363,
                2.1051754192666907,
                0.26929424256522827,
                0.18465706674970228
            ]
        },
        {
            "positions": [
                0.49919944455252807,
                -1.9187809032806302,
                0.933283423613829,
                2.1441903219893454,
                0.2879108060934913,
                0.2893489940647771
            ]
        },
        {
            "positions": [
                0.5996433256863383,
                -1.9711542838530112,
                1.0066802972304216,
                2.1832052247119997,
                0.3065273696217543,
                0.3940409213798519
            ]
        },
        {
            "positions": [
                0.7000872068201485,
                -2.023527664425392,
                1.0800771708470134,
                2.222220127434654,
                0.32514393315001733,
                0.4987328486949263
            ]
        },
        {
            "positions": [
                0.8005310879539591,
                -2.075901044997773,
                1.153474044463606,
                2.2612350301573083,
                0.34376049667828035,
                0.6034247760100016
            ]
        },
        {
            "positions": [
                0.9009749690877698,
                -2.1282744255701544,
                1.2268709180801982,
                2.3002499328799626,
                0.36237706020654337,
                0.7081167033250759
            ]
        },
        {
            "positions": [
                1.0014188502215795,
                -2.180647806142535,
                1.3002677916967904,
                2.339264835602617,
                0.3809936237348063,
                0.8128086306401503
            ]
        },
        {
            "positions": [
                1.1018627313553901,
                -2.2330211867149163,
                1.3736646653133826,
                2.378279738325271,
                0.3996101872630693,
                0.9175005579552256
            ]
        },
        {
            "positions": [
                1.2023066124892008,
                -2.2853945672872973,
                1.4470615389299752,
                2.417294641047926,
                0.4182267507913324,
                1.0221924852703
            ]
        },
        {
            "positions": [
                1.3027504936230105,
                -2.3377679478596782,
                1.5204584125465674,
                2.4563095437705798,
                0.43684331431959533,
                1.1268844125853743
            ]
        },
        {
            "positions": [
                1.4031943747568212,
                -2.390141328432059,
                1.5938552861631596,
                2.4953244464932345,
                0.45545987784785835,
                1.2315763399004496
            ]
        },
        {
            "positions": [
                1.5036382558906318,
                -2.4425147090044406,
                1.6672521597797523,
                2.5343393492158888,
                0.47407644137612137,
                1.336268267215524
            ]
        },
        {
            "positions": [
                1.6040821370244416,
                -2.4948880895768215,
                1.740649033396344,
                2.573354251938543,
                0.4926930049043844,
                1.4409601945305983
            ]
        },
        {
            "positions": [
                1.7045260181582522,
                -2.5472614701492025,
                1.8140459070129369,
                2.6123691546611973,
                0.5113095684326474,
                1.5456521218456731
            ]
        },
        {
            "positions": [
                1.666076620611912,
                -2.522654903432976,
                1.8362358328767536,
                2.4945136824870406,
                0.518748979171587,
                1.365067105202317
            ]
        },
        {
            "positions": [
                1.6276272230655715,
                -2.49804833671675,
                1.8584257587405706,
                2.376658210312884,
                0.5261883899105266,
                1.184482088558961
            ]
        },
        {
            "positions": [
                1.5891778255192313,
                -2.4734417700005236,
                1.8806156846043873,
                2.2588027381387272,
                0.5336278006494662,
                1.003897071915605
            ]
        },
        {
            "positions": [
                1.5507284279728908,
                -2.4488352032842973,
                1.902805610468204,
                2.1409472659645705,
                0.541067211388406,
                0.823312055272249
            ]
        },
        {
            "positions": [
                1.5122790304265505,
                -2.424228636568071,
                1.924995536332021,
                2.023091793790414,
                0.5485066221273456,
                0.642727038628893
            ]
        },
        {
            "positions": [
                1.4738296328802103,
                -2.3996220698518442,
                1.9471854621958378,
                1.9052363216162573,
                0.5559460328662852,
                0.462142021985537
            ]
        },
        {
            "positions": [
                1.43538023533387,
                -2.375015503135618,
                1.9693753880596545,
                1.7873808494421008,
                0.5633854436052248,
                0.2815570053421812
            ]
        },
        {
            "positions": [
                1.3969308377875296,
                -2.3504089364193916,
                1.9915653139234712,
                1.6695253772679441,
                0.5708248543441644,
                0.10097198869882495
            ]
        },
        {
            "positions": [
                1.3584814402411893,
                -2.3258023697031653,
                2.013755239787288,
                1.5516699050937874,
                0.578264265083104,
                -0.07961302794453085
            ]
        },
        {
            "positions": [
                1.3200320426948489,
                -2.301195802986939,
                2.035945165651105,
                1.4338144329196307,
                0.5857036758220437,
                -0.2601980445878871
            ]
        },
        {
            "positions": [
                1.2815826451485086,
                -2.2765892362707127,
                2.058135091514922,
                1.3159589607454742,
                0.5931430865609834,
                -0.4407830612312429
            ]
        },
        {
            "positions": [
                1.2431332476021684,
                -2.2519826695544864,
                2.0803250173787387,
                1.1981034885713173,
                0.600582497299923,
                -0.6213680778745991
            ]
        },
        {
            "positions": [
                1.204683850055828,
                -2.22737610283826,
                2.1025149432425554,
                1.0802480163971608,
                0.6080219080388626,
                -0.8019530945179549
            ]
        },
        {
            "positions": [
                1.1662344525094877,
                -2.202769536122034,
                2.124704869106372,
                0.9623925442230044,
                0.6154613187778022,
                -0.9825381111613107
            ]
        },
        {
            "positions": [
                1.1277850549631472,
                -2.1781629694058076,
                2.146894794970189,
                0.8445370720488476,
                0.6229007295167418,
                -1.1631231278046665
            ]
        },
        {
            "positions": [
                1.089335657416807,
                -2.1535564026895813,
                2.1690847208340056,
                0.7266815998746907,
                0.6303401402556814,
                -1.3437081444480232
            ]
        },
        {
            "positions": [
                1.0508862598704667,
                -2.128949835973355,
                2.191274646697823,
                0.6088261277005342,
                0.6377795509946211,
                -1.524293161091379
            ]
        },
        {
            "positions": [
                1.0124368623241264,
                -2.1043432692571287,
                2.2134645725616395,
                0.49097065552637753,
                0.6452189617335607,
                -1.7048781777347348
            ]
        },
        {
            "positions": [
                0.973987464777786,
                -2.0797367025409024,
                2.2356544984254563,
                0.3731151833522208,
                0.6526583724725004,
                -1.8854631943780906
            ]
        },
        {
            "positions": [
                0.9355380672314456,
                -2.0551301358246756,
                2.257844424289273,
                0.2552597111780641,
                0.66009778321144,
                -2.0660482110214473
            ]
        },
        {
            "positions": [
                0.8970886696851054,
                -2.0305235691084493,
                2.2800343501530898,
                0.1374042390039074,
                0.6675371939503796,
                -2.246633227664803
            ]
        },
        {
            "positions": [
                0.858639272138765,
                -2.005917002392223,
                2.3022242760169065,
                0.019548766829751152,
                0.6749766046893192,
                -2.427218244308159
            ]
        },
        {
            "positions": [
                0.8201898745924247,
                -1.9813104356759967,
                2.3244142018807237,
                -0.09830670534440555,
                0.6824160154282588,
                -2.6078032609515147
            ]
        },
        {
            "positions": [
                0.7817404770460843,
                -1.9567038689597704,
                2.3466041277445404,
                -0.2161621775185627,
                0.6898554261671985,
                -2.7883882775948714
            ]
        },
        {
            "positions": [
                0.743291079499744,
                -1.9320973022435441,
                2.368794053608357,
                -0.33401764969271897,
                0.6972948369061381,
                -2.968973294238227
            ]
        },
        {
            "positions": [
                0.7048416819534037,
                -1.9074907355273178,
                2.390983979472174,
                -0.45187312186687584,
                0.7047342476450777,
                -3.149558310881583
            ]
        }
    ]
}