{
    "goal": {
        "global_pose": {
            "orientation": {
                "w": 0.7031023502349854,
                "x": -0.7110244035720825,
                "y": 0.007748599164187908,
                "z": 0.005598929710686207
            },
            "position": {
                "x": 0.11585023208521307,
                "y": 0.44412534475326537,
                "z": 0.3711530566215515
            }
        },
        "name": "move_to_auspresseinheit_A"
    },
    "id": "EST_move_to_auspresseinheit_A_48",
    "joint_names": [
        "shoulder_pan_joint",
        "shoulder_lift_joint",
        "elbow_joint",
        "wrist_1_joint",
        "wrist_2_joint",
        "wrist_3_joint"
    ],
    "metrics": {
        "cart_traj_len": 0.9749783794608275,
        "distance_elbow_joint": 0.959425441605259,
        "distance_shoulder_lift_joint": 0.6527114636529274,
        "distance_shoulder_pan_joint": 1.0409657038714788,
        "distance_wrist_1_joint": 3.0398731527854754,
        "distance_wrist_2_joint": 0.840406124913984,
        "distance_wrist_3_joint": 0.7506231117714677,
        "smoothness": 1.1715532343655253,
        "time": 0.270344648,
        "traj_len": 2.6988895862188564,
        "weighted_distance": 3.5588664627719577
    },
    "planner": "EST",
    "start": {
        "state": {
            "elbow_joint": 2.422574709923281,
            "shoulder_lift_joint": -1.3736533754116391,
            "shoulder_pan_joint": -0.33786336945926293,
            "wrist_1_joint": -1.0288603412921917,
            "wrist_2_joint": 1.2330224858903978,
            "wrist_3_joint": -3.094022268022082
        }
    },
    "waypoints": [
        {
            "positions": [
                -0.33786336945926293,
                -1.3736533754116391,
                2.422574709923281,
                -1.0288603412921917,
                1.2330224858903978,
                -3.094022268022082
            ]
        },
        {
            "positions": [
                -0.30670541496910236,
                -1.433188672995063,
                2.3732815479193135,
                -0.84939551666447,
                1.2482059424862793,
                -3.1329020189763432
            ]
        },
        {
            "positions": [
                -0.27554746047894174,
                -1.492723970578487,
                2.3239883859153454,
                -0.6699306920367482,
                1.2633893990821607,
                -3.1717817699306043
            ]
        },
        {
            "positions": [
                -0.24438950598878117,
                -1.5522592681619107,
                2.274695223911378,
                -0.4904658674090264,
                1.2785728556780425,
                -3.2106615208848654
            ]
        },
        {
            "positions": [
                -0.2132315514986206,
                -1.6117945657453348,
                2.22540206190741,
                -0.3110010427813046,
                1.293756312273924,
                -3.2495412718391266
            ]
        },
        {
            "positions": [
                -0.18207359700846001,
                -1.6713298633287585,
                2.1761088999034426,
                -0.13153621815358285,
                1.3089397688698055,
                -3.288421022793387
            ]
        },
        {
            "positions": [
                -0.15091564251829945,
                -1.7308651609121823,
                2.1268157378994745,
                0.04792860647413888,
                1.324123225465687,
                -3.3273007737476483
            ]
        },
        {
            "positions": [
                -0.11975768802813885,
                -1.7904004584956064,
                2.077522575895507,
                0.2273934311018606,
                1.3393066820615684,
                -3.3661805247019094
            ]
        },
        {
            "positions": [
                -0.08859973353797826,
                -1.8499357560790302,
                2.0282294138915393,
                0.40685825572958256,
                1.3544901386574502,
                -3.4050602756561705
            ]
        },
        {
            "positions": [
                -0.057441779047817665,
                -1.909471053662454,
                1.9789362518875713,
                0.5863230803573043,
                1.3696735952533317,
                -3.4439400266104316
            ]
        },
        {
            "positions": [
                -0.0262838245576571,
                -1.969006351245878,
                1.9296430898836037,
                0.765787904985026,
                1.3848570518492131,
                -3.4828197775646927
            ]
        },
        {
            "positions": [
                0.054759081994551,
                -1.9626331859326904,
                1.981475736724224,
                0.627429582039664,
                1.3083491008541943,
                -3.4426169328725975
            ]
        },
        {
            "positions": [
                0.1358019885467591,
                -1.9562600206195027,
                2.0333083835648442,
                0.4890712590943021,
                1.2318411498591757,
                -3.4024140881805023
            ]
        },
        {
            "positions": [
                0.2168448950989672,
                -1.9498868553063151,
                2.085141030405464,
                0.35071293614894017,
                1.1553331988641569,
                -3.362211243488407
            ]
        },
        {
            "positions": [
                0.2978878016511753,
                -1.9435136899931276,
                2.1369736772460843,
                0.21235461320357818,
                1.0788252478691382,
                -3.322008398796312
            ]
        },
        {
            "positions": [
                0.3789307082033834,
                -1.9371405246799398,
                2.1888063240867046,
                0.07399629025821619,
                1.0023172968741194,
                -3.2818055541042166
            ]
        },
        {
            "positions": [
                0.4599736147555915,
                -1.9307673593667523,
                2.240638970927325,
                -0.06436203268714569,
                0.9258093458791008,
                -3.2416027094121214
            ]
        },
        {
            "positions": [
                0.5410165213077996,
                -1.9243941940535647,
                2.292471617767945,
                -0.2027203556325078,
                0.849301394884082,
                -3.201399864720026
            ]
        },
        {
            "positions": [
                0.6220594278600077,
                -1.918021028740377,
                2.344304264608565,
                -0.34107867857786967,
                0.7727934438890632,
                -3.161197020027931
            ]
        },
        {
            "positions": [
                0.7031023344122158,
                -1.9116478634271894,
                2.3961369114491853,
                -0.4794370015232316,
                0.6962854928940445,
                -3.1209941753358357
            ]
        }
    ]
}