{
    "goal": {
        "global_pose": {
            "orientation": {
                "w": 0.7031023502349854,
                "x": -0.7110244035720825,
                "y": 0.007748599164187908,
                "z": 0.005598929710686207
            },
            "position": {
                "x": 0.11585023208521307,
                "y": 0.44412534475326537,
                "z": 0.3711530566215515
            }
        },
        "name": "move_to_auspresseinheit_A"
    },
    "id": "EST_move_to_auspresseinheit_A_145",
    "joint_names": [
        "shoulder_pan_joint",
        "shoulder_lift_joint",
        "elbow_joint",
        "wrist_1_joint",
        "wrist_2_joint",
        "wrist_3_joint"
    ],
    "metrics": {
        "cart_traj_len": 0.6891215732044847,
        "distance_elbow_joint": 0.03411956463550281,
        "distance_shoulder_lift_joint": 0.5314383758157086,
        "distance_shoulder_pan_joint": 1.0446994583672045,
        "distance_wrist_1_joint": 0.5756496592449535,
        "distance_wrist_2_joint": 0.531245268961457,
        "distance_wrist_3_joint": 0.057828465607831614,
        "smoothness": 5.921189480296099e-16,
        "time": 0.073937303,
        "traj_len": 1.6658273597923219,
        "weighted_distance": 1.9993830678623672
    },
    "planner": "EST",
    "start": {
        "state": {
            "elbow_joint": 2.422574709923281,
            "shoulder_lift_joint": -1.3736533754116391,
            "shoulder_pan_joint": -0.33786336945926293,
            "wrist_1_joint": -1.0288603412921917,
            "wrist_2_joint": 1.2330224858903978,
            "wrist_3_joint": -3.094022268022082
        }
    },
    "waypoints": [
        {
            "positions": [
                -0.33786336945926293,
                -1.3736533754116391,
                2.422574709923281,
                -1.0288603412921917,
                1.2330224858903978,
                -3.094022268022082
            ]
        },
        {
            "positions": [
                -0.20727593716336237,
                -1.4400831723886027,
                2.418309764343843,
                -0.9569041338865726,
                1.1666168272702155,
                -3.101250826223061
            ]
        },
        {
            "positions": [
                -0.07668850486746182,
                -1.5065129693655663,
                2.4140448187644052,
                -0.8849479264809533,
                1.1002111686500335,
                -3.10847938442404
            ]
        },
        {
            "positions": [
                0.05389892742843877,
                -1.57294276634253,
                2.4097798731849673,
                -0.8129917190753342,
                1.0338055100298513,
                -3.115707942625019
            ]
        },
        {
            "positions": [
                0.1844863597243393,
                -1.6393725633194935,
                2.4055149276055294,
                -0.7410355116697149,
                0.9673998514096693,
                -3.1229365008259977
            ]
        },
        {
            "positions": [
                0.31507379202023983,
                -1.705802360296457,
                2.401249982026092,
                -0.6690793042640958,
                0.9009941927894871,
                -3.130165059026977
            ]
        },
        {
            "positions": [
                0.44566122431614047,
                -1.7722321572734205,
                2.396985036446654,
                -0.5971230968584766,
                0.834588534169305,
                -3.1373936172279557
            ]
        },
        {
            "positions": [
                0.576248656612041,
                -1.8386619542503841,
                2.392720090867216,
                -0.5251668894528574,
                0.7681828755491229,
                -3.144622175428935
            ]
        },
        {
            "positions": [
                0.7068360889079415,
                -1.9050917512273478,
                2.3884551452877782,
                -0.45321068204723824,
                0.7017772169289408,
                -3.1518507336299137
            ]
        }
    ]
}