{
    "goal": {
        "global_pose": {
            "orientation": {
                "w": 0.5084816217422485,
                "x": -0.49083608388900757,
                "y": 0.5182115435600281,
                "z": -0.4816462993621826
            },
            "position": {
                "x": 0.5540239810943604,
                "y": 0.030875300988554955,
                "z": 0.16403168439865112
            }
        },
        "name": "move_to_storage_A"
    },
    "id": "EST_move_to_storage_A_5",
    "joint_names": [
        "shoulder_pan_joint",
        "shoulder_lift_joint",
        "elbow_joint",
        "wrist_1_joint",
        "wrist_2_joint",
        "wrist_3_joint"
    ],
    "metrics": {
        "cart_traj_len": 0.35302028827051196,
        "distance_elbow_joint": 0.45297611522165226,
        "distance_shoulder_lift_joint": 0.23219564986069563,
        "distance_shoulder_pan_joint": 0.46091379388603965,
        "distance_wrist_1_joint": 0.26300201748403607,
        "distance_wrist_2_joint": 1.100578686849461,
        "distance_wrist_3_joint": 0.09886194155305761,
        "smoothness": 1.3322676330666221e-15,
        "time": 0.057288227000000004,
        "traj_len": 1.615093868744149,
        "weighted_distance": 2.042016844272974
    },
    "planner": "EST",
    "start": {
        "state": {
            "elbow_joint": 1.9715463870305268,
            "shoulder_lift_joint": -1.1394903361783484,
            "shoulder_pan_joint": 0.12281147578464417,
            "wrist_1_joint": -0.7804599489681411,
            "wrist_2_joint": 0.12958660307563738,
            "wrist_3_joint": -3.1924946282119055
        }
    },
    "waypoints": [
        {
            "positions": [
                0.12281147578464417,
                -1.1394903361783484,
                1.9715463870305268,
                -0.7804599489681411,
                0.12958660307563738,
                -3.1924946282119055
            ]
        },
        {
            "positions": [
                0.05696664808663851,
                -1.172661143301305,
                2.03625726063362,
                -0.8180316657515748,
                0.2868121297684175,
                -3.1783714937043257
            ]
        },
        {
            "positions": [
                -0.008878179611367151,
                -1.2058319504242614,
                2.1009681342367132,
                -0.8556033825350086,
                0.44403765646119764,
                -3.1642483591967463
            ]
        },
        {
            "positions": [
                -0.0747230073093728,
                -1.239002757547218,
                2.1656790078398065,
                -0.8931750993184422,
                0.6012631831539778,
                -3.1501252246891664
            ]
        },
        {
            "positions": [
                -0.14056783500737846,
                -1.2721735646701744,
                2.2303898814428993,
                -0.9307468161018759,
                0.7584887098467579,
                -3.136002090181587
            ]
        },
        {
            "positions": [
                -0.20641266270538416,
                -1.305344371793131,
                2.2951007550459925,
                -0.9683185328853097,
                0.9157142365395381,
                -3.121878955674007
            ]
        },
        {
            "positions": [
                -0.27225749040338976,
                -1.3385151789160874,
                2.359811628649086,
                -1.0058902496687434,
                1.072939763232318,
                -3.107755821166428
            ]
        },
        {
            "positions": [
                -0.33810231810139546,
                -1.371685986039044,
                2.424522502252179,
                -1.0434619664521771,
                1.2301652899250983,
                -3.093632686658848
            ]
        }
    ]
}