{
    "goal": {
        "global_pose": {
            "orientation": {
                "w": 0.5084816217422485,
                "x": -0.49083608388900757,
                "y": 0.5182115435600281,
                "z": -0.4816462993621826
            },
            "position": {
                "x": 0.5540239810943604,
                "y": 0.030875300988554955,
                "z": 0.16403168439865112
            }
        },
        "name": "move_to_storage_A"
    },
    "id": "EST_move_to_storage_A_111",
    "joint_names": [
        "shoulder_pan_joint",
        "shoulder_lift_joint",
        "elbow_joint",
        "wrist_1_joint",
        "wrist_2_joint",
        "wrist_3_joint"
    ],
    "metrics": {
        "cart_traj_len": 0.353328676327837,
        "distance_elbow_joint": 0.4492975528229901,
        "distance_shoulder_lift_joint": 0.23532640083418577,
        "distance_shoulder_pan_joint": 0.4591663632553842,
        "distance_wrist_1_joint": 0.24358603099293663,
        "distance_wrist_2_joint": 1.1115255319511743,
        "distance_wrist_3_joint": 0.10411173955955055,
        "smoothness": 0.0,
        "time": 0.072640075,
        "traj_len": 1.6133857627412673,
        "weighted_distance": 2.0411635557885686
    },
    "planner": "EST",
    "start": {
        "state": {
            "elbow_joint": 1.9715463870305268,
            "shoulder_lift_joint": -1.1394903361783484,
            "shoulder_pan_joint": 0.12281147578464417,
            "wrist_1_joint": -0.7804599489681411,
            "wrist_2_joint": 0.12958660307563738,
            "wrist_3_joint": -3.1924946282119055
        }
    },
    "waypoints": [
        {
            "positions": [
                0.12281147578464417,
                -1.1394903361783484,
                1.9715463870305268,
                -0.7804599489681411,
                0.12958660307563738,
                -3.1924946282119055
            ]
        },
        {
            "positions": [
                0.05721628103387501,
                -1.173108393440375,
                2.0357317517195255,
                -0.8152579533957035,
                0.288375964782948,
                -3.1776215225605413
            ]
        },
        {
            "positions": [
                -0.008378913716894157,
                -1.2067264507024014,
                2.0999171164085237,
                -0.8500559578232658,
                0.44716532649025864,
                -3.1627484169091766
            ]
        },
        {
            "positions": [
                -0.07397410846766332,
                -1.240344507964428,
                2.1641024810975225,
                -0.8848539622508282,
                0.6059546881975693,
                -3.1478753112578124
            ]
        },
        {
            "positions": [
                -0.13956930321843247,
                -1.2739625652264546,
                2.228287845786521,
                -0.9196519666783906,
                0.7647440499048799,
                -3.133002205606448
            ]
        },
        {
            "positions": [
                -0.20516449796920166,
                -1.3075806224884812,
                2.29247321047552,
                -0.954449971105953,
                0.9235334116121905,
                -3.118129099955084
            ]
        },
        {
            "positions": [
                -0.2707596927199708,
                -1.3411986797505075,
                2.356658575164518,
                -0.9892479755335153,
                1.082322773319501,
                -3.1032559943037192
            ]
        },
        {
            "positions": [
                -0.33635488747074,
                -1.3748167370125342,
                2.420843939853517,
                -1.0240459799610777,
                1.2411121350268117,
                -3.088382888652355
            ]
        }
    ]
}