{
    "goal": {
        "global_pose": {
            "orientation": {
                "w": 0.7031023502349854,
                "x": -0.7110244035720825,
                "y": 0.007748599164187908,
                "z": 0.005598929710686207
            },
            "position": {
                "x": 0.11585023208521307,
                "y": 0.44412534475326537,
                "z": 0.3711530566215515
            }
        },
        "name": "move_to_auspresseinheit_A"
    },
    "id": "EST_move_to_auspresseinheit_A_128",
    "joint_names": [
        "shoulder_pan_joint",
        "shoulder_lift_joint",
        "elbow_joint",
        "wrist_1_joint",
        "wrist_2_joint",
        "wrist_3_joint"
    ],
    "metrics": {
        "cart_traj_len": 1.9993574463924986,
        "distance_elbow_joint": 1.7481848479990507,
        "distance_shoulder_lift_joint": 0.956129851352344,
        "distance_shoulder_pan_joint": 1.607483100084989,
        "distance_wrist_1_joint": 1.3127294144102266,
        "distance_wrist_2_joint": 0.7994114557448241,
        "distance_wrist_3_joint": 2.0757881486652123,
        "smoothness": 0.752194800691382,
        "time": 0.410382212,
        "traj_len": 2.9154290967637415,
        "weighted_distance": 3.8423227331579164
    },
    "planner": "EST",
    "start": {
        "state": {
            "elbow_joint": 2.422574709923281,
            "shoulder_lift_joint": -1.3736533754116391,
            "shoulder_pan_joint": -0.33786336945926293,
            "wrist_1_joint": -1.0288603412921917,
            "wrist_2_joint": 1.2330224858903978,
            "wrist_3_joint": -3.094022268022082
        }
    },
    "waypoints": [
        {
            "positions": [
                -0.33786336945926293,
                -1.3736533754116391,
                2.422574709923281,
                -1.0288603412921917,
                1.2330224858903978,
                -3.094022268022082
            ]
        },
        {
            "positions": [
                -0.33523085787731793,
                -1.3964990864406601,
                2.339767959805036,
                -0.9908737269986044,
                1.183986775999893,
                -3.0004402168937574
            ]
        },
        {
            "positions": [
                -0.33259834629537294,
                -1.4193447974696813,
                2.256961209686791,
                -0.9528871127050172,
                1.1349510661093885,
                -2.906858165765433
            ]
        },
        {
            "positions": [
                -0.32996583471342794,
                -1.4421905084987023,
                2.174154459568546,
                -0.91490049841143,
                1.0859153562188837,
                -2.8132761146371084
            ]
        },
        {
            "positions": [
                -0.22810685622471535,
                -1.4947427884683848,
                2.1176522504536384,
                -0.8469728420365011,
                1.0579003923457477,
                -2.7463335950999976
            ]
        },
        {
            "positions": [
                -0.12624787773600277,
                -1.5472950684380673,
                2.0611500413387307,
                -0.7790451856615723,
                1.0298854284726116,
                -2.6793910755628865
            ]
        },
        {
            "positions": [
                -0.024388899247290208,
                -1.5998473484077496,
                2.004647832223823,
                -0.7111175292866435,
                1.0018704645994756,
                -2.6124485560257757
            ]
        },
        {
            "positions": [
                0.07747007924142241,
                -1.652399628377432,
                1.9481456231089154,
                -0.6431898729117147,
                0.9738555007263394,
                -2.545506036488665
            ]
        },
        {
            "positions": [
                0.1793290577301349,
                -1.7049519083471145,
                1.8916434139940077,
                -0.5752622165367858,
                0.9458405368532035,
                -2.478563516951554
            ]
        },
        {
            "positions": [
                0.2811880362188475,
                -1.757504188316797,
                1.8351412048791,
                -0.5073345601618571,
                0.9178255729800674,
                -2.411620997414443
            ]
        },
        {
            "positions": [
                0.38304701470756014,
                -1.8100564682864795,
                1.7786389957641924,
                -0.4394069037869282,
                0.8898106091069313,
                -2.3446784778773324
            ]
        },
        {
            "positions": [
                0.48490599319627276,
                -1.8626087482561617,
                1.7221367866492847,
                -0.37147924741199934,
                0.8617956452337953,
                -2.2777359583402212
            ]
        },
        {
            "positions": [
                0.5867649716849854,
                -1.9151610282258442,
                1.665634577534377,
                -0.3035515910370705,
                0.8337806813606592,
                -2.2107934388031105
            ]
        },
        {
            "positions": [
                0.6886239501736977,
                -1.9677133081955267,
                1.6091323684194694,
                -0.2356239346621417,
                0.8057657174875231,
                -2.143850919266
            ]
        },
        {
            "positions": [
                0.7904829286624104,
                -2.020265588165209,
                1.5526301593045617,
                -0.16769627828721284,
                0.7777507536143871,
                -2.0769083997288886
            ]
        },
        {
            "positions": [
                0.829929340747603,
                -2.0402270981061013,
                1.6807755128721362,
                -0.15215303736617902,
                0.7527338132002881,
                -2.1806106767337767
            ]
        },
        {
            "positions": [
                0.8693757528327957,
                -2.0601886080469933,
                1.8089208664397107,
                -0.1366097964451452,
                0.7277168727861891,
                -2.284312953738665
            ]
        },
        {
            "positions": [
                0.9088221649179883,
                -2.080150117987886,
                1.9370662200072855,
                -0.12106655552411139,
                0.7026999323720903,
                -2.3880152307435534
            ]
        },
        {
            "positions": [
                0.9482685770031809,
                -2.100111627928778,
                2.06521157357486,
                -0.10552331460307755,
                0.6776829919579913,
                -2.4917175077484415
            ]
        },
        {
            "positions": [
                0.9877149890883735,
                -2.12007313786967,
                2.1933569271424345,
                -0.08998007368204373,
                0.6526660515438923,
                -2.5954197847533296
            ]
        },
        {
            "positions": [
                0.9797009336515422,
                -2.087390754070287,
                2.2480531849120577,
                -0.17464551644011683,
                0.6319764860046906,
                -2.7155810569618137
            ]
        },
        {
            "positions": [
                0.971686878214711,
                -2.0547083702709044,
                2.302749442681681,
                -0.2593109591981899,
                0.6112869204654889,
                -2.835742329170298
            ]
        },
        {
            "positions": [
                0.9636728227778797,
                -2.0220259864715215,
                2.3574457004513043,
                -0.34397640195626306,
                0.5905973549262872,
                -2.9559036013787816
            ]
        },
        {
            "positions": [
                0.9556587673410484,
                -1.9893436026721387,
                2.4121419582209276,
                -0.42864184471433614,
                0.5699077893870854,
                -3.0760648735872658
            ]
        },
        {
            "positions": [
                0.8307345074460346,
                -1.9498533258237478,
                2.402777708988945,
                -0.446235532598229,
                0.6380561690078412,
                -3.105823776844087
            ]
        },
        {
            "positions": [
                0.7058102475510207,
                -1.910363048975357,
                2.393413459756962,
                -0.46382922048212183,
                0.7062045486285972,
                -3.1355826801009075
            ]
        }
    ]
}