{
    "goal": {
        "global_pose": {
            "orientation": {
                "w": 0.7047431468963623,
                "x": -0.7094548344612122,
                "y": 0.0024358443915843964,
                "z": -0.0022348060738295317
            },
            "position": {
                "x": 0.6094750761985779,
                "y": 0.3671506643295288,
                "z": 0.19426114857196808
            }
        },
        "name": "move_to_magneteinheit_A"
    },
    "id": "EST_move_to_magneteinheit_A_42",
    "joint_names": [
        "shoulder_pan_joint",
        "shoulder_lift_joint",
        "elbow_joint",
        "wrist_1_joint",
        "wrist_2_joint",
        "wrist_3_joint"
    ],
    "metrics": {
        "cart_traj_len": 1.8642718426743778,
        "distance_elbow_joint": 3.9452104955761262,
        "distance_shoulder_lift_joint": 0.7149628094472569,
        "distance_shoulder_pan_joint": 1.2400967195869401,
        "distance_wrist_1_joint": 1.6101259605350011,
        "distance_wrist_2_joint": 1.6969741078409057,
        "distance_wrist_3_joint": 1.2521911126508949,
        "smoothness": 6.661338124314768e-16,
        "time": 0.061507563,
        "traj_len": 3.2341244882714584,
        "weighted_distance": 4.033738154530463
    },
    "planner": "EST",
    "start": {
        "state": {
            "elbow_joint": -1.919643507792019,
            "shoulder_lift_joint": -0.07675430207160344,
            "shoulder_pan_joint": -1.1188671864651873,
            "wrist_1_joint": 0.42560062535961957,
            "wrist_2_joint": 1.5706038300724876,
            "wrist_3_joint": 1.1188968870953055
        }
    },
    "waypoints": [
        {
            "positions": [
                -1.1188671864651873,
                -0.07675430207160344,
                -1.919643507792019,
                0.42560062535961957,
                1.5706038300724876,
                1.1188968870953055
            ]
        },
        {
            "positions": [
                -1.0729376783323377,
                -0.10323440612520554,
                -1.7735246005484588,
                0.48523492019424924,
                1.507752937189491,
                1.0725194384786056
            ]
        },
        {
            "positions": [
                -1.027008170199488,
                -0.12971451017880764,
                -1.6274056933048986,
                0.5448692150288789,
                1.4449020443064946,
                1.026141989861906
            ]
        },
        {
            "positions": [
                -0.9810786620666385,
                -0.15619461423240977,
                -1.4812867860613383,
                0.6045035098635085,
                1.382051151423498,
                0.9797645412452061
            ]
        },
        {
            "positions": [
                -0.9351491539337888,
                -0.18267471828601187,
                -1.3351678788177783,
                0.6641378046981382,
                1.3192002585405016,
                0.9333870926285063
            ]
        },
        {
            "positions": [
                -0.8892196458009392,
                -0.20915482233961397,
                -1.189048971574218,
                0.7237720995327679,
                1.256349365657505,
                0.8870096440118065
            ]
        },
        {
            "positions": [
                -0.8432901376680896,
                -0.23563492639321607,
                -1.0429300643306578,
                0.7834063943673976,
                1.1934984727745086,
                0.8406321953951067
            ]
        },
        {
            "positions": [
                -0.79736062953524,
                -0.26211503044681816,
                -0.8968111570870976,
                0.8430406892020272,
                1.130647579891512,
                0.7942547467784069
            ]
        },
        {
            "positions": [
                -0.7514311214023903,
                -0.2885951345004203,
                -0.7506922498435373,
                0.9026749840366569,
                1.0677966870085156,
                0.747877298161707
            ]
        },
        {
            "positions": [
                -0.7055016132695406,
                -0.3150752385540224,
                -0.6045733425999771,
                0.9623092788712866,
                1.004945794125519,
                0.7014998495450073
            ]
        },
        {
            "positions": [
                -0.659572105136691,
                -0.3415553426076245,
                -0.45845443535641683,
                1.0219435737059162,
                0.9420949012425226,
                0.6551224009283074
            ]
        },
        {
            "positions": [
                -0.6136425970038414,
                -0.3680354466612266,
                -0.3123355281128566,
                1.081577868540546,
                0.8792440083595261,
                0.6087449523116076
            ]
        },
        {
            "positions": [
                -0.5677130888709918,
                -0.3945155507148287,
                -0.16621662086929634,
                1.1412121633751755,
                0.8163931154765295,
                0.5623675036949078
            ]
        },
        {
            "positions": [
                -0.5217835807381421,
                -0.4209956547684308,
                -0.02009771362573609,
                1.2008464582098053,
                0.753542222593533,
                0.515990055078208
            ]
        },
        {
            "positions": [
                -0.47585407260529256,
                -0.4474757588220329,
                0.12602119361782393,
                1.2604807530444349,
                0.6906913297105365,
                0.46961260646150826
            ]
        },
        {
            "positions": [
                -0.42992456447244276,
                -0.47395586287563507,
                0.2721401008613846,
                1.3201150478790646,
                0.62784043682754,
                0.42323515784480836
            ]
        },
        {
            "positions": [
                -0.3839950563395932,
                -0.5004359669292371,
                0.41825900810494443,
                1.3797493427136942,
                0.5649895439445436,
                0.3768577092281086
            ]
        },
        {
            "positions": [
                -0.3380655482067435,
                -0.5269160709828393,
                0.5643779153485051,
                1.439383637548324,
                0.5021386510615469,
                0.3304802606114088
            ]
        },
        {
            "positions": [
                -0.29213604007389393,
                -0.5533961750364413,
                0.7104968225920649,
                1.4990179323829536,
                0.4392877581785506,
                0.284102811994709
            ]
        },
        {
            "positions": [
                -0.24620653194104425,
                -0.5798762790900436,
                0.8566157298356252,
                1.5586522272175833,
                0.37643686529555387,
                0.2377253633780091
            ]
        },
        {
            "positions": [
                -0.20027702380819468,
                -0.6063563831436456,
                1.0027346370791854,
                1.618286522052213,
                0.3135859724125576,
                0.1913479147613094
            ]
        },
        {
            "positions": [
                -0.154347515675345,
                -0.6328364871972476,
                1.1488535443227457,
                1.6779208168868427,
                0.25073507952956087,
                0.1449704661446095
            ]
        },
        {
            "positions": [
                -0.10841800754249542,
                -0.6593165912508498,
                1.294972451566306,
                1.7375551117214723,
                0.1878841866465646,
                0.09859301752790972
            ]
        },
        {
            "positions": [
                -0.06248849940964574,
                -0.6857966953044519,
                1.4410913588098662,
                1.797189406556102,
                0.12503329376356787,
                0.05221556891120982
            ]
        },
        {
            "positions": [
                -0.016558991276796275,
                -0.7122767993580539,
                1.5872102660534264,
                1.8568237013907316,
                0.062182400880571365,
                0.005838120294510141
            ]
        },
        {
            "positions": [
                0.029370516856053408,
                -0.7387569034116561,
                1.7333291732969867,
                1.9164579962253614,
                -0.0006684920024251362,
                -0.04053932832218976
            ]
        },
        {
            "positions": [
                0.07530002498890309,
                -0.7652370074652581,
                1.879448080540547,
                1.976092291059991,
                -0.06351938488542164,
                -0.08691677693888944
            ]
        },
        {
            "positions": [
                0.12122953312175275,
                -0.7917171115188604,
                2.0255669877841074,
                2.0357265858946207,
                -0.12637027776841805,
                -0.13329422555558926
            ]
        }
    ]
}