{
    "goal": {
        "global_pose": {
            "orientation": {
                "w": 0.7047431468963623,
                "x": -0.7094548344612122,
                "y": 0.0024358443915843964,
                "z": -0.0022348060738295317
            },
            "position": {
                "x": 0.6094750761985779,
                "y": 0.3671506643295288,
                "z": 0.19426114857196808
            }
        },
        "name": "move_to_magneteinheit_A"
    },
    "id": "EST_move_to_magneteinheit_A_63",
    "joint_names": [
        "shoulder_pan_joint",
        "shoulder_lift_joint",
        "elbow_joint",
        "wrist_1_joint",
        "wrist_2_joint",
        "wrist_3_joint"
    ],
    "metrics": {
        "cart_traj_len": 1.8805331797942348,
        "distance_elbow_joint": 3.9092485184369257,
        "distance_shoulder_lift_joint": 0.6988278199229646,
        "distance_shoulder_pan_joint": 1.240931761317677,
        "distance_wrist_1_joint": 1.484409777894561,
        "distance_wrist_2_joint": 1.689382237883988,
        "distance_wrist_3_joint": 1.1013615141919317,
        "smoothness": 4.934324565125532e-16,
        "time": 0.050099467999999994,
        "traj_len": 3.181848775420989,
        "weighted_distance": 3.937089873727861
    },
    "planner": "EST",
    "start": {
        "state": {
            "elbow_joint": -1.919643507792019,
            "shoulder_lift_joint": -0.07675430207160344,
            "shoulder_pan_joint": -1.1188671864651873,
            "wrist_1_joint": 0.42560062535961957,
            "wrist_2_joint": 1.5706038300724876,
            "wrist_3_joint": 1.1188968870953055
        }
    },
    "waypoints": [
        {
            "positions": [
                -1.1188671864651873,
                -0.07675430207160344,
                -1.919643507792019,
                0.42560062535961957,
                1.5706038300724876,
                1.1188968870953055
            ]
        },
        {
            "positions": [
                -1.071139041799123,
                -0.10363229514556363,
                -1.769287795544445,
                0.482693309124795,
                1.5056275901538727,
                1.0765368288571544
            ]
        },
        {
            "positions": [
                -1.0234108971330584,
                -0.13051028821952382,
                -1.618932083296871,
                0.5397859928899704,
                1.4406513502352578,
                1.034176770619003
            ]
        },
        {
            "positions": [
                -0.9756827524669939,
                -0.15738828129348398,
                -1.468576371049297,
                0.5968786766551458,
                1.375675110316643,
                0.9918167123808519
            ]
        },
        {
            "positions": [
                -0.9279546078009293,
                -0.1842662743674442,
                -1.3182206588017227,
                0.6539713604203212,
                1.3106988703980278,
                0.9494566541427006
            ]
        },
        {
            "positions": [
                -0.8802264631348649,
                -0.21114426744140435,
                -1.1678649465541486,
                0.7110640441854967,
                1.245722630479413,
                0.9070965959045494
            ]
        },
        {
            "positions": [
                -0.8324983184688004,
                -0.23802226051536454,
                -1.0175092343065746,
                0.7681567279506721,
                1.180746390560798,
                0.8647365376663982
            ]
        },
        {
            "positions": [
                -0.784770173802736,
                -0.2649002535893247,
                -0.8671535220590008,
                0.8252494117158475,
                1.115770150642183,
                0.8223764794282471
            ]
        },
        {
            "positions": [
                -0.7370420291366713,
                -0.2917782466632849,
                -0.7167978098114265,
                0.882342095481023,
                1.0507939107235682,
                0.7800164211900957
            ]
        },
        {
            "positions": [
                -0.6893138844706068,
                -0.3186562397372451,
                -0.5664420975638524,
                0.9394347792461983,
                0.9858176708049533,
                0.7376563629519446
            ]
        },
        {
            "positions": [
                -0.6415857398045424,
                -0.34553423281120527,
                -0.4160863853162784,
                0.9965274630113738,
                0.9208414308863383,
                0.6952963047137933
            ]
        },
        {
            "positions": [
                -0.5938575951384779,
                -0.3724122258851654,
                -0.26573067306870435,
                1.0536201467765491,
                0.8558651909677235,
                0.6529362464756421
            ]
        },
        {
            "positions": [
                -0.5461294504724133,
                -0.39929021895912564,
                -0.1153749608211303,
                1.1107128305417246,
                0.7908889510491085,
                0.6105761882374908
            ]
        },
        {
            "positions": [
                -0.4984013058063489,
                -0.4261682120330858,
                0.034980751426443746,
                1.1678055143069002,
                0.7259127111304936,
                0.5682161299993397
            ]
        },
        {
            "positions": [
                -0.45067316114028444,
                -0.45304620510704596,
                0.18533646367401757,
                1.2248981980720755,
                0.6609364712118787,
                0.5258560717611885
            ]
        },
        {
            "positions": [
                -0.40294501647422,
                -0.4799241981810061,
                0.3356921759215916,
                1.281990881837251,
                0.5959602312932638,
                0.4834960135230373
            ]
        },
        {
            "positions": [
                -0.3552168718081553,
                -0.5068021912549664,
                0.4860478881691661,
                1.3390835656024265,
                0.5309839913746488,
                0.441135955284886
            ]
        },
        {
            "positions": [
                -0.30748872714209086,
                -0.5336801843289265,
                0.6364036004167402,
                1.3961762493676018,
                0.4660077514560339,
                0.3987758970467348
            ]
        },
        {
            "positions": [
                -0.2597605824760264,
                -0.5605581774028867,
                0.7867593126643142,
                1.4532689331327773,
                0.401031511537419,
                0.35641583880858363
            ]
        },
        {
            "positions": [
                -0.21203243780996195,
                -0.5874361704768469,
                0.9371150249118878,
                1.5103616168979526,
                0.3360552716188041,
                0.3140557805704324
            ]
        },
        {
            "positions": [
                -0.16430429314389738,
                -0.6143141635508071,
                1.0874707371594623,
                1.5674543006631283,
                0.271079031700189,
                0.2716957223322811
            ]
        },
        {
            "positions": [
                -0.11657614847783293,
                -0.6411921566247674,
                1.2378264494070363,
                1.6245469844283036,
                0.2061027917815741,
                0.22933566409412987
            ]
        },
        {
            "positions": [
                -0.06884800381176848,
                -0.6680701496987274,
                1.3881821616546104,
                1.6816396681934789,
                0.14112655186295942,
                0.18697560585597872
            ]
        },
        {
            "positions": [
                -0.021119859145704023,
                -0.6949481427726876,
                1.5385378739021844,
                1.7387323519586544,
                0.07615031194434452,
                0.14461554761782747
            ]
        },
        {
            "positions": [
                0.026608285520360653,
                -0.7218261358466478,
                1.6888935861497585,
                1.79582503572383,
                0.011174072025729398,
                0.1022554893796761
            ]
        },
        {
            "positions": [
                0.0743364301864251,
                -0.748704128920608,
                1.8392492983973325,
                1.8529177194890054,
                -0.0538021678928855,
                0.05989543114152496
            ]
        },
        {
            "positions": [
                0.12206457485248952,
                -0.7755821219945681,
                1.9896050106449066,
                1.9100104032541807,
                -0.11877840781150034,
                0.01753537290337377
            ]
        }
    ]
}