{
    "goal": {
        "global_pose": {
            "orientation": {
                "w": 0.5084816217422485,
                "x": -0.49083608388900757,
                "y": 0.5182115435600281,
                "z": -0.4816462993621826
            },
            "position": {
                "x": 0.5540239810943604,
                "y": 0.030875300988554955,
                "z": 0.16403168439865112
            }
        },
        "name": "move_to_storage_A"
    },
    "id": "EST_move_to_storage_A_75",
    "joint_names": [
        "shoulder_pan_joint",
        "shoulder_lift_joint",
        "elbow_joint",
        "wrist_1_joint",
        "wrist_2_joint",
        "wrist_3_joint"
    ],
    "metrics": {
        "cart_traj_len": 0.3527082529060693,
        "distance_elbow_joint": 0.448399407473715,
        "distance_shoulder_lift_joint": 0.23616417979137583,
        "distance_shoulder_pan_joint": 0.45949247455990805,
        "distance_wrist_1_joint": 0.2359789812308849,
        "distance_wrist_2_joint": 1.1060351820155454,
        "distance_wrist_3_joint": 0.08696544453226274,
        "smoothness": 1.3322676295501878e-15,
        "time": 0.043566895,
        "traj_len": 1.6040684741006825,
        "weighted_distance": 2.0221228256252504
    },
    "planner": "EST",
    "start": {
        "state": {
            "elbow_joint": 1.9715463870305268,
            "shoulder_lift_joint": -1.1394903361783484,
            "shoulder_pan_joint": 0.12281147578464417,
            "wrist_1_joint": -0.7804599489681411,
            "wrist_2_joint": 0.12958660307563738,
            "wrist_3_joint": -3.1924946282119055
        }
    },
    "waypoints": [
        {
            "positions": [
                0.12281147578464417,
                -1.1394903361783484,
                1.9715463870305268,
                -0.7804599489681411,
                0.12958660307563738,
                -3.1924946282119055
            ]
        },
        {
            "positions": [
                0.05716969370465731,
                -1.173228076148545,
                2.0356034452410574,
                -0.8141712320011246,
                0.2875916290778582,
                -3.1800709932787252
            ]
        },
        {
            "positions": [
                -0.008472088375329548,
                -1.2069658161187415,
                2.099660503451588,
                -0.8478825150341082,
                0.44559665508007895,
                -3.167647358345545
            ]
        },
        {
            "positions": [
                -0.07411387045531641,
                -1.2407035560889381,
                2.1637175616621187,
                -0.8815937980670917,
                0.6036016810822997,
                -3.1552237234123646
            ]
        },
        {
            "positions": [
                -0.13975565253530325,
                -1.2744412960591345,
                2.2277746198726494,
                -0.9153050811000754,
                0.7616067070845205,
                -3.142800088479184
            ]
        },
        {
            "positions": [
                -0.20539743461529014,
                -1.308179036029331,
                2.2918316780831804,
                -0.9490163641330589,
                0.9196117330867413,
                -3.1303764535460035
            ]
        },
        {
            "positions": [
                -0.271039216695277,
                -1.3419167759995276,
                2.355888736293711,
                -0.9827276471660424,
                1.077616759088962,
                -3.117952818612823
            ]
        },
        {
            "positions": [
                -0.33668099877526386,
                -1.3756545159697242,
                2.4199457945042417,
                -1.016438930199026,
                1.2356217850911828,
                -3.105529183679643
            ]
        }
    ]
}