{
    "goal": {
        "global_pose": {
            "orientation": {
                "w": 0.7047431468963623,
                "x": -0.7094548344612122,
                "y": 0.0024358443915843964,
                "z": -0.0022348060738295317
            },
            "position": {
                "x": 0.6094750761985779,
                "y": 0.3671506643295288,
                "z": 0.19426114857196808
            }
        },
        "name": "move_to_magneteinheit_A"
    },
    "id": "EST_move_to_magneteinheit_A_150",
    "joint_names": [
        "shoulder_pan_joint",
        "shoulder_lift_joint",
        "elbow_joint",
        "wrist_1_joint",
        "wrist_2_joint",
        "wrist_3_joint"
    ],
    "metrics": {
        "cart_traj_len": 1.8751707323061944,
        "distance_elbow_joint": 3.920227502550434,
        "distance_shoulder_lift_joint": 0.7029025550371751,
        "distance_shoulder_pan_joint": 1.2422205216592042,
        "distance_wrist_1_joint": 1.5316644665672938,
        "distance_wrist_2_joint": 1.6911782520784209,
        "distance_wrist_3_joint": 1.150798631533189,
        "smoothness": 6.250144456581818e-16,
        "time": 0.114753431,
        "traj_len": 3.199842485096058,
        "weighted_distance": 3.9703188676903283
    },
    "planner": "EST",
    "start": {
        "state": {
            "elbow_joint": -1.919643507792019,
            "shoulder_lift_joint": -0.07675430207160344,
            "shoulder_pan_joint": -1.1188671864651873,
            "wrist_1_joint": 0.42560062535961957,
            "wrist_2_joint": 1.5706038300724876,
            "wrist_3_joint": 1.1188968870953055
        }
    },
    "waypoints": [
        {
            "positions": [
                -1.1188671864651873,
                -0.07675430207160344,
                -1.919643507792019,
                0.42560062535961957,
                1.5706038300724876,
                1.1188968870953055
            ]
        },
        {
            "positions": [
                -1.0710894740936796,
                -0.10378901572687942,
                -1.7688655269246947,
                0.48451079715066936,
                1.505558512684856,
                1.074635401267106
            ]
        },
        {
            "positions": [
                -1.0233117617221716,
                -0.1308237293821554,
                -1.6180875460573703,
                0.5434209689417191,
                1.4405131952972245,
                1.0303739154389064
            ]
        },
        {
            "positions": [
                -0.9755340493506638,
                -0.15785844303743135,
                -1.4673095651900459,
                0.6023311407327688,
                1.3754678779095928,
                0.9861124296107068
            ]
        },
        {
            "positions": [
                -0.9277563369791559,
                -0.18489315669270734,
                -1.3165315843227217,
                0.6612413125238186,
                1.3104225605219613,
                0.9418509437825072
            ]
        },
        {
            "positions": [
                -0.8799786246076481,
                -0.2119278703479833,
                -1.1657536034553972,
                0.7201514843148684,
                1.2453772431343297,
                0.8975894579543077
            ]
        },
        {
            "positions": [
                -0.8322009122361402,
                -0.2389625840032593,
                -1.0149756225880728,
                0.7790616561059182,
                1.1803319257466982,
                0.853327972126108
            ]
        },
        {
            "positions": [
                -0.7844231998646324,
                -0.2659972976585352,
                -0.8641976417207484,
                0.8379718278969679,
                1.1152866083590667,
                0.8090664862979084
            ]
        },
        {
            "positions": [
                -0.7366454874931245,
                -0.29303201131381124,
                -0.713419660853424,
                0.8968819996880177,
                1.0502412909714351,
                0.7648050004697089
            ]
        },
        {
            "positions": [
                -0.6888677751216167,
                -0.32006672496908717,
                -0.5626416799860998,
                0.9557921714790674,
                0.9851959735838035,
                0.7205435146415093
            ]
        },
        {
            "positions": [
                -0.6410900627501088,
                -0.34710143862436316,
                -0.4118636991187752,
                1.0147023432701172,
                0.9201506561961719,
                0.6762820288133098
            ]
        },
        {
            "positions": [
                -0.593312350378601,
                -0.37413615227963914,
                -0.261085718251451,
                1.0736125150611668,
                0.8551053388085403,
                0.6320205429851102
            ]
        },
        {
            "positions": [
                -0.5455346380070931,
                -0.40117086593491513,
                -0.11030773738412636,
                1.1325226868522167,
                0.7900600214209087,
                0.5877590571569106
            ]
        },
        {
            "positions": [
                -0.49775692563558527,
                -0.42820557959019107,
                0.04047024348319783,
                1.1914328586432665,
                0.7250147040332772,
                0.543497571328711
            ]
        },
        {
            "positions": [
                -0.4499792132640774,
                -0.455240293245467,
                0.19124822435052224,
                1.2503430304343162,
                0.6599693866456456,
                0.49923608550051146
            ]
        },
        {
            "positions": [
                -0.4022015008925697,
                -0.482275006900743,
                0.3420262052178462,
                1.309253202225366,
                0.5949240692580141,
                0.4549745996723119
            ]
        },
        {
            "positions": [
                -0.3544237885210617,
                -0.5093097205560191,
                0.49280418608517107,
                1.3681633740164159,
                0.5298787518703825,
                0.41071311384411224
            ]
        },
        {
            "positions": [
                -0.30664607614955386,
                -0.536344434211295,
                0.6435821669524955,
                1.4270735458074657,
                0.46483343448275094,
                0.3664516280159127
            ]
        },
        {
            "positions": [
                -0.258868363778046,
                -0.5633791478665708,
                0.7943601478198195,
                1.4859837175985153,
                0.3997881170951194,
                0.32219014218771314
            ]
        },
        {
            "positions": [
                -0.21109065140653815,
                -0.5904138615218468,
                0.9451381286871439,
                1.544893889389565,
                0.3347427997074879,
                0.2779286563595136
            ]
        },
        {
            "positions": [
                -0.1633129390350303,
                -0.6174485751771228,
                1.0959161095544687,
                1.603804061180615,
                0.26969748231985613,
                0.23366717053131392
            ]
        },
        {
            "positions": [
                -0.11553522666352234,
                -0.6444832888323988,
                1.2466940904217931,
                1.6627142329716647,
                0.2046521649322246,
                0.18940568470311436
            ]
        },
        {
            "positions": [
                -0.0677575142920146,
                -0.6715180024876748,
                1.397472071289117,
                1.7216244047627143,
                0.13960684754459307,
                0.1451441988749148
            ]
        },
        {
            "positions": [
                -0.019979801920506857,
                -0.6985527161429508,
                1.5482500521564415,
                1.7805345765537641,
                0.07456153015696154,
                0.10088271304671537
            ]
        },
        {
            "positions": [
                0.027797910451001107,
                -0.7255874297982268,
                1.6990280330237664,
                1.839444748344814,
                0.00951621276932979,
                0.05662122721851559
            ]
        },
        {
            "positions": [
                0.07557562282250907,
                -0.7526221434535028,
                1.8498060138910903,
                1.8983549201358638,
                -0.05552910461830174,
                0.012359741390316037
            ]
        },
        {
            "positions": [
                0.12335333519401688,
                -0.7796568571087786,
                2.0005839947584145,
                1.9572650919269134,
                -0.12057442200593327,
                -0.03190174443788349
            ]
        }
    ]
}