{
    "goal": {
        "global_pose": {
            "orientation": {
                "w": 0.7047431468963623,
                "x": -0.7094548344612122,
                "y": 0.0024358443915843964,
                "z": -0.0022348060738295317
            },
            "position": {
                "x": 0.6094750761985779,
                "y": 0.3671506643295288,
                "z": 0.19426114857196808
            }
        },
        "name": "move_to_magneteinheit_A"
    },
    "id": "EST_move_to_magneteinheit_A_44",
    "joint_names": [
        "shoulder_pan_joint",
        "shoulder_lift_joint",
        "elbow_joint",
        "wrist_1_joint",
        "wrist_2_joint",
        "wrist_3_joint"
    ],
    "metrics": {
        "cart_traj_len": 2.067862992540968,
        "distance_elbow_joint": 3.8910845853780294,
        "distance_shoulder_lift_joint": 1.0625384148433799,
        "distance_shoulder_pan_joint": 1.241929263508568,
        "distance_wrist_1_joint": 1.1994991049453403,
        "distance_wrist_2_joint": 1.4385618056564018,
        "distance_wrist_3_joint": 1.9698201536334246,
        "smoothness": 4.594026319915281e-16,
        "time": 0.083056728,
        "traj_len": 3.2868576677375527,
        "weighted_distance": 4.169068786411869
    },
    "planner": "EST",
    "start": {
        "state": {
            "elbow_joint": -1.919643507792019,
            "shoulder_lift_joint": -0.07675430207160344,
            "shoulder_pan_joint": -1.1188671864651873,
            "wrist_1_joint": 0.42560062535961957,
            "wrist_2_joint": 1.5706038300724876,
            "wrist_3_joint": 1.1188968870953055
        }
    },
    "waypoints": [
        {
            "positions": [
                -1.1188671864651873,
                -0.07675430207160344,
                -1.919643507792019,
                0.42560062535961957,
                1.5706038300724876,
                1.1188968870953055
            ]
        },
        {
            "positions": [
                -1.0745125699113098,
                -0.11470210260172414,
                -1.7806762011713753,
                0.3827613716115717,
                1.519226622727616,
                1.1892476068679279
            ]
        },
        {
            "positions": [
                -1.0301579533574325,
                -0.15264990313184484,
                -1.6417088945507312,
                0.33992211786352383,
                1.4678494153827446,
                1.2595983266405502
            ]
        },
        {
            "positions": [
                -0.985803336803555,
                -0.19059770366196555,
                -1.5027415879300874,
                0.29708286411547596,
                1.416472208037873,
                1.3299490464131725
            ]
        },
        {
            "positions": [
                -0.9414487202496776,
                -0.22854550419208627,
                -1.3637742813094436,
                0.2542436103674281,
                1.3650950006930016,
                1.4002997661857948
            ]
        },
        {
            "positions": [
                -0.8970941036958002,
                -0.266493304722207,
                -1.2248069746887995,
                0.21140435661938023,
                1.31371779334813,
                1.470650485958417
            ]
        },
        {
            "positions": [
                -0.8527394871419228,
                -0.3044411052523277,
                -1.0858396680681557,
                0.16856510287133236,
                1.2623405860032586,
                1.5410012057310394
            ]
        },
        {
            "positions": [
                -0.8083848705880454,
                -0.3423889057824484,
                -0.9468723614475117,
                0.1257258491232845,
                1.210963378658387,
                1.6113519255036617
            ]
        },
        {
            "positions": [
                -0.7640302540341679,
                -0.3803367063125691,
                -0.8079050548268678,
                0.08288659537523663,
                1.1595861713135158,
                1.681702645276284
            ]
        },
        {
            "positions": [
                -0.7196756374802905,
                -0.41828450684268986,
                -0.6689377482062238,
                0.040047341627188704,
                1.108208963968644,
                1.7520533650489063
            ]
        },
        {
            "positions": [
                -0.6753210209264131,
                -0.45623230737281056,
                -0.5299704415855799,
                -0.002791912120859108,
                1.0568317566237728,
                1.8224040848215286
            ]
        },
        {
            "positions": [
                -0.6309664043725356,
                -0.4941801079029312,
                -0.3910031349649361,
                -0.045631165868906975,
                1.0054545492789013,
                1.892754804594151
            ]
        },
        {
            "positions": [
                -0.5866117878186583,
                -0.5321279084330519,
                -0.2520358283442923,
                -0.08847041961695484,
                0.9540773419340297,
                1.9631055243667732
            ]
        },
        {
            "positions": [
                -0.5422571712647808,
                -0.5700757089631727,
                -0.11306852172364823,
                -0.1313096733650027,
                0.9027001345891582,
                2.0334562441393955
            ]
        },
        {
            "positions": [
                -0.4979025547109034,
                -0.6080235094932933,
                0.025898784896995597,
                -0.17414892711305058,
                0.8513229272442867,
                2.103806963912018
            ]
        },
        {
            "positions": [
                -0.453547938157026,
                -0.6459713100234141,
                0.16486609151763942,
                -0.21698818086109845,
                0.7999457198994152,
                2.17415768368464
            ]
        },
        {
            "positions": [
                -0.4091933216031486,
                -0.6839191105535347,
                0.3038333981382835,
                -0.2598274346091463,
                0.7485685125545438,
                2.2445084034572624
            ]
        },
        {
            "positions": [
                -0.3648387050492712,
                -0.7218669110836555,
                0.4428007047589271,
                -0.30266668835719407,
                0.6971913052096723,
                2.3148591232298847
            ]
        },
        {
            "positions": [
                -0.32048408849539367,
                -0.7598147116137763,
                0.5817680113795716,
                -0.34550594210524216,
                0.6458140978648007,
                2.385209843002507
            ]
        },
        {
            "positions": [
                -0.27612947194151627,
                -0.7977625121438969,
                0.7207353180002152,
                -0.3883451958532899,
                0.5944368905199292,
                2.4555605627751294
            ]
        },
        {
            "positions": [
                -0.23177485538763887,
                -0.8357103126740177,
                0.8597026246208592,
                -0.4311844496013378,
                0.5430596831750578,
                2.5259112825477517
            ]
        },
        {
            "positions": [
                -0.18742023883376135,
                -0.8736581132041383,
                0.9986699312415028,
                -0.47402370334938565,
                0.4916824758301863,
                2.596262002320374
            ]
        },
        {
            "positions": [
                -0.14306562227988395,
                -0.9116059137342589,
                1.1376372378621469,
                -0.5168629570974335,
                0.4403052684853148,
                2.6666127220929963
            ]
        },
        {
            "positions": [
                -0.09871100572600655,
                -0.9495537142643797,
                1.2766045444827905,
                -0.5597022108454814,
                0.3889280611404433,
                2.7369634418656186
            ]
        },
        {
            "positions": [
                -0.05435638917212926,
                -0.9875015147945003,
                1.4155718511034345,
                -0.6025414645935292,
                0.3375508537955718,
                2.807314161638241
            ]
        },
        {
            "positions": [
                -0.010001772618251747,
                -1.0254493153246211,
                1.5545391577240786,
                -0.6453807183415772,
                0.2861736464507003,
                2.877664881410863
            ]
        },
        {
            "positions": [
                0.034352843935625765,
                -1.063397115854742,
                1.6935064643447226,
                -0.6882199720896249,
                0.2347964391058288,
                2.9480156011834855
            ]
        },
        {
            "positions": [
                0.07870746048950306,
                -1.1013449163848628,
                1.8324737709653662,
                -0.7310592258376729,
                0.1834192317609573,
                3.018366320956108
            ]
        },
        {
            "positions": [
                0.12306207704338062,
                -1.1392927169149833,
                1.9714410775860103,
                -0.7738984795857207,
                0.13204202441608573,
                3.08871704072873
            ]
        }
    ]
}