{
    "goal": {
        "global_pose": {
            "orientation": {
                "w": 0.7031023502349854,
                "x": -0.7110244035720825,
                "y": 0.007748599164187908,
                "z": 0.005598929710686207
            },
            "position": {
                "x": 0.11585023208521307,
                "y": 0.44412534475326537,
                "z": 0.3711530566215515
            }
        },
        "name": "move_to_auspresseinheit_A"
    },
    "id": "EST_move_to_auspresseinheit_A_16",
    "joint_names": [
        "shoulder_pan_joint",
        "shoulder_lift_joint",
        "elbow_joint",
        "wrist_1_joint",
        "wrist_2_joint",
        "wrist_3_joint"
    ],
    "metrics": {
        "cart_traj_len": 1.9241581711882958,
        "distance_elbow_joint": 1.7781863517557213,
        "distance_shoulder_lift_joint": 0.6386754254046578,
        "distance_shoulder_pan_joint": 1.7600033920917135,
        "distance_wrist_1_joint": 2.635802695727653,
        "distance_wrist_2_joint": 3.1453805575030898,
        "distance_wrist_3_joint": 6.002807740936584,
        "smoothness": 0.5885420897806263,
        "time": 0.094080616,
        "traj_len": 3.9951040241049314,
        "weighted_distance": 5.809273181605708
    },
    "planner": "EST",
    "start": {
        "state": {
            "elbow_joint": 2.422574709923281,
            "shoulder_lift_joint": -1.3736533754116391,
            "shoulder_pan_joint": -0.33786336945926293,
            "wrist_1_joint": -1.0288603412921917,
            "wrist_2_joint": 1.2330224858903978,
            "wrist_3_joint": -3.094022268022082
        }
    },
    "waypoints": [
        {
            "positions": [
                -0.33786336945926293,
                -1.3736533754116391,
                2.422574709923281,
                -1.0288603412921917,
                1.2330224858903978,
                -3.094022268022082
            ]
        },
        {
            "positions": [
                -0.36179078912785806,
                -1.3983103839838382,
                2.3623515627360434,
                -1.0051506766079141,
                1.188187244486965,
                -2.895532517936027
            ]
        },
        {
            "positions": [
                -0.3857182087964532,
                -1.4229673925560373,
                2.302128415548806,
                -0.9814410119236363,
                1.1433520030835322,
                -2.6970427678499727
            ]
        },
        {
            "positions": [
                -0.4096456284650483,
                -1.4476244011282364,
                2.2419052683615686,
                -0.9577313472393586,
                1.0985167616800997,
                -2.4985530177639177
            ]
        },
        {
            "positions": [
                -0.43357304813364345,
                -1.4722814097004355,
                2.1816821211743314,
                -0.9340216825550809,
                1.053681520276667,
                -2.3000632676778627
            ]
        },
        {
            "positions": [
                -0.4575004678022385,
                -1.4969384182726349,
                2.1214589739870937,
                -0.9103120178708032,
                1.0088462788732342,
                -2.1015735175918078
            ]
        },
        {
            "positions": [
                -0.48142788747083365,
                -1.521595426844834,
                2.061235826799856,
                -0.8866023531865255,
                0.9640110374698014,
                -1.903083767505753
            ]
        },
        {
            "positions": [
                -0.5053553071394288,
                -1.546252435417033,
                2.001012679612619,
                -0.8628926885022479,
                0.9191757960663688,
                -1.7045940174196983
            ]
        },
        {
            "positions": [
                -0.5292827268080239,
                -1.5709094439892322,
                1.9407895324253812,
                -0.83918302381797,
                0.8743405546629361,
                -1.5061042673336433
            ]
        },
        {
            "positions": [
                -0.553210146476619,
                -1.5955664525614313,
                1.880566385238144,
                -0.8154733591336925,
                0.8295053132595034,
                -1.3076145172475886
            ]
        },
        {
            "positions": [
                -0.5771375661452142,
                -1.6202234611336304,
                1.8203432380509064,
                -0.7917636944494147,
                0.7846700718560707,
                -1.1091247671615339
            ]
        },
        {
            "positions": [
                -0.6010649858138093,
                -1.6448804697058295,
                1.760120090863669,
                -0.768054029765137,
                0.7398348304526381,
                -0.9106350170754789
            ]
        },
        {
            "positions": [
                -0.6249924054824044,
                -1.6695374782780288,
                1.6998969436764315,
                -0.7443443650808592,
                0.6949995890492052,
                -0.7121452669894239
            ]
        },
        {
            "positions": [
                -0.6489198251509996,
                -1.6941944868502279,
                1.6396737964891939,
                -0.7206347003965816,
                0.6501643476457726,
                -0.513655516903369
            ]
        },
        {
            "positions": [
                -0.6728472448195947,
                -1.718851495422427,
                1.5794506493019564,
                -0.6969250357123039,
                0.6053291062423398,
                -0.31516576681731445
            ]
        },
        {
            "positions": [
                -0.6967746644881898,
                -1.743508503994626,
                1.519227502114719,
                -0.6732153710280262,
                0.5604938648389072,
                -0.11667601673125932
            ]
        },
        {
            "positions": [
                -0.6055091187971505,
                -1.739227622299062,
                1.5478648070957648,
                -0.5695762134755014,
                0.4634342537293094,
                -0.18229750758826585
            ]
        },
        {
            "positions": [
                -0.5142435731061114,
                -1.734946740603498,
                1.5765021120768108,
                -0.46593705592297646,
                0.36637464261971164,
                -0.2479189984452724
            ]
        },
        {
            "positions": [
                -0.42297802741507207,
                -1.7306658589079338,
                1.6051394170578566,
                -0.36229789837045157,
                0.2693150315101138,
                -0.31354048930227896
            ]
        },
        {
            "positions": [
                -0.33171248172403284,
                -1.7263849772123696,
                1.6337767220389023,
                -0.2586587408179267,
                0.17225542040051606,
                -0.3791619801592855
            ]
        },
        {
            "positions": [
                -0.24044693603299355,
                -1.7221040955168054,
                1.6624140270199483,
                -0.15501958326540177,
                0.07519580929091824,
                -0.44478347101629206
            ]
        },
        {
            "positions": [
                -0.14918139034195432,
                -1.7178232138212413,
                1.6910513320009941,
                -0.05138042571287693,
                -0.02186380181867953,
                -0.5104049618732986
            ]
        },
        {
            "positions": [
                -0.05791584465091504,
                -1.7135423321256773,
                1.7196886369820399,
                0.05225873183964802,
                -0.11892341292827735,
                -0.5760264527303052
            ]
        },
        {
            "positions": [
                0.033349701040124136,
                -1.7092614504301131,
                1.7483259419630859,
                0.15589788939217275,
                -0.21598302403787506,
                -0.6416479435873117
            ]
        },
        {
            "positions": [
                0.12461524673116342,
                -1.704980568734549,
                1.7769632469441317,
                0.2595370469446977,
                -0.3130426351474729,
                -0.7072694344443182
            ]
        },
        {
            "positions": [
                0.2158807924222027,
                -1.700699687038985,
                1.8056005519251777,
                0.36317620449722265,
                -0.4101022462570707,
                -0.7728909253013247
            ]
        },
        {
            "positions": [
                0.30714633811324177,
                -1.6964188053434208,
                1.8342378569062232,
                0.4668153620497475,
                -0.5071618573666684,
                -0.8385124161583313
            ]
        },
        {
            "positions": [
                0.39841188380428116,
                -1.6921379236478566,
                1.8628751618872692,
                0.5704545196022722,
                -0.6042214684762663,
                -0.9041339070153378
            ]
        },
        {
            "positions": [
                0.4188055870556355,
                -1.7066345714128501,
                1.8982879274989097,
                0.501355330613393,
                -0.5170123616005046,
                -1.053334146972783
            ]
        },
        {
            "positions": [
                0.4391992903069898,
                -1.7211312191778434,
                1.9337006931105505,
                0.43225614162451376,
                -0.42980325472474284,
                -1.2025343869302283
            ]
        },
        {
            "positions": [
                0.4595929935583441,
                -1.7356278669428369,
                1.969113458722191,
                0.3631569526356345,
                -0.34259414784898107,
                -1.3517346268876735
            ]
        },
        {
            "positions": [
                0.4799866968096984,
                -1.7501245147078304,
                2.0045262243338318,
                0.2940577636467553,
                -0.25538504097321935,
                -1.5009348668451188
            ]
        },
        {
            "positions": [
                0.5003804000610528,
                -1.7646211624728239,
                2.039938989945472,
                0.22495857465787605,
                -0.16817593409745757,
                -1.650135106802564
            ]
        },
        {
            "positions": [
                0.520774103312407,
                -1.7791178102378171,
                2.075351755557113,
                0.15585938566899682,
                -0.08096682722169579,
                -1.7993353467600093
            ]
        },
        {
            "positions": [
                0.5411678065637614,
                -1.7936144580028106,
                2.1107645211687536,
                0.08676019668011759,
                0.006242279654065985,
                -1.9485355867174547
            ]
        },
        {
            "positions": [
                0.5615615098151157,
                -1.808111105767804,
                2.146177286780394,
                0.01766100769123835,
                0.09345138652982765,
                -2.0977358266748998
            ]
        },
        {
            "positions": [
                0.58195521306647,
                -1.8226077535327976,
                2.1815900523920346,
                -0.051438181297640884,
                0.18066049340558943,
                -2.246936066632345
            ]
        },
        {
            "positions": [
                0.6023489163178243,
                -1.8371044012977908,
                2.2170028180036754,
                -0.12053737028652012,
                0.2678696002813512,
                -2.3961363065897903
            ]
        },
        {
            "positions": [
                0.6227426195691786,
                -1.8516010490627843,
                2.2524155836153157,
                -0.18963655927539935,
                0.35507870715711287,
                -2.5453365465472357
            ]
        },
        {
            "positions": [
                0.6431363228205329,
                -1.8660976968277778,
                2.2878283492269564,
                -0.2587357482642786,
                0.44228781403287476,
                -2.694536786504681
            ]
        },
        {
            "positions": [
                0.6635300260718873,
                -1.880594344592771,
                2.323241114838597,
                -0.3278349372531578,
                0.5294969209086364,
                -2.8437370264621262
            ]
        },
        {
            "positions": [
                0.6839237293232416,
                -1.8950909923577646,
                2.3586538804502375,
                -0.39693412624203706,
                0.6167060277843983,
                -2.9929372664195717
            ]
        },
        {
            "positions": [
                0.7043174325745959,
                -1.909587640122758,
                2.3940666460618782,
                -0.46603331523091635,
                0.7039151346601601,
                -3.1421375063770167
            ]
        }
    ]
}