{
    "goal": {
        "global_pose": {
            "orientation": {
                "w": -0.00223480608172531,
                "x": 0.0024358444001904467,
                "y": 0.7094548369677653,
                "z": -0.704743149386269
            },
            "position": {
                "x": 0.6205249238014221,
                "y": -0.6371506643295288,
                "z": 0.19426114857196808
            }
        },
        "name": "move_to_magneteinheit_B"
    },
    "id": "EST_move_to_magneteinheit_B_60",
    "joint_names": [
        "shoulder_pan_joint",
        "shoulder_lift_joint",
        "elbow_joint",
        "wrist_1_joint",
        "wrist_2_joint",
        "wrist_3_joint"
    ],
    "metrics": {
        "cart_traj_len": 4.120647960724026,
        "distance_elbow_joint": 4.180526857760861,
        "distance_shoulder_lift_joint": 2.331081675386677,
        "distance_shoulder_pan_joint": 4.907516994763139,
        "distance_wrist_1_joint": 4.915345656853468,
        "distance_wrist_2_joint": 5.245720951104966,
        "distance_wrist_3_joint": 6.309168907431264,
        "smoothness": 0.441550084707959,
        "time": 1.49509076,
        "traj_len": 5.281037875579042,
        "weighted_distance": 7.11819959442845
    },
    "planner": "EST",
    "start": {
        "state": {
            "elbow_joint": 2.39358713078474,
            "shoulder_lift_joint": -1.908514104345545,
            "shoulder_pan_joint": 0.7066247066606129,
            "wrist_1_joint": -0.4678290933515497,
            "wrist_2_joint": 0.7096259083745334,
            "wrist_3_joint": -3.1358149277392293
        }
    },
    "waypoints": [
        {
            "positions": [
                0.7066247066606129,
                -1.908514104345545,
                2.39358713078474,
                -0.4678290933515497,
                0.7096259083745334,
                -3.1358149277392293
            ]
        },
        {
            "positions": [
                0.6081335788499946,
                -1.9564671497400918,
                2.3834684246073783,
                -0.40046785899813475,
                0.6052688445577029,
                -3.0691672719018013
            ]
        },
        {
            "positions": [
                0.5096424510393764,
                -2.0044201951346388,
                2.373349718430016,
                -0.3331066246447198,
                0.5009117807408723,
                -3.0025196160643732
            ]
        },
        {
            "positions": [
                0.4111513232287582,
                -2.0523732405291857,
                2.3632310122526543,
                -0.26574539029130484,
                0.3965547169240417,
                -2.9358719602269456
            ]
        },
        {
            "positions": [
                0.31266019541813994,
                -2.1003262859237326,
                2.353112306075292,
                -0.19838415593788988,
                0.2921976531072112,
                -2.8692243043895176
            ]
        },
        {
            "positions": [
                0.2141690676075217,
                -2.1482793313182795,
                2.3429935998979303,
                -0.13102292158447493,
                0.1878405892903806,
                -2.8025766485520895
            ]
        },
        {
            "positions": [
                0.11567793979690344,
                -2.1962323767128265,
                2.3328748937205686,
                -0.06366168723105992,
                0.08348352547354998,
                -2.7359289927146615
            ]
        },
        {
            "positions": [
                0.017186811986285133,
                -2.244185422107374,
                2.3227561875432063,
                0.0036995471223550402,
                -0.02087353834328054,
                -2.6692813368772335
            ]
        },
        {
            "positions": [
                -0.08130431582433306,
                -2.2921384675019203,
                2.3126374813658446,
                0.07106078147576994,
                -0.12523060216011106,
                -2.602633681039806
            ]
        },
        {
            "positions": [
                -0.17979544363495137,
                -2.3400915128964677,
                2.3025187751884824,
                0.13842201582918495,
                -0.22958766597694158,
                -2.535986025202378
            ]
        },
        {
            "positions": [
                -0.27828657144556956,
                -2.3880445582910146,
                2.2924000690111206,
                0.20578325018259985,
                -0.3339447297937722,
                -2.4693383693649498
            ]
        },
        {
            "positions": [
                -0.37677769925618787,
                -2.4359976036855615,
                2.282281362833759,
                0.27314448453601475,
                -0.43830179361060273,
                -2.4026907135275217
            ]
        },
        {
            "positions": [
                -0.47526882706680607,
                -2.4839506490801084,
                2.2721626566563966,
                0.3405057188894299,
                -0.5426588574274335,
                -2.3360430576900937
            ]
        },
        {
            "positions": [
                -0.5737599548774245,
                -2.5319036944746554,
                2.262043950479035,
                0.4078669532428448,
                -0.647015921244264,
                -2.269395401852666
            ]
        },
        {
            "positions": [
                -0.6722510826880427,
                -2.5798567398692023,
                2.2519252443016726,
                0.4752281875962598,
                -0.7513729850610945,
                -2.202747746015238
            ]
        },
        {
            "positions": [
                -0.7707422104986608,
                -2.627809785263749,
                2.241806538124311,
                0.5425894219496747,
                -0.8557300488779249,
                -2.13610009017781
            ]
        },
        {
            "positions": [
                -0.7138023568308908,
                -2.592436191237786,
                2.1122895623724203,
                0.4476991880884863,
                -0.7857937730485743,
                -2.1351537323027494
            ]
        },
        {
            "positions": [
                -0.6568625031631208,
                -2.5570625972118224,
                1.9827725866205292,
                0.3528089542272978,
                -0.7158574972192238,
                -2.1342073744276884
            ]
        },
        {
            "positions": [
                -0.5999226494953509,
                -2.5216890031858594,
                1.8532556108686387,
                0.2579187203661093,
                -0.6459212213898732,
                -2.133261016552628
            ]
        },
        {
            "positions": [
                -0.5429827958275809,
                -2.486315409159896,
                1.7237386351167476,
                0.16302848650492086,
                -0.5759849455605226,
                -2.1323146586775668
            ]
        },
        {
            "positions": [
                -0.4860429421598109,
                -2.4509418151339326,
                1.594221659364857,
                0.0681382526437323,
                -0.5060486697311721,
                -2.131368300802506
            ]
        },
        {
            "positions": [
                -0.429103088492041,
                -2.415568221107969,
                1.4647046836129662,
                -0.026751981217456144,
                -0.4361123939018215,
                -2.130421942927445
            ]
        },
        {
            "positions": [
                -0.372163234824271,
                -2.3801946270820062,
                1.3351877078610754,
                -0.12164221507864459,
                -0.3661761180724709,
                -2.1294755850523845
            ]
        },
        {
            "positions": [
                -0.31522338115650106,
                -2.344821033056043,
                1.2056707321091846,
                -0.21653244893983303,
                -0.2962398422431204,
                -2.1285292271773235
            ]
        },
        {
            "positions": [
                -0.25828352748873107,
                -2.3094474390300794,
                1.0761537563572938,
                -0.3114226828010216,
                -0.2263035664137698,
                -2.127582869302263
            ]
        },
        {
            "positions": [
                -0.20134367382096108,
                -2.274073845004116,
                0.946636780605403,
                -0.40631291666221014,
                -0.15636729058441923,
                -2.1266365114272023
            ]
        },
        {
            "positions": [
                -0.1444038201531912,
                -2.2387002509781526,
                0.8171198048535124,
                -0.5012031505233985,
                -0.08643101475506865,
                -2.1256901535521413
            ]
        },
        {
            "positions": [
                -0.08746396648542121,
                -2.2033266569521897,
                0.6876028291016216,
                -0.596093384384587,
                -0.016494738925718067,
                -2.1247437956770807
            ]
        },
        {
            "positions": [
                -0.030524112817651217,
                -2.1679530629262262,
                0.5580858533497308,
                -0.6909836182457756,
                0.053441536903632514,
                -2.1237974378020197
            ]
        },
        {
            "positions": [
                0.026415740850118774,
                -2.132579468900263,
                0.42856887759784,
                -0.7858738521069639,
                0.1233778127329831,
                -2.122851079926959
            ]
        },
        {
            "positions": [
                0.08335559451788876,
                -2.0972058748742994,
                0.2990519018459492,
                -0.8807640859681525,
                0.19331408856233367,
                -2.121904722051898
            ]
        },
        {
            "positions": [
                0.14029544818565864,
                -2.0618322808483365,
                0.1695349260940584,
                -0.9756543198293408,
                0.26325036439168414,
                -2.1209583641768375
            ]
        },
        {
            "positions": [
                0.19723530185342852,
                -2.026458686822373,
                0.04001795034216782,
                -1.0705445536905294,
                0.3331866402210346,
                -2.1200120063017764
            ]
        },
        {
            "positions": [
                0.2541751555211986,
                -1.9910850927964097,
                -0.08949902540972321,
                -1.165434787551718,
                0.4031229160503853,
                -2.119065648426716
            ]
        },
        {
            "positions": [
                0.3111150091889685,
                -1.9557114987704463,
                -0.2190160011616138,
                -1.2603250214129063,
                0.4730591918797358,
                -2.118119290551655
            ]
        },
        {
            "positions": [
                0.3680548628567386,
                -1.920337904744483,
                -0.3485329769135048,
                -1.355215255274095,
                0.5429954677090865,
                -2.1171729326765942
            ]
        },
        {
            "positions": [
                0.4249947165245085,
                -1.8849643107185199,
                -0.4780499526653954,
                -1.4501054891352834,
                0.6129317435384369,
                -2.1162265748015336
            ]
        },
        {
            "positions": [
                0.48193457019227837,
                -1.8495907166925565,
                -0.607566928417286,
                -1.5449957229964717,
                0.6828680193677876,
                -2.1152802169264726
            ]
        },
        {
            "positions": [
                0.5388744238600485,
                -1.814217122666593,
                -0.737083904169177,
                -1.6398859568576603,
                0.7528042951971383,
                -2.114333859051412
            ]
        },
        {
            "positions": [
                0.5958142775278183,
                -1.77884352864063,
                -0.8666008799210676,
                -1.7347761907188488,
                0.8227405710264888,
                -2.113387501176351
            ]
        },
        {
            "positions": [
                0.6527541311955882,
                -1.7434699346146667,
                -0.9961178556729582,
                -1.829666424580037,
                0.8926768468558393,
                -2.1124411433012904
            ]
        },
        {
            "positions": [
                0.7096939848633583,
                -1.7080963405887033,
                -1.1256348314248492,
                -1.924556658441226,
                0.96261312268519,
                -2.1114947854262294
            ]
        },
        {
            "positions": [
                0.7666338385311282,
                -1.67272274656274,
                -1.2551518071767398,
                -2.019446892302414,
                1.0325493985145404,
                -2.110548427551169
            ]
        },
        {
            "positions": [
                0.8235736921988983,
                -1.6373491525367765,
                -1.3846687829286308,
                -2.1143371261636026,
                1.102485674343891,
                -2.1096020696761077
            ]
        },
        {
            "positions": [
                0.8805135458666683,
                -1.6019755585108133,
                -1.5141857586805214,
                -2.209227360024791,
                1.1724219501732418,
                -2.108655711801047
            ]
        },
        {
            "positions": [
                1.0077999790439756,
                -1.6450692685441781,
                -1.5071410636206908,
                -2.280398937919699,
                1.1141568112487923,
                -2.0194290891991846
            ]
        },
        {
            "positions": [
                1.1350864122212831,
                -1.688162978577543,
                -1.5000963685608601,
                -2.3515705158146067,
                1.055891672324343,
                -1.9302024665973219
            ]
        },
        {
            "positions": [
                1.2623728453985903,
                -1.7312566886109078,
                -1.4930516735010295,
                -2.4227420937095148,
                0.9976265333998936,
                -1.8409758439954593
            ]
        },
        {
            "positions": [
                1.3896592785758979,
                -1.7743503986442726,
                -1.4860069784411989,
                -2.4939136716044223,
                0.9393613944754442,
                -1.7517492213935968
            ]
        },
        {
            "positions": [
                1.516945711753205,
                -1.8174441086776372,
                -1.4789622833813683,
                -2.5650852494993304,
                0.8810962555509947,
                -1.662522598791734
            ]
        },
        {
            "positions": [
                1.6442321449305126,
                -1.860537818711002,
                -1.4719175883215379,
                -2.6362568273942384,
                0.8228311166265454,
                -1.5732959761898715
            ]
        },
        {
            "positions": [
                1.7715185781078198,
                -1.9036315287443668,
                -1.4648728932617072,
                -2.707428405289146,
                0.7645659777020959,
                -1.484069353588009
            ]
        },
        {
            "positions": [
                1.8988050112851274,
                -1.9467252387777316,
                -1.4578281982018766,
                -2.778599983184054,
                0.7063008387776465,
                -1.3948427309861464
            ]
        },
        {
            "positions": [
                2.0260914444624345,
                -1.9898189488110964,
                -1.450783503142046,
                -2.8497715610789616,
                0.6480356998531971,
                -1.3056161083842837
            ]
        },
        {
            "positions": [
                2.153377877639742,
                -2.0329126588444613,
                -1.4437388080822153,
                -2.9209431389738696,
                0.5897705609287477,
                -1.2163894857824211
            ]
        },
        {
            "positions": [
                2.1814906548322677,
                -2.0415245848101216,
                -1.454978086843176,
                -2.896421217827831,
                0.5303504717311449,
                -0.972514848811618
            ]
        },
        {
            "positions": [
                2.2096034320247933,
                -2.0501365107757823,
                -1.4662173656041366,
                -2.871899296681792,
                0.47093038253354214,
                -0.728640211840815
            ]
        },
        {
            "positions": [
                2.237716209217319,
                -2.0587484367414426,
                -1.4774566443650974,
                -2.8473773755357534,
                0.41151029333593936,
                -0.48476557487001193
            ]
        },
        {
            "positions": [
                2.265828986409845,
                -2.0673603627071033,
                -1.488695923126058,
                -2.8228554543897144,
                0.3520902041383366,
                -0.2408909378992088
            ]
        },
        {
            "positions": [
                2.2939417636023705,
                -2.0759722886727636,
                -1.4999352018870187,
                -2.798333533243676,
                0.2926701149407338,
                0.002983699071594348
            ]
        },
        {
            "positions": [
                2.322054540794896,
                -2.0845842146384244,
                -1.5111744806479794,
                -2.773811612097637,
                0.23325002574313103,
                0.24685833604239726
            ]
        },
        {
            "positions": [
                2.3501673179874216,
                -2.0931961406040847,
                -1.52241375940894,
                -2.7492896909515983,
                0.17382993654552825,
                0.4907329730132006
            ]
        },
        {
            "positions": [
                2.378280095179947,
                -2.1018080665697454,
                -1.5336530381699007,
                -2.7247677698055597,
                0.11440984734792548,
                0.7346076099840035
            ]
        },
        {
            "positions": [
                2.4063928723724732,
                -2.1104199925354057,
                -1.5448923169308615,
                -2.7002458486595207,
                0.0549897581503227,
                0.9784822469548067
            ]
        },
        {
            "positions": [
                2.434505649564999,
                -2.119031918501066,
                -1.556131595691822,
                -2.6757239275134816,
                -0.004430331047280078,
                1.2223568839256098
            ]
        },
        {
            "positions": [
                2.4626184267575244,
                -2.1276438444667267,
                -1.5673708744527828,
                -2.651202006367443,
                -0.06385042024488286,
                1.466231520896413
            ]
        },
        {
            "positions": [
                2.49073120395005,
                -2.136255770432387,
                -1.5786101532137433,
                -2.6266800852214045,
                -0.12327050944248563,
                1.7101061578672156
            ]
        },
        {
            "positions": [
                2.5188439811425756,
                -2.1448676963980478,
                -1.589849431974704,
                -2.6021581640753655,
                -0.1826905986400884,
                1.9539807948380188
            ]
        },
        {
            "positions": [
                2.546956758335101,
                -2.153479622363708,
                -1.6010887107356648,
                -2.577636242929327,
                -0.24211068783769119,
                2.197855431808822
            ]
        },
        {
            "positions": [
                2.5750695355276267,
                -2.162091548329369,
                -1.6123279894966254,
                -2.553114321783288,
                -0.30153077703529396,
                2.4417300687796253
            ]
        },
        {
            "positions": [
                2.6031823127201528,
                -2.170703474295029,
                -1.6235672682575861,
                -2.5285924006372493,
                -0.36095086623289674,
                2.6856047057504284
            ]
        },
        {
            "positions": [
                2.6312950899126784,
                -2.17931540026069,
                -1.6348065470185467,
                -2.5040704794912108,
                -0.4203709554304994,
                2.9294793427212316
            ]
        },
        {
            "positions": [
                2.659407867105204,
                -2.18792732622635,
                -1.6460458257795074,
                -2.4795485583451717,
                -0.47979104462810235,
                3.1733539796920343
            ]
        }
    ]
}