{
    "goal": {
        "global_pose": {
            "orientation": {
                "w": 0.5084816217422485,
                "x": -0.49083608388900757,
                "y": 0.5182115435600281,
                "z": -0.4816462993621826
            },
            "position": {
                "x": 0.5540239810943604,
                "y": 0.030875300988554955,
                "z": 0.16403168439865112
            }
        },
        "name": "move_to_storage_A"
    },
    "id": "EST_move_to_storage_A_74",
    "joint_names": [
        "shoulder_pan_joint",
        "shoulder_lift_joint",
        "elbow_joint",
        "wrist_1_joint",
        "wrist_2_joint",
        "wrist_3_joint"
    ],
    "metrics": {
        "cart_traj_len": 0.35232765534849236,
        "distance_elbow_joint": 0.4519670776765614,
        "distance_shoulder_lift_joint": 0.23371770776589829,
        "distance_shoulder_pan_joint": 0.4603800891580553,
        "distance_wrist_1_joint": 0.2572387872439127,
        "distance_wrist_2_joint": 1.0982437801760845,
        "distance_wrist_3_joint": 0.10614545734299652,
        "smoothness": 4.440892098500626e-16,
        "time": 0.064419777,
        "traj_len": 1.6148352545580336,
        "weighted_distance": 2.0433957965772316
    },
    "planner": "EST",
    "start": {
        "state": {
            "elbow_joint": 1.9715463870305268,
            "shoulder_lift_joint": -1.1394903361783484,
            "shoulder_pan_joint": 0.12281147578464417,
            "wrist_1_joint": -0.7804599489681411,
            "wrist_2_joint": 0.12958660307563738,
            "wrist_3_joint": -3.1924946282119055
        }
    },
    "waypoints": [
        {
            "positions": [
                0.12281147578464417,
                -1.1394903361783484,
                1.9715463870305268,
                -0.7804599489681411,
                0.12958660307563738,
                -3.1924946282119055
            ]
        },
        {
            "positions": [
                0.05704289161920771,
                -1.1728785801449053,
                2.0361131124128926,
                -0.8172083471458429,
                0.2864785716722209,
                -3.1773309914486205
            ]
        },
        {
            "positions": [
                -0.00872569254622875,
                -1.2062668241114622,
                2.1006798377952585,
                -0.8539567453235447,
                0.4433705402688044,
                -3.162167354685335
            ]
        },
        {
            "positions": [
                -0.07449427671166521,
                -1.2396550680780192,
                2.1652465631776243,
                -0.8907051435012465,
                0.6002625088653879,
                -3.14700371792205
            ]
        },
        {
            "positions": [
                -0.14026286087710166,
                -1.2730433120445759,
                2.22981328855999,
                -0.9274535416789483,
                0.7571544774619714,
                -3.1318400811587646
            ]
        },
        {
            "positions": [
                -0.20603144504253817,
                -1.3064315560111328,
                2.2943800139423565,
                -0.9642019398566501,
                0.9140464460585549,
                -3.1166764443954795
            ]
        },
        {
            "positions": [
                -0.2718000292079746,
                -1.3398197999776897,
                2.3589467393247223,
                -1.000950338034352,
                1.0709384146551384,
                -3.101512807632194
            ]
        },
        {
            "positions": [
                -0.3375686133734111,
                -1.3732080439442467,
                2.423513464707088,
                -1.0376987362120538,
                1.227830383251722,
                -3.086349170868909
            ]
        }
    ]
}