{
    "goal": {
        "global_pose": {
            "orientation": {
                "w": 0.7031023502349854,
                "x": -0.7110244035720825,
                "y": 0.007748599164187908,
                "z": 0.005598929710686207
            },
            "position": {
                "x": 0.11585023208521307,
                "y": 0.44412534475326537,
                "z": 0.3711530566215515
            }
        },
        "name": "move_to_auspresseinheit_A"
    },
    "id": "EST_move_to_auspresseinheit_A_7",
    "joint_names": [
        "shoulder_pan_joint",
        "shoulder_lift_joint",
        "elbow_joint",
        "wrist_1_joint",
        "wrist_2_joint",
        "wrist_3_joint"
    ],
    "metrics": {
        "cart_traj_len": 2.2586156007717686,
        "distance_elbow_joint": 1.7296298963079622,
        "distance_shoulder_lift_joint": 0.856374726135491,
        "distance_shoulder_pan_joint": 2.102092505272856,
        "distance_wrist_1_joint": 1.0888818456271045,
        "distance_wrist_2_joint": 0.6263165028178043,
        "distance_wrist_3_joint": 4.4430644458364315,
        "smoothness": 0.7274447155616508,
        "time": 0.11319289099999999,
        "traj_len": 3.2933812293747056,
        "weighted_distance": 4.631164773803175
    },
    "planner": "EST",
    "start": {
        "state": {
            "elbow_joint": 2.422574709923281,
            "shoulder_lift_joint": -1.3736533754116391,
            "shoulder_pan_joint": -0.33786336945926293,
            "wrist_1_joint": -1.0288603412921917,
            "wrist_2_joint": 1.2330224858903978,
            "wrist_3_joint": -3.094022268022082
        }
    },
    "waypoints": [
        {
            "positions": [
                -0.33786336945926293,
                -1.3736533754116391,
                2.422574709923281,
                -1.0288603412921917,
                1.2330224858903978,
                -3.094022268022082
            ]
        },
        {
            "positions": [
                -0.31451844953765967,
                -1.3928505958230744,
                2.336195300657252,
                -0.9861463838564074,
                1.2299678286027915,
                -2.8734884937881775
            ]
        },
        {
            "positions": [
                -0.29117352961605636,
                -1.4120478162345094,
                2.2498158913912225,
                -0.943432426420623,
                1.2269131713151855,
                -2.652954719554273
            ]
        },
        {
            "positions": [
                -0.2678286096944531,
                -1.4312450366459446,
                2.1634364821251935,
                -0.9007184689848386,
                1.2238585140275793,
                -2.4324209453203687
            ]
        },
        {
            "positions": [
                -0.24448368977284984,
                -1.4504422570573796,
                2.077057072859164,
                -0.8580045115490542,
                1.2208038567399733,
                -2.211887171086464
            ]
        },
        {
            "positions": [
                -0.22113876985124659,
                -1.4696394774688148,
                1.990677663593135,
                -0.8152905541132699,
                1.217749199452367,
                -1.9913533968525594
            ]
        },
        {
            "positions": [
                -0.1977938499296433,
                -1.48883669788025,
                1.9042982543271054,
                -0.7725765966774856,
                1.2146945421647608,
                -1.770819622618655
            ]
        },
        {
            "positions": [
                -0.17444893000804004,
                -1.508033918291685,
                1.8179188450610764,
                -0.7298626392417011,
                1.2116398848771548,
                -1.5502858483847504
            ]
        },
        {
            "positions": [
                -0.15110401008643676,
                -1.5272311387031203,
                1.7315394357950469,
                -0.6871486818059167,
                1.2085852275895486,
                -1.3297520741508457
            ]
        },
        {
            "positions": [
                -0.12775909016483347,
                -1.5464283591145553,
                1.6451600265290178,
                -0.6444347243701325,
                1.2055305703019426,
                -1.109218299916941
            ]
        },
        {
            "positions": [
                -0.10441417024323021,
                -1.5656255795259906,
                1.5587806172629886,
                -0.6017207669343481,
                1.2024759130143363,
                -0.8886845256830369
            ]
        },
        {
            "positions": [
                0.04421060895343712,
                -1.6134459316881704,
                1.5928403896300805,
                -0.6318860277002234,
                1.20756969133873,
                -0.9889774380425912
            ]
        },
        {
            "positions": [
                0.19283538815010445,
                -1.6612662838503502,
                1.6269001619971724,
                -0.6620512884660987,
                1.2126634696631235,
                -1.0892703504021455
            ]
        },
        {
            "positions": [
                0.34146016734677187,
                -1.70908663601253,
                1.660959934364264,
                -0.6922165492319742,
                1.2177572479875172,
                -1.1895632627616997
            ]
        },
        {
            "positions": [
                0.49008494654343915,
                -1.75690698817471,
                1.695019706731356,
                -0.7223818099978495,
                1.2228510263119108,
                -1.2898561751212538
            ]
        },
        {
            "positions": [
                0.6387097257401066,
                -1.8047273403368895,
                1.7290794790984478,
                -0.7525470707637248,
                1.2279448046363044,
                -1.3901490874808082
            ]
        },
        {
            "positions": [
                0.7873345049367739,
                -1.8525476924990694,
                1.7631392514655397,
                -0.7827123315296002,
                1.233038582960698,
                -1.4904419998403624
            ]
        },
        {
            "positions": [
                0.9359592841334412,
                -1.9003680446612492,
                1.7971990238326314,
                -0.8128775922954756,
                1.2381323612850916,
                -1.5907349121999168
            ]
        },
        {
            "positions": [
                1.0845840633301085,
                -1.948188396823429,
                1.8312587961997233,
                -0.843042853061351,
                1.2432261396094852,
                -1.691027824559471
            ]
        },
        {
            "positions": [
                1.233208842526776,
                -1.9960087489856089,
                1.8653185685668152,
                -0.8732081138272263,
                1.2483199179338789,
                -1.7913207369190252
            ]
        },
        {
            "positions": [
                1.210163316105886,
                -2.0083327141821083,
                1.956206228211381,
                -0.8260029342582216,
                1.1765604490375992,
                -1.9388698009034915
            ]
        },
        {
            "positions": [
                1.1871177896849958,
                -2.020656679378608,
                2.047093887855947,
                -0.7787977546892167,
                1.1048009801413197,
                -2.086418864887958
            ]
        },
        {
            "positions": [
                1.1640722632641058,
                -2.0329806445751073,
                2.137981547500513,
                -0.731592575120212,
                1.03304151124504,
                -2.233967928872424
            ]
        },
        {
            "positions": [
                1.1410267368432159,
                -2.0453046097716063,
                2.228869207145079,
                -0.6843873955512073,
                0.9612820423487605,
                -2.3815169928568904
            ]
        },
        {
            "positions": [
                1.1179812104223257,
                -2.057628574968106,
                2.3197568667896444,
                -0.6371822159822025,
                0.8895225734524808,
                -2.5290660568413568
            ]
        },
        {
            "positions": [
                1.0949356840014357,
                -2.0699525401646053,
                2.4106445264342105,
                -0.5899770364131978,
                0.8177631045562012,
                -2.676615120825823
            ]
        },
        {
            "positions": [
                0.9967489003110667,
                -2.029933649818974,
                2.4071515528150984,
                -0.5632210746726093,
                0.7879208266450706,
                -2.7890641479144733
            ]
        },
        {
            "positions": [
                0.8985621166206976,
                -1.9899147594733428,
                2.4036585791959864,
                -0.5364651129320207,
                0.7580785487339399,
                -2.901513175003123
            ]
        },
        {
            "positions": [
                0.8003753329303287,
                -1.9498958691277117,
                2.4001656055768747,
                -0.5097091511914322,
                0.7282362708228092,
                -3.013962202091773
            ]
        },
        {
            "positions": [
                0.7021885492399597,
                -1.9098769787820804,
                2.3966726319577627,
                -0.4829531894508437,
                0.6983939929116786,
                -3.126411229180423
            ]
        }
    ]
}