{
    "goal": {
        "global_pose": {
            "orientation": {
                "w": 0.5084816217422485,
                "x": -0.49083608388900757,
                "y": 0.5182115435600281,
                "z": -0.4816462993621826
            },
            "position": {
                "x": 0.5540239810943604,
                "y": 0.030875300988554955,
                "z": 0.16403168439865112
            }
        },
        "name": "move_to_storage_A"
    },
    "id": "EST_move_to_storage_A_121",
    "joint_names": [
        "shoulder_pan_joint",
        "shoulder_lift_joint",
        "elbow_joint",
        "wrist_1_joint",
        "wrist_2_joint",
        "wrist_3_joint"
    ],
    "metrics": {
        "cart_traj_len": 0.3530089470453847,
        "distance_elbow_joint": 0.44857560575734645,
        "distance_shoulder_lift_joint": 0.23445399641277231,
        "distance_shoulder_pan_joint": 0.4599459673091047,
        "distance_wrist_1_joint": 0.23968341429030204,
        "distance_wrist_2_joint": 1.1054817792553255,
        "distance_wrist_3_joint": 0.1029443090573916,
        "smoothness": 2.4424906382069766e-15,
        "time": 0.130965106,
        "traj_len": 1.6096847741350613,
        "weighted_distance": 2.03522452907355
    },
    "planner": "EST",
    "start": {
        "state": {
            "elbow_joint": 1.9715463870305268,
            "shoulder_lift_joint": -1.1394903361783484,
            "shoulder_pan_joint": 0.12281147578464417,
            "wrist_1_joint": -0.7804599489681411,
            "wrist_2_joint": 0.12958660307563738,
            "wrist_3_joint": -3.1924946282119055
        }
    },
    "waypoints": [
        {
            "positions": [
                0.12281147578464417,
                -1.1394903361783484,
                1.9715463870305268,
                -0.7804599489681411,
                0.12958660307563738,
                -3.1924946282119055
            ]
        },
        {
            "positions": [
                0.05710490902620065,
                -1.1729837642373158,
                2.0356286164244333,
                -0.8147004367238985,
                0.2875125715406839,
                -3.177788298346564
            ]
        },
        {
            "positions": [
                -0.008601657732242876,
                -1.2064771922962834,
                2.09971084581834,
                -0.848940924479656,
                0.44543854000573035,
                -3.1630819684812224
            ]
        },
        {
            "positions": [
                -0.0743082244906864,
                -1.2399706203552507,
                2.1637930752122467,
                -0.8831814122354134,
                0.6033645084707768,
                -3.1483756386158808
            ]
        },
        {
            "positions": [
                -0.1400147912491299,
                -1.2734640484142183,
                2.2278753046061532,
                -0.9174218999911709,
                0.7612904769358234,
                -3.1336693087505387
            ]
        },
        {
            "positions": [
                -0.20572135800757346,
                -1.3069574764731857,
                2.29195753400006,
                -0.9516623877469282,
                0.91921644540087,
                -3.118962978885197
            ]
        },
        {
            "positions": [
                -0.27142792476601696,
                -1.3404509045321533,
                2.3560397633939667,
                -0.9859028755026857,
                1.0771424138659162,
                -3.1042566490198555
            ]
        },
        {
            "positions": [
                -0.3371344915244605,
                -1.3739443325911207,
                2.420121992787873,
                -1.0201433632584431,
                1.235068382330963,
                -3.089550319154514
            ]
        }
    ]
}