{
    "goal": {
        "global_pose": {
            "orientation": {
                "w": 0.7031023502349854,
                "x": -0.7110244035720825,
                "y": 0.007748599164187908,
                "z": 0.005598929710686207
            },
            "position": {
                "x": 0.11585023208521307,
                "y": 0.44412534475326537,
                "z": 0.3711530566215515
            }
        },
        "name": "move_to_auspresseinheit_A"
    },
    "id": "EST_move_to_auspresseinheit_A_78",
    "joint_names": [
        "shoulder_pan_joint",
        "shoulder_lift_joint",
        "elbow_joint",
        "wrist_1_joint",
        "wrist_2_joint",
        "wrist_3_joint"
    ],
    "metrics": {
        "cart_traj_len": 1.213574217098658,
        "distance_elbow_joint": 0.27127357997050794,
        "distance_shoulder_lift_joint": 1.6126106993185307,
        "distance_shoulder_pan_joint": 1.4835162992537083,
        "distance_wrist_1_joint": 1.356583577303172,
        "distance_wrist_2_joint": 1.078000337792421,
        "distance_wrist_3_joint": 1.7560591202995703,
        "smoothness": 1.3395601604963343,
        "time": 0.202615613,
        "traj_len": 2.7491896285883795,
        "weighted_distance": 3.674880374873806
    },
    "planner": "EST",
    "start": {
        "state": {
            "elbow_joint": 2.422574709923281,
            "shoulder_lift_joint": -1.3736533754116391,
            "shoulder_pan_joint": -0.33786336945926293,
            "wrist_1_joint": -1.0288603412921917,
            "wrist_2_joint": 1.2330224858903978,
            "wrist_3_joint": -3.094022268022082
        }
    },
    "waypoints": [
        {
            "positions": [
                -0.33786336945926293,
                -1.3736533754116391,
                2.422574709923281,
                -1.0288603412921917,
                1.2330224858903978,
                -3.094022268022082
            ]
        },
        {
            "positions": [
                -0.24067329575624458,
                -1.4561846967073244,
                2.431857176733614,
                -0.9552856505993649,
                1.171014321635278,
                -3.0276044308899466
            ]
        },
        {
            "positions": [
                -0.1434832220532262,
                -1.5387160180030095,
                2.4411396435439467,
                -0.8817109599065379,
                1.1090061573801584,
                -2.9611865937578106
            ]
        },
        {
            "positions": [
                -0.04629314835020781,
                -1.6212473392986948,
                2.45042211035428,
                -0.8081362692137111,
                1.0469979931250386,
                -2.894768756625675
            ]
        },
        {
            "positions": [
                0.05089692535281054,
                -1.7037786605943799,
                2.459704577164613,
                -0.7345615785208841,
                0.9849898288699189,
                -2.828350919493539
            ]
        },
        {
            "positions": [
                0.1480869990558289,
                -1.7863099818900652,
                2.4689870439749457,
                -0.6609868878280573,
                0.9229816646147992,
                -2.7619330823614034
            ]
        },
        {
            "positions": [
                0.2452770727588473,
                -1.8688413031857505,
                2.4782695107852786,
                -0.5874121971352304,
                0.8609735003596795,
                -2.6955152452292674
            ]
        },
        {
            "positions": [
                0.34246714646186555,
                -1.9513726244814356,
                2.487551977595612,
                -0.5138375064424036,
                0.7989653361045599,
                -2.629097408097132
            ]
        },
        {
            "positions": [
                0.439657220164884,
                -2.033903945777121,
                2.4968344444059447,
                -0.4402628157495766,
                0.7369571718494401,
                -2.562679570964996
            ]
        },
        {
            "positions": [
                0.5368472938679023,
                -2.116435267072806,
                2.5061169112162776,
                -0.36668812505674975,
                0.6749490075943204,
                -2.4962617338328603
            ]
        },
        {
            "positions": [
                0.6340373675709208,
                -2.1989665883684912,
                2.5153993780266104,
                -0.2931134343639228,
                0.6129408433392006,
                -2.4298438967007243
            ]
        },
        {
            "positions": [
                0.731227441273939,
                -2.2814979096641763,
                2.5246818448369437,
                -0.21953874367109594,
                0.5509326790840811,
                -2.3634260595685888
            ]
        },
        {
            "positions": [
                0.8284175149769575,
                -2.364029230959862,
                2.5339643116472765,
                -0.14596405297826898,
                0.48892451482896127,
                -2.2970082224364528
            ]
        },
        {
            "positions": [
                0.9256075886799757,
                -2.446560552255547,
                2.5432467784576094,
                -0.07238936228544213,
                0.42691635057384153,
                -2.230590385304317
            ]
        },
        {
            "positions": [
                0.8941725399493372,
                -2.3694600490448865,
                2.5217322768238692,
                -0.12954830489921682,
                0.4657583794989651,
                -2.358108562101718
            ]
        },
        {
            "positions": [
                0.8627374912186987,
                -2.292359545834226,
                2.5002177751901296,
                -0.18670724751299148,
                0.5046004084240886,
                -2.4856267388991187
            ]
        },
        {
            "positions": [
                0.8313024424880602,
                -2.2152590426235657,
                2.4787032735563894,
                -0.24386619012676616,
                0.5434424373492122,
                -2.6131449156965196
            ]
        },
        {
            "positions": [
                0.7998673937574217,
                -2.1381585394129052,
                2.4571887719226497,
                -0.3010251327405408,
                0.5822844662743357,
                -2.74066309249392
            ]
        },
        {
            "positions": [
                0.768432345026783,
                -2.061058036202245,
                2.4356742702889096,
                -0.3581840753543155,
                0.6211264951994593,
                -2.868181269291321
            ]
        },
        {
            "positions": [
                0.7369972962961445,
                -1.9839575329915844,
                2.41415976865517,
                -0.4153430179680902,
                0.6599685241245828,
                -2.9956994460887216
            ]
        },
        {
            "positions": [
                0.705562247565506,
                -1.906857029780924,
                2.3926452670214298,
                -0.4725019605818649,
                0.6988105530497064,
                -3.1232176228861226
            ]
        }
    ]
}