{
    "goal": {
        "global_pose": {
            "orientation": {
                "w": -0.00223480608172531,
                "x": 0.0024358444001904467,
                "y": 0.7094548369677653,
                "z": -0.704743149386269
            },
            "position": {
                "x": 0.6205249238014221,
                "y": -0.6371506643295288,
                "z": 0.19426114857196808
            }
        },
        "name": "move_to_magneteinheit_B"
    },
    "id": "EST_move_to_magneteinheit_B_138",
    "joint_names": [
        "shoulder_pan_joint",
        "shoulder_lift_joint",
        "elbow_joint",
        "wrist_1_joint",
        "wrist_2_joint",
        "wrist_3_joint"
    ],
    "metrics": {
        "cart_traj_len": 3.3468388131978166,
        "distance_elbow_joint": 4.581349741850538,
        "distance_shoulder_lift_joint": 1.2995921532720773,
        "distance_shoulder_pan_joint": 3.1434800793912303,
        "distance_wrist_1_joint": 2.927071486284837,
        "distance_wrist_2_joint": 3.0140917208821234,
        "distance_wrist_3_joint": 3.369007637259105,
        "smoothness": 0.6134261655217189,
        "time": 0.912796649,
        "traj_len": 4.281891266594694,
        "weighted_distance": 5.569000924818122
    },
    "planner": "EST",
    "start": {
        "state": {
            "elbow_joint": 2.39358713078474,
            "shoulder_lift_joint": -1.908514104345545,
            "shoulder_pan_joint": 0.7066247066606129,
            "wrist_1_joint": -0.4678290933515497,
            "wrist_2_joint": 0.7096259083745334,
            "wrist_3_joint": -3.1358149277392293
        }
    },
    "waypoints": [
        {
            "positions": [
                0.7066247066606129,
                -1.908514104345545,
                2.39358713078474,
                -0.4678290933515497,
                0.7096259083745334,
                -3.1358149277392293
            ]
        },
        {
            "positions": [
                0.6411323033977173,
                -1.97622168358875,
                2.4304953406115346,
                -0.4405125431939994,
                0.8197596289522828,
                -3.066403417117274
            ]
        },
        {
            "positions": [
                0.5756399001348217,
                -2.043929262831955,
                2.467403550438329,
                -0.4131959930364491,
                0.9298933495300323,
                -2.9969919064953188
            ]
        },
        {
            "positions": [
                0.510147496871926,
                -2.11163684207516,
                2.5043117602651237,
                -0.38587944287889886,
                1.0400270701077818,
                -2.9275803958733633
            ]
        },
        {
            "positions": [
                0.4446550936090304,
                -2.179344421318365,
                2.5412199700919187,
                -0.35856289272134856,
                1.1501607906855313,
                -2.858168885251408
            ]
        },
        {
            "positions": [
                0.3791626903461347,
                -2.2470520005615704,
                2.5781281799187132,
                -0.33124634256379826,
                1.2602945112632806,
                -2.7887573746294527
            ]
        },
        {
            "positions": [
                0.3136702870832391,
                -2.3147595798047753,
                2.615036389745508,
                -0.30392979240624796,
                1.3704282318410301,
                -2.7193458640074977
            ]
        },
        {
            "positions": [
                0.2481778838203434,
                -2.3824671590479802,
                2.6519445995723023,
                -0.27661324224869765,
                1.4805619524187796,
                -2.649934353385542
            ]
        },
        {
            "positions": [
                0.32173356777812967,
                -2.3713762320069396,
                2.537565831615753,
                -0.21619008779903862,
                1.4312640086038866,
                -2.565658895945924
            ]
        },
        {
            "positions": [
                0.395289251735916,
                -2.3602853049658994,
                2.4231870636592037,
                -0.15576693334937958,
                1.3819660647889933,
                -2.481383438506306
            ]
        },
        {
            "positions": [
                0.46884493569370234,
                -2.3491943779248587,
                2.3088082957026543,
                -0.09534377889972054,
                1.3326681209741003,
                -2.3971079810666884
            ]
        },
        {
            "positions": [
                0.5424006196514886,
                -2.338103450883818,
                2.1944295277461054,
                -0.0349206244500615,
                1.283370177159207,
                -2.3128325236270704
            ]
        },
        {
            "positions": [
                0.6159563036092749,
                -2.3270125238427775,
                2.080050759789556,
                0.025502529999597512,
                1.234072233344314,
                -2.2285570661874523
            ]
        },
        {
            "positions": [
                0.6895119875670612,
                -2.3159215968017373,
                1.9656719918330068,
                0.08592568444925658,
                1.1847742895294209,
                -2.1442816087478342
            ]
        },
        {
            "positions": [
                0.7630676715248474,
                -2.3048306697606966,
                1.8512932238764574,
                0.1463488388989156,
                1.1354763457145276,
                -2.060006151308216
            ]
        },
        {
            "positions": [
                0.8366233554826339,
                -2.293739742719656,
                1.7369144559199081,
                0.20677199334857466,
                1.0861784018996343,
                -1.9757306938685983
            ]
        },
        {
            "positions": [
                0.9101790394404201,
                -2.2826488156786153,
                1.622535687963359,
                0.2671951477982336,
                1.0368804580847413,
                -1.8914552364289805
            ]
        },
        {
            "positions": [
                0.9837347233982063,
                -2.271557888637575,
                1.5081569200068097,
                0.3276183022478927,
                0.9875825142698482,
                -1.8071797789893624
            ]
        },
        {
            "positions": [
                1.0572904073559928,
                -2.2604669615965345,
                1.3937781520502606,
                0.38804145669755175,
                0.9382845704549551,
                -1.7229043215497444
            ]
        },
        {
            "positions": [
                1.130846091313779,
                -2.249376034555494,
                1.279399384093711,
                0.4484646111472108,
                0.8889866266400619,
                -1.6386288641101263
            ]
        },
        {
            "positions": [
                1.2044017752715652,
                -2.2382851075144536,
                1.165020616137162,
                0.5088877655968698,
                0.8396886828251687,
                -1.5543534066705085
            ]
        },
        {
            "positions": [
                1.2779574592293517,
                -2.227194180473413,
                1.0506418481806126,
                0.5693109200465288,
                0.7903907390102756,
                -1.4700779492308904
            ]
        },
        {
            "positions": [
                1.3515131431871379,
                -2.2161032534323724,
                0.9362630802240635,
                0.6297340744961879,
                0.7410927951953824,
                -1.3858024917912726
            ]
        },
        {
            "positions": [
                1.4250688271449243,
                -2.2050123263913317,
                0.8218843122675141,
                0.690157228945847,
                0.6917948513804892,
                -1.3015270343516545
            ]
        },
        {
            "positions": [
                1.4986245111027106,
                -2.1939213993502915,
                0.7075055443109648,
                0.7505803833955059,
                0.6424969075655962,
                -1.2172515769120364
            ]
        },
        {
            "positions": [
                1.5721801950604968,
                -2.182830472309251,
                0.5931267763544157,
                0.8110035378451649,
                0.593198963750703,
                -1.1329761194724186
            ]
        },
        {
            "positions": [
                1.6457358790182832,
                -2.1717395452682102,
                0.47874800839786635,
                0.8714266922948241,
                0.5439010199358097,
                -1.0487006620328003
            ]
        },
        {
            "positions": [
                1.7192915629760694,
                -2.1606486182271696,
                0.364369240441317,
                0.931849846744483,
                0.4946030761209167,
                -0.9644252045931825
            ]
        },
        {
            "positions": [
                1.7928472469338559,
                -2.1495576911861294,
                0.2499904724847677,
                0.9922730011941422,
                0.44530513230602353,
                -0.8801497471535646
            ]
        },
        {
            "positions": [
                1.866402930891642,
                -2.1384667641450887,
                0.1356117045282188,
                1.052696155643801,
                0.3960071884911305,
                -0.7958742897139466
            ]
        },
        {
            "positions": [
                1.9399586148494286,
                -2.127375837104048,
                0.021232936571669025,
                1.1131193100934604,
                0.3467092446762372,
                -0.7115988322743285
            ]
        },
        {
            "positions": [
                2.0135142988072148,
                -2.1162849100630075,
                -0.0931458313848803,
                1.1735424645431194,
                0.29741130086134415,
                -0.6273233748347105
            ]
        },
        {
            "positions": [
                2.087069982765001,
                -2.1051939830219673,
                -0.2075245993414292,
                1.2339656189927783,
                0.24811335704645088,
                -0.5430479173950928
            ]
        },
        {
            "positions": [
                2.160625666722787,
                -2.0941030559809266,
                -0.3219033672979785,
                1.2943887734424373,
                0.19881541323155782,
                -0.4587724599554748
            ]
        },
        {
            "positions": [
                2.2341813506805734,
                -2.083012128939886,
                -0.43628213525452786,
                1.3548119278920963,
                0.14951746941666455,
                -0.3744970025158567
            ]
        },
        {
            "positions": [
                2.3077370346383597,
                -2.0719212018988458,
                -0.5506609032110772,
                1.4152350823417552,
                0.1002195256017715,
                -0.29022154507623865
            ]
        },
        {
            "positions": [
                2.381292718596146,
                -2.060830274857805,
                -0.6650396711676265,
                1.4756582367914146,
                0.050921581786878445,
                -0.2059460876366206
            ]
        },
        {
            "positions": [
                2.454848402553932,
                -2.0497393478167645,
                -0.7794184391241754,
                1.5360813912410736,
                0.0016236379719851701,
                -0.12167063019700297
            ]
        },
        {
            "positions": [
                2.5284040865117188,
                -2.038648420775724,
                -0.8937972070807252,
                1.5965045456907325,
                -0.047674305842908105,
                -0.037395172757384465
            ]
        },
        {
            "positions": [
                2.601959770469505,
                -2.0275574937346836,
                -1.008175975037274,
                1.6569277001403915,
                -0.09697224965780116,
                0.04688028468223315
            ]
        },
        {
            "positions": [
                2.675515454427291,
                -2.016466566693643,
                -1.1225547429938234,
                1.7173508545900507,
                -0.14627019347269424,
                0.1311557421218512
            ]
        },
        {
            "positions": [
                2.706007950150718,
                -2.0756401628492265,
                -1.2075992017358343,
                1.6409178414235626,
                -0.0756522792839765,
                0.12006006432540747
            ]
        },
        {
            "positions": [
                2.736500445874145,
                -2.13481375900481,
                -1.2926436604778453,
                1.5644848282570742,
                -0.005034365095258758,
                0.10896438652896374
            ]
        },
        {
            "positions": [
                2.7669929415975716,
                -2.1939873551603934,
                -1.377688119219856,
                1.4880518150905861,
                0.06558354909345898,
                0.09786870873252002
            ]
        },
        {
            "positions": [
                2.7974854373209985,
                -2.253160951315977,
                -1.462732577961867,
                1.411618801924098,
                0.13620146328217675,
                0.0867730309360763
            ]
        },
        {
            "positions": [
                2.7635540115584223,
                -2.3088969817142195,
                -1.514811351844069,
                1.302578930504777,
                0.2196644318300605,
                0.0723594668830141
            ]
        },
        {
            "positions": [
                2.7296225857958456,
                -2.3646330121124626,
                -1.5668901257262708,
                1.193539059085456,
                0.3031274003779443,
                0.0579459028299519
            ]
        },
        {
            "positions": [
                2.6956911600332694,
                -2.420369042510705,
                -1.6189688996084728,
                1.0844991876661347,
                0.386590368925828,
                0.043532338776889695
            ]
        },
        {
            "positions": [
                2.661759734270693,
                -2.4761050729089478,
                -1.6710476734906747,
                0.9754593162468137,
                0.47005333747371175,
                0.029118774723827495
            ]
        }
    ]
}