{
    "goal": {
        "global_pose": {
            "orientation": {
                "w": -0.00223480608172531,
                "x": 0.0024358444001904467,
                "y": 0.7094548369677653,
                "z": -0.704743149386269
            },
            "position": {
                "x": 0.6205249238014221,
                "y": -0.6371506643295288,
                "z": 0.19426114857196808
            }
        },
        "name": "move_to_magneteinheit_B"
    },
    "id": "EST_move_to_magneteinheit_B_49",
    "joint_names": [
        "shoulder_pan_joint",
        "shoulder_lift_joint",
        "elbow_joint",
        "wrist_1_joint",
        "wrist_2_joint",
        "wrist_3_joint"
    ],
    "metrics": {
        "cart_traj_len": 1.4524600579296507,
        "distance_elbow_joint": 0.7294823620227529,
        "distance_shoulder_lift_joint": 1.2486820340184495,
        "distance_shoulder_pan_joint": 1.621659960973624,
        "distance_wrist_1_joint": 2.603509334063523,
        "distance_wrist_2_joint": 2.9346090351510066,
        "distance_wrist_3_joint": 3.1280231668887235,
        "smoothness": 2.775557567883112e-16,
        "time": 0.061781721,
        "traj_len": 3.5022800991808296,
        "weighted_distance": 4.90511269963393
    },
    "planner": "EST",
    "start": {
        "state": {
            "elbow_joint": 2.39358713078474,
            "shoulder_lift_joint": -1.908514104345545,
            "shoulder_pan_joint": 0.7066247066606129,
            "wrist_1_joint": -0.4678290933515497,
            "wrist_2_joint": 0.7096259083745334,
            "wrist_3_joint": -3.1358149277392293
        }
    },
    "waypoints": [
        {
            "positions": [
                0.7066247066606129,
                -1.908514104345545,
                2.39358713078474,
                -0.4678290933515497,
                0.7096259083745334,
                -3.1358149277392293
            ]
        },
        {
            "positions": [
                0.6543130950163025,
                -1.8682340387320466,
                2.370055441687232,
                -0.3838449212849845,
                0.6149611007890171,
                -3.0349109546137867
            ]
        },
        {
            "positions": [
                0.602001483371992,
                -1.8279539731185481,
                2.346523752589724,
                -0.2998607492184192,
                0.5202962932035008,
                -2.934006981488344
            ]
        },
        {
            "positions": [
                0.5496898717276816,
                -1.7876739075050498,
                2.3229920634922157,
                -0.21587657715185393,
                0.4256314856179844,
                -2.8331030083629014
            ]
        },
        {
            "positions": [
                0.49737826008337116,
                -1.7473938418915513,
                2.2994603743947075,
                -0.1318924050852887,
                0.3309666780324681,
                -2.7321990352374588
            ]
        },
        {
            "positions": [
                0.4450666484390607,
                -1.707113776278053,
                2.2759286852971994,
                -0.047908233018723434,
                0.23630187044695172,
                -2.6312950621120157
            ]
        },
        {
            "positions": [
                0.39275503679475027,
                -1.6668337106645548,
                2.2523969961996912,
                0.03607593904784184,
                0.1416370628614354,
                -2.530391088986573
            ]
        },
        {
            "positions": [
                0.3404434251504398,
                -1.6265536450510563,
                2.228865307102183,
                0.12006011111440701,
                0.046972255275919084,
                -2.4294871158611304
            ]
        },
        {
            "positions": [
                0.2881318135061294,
                -1.586273579437558,
                2.205333618004675,
                0.20404428318097229,
                -0.047692552309597236,
                -2.328583142735688
            ]
        },
        {
            "positions": [
                0.23582020186181885,
                -1.5459935138240595,
                2.181801928907167,
                0.2880284552475377,
                -0.14235735989511367,
                -2.227679169610245
            ]
        },
        {
            "positions": [
                0.18350859021750843,
                -1.5057134482105612,
                2.1582702398096583,
                0.37201262731410284,
                -0.23702216748062999,
                -2.1267751964848025
            ]
        },
        {
            "positions": [
                0.131196978573198,
                -1.465433382597063,
                2.13473855071215,
                0.4559967993806681,
                -0.3316869750661463,
                -2.02587122335936
            ]
        },
        {
            "positions": [
                0.07888536692888759,
                -1.4251533169835646,
                2.111206861614642,
                0.5399809714472334,
                -0.4263517826516626,
                -1.924967250233917
            ]
        },
        {
            "positions": [
                0.02657375528457706,
                -1.3848732513700661,
                2.087675172517134,
                0.6239651435137987,
                -0.521016590237179,
                -1.8240632771084742
            ]
        },
        {
            "positions": [
                -0.025737856359733358,
                -1.3445931857565676,
                2.0641434834196257,
                0.7079493155803638,
                -0.6156813978226953,
                -1.7231593039830317
            ]
        },
        {
            "positions": [
                -0.07804946800404389,
                -1.3043131201430693,
                2.0406117943221176,
                0.7919334876469293,
                -0.7103462054082118,
                -1.6222553308575889
            ]
        },
        {
            "positions": [
                -0.1303610796483542,
                -1.264033054529571,
                2.0170801052246095,
                0.8759176597134943,
                -0.8050110129937279,
                -1.5213513577321462
            ]
        },
        {
            "positions": [
                -0.1826726912926646,
                -1.2237529889160728,
                1.9935484161271013,
                0.9599018317800596,
                -0.8996758205792442,
                -1.4204473846067036
            ]
        },
        {
            "positions": [
                -0.23498430293697525,
                -1.1834729233025743,
                1.9700167270295932,
                1.043886003846625,
                -0.9943406281647608,
                -1.3195434114812608
            ]
        },
        {
            "positions": [
                -0.28729591458128567,
                -1.1431928576890757,
                1.946485037932085,
                1.1278701759131902,
                -1.089005435750277,
                -1.2186394383558181
            ]
        },
        {
            "positions": [
                -0.3396075262255961,
                -1.1029127920755775,
                1.922953348834577,
                1.2118543479797554,
                -1.1836702433357935,
                -1.1177354652303757
            ]
        },
        {
            "positions": [
                -0.3919191378699064,
                -1.0626327264620792,
                1.8994216597370688,
                1.2958385200463205,
                -1.2783350509213096,
                -1.016831492104933
            ]
        },
        {
            "positions": [
                -0.4442307495142169,
                -1.022352660848581,
                1.8758899706395606,
                1.379822692112886,
                -1.3729998585068262,
                -0.91592751897949
            ]
        },
        {
            "positions": [
                -0.49654236115852746,
                -0.9820725952350824,
                1.8523582815420525,
                1.4638068641794513,
                -1.4676646660923427,
                -0.8150235458540473
            ]
        },
        {
            "positions": [
                -0.5488539728028378,
                -0.9417925296215841,
                1.8288265924445444,
                1.5477910362460165,
                -1.5623294736778588,
                -0.7141195727286047
            ]
        },
        {
            "positions": [
                -0.6011655844471483,
                -0.9015124640080858,
                1.8052949033470362,
                1.6317752083125816,
                -1.656994281263375,
                -0.6132155996031621
            ]
        },
        {
            "positions": [
                -0.6534771960914588,
                -0.8612323983945873,
                1.781763214249528,
                1.715759380379147,
                -1.7516590888488914,
                -0.512311626477719
            ]
        },
        {
            "positions": [
                -0.7057888077357691,
                -0.820952332781089,
                1.75823152515202,
                1.7997435524457122,
                -1.846323896434408,
                -0.41140765335227636
            ]
        },
        {
            "positions": [
                -0.7581004193800797,
                -0.7806722671675905,
                1.7346998360545118,
                1.8837277245122772,
                -1.940988704019924,
                -0.31050368022683417
            ]
        },
        {
            "positions": [
                -0.81041203102439,
                -0.7403922015540922,
                1.7111681469570037,
                1.9677118965788427,
                -2.0356535116054406,
                -0.20959970710139153
            ]
        },
        {
            "positions": [
                -0.8627236426687007,
                -0.7001121359405937,
                1.6876364578594953,
                2.051696068645408,
                -2.130318319190957,
                -0.10869573397594845
            ]
        },
        {
            "positions": [
                -0.9150352543130111,
                -0.6598320703270953,
                1.6641047687619872,
                2.1356802407119733,
                -2.2249831267764733,
                -0.007791760850505655
            ]
        }
    ]
}