{
    "goal": {
        "global_pose": {
            "orientation": {
                "w": -0.00223480608172531,
                "x": 0.0024358444001904467,
                "y": 0.7094548369677653,
                "z": -0.704743149386269
            },
            "position": {
                "x": 0.6205249238014221,
                "y": -0.6371506643295288,
                "z": 0.19426114857196808
            }
        },
        "name": "move_to_magneteinheit_B"
    },
    "id": "EST_move_to_magneteinheit_B_89",
    "joint_names": [
        "shoulder_pan_joint",
        "shoulder_lift_joint",
        "elbow_joint",
        "wrist_1_joint",
        "wrist_2_joint",
        "wrist_3_joint"
    ],
    "metrics": {
        "cart_traj_len": 1.4523050801707684,
        "distance_elbow_joint": 0.7318516322566284,
        "distance_shoulder_lift_joint": 1.2490127568731015,
        "distance_shoulder_pan_joint": 1.619664576962156,
        "distance_wrist_1_joint": 2.603952253052404,
        "distance_wrist_2_joint": 2.9504536371248804,
        "distance_wrist_3_joint": 3.1249399022209983,
        "smoothness": 4.163336351824667e-16,
        "time": 0.051969156,
        "traj_len": 3.5042652237652,
        "weighted_distance": 4.907561558769228
    },
    "planner": "EST",
    "start": {
        "state": {
            "elbow_joint": 2.39358713078474,
            "shoulder_lift_joint": -1.908514104345545,
            "shoulder_pan_joint": 0.7066247066606129,
            "wrist_1_joint": -0.4678290933515497,
            "wrist_2_joint": 0.7096259083745334,
            "wrist_3_joint": -3.1358149277392293
        }
    },
    "waypoints": [
        {
            "positions": [
                0.7066247066606129,
                -1.908514104345545,
                2.39358713078474,
                -0.4678290933515497,
                0.7096259083745334,
                -3.1358149277392293
            ]
        },
        {
            "positions": [
                0.6543774622424788,
                -1.8682233702528643,
                2.3699790136151715,
                -0.3838306335756657,
                0.6144499845963115,
                -3.0350104147643586
            ]
        },
        {
            "positions": [
                0.6021302178243448,
                -1.8279326361601835,
                2.346370896445603,
                -0.2998321737997817,
                0.5192740608180896,
                -2.9342059017894875
            ]
        },
        {
            "positions": [
                0.5498829734062107,
                -1.7876419020675027,
                2.322762779276034,
                -0.21583371402389773,
                0.4240981370398676,
                -2.833401388814617
            ]
        },
        {
            "positions": [
                0.4976357289880767,
                -1.7473511679748222,
                2.2991546621064654,
                -0.13183525424801373,
                0.32892221326164567,
                -2.7325968758397456
            ]
        },
        {
            "positions": [
                0.4453884845699426,
                -1.7070604338821416,
                2.275546544936897,
                -0.04783679447212974,
                0.23374628948342369,
                -2.631792362864875
            ]
        },
        {
            "positions": [
                0.39314124015180857,
                -1.6667696997894608,
                2.251938427767328,
                0.036161665303754253,
                0.13857036570520176,
                -2.530987849890004
            ]
        },
        {
            "positions": [
                0.3408939957336745,
                -1.62647896569678,
                2.2283303105977597,
                0.1201601250796383,
                0.04339444192697983,
                -2.430183336915133
            ]
        },
        {
            "positions": [
                0.2886467513155404,
                -1.5861882316040994,
                2.2047221934281906,
                0.20415858485552224,
                -0.051781481851242095,
                -2.329378823940262
            ]
        },
        {
            "positions": [
                0.2363995068974063,
                -1.5458974975114186,
                2.181114076258622,
                0.2881570446314063,
                -0.14695740562946413,
                -2.2285743109653913
            ]
        },
        {
            "positions": [
                0.1841522624792723,
                -1.505606763418738,
                2.1575059590890535,
                0.3721555044072902,
                -0.24213332940768606,
                -2.12776979799052
            ]
        },
        {
            "positions": [
                0.1319050180611382,
                -1.4653160293260572,
                2.133897841919485,
                0.4561539641831743,
                -0.337309253185908,
                -2.026965285015649
            ]
        },
        {
            "positions": [
                0.07965777364300419,
                -1.4250252952333766,
                2.110289724749916,
                0.5401524239590583,
                -0.4324851769641299,
                -1.9261607720407785
            ]
        },
        {
            "positions": [
                0.027410529224870084,
                -1.3847345611406958,
                2.0866816075803474,
                0.6241508837349423,
                -0.5276611007423518,
                -1.8253562590659074
            ]
        },
        {
            "positions": [
                -0.024836715193263914,
                -1.3444438270480152,
                2.063073490410779,
                0.7081493435108264,
                -0.6228370245205738,
                -1.7245517460910367
            ]
        },
        {
            "positions": [
                -0.07708395961139802,
                -1.3041530929553344,
                2.0394653732412102,
                0.7921478032867104,
                -0.7180129482987959,
                -1.6237472331161655
            ]
        },
        {
            "positions": [
                -0.12933120402953213,
                -1.2638623588626539,
                2.0158572560716417,
                0.8761462630625942,
                -0.8131888720770176,
                -1.5229427201412948
            ]
        },
        {
            "positions": [
                -0.18157844844766613,
                -1.2235716247699733,
                1.992249138902073,
                0.9601447228384783,
                -0.9083647958552395,
                -1.422138207166424
            ]
        },
        {
            "positions": [
                -0.23382569286580035,
                -1.1832808906772923,
                1.968641021732504,
                1.0441431826143623,
                -1.0035407196334618,
                -1.3213336941915528
            ]
        },
        {
            "positions": [
                -0.28607293728393435,
                -1.1429901565846117,
                1.9450329045629355,
                1.1281416423902464,
                -1.0987166434116835,
                -1.2205291812166819
            ]
        },
        {
            "positions": [
                -0.33832018170206835,
                -1.102699422491931,
                1.921424787393367,
                1.2121401021661302,
                -1.1938925671899057,
                -1.119724668241811
            ]
        },
        {
            "positions": [
                -0.39056742612020245,
                -1.0624086883992505,
                1.8978166702237982,
                1.2961385619420143,
                -1.2890684909681274,
                -1.0189201552669402
            ]
        },
        {
            "positions": [
                -0.44281467053833656,
                -1.0221179543065695,
                1.8742085530542294,
                1.3801370217178983,
                -1.3842444147463495,
                -0.9181156422920691
            ]
        },
        {
            "positions": [
                -0.49506191495647067,
                -0.9818272202138889,
                1.8506004358846608,
                1.4641354814937824,
                -1.4794203385245717,
                -0.8173111293171984
            ]
        },
        {
            "positions": [
                -0.5473091593746046,
                -0.9415364861212082,
                1.8269923187150923,
                1.5481339412696662,
                -1.5745962623027934,
                -0.7165066163423277
            ]
        },
        {
            "positions": [
                -0.5995564037927387,
                -0.9012457520285275,
                1.8033842015455237,
                1.63213240104555,
                -1.669772186081015,
                -0.6157021033674566
            ]
        },
        {
            "positions": [
                -0.6518036482108728,
                -0.8609550179358467,
                1.779776084375955,
                1.7161308608214343,
                -1.7649481098592372,
                -0.5148975903925854
            ]
        },
        {
            "positions": [
                -0.7040508926290069,
                -0.8206642838431661,
                1.7561679672063861,
                1.8001293205973181,
                -1.8601240336374594,
                -0.41409307741771473
            ]
        },
        {
            "positions": [
                -0.7562981370471408,
                -0.7803735497504856,
                1.7325598500368176,
                1.8841277803732024,
                -1.955299957415681,
                -0.31328856444284403
            ]
        },
        {
            "positions": [
                -0.8085453814652749,
                -0.7400828156578048,
                1.708951732867249,
                1.9681262401490862,
                -2.0504758811939032,
                -0.2124840514679729
            ]
        },
        {
            "positions": [
                -0.860792625883409,
                -0.699792081565124,
                1.6853436156976804,
                2.0521246999249705,
                -2.1456518049721254,
                -0.11167953849310175
            ]
        },
        {
            "positions": [
                -0.9130398703015431,
                -0.6595013474724433,
                1.6617354985281116,
                2.1361231597008543,
                -2.240827728750347,
                -0.010875025518231256
            ]
        }
    ]
}