{
    "goal": {
        "global_pose": {
            "orientation": {
                "w": 0.7031023502349854,
                "x": -0.7110244035720825,
                "y": 0.007748599164187908,
                "z": 0.005598929710686207
            },
            "position": {
                "x": 0.11585023208521307,
                "y": 0.44412534475326537,
                "z": 0.3711530566215515
            }
        },
        "name": "move_to_auspresseinheit_A"
    },
    "id": "EST_move_to_auspresseinheit_A_52",
    "joint_names": [
        "shoulder_pan_joint",
        "shoulder_lift_joint",
        "elbow_joint",
        "wrist_1_joint",
        "wrist_2_joint",
        "wrist_3_joint"
    ],
    "metrics": {
        "cart_traj_len": 0.7170618296890812,
        "distance_elbow_joint": 0.04933146308523595,
        "distance_shoulder_lift_joint": 0.5430305494481189,
        "distance_shoulder_pan_joint": 1.10491124311182,
        "distance_wrist_1_joint": 0.6287277586711715,
        "distance_wrist_2_joint": 0.5338895402837933,
        "distance_wrist_3_joint": 0.15136154689618353,
        "smoothness": 1.0400894762014004,
        "time": 1.2242887770000002,
        "traj_len": 1.735295969423177,
        "weighted_distance": 2.115795948158436
    },
    "planner": "EST",
    "start": {
        "state": {
            "elbow_joint": 2.422574709923281,
            "shoulder_lift_joint": -1.3736533754116391,
            "shoulder_pan_joint": -0.33786336945926293,
            "wrist_1_joint": -1.0288603412921917,
            "wrist_2_joint": 1.2330224858903978,
            "wrist_3_joint": -3.094022268022082
        }
    },
    "waypoints": [
        {
            "positions": [
                -0.33786336945926293,
                -1.3736533754116391,
                2.422574709923281,
                -1.0288603412921917,
                1.2330224858903978,
                -3.094022268022082
            ]
        },
        {
            "positions": [
                -0.20361952694796362,
                -1.440941431295815,
                2.4174561855812113,
                -0.9535478358025258,
                1.1687380408909507,
                -3.0872615316911483
            ]
        },
        {
            "positions": [
                -0.06937568443666431,
                -1.508229487179991,
                2.4123376612391416,
                -0.8782353303128598,
                1.1044535958915038,
                -3.080500795360215
            ]
        },
        {
            "positions": [
                0.06486815807463503,
                -1.575517543064167,
                2.407219136897072,
                -0.802922824823194,
                1.0401691508920567,
                -3.073740059029281
            ]
        },
        {
            "positions": [
                0.1991120005859343,
                -1.642805598948343,
                2.402100612555002,
                -0.727610319333528,
                0.9758847058926098,
                -3.066979322698347
            ]
        },
        {
            "positions": [
                0.3333558430972336,
                -1.710093654832519,
                2.396982088212932,
                -0.6522978138438621,
                0.9116002608931628,
                -3.0602185863674136
            ]
        },
        {
            "positions": [
                0.467599685608533,
                -1.7773817107166947,
                2.3918635638708623,
                -0.5769853083541963,
                0.8473158158937157,
                -3.0534578500364797
            ]
        },
        {
            "positions": [
                0.6018435281198322,
                -1.8446697666008707,
                2.3867450395287926,
                -0.5016728028645303,
                0.7830313708942688,
                -3.0466971137055463
            ]
        },
        {
            "positions": [
                0.7360873706311316,
                -1.9119578224850466,
                2.381626515186723,
                -0.42636029737486436,
                0.7187469258948218,
                -3.0399363773746124
            ]
        },
        {
            "positions": [
                0.7051268676097062,
                -1.9072317201103353,
                2.3900097835354006,
                -0.45258801212870853,
                0.6991329456066044,
                -3.1372120336233262
            ]
        }
    ]
}