{
    "goal": {
        "global_pose": {
            "orientation": {
                "w": 0.5084816217422485,
                "x": -0.49083608388900757,
                "y": 0.5182115435600281,
                "z": -0.4816462993621826
            },
            "position": {
                "x": 0.5540239810943604,
                "y": 0.030875300988554955,
                "z": 0.16403168439865112
            }
        },
        "name": "move_to_storage_A"
    },
    "id": "EST_move_to_storage_A_26",
    "joint_names": [
        "shoulder_pan_joint",
        "shoulder_lift_joint",
        "elbow_joint",
        "wrist_1_joint",
        "wrist_2_joint",
        "wrist_3_joint"
    ],
    "metrics": {
        "cart_traj_len": 0.3528506612926565,
        "distance_elbow_joint": 0.4479869311786637,
        "distance_shoulder_lift_joint": 0.23605219717367643,
        "distance_shoulder_pan_joint": 0.4617152701328125,
        "distance_wrist_1_joint": 0.2357627988003529,
        "distance_wrist_2_joint": 1.0972660949227426,
        "distance_wrist_3_joint": 0.09832443091710497,
        "smoothness": 6.661338165333112e-16,
        "time": 0.061073356,
        "traj_len": 1.6053372614891095,
        "weighted_distance": 2.0265205349768007
    },
    "planner": "EST",
    "start": {
        "state": {
            "elbow_joint": 1.9715463870305268,
            "shoulder_lift_joint": -1.1394903361783484,
            "shoulder_pan_joint": 0.12281147578464417,
            "wrist_1_joint": -0.7804599489681411,
            "wrist_2_joint": 0.12958660307563738,
            "wrist_3_joint": -3.1924946282119055
        }
    },
    "waypoints": [
        {
            "positions": [
                0.12281147578464417,
                -1.1394903361783484,
                1.9715463870305268,
                -0.7804599489681411,
                0.12958660307563738,
                -3.1924946282119055
            ]
        },
        {
            "positions": [
                0.056852151479956675,
                -1.1732120786317308,
                2.03554452005605,
                -0.8141403487967629,
                0.2863389023503149,
                -3.178448280938033
            ]
        },
        {
            "positions": [
                -0.009107172824730822,
                -1.206933821085113,
                2.0995426530815737,
                -0.8478207486253848,
                0.4430912016249924,
                -3.1644019336641613
            ]
        },
        {
            "positions": [
                -0.0750664971294183,
                -1.2406555635384955,
                2.163540786107097,
                -0.8815011484540066,
                0.5998435008996699,
                -3.150355586390289
            ]
        },
        {
            "positions": [
                -0.1410258214341058,
                -1.2743773059918777,
                2.2275389191326203,
                -0.9151815482826284,
                0.7565958001743475,
                -3.136309239116417
            ]
        },
        {
            "positions": [
                -0.20698514573879334,
                -1.3080990484452601,
                2.2915370521581435,
                -0.9488619481112504,
                0.9133480994490251,
                -3.122262891842545
            ]
        },
        {
            "positions": [
                -0.27294447004348077,
                -1.3418207908986424,
                2.3555351851836672,
                -0.982542347939872,
                1.0701003987237023,
                -3.108216544568673
            ]
        },
        {
            "positions": [
                -0.3389037943481683,
                -1.3755425333520248,
                2.4195333182091905,
                -1.016222747768494,
                1.22685269799838,
                -3.0941701972948006
            ]
        }
    ]
}