{
    "goal": {
        "global_pose": {
            "orientation": {
                "w": 0.5084816217422485,
                "x": -0.49083608388900757,
                "y": 0.5182115435600281,
                "z": -0.4816462993621826
            },
            "position": {
                "x": 0.5540239810943604,
                "y": 0.030875300988554955,
                "z": 0.16403168439865112
            }
        },
        "name": "move_to_storage_A"
    },
    "id": "FMT_move_to_storage_A_43",
    "joint_names": [
        "shoulder_pan_joint",
        "shoulder_lift_joint",
        "elbow_joint",
        "wrist_1_joint",
        "wrist_2_joint",
        "wrist_3_joint"
    ],
    "metrics": {
        "cart_traj_len": 0.35322135966576274,
        "distance_elbow_joint": 0.4476837798498261,
        "distance_shoulder_lift_joint": 0.23309382571860704,
        "distance_shoulder_pan_joint": 0.4616857738382382,
        "distance_wrist_1_joint": 0.23815278399771123,
        "distance_wrist_2_joint": 1.0987748169032046,
        "distance_wrist_3_joint": 0.09342255340996086,
        "smoothness": 1.998401445794465e-15,
        "time": 0.390012118,
        "traj_len": 1.6039992312085276,
        "weighted_distance": 2.02400252999802
    },
    "planner": "FMT",
    "start": {
        "state": {
            "elbow_joint": 1.9715463870305268,
            "shoulder_lift_joint": -1.1394903361783484,
            "shoulder_pan_joint": 0.12281147578464417,
            "wrist_1_joint": -0.7804599489681411,
            "wrist_2_joint": 0.12958660307563738,
            "wrist_3_joint": -3.1924946282119055
        }
    },
    "waypoints": [
        {
            "positions": [
                0.12281147578464417,
                -1.1394903361783484,
                1.9715463870305268,
                -0.7804599489681411,
                0.12958660307563738,
                -3.1924946282119055
            ]
        },
        {
            "positions": [
                0.056856365236324424,
                -1.1727894541381494,
                2.035501212723359,
                -0.8144817752535284,
                0.28655443406180947,
                -3.1791485491533398
            ]
        },
        {
            "positions": [
                -0.009098745311995324,
                -1.2060885720979504,
                2.0994560384161916,
                -0.8485036015389157,
                0.44352226504798153,
                -3.165802470094774
            ]
        },
        {
            "positions": [
                -0.07505385586031506,
                -1.2393876900577514,
                2.1634108641090237,
                -0.882525427824303,
                0.6004900960341536,
                -3.1524563910362082
            ]
        },
        {
            "positions": [
                -0.1410089664086348,
                -1.2726868080175524,
                2.227365689801856,
                -0.9165472541096904,
                0.7574579270203257,
                -3.139110311977642
            ]
        },
        {
            "positions": [
                -0.20696407695695457,
                -1.3059859259773534,
                2.2913205154946885,
                -0.9505690803950777,
                0.9144257580064978,
                -3.1257642329190762
            ]
        },
        {
            "positions": [
                -0.2729191875052743,
                -1.3392850439371544,
                2.3552753411875207,
                -0.984590906680465,
                1.0713935889926698,
                -3.1124181538605105
            ]
        },
        {
            "positions": [
                -0.33887429805359404,
                -1.3725841618969554,
                2.419230166880353,
                -1.0186127329658523,
                1.228361419978842,
                -3.0990720748019447
            ]
        }
    ]
}