{
    "goal": {
        "global_pose": {
            "orientation": {
                "w": 0.5084816217422485,
                "x": -0.49083608388900757,
                "y": 0.5182115435600281,
                "z": -0.4816462993621826
            },
            "position": {
                "x": 0.5540239810943604,
                "y": 0.030875300988554955,
                "z": 0.16403168439865112
            }
        },
        "name": "move_to_storage_A"
    },
    "id": "FMT_move_to_storage_A_12",
    "joint_names": [
        "shoulder_pan_joint",
        "shoulder_lift_joint",
        "elbow_joint",
        "wrist_1_joint",
        "wrist_2_joint",
        "wrist_3_joint"
    ],
    "metrics": {
        "cart_traj_len": 0.3523767042246937,
        "distance_elbow_joint": 0.4500861439479782,
        "distance_shoulder_lift_joint": 0.23374298301624763,
        "distance_shoulder_pan_joint": 0.45923330697897197,
        "distance_wrist_1_joint": 0.24688787257965095,
        "distance_wrist_2_joint": 1.1036322501075122,
        "distance_wrist_3_joint": 0.09155982341547375,
        "smoothness": 8.881784197001252e-16,
        "time": 0.501767466,
        "traj_len": 1.6078377965596637,
        "weighted_distance": 2.029478294923093
    },
    "planner": "FMT",
    "start": {
        "state": {
            "elbow_joint": 1.9715463870305268,
            "shoulder_lift_joint": -1.1394903361783484,
            "shoulder_pan_joint": 0.12281147578464417,
            "wrist_1_joint": -0.7804599489681411,
            "wrist_2_joint": 0.12958660307563738,
            "wrist_3_joint": -3.1924946282119055
        }
    },
    "waypoints": [
        {
            "positions": [
                0.12281147578464417,
                -1.1394903361783484,
                1.9715463870305268,
                -0.7804599489681411,
                0.12958660307563738,
                -3.1924946282119055
            ]
        },
        {
            "positions": [
                0.057206717644791044,
                -1.1728821908949552,
                2.0358444075945235,
                -0.8157296450509484,
                0.2872483530909963,
                -3.1794146534382666
            ]
        },
        {
            "positions": [
                -0.008398040495062084,
                -1.206274045611562,
                2.1001424281585206,
                -0.8509993411337556,
                0.44491010310635515,
                -3.166334678664627
            ]
        },
        {
            "positions": [
                -0.07400279863491523,
                -1.2396659003281687,
                2.1644404487225173,
                -0.8862690372165629,
                0.602571853121714,
                -3.153254703890988
            ]
        },
        {
            "positions": [
                -0.13960755677476833,
                -1.2730577550447757,
                2.2287384692865144,
                -0.9215387332993702,
                0.7602336031370729,
                -3.140174729117349
            ]
        },
        {
            "positions": [
                -0.2052123149146215,
                -1.3064496097613825,
                2.293036489850511,
                -0.9568084293821775,
                0.9178953531524319,
                -3.12709475434371
            ]
        },
        {
            "positions": [
                -0.2708170730544746,
                -1.3398414644779892,
                2.357334510414508,
                -0.9920781254649848,
                1.0755571031677906,
                -3.114014779570071
            ]
        },
        {
            "positions": [
                -0.3364218311943278,
                -1.373233319194596,
                2.421632530978505,
                -1.027347821547792,
                1.2332188531831496,
                -3.100934804796432
            ]
        }
    ]
}