{
    "goal": {
        "global_pose": {
            "orientation": {
                "w": 0.5084816217422485,
                "x": -0.49083608388900757,
                "y": 0.5182115435600281,
                "z": -0.4816462993621826
            },
            "position": {
                "x": 0.5540239810943604,
                "y": 0.030875300988554955,
                "z": 0.16403168439865112
            }
        },
        "name": "move_to_storage_A"
    },
    "id": "FMT_move_to_storage_A_86",
    "joint_names": [
        "shoulder_pan_joint",
        "shoulder_lift_joint",
        "elbow_joint",
        "wrist_1_joint",
        "wrist_2_joint",
        "wrist_3_joint"
    ],
    "metrics": {
        "cart_traj_len": 0.3525337225032729,
        "distance_elbow_joint": 0.447451654317629,
        "distance_shoulder_lift_joint": 0.23413261224678505,
        "distance_shoulder_pan_joint": 0.4619404720198894,
        "distance_wrist_1_joint": 0.23482995435499687,
        "distance_wrist_2_joint": 1.0930628137347391,
        "distance_wrist_3_joint": 0.09119239921405864,
        "smoothness": 1.3322676295501878e-15,
        "time": 0.377440153,
        "traj_len": 1.6008153878221243,
        "weighted_distance": 2.018139606768063
    },
    "planner": "FMT",
    "start": {
        "state": {
            "elbow_joint": 1.9715463870305268,
            "shoulder_lift_joint": -1.1394903361783484,
            "shoulder_pan_joint": 0.12281147578464417,
            "wrist_1_joint": -0.7804599489681411,
            "wrist_2_joint": 0.12958660307563738,
            "wrist_3_joint": -3.1924946282119055
        }
    },
    "waypoints": [
        {
            "positions": [
                0.12281147578464417,
                -1.1394903361783484,
                1.9715463870305268,
                -0.7804599489681411,
                0.12958660307563738,
                -3.1924946282119055
            ]
        },
        {
            "positions": [
                0.05681997978180284,
                -1.1729378522136034,
                2.0354680519330453,
                -0.8140070853045692,
                0.2857384336091715,
                -3.179467142609897
            ]
        },
        {
            "positions": [
                -0.009171516221038498,
                -1.2063853682488583,
                2.0993897168355637,
                -0.8475542216409974,
                0.4418902641427057,
                -3.166439657007889
            ]
        },
        {
            "positions": [
                -0.07516301222387985,
                -1.2398328842841133,
                2.1633113817380822,
                -0.8811013579774254,
                0.5980420946762398,
                -3.1534121714058805
            ]
        },
        {
            "positions": [
                -0.14115450822672115,
                -1.2732804003193685,
                2.2272330466406003,
                -0.9146484943138535,
                0.754193925209774,
                -3.140384685803872
            ]
        },
        {
            "positions": [
                -0.20714600422956253,
                -1.3067279163546235,
                2.291154711543119,
                -0.9481956306502817,
                0.9103457557433082,
                -3.1273572002018635
            ]
        },
        {
            "positions": [
                -0.27313750023240385,
                -1.3401754323898785,
                2.3550763764456373,
                -0.9817427669867098,
                1.0664975862768422,
                -3.1143297145998554
            ]
        },
        {
            "positions": [
                -0.33912899623524523,
                -1.3736229484251334,
                2.4189980413481558,
                -1.015289903323138,
                1.2226494168103765,
                -3.101302228997847
            ]
        }
    ]
}