{
    "goal": {
        "global_pose": {
            "orientation": {
                "w": 0.5084816217422485,
                "x": -0.49083608388900757,
                "y": 0.5182115435600281,
                "z": -0.4816462993621826
            },
            "position": {
                "x": 0.5540239810943604,
                "y": 0.030875300988554955,
                "z": 0.16403168439865112
            }
        },
        "name": "move_to_storage_A"
    },
    "id": "FMT_move_to_storage_A_55",
    "joint_names": [
        "shoulder_pan_joint",
        "shoulder_lift_joint",
        "elbow_joint",
        "wrist_1_joint",
        "wrist_2_joint",
        "wrist_3_joint"
    ],
    "metrics": {
        "cart_traj_len": 0.353603256525821,
        "distance_elbow_joint": 0.4485883619440818,
        "distance_shoulder_lift_joint": 0.23272983729108665,
        "distance_shoulder_pan_joint": 0.4617522633627524,
        "distance_wrist_1_joint": 0.23996160108443776,
        "distance_wrist_2_joint": 1.1015304594918234,
        "distance_wrist_3_joint": 0.09969252853219812,
        "smoothness": 8.881784267329941e-16,
        "time": 0.483461531,
        "traj_len": 1.6075618344892304,
        "weighted_distance": 2.0310421387423347
    },
    "planner": "FMT",
    "start": {
        "state": {
            "elbow_joint": 1.9715463870305268,
            "shoulder_lift_joint": -1.1394903361783484,
            "shoulder_pan_joint": 0.12281147578464417,
            "wrist_1_joint": -0.7804599489681411,
            "wrist_2_joint": 0.12958660307563738,
            "wrist_3_joint": -3.1924946282119055
        }
    },
    "waypoints": [
        {
            "positions": [
                0.12281147578464417,
                -1.1394903361783484,
                1.9715463870305268,
                -0.7804599489681411,
                0.12958660307563738,
                -3.1924946282119055
            ]
        },
        {
            "positions": [
                0.05684686673282241,
                -1.1727374557913608,
                2.035630438736824,
                -0.8147401776944894,
                0.28694809728875503,
                -3.1782528384215913
            ]
        },
        {
            "positions": [
                -0.009117742318999353,
                -1.2059845754043732,
                2.0997144904431218,
                -0.8490204064208375,
                0.44430959150187266,
                -3.1640110486312776
            ]
        },
        {
            "positions": [
                -0.07508235137082113,
                -1.2392316950173856,
                2.163798542149419,
                -0.8833006351471858,
                0.6016710857149903,
                -3.1497692588409634
            ]
        },
        {
            "positions": [
                -0.14104696042264286,
                -1.2724788146303978,
                2.2278825938557163,
                -0.9175808638735341,
                0.7590325799281079,
                -3.1355274690506496
            ]
        },
        {
            "positions": [
                -0.20701156947446464,
                -1.3057259342434102,
                2.291966645562014,
                -0.9518610925998823,
                0.9163940741412255,
                -3.1212856792603354
            ]
        },
        {
            "positions": [
                -0.2729761785262864,
                -1.3389730538564226,
                2.3560506972683113,
                -0.9861413213262306,
                1.0737555683543432,
                -3.1070438894700216
            ]
        },
        {
            "positions": [
                -0.3389407875781082,
                -1.372220173469435,
                2.4201347489746086,
                -1.0204215500525788,
                1.2311170625674608,
                -3.0928020996797074
            ]
        }
    ]
}