{
    "goal": {
        "global_pose": {
            "orientation": {
                "w": 0.7047431468963623,
                "x": -0.7094548344612122,
                "y": 0.0024358443915843964,
                "z": -0.0022348060738295317
            },
            "position": {
                "x": 0.6094750761985779,
                "y": 0.3671506643295288,
                "z": 0.19426114857196808
            }
        },
        "name": "move_to_magneteinheit_A"
    },
    "id": "FMT_move_to_magneteinheit_A_141",
    "joint_names": [
        "shoulder_pan_joint",
        "shoulder_lift_joint",
        "elbow_joint",
        "wrist_1_joint",
        "wrist_2_joint",
        "wrist_3_joint"
    ],
    "metrics": {
        "cart_traj_len": 1.8767714421520711,
        "distance_elbow_joint": 3.9190567995107606,
        "distance_shoulder_lift_joint": 0.7023804545368552,
        "distance_shoulder_pan_joint": 1.242747884666819,
        "distance_wrist_1_joint": 1.5175034566436008,
        "distance_wrist_2_joint": 1.6999035742466166,
        "distance_wrist_3_joint": 1.132664583363832,
        "smoothness": 7.565964329481075e-16,
        "time": 1.259284033,
        "traj_len": 3.1959750864123584,
        "weighted_distance": 3.9619430776560085
    },
    "planner": "FMT",
    "start": {
        "state": {
            "elbow_joint": -1.919643507792019,
            "shoulder_lift_joint": -0.07675430207160344,
            "shoulder_pan_joint": -1.1188671864651873,
            "wrist_1_joint": 0.42560062535961957,
            "wrist_2_joint": 1.5706038300724876,
            "wrist_3_joint": 1.1188968870953055
        }
    },
    "waypoints": [
        {
            "positions": [
                -1.1188671864651873,
                -0.07675430207160344,
                -1.919643507792019,
                0.42560062535961957,
                1.5706038300724876,
                1.1188968870953055
            ]
        },
        {
            "positions": [
                -1.071069190901079,
                -0.10376893493840557,
                -1.768910553964682,
                0.48396614292283496,
                1.5052229233706946,
                1.0753328646582352
            ]
        },
        {
            "positions": [
                -1.0232711953369704,
                -0.1307835678052077,
                -1.6181776001373451,
                0.5423316604860504,
                1.4398420166689017,
                1.0317688422211646
            ]
        },
        {
            "positions": [
                -0.9754731997728621,
                -0.15779820067200984,
                -1.4674446463100081,
                0.6006971780492658,
                1.3744611099671087,
                0.9882048197840941
            ]
        },
        {
            "positions": [
                -0.9276752042087537,
                -0.18481283353881195,
                -1.3167116924826714,
                0.6590626956124812,
                1.309080203265316,
                0.9446407973470237
            ]
        },
        {
            "positions": [
                -0.8798772086446452,
                -0.2118274664056141,
                -1.1659787386553342,
                0.7174282131756966,
                1.243699296563523,
                0.9010767749099532
            ]
        },
        {
            "positions": [
                -0.8320792130805368,
                -0.2388420992724162,
                -1.0152457848279974,
                0.775793730738912,
                1.17831838986173,
                0.8575127524728827
            ]
        },
        {
            "positions": [
                -0.7842812175164284,
                -0.26585673213921834,
                -0.8645128310006605,
                0.8341592483021274,
                1.112937483159937,
                0.8139487300358124
            ]
        },
        {
            "positions": [
                -0.73648322195232,
                -0.29287136500602046,
                -0.7137798771733235,
                0.8925247658653429,
                1.047556576458144,
                0.7703847075987418
            ]
        },
        {
            "positions": [
                -0.6886852263882115,
                -0.31988599787282257,
                -0.5630469233459867,
                0.9508902834285582,
                0.9821756697563511,
                0.7268206851616714
            ]
        },
        {
            "positions": [
                -0.6408872308241031,
                -0.34690063073962474,
                -0.4123139695186495,
                1.0092558009917738,
                0.9167947630545581,
                0.6832566627246008
            ]
        },
        {
            "positions": [
                -0.5930892352599947,
                -0.3739152636064268,
                -0.26158101569131276,
                1.0676213185549892,
                0.8514138563527652,
                0.6396926402875305
            ]
        },
        {
            "positions": [
                -0.5452912396958862,
                -0.40092989647322896,
                -0.11084806186397556,
                1.1259868361182046,
                0.7860329496509721,
                0.59612861785046
            ]
        },
        {
            "positions": [
                -0.49749324413177787,
                -0.4279445293400311,
                0.0398848919633612,
                1.18435235368142,
                0.7206520429491793,
                0.5525645954133895
            ]
        },
        {
            "positions": [
                -0.4496952485676695,
                -0.4549591622068332,
                0.19061784579069818,
                1.2427178712446354,
                0.6552711362473864,
                0.5090005729763191
            ]
        },
        {
            "positions": [
                -0.40189725300356105,
                -0.4819737950736353,
                0.34135079961803494,
                1.3010833888078508,
                0.5898902295455934,
                0.4654365505392487
            ]
        },
        {
            "positions": [
                -0.3540992574394526,
                -0.5089884279404375,
                0.49208375344537214,
                1.3594489063710662,
                0.5245093228438005,
                0.4218725281021781
            ]
        },
        {
            "positions": [
                -0.3063012618753441,
                -0.5360030608072396,
                0.6428167072727089,
                1.4178144239342816,
                0.4591284161420075,
                0.37830850566510765
            ]
        },
        {
            "positions": [
                -0.25850326631123577,
                -0.5630176936740416,
                0.7935496611000457,
                1.476179941497497,
                0.3937475094402145,
                0.3347444832280373
            ]
        },
        {
            "positions": [
                -0.21070527074712742,
                -0.5900323265408438,
                0.9442826149273829,
                1.5345454590607124,
                0.3283666027384218,
                0.2911804607909668
            ]
        },
        {
            "positions": [
                -0.16290727518301884,
                -0.617046959407646,
                1.09501556875472,
                1.592910976623928,
                0.2629856960366286,
                0.24761643835389624
            ]
        },
        {
            "positions": [
                -0.11510927961891038,
                -0.6440615922744481,
                1.2457485225820568,
                1.6512764941871434,
                0.1976047893348356,
                0.20405241591682577
            ]
        },
        {
            "positions": [
                -0.06731128405480202,
                -0.6710762251412501,
                1.3964814764093936,
                1.7096420117503588,
                0.13222388263304286,
                0.1604883934797554
            ]
        },
        {
            "positions": [
                -0.01951328849069367,
                -0.6980908580080523,
                1.5472144302367303,
                1.7680075293135742,
                0.06684297593124988,
                0.11692437104268505
            ]
        },
        {
            "positions": [
                0.028284707073414905,
                -0.7251054908748544,
                1.697947384064068,
                1.8263730468767896,
                0.0014620692294566862,
                0.07336034860561447
            ]
        },
        {
            "positions": [
                0.07608270263752326,
                -0.7521201237416566,
                1.8486803378914047,
                1.884738564440005,
                -0.06391883747233607,
                0.029796326168543885
            ]
        },
        {
            "positions": [
                0.12388069820163164,
                -0.7791347566084587,
                1.9994132917187415,
                1.9431040820032204,
                -0.12929974417412904,
                -0.013767696268526553
            ]
        }
    ]
}