{
    "goal": {
        "global_pose": {
            "orientation": {
                "w": 0.5084816217422485,
                "x": -0.49083608388900757,
                "y": 0.5182115435600281,
                "z": -0.4816462993621826
            },
            "position": {
                "x": 0.5540239810943604,
                "y": 0.030875300988554955,
                "z": 0.16403168439865112
            }
        },
        "name": "move_to_storage_A"
    },
    "id": "FMT_move_to_storage_A_24",
    "joint_names": [
        "shoulder_pan_joint",
        "shoulder_lift_joint",
        "elbow_joint",
        "wrist_1_joint",
        "wrist_2_joint",
        "wrist_3_joint"
    ],
    "metrics": {
        "cart_traj_len": 0.3535240093337563,
        "distance_elbow_joint": 0.4487920481688277,
        "distance_shoulder_lift_joint": 0.23506448246297085,
        "distance_shoulder_pan_joint": 0.4639386851568003,
        "distance_wrist_1_joint": 0.23501838867619174,
        "distance_wrist_2_joint": 1.092891958654499,
        "distance_wrist_3_joint": 0.1032983388341897,
        "smoothness": 4.440892098500626e-16,
        "time": 0.503163593,
        "traj_len": 1.6059277387085258,
        "weighted_distance": 2.0281792147028206
    },
    "planner": "FMT",
    "start": {
        "state": {
            "elbow_joint": 1.9715463870305268,
            "shoulder_lift_joint": -1.1394903361783484,
            "shoulder_pan_joint": 0.12281147578464417,
            "wrist_1_joint": -0.7804599489681411,
            "wrist_2_joint": 0.12958660307563738,
            "wrist_3_joint": -3.1924946282119055
        }
    },
    "waypoints": [
        {
            "positions": [
                0.12281147578464417,
                -1.1394903361783484,
                1.9715463870305268,
                -0.7804599489681411,
                0.12958660307563738,
                -3.1924946282119055
            ]
        },
        {
            "positions": [
                0.056534520762244134,
                -1.1730709765302014,
                2.0356595367689305,
                -0.8140340044933113,
                0.2857140257405658,
                -3.177737722664164
            ]
        },
        {
            "positions": [
                -0.009742434260155905,
                -1.2066516168820542,
                2.0997726865073347,
                -0.8476080600184815,
                0.4418414484054942,
                -3.1629808171164226
            ]
        },
        {
            "positions": [
                -0.07601938928255596,
                -1.2402322572339073,
                2.1638858362457385,
                -0.8811821155436518,
                0.5979688710704226,
                -3.148223911568681
            ]
        },
        {
            "positions": [
                -0.14229634430495597,
                -1.2738128975857603,
                2.2279989859841427,
                -0.9147561710688221,
                0.754096293735351,
                -3.13346700602094
            ]
        },
        {
            "positions": [
                -0.20857329932735602,
                -1.3073935379376134,
                2.2921121357225465,
                -0.9483302265939924,
                0.9102237164002795,
                -3.1187101004731987
            ]
        },
        {
            "positions": [
                -0.2748502543497561,
                -1.3409741782894662,
                2.3562252854609502,
                -0.9819042821191626,
                1.0663511390652078,
                -3.1039531949254573
            ]
        },
        {
            "positions": [
                -0.3411272093721561,
                -1.3745548186413192,
                2.4203384351993544,
                -1.0154783376443328,
                1.2224785617301364,
                -3.089196289377716
            ]
        }
    ]
}