{
    "goal": {
        "global_pose": {
            "orientation": {
                "w": 0.5084816217422485,
                "x": -0.49083608388900757,
                "y": 0.5182115435600281,
                "z": -0.4816462993621826
            },
            "position": {
                "x": 0.5540239810943604,
                "y": 0.030875300988554955,
                "z": 0.16403168439865112
            }
        },
        "name": "move_to_storage_A"
    },
    "id": "FMT_move_to_storage_A_67",
    "joint_names": [
        "shoulder_pan_joint",
        "shoulder_lift_joint",
        "elbow_joint",
        "wrist_1_joint",
        "wrist_2_joint",
        "wrist_3_joint"
    ],
    "metrics": {
        "cart_traj_len": 0.3537414636653989,
        "distance_elbow_joint": 0.4496125862476146,
        "distance_shoulder_lift_joint": 0.2362824488980546,
        "distance_shoulder_pan_joint": 0.4622177056947774,
        "distance_wrist_1_joint": 0.234835888070969,
        "distance_wrist_2_joint": 1.1028303086895557,
        "distance_wrist_3_joint": 0.09791783518431396,
        "smoothness": 0.0,
        "time": 0.40154781199999995,
        "traj_len": 1.607388183602606,
        "weighted_distance": 2.029088130149708
    },
    "planner": "FMT",
    "start": {
        "state": {
            "elbow_joint": 1.9715463870305268,
            "shoulder_lift_joint": -1.1394903361783484,
            "shoulder_pan_joint": 0.12281147578464417,
            "wrist_1_joint": -0.7804599489681411,
            "wrist_2_joint": 0.12958660307563738,
            "wrist_3_joint": -3.1924946282119055
        }
    },
    "waypoints": [
        {
            "positions": [
                0.12281147578464417,
                -1.1394903361783484,
                1.9715463870305268,
                -0.7804599489681411,
                0.12958660307563738,
                -3.1924946282119055
            ]
        },
        {
            "positions": [
                0.05678037497110455,
                -1.1732449717352134,
                2.0357767564944718,
                -0.8140079329782796,
                0.2871337900312882,
                -3.178506366042718
            ]
        },
        {
            "positions": [
                -0.009250725842435067,
                -1.2069996072920783,
                2.1000071259584168,
                -0.8475559169884179,
                0.444680976986939,
                -3.16451810387353
            ]
        },
        {
            "positions": [
                -0.0752818266559747,
                -1.2407542428489433,
                2.1642374954223618,
                -0.8811039009985564,
                0.6022281639425898,
                -3.1505298417043424
            ]
        },
        {
            "positions": [
                -0.1413129274695143,
                -1.274508878405808,
                2.2284678648863063,
                -0.9146518850086948,
                0.7597753508982407,
                -3.1365415795351548
            ]
        },
        {
            "positions": [
                -0.20734402828305393,
                -1.308263513962673,
                2.2926982343502513,
                -0.9481998690188332,
                0.9173225378538915,
                -3.122553317365967
            ]
        },
        {
            "positions": [
                -0.27337512909659356,
                -1.342018149519538,
                2.3569286038141963,
                -0.9817478530289716,
                1.0748697248095422,
                -3.108565055196779
            ]
        },
        {
            "positions": [
                -0.3394062299101332,
                -1.375772785076403,
                2.4211589732781413,
                -1.01529583703911,
                1.232416911765193,
                -3.0945767930275916
            ]
        }
    ]
}