{
    "goal": {
        "global_pose": {
            "orientation": {
                "w": 0.7047431468963623,
                "x": -0.7094548344612122,
                "y": 0.0024358443915843964,
                "z": -0.0022348060738295317
            },
            "position": {
                "x": 0.6094750761985779,
                "y": 0.3671506643295288,
                "z": 0.19426114857196808
            }
        },
        "name": "move_to_magneteinheit_A"
    },
    "id": "FMT_move_to_magneteinheit_A_87",
    "joint_names": [
        "shoulder_pan_joint",
        "shoulder_lift_joint",
        "elbow_joint",
        "wrist_1_joint",
        "wrist_2_joint",
        "wrist_3_joint"
    ],
    "metrics": {
        "cart_traj_len": 1.8782902055722852,
        "distance_elbow_joint": 3.9126542660583894,
        "distance_shoulder_lift_joint": 0.6994880216275259,
        "distance_shoulder_pan_joint": 1.2416772464559152,
        "distance_wrist_1_joint": 1.4936271856853434,
        "distance_wrist_2_joint": 1.7063716248268408,
        "distance_wrist_3_joint": 1.1054634521207647,
        "smoothness": 3.289549710793088e-16,
        "time": 1.222178141,
        "traj_len": 3.187362827915074,
        "weighted_distance": 3.9459102259844294
    },
    "planner": "FMT",
    "start": {
        "state": {
            "elbow_joint": -1.919643507792019,
            "shoulder_lift_joint": -0.07675430207160344,
            "shoulder_pan_joint": -1.1188671864651873,
            "wrist_1_joint": 0.42560062535961957,
            "wrist_2_joint": 1.5706038300724876,
            "wrist_3_joint": 1.1188968870953055
        }
    },
    "waypoints": [
        {
            "positions": [
                -1.1188671864651873,
                -0.07675430207160344,
                -1.919643507792019,
                0.42560062535961957,
                1.5706038300724876,
                1.1188968870953055
            ]
        },
        {
            "positions": [
                -1.071110369293806,
                -0.10365768751881597,
                -1.7691568052513118,
                0.48304782480905584,
                1.5049741521945321,
                1.0763790620137377
            ]
        },
        {
            "positions": [
                -1.0233535521224246,
                -0.1305610729660285,
                -1.6186701027106045,
                0.5404950242584922,
                1.4393444743165769,
                1.0338612369321698
            ]
        },
        {
            "positions": [
                -0.9755967349510433,
                -0.15746445841324105,
                -1.4681834001698972,
                0.5979422237079284,
                1.3737147964386214,
                0.9913434118506019
            ]
        },
        {
            "positions": [
                -0.9278399177796619,
                -0.18436784386045357,
                -1.31769669762919,
                0.6553894231573647,
                1.308085118560666,
                0.9488255867690341
            ]
        },
        {
            "positions": [
                -0.8800831006082805,
                -0.21127122930766612,
                -1.1672099950884827,
                0.712836622606801,
                1.2424554406827104,
                0.9063077616874662
            ]
        },
        {
            "positions": [
                -0.8323262834368992,
                -0.23817461475487867,
                -1.0167232925477754,
                0.7702838220562374,
                1.1768257628047551,
                0.8637899366058983
            ]
        },
        {
            "positions": [
                -0.7845694662655178,
                -0.26507800020209116,
                -0.8662365900070681,
                0.8277310215056735,
                1.1111960849267997,
                0.8212721115243304
            ]
        },
        {
            "positions": [
                -0.7368126490941365,
                -0.29198138564930376,
                -0.7157498874663608,
                0.8851782209551098,
                1.0455664070488444,
                0.7787542864427626
            ]
        },
        {
            "positions": [
                -0.6890558319227552,
                -0.31888477109651625,
                -0.5652631849256535,
                0.9426254204045461,
                0.9799367291708889,
                0.7362364613611947
            ]
        },
        {
            "positions": [
                -0.6412990147513737,
                -0.3457881565437288,
                -0.41477648238494624,
                1.0000726198539824,
                0.9143070512929334,
                0.6937186362796268
            ]
        },
        {
            "positions": [
                -0.5935421975799925,
                -0.3726915419909413,
                -0.26428977984423896,
                1.0575198193034188,
                0.8486773734149781,
                0.651200811198059
            ]
        },
        {
            "positions": [
                -0.5457853804086111,
                -0.3995949274381539,
                -0.11380307730353167,
                1.114967018752855,
                0.7830476955370226,
                0.6086829861164911
            ]
        },
        {
            "positions": [
                -0.49802856323722977,
                -0.4264983128853664,
                0.03668362523717561,
                1.1724142182022912,
                0.7174180176590672,
                0.5661651610349232
            ]
        },
        {
            "positions": [
                -0.4502717460658484,
                -0.4534016983325789,
                0.1871703277778829,
                1.2298614176517275,
                0.6517883397811118,
                0.5236473359533553
            ]
        },
        {
            "positions": [
                -0.40251492889446716,
                -0.4803050837797914,
                0.3376570303185902,
                1.2873086171011638,
                0.5861586619031565,
                0.48112951087178757
            ]
        },
        {
            "positions": [
                -0.3547581117230857,
                -0.507208469227004,
                0.48814373285929746,
                1.3447558165506002,
                0.520528984025201,
                0.4386116857902196
            ]
        },
        {
            "positions": [
                -0.30700129455170433,
                -0.5341118546742165,
                0.6386304354000047,
                1.4022030160000365,
                0.4548993061472455,
                0.3960938607086517
            ]
        },
        {
            "positions": [
                -0.2592444773803231,
                -0.561015240121429,
                0.789117137940712,
                1.4596502154494726,
                0.38926962826929024,
                0.35357603562708384
            ]
        },
        {
            "positions": [
                -0.21148766020894172,
                -0.5879186255686415,
                0.9396038404814193,
                1.517097414898909,
                0.32363995039133475,
                0.31105821054551597
            ]
        },
        {
            "positions": [
                -0.16373084303756025,
                -0.6148220110158542,
                1.0900905430221266,
                1.5745446143483453,
                0.25801027251337927,
                0.2685403854639481
            ]
        },
        {
            "positions": [
                -0.115974025866179,
                -0.6417253964630667,
                1.2405772455628339,
                1.6319918137977816,
                0.19238059463542379,
                0.22602256038238022
            ]
        },
        {
            "positions": [
                -0.06821720869479764,
                -0.6686287819102792,
                1.3910639481035412,
                1.689439013247218,
                0.12675091675746852,
                0.18350473530081235
            ]
        },
        {
            "positions": [
                -0.020460391523416277,
                -0.6955321673574917,
                1.5415506506442485,
                1.746886212696654,
                0.06112123887951304,
                0.14098691021924448
            ]
        },
        {
            "positions": [
                0.027296425647965084,
                -0.7224355528047044,
                1.6920373531849557,
                1.8043334121460906,
                -0.004508438998442443,
                0.0984690851376766
            ]
        },
        {
            "positions": [
                0.07505324281934644,
                -0.7493389382519169,
                1.842524055725663,
                1.8617806115955267,
                -0.07013811687639793,
                0.05595126005610873
            ]
        },
        {
            "positions": [
                0.12281005999072771,
                -0.7762423236991294,
                1.9930107582663703,
                1.919227811044963,
                -0.1357677947543531,
                0.013433434974540834
            ]
        }
    ]
}