{
    "goal": {
        "global_pose": {
            "orientation": {
                "w": 0.7031023502349854,
                "x": -0.7110244035720825,
                "y": 0.007748599164187908,
                "z": 0.005598929710686207
            },
            "position": {
                "x": 0.11585023208521307,
                "y": 0.44412534475326537,
                "z": 0.3711530566215515
            }
        },
        "name": "move_to_auspresseinheit_A"
    },
    "id": "FMT_move_to_auspresseinheit_A_31",
    "joint_names": [
        "shoulder_pan_joint",
        "shoulder_lift_joint",
        "elbow_joint",
        "wrist_1_joint",
        "wrist_2_joint",
        "wrist_3_joint"
    ],
    "metrics": {
        "cart_traj_len": 0.6776864568772939,
        "distance_elbow_joint": 0.08959987332719832,
        "distance_shoulder_lift_joint": 0.536025349190876,
        "distance_shoulder_pan_joint": 1.041079507861424,
        "distance_wrist_1_joint": 0.5502434546208865,
        "distance_wrist_2_joint": 0.8970887209412223,
        "distance_wrist_3_joint": 0.05760511616405317,
        "smoothness": 0.43883070269868485,
        "time": 0.7852380609999999,
        "traj_len": 1.7809104475255515,
        "weighted_distance": 2.175818105907724
    },
    "planner": "FMT",
    "start": {
        "state": {
            "elbow_joint": 2.422574709923281,
            "shoulder_lift_joint": -1.3736533754116391,
            "shoulder_pan_joint": -0.33786336945926293,
            "wrist_1_joint": -1.0288603412921917,
            "wrist_2_joint": 1.2330224858903978,
            "wrist_3_joint": -3.094022268022082
        }
    },
    "waypoints": [
        {
            "positions": [
                -0.33786336945926293,
                -1.3736533754116391,
                2.422574709923281,
                -1.0288603412921917,
                1.2330224858903978,
                -3.094022268022082
            ]
        },
        {
            "positions": [
                -0.29902718623071434,
                -1.460376903199713,
                2.4305761806969945,
                -0.9956252740434212,
                1.0539658675060852,
                -3.104540548751262
            ]
        },
        {
            "positions": [
                -0.26019100300216574,
                -1.5471004309877865,
                2.438577651470708,
                -0.9623902067946506,
                0.8749092491217727,
                -3.115058829480441
            ]
        },
        {
            "positions": [
                -0.22135481977361715,
                -1.63382395877586,
                2.4465791222444215,
                -0.92915513954588,
                0.6958526307374603,
                -3.125577110209621
            ]
        },
        {
            "positions": [
                -0.18251863654506856,
                -1.7205474865639339,
                2.454580593018135,
                -0.8959200722971095,
                0.5167960123531478,
                -3.1360953909388005
            ]
        },
        {
            "positions": [
                -0.005371681555622648,
                -1.75837373417165,
                2.443061794971666,
                -0.8124594351719486,
                0.5529684618339422,
                -3.1329889922893335
            ]
        },
        {
            "positions": [
                0.17177527343382326,
                -1.7961999817793664,
                2.4315429969251974,
                -0.7289987980467878,
                0.5891409113147367,
                -3.1298825936398664
            ]
        },
        {
            "positions": [
                0.3489222284232691,
                -1.8340262293870826,
                2.4200241988787283,
                -0.645538160921627,
                0.6253133607955311,
                -3.1267761949904
            ]
        },
        {
            "positions": [
                0.5260691834127151,
                -1.8718524769947988,
                2.4085054008322597,
                -0.5620775237964661,
                0.6614858102763256,
                -3.123669796340933
            ]
        },
        {
            "positions": [
                0.703216138402161,
                -1.909678724602515,
                2.3969866027857907,
                -0.47861688667130525,
                0.69765825975712,
                -3.1205633976914657
            ]
        }
    ]
}