{
    "goal": {
        "global_pose": {
            "orientation": {
                "w": -0.00223480608172531,
                "x": 0.0024358444001904467,
                "y": 0.7094548369677653,
                "z": -0.704743149386269
            },
            "position": {
                "x": 0.6205249238014221,
                "y": -0.6371506643295288,
                "z": 0.19426114857196808
            }
        },
        "name": "move_to_magneteinheit_B"
    },
    "id": "FMT_move_to_magneteinheit_B_118",
    "joint_names": [
        "shoulder_pan_joint",
        "shoulder_lift_joint",
        "elbow_joint",
        "wrist_1_joint",
        "wrist_2_joint",
        "wrist_3_joint"
    ],
    "metrics": {
        "cart_traj_len": 3.07835146503428,
        "distance_elbow_joint": 4.052080527751599,
        "distance_shoulder_lift_joint": 0.655236828073634,
        "distance_shoulder_pan_joint": 2.152978684047495,
        "distance_wrist_1_joint": 1.8931964396753074,
        "distance_wrist_2_joint": 0.45313948183197944,
        "distance_wrist_3_joint": 3.1762936284244843,
        "smoothness": 0.42980968937754865,
        "time": 1.402913514,
        "traj_len": 3.518938133841585,
        "weighted_distance": 4.5914974429003825
    },
    "planner": "FMT",
    "start": {
        "state": {
            "elbow_joint": 2.39358713078474,
            "shoulder_lift_joint": -1.908514104345545,
            "shoulder_pan_joint": 0.7066247066606129,
            "wrist_1_joint": -0.4678290933515497,
            "wrist_2_joint": 0.7096259083745334,
            "wrist_3_joint": -3.1358149277392293
        }
    },
    "waypoints": [
        {
            "positions": [
                0.7066247066606129,
                -1.908514104345545,
                2.39358713078474,
                -0.4678290933515497,
                0.7096259083745334,
                -3.1358149277392293
            ]
        },
        {
            "positions": [
                0.8013979368854803,
                -1.9548157177791392,
                2.377269304549104,
                -0.39606035170716214,
                0.6999200971416957,
                -3.1363024575652894
            ]
        },
        {
            "positions": [
                0.9117634168726814,
                -1.998690121597434,
                2.2981548512795036,
                -0.30896926635715777,
                0.6865629248607298,
                -3.0809325211235654
            ]
        },
        {
            "positions": [
                1.0221288968598823,
                -2.0425645254157287,
                2.219040398009903,
                -0.2218781810071534,
                0.673205752579764,
                -3.0255625846818415
            ]
        },
        {
            "positions": [
                1.1324943768470832,
                -2.0864389292340237,
                2.1399259447403027,
                -0.13478709565714903,
                0.6598485802987981,
                -2.970192648240118
            ]
        },
        {
            "positions": [
                1.2428598568342841,
                -2.1303133330523183,
                2.060811491470702,
                -0.047696010307144654,
                0.6464914080178322,
                -2.914822711798394
            ]
        },
        {
            "positions": [
                1.353225336821485,
                -2.1741877368706133,
                1.9816970382011019,
                0.03939507504285972,
                0.6331342357368663,
                -2.85945277535667
            ]
        },
        {
            "positions": [
                1.463590816808686,
                -2.2180621406889083,
                1.9025825849315015,
                0.1264861603928641,
                0.6197770634559006,
                -2.804082838914946
            ]
        },
        {
            "positions": [
                1.5739562967958869,
                -2.261936544507203,
                1.823468131661901,
                0.2135772457428684,
                0.6064198911749347,
                -2.7487129024732226
            ]
        },
        {
            "positions": [
                1.6843217767830883,
                -2.305810948325498,
                1.7443536783923004,
                0.30066833109287283,
                0.5930627188939688,
                -2.6933429660314987
            ]
        },
        {
            "positions": [
                1.7946872567702892,
                -2.3496853521437924,
                1.6652392251227002,
                0.38775941644287726,
                0.579705546613003,
                -2.6379730295897748
            ]
        },
        {
            "positions": [
                1.90505273675749,
                -2.3935597559620874,
                1.5861247718530997,
                0.4748505017928816,
                0.5663483743320371,
                -2.582603093148051
            ]
        },
        {
            "positions": [
                1.9580881807887962,
                -2.3990770135129456,
                1.44361194837699,
                0.5210225671155009,
                0.5570231050389829,
                -2.46123206105728
            ]
        },
        {
            "positions": [
                2.0111236248201023,
                -2.4045942710638033,
                1.30109912490088,
                0.5671946324381203,
                0.5476978357459286,
                -2.3398610289665096
            ]
        },
        {
            "positions": [
                2.064159068851408,
                -2.4101115286146615,
                1.1585863014247701,
                0.6133666977607396,
                0.5383725664528743,
                -2.218489996875739
            ]
        },
        {
            "positions": [
                2.1171945128827145,
                -2.4156287861655192,
                1.0160734779486604,
                0.659538763083359,
                0.5290472971598201,
                -2.097118964784968
            ]
        },
        {
            "positions": [
                2.1702299569140204,
                -2.4211460437163774,
                0.8735606544725506,
                0.7057108284059783,
                0.5197220278667658,
                -1.9757479326941976
            ]
        },
        {
            "positions": [
                2.2232654009453263,
                -2.4266633012672356,
                0.7310478309964408,
                0.7518828937285977,
                0.5103967585737116,
                -1.8543769006034267
            ]
        },
        {
            "positions": [
                2.2763008449766327,
                -2.4321805588180934,
                0.5885350075203309,
                0.798054959051217,
                0.5010714892806574,
                -1.7330058685126561
            ]
        },
        {
            "positions": [
                2.3293362890079385,
                -2.4376978163689516,
                0.4460221840442211,
                0.8442270243738363,
                0.4917462199876031,
                -1.6116348364218855
            ]
        },
        {
            "positions": [
                2.3823717330392444,
                -2.4432150739198097,
                0.3035093605681112,
                0.8903990896964558,
                0.4824209506945488,
                -1.4902638043311147
            ]
        },
        {
            "positions": [
                2.4354071770705508,
                -2.4487323314706675,
                0.16099653709200146,
                0.9365711550190752,
                0.4730956814014946,
                -1.3688927722403441
            ]
        },
        {
            "positions": [
                2.4884426211018567,
                -2.4542495890215257,
                0.01848371361589174,
                0.9827432203416945,
                0.46377041210844033,
                -1.2475217401495735
            ]
        },
        {
            "positions": [
                2.5414780651331625,
                -2.459766846572384,
                -0.1240291098602182,
                1.0289152856643138,
                0.45444514281538606,
                -1.1261507080588027
            ]
        },
        {
            "positions": [
                2.594513509164469,
                -2.4652841041232416,
                -0.26654193333632814,
                1.0750873509869332,
                0.44511987352233184,
                -1.004779675968032
            ]
        },
        {
            "positions": [
                2.6475489531957748,
                -2.4708013616741,
                -0.40905475681243786,
                1.1212594163095524,
                0.43579460422927757,
                -0.8834086438772615
            ]
        },
        {
            "positions": [
                2.7005843972270807,
                -2.4763186192249576,
                -0.5515675802885476,
                1.167431481632172,
                0.4264693349362233,
                -0.7620376117864907
            ]
        },
        {
            "positions": [
                2.753619841258387,
                -2.4818358767758157,
                -0.6940804037646577,
                1.2136035469547912,
                0.4171440656431691,
                -0.64066657969572
            ]
        },
        {
            "positions": [
                2.7552067027113685,
                -2.4776925879802194,
                -0.900119329007943,
                1.1990882738895465,
                0.4202380753472703,
                -0.48776731235541093
            ]
        },
        {
            "positions": [
                2.75679356416435,
                -2.4735492991846235,
                -1.1061582542512283,
                1.1845730008243018,
                0.4233320850513715,
                -0.33486804501510187
            ]
        },
        {
            "positions": [
                2.7583804256173314,
                -2.4694060103890276,
                -1.3121971794945138,
                1.1700577277590571,
                0.42642609475547266,
                -0.1819687776747928
            ]
        },
        {
            "positions": [
                2.759967287070313,
                -2.4652627215934313,
                -1.518236104737799,
                1.1555424546938124,
                0.4295201044595739,
                -0.02906951033448373
            ]
        },
        {
            "positions": [
                2.681127670406755,
                -2.441830366458582,
                -1.595967661936809,
                1.022295094241504,
                0.37390719164695596,
                -0.05136352878414829
            ]
        },
        {
            "positions": [
                2.660331183432518,
                -2.4837399117847117,
                -1.6584933969668592,
                1.0018397475858245,
                0.4665758791185483,
                -0.005084395866194876
            ]
        }
    ]
}