{
    "goal": {
        "global_pose": {
            "orientation": {
                "w": 0.5084816217422485,
                "x": -0.49083608388900757,
                "y": 0.5182115435600281,
                "z": -0.4816462993621826
            },
            "position": {
                "x": 0.5540239810943604,
                "y": 0.030875300988554955,
                "z": 0.16403168439865112
            }
        },
        "name": "move_to_storage_A"
    },
    "id": "FMT_move_to_storage_A_129",
    "joint_names": [
        "shoulder_pan_joint",
        "shoulder_lift_joint",
        "elbow_joint",
        "wrist_1_joint",
        "wrist_2_joint",
        "wrist_3_joint"
    ],
    "metrics": {
        "cart_traj_len": 0.35367377273923756,
        "distance_elbow_joint": 0.4500600705914479,
        "distance_shoulder_lift_joint": 0.23670462281145577,
        "distance_shoulder_pan_joint": 0.46480756426411407,
        "distance_wrist_1_joint": 0.23602619211085207,
        "distance_wrist_2_joint": 1.0913917428290352,
        "distance_wrist_3_joint": 0.09460212533219581,
        "smoothness": 1.2212453191034883e-15,
        "time": 0.374400416,
        "traj_len": 1.6042419761180358,
        "weighted_distance": 2.0224278735083185
    },
    "planner": "FMT",
    "start": {
        "state": {
            "elbow_joint": 1.9715463870305268,
            "shoulder_lift_joint": -1.1394903361783484,
            "shoulder_pan_joint": 0.12281147578464417,
            "wrist_1_joint": -0.7804599489681411,
            "wrist_2_joint": 0.12958660307563738,
            "wrist_3_joint": -3.1924946282119055
        }
    },
    "waypoints": [
        {
            "positions": [
                0.12281147578464417,
                -1.1394903361783484,
                1.9715463870305268,
                -0.7804599489681411,
                0.12958660307563738,
                -3.1924946282119055
            ]
        },
        {
            "positions": [
                0.05641039517548502,
                -1.1733052822942707,
                2.035840682829305,
                -0.8141779764125485,
                0.28549970919407097,
                -3.1789800388787346
            ]
        },
        {
            "positions": [
                -0.009990685433674137,
                -1.207120228410193,
                2.100134978628083,
                -0.847896003856956,
                0.44141281531250454,
                -3.165465449545564
            ]
        },
        {
            "positions": [
                -0.07639176604283328,
                -1.2409351745261152,
                2.1644292744268614,
                -0.8816140313013634,
                0.5973259214309381,
                -3.151950860212393
            ]
        },
        {
            "positions": [
                -0.14279284665199243,
                -1.2747501206420373,
                2.2287235702256396,
                -0.9153320587457708,
                0.7532390275493718,
                -3.138436270879222
            ]
        },
        {
            "positions": [
                -0.2091939272611516,
                -1.3085650667579596,
                2.2930178660244183,
                -0.9490500861901783,
                0.9091521336678055,
                -3.124921681546051
            ]
        },
        {
            "positions": [
                -0.2755950078703107,
                -1.3423800128738819,
                2.3573121618231965,
                -0.9827681136345857,
                1.0650652397862388,
                -3.1114070922128807
            ]
        },
        {
            "positions": [
                -0.3419960884794699,
                -1.3761949589898042,
                2.4216064576219747,
                -1.0164861410789932,
                1.2209783459046726,
                -3.0978925028797097
            ]
        }
    ]
}