{
    "goal": {
        "global_pose": {
            "orientation": {
                "w": 0.5084816217422485,
                "x": -0.49083608388900757,
                "y": 0.5182115435600281,
                "z": -0.4816462993621826
            },
            "position": {
                "x": 0.5540239810943604,
                "y": 0.030875300988554955,
                "z": 0.16403168439865112
            }
        },
        "name": "move_to_storage_A"
    },
    "id": "FMT_move_to_storage_A_10",
    "joint_names": [
        "shoulder_pan_joint",
        "shoulder_lift_joint",
        "elbow_joint",
        "wrist_1_joint",
        "wrist_2_joint",
        "wrist_3_joint"
    ],
    "metrics": {
        "cart_traj_len": 0.3526911134156719,
        "distance_elbow_joint": 0.4484057082951374,
        "distance_shoulder_lift_joint": 0.2336760022728399,
        "distance_shoulder_pan_joint": 0.4594205253230395,
        "distance_wrist_1_joint": 0.23814832279956566,
        "distance_wrist_2_joint": 1.1051596167238031,
        "distance_wrist_3_joint": 0.0897493722763345,
        "smoothness": 0.0,
        "time": 0.35781987,
        "traj_len": 1.6045434078549325,
        "weighted_distance": 2.024195205944021
    },
    "planner": "FMT",
    "start": {
        "state": {
            "elbow_joint": 1.9715463870305268,
            "shoulder_lift_joint": -1.1394903361783484,
            "shoulder_pan_joint": 0.12281147578464417,
            "wrist_1_joint": -0.7804599489681411,
            "wrist_2_joint": 0.12958660307563738,
            "wrist_3_joint": -3.1924946282119055
        }
    },
    "waypoints": [
        {
            "positions": [
                0.12281147578464417,
                -1.1394903361783484,
                1.9715463870305268,
                -0.7804599489681411,
                0.12958660307563738,
                -3.1924946282119055
            ]
        },
        {
            "positions": [
                0.057179972167067106,
                -1.1728726222173256,
                2.0356043453584034,
                -0.8144811379395076,
                0.287466548321895,
                -3.179673289315286
            ]
        },
        {
            "positions": [
                -0.008451531450509961,
                -1.2062549082563025,
                2.0996623036862805,
                -0.8485023269108741,
                0.4453464935681526,
                -3.166851950418667
            ]
        },
        {
            "positions": [
                -0.07408303506808704,
                -1.2396371942952797,
                2.163720262014157,
                -0.8825235158822407,
                0.6032264388144102,
                -3.1540306115220478
            ]
        },
        {
            "positions": [
                -0.13971453868566408,
                -1.273019480334257,
                2.2277782203420338,
                -0.9165447048536072,
                0.7611063840606678,
                -3.141209272625429
            ]
        },
        {
            "positions": [
                -0.20534604230324116,
                -1.3064017663732341,
                2.291836178669911,
                -0.9505658938249737,
                0.9189863293069254,
                -3.1283879337288094
            ]
        },
        {
            "positions": [
                -0.27097754592081824,
                -1.339784052412211,
                2.3558941369977875,
                -0.9845870827963402,
                1.076866274553183,
                -3.1155665948321905
            ]
        },
        {
            "positions": [
                -0.3366090495383953,
                -1.3731663384511883,
                2.419952095325664,
                -1.0186082717677067,
                1.2347462197994405,
                -3.102745255935571
            ]
        }
    ]
}