{
    "goal": {
        "global_pose": {
            "orientation": {
                "w": 0.5084816217422485,
                "x": -0.49083608388900757,
                "y": 0.5182115435600281,
                "z": -0.4816462993621826
            },
            "position": {
                "x": 0.5540239810943604,
                "y": 0.030875300988554955,
                "z": 0.16403168439865112
            }
        },
        "name": "move_to_storage_A"
    },
    "id": "FMT_move_to_storage_A_131",
    "joint_names": [
        "shoulder_pan_joint",
        "shoulder_lift_joint",
        "elbow_joint",
        "wrist_1_joint",
        "wrist_2_joint",
        "wrist_3_joint"
    ],
    "metrics": {
        "cart_traj_len": 0.3528918630312295,
        "distance_elbow_joint": 0.4480120811479513,
        "distance_shoulder_lift_joint": 0.2359095808840399,
        "distance_shoulder_pan_joint": 0.4614595786906882,
        "distance_wrist_1_joint": 0.23572573513911432,
        "distance_wrist_2_joint": 1.0986525709824024,
        "distance_wrist_3_joint": 0.09264253331131522,
        "smoothness": 0.0,
        "time": 0.379854928,
        "traj_len": 1.6038709674270906,
        "weighted_distance": 2.0228854275266452
    },
    "planner": "FMT",
    "start": {
        "state": {
            "elbow_joint": 1.9715463870305268,
            "shoulder_lift_joint": -1.1394903361783484,
            "shoulder_pan_joint": 0.12281147578464417,
            "wrist_1_joint": -0.7804599489681411,
            "wrist_2_joint": 0.12958660307563738,
            "wrist_3_joint": -3.1924946282119055
        }
    },
    "waypoints": [
        {
            "positions": [
                0.12281147578464417,
                -1.1394903361783484,
                1.9715463870305268,
                -0.7804599489681411,
                0.12958660307563738,
                -3.1924946282119055
            ]
        },
        {
            "positions": [
                0.05688867882883157,
                -1.1731917048760683,
                2.0355481129088053,
                -0.8141350539880146,
                0.28653697035883774,
                -3.1792599805960036
            ]
        },
        {
            "positions": [
                -0.00903411812698103,
                -1.2068930735737884,
                2.0995498387870843,
                -0.847810159007888,
                0.44348733764203807,
                -3.166025332980101
            ]
        },
        {
            "positions": [
                -0.07495691508279363,
                -1.2405944422715083,
                2.163551564665363,
                -0.8814852640277615,
                0.6004377049252384,
                -3.152790685364199
            ]
        },
        {
            "positions": [
                -0.14087971203860622,
                -1.2742958109692284,
                2.227553290543642,
                -0.915160369047635,
                0.7573880722084387,
                -3.1395560377482967
            ]
        },
        {
            "positions": [
                -0.20680250899441882,
                -1.3079971796669483,
                2.2915550164219205,
                -0.9488354740675085,
                0.9143384394916392,
                -3.1263213901323947
            ]
        },
        {
            "positions": [
                -0.2727253059502314,
                -1.3416985483646684,
                2.355556742300199,
                -0.9825105790873819,
                1.0712888067748394,
                -3.1130867425164923
            ]
        },
        {
            "positions": [
                -0.338648102906044,
                -1.3753999170623883,
                2.419558468178478,
                -1.0161856841072554,
                1.2282391740580398,
                -3.0998520949005903
            ]
        }
    ]
}