{
    "goal": {
        "global_pose": {
            "orientation": {
                "w": 0.5084816217422485,
                "x": -0.49083608388900757,
                "y": 0.5182115435600281,
                "z": -0.4816462993621826
            },
            "position": {
                "x": 0.5540239810943604,
                "y": 0.030875300988554955,
                "z": 0.16403168439865112
            }
        },
        "name": "move_to_storage_A"
    },
    "id": "FMT_move_to_storage_A_49",
    "joint_names": [
        "shoulder_pan_joint",
        "shoulder_lift_joint",
        "elbow_joint",
        "wrist_1_joint",
        "wrist_2_joint",
        "wrist_3_joint"
    ],
    "metrics": {
        "cart_traj_len": 0.3537121883121575,
        "distance_elbow_joint": 0.44846191614334296,
        "distance_shoulder_lift_joint": 0.23371610906366325,
        "distance_shoulder_pan_joint": 0.462984271779013,
        "distance_wrist_1_joint": 0.23780175496882794,
        "distance_wrist_2_joint": 1.0975163422802525,
        "distance_wrist_3_joint": 0.09928294812359528,
        "smoothness": 6.661338200497456e-16,
        "time": 0.399827592,
        "traj_len": 1.6061641704255187,
        "weighted_distance": 2.0282128428384842
    },
    "planner": "FMT",
    "start": {
        "state": {
            "elbow_joint": 1.9715463870305268,
            "shoulder_lift_joint": -1.1394903361783484,
            "shoulder_pan_joint": 0.12281147578464417,
            "wrist_1_joint": -0.7804599489681411,
            "wrist_2_joint": 0.12958660307563738,
            "wrist_3_joint": -3.1924946282119055
        }
    },
    "waypoints": [
        {
            "positions": [
                0.12281147578464417,
                -1.1394903361783484,
                1.9715463870305268,
                -0.7804599489681411,
                0.12958660307563738,
                -3.1924946282119055
            ]
        },
        {
            "positions": [
                0.056670865530499465,
                -1.1728783517588717,
                2.0356123750510045,
                -0.8144316282494022,
                0.2863746519728163,
                -3.178311349908535
            ]
        },
        {
            "positions": [
                -0.009469744723645243,
                -1.206266367339395,
                2.0996783630714817,
                -0.8484033075306634,
                0.4431627008699952,
                -3.164128071605164
            ]
        },
        {
            "positions": [
                -0.07561035497778996,
                -1.2396543829199183,
                2.1637443510919594,
                -0.8823749868119245,
                0.5999507497671741,
                -3.1499447933017932
            ]
        },
        {
            "positions": [
                -0.14175096523193464,
                -1.2730423985004418,
                2.227810339112437,
                -0.9163466660931856,
                0.7567387986643531,
                -3.1357615149984226
            ]
        },
        {
            "positions": [
                -0.2078915754860794,
                -1.306430414080965,
                2.291876327132915,
                -0.9503183453744468,
                0.9135268475615321,
                -3.121578236695052
            ]
        },
        {
            "positions": [
                -0.2740321857402241,
                -1.3398184296614883,
                2.355942315153392,
                -0.9842900246557078,
                1.0703148964587108,
                -3.107394958391681
            ]
        },
        {
            "positions": [
                -0.34017279599436884,
                -1.3732064452420116,
                2.4200083031738697,
                -1.018261703936969,
                1.22710294535589,
                -3.0932116800883103
            ]
        }
    ]
}