{
    "goal": {
        "global_pose": {
            "orientation": {
                "w": -0.00223480608172531,
                "x": 0.0024358444001904467,
                "y": 0.7094548369677653,
                "z": -0.704743149386269
            },
            "position": {
                "x": 0.6205249238014221,
                "y": -0.6371506643295288,
                "z": 0.19426114857196808
            }
        },
        "name": "move_to_magneteinheit_B"
    },
    "id": "FMT_move_to_magneteinheit_B_146",
    "joint_names": [
        "shoulder_pan_joint",
        "shoulder_lift_joint",
        "elbow_joint",
        "wrist_1_joint",
        "wrist_2_joint",
        "wrist_3_joint"
    ],
    "metrics": {
        "cart_traj_len": 1.4535022631817378,
        "distance_elbow_joint": 0.7304881401546768,
        "distance_shoulder_lift_joint": 1.2487612195643913,
        "distance_shoulder_pan_joint": 1.620523723838614,
        "distance_wrist_1_joint": 2.609520498689893,
        "distance_wrist_2_joint": 2.943125149692293,
        "distance_wrist_3_joint": 3.1286225504917264,
        "smoothness": 1.665334550124364e-16,
        "time": 1.2814402029999998,
        "traj_len": 3.5044316632560544,
        "weighted_distance": 4.908251423042348
    },
    "planner": "FMT",
    "start": {
        "state": {
            "elbow_joint": 2.39358713078474,
            "shoulder_lift_joint": -1.908514104345545,
            "shoulder_pan_joint": 0.7066247066606129,
            "wrist_1_joint": -0.4678290933515497,
            "wrist_2_joint": 0.7096259083745334,
            "wrist_3_joint": -3.1358149277392293
        }
    },
    "waypoints": [
        {
            "positions": [
                0.7066247066606129,
                -1.908514104345545,
                2.39358713078474,
                -0.4678290933515497,
                0.7096259083745334,
                -3.1358149277392293
            ]
        },
        {
            "positions": [
                0.6543497478271093,
                -1.8682314843595969,
                2.3700229972313633,
                -0.38365101274864993,
                0.6146863874167176,
                -3.034891619658851
            ]
        },
        {
            "positions": [
                0.6020747889936056,
                -1.8279488643736488,
                2.3464588636779866,
                -0.29947293214575016,
                0.5197468664589017,
                -2.933968311578473
            ]
        },
        {
            "positions": [
                0.5497998301601019,
                -1.7876662443877005,
                2.32289473012461,
                -0.21529485154285039,
                0.42480734550108573,
                -2.8330450034980945
            ]
        },
        {
            "positions": [
                0.49752487132659823,
                -1.7473836244017524,
                2.299330596571233,
                -0.1311167709399506,
                0.32986782454326985,
                -2.732121695417716
            ]
        },
        {
            "positions": [
                0.44524991249309454,
                -1.7071010044158044,
                2.275766463017857,
                -0.04693869033705084,
                0.2349283035854539,
                -2.631198387337338
            ]
        },
        {
            "positions": [
                0.3929749536595909,
                -1.6668183844298563,
                2.25220232946448,
                0.03723939026584894,
                0.13998878262763803,
                -2.5302750792569597
            ]
        },
        {
            "positions": [
                0.3406999948260872,
                -1.6265357644439082,
                2.2286381959111035,
                0.12141747086874871,
                0.04504926166982215,
                -2.4293517711765813
            ]
        },
        {
            "positions": [
                0.2884250359925835,
                -1.58625314445796,
                2.2050740623577267,
                0.20559555147164849,
                -0.04989025928799373,
                -2.3284284630962033
            ]
        },
        {
            "positions": [
                0.23615007715907976,
                -1.5459705244720119,
                2.18150992880435,
                0.28977363207454837,
                -0.14482978024580972,
                -2.227505155015825
            ]
        },
        {
            "positions": [
                0.18387511832557613,
                -1.5056879044860638,
                2.1579457952509733,
                0.37395171267744803,
                -0.2397693012036256,
                -2.126581846935447
            ]
        },
        {
            "positions": [
                0.13160015949207238,
                -1.4654052845001158,
                2.1343816616975966,
                0.4581297932803479,
                -0.3347088221614415,
                -2.025658538855068
            ]
        },
        {
            "positions": [
                0.07932520065856885,
                -1.4251226645141677,
                2.11081752814422,
                0.5423078738832476,
                -0.42964834311925737,
                -1.92473523077469
            ]
        },
        {
            "positions": [
                0.027050241825065102,
                -1.3848400445282194,
                2.087253394590843,
                0.6264859544861476,
                -0.5245878640770733,
                -1.8238119226943117
            ]
        },
        {
            "positions": [
                -0.025224717008438535,
                -1.3445574245422716,
                2.063689261037467,
                0.7106640350890472,
                -0.6195273850348891,
                -1.7228886146139335
            ]
        },
        {
            "positions": [
                -0.07749967584194228,
                -1.3042748045563233,
                2.04012512748409,
                0.7948421156919472,
                -0.7144669059927052,
                -1.621965306533555
            ]
        },
        {
            "positions": [
                -0.12977463467544592,
                -1.2639921845703752,
                2.0165609939307134,
                0.8790201962948467,
                -0.8094064269505209,
                -1.5210419984531771
            ]
        },
        {
            "positions": [
                -0.18204959350894956,
                -1.2237095645844271,
                1.9929968603773367,
                0.9631982768977465,
                -0.9043459479083368,
                -1.420118690372799
            ]
        },
        {
            "positions": [
                -0.23432455234245342,
                -1.1834269445984789,
                1.96943272682396,
                1.0473763575006465,
                -0.9992854688661529,
                -1.3191953822924203
            ]
        },
        {
            "positions": [
                -0.28659951117595706,
                -1.143144324612531,
                1.9458685932705833,
                1.1315544381035463,
                -1.0942249898239687,
                -1.218272074212042
            ]
        },
        {
            "positions": [
                -0.3388744700094607,
                -1.1028617046265827,
                1.9223044597172065,
                1.2157325187064458,
                -1.1891645107817848,
                -1.1173487661316641
            ]
        },
        {
            "positions": [
                -0.39114942884296433,
                -1.0625790846406347,
                1.89874032616383,
                1.2999105993093456,
                -1.2841040317396004,
                -1.0164254580512857
            ]
        },
        {
            "positions": [
                -0.4434243876764682,
                -1.0222964646546866,
                1.8751761926104533,
                1.3840886799122456,
                -1.3790435526974165,
                -0.9155021499709073
            ]
        },
        {
            "positions": [
                -0.4956993465099718,
                -0.9820138446687384,
                1.8516120590570766,
                1.4682667605151454,
                -1.4739830736552326,
                -0.8145788418905289
            ]
        },
        {
            "positions": [
                -0.5479743053434752,
                -0.9417312246827904,
                1.8280479255037,
                1.552444841118045,
                -1.5689225946130483,
                -0.7136555338101509
            ]
        },
        {
            "positions": [
                -0.6002492641769789,
                -0.9014486046968422,
                1.8044837919503234,
                1.636622921720945,
                -1.663862115570864,
                -0.6127322257297725
            ]
        },
        {
            "positions": [
                -0.6525242230104827,
                -0.8611659847108941,
                1.7809196583969467,
                1.720801002323845,
                -1.75880163652868,
                -0.5118089176493941
            ]
        },
        {
            "positions": [
                -0.7047991818439864,
                -0.820883364724946,
                1.75735552484357,
                1.8049790829267445,
                -1.8537411574864961,
                -0.4108856095690161
            ]
        },
        {
            "positions": [
                -0.75707414067749,
                -0.780600744738998,
                1.7337913912901932,
                1.889157163529644,
                -1.9486806784443118,
                -0.3099623014886377
            ]
        },
        {
            "positions": [
                -0.8093490995109937,
                -0.7403181247530499,
                1.7102272577368165,
                1.973335244132544,
                -2.043620199402128,
                -0.2090389934082597
            ]
        },
        {
            "positions": [
                -0.8616240583444975,
                -0.7000355047671016,
                1.6866631241834398,
                2.057513324735444,
                -2.138559720359944,
                -0.10811568532788085
            ]
        },
        {
            "positions": [
                -0.9138990171780011,
                -0.6597528847811536,
                1.6630989906300633,
                2.1416914053383436,
                -2.2334992413177597,
                -0.007192377247502903
            ]
        }
    ]
}