{
    "goal": {
        "global_pose": {
            "orientation": {
                "w": 0.7047431468963623,
                "x": -0.7094548344612122,
                "y": 0.0024358443915843964,
                "z": -0.0022348060738295317
            },
            "position": {
                "x": 0.6094750761985779,
                "y": 0.3671506643295288,
                "z": 0.19426114857196808
            }
        },
        "name": "move_to_magneteinheit_A"
    },
    "id": "FMT_move_to_magneteinheit_A_127",
    "joint_names": [
        "shoulder_pan_joint",
        "shoulder_lift_joint",
        "elbow_joint",
        "wrist_1_joint",
        "wrist_2_joint",
        "wrist_3_joint"
    ],
    "metrics": {
        "cart_traj_len": 1.8791112737101492,
        "distance_elbow_joint": 3.909288256889844,
        "distance_shoulder_lift_joint": 0.6996213101202003,
        "distance_shoulder_pan_joint": 1.2427174646928125,
        "distance_wrist_1_joint": 1.4890142403815483,
        "distance_wrist_2_joint": 1.6984818340179115,
        "distance_wrist_3_joint": 1.102748555341102,
        "smoothness": 7.237009367314318e-16,
        "time": 1.226178256,
        "traj_len": 3.184630537667347,
        "weighted_distance": 3.9414292898040273
    },
    "planner": "FMT",
    "start": {
        "state": {
            "elbow_joint": -1.919643507792019,
            "shoulder_lift_joint": -0.07675430207160344,
            "shoulder_pan_joint": -1.1188671864651873,
            "wrist_1_joint": 0.42560062535961957,
            "wrist_2_joint": 1.5706038300724876,
            "wrist_3_joint": 1.1188968870953055
        }
    },
    "waypoints": [
        {
            "positions": [
                -1.1188671864651873,
                -0.07675430207160344,
                -1.919643507792019,
                0.42560062535961957,
                1.5706038300724876,
                1.1188968870953055
            ]
        },
        {
            "positions": [
                -1.0710703609000791,
                -0.10366281399930347,
                -1.7692862671424097,
                0.48287040383583296,
                1.5052776056871833,
                1.0764834811206478
            ]
        },
        {
            "positions": [
                -1.023273535334971,
                -0.1305713259270035,
                -1.6189290264928002,
                0.5401401823120464,
                1.439951381301879,
                1.03407007514599
            ]
        },
        {
            "positions": [
                -0.9754767097698628,
                -0.15747983785470349,
                -1.4685717858431908,
                0.5974099607882597,
                1.3746251569165748,
                0.9916566691713322
            ]
        },
        {
            "positions": [
                -0.9276798842047547,
                -0.18438834978240354,
                -1.3182145451935816,
                0.6546797392644732,
                1.3092989325312705,
                0.9492432631966745
            ]
        },
        {
            "positions": [
                -0.8798830586396464,
                -0.21129686171010353,
                -1.167857304543972,
                0.7119495177406865,
                1.2439727081459662,
                0.9068298572220167
            ]
        },
        {
            "positions": [
                -0.8320862330745382,
                -0.23820537363780356,
                -1.0175000638943628,
                0.7692192962169,
                1.1786464837606618,
                0.8644164512473589
            ]
        },
        {
            "positions": [
                -0.7842894075094302,
                -0.2651138855655035,
                -0.8671428232447533,
                0.8264890746931133,
                1.1133202593753575,
                0.8220030452727012
            ]
        },
        {
            "positions": [
                -0.736492581944322,
                -0.2920223974932036,
                -0.7167855825951439,
                0.8837588531693268,
                1.0479940349900532,
                0.7795896392980434
            ]
        },
        {
            "positions": [
                -0.6886957563792138,
                -0.31893090942090363,
                -0.5664283419455347,
                0.9410286316455401,
                0.9826678106047491,
                0.7371762333233856
            ]
        },
        {
            "positions": [
                -0.6408989308141055,
                -0.3458394213486036,
                -0.41607110129592506,
                0.9982984101217536,
                0.9173415862194447,
                0.6947628273487279
            ]
        },
        {
            "positions": [
                -0.5931021052489974,
                -0.3727479332763036,
                -0.26571386064631586,
                1.0555681885979669,
                0.8520153618341404,
                0.6523494213740701
            ]
        },
        {
            "positions": [
                -0.5453052796838892,
                -0.3996564452040037,
                -0.11535661999670621,
                1.1128379670741804,
                0.7866891374488361,
                0.6099360153994122
            ]
        },
        {
            "positions": [
                -0.4975084541187811,
                -0.42656495713170367,
                0.03500062065290299,
                1.1701077455503937,
                0.7213629130635318,
                0.5675226094247545
            ]
        },
        {
            "positions": [
                -0.44971162855367297,
                -0.45347346905940367,
                0.18535786130251242,
                1.2273775240266072,
                0.6560366886782276,
                0.5251092034500968
            ]
        },
        {
            "positions": [
                -0.40191480298856475,
                -0.48038198098710366,
                0.3357151019521216,
                1.2846473025028204,
                0.5907104642929234,
                0.482695797475439
            ]
        },
        {
            "positions": [
                -0.3541179774234565,
                -0.5072904929148038,
                0.48607234260173127,
                1.341917080979034,
                0.525384239907619,
                0.4402823915007812
            ]
        },
        {
            "positions": [
                -0.3063211518583484,
                -0.5341990048425038,
                0.6364295832513405,
                1.3991868594552472,
                0.4600580155223146,
                0.3978689855261234
            ]
        },
        {
            "positions": [
                -0.2585243262932402,
                -0.5611075167702038,
                0.7867868239009497,
                1.4564566379314607,
                0.3947317911370105,
                0.3554555795514657
            ]
        },
        {
            "positions": [
                -0.21072750072813207,
                -0.5880160286979037,
                0.9371440645505593,
                1.513726416407674,
                0.3294055667517062,
                0.31304217357680797
            ]
        },
        {
            "positions": [
                -0.16293067516302384,
                -0.6149245406256039,
                1.087501305200169,
                1.5709961948838875,
                0.26407934236640185,
                0.27062876760215004
            ]
        },
        {
            "positions": [
                -0.11513384959791573,
                -0.6418330525533038,
                1.2378585458497782,
                1.628265973360101,
                0.19875311798109752,
                0.22821536162749234
            ]
        },
        {
            "positions": [
                -0.0673370240328075,
                -0.6687415644810037,
                1.3882157864993874,
                1.6855357518363143,
                0.13342689359579318,
                0.18580195565283464
            ]
        },
        {
            "positions": [
                -0.019540198467699277,
                -0.6956500764087039,
                1.5385730271489966,
                1.7428055303125276,
                0.06810066921048907,
                0.14338854967817682
            ]
        },
        {
            "positions": [
                0.02825662709740895,
                -0.7225585883364039,
                1.6889302677986067,
                1.8000753087887411,
                0.002774444825184519,
                0.1009751437035189
            ]
        },
        {
            "positions": [
                0.07605345266251695,
                -0.7494671002641038,
                1.8392875084482159,
                1.8573450872649546,
                -0.06255177956011959,
                0.058561737728861196
            ]
        },
        {
            "positions": [
                0.12385027822762516,
                -0.7763756121918038,
                1.989644749097825,
                1.914614865741168,
                -0.12787800394542384,
                0.016148331754203448
            ]
        }
    ]
}