{
    "goal": {
        "global_pose": {
            "orientation": {
                "w": -0.00223480608172531,
                "x": 0.0024358444001904467,
                "y": 0.7094548369677653,
                "z": -0.704743149386269
            },
            "position": {
                "x": 0.6205249238014221,
                "y": -0.6371506643295288,
                "z": 0.19426114857196808
            }
        },
        "name": "move_to_magneteinheit_B"
    },
    "id": "FMT_move_to_magneteinheit_B_16",
    "joint_names": [
        "shoulder_pan_joint",
        "shoulder_lift_joint",
        "elbow_joint",
        "wrist_1_joint",
        "wrist_2_joint",
        "wrist_3_joint"
    ],
    "metrics": {
        "cart_traj_len": 3.819992381458955,
        "distance_elbow_joint": 4.390094764335055,
        "distance_shoulder_lift_joint": 0.28144698531433754,
        "distance_shoulder_pan_joint": 2.279541667522005,
        "distance_wrist_1_joint": 2.1693921183046068,
        "distance_wrist_2_joint": 1.3905852486427586,
        "distance_wrist_3_joint": 6.306917875395732,
        "smoothness": 0.08707408003042837,
        "time": 1.375791633,
        "traj_len": 4.1009728918287776,
        "weighted_distance": 5.7438481680188325
    },
    "planner": "FMT",
    "start": {
        "state": {
            "elbow_joint": 2.39358713078474,
            "shoulder_lift_joint": -1.908514104345545,
            "shoulder_pan_joint": 0.7066247066606129,
            "wrist_1_joint": -0.4678290933515497,
            "wrist_2_joint": 0.7096259083745334,
            "wrist_3_joint": -3.1358149277392293
        }
    },
    "waypoints": [
        {
            "positions": [
                0.7066247066606129,
                -1.908514104345545,
                2.39358713078474,
                -0.4678290933515497,
                0.7096259083745334,
                -3.1358149277392293
            ]
        },
        {
            "positions": [
                0.8060908122576048,
                -1.924186787201572,
                2.411274726658005,
                -0.48238161492955023,
                0.7171505116311049,
                -2.9353540601920134
            ]
        },
        {
            "positions": [
                0.9055569178545968,
                -1.9398594700575995,
                2.42896232253127,
                -0.4969341365075508,
                0.7246751148876764,
                -2.734893192644797
            ]
        },
        {
            "positions": [
                1.0050230234515887,
                -1.955532152913627,
                2.446649918404535,
                -0.5114866580855514,
                0.7321997181442479,
                -2.534432325097581
            ]
        },
        {
            "positions": [
                1.1044891290485805,
                -1.971204835769654,
                2.4643375142778,
                -0.5260391796635518,
                0.7397243214008193,
                -2.333971457550365
            ]
        },
        {
            "positions": [
                1.2039552346455724,
                -1.9868775186256813,
                2.482025110151065,
                -0.5405917012415524,
                0.7472489246573909,
                -2.133510590003149
            ]
        },
        {
            "positions": [
                1.3034213402425645,
                -2.002550201481709,
                2.49971270602433,
                -0.555144222819553,
                0.7547735279139623,
                -1.9330497224559329
            ]
        },
        {
            "positions": [
                1.4028874458395564,
                -2.018222884337736,
                2.517400301897595,
                -0.5696967443975535,
                0.7622981311705339,
                -1.732588854908717
            ]
        },
        {
            "positions": [
                1.5023535514365483,
                -2.0338955671937633,
                2.5350878977708597,
                -0.584249265975554,
                0.7698227344271054,
                -1.5321279873615008
            ]
        },
        {
            "positions": [
                1.6052821694373576,
                -2.0497154706430845,
                2.5411015926629705,
                -0.6057653589556714,
                0.7774890811495553,
                -1.3221386930592525
            ]
        },
        {
            "positions": [
                1.7082107874381667,
                -2.065535374092406,
                2.5471152875550818,
                -0.6272814519357887,
                0.7851554278720053,
                -1.112149398757004
            ]
        },
        {
            "positions": [
                1.811139405438976,
                -2.0813552775417277,
                2.553128982447193,
                -0.648797544915906,
                0.7928217745944552,
                -0.9021601044547556
            ]
        },
        {
            "positions": [
                1.914068023439785,
                -2.097175180991049,
                2.559142677339304,
                -0.6703136378960234,
                0.8004881213169052,
                -0.6921708101525073
            ]
        },
        {
            "positions": [
                2.0169966414405947,
                -2.11299508444037,
                2.5651563722314146,
                -0.6918297308761406,
                0.8081544680393552,
                -0.4821815158502587
            ]
        },
        {
            "positions": [
                2.1199252594414038,
                -2.1288149878896916,
                2.571170067123526,
                -0.713345823856258,
                0.8158208147618051,
                -0.2721922215480105
            ]
        },
        {
            "positions": [
                2.1492365331113326,
                -2.1301800171803538,
                2.424228996240513,
                -0.7882927024747176,
                0.797224330184018,
                -0.16006480528497707
            ]
        },
        {
            "positions": [
                2.1785478067812614,
                -2.1315450464710164,
                2.2772879253575002,
                -0.8632395810931772,
                0.7786278456062308,
                -0.04793738902194364
            ]
        },
        {
            "positions": [
                2.20785908045119,
                -2.1329100757616786,
                2.130346854474488,
                -0.9381864597116367,
                0.7600313610284437,
                0.0641900272410898
            ]
        },
        {
            "positions": [
                2.237170354121119,
                -2.134275105052341,
                1.9834057835914751,
                -1.0131333383300962,
                0.7414348764506565,
                0.1763174435041232
            ]
        },
        {
            "positions": [
                2.266481627791048,
                -2.1356401343430034,
                1.8364647127084623,
                -1.088080216948556,
                0.7228383918728694,
                0.2884448597671567
            ]
        },
        {
            "positions": [
                2.2957929014609766,
                -2.137005163633666,
                1.6895236418254496,
                -1.1630270955670154,
                0.7042419072950822,
                0.4005722760301901
            ]
        },
        {
            "positions": [
                2.3251041751309054,
                -2.138370192924328,
                1.5425825709424368,
                -1.2379739741854752,
                0.685645422717295,
                0.5126996922932235
            ]
        },
        {
            "positions": [
                2.354415448800834,
                -2.1397352222149904,
                1.3956415000594242,
                -1.3129208528039347,
                0.6670489381395079,
                0.6248271085562569
            ]
        },
        {
            "positions": [
                2.383726722470763,
                -2.141100251505653,
                1.2487004291764114,
                -1.3878677314223942,
                0.6484524535617208,
                0.7369545248192902
            ]
        },
        {
            "positions": [
                2.413037996140692,
                -2.142465280796315,
                1.1017593582933987,
                -1.462814610040854,
                0.6298559689839336,
                0.8490819410823239
            ]
        },
        {
            "positions": [
                2.4423492698106206,
                -2.1438303100869778,
                0.9548182874103861,
                -1.5377614886593134,
                0.6112594844061464,
                0.9612093573453572
            ]
        },
        {
            "positions": [
                2.4716605434805494,
                -2.14519533937764,
                0.8078772165273733,
                -1.6127083672777731,
                0.5926629998283592,
                1.0733367736083905
            ]
        },
        {
            "positions": [
                2.5009718171504782,
                -2.146560368668302,
                0.6609361456443608,
                -1.6876552458962326,
                0.5740665152505722,
                1.185464189871424
            ]
        },
        {
            "positions": [
                2.530283090820407,
                -2.1479253979589648,
                0.5139950747613478,
                -1.7626021245146923,
                0.555470030672785,
                1.2975916061344575
            ]
        },
        {
            "positions": [
                2.559594364490336,
                -2.149290427249627,
                0.3670540038783354,
                -1.8375490031331518,
                0.5368735460949978,
                1.409719022397491
            ]
        },
        {
            "positions": [
                2.5889056381602646,
                -2.1506554565402896,
                0.22011293299532264,
                -1.9124958817516113,
                0.5182770615172108,
                1.5218464386605244
            ]
        },
        {
            "positions": [
                2.6182169118301934,
                -2.1520204858309517,
                0.07317186211230986,
                -1.987442760370071,
                0.4996805769394235,
                1.6339738549235578
            ]
        },
        {
            "positions": [
                2.6475281855001223,
                -2.153385515121614,
                -0.07376920877070292,
                -2.0623896389885306,
                0.4810840923616364,
                1.7461012711865909
            ]
        },
        {
            "positions": [
                2.676839459170051,
                -2.1547505444122765,
                -0.2207102796537157,
                -2.13733651760699,
                0.46248760778384923,
                1.8582286874496243
            ]
        },
        {
            "positions": [
                2.70615073283998,
                -2.1561155737029387,
                -0.3676513505367285,
                -2.21228339622545,
                0.44389112320606205,
                1.9703561037126582
            ]
        },
        {
            "positions": [
                2.7354620065099087,
                -2.1574806029936013,
                -0.5145924214197413,
                -2.2872302748439095,
                0.42529463862827493,
                2.0824835199756913
            ]
        },
        {
            "positions": [
                2.7647732801798375,
                -2.1588456322842635,
                -0.6615334923027536,
                -2.362177153462369,
                0.40669815405048776,
                2.1946109362387247
            ]
        },
        {
            "positions": [
                2.7940845538497663,
                -2.160210661574926,
                -0.8084745631857664,
                -2.4371240320808285,
                0.3881016694727006,
                2.306738352501758
            ]
        },
        {
            "positions": [
                2.823395827519695,
                -2.1615756908655883,
                -0.9554156340687789,
                -2.512070910699288,
                0.36950518489491346,
                2.4188657687647916
            ]
        },
        {
            "positions": [
                2.8069308273048135,
                -2.162905274452622,
                -1.0772039857546722,
                -2.5281478715291077,
                0.2768694269694127,
                2.510163620576759
            ]
        },
        {
            "positions": [
                2.790465827089932,
                -2.1642348580396553,
                -1.1989923374405658,
                -2.544224832358928,
                0.18423366904391192,
                2.6014614723887264
            ]
        },
        {
            "positions": [
                2.7740008268750502,
                -2.165564441626689,
                -1.320780689126459,
                -2.5603017931887475,
                0.09159791111841116,
                2.6927593242006935
            ]
        },
        {
            "positions": [
                2.746410693914397,
                -2.1713456140345246,
                -1.3990716786814676,
                -2.5414931331540025,
                -0.04527434577167726,
                2.8093855617882664
            ]
        },
        {
            "positions": [
                2.718820560953744,
                -2.1771267864423605,
                -1.4773626682364764,
                -2.522684473119257,
                -0.1821466026617657,
                2.9260117993758388
            ]
        },
        {
            "positions": [
                2.6912304279930908,
                -2.1829079588501963,
                -1.5556536577914852,
                -2.5038758130845116,
                -0.3190188595518541,
                3.042638036963411
            ]
        },
        {
            "positions": [
                2.6636402950324376,
                -2.188689131258032,
                -1.6339446473464938,
                -2.4850671530497666,
                -0.45589111644194247,
                3.159264274550984
            ]
        },
        {
            "positions": [
                2.6606252808567725,
                -2.1899610896598825,
                -1.6413417608727432,
                -2.4833823747213386,
                -0.46856952749368147,
                3.1711029476564985
            ]
        }
    ]
}