{
    "goal": {
        "global_pose": {
            "orientation": {
                "w": 0.7031023502349854,
                "x": -0.7110244035720825,
                "y": 0.007748599164187908,
                "z": 0.005598929710686207
            },
            "position": {
                "x": 0.11585023208521307,
                "y": 0.44412534475326537,
                "z": 0.3711530566215515
            }
        },
        "name": "move_to_auspresseinheit_A"
    },
    "id": "FMT_move_to_auspresseinheit_A_108",
    "joint_names": [
        "shoulder_pan_joint",
        "shoulder_lift_joint",
        "elbow_joint",
        "wrist_1_joint",
        "wrist_2_joint",
        "wrist_3_joint"
    ],
    "metrics": {
        "cart_traj_len": 0.7466243509466766,
        "distance_elbow_joint": 0.16788112957028467,
        "distance_shoulder_lift_joint": 0.8595244080054771,
        "distance_shoulder_pan_joint": 1.0451298056114633,
        "distance_wrist_1_joint": 0.5479965177183099,
        "distance_wrist_2_joint": 0.5185282037268529,
        "distance_wrist_3_joint": 0.16600096937619657,
        "smoothness": 0.5921680547451676,
        "time": 0.850345029,
        "traj_len": 1.8179826825381435,
        "weighted_distance": 2.1687756209912865
    },
    "planner": "FMT",
    "start": {
        "state": {
            "elbow_joint": 2.422574709923281,
            "shoulder_lift_joint": -1.3736533754116391,
            "shoulder_pan_joint": -0.33786336945926293,
            "wrist_1_joint": -1.0288603412921917,
            "wrist_2_joint": 1.2330224858903978,
            "wrist_3_joint": -3.094022268022082
        }
    },
    "waypoints": [
        {
            "positions": [
                -0.33786336945926293,
                -1.3736533754116391,
                2.422574709923281,
                -1.0288603412921917,
                1.2330224858903978,
                -3.094022268022082
            ]
        },
        {
            "positions": [
                -0.3279847302315985,
                -1.5483798033438547,
                2.4404492238401305,
                -0.9613970573459301,
                1.141298340198438,
                -3.07799427826208
            ]
        },
        {
            "positions": [
                -0.31810609100393406,
                -1.7231062312760705,
                2.4583237377569795,
                -0.8939337733996685,
                1.0495741945064783,
                -3.061966288502078
            ]
        },
        {
            "positions": [
                -0.30822745177626965,
                -1.8978326592082864,
                2.4761982516738286,
                -0.826470489453407,
                0.9578500488145187,
                -3.045938298742076
            ]
        },
        {
            "positions": [
                -0.29834881254860524,
                -2.072559087140502,
                2.494072765590678,
                -0.7590072055071453,
                0.866125903122559,
                -3.029910308982074
            ]
        },
        {
            "positions": [
                -0.09722576280844414,
                -2.040435347885179,
                2.4747961508101004,
                -0.7033785291204926,
                0.8357995789307562,
                -3.0502881110493116
            ]
        },
        {
            "positions": [
                0.10389728693171696,
                -2.0083116086298562,
                2.4555195360295228,
                -0.6477498527338399,
                0.8054732547389534,
                -3.070665913116549
            ]
        },
        {
            "positions": [
                0.305020336671878,
                -1.9761878693745334,
                2.4362429212489456,
                -0.5921211763471872,
                0.7751469305471504,
                -3.091043715183787
            ]
        },
        {
            "positions": [
                0.5061433864120392,
                -1.9440641301192105,
                2.416966306468368,
                -0.5364924999605345,
                0.7448206063553476,
                -3.1114215172510242
            ]
        },
        {
            "positions": [
                0.7072664361522003,
                -1.9119403908638877,
                2.3976896916877903,
                -0.48086382357388185,
                0.7144942821635448,
                -3.131799319318262
            ]
        }
    ]
}