{
    "goal": {
        "global_pose": {
            "orientation": {
                "w": -0.00223480608172531,
                "x": 0.0024358444001904467,
                "y": 0.7094548369677653,
                "z": -0.704743149386269
            },
            "position": {
                "x": 0.6205249238014221,
                "y": -0.6371506643295288,
                "z": 0.19426114857196808
            }
        },
        "name": "move_to_magneteinheit_B"
    },
    "id": "FMT_move_to_magneteinheit_B_127",
    "joint_names": [
        "shoulder_pan_joint",
        "shoulder_lift_joint",
        "elbow_joint",
        "wrist_1_joint",
        "wrist_2_joint",
        "wrist_3_joint"
    ],
    "metrics": {
        "cart_traj_len": 3.9333176802194747,
        "distance_elbow_joint": 4.135070487362208,
        "distance_shoulder_lift_joint": 0.6119785755978682,
        "distance_shoulder_pan_joint": 2.9082197139233616,
        "distance_wrist_1_joint": 1.4672537943250874,
        "distance_wrist_2_joint": 0.7933654287630191,
        "distance_wrist_3_joint": 3.1287604515866296,
        "smoothness": 0.23911853876771197,
        "time": 1.445602126,
        "traj_len": 3.6117375945046413,
        "weighted_distance": 4.643574978162788
    },
    "planner": "FMT",
    "start": {
        "state": {
            "elbow_joint": 2.39358713078474,
            "shoulder_lift_joint": -1.908514104345545,
            "shoulder_pan_joint": 0.7066247066606129,
            "wrist_1_joint": -0.4678290933515497,
            "wrist_2_joint": 0.7096259083745334,
            "wrist_3_joint": -3.1358149277392293
        }
    },
    "waypoints": [
        {
            "positions": [
                0.7066247066606129,
                -1.908514104345545,
                2.39358713078474,
                -0.4678290933515497,
                0.7096259083745334,
                -3.1358149277392293
            ]
        },
        {
            "positions": [
                0.8484763634059931,
                -1.946570131112403,
                2.4067196024445527,
                -0.46213237568909765,
                0.6379829946034493,
                -3.0857448819701925
            ]
        },
        {
            "positions": [
                0.9903280201513733,
                -1.9846261578792612,
                2.419852074104365,
                -0.45643565802664565,
                0.5663400808323652,
                -3.035674836201156
            ]
        },
        {
            "positions": [
                1.1321796768967536,
                -2.0226821846461194,
                2.4329845457641777,
                -0.4507389403641936,
                0.4946971670612811,
                -2.9856047904321192
            ]
        },
        {
            "positions": [
                1.2666600143550968,
                -2.048572883860562,
                2.4051138212350187,
                -0.4383093523420491,
                0.42486079316961334,
                -2.9131971114047666
            ]
        },
        {
            "positions": [
                1.40114035181344,
                -2.074463583075005,
                2.3772430967058593,
                -0.4258797643199046,
                0.3550244192779456,
                -2.8407894323774134
            ]
        },
        {
            "positions": [
                1.5356206892717832,
                -2.1003542822894476,
                2.3493723721767,
                -0.4134501762977601,
                0.2851880453862778,
                -2.7683817533500603
            ]
        },
        {
            "positions": [
                1.6701010267301264,
                -2.1262449815038904,
                2.321501647647541,
                -0.4010205882756156,
                0.21535167149461004,
                -2.6959740743227076
            ]
        },
        {
            "positions": [
                1.7339059353470931,
                -2.1425245037134615,
                2.1722153025415674,
                -0.36262829880779524,
                0.22738499951037797,
                -2.5925963148389912
            ]
        },
        {
            "positions": [
                1.79771084396406,
                -2.158804025923033,
                2.0229289574355938,
                -0.3242360093399749,
                0.23941832752614586,
                -2.489218555355275
            ]
        },
        {
            "positions": [
                1.8615157525810266,
                -2.175083548132604,
                1.87364261232962,
                -0.2858437198721545,
                0.2514516555419138,
                -2.3858407958715584
            ]
        },
        {
            "positions": [
                1.9253206611979934,
                -2.1913630703421756,
                1.724356267223646,
                -0.24745143040433412,
                0.2634849835576817,
                -2.282463036387842
            ]
        },
        {
            "positions": [
                1.9891255698149601,
                -2.2076425925517467,
                1.5750699221176725,
                -0.20905914093651373,
                0.27551831157344964,
                -2.179085276904125
            ]
        },
        {
            "positions": [
                2.052930478431927,
                -2.223922114761318,
                1.4257835770116989,
                -0.17066685146869337,
                0.28755163958921753,
                -2.0757075174204087
            ]
        },
        {
            "positions": [
                2.1167353870488936,
                -2.2402016369708893,
                1.276497231905725,
                -0.13227456200087295,
                0.29958496760498543,
                -1.9723297579366923
            ]
        },
        {
            "positions": [
                2.1805402956658604,
                -2.2564811591804608,
                1.1272108867997515,
                -0.09388227253305265,
                0.3116182956207534,
                -1.8689519984529759
            ]
        },
        {
            "positions": [
                2.244345204282827,
                -2.272760681390032,
                0.9779245416937776,
                -0.05548998306523223,
                0.3236516236365213,
                -1.7655742389692595
            ]
        },
        {
            "positions": [
                2.308150112899794,
                -2.2890402035996034,
                0.828638196587804,
                -0.017097693597411867,
                0.3356849516522892,
                -1.662196479485543
            ]
        },
        {
            "positions": [
                2.3719550215167606,
                -2.3053197258091744,
                0.6793518514818302,
                0.021294595870408495,
                0.34771827966805713,
                -1.5588187200018264
            ]
        },
        {
            "positions": [
                2.4357599301337274,
                -2.321599248018746,
                0.5300655063758566,
                0.05968688533822886,
                0.35975160768382497,
                -1.45544096051811
            ]
        },
        {
            "positions": [
                2.4995648387506937,
                -2.337878770228317,
                0.380779161269883,
                0.09807917480604922,
                0.3717849356995929,
                -1.3520632010343936
            ]
        },
        {
            "positions": [
                2.563369747367661,
                -2.3541582924378885,
                0.23149281616390915,
                0.1364714642738697,
                0.3838182637153609,
                -1.248685441550677
            ]
        },
        {
            "positions": [
                2.6271746559846276,
                -2.3704378146474596,
                0.08220647105793555,
                0.17486375374168994,
                0.3958515917311287,
                -1.1453076820669605
            ]
        },
        {
            "positions": [
                2.690979564601594,
                -2.386717336857031,
                -0.06707987404803806,
                0.2132560432095103,
                0.40788491974689667,
                -1.0419299225832441
            ]
        },
        {
            "positions": [
                2.7547844732185607,
                -2.402996859066602,
                -0.21636621915401166,
                0.25164833267733067,
                0.41991824776266456,
                -0.9385521630995277
            ]
        },
        {
            "positions": [
                2.818589381835528,
                -2.4192763812761737,
                -0.3656525642599857,
                0.29004062214515114,
                0.43195157577843246,
                -0.8351744036158111
            ]
        },
        {
            "positions": [
                2.882394290452494,
                -2.435555903485745,
                -0.5149389093659593,
                0.3284329116129715,
                0.4439849037942004,
                -0.7317966441320947
            ]
        },
        {
            "positions": [
                2.946199199069461,
                -2.4518354256953163,
                -0.6642252544719329,
                0.36682520108079186,
                0.4560182318099683,
                -0.6284188846483785
            ]
        },
        {
            "positions": [
                3.0100041076864277,
                -2.4681149479048874,
                -0.8135115995779065,
                0.4052174905486121,
                0.4680515598257362,
                -0.5250411251646621
            ]
        },
        {
            "positions": [
                3.0738090163033944,
                -2.4843944701144585,
                -0.9627979446838806,
                0.4436097800164326,
                0.48008488784150416,
                -0.4216633656809452
            ]
        },
        {
            "positions": [
                3.137613924920361,
                -2.50067399232403,
                -1.1120842897898544,
                0.48200206948425295,
                0.49211821585727206,
                -0.3182856061972288
            ]
        },
        {
            "positions": [
                3.0421678257876383,
                -2.496710254800153,
                -1.2222051371556018,
                0.5854865957821099,
                0.48765328635318533,
                -0.25603938018830297
            ]
        },
        {
            "positions": [
                2.946721726654916,
                -2.492746517276277,
                -1.332325984521349,
                0.6889711220799669,
                0.48318835684909867,
                -0.1937931541793771
            ]
        },
        {
            "positions": [
                2.851275627522193,
                -2.4887827797524,
                -1.4424468318870964,
                0.7924556483778239,
                0.47872342734501194,
                -0.13154692817045127
            ]
        },
        {
            "positions": [
                2.7558295283894703,
                -2.4848190422285237,
                -1.5525676792528438,
                0.8959401746756809,
                0.4742584978409253,
                -0.0693007021615254
            ]
        },
        {
            "positions": [
                2.660383429256748,
                -2.480855304704647,
                -1.6626885266185911,
                0.9994247009735379,
                0.46979356833683855,
                -0.0070544761525996
            ]
        }
    ]
}