{
    "goal": {
        "global_pose": {
            "orientation": {
                "w": 0.7047431468963623,
                "x": -0.7094548344612122,
                "y": 0.0024358443915843964,
                "z": -0.0022348060738295317
            },
            "position": {
                "x": 0.6094750761985779,
                "y": 0.3671506643295288,
                "z": 0.19426114857196808
            }
        },
        "name": "move_to_magneteinheit_A"
    },
    "id": "FMT_move_to_magneteinheit_A_37",
    "joint_names": [
        "shoulder_pan_joint",
        "shoulder_lift_joint",
        "elbow_joint",
        "wrist_1_joint",
        "wrist_2_joint",
        "wrist_3_joint"
    ],
    "metrics": {
        "cart_traj_len": 2.2893662461624213,
        "distance_elbow_joint": 3.8751608958539947,
        "distance_shoulder_lift_joint": 1.0549449615455893,
        "distance_shoulder_pan_joint": 1.2417341258246113,
        "distance_wrist_1_joint": 1.1304598034549902,
        "distance_wrist_2_joint": 1.4355659936426668,
        "distance_wrist_3_joint": 4.3820839355160395,
        "smoothness": 3.5527136926165523e-16,
        "time": 1.306206078,
        "traj_len": 3.622147114052367,
        "weighted_distance": 4.944708624779384
    },
    "planner": "FMT",
    "start": {
        "state": {
            "elbow_joint": -1.919643507792019,
            "shoulder_lift_joint": -0.07675430207160344,
            "shoulder_pan_joint": -1.1188671864651873,
            "wrist_1_joint": 0.42560062535961957,
            "wrist_2_joint": 1.5706038300724876,
            "wrist_3_joint": 1.1188968870953055
        }
    },
    "waypoints": [
        {
            "positions": [
                -1.1188671864651873,
                -0.07675430207160344,
                -1.919643507792019,
                0.42560062535961957,
                1.5706038300724876,
                1.1188968870953055
            ]
        },
        {
            "positions": [
                -1.0645606094540006,
                -0.09020132907534163,
                -1.7764829281423278,
                0.378526820565994,
                1.5586370273967165,
                1.0012393627849507
            ]
        },
        {
            "positions": [
                -1.010254032442814,
                -0.10364835607907981,
                -1.6333223484926362,
                0.3314530157723684,
                1.5466702247209454,
                0.8835818384745959
            ]
        },
        {
            "positions": [
                -0.9559474554316272,
                -0.117095383082818,
                -1.490161768842945,
                0.28437921097874286,
                1.5347034220451743,
                0.7659243141642411
            ]
        },
        {
            "positions": [
                -0.9016408784204405,
                -0.13054241008655618,
                -1.3470011891932536,
                0.23730540618511728,
                1.5227366193694032,
                0.6482667898538863
            ]
        },
        {
            "positions": [
                -0.8473343014092538,
                -0.14398943709029438,
                -1.2038406095435623,
                0.1902316013914917,
                1.510769816693632,
                0.5306092655435315
            ]
        },
        {
            "positions": [
                -0.793027724398067,
                -0.15743646409403256,
                -1.0606800298938708,
                0.14315779659786615,
                1.4988030140178608,
                0.4129517412331767
            ]
        },
        {
            "positions": [
                -0.7387211473868804,
                -0.17088349109777073,
                -0.9175194502441795,
                0.0960839918042406,
                1.4868362113420899,
                0.2952942169228219
            ]
        },
        {
            "positions": [
                -0.6844145703756936,
                -0.1843305181015089,
                -0.7743588705944879,
                0.04901018701061499,
                1.4748694086663185,
                0.17763669261246706
            ]
        },
        {
            "positions": [
                -0.630107993364507,
                -0.1977775451052471,
                -0.6311982909447966,
                0.0019363822169894407,
                1.4629026059905474,
                0.05997916830211225
            ]
        },
        {
            "positions": [
                -0.5758014163533202,
                -0.2112245721089853,
                -0.4880377112951053,
                -0.045137422576636166,
                1.4509358033147763,
                -0.05767835600824256
            ]
        },
        {
            "positions": [
                -0.5214948393421336,
                -0.22467159911272347,
                -0.344877131645414,
                -0.09221122737026172,
                1.4389690006390052,
                -0.17533588031859737
            ]
        },
        {
            "positions": [
                -0.4671882623309468,
                -0.23811862611646167,
                -0.20171655199572247,
                -0.13928503216388727,
                1.4270021979632341,
                -0.2929934046289522
            ]
        },
        {
            "positions": [
                -0.4128816853197601,
                -0.25156565312019985,
                -0.05855597234603116,
                -0.18635883695751282,
                1.415035395287463,
                -0.41065092893930694
            ]
        },
        {
            "positions": [
                -0.3873698460493228,
                -0.29347677742958045,
                0.03735228291149295,
                -0.21104932939264892,
                1.3540831305799563,
                -0.5464859822479463
            ]
        },
        {
            "positions": [
                -0.3618580067788854,
                -0.33538790173896105,
                0.13326053816901706,
                -0.235739821827785,
                1.2931308658724494,
                -0.6823210355565857
            ]
        },
        {
            "positions": [
                -0.3363461675084481,
                -0.37729902604834165,
                0.22916879342654117,
                -0.26043031426292107,
                1.2321786011649427,
                -0.8181560888652251
            ]
        },
        {
            "positions": [
                -0.3108343282380107,
                -0.4192101503577223,
                0.3250770486840653,
                -0.28512080669805717,
                1.171226336457436,
                -0.9539911421738645
            ]
        },
        {
            "positions": [
                -0.2853224889675734,
                -0.4611212746671029,
                0.4209853039415894,
                -0.3098112991331933,
                1.110274071749929,
                -1.089826195482504
            ]
        },
        {
            "positions": [
                -0.2598106496971361,
                -0.5030323989764836,
                0.5168935591991135,
                -0.3345017915683294,
                1.0493218070424224,
                -1.2256612487911434
            ]
        },
        {
            "positions": [
                -0.23429881042669873,
                -0.5449435232858642,
                0.6128018144566376,
                -0.3591922840034655,
                0.9883695423349157,
                -1.3614963020997828
            ]
        },
        {
            "positions": [
                -0.20878697115626138,
                -0.5868546475952447,
                0.7087100697141617,
                -0.3838827764386016,
                0.9274172776274089,
                -1.4973313554084222
            ]
        },
        {
            "positions": [
                -0.18327513188582406,
                -0.6287657719046253,
                0.8046183249716858,
                -0.4085732688737376,
                0.8664650129199021,
                -1.6331664087170616
            ]
        },
        {
            "positions": [
                -0.15776329261538669,
                -0.670676896214006,
                0.90052658022921,
                -0.43326376130887373,
                0.8055127482123954,
                -1.769001462025701
            ]
        },
        {
            "positions": [
                -0.13225145334494937,
                -0.7125880205233867,
                0.9964348354867341,
                -0.45795425374400983,
                0.7445604835048885,
                -1.9048365153343405
            ]
        },
        {
            "positions": [
                -0.10673961407451205,
                -0.7544991448327671,
                1.0923430907442582,
                -0.4826447461791459,
                0.6836082187973818,
                -2.0406715686429795
            ]
        },
        {
            "positions": [
                -0.08122777480407467,
                -0.7964102691421479,
                1.1882513460017823,
                -0.507335238614282,
                0.622655954089875,
                -2.1765066219516194
            ]
        },
        {
            "positions": [
                -0.05571593553363735,
                -0.8383213934515285,
                1.2841596012593064,
                -0.5320257310494181,
                0.5617036893823683,
                -2.3123416752602584
            ]
        },
        {
            "positions": [
                -0.030204096263199975,
                -0.880232517760909,
                1.3800678565168305,
                -0.5567162234845542,
                0.5007514246748614,
                -2.448176728568898
            ]
        },
        {
            "positions": [
                -0.004692256992762656,
                -0.9221436420702896,
                1.4759761117743546,
                -0.5814067159196903,
                0.43979915996735475,
                -2.584011781877537
            ]
        },
        {
            "positions": [
                0.02081958227767472,
                -0.9640547663796704,
                1.5718843670318787,
                -0.6060972083548264,
                0.3788468952598478,
                -2.7198468351861766
            ]
        },
        {
            "positions": [
                0.046331421548111984,
                -1.0059658906890507,
                1.6677926222894028,
                -0.6307877007899625,
                0.31789463055234113,
                -2.855681888494816
            ]
        },
        {
            "positions": [
                0.07184326081854936,
                -1.0478770149984316,
                1.763700877546927,
                -0.6554781932250986,
                0.25694236584483443,
                -2.9915169418034555
            ]
        },
        {
            "positions": [
                0.09735510008898673,
                -1.089788139307812,
                1.859609132804451,
                -0.6801686856602347,
                0.19599010113732773,
                -3.127351995112095
            ]
        },
        {
            "positions": [
                0.12286693935942404,
                -1.1316992636171928,
                1.9555173880619754,
                -0.7048591780953707,
                0.13503783642982073,
                -3.2631870484207344
            ]
        }
    ]
}