{
    "goal": {
        "global_pose": {
            "orientation": {
                "w": 0.5084816217422485,
                "x": -0.49083608388900757,
                "y": 0.5182115435600281,
                "z": -0.4816462993621826
            },
            "position": {
                "x": 0.5540239810943604,
                "y": 0.030875300988554955,
                "z": 0.16403168439865112
            }
        },
        "name": "move_to_storage_A"
    },
    "id": "FMT_move_to_storage_A_91",
    "joint_names": [
        "shoulder_pan_joint",
        "shoulder_lift_joint",
        "elbow_joint",
        "wrist_1_joint",
        "wrist_2_joint",
        "wrist_3_joint"
    ],
    "metrics": {
        "cart_traj_len": 0.35271932429042535,
        "distance_elbow_joint": 0.4499775528346044,
        "distance_shoulder_lift_joint": 0.23423930557518657,
        "distance_shoulder_pan_joint": 0.46197401874681193,
        "distance_wrist_1_joint": 0.23798304565739714,
        "distance_wrist_2_joint": 1.0953599214797585,
        "distance_wrist_3_joint": 0.09278649496591562,
        "smoothness": 6.661338165333112e-16,
        "time": 0.405611938,
        "traj_len": 1.6038454848456176,
        "weighted_distance": 2.0226804731169628
    },
    "planner": "FMT",
    "start": {
        "state": {
            "elbow_joint": 1.9715463870305268,
            "shoulder_lift_joint": -1.1394903361783484,
            "shoulder_pan_joint": 0.12281147578464417,
            "wrist_1_joint": -0.7804599489681411,
            "wrist_2_joint": 0.12958660307563738,
            "wrist_3_joint": -3.1924946282119055
        }
    },
    "waypoints": [
        {
            "positions": [
                0.12281147578464417,
                -1.1394903361783484,
                1.9715463870305268,
                -0.7804599489681411,
                0.12958660307563738,
                -3.1924946282119055
            ]
        },
        {
            "positions": [
                0.05681518739224248,
                -1.1729530941176607,
                2.0358288945783274,
                -0.8144575269191978,
                0.28606659185846,
                -3.179239414645346
            ]
        },
        {
            "positions": [
                -0.009181101000159217,
                -1.2064158520569732,
                2.100111402126128,
                -0.8484551048702546,
                0.4425465806412826,
                -3.165984201078787
            ]
        },
        {
            "positions": [
                -0.07517738939256093,
                -1.2398786099962855,
                2.1643939096739286,
                -0.8824526828213113,
                0.5990265694241053,
                -3.1527289875122273
            ]
        },
        {
            "positions": [
                -0.1411736777849626,
                -1.2733413679355978,
                2.2286764172217293,
                -0.916450260772368,
                0.7555065582069279,
                -3.139473773945668
            ]
        },
        {
            "positions": [
                -0.20716996617736433,
                -1.3068041258749101,
                2.29295892476953,
                -0.9504478387234248,
                0.9119865469897506,
                -3.1262185603791086
            ]
        },
        {
            "positions": [
                -0.273166254569766,
                -1.3402668838142227,
                2.3572414323173305,
                -0.9844454166744815,
                1.0684665357725731,
                -3.1129633468125495
            ]
        },
        {
            "positions": [
                -0.33916254296216775,
                -1.373729641753535,
                2.421523939865131,
                -1.0184429946255382,
                1.2249465245553959,
                -3.09970813324599
            ]
        }
    ]
}