{
    "goal": {
        "global_pose": {
            "orientation": {
                "w": 0.5084816217422485,
                "x": -0.49083608388900757,
                "y": 0.5182115435600281,
                "z": -0.4816462993621826
            },
            "position": {
                "x": 0.5540239810943604,
                "y": 0.030875300988554955,
                "z": 0.16403168439865112
            }
        },
        "name": "move_to_storage_A"
    },
    "id": "FMT_move_to_storage_A_138",
    "joint_names": [
        "shoulder_pan_joint",
        "shoulder_lift_joint",
        "elbow_joint",
        "wrist_1_joint",
        "wrist_2_joint",
        "wrist_3_joint"
    ],
    "metrics": {
        "cart_traj_len": 0.35385045544091204,
        "distance_elbow_joint": 0.45226153813251013,
        "distance_shoulder_lift_joint": 0.23513993650000176,
        "distance_shoulder_pan_joint": 0.46390598247191356,
        "distance_wrist_1_joint": 0.25049018855357363,
        "distance_wrist_2_joint": 1.0957896359311807,
        "distance_wrist_3_joint": 0.09175693001372176,
        "smoothness": 4.440892098500626e-16,
        "time": 0.373940502,
        "traj_len": 1.6091439375030756,
        "weighted_distance": 2.029565937858413
    },
    "planner": "FMT",
    "start": {
        "state": {
            "elbow_joint": 1.9715463870305268,
            "shoulder_lift_joint": -1.1394903361783484,
            "shoulder_pan_joint": 0.12281147578464417,
            "wrist_1_joint": -0.7804599489681411,
            "wrist_2_joint": 0.12958660307563738,
            "wrist_3_joint": -3.1924946282119055
        }
    },
    "waypoints": [
        {
            "positions": [
                0.12281147578464417,
                -1.1394903361783484,
                1.9715463870305268,
                -0.7804599489681411,
                0.12958660307563738,
                -3.1924946282119055
            ]
        },
        {
            "positions": [
                0.05653919257437082,
                -1.1730817556783486,
                2.0361551781923137,
                -0.8162442616186516,
                0.28612797963723463,
                -3.1793864953528024
            ]
        },
        {
            "positions": [
                -0.009733090635902539,
                -1.2066731751783488,
                2.100763969354101,
                -0.8520285742691621,
                0.44266935619883185,
                -3.166278362493699
            ]
        },
        {
            "positions": [
                -0.07600537384617591,
                -1.240264594678349,
                2.165372760515888,
                -0.8878128869196726,
                0.5992107327604291,
                -3.153170229634596
            ]
        },
        {
            "positions": [
                -0.14227765705644924,
                -1.2738560141783495,
                2.2299815516776755,
                -0.9235971995701832,
                0.7557521093220264,
                -3.1400620967754933
            ]
        },
        {
            "positions": [
                -0.20854994026672263,
                -1.3074474336783497,
                2.2945903428394625,
                -0.9593815122206937,
                0.9122934858836237,
                -3.12695396391639
            ]
        },
        {
            "positions": [
                -0.274822223476996,
                -1.34103885317835,
                2.3591991340012495,
                -0.9951658248712042,
                1.0688348624452209,
                -3.113845831057287
            ]
        },
        {
            "positions": [
                -0.34109450668726937,
                -1.3746302726783501,
                2.423807925163037,
                -1.0309501375217147,
                1.2253762390068181,
                -3.100737698198184
            ]
        }
    ]
}