{
    "goal": {
        "global_pose": {
            "orientation": {
                "w": 0.7047431468963623,
                "x": -0.7094548344612122,
                "y": 0.0024358443915843964,
                "z": -0.0022348060738295317
            },
            "position": {
                "x": 0.6094750761985779,
                "y": 0.3671506643295288,
                "z": 0.19426114857196808
            }
        },
        "name": "move_to_magneteinheit_A"
    },
    "id": "FMT_move_to_magneteinheit_A_81",
    "joint_names": [
        "shoulder_pan_joint",
        "shoulder_lift_joint",
        "elbow_joint",
        "wrist_1_joint",
        "wrist_2_joint",
        "wrist_3_joint"
    ],
    "metrics": {
        "cart_traj_len": 2.0657295739876003,
        "distance_elbow_joint": 3.878280765818406,
        "distance_shoulder_lift_joint": 1.0552521236873307,
        "distance_shoulder_pan_joint": 1.2423861935535079,
        "distance_wrist_1_joint": 1.142017746175326,
        "distance_wrist_2_joint": 1.4349272338749715,
        "distance_wrist_3_joint": 4.3603035581236185,
        "smoothness": 1.0658141053076314e-15,
        "time": 1.2943074430000001,
        "traj_len": 3.6212107949183463,
        "weighted_distance": 4.940720566631015
    },
    "planner": "FMT",
    "start": {
        "state": {
            "elbow_joint": -1.919643507792019,
            "shoulder_lift_joint": -0.07675430207160344,
            "shoulder_pan_joint": -1.1188671864651873,
            "wrist_1_joint": 0.42560062535961957,
            "wrist_2_joint": 1.5706038300724876,
            "wrist_3_joint": 1.1188968870953055
        }
    },
    "waypoints": [
        {
            "positions": [
                -1.1188671864651873,
                -0.07675430207160344,
                -1.919643507792019,
                0.42560062535961957,
                1.5706038300724876,
                1.1188968870953055
            ]
        },
        {
            "positions": [
                -1.0816143480893838,
                -0.1082958258467974,
                -1.8031569377539445,
                0.3917460300588217,
                1.5272448730653037,
                0.9872224594392844
            ]
        },
        {
            "positions": [
                -1.0443615097135805,
                -0.13983734962199135,
                -1.6866703677158699,
                0.35789143475802376,
                1.4838859160581197,
                0.8555480317832632
            ]
        },
        {
            "positions": [
                -1.007108671337777,
                -0.17137887339718527,
                -1.5701837976777953,
                0.3240368394572259,
                1.4405269590509358,
                0.723873604127242
            ]
        },
        {
            "positions": [
                -0.9698558329619735,
                -0.20292039717237922,
                -1.4536972276397209,
                0.290182244156428,
                1.3971680020437516,
                0.5921991764712209
            ]
        },
        {
            "positions": [
                -0.9326029945861701,
                -0.23446192094757318,
                -1.3372106576016463,
                0.2563276488556301,
                1.3538090450365676,
                0.46052474881519967
            ]
        },
        {
            "positions": [
                -0.8953501562103667,
                -0.26600344472276716,
                -1.2207240875635716,
                0.2224730535548322,
                1.3104500880293837,
                0.32885032115917856
            ]
        },
        {
            "positions": [
                -0.8580973178345632,
                -0.2975449684979611,
                -1.104237517525497,
                0.1886184582540343,
                1.2670911310221997,
                0.19717589350315734
            ]
        },
        {
            "positions": [
                -0.8208444794587598,
                -0.329086492273155,
                -0.9877509474874224,
                0.1547638629532364,
                1.2237321740150158,
                0.06550146584713623
            ]
        },
        {
            "positions": [
                -0.7835916410829564,
                -0.36062801604834893,
                -0.8712643774493478,
                0.12090926765243853,
                1.1803732170078318,
                -0.06617296180888488
            ]
        },
        {
            "positions": [
                -0.7463388027071529,
                -0.3921695398235429,
                -0.7547778074112732,
                0.0870546723516406,
                1.1370142600006479,
                -0.1978473894649062
            ]
        },
        {
            "positions": [
                -0.7090859643313495,
                -0.42371106359873684,
                -0.6382912373731988,
                0.05320007705084279,
                1.093655302993464,
                -0.3295218171209271
            ]
        },
        {
            "positions": [
                -0.671833125955546,
                -0.4552525873739308,
                -0.521804667335124,
                0.019345481750044857,
                1.05029634598628,
                -0.4611962447769484
            ]
        },
        {
            "positions": [
                -0.6345802875797426,
                -0.4867941111491247,
                -0.4053180972970496,
                -0.014509113550753017,
                1.0069373889790958,
                -0.5928706724329695
            ]
        },
        {
            "positions": [
                -0.5973274492039391,
                -0.5183356349243187,
                -0.28883152725897476,
                -0.048363708851550946,
                0.9635784319719118,
                -0.7245451000889909
            ]
        },
        {
            "positions": [
                -0.5600746108281357,
                -0.5498771586995126,
                -0.17234495722090037,
                -0.08221830415234882,
                0.920219474964728,
                -0.8562195277450118
            ]
        },
        {
            "positions": [
                -0.5228217724523323,
                -0.5814186824747065,
                -0.055858387182825764,
                -0.11607289945314675,
                0.8768605179575439,
                -0.9878939554010331
            ]
        },
        {
            "positions": [
                -0.4855689340765288,
                -0.6129602062499004,
                0.06062818285524885,
                -0.14992749475394457,
                0.83350156095036,
                -1.1195683830570542
            ]
        },
        {
            "positions": [
                -0.4483160957007254,
                -0.6445017300250944,
                0.17711475289332346,
                -0.1837820900547425,
                0.790142603943176,
                -1.2512428107130753
            ]
        },
        {
            "positions": [
                -0.4110632573249219,
                -0.6760432538002885,
                0.29360132293139807,
                -0.21763668535554043,
                0.746783646935992,
                -1.3829172383690969
            ]
        },
        {
            "positions": [
                -0.3738104189491185,
                -0.7075847775754824,
                0.4100878929694727,
                -0.25149128065633836,
                0.703424689928808,
                -1.514591666025118
            ]
        },
        {
            "positions": [
                -0.3365575805733151,
                -0.7391263013506764,
                0.5265744630075473,
                -0.2853458759571362,
                0.6600657329216241,
                -1.6462660936811386
            ]
        },
        {
            "positions": [
                -0.2993047421975117,
                -0.7706678251258703,
                0.6430610330456215,
                -0.319200471257934,
                0.6167067759144401,
                -1.7779405213371597
            ]
        },
        {
            "positions": [
                -0.26205190382170807,
                -0.8022093489010642,
                0.7595476030836965,
                -0.35305506655873203,
                0.5733478189072561,
                -1.9096149489931813
            ]
        },
        {
            "positions": [
                -0.22479906544590467,
                -0.8337508726762581,
                0.8760341731217711,
                -0.38690966185952985,
                0.5299888619000721,
                -2.0412893766492024
            ]
        },
        {
            "positions": [
                -0.18754622707010127,
                -0.8652923964514521,
                0.9925207431598453,
                -0.4207642571603278,
                0.48662990489288815,
                -2.1729638043052235
            ]
        },
        {
            "positions": [
                -0.15029338869429787,
                -0.896833920226646,
                1.10900731319792,
                -0.4546188524611256,
                0.4432709478857042,
                -2.3046382319612446
            ]
        },
        {
            "positions": [
                -0.11304055031849436,
                -0.9283754440018399,
                1.225493883235995,
                -0.48847344776192364,
                0.39991199087852003,
                -2.436312659617266
            ]
        },
        {
            "positions": [
                -0.07578771194269085,
                -0.9599169677770338,
                1.3419804532740696,
                -0.5223280430627215,
                0.3565530338713361,
                -2.5679870872732873
            ]
        },
        {
            "positions": [
                -0.03853487356688756,
                -0.9914584915522278,
                1.4584670233121437,
                -0.5561826383635193,
                0.31319407686415235,
                -2.699661514929308
            ]
        },
        {
            "positions": [
                -0.0012820351910840522,
                -1.0230000153274217,
                1.5749535933502183,
                -0.5900372336643172,
                0.2698351198569684,
                -2.831335942585329
            ]
        },
        {
            "positions": [
                0.03597080318471946,
                -1.0545415391026158,
                1.6914401633882934,
                -0.6238918289651152,
                0.22647616284978422,
                -2.9630103702413506
            ]
        },
        {
            "positions": [
                0.07322364156052275,
                -1.0860830628778098,
                1.8079267334263676,
                -0.657746424265913,
                0.18311720584260027,
                -3.0946847978973717
            ]
        },
        {
            "positions": [
                0.11047647993632631,
                -1.1176245866530037,
                1.924413303464442,
                -0.6916010195667108,
                0.13975824883541627,
                -3.226359225553393
            ]
        },
        {
            "positions": [
                0.12351900708832056,
                -1.1320064257589342,
                1.9586372580263869,
                -0.7164171208157065,
                0.13567659619751612,
                -3.2414066710283125
            ]
        }
    ]
}