{
    "goal": {
        "global_pose": {
            "orientation": {
                "w": -0.00223480608172531,
                "x": 0.0024358444001904467,
                "y": 0.7094548369677653,
                "z": -0.704743149386269
            },
            "position": {
                "x": 0.6205249238014221,
                "y": -0.6371506643295288,
                "z": 0.19426114857196808
            }
        },
        "name": "move_to_magneteinheit_B"
    },
    "id": "FMT_move_to_magneteinheit_B_7",
    "joint_names": [
        "shoulder_pan_joint",
        "shoulder_lift_joint",
        "elbow_joint",
        "wrist_1_joint",
        "wrist_2_joint",
        "wrist_3_joint"
    ],
    "metrics": {
        "cart_traj_len": 3.535997355302645,
        "distance_elbow_joint": 4.738387037646959,
        "distance_shoulder_lift_joint": 1.0365435400139287,
        "distance_shoulder_pan_joint": 2.1280893399874095,
        "distance_wrist_1_joint": 1.8343287883584867,
        "distance_wrist_2_joint": 0.22560264787622641,
        "distance_wrist_3_joint": 3.161956670499728,
        "smoothness": 0.2925235311086901,
        "time": 1.399989137,
        "traj_len": 3.6228314926839666,
        "weighted_distance": 4.6377529905781865
    },
    "planner": "FMT",
    "start": {
        "state": {
            "elbow_joint": 2.39358713078474,
            "shoulder_lift_joint": -1.908514104345545,
            "shoulder_pan_joint": 0.7066247066606129,
            "wrist_1_joint": -0.4678290933515497,
            "wrist_2_joint": 0.7096259083745334,
            "wrist_3_joint": -3.1358149277392293
        }
    },
    "waypoints": [
        {
            "positions": [
                0.7066247066606129,
                -1.908514104345545,
                2.39358713078474,
                -0.4678290933515497,
                0.7096259083745334,
                -3.1358149277392293
            ]
        },
        {
            "positions": [
                0.7992214256268882,
                -1.9427061646013397,
                2.426660797786202,
                -0.5334941003951246,
                0.6873319653338502,
                -3.091923548247111
            ]
        },
        {
            "positions": [
                0.8918181445931634,
                -1.9768982248571343,
                2.4597344647876644,
                -0.5991591074386995,
                0.665038022293167,
                -3.048032168754992
            ]
        },
        {
            "positions": [
                0.9844148635594387,
                -2.011090285112929,
                2.4928081317891264,
                -0.6648241144822744,
                0.6427440792524838,
                -3.0041407892628733
            ]
        },
        {
            "positions": [
                1.0610625107317104,
                -2.0008782173312802,
                2.30281270184576,
                -0.6232653379304238,
                0.6380371699779291,
                -2.932492626851555
            ]
        },
        {
            "positions": [
                1.1377101579039821,
                -1.9906661495496312,
                2.1128172719023937,
                -0.5817065613785732,
                0.6333302607033745,
                -2.8608444644402367
            ]
        },
        {
            "positions": [
                1.214357805076254,
                -1.9804540817679823,
                1.9228218419590275,
                -0.5401477848267227,
                0.62862335142882,
                -2.789196302028918
            ]
        },
        {
            "positions": [
                1.2910054522485257,
                -1.9702420139863333,
                1.7328264120156611,
                -0.4985890082748722,
                0.6239164421542653,
                -2.7175481396175996
            ]
        },
        {
            "positions": [
                1.3676530994207974,
                -1.9600299462046844,
                1.542830982072295,
                -0.4570302317230216,
                0.6192095328797107,
                -2.6458999772062812
            ]
        },
        {
            "positions": [
                1.4443007465930693,
                -1.9498178784230353,
                1.3528355521289286,
                -0.415471455171171,
                0.6145026236051561,
                -2.574251814794963
            ]
        },
        {
            "positions": [
                1.520948393765341,
                -1.9396058106413865,
                1.162840122185562,
                -0.3739126786193204,
                0.6097957143306014,
                -2.5026036523836446
            ]
        },
        {
            "positions": [
                1.5975960409376126,
                -1.9293937428597376,
                0.9728446922421958,
                -0.3323539020674699,
                0.6050888050560469,
                -2.430955489972326
            ]
        },
        {
            "positions": [
                1.6742436881098843,
                -1.9191816750780886,
                0.7828492622988295,
                -0.2907951255156193,
                0.6003818957814923,
                -2.3593073275610075
            ]
        },
        {
            "positions": [
                1.750891335282156,
                -1.9089696072964397,
                0.5928538323554633,
                -0.24923634896376878,
                0.5956749865069376,
                -2.287659165149689
            ]
        },
        {
            "positions": [
                1.827538982454428,
                -1.8987575395147906,
                0.4028584024120967,
                -0.2076775724119182,
                0.590968077232383,
                -2.2160110027383704
            ]
        },
        {
            "positions": [
                1.9041866296266996,
                -1.8885454717331418,
                0.21286297246873076,
                -0.16611879586006761,
                0.5862611679578285,
                -2.1443628403270525
            ]
        },
        {
            "positions": [
                1.9808342767989713,
                -1.8783334039514927,
                0.02286754252536438,
                -0.12456001930821714,
                0.5815542586832738,
                -2.0727146779157337
            ]
        },
        {
            "positions": [
                2.057481923971243,
                -1.8681213361698439,
                -0.16712788741800244,
                -0.08300124275636644,
                0.5768473494087192,
                -2.0010665155044154
            ]
        },
        {
            "positions": [
                2.134129571143515,
                -1.857909268388195,
                -0.3571233173613684,
                -0.04144246620451597,
                0.5721404401341645,
                -1.9294183530930968
            ]
        },
        {
            "positions": [
                2.2107772183157866,
                -1.847697200606546,
                -0.5471187473047348,
                0.00011631034733461387,
                0.5674335308596099,
                -1.8577701906817785
            ]
        },
        {
            "positions": [
                2.2874248654880582,
                -1.8374851328248971,
                -0.7371141772481007,
                0.0416750868991852,
                0.5627266215850554,
                -1.7861220282704602
            ]
        },
        {
            "positions": [
                2.3640725126603304,
                -1.827273065043248,
                -0.9271096071914675,
                0.08323386345103578,
                0.5580197123105007,
                -1.7144738658591416
            ]
        },
        {
            "positions": [
                2.440720159832602,
                -1.8170609972615992,
                -1.117105037134834,
                0.12479264000288637,
                0.5533128030359461,
                -1.6428257034478233
            ]
        },
        {
            "positions": [
                2.5173678070048737,
                -1.8068489294799501,
                -1.3071004670781998,
                0.16635141655473684,
                0.5486058937613915,
                -1.5711775410365048
            ]
        },
        {
            "positions": [
                2.5940154541771454,
                -1.7966368616983013,
                -1.4970958970215662,
                0.20791019310658743,
                0.5438989844868369,
                -1.4995293786251864
            ]
        },
        {
            "positions": [
                2.670663101349417,
                -1.7864247939166522,
                -1.687091326964933,
                0.249468969658438,
                0.5391920752122823,
                -1.4278812162138679
            ]
        },
        {
            "positions": [
                2.7473107485216888,
                -1.7762127261350034,
                -1.877086756908299,
                0.29102774621028854,
                0.5344851659377277,
                -1.3562330538025495
            ]
        },
        {
            "positions": [
                2.7426503099218325,
                -1.8534918495466703,
                -1.885374260776418,
                0.38125943247962596,
                0.5294372628047967,
                -1.1874761540101064
            ]
        },
        {
            "positions": [
                2.7379898713219757,
                -1.9307709729583376,
                -1.8936617646445368,
                0.4714911187489633,
                0.5243893596718657,
                -1.018719254217663
            ]
        },
        {
            "positions": [
                2.733329432722119,
                -2.0080500963700048,
                -1.9019492685126558,
                0.5617228050183007,
                0.5193414565389347,
                -0.84996235442522
            ]
        },
        {
            "positions": [
                2.7286689941222626,
                -2.0853292197816717,
                -1.9102367723807747,
                0.6519544912876382,
                0.5142935534060038,
                -0.6812054546327767
            ]
        },
        {
            "positions": [
                2.714916685376881,
                -2.163323881106062,
                -1.8630125458862405,
                0.7160655235792079,
                0.5082394948244644,
                -0.5397360151541218
            ]
        },
        {
            "positions": [
                2.7011643766314997,
                -2.241318542430452,
                -1.8157883193917062,
                0.7801765558707778,
                0.5021854362429251,
                -0.3982665756754669
            ]
        },
        {
            "positions": [
                2.687412067886118,
                -2.319313203754842,
                -1.768564092897172,
                0.8442875881623476,
                0.4961313776613857,
                -0.25679713619681205
            ]
        },
        {
            "positions": [
                2.6736597591407367,
                -2.397307865079232,
                -1.7213398664026376,
                0.9083986204539174,
                0.49007731907984636,
                -0.11532769671815712
            ]
        },
        {
            "positions": [
                2.6599074503953553,
                -2.475302526403622,
                -1.6741156399081034,
                0.9725096527454873,
                0.484023260498307,
                0.026141742760497712
            ]
        }
    ]
}