{
    "goal": {
        "global_pose": {
            "orientation": {
                "w": 0.5084816217422485,
                "x": -0.49083608388900757,
                "y": 0.5182115435600281,
                "z": -0.4816462993621826
            },
            "position": {
                "x": 0.5540239810943604,
                "y": 0.030875300988554955,
                "z": 0.16403168439865112
            }
        },
        "name": "move_to_storage_A"
    },
    "id": "FMT_move_to_storage_A_11",
    "joint_names": [
        "shoulder_pan_joint",
        "shoulder_lift_joint",
        "elbow_joint",
        "wrist_1_joint",
        "wrist_2_joint",
        "wrist_3_joint"
    ],
    "metrics": {
        "cart_traj_len": 0.3530581397086682,
        "distance_elbow_joint": 0.4499707341662864,
        "distance_shoulder_lift_joint": 0.235062511820207,
        "distance_shoulder_pan_joint": 0.46281536705943677,
        "distance_wrist_1_joint": 0.24037613467959462,
        "distance_wrist_2_joint": 1.0943198235018217,
        "distance_wrist_3_joint": 0.09945878973648581,
        "smoothness": 1.5543122359444028e-15,
        "time": 0.392710273,
        "traj_len": 1.606861338437089,
        "weighted_distance": 2.0286983261732683
    },
    "planner": "FMT",
    "start": {
        "state": {
            "elbow_joint": 1.9715463870305268,
            "shoulder_lift_joint": -1.1394903361783484,
            "shoulder_pan_joint": 0.12281147578464417,
            "wrist_1_joint": -0.7804599489681411,
            "wrist_2_joint": 0.12958660307563738,
            "wrist_3_joint": -3.1924946282119055
        }
    },
    "waypoints": [
        {
            "positions": [
                0.12281147578464417,
                -1.1394903361783484,
                1.9715463870305268,
                -0.7804599489681411,
                0.12958660307563738,
                -3.1924946282119055
            ]
        },
        {
            "positions": [
                0.05669499477615321,
                -1.1730706950098064,
                2.0358279204828533,
                -0.8147993967795117,
                0.28591800643304044,
                -3.178286229678122
            ]
        },
        {
            "positions": [
                -0.009421486232337753,
                -1.2066510538412647,
                2.10010945393518,
                -0.8491388445908824,
                0.4422494097904436,
                -3.164077831144338
            ]
        },
        {
            "positions": [
                -0.07553796724082872,
                -1.2402314126727227,
                2.1643909873875065,
                -0.8834782924022531,
                0.5985808131478466,
                -3.1498694326105543
            ]
        },
        {
            "positions": [
                -0.14165444824931966,
                -1.273811771504181,
                2.228672520839833,
                -0.9178177402136237,
                0.7549122165052498,
                -3.135661034076771
            ]
        },
        {
            "positions": [
                -0.20777092925781065,
                -1.307392130335639,
                2.29295405429216,
                -0.9521571880249944,
                0.9112436198626529,
                -3.1214526355429872
            ]
        },
        {
            "positions": [
                -0.2738874102663016,
                -1.3409724891670973,
                2.3572355877444866,
                -0.986496635836365,
                1.0675750232200558,
                -3.1072442370092035
            ]
        },
        {
            "positions": [
                -0.3400038912747926,
                -1.3745528479985554,
                2.421517121196813,
                -1.0208360836477357,
                1.223906426577459,
                -3.0930358384754197
            ]
        }
    ]
}