{
    "goal": {
        "global_pose": {
            "orientation": {
                "w": 0.7047431468963623,
                "x": -0.7094548344612122,
                "y": 0.0024358443915843964,
                "z": -0.0022348060738295317
            },
            "position": {
                "x": 0.6094750761985779,
                "y": 0.3671506643295288,
                "z": 0.19426114857196808
            }
        },
        "name": "move_to_magneteinheit_A"
    },
    "id": "FMT_move_to_magneteinheit_A_82",
    "joint_names": [
        "shoulder_pan_joint",
        "shoulder_lift_joint",
        "elbow_joint",
        "wrist_1_joint",
        "wrist_2_joint",
        "wrist_3_joint"
    ],
    "metrics": {
        "cart_traj_len": 2.397138215809432,
        "distance_elbow_joint": 3.8810144391196006,
        "distance_shoulder_lift_joint": 1.05658423232513,
        "distance_shoulder_pan_joint": 1.241923694536482,
        "distance_wrist_1_joint": 1.153031683622787,
        "distance_wrist_2_joint": 1.4375750735482682,
        "distance_wrist_3_joint": 4.356092874646885,
        "smoothness": 6.167905703597928e-16,
        "time": 1.3121420049999999,
        "traj_len": 3.6230128343409373,
        "weighted_distance": 4.942571648875105
    },
    "planner": "FMT",
    "start": {
        "state": {
            "elbow_joint": -1.919643507792019,
            "shoulder_lift_joint": -0.07675430207160344,
            "shoulder_pan_joint": -1.1188671864651873,
            "wrist_1_joint": 0.42560062535961957,
            "wrist_2_joint": 1.5706038300724876,
            "wrist_3_joint": 1.1188968870953055
        }
    },
    "waypoints": [
        {
            "positions": [
                -1.1188671864651873,
                -0.07675430207160344,
                -1.919643507792019,
                0.42560062535961957,
                1.5706038300724876,
                1.1188968870953055
            ]
        },
        {
            "positions": [
                -1.078559459104368,
                -0.12157571059775209,
                -1.9046052578817652,
                0.38478400255564865,
                1.5320007117622785,
                0.9481140354192557
            ]
        },
        {
            "positions": [
                -1.0382517317435485,
                -0.16639711912390073,
                -1.8895670079715114,
                0.3439673797516778,
                1.4933975934520696,
                0.7773311837432056
            ]
        },
        {
            "positions": [
                -0.9979440043827291,
                -0.2112185276500494,
                -1.8745287580612575,
                0.3031507569477069,
                1.4547944751418604,
                0.6065483320671556
            ]
        },
        {
            "positions": [
                -0.9576362770219097,
                -0.256039936176198,
                -1.8594905081510036,
                0.26233413414373596,
                1.4161913568316513,
                0.43576548039110574
            ]
        },
        {
            "positions": [
                -0.9173285496610902,
                -0.30086134470234666,
                -1.8444522582407497,
                0.22151751133976505,
                1.3775882385214424,
                0.26498262871505585
            ]
        },
        {
            "positions": [
                -0.8770208223002709,
                -0.34568275322849534,
                -1.8294140083304957,
                0.18070088853579416,
                1.3389851202112333,
                0.09419977703900573
            ]
        },
        {
            "positions": [
                -0.8367130949394515,
                -0.390504161754644,
                -1.814375758420242,
                0.13988426573182328,
                1.3003820019010242,
                -0.07658307463704417
            ]
        },
        {
            "positions": [
                -0.796405367578632,
                -0.4353255702807926,
                -1.799337508509988,
                0.09906764292785239,
                1.2617788835908152,
                -0.24736592631309412
            ]
        },
        {
            "positions": [
                -0.7623512240360422,
                -0.4611779022850867,
                -1.6600520107382262,
                0.0684565799207776,
                1.2199733233290895,
                -0.3581003730256307
            ]
        },
        {
            "positions": [
                -0.7282970804934522,
                -0.4870302342893808,
                -1.5207665129664645,
                0.037845516913702804,
                1.1781677630673637,
                -0.4688348197381672
            ]
        },
        {
            "positions": [
                -0.6942429369508624,
                -0.5128825662936749,
                -1.3814810151947026,
                0.007234453906628011,
                1.136362202805638,
                -0.5795692664507037
            ]
        },
        {
            "positions": [
                -0.6601887934082724,
                -0.5387348982979691,
                -1.2421955174229407,
                -0.023376609100446782,
                1.0945566425439122,
                -0.6903037131632404
            ]
        },
        {
            "positions": [
                -0.6261346498656826,
                -0.5645872303022632,
                -1.102910019651179,
                -0.05398767210752156,
                1.0527510822821864,
                -0.8010381598757768
            ]
        },
        {
            "positions": [
                -0.5920805063230927,
                -0.5904395623065573,
                -0.963624521879417,
                -0.08459873511459637,
                1.0109455220204606,
                -0.9117726065883134
            ]
        },
        {
            "positions": [
                -0.5580263627805028,
                -0.6162918943108513,
                -0.8243390241076552,
                -0.11520979812167115,
                0.9691399617587348,
                -1.0225070533008498
            ]
        },
        {
            "positions": [
                -0.5239722192379128,
                -0.6421442263151454,
                -0.6850535263358934,
                -0.14582086112874595,
                0.9273344014970091,
                -1.1332415000133864
            ]
        },
        {
            "positions": [
                -0.489918075695323,
                -0.6679965583194396,
                -0.5457680285641315,
                -0.17643192413582073,
                0.8855288412352833,
                -1.243975946725923
            ]
        },
        {
            "positions": [
                -0.4558639321527331,
                -0.6938488903237336,
                -0.40648253079236984,
                -0.2070429871428955,
                0.8437232809735575,
                -1.3547103934384594
            ]
        },
        {
            "positions": [
                -0.42180978861014323,
                -0.7197012223280278,
                -0.26719703302060793,
                -0.23765405014997035,
                0.8019177207118318,
                -1.465444840150996
            ]
        },
        {
            "positions": [
                -0.38775564506755333,
                -0.745553554332322,
                -0.12791153524884602,
                -0.26826511315704515,
                0.760112160450106,
                -1.5761792868635325
            ]
        },
        {
            "positions": [
                -0.35370150152496344,
                -0.771405886336616,
                0.01137396252291567,
                -0.2988761761641199,
                0.7183066001883802,
                -1.686913733576069
            ]
        },
        {
            "positions": [
                -0.31964735798237354,
                -0.79725821834091,
                0.15065946029467758,
                -0.3294872391711947,
                0.6765010399266544,
                -1.7976481802886055
            ]
        },
        {
            "positions": [
                -0.2855932144397836,
                -0.8231105503452043,
                0.2899449580664395,
                -0.36009830217826955,
                0.6346954796649287,
                -1.9083826270011424
            ]
        },
        {
            "positions": [
                -0.25153907089719374,
                -0.8489628823494983,
                0.4292304558382012,
                -0.39070936518534427,
                0.5928899194032029,
                -2.0191170737136788
            ]
        },
        {
            "positions": [
                -0.21748492735460379,
                -0.8748152143537924,
                0.5685159536099633,
                -0.4213204281924191,
                0.5510843591414771,
                -2.1298515204262154
            ]
        },
        {
            "positions": [
                -0.18343078381201394,
                -0.9006675463580865,
                0.707801451381725,
                -0.45193149119949383,
                0.5092787988797514,
                -2.240585967138752
            ]
        },
        {
            "positions": [
                -0.149376640269424,
                -0.9265198783623807,
                0.8470869491534867,
                -0.48254255420656866,
                0.4674732386180256,
                -2.3513204138512886
            ]
        },
        {
            "positions": [
                -0.11532249672683414,
                -0.9523722103666747,
                0.9863724469252484,
                -0.5131536172136434,
                0.4256676783562998,
                -2.462054860563825
            ]
        },
        {
            "positions": [
                -0.0812683531842443,
                -0.978224542370969,
                1.1256579446970105,
                -0.5437646802207182,
                0.38386211809457405,
                -2.5727893072763615
            ]
        },
        {
            "positions": [
                -0.04721420964165446,
                -1.004076874375263,
                1.2649434424687722,
                -0.5743757432277931,
                0.3420565578328483,
                -2.683523753988898
            ]
        },
        {
            "positions": [
                -0.013160066099064505,
                -1.029929206379557,
                1.4042289402405344,
                -0.6049868062348679,
                0.3002509975711225,
                -2.7942582007014347
            ]
        },
        {
            "positions": [
                0.02089407744352534,
                -1.0557815383838511,
                1.543514438012296,
                -0.6355978692419426,
                0.25844543730939673,
                -2.904992647413971
            ]
        },
        {
            "positions": [
                0.05494822098611529,
                -1.0816338703881454,
                1.6827999357840577,
                -0.6662089322490174,
                0.21663987704767096,
                -3.0157270941265075
            ]
        },
        {
            "positions": [
                0.08900236452870514,
                -1.1074862023924394,
                1.8220854335558194,
                -0.6968199952560922,
                0.1748343167859452,
                -3.126461540839044
            ]
        },
        {
            "positions": [
                0.12305650807129506,
                -1.1333385343967335,
                1.9613709313275816,
                -0.727431058263167,
                0.1330287565242194,
                -3.2371959875515808
            ]
        }
    ]
}