{
    "goal": {
        "global_pose": {
            "orientation": {
                "w": 0.7031023502349854,
                "x": -0.7110244035720825,
                "y": 0.007748599164187908,
                "z": 0.005598929710686207
            },
            "position": {
                "x": 0.11585023208521307,
                "y": 0.44412534475326537,
                "z": 0.3711530566215515
            }
        },
        "name": "move_to_auspresseinheit_A"
    },
    "id": "FMT_move_to_auspresseinheit_A_2",
    "joint_names": [
        "shoulder_pan_joint",
        "shoulder_lift_joint",
        "elbow_joint",
        "wrist_1_joint",
        "wrist_2_joint",
        "wrist_3_joint"
    ],
    "metrics": {
        "cart_traj_len": 0.6663166110776969,
        "distance_elbow_joint": 0.17681568113694146,
        "distance_shoulder_lift_joint": 0.6579110268773494,
        "distance_shoulder_pan_joint": 1.0471377461030735,
        "distance_wrist_1_joint": 0.554177678935803,
        "distance_wrist_2_joint": 0.5164576698238964,
        "distance_wrist_3_joint": 0.1648458337047729,
        "smoothness": 0.5105525906614585,
        "time": 0.7987147760000001,
        "traj_len": 1.7656006447047523,
        "weighted_distance": 2.125481746040432
    },
    "planner": "FMT",
    "start": {
        "state": {
            "elbow_joint": 2.422574709923281,
            "shoulder_lift_joint": -1.3736533754116391,
            "shoulder_pan_joint": -0.33786336945926293,
            "wrist_1_joint": -1.0288603412921917,
            "wrist_2_joint": 1.2330224858903978,
            "wrist_3_joint": -3.094022268022082
        }
    },
    "waypoints": [
        {
            "positions": [
                -0.33786336945926293,
                -1.3736533754116391,
                2.422574709923281,
                -1.0288603412921917,
                1.2330224858903978,
                -3.094022268022082
            ]
        },
        {
            "positions": [
                -0.2070124922666005,
                -1.4731459661247153,
                2.434948172948327,
                -0.9596393786336174,
                1.180948444700947,
                -3.111054868059284
            ]
        },
        {
            "positions": [
                -0.0761616150739381,
                -1.5726385568377916,
                2.447321635973373,
                -0.8904184159750431,
                1.1288744035114961,
                -3.1280874680964863
            ]
        },
        {
            "positions": [
                0.05468926211872438,
                -1.6721311475508678,
                2.459695098998419,
                -0.8211974533164688,
                1.0768003623220455,
                -3.1451200681336884
            ]
        },
        {
            "positions": [
                0.18554013931138674,
                -1.771623738263944,
                2.4720685620234653,
                -0.7519764906578945,
                1.0247263211325948,
                -3.162152668170891
            ]
        },
        {
            "positions": [
                0.31639101650404927,
                -1.8711163289770203,
                2.4844420250485113,
                -0.68275552799932,
                0.9726522799431438,
                -3.179185268208093
            ]
        },
        {
            "positions": [
                0.4472418936967117,
                -1.9706089196900964,
                2.4968154880735574,
                -0.6135345653407458,
                0.9205782387536932,
                -3.196217868245295
            ]
        },
        {
            "positions": [
                0.534586054679078,
                -1.9502904254904658,
                2.462623853744669,
                -0.5672505976792934,
                0.8525737645246292,
                -3.1753344570847752
            ]
        },
        {
            "positions": [
                0.6219302156614444,
                -1.929971931290835,
                2.4284322194157806,
                -0.520966630017841,
                0.7845692902955653,
                -3.154451045924255
            ]
        },
        {
            "positions": [
                0.7092743766438107,
                -1.9096534370912044,
                2.394240585086892,
                -0.4746826623563887,
                0.7165648160665014,
                -3.133567634763735
            ]
        }
    ]
}