{
    "goal": {
        "global_pose": {
            "orientation": {
                "w": 0.7047431468963623,
                "x": -0.7094548344612122,
                "y": 0.0024358443915843964,
                "z": -0.0022348060738295317
            },
            "position": {
                "x": 0.6094750761985779,
                "y": 0.3671506643295288,
                "z": 0.19426114857196808
            }
        },
        "name": "move_to_magneteinheit_A"
    },
    "id": "FMT_move_to_magneteinheit_A_95",
    "joint_names": [
        "shoulder_pan_joint",
        "shoulder_lift_joint",
        "elbow_joint",
        "wrist_1_joint",
        "wrist_2_joint",
        "wrist_3_joint"
    ],
    "metrics": {
        "cart_traj_len": 1.878973953438069,
        "distance_elbow_joint": 3.913793561345698,
        "distance_shoulder_lift_joint": 0.699375623731632,
        "distance_shoulder_pan_joint": 1.2416023096532522,
        "distance_wrist_1_joint": 1.4932889512215708,
        "distance_wrist_2_joint": 1.7062142520762804,
        "distance_wrist_3_joint": 1.1234727229963322,
        "smoothness": 3.9474596372548008e-16,
        "time": 1.205769019,
        "traj_len": 3.190258206011665,
        "weighted_distance": 3.9527453839471214
    },
    "planner": "FMT",
    "start": {
        "state": {
            "elbow_joint": -1.919643507792019,
            "shoulder_lift_joint": -0.07675430207160344,
            "shoulder_pan_joint": -1.1188671864651873,
            "wrist_1_joint": 0.42560062535961957,
            "wrist_2_joint": 1.5706038300724876,
            "wrist_3_joint": 1.1188968870953055
        }
    },
    "waypoints": [
        {
            "positions": [
                -1.1188671864651873,
                -0.07675430207160344,
                -1.919643507792019,
                0.42560062535961957,
                1.5706038300724876,
                1.1188968870953055
            ]
        },
        {
            "positions": [
                -1.0711132514785238,
                -0.10365336452282006,
                -1.7691129862018,
                0.48303481579121843,
                1.5049802049926306,
                1.0756863977492928
            ]
        },
        {
            "positions": [
                -1.0233593164918602,
                -0.13055242697403668,
                -1.6185824646115807,
                0.5404690062228173,
                1.4393565799127737,
                1.03247590840328
            ]
        },
        {
            "positions": [
                -0.9756053815051967,
                -0.15745148942525328,
                -1.4680519430213617,
                0.5979031966544162,
                1.3737329548329167,
                0.9892654190572672
            ]
        },
        {
            "positions": [
                -0.9278514465185331,
                -0.18435055187646993,
                -1.3175214214311426,
                0.6553373870860151,
                1.30810932975306,
                0.9460549297112544
            ]
        },
        {
            "positions": [
                -0.8800975115318697,
                -0.21124961432768652,
                -1.1669908998409233,
                0.712771577517614,
                1.242485704673203,
                0.9028444403652417
            ]
        },
        {
            "positions": [
                -0.8323435765452061,
                -0.23814867677890314,
                -1.016460378250704,
                0.7702057679492129,
                1.176862079593346,
                0.8596339510192289
            ]
        },
        {
            "positions": [
                -0.7845896415585425,
                -0.2650477392301197,
                -0.8659298566604852,
                0.8276399583808116,
                1.111238454513489,
                0.8164234616732161
            ]
        },
        {
            "positions": [
                -0.7368357065718789,
                -0.29194680168133635,
                -0.7153993350702659,
                0.8850741488124105,
                1.045614829433632,
                0.7732129723272033
            ]
        },
        {
            "positions": [
                -0.6890817715852154,
                -0.318845864132553,
                -0.5648688134800468,
                0.9425083392440095,
                0.9799912043537752,
                0.7300024829811906
            ]
        },
        {
            "positions": [
                -0.6413278365985519,
                -0.3457449265837696,
                -0.4143382918898275,
                0.9999425296756084,
                0.9143675792739182,
                0.6867919936351778
            ]
        },
        {
            "positions": [
                -0.5935739016118883,
                -0.3726439890349862,
                -0.26380777029960845,
                1.0573767201072073,
                0.8487439541940612,
                0.643581504289165
            ]
        },
        {
            "positions": [
                -0.5458199666252247,
                -0.39954305148620284,
                -0.11327724870938916,
                1.1148109105388062,
                0.7831203291142043,
                0.6003710149431523
            ]
        },
        {
            "positions": [
                -0.4980660316385612,
                -0.42644211393741943,
                0.03725327288082991,
                1.172245100970405,
                0.7174967040343474,
                0.5571605255971395
            ]
        },
        {
            "positions": [
                -0.45031209665189775,
                -0.453341176388636,
                0.18778379447104876,
                1.2296792914020038,
                0.6518730789544905,
                0.5139500362511267
            ]
        },
        {
            "positions": [
                -0.40255816166523417,
                -0.4802402388398526,
                0.33831431606126805,
                1.2871134818336027,
                0.5862494538746336,
                0.470739546905114
            ]
        },
        {
            "positions": [
                -0.3548042266785706,
                -0.5071393012910693,
                0.48884483765148734,
                1.3445476722652017,
                0.5206258287947765,
                0.4275290575591011
            ]
        },
        {
            "positions": [
                -0.307050291691907,
                -0.5340383637422859,
                0.6393753592417066,
                1.4019818626968006,
                0.45500220371491973,
                0.3843185682130884
            ]
        },
        {
            "positions": [
                -0.25929635670524354,
                -0.5609374261935025,
                0.7899058808319255,
                1.4594160531283993,
                0.38937857863506276,
                0.3411080788670756
            ]
        },
        {
            "positions": [
                -0.21154242171857995,
                -0.5878364886447192,
                0.9404364024221448,
                1.5168502435599982,
                0.3237549535552058,
                0.2978975895210628
            ]
        },
        {
            "positions": [
                -0.16378848673191637,
                -0.6147355510959358,
                1.090966924012364,
                1.5742844339915971,
                0.2581313284753488,
                0.25468710017505003
            ]
        },
        {
            "positions": [
                -0.11603455174525279,
                -0.6416346135471525,
                1.2414974456025833,
                1.631718624423196,
                0.19250770339549184,
                0.21147661082903724
            ]
        },
        {
            "positions": [
                -0.06828061675858921,
                -0.6685336759983689,
                1.3920279671928022,
                1.689152814854795,
                0.12688407831563486,
                0.16826612148302444
            ]
        },
        {
            "positions": [
                -0.020526681771925848,
                -0.6954327384495855,
                1.5425584887830215,
                1.7465870052863937,
                0.06126045323577811,
                0.12505563213701176
            ]
        },
        {
            "positions": [
                0.027227253214737956,
                -0.7223318009008022,
                1.6930890103732408,
                1.8040211957179928,
                -0.004363171844079083,
                0.08184514279099897
            ]
        },
        {
            "positions": [
                0.07498118820140132,
                -0.7492308633520188,
                1.84361953196346,
                1.8614553861495915,
                -0.06998679692393583,
                0.03863465344498618
            ]
        },
        {
            "positions": [
                0.12273512318806484,
                -0.7761299258032355,
                1.994150053553679,
                1.9188895765811904,
                -0.13561042200379272,
                -0.004575835901026524
            ]
        }
    ]
}