{
    "goal": {
        "global_pose": {
            "orientation": {
                "w": 0.7031023502349854,
                "x": -0.7110244035720825,
                "y": 0.007748599164187908,
                "z": 0.005598929710686207
            },
            "position": {
                "x": 0.11585023208521307,
                "y": 0.44412534475326537,
                "z": 0.3711530566215515
            }
        },
        "name": "move_to_auspresseinheit_A"
    },
    "id": "FMT_move_to_auspresseinheit_A_10",
    "joint_names": [
        "shoulder_pan_joint",
        "shoulder_lift_joint",
        "elbow_joint",
        "wrist_1_joint",
        "wrist_2_joint",
        "wrist_3_joint"
    ],
    "metrics": {
        "cart_traj_len": 0.6888045657765265,
        "distance_elbow_joint": 0.03368237798844609,
        "distance_shoulder_lift_joint": 0.533080840483652,
        "distance_shoulder_pan_joint": 1.0449655093098855,
        "distance_wrist_1_joint": 0.5786210036017623,
        "distance_wrist_2_joint": 0.5251461317813954,
        "distance_wrist_3_joint": 0.05790460997114577,
        "smoothness": 2.9605947279411004e-16,
        "time": 0.433431266,
        "traj_len": 1.6653529575247066,
        "weighted_distance": 1.9982434357359307
    },
    "planner": "FMT",
    "start": {
        "state": {
            "elbow_joint": 2.422574709923281,
            "shoulder_lift_joint": -1.3736533754116391,
            "shoulder_pan_joint": -0.33786336945926293,
            "wrist_1_joint": -1.0288603412921917,
            "wrist_2_joint": 1.2330224858903978,
            "wrist_3_joint": -3.094022268022082
        }
    },
    "waypoints": [
        {
            "positions": [
                -0.33786336945926293,
                -1.3736533754116391,
                2.422574709923281,
                -1.0288603412921917,
                1.2330224858903978,
                -3.094022268022082
            ]
        },
        {
            "positions": [
                -0.20724268079552724,
                -1.4402884804720957,
                2.4183644126747255,
                -0.9565327158419714,
                1.1673792194177233,
                -3.1012603442684754
            ]
        },
        {
            "positions": [
                -0.07662199213179155,
                -1.5069235855325522,
                2.4141541154261694,
                -0.8842050903917511,
                1.101735952945049,
                -3.1084984205148687
            ]
        },
        {
            "positions": [
                0.05399869653194417,
                -1.5735586905930086,
                2.409943818177614,
                -0.8118774649415309,
                1.0360926864723745,
                -3.115736496761262
            ]
        },
        {
            "positions": [
                0.18461938519567983,
                -1.6401937956534651,
                2.405733520929058,
                -0.7395498394913106,
                0.9704494199997,
                -3.122974573007655
            ]
        },
        {
            "positions": [
                0.3152400738594155,
                -1.7068289007139217,
                2.401523223680502,
                -0.6672222140410903,
                0.9048061535270256,
                -3.130212649254048
            ]
        },
        {
            "positions": [
                0.44586076252315127,
                -1.773464005774378,
                2.3973129264319466,
                -0.5948945885908701,
                0.8391628870543513,
                -3.1374507255004414
            ]
        },
        {
            "positions": [
                0.576481451186887,
                -1.8400991108348346,
                2.3931026291833906,
                -0.5225669631406498,
                0.7735196205816768,
                -3.1446888017468346
            ]
        },
        {
            "positions": [
                0.7071021398506225,
                -1.9067342158952911,
                2.388892331934835,
                -0.45023933769042945,
                0.7078763541090024,
                -3.151926877993228
            ]
        }
    ]
}