{
    "goal": {
        "global_pose": {
            "orientation": {
                "w": 0.7031023502349854,
                "x": -0.7110244035720825,
                "y": 0.007748599164187908,
                "z": 0.005598929710686207
            },
            "position": {
                "x": 0.11585023208521307,
                "y": 0.44412534475326537,
                "z": 0.3711530566215515
            }
        },
        "name": "move_to_auspresseinheit_A"
    },
    "id": "FMT_move_to_auspresseinheit_A_14",
    "joint_names": [
        "shoulder_pan_joint",
        "shoulder_lift_joint",
        "elbow_joint",
        "wrist_1_joint",
        "wrist_2_joint",
        "wrist_3_joint"
    ],
    "metrics": {
        "cart_traj_len": 0.68706180426733,
        "distance_elbow_joint": 0.032363042176369206,
        "distance_shoulder_lift_joint": 0.5324968995076318,
        "distance_shoulder_pan_joint": 1.0394120348015425,
        "distance_wrist_1_joint": 0.5748938018189305,
        "distance_wrist_2_joint": 0.5363575726998087,
        "distance_wrist_3_joint": 0.06077811186583171,
        "smoothness": 0.0,
        "time": 0.478402675,
        "traj_len": 1.6662237133320705,
        "weighted_distance": 2.0022759702699617
    },
    "planner": "FMT",
    "start": {
        "state": {
            "elbow_joint": 2.422574709923281,
            "shoulder_lift_joint": -1.3736533754116391,
            "shoulder_pan_joint": -0.33786336945926293,
            "wrist_1_joint": -1.0288603412921917,
            "wrist_2_joint": 1.2330224858903978,
            "wrist_3_joint": -3.094022268022082
        }
    },
    "waypoints": [
        {
            "positions": [
                -0.33786336945926293,
                -1.3736533754116391,
                2.422574709923281,
                -1.0288603412921917,
                1.2330224858903978,
                -3.094022268022082
            ]
        },
        {
            "positions": [
                -0.2079368651090701,
                -1.440215487850093,
                2.4185293296512347,
                -0.9569986160648254,
                1.1659777893029217,
                -3.1016195320053113
            ]
        },
        {
            "positions": [
                -0.0780103607588773,
                -1.5067776002885471,
                2.4144839493791888,
                -0.8851368908374591,
                1.0989330927154457,
                -3.10921679598854
            ]
        },
        {
            "positions": [
                0.05191614359131552,
                -1.573339712727001,
                2.410438569107143,
                -0.8132751656100928,
                1.0318883961279695,
                -3.116814059971769
            ]
        },
        {
            "positions": [
                0.18184264794150834,
                -1.6399018251654551,
                2.4063931888350965,
                -0.7414134403827265,
                0.9648436995404934,
                -3.124411323954998
            ]
        },
        {
            "positions": [
                0.31176915229170116,
                -1.706463937603909,
                2.40234780856305,
                -0.6695517151553602,
                0.8977990029530174,
                -3.132008587938227
            ]
        },
        {
            "positions": [
                0.441695656641894,
                -1.773026050042363,
                2.398302428291004,
                -0.5976899899279939,
                0.8307543063655413,
                -3.139605851921456
            ]
        },
        {
            "positions": [
                0.5716221609920868,
                -1.8395881624808168,
                2.3942570480189582,
                -0.5258282647006276,
                0.7637096097780651,
                -3.1472031159046847
            ]
        },
        {
            "positions": [
                0.7015486653422796,
                -1.906150274919271,
                2.390211667746912,
                -0.4539665394732613,
                0.6966649131905891,
                -3.154800379887914
            ]
        }
    ]
}