{
    "goal": {
        "global_pose": {
            "orientation": {
                "w": -0.00223480608172531,
                "x": 0.0024358444001904467,
                "y": 0.7094548369677653,
                "z": -0.704743149386269
            },
            "position": {
                "x": 0.6205249238014221,
                "y": -0.6371506643295288,
                "z": 0.19426114857196808
            }
        },
        "name": "move_to_magneteinheit_B"
    },
    "id": "FMT_move_to_magneteinheit_B_28",
    "joint_names": [
        "shoulder_pan_joint",
        "shoulder_lift_joint",
        "elbow_joint",
        "wrist_1_joint",
        "wrist_2_joint",
        "wrist_3_joint"
    ],
    "metrics": {
        "cart_traj_len": 3.121682650795431,
        "distance_elbow_joint": 4.052404374441396,
        "distance_shoulder_lift_joint": 0.5758764937170038,
        "distance_shoulder_pan_joint": 1.9534757429591234,
        "distance_wrist_1_joint": 1.9798577338725996,
        "distance_wrist_2_joint": 4.2625323591775786,
        "distance_wrist_3_joint": 3.1252368823261314,
        "smoothness": 0.17080488588767911,
        "time": 1.4227314439999998,
        "traj_len": 3.9936679364331025,
        "weighted_distance": 5.333127360582744
    },
    "planner": "FMT",
    "start": {
        "state": {
            "elbow_joint": 2.39358713078474,
            "shoulder_lift_joint": -1.908514104345545,
            "shoulder_pan_joint": 0.7066247066606129,
            "wrist_1_joint": -0.4678290933515497,
            "wrist_2_joint": 0.7096259083745334,
            "wrist_3_joint": -3.1358149277392293
        }
    },
    "waypoints": [
        {
            "positions": [
                0.7066247066606129,
                -1.908514104345545,
                2.39358713078474,
                -0.4678290933515497,
                0.7096259083745334,
                -3.1358149277392293
            ]
        },
        {
            "positions": [
                0.8355652367147534,
                -1.9527295821470723,
                2.386817863617624,
                -0.4992842522447151,
                0.5960650717297356,
                -3.084175689504066
            ]
        },
        {
            "positions": [
                0.9645057667688938,
                -1.9969450599485996,
                2.380048596450507,
                -0.5307394111378805,
                0.4825042350849376,
                -3.0325364512689026
            ]
        },
        {
            "positions": [
                1.0934462968230343,
                -2.0411605377501267,
                2.373279329283391,
                -0.5621945700310459,
                0.3689433984401397,
                -2.9808972130337392
            ]
        },
        {
            "positions": [
                1.2223868268771745,
                -2.0853760155516543,
                2.3665100621162747,
                -0.5936497289242113,
                0.2553825617953418,
                -2.929257974798576
            ]
        },
        {
            "positions": [
                1.3513273569313151,
                -2.129591493353182,
                2.359740794949158,
                -0.6251048878173767,
                0.14182172515054392,
                -2.877618736563412
            ]
        },
        {
            "positions": [
                1.4802678869854553,
                -2.173806971154709,
                2.3529715277820418,
                -0.6565600467105421,
                0.02826088850574593,
                -2.8259794983282487
            ]
        },
        {
            "positions": [
                1.609208417039596,
                -2.218022448956236,
                2.346202260614925,
                -0.6880152056037075,
                -0.08529994813905195,
                -2.7743402600930853
            ]
        },
        {
            "positions": [
                1.7381489470937364,
                -2.2622379267577637,
                2.339432993447809,
                -0.719470364496873,
                -0.1988607847838499,
                -2.722701021857922
            ]
        },
        {
            "positions": [
                1.7734862640102385,
                -2.2664273454295008,
                2.192692264815714,
                -0.6962515219244679,
                -0.26279625041297316,
                -2.606560554802687
            ]
        },
        {
            "positions": [
                1.8088235809267406,
                -2.270616764101238,
                2.045951536183619,
                -0.6730326793520629,
                -0.3267317160420965,
                -2.490420087747452
            ]
        },
        {
            "positions": [
                1.8441608978432427,
                -2.274806182772975,
                1.899210807551524,
                -0.6498138367796579,
                -0.3906671816712197,
                -2.374279620692217
            ]
        },
        {
            "positions": [
                1.8794982147597448,
                -2.278995601444712,
                1.752470078919429,
                -0.6265949942072528,
                -0.45460264730034305,
                -2.258139153636982
            ]
        },
        {
            "positions": [
                1.9148355316762469,
                -2.283185020116449,
                1.605729350287334,
                -0.6033761516348478,
                -0.5185381129294664,
                -2.141998686581747
            ]
        },
        {
            "positions": [
                1.950172848592749,
                -2.2873744387881865,
                1.458988621655239,
                -0.5801573090624428,
                -0.5824735785585896,
                -2.025858219526512
            ]
        },
        {
            "positions": [
                1.985510165509251,
                -2.2915638574599235,
                1.312247893023144,
                -0.5569384664900378,
                -0.6464090441877128,
                -1.9097177524712772
            ]
        },
        {
            "positions": [
                2.0208474824257534,
                -2.2957532761316606,
                1.165507164391049,
                -0.5337196239176327,
                -0.7103445098168362,
                -1.7935772854160423
            ]
        },
        {
            "positions": [
                2.0561847993422555,
                -2.2999426948033976,
                1.0187664357589539,
                -0.5105007813452277,
                -0.7742799754459595,
                -1.6774368183608073
            ]
        },
        {
            "positions": [
                2.0915221162587576,
                -2.3041321134751347,
                0.8720257071268589,
                -0.48728193877282266,
                -0.8382154410750828,
                -1.5612963513055722
            ]
        },
        {
            "positions": [
                2.1268594331752597,
                -2.3083215321468717,
                0.7252849784947639,
                -0.46406309620041764,
                -0.9021509067042062,
                -1.4451558842503371
            ]
        },
        {
            "positions": [
                2.162196750091762,
                -2.312510950818609,
                0.578544249862669,
                -0.4408442536280126,
                -0.9660863723333293,
                -1.3290154171951023
            ]
        },
        {
            "positions": [
                2.197534067008264,
                -2.316700369490346,
                0.43180352123057375,
                -0.4176254110556076,
                -1.0300218379624526,
                -1.2128749501398672
            ]
        },
        {
            "positions": [
                2.232871383924766,
                -2.320889788162083,
                0.2850627925984792,
                -0.39440656848320255,
                -1.093957303591576,
                -1.0967344830846324
            ]
        },
        {
            "positions": [
                2.268208700841268,
                -2.32507920683382,
                0.1383220639663838,
                -0.3711877259107975,
                -1.1578927692206993,
                -0.9805940160293973
            ]
        },
        {
            "positions": [
                2.3035460177577702,
                -2.3292686255055575,
                -0.008418664665710729,
                -0.3479688833383925,
                -1.2218282348498226,
                -0.8644535489741625
            ]
        },
        {
            "positions": [
                2.3388833346742723,
                -2.3334580441772945,
                -0.15515939329780615,
                -0.32475004076598746,
                -1.285763700478946,
                -0.7483130819189272
            ]
        },
        {
            "positions": [
                2.3742206515907744,
                -2.3376474628490316,
                -0.3019001219299011,
                -0.30153119819358243,
                -1.349699166108069,
                -0.6321726148636926
            ]
        },
        {
            "positions": [
                2.4095579685072765,
                -2.3418368815207686,
                -0.4486408505619961,
                -0.2783123556211774,
                -1.4136346317371924,
                -0.5160321478084575
            ]
        },
        {
            "positions": [
                2.4448952854237787,
                -2.3460263001925057,
                -0.5953815791940911,
                -0.25509351304877237,
                -1.4775700973663157,
                -0.39989168075322246
            ]
        },
        {
            "positions": [
                2.4802326023402808,
                -2.3502157188642427,
                -0.7421223078261858,
                -0.23187467047636734,
                -1.541505562995439,
                -0.2837512136979875
            ]
        },
        {
            "positions": [
                2.5121350219929175,
                -2.3719159141914257,
                -0.8667261560507171,
                -0.14375832992406856,
                -1.4527939247419168,
                -0.24673065814146805
            ]
        },
        {
            "positions": [
                2.544037441645554,
                -2.393616109518608,
                -0.9913300042752485,
                -0.05564198937176976,
                -1.3640822864883946,
                -0.20971010258494857
            ]
        },
        {
            "positions": [
                2.57593986129819,
                -2.415316304845791,
                -1.11593385249978,
                0.03247435118052905,
                -1.2753706482348726,
                -0.1726895470284291
            ]
        },
        {
            "positions": [
                2.607842280950827,
                -2.437016500172974,
                -1.2405377007243112,
                0.12059069173282783,
                -1.1866590099813503,
                -0.13566899147190964
            ]
        },
        {
            "positions": [
                2.6161544378220905,
                -2.4438386525894438,
                -1.2941558134311633,
                0.2170125926760253,
                -1.014287062026087,
                -0.1196579789666918
            ]
        },
        {
            "positions": [
                2.6244665946933545,
                -2.4506608050059135,
                -1.3477739261380153,
                0.31343449361922276,
                -0.841915114070824,
                -0.10364696646147395
            ]
        },
        {
            "positions": [
                2.632778751564618,
                -2.4574829574223838,
                -1.4013920388448673,
                0.40985639456242023,
                -0.6695431661155608,
                -0.08763595395625612
            ]
        },
        {
            "positions": [
                2.641090908435882,
                -2.4643051098388535,
                -1.4550101515517195,
                0.5062782955056178,
                -0.49717121816029763,
                -0.07162494145103827
            ]
        },
        {
            "positions": [
                2.649403065307146,
                -2.4711272622553233,
                -1.5086282642585715,
                0.6027001964488152,
                -0.3247992702050343,
                -0.05561392894582043
            ]
        },
        {
            "positions": [
                2.6577152221784095,
                -2.477949414671793,
                -1.5622463769654236,
                0.6991220973920126,
                -0.15242732224977118,
                -0.039602916440602584
            ]
        },
        {
            "positions": [
                2.6585102979921853,
                -2.480096475802045,
                -1.5944366658625013,
                0.8023300976714761,
                0.055013560104208326,
                -0.029927959431434534
            ]
        },
        {
            "positions": [
                2.6593053738059607,
                -2.482243536932297,
                -1.626626954759579,
                0.9055380979509398,
                0.26245444245818783,
                -0.020253002422266485
            ]
        },
        {
            "positions": [
                2.6601004496197365,
                -2.4843905980625487,
                -1.6588172436566568,
                1.0087460982304033,
                0.4698953248121673,
                -0.01057804541309843
            ]
        }
    ]
}