{
    "goal": {
        "global_pose": {
            "orientation": {
                "w": -0.00223480608172531,
                "x": 0.0024358444001904467,
                "y": 0.7094548369677653,
                "z": -0.704743149386269
            },
            "position": {
                "x": 0.6205249238014221,
                "y": -0.6371506643295288,
                "z": 0.19426114857196808
            }
        },
        "name": "move_to_magneteinheit_B"
    },
    "id": "FMT_move_to_magneteinheit_B_144",
    "joint_names": [
        "shoulder_pan_joint",
        "shoulder_lift_joint",
        "elbow_joint",
        "wrist_1_joint",
        "wrist_2_joint",
        "wrist_3_joint"
    ],
    "metrics": {
        "cart_traj_len": 1.4521470803066296,
        "distance_elbow_joint": 0.7245201101536065,
        "distance_shoulder_lift_joint": 1.245148072401066,
        "distance_shoulder_pan_joint": 1.6208972060925788,
        "distance_wrist_1_joint": 2.6163821694987988,
        "distance_wrist_2_joint": 2.9338846653801207,
        "distance_wrist_3_joint": 3.1348580624716145,
        "smoothness": 2.4980018173577986e-16,
        "time": 1.276125634,
        "traj_len": 3.5036681187004266,
        "weighted_distance": 4.908734383302883
    },
    "planner": "FMT",
    "start": {
        "state": {
            "elbow_joint": 2.39358713078474,
            "shoulder_lift_joint": -1.908514104345545,
            "shoulder_pan_joint": 0.7066247066606129,
            "wrist_1_joint": -0.4678290933515497,
            "wrist_2_joint": 0.7096259083745334,
            "wrist_3_joint": -3.1358149277392293
        }
    },
    "waypoints": [
        {
            "positions": [
                0.7066247066606129,
                -1.908514104345545,
                2.39358713078474,
                -0.4678290933515497,
                0.7096259083745334,
                -3.1358149277392293
            ]
        },
        {
            "positions": [
                0.6543377000124653,
                -1.8683480374938977,
                2.370215514328172,
                -0.38342966852900784,
                0.6149844675558198,
                -3.034690474111113
            ]
        },
        {
            "positions": [
                0.6020506933643175,
                -1.8281819706422504,
                2.346843897871604,
                -0.2990302437064659,
                0.5203430267371063,
                -2.933566020482996
            ]
        },
        {
            "positions": [
                0.5497636867161698,
                -1.788015903790603,
                2.3234722814150364,
                -0.21463081888392405,
                0.42570158591839274,
                -2.8324415668548797
            ]
        },
        {
            "positions": [
                0.49747668006802215,
                -1.7478498369389557,
                2.3001006649584683,
                -0.13023139406138212,
                0.3310601450996792,
                -2.731317113226763
            ]
        },
        {
            "positions": [
                0.4451896734198744,
                -1.7076837700873084,
                2.2767290485019003,
                -0.04583196923884025,
                0.23641870428096556,
                -2.6301926595986465
            ]
        },
        {
            "positions": [
                0.39290266677172675,
                -1.6675177032356612,
                2.2533574320453322,
                0.038567455583701615,
                0.14177726346225206,
                -2.5290682059705296
            ]
        },
        {
            "positions": [
                0.340615660123579,
                -1.627351636384014,
                2.2299858155887646,
                0.12296688040624354,
                0.04713582264353844,
                -2.427943752342413
            ]
        },
        {
            "positions": [
                0.28832865347543135,
                -1.5871855695323667,
                2.2066141991321966,
                0.20736630522878546,
                -0.04750561817517507,
                -2.3268192987142964
            ]
        },
        {
            "positions": [
                0.23604164682728357,
                -1.5470195026807194,
                2.1832425826756285,
                0.2917657300513274,
                -0.1421470589938888,
                -2.22569484508618
            ]
        },
        {
            "positions": [
                0.1837546401791359,
                -1.506853435829072,
                2.1598709662190605,
                0.3761651548738692,
                -0.2367884998126023,
                -2.1245703914580636
            ]
        },
        {
            "positions": [
                0.13146763353098823,
                -1.4666873689774247,
                2.1364993497624925,
                0.46056457969641124,
                -0.3314299406313158,
                -2.0234459378299468
            ]
        },
        {
            "positions": [
                0.07918062688284055,
                -1.4265213021257774,
                2.113127733305925,
                0.544964004518953,
                -0.4260713814500293,
                -1.9223214842018301
            ]
        },
        {
            "positions": [
                0.026893620234692772,
                -1.3863552352741302,
                2.089756116849357,
                0.6293634293414951,
                -0.520712822268743,
                -1.8211970305737135
            ]
        },
        {
            "positions": [
                -0.0253933864134549,
                -1.346189168422483,
                2.0663845003927888,
                0.7137628541640368,
                -0.6153542630874566,
                -1.7200725769455971
            ]
        },
        {
            "positions": [
                -0.07768039306160268,
                -1.3060231015708355,
                2.0430128839362207,
                0.7981622789865788,
                -0.7099957039061703,
                -1.6189481233174803
            ]
        },
        {
            "positions": [
                -0.12996739970975024,
                -1.2658570347191884,
                2.0196412674796527,
                0.8825617038091207,
                -0.8046371447248836,
                -1.5178236696893639
            ]
        },
        {
            "positions": [
                -0.1822544063578979,
                -1.225690967867541,
                1.9962696510230848,
                0.9669611286316624,
                -0.8992785855435971,
                -1.4166992160612473
            ]
        },
        {
            "positions": [
                -0.2345414130060458,
                -1.1855249010158937,
                1.972898034566517,
                1.0513605534542045,
                -0.993920026362311,
                -1.3155747624331304
            ]
        },
        {
            "positions": [
                -0.2868284196541935,
                -1.1453588341642464,
                1.949526418109949,
                1.1357599782767465,
                -1.0885614671810244,
                -1.214450308805014
            ]
        },
        {
            "positions": [
                -0.33911542630234115,
                -1.1051927673125992,
                1.926154801653381,
                1.2201594030992882,
                -1.1832029079997382,
                -1.1133258551768974
            ]
        },
        {
            "positions": [
                -0.3914024329504887,
                -1.065026700460952,
                1.902783185196813,
                1.30455882792183,
                -1.2778443488184514,
                -1.012201401548781
            ]
        },
        {
            "positions": [
                -0.4436894395986365,
                -1.0248606336093045,
                1.879411568740245,
                1.3889582527443722,
                -1.3724857896371652,
                -0.9110769479206642
            ]
        },
        {
            "positions": [
                -0.4959764462467843,
                -0.9846945667576573,
                1.8560399522836772,
                1.473357677566914,
                -1.467127230455879,
                -0.8099524942925478
            ]
        },
        {
            "positions": [
                -0.5482634528949318,
                -0.94452849990601,
                1.8326683358271092,
                1.5577571023894556,
                -1.5617686712745922,
                -0.708828040664431
            ]
        },
        {
            "positions": [
                -0.6005504595430796,
                -0.9043624330543627,
                1.8092967193705412,
                1.6421565272119976,
                -1.656410112093306,
                -0.6077035870363146
            ]
        },
        {
            "positions": [
                -0.6528374661912274,
                -0.8641963662027154,
                1.7859251029139733,
                1.72655595203454,
                -1.7510515529120196,
                -0.5065791334081977
            ]
        },
        {
            "positions": [
                -0.705124472839375,
                -0.8240302993510682,
                1.7625534864574055,
                1.8109553768570814,
                -1.845692993730733,
                -0.4054546797800813
            ]
        },
        {
            "positions": [
                -0.7574114794875227,
                -0.7838642324994209,
                1.7391818700008375,
                1.8953548016796233,
                -1.9403344345494467,
                -0.3043302261519649
            ]
        },
        {
            "positions": [
                -0.8096984861356703,
                -0.7436981656477737,
                1.7158102535442694,
                1.9797542265021653,
                -2.03497587536816,
                -0.20320577252384808
            ]
        },
        {
            "positions": [
                -0.8619854927838183,
                -0.7035320987961262,
                1.6924386370877014,
                2.064153651324707,
                -2.129617316186874,
                -0.10208131889573124
            ]
        },
        {
            "positions": [
                -0.9142724994319658,
                -0.6633660319444791,
                1.6690670206311335,
                2.148553076147249,
                -2.2242587570055874,
                -0.0009568652676146499
            ]
        }
    ]
}