{
    "goal": {
        "global_pose": {
            "orientation": {
                "w": 0.7031023502349854,
                "x": -0.7110244035720825,
                "y": 0.007748599164187908,
                "z": 0.005598929710686207
            },
            "position": {
                "x": 0.11585023208521307,
                "y": 0.44412534475326537,
                "z": 0.3711530566215515
            }
        },
        "name": "move_to_auspresseinheit_A"
    },
    "id": "FMT_move_to_auspresseinheit_A_138",
    "joint_names": [
        "shoulder_pan_joint",
        "shoulder_lift_joint",
        "elbow_joint",
        "wrist_1_joint",
        "wrist_2_joint",
        "wrist_3_joint"
    ],
    "metrics": {
        "cart_traj_len": 0.6873765734089476,
        "distance_elbow_joint": 0.1913047506556298,
        "distance_shoulder_lift_joint": 0.5318093622285165,
        "distance_shoulder_pan_joint": 1.041767127012605,
        "distance_wrist_1_joint": 1.4137466139035755,
        "distance_wrist_2_joint": 0.9183569157293828,
        "distance_wrist_3_joint": 0.6212522888339067,
        "smoothness": 1.3781274541634256,
        "time": 1.16117158,
        "traj_len": 2.1721503305166556,
        "weighted_distance": 2.8797300508319155
    },
    "planner": "FMT",
    "start": {
        "state": {
            "elbow_joint": 2.422574709923281,
            "shoulder_lift_joint": -1.3736533754116391,
            "shoulder_pan_joint": -0.33786336945926293,
            "wrist_1_joint": -1.0288603412921917,
            "wrist_2_joint": 1.2330224858903978,
            "wrist_3_joint": -3.094022268022082
        }
    },
    "waypoints": [
        {
            "positions": [
                -0.33786336945926293,
                -1.3736533754116391,
                2.422574709923281,
                -1.0288603412921917,
                1.2330224858903978,
                -3.094022268022082
            ]
        },
        {
            "positions": [
                -0.2655161319412243,
                -1.4292575227094564,
                2.410202824417511,
                -0.9185075706036411,
                1.1524450846299337,
                -3.062177031817892
            ]
        },
        {
            "positions": [
                -0.19316889442318566,
                -1.4848616700072739,
                2.397830938911741,
                -0.8081547999150904,
                1.0718676833694696,
                -3.030331795613702
            ]
        },
        {
            "positions": [
                -0.12082165690514704,
                -1.5404658173050911,
                2.3854590534059708,
                -0.6978020292265397,
                0.9912902821090056,
                -2.9984865594095114
            ]
        },
        {
            "positions": [
                -0.04847441938710839,
                -1.5960699646029086,
                2.373087167900201,
                -0.5874492585379891,
                0.9107128808485415,
                -2.9666413232053213
            ]
        },
        {
            "positions": [
                0.02387281813093023,
                -1.6516741119007259,
                2.360715282394431,
                -0.47709648784943837,
                0.8301354795880774,
                -2.934796087001131
            ]
        },
        {
            "positions": [
                0.09622005564896885,
                -1.7072782591985431,
                2.348343396888661,
                -0.3667437171608877,
                0.7495580783276135,
                -2.902950850796941
            ]
        },
        {
            "positions": [
                0.16856729316700753,
                -1.7628824064963606,
                2.3359715113828905,
                -0.25639094647233696,
                0.6689806770671493,
                -2.8711056145927505
            ]
        },
        {
            "positions": [
                0.24091453068504615,
                -1.8184865537941781,
                2.3235996258771205,
                -0.14603817578378642,
                0.5884032758066853,
                -2.8392603783885604
            ]
        },
        {
            "positions": [
                0.3132617682030848,
                -1.8740907010919954,
                2.3112277403713506,
                -0.03568540509523563,
                0.5078258745462212,
                -2.8074151421843703
            ]
        },
        {
            "positions": [
                0.4109222655406491,
                -1.8819337102290354,
                2.3312171856472754,
                -0.14082832452189045,
                0.5561159506425227,
                -2.891076432933419
            ]
        },
        {
            "positions": [
                0.5085827628782134,
                -1.8897767193660755,
                2.3512066309232003,
                -0.24597124394854528,
                0.6044060267388243,
                -2.974737723682468
            ]
        },
        {
            "positions": [
                0.6062432602157777,
                -1.8976197285031156,
                2.371196076199125,
                -0.3511141633752001,
                0.6526961028351259,
                -3.0583990144315165
            ]
        },
        {
            "positions": [
                0.7039037575533419,
                -1.9054627376401556,
                2.39118552147505,
                -0.45625708280185495,
                0.7009861789314275,
                -3.142060305180565
            ]
        }
    ]
}