{
    "goal": {
        "global_pose": {
            "orientation": {
                "w": 0.7031023502349854,
                "x": -0.7110244035720825,
                "y": 0.007748599164187908,
                "z": 0.005598929710686207
            },
            "position": {
                "x": 0.11585023208521307,
                "y": 0.44412534475326537,
                "z": 0.3711530566215515
            }
        },
        "name": "move_to_auspresseinheit_A"
    },
    "id": "FMT_move_to_auspresseinheit_A_25",
    "joint_names": [
        "shoulder_pan_joint",
        "shoulder_lift_joint",
        "elbow_joint",
        "wrist_1_joint",
        "wrist_2_joint",
        "wrist_3_joint"
    ],
    "metrics": {
        "cart_traj_len": 0.6879935329589806,
        "distance_elbow_joint": 0.14907047332381174,
        "distance_shoulder_lift_joint": 0.5335740833026907,
        "distance_shoulder_pan_joint": 1.0413343767381464,
        "distance_wrist_1_joint": 0.5754672982496061,
        "distance_wrist_2_joint": 2.184869529899233,
        "distance_wrist_3_joint": 1.3066762856007732,
        "smoothness": 1.1286738086500079,
        "time": 1.222573353,
        "traj_len": 2.4064480146294995,
        "weighted_distance": 3.341359221404464
    },
    "planner": "FMT",
    "start": {
        "state": {
            "elbow_joint": 2.422574709923281,
            "shoulder_lift_joint": -1.3736533754116391,
            "shoulder_pan_joint": -0.33786336945926293,
            "wrist_1_joint": -1.0288603412921917,
            "wrist_2_joint": 1.2330224858903978,
            "wrist_3_joint": -3.094022268022082
        }
    },
    "waypoints": [
        {
            "positions": [
                -0.33786336945926293,
                -1.3736533754116391,
                2.422574709923281,
                -1.0288603412921917,
                1.2330224858903978,
                -3.094022268022082
            ]
        },
        {
            "positions": [
                -0.30133534496100045,
                -1.4132545821868931,
                2.4125397072320647,
                -0.9835734148200448,
                1.0821677812218993,
                -3.0239460707488353
            ]
        },
        {
            "positions": [
                -0.264807320462738,
                -1.452855788962147,
                2.4025047045408483,
                -0.9382864883478979,
                0.9313130765534008,
                -2.9538698734755884
            ]
        },
        {
            "positions": [
                -0.22827929596447555,
                -1.492456995737401,
                2.392469701849632,
                -0.8929995618757509,
                0.7804583718849022,
                -2.8837936762023415
            ]
        },
        {
            "positions": [
                -0.19175127146621307,
                -1.5320582025126548,
                2.3824346991584155,
                -0.847712635403604,
                0.6296036672164037,
                -2.8137174789290946
            ]
        },
        {
            "positions": [
                -0.1552232469679506,
                -1.5716594092879088,
                2.372399696467199,
                -0.802425708931457,
                0.478748962547905,
                -2.7436412816558473
            ]
        },
        {
            "positions": [
                -0.11869522246968814,
                -1.6112606160631626,
                2.362364693775983,
                -0.7571387824593101,
                0.3278942578794066,
                -2.6735650843826004
            ]
        },
        {
            "positions": [
                -0.08216719797142563,
                -1.6508618228384166,
                2.3523296910847664,
                -0.7118518559871632,
                0.17703955321090792,
                -2.6034888871093536
            ]
        },
        {
            "positions": [
                -0.04563917347316321,
                -1.6904630296136705,
                2.34229468839355,
                -0.6665649295150162,
                0.026184848542409656,
                -2.5334126898361067
            ]
        },
        {
            "positions": [
                -0.009111148974900743,
                -1.7300642363889245,
                2.3322596857023337,
                -0.6212780030428693,
                -0.12466985612608902,
                -2.46333649256286
            ]
        },
        {
            "positions": [
                0.09268630191849701,
                -1.7553732681496967,
                2.3406533212884573,
                -0.597294437328543,
                -0.006501686428553921,
                -2.559906565440224
            ]
        },
        {
            "positions": [
                0.19448375281189478,
                -1.7806822999104688,
                2.3490469568745804,
                -0.5733108716142168,
                0.11166648326898118,
                -2.6564766383175886
            ]
        },
        {
            "positions": [
                0.29628120370529254,
                -1.805991331671241,
                2.357440592460704,
                -0.5493273058998906,
                0.22983465296651626,
                -2.753046711194953
            ]
        },
        {
            "positions": [
                0.3980786545986903,
                -1.8313003634320133,
                2.3658342280468276,
                -0.5253437401855644,
                0.34800282266405136,
                -2.8496167840723174
            ]
        },
        {
            "positions": [
                0.49987610549208805,
                -1.8566093951927856,
                2.3742278636329512,
                -0.5013601744712382,
                0.46617099236158654,
                -2.946186856949682
            ]
        },
        {
            "positions": [
                0.6016735563854858,
                -1.8819184269535576,
                2.3826214992190744,
                -0.4773766087569119,
                0.5843391620591215,
                -3.0427569298270463
            ]
        },
        {
            "positions": [
                0.7034710072788836,
                -1.9072274587143299,
                2.391015134805198,
                -0.45339304304258565,
                0.7025073317566567,
                -3.1393270027044107
            ]
        }
    ]
}