{
    "goal": {
        "global_pose": {
            "orientation": {
                "w": 0.7031023502349854,
                "x": -0.7110244035720825,
                "y": 0.007748599164187908,
                "z": 0.005598929710686207
            },
            "position": {
                "x": 0.11585023208521307,
                "y": 0.44412534475326537,
                "z": 0.3711530566215515
            }
        },
        "name": "move_to_auspresseinheit_A"
    },
    "id": "FMT_move_to_auspresseinheit_A_20",
    "joint_names": [
        "shoulder_pan_joint",
        "shoulder_lift_joint",
        "elbow_joint",
        "wrist_1_joint",
        "wrist_2_joint",
        "wrist_3_joint"
    ],
    "metrics": {
        "cart_traj_len": 0.6875806163430331,
        "distance_elbow_joint": 0.03252180083328149,
        "distance_shoulder_lift_joint": 0.5309035526471866,
        "distance_shoulder_pan_joint": 1.0412433924493123,
        "distance_wrist_1_joint": 0.5756613331240852,
        "distance_wrist_2_joint": 0.5354769991179832,
        "distance_wrist_3_joint": 0.059027131425017476,
        "smoothness": 4.934324565125532e-16,
        "time": 0.536629595,
        "traj_len": 1.6657833621443294,
        "weighted_distance": 2.0010064479378795
    },
    "planner": "FMT",
    "start": {
        "state": {
            "elbow_joint": 2.422574709923281,
            "shoulder_lift_joint": -1.3736533754116391,
            "shoulder_pan_joint": -0.33786336945926293,
            "wrist_1_joint": -1.0288603412921917,
            "wrist_2_joint": 1.2330224858903978,
            "wrist_3_joint": -3.094022268022082
        }
    },
    "waypoints": [
        {
            "positions": [
                -0.33786336945926293,
                -1.3736533754116391,
                2.422574709923281,
                -1.0288603412921917,
                1.2330224858903978,
                -3.094022268022082
            ]
        },
        {
            "positions": [
                -0.2077079454030989,
                -1.4400163194925375,
                2.418509484819121,
                -0.9569026746516811,
                1.1660878610006498,
                -3.1014006594502095
            ]
        },
        {
            "positions": [
                -0.07755252134693486,
                -1.5063792635734359,
                2.4144442597149607,
                -0.8849450080111705,
                1.099153236110902,
                -3.1087790508783364
            ]
        },
        {
            "positions": [
                0.05260290270922918,
                -1.572742207654334,
                2.4103790346108003,
                -0.8129873413706598,
                1.032218611221154,
                -3.1161574423064637
            ]
        },
        {
            "positions": [
                0.18275832676539322,
                -1.6391051517352324,
                2.4063138095066403,
                -0.7410296747301491,
                0.9652839863314062,
                -3.123535833734591
            ]
        },
        {
            "positions": [
                0.3129137508215572,
                -1.7054680958161308,
                2.4022485844024803,
                -0.6690720080896385,
                0.8983493614416582,
                -3.130914225162718
            ]
        },
        {
            "positions": [
                0.4430691748777213,
                -1.771831039897029,
                2.39818335929832,
                -0.5971143414491278,
                0.8314147365519103,
                -3.1382926165908454
            ]
        },
        {
            "positions": [
                0.5732245989338853,
                -1.8381939839779273,
                2.3941181341941595,
                -0.5251566748086172,
                0.7644801116621625,
                -3.1456710080189723
            ]
        },
        {
            "positions": [
                0.7033800229900494,
                -1.9045569280588257,
                2.3900529090899996,
                -0.4531990081681065,
                0.6975454867724146,
                -3.1530493994470996
            ]
        }
    ]
}