{
    "goal": {
        "global_pose": {
            "orientation": {
                "w": 0.5084816217422485,
                "x": -0.49083608388900757,
                "y": 0.5182115435600281,
                "z": -0.4816462993621826
            },
            "position": {
                "x": 0.5540239810943604,
                "y": 0.030875300988554955,
                "z": 0.16403168439865112
            }
        },
        "name": "move_to_storage_A"
    },
    "id": "FMT_move_to_storage_A_8",
    "joint_names": [
        "shoulder_pan_joint",
        "shoulder_lift_joint",
        "elbow_joint",
        "wrist_1_joint",
        "wrist_2_joint",
        "wrist_3_joint"
    ],
    "metrics": {
        "cart_traj_len": 0.35239660395788797,
        "distance_elbow_joint": 0.4500062890100498,
        "distance_shoulder_lift_joint": 0.2364646185904613,
        "distance_shoulder_pan_joint": 0.4616187922243006,
        "distance_wrist_1_joint": 0.23836135751917487,
        "distance_wrist_2_joint": 1.095202009160062,
        "distance_wrist_3_joint": 0.09902502187480078,
        "smoothness": 2.2204460668324854e-16,
        "time": 0.375353126,
        "traj_len": 1.6064489062459626,
        "weighted_distance": 2.0278785710213736
    },
    "planner": "FMT",
    "start": {
        "state": {
            "elbow_joint": 1.9715463870305268,
            "shoulder_lift_joint": -1.1394903361783484,
            "shoulder_pan_joint": 0.12281147578464417,
            "wrist_1_joint": -0.7804599489681411,
            "wrist_2_joint": 0.12958660307563738,
            "wrist_3_joint": -3.1924946282119055
        }
    },
    "waypoints": [
        {
            "positions": [
                0.12281147578464417,
                -1.1394903361783484,
                1.9715463870305268,
                -0.7804599489681411,
                0.12958660307563738,
                -3.1924946282119055
            ]
        },
        {
            "positions": [
                0.056865934038315524,
                -1.1732709959769858,
                2.035832999746248,
                -0.8145115714708804,
                0.28604403295564623,
                -3.1783481965155054
            ]
        },
        {
            "positions": [
                -0.009079607708013124,
                -1.207051655775623,
                2.1001196124619694,
                -0.8485631939736196,
                0.44250146283565506,
                -3.164201764819105
            ]
        },
        {
            "positions": [
                -0.07502514945434179,
                -1.2408323155742604,
                2.1644062251776908,
                -0.8826148164763589,
                0.5989588927156639,
                -3.150055333122705
            ]
        },
        {
            "positions": [
                -0.1409706912006704,
                -1.2746129753728976,
                2.228692837893412,
                -0.9166664389790982,
                0.7554163225956728,
                -3.1359089014263053
            ]
        },
        {
            "positions": [
                -0.20691623294699907,
                -1.308393635171535,
                2.292979450609134,
                -0.9507180614818374,
                0.9118737524756817,
                -3.121762469729905
            ]
        },
        {
            "positions": [
                -0.27286177469332773,
                -1.3421742949701723,
                2.357266063324855,
                -0.9847696839845766,
                1.0683311823556905,
                -3.107616038033505
            ]
        },
        {
            "positions": [
                -0.3388073164396564,
                -1.3759549547688097,
                2.4215526760405766,
                -1.018821306487316,
                1.2247886122356995,
                -3.0934696063371048
            ]
        }
    ]
}