{
    "goal": {
        "global_pose": {
            "orientation": {
                "w": -0.00223480608172531,
                "x": 0.0024358444001904467,
                "y": 0.7094548369677653,
                "z": -0.704743149386269
            },
            "position": {
                "x": 0.6205249238014221,
                "y": -0.6371506643295288,
                "z": 0.19426114857196808
            }
        },
        "name": "move_to_magneteinheit_B"
    },
    "id": "FMT_move_to_magneteinheit_B_5",
    "joint_names": [
        "shoulder_pan_joint",
        "shoulder_lift_joint",
        "elbow_joint",
        "wrist_1_joint",
        "wrist_2_joint",
        "wrist_3_joint"
    ],
    "metrics": {
        "cart_traj_len": 1.453687397407867,
        "distance_elbow_joint": 0.7307455981376425,
        "distance_shoulder_lift_joint": 1.2483480752278202,
        "distance_shoulder_pan_joint": 1.621945655088909,
        "distance_wrist_1_joint": 2.6069574804929045,
        "distance_wrist_2_joint": 2.936170439501301,
        "distance_wrist_3_joint": 3.1296863999098377,
        "smoothness": 2.775557567883112e-16,
        "time": 1.337620919,
        "traj_len": 3.503406006782317,
        "weighted_distance": 4.906766182341715
    },
    "planner": "FMT",
    "start": {
        "state": {
            "elbow_joint": 2.39358713078474,
            "shoulder_lift_joint": -1.908514104345545,
            "shoulder_pan_joint": 0.7066247066606129,
            "wrist_1_joint": -0.4678290933515497,
            "wrist_2_joint": 0.7096259083745334,
            "wrist_3_joint": -3.1358149277392293
        }
    },
    "waypoints": [
        {
            "positions": [
                0.7066247066606129,
                -1.908514104345545,
                2.39358713078474,
                -0.4678290933515497,
                0.7096259083745334,
                -3.1358149277392293
            ]
        },
        {
            "positions": [
                0.6543038790770997,
                -1.8682448115962604,
                2.370014692135139,
                -0.3837336907550044,
                0.6149107329067496,
                -3.0348573019356864
            ]
        },
        {
            "positions": [
                0.6019830514935866,
                -1.827975518846976,
                2.346442253485537,
                -0.2996382881584591,
                0.5201955574389656,
                -2.933899676132143
            ]
        },
        {
            "positions": [
                0.5496622239100734,
                -1.7877062260976913,
                2.322869814835936,
                -0.2155428855619138,
                0.42548038197118176,
                -2.8329420503286
            ]
        },
        {
            "positions": [
                0.49734139632656016,
                -1.7474369333484068,
                2.2992973761863347,
                -0.1314474829653685,
                0.33076520650339786,
                -2.7319844245250566
            ]
        },
        {
            "positions": [
                0.44502056874304696,
                -1.7071676405991223,
                2.275724937536733,
                -0.04735208036882316,
                0.23605003103561395,
                -2.6310267987215137
            ]
        },
        {
            "positions": [
                0.39269974115953377,
                -1.6668983478498378,
                2.2521524988871318,
                0.036743322227722086,
                0.1413348555678301,
                -2.5300691729179703
            ]
        },
        {
            "positions": [
                0.34037891357602057,
                -1.6266290551005533,
                2.2285800602375305,
                0.12083872482426744,
                0.046619680100046135,
                -2.4291115471144273
            ]
        },
        {
            "positions": [
                0.2880580859925074,
                -1.5863597623512686,
                2.2050076215879293,
                0.20493412742081268,
                -0.04809549536773772,
                -2.328153921310884
            ]
        },
        {
            "positions": [
                0.23573725840899412,
                -1.5460904696019842,
                2.1814351829383276,
                0.28902953001735815,
                -0.14281067083552168,
                -2.227196295507341
            ]
        },
        {
            "positions": [
                0.18341643082548098,
                -1.5058211768526997,
                2.1578627442887264,
                0.3731249326139034,
                -0.23752584630330553,
                -2.126238669703798
            ]
        },
        {
            "positions": [
                0.13109560324196778,
                -1.4655518841034152,
                2.134290305639125,
                0.45722033521044875,
                -0.3322410217710895,
                -2.0252810439002547
            ]
        },
        {
            "positions": [
                0.07877477565845459,
                -1.4252825913541307,
                2.1107178669895235,
                0.5413157378069939,
                -0.42695619723887324,
                -1.9243234180967115
            ]
        },
        {
            "positions": [
                0.02645394807494139,
                -1.385013298604846,
                2.0871454283399222,
                0.6254111404035394,
                -0.5216713727066572,
                -1.8233657922931683
            ]
        },
        {
            "positions": [
                -0.025866879508571805,
                -1.3447440058555618,
                2.063572989690321,
                0.7095065430000846,
                -0.6163865481744412,
                -1.7224081664896254
            ]
        },
        {
            "positions": [
                -0.078187707092085,
                -1.304474713106277,
                2.0400005510407193,
                0.7936019455966301,
                -0.7111017236422251,
                -1.621450540686082
            ]
        },
        {
            "positions": [
                -0.1305085346755982,
                -1.2642054203569926,
                2.016428112391118,
                0.8776973481931751,
                -0.8058168991100089,
                -1.520492914882539
            ]
        },
        {
            "positions": [
                -0.18282936225911128,
                -1.223936127607708,
                1.9928556737415168,
                0.9617927507897204,
                -0.9005320745777926,
                -1.4195352890789958
            ]
        },
        {
            "positions": [
                -0.2351501898426247,
                -1.1836668348584234,
                1.9692832350919154,
                1.045888153386266,
                -0.9952472500455768,
                -1.3185776632754524
            ]
        },
        {
            "positions": [
                -0.2874710174261378,
                -1.1433975421091391,
                1.945710796442314,
                1.1299835559828113,
                -1.0899624255133609,
                -1.2176200374719095
            ]
        },
        {
            "positions": [
                -0.339791845009651,
                -1.1031282493598544,
                1.9221383577927127,
                1.2140789585793565,
                -1.1846776009811446,
                -1.1166624116683663
            ]
        },
        {
            "positions": [
                -0.3921126725931642,
                -1.06285895661057,
                1.8985659191431112,
                1.2981743611759018,
                -1.2793927764489283,
                -1.0157047858648234
            ]
        },
        {
            "positions": [
                -0.4444335001766774,
                -1.0225896638612855,
                1.8749934804935098,
                1.3822697637724473,
                -1.3741079519167125,
                -0.91474716006128
            ]
        },
        {
            "positions": [
                -0.4967543277601906,
                -0.9823203711120009,
                1.8514210418439085,
                1.4663651663689925,
                -1.4688231273844963,
                -0.813789534257737
            ]
        },
        {
            "positions": [
                -0.5490751553437038,
                -0.9420510783627164,
                1.8278486031943073,
                1.5504605689655375,
                -1.56353830285228,
                -0.7128319084541936
            ]
        },
        {
            "positions": [
                -0.601395982927217,
                -0.9017817856134318,
                1.8042761645447059,
                1.634555971562083,
                -1.6582534783200642,
                -0.6118742826506507
            ]
        },
        {
            "positions": [
                -0.6537168105107302,
                -0.8615124928641473,
                1.7807037258951044,
                1.7186513741586285,
                -1.752968653787848,
                -0.5109166568471073
            ]
        },
        {
            "positions": [
                -0.7060376380942434,
                -0.8212432001148628,
                1.7571312872455032,
                1.8027467767551735,
                -1.8476838292556321,
                -0.40995903104356435
            ]
        },
        {
            "positions": [
                -0.7583584656777566,
                -0.7809739073655784,
                1.7335588485959017,
                1.886842179351719,
                -1.9423990047234159,
                -0.3090014052400214
            ]
        },
        {
            "positions": [
                -0.8106792932612698,
                -0.7407046146162939,
                1.7099864099463002,
                1.970937581948264,
                -2.0371141801911996,
                -0.208043779436478
            ]
        },
        {
            "positions": [
                -0.863000120844783,
                -0.7004353218670092,
                1.686413971296699,
                2.05503298454481,
                -2.131829355658984,
                -0.10708615363293461
            ]
        },
        {
            "positions": [
                -0.9153209484282961,
                -0.6601660291177247,
                1.6628415326470976,
                2.139128387141355,
                -2.2265445311267675,
                -0.0061285278293915
            ]
        }
    ]
}