{
    "goal": {
        "global_pose": {
            "orientation": {
                "w": 0.5084816217422485,
                "x": -0.49083608388900757,
                "y": 0.5182115435600281,
                "z": -0.4816462993621826
            },
            "position": {
                "x": 0.5540239810943604,
                "y": 0.030875300988554955,
                "z": 0.16403168439865112
            }
        },
        "name": "move_to_storage_A"
    },
    "id": "FMT_move_to_storage_A_51",
    "joint_names": [
        "shoulder_pan_joint",
        "shoulder_lift_joint",
        "elbow_joint",
        "wrist_1_joint",
        "wrist_2_joint",
        "wrist_3_joint"
    ],
    "metrics": {
        "cart_traj_len": 0.35270302515917457,
        "distance_elbow_joint": 0.4499097019623357,
        "distance_shoulder_lift_joint": 0.23345191567104373,
        "distance_shoulder_pan_joint": 0.4625419163442308,
        "distance_wrist_1_joint": 0.2416354789602967,
        "distance_wrist_2_joint": 1.0921091481854572,
        "distance_wrist_3_joint": 0.08972198867540104,
        "smoothness": 0.0,
        "time": 0.380012963,
        "traj_len": 1.6029254972701523,
        "weighted_distance": 2.02053427446686
    },
    "planner": "FMT",
    "start": {
        "state": {
            "elbow_joint": 1.9715463870305268,
            "shoulder_lift_joint": -1.1394903361783484,
            "shoulder_pan_joint": 0.12281147578464417,
            "wrist_1_joint": -0.7804599489681411,
            "wrist_2_joint": 0.12958660307563738,
            "wrist_3_joint": -3.1924946282119055
        }
    },
    "waypoints": [
        {
            "positions": [
                0.12281147578464417,
                -1.1394903361783484,
                1.9715463870305268,
                -0.7804599489681411,
                0.12958660307563738,
                -3.1924946282119055
            ]
        },
        {
            "positions": [
                0.05673405916403977,
                -1.1728406098456403,
                2.0358192015965746,
                -0.8149793031053263,
                0.2856021956735598,
                -3.179677201258277
            ]
        },
        {
            "positions": [
                -0.00934335745656463,
                -1.2061908835129322,
                2.100092016162623,
                -0.8494986572425116,
                0.44161778827148224,
                -3.166859774304648
            ]
        },
        {
            "positions": [
                -0.07542077407716903,
                -1.2395411571802242,
                2.1643648307286707,
                -0.8840180113796968,
                0.5976333808694048,
                -3.1540423473510195
            ]
        },
        {
            "positions": [
                -0.14149819069777342,
                -1.2728914308475163,
                2.2286376452947185,
                -0.918537365516882,
                0.7536489734673272,
                -3.1412249203973905
            ]
        },
        {
            "positions": [
                -0.20757560731837782,
                -1.3062417045148083,
                2.2929104598607664,
                -0.9530567196540674,
                0.9096645660652497,
                -3.128407493443762
            ]
        },
        {
            "positions": [
                -0.2736530239389822,
                -1.3395919781821002,
                2.3571832744268146,
                -0.9875760737912525,
                1.0656801586631721,
                -3.115590066490133
            ]
        },
        {
            "positions": [
                -0.3397304405595866,
                -1.3729422518493921,
                2.4214560889928625,
                -1.0220954279284378,
                1.2216957512610946,
                -3.1027726395365045
            ]
        }
    ]
}