{
    "goal": {
        "global_pose": {
            "orientation": {
                "w": 0.7031023502349854,
                "x": -0.7110244035720825,
                "y": 0.007748599164187908,
                "z": 0.005598929710686207
            },
            "position": {
                "x": 0.11585023208521307,
                "y": 0.44412534475326537,
                "z": 0.3711530566215515
            }
        },
        "name": "move_to_auspresseinheit_A"
    },
    "id": "FMT_move_to_auspresseinheit_A_121",
    "joint_names": [
        "shoulder_pan_joint",
        "shoulder_lift_joint",
        "elbow_joint",
        "wrist_1_joint",
        "wrist_2_joint",
        "wrist_3_joint"
    ],
    "metrics": {
        "cart_traj_len": 0.6759406803850322,
        "distance_elbow_joint": 0.1857154027511827,
        "distance_shoulder_lift_joint": 0.5347302080416585,
        "distance_shoulder_pan_joint": 1.0472908356383728,
        "distance_wrist_1_joint": 0.5505460893142303,
        "distance_wrist_2_joint": 1.2479899795493803,
        "distance_wrist_3_joint": 0.3193774825721185,
        "smoothness": 0.8816043192486623,
        "time": 0.895142616,
        "traj_len": 1.9712052145494503,
        "weighted_distance": 2.514545889792984
    },
    "planner": "FMT",
    "start": {
        "state": {
            "elbow_joint": 2.422574709923281,
            "shoulder_lift_joint": -1.3736533754116391,
            "shoulder_pan_joint": -0.33786336945926293,
            "wrist_1_joint": -1.0288603412921917,
            "wrist_2_joint": 1.2330224858903978,
            "wrist_3_joint": -3.094022268022082
        }
    },
    "waypoints": [
        {
            "positions": [
                -0.33786336945926293,
                -1.3736533754116391,
                2.422574709923281,
                -1.0288603412921917,
                1.2330224858903978,
                -3.094022268022082
            ]
        },
        {
            "positions": [
                -0.17425947106828873,
                -1.4569434397017527,
                2.438435238103753,
                -1.005740134718287,
                1.3058240060678457,
                -3.130223720541631
            ]
        },
        {
            "positions": [
                -0.01065557267731454,
                -1.5402335039918662,
                2.454295766284224,
                -0.9826199281443821,
                1.3786255262452936,
                -3.166425173061179
            ]
        },
        {
            "positions": [
                0.15294832571365957,
                -1.6235235682819797,
                2.470156294464696,
                -0.9594997215704774,
                1.4514270464227417,
                -3.2026266255807276
            ]
        },
        {
            "positions": [
                0.31655222410463385,
                -1.7068136325720935,
                2.4860168226451673,
                -0.9363795149965726,
                1.5242285666001896,
                -3.238828078100276
            ]
        },
        {
            "positions": [
                0.480156122495608,
                -1.790103696862207,
                2.501877350825639,
                -0.9132593084226678,
                1.5970300867776375,
                -3.2750295306198245
            ]
        },
        {
            "positions": [
                0.5245816847485588,
                -1.809840035927155,
                2.484380433560494,
                -0.8396105738586371,
                1.4421630856919965,
                -3.250552401076966
            ]
        },
        {
            "positions": [
                0.5690072470015096,
                -1.8295763749921028,
                2.4668835162953484,
                -0.7659618392946065,
                1.2872960846063557,
                -3.2260752715341083
            ]
        },
        {
            "positions": [
                0.6134328092544603,
                -1.8493127140570507,
                2.4493865990302033,
                -0.692313104730576,
                1.132429083520715,
                -3.20159814199125
            ]
        },
        {
            "positions": [
                0.6578583715074111,
                -1.8690490531219985,
                2.4318896817650577,
                -0.6186643701665453,
                0.9775620824350739,
                -3.177121012448392
            ]
        },
        {
            "positions": [
                0.7022839337603619,
                -1.8887853921869464,
                2.4143927644999126,
                -0.5450156356025146,
                0.8226950813494331,
                -3.152643882905534
            ]
        },
        {
            "positions": [
                0.70942746617911,
                -1.9083835834532976,
                2.3954645889768145,
                -0.4783142519779614,
                0.7130477081154969,
                -3.1366593106454483
            ]
        }
    ]
}