{
    "goal": {
        "global_pose": {
            "orientation": {
                "w": 0.7047431468963623,
                "x": -0.7094548344612122,
                "y": 0.0024358443915843964,
                "z": -0.0022348060738295317
            },
            "position": {
                "x": 0.6094750761985779,
                "y": 0.3671506643295288,
                "z": 0.19426114857196808
            }
        },
        "name": "move_to_magneteinheit_A"
    },
    "id": "FMT_move_to_magneteinheit_A_139",
    "joint_names": [
        "shoulder_pan_joint",
        "shoulder_lift_joint",
        "elbow_joint",
        "wrist_1_joint",
        "wrist_2_joint",
        "wrist_3_joint"
    ],
    "metrics": {
        "cart_traj_len": 1.872794374026462,
        "distance_elbow_joint": 3.925628033132819,
        "distance_shoulder_lift_joint": 0.7060635713122829,
        "distance_shoulder_pan_joint": 1.2414567624874993,
        "distance_wrist_1_joint": 1.5433735173969205,
        "distance_wrist_2_joint": 1.6950692829419636,
        "distance_wrist_3_joint": 1.173315258880993,
        "smoothness": 8.223874275918618e-16,
        "time": 1.320140256,
        "traj_len": 3.2070089532385904,
        "weighted_distance": 3.983714315090045
    },
    "planner": "FMT",
    "start": {
        "state": {
            "elbow_joint": -1.919643507792019,
            "shoulder_lift_joint": -0.07675430207160344,
            "shoulder_pan_joint": -1.1188671864651873,
            "wrist_1_joint": 0.42560062535961957,
            "wrist_2_joint": 1.5706038300724876,
            "wrist_3_joint": 1.1188968870953055
        }
    },
    "waypoints": [
        {
            "positions": [
                -1.1188671864651873,
                -0.07675430207160344,
                -1.919643507792019,
                0.42560062535961957,
                1.5706038300724876,
                1.1188968870953055
            ]
        },
        {
            "positions": [
                -1.0711188494464374,
                -0.10391059327592202,
                -1.7686578142099876,
                0.4849611452595011,
                1.505408857651643,
                1.0737693771383443
            ]
        },
        {
            "positions": [
                -1.0233705124276873,
                -0.1310668844802406,
                -1.617672120627956,
                0.5443216651593827,
                1.4402138852307982,
                1.028641867181383
            ]
        },
        {
            "positions": [
                -0.9756221754089374,
                -0.15822317568455918,
                -1.4666864270459246,
                0.6036821850592642,
                1.3750189128099533,
                0.9835143572244217
            ]
        },
        {
            "positions": [
                -0.9278738383901874,
                -0.18537946688887774,
                -1.315700733463893,
                0.6630427049591459,
                1.3098239403891085,
                0.9383868472674605
            ]
        },
        {
            "positions": [
                -0.8801255013714375,
                -0.21253575809319633,
                -1.1647150398818615,
                0.7224032248590273,
                1.2446289679682638,
                0.8932593373104992
            ]
        },
        {
            "positions": [
                -0.8323771643526875,
                -0.2396920492975149,
                -1.01372934629983,
                0.781763744758909,
                1.1794339955474191,
                0.8481318273535379
            ]
        },
        {
            "positions": [
                -0.7846288273339376,
                -0.2668483405018335,
                -0.8627436527177987,
                0.8411242646587904,
                1.1142390231265744,
                0.8030043173965766
            ]
        },
        {
            "positions": [
                -0.7368804903151875,
                -0.29400463170615204,
                -0.711757959135767,
                0.9004847845586721,
                1.0490440507057297,
                0.7578768074396154
            ]
        },
        {
            "positions": [
                -0.6891321532964376,
                -0.3211609229104706,
                -0.5607722655537357,
                0.9598453044585535,
                0.9838490782848849,
                0.7127492974826541
            ]
        },
        {
            "positions": [
                -0.6413838162776876,
                -0.3483172141147892,
                -0.409786571971704,
                1.0192058243584352,
                0.9186541058640401,
                0.6676217875256929
            ]
        },
        {
            "positions": [
                -0.5936354792589377,
                -0.3754735053191077,
                -0.2588008783896727,
                1.0785663442583167,
                0.8534591334431954,
                0.6224942775687317
            ]
        },
        {
            "positions": [
                -0.5458871422401876,
                -0.40262979652342634,
                -0.10781518480764096,
                1.1379268641581983,
                0.7882641610223505,
                0.5773667676117703
            ]
        },
        {
            "positions": [
                -0.4981388052214377,
                -0.4297860877277449,
                0.043170508774390326,
                1.1972873840580798,
                0.7230691886015058,
                0.5322392576548091
            ]
        },
        {
            "positions": [
                -0.4503904682026878,
                -0.45694237893206346,
                0.19415620235642161,
                1.2566479039579614,
                0.6578742161806611,
                0.4871117476978478
            ]
        },
        {
            "positions": [
                -0.4026421311839379,
                -0.484098670136382,
                0.3451418959384529,
                1.316008423857843,
                0.5926792437598164,
                0.4419842377408866
            ]
        },
        {
            "positions": [
                -0.35489379416518774,
                -0.5112549613407007,
                0.4961275895204851,
                1.3753689437577246,
                0.5274842713389716,
                0.3968567277839252
            ]
        },
        {
            "positions": [
                -0.3071454571464378,
                -0.5384112525450192,
                0.6471132831025164,
                1.4347294636576062,
                0.46228929891812687,
                0.351729217826964
            ]
        },
        {
            "positions": [
                -0.2593971201276879,
                -0.5655675437493377,
                0.7980989766845477,
                1.4940899835574877,
                0.39709432649728216,
                0.30660170787000274
            ]
        },
        {
            "positions": [
                -0.21164878310893798,
                -0.5927238349536563,
                0.949084670266579,
                1.5534505034573691,
                0.33189935407643745,
                0.2614741979130415
            ]
        },
        {
            "positions": [
                -0.16390044609018783,
                -0.6198801261579749,
                1.1000703638486111,
                1.6128110233572508,
                0.2667043816555925,
                0.21634668795608014
            ]
        },
        {
            "positions": [
                -0.11615210907143791,
                -0.6470364173622936,
                1.2510560574306424,
                1.6721715432571325,
                0.2015094092347478,
                0.1712191779991189
            ]
        },
        {
            "positions": [
                -0.068403772052688,
                -0.674192708566612,
                1.4020417510126737,
                1.731532063157014,
                0.1363144368139031,
                0.12609166804215766
            ]
        },
        {
            "positions": [
                -0.020655435033938074,
                -0.7013489997709306,
                1.553027444594705,
                1.7908925830568954,
                0.07111946439305838,
                0.08096415808519652
            ]
        },
        {
            "positions": [
                0.027092901984812068,
                -0.7285052909752492,
                1.7040131381767372,
                1.850253102956777,
                0.005924491972213453,
                0.03583664812823506
            ]
        },
        {
            "positions": [
                0.07484123900356199,
                -0.7556615821795678,
                1.8549988317587685,
                1.9096136228566587,
                -0.05927048044863126,
                -0.009290861828726182
            ]
        },
        {
            "positions": [
                0.122589576022312,
                -0.7828178733838864,
                2.0059845253408,
                1.9689741427565401,
                -0.12446545286947597,
                -0.05441837178568749
            ]
        }
    ]
}