{
    "goal": {
        "global_pose": {
            "orientation": {
                "w": 0.7031023502349854,
                "x": -0.7110244035720825,
                "y": 0.007748599164187908,
                "z": 0.005598929710686207
            },
            "position": {
                "x": 0.11585023208521307,
                "y": 0.44412534475326537,
                "z": 0.3711530566215515
            }
        },
        "name": "move_to_auspresseinheit_A"
    },
    "id": "FMT_move_to_auspresseinheit_A_54",
    "joint_names": [
        "shoulder_pan_joint",
        "shoulder_lift_joint",
        "elbow_joint",
        "wrist_1_joint",
        "wrist_2_joint",
        "wrist_3_joint"
    ],
    "metrics": {
        "cart_traj_len": 0.7220427748214719,
        "distance_elbow_joint": 0.19757435842741744,
        "distance_shoulder_lift_joint": 0.5347647526453234,
        "distance_shoulder_pan_joint": 1.0395939032485293,
        "distance_wrist_1_joint": 2.584176807258982,
        "distance_wrist_2_joint": 0.770837485458324,
        "distance_wrist_3_joint": 0.1394219340595204,
        "smoothness": 1.308266366213603,
        "time": 1.141609431,
        "traj_len": 2.2948571286897357,
        "weighted_distance": 2.9833248904426157
    },
    "planner": "FMT",
    "start": {
        "state": {
            "elbow_joint": 2.422574709923281,
            "shoulder_lift_joint": -1.3736533754116391,
            "shoulder_pan_joint": -0.33786336945926293,
            "wrist_1_joint": -1.0288603412921917,
            "wrist_2_joint": 1.2330224858903978,
            "wrist_3_joint": -3.094022268022082
        }
    },
    "waypoints": [
        {
            "positions": [
                -0.33786336945926293,
                -1.3736533754116391,
                2.422574709923281,
                -1.0288603412921917,
                1.2330224858903978,
                -3.094022268022082
            ]
        },
        {
            "positions": [
                -0.33694271491382966,
                -1.4369388031546602,
                2.4083405711582455,
                -0.8318501859278136,
                1.1512898671742444,
                -3.1061482059696752
            ]
        },
        {
            "positions": [
                -0.3360220603683964,
                -1.500224230897681,
                2.39410643239321,
                -0.6348400305634354,
                1.0695572484580909,
                -3.1182741439172688
            ]
        },
        {
            "positions": [
                -0.3351014058229631,
                -1.563509658640702,
                2.3798722936281744,
                -0.43782987519905714,
                0.9878246297419375,
                -3.130400081864862
            ]
        },
        {
            "positions": [
                -0.3341807512775299,
                -1.6267950863837228,
                2.365638154863139,
                -0.24081971983467898,
                0.9060920110257841,
                -3.142526019812455
            ]
        },
        {
            "positions": [
                -0.3332600967320966,
                -1.6900805141267439,
                2.3514040160981033,
                -0.04380956447030082,
                0.8243593923096306,
                -3.1546519577600485
            ]
        },
        {
            "positions": [
                -0.33233944218666334,
                -1.753365941869765,
                2.337169877333068,
                0.15320059089407745,
                0.7426267735934773,
                -3.1667778957076416
            ]
        },
        {
            "positions": [
                -0.33141878764123006,
                -1.816651369612786,
                2.3229357385680323,
                0.3502107462584556,
                0.6608941548773238,
                -3.178903833655235
            ]
        },
        {
            "positions": [
                -0.3304981330957968,
                -1.8799367973558068,
                2.3087015998029967,
                0.5472209016228338,
                0.5791615361611704,
                -3.191029771602828
            ]
        },
        {
            "positions": [
                -0.15846002194828623,
                -1.8846836858059994,
                2.322651807854186,
                0.3792049742321743,
                0.5986576254493532,
                -3.1839606998563657
            ]
        },
        {
            "positions": [
                0.013578089199224319,
                -1.889430574256192,
                2.3366020159053744,
                0.21118904684151485,
                0.6181537147375359,
                -3.1768916281099036
            ]
        },
        {
            "positions": [
                0.18561620034673487,
                -1.8941774627063848,
                2.350552223956563,
                0.043173119450855335,
                0.6376498040257187,
                -3.169822556363441
            ]
        },
        {
            "positions": [
                0.3576543114942454,
                -1.8989243511565772,
                2.364502432007752,
                -0.12484280793980407,
                0.6571458933139015,
                -3.1627534846169785
            ]
        },
        {
            "positions": [
                0.529692422641756,
                -1.9036712396067699,
                2.378452640058941,
                -0.2928587353304637,
                0.6766419826020842,
                -3.1556844128705164
            ]
        },
        {
            "positions": [
                0.7017305337892665,
                -1.9084181280569625,
                2.39240284811013,
                -0.4608746627211232,
                0.696138071890267,
                -3.148615341124054
            ]
        }
    ]
}