{
    "goal": {
        "global_pose": {
            "orientation": {
                "w": 0.7047431468963623,
                "x": -0.7094548344612122,
                "y": 0.0024358443915843964,
                "z": -0.0022348060738295317
            },
            "position": {
                "x": 0.6094750761985779,
                "y": 0.3671506643295288,
                "z": 0.19426114857196808
            }
        },
        "name": "move_to_magneteinheit_A"
    },
    "id": "FMT_move_to_magneteinheit_A_57",
    "joint_names": [
        "shoulder_pan_joint",
        "shoulder_lift_joint",
        "elbow_joint",
        "wrist_1_joint",
        "wrist_2_joint",
        "wrist_3_joint"
    ],
    "metrics": {
        "cart_traj_len": 2.063454273844971,
        "distance_elbow_joint": 3.8734442203926704,
        "distance_shoulder_lift_joint": 1.0519635049129317,
        "distance_shoulder_pan_joint": 1.2415623777862526,
        "distance_wrist_1_joint": 1.1202153198231928,
        "distance_wrist_2_joint": 1.4427556453466468,
        "distance_wrist_3_joint": 1.8858661038347195,
        "smoothness": 4.440892115770691e-16,
        "time": 1.221578953,
        "traj_len": 3.258190782028642,
        "weighted_distance": 4.117099749208864
    },
    "planner": "FMT",
    "start": {
        "state": {
            "elbow_joint": -1.919643507792019,
            "shoulder_lift_joint": -0.07675430207160344,
            "shoulder_pan_joint": -1.1188671864651873,
            "wrist_1_joint": 0.42560062535961957,
            "wrist_2_joint": 1.5706038300724876,
            "wrist_3_joint": 1.1188968870953055
        }
    },
    "waypoints": [
        {
            "positions": [
                -1.1188671864651873,
                -0.07675430207160344,
                -1.919643507792019,
                0.42560062535961957,
                1.5706038300724876,
                1.1188968870953055
            ]
        },
        {
            "positions": [
                -1.0728833946953262,
                -0.11571591336467499,
                -1.7761826107404386,
                0.3841111690698717,
                1.5171684358003896,
                1.1887437798299247
            ]
        },
        {
            "positions": [
                -1.026899602925465,
                -0.15467752465774653,
                -1.6327217136888583,
                0.3426217127801238,
                1.4637330415282916,
                1.258590672564544
            ]
        },
        {
            "positions": [
                -0.9809158111556038,
                -0.19363913595081805,
                -1.489260816637278,
                0.30113225649037595,
                1.4102976472561934,
                1.3284375652991633
            ]
        },
        {
            "positions": [
                -0.9349320193857426,
                -0.2326007472438896,
                -1.3457999195856976,
                0.259642800200628,
                1.3568622529840955,
                1.3982844580337825
            ]
        },
        {
            "positions": [
                -0.8889482276158813,
                -0.27156235853696115,
                -1.202339022534117,
                0.21815334391088018,
                1.3034268587119975,
                1.4681313507684017
            ]
        },
        {
            "positions": [
                -0.8429644358460201,
                -0.3105239698300327,
                -1.0588781254825368,
                0.1766638876211323,
                1.2499914644398995,
                1.537978243503021
            ]
        },
        {
            "positions": [
                -0.7969806440761589,
                -0.34948558112310424,
                -0.9154172284309565,
                0.1351744313313844,
                1.1965560701678015,
                1.6078251362376403
            ]
        },
        {
            "positions": [
                -0.7509968523062978,
                -0.38844719241617576,
                -0.771956331379376,
                0.09368497504163653,
                1.1431206758957033,
                1.6776720289722595
            ]
        },
        {
            "positions": [
                -0.7050130605364365,
                -0.42740880370924733,
                -0.6284954343277958,
                0.05219551875188866,
                1.0896852816236053,
                1.7475189217068787
            ]
        },
        {
            "positions": [
                -0.6590292687665753,
                -0.46637041500231885,
                -0.48503453727621526,
                0.010706062462140786,
                1.0362498873515074,
                1.817365814441498
            ]
        },
        {
            "positions": [
                -0.6130454769967141,
                -0.5053320262953904,
                -0.341573640224635,
                -0.030783393827607086,
                0.9828144930794093,
                1.887212707176117
            ]
        },
        {
            "positions": [
                -0.5670616852268529,
                -0.5442936375884619,
                -0.1981127431730545,
                -0.07227285011735496,
                0.9293790988073113,
                1.9570595999107363
            ]
        },
        {
            "positions": [
                -0.5210778934569917,
                -0.5832552488815335,
                -0.054651846121474223,
                -0.11376230640710289,
                0.8759437045352133,
                2.0269064926453555
            ]
        },
        {
            "positions": [
                -0.4750941016871305,
                -0.622216860174605,
                0.08880905093010605,
                -0.15525176269685076,
                0.8225083102631152,
                2.0967533853799747
            ]
        },
        {
            "positions": [
                -0.4291103099172693,
                -0.6611784714676767,
                0.23226994798168676,
                -0.19674121898659863,
                0.7690729159910171,
                2.1666002781145943
            ]
        },
        {
            "positions": [
                -0.38312651814740806,
                -0.700140082760748,
                0.37573084503326704,
                -0.2382306752763465,
                0.7156375217189191,
                2.236447170849213
            ]
        },
        {
            "positions": [
                -0.33714272637754683,
                -0.7391016940538198,
                0.5191917420848478,
                -0.2797201315660944,
                0.662202127446821,
                2.3062940635838327
            ]
        },
        {
            "positions": [
                -0.2911589346076857,
                -0.7780633053468913,
                0.6626526391364276,
                -0.32120958785584225,
                0.6087667331747231,
                2.376140956318452
            ]
        },
        {
            "positions": [
                -0.24517514283782438,
                -0.8170249166399628,
                0.8061135361880083,
                -0.36269904414559023,
                0.5553313389026251,
                2.445987849053071
            ]
        },
        {
            "positions": [
                -0.19919135106796326,
                -0.8559865279330343,
                0.9495744332395886,
                -0.404188500435338,
                0.5018959446305271,
                2.5158347417876903
            ]
        },
        {
            "positions": [
                -0.15320755929810204,
                -0.8949481392261058,
                1.0930353302911693,
                -0.445677956725086,
                0.4484605503584289,
                2.5856816345223095
            ]
        },
        {
            "positions": [
                -0.10722376752824081,
                -0.9339097505191774,
                1.236496227342749,
                -0.48716741301483374,
                0.39502515608633093,
                2.655528527256929
            ]
        },
        {
            "positions": [
                -0.061239975758379694,
                -0.9728713618122489,
                1.3799571243943298,
                -0.5286568693045817,
                0.34158976181423295,
                2.725375419991548
            ]
        },
        {
            "positions": [
                -0.015256183988518357,
                -1.0118329731053204,
                1.52341802144591,
                -0.5701463255943295,
                0.28815436754213497,
                2.7952223127261675
            ]
        },
        {
            "positions": [
                0.03072760778134276,
                -1.0507945843983921,
                1.6668789184974908,
                -0.6116357818840774,
                0.23471897327003677,
                2.8650692054607867
            ]
        },
        {
            "positions": [
                0.07671139955120387,
                -1.0897561956914636,
                1.8103398155490706,
                -0.6531252381738253,
                0.181283578997939,
                2.934916098195406
            ]
        },
        {
            "positions": [
                0.12269519132106525,
                -1.1287178069845352,
                1.9538007126006514,
                -0.6946146944635733,
                0.1278481847258407,
                3.004762990930025
            ]
        }
    ]
}