{
    "goal": {
        "global_pose": {
            "orientation": {
                "w": 0.7047431468963623,
                "x": -0.7094548344612122,
                "y": 0.0024358443915843964,
                "z": -0.0022348060738295317
            },
            "position": {
                "x": 0.6094750761985779,
                "y": 0.3671506643295288,
                "z": 0.19426114857196808
            }
        },
        "name": "move_to_magneteinheit_A"
    },
    "id": "FMT_move_to_magneteinheit_A_85",
    "joint_names": [
        "shoulder_pan_joint",
        "shoulder_lift_joint",
        "elbow_joint",
        "wrist_1_joint",
        "wrist_2_joint",
        "wrist_3_joint"
    ],
    "metrics": {
        "cart_traj_len": 1.8807990986746546,
        "distance_elbow_joint": 3.909338564534493,
        "distance_shoulder_lift_joint": 0.6977762736185799,
        "distance_shoulder_pan_joint": 1.2424635183693993,
        "distance_wrist_1_joint": 1.4831097233562864,
        "distance_wrist_2_joint": 1.7018311097006737,
        "distance_wrist_3_joint": 1.1033237386111185,
        "smoothness": 4.605369601539975e-16,
        "time": 1.2490019449999998,
        "traj_len": 3.1839979472654423,
        "weighted_distance": 3.9407399354016936
    },
    "planner": "FMT",
    "start": {
        "state": {
            "elbow_joint": -1.919643507792019,
            "shoulder_lift_joint": -0.07675430207160344,
            "shoulder_pan_joint": -1.1188671864651873,
            "wrist_1_joint": 0.42560062535961957,
            "wrist_2_joint": 1.5706038300724876,
            "wrist_3_joint": 1.1188968870953055
        }
    },
    "waypoints": [
        {
            "positions": [
                -1.1188671864651873,
                -0.07675430207160344,
                -1.919643507792019,
                0.42560062535961957,
                1.5706038300724876,
                1.1188968870953055
            ]
        },
        {
            "positions": [
                -1.0710801280663642,
                -0.10359185105693344,
                -1.769284332233,
                0.48264330702716907,
                1.5051487873916924,
                1.0764613586871856
            ]
        },
        {
            "positions": [
                -1.0232930696675413,
                -0.13042940004226344,
                -1.6189251566739813,
                0.5396859886947185,
                1.4396937447108973,
                1.0340258302790657
            ]
        },
        {
            "positions": [
                -0.9755060112687182,
                -0.15726694902759344,
                -1.468565981114962,
                0.5967286703622681,
                1.3742387020301021,
                0.9915903018709458
            ]
        },
        {
            "positions": [
                -0.9277189528698951,
                -0.18410449801292345,
                -1.3182068055559433,
                0.6537713520298175,
                1.308783659349307,
                0.9491547734628257
            ]
        },
        {
            "positions": [
                -0.8799318944710721,
                -0.21094204699825345,
                -1.1678476299969243,
                0.710814033697367,
                1.2433286166685118,
                0.9067192450547058
            ]
        },
        {
            "positions": [
                -0.832144836072249,
                -0.23777959598358345,
                -1.0174884544379053,
                0.7678567153649165,
                1.1778735739877166,
                0.8642837166465859
            ]
        },
        {
            "positions": [
                -0.7843577776734261,
                -0.2646171449689134,
                -0.8671292788788865,
                0.8248993970324658,
                1.1124185313069217,
                0.821848188238466
            ]
        },
        {
            "positions": [
                -0.7365707192746029,
                -0.29145469395424345,
                -0.7167701033198675,
                0.8819420787000154,
                1.0469634886261265,
                0.7794126598303459
            ]
        },
        {
            "positions": [
                -0.6887836608757799,
                -0.3182922429395734,
                -0.5664109277608484,
                0.938984760367565,
                0.9815084459453314,
                0.736977131422226
            ]
        },
        {
            "positions": [
                -0.6409966024769569,
                -0.34512979192490345,
                -0.41605175220182944,
                0.9960274420351143,
                0.9160534032645361,
                0.6945416030141061
            ]
        },
        {
            "positions": [
                -0.5932095440781339,
                -0.3719673409102334,
                -0.26569257664281065,
                1.0530701237026638,
                0.850598360583741,
                0.6521060746059861
            ]
        },
        {
            "positions": [
                -0.5454224856793107,
                -0.39880488989556345,
                -0.11533340108379142,
                1.1101128053702134,
                0.7851433179029458,
                0.6096705461978662
            ]
        },
        {
            "positions": [
                -0.4976354272804877,
                -0.4256424388808934,
                0.03502577447522737,
                1.1671554870377627,
                0.7196882752221507,
                0.5672350177897463
            ]
        },
        {
            "positions": [
                -0.4498483688816647,
                -0.4524799878662234,
                0.18538495003424615,
                1.2241981687053123,
                0.6542332325413557,
                0.5247994893816263
            ]
        },
        {
            "positions": [
                -0.40206131048284166,
                -0.47931753685155337,
                0.33574412559326494,
                1.2812408503728616,
                0.5887781898605605,
                0.4823639609735064
            ]
        },
        {
            "positions": [
                -0.3542742520840185,
                -0.5061550858368835,
                0.4861033011522842,
                1.3382835320404112,
                0.5233231471797652,
                0.4399284325653864
            ]
        },
        {
            "positions": [
                -0.3064871936851955,
                -0.5329926348222134,
                0.6364624767113034,
                1.3953262137079607,
                0.4578681044989701,
                0.39749290415726646
            ]
        },
        {
            "positions": [
                -0.2587001352863725,
                -0.5598301838075435,
                0.7868216522703222,
                1.4523688953755103,
                0.39241306181817515,
                0.35505737574914653
            ]
        },
        {
            "positions": [
                -0.21091307688754946,
                -0.5866677327928733,
                0.937180827829341,
                1.5094115770430596,
                0.32695801913738,
                0.3126218473410267
            ]
        },
        {
            "positions": [
                -0.16312601848872632,
                -0.6135052817782034,
                1.0875400033883602,
                1.5664542587106092,
                0.2615029764565846,
                0.27018631893290657
            ]
        },
        {
            "positions": [
                -0.1153389600899033,
                -0.6403428307635335,
                1.237899178947379,
                1.6234969403781587,
                0.19604793377578944,
                0.22775079052478675
            ]
        },
        {
            "positions": [
                -0.06755190169108038,
                -0.6671803797488634,
                1.3882583545063978,
                1.680539622045708,
                0.1305928910949945,
                0.18531526211666682
            ]
        },
        {
            "positions": [
                -0.01976484329225725,
                -0.6940179287341934,
                1.538617530065417,
                1.7375823037132576,
                0.06513784841419934,
                0.1428797337085469
            ]
        },
        {
            "positions": [
                0.028022215106565884,
                -0.7208554777195235,
                1.6889767056244362,
                1.7946249853808072,
                -0.00031719426659604366,
                0.10044420530042686
            ]
        },
        {
            "positions": [
                0.07580927350538902,
                -0.7476930267048534,
                1.839335881183455,
                1.8516676670483567,
                -0.06577223694739098,
                0.05800867689230693
            ]
        },
        {
            "positions": [
                0.12359633190421186,
                -0.7745305756901834,
                1.989695056742474,
                1.908710348715906,
                -0.13122727962818626,
                0.01557314848418698
            ]
        }
    ]
}