{
    "goal": {
        "global_pose": {
            "orientation": {
                "w": 0.7047431468963623,
                "x": -0.7094548344612122,
                "y": 0.0024358443915843964,
                "z": -0.0022348060738295317
            },
            "position": {
                "x": 0.6094750761985779,
                "y": 0.3671506643295288,
                "z": 0.19426114857196808
            }
        },
        "name": "move_to_magneteinheit_A"
    },
    "id": "FMT_move_to_magneteinheit_A_51",
    "joint_names": [
        "shoulder_pan_joint",
        "shoulder_lift_joint",
        "elbow_joint",
        "wrist_1_joint",
        "wrist_2_joint",
        "wrist_3_joint"
    ],
    "metrics": {
        "cart_traj_len": 2.061930648859306,
        "distance_elbow_joint": 3.870703269283093,
        "distance_shoulder_lift_joint": 1.0516729941148293,
        "distance_shoulder_pan_joint": 1.2418445014237895,
        "distance_wrist_1_joint": 1.115745400661016,
        "distance_wrist_2_joint": 1.44419609217717,
        "distance_wrist_3_joint": 1.8886007078543412,
        "smoothness": 5.075305259828549e-16,
        "time": 1.203235037,
        "traj_len": 3.2577235864195475,
        "weighted_distance": 4.1170263387621295
    },
    "planner": "FMT",
    "start": {
        "state": {
            "elbow_joint": -1.919643507792019,
            "shoulder_lift_joint": -0.07675430207160344,
            "shoulder_pan_joint": -1.1188671864651873,
            "wrist_1_joint": 0.42560062535961957,
            "wrist_2_joint": 1.5706038300724876,
            "wrist_3_joint": 1.1188968870953055
        }
    },
    "waypoints": [
        {
            "positions": [
                -1.1188671864651873,
                -0.07675430207160344,
                -1.919643507792019,
                0.42560062535961957,
                1.5706038300724876,
                1.1188968870953055
            ]
        },
        {
            "positions": [
                -1.0728729456717137,
                -0.11570515370548601,
                -1.7762841274482009,
                0.3842767216314338,
                1.5171150859177776,
                1.1888450614602812
            ]
        },
        {
            "positions": [
                -1.02687870487824,
                -0.15465600533936857,
                -1.6329247471043826,
                0.34295281790324805,
                1.4636263417630677,
                1.2587932358252567
            ]
        },
        {
            "positions": [
                -0.9808844640847663,
                -0.19360685697325114,
                -1.4895653667605644,
                0.30162891417506227,
                1.4101375976083577,
                1.3287414101902324
            ]
        },
        {
            "positions": [
                -0.9348902232912926,
                -0.2325577086071337,
                -1.346205986416746,
                0.2603050104468765,
                1.3566488534536476,
                1.3986895845552079
            ]
        },
        {
            "positions": [
                -0.8888959824978189,
                -0.2715085602410163,
                -1.202846606072928,
                0.2189811067186907,
                1.3031601092989376,
                1.4686377589201836
            ]
        },
        {
            "positions": [
                -0.8429017417043452,
                -0.31045941187489884,
                -1.0594872257291095,
                0.17765720299050494,
                1.2496713651442277,
                1.5385859332851592
            ]
        },
        {
            "positions": [
                -0.7969075009108715,
                -0.3494102635087814,
                -0.9161278453852912,
                0.13633329926231919,
                1.1961826209895177,
                1.6085341076501347
            ]
        },
        {
            "positions": [
                -0.7509132601173979,
                -0.38836111514266397,
                -0.772768465041473,
                0.0950093955341334,
                1.1426938768348076,
                1.6784822820151102
            ]
        },
        {
            "positions": [
                -0.7049190193239242,
                -0.42731196677654654,
                -0.6294090846976548,
                0.053685491805947616,
                1.0892051326800978,
                1.7484304563800859
            ]
        },
        {
            "positions": [
                -0.6589247785304505,
                -0.4662628184104291,
                -0.48604970435383654,
                0.012361588077761831,
                1.0357163885253877,
                1.8183786307450616
            ]
        },
        {
            "positions": [
                -0.6129305377369768,
                -0.5052136700443117,
                -0.3426903240100183,
                -0.028962315650423953,
                0.9822276443706777,
                1.888326805110037
            ]
        },
        {
            "positions": [
                -0.5669362969435031,
                -0.5441645216781943,
                -0.19933094366620008,
                -0.07028621937860968,
                0.9287389002159677,
                1.9582749794750127
            ]
        },
        {
            "positions": [
                -0.5209420561500294,
                -0.5831153733120769,
                -0.055971563322381845,
                -0.11161012310679547,
                0.8752501560612577,
                2.0282231538399884
            ]
        },
        {
            "positions": [
                -0.4749478153565557,
                -0.6220662249459594,
                0.08738781702143661,
                -0.1529340268349812,
                0.8217614119065477,
                2.098171328204964
            ]
        },
        {
            "positions": [
                -0.42895357456308203,
                -0.661017076579842,
                0.23074719736525506,
                -0.19425793056316704,
                0.7682726677518376,
                2.1681195025699393
            ]
        },
        {
            "positions": [
                -0.38295933376960845,
                -0.6999679282137246,
                0.3741065777090731,
                -0.23558183429135277,
                0.7147839235971277,
                2.2380676769349153
            ]
        },
        {
            "positions": [
                -0.33696509297613464,
                -0.7389187798476071,
                0.5174659580528915,
                -0.2769057380195386,
                0.6612951794424177,
                2.3080158512998907
            ]
        },
        {
            "positions": [
                -0.29097085218266105,
                -0.7778696314814897,
                0.6608253383967095,
                -0.31822964174772433,
                0.6078064352877077,
                2.377964025664866
            ]
        },
        {
            "positions": [
                -0.24497661138918725,
                -0.8168204831153723,
                0.804184718740528,
                -0.3595535454759102,
                0.5543176911329977,
                2.447912200029842
            ]
        },
        {
            "positions": [
                -0.19898237059571366,
                -0.8557713347492548,
                0.947544099084346,
                -0.4008774492040959,
                0.5008289469782876,
                2.5178603743948176
            ]
        },
        {
            "positions": [
                -0.15298812980223986,
                -0.8947221863831374,
                1.0909034794281645,
                -0.44220135293228174,
                0.44734020282357756,
                2.587808548759793
            ]
        },
        {
            "positions": [
                -0.10699388900876627,
                -0.93367303801702,
                1.2342628597719825,
                -0.4835252566604675,
                0.3938514586688677,
                2.657756723124769
            ]
        },
        {
            "positions": [
                -0.06099964821529258,
                -0.9726238896509025,
                1.377622240115801,
                -0.5248491603886531,
                0.34036271451415767,
                2.7277048974897444
            ]
        },
        {
            "positions": [
                -0.015005407421818884,
                -1.011574741284785,
                1.520981620459619,
                -0.566173064116839,
                0.28687397035944784,
                2.79765307185472
            ]
        },
        {
            "positions": [
                0.03098883337165481,
                -1.0505255929186677,
                1.6643410008034374,
                -0.6074969678450248,
                0.23338522620473756,
                2.867601246219696
            ]
        },
        {
            "positions": [
                0.0769830741651285,
                -1.0894764445525502,
                1.8077003811472554,
                -0.6488208715732104,
                0.17989648205002773,
                2.937549420584671
            ]
        },
        {
            "positions": [
                0.12297731495860216,
                -1.1284272961864328,
                1.9510597614910739,
                -0.6901447753013963,
                0.12640773789531762,
                3.0074975949496467
            ]
        }
    ]
}