{
    "goal": {
        "global_pose": {
            "orientation": {
                "w": 0.7047431468963623,
                "x": -0.7094548344612122,
                "y": 0.0024358443915843964,
                "z": -0.0022348060738295317
            },
            "position": {
                "x": 0.6094750761985779,
                "y": 0.3671506643295288,
                "z": 0.19426114857196808
            }
        },
        "name": "move_to_magneteinheit_A"
    },
    "id": "FMT_move_to_magneteinheit_A_10",
    "joint_names": [
        "shoulder_pan_joint",
        "shoulder_lift_joint",
        "elbow_joint",
        "wrist_1_joint",
        "wrist_2_joint",
        "wrist_3_joint"
    ],
    "metrics": {
        "cart_traj_len": 2.0625517644449545,
        "distance_elbow_joint": 3.87038177446152,
        "distance_shoulder_lift_joint": 1.0495274893730235,
        "distance_shoulder_pan_joint": 1.2405331958313106,
        "distance_wrist_1_joint": 1.1185686535677268,
        "distance_wrist_2_joint": 1.4511153148303542,
        "distance_wrist_3_joint": 1.8953325610091056,
        "smoothness": 4.440892100287352e-16,
        "time": 1.23208297,
        "traj_len": 3.2596716075508345,
        "weighted_distance": 4.12138424312625
    },
    "planner": "FMT",
    "start": {
        "state": {
            "elbow_joint": -1.919643507792019,
            "shoulder_lift_joint": -0.07675430207160344,
            "shoulder_pan_joint": -1.1188671864651873,
            "wrist_1_joint": 0.42560062535961957,
            "wrist_2_joint": 1.5706038300724876,
            "wrist_3_joint": 1.1188968870953055
        }
    },
    "waypoints": [
        {
            "positions": [
                -1.1188671864651873,
                -0.07675430207160344,
                -1.919643507792019,
                0.42560062535961957,
                1.5706038300724876,
                1.1188968870953055
            ]
        },
        {
            "positions": [
                -1.0729215125455092,
                -0.11562569056690061,
                -1.7762960346638146,
                0.38417215670896304,
                1.5168588184121041,
                1.189094389354902
            ]
        },
        {
            "positions": [
                -1.026975838625831,
                -0.15449707906219778,
                -1.6329485615356103,
                0.34274368805830646,
                1.4631138067517206,
                1.2592918916144986
            ]
        },
        {
            "positions": [
                -0.9810301647061528,
                -0.19336846755749493,
                -1.4896010884074058,
                0.30131521940764994,
                1.4093687950913372,
                1.329489393874095
            ]
        },
        {
            "positions": [
                -0.9350844907864747,
                -0.2322398560527921,
                -1.3462536152792013,
                0.2598867507569934,
                1.3556237834309537,
                1.3996868961336917
            ]
        },
        {
            "positions": [
                -0.8891388168667965,
                -0.27111124454808927,
                -1.2029061421509968,
                0.21845828210633686,
                1.3018787717705702,
                1.469884398393288
            ]
        },
        {
            "positions": [
                -0.8431931429471183,
                -0.30998263304338647,
                -1.0595586690227925,
                0.17702981345568033,
                1.2481337601101867,
                1.5400819006528845
            ]
        },
        {
            "positions": [
                -0.7972474690274401,
                -0.3488540215386836,
                -0.916211195894588,
                0.13560134480502378,
                1.1943887484498033,
                1.610279402912481
            ]
        },
        {
            "positions": [
                -0.7513017951077621,
                -0.38772541003398076,
                -0.7728637227663837,
                0.09417287615436726,
                1.1406437367894198,
                1.6804769051720776
            ]
        },
        {
            "positions": [
                -0.7053561211880839,
                -0.42659679852927795,
                -0.6295162496381792,
                0.05274440750371073,
                1.0868987251290363,
                1.750674407431674
            ]
        },
        {
            "positions": [
                -0.6594104472684057,
                -0.4654681870245751,
                -0.4861687765099747,
                0.011315938853054153,
                1.0331537134686528,
                1.8208719096912707
            ]
        },
        {
            "positions": [
                -0.6134647733487275,
                -0.5043395755198723,
                -0.3428213033817704,
                -0.030112529797602372,
                0.9794087018082692,
                1.891069411950867
            ]
        },
        {
            "positions": [
                -0.5675190994290493,
                -0.5432109640151694,
                -0.1994738302535659,
                -0.0715409984482589,
                0.9256636901478857,
                1.9612669142104635
            ]
        },
        {
            "positions": [
                -0.5215734255093711,
                -0.5820823525104666,
                -0.056126357125361404,
                -0.11296946709891548,
                0.8719186784875023,
                2.03146441647006
            ]
        },
        {
            "positions": [
                -0.47562775158969295,
                -0.6209537410057637,
                0.0872211160028431,
                -0.154397935749572,
                0.8181736668271188,
                2.101661918729657
            ]
        },
        {
            "positions": [
                -0.42968207767001476,
                -0.6598251295010611,
                0.2305685891310476,
                -0.19582640440022853,
                0.7644286551667353,
                2.171859420989253
            ]
        },
        {
            "positions": [
                -0.3837364037503367,
                -0.698696517996358,
                0.37391606225925167,
                -0.23725487305088505,
                0.7106836435063518,
                2.2420569232488496
            ]
        },
        {
            "positions": [
                -0.3377907298306584,
                -0.7375679064916554,
                0.5172635353874566,
                -0.2786833417015417,
                0.6569386318459682,
                2.312254425508446
            ]
        },
        {
            "positions": [
                -0.2918450559109803,
                -0.7764392949869525,
                0.6606110085156607,
                -0.3201118103521981,
                0.6031936201855849,
                2.3824519277680425
            ]
        },
        {
            "positions": [
                -0.24589938199130212,
                -0.8153106834822497,
                0.8039584816438652,
                -0.36154027900285474,
                0.5494486085252013,
                2.4526494300276394
            ]
        },
        {
            "positions": [
                -0.19995370807162394,
                -0.8541820719775468,
                0.9473059547720697,
                -0.40296874765351126,
                0.495703596864818,
                2.5228469322872353
            ]
        },
        {
            "positions": [
                -0.15400803415194575,
                -0.893053460472844,
                1.0906534279002742,
                -0.4443972163041678,
                0.4419585852044343,
                2.593044434546832
            ]
        },
        {
            "positions": [
                -0.10806236023226767,
                -0.9319248489681411,
                1.2340009010284783,
                -0.4858256849548243,
                0.38821357354405084,
                2.6632419368064286
            ]
        },
        {
            "positions": [
                -0.062116686312589486,
                -0.9707962374634382,
                1.3773483741566832,
                -0.5272541536054809,
                0.33446856188366736,
                2.733439439066025
            ]
        },
        {
            "positions": [
                -0.0161710123929113,
                -1.0096676259587354,
                1.5206958472848873,
                -0.5686826222561374,
                0.2807235502232839,
                2.8036369413256215
            ]
        },
        {
            "positions": [
                0.029774661526766888,
                -1.0485390144540327,
                1.6640433204130918,
                -0.6101110909067939,
                0.2269785385629004,
                2.873834443585218
            ]
        },
        {
            "positions": [
                0.07572033544644508,
                -1.08741040294933,
                1.8073907935412963,
                -0.6515395595574505,
                0.17323352690251692,
                2.9440319458448148
            ]
        },
        {
            "positions": [
                0.12166600936612319,
                -1.126281791444627,
                1.9507382666695008,
                -0.6929680282081071,
                0.11948851524213343,
                3.014229448104411
            ]
        }
    ]
}