{
    "goal": {
        "global_pose": {
            "orientation": {
                "w": 0.7047431468963623,
                "x": -0.7094548344612122,
                "y": 0.0024358443915843964,
                "z": -0.0022348060738295317
            },
            "position": {
                "x": 0.6094750761985779,
                "y": 0.3671506643295288,
                "z": 0.19426114857196808
            }
        },
        "name": "move_to_magneteinheit_A"
    },
    "id": "FMT_move_to_magneteinheit_A_72",
    "joint_names": [
        "shoulder_pan_joint",
        "shoulder_lift_joint",
        "elbow_joint",
        "wrist_1_joint",
        "wrist_2_joint",
        "wrist_3_joint"
    ],
    "metrics": {
        "cart_traj_len": 2.066085925894976,
        "distance_elbow_joint": 3.8826126062423274,
        "distance_shoulder_lift_joint": 1.0571392048943946,
        "distance_shoulder_pan_joint": 1.2420242308420284,
        "distance_wrist_1_joint": 1.153640347219281,
        "distance_wrist_2_joint": 1.4305829858942614,
        "distance_wrist_3_joint": 1.9163461968441102,
        "smoothness": 6.661338156445819e-16,
        "time": 1.2490905429999999,
        "traj_len": 3.268385774650294,
        "weighted_distance": 4.135125306292201
    },
    "planner": "FMT",
    "start": {
        "state": {
            "elbow_joint": -1.919643507792019,
            "shoulder_lift_joint": -0.07675430207160344,
            "shoulder_pan_joint": -1.1188671864651873,
            "wrist_1_joint": 0.42560062535961957,
            "wrist_2_joint": 1.5706038300724876,
            "wrist_3_joint": 1.1188968870953055
        }
    },
    "waypoints": [
        {
            "positions": [
                -1.1188671864651873,
                -0.07675430207160344,
                -1.919643507792019,
                0.42560062535961957,
                1.5706038300724876,
                1.1188968870953055
            ]
        },
        {
            "positions": [
                -1.0728662890265936,
                -0.11590760595658102,
                -1.7758430408941552,
                0.38287320509223877,
                1.5176192750393669,
                1.189872672163606
            ]
        },
        {
            "positions": [
                -1.0268653915880002,
                -0.1550609098415586,
                -1.6320425739962912,
                0.340145784824858,
                1.464634720006246,
                1.2608484572319063
            ]
        },
        {
            "positions": [
                -0.9808644941494065,
                -0.1942142137265362,
                -1.488242107098427,
                0.2974183645574772,
                1.4116501649731252,
                1.3318242423002067
            ]
        },
        {
            "positions": [
                -0.9348635967108128,
                -0.23336751761151375,
                -1.3444416402005632,
                0.2546909442900964,
                1.3586656099400045,
                1.402800027368507
            ]
        },
        {
            "positions": [
                -0.8888626992722192,
                -0.2725208214964913,
                -1.2006411733026994,
                0.21196352402271568,
                1.3056810549068838,
                1.4737758124368074
            ]
        },
        {
            "positions": [
                -0.8428618018336255,
                -0.3116741253814689,
                -1.0568407064048353,
                0.16923610375533488,
                1.2526964998737629,
                1.5447515975051078
            ]
        },
        {
            "positions": [
                -0.7968609043950319,
                -0.3508274292664465,
                -0.9130402395069712,
                0.12650868348795413,
                1.1997119448406421,
                1.6157273825734082
            ]
        },
        {
            "positions": [
                -0.7508600069564382,
                -0.38998073315142406,
                -0.7692397726091074,
                0.08378126322057333,
                1.1467273898075212,
                1.6867031676417086
            ]
        },
        {
            "positions": [
                -0.7048591095178446,
                -0.4291340370364016,
                -0.6254393057112433,
                0.04105384295319253,
                1.0937428347744005,
                1.757678952710009
            ]
        },
        {
            "positions": [
                -0.658858212079251,
                -0.4682873409213792,
                -0.48163883881337943,
                -0.0016735773141882127,
                1.0407582797412798,
                1.8286547377783093
            ]
        },
        {
            "positions": [
                -0.6128573146406573,
                -0.5074406448063568,
                -0.33783837191551536,
                -0.04440099758156901,
                0.9877737247081589,
                1.8996305228466097
            ]
        },
        {
            "positions": [
                -0.5668564172020636,
                -0.5465939486913344,
                -0.1940379050176515,
                -0.08712841784894981,
                0.9347891696750381,
                1.97060630791491
            ]
        },
        {
            "positions": [
                -0.52085551976347,
                -0.5857472525763119,
                -0.050237438119787425,
                -0.12985583811633056,
                0.8818046146419174,
                2.0415820929832105
            ]
        },
        {
            "positions": [
                -0.4748546223248764,
                -0.6249005564612895,
                0.09356302877807665,
                -0.1725832583837113,
                0.8288200596087966,
                2.112557878051511
            ]
        },
        {
            "positions": [
                -0.4288537248862827,
                -0.6640538603462671,
                0.23736349567594073,
                -0.21531067865109216,
                0.7758355045756757,
                2.1835336631198112
            ]
        },
        {
            "positions": [
                -0.3828528274476891,
                -0.7032071642312447,
                0.38116396257380436,
                -0.2580380989184729,
                0.722850949542555,
                2.2545094481881116
            ]
        },
        {
            "positions": [
                -0.3368519300090954,
                -0.7423604681162224,
                0.5249644294716684,
                -0.30076551918585376,
                0.6698663945094341,
                2.325485233256412
            ]
        },
        {
            "positions": [
                -0.2908510325705018,
                -0.7815137720011998,
                0.6687648963695325,
                -0.3434929394532345,
                0.6168818394763134,
                2.3964610183247124
            ]
        },
        {
            "positions": [
                -0.24485013513190812,
                -0.8206670758861774,
                0.8125653632673966,
                -0.38622035972061536,
                0.5638972844431926,
                2.4674368033930127
            ]
        },
        {
            "positions": [
                -0.19884923769331453,
                -0.859820379771155,
                0.9563658301652602,
                -0.428947779987996,
                0.5109127294100719,
                2.538412588461313
            ]
        },
        {
            "positions": [
                -0.15284834025472083,
                -0.8989736836561326,
                1.1001662970631243,
                -0.47167520025537685,
                0.457928174376951,
                2.6093883735296135
            ]
        },
        {
            "positions": [
                -0.10684744281612724,
                -0.93812698754111,
                1.2439667639609884,
                -0.5144026205227576,
                0.4049436193438303,
                2.680364158597914
            ]
        },
        {
            "positions": [
                -0.060846545377533534,
                -0.9772802914260879,
                1.3877672308588525,
                -0.5571300407901385,
                0.35195906431070934,
                2.7513399436662143
            ]
        },
        {
            "positions": [
                -0.014845647938939832,
                -1.0164335953110653,
                1.531567697756716,
                -0.5998574610575191,
                0.2989745092775886,
                2.8223157287345146
            ]
        },
        {
            "positions": [
                0.03115524949965387,
                -1.0555868991960429,
                1.6753681646545802,
                -0.6425848813249,
                0.2459899542444679,
                2.893291513802815
            ]
        },
        {
            "positions": [
                0.07715614693824735,
                -1.0947402030810205,
                1.8191686315524442,
                -0.6853123015922806,
                0.19300539921134718,
                2.9642672988711154
            ]
        },
        {
            "positions": [
                0.12315704437684104,
                -1.133893506965998,
                1.9629690984503085,
                -0.7280397218596615,
                0.14002084417822633,
                3.0352430839394158
            ]
        }
    ]
}