{
    "goal": {
        "global_pose": {
            "orientation": {
                "w": -0.00223480608172531,
                "x": 0.0024358444001904467,
                "y": 0.7094548369677653,
                "z": -0.704743149386269
            },
            "position": {
                "x": 0.6205249238014221,
                "y": -0.6371506643295288,
                "z": 0.19426114857196808
            }
        },
        "name": "move_to_magneteinheit_B"
    },
    "id": "FMT_move_to_magneteinheit_B_87",
    "joint_names": [
        "shoulder_pan_joint",
        "shoulder_lift_joint",
        "elbow_joint",
        "wrist_1_joint",
        "wrist_2_joint",
        "wrist_3_joint"
    ],
    "metrics": {
        "cart_traj_len": 1.4532746313393754,
        "distance_elbow_joint": 0.7276960729819213,
        "distance_shoulder_lift_joint": 1.2479815677612054,
        "distance_shoulder_pan_joint": 1.6222616978621671,
        "distance_wrist_1_joint": 2.6093707259155283,
        "distance_wrist_2_joint": 2.9329917000860117,
        "distance_wrist_3_joint": 3.1337635029295385,
        "smoothness": 2.775557567883112e-16,
        "time": 1.344345282,
        "traj_len": 3.5034362085724315,
        "weighted_distance": 4.907540595797143
    },
    "planner": "FMT",
    "start": {
        "state": {
            "elbow_joint": 2.39358713078474,
            "shoulder_lift_joint": -1.908514104345545,
            "shoulder_pan_joint": 0.7066247066606129,
            "wrist_1_joint": -0.4678290933515497,
            "wrist_2_joint": 0.7096259083745334,
            "wrist_3_joint": -3.1358149277392293
        }
    },
    "waypoints": [
        {
            "positions": [
                0.7066247066606129,
                -1.908514104345545,
                2.39358713078474,
                -0.4678290933515497,
                0.7096259083745334,
                -3.1358149277392293
            ]
        },
        {
            "positions": [
                0.6542936841489302,
                -1.868256634417764,
                2.3701130639143555,
                -0.38365584412846815,
                0.6150132728878879,
                -3.034725782483438
            ]
        },
        {
            "positions": [
                0.6019626616372473,
                -1.8279991644899833,
                2.346638997043971,
                -0.2994825949053866,
                0.5204006374012423,
                -2.933636637227646
            ]
        },
        {
            "positions": [
                0.5496316391255645,
                -1.7877416945622024,
                2.3231649301735864,
                -0.21530934568230503,
                0.4257880019145968,
                -2.8325474919718547
            ]
        },
        {
            "positions": [
                0.4973006166138817,
                -1.7474842246344218,
                2.299690863303202,
                -0.13113609645922347,
                0.33117536642795126,
                -2.731458346716063
            ]
        },
        {
            "positions": [
                0.4449695941021989,
                -1.7072267547066409,
                2.2762167964328173,
                -0.046962847236141914,
                0.23656273094130575,
                -2.6303692014602715
            ]
        },
        {
            "positions": [
                0.39263857159051607,
                -1.66696928477886,
                2.2527427295624327,
                0.037210401986939645,
                0.1419500954546602,
                -2.52928005620448
            ]
        },
        {
            "positions": [
                0.34030754907883326,
                -1.6267118148510793,
                2.229268662692048,
                0.1213836512100212,
                0.04733745996801464,
                -2.4281909109486883
            ]
        },
        {
            "positions": [
                0.28797652656715045,
                -1.5864543449232984,
                2.2057945958216636,
                0.20555690043310276,
                -0.04727517551863092,
                -2.327101765692897
            ]
        },
        {
            "positions": [
                0.23564550405546764,
                -1.5461968749955175,
                2.182320528951279,
                0.2897301496561843,
                -0.14188781100527648,
                -2.226012620437105
            ]
        },
        {
            "positions": [
                0.18331448154378482,
                -1.5059394050677368,
                2.1588464620808945,
                0.3739033988792659,
                -0.23650044649192192,
                -2.1249234751813137
            ]
        },
        {
            "positions": [
                0.13098345903210196,
                -1.465681935139956,
                2.13537239521051,
                0.45807664810234744,
                -0.3311130819785676,
                -2.0238343299255224
            ]
        },
        {
            "positions": [
                0.0786524365204192,
                -1.425424465212175,
                2.1118983283401254,
                0.542249897325429,
                -0.42572571746521304,
                -1.9227451846697305
            ]
        },
        {
            "positions": [
                0.026321414008736332,
                -1.3851669952843944,
                2.088424261469741,
                0.6264231465485106,
                -0.5203383529518587,
                -1.821656039413939
            ]
        },
        {
            "positions": [
                -0.026009608502946424,
                -1.3449095253566135,
                2.0649501945993562,
                0.7105963957715922,
                -0.6149509884385042,
                -1.7205668941581473
            ]
        },
        {
            "positions": [
                -0.07834063101462918,
                -1.3046520554288326,
                2.0414761277289717,
                0.7947696449946737,
                -0.7095636239251496,
                -1.6194777489023557
            ]
        },
        {
            "positions": [
                -0.13067165352631205,
                -1.2643945855010519,
                2.018002060858587,
                0.8789428942177553,
                -0.8041762594117953,
                -1.5183886036465644
            ]
        },
        {
            "positions": [
                -0.1830026760379948,
                -1.2241371155732712,
                1.9945279939882026,
                0.9631161434408366,
                -0.8987888948984407,
                -1.4172994583907728
            ]
        },
        {
            "positions": [
                -0.23533369854967767,
                -1.18387964564549,
                1.971053927117818,
                1.0472893926639184,
                -0.9934015303850864,
                -1.316210313134981
            ]
        },
        {
            "positions": [
                -0.28766472106136043,
                -1.1436221757177094,
                1.9475798602474335,
                1.131462641887,
                -1.0880141658717317,
                -1.2151211678791896
            ]
        },
        {
            "positions": [
                -0.3399957435730433,
                -1.1033647057899285,
                1.924105793377049,
                1.2156358911100815,
                -1.1826268013583774,
                -1.1140320226233982
            ]
        },
        {
            "positions": [
                -0.39232676608472594,
                -1.0631072358621476,
                1.9006317265066643,
                1.2998091403331629,
                -1.2772394368450226,
                -1.0129428773676068
            ]
        },
        {
            "positions": [
                -0.44465778859640903,
                -1.022849765934367,
                1.8771576596362798,
                1.3839823895562446,
                -1.3718520723316687,
                -0.911853732111815
            ]
        },
        {
            "positions": [
                -0.4969888111080917,
                -0.982592296006586,
                1.8536835927658952,
                1.4681556387793262,
                -1.466464707818314,
                -0.8107645868560232
            ]
        },
        {
            "positions": [
                -0.5493198336197745,
                -0.9423348260788053,
                1.8302095258955107,
                1.5523288880024078,
                -1.5610773433049596,
                -0.7096754416002318
            ]
        },
        {
            "positions": [
                -0.6016508561314572,
                -0.9020773561510245,
                1.8067354590251261,
                1.6365021372254893,
                -1.6556899787916048,
                -0.6085862963444404
            ]
        },
        {
            "positions": [
                -0.6539818786431403,
                -0.8618198862232436,
                1.7832613921547416,
                1.7206753864485709,
                -1.750302614278251,
                -0.5074971510886486
            ]
        },
        {
            "positions": [
                -0.7063129011548229,
                -0.8215624162954629,
                1.759787325284357,
                1.8048486356716524,
                -1.8449152497648962,
                -0.4064080058328572
            ]
        },
        {
            "positions": [
                -0.7586439236665058,
                -0.781304946367682,
                1.7363132584139724,
                1.889021884894734,
                -1.9395278852515418,
                -0.30531886057706537
            ]
        },
        {
            "positions": [
                -0.8109749461781884,
                -0.7410474764399013,
                1.7128391915435879,
                1.9731951341178156,
                -2.034140520738187,
                -0.20422971532127399
            ]
        },
        {
            "positions": [
                -0.8633059686898713,
                -0.7007900065121202,
                1.6893651246732033,
                2.057368383340897,
                -2.1287531562248327,
                -0.10314057006548216
            ]
        },
        {
            "positions": [
                -0.9156369912015543,
                -0.6605325365843394,
                1.6658910578028188,
                2.1415416325639787,
                -2.2233657917114784,
                -0.0020514248096908973
            ]
        }
    ]
}