{
    "goal": {
        "global_pose": {
            "orientation": {
                "w": 0.5084816217422485,
                "x": -0.49083608388900757,
                "y": 0.5182115435600281,
                "z": -0.4816462993621826
            },
            "position": {
                "x": 0.5540239810943604,
                "y": 0.030875300988554955,
                "z": 0.16403168439865112
            }
        },
        "name": "move_to_storage_A"
    },
    "id": "FMT_move_to_storage_A_95",
    "joint_names": [
        "shoulder_pan_joint",
        "shoulder_lift_joint",
        "elbow_joint",
        "wrist_1_joint",
        "wrist_2_joint",
        "wrist_3_joint"
    ],
    "metrics": {
        "cart_traj_len": 0.35345694677577927,
        "distance_elbow_joint": 0.4491846247423039,
        "distance_shoulder_lift_joint": 0.23350624430031441,
        "distance_shoulder_pan_joint": 0.46391323276964086,
        "distance_wrist_1_joint": 0.23864159737656065,
        "distance_wrist_2_joint": 1.0917985921048727,
        "distance_wrist_3_joint": 0.10209143494264428,
        "smoothness": 0.0,
        "time": 0.39724756,
        "traj_len": 1.6059687812147336,
        "weighted_distance": 2.028240317517394
    },
    "planner": "FMT",
    "start": {
        "state": {
            "elbow_joint": 1.9715463870305268,
            "shoulder_lift_joint": -1.1394903361783484,
            "shoulder_pan_joint": 0.12281147578464417,
            "wrist_1_joint": -0.7804599489681411,
            "wrist_2_joint": 0.12958660307563738,
            "wrist_3_joint": -3.1924946282119055
        }
    },
    "waypoints": [
        {
            "positions": [
                0.12281147578464417,
                -1.1394903361783484,
                1.9715463870305268,
                -0.7804599489681411,
                0.12958660307563738,
                -3.1924946282119055
            ]
        },
        {
            "positions": [
                0.05653815681755263,
                -1.1728483710783932,
                2.03571561913657,
                -0.8145516057362212,
                0.2855578305191906,
                -3.1779101375058136
            ]
        },
        {
            "positions": [
                -0.009735162149538915,
                -1.2062064059784383,
                2.0998848512426136,
                -0.8486432625043012,
                0.4415290579627439,
                -3.1633256467997213
            ]
        },
        {
            "positions": [
                -0.07600848111663046,
                -1.2395644408784832,
                2.164054083348657,
                -0.8827349192723813,
                0.5975002854062971,
                -3.1487411560936294
            ]
        },
        {
            "positions": [
                -0.142281800083722,
                -1.272922475778528,
                2.2282233154547004,
                -0.9168265760404615,
                0.7534715128498504,
                -3.1341566653875375
            ]
        },
        {
            "positions": [
                -0.2085551190508136,
                -1.3062805106785729,
                2.292392547560744,
                -0.9509182328085415,
                0.9094427402934037,
                -3.1195721746814455
            ]
        },
        {
            "positions": [
                -0.2748284380179051,
                -1.339638545578618,
                2.3565617796667873,
                -0.9850098895766216,
                1.0654139677369567,
                -3.104987683975353
            ]
        },
        {
            "positions": [
                -0.3411017569849967,
                -1.3729965804786628,
                2.4207310117728307,
                -1.0191015463447017,
                1.2213851951805101,
                -3.0904031932692613
            ]
        }
    ]
}