{
    "goal": {
        "global_pose": {
            "orientation": {
                "w": 0.7047431468963623,
                "x": -0.7094548344612122,
                "y": 0.0024358443915843964,
                "z": -0.0022348060738295317
            },
            "position": {
                "x": 0.6094750761985779,
                "y": 0.3671506643295288,
                "z": 0.19426114857196808
            }
        },
        "name": "move_to_magneteinheit_A"
    },
    "id": "FMT_move_to_magneteinheit_A_27",
    "joint_names": [
        "shoulder_pan_joint",
        "shoulder_lift_joint",
        "elbow_joint",
        "wrist_1_joint",
        "wrist_2_joint",
        "wrist_3_joint"
    ],
    "metrics": {
        "cart_traj_len": 2.1574963052237686,
        "distance_elbow_joint": 3.8811541842139468,
        "distance_shoulder_lift_joint": 1.0578967818884497,
        "distance_shoulder_pan_joint": 1.2426715742745804,
        "distance_wrist_1_joint": 1.1534860316602296,
        "distance_wrist_2_joint": 1.4368799311671485,
        "distance_wrist_3_joint": 4.348445987866539,
        "smoothness": 7.359192603383234e-16,
        "time": 1.276802257,
        "traj_len": 3.6222278353343387,
        "weighted_distance": 4.94042431675978
    },
    "planner": "FMT",
    "start": {
        "state": {
            "elbow_joint": -1.919643507792019,
            "shoulder_lift_joint": -0.07675430207160344,
            "shoulder_pan_joint": -1.1188671864651873,
            "wrist_1_joint": 0.42560062535961957,
            "wrist_2_joint": 1.5706038300724876,
            "wrist_3_joint": 1.1188968870953055
        }
    },
    "waypoints": [
        {
            "positions": [
                -1.1188671864651873,
                -0.07675430207160344,
                -1.919643507792019,
                0.42560062535961957,
                1.5706038300724876,
                1.1188968870953055
            ]
        },
        {
            "positions": [
                -1.079010988006664,
                -0.10411851533834429,
                -1.809458145586237,
                0.3873097337652567,
                1.5299326292621445,
                0.9905043725249525
            ]
        },
        {
            "positions": [
                -1.0391547895481408,
                -0.13148272860508514,
                -1.6992727833804553,
                0.34901884217089374,
                1.4892614284518013,
                0.8621118579545994
            ]
        },
        {
            "positions": [
                -0.9992985910896176,
                -0.158846941871826,
                -1.5890874211746733,
                0.3107279505765308,
                1.4485902276414584,
                0.7337193433842464
            ]
        },
        {
            "positions": [
                -0.9594423926310943,
                -0.18621115513856684,
                -1.4789020589688915,
                0.2724370589821679,
                1.4079190268311153,
                0.6053268288138933
            ]
        },
        {
            "positions": [
                -0.9195861941725711,
                -0.21357536840530766,
                -1.3687166967631095,
                0.23414616738780503,
                1.367247826020772,
                0.47693431424354027
            ]
        },
        {
            "positions": [
                -0.8797299957140479,
                -0.24093958167204854,
                -1.2585313345573277,
                0.19585527579344209,
                1.326576625210429,
                0.3485417996731872
            ]
        },
        {
            "positions": [
                -0.8398737972555246,
                -0.2683037949387894,
                -1.1483459723515457,
                0.1575643841990792,
                1.2859054244000858,
                0.22014928510283416
            ]
        },
        {
            "positions": [
                -0.8000175987970013,
                -0.2956680082055302,
                -1.0381606101457639,
                0.11927349260471626,
                1.2452342235897427,
                0.0917567705324811
            ]
        },
        {
            "positions": [
                -0.760161400338478,
                -0.32303222147227106,
                -0.927975247939982,
                0.08098260101035337,
                1.2045630227793998,
                -0.03663574403787195
            ]
        },
        {
            "positions": [
                -0.7203052018799548,
                -0.3503964347390119,
                -0.8177898857342001,
                0.042691709415990486,
                1.1638918219690566,
                -0.165028258608225
            ]
        },
        {
            "positions": [
                -0.6804490034214316,
                -0.37776064800575276,
                -0.7076045235284183,
                0.004400817821627545,
                1.1232206211587135,
                -0.29342077317857806
            ]
        },
        {
            "positions": [
                -0.6405928049629083,
                -0.40512486127249364,
                -0.5974191613226361,
                -0.033890073772735396,
                1.0825494203483703,
                -0.4218132877489311
            ]
        },
        {
            "positions": [
                -0.600736606504385,
                -0.43248907453923446,
                -0.48723379911685427,
                -0.07218096536709828,
                1.0418782195380274,
                -0.5502058023192842
            ]
        },
        {
            "positions": [
                -0.5608804080458618,
                -0.45985328780597534,
                -0.37704843691107226,
                -0.11047185696146117,
                1.0012070187276843,
                -0.6785983168896372
            ]
        },
        {
            "positions": [
                -0.5210242095873385,
                -0.48721750107271616,
                -0.26686307470529047,
                -0.1487627485558241,
                0.9605358179173411,
                -0.8069908314599903
            ]
        },
        {
            "positions": [
                -0.48116801112881524,
                -0.514581714339457,
                -0.15667771249950868,
                -0.18705364015018705,
                0.919864617106998,
                -0.9353833460303433
            ]
        },
        {
            "positions": [
                -0.44131181267029207,
                -0.5419459276061979,
                -0.04649235029372667,
                -0.22534453174454988,
                0.8791934162966549,
                -1.0637758606006962
            ]
        },
        {
            "positions": [
                -0.4014556142117688,
                -0.5693101408729386,
                0.06369301191205512,
                -0.2636354233389128,
                0.8385222154863118,
                -1.1921683751710495
            ]
        },
        {
            "positions": [
                -0.3615994157532455,
                -0.5966743541396795,
                0.17387837411783713,
                -0.30192631493327576,
                0.7978510146759688,
                -1.3205608897414023
            ]
        },
        {
            "positions": [
                -0.32174321729472233,
                -0.6240385674064204,
                0.2840637363236189,
                -0.3402172065276386,
                0.7571798138656256,
                -1.4489534043117556
            ]
        },
        {
            "positions": [
                -0.28188701883619904,
                -0.6514027806731613,
                0.3942490985294007,
                -0.37850809812200154,
                0.7165086130552826,
                -1.5773459188821084
            ]
        },
        {
            "positions": [
                -0.24203082037767576,
                -0.6787669939399021,
                0.5044344607351825,
                -0.4167989897163645,
                0.6758374122449394,
                -1.7057384334524617
            ]
        },
        {
            "positions": [
                -0.20217462191915248,
                -0.706131207206643,
                0.6146198229409652,
                -0.4550898813107274,
                0.6351662114345963,
                -1.834130948022815
            ]
        },
        {
            "positions": [
                -0.1623184234606292,
                -0.7334954204733839,
                0.724805185146747,
                -0.49338077290509036,
                0.5944950106242531,
                -1.9625234625931678
            ]
        },
        {
            "positions": [
                -0.1224622250021059,
                -0.7608596337401248,
                0.8349905473525288,
                -0.5316716644994532,
                0.5538238098139101,
                -2.090915977163521
            ]
        },
        {
            "positions": [
                -0.08260602654358262,
                -0.7882238470068654,
                0.9451759095583105,
                -0.5699625560938162,
                0.513152609003567,
                -2.219308491733874
            ]
        },
        {
            "positions": [
                -0.04274982808505934,
                -0.8155880602736063,
                1.0553612717640923,
                -0.6082534476881791,
                0.4724814081932238,
                -2.347701006304227
            ]
        },
        {
            "positions": [
                -0.002893629626536276,
                -0.8429522735403472,
                1.1655466339698746,
                -0.6465443392825418,
                0.4318102073828809,
                -2.47609352087458
            ]
        },
        {
            "positions": [
                0.03696256883198701,
                -0.8703164868070881,
                1.2757319961756564,
                -0.6848352308769048,
                0.39113900657253775,
                -2.6044860354449333
            ]
        },
        {
            "positions": [
                0.07681876729051024,
                -0.8976807000738288,
                1.385917358381438,
                -0.7231261224712677,
                0.3504678057621947,
                -2.732878550015286
            ]
        },
        {
            "positions": [
                0.08856517242023088,
                -0.956923296045385,
                1.5298156878915603,
                -0.7243159434286032,
                0.29628182904798095,
                -2.8570461877042725
            ]
        },
        {
            "positions": [
                0.10031157754995151,
                -1.016165892016941,
                1.6737140174016827,
                -0.7255057643859386,
                0.24209585233376718,
                -2.981213825393259
            ]
        },
        {
            "positions": [
                0.11205798267967215,
                -1.075408487988497,
                1.8176123469118048,
                -0.7266955853432742,
                0.18790987561955338,
                -3.105381463082246
            ]
        },
        {
            "positions": [
                0.12380438780939279,
                -1.1346510839600532,
                1.9615106764219272,
                -0.7278854063006096,
                0.13372389890533962,
                -3.2295491007712323
            ]
        }
    ]
}