{
    "goal": {
        "global_pose": {
            "orientation": {
                "w": -0.00223480608172531,
                "x": 0.0024358444001904467,
                "y": 0.7094548369677653,
                "z": -0.704743149386269
            },
            "position": {
                "x": 0.6205249238014221,
                "y": -0.6371506643295288,
                "z": 0.19426114857196808
            }
        },
        "name": "move_to_magneteinheit_B"
    },
    "id": "FMT_move_to_magneteinheit_B_25",
    "joint_names": [
        "shoulder_pan_joint",
        "shoulder_lift_joint",
        "elbow_joint",
        "wrist_1_joint",
        "wrist_2_joint",
        "wrist_3_joint"
    ],
    "metrics": {
        "cart_traj_len": 4.591271071095184,
        "distance_elbow_joint": 5.62706559188643,
        "distance_shoulder_lift_joint": 1.6708095864318104,
        "distance_shoulder_pan_joint": 2.9832183952147266,
        "distance_wrist_1_joint": 2.7818038413827244,
        "distance_wrist_2_joint": 2.1604027735478315,
        "distance_wrist_3_joint": 6.30323279131548,
        "smoothness": 0.4097033837976568,
        "time": 1.4639813860000002,
        "traj_len": 4.63966949036017,
        "weighted_distance": 6.2510163315528535
    },
    "planner": "FMT",
    "start": {
        "state": {
            "elbow_joint": 2.39358713078474,
            "shoulder_lift_joint": -1.908514104345545,
            "shoulder_pan_joint": 0.7066247066606129,
            "wrist_1_joint": -0.4678290933515497,
            "wrist_2_joint": 0.7096259083745334,
            "wrist_3_joint": -3.1358149277392293
        }
    },
    "waypoints": [
        {
            "positions": [
                0.7066247066606129,
                -1.908514104345545,
                2.39358713078474,
                -0.4678290933515497,
                0.7096259083745334,
                -3.1358149277392293
            ]
        },
        {
            "positions": [
                0.6914355187966216,
                -1.9148223432102993,
                2.393266163171117,
                -0.5137414689544884,
                0.63751578449434,
                -2.9524925268900284
            ]
        },
        {
            "positions": [
                0.6762463309326303,
                -1.9211305820750535,
                2.3929451955574947,
                -0.5596538445574271,
                0.5654056606141467,
                -2.769170126040827
            ]
        },
        {
            "positions": [
                0.6610571430686389,
                -1.927438820939808,
                2.392624227943872,
                -0.6055662201603658,
                0.49329553673395327,
                -2.585847725191626
            ]
        },
        {
            "positions": [
                0.6458679552046477,
                -1.933747059804562,
                2.3923032603302494,
                -0.6514785957633045,
                0.4211854128537599,
                -2.4025253243424247
            ]
        },
        {
            "positions": [
                0.6306787673406563,
                -1.9400552986693165,
                2.3919822927166265,
                -0.6973909713662431,
                0.3490752889735665,
                -2.219202923493224
            ]
        },
        {
            "positions": [
                0.6141555374832295,
                -1.9469349384411117,
                2.3867444033971084,
                -0.7536245995007889,
                0.2625834010253587,
                -1.9984351217255119
            ]
        },
        {
            "positions": [
                0.5976323076258027,
                -1.9538145782129068,
                2.38150651407759,
                -0.8098582276353347,
                0.17609151307715099,
                -1.7776673199578
            ]
        },
        {
            "positions": [
                0.5811090777683758,
                -1.9606942179847022,
                2.3762686247580724,
                -0.8660918557698805,
                0.08959962512894326,
                -1.5568995181900882
            ]
        },
        {
            "positions": [
                0.5645858479109489,
                -1.9675738577564974,
                2.3710307354385542,
                -0.9223254839044264,
                0.0031077371807354814,
                -1.336131716422376
            ]
        },
        {
            "positions": [
                0.5480626180535221,
                -1.9744534975282926,
                2.365792846119036,
                -0.9785591120389721,
                -0.08338415076747224,
                -1.1153639146546643
            ]
        },
        {
            "positions": [
                0.5315393881960953,
                -1.9813331373000878,
                2.360554956799518,
                -1.034792740173518,
                -0.16987603871567997,
                -0.8945961128869524
            ]
        },
        {
            "positions": [
                0.5150161583386684,
                -1.988212777071883,
                2.3553170674799997,
                -1.0910263683080637,
                -0.2563679266638877,
                -0.6738283111192407
            ]
        },
        {
            "positions": [
                0.4984929284812416,
                -1.9950924168436783,
                2.350079178160482,
                -1.1472599964426096,
                -0.3428598146120955,
                -0.45306050935152853
            ]
        },
        {
            "positions": [
                0.4819696986238147,
                -2.0019720566154735,
                2.3448412888409638,
                -1.2034936245771553,
                -0.42935170256030325,
                -0.23229270758381682
            ]
        },
        {
            "positions": [
                0.4654464687663879,
                -2.0088516963872687,
                2.3396033995214456,
                -1.2597272527117012,
                -0.515843590508511,
                -0.011524905816104769
            ]
        },
        {
            "positions": [
                0.4710925336620219,
                -2.0066804068767343,
                2.2908353919795195,
                -1.3055493085240988,
                -0.569523576338413,
                0.13377610230750223
            ]
        },
        {
            "positions": [
                0.476738598557656,
                -2.0045091173662,
                2.242067384437593,
                -1.3513713643364966,
                -0.623203562168315,
                0.2790771104311092
            ]
        },
        {
            "positions": [
                0.48238466345329,
                -2.002337827855666,
                2.1932993768956663,
                -1.3971934201488945,
                -0.6768835479982169,
                0.4243781185547162
            ]
        },
        {
            "positions": [
                0.488030728348924,
                -2.0001665383451317,
                2.1445313693537402,
                -1.443015475961292,
                -0.7305635338281189,
                0.5696791266783232
            ]
        },
        {
            "positions": [
                0.5308468794329412,
                -1.982889971049866,
                2.00308186946974,
                -1.4967189253835325,
                -0.7616569636391959,
                0.6744465076729785
            ]
        },
        {
            "positions": [
                0.5736630305169582,
                -1.9656134037546003,
                1.86163236958574,
                -1.550422374805773,
                -0.7927503934502728,
                0.7792138886676339
            ]
        },
        {
            "positions": [
                0.6164791816009754,
                -1.9483368364593345,
                1.7201828697017398,
                -1.6041258242280134,
                -0.8238438232613498,
                0.8839812696622891
            ]
        },
        {
            "positions": [
                0.6592953326849924,
                -1.9310602691640688,
                1.5787333698177397,
                -1.6578292736502538,
                -0.8549372530724266,
                0.9887486506569444
            ]
        },
        {
            "positions": [
                0.7021114837690096,
                -1.913783701868803,
                1.4372838699337396,
                -1.7115327230724944,
                -0.8860306828835036,
                1.0935160316515997
            ]
        },
        {
            "positions": [
                0.7449276348530267,
                -1.8965071345735374,
                1.2958343700497397,
                -1.7652361724947347,
                -0.9171241126945805,
                1.198283412646255
            ]
        },
        {
            "positions": [
                0.7877437859370438,
                -1.8792305672782716,
                1.1543848701657395,
                -1.8189396219169751,
                -0.9482175425056575,
                1.3030507936409104
            ]
        },
        {
            "positions": [
                0.8597438037913552,
                -1.8574788209678372,
                0.9634572890154924,
                -1.867436487761962,
                -0.9492651687279644,
                1.3580762121501622
            ]
        },
        {
            "positions": [
                0.9317438216456665,
                -1.8357270746574028,
                0.7725297078652452,
                -1.915933353606949,
                -0.9503127949502713,
                1.413101630659414
            ]
        },
        {
            "positions": [
                1.0037438394999778,
                -1.8139753283469684,
                0.581602126714998,
                -1.9644302194519359,
                -0.9513604211725782,
                1.4681270491686658
            ]
        },
        {
            "positions": [
                1.0757438573542892,
                -1.792223582036534,
                0.3906745455647509,
                -2.0129270852969228,
                -0.9524080473948852,
                1.5231524676779176
            ]
        },
        {
            "positions": [
                1.1477438752086007,
                -1.7704718357260996,
                0.19974696441450357,
                -2.0614239511419097,
                -0.9534556736171922,
                1.5781778861871694
            ]
        },
        {
            "positions": [
                1.2197438930629119,
                -1.7487200894156651,
                0.008819383264256464,
                -2.1099208169868966,
                -0.9545032998394991,
                1.6332033046964212
            ]
        },
        {
            "positions": [
                1.2917439109172233,
                -1.7269683431052307,
                -0.18210819788599064,
                -2.1584176828318835,
                -0.955550926061806,
                1.6882287232056732
            ]
        },
        {
            "positions": [
                1.3637439287715347,
                -1.7052165967947963,
                -0.37303577903623775,
                -2.2069145486768704,
                -0.956598552284113,
                1.7432541417149248
            ]
        },
        {
            "positions": [
                1.4357439466258461,
                -1.683464850484362,
                -0.5639633601864851,
                -2.2554114145218573,
                -0.9576461785064199,
                1.7982795602241768
            ]
        },
        {
            "positions": [
                1.5077439644801576,
                -1.6617131041739275,
                -0.7548909413367324,
                -2.3039082803668443,
                -0.9586938047287268,
                1.8533049787334286
            ]
        },
        {
            "positions": [
                1.579743982334469,
                -1.639961357863493,
                -0.9458185224869797,
                -2.352405146211831,
                -0.9597414309510337,
                1.9083303972426804
            ]
        },
        {
            "positions": [
                1.6517440001887802,
                -1.6182096115530589,
                -1.1367461036372266,
                -2.4009020120568176,
                -0.9607890571733406,
                1.9633558157519322
            ]
        },
        {
            "positions": [
                1.7237440180430916,
                -1.5964578652426245,
                -1.327673684787474,
                -2.4493988779018045,
                -0.9618366833956475,
                2.018381234261184
            ]
        },
        {
            "positions": [
                1.795744035897403,
                -1.57470611893219,
                -1.5186012659377208,
                -2.4978957437467915,
                -0.9628843096179546,
                2.073406652770436
            ]
        },
        {
            "positions": [
                1.8677440537517145,
                -1.5529543726217556,
                -1.7095288470879682,
                -2.5463926095917784,
                -0.9639319358402615,
                2.1284320712796876
            ]
        },
        {
            "positions": [
                1.9397440716060257,
                -1.5312026263113212,
                -1.900456428238215,
                -2.5948894754367653,
                -0.9649795620625684,
                2.1834574897889394
            ]
        },
        {
            "positions": [
                2.011744089460337,
                -1.5094508800008868,
                -2.091384009388462,
                -2.643386341281752,
                -0.9660271882848753,
                2.238482908298191
            ]
        },
        {
            "positions": [
                2.0837441073146485,
                -1.4876991336904524,
                -2.2823115905387095,
                -2.691883207126739,
                -0.9670748145071822,
                2.293508326807443
            ]
        },
        {
            "positions": [
                2.178178707511815,
                -1.5848509304000569,
                -2.194078568785784,
                -2.7114341204372687,
                -0.958603420598467,
                2.3445928981842954
            ]
        },
        {
            "positions": [
                2.272613307708981,
                -1.6820027271096616,
                -2.1058455470328585,
                -2.730985033747798,
                -0.9501320266897518,
                2.395677469561148
            ]
        },
        {
            "positions": [
                2.3670479079061475,
                -1.779154523819266,
                -2.017612525279933,
                -2.7505359470583275,
                -0.9416606327810366,
                2.4467620409379998
            ]
        },
        {
            "positions": [
                2.4614825081033134,
                -1.8763063205288708,
                -1.9293795035270076,
                -2.770086860368857,
                -0.9331892388723214,
                2.497846612314852
            ]
        },
        {
            "positions": [
                2.5559171083004797,
                -1.9734581172384753,
                -1.8411464817740821,
                -2.7896377736793863,
                -0.9247178449636062,
                2.5489311836917046
            ]
        },
        {
            "positions": [
                2.650351708497646,
                -2.07060991394808,
                -1.7529134600211567,
                -2.809188686989916,
                -0.916246451054891,
                2.600015755068557
            ]
        },
        {
            "positions": [
                2.7447863086948123,
                -2.1677617106576843,
                -1.6646804382682312,
                -2.8287396003004455,
                -0.9077750571461758,
                2.651100326445409
            ]
        },
        {
            "positions": [
                2.8392209088919786,
                -2.264913507367289,
                -1.5764474165153057,
                -2.8482905136109746,
                -0.8993036632374606,
                2.7021848978222613
            ]
        },
        {
            "positions": [
                2.933655509089145,
                -2.3620653040768937,
                -1.4882143947623803,
                -2.8678414269215042,
                -0.8908322693287454,
                2.7532694691991138
            ]
        },
        {
            "positions": [
                2.878889285689596,
                -2.327074651815528,
                -1.5196283297197102,
                -2.7914831253589503,
                -0.8093403682312096,
                2.836099148074541
            ]
        },
        {
            "positions": [
                2.824123062290047,
                -2.292083999554162,
                -1.5510422646770399,
                -2.7151248237963963,
                -0.7278484671336738,
                2.918928826949968
            ]
        },
        {
            "positions": [
                2.769356838890498,
                -2.2570933472927965,
                -1.5824561996343698,
                -2.6387665222338423,
                -0.6463565660361381,
                3.001758505825395
            ]
        },
        {
            "positions": [
                2.714590615490949,
                -2.2221026950314307,
                -1.6138701345916995,
                -2.5624082206712884,
                -0.5648646649386022,
                3.084588184700822
            ]
        },
        {
            "positions": [
                2.6598243920914,
                -2.1871120427700648,
                -1.6452840695490294,
                -2.4860499191087344,
                -0.4833727638410665,
                3.167417863576249
            ]
        }
    ]
}