{
    "goal": {
        "global_pose": {
            "orientation": {
                "w": 0.7047431468963623,
                "x": -0.7094548344612122,
                "y": 0.0024358443915843964,
                "z": -0.0022348060738295317
            },
            "position": {
                "x": 0.6094750761985779,
                "y": 0.3671506643295288,
                "z": 0.19426114857196808
            }
        },
        "name": "move_to_magneteinheit_A"
    },
    "id": "FMT_move_to_magneteinheit_A_14",
    "joint_names": [
        "shoulder_pan_joint",
        "shoulder_lift_joint",
        "elbow_joint",
        "wrist_1_joint",
        "wrist_2_joint",
        "wrist_3_joint"
    ],
    "metrics": {
        "cart_traj_len": 2.4258076236038666,
        "distance_elbow_joint": 3.9083040260316464,
        "distance_shoulder_lift_joint": 1.0722707955922577,
        "distance_shoulder_pan_joint": 1.242616356553463,
        "distance_wrist_1_joint": 1.2703466117403215,
        "distance_wrist_2_joint": 1.433074213691179,
        "distance_wrist_3_joint": 4.2518410114093514,
        "smoothness": 9.439016235855967e-05,
        "time": 1.275575002,
        "traj_len": 3.6302139076118114,
        "weighted_distance": 4.9381733326472474
    },
    "planner": "FMT",
    "start": {
        "state": {
            "elbow_joint": -1.919643507792019,
            "shoulder_lift_joint": -0.07675430207160344,
            "shoulder_pan_joint": -1.1188671864651873,
            "wrist_1_joint": 0.42560062535961957,
            "wrist_2_joint": 1.5706038300724876,
            "wrist_3_joint": 1.1188968870953055
        }
    },
    "waypoints": [
        {
            "positions": [
                -1.1188671864651873,
                -0.07675430207160344,
                -1.919643507792019,
                0.42560062535961957,
                1.5706038300724876,
                1.1188968870953055
            ]
        },
        {
            "positions": [
                -1.11890730516204,
                -0.135405960930782,
                -1.8662085584781798,
                0.35355855885312876,
                1.4942083616649442,
                0.9886832245680959
            ]
        },
        {
            "positions": [
                -1.1189474238588926,
                -0.19405761978996056,
                -1.8127736091643405,
                0.28151649234663795,
                1.417812893257401,
                0.8584695620408863
            ]
        },
        {
            "positions": [
                -1.1189875425557452,
                -0.2527092786491391,
                -1.7593386598505012,
                0.20947442584014714,
                1.3414174248498576,
                0.7282558995136768
            ]
        },
        {
            "positions": [
                -1.1190276612525978,
                -0.31136093750831767,
                -1.705903710536662,
                0.13743235933365633,
                1.2650219564423144,
                0.5980422369864671
            ]
        },
        {
            "positions": [
                -1.1190677799494502,
                -0.3700125963674962,
                -1.6524687612228224,
                0.06539029282716552,
                1.188626488034771,
                0.4678285744592574
            ]
        },
        {
            "positions": [
                -1.1191078986463028,
                -0.4286642552266748,
                -1.599033811908983,
                -0.00665177367932529,
                1.1122310196272278,
                0.33761491193204785
            ]
        },
        {
            "positions": [
                -1.1191480173431554,
                -0.48731591408585334,
                -1.5455988625951438,
                -0.0786938401858161,
                1.0358355512196842,
                0.20740124940483817
            ]
        },
        {
            "positions": [
                -1.119188136040008,
                -0.545967572945032,
                -1.4921639132813045,
                -0.1507359066923069,
                0.9594400828121411,
                0.07718758687762861
            ]
        },
        {
            "positions": [
                -1.1192282547368606,
                -0.6046192318042105,
                -1.4387289639674652,
                -0.22277797319879772,
                0.8830446144045977,
                -0.05302607564958106
            ]
        },
        {
            "positions": [
                -1.069538043205589,
                -0.6263954664385966,
                -1.3016333846791814,
                -0.24765669372607388,
                0.8532240144836661,
                -0.17622279759615966
            ]
        },
        {
            "positions": [
                -1.0198478316743174,
                -0.6481717010729826,
                -1.164537805390898,
                -0.27253541425335004,
                0.8234034145627346,
                -0.29941951954273827
            ]
        },
        {
            "positions": [
                -0.9701576201430459,
                -0.6699479357073685,
                -1.0274422261026142,
                -0.29741413478062617,
                0.793582814641803,
                -0.4226162414893169
            ]
        },
        {
            "positions": [
                -0.9204674086117742,
                -0.6917241703417546,
                -0.8903466468143305,
                -0.32229285530790236,
                0.7637622147208715,
                -0.5458129634358955
            ]
        },
        {
            "positions": [
                -0.8707771970805027,
                -0.7135004049761406,
                -0.7532510675260468,
                -0.3471715758351785,
                0.7339416147999398,
                -0.6690096853824742
            ]
        },
        {
            "positions": [
                -0.8210869855492311,
                -0.7352766396105267,
                -0.6161554882377632,
                -0.3720502963624547,
                0.7041210148790082,
                -0.7922064073290528
            ]
        },
        {
            "positions": [
                -0.7713967740179595,
                -0.7570528742449127,
                -0.47905990894947936,
                -0.3969290168897308,
                0.6743004149580767,
                -0.9154031292756315
            ]
        },
        {
            "positions": [
                -0.7217065624866879,
                -0.7788291088792987,
                -0.34196432966119583,
                -0.42180773741700694,
                0.6444798150371451,
                -1.03859985122221
            ]
        },
        {
            "positions": [
                -0.6720163509554163,
                -0.8006053435136847,
                -0.20486875037291208,
                -0.4466864579442831,
                0.6146592151162136,
                -1.1617965731687887
            ]
        },
        {
            "positions": [
                -0.6223261394241447,
                -0.8223815781480708,
                -0.06777317108462833,
                -0.47156517847155927,
                0.584838615195282,
                -1.2849932951153673
            ]
        },
        {
            "positions": [
                -0.5726359278928731,
                -0.8441578127824568,
                0.0693224082036552,
                -0.4964438989988354,
                0.5550180152743505,
                -1.408190017061946
            ]
        },
        {
            "positions": [
                -0.5229457163616016,
                -0.8659340474168429,
                0.20641798749193874,
                -0.5213226195261116,
                0.5251974153534189,
                -1.5313867390085245
            ]
        },
        {
            "positions": [
                -0.47325550483032996,
                -0.8877102820512288,
                0.3435135667802227,
                -0.5462013400533877,
                0.49537681543248735,
                -1.6545834609551031
            ]
        },
        {
            "positions": [
                -0.42356529329905834,
                -0.909486516685615,
                0.48060914606850647,
                -0.5710800605806639,
                0.46555621551155574,
                -1.777780182901682
            ]
        },
        {
            "positions": [
                -0.37387508176778683,
                -0.9312627513200009,
                0.61770472535679,
                -0.5959587811079401,
                0.43573561559062424,
                -1.9009769048482603
            ]
        },
        {
            "positions": [
                -0.3241848702365152,
                -0.953038985954387,
                0.7548003046450735,
                -0.6208375016352162,
                0.4059150156696926,
                -2.024173626794839
            ]
        },
        {
            "positions": [
                -0.2744946587052436,
                -0.974815220588773,
                0.8918958839333575,
                -0.6457162221624924,
                0.376094415748761,
                -2.1473703487414175
            ]
        },
        {
            "positions": [
                -0.22480444717397208,
                -0.996591455223159,
                1.028991463221641,
                -0.6705949426897685,
                0.34627381582782957,
                -2.2705670706879966
            ]
        },
        {
            "positions": [
                -0.17511423564270046,
                -1.0183676898575449,
                1.1660870425099246,
                -0.6954736632170446,
                0.3164532159068979,
                -2.3937637926345747
            ]
        },
        {
            "positions": [
                -0.12542402411142883,
                -1.040143924491931,
                1.3031826217982085,
                -0.7203523837443209,
                0.28663261598596634,
                -2.5169605145811538
            ]
        },
        {
            "positions": [
                -0.07573381258015743,
                -1.061920159126317,
                1.4402782010864916,
                -0.7452311042715969,
                0.2568120160650349,
                -2.640157236527732
            ]
        },
        {
            "positions": [
                -0.02604360104888559,
                -1.0836963937607031,
                1.5773737803747756,
                -0.7701098247988731,
                0.22699141614410323,
                -2.763353958474311
            ]
        },
        {
            "positions": [
                0.023646610482386032,
                -1.105472628395089,
                1.7144693596630596,
                -0.7949885453261494,
                0.19717081622317167,
                -2.886550680420889
            ]
        },
        {
            "positions": [
                0.07333682201365743,
                -1.1272488630294752,
                1.8515649389513427,
                -0.8198672658534254,
                0.16735021630224012,
                -3.009747402367468
            ]
        },
        {
            "positions": [
                0.12302703354492905,
                -1.1490250976638612,
                1.9886605182396269,
                -0.8447459863807015,
                0.1375296163813085,
                -3.1329441243140463
            ]
        }
    ]
}