{
    "goal": {
        "global_pose": {
            "orientation": {
                "w": 0.5084816217422485,
                "x": -0.49083608388900757,
                "y": 0.5182115435600281,
                "z": -0.4816462993621826
            },
            "position": {
                "x": 0.5540239810943604,
                "y": 0.030875300988554955,
                "z": 0.16403168439865112
            }
        },
        "name": "move_to_storage_A"
    },
    "id": "FMT_move_to_storage_A_46",
    "joint_names": [
        "shoulder_pan_joint",
        "shoulder_lift_joint",
        "elbow_joint",
        "wrist_1_joint",
        "wrist_2_joint",
        "wrist_3_joint"
    ],
    "metrics": {
        "cart_traj_len": 0.3526162090566052,
        "distance_elbow_joint": 0.4482910405581575,
        "distance_shoulder_lift_joint": 0.23268615815604576,
        "distance_shoulder_pan_joint": 0.4618597488985018,
        "distance_wrist_1_joint": 0.23766570942357113,
        "distance_wrist_2_joint": 1.0936894656704284,
        "distance_wrist_3_joint": 0.09865693709381507,
        "smoothness": 2.2204460668324854e-16,
        "time": 0.546772907,
        "traj_len": 1.604010305390997,
        "weighted_distance": 2.025220508755071
    },
    "planner": "FMT",
    "start": {
        "state": {
            "elbow_joint": 1.9715463870305268,
            "shoulder_lift_joint": -1.1394903361783484,
            "shoulder_pan_joint": 0.12281147578464417,
            "wrist_1_joint": -0.7804599489681411,
            "wrist_2_joint": 0.12958660307563738,
            "wrist_3_joint": -3.1924946282119055
        }
    },
    "waypoints": [
        {
            "positions": [
                0.12281147578464417,
                -1.1394903361783484,
                1.9715463870305268,
                -0.7804599489681411,
                0.12958660307563738,
                -3.1924946282119055
            ]
        },
        {
            "positions": [
                0.056831511656286776,
                -1.1727312159149264,
                2.0355879642531205,
                -0.8144121931715084,
                0.28582795531426997,
                -3.178400780055646
            ]
        },
        {
            "positions": [
                -0.00914845247207062,
                -1.2059720956515043,
                2.0996295414757147,
                -0.8483644373748757,
                0.44206930755290264,
                -3.164306931899387
            ]
        },
        {
            "positions": [
                -0.075128416600428,
                -1.2392129753880823,
                2.1636711186983084,
                -0.882316681578243,
                0.5983106597915352,
                -3.1502130837431275
            ]
        },
        {
            "positions": [
                -0.1411083807287854,
                -1.2724538551246602,
                2.2277126959209026,
                -0.9162689257816103,
                0.7545520120301679,
                -3.1361192355868686
            ]
        },
        {
            "positions": [
                -0.20708834485714284,
                -1.3056947348612382,
                2.2917542731434963,
                -0.9502211699849776,
                0.9107933642688005,
                -3.122025387430609
            ]
        },
        {
            "positions": [
                -0.27306830898550016,
                -1.3389356145978162,
                2.35579585036609,
                -0.9841734141883449,
                1.067034716507433,
                -3.10793153927435
            ]
        },
        {
            "positions": [
                -0.3390482731138576,
                -1.3721764943343941,
                2.4198374275886843,
                -1.0181256583917122,
                1.2232760687460658,
                -3.0938376911180905
            ]
        }
    ]
}