{
    "goal": {
        "global_pose": {
            "orientation": {
                "w": 0.5084816217422485,
                "x": -0.49083608388900757,
                "y": 0.5182115435600281,
                "z": -0.4816462993621826
            },
            "position": {
                "x": 0.5540239810943604,
                "y": 0.030875300988554955,
                "z": 0.16403168439865112
            }
        },
        "name": "move_to_storage_A"
    },
    "id": "FMT_move_to_storage_A_109",
    "joint_names": [
        "shoulder_pan_joint",
        "shoulder_lift_joint",
        "elbow_joint",
        "wrist_1_joint",
        "wrist_2_joint",
        "wrist_3_joint"
    ],
    "metrics": {
        "cart_traj_len": 0.35286077104449737,
        "distance_elbow_joint": 0.45042898728023895,
        "distance_shoulder_lift_joint": 0.2319669478197306,
        "distance_shoulder_pan_joint": 0.46247466906599866,
        "distance_wrist_1_joint": 0.25200290471307707,
        "distance_wrist_2_joint": 1.092300363398502,
        "distance_wrist_3_joint": 0.0897122528256995,
        "smoothness": 0.0,
        "time": 0.5087895969999999,
        "traj_len": 1.6058910688783492,
        "weighted_distance": 2.025491026607184
    },
    "planner": "FMT",
    "start": {
        "state": {
            "elbow_joint": 1.9715463870305268,
            "shoulder_lift_joint": -1.1394903361783484,
            "shoulder_pan_joint": 0.12281147578464417,
            "wrist_1_joint": -0.7804599489681411,
            "wrist_2_joint": 0.12958660307563738,
            "wrist_3_joint": -3.1924946282119055
        }
    },
    "waypoints": [
        {
            "positions": [
                0.12281147578464417,
                -1.1394903361783484,
                1.9715463870305268,
                -0.7804599489681411,
                0.12958660307563738,
                -3.1924946282119055
            ]
        },
        {
            "positions": [
                0.056743665918072936,
                -1.172628471581167,
                2.0358933852134182,
                -0.816460363927152,
                0.28562951213256627,
                -3.1796785920939485
            ]
        },
        {
            "positions": [
                -0.0093241439484983,
                -1.2057666069839856,
                2.1002403833963093,
                -0.8524607788861631,
                0.4416724211894951,
                -3.1668625559759915
            ]
        },
        {
            "positions": [
                -0.07539195381506954,
                -1.2389047423868043,
                2.1645873815792007,
                -0.8884611938451741,
                0.597715330246424,
                -3.1540465198580345
            ]
        },
        {
            "positions": [
                -0.14145976368164076,
                -1.272042877789623,
                2.2289343797620917,
                -0.9244616088041852,
                0.7537582393033528,
                -3.141230483740077
            ]
        },
        {
            "positions": [
                -0.207527573548212,
                -1.3051810131924417,
                2.293281377944983,
                -0.9604620237631961,
                0.9098011483602817,
                -3.12841444762212
            ]
        },
        {
            "positions": [
                -0.27359538341478323,
                -1.3383191485952604,
                2.3576283761278742,
                -0.9964624387222072,
                1.0658440574172106,
                -3.115598411504163
            ]
        },
        {
            "positions": [
                -0.33966319328135447,
                -1.371457283998079,
                2.4219753743107657,
                -1.0324628536812182,
                1.2218869664741394,
                -3.102782375386206
            ]
        }
    ]
}