{
    "goal": {
        "global_pose": {
            "orientation": {
                "w": 0.7031023502349854,
                "x": -0.7110244035720825,
                "y": 0.007748599164187908,
                "z": 0.005598929710686207
            },
            "position": {
                "x": 0.11585023208521307,
                "y": 0.44412534475326537,
                "z": 0.3711530566215515
            }
        },
        "name": "move_to_auspresseinheit_A"
    },
    "id": "FMT_move_to_auspresseinheit_A_22",
    "joint_names": [
        "shoulder_pan_joint",
        "shoulder_lift_joint",
        "elbow_joint",
        "wrist_1_joint",
        "wrist_2_joint",
        "wrist_3_joint"
    ],
    "metrics": {
        "cart_traj_len": 0.7957805854754733,
        "distance_elbow_joint": 0.0373829552652265,
        "distance_shoulder_lift_joint": 0.6769599223415688,
        "distance_shoulder_pan_joint": 1.1602961392164066,
        "distance_wrist_1_joint": 0.6135044689334139,
        "distance_wrist_2_joint": 1.0825885235617805,
        "distance_wrist_3_joint": 0.21414616548146093,
        "smoothness": 1.5160786265181698,
        "time": 1.387699949,
        "traj_len": 1.9454763362220209,
        "weighted_distance": 2.4308976733416756
    },
    "planner": "FMT",
    "start": {
        "state": {
            "elbow_joint": 2.422574709923281,
            "shoulder_lift_joint": -1.3736533754116391,
            "shoulder_pan_joint": -0.33786336945926293,
            "wrist_1_joint": -1.0288603412921917,
            "wrist_2_joint": 1.2330224858903978,
            "wrist_3_joint": -3.094022268022082
        }
    },
    "waypoints": [
        {
            "positions": [
                -0.33786336945926293,
                -1.3736533754116391,
                2.422574709923281,
                -1.0288603412921917,
                1.2330224858903978,
                -3.094022268022082
            ]
        },
        {
            "positions": [
                -0.2746376335943274,
                -1.4474343912859102,
                2.4229922374877018,
                -1.0126525627281107,
                1.071985656715516,
                -3.1212626679405506
            ]
        },
        {
            "positions": [
                -0.21141189772939192,
                -1.5212154071601816,
                2.4234097650521225,
                -0.9964447841640298,
                0.9109488275406343,
                -3.148503067859019
            ]
        },
        {
            "positions": [
                -0.14818616186445646,
                -1.5949964230344527,
                2.4238272926165427,
                -0.9802370055999488,
                0.7499119983657527,
                -3.1757434677774876
            ]
        },
        {
            "positions": [
                -0.08496042599952092,
                -1.668777438908724,
                2.4242448201809634,
                -0.9640292270358678,
                0.5888751691908709,
                -3.202983867695956
            ]
        },
        {
            "positions": [
                -0.02173469013458544,
                -1.742558454782995,
                2.424662347745384,
                -0.9478214484717868,
                0.42783834001598936,
                -3.2302242676144246
            ]
        },
        {
            "positions": [
                0.1353732612181308,
                -1.7898206946304012,
                2.419798120021179,
                -0.8450438551025472,
                0.4620412538408434,
                -3.2170038929186435
            ]
        },
        {
            "positions": [
                0.292481212570847,
                -1.8370829344778072,
                2.414933892296974,
                -0.7422662617333075,
                0.4962441676656974,
                -3.203783518222862
            ]
        },
        {
            "positions": [
                0.4495891639235632,
                -1.884345174325213,
                2.410069664572769,
                -0.6394886683640678,
                0.5304470814905514,
                -3.190563143527081
            ]
        },
        {
            "positions": [
                0.6066971152762796,
                -1.9316074141726192,
                2.405205436848564,
                -0.5367110749948281,
                0.5646499953154054,
                -3.1773427688312994
            ]
        },
        {
            "positions": [
                0.7638050666289957,
                -1.9788696540200252,
                2.4003412091243588,
                -0.4339334816255885,
                0.5988529091402595,
                -3.1641223941355183
            ]
        },
        {
            "positions": [
                0.7051773635008475,
                -1.9071260102868426,
                2.3893670303022607,
                -0.4525110908923991,
                0.7052427177033611,
                -3.152280101725306
            ]
        }
    ]
}