{
    "goal": {
        "global_pose": {
            "orientation": {
                "w": 0.5084816217422485,
                "x": -0.49083608388900757,
                "y": 0.5182115435600281,
                "z": -0.4816462993621826
            },
            "position": {
                "x": 0.5540239810943604,
                "y": 0.030875300988554955,
                "z": 0.16403168439865112
            }
        },
        "name": "move_to_storage_A"
    },
    "id": "FMT_move_to_storage_A_22",
    "joint_names": [
        "shoulder_pan_joint",
        "shoulder_lift_joint",
        "elbow_joint",
        "wrist_1_joint",
        "wrist_2_joint",
        "wrist_3_joint"
    ],
    "metrics": {
        "cart_traj_len": 0.35202193103471746,
        "distance_elbow_joint": 0.4484902111792626,
        "distance_shoulder_lift_joint": 0.23411738041687746,
        "distance_shoulder_pan_joint": 0.45941066361844934,
        "distance_wrist_1_joint": 0.23808511770335594,
        "distance_wrist_2_joint": 1.1003686544372746,
        "distance_wrist_3_joint": 0.09437559322635325,
        "smoothness": 1.5543122343307022e-15,
        "time": 0.40593289600000004,
        "traj_len": 1.6046331732148544,
        "weighted_distance": 2.025352458011916
    },
    "planner": "FMT",
    "start": {
        "state": {
            "elbow_joint": 1.9715463870305268,
            "shoulder_lift_joint": -1.1394903361783484,
            "shoulder_pan_joint": 0.12281147578464417,
            "wrist_1_joint": -0.7804599489681411,
            "wrist_2_joint": 0.12958660307563738,
            "wrist_3_joint": -3.1924946282119055
        }
    },
    "waypoints": [
        {
            "positions": [
                0.12281147578464417,
                -1.1394903361783484,
                1.9715463870305268,
                -0.7804599489681411,
                0.12958660307563738,
                -3.1924946282119055
            ]
        },
        {
            "positions": [
                0.05718138098200856,
                -1.1729356762379024,
                2.0356164171989928,
                -0.814472108640049,
                0.2867821251381052,
                -3.1790124006081406
            ]
        },
        {
            "positions": [
                -0.008448713820627049,
                -1.2063810162974562,
                2.099686447367459,
                -0.8484842683119571,
                0.443977647200573,
                -3.165530173004376
            ]
        },
        {
            "positions": [
                -0.07407880862326267,
                -1.2398263563570102,
                2.163756477535925,
                -0.8824964279838651,
                0.6011731692630408,
                -3.152047945400611
            ]
        },
        {
            "positions": [
                -0.13970890342589826,
                -1.273271696416564,
                2.227826507704391,
                -0.916508587655773,
                0.7583686913255085,
                -3.1385657177968467
            ]
        },
        {
            "positions": [
                -0.2053389982285339,
                -1.306717036476118,
                2.2918965378728573,
                -0.9505207473276811,
                0.9155642133879764,
                -3.1250834901930817
            ]
        },
        {
            "positions": [
                -0.2709690930311695,
                -1.3401623765356718,
                2.3559665680413233,
                -0.984532906999589,
                1.0727597354504441,
                -3.1116012625893172
            ]
        },
        {
            "positions": [
                -0.33659918783380516,
                -1.3736077165952258,
                2.4200365982097893,
                -1.018545066671497,
                1.229955257512912,
                -3.0981190349855523
            ]
        }
    ]
}