{
    "goal": {
        "global_pose": {
            "orientation": {
                "w": 0.5084816217422485,
                "x": -0.49083608388900757,
                "y": 0.5182115435600281,
                "z": -0.4816462993621826
            },
            "position": {
                "x": 0.5540239810943604,
                "y": 0.030875300988554955,
                "z": 0.16403168439865112
            }
        },
        "name": "move_to_storage_A"
    },
    "id": "FMT_move_to_storage_A_103",
    "joint_names": [
        "shoulder_pan_joint",
        "shoulder_lift_joint",
        "elbow_joint",
        "wrist_1_joint",
        "wrist_2_joint",
        "wrist_3_joint"
    ],
    "metrics": {
        "cart_traj_len": 0.35349298218293557,
        "distance_elbow_joint": 0.4480632069228059,
        "distance_shoulder_lift_joint": 0.2360550518231761,
        "distance_shoulder_pan_joint": 0.4625831780430695,
        "distance_wrist_1_joint": 0.23378246676497272,
        "distance_wrist_2_joint": 1.0985940809341053,
        "distance_wrist_3_joint": 0.10036673685709818,
        "smoothness": 1.7763568394002505e-15,
        "time": 0.411086239,
        "traj_len": 1.606064980424275,
        "weighted_distance": 2.0279434762237587
    },
    "planner": "FMT",
    "start": {
        "state": {
            "elbow_joint": 1.9715463870305268,
            "shoulder_lift_joint": -1.1394903361783484,
            "shoulder_pan_joint": 0.12281147578464417,
            "wrist_1_joint": -0.7804599489681411,
            "wrist_2_joint": 0.12958660307563738,
            "wrist_3_joint": -3.1924946282119055
        }
    },
    "waypoints": [
        {
            "positions": [
                0.12281147578464417,
                -1.1394903361783484,
                1.9715463870305268,
                -0.7804599489681411,
                0.12958660307563738,
                -3.1924946282119055
            ]
        },
        {
            "positions": [
                0.05672816463563425,
                -1.173212486438802,
                2.0355554165909275,
                -0.8138574442202801,
                0.28652861463765245,
                -3.178156522946606
            ]
        },
        {
            "positions": [
                -0.00935514651337567,
                -1.206934636699256,
                2.0995644461513283,
                -0.847254939472419,
                0.4434706261996675,
                -3.163818417681306
            ]
        },
        {
            "positions": [
                -0.07543845766238559,
                -1.2406567869597096,
                2.163573475711729,
                -0.8806524347245579,
                0.6004126377616825,
                -3.1494803124160065
            ]
        },
        {
            "positions": [
                -0.1415217688113955,
                -1.2743789372201633,
                2.22758250527213,
                -0.9140499299766969,
                0.7573546493236976,
                -3.1351422071507065
            ]
        },
        {
            "positions": [
                -0.20760507996040545,
                -1.3081010874806172,
                2.291591534832531,
                -0.9474474252288358,
                0.9142966608857126,
                -3.120804101885407
            ]
        },
        {
            "positions": [
                -0.27368839110941534,
                -1.3418232377410708,
                2.355600564392932,
                -0.9808449204809748,
                1.0712386724477276,
                -3.106465996620107
            ]
        },
        {
            "positions": [
                -0.3397717022584253,
                -1.3755453880015245,
                2.4196095939533326,
                -1.0142424157331138,
                1.2281806840097427,
                -3.0921278913548074
            ]
        }
    ]
}