{
    "goal": {
        "global_pose": {
            "orientation": {
                "w": 0.5084816217422485,
                "x": -0.49083608388900757,
                "y": 0.5182115435600281,
                "z": -0.4816462993621826
            },
            "position": {
                "x": 0.5540239810943604,
                "y": 0.030875300988554955,
                "z": 0.16403168439865112
            }
        },
        "name": "move_to_storage_A"
    },
    "id": "FMT_move_to_storage_A_79",
    "joint_names": [
        "shoulder_pan_joint",
        "shoulder_lift_joint",
        "elbow_joint",
        "wrist_1_joint",
        "wrist_2_joint",
        "wrist_3_joint"
    ],
    "metrics": {
        "cart_traj_len": 0.3538658505429771,
        "distance_elbow_joint": 0.4507144728878756,
        "distance_shoulder_lift_joint": 0.23536518320173427,
        "distance_shoulder_pan_joint": 0.4654548039544249,
        "distance_wrist_1_joint": 0.24417055375059282,
        "distance_wrist_2_joint": 1.0890978617903768,
        "distance_wrist_3_joint": 0.08855678959240754,
        "smoothness": 4.440892098500626e-16,
        "time": 0.400348893,
        "traj_len": 1.604169462736843,
        "weighted_distance": 2.0208269742615763
    },
    "planner": "FMT",
    "start": {
        "state": {
            "elbow_joint": 1.9715463870305268,
            "shoulder_lift_joint": -1.1394903361783484,
            "shoulder_pan_joint": 0.12281147578464417,
            "wrist_1_joint": -0.7804599489681411,
            "wrist_2_joint": 0.12958660307563738,
            "wrist_3_joint": -3.1924946282119055
        }
    },
    "waypoints": [
        {
            "positions": [
                0.12281147578464417,
                -1.1394903361783484,
                1.9715463870305268,
                -0.7804599489681411,
                0.12958660307563738,
                -3.1924946282119055
            ]
        },
        {
            "positions": [
                0.05631793236258348,
                -1.173113933778596,
                2.035934168871652,
                -0.8153414566467972,
                0.28517201190283403,
                -3.179843658270133
            ]
        },
        {
            "positions": [
                -0.010175611059477216,
                -1.206737531378844,
                2.100321950712777,
                -0.8502229643254533,
                0.44075742073003077,
                -3.1671926883283605
            ]
        },
        {
            "positions": [
                -0.07666915448153792,
                -1.2403611289790917,
                2.164709732553902,
                -0.8851044720041095,
                0.5963428295572274,
                -3.154541718386588
            ]
        },
        {
            "positions": [
                -0.1431626979035986,
                -1.2739847265793394,
                2.229097514395027,
                -0.9199859796827655,
                0.7519282383844241,
                -3.1418907484448155
            ]
        },
        {
            "positions": [
                -0.2096562413256593,
                -1.3076083241795873,
                2.293485296236152,
                -0.9548674873614217,
                0.9075136472116209,
                -3.129239778503043
            ]
        },
        {
            "positions": [
                -0.27614978474772,
                -1.341231921779835,
                2.357873078077277,
                -0.9897489950400777,
                1.0630990560388174,
                -3.1165888085612705
            ]
        },
        {
            "positions": [
                -0.3426433281697807,
                -1.3748555193800827,
                2.4222608599184023,
                -1.024630502718734,
                1.2186844648660142,
                -3.103937838619498
            ]
        }
    ]
}