{
    "goal": {
        "global_pose": {
            "orientation": {
                "w": 0.5084816217422485,
                "x": -0.49083608388900757,
                "y": 0.5182115435600281,
                "z": -0.4816462993621826
            },
            "position": {
                "x": 0.5540239810943604,
                "y": 0.030875300988554955,
                "z": 0.16403168439865112
            }
        },
        "name": "move_to_storage_A"
    },
    "id": "FMT_move_to_storage_A_40",
    "joint_names": [
        "shoulder_pan_joint",
        "shoulder_lift_joint",
        "elbow_joint",
        "wrist_1_joint",
        "wrist_2_joint",
        "wrist_3_joint"
    ],
    "metrics": {
        "cart_traj_len": 0.35294236913852245,
        "distance_elbow_joint": 0.44841009598483605,
        "distance_shoulder_lift_joint": 0.23462132635264732,
        "distance_shoulder_pan_joint": 0.4617215401679521,
        "distance_wrist_1_joint": 0.23830131821693967,
        "distance_wrist_2_joint": 1.0974141214413946,
        "distance_wrist_3_joint": 0.08784087356316705,
        "smoothness": 1.332267631163888e-15,
        "time": 0.532057951,
        "traj_len": 1.6025945450197117,
        "weighted_distance": 2.0198283250097284
    },
    "planner": "FMT",
    "start": {
        "state": {
            "elbow_joint": 1.9715463870305268,
            "shoulder_lift_joint": -1.1394903361783484,
            "shoulder_pan_joint": 0.12281147578464417,
            "wrist_1_joint": -0.7804599489681411,
            "wrist_2_joint": 0.12958660307563738,
            "wrist_3_joint": -3.1924946282119055
        }
    },
    "waypoints": [
        {
            "positions": [
                0.12281147578464417,
                -1.1394903361783484,
                1.9715463870305268,
                -0.7804599489681411,
                0.12958660307563738,
                -3.1924946282119055
            ]
        },
        {
            "positions": [
                0.05685125576065102,
                -1.1730076685144408,
                2.0356049721712175,
                -0.8145029944277039,
                0.2863600489958366,
                -3.179945931988596
            ]
        },
        {
            "positions": [
                -0.009108964263342137,
                -1.2065250008505333,
                2.0996635573119087,
                -0.8485460398872667,
                0.4431334949160358,
                -3.167397235765286
            ]
        },
        {
            "positions": [
                -0.07506918428733529,
                -1.2400423331866257,
                2.1637221424525994,
                -0.8825890853468294,
                0.5999069408362351,
                -3.1548485395419767
            ]
        },
        {
            "positions": [
                -0.14102940431132843,
                -1.2735596655227184,
                2.22778072759329,
                -0.9166321308063923,
                0.7566803867564343,
                -3.1422998433186673
            ]
        },
        {
            "positions": [
                -0.2069896243353216,
                -1.3070769978588108,
                2.2918393127339813,
                -0.9506751762659551,
                0.9134538326766336,
                -3.129751147095358
            ]
        },
        {
            "positions": [
                -0.27294984435931474,
                -1.3405943301949033,
                2.355897897874672,
                -0.9847182217255179,
                1.0702272785968328,
                -3.117202450872048
            ]
        },
        {
            "positions": [
                -0.3389100643833079,
                -1.3741116625309957,
                2.419956483015363,
                -1.0187612671850808,
                1.227000724517032,
                -3.1046537546487385
            ]
        }
    ]
}