{
    "goal": {
        "global_pose": {
            "orientation": {
                "w": -0.00223480608172531,
                "x": 0.0024358444001904467,
                "y": 0.7094548369677653,
                "z": -0.704743149386269
            },
            "position": {
                "x": 0.6205249238014221,
                "y": -0.6371506643295288,
                "z": 0.19426114857196808
            }
        },
        "name": "move_to_magneteinheit_B"
    },
    "id": "FMT_move_to_magneteinheit_B_51",
    "joint_names": [
        "shoulder_pan_joint",
        "shoulder_lift_joint",
        "elbow_joint",
        "wrist_1_joint",
        "wrist_2_joint",
        "wrist_3_joint"
    ],
    "metrics": {
        "cart_traj_len": 1.4524281211187149,
        "distance_elbow_joint": 0.727275868360532,
        "distance_shoulder_lift_joint": 1.2466929227829804,
        "distance_shoulder_pan_joint": 1.6209253273076771,
        "distance_wrist_1_joint": 2.6112902611040028,
        "distance_wrist_2_joint": 2.9354892638501746,
        "distance_wrist_3_joint": 3.1366599153103896,
        "smoothness": 3.608224850774041e-16,
        "time": 1.279963242,
        "traj_len": 3.5040453134506913,
        "weighted_distance": 4.9090154730139846
    },
    "planner": "FMT",
    "start": {
        "state": {
            "elbow_joint": 2.39358713078474,
            "shoulder_lift_joint": -1.908514104345545,
            "shoulder_pan_joint": 0.7066247066606129,
            "wrist_1_joint": -0.4678290933515497,
            "wrist_2_joint": 0.7096259083745334,
            "wrist_3_joint": -3.1358149277392293
        }
    },
    "waypoints": [
        {
            "positions": [
                0.7066247066606129,
                -1.908514104345545,
                2.39358713078474,
                -0.4678290933515497,
                0.7096259083745334,
                -3.1358149277392293
            ]
        },
        {
            "positions": [
                0.6543367928764944,
                -1.8682982036106102,
                2.3701266189021424,
                -0.38359392363851735,
                0.6149327063148504,
                -3.034632349825991
            ]
        },
        {
            "positions": [
                0.6020488790923757,
                -1.8280823028756752,
                2.3466661070195443,
                -0.29935875392548505,
                0.5202395042551673,
                -2.933449771912753
            ]
        },
        {
            "positions": [
                0.5497609653082571,
                -1.7878664021407404,
                2.3232055951369466,
                -0.2151235842124527,
                0.4255463021954843,
                -2.832267193999514
            ]
        },
        {
            "positions": [
                0.49747305152413845,
                -1.7476505014058055,
                2.299745083254349,
                -0.13088841449942035,
                0.3308531001358012,
                -2.731084616086276
            ]
        },
        {
            "positions": [
                0.4451851377400199,
                -1.7074346006708707,
                2.276284571371751,
                -0.04665324478638799,
                0.2361598980761182,
                -2.6299020381730376
            ]
        },
        {
            "positions": [
                0.39289722395590126,
                -1.6672186999359357,
                2.252824059489153,
                0.037581924926644306,
                0.14146669601643513,
                -2.528719460259799
            ]
        },
        {
            "positions": [
                0.34060931017178264,
                -1.627002799201001,
                2.2293635476065554,
                0.12181709463967666,
                0.04677349395675212,
                -2.4275368823465606
            ]
        },
        {
            "positions": [
                0.288321396387664,
                -1.586786898466066,
                2.2059030357239577,
                0.206052264352709,
                -0.047919708102931,
                -2.3263543044333224
            ]
        },
        {
            "positions": [
                0.23603348260354534,
                -1.5465709977311313,
                2.1824425238413596,
                0.2902874340657415,
                -0.14261291016261413,
                -2.2251717265200837
            ]
        },
        {
            "positions": [
                0.18374556881942683,
                -1.5063550969961965,
                2.158982011958762,
                0.3745226037787737,
                -0.23730611222229703,
                -2.123989148606846
            ]
        },
        {
            "positions": [
                0.13145765503530815,
                -1.4661391962612615,
                2.1355215000761643,
                0.4587577734918062,
                -0.33199931428198026,
                -2.022806570693607
            ]
        },
        {
            "positions": [
                0.07916974125118958,
                -1.4259232955263268,
                2.1120609881935666,
                0.5429929432048384,
                -0.42669251634166316,
                -1.9216239927803689
            ]
        },
        {
            "positions": [
                0.026881827467070907,
                -1.3857073947913918,
                2.0886004763109685,
                0.627228112917871,
                -0.5213857184013463,
                -1.8204414148671304
            ]
        },
        {
            "positions": [
                -0.02540608631704766,
                -1.345491494056457,
                2.0651399644283708,
                0.7114632826309031,
                -0.6160789204610292,
                -1.7192588369538921
            ]
        },
        {
            "positions": [
                -0.07769400010116634,
                -1.305275593321522,
                2.041679452545773,
                0.7956984523439357,
                -0.7107721225207123,
                -1.6180762590406537
            ]
        },
        {
            "positions": [
                -0.1299819138852849,
                -1.2650596925865873,
                2.018218940663175,
                0.8799336220569678,
                -0.8054653245803954,
                -1.5168936811274154
            ]
        },
        {
            "positions": [
                -0.18226982766940347,
                -1.2248437918516526,
                1.9947584287805773,
                0.9641687917700001,
                -0.9001585266400783,
                -1.4157111032141771
            ]
        },
        {
            "positions": [
                -0.23455774145352226,
                -1.1846278911167176,
                1.9712979168979796,
                1.0484039614830327,
                -0.9948517286997617,
                -1.3145285253009384
            ]
        },
        {
            "positions": [
                -0.28684565523764083,
                -1.1444119903817827,
                1.9478374050153817,
                1.132639131196065,
                -1.0895449307594447,
                -1.2133459473877002
            ]
        },
        {
            "positions": [
                -0.3391335690217593,
                -1.104196089646848,
                1.9243768931327838,
                1.2168743009090972,
                -1.1842381328191274,
                -1.112163369474462
            ]
        },
        {
            "positions": [
                -0.39142148280587785,
                -1.0639801889119131,
                1.9009163812501861,
                1.3011094706221296,
                -1.2789313348788105,
                -1.0109807915612237
            ]
        },
        {
            "positions": [
                -0.44370939658999664,
                -1.0237642881769782,
                1.8774558693675882,
                1.3853446403351621,
                -1.373624536938494,
                -0.909798213647985
            ]
        },
        {
            "positions": [
                -0.4959973103741152,
                -0.9835483874420433,
                1.8539953574849903,
                1.4695798100481943,
                -1.4683177389981767,
                -0.8086156357347467
            ]
        },
        {
            "positions": [
                -0.5482852241582338,
                -0.9433324867071086,
                1.8305348456023927,
                1.5538149797612264,
                -1.5630109410578599,
                -0.7074330578215084
            ]
        },
        {
            "positions": [
                -0.6005731379423523,
                -0.9031165859721737,
                1.807074333719795,
                1.638050149474259,
                -1.657704143117543,
                -0.6062504799082702
            ]
        },
        {
            "positions": [
                -0.6528610517264711,
                -0.8629006852372387,
                1.783613821837197,
                1.7222853191872916,
                -1.7523973451772261,
                -0.5050679019950315
            ]
        },
        {
            "positions": [
                -0.7051489655105897,
                -0.822684784502304,
                1.7601533099545992,
                1.8065204889003237,
                -1.8470905472369092,
                -0.40388532408179323
            ]
        },
        {
            "positions": [
                -0.7574368792947083,
                -0.782468883767369,
                1.7366927980720015,
                1.8907556586133558,
                -1.941783749296592,
                -0.30270274616855497
            ]
        },
        {
            "positions": [
                -0.8097247930788268,
                -0.7422529830324343,
                1.7132322861894038,
                1.9749908283263884,
                -2.036476951356275,
                -0.2015201682553167
            ]
        },
        {
            "positions": [
                -0.8620127068629456,
                -0.7020370822974993,
                1.6897717743068057,
                2.059225998039421,
                -2.131170153415958,
                -0.10033759034207801
            ]
        },
        {
            "positions": [
                -0.9143006206470643,
                -0.6618211815625645,
                1.666311262424208,
                2.143461167752453,
                -2.2258633554756413,
                0.0008449875711600953
            ]
        }
    ]
}