{
    "goal": {
        "global_pose": {
            "orientation": {
                "w": -0.00223480608172531,
                "x": 0.0024358444001904467,
                "y": 0.7094548369677653,
                "z": -0.704743149386269
            },
            "position": {
                "x": 0.6205249238014221,
                "y": -0.6371506643295288,
                "z": 0.19426114857196808
            }
        },
        "name": "move_to_magneteinheit_B"
    },
    "id": "FMT_move_to_magneteinheit_B_70",
    "joint_names": [
        "shoulder_pan_joint",
        "shoulder_lift_joint",
        "elbow_joint",
        "wrist_1_joint",
        "wrist_2_joint",
        "wrist_3_joint"
    ],
    "metrics": {
        "cart_traj_len": 3.8171002627444555,
        "distance_elbow_joint": 4.252345940188915,
        "distance_shoulder_lift_joint": 0.7916198062648756,
        "distance_shoulder_pan_joint": 2.606026450761937,
        "distance_wrist_1_joint": 1.9706176933848532,
        "distance_wrist_2_joint": 1.3080899770415002,
        "distance_wrist_3_joint": 6.275785601579075,
        "smoothness": 0.1391461729272877,
        "time": 1.372582196,
        "traj_len": 4.147829006748127,
        "weighted_distance": 5.747587697704634
    },
    "planner": "FMT",
    "start": {
        "state": {
            "elbow_joint": 2.39358713078474,
            "shoulder_lift_joint": -1.908514104345545,
            "shoulder_pan_joint": 0.7066247066606129,
            "wrist_1_joint": -0.4678290933515497,
            "wrist_2_joint": 0.7096259083745334,
            "wrist_3_joint": -3.1358149277392293
        }
    },
    "waypoints": [
        {
            "positions": [
                0.7066247066606129,
                -1.908514104345545,
                2.39358713078474,
                -0.4678290933515497,
                0.7096259083745334,
                -3.1358149277392293
            ]
        },
        {
            "positions": [
                0.6853596175157233,
                -1.966079518119161,
                2.4087679403813134,
                -0.5566920326494857,
                0.6912350067687283,
                -3.037727709314165
            ]
        },
        {
            "positions": [
                0.6640945283708335,
                -2.023644931892777,
                2.4239487499778862,
                -0.6455549719474217,
                0.6728441051629233,
                -2.9396404908891003
            ]
        },
        {
            "positions": [
                0.6454343034531963,
                -2.0922925788867976,
                2.4329766776873027,
                -0.7545178851449617,
                0.6489349325928221,
                -2.814915647162703
            ]
        },
        {
            "positions": [
                0.626774078535559,
                -2.1609402258808177,
                2.4420046053967197,
                -0.8634807983425015,
                0.625025760022721,
                -2.6901908034363062
            ]
        },
        {
            "positions": [
                0.6081138536179218,
                -2.229587872874838,
                2.4510325331061362,
                -0.9724437115400414,
                0.6011165874526199,
                -2.565465959709909
            ]
        },
        {
            "positions": [
                0.6185333105269315,
                -2.273916805756455,
                2.426421005557511,
                -1.0528436071384568,
                0.579043503595436,
                -2.458915458504579
            ]
        },
        {
            "positions": [
                0.6289527674359412,
                -2.318245738638072,
                2.401809478008886,
                -1.1332435027368724,
                0.5569704197382521,
                -2.3523649572992484
            ]
        },
        {
            "positions": [
                0.6393722243449509,
                -2.362574671519689,
                2.3771979504602605,
                -1.2136433983352877,
                0.5348973358810682,
                -2.2458144560939184
            ]
        },
        {
            "positions": [
                0.7188036627092993,
                -2.353879764717682,
                2.244437267259272,
                -1.2414853756542337,
                0.49878443524964633,
                -2.1443811793489522
            ]
        },
        {
            "positions": [
                0.7982351010736477,
                -2.345184857915675,
                2.111676584058284,
                -1.26932735297318,
                0.4626715346182244,
                -2.042947902603986
            ]
        },
        {
            "positions": [
                0.8776665394379961,
                -2.336489951113668,
                1.9789159008572956,
                -1.2971693302921259,
                0.4265586339868025,
                -1.9415146258590201
            ]
        },
        {
            "positions": [
                0.9570979778023445,
                -2.327795044311661,
                1.8461552176563074,
                -1.3250113076110719,
                0.3904457333553806,
                -1.8400813491140542
            ]
        },
        {
            "positions": [
                1.036529416166693,
                -2.3191001375096536,
                1.7133945344553192,
                -1.3528532849300179,
                0.3543328327239586,
                -1.738648072369088
            ]
        },
        {
            "positions": [
                1.1159608545310413,
                -2.3104052307076466,
                1.5806338512543308,
                -1.380695262248964,
                0.31821993209253674,
                -1.6372147956241219
            ]
        },
        {
            "positions": [
                1.1953922928953897,
                -2.3017103239056396,
                1.4478731680533425,
                -1.40853723956791,
                0.28210703146111477,
                -1.535781518879156
            ]
        },
        {
            "positions": [
                1.2748237312597381,
                -2.2930154171036325,
                1.3151124848523543,
                -1.436379216886856,
                0.24599413082969285,
                -1.43434824213419
            ]
        },
        {
            "positions": [
                1.3542551696240865,
                -2.2843205103016255,
                1.1823518016513659,
                -1.4642211942058023,
                0.20988123019827087,
                -1.3329149653892238
            ]
        },
        {
            "positions": [
                1.433686607988435,
                -2.2756256034996185,
                1.0495911184503777,
                -1.4920631715247483,
                0.17376832956684896,
                -1.2314816886442577
            ]
        },
        {
            "positions": [
                1.5131180463527831,
                -2.2669306966976115,
                0.9168304352493895,
                -1.5199051488436943,
                0.1376554289354271,
                -1.1300484118992917
            ]
        },
        {
            "positions": [
                1.5925494847171315,
                -2.2582357898956045,
                0.7840697520484012,
                -1.5477471261626403,
                0.10154252830400518,
                -1.0286151351543256
            ]
        },
        {
            "positions": [
                1.67198092308148,
                -2.2495408830935975,
                0.6513090688474128,
                -1.5755891034815865,
                0.0654296276725832,
                -0.9271818584093594
            ]
        },
        {
            "positions": [
                1.7514123614458283,
                -2.24084597629159,
                0.5185483856464246,
                -1.6034310808005325,
                0.029316727041161283,
                -0.8257485816643935
            ]
        },
        {
            "positions": [
                1.8308437998101768,
                -2.232151069489583,
                0.38578770244543636,
                -1.6312730581194785,
                -0.006796173590260635,
                -0.7243153049194275
            ]
        },
        {
            "positions": [
                1.9102752381745252,
                -2.223456162687576,
                0.25302701924444815,
                -1.6591150354384245,
                -0.04290907422168255,
                -0.6228820281744614
            ]
        },
        {
            "positions": [
                1.9897066765388733,
                -2.214761255885569,
                0.12026633604345971,
                -1.6869570127573708,
                -0.07902197485310447,
                -0.5214487514294954
            ]
        },
        {
            "positions": [
                2.0691381149032217,
                -2.206066349083562,
                -0.012494347157528729,
                -1.714798990076317,
                -0.1151348754845265,
                -0.42001547468452904
            ]
        },
        {
            "positions": [
                2.1485695532675706,
                -2.197371442281555,
                -0.14525503035851672,
                -1.7426409673952628,
                -0.15124777611594842,
                -0.3185821979395631
            ]
        },
        {
            "positions": [
                2.2280009916319186,
                -2.188676535479548,
                -0.27801571355950516,
                -1.770482944714209,
                -0.18736067674737034,
                -0.21714892119459694
            ]
        },
        {
            "positions": [
                2.307432429996267,
                -2.179981628677541,
                -0.41077639676049316,
                -1.798324922033155,
                -0.22347357737879214,
                -0.11571564444963123
            ]
        },
        {
            "positions": [
                2.3868638683606154,
                -2.171286721875534,
                -0.5435370799614816,
                -1.826166899352101,
                -0.25958647801021406,
                -0.014282367704665067
            ]
        },
        {
            "positions": [
                2.4662953067249638,
                -2.162591815073527,
                -0.67629776316247,
                -1.8540088766710472,
                -0.295699378641636,
                0.0871509090403011
            ]
        },
        {
            "positions": [
                2.545726745089312,
                -2.1538969082715194,
                -0.809058446363458,
                -1.881850853989993,
                -0.3318122792730579,
                0.18858418578526726
            ]
        },
        {
            "positions": [
                2.625158183453661,
                -2.1452020014695123,
                -0.9418191295644465,
                -1.9096928313089392,
                -0.3679251799044799,
                0.2900174625302334
            ]
        },
        {
            "positions": [
                2.704589621818009,
                -2.1365070946675053,
                -1.074579812765435,
                -1.9375348086278854,
                -0.40403808053590184,
                0.3914507392751996
            ]
        },
        {
            "positions": [
                2.7840210601823574,
                -2.1278121878654983,
                -1.207340495966423,
                -1.9653767859468314,
                -0.44015098116732376,
                0.4928840160201653
            ]
        },
        {
            "positions": [
                2.863452498546706,
                -2.1191172810634913,
                -1.3401011791674113,
                -1.9932187632657774,
                -0.47626388179874574,
                0.5943172927651313
            ]
        },
        {
            "positions": [
                2.8716688259505547,
                -2.114217015655083,
                -1.4176696715820818,
                -2.025642247536269,
                -0.49743363617004466,
                0.7923285029194781
            ]
        },
        {
            "positions": [
                2.8798851533544036,
                -2.1093167502466743,
                -1.495238163996752,
                -2.0580657318067606,
                -0.5186033905413436,
                0.990339713073825
            ]
        },
        {
            "positions": [
                2.8881014807582526,
                -2.104416484838266,
                -1.5728066564114225,
                -2.0904892160772524,
                -0.5397731449126425,
                1.1883509232281717
            ]
        },
        {
            "positions": [
                2.8603286864136916,
                -2.1140587328201224,
                -1.5939875594275132,
                -2.1416669946348454,
                -0.5348779357620872,
                1.4631881109194784
            ]
        },
        {
            "positions": [
                2.8325558920691307,
                -2.123700980801979,
                -1.615168462443604,
                -2.192844773192438,
                -0.5299827266115318,
                1.7380252986107851
            ]
        },
        {
            "positions": [
                2.80478309772457,
                -2.1333432287838354,
                -1.6363493654596946,
                -2.2440225517500307,
                -0.5250875174609764,
                2.012862486302092
            ]
        },
        {
            "positions": [
                2.777010303380009,
                -2.1429854767656917,
                -1.6575302684757853,
                -2.295200330307624,
                -0.5201923083104211,
                2.287699673993399
            ]
        },
        {
            "positions": [
                2.749237509035448,
                -2.1526277247475485,
                -1.678711171491876,
                -2.346378108865217,
                -0.5152970991598658,
                2.5625368616847055
            ]
        },
        {
            "positions": [
                2.721464714690887,
                -2.162269972729405,
                -1.6998920745079669,
                -2.3975558874228096,
                -0.5104018900093104,
                2.8373740493760122
            ]
        },
        {
            "positions": [
                2.691019112435112,
                -2.1730437549884893,
                -1.6779041093812583,
                -2.4180013370796063,
                -0.49574205558381446,
                2.9886723616079296
            ]
        },
        {
            "positions": [
                2.6605735101793373,
                -2.1838175372475743,
                -1.6559161442545498,
                -2.438446786736403,
                -0.4810822211583185,
                3.1399706738398465
            ]
        }
    ]
}