{
    "goal": {
        "global_pose": {
            "orientation": {
                "w": 0.7047431468963623,
                "x": -0.7094548344612122,
                "y": 0.0024358443915843964,
                "z": -0.0022348060738295317
            },
            "position": {
                "x": 0.6094750761985779,
                "y": 0.3671506643295288,
                "z": 0.19426114857196808
            }
        },
        "name": "move_to_magneteinheit_A"
    },
    "id": "FMT_move_to_magneteinheit_A_93",
    "joint_names": [
        "shoulder_pan_joint",
        "shoulder_lift_joint",
        "elbow_joint",
        "wrist_1_joint",
        "wrist_2_joint",
        "wrist_3_joint"
    ],
    "metrics": {
        "cart_traj_len": 2.066385946412031,
        "distance_elbow_joint": 3.8858732332924166,
        "distance_shoulder_lift_joint": 1.0593955234408763,
        "distance_shoulder_pan_joint": 1.2415798043802484,
        "distance_wrist_1_joint": 1.182454678118784,
        "distance_wrist_2_joint": 1.434499430659044,
        "distance_wrist_3_joint": 1.941235322172795,
        "smoothness": 7.65671050238921e-16,
        "time": 1.26643189,
        "traj_len": 3.27796247569495,
        "weighted_distance": 4.152645270810834
    },
    "planner": "FMT",
    "start": {
        "state": {
            "elbow_joint": -1.919643507792019,
            "shoulder_lift_joint": -0.07675430207160344,
            "shoulder_pan_joint": -1.1188671864651873,
            "wrist_1_joint": 0.42560062535961957,
            "wrist_2_joint": 1.5706038300724876,
            "wrist_3_joint": 1.1188968870953055
        }
    },
    "waypoints": [
        {
            "positions": [
                -1.1188671864651873,
                -0.07675430207160344,
                -1.919643507792019,
                0.42560062535961957,
                1.5706038300724876,
                1.1188968870953055
            ]
        },
        {
            "positions": [
                -1.0745250505944641,
                -0.11458985648020617,
                -1.7808623208887184,
                0.3833701011410916,
                1.5193717075489503,
                1.1882267200300483
            ]
        },
        {
            "positions": [
                -1.0301829147237411,
                -0.1524254108888089,
                -1.642081133985418,
                0.3411395769225636,
                1.468139585025413,
                1.257556552964791
            ]
        },
        {
            "positions": [
                -0.9858407788530179,
                -0.1902609652974116,
                -1.5032999470821173,
                0.29890905270403556,
                1.4169074625018758,
                1.3268863858995337
            ]
        },
        {
            "positions": [
                -0.9414986429822947,
                -0.22809651970601433,
                -1.3645187601788167,
                0.2566785284855076,
                1.3656753399783386,
                1.3962162188342762
            ]
        },
        {
            "positions": [
                -0.8971565071115716,
                -0.26593207411461706,
                -1.225737573275516,
                0.21444800426697957,
                1.314443217454801,
                1.4655460517690189
            ]
        },
        {
            "positions": [
                -0.8528143712408485,
                -0.3037676285232198,
                -1.0869563863722156,
                0.1722174800484516,
                1.2632110949312638,
                1.5348758847037616
            ]
        },
        {
            "positions": [
                -0.8084722353701252,
                -0.3416031829318225,
                -0.9481751994689149,
                0.1299869558299236,
                1.2119789724077266,
                1.6042057176385043
            ]
        },
        {
            "positions": [
                -0.764130099499402,
                -0.3794387373404252,
                -0.8093940125656145,
                0.08775643161139562,
                1.1607468498841893,
                1.6735355505732468
            ]
        },
        {
            "positions": [
                -0.7197879636286789,
                -0.41727429174902797,
                -0.6706128256623136,
                0.04552590739286755,
                1.109514727360652,
                1.7428653835079897
            ]
        },
        {
            "positions": [
                -0.6754458277579558,
                -0.45510984615763067,
                -0.5318316387590132,
                0.0032953831743395834,
                1.0582826048371148,
                1.8121952164427322
            ]
        },
        {
            "positions": [
                -0.6311036918872326,
                -0.4929454005662334,
                -0.3930504518557125,
                -0.03893514104418838,
                1.0070504823135775,
                1.881525049377475
            ]
        },
        {
            "positions": [
                -0.5867615560165095,
                -0.5307809549748361,
                -0.2542692649524121,
                -0.08116566526271635,
                0.9558183597900403,
                1.9508548823122176
            ]
        },
        {
            "positions": [
                -0.5424194201457863,
                -0.5686165093834389,
                -0.11548807804911121,
                -0.12339618948124437,
                0.9045862372665029,
                2.0201847152469603
            ]
        },
        {
            "positions": [
                -0.49807728427506315,
                -0.6064520637920416,
                0.023293108854189226,
                -0.1656267136997724,
                0.8533541147429656,
                2.089514548181703
            ]
        },
        {
            "positions": [
                -0.45373514840434004,
                -0.6442876182006443,
                0.16207429575748988,
                -0.2078572379183004,
                0.8021219922194284,
                2.1588443811164457
            ]
        },
        {
            "positions": [
                -0.4093930125336168,
                -0.6821231726092469,
                0.3008554826607901,
                -0.2500877621368283,
                0.7508898696958911,
                2.2281742140511884
            ]
        },
        {
            "positions": [
                -0.3650508766628937,
                -0.7199587270178498,
                0.43963666956409075,
                -0.29231828635535634,
                0.6996577471723538,
                2.2975040469859307
            ]
        },
        {
            "positions": [
                -0.3207087407921705,
                -0.7577942814264524,
                0.5784178564673919,
                -0.33454881057388447,
                0.6484256246488165,
                2.366833879920674
            ]
        },
        {
            "positions": [
                -0.2763666049214474,
                -0.7956298358350553,
                0.7171990433706925,
                -0.3767793347924124,
                0.5971935021252792,
                2.4361637128554166
            ]
        },
        {
            "positions": [
                -0.23202446905072416,
                -0.833465390243658,
                0.8559802302739927,
                -0.4190098590109404,
                0.545961379601742,
                2.5054935457901593
            ]
        },
        {
            "positions": [
                -0.18768233318000105,
                -0.8713009446522606,
                0.9947614171772934,
                -0.4612403832294683,
                0.4947292570782047,
                2.5748233787249015
            ]
        },
        {
            "positions": [
                -0.14334019730927794,
                -0.9091364990608635,
                1.133542604080594,
                -0.5034709074479964,
                0.44349713455466744,
                2.6441532116596447
            ]
        },
        {
            "positions": [
                -0.09899806143855483,
                -0.9469720534694661,
                1.2723237909838943,
                -0.5457014316665243,
                0.3922650120311302,
                2.713483044594387
            ]
        },
        {
            "positions": [
                -0.05465592556783161,
                -0.9848076078780688,
                1.411104977887195,
                -0.5879319558850522,
                0.3410328895075929,
                2.7828128775291296
            ]
        },
        {
            "positions": [
                -0.010313789697108389,
                -1.0226431622866716,
                1.549886164790496,
                -0.6301624801035803,
                0.28980076698405544,
                2.8521427104638724
            ]
        },
        {
            "positions": [
                0.03402834617361483,
                -1.0604787166952743,
                1.6886673516937967,
                -0.6723930043221082,
                0.23856864446051818,
                2.9214725433986155
            ]
        },
        {
            "positions": [
                0.07837048204433783,
                -1.0983142711038771,
                1.8274485385970969,
                -0.7146235285406364,
                0.18733652193698092,
                2.9908023763333578
            ]
        },
        {
            "positions": [
                0.1227126179150611,
                -1.1361498255124798,
                1.9662297255003973,
                -0.7568540527591643,
                0.13610439941344374,
                3.0601322092681005
            ]
        }
    ]
}