{
    "goal": {
        "global_pose": {
            "orientation": {
                "w": -0.00223480608172531,
                "x": 0.0024358444001904467,
                "y": 0.7094548369677653,
                "z": -0.704743149386269
            },
            "position": {
                "x": 0.6205249238014221,
                "y": -0.6371506643295288,
                "z": 0.19426114857196808
            }
        },
        "name": "move_to_magneteinheit_B"
    },
    "id": "FMT_move_to_magneteinheit_B_101",
    "joint_names": [
        "shoulder_pan_joint",
        "shoulder_lift_joint",
        "elbow_joint",
        "wrist_1_joint",
        "wrist_2_joint",
        "wrist_3_joint"
    ],
    "metrics": {
        "cart_traj_len": 3.9392636033638397,
        "distance_elbow_joint": 4.5137762770009315,
        "distance_shoulder_lift_joint": 1.1934531181116363,
        "distance_shoulder_pan_joint": 3.0794529038857132,
        "distance_wrist_1_joint": 1.9711527181516306,
        "distance_wrist_2_joint": 3.0982464618957937,
        "distance_wrist_3_joint": 6.268233969905834,
        "smoothness": 0.2121144143900822,
        "time": 1.581672236,
        "traj_len": 4.486013313505828,
        "weighted_distance": 6.142489932332867
    },
    "planner": "FMT",
    "start": {
        "state": {
            "elbow_joint": 2.39358713078474,
            "shoulder_lift_joint": -1.908514104345545,
            "shoulder_pan_joint": 0.7066247066606129,
            "wrist_1_joint": -0.4678290933515497,
            "wrist_2_joint": 0.7096259083745334,
            "wrist_3_joint": -3.1358149277392293
        }
    },
    "waypoints": [
        {
            "positions": [
                0.7066247066606129,
                -1.908514104345545,
                2.39358713078474,
                -0.4678290933515497,
                0.7096259083745334,
                -3.1358149277392293
            ]
        },
        {
            "positions": [
                0.6801701245967743,
                -1.9089413701650095,
                2.3884540828340795,
                -0.5143060234215777,
                0.6244944017139654,
                -3.0295123183442856
            ]
        },
        {
            "positions": [
                0.6537155425329356,
                -1.9093686359844741,
                2.3833210348834193,
                -0.5607829534916058,
                0.5393628950533974,
                -2.9232097089493423
            ]
        },
        {
            "positions": [
                0.6197599297496842,
                -1.908987258124442,
                2.372981573805448,
                -0.6240619885613551,
                0.4236932282918594,
                -2.7773050295493578
            ]
        },
        {
            "positions": [
                0.5858043169664328,
                -1.9086058802644101,
                2.3626421127274764,
                -0.6873410236311043,
                0.3080235615303214,
                -2.6314003501493732
            ]
        },
        {
            "positions": [
                0.5518487041831814,
                -1.908224502404378,
                2.352302651649505,
                -0.7506200587008536,
                0.1923538947687834,
                -2.4854956707493883
            ]
        },
        {
            "positions": [
                0.51789309139993,
                -1.907843124544346,
                2.3419631905715335,
                -0.8138990937706028,
                0.07668422800724539,
                -2.3395909913494037
            ]
        },
        {
            "positions": [
                0.4839374786166786,
                -1.907461746684314,
                2.3316237294935616,
                -0.8771781288403522,
                -0.03898543875429261,
                -2.193686311949419
            ]
        },
        {
            "positions": [
                0.44998186583342714,
                -1.907080368824282,
                2.32128426841559,
                -0.9404571639101014,
                -0.15465510551583062,
                -2.0477816325494347
            ]
        },
        {
            "positions": [
                0.4160262530501757,
                -1.9066989909642498,
                2.3109448073376186,
                -1.0037361989798506,
                -0.2703247722773686,
                -1.90187695314945
            ]
        },
        {
            "positions": [
                0.38207064026692433,
                -1.9063176131042179,
                2.300605346259647,
                -1.0670152340495997,
                -0.3859944390389066,
                -1.7559722737494654
            ]
        },
        {
            "positions": [
                0.3481150274836729,
                -1.9059362352441858,
                2.2902658851816757,
                -1.1302942691193492,
                -0.5016641058004445,
                -1.6100675943494807
            ]
        },
        {
            "positions": [
                0.3423331091579151,
                -1.8976614885499643,
                2.2553852789207522,
                -1.1730670439534414,
                -0.5778673645011824,
                -1.5016883862256463
            ]
        },
        {
            "positions": [
                0.33655119083215734,
                -1.8893867418557428,
                2.220504672659829,
                -1.2158398187875337,
                -0.6540706232019201,
                -1.3933091781018119
            ]
        },
        {
            "positions": [
                0.33076927250639954,
                -1.8811119951615214,
                2.1856240663989057,
                -1.258612593621626,
                -0.730273881902658,
                -1.2849299699779775
            ]
        },
        {
            "positions": [
                0.38485806543833206,
                -1.8572186390334826,
                2.070899736091593,
                -1.2916847890043621,
                -0.7694033458060248,
                -1.1684295672135065
            ]
        },
        {
            "positions": [
                0.4389468583702646,
                -1.8333252829054436,
                1.9561754057842802,
                -1.324756984387098,
                -0.8085328097093916,
                -1.0519291644490356
            ]
        },
        {
            "positions": [
                0.49303565130219706,
                -1.8094319267774048,
                1.8414510754769675,
                -1.3578291797698343,
                -0.8476622736127584,
                -0.9354287616845649
            ]
        },
        {
            "positions": [
                0.5471244442341296,
                -1.785538570649366,
                1.7267267451696549,
                -1.3909013751525705,
                -0.8867917375161252,
                -0.818928358920094
            ]
        },
        {
            "positions": [
                0.6012132371660621,
                -1.7616452145213273,
                1.612002414862342,
                -1.4239735705353065,
                -0.925921201419492,
                -0.702427956155623
            ]
        },
        {
            "positions": [
                0.6553020300979946,
                -1.7377518583932883,
                1.4972780845550293,
                -1.4570457659180427,
                -0.9650506653228588,
                -0.5859275533911522
            ]
        },
        {
            "positions": [
                0.7093908230299272,
                -1.7138585022652495,
                1.3825537542477164,
                -1.490117961300779,
                -1.0041801292262256,
                -0.4694271506266813
            ]
        },
        {
            "positions": [
                0.7634796159618598,
                -1.6899651461372107,
                1.267829423940404,
                -1.5231901566835149,
                -1.0433095931295924,
                -0.35292674786221045
            ]
        },
        {
            "positions": [
                0.8175684088937922,
                -1.666071790009172,
                1.153105093633091,
                -1.556262352066251,
                -1.0824390570329592,
                -0.23642634509773952
            ]
        },
        {
            "positions": [
                0.8716572018257248,
                -1.642178433881133,
                1.0383807633257782,
                -1.5893345474489873,
                -1.121568520936326,
                -0.11992594233326859
            ]
        },
        {
            "positions": [
                0.9257459947576573,
                -1.6182850777530942,
                0.9236564330184656,
                -1.6224067428317235,
                -1.1606979848396928,
                -0.003425539568797653
            ]
        },
        {
            "positions": [
                0.9798347876895898,
                -1.5943917216250554,
                0.8089321027111529,
                -1.6554789382144595,
                -1.1998274487430596,
                0.11307486319567306
            ]
        },
        {
            "positions": [
                1.0339235806215223,
                -1.5704983654970164,
                0.6942077724038402,
                -1.6885511335971957,
                -1.2389569126464264,
                0.229575265960144
            ]
        },
        {
            "positions": [
                1.0880123735534548,
                -1.5466050093689776,
                0.5794834420965274,
                -1.7216233289799316,
                -1.2780863765497932,
                0.3460756687246149
            ]
        },
        {
            "positions": [
                1.1421011664853875,
                -1.5227116532409388,
                0.4647591117892147,
                -1.7546955243626678,
                -1.31721584045316,
                0.46257607148908586
            ]
        },
        {
            "positions": [
                1.1961899594173198,
                -1.4988182971129,
                0.35003478148190204,
                -1.7877677197454038,
                -1.3563453043565268,
                0.5790764742535566
            ]
        },
        {
            "positions": [
                1.2502787523492525,
                -1.474924940984861,
                0.23531045117458937,
                -1.8208399151281403,
                -1.3954747682598936,
                0.6955768770180275
            ]
        },
        {
            "positions": [
                1.304367545281185,
                -1.4510315848568223,
                0.12058612086727669,
                -1.8539121105108762,
                -1.4346042321632604,
                0.8120772797824982
            ]
        },
        {
            "positions": [
                1.3900960845459498,
                -1.4575224476590625,
                0.0090275777353655,
                -1.8814643534356412,
                -1.3987237408012159,
                0.9210714170028993
            ]
        },
        {
            "positions": [
                1.4758246238107147,
                -1.4640133104613025,
                -0.10253096539654569,
                -1.909016596360406,
                -1.3628432494391716,
                1.0300655542233004
            ]
        },
        {
            "positions": [
                1.5615531630754793,
                -1.4705041732635427,
                -0.2140895085284569,
                -1.936568839285171,
                -1.326962758077127,
                1.1390596914437014
            ]
        },
        {
            "positions": [
                1.6472817023402442,
                -1.4769950360657829,
                -0.32564805166036803,
                -1.9641210822099358,
                -1.2910822667150827,
                1.2480538286641025
            ]
        },
        {
            "positions": [
                1.733010241605009,
                -1.4834858988680228,
                -0.4372065947922793,
                -1.9916733251347007,
                -1.2552017753530382,
                1.3570479658845036
            ]
        },
        {
            "positions": [
                1.818738780869774,
                -1.489976761670263,
                -0.5487651379241905,
                -2.0192255680594657,
                -1.2193212839909937,
                1.4660421031049045
            ]
        },
        {
            "positions": [
                1.9044673201345388,
                -1.4964676244725033,
                -0.6603236810561016,
                -2.0467778109842305,
                -1.1834407926289494,
                1.5750362403253058
            ]
        },
        {
            "positions": [
                1.9901958593993037,
                -1.5029584872747432,
                -0.7718822241880128,
                -2.0743300539089953,
                -1.147560301266905,
                1.6840303775457066
            ]
        },
        {
            "positions": [
                2.0759243986640685,
                -1.5094493500769834,
                -0.883440767319924,
                -2.10188229683376,
                -1.1116798099048606,
                1.793024514766108
            ]
        },
        {
            "positions": [
                2.1616529379288334,
                -1.5159402128792236,
                -0.9949993104518353,
                -2.1294345397585253,
                -1.075799318542816,
                1.902018651986509
            ]
        },
        {
            "positions": [
                2.2473814771935983,
                -1.5224310756814636,
                -1.1065578535837466,
                -2.15698678268329,
                -1.0399188271807716,
                2.01101278920691
            ]
        },
        {
            "positions": [
                2.333110016458363,
                -1.5289219384837038,
                -1.2181163967156576,
                -2.184539025608055,
                -1.0040383358187273,
                2.120006926427311
            ]
        },
        {
            "positions": [
                2.418838555723128,
                -1.535412801285944,
                -1.329674939847569,
                -2.21209126853282,
                -0.9681578444566827,
                2.2290010636477122
            ]
        },
        {
            "positions": [
                2.504567094987893,
                -1.541903664088184,
                -1.44123348297948,
                -2.239643511457585,
                -0.9322773530946383,
                2.337995200868113
            ]
        },
        {
            "positions": [
                2.5902956342526577,
                -1.5483945268904242,
                -1.5527920261113912,
                -2.2671957543823495,
                -0.8963968617325938,
                2.446989338088514
            ]
        },
        {
            "positions": [
                2.676024173517422,
                -1.5548853896926644,
                -1.6643505692433023,
                -2.2947479973071143,
                -0.8605163703705495,
                2.5559834753089152
            ]
        },
        {
            "positions": [
                2.761752712782187,
                -1.5613762524949044,
                -1.7759091123752135,
                -2.3223002402318795,
                -0.824635879008505,
                2.6649776125293165
            ]
        },
        {
            "positions": [
                2.847481252046952,
                -1.5678671152971446,
                -1.887467655507125,
                -2.3498524831566443,
                -0.7887553876464606,
                2.7739717497497174
            ]
        },
        {
            "positions": [
                2.8101041540087626,
                -1.6913523162780912,
                -1.8409233573653119,
                -2.3676783488259514,
                -0.7271218922782205,
                2.8456612082330945
            ]
        },
        {
            "positions": [
                2.772727055970573,
                -1.8148375172590379,
                -1.7943790592234987,
                -2.3855042144952585,
                -0.6654883969099806,
                2.9173506667164717
            ]
        },
        {
            "positions": [
                2.7353499579323834,
                -1.9383227182399843,
                -1.7478347610816853,
                -2.403330080164566,
                -0.6038549015417407,
                2.989040125199849
            ]
        },
        {
            "positions": [
                2.6979728598941937,
                -2.061807919220931,
                -1.7012904629398722,
                -2.421155945833873,
                -0.5422214061735007,
                3.060729583683226
            ]
        },
        {
            "positions": [
                2.6605957618560043,
                -2.1852931202018775,
                -1.654746164798059,
                -2.4389818115031803,
                -0.4805879108052607,
                3.132419042166603
            ]
        }
    ]
}