{
    "goal": {
        "global_pose": {
            "orientation": {
                "w": -0.00223480608172531,
                "x": 0.0024358444001904467,
                "y": 0.7094548369677653,
                "z": -0.704743149386269
            },
            "position": {
                "x": 0.6205249238014221,
                "y": -0.6371506643295288,
                "z": 0.19426114857196808
            }
        },
        "name": "move_to_magneteinheit_B"
    },
    "id": "FMT_move_to_magneteinheit_B_142",
    "joint_names": [
        "shoulder_pan_joint",
        "shoulder_lift_joint",
        "elbow_joint",
        "wrist_1_joint",
        "wrist_2_joint",
        "wrist_3_joint"
    ],
    "metrics": {
        "cart_traj_len": 3.370081817149477,
        "distance_elbow_joint": 4.522396169350953,
        "distance_shoulder_lift_joint": 0.631332627940163,
        "distance_shoulder_pan_joint": 2.0559446552509306,
        "distance_wrist_1_joint": 1.6732582558581335,
        "distance_wrist_2_joint": 0.581067022067699,
        "distance_wrist_3_joint": 3.137943281939742,
        "smoothness": 0.5384642570212185,
        "time": 1.493226723,
        "traj_len": 3.549921409328327,
        "weighted_distance": 4.596972248579813
    },
    "planner": "FMT",
    "start": {
        "state": {
            "elbow_joint": 2.39358713078474,
            "shoulder_lift_joint": -1.908514104345545,
            "shoulder_pan_joint": 0.7066247066606129,
            "wrist_1_joint": -0.4678290933515497,
            "wrist_2_joint": 0.7096259083745334,
            "wrist_3_joint": -3.1358149277392293
        }
    },
    "waypoints": [
        {
            "positions": [
                0.7066247066606129,
                -1.908514104345545,
                2.39358713078474,
                -0.4678290933515497,
                0.7096259083745334,
                -3.1358149277392293
            ]
        },
        {
            "positions": [
                0.7559426762448196,
                -1.9024711335942022,
                2.3676098113878226,
                -0.3224996028932715,
                0.6951726882233304,
                -2.991481143201841
            ]
        },
        {
            "positions": [
                0.8354563583946938,
                -1.8795881658811098,
                2.386496268516989,
                -0.22343852013065904,
                0.6950536900856128,
                -2.864789950317024
            ]
        },
        {
            "positions": [
                0.8364572693761344,
                -1.8925813716152313,
                2.32186673502223,
                -0.0894584021309589,
                0.6715628576849927,
                -2.7586860335315033
            ]
        },
        {
            "positions": [
                0.9059044752932054,
                -1.9007723333661177,
                2.166340569043043,
                -0.04520067213675485,
                0.6579992413011617,
                -2.6564548326529565
            ]
        },
        {
            "positions": [
                0.9753516812102765,
                -1.9089632951170041,
                2.010814403063855,
                -0.0009429421425507928,
                0.6444356249173309,
                -2.554223631774409
            ]
        },
        {
            "positions": [
                1.0447988871273475,
                -1.9171542568678905,
                1.8552882370846677,
                0.04331478785165327,
                0.6308720085334999,
                -2.4519924308958623
            ]
        },
        {
            "positions": [
                1.1142460930444185,
                -1.9253452186187772,
                1.6997620711054804,
                0.08757251784585732,
                0.617308392149669,
                -2.3497612300173154
            ]
        },
        {
            "positions": [
                1.1836932989614894,
                -1.9335361803696636,
                1.5442359051262928,
                0.13183024784006137,
                0.6037447757658381,
                -2.247530029138768
            ]
        },
        {
            "positions": [
                1.2531405048785604,
                -1.94172714212055,
                1.3887097391471053,
                0.17608797783426544,
                0.5901811593820072,
                -2.1452988282602212
            ]
        },
        {
            "positions": [
                1.3225877107956316,
                -1.9499181038714364,
                1.233183573167918,
                0.22034570782846946,
                0.5766175429981762,
                -2.0430676273816744
            ]
        },
        {
            "positions": [
                1.3920349167127026,
                -1.9581090656223228,
                1.0776574071887304,
                0.26460343782267354,
                0.5630539266143454,
                -1.9408364265031275
            ]
        },
        {
            "positions": [
                1.4614821226297736,
                -1.9663000273732092,
                0.9221312412095428,
                0.30886116781687756,
                0.5494903102305144,
                -1.8386052256245804
            ]
        },
        {
            "positions": [
                1.5309293285468446,
                -1.9744909891240956,
                0.7666050752303555,
                0.35311889781108163,
                0.5359266938466836,
                -1.7363740247460333
            ]
        },
        {
            "positions": [
                1.6003765344639156,
                -1.9826819508749822,
                0.6110789092511679,
                0.39737662780528565,
                0.5223630774628526,
                -1.6341428238674864
            ]
        },
        {
            "positions": [
                1.6698237403809868,
                -1.9908729126258686,
                0.45555274327198036,
                0.4416343577994898,
                0.5087994610790217,
                -1.5319116229889393
            ]
        },
        {
            "positions": [
                1.7392709462980576,
                -1.999063874376755,
                0.30002657729279303,
                0.48589208779369375,
                0.4952358446951908,
                -1.4296804221103925
            ]
        },
        {
            "positions": [
                1.8087181522151288,
                -2.0072548361276414,
                0.1445004113136057,
                0.5301498177878978,
                0.4816722283113599,
                -1.3274492212318454
            ]
        },
        {
            "positions": [
                1.8781653581322,
                -2.015445797878528,
                -0.011025754665582088,
                0.5744075477821019,
                0.46810861192752895,
                -1.2252180203532983
            ]
        },
        {
            "positions": [
                1.9476125640492707,
                -2.0236367596294143,
                -0.16655192064476942,
                0.618665277776306,
                0.4545449955436981,
                -1.1229868194747514
            ]
        },
        {
            "positions": [
                2.017059769966342,
                -2.0318277213803007,
                -0.3220780866239572,
                0.66292300777051,
                0.4409813791598671,
                -1.0207556185962043
            ]
        },
        {
            "positions": [
                2.0865069758834127,
                -2.040018683131187,
                -0.47760425260314454,
                0.707180737764714,
                0.42741776277603627,
                -0.9185244177176575
            ]
        },
        {
            "positions": [
                2.155954181800484,
                -2.0482096448820735,
                -0.6331304185823319,
                0.7514384677589182,
                0.4138541463922053,
                -0.8162932168391104
            ]
        },
        {
            "positions": [
                2.2254013877175547,
                -2.05640060663296,
                -0.7886565845615192,
                0.7956961977531222,
                0.40029053000837445,
                -0.7140620159605633
            ]
        },
        {
            "positions": [
                2.294848593634626,
                -2.0645915683838467,
                -0.944182750540707,
                0.8399539277473262,
                0.3867269136245435,
                -0.6118308150820164
            ]
        },
        {
            "positions": [
                2.364295799551697,
                -2.072782530134733,
                -1.0997089165198943,
                0.8842116577415302,
                0.37316329724071257,
                -0.5095996142034696
            ]
        },
        {
            "positions": [
                2.433743005468768,
                -2.0809734918856195,
                -1.2552350824990821,
                0.9284693877357343,
                0.35959968085688165,
                -0.40736841332492224
            ]
        },
        {
            "positions": [
                2.503190211385839,
                -2.089164453636506,
                -1.4107612484782694,
                0.9727271177299385,
                0.34603606447305074,
                -0.30513721244637537
            ]
        },
        {
            "positions": [
                2.5726374173029103,
                -2.0973554153873923,
                -1.5662874144574568,
                1.0169848477241423,
                0.33247244808921983,
                -0.2029060115678285
            ]
        },
        {
            "positions": [
                2.642084623219981,
                -2.1055463771382787,
                -1.7218135804366441,
                1.0612425777183465,
                0.3189088317053889,
                -0.10067481068928164
            ]
        },
        {
            "positions": [
                2.7115318291370523,
                -2.113737338889165,
                -1.877339746415832,
                1.1055003077125507,
                0.305345215321558,
                0.0015563901892657898
            ]
        },
        {
            "positions": [
                2.694519318212222,
                -2.236489844378389,
                -1.806107620451816,
                1.0721906894478732,
                0.3642739916597992,
                0.0017470448596815541
            ]
        },
        {
            "positions": [
                2.6775068072873913,
                -2.3592423498676136,
                -1.7348754944878,
                1.0388810711831955,
                0.42320276799804035,
                0.0019376995300973182
            ]
        },
        {
            "positions": [
                2.660494296362561,
                -2.4819948553568376,
                -1.6636433685237841,
                1.005571452918518,
                0.4821315443362816,
                0.0021283542005130825
            ]
        }
    ]
}