{
    "goal": {
        "global_pose": {
            "orientation": {
                "w": 0.5084816217422485,
                "x": -0.49083608388900757,
                "y": 0.5182115435600281,
                "z": -0.4816462993621826
            },
            "position": {
                "x": 0.5540239810943604,
                "y": 0.030875300988554955,
                "z": 0.16403168439865112
            }
        },
        "name": "move_to_storage_A"
    },
    "id": "FMT_move_to_storage_A_29",
    "joint_names": [
        "shoulder_pan_joint",
        "shoulder_lift_joint",
        "elbow_joint",
        "wrist_1_joint",
        "wrist_2_joint",
        "wrist_3_joint"
    ],
    "metrics": {
        "cart_traj_len": 0.35334701549252423,
        "distance_elbow_joint": 0.44672399768519755,
        "distance_shoulder_lift_joint": 0.2341843721674135,
        "distance_shoulder_pan_joint": 0.4607587881608539,
        "distance_wrist_1_joint": 0.23401482623757686,
        "distance_wrist_2_joint": 1.1040143746000572,
        "distance_wrist_3_joint": 0.09213285694550732,
        "smoothness": 0.0,
        "time": 0.424336551,
        "traj_len": 1.6036923694389165,
        "weighted_distance": 2.023394210361702
    },
    "planner": "FMT",
    "start": {
        "state": {
            "elbow_joint": 1.9715463870305268,
            "shoulder_lift_joint": -1.1394903361783484,
            "shoulder_pan_joint": 0.12281147578464417,
            "wrist_1_joint": -0.7804599489681411,
            "wrist_2_joint": 0.12958660307563738,
            "wrist_3_joint": -3.1924946282119055
        }
    },
    "waypoints": [
        {
            "positions": [
                0.12281147578464417,
                -1.1394903361783484,
                1.9715463870305268,
                -0.7804599489681411,
                0.12958660307563738,
                -3.1924946282119055
            ]
        },
        {
            "positions": [
                0.05698879176166505,
                -1.1729452464879788,
                2.035364100985555,
                -0.813890638430652,
                0.287302942304217,
                -3.1793327915054044
            ]
        },
        {
            "positions": [
                -0.008833892261314077,
                -1.2064001567976095,
                2.099181814940583,
                -0.8473213278931631,
                0.4450192815327966,
                -3.1661709547989036
            ]
        },
        {
            "positions": [
                -0.07465657628429322,
                -1.23985506710724,
                2.1629995288956114,
                -0.880752017355674,
                0.6027356207613762,
                -3.1530091180924025
            ]
        },
        {
            "positions": [
                -0.1404792603072723,
                -1.2733099774168704,
                2.2268172428506396,
                -0.914182706818185,
                0.7604519599899559,
                -3.1398472813859013
            ]
        },
        {
            "positions": [
                -0.20630194433025145,
                -1.306764887726501,
                2.290634956805668,
                -0.947613396280696,
                0.9181682992185355,
                -3.1266854446794
            ]
        },
        {
            "positions": [
                -0.2721246283532306,
                -1.3402197980361314,
                2.354452670760696,
                -0.981044085743207,
                1.075884638447115,
                -3.1135236079728994
            ]
        },
        {
            "positions": [
                -0.33794731237620973,
                -1.3736747083457619,
                2.4182703847157243,
                -1.014474775205718,
                1.2336009776756947,
                -3.1003617712663982
            ]
        }
    ]
}