{
    "goal": {
        "global_pose": {
            "orientation": {
                "w": -0.00223480608172531,
                "x": 0.0024358444001904467,
                "y": 0.7094548369677653,
                "z": -0.704743149386269
            },
            "position": {
                "x": 0.6205249238014221,
                "y": -0.6371506643295288,
                "z": 0.19426114857196808
            }
        },
        "name": "move_to_magneteinheit_B"
    },
    "id": "FMT_move_to_magneteinheit_B_73",
    "joint_names": [
        "shoulder_pan_joint",
        "shoulder_lift_joint",
        "elbow_joint",
        "wrist_1_joint",
        "wrist_2_joint",
        "wrist_3_joint"
    ],
    "metrics": {
        "cart_traj_len": 1.452317480948751,
        "distance_elbow_joint": 0.7268612437552893,
        "distance_shoulder_lift_joint": 1.246645770735019,
        "distance_shoulder_pan_joint": 1.621955487672738,
        "distance_wrist_1_joint": 2.608924773311742,
        "distance_wrist_2_joint": 2.9330076875819087,
        "distance_wrist_3_joint": 3.1428554643895112,
        "smoothness": 5.273559369583415e-16,
        "time": 1.3258866020000002,
        "traj_len": 3.5043188250280832,
        "weighted_distance": 4.909979003735034
    },
    "planner": "FMT",
    "start": {
        "state": {
            "elbow_joint": 2.39358713078474,
            "shoulder_lift_joint": -1.908514104345545,
            "shoulder_pan_joint": 0.7066247066606129,
            "wrist_1_joint": -0.4678290933515497,
            "wrist_2_joint": 0.7096259083745334,
            "wrist_3_joint": -3.1358149277392293
        }
    },
    "waypoints": [
        {
            "positions": [
                0.7066247066606129,
                -1.908514104345545,
                2.39358713078474,
                -0.4678290933515497,
                0.7096259083745334,
                -3.1358149277392293
            ]
        },
        {
            "positions": [
                0.6543035618969762,
                -1.8682997246444153,
                2.370139993889408,
                -0.38367022969633224,
                0.6150127571622138,
                -3.0344324934040836
            ]
        },
        {
            "positions": [
                0.6019824171333396,
                -1.8280853449432857,
                2.346692856994076,
                -0.2995113660411147,
                0.5203996059498942,
                -2.9330500590689383
            ]
        },
        {
            "positions": [
                0.5496612723697029,
                -1.787870965242156,
                2.323245720098744,
                -0.21535250238589726,
                0.42578645473757454,
                -2.8316676247337926
            ]
        },
        {
            "positions": [
                0.4973401276060661,
                -1.7476565855410264,
                2.2997985832034122,
                -0.13119363873067974,
                0.3311733035252549,
                -2.7302851903986474
            ]
        },
        {
            "positions": [
                0.4450189828424294,
                -1.7074422058398966,
                2.2763514463080803,
                -0.047034775075462276,
                0.23656015231293526,
                -2.6289027560635017
            ]
        },
        {
            "positions": [
                0.3926978380787927,
                -1.6672278261387672,
                2.2529043094127488,
                0.03712408857975519,
                0.14194700110061564,
                -2.527520321728356
            ]
        },
        {
            "positions": [
                0.34037669331515596,
                -1.6270134464376373,
                2.229457172517417,
                0.12128295223497271,
                0.04733384988829603,
                -2.4261378873932107
            ]
        },
        {
            "positions": [
                0.28805554855151927,
                -1.5867990667365077,
                2.206010035622085,
                0.20544181589019023,
                -0.04727930132402358,
                -2.3247554530580654
            ]
        },
        {
            "positions": [
                0.23573440378788252,
                -1.546584687035378,
                2.182562898726753,
                0.28960067954540775,
                -0.1418924525363433,
                -2.2233730187229197
            ]
        },
        {
            "positions": [
                0.18341325902424588,
                -1.5063703073342485,
                2.159115761831421,
                0.37375954320062516,
                -0.23650560374866292,
                -2.121990584387774
            ]
        },
        {
            "positions": [
                0.13109211426060907,
                -1.4661559276331189,
                2.135668624936089,
                0.4579184068558428,
                -0.33111875496098253,
                -2.0206081500526283
            ]
        },
        {
            "positions": [
                0.07877096949697249,
                -1.4259415479319892,
                2.112221488040757,
                0.5420772705110601,
                -0.42573190617330214,
                -1.919225715717483
            ]
        },
        {
            "positions": [
                0.02644982473333568,
                -1.3857271682308596,
                2.088774351145425,
                0.6262361341662779,
                -0.5203450573856218,
                -1.8178432813823375
            ]
        },
        {
            "positions": [
                -0.025871320030301015,
                -1.3455127885297298,
                2.065327214250093,
                0.7103949978214952,
                -0.6149582085979414,
                -1.716460847047192
            ]
        },
        {
            "positions": [
                -0.07819246479393771,
                -1.3052984088286004,
                2.041880077354761,
                0.7945538614767127,
                -0.7095713598102612,
                -1.6150784127120463
            ]
        },
        {
            "positions": [
                -0.1305136095575744,
                -1.2650840291274705,
                2.0184329404594297,
                0.8787127251319302,
                -0.8041845110225806,
                -1.513695978376901
            ]
        },
        {
            "positions": [
                -0.1828347543212111,
                -1.2248696494263411,
                1.9949858035640977,
                0.9628715887871475,
                -0.8987976622349002,
                -1.4123135440417556
            ]
        },
        {
            "positions": [
                -0.2351558990848479,
                -1.1846552697252113,
                1.9715386666687655,
                1.0470304524423653,
                -0.99341081344722,
                -1.3109311097066099
            ]
        },
        {
            "positions": [
                -0.2874770438484846,
                -1.1444408900240817,
                1.9480915297734338,
                1.1311893160975828,
                -1.0880239646595395,
                -1.2095486753714644
            ]
        },
        {
            "positions": [
                -0.3397981886121212,
                -1.104226510322952,
                1.9246443928781019,
                1.2153481797528,
                -1.1826371158718594,
                -1.108166241036319
            ]
        },
        {
            "positions": [
                -0.3921193333757579,
                -1.0640121306218224,
                1.90119725598277,
                1.2995070434080176,
                -1.2772502670841788,
                -1.0067838067011734
            ]
        },
        {
            "positions": [
                -0.4444404781393948,
                -1.0237977509206928,
                1.877750119087438,
                1.3836659070632353,
                -1.3718634182964986,
                -0.9054013723660277
            ]
        },
        {
            "positions": [
                -0.4967616229030315,
                -0.9835833712195631,
                1.854302982192106,
                1.4678247707184526,
                -1.4664765695088184,
                -0.8040189380308824
            ]
        },
        {
            "positions": [
                -0.549082767666668,
                -0.9433689915184336,
                1.830855845296774,
                1.55198363437367,
                -1.5610897207211378,
                -0.7026365036957367
            ]
        },
        {
            "positions": [
                -0.6014039124303047,
                -0.9031546118173039,
                1.8074087084014423,
                1.6361424980288874,
                -1.6557028719334572,
                -0.6012540693605914
            ]
        },
        {
            "positions": [
                -0.6537250571939416,
                -0.8629402321161741,
                1.7839615715061103,
                1.7203013616841054,
                -1.750316023145777,
                -0.49987163502544574
            ]
        },
        {
            "positions": [
                -0.7060462019575783,
                -0.8227258524150445,
                1.7605144346107784,
                1.8044602253393225,
                -1.844929174358097,
                -0.3984892006903
            ]
        },
        {
            "positions": [
                -0.758367346721215,
                -0.7825114727139149,
                1.7370672977154467,
                1.88861908899454,
                -1.9395423255704163,
                -0.29710676635515476
            ]
        },
        {
            "positions": [
                -0.8106884914848514,
                -0.7422970930127852,
                1.7136201608201147,
                1.9727779526497575,
                -2.034155476782736,
                -0.1957243320200095
            ]
        },
        {
            "positions": [
                -0.8630096362484884,
                -0.7020827133116556,
                1.6901730239247827,
                2.056936816304975,
                -2.128768627995056,
                -0.09434189768486334
            ]
        },
        {
            "positions": [
                -0.915330781012125,
                -0.6618683336105259,
                1.6667258870294508,
                2.1410956799601926,
                -2.2233817792073753,
                0.007040536650281714
            ]
        }
    ]
}