{
    "goal": {
        "global_pose": {
            "orientation": {
                "w": -0.00223480608172531,
                "x": 0.0024358444001904467,
                "y": 0.7094548369677653,
                "z": -0.704743149386269
            },
            "position": {
                "x": 0.6205249238014221,
                "y": -0.6371506643295288,
                "z": 0.19426114857196808
            }
        },
        "name": "move_to_magneteinheit_B"
    },
    "id": "FMT_move_to_magneteinheit_B_50",
    "joint_names": [
        "shoulder_pan_joint",
        "shoulder_lift_joint",
        "elbow_joint",
        "wrist_1_joint",
        "wrist_2_joint",
        "wrist_3_joint"
    ],
    "metrics": {
        "cart_traj_len": 3.2926744754093895,
        "distance_elbow_joint": 4.742844931598821,
        "distance_shoulder_lift_joint": 0.8704462120398304,
        "distance_shoulder_pan_joint": 2.3703049236173457,
        "distance_wrist_1_joint": 1.6230172265340252,
        "distance_wrist_2_joint": 0.7686895887544798,
        "distance_wrist_3_joint": 3.9243137319788626,
        "smoothness": 0.6271065797954849,
        "time": 1.5376965089999999,
        "traj_len": 3.7814833881062286,
        "weighted_distance": 4.953781474163913
    },
    "planner": "FMT",
    "start": {
        "state": {
            "elbow_joint": 2.39358713078474,
            "shoulder_lift_joint": -1.908514104345545,
            "shoulder_pan_joint": 0.7066247066606129,
            "wrist_1_joint": -0.4678290933515497,
            "wrist_2_joint": 0.7096259083745334,
            "wrist_3_joint": -3.1358149277392293
        }
    },
    "waypoints": [
        {
            "positions": [
                0.7066247066606129,
                -1.908514104345545,
                2.39358713078474,
                -0.4678290933515497,
                0.7096259083745334,
                -3.1358149277392293
            ]
        },
        {
            "positions": [
                0.7769143522614985,
                -1.9455880950040991,
                2.360224987285469,
                -0.37655997592557433,
                0.724972487717371,
                -3.010168945298511
            ]
        },
        {
            "positions": [
                0.847203997862384,
                -1.9826620856626533,
                2.3268628437861985,
                -0.285290858499599,
                0.7403190670602086,
                -2.884522962857793
            ]
        },
        {
            "positions": [
                0.9174936434632696,
                -2.0197360763212076,
                2.2935007002869274,
                -0.19402174107362363,
                0.755665646403046,
                -2.7588769804170745
            ]
        },
        {
            "positions": [
                0.9877832890641551,
                -2.0568100669797618,
                2.260138556787657,
                -0.10275262364764826,
                0.7710122257458836,
                -2.6332309979763564
            ]
        },
        {
            "positions": [
                1.0580729346650406,
                -2.093884057638316,
                2.226776413288386,
                -0.011483506221672919,
                0.7863588050887211,
                -2.5075850155356383
            ]
        },
        {
            "positions": [
                1.1251290280448147,
                -2.088265841093352,
                2.069803546858455,
                0.028451839431279623,
                0.7678941404023867,
                -2.399526888552204
            ]
        },
        {
            "positions": [
                1.1921851214245887,
                -2.0826476245483883,
                1.912830680428524,
                0.06838718508423217,
                0.7494294757160522,
                -2.29146876156877
            ]
        },
        {
            "positions": [
                1.2592412148043628,
                -2.077029408003424,
                1.7558578139985932,
                0.1083225307371847,
                0.7309648110297178,
                -2.183410634585336
            ]
        },
        {
            "positions": [
                1.326297308184137,
                -2.07141119145846,
                1.5988849475686622,
                0.14825787639013727,
                0.7125001463433833,
                -2.075352507601902
            ]
        },
        {
            "positions": [
                1.3933534015639109,
                -2.0657929749134962,
                1.4419120811387311,
                0.1881932220430898,
                0.6940354816570489,
                -1.9672943806184677
            ]
        },
        {
            "positions": [
                1.460409494943685,
                -2.0601747583685324,
                1.2849392147088003,
                0.22812856769604234,
                0.6755708169707144,
                -1.8592362536350338
            ]
        },
        {
            "positions": [
                1.5274655883234591,
                -2.0545565418235685,
                1.1279663482788693,
                0.2680639133489949,
                0.65710615228438,
                -1.7511781266515998
            ]
        },
        {
            "positions": [
                1.5945216817032333,
                -2.0489383252786046,
                0.9709934818489385,
                0.3079992590019474,
                0.6386414875980455,
                -1.6431199996681656
            ]
        },
        {
            "positions": [
                1.6615777750830072,
                -2.0433201087336403,
                0.8140206154190075,
                0.34793460465489995,
                0.6201768229117111,
                -1.5350618726847314
            ]
        },
        {
            "positions": [
                1.7286338684627813,
                -2.0377018921886765,
                0.6570477489890767,
                0.3878699503078525,
                0.6017121582253767,
                -1.4270037457012974
            ]
        },
        {
            "positions": [
                1.7956899618425552,
                -2.0320836756437126,
                0.5000748825591457,
                0.427805295960805,
                0.5832474935390423,
                -1.3189456187178632
            ]
        },
        {
            "positions": [
                1.8627460552223294,
                -2.0264654590987488,
                0.34310201612921487,
                0.46774064161375756,
                0.5647828288527078,
                -1.2108874917344292
            ]
        },
        {
            "positions": [
                1.9298021486021035,
                -2.020847242553785,
                0.18612914969928385,
                0.5076759872667101,
                0.5463181641663734,
                -1.102829364750995
            ]
        },
        {
            "positions": [
                1.9968582419818777,
                -2.0152290260088206,
                0.029156283269352823,
                0.5476113329196627,
                0.5278534994800389,
                -0.994771237767561
            ]
        },
        {
            "positions": [
                2.063914335361652,
                -2.0096108094638567,
                -0.1278165831605782,
                0.5875466785726152,
                0.5093888347937043,
                -0.8867131107841266
            ]
        },
        {
            "positions": [
                2.130970428741426,
                -2.003992592918893,
                -0.2847894495905088,
                0.6274820242255678,
                0.49092417010737,
                -0.7786549838006929
            ]
        },
        {
            "positions": [
                2.1980265221212,
                -1.998374376373929,
                -0.4417623160204398,
                0.6674173698785203,
                0.47245950542103554,
                -0.6705968568172584
            ]
        },
        {
            "positions": [
                2.265082615500974,
                -1.992756159828965,
                -0.5987351824503708,
                0.7073527155314728,
                0.4539948407347011,
                -0.5625387298338245
            ]
        },
        {
            "positions": [
                2.3321387088807484,
                -1.987137943284001,
                -0.7557080488803019,
                0.7472880611844255,
                0.43553017604836664,
                -0.45448060285039027
            ]
        },
        {
            "positions": [
                2.399194802260522,
                -1.9815197267390372,
                -0.9126809153102324,
                0.7872234068373779,
                0.41706551136203224,
                -0.3464224758669565
            ]
        },
        {
            "positions": [
                2.466250895640296,
                -1.9759015101940731,
                -1.0696537817401635,
                0.8271587524903306,
                0.39860084667569773,
                -0.23836434888352231
            ]
        },
        {
            "positions": [
                2.53330698902007,
                -1.9702832936491093,
                -1.2266266481700945,
                0.867094098143283,
                0.38013618198936333,
                -0.13030622190008812
            ]
        },
        {
            "positions": [
                2.600363082399844,
                -1.9646650771041454,
                -1.3835995146000255,
                0.9070294437962356,
                0.3616715173030288,
                -0.022248094916653915
            ]
        },
        {
            "positions": [
                2.667419175779618,
                -1.9590468605591813,
                -1.540572381029956,
                0.946964789449188,
                0.3432068526166944,
                0.08581003206677984
            ]
        },
        {
            "positions": [
                2.7344752691593923,
                -1.9534286440142175,
                -1.697545247459887,
                0.9869001351021407,
                0.32474218793035997,
                0.19386815905021404
            ]
        },
        {
            "positions": [
                2.8015313625391665,
                -1.9478104274692534,
                -1.8545181138898181,
                1.0268354807550932,
                0.3062775232440255,
                0.30192628603364824
            ]
        },
        {
            "positions": [
                2.8685874559189406,
                -1.9421922109242895,
                -2.0114909803197496,
                1.0667708264080458,
                0.28781285855769106,
                0.40998441301708255
            ]
        },
        {
            "positions": [
                2.826919021047137,
                -2.048869093330896,
                -1.9439376162208832,
                1.0490873650531598,
                0.3264950076595435,
                0.3342815347725725
            ]
        },
        {
            "positions": [
                2.785250586175333,
                -2.155545975737503,
                -1.8763842521220169,
                1.031403903698274,
                0.36517715676139584,
                0.2585786565280625
            ]
        },
        {
            "positions": [
                2.7435821513035297,
                -2.262222858144109,
                -1.8088308880231507,
                1.013720442343388,
                0.40385930586324825,
                0.1828757782835525
            ]
        },
        {
            "positions": [
                2.7019137164317257,
                -2.3688997405507157,
                -1.7412775239242844,
                0.9960369809885021,
                0.44254145496510067,
                0.10717290003904245
            ]
        },
        {
            "positions": [
                2.6602452815599222,
                -2.4755766229573224,
                -1.673724159825418,
                0.9783535196336163,
                0.481223604066953,
                0.03147002179453244
            ]
        }
    ]
}