{
    "goal": {
        "global_pose": {
            "orientation": {
                "w": -0.00223480608172531,
                "x": 0.0024358444001904467,
                "y": 0.7094548369677653,
                "z": -0.704743149386269
            },
            "position": {
                "x": 0.6205249238014221,
                "y": -0.6371506643295288,
                "z": 0.19426114857196808
            }
        },
        "name": "move_to_magneteinheit_B"
    },
    "id": "FMT_move_to_magneteinheit_B_66",
    "joint_names": [
        "shoulder_pan_joint",
        "shoulder_lift_joint",
        "elbow_joint",
        "wrist_1_joint",
        "wrist_2_joint",
        "wrist_3_joint"
    ],
    "metrics": {
        "cart_traj_len": 1.451700248209831,
        "distance_elbow_joint": 0.7293529372462819,
        "distance_shoulder_lift_joint": 1.2484364865457487,
        "distance_shoulder_pan_joint": 1.6204344558255057,
        "distance_wrist_1_joint": 2.6037134881334776,
        "distance_wrist_2_joint": 2.941436765673649,
        "distance_wrist_3_joint": 3.1287505734313297,
        "smoothness": 6.106226652474344e-16,
        "time": 1.313517966,
        "traj_len": 3.503159246573868,
        "weighted_distance": 4.906605354776944
    },
    "planner": "FMT",
    "start": {
        "state": {
            "elbow_joint": 2.39358713078474,
            "shoulder_lift_joint": -1.908514104345545,
            "shoulder_pan_joint": 0.7066247066606129,
            "wrist_1_joint": -0.4678290933515497,
            "wrist_2_joint": 0.7096259083745334,
            "wrist_3_joint": -3.1358149277392293
        }
    },
    "waypoints": [
        {
            "positions": [
                0.7066247066606129,
                -1.908514104345545,
                2.39358713078474,
                -0.4678290933515497,
                0.7096259083745334,
                -3.1358149277392293
            ]
        },
        {
            "positions": [
                0.6543526274404353,
                -1.8682419596182627,
                2.370059616680021,
                -0.3838383356698246,
                0.6147408514173189,
                -3.034887489886606
            ]
        },
        {
            "positions": [
                0.6020805482202577,
                -1.8279698148909804,
                2.3465321025753023,
                -0.2998475779880996,
                0.5198557944601044,
                -2.9339600520339824
            ]
        },
        {
            "positions": [
                0.5498084690000802,
                -1.7876976701636982,
                2.323004588470584,
                -0.21585682030637449,
                0.42497073750289,
                -2.833032614181359
            ]
        },
        {
            "positions": [
                0.49753638977990255,
                -1.747425525436416,
                2.299477074365865,
                -0.1318660626246494,
                0.3300856805456755,
                -2.7321051763287354
            ]
        },
        {
            "positions": [
                0.44526431055972493,
                -1.707153380709134,
                2.275949560261146,
                -0.0478753049429243,
                0.23520062358846106,
                -2.6311777384761115
            ]
        },
        {
            "positions": [
                0.3929922313395473,
                -1.6668812359818517,
                2.2524220461564273,
                0.036115452738800735,
                0.14031556663124656,
                -2.530250300623488
            ]
        },
        {
            "positions": [
                0.34072015211936973,
                -1.6266090912545694,
                2.228894532051709,
                0.12010621042052588,
                0.04543050967403206,
                -2.4293228627708645
            ]
        },
        {
            "positions": [
                0.2884480728991921,
                -1.5863369465272872,
                2.20536701794699,
                0.20409696810225092,
                -0.04945454728318244,
                -2.328395424918241
            ]
        },
        {
            "positions": [
                0.23617599367901448,
                -1.546064801800005,
                2.181839503842271,
                0.28808772578397607,
                -0.14433960424039693,
                -2.2274679870656175
            ]
        },
        {
            "positions": [
                0.18390391445883691,
                -1.5057926570727227,
                2.1583119897375522,
                0.3720784834657011,
                -0.23922466119761132,
                -2.126540549212994
            ]
        },
        {
            "positions": [
                0.1316318352386593,
                -1.4655205123454405,
                2.1347844756328334,
                0.45606924114742625,
                -0.33410971815482593,
                -2.0256131113603706
            ]
        },
        {
            "positions": [
                0.07935975601848166,
                -1.4252483676181584,
                2.111256961528115,
                0.5400599988291512,
                -0.4289947751120403,
                -1.9246856735077469
            ]
        },
        {
            "positions": [
                0.02708767679830404,
                -1.384976222890876,
                2.087729447423396,
                0.6240507565108764,
                -0.5238798320692549,
                -1.8237582356551232
            ]
        },
        {
            "positions": [
                -0.025184402421873475,
                -1.344704078163594,
                2.064201933318677,
                0.7080415141926015,
                -0.6187648890264693,
                -1.7228307978025
            ]
        },
        {
            "positions": [
                -0.0774564816420511,
                -1.3044319334363117,
                2.0406744192139583,
                0.7920322718743267,
                -0.7136499459836837,
                -1.6219033599498762
            ]
        },
        {
            "positions": [
                -0.12972856086222873,
                -1.2641597887090295,
                2.01714690510924,
                0.8760230295560516,
                -0.8085350029408983,
                -1.5209759220972527
            ]
        },
        {
            "positions": [
                -0.18200064008240624,
                -1.2238876439817474,
                1.993619391004521,
                0.9600137872377768,
                -0.9034200598981127,
                -1.4200484842446293
            ]
        },
        {
            "positions": [
                -0.23427271930258398,
                -1.183615499254465,
                1.9700918768998021,
                1.044004544919502,
                -0.9983051168553273,
                -1.3191210463920056
            ]
        },
        {
            "positions": [
                -0.2865447985227615,
                -1.143343354527183,
                1.9465643627950833,
                1.127995302601227,
                -1.0931901738125416,
                -1.218193608539382
            ]
        },
        {
            "positions": [
                -0.3388168777429391,
                -1.1030712097999005,
                1.9230368486903646,
                1.211986060282952,
                -1.1880752307697562,
                -1.1172661706867588
            ]
        },
        {
            "positions": [
                -0.39108895696311674,
                -1.0627990650726185,
                1.899509334585646,
                1.295976817964677,
                -1.2829602877269703,
                -1.0163387328341353
            ]
        },
        {
            "positions": [
                -0.44336103618329437,
                -1.022526920345336,
                1.875981820480927,
                1.3799675756464023,
                -1.3778453446841854,
                -0.9154112949815114
            ]
        },
        {
            "positions": [
                -0.495633115403472,
                -0.982254775618054,
                1.8524543063762082,
                1.4639583333281272,
                -1.4727304016413996,
                -0.8144838571288879
            ]
        },
        {
            "positions": [
                -0.5479051946236496,
                -0.9419826308907717,
                1.8289267922714896,
                1.5479490910098521,
                -1.5676154585986142,
                -0.7135564192762645
            ]
        },
        {
            "positions": [
                -0.600177273843827,
                -0.9017104861634897,
                1.805399278166771,
                1.6319398486915775,
                -1.6625005155558283,
                -0.612628981423641
            ]
        },
        {
            "positions": [
                -0.6524493530640049,
                -0.8614383414362072,
                1.781871764062052,
                1.7159306063733024,
                -1.7573855725130434,
                -0.511701543571017
            ]
        },
        {
            "positions": [
                -0.7047214322841823,
                -0.821166196708925,
                1.7583442499573332,
                1.7999213640550278,
                -1.8522706294702576,
                -0.41077410571839357
            ]
        },
        {
            "positions": [
                -0.7569935115043599,
                -0.780894051981643,
                1.7348167358526143,
                1.8839121217367527,
                -1.9471556864274722,
                -0.30984666786577053
            ]
        },
        {
            "positions": [
                -0.8092655907245375,
                -0.7406219072543607,
                1.7112892217478959,
                1.9679028794184776,
                -2.0420407433846863,
                -0.20891923001314705
            ]
        },
        {
            "positions": [
                -0.8615376699447151,
                -0.7003497625270785,
                1.687761707643177,
                2.051893637100203,
                -2.136925800341901,
                -0.10799179216052313
            ]
        },
        {
            "positions": [
                -0.9138097491648929,
                -0.6600776177997962,
                1.6642341935384581,
                2.135884394781928,
                -2.2318108572991155,
                -0.007064354307899748
            ]
        }
    ]
}