{
    "goal": {
        "global_pose": {
            "orientation": {
                "w": 0.7031023502349854,
                "x": -0.7110244035720825,
                "y": 0.007748599164187908,
                "z": 0.005598929710686207
            },
            "position": {
                "x": 0.11585023208521307,
                "y": 0.44412534475326537,
                "z": 0.3711530566215515
            }
        },
        "name": "move_to_auspresseinheit_A"
    },
    "id": "FMT_move_to_auspresseinheit_A_122",
    "joint_names": [
        "shoulder_pan_joint",
        "shoulder_lift_joint",
        "elbow_joint",
        "wrist_1_joint",
        "wrist_2_joint",
        "wrist_3_joint"
    ],
    "metrics": {
        "cart_traj_len": 0.7353210575807487,
        "distance_elbow_joint": 0.16479609753572966,
        "distance_shoulder_lift_joint": 0.8986357106727048,
        "distance_shoulder_pan_joint": 1.0414095319488685,
        "distance_wrist_1_joint": 1.9728175032825104,
        "distance_wrist_2_joint": 0.532727377113326,
        "distance_wrist_3_joint": 0.04749607178795889,
        "smoothness": 1.3928584875537666,
        "time": 1.3365047970000001,
        "traj_len": 2.1582127541883116,
        "weighted_distance": 2.6941453777242335
    },
    "planner": "FMT",
    "start": {
        "state": {
            "elbow_joint": 2.422574709923281,
            "shoulder_lift_joint": -1.3736533754116391,
            "shoulder_pan_joint": -0.33786336945926293,
            "wrist_1_joint": -1.0288603412921917,
            "wrist_2_joint": 1.2330224858903978,
            "wrist_3_joint": -3.094022268022082
        }
    },
    "waypoints": [
        {
            "positions": [
                -0.33786336945926293,
                -1.3736533754116391,
                2.422574709923281,
                -1.0288603412921917,
                1.2330224858903978,
                -3.094022268022082
            ]
        },
        {
            "positions": [
                -0.25482437806500374,
                -1.4532333654303935,
                2.4116305461831926,
                -0.8875253421757808,
                1.1973955238672631,
                -3.0992330547493347
            ]
        },
        {
            "positions": [
                -0.17178538667074453,
                -1.5328133554491477,
                2.400686382443104,
                -0.7461903430593699,
                1.1617685618441282,
                -3.1044438414765874
            ]
        },
        {
            "positions": [
                -0.08874639527648531,
                -1.612393345467902,
                2.3897422187030157,
                -0.6048553439429589,
                1.1261415998209936,
                -3.1096546282038395
            ]
        },
        {
            "positions": [
                -0.005707403882226125,
                -1.6919733354866562,
                2.3787980549629273,
                -0.463520344826548,
                1.090514637797859,
                -3.114865414931092
            ]
        },
        {
            "positions": [
                0.07733158751203317,
                -1.7715533255054106,
                2.3678538912228393,
                -0.322185345710137,
                1.054887675774724,
                -3.1200762016583448
            ]
        },
        {
            "positions": [
                0.1603705789062923,
                -1.8511333155241647,
                2.356909727482751,
                -0.18085034659372612,
                1.0192607137515894,
                -3.1252869883855974
            ]
        },
        {
            "positions": [
                0.2434095703005516,
                -1.930713305542919,
                2.3459655637426624,
                -0.03951534747731522,
                0.9836337517284547,
                -3.1304977751128495
            ]
        },
        {
            "positions": [
                0.3264485616948107,
                -2.0102932955616732,
                2.335021400002574,
                0.10181965163909568,
                0.94800678970532,
                -3.135708561840102
            ]
        },
        {
            "positions": [
                0.40948755308907,
                -2.0898732855804276,
                2.3240772362624855,
                0.24315465075550663,
                0.9123798276821853,
                -3.1409193485673548
            ]
        },
        {
            "positions": [
                0.4830022054392039,
                -2.0442693354544486,
                2.340651892231219,
                0.06795402294680367,
                0.8593586479559069,
                -3.1410690963780263
            ]
        },
        {
            "positions": [
                0.5565168577893378,
                -1.9986653853284695,
                2.357226548199953,
                -0.1072466048618993,
                0.8063374682296285,
                -3.141218844188698
            ]
        },
        {
            "positions": [
                0.6300315101394718,
                -1.9530614352024904,
                2.3738012041686862,
                -0.2824472326706023,
                0.7533162885033502,
                -3.1413685919993695
            ]
        },
        {
            "positions": [
                0.7035461624896057,
                -1.9074574850765114,
                2.3903758601374197,
                -0.4576478604793052,
                0.7002951087770718,
                -3.141518339810041
            ]
        }
    ]
}