{
    "goal": {
        "global_pose": {
            "orientation": {
                "w": 0.7047431468963623,
                "x": -0.7094548344612122,
                "y": 0.0024358443915843964,
                "z": -0.0022348060738295317
            },
            "position": {
                "x": 0.6094750761985779,
                "y": 0.3671506643295288,
                "z": 0.19426114857196808
            }
        },
        "name": "move_to_magneteinheit_A"
    },
    "id": "FMT_move_to_magneteinheit_A_42",
    "joint_names": [
        "shoulder_pan_joint",
        "shoulder_lift_joint",
        "elbow_joint",
        "wrist_1_joint",
        "wrist_2_joint",
        "wrist_3_joint"
    ],
    "metrics": {
        "cart_traj_len": 1.880050433423073,
        "distance_elbow_joint": 3.909025441556045,
        "distance_shoulder_lift_joint": 0.6994925646395793,
        "distance_shoulder_pan_joint": 1.2423694688346612,
        "distance_wrist_1_joint": 1.4843127825517888,
        "distance_wrist_2_joint": 1.6961562584807761,
        "distance_wrist_3_joint": 1.0924455738858696,
        "smoothness": 4.2764146201067877e-16,
        "time": 1.176348985,
        "traj_len": 3.181792276367004,
        "weighted_distance": 3.9356273043509877
    },
    "planner": "FMT",
    "start": {
        "state": {
            "elbow_joint": -1.919643507792019,
            "shoulder_lift_joint": -0.07675430207160344,
            "shoulder_pan_joint": -1.1188671864651873,
            "wrist_1_joint": 0.42560062535961957,
            "wrist_2_joint": 1.5706038300724876,
            "wrist_3_joint": 1.1188968870953055
        }
    },
    "waypoints": [
        {
            "positions": [
                -1.1188671864651873,
                -0.07675430207160344,
                -1.919643507792019,
                0.42560062535961957,
                1.5706038300724876,
                1.1188968870953055
            ]
        },
        {
            "positions": [
                -1.071083745356162,
                -0.1036578622500488,
                -1.7692963754244788,
                0.48268957853468836,
                1.50536705090015,
                1.0768797496381568
            ]
        },
        {
            "positions": [
                -1.0233003042471365,
                -0.13056142242849417,
                -1.6189492430569388,
                0.5397785317097572,
                1.4401302717278126,
                1.0348626121810078
            ]
        },
        {
            "positions": [
                -0.975516863138111,
                -0.15746498260693953,
                -1.4686021106893985,
                0.596867484884826,
                1.374893492555475,
                0.9928454747238591
            ]
        },
        {
            "positions": [
                -0.9277334220290856,
                -0.1843685427853849,
                -1.3182549783218582,
                0.6539564380598948,
                1.3096567133831374,
                0.9508283372667102
            ]
        },
        {
            "positions": [
                -0.8799499809200602,
                -0.21127210296383023,
                -1.1679078459543182,
                0.7110453912349636,
                1.2444199342108,
                0.9088111998095614
            ]
        },
        {
            "positions": [
                -0.8321665398110347,
                -0.2381756631422756,
                -1.017560713586778,
                0.7681343444100324,
                1.1791831550384624,
                0.8667940623524126
            ]
        },
        {
            "positions": [
                -0.7843830987020093,
                -0.265079223320721,
                -0.8672135812192379,
                0.8252232975851012,
                1.1139463758661248,
                0.8247769248952637
            ]
        },
        {
            "positions": [
                -0.7365996575929838,
                -0.2919827834991663,
                -0.7168664488516976,
                0.88231225076017,
                1.0487095966937874,
                0.7827597874381149
            ]
        },
        {
            "positions": [
                -0.6888162164839585,
                -0.31888634367761165,
                -0.5665193164841575,
                0.9394012039352388,
                0.9834728175214498,
                0.7407426499809661
            ]
        },
        {
            "positions": [
                -0.641032775374933,
                -0.345789903856057,
                -0.41617218411661705,
                0.9964901571103075,
                0.9182360383491122,
                0.6987255125238172
            ]
        },
        {
            "positions": [
                -0.5932493342659076,
                -0.3726934640345024,
                -0.265825051749077,
                1.0535791102853764,
                0.8529992591767747,
                0.6567083750666685
            ]
        },
        {
            "positions": [
                -0.5454658931568822,
                -0.39959702421294774,
                -0.11547791938153673,
                1.110668063460445,
                0.787762480004437,
                0.6146912376095196
            ]
        },
        {
            "positions": [
                -0.49768245204785677,
                -0.4265005843913931,
                0.03486921298600332,
                1.167757016635514,
                0.7225257008320995,
                0.5726741001523707
            ]
        },
        {
            "positions": [
                -0.44989901093883133,
                -0.45340414456983846,
                0.18521634535354337,
                1.2248459698105827,
                0.657288921659762,
                0.5306569626952219
            ]
        },
        {
            "positions": [
                -0.402115569829806,
                -0.48030770474828377,
                0.3355634777210834,
                1.2819349229856514,
                0.5920521424874245,
                0.48863982523807314
            ]
        },
        {
            "positions": [
                -0.35433212872078046,
                -0.5072112649267292,
                0.4859106100886239,
                1.3390238761607205,
                0.5268153633150869,
                0.4466226877809242
            ]
        },
        {
            "positions": [
                -0.306548687611755,
                -0.5341148251051746,
                0.636257742456164,
                1.3961128293357892,
                0.4615785841427493,
                0.40460555032377543
            ]
        },
        {
            "positions": [
                -0.2587652465027297,
                -0.5610183852836199,
                0.786604874823704,
                1.453201782510858,
                0.39634180497041194,
                0.3625884128666266
            ]
        },
        {
            "positions": [
                -0.21098180539370426,
                -0.5879219454620652,
                0.936952007191244,
                1.5102907356859268,
                0.3311050257980743,
                0.32057127540947783
            ]
        },
        {
            "positions": [
                -0.1631983642846787,
                -0.6148255056405105,
                1.087299139558785,
                1.5673796888609957,
                0.2658682466257367,
                0.27855413795232886
            ]
        },
        {
            "positions": [
                -0.11541492317565338,
                -0.6417290658189561,
                1.237646271926325,
                1.6244686420360643,
                0.2006314674533991,
                0.23653700049518012
            ]
        },
        {
            "positions": [
                -0.06763148206662795,
                -0.6686326259974014,
                1.387993404293865,
                1.6815575952111332,
                0.13539468828106171,
                0.19451986303803126
            ]
        },
        {
            "positions": [
                -0.01984804095760251,
                -0.6955361861758467,
                1.5383405366614051,
                1.738646548386202,
                0.0701579091087241,
                0.15250272558088251
            ]
        },
        {
            "positions": [
                0.02793540015142293,
                -0.722439746354292,
                1.6886876690289456,
                1.7957355015612708,
                0.004921129936386492,
                0.11048558812373366
            ]
        },
        {
            "positions": [
                0.07571884126044837,
                -0.7493433065327375,
                1.8390348013964857,
                1.8528244547363397,
                -0.06031564923595112,
                0.06846845066658469
            ]
        },
        {
            "positions": [
                0.12350228236947385,
                -0.7762468667111828,
                1.9893819337640255,
                1.9099134079114084,
                -0.12555242840828856,
                0.02645131320943584
            ]
        }
    ]
}