{
    "goal": {
        "global_pose": {
            "orientation": {
                "w": 0.5084816217422485,
                "x": -0.49083608388900757,
                "y": 0.5182115435600281,
                "z": -0.4816462993621826
            },
            "position": {
                "x": 0.5540239810943604,
                "y": 0.030875300988554955,
                "z": 0.16403168439865112
            }
        },
        "name": "move_to_storage_A"
    },
    "id": "FMT_move_to_storage_A_150",
    "joint_names": [
        "shoulder_pan_joint",
        "shoulder_lift_joint",
        "elbow_joint",
        "wrist_1_joint",
        "wrist_2_joint",
        "wrist_3_joint"
    ],
    "metrics": {
        "cart_traj_len": 0.35287125613724124,
        "distance_elbow_joint": 0.44844436805813315,
        "distance_shoulder_lift_joint": 0.232609899663331,
        "distance_shoulder_pan_joint": 0.4608445051077028,
        "distance_wrist_1_joint": 0.23855472400672662,
        "distance_wrist_2_joint": 1.0999701105835116,
        "distance_wrist_3_joint": 0.08809097667706833,
        "smoothness": 8.881784232165597e-16,
        "time": 0.38276245400000003,
        "traj_len": 1.6026585987341389,
        "weighted_distance": 2.020698238738493
    },
    "planner": "FMT",
    "start": {
        "state": {
            "elbow_joint": 1.9715463870305268,
            "shoulder_lift_joint": -1.1394903361783484,
            "shoulder_pan_joint": 0.12281147578464417,
            "wrist_1_joint": -0.7804599489681411,
            "wrist_2_joint": 0.12958660307563738,
            "wrist_3_joint": -3.1924946282119055
        }
    },
    "waypoints": [
        {
            "positions": [
                0.12281147578464417,
                -1.1394903361783484,
                1.9715463870305268,
                -0.7804599489681411,
                0.12958660307563738,
                -3.1924946282119055
            ]
        },
        {
            "positions": [
                0.05697654648354378,
                -1.1727203218445386,
                2.0356098681816888,
                -0.8145391952548163,
                0.2867251903018533,
                -3.1799102029723243
            ]
        },
        {
            "positions": [
                -0.008858382817556618,
                -1.2059503075107287,
                2.0996733493328503,
                -0.8486184415414916,
                0.44386377752806927,
                -3.167325777732743
            ]
        },
        {
            "positions": [
                -0.07469331211865703,
                -1.239180293176919,
                2.1637368304840123,
                -0.8826976878281667,
                0.6010023647542851,
                -3.154741352493162
            ]
        },
        {
            "positions": [
                -0.1405282414197574,
                -1.2724102788431089,
                2.2278003116351743,
                -0.916776934114842,
                0.7581409519805011,
                -3.142156927253581
            ]
        },
        {
            "positions": [
                -0.2063631707208578,
                -1.305640264509299,
                2.2918637927863363,
                -0.9508561804015172,
                0.9152795392067171,
                -3.1295725020139997
            ]
        },
        {
            "positions": [
                -0.2721981000219582,
                -1.3388702501754892,
                2.355927273937498,
                -0.9849354266881925,
                1.0724181264329329,
                -3.1169880767744185
            ]
        },
        {
            "positions": [
                -0.3380330293230586,
                -1.3721002358416794,
                2.41999075508866,
                -1.0190146729748677,
                1.229556713659149,
                -3.104403651534837
            ]
        }
    ]
}