{
    "goal": {
        "global_pose": {
            "orientation": {
                "w": -0.00223480608172531,
                "x": 0.0024358444001904467,
                "y": 0.7094548369677653,
                "z": -0.704743149386269
            },
            "position": {
                "x": 0.6205249238014221,
                "y": -0.6371506643295288,
                "z": 0.19426114857196808
            }
        },
        "name": "move_to_magneteinheit_B"
    },
    "id": "FMT_move_to_magneteinheit_B_33",
    "joint_names": [
        "shoulder_pan_joint",
        "shoulder_lift_joint",
        "elbow_joint",
        "wrist_1_joint",
        "wrist_2_joint",
        "wrist_3_joint"
    ],
    "metrics": {
        "cart_traj_len": 3.973788757780172,
        "distance_elbow_joint": 4.713669742123679,
        "distance_shoulder_lift_joint": 0.6232006977393567,
        "distance_shoulder_pan_joint": 2.533136373778558,
        "distance_wrist_1_joint": 2.6833133213871285,
        "distance_wrist_2_joint": 1.1786623352386645,
        "distance_wrist_3_joint": 4.101918563943681,
        "smoothness": 0.3294544764198337,
        "time": 1.511271481,
        "traj_len": 3.9791834632511063,
        "weighted_distance": 5.282017968421181
    },
    "planner": "FMT",
    "start": {
        "state": {
            "elbow_joint": 2.39358713078474,
            "shoulder_lift_joint": -1.908514104345545,
            "shoulder_pan_joint": 0.7066247066606129,
            "wrist_1_joint": -0.4678290933515497,
            "wrist_2_joint": 0.7096259083745334,
            "wrist_3_joint": -3.1358149277392293
        }
    },
    "waypoints": [
        {
            "positions": [
                0.7066247066606129,
                -1.908514104345545,
                2.39358713078474,
                -0.4678290933515497,
                0.7096259083745334,
                -3.1358149277392293
            ]
        },
        {
            "positions": [
                0.6641807199012252,
                -1.8961916997730774,
                2.426205860761788,
                -0.6388000644218299,
                0.6720884693222084,
                -3.087508255212878
            ]
        },
        {
            "positions": [
                0.6217367331418373,
                -1.88386929520061,
                2.4588245907388355,
                -0.8097710354921102,
                0.6345510302698834,
                -3.039201582686527
            ]
        },
        {
            "positions": [
                0.5792927463824495,
                -1.8715468906281425,
                2.4914433207158835,
                -0.9807420065623904,
                0.5970135912175584,
                -2.9908949101601756
            ]
        },
        {
            "positions": [
                0.5368487596230618,
                -1.859224486055675,
                2.5240620506929314,
                -1.1517129776326704,
                0.5594761521652334,
                -2.9425882376338244
            ]
        },
        {
            "positions": [
                0.4944047728636739,
                -1.8469020814832076,
                2.556680780669979,
                -1.322683948702951,
                0.5219387131129083,
                -2.894281565107473
            ]
        },
        {
            "positions": [
                0.45196078610428614,
                -1.83457967691074,
                2.589299510647027,
                -1.493654919773231,
                0.4844012740605833,
                -2.845974892581122
            ]
        },
        {
            "positions": [
                0.4450756763962066,
                -1.8151167167113913,
                2.5110551189933106,
                -1.652564774784928,
                0.48067150289424526,
                -2.7489500692704945
            ]
        },
        {
            "positions": [
                0.4381905666881271,
                -1.7956537565120425,
                2.4328107273395942,
                -1.8114746297966249,
                0.4769417317279072,
                -2.651925245959867
            ]
        },
        {
            "positions": [
                0.4313054569800476,
                -1.7761907963126935,
                2.3545663356858775,
                -1.9703844848083216,
                0.47321196056156917,
                -2.5549004226492396
            ]
        },
        {
            "positions": [
                0.4244203472719681,
                -1.7567278361133447,
                2.276321944032161,
                -2.1292943398200186,
                0.4694821893952311,
                -2.457875599338612
            ]
        },
        {
            "positions": [
                0.41753523756388855,
                -1.737264875913996,
                2.198077552378445,
                -2.2882041948317156,
                0.4657524182288931,
                -2.3608507760279847
            ]
        },
        {
            "positions": [
                0.5022448293858539,
                -1.7477655596928823,
                2.0098339181919647,
                -2.31755342015747,
                0.4599943743994617,
                -2.2893317422086104
            ]
        },
        {
            "positions": [
                0.5869544212078194,
                -1.7582662434717686,
                1.821590284005485,
                -2.3469026454832247,
                0.45423633057003043,
                -2.217812708389236
            ]
        },
        {
            "positions": [
                0.6716640130297847,
                -1.768766927250655,
                1.6333466498190048,
                -2.376251870808979,
                0.4484782867405991,
                -2.1462936745698618
            ]
        },
        {
            "positions": [
                0.7563736048517502,
                -1.7792676110295413,
                1.4451030156325249,
                -2.405601096134734,
                0.4427202429111678,
                -2.074774640750488
            ]
        },
        {
            "positions": [
                0.8410831966737156,
                -1.7897682948084277,
                1.2568593814460447,
                -2.434950321460488,
                0.43696219908173645,
                -2.0032556069311136
            ]
        },
        {
            "positions": [
                0.9257927884956809,
                -1.800268978587314,
                1.0686157472595648,
                -2.464299546786243,
                0.4312041552523051,
                -1.9317365731117393
            ]
        },
        {
            "positions": [
                1.0105023803176465,
                -1.8107696623662004,
                0.8803721130730848,
                -2.4936487721119973,
                0.4254461114228738,
                -1.860217539292365
            ]
        },
        {
            "positions": [
                1.0952119721396119,
                -1.8212703461450868,
                0.6921284788866049,
                -2.522997997437752,
                0.41968806759344246,
                -1.7886985054729907
            ]
        },
        {
            "positions": [
                1.1799215639615772,
                -1.8317710299239733,
                0.5038848447001247,
                -2.5523472227635065,
                0.4139300237640111,
                -1.7171794716536164
            ]
        },
        {
            "positions": [
                1.2646311557835426,
                -1.8422717137028597,
                0.3156412105136446,
                -2.581696448089261,
                0.4081719799345798,
                -1.645660437834242
            ]
        },
        {
            "positions": [
                1.3493407476055082,
                -1.852772397481746,
                0.12739757632716442,
                -2.6110456734150156,
                0.4024139361051485,
                -1.5741414040148678
            ]
        },
        {
            "positions": [
                1.4340503394274733,
                -1.8632730812606324,
                -0.060846057859315295,
                -2.64039489874077,
                0.3966558922757172,
                -1.5026223701954937
            ]
        },
        {
            "positions": [
                1.5187599312494389,
                -1.8737737650395188,
                -0.24908969204579545,
                -2.6697441240665247,
                0.39089784844628583,
                -1.4311033363761194
            ]
        },
        {
            "positions": [
                1.6034695230714042,
                -1.8842744488184051,
                -0.43733332623227517,
                -2.699093349392279,
                0.3851398046168545,
                -1.3595843025567451
            ]
        },
        {
            "positions": [
                1.6881791148933698,
                -1.8947751325972915,
                -0.6255769604187553,
                -2.728442574718034,
                0.3793817607874232,
                -1.2880652687373708
            ]
        },
        {
            "positions": [
                1.772888706715335,
                -1.9052758163761778,
                -0.813820594605235,
                -2.757791800043788,
                0.37362371695799185,
                -1.2165462349179967
            ]
        },
        {
            "positions": [
                1.8575982985373005,
                -1.9157765001550642,
                -1.0020642287917152,
                -2.787141025369543,
                0.36786567312856056,
                -1.1450272010986224
            ]
        },
        {
            "positions": [
                1.9423078903592659,
                -1.9262771839339505,
                -1.1903078629781954,
                -2.8164902506952973,
                0.3621076292991292,
                -1.0735081672792481
            ]
        },
        {
            "positions": [
                2.0348207346016998,
                -1.9593568662674457,
                -1.309373557739636,
                -2.7938765560616785,
                0.3623662686766899,
                -1.1425164098341332
            ]
        },
        {
            "positions": [
                2.1273335788441337,
                -1.9924365486009408,
                -1.4284392525010765,
                -2.77126286142806,
                0.3626249080542506,
                -1.211524652389018
            ]
        },
        {
            "positions": [
                2.219846423086568,
                -2.0255162309344357,
                -1.5475049472625169,
                -2.7486491667944413,
                0.36288354743181134,
                -1.280532894943903
            ]
        },
        {
            "positions": [
                2.312359267329002,
                -2.058595913267931,
                -1.6665706420239574,
                -2.726035472160823,
                0.36314218680937205,
                -1.3495411374987878
            ]
        },
        {
            "positions": [
                2.4048721115714358,
                -2.091675595601426,
                -1.785636336785398,
                -2.703421777527204,
                0.36340082618693276,
                -1.4185493800536728
            ]
        },
        {
            "positions": [
                2.433395448313023,
                -2.1025134566703567,
                -1.7697450573599571,
                -2.67880136742995,
                0.27119517515632646,
                -1.6068350012435921
            ]
        },
        {
            "positions": [
                2.4619187850546105,
                -2.1133513177392875,
                -1.753853777934516,
                -2.6541809573326955,
                0.1789895241257202,
                -1.7951206224335114
            ]
        },
        {
            "positions": [
                2.490442121796198,
                -2.1241891788082183,
                -1.7379624985090751,
                -2.6295605472354415,
                0.08678387309511393,
                -1.9834062436234308
            ]
        },
        {
            "positions": [
                2.518965458537785,
                -2.135027039877149,
                -1.722071219083634,
                -2.6049401371381875,
                -0.005421777935492367,
                -2.1716918648133503
            ]
        },
        {
            "positions": [
                2.547488795279373,
                -2.1458649009460804,
                -1.7061799396581931,
                -2.580319727040933,
                -0.09762742896609866,
                -2.35997748600327
            ]
        },
        {
            "positions": [
                2.5760121320209604,
                -2.156702762015011,
                -1.690288660232752,
                -2.555699316943679,
                -0.1898330799967049,
                -2.548263107193189
            ]
        },
        {
            "positions": [
                2.6045354687625477,
                -2.167540623083942,
                -1.6743973808073112,
                -2.531078906846425,
                -0.2820387310273112,
                -2.7365487283831085
            ]
        },
        {
            "positions": [
                2.633058805504135,
                -2.178378484152873,
                -1.65850610138187,
                -2.5064584967491705,
                -0.3742443820579175,
                -2.9248343495730276
            ]
        },
        {
            "positions": [
                2.6615821422457224,
                -2.1892163452218036,
                -1.6426148219564292,
                -2.4818380866519165,
                -0.46645003308852384,
                -3.113119970762947
            ]
        }
    ]
}