{
    "goal": {
        "global_pose": {
            "orientation": {
                "w": 0.7031023502349854,
                "x": -0.7110244035720825,
                "y": 0.007748599164187908,
                "z": 0.005598929710686207
            },
            "position": {
                "x": 0.11585023208521307,
                "y": 0.44412534475326537,
                "z": 0.3711530566215515
            }
        },
        "name": "move_to_auspresseinheit_A"
    },
    "id": "FMT_move_to_auspresseinheit_A_117",
    "joint_names": [
        "shoulder_pan_joint",
        "shoulder_lift_joint",
        "elbow_joint",
        "wrist_1_joint",
        "wrist_2_joint",
        "wrist_3_joint"
    ],
    "metrics": {
        "cart_traj_len": 0.6619313129908999,
        "distance_elbow_joint": 0.3267568942639416,
        "distance_shoulder_lift_joint": 0.5353579770143604,
        "distance_shoulder_pan_joint": 1.0475581268214849,
        "distance_wrist_1_joint": 0.5556934070654909,
        "distance_wrist_2_joint": 0.5157985120587166,
        "distance_wrist_3_joint": 0.7420846893803246,
        "smoothness": 0.6888897965951687,
        "time": 1.120350764,
        "traj_len": 1.9295723895734824,
        "weighted_distance": 2.505775509595617
    },
    "planner": "FMT",
    "start": {
        "state": {
            "elbow_joint": 2.422574709923281,
            "shoulder_lift_joint": -1.3736533754116391,
            "shoulder_pan_joint": -0.33786336945926293,
            "wrist_1_joint": -1.0288603412921917,
            "wrist_2_joint": 1.2330224858903978,
            "wrist_3_joint": -3.094022268022082
        }
    },
    "waypoints": [
        {
            "positions": [
                -0.33786336945926293,
                -1.3736533754116391,
                2.422574709923281,
                -1.0288603412921917,
                1.2330224858903978,
                -3.094022268022082
            ]
        },
        {
            "positions": [
                -0.24401535190333185,
                -1.4578956023665643,
                2.4474478066778778,
                -1.0254828355640138,
                1.1682022720208949,
                -3.035021139041799
            ]
        },
        {
            "positions": [
                -0.15016733434740073,
                -1.5421378293214898,
                2.472320903432475,
                -1.0221053298358358,
                1.103382058151392,
                -2.9760200100615153
            ]
        },
        {
            "positions": [
                -0.05631931679146962,
                -1.6263800562764152,
                2.497194000187072,
                -1.0187278241076578,
                1.0385618442818891,
                -2.9170188810812316
            ]
        },
        {
            "positions": [
                0.037528700764461465,
                -1.7106222832313405,
                2.5220670969416688,
                -1.01535031837948,
                0.9737416304123864,
                -2.8580177521009484
            ]
        },
        {
            "positions": [
                0.1313767183203926,
                -1.7948645101862657,
                2.5469401936962655,
                -1.0119728126513021,
                0.9089214165428834,
                -2.7990166231206652
            ]
        },
        {
            "positions": [
                0.22522473587632372,
                -1.8791067371411911,
                2.5718132904508626,
                -1.0085953069231242,
                0.8441012026733806,
                -2.7400154941403816
            ]
        },
        {
            "positions": [
                0.32211874017350334,
                -1.8850876601981528,
                2.5363096277035906,
                -0.9015096323838395,
                0.8187257569050407,
                -2.8176310772401063
            ]
        },
        {
            "positions": [
                0.419012744470683,
                -1.8910685832551144,
                2.5008059649563186,
                -0.7944239578445549,
                0.7933503111367008,
                -2.895246660339831
            ]
        },
        {
            "positions": [
                0.5159067487678626,
                -1.8970495063120763,
                2.4653023022090466,
                -0.6873382833052701,
                0.7679748653683609,
                -2.972862243439556
            ]
        },
        {
            "positions": [
                0.6128007530650422,
                -1.9030304293690379,
                2.4297986394617745,
                -0.5802526087659855,
                0.742599419600021,
                -3.050477826539281
            ]
        },
        {
            "positions": [
                0.7096947573622219,
                -1.9090113524259995,
                2.3942949767145025,
                -0.4731669342267009,
                0.7172239738316811,
                -3.1280934096390056
            ]
        }
    ]
}