{
    "goal": {
        "global_pose": {
            "orientation": {
                "w": 0.7047431468963623,
                "x": -0.7094548344612122,
                "y": 0.0024358443915843964,
                "z": -0.0022348060738295317
            },
            "position": {
                "x": 0.6094750761985779,
                "y": 0.3671506643295288,
                "z": 0.19426114857196808
            }
        },
        "name": "move_to_magneteinheit_A"
    },
    "id": "FMT_move_to_magneteinheit_A_62",
    "joint_names": [
        "shoulder_pan_joint",
        "shoulder_lift_joint",
        "elbow_joint",
        "wrist_1_joint",
        "wrist_2_joint",
        "wrist_3_joint"
    ],
    "metrics": {
        "cart_traj_len": 1.8806858044508352,
        "distance_elbow_joint": 3.9083327310761513,
        "distance_shoulder_lift_joint": 0.6975981212703987,
        "distance_shoulder_pan_joint": 1.242380058056514,
        "distance_wrist_1_joint": 1.4777891912871322,
        "distance_wrist_2_joint": 1.7069131380305371,
        "distance_wrist_3_joint": 1.0897583295945663,
        "smoothness": 5.592234510853675e-16,
        "time": 1.243433622,
        "traj_len": 3.1816303319705925,
        "weighted_distance": 3.9353513893707253
    },
    "planner": "FMT",
    "start": {
        "state": {
            "elbow_joint": -1.919643507792019,
            "shoulder_lift_joint": -0.07675430207160344,
            "shoulder_pan_joint": -1.1188671864651873,
            "wrist_1_joint": 0.42560062535961957,
            "wrist_2_joint": 1.5706038300724876,
            "wrist_3_joint": 1.1188968870953055
        }
    },
    "waypoints": [
        {
            "positions": [
                -1.1188671864651873,
                -0.07675430207160344,
                -1.919643507792019,
                0.42560062535961957,
                1.5706038300724876,
                1.1188968870953055
            ]
        },
        {
            "positions": [
                -1.0710833380783984,
                -0.10358499904354186,
                -1.769323018135244,
                0.4824386711783554,
                1.5049533247636209,
                1.0769831051878223
            ]
        },
        {
            "positions": [
                -1.0232994896916092,
                -0.13041569601548028,
                -1.619002528478469,
                0.5392767169970912,
                1.439302819454754,
                1.035069323280339
            ]
        },
        {
            "positions": [
                -0.9755156413048203,
                -0.1572463929874187,
                -1.468682038821694,
                0.5961147628158271,
                1.3736523141458872,
                0.9931555413728556
            ]
        },
        {
            "positions": [
                -0.9277317929180313,
                -0.18407708995935712,
                -1.3183615491649188,
                0.652952808634563,
                1.3080018088370204,
                0.9512417594653723
            ]
        },
        {
            "positions": [
                -0.8799479445312424,
                -0.21090778693129553,
                -1.1680410595081439,
                0.7097908544532989,
                1.2423513035281535,
                0.909327977557889
            ]
        },
        {
            "positions": [
                -0.8321640961444533,
                -0.23773848390323393,
                -1.0177205698513687,
                0.7666289002720347,
                1.1767007982192867,
                0.8674141956504056
            ]
        },
        {
            "positions": [
                -0.7843802477576644,
                -0.26456918087517234,
                -0.8674000801945938,
                0.8234669460907705,
                1.11105029291042,
                0.8255004137429223
            ]
        },
        {
            "positions": [
                -0.7365963993708753,
                -0.29139987784711074,
                -0.7170795905378187,
                0.8803049919095064,
                1.045399787601553,
                0.783586631835439
            ]
        },
        {
            "positions": [
                -0.6888125509840863,
                -0.31823057481904915,
                -0.5667591008810438,
                0.9371430377282421,
                0.9797492822926863,
                0.7416728499279557
            ]
        },
        {
            "positions": [
                -0.6410287025972973,
                -0.3450612717909876,
                -0.4164386112242684,
                0.9939810835469782,
                0.9140987769838195,
                0.6997590680204724
            ]
        },
        {
            "positions": [
                -0.5932448542105083,
                -0.371891968762926,
                -0.2661181215674935,
                1.0508191293657139,
                0.8484482716749526,
                0.6578452861129891
            ]
        },
        {
            "positions": [
                -0.5454610058237193,
                -0.3987226657348644,
                -0.11579763191071835,
                1.1076571751844497,
                0.7827977663660858,
                0.6159315042055057
            ]
        },
        {
            "positions": [
                -0.4976771574369303,
                -0.42555336270680283,
                0.03452285774605657,
                1.1644952210031856,
                0.717147261057219,
                0.5740177222980224
            ]
        },
        {
            "positions": [
                -0.44989330905014135,
                -0.45238405967874123,
                0.18484334740283148,
                1.2213332668219214,
                0.6514967557483523,
                0.5321039403905391
            ]
        },
        {
            "positions": [
                -0.4021094606633524,
                -0.47921475665067964,
                0.3351638370596064,
                1.2781713126406573,
                0.5858462504394855,
                0.4901901584830558
            ]
        },
        {
            "positions": [
                -0.35432561227656323,
                -0.5060454536226181,
                0.48548432671638175,
                1.3350093584593932,
                0.5201957451306185,
                0.4482763765755724
            ]
        },
        {
            "positions": [
                -0.3065417638897743,
                -0.5328761505945565,
                0.6358048163731567,
                1.391847404278129,
                0.45454523982175177,
                0.4063625946680891
            ]
        },
        {
            "positions": [
                -0.2587579155029853,
                -0.5597068475664949,
                0.7861253060299316,
                1.448685450096865,
                0.38889473451288503,
                0.3644488127606058
            ]
        },
        {
            "positions": [
                -0.21097406711619637,
                -0.5865375445384333,
                0.9364457956867065,
                1.5055234959156008,
                0.3232442292040183,
                0.3225350308531225
            ]
        },
        {
            "positions": [
                -0.1631902187294072,
                -0.6133682415103718,
                1.0867662853434823,
                1.5623615417343368,
                0.25759372389515134,
                0.2806212489456391
            ]
        },
        {
            "positions": [
                -0.11540637034261825,
                -0.6401989384823101,
                1.2370867750002572,
                1.6191995875530725,
                0.1919432185862846,
                0.23870746703815582
            ]
        },
        {
            "positions": [
                -0.0676225219558293,
                -0.6670296354542486,
                1.3874072646570321,
                1.6760376333718083,
                0.12629271327741765,
                0.19679368513067252
            ]
        },
        {
            "positions": [
                -0.019838673569040344,
                -0.6938603324261869,
                1.537727754313807,
                1.7328756791905442,
                0.06064220796855091,
                0.15487990322318923
            ]
        },
        {
            "positions": [
                0.02794517481774883,
                -0.7206910293981255,
                1.6880482439705824,
                1.78971372500928,
                -0.005008297340316048,
                0.11296612131570583
            ]
        },
        {
            "positions": [
                0.07572902320453778,
                -0.7475217263700638,
                1.8383687336273573,
                1.846551770828016,
                -0.07065880264918278,
                0.07105233940822253
            ]
        },
        {
            "positions": [
                0.12351287159132665,
                -0.7743524233420022,
                1.9886892232841324,
                1.9033898166467518,
                -0.13630930795804952,
                0.02913855750073914
            ]
        }
    ]
}