{
    "goal": {
        "global_pose": {
            "orientation": {
                "w": -0.00223480608172531,
                "x": 0.0024358444001904467,
                "y": 0.7094548369677653,
                "z": -0.704743149386269
            },
            "position": {
                "x": 0.6205249238014221,
                "y": -0.6371506643295288,
                "z": 0.19426114857196808
            }
        },
        "name": "move_to_magneteinheit_B"
    },
    "id": "FMT_move_to_magneteinheit_B_85",
    "joint_names": [
        "shoulder_pan_joint",
        "shoulder_lift_joint",
        "elbow_joint",
        "wrist_1_joint",
        "wrist_2_joint",
        "wrist_3_joint"
    ],
    "metrics": {
        "cart_traj_len": 3.5815968112539207,
        "distance_elbow_joint": 4.452279212645904,
        "distance_shoulder_lift_joint": 0.6956619164005415,
        "distance_shoulder_pan_joint": 2.186537557999488,
        "distance_wrist_1_joint": 1.6779102179173684,
        "distance_wrist_2_joint": 0.3702066670554233,
        "distance_wrist_3_joint": 3.158925085420683,
        "smoothness": 0.24863413780513552,
        "time": 1.7419250530000001,
        "traj_len": 3.5414009455919295,
        "weighted_distance": 4.572470635581333
    },
    "planner": "FMT",
    "start": {
        "state": {
            "elbow_joint": 2.39358713078474,
            "shoulder_lift_joint": -1.908514104345545,
            "shoulder_pan_joint": 0.7066247066606129,
            "wrist_1_joint": -0.4678290933515497,
            "wrist_2_joint": 0.7096259083745334,
            "wrist_3_joint": -3.1358149277392293
        }
    },
    "waypoints": [
        {
            "positions": [
                0.7066247066606129,
                -1.908514104345545,
                2.39358713078474,
                -0.4678290933515497,
                0.7096259083745334,
                -3.1358149277392293
            ]
        },
        {
            "positions": [
                0.7800075695600922,
                -1.9269462347212276,
                2.4038213991444484,
                -0.4794699521872717,
                0.687246320572494,
                -2.904723082989162
            ]
        },
        {
            "positions": [
                0.8533904324595715,
                -1.9453783650969103,
                2.4140556675041567,
                -0.4911108110229936,
                0.6648667327704545,
                -2.6736312382390945
            ]
        },
        {
            "positions": [
                0.9267732953590507,
                -1.9638104954725932,
                2.4242899358638645,
                -0.5027516698587156,
                0.6424871449684151,
                -2.442539393489027
            ]
        },
        {
            "positions": [
                1.0001561582585299,
                -1.982242625848276,
                2.434524204223573,
                -0.5143925286944375,
                0.6201075571663756,
                -2.2114475487389598
            ]
        },
        {
            "positions": [
                1.0735390211580091,
                -2.0006747562239586,
                2.444758472583281,
                -0.5260333875301595,
                0.5977279693643361,
                -1.9803557039888922
            ]
        },
        {
            "positions": [
                1.1469218840574884,
                -2.0191068865996415,
                2.4549927409429895,
                -0.5376742463658815,
                0.5753483815622967,
                -1.7492638592388248
            ]
        },
        {
            "positions": [
                1.2203047469569677,
                -2.037539016975324,
                2.465227009302698,
                -0.5493151052016033,
                0.5529687937602572,
                -1.5181720144887574
            ]
        },
        {
            "positions": [
                1.293687609856447,
                -2.055971147351007,
                2.4754612776624056,
                -0.5609559640373253,
                0.5305892059582178,
                -1.2870801697386898
            ]
        },
        {
            "positions": [
                1.3670704727559262,
                -2.0744032777266894,
                2.485695546022114,
                -0.5725968228730473,
                0.5082096181561783,
                -1.0559883249886224
            ]
        },
        {
            "positions": [
                1.4404533356554055,
                -2.0928354081023723,
                2.4959298143818223,
                -0.5842376817087692,
                0.48583003035413885,
                -0.8248964802385551
            ]
        },
        {
            "positions": [
                1.510762441362508,
                -2.0894260380681025,
                2.281697748049241,
                -0.531717791148572,
                0.48967159447826347,
                -0.7841351899450336
            ]
        },
        {
            "positions": [
                1.5810715470696108,
                -2.086016668033832,
                2.06746568171666,
                -0.4791979005883747,
                0.4935131586023881,
                -0.7433738996515121
            ]
        },
        {
            "positions": [
                1.6513806527767134,
                -2.0826072979995622,
                1.8532336153840785,
                -0.4266780100281774,
                0.4973547227265127,
                -0.7026126093579906
            ]
        },
        {
            "positions": [
                1.721689758483816,
                -2.079197927965292,
                1.639001549051497,
                -0.37415811946798017,
                0.5011962868506373,
                -0.6618513190644691
            ]
        },
        {
            "positions": [
                1.7919988641909188,
                -2.075788557931022,
                1.424769482718916,
                -0.3216382289077829,
                0.505037850974762,
                -0.6210900287709477
            ]
        },
        {
            "positions": [
                1.8623079698980214,
                -2.0723791878967517,
                1.2105374163863347,
                -0.2691183383475856,
                0.5088794150988866,
                -0.5803287384774263
            ]
        },
        {
            "positions": [
                1.932617075605124,
                -2.068969817862482,
                0.9963053500537533,
                -0.2165984477873883,
                0.5127209792230112,
                -0.5395674481839048
            ]
        },
        {
            "positions": [
                2.0029261813122266,
                -2.0655604478282115,
                0.7820732837211721,
                -0.16407855722719106,
                0.5165625433471358,
                -0.49880615789038324
            ]
        },
        {
            "positions": [
                2.073235287019329,
                -2.0621510777939416,
                0.567841217388591,
                -0.11155866666699377,
                0.5204041074712604,
                -0.45804486759686175
            ]
        },
        {
            "positions": [
                2.143544392726432,
                -2.0587417077596712,
                0.35360915105600954,
                -0.05903877610679653,
                0.5242456715953852,
                -0.41728357730334026
            ]
        },
        {
            "positions": [
                2.2138534984335347,
                -2.0553323377254014,
                0.1393770847234279,
                -0.006518885546599185,
                0.5280872357195098,
                -0.37652228700981877
            ]
        },
        {
            "positions": [
                2.2841626041406373,
                -2.051922967691131,
                -0.07485498160915283,
                0.04600100501359805,
                0.5319287998436344,
                -0.33576099671629733
            ]
        },
        {
            "positions": [
                2.35447170984774,
                -2.048513597656861,
                -0.28908704794173445,
                0.0985208955737954,
                0.535770363967759,
                -0.29499970642277584
            ]
        },
        {
            "positions": [
                2.4247808155548425,
                -2.045104227622591,
                -0.5033191142743156,
                0.15104078613399263,
                0.5396119280918836,
                -0.25423841612925435
            ]
        },
        {
            "positions": [
                2.495089921261945,
                -2.041694857588321,
                -0.7175511806068968,
                0.20356067669418998,
                0.5434534922160082,
                -0.21347712583573286
            ]
        },
        {
            "positions": [
                2.5653990269690476,
                -2.0382854875540506,
                -0.931783246939478,
                0.2560805672543871,
                0.5472950563401329,
                -0.17271583554221137
            ]
        },
        {
            "positions": [
                2.6357081326761502,
                -2.0348761175197807,
                -1.1460153132720596,
                0.30860045781458445,
                0.5511366204642575,
                -0.13195454524868988
            ]
        },
        {
            "positions": [
                2.706017238383253,
                -2.0314667474855104,
                -1.3602473796046404,
                0.3611203483747817,
                0.5549781845883821,
                -0.09119325495516839
            ]
        },
        {
            "positions": [
                2.776326344090356,
                -2.0280573774512405,
                -1.574479445937222,
                0.4136402389349791,
                0.5588197487125067,
                -0.05043196466164685
            ]
        },
        {
            "positions": [
                2.768279489971662,
                -2.1125961521582775,
                -1.6376111210178415,
                0.5364591495759994,
                0.5425586050689484,
                -0.03698495559145874
            ]
        },
        {
            "positions": [
                2.7602326358529683,
                -2.1971349268653144,
                -1.7007427960984607,
                0.6592780602170196,
                0.52629746142539,
                -0.02353794652127063
            ]
        },
        {
            "positions": [
                2.7521857817342745,
                -2.2816737015723514,
                -1.7638744711790801,
                0.7820969708580399,
                0.5100363177818317,
                -0.010090937451082516
            ]
        },
        {
            "positions": [
                2.7058381026274425,
                -2.3781468305080873,
                -1.7188083494351198,
                0.8796804593547097,
                0.4977174979088388,
                0.006509610115185572
            ]
        },
        {
            "positions": [
                2.659490423520611,
                -2.4746199594438227,
                -1.6737422276911595,
                0.9772639478513796,
                0.48539867803584585,
                0.023110157681453657
            ]
        }
    ]
}