{
    "goal": {
        "global_pose": {
            "orientation": {
                "w": 0.5084816217422485,
                "x": -0.49083608388900757,
                "y": 0.5182115435600281,
                "z": -0.4816462993621826
            },
            "position": {
                "x": 0.5540239810943604,
                "y": 0.030875300988554955,
                "z": 0.16403168439865112
            }
        },
        "name": "move_to_storage_A"
    },
    "id": "FMT_move_to_storage_A_56",
    "joint_names": [
        "shoulder_pan_joint",
        "shoulder_lift_joint",
        "elbow_joint",
        "wrist_1_joint",
        "wrist_2_joint",
        "wrist_3_joint"
    ],
    "metrics": {
        "cart_traj_len": 0.3532550505417844,
        "distance_elbow_joint": 0.4494122122688169,
        "distance_shoulder_lift_joint": 0.2338301636227349,
        "distance_shoulder_pan_joint": 0.4628184585965379,
        "distance_wrist_1_joint": 0.23712970962680513,
        "distance_wrist_2_joint": 1.0953980615651515,
        "distance_wrist_3_joint": 0.08890070852933629,
        "smoothness": 4.440892098500626e-16,
        "time": 0.374948599,
        "traj_len": 1.602338701464014,
        "weighted_distance": 2.019360914363753
    },
    "planner": "FMT",
    "start": {
        "state": {
            "elbow_joint": 1.9715463870305268,
            "shoulder_lift_joint": -1.1394903361783484,
            "shoulder_pan_joint": 0.12281147578464417,
            "wrist_1_joint": -0.7804599489681411,
            "wrist_2_joint": 0.12958660307563738,
            "wrist_3_joint": -3.1924946282119055
        }
    },
    "waypoints": [
        {
            "positions": [
                0.12281147578464417,
                -1.1394903361783484,
                1.9715463870305268,
                -0.7804599489681411,
                0.12958660307563738,
                -3.1924946282119055
            ]
        },
        {
            "positions": [
                0.0566945531279959,
                -1.1728946452673106,
                2.0357481316403576,
                -0.8143356217719704,
                0.28607204044208756,
                -3.179794526993429
            ]
        },
        {
            "positions": [
                -0.009422369528652372,
                -1.2062989543562725,
                2.099949876250189,
                -0.8482112945757997,
                0.4425574778085378,
                -3.1670944257749523
            ]
        },
        {
            "positions": [
                -0.07553929218530063,
                -1.2397032634452347,
                2.1641516208600198,
                -0.882086967379629,
                0.599042915174988,
                -3.154394324556476
            ]
        },
        {
            "positions": [
                -0.1416562148419489,
                -1.273107572534197,
                2.2283533654698506,
                -0.9159626401834583,
                0.7555283525414382,
                -3.141694223337999
            ]
        },
        {
            "positions": [
                -0.20777313749859722,
                -1.3065118816231591,
                2.2925551100796815,
                -0.9498383129872876,
                0.9120137899078885,
                -3.1289941221195225
            ]
        },
        {
            "positions": [
                -0.2738900601552454,
                -1.339916190712121,
                2.356756854689513,
                -0.9837139857911169,
                1.0684992272743385,
                -3.1162940209010457
            ]
        },
        {
            "positions": [
                -0.34000698281189373,
                -1.3733204998010833,
                2.4209585992993436,
                -1.0175896585949462,
                1.224984664640789,
                -3.1035939196825693
            ]
        }
    ]
}