{
    "goal": {
        "global_pose": {
            "orientation": {
                "w": -0.00223480608172531,
                "x": 0.0024358444001904467,
                "y": 0.7094548369677653,
                "z": -0.704743149386269
            },
            "position": {
                "x": 0.6205249238014221,
                "y": -0.6371506643295288,
                "z": 0.19426114857196808
            }
        },
        "name": "move_to_magneteinheit_B"
    },
    "id": "FMT_move_to_magneteinheit_B_42",
    "joint_names": [
        "shoulder_pan_joint",
        "shoulder_lift_joint",
        "elbow_joint",
        "wrist_1_joint",
        "wrist_2_joint",
        "wrist_3_joint"
    ],
    "metrics": {
        "cart_traj_len": 3.8413498100934436,
        "distance_elbow_joint": 6.116339662899974,
        "distance_shoulder_lift_joint": 0.6204446999957378,
        "distance_shoulder_pan_joint": 2.7320925074309708,
        "distance_wrist_1_joint": 2.4105078942846045,
        "distance_wrist_2_joint": 1.1853600891353517,
        "distance_wrist_3_joint": 6.387100437870159,
        "smoothness": 0.5517100444066038,
        "time": 1.508796678,
        "traj_len": 4.410424615795716,
        "weighted_distance": 5.985141113689556
    },
    "planner": "FMT",
    "start": {
        "state": {
            "elbow_joint": 2.39358713078474,
            "shoulder_lift_joint": -1.908514104345545,
            "shoulder_pan_joint": 0.7066247066606129,
            "wrist_1_joint": -0.4678290933515497,
            "wrist_2_joint": 0.7096259083745334,
            "wrist_3_joint": -3.1358149277392293
        }
    },
    "waypoints": [
        {
            "positions": [
                0.7066247066606129,
                -1.908514104345545,
                2.39358713078474,
                -0.4678290933515497,
                0.7096259083745334,
                -3.1358149277392293
            ]
        },
        {
            "positions": [
                0.8073328954997587,
                -1.9098263638332362,
                2.384851594347454,
                -0.30222172220545307,
                0.700713480983259,
                -3.112760361343127
            ]
        },
        {
            "positions": [
                0.9080410843389045,
                -1.9111386233209275,
                2.3761160579101688,
                -0.13661435105935643,
                0.6918010535919846,
                -3.0897057949470255
            ]
        },
        {
            "positions": [
                1.0087492731780503,
                -1.9124508828086189,
                2.367380521472883,
                0.028993020086740207,
                0.6828886262007102,
                -3.0666512285509233
            ]
        },
        {
            "positions": [
                1.0670567377712803,
                -1.9117971010261643,
                2.2228327676532778,
                0.07030156437988191,
                0.69657290856582,
                -2.932555694391602
            ]
        },
        {
            "positions": [
                1.1253642023645103,
                -1.9111433192437097,
                2.078285013833672,
                0.11161010867302362,
                0.7102571909309299,
                -2.7984601602322803
            ]
        },
        {
            "positions": [
                1.1836716669577403,
                -1.9104895374612552,
                1.933737260014067,
                0.15291865296616533,
                0.7239414732960396,
                -2.664364626072959
            ]
        },
        {
            "positions": [
                1.2419791315509703,
                -1.9098357556788006,
                1.7891895061944618,
                0.19422719725930704,
                0.7376257556611495,
                -2.5302690919136377
            ]
        },
        {
            "positions": [
                1.3002865961442003,
                -1.909181973896346,
                1.6446417523748564,
                0.23553574155244875,
                0.7513100380262593,
                -2.396173557754316
            ]
        },
        {
            "positions": [
                1.3585940607374303,
                -1.9085281921138912,
                1.500093998555251,
                0.27684428584559045,
                0.7649943203913692,
                -2.2620780235949947
            ]
        },
        {
            "positions": [
                1.4169015253306603,
                -1.9078744103314367,
                1.3555462447356457,
                0.3181528301387322,
                0.7786786027564789,
                -2.1279824894356736
            ]
        },
        {
            "positions": [
                1.4752089899238903,
                -1.9072206285489821,
                1.2109984909160405,
                0.35946137443187387,
                0.7923628851215887,
                -1.993886955276352
            ]
        },
        {
            "positions": [
                1.5335164545171203,
                -1.9065668467665275,
                1.0664507370964351,
                0.40076991872501555,
                0.8060471674866986,
                -1.8597914211170308
            ]
        },
        {
            "positions": [
                1.5918239191103503,
                -1.905913064984073,
                0.92190298327683,
                0.4420784630181573,
                0.8197314498518083,
                -1.7256958869577093
            ]
        },
        {
            "positions": [
                1.6501313837035805,
                -1.9052592832016184,
                0.7773552294572246,
                0.48338700731129897,
                0.8334157322169182,
                -1.5916003527983877
            ]
        },
        {
            "positions": [
                1.7084388482968103,
                -1.9046055014191638,
                0.6328074756376192,
                0.5246955516044407,
                0.847100014582028,
                -1.4575048186390662
            ]
        },
        {
            "positions": [
                1.7667463128900405,
                -1.9039517196367093,
                0.4882597218180138,
                0.5660040958975825,
                0.8607842969471379,
                -1.323409284479745
            ]
        },
        {
            "positions": [
                1.8250537774832702,
                -1.9032979378542547,
                0.3437119679984084,
                0.6073126401907242,
                0.8744685793122476,
                -1.1893137503204234
            ]
        },
        {
            "positions": [
                1.8833612420765002,
                -1.9026441560718002,
                0.19916421417880326,
                0.6486211844838659,
                0.8881528616773574,
                -1.0552182161611023
            ]
        },
        {
            "positions": [
                1.9416687066697302,
                -1.9019903742893456,
                0.054616460359198093,
                0.6899297287770075,
                0.9018371440424673,
                -0.9211226820017808
            ]
        },
        {
            "positions": [
                1.9999761712629605,
                -1.901336592506891,
                -0.08993129346040751,
                0.7312382730701492,
                0.915521426407577,
                -0.7870271478424593
            ]
        },
        {
            "positions": [
                2.0582836358561902,
                -1.9006828107244362,
                -0.23447904728001268,
                0.7725468173632909,
                0.9292057087726868,
                -0.6529316136831382
            ]
        },
        {
            "positions": [
                2.11659110044942,
                -1.9000290289419817,
                -0.37902680109961784,
                0.8138553616564326,
                0.9428899911377967,
                -0.5188360795238167
            ]
        },
        {
            "positions": [
                2.1748985650426502,
                -1.899375247159527,
                -0.523574554919223,
                0.8551639059495744,
                0.9565742735029066,
                -0.3847405453644952
            ]
        },
        {
            "positions": [
                2.2332060296358804,
                -1.8987214653770725,
                -0.6681223087388286,
                0.896472450242716,
                0.9702585558680163,
                -0.2506450112051737
            ]
        },
        {
            "positions": [
                2.29151349422911,
                -1.898067683594618,
                -0.8126700625584338,
                0.9377809945358577,
                0.9839428382331261,
                -0.11654947704585217
            ]
        },
        {
            "positions": [
                2.3498209588223404,
                -1.8974139018121634,
                -0.9572178163780394,
                0.9790895388289995,
                0.997627120598236,
                0.01754605711346935
            ]
        },
        {
            "positions": [
                2.4081284234155707,
                -1.8967601200297088,
                -1.1017655701976445,
                1.0203980831221413,
                1.0113114029633459,
                0.15164159127279087
            ]
        },
        {
            "positions": [
                2.4664358880088004,
                -1.8961063382472543,
                -1.2463133240172501,
                1.0617066274152829,
                1.0249956853284556,
                0.28573712543211194
            ]
        },
        {
            "positions": [
                2.52474335260203,
                -1.8954525564647997,
                -1.3908610778368553,
                1.103015171708425,
                1.0386799676935654,
                0.41983265959143345
            ]
        },
        {
            "positions": [
                2.5830508171952604,
                -1.8947987746823451,
                -1.535408831656461,
                1.1443237160015665,
                1.0523642500586752,
                0.553928193750755
            ]
        },
        {
            "positions": [
                2.6413582817884906,
                -1.8941449928998906,
                -1.679956585476066,
                1.185632260294708,
                1.066048532423785,
                0.6880237279100765
            ]
        },
        {
            "positions": [
                2.6996657463817204,
                -1.893491211117436,
                -1.8245043392956712,
                1.22694080458785,
                1.079732814788895,
                0.822119262069398
            ]
        },
        {
            "positions": [
                2.75797321097495,
                -1.8928374293349812,
                -1.9690520931152764,
                1.2682493488809916,
                1.0934170971540047,
                0.9562147962287186
            ]
        },
        {
            "positions": [
                2.8162806755681804,
                -1.8921836475525267,
                -2.1135998469348816,
                1.3095578931741332,
                1.1071013795191145,
                1.0903103303880401
            ]
        },
        {
            "positions": [
                2.8745881401614106,
                -1.891529865770072,
                -2.2581476007544867,
                1.3508664374672747,
                1.1207856618842242,
                1.2244058645473617
            ]
        },
        {
            "positions": [
                2.9328956047546404,
                -1.8908760839876175,
                -2.402695354574093,
                1.3921749817604168,
                1.134469944249334,
                1.3585013987066832
            ]
        },
        {
            "positions": [
                2.99120306934787,
                -1.890222302205163,
                -2.547243108393698,
                1.4334835260535583,
                1.148154226614444,
                1.4925969328660047
            ]
        },
        {
            "positions": [
                3.0495105339411004,
                -1.8895685204227084,
                -2.6917908622133027,
                1.4747920703467001,
                1.1618385089795538,
                1.626692467025326
            ]
        },
        {
            "positions": [
                3.0195715585449094,
                -1.9352320249724586,
                -2.6124861183746924,
                1.438800783378519,
                1.1095559763501166,
                1.5017237714018183
            ]
        },
        {
            "positions": [
                2.9896325831487185,
                -1.980895529522209,
                -2.533181374536082,
                1.4028094964103377,
                1.0572734437206792,
                1.3767550757783107
            ]
        },
        {
            "positions": [
                2.9596936077525275,
                -2.0265590340719593,
                -2.453876630697472,
                1.3668182094421566,
                1.0049909110912418,
                1.251786380154803
            ]
        },
        {
            "positions": [
                2.929754632356336,
                -2.0722225386217095,
                -2.374571886858862,
                1.3308269224739755,
                0.9527083784618047,
                1.1268176845312954
            ]
        },
        {
            "positions": [
                2.899815656960145,
                -2.1178860431714597,
                -2.2952671430202516,
                1.2948356355057942,
                0.9004258458323674,
                1.0018489889077877
            ]
        },
        {
            "positions": [
                2.8698766815639543,
                -2.16354954772121,
                -2.2159623991816417,
                1.258844348537613,
                0.8481433132029301,
                0.8768802932842801
            ]
        },
        {
            "positions": [
                2.8399377061677633,
                -2.20921305227096,
                -2.1366576553430314,
                1.222853061569432,
                0.7958607805734929,
                0.7519115976607724
            ]
        },
        {
            "positions": [
                2.8099987307715724,
                -2.2548765568207108,
                -2.057352911504421,
                1.1868617746012506,
                0.7435782479440556,
                0.6269429020372648
            ]
        },
        {
            "positions": [
                2.7800597553753814,
                -2.3005400613704605,
                -1.978048167665811,
                1.1508704876330695,
                0.6912957153146183,
                0.5019742064137571
            ]
        },
        {
            "positions": [
                2.75012077997919,
                -2.346203565920211,
                -1.8987434238272007,
                1.1148792006648884,
                0.639013182685181,
                0.37700551079024947
            ]
        },
        {
            "positions": [
                2.720181804582999,
                -2.3918670704699614,
                -1.8194386799885907,
                1.0788879136967073,
                0.5867306500557438,
                0.2520368151667418
            ]
        },
        {
            "positions": [
                2.690242829186808,
                -2.4375305750197116,
                -1.7401339361499804,
                1.042896626728526,
                0.5344481174263065,
                0.12706811954323416
            ]
        },
        {
            "positions": [
                2.660303853790617,
                -2.483194079569462,
                -1.6608291923113703,
                1.006905339760345,
                0.4821655847968692,
                0.002099423919726603
            ]
        }
    ]
}