{
    "goal": {
        "global_pose": {
            "orientation": {
                "w": -0.00223480608172531,
                "x": 0.0024358444001904467,
                "y": 0.7094548369677653,
                "z": -0.704743149386269
            },
            "position": {
                "x": 0.6205249238014221,
                "y": -0.6371506643295288,
                "z": 0.19426114857196808
            }
        },
        "name": "move_to_magneteinheit_B"
    },
    "id": "FMT_move_to_magneteinheit_B_29",
    "joint_names": [
        "shoulder_pan_joint",
        "shoulder_lift_joint",
        "elbow_joint",
        "wrist_1_joint",
        "wrist_2_joint",
        "wrist_3_joint"
    ],
    "metrics": {
        "cart_traj_len": 4.107748619105876,
        "distance_elbow_joint": 4.245995853929724,
        "distance_shoulder_lift_joint": 1.7141800971265022,
        "distance_shoulder_pan_joint": 2.5804522808905106,
        "distance_wrist_1_joint": 1.553139445916045,
        "distance_wrist_2_joint": 1.1372540810566165,
        "distance_wrist_3_joint": 3.124243036712063,
        "smoothness": 0.29272761404609055,
        "time": 1.508621476,
        "traj_len": 3.7888342264648447,
        "weighted_distance": 4.826400770349293
    },
    "planner": "FMT",
    "start": {
        "state": {
            "elbow_joint": 2.39358713078474,
            "shoulder_lift_joint": -1.908514104345545,
            "shoulder_pan_joint": 0.7066247066606129,
            "wrist_1_joint": -0.4678290933515497,
            "wrist_2_joint": 0.7096259083745334,
            "wrist_3_joint": -3.1358149277392293
        }
    },
    "waypoints": [
        {
            "positions": [
                0.7066247066606129,
                -1.908514104345545,
                2.39358713078474,
                -0.4678290933515497,
                0.7096259083745334,
                -3.1358149277392293
            ]
        },
        {
            "positions": [
                0.8700813660441686,
                -1.845149885506765,
                2.3756236533553925,
                -0.4223253528371692,
                0.6363286017527523,
                -3.1214967029604823
            ]
        },
        {
            "positions": [
                1.0335380254277244,
                -1.781785666667985,
                2.357660175926045,
                -0.3768216123227887,
                0.563031295130971,
                -3.107178478181735
            ]
        },
        {
            "positions": [
                1.1969946848112802,
                -1.718421447829205,
                2.3396966984966974,
                -0.3313178718084082,
                0.4897339885091899,
                -3.092860253402988
            ]
        },
        {
            "positions": [
                1.360451344194836,
                -1.655057228990425,
                2.32173322106735,
                -0.2858141312940278,
                0.4164366818874088,
                -3.0785420286242404
            ]
        },
        {
            "positions": [
                1.5239080035783918,
                -1.591693010151645,
                2.303769743638002,
                -0.24031039077964725,
                0.34313937526562754,
                -3.0642238038454934
            ]
        },
        {
            "positions": [
                1.6873646629619474,
                -1.5283287913128651,
                2.2858062662086542,
                -0.19480665026526678,
                0.2698420686438464,
                -3.049905579066746
            ]
        },
        {
            "positions": [
                1.8508213223455035,
                -1.464964572474085,
                2.2678427887793067,
                -0.14930290975088628,
                0.19654476202206528,
                -3.035587354287999
            ]
        },
        {
            "positions": [
                2.014277981729059,
                -1.401600353635305,
                2.249879311349959,
                -0.10379916923650578,
                0.12324745540028414,
                -3.0212691295092515
            ]
        },
        {
            "positions": [
                2.1777346411126146,
                -1.338236134796525,
                2.2319158339206115,
                -0.058295428722125286,
                0.049950148778502894,
                -3.0069509047305045
            ]
        },
        {
            "positions": [
                2.2095761941846264,
                -1.3730183405606549,
                2.072367487955352,
                -0.014090238514348541,
                0.06818086700704229,
                -2.9061004119092786
            ]
        },
        {
            "positions": [
                2.2414177472566377,
                -1.4078005463247847,
                1.9128191419900924,
                0.030114951693428205,
                0.08641158523558169,
                -2.8052499190880527
            ]
        },
        {
            "positions": [
                2.2732593003286494,
                -1.4425827520889145,
                1.7532707960248328,
                0.07432014190120495,
                0.1046423034641211,
                -2.7043994262668267
            ]
        },
        {
            "positions": [
                2.305100853400661,
                -1.4773649578530443,
                1.5937224500595732,
                0.1185253321089817,
                0.12287302169266048,
                -2.603548933445601
            ]
        },
        {
            "positions": [
                2.336942406472673,
                -1.5121471636171742,
                1.4341741040943137,
                0.16273052231675844,
                0.1411037399211999,
                -2.502698440624375
            ]
        },
        {
            "positions": [
                2.3687839595446842,
                -1.546929369381304,
                1.274625758129054,
                0.2069357125245352,
                0.1593344581497393,
                -2.4018479478031494
            ]
        },
        {
            "positions": [
                2.400625512616696,
                -1.5817115751454338,
                1.1150774121637945,
                0.25114090273231193,
                0.1775651763782787,
                -2.3009974549819234
            ]
        },
        {
            "positions": [
                2.4324670656887077,
                -1.6164937809095636,
                0.9555290661985352,
                0.2953460929400887,
                0.1957958946068181,
                -2.2001469621606975
            ]
        },
        {
            "positions": [
                2.464308618760719,
                -1.6512759866736935,
                0.7959807202332756,
                0.33955128314786537,
                0.21402661283535748,
                -2.0992964693394716
            ]
        },
        {
            "positions": [
                2.496150171832731,
                -1.6860581924378233,
                0.6364323742680158,
                0.38375647335564217,
                0.2322573310638969,
                -1.9984459765182456
            ]
        },
        {
            "positions": [
                2.5279917249047426,
                -1.7208403982019531,
                0.47688402830275645,
                0.4279616635634189,
                0.2504880492924363,
                -1.89759548369702
            ]
        },
        {
            "positions": [
                2.5598332779767543,
                -1.755622603966083,
                0.31733568233749687,
                0.47216685377119566,
                0.2687187675209757,
                -1.796744990875794
            ]
        },
        {
            "positions": [
                2.5916748310487656,
                -1.7904048097302128,
                0.15778733637223707,
                0.5163720439789723,
                0.28694948574951507,
                -1.695894498054568
            ]
        },
        {
            "positions": [
                2.6235163841207774,
                -1.8251870154943426,
                -0.0017610095930225,
                0.5605772341867492,
                0.3051802039780545,
                -1.595044005233342
            ]
        },
        {
            "positions": [
                2.655357937192789,
                -1.8599692212584724,
                -0.16130935555828163,
                0.6047824243945259,
                0.32341092220659384,
                -1.4941935124121164
            ]
        },
        {
            "positions": [
                2.687199490264801,
                -1.8947514270226022,
                -0.3208577015235412,
                0.6489876146023026,
                0.3416416404351333,
                -1.3933430195908905
            ]
        },
        {
            "positions": [
                2.719041043336812,
                -1.929533632786732,
                -0.4804060474888012,
                0.6931928048100795,
                0.3598723586636727,
                -1.2924925267696645
            ]
        },
        {
            "positions": [
                2.750882596408824,
                -1.964315838550862,
                -0.6399543934540604,
                0.737397995017856,
                0.37810307689221206,
                -1.1916420339484388
            ]
        },
        {
            "positions": [
                2.7827241494808357,
                -1.9990980443149917,
                -0.7995027394193199,
                0.7816031852256329,
                0.39633379512075145,
                -1.0907915411272127
            ]
        },
        {
            "positions": [
                2.814565702552847,
                -2.0338802500791218,
                -0.95905108538458,
                0.8258083754334096,
                0.4145645133492909,
                -0.9899410483059867
            ]
        },
        {
            "positions": [
                2.8464072556248587,
                -2.0686624558432514,
                -1.118599431349839,
                0.8700135656411863,
                0.43279523157783023,
                -0.8890905554847612
            ]
        },
        {
            "positions": [
                2.8782488086968705,
                -2.103444661607381,
                -1.2781477773150987,
                0.9142187558489632,
                0.4510259498063697,
                -0.7882400626635353
            ]
        },
        {
            "positions": [
                2.9100903617688823,
                -2.138226867371511,
                -1.4376961232803582,
                0.9584239460567399,
                0.46925666803490906,
                -0.6873895698423094
            ]
        },
        {
            "positions": [
                2.9419319148408936,
                -2.173009073135641,
                -1.5972444692456178,
                1.0026291362645166,
                0.48748738626344845,
                -0.5865390770210834
            ]
        },
        {
            "positions": [
                2.9737734679129053,
                -2.2077912788997707,
                -1.7567928152108772,
                1.0468343264722932,
                0.5057181044919878,
                -0.4856885841998576
            ]
        },
        {
            "positions": [
                2.895447588003351,
                -2.27637802476833,
                -1.7328888382273506,
                1.0372153199492427,
                0.5002655130552125,
                -0.3671594109066848
            ]
        },
        {
            "positions": [
                2.8171217080937963,
                -2.344964770636889,
                -1.7089848612438239,
                1.027596313426192,
                0.49481292161843715,
                -0.248630237613512
            ]
        },
        {
            "positions": [
                2.7387958281842417,
                -2.413551516505448,
                -1.6850808842602971,
                1.0179773069031415,
                0.48936033018166186,
                -0.1301010643203392
            ]
        },
        {
            "positions": [
                2.660469948274687,
                -2.4821382623740074,
                -1.6611769072767706,
                1.0083583003800909,
                0.4839077387448865,
                -0.011571891027166374
            ]
        }
    ]
}