{
    "goal": {
        "global_pose": {
            "orientation": {
                "w": 0.7047431468963623,
                "x": -0.7094548344612122,
                "y": 0.0024358443915843964,
                "z": -0.0022348060738295317
            },
            "position": {
                "x": 0.6094750761985779,
                "y": 0.3671506643295288,
                "z": 0.19426114857196808
            }
        },
        "name": "move_to_magneteinheit_A"
    },
    "id": "FMT_move_to_magneteinheit_A_50",
    "joint_names": [
        "shoulder_pan_joint",
        "shoulder_lift_joint",
        "elbow_joint",
        "wrist_1_joint",
        "wrist_2_joint",
        "wrist_3_joint"
    ],
    "metrics": {
        "cart_traj_len": 2.0636129431146326,
        "distance_elbow_joint": 3.875904860651516,
        "distance_shoulder_lift_joint": 1.0540430003473225,
        "distance_shoulder_pan_joint": 1.241603009760053,
        "distance_wrist_1_joint": 1.1258217161160615,
        "distance_wrist_2_joint": 1.438645147621176,
        "distance_wrist_3_joint": 1.8986881417521189,
        "smoothness": 4.123685525847481e-16,
        "time": 1.212576342,
        "traj_len": 3.261089676204603,
        "weighted_distance": 4.122687112004708
    },
    "planner": "FMT",
    "start": {
        "state": {
            "elbow_joint": -1.919643507792019,
            "shoulder_lift_joint": -0.07675430207160344,
            "shoulder_pan_joint": -1.1188671864651873,
            "wrist_1_joint": 0.42560062535961957,
            "wrist_2_joint": 1.5706038300724876,
            "wrist_3_joint": 1.1188968870953055
        }
    },
    "waypoints": [
        {
            "positions": [
                -1.1188671864651873,
                -0.07675430207160344,
                -1.919643507792019,
                0.42560062535961957,
                1.5706038300724876,
                1.1188968870953055
            ]
        },
        {
            "positions": [
                -1.0728818898074075,
                -0.11579293171409687,
                -1.776091475916037,
                0.3839035247627284,
                1.5173206764568885,
                1.1892186701231617
            ]
        },
        {
            "positions": [
                -1.026896593149628,
                -0.1548315613565903,
                -1.632539444040055,
                0.34220642416583724,
                1.4640375228412894,
                1.259540453151018
            ]
        },
        {
            "positions": [
                -0.9809112964918482,
                -0.1938701909990837,
                -1.488987412164073,
                0.3005093235689461,
                1.4107543692256903,
                1.3298622361788743
            ]
        },
        {
            "positions": [
                -0.9349259998340684,
                -0.23290882064157714,
                -1.345435380288091,
                0.2588122229720549,
                1.3574712156100912,
                1.4001840192067305
            ]
        },
        {
            "positions": [
                -0.8889407031762886,
                -0.2719474502840705,
                -1.2018833484121088,
                0.21711512237516373,
                1.304188061994492,
                1.470505802234587
            ]
        },
        {
            "positions": [
                -0.842955406518509,
                -0.31098607992656396,
                -1.0583313165361266,
                0.1754180217782726,
                1.250904908378893,
                1.5408275852624431
            ]
        },
        {
            "positions": [
                -0.7969701098607291,
                -0.3500247095690574,
                -0.9147792846601446,
                0.1337209211813814,
                1.197621754763294,
                1.6111493682902993
            ]
        },
        {
            "positions": [
                -0.7509848132029495,
                -0.38906333921155084,
                -0.7712272527841626,
                0.09202382058449027,
                1.1443386011476948,
                1.6814711513181555
            ]
        },
        {
            "positions": [
                -0.7049995165451697,
                -0.4281019688540442,
                -0.6276752209081804,
                0.05032671998759908,
                1.0910554475320957,
                1.7517929343460117
            ]
        },
        {
            "positions": [
                -0.65901421988739,
                -0.46714059849653766,
                -0.4841231890321984,
                0.008629619390707888,
                1.0377722939164966,
                1.822114717373868
            ]
        },
        {
            "positions": [
                -0.6130289232296102,
                -0.5061792281390312,
                -0.34057115715621644,
                -0.03306748120618325,
                0.9844891403008974,
                1.8924365004017243
            ]
        },
        {
            "positions": [
                -0.5670436265718305,
                -0.5452178577815245,
                -0.19701912528023424,
                -0.07476458180307438,
                0.9312059866852983,
                1.9627582834295807
            ]
        },
        {
            "positions": [
                -0.5210583299140508,
                -0.5842564874240179,
                -0.053467093404252264,
                -0.11646168239996563,
                0.8779228330696992,
                2.033080066457437
            ]
        },
        {
            "positions": [
                -0.47507303325627104,
                -0.6232951170665113,
                0.09008493847172994,
                -0.15815878299685676,
                0.8246396794541001,
                2.103401849485293
            ]
        },
        {
            "positions": [
                -0.4290877365984912,
                -0.6623337467090049,
                0.23363697034771236,
                -0.199855883593748,
                0.771356525838501,
                2.1737236325131493
            ]
        },
        {
            "positions": [
                -0.3831024399407116,
                -0.7013723763514983,
                0.3771890022236939,
                -0.24155298419063903,
                0.7180733722229019,
                2.2440454155410055
            ]
        },
        {
            "positions": [
                -0.33711714328293174,
                -0.7404110059939917,
                0.5207410340996763,
                -0.2832500847875303,
                0.6647902186073027,
                2.3143671985688616
            ]
        },
        {
            "positions": [
                -0.291131846625152,
                -0.7794496356364851,
                0.6642930659756583,
                -0.3249471853844214,
                0.6115070649917037,
                2.3846889815967183
            ]
        },
        {
            "positions": [
                -0.24514654996737228,
                -0.8184882652789784,
                0.8078450978516403,
                -0.36664428598131266,
                0.5582239113761045,
                2.4550107646245745
            ]
        },
        {
            "positions": [
                -0.19916125330959256,
                -0.8575268949214718,
                0.9513971297276222,
                -0.4083413865782038,
                0.5049407577605056,
                2.5253325476524306
            ]
        },
        {
            "positions": [
                -0.15317595665181283,
                -0.8965655245639654,
                1.0949491616036047,
                -0.4500384871750949,
                0.4516576041449063,
                2.595654330680287
            ]
        },
        {
            "positions": [
                -0.1071906599940331,
                -0.9356041542064588,
                1.2385011934795862,
                -0.49173558777198606,
                0.3983744505293072,
                2.665976113708143
            ]
        },
        {
            "positions": [
                -0.06120536333625326,
                -0.9746427838489522,
                1.3820532253555686,
                -0.5334326883688774,
                0.3450912969137081,
                2.7362978967359997
            ]
        },
        {
            "positions": [
                -0.015220066678473643,
                -1.0136814134914456,
                1.5256052572315506,
                -0.5751297889657683,
                0.291808143298109,
                2.8066196797638554
            ]
        },
        {
            "positions": [
                0.030765229979306197,
                -1.052720043133939,
                1.669157289107533,
                -0.6168268895626596,
                0.2385249896825099,
                2.876941462791712
            ]
        },
        {
            "positions": [
                0.07675052663708581,
                -1.0917586727764326,
                1.8127093209835146,
                -0.6585239901595508,
                0.1852418360669108,
                2.947263245819568
            ]
        },
        {
            "positions": [
                0.12273582329486561,
                -1.130797302418926,
                1.956261352859497,
                -0.7002210907564419,
                0.1319586824513117,
                3.0175850288474244
            ]
        }
    ]
}