{
    "goal": {
        "global_pose": {
            "orientation": {
                "w": 0.5084816217422485,
                "x": -0.49083608388900757,
                "y": 0.5182115435600281,
                "z": -0.4816462993621826
            },
            "position": {
                "x": 0.5540239810943604,
                "y": 0.030875300988554955,
                "z": 0.16403168439865112
            }
        },
        "name": "move_to_storage_A"
    },
    "id": "FMT_move_to_storage_A_35",
    "joint_names": [
        "shoulder_pan_joint",
        "shoulder_lift_joint",
        "elbow_joint",
        "wrist_1_joint",
        "wrist_2_joint",
        "wrist_3_joint"
    ],
    "metrics": {
        "cart_traj_len": 0.35343858414727836,
        "distance_elbow_joint": 0.44766734878184744,
        "distance_shoulder_lift_joint": 0.23526256617665875,
        "distance_shoulder_pan_joint": 0.46311826930713557,
        "distance_wrist_1_joint": 0.23517589434477804,
        "distance_wrist_2_joint": 1.0952452196844165,
        "distance_wrist_3_joint": 0.08666631914193923,
        "smoothness": 8.881784232165597e-16,
        "time": 0.381246828,
        "traj_len": 1.6009795805808316,
        "weighted_distance": 2.01665301173748
    },
    "planner": "FMT",
    "start": {
        "state": {
            "elbow_joint": 1.9715463870305268,
            "shoulder_lift_joint": -1.1394903361783484,
            "shoulder_pan_joint": 0.12281147578464417,
            "wrist_1_joint": -0.7804599489681411,
            "wrist_2_joint": 0.12958660307563738,
            "wrist_3_joint": -3.1924946282119055
        }
    },
    "waypoints": [
        {
            "positions": [
                0.12281147578464417,
                -1.1394903361783484,
                1.9715463870305268,
                -0.7804599489681411,
                0.12958660307563738,
                -3.1924946282119055
            ]
        },
        {
            "positions": [
                0.05665172302648196,
                -1.1730992742035853,
                2.0354988654279333,
                -0.8140565053031094,
                0.28605020588769686,
                -3.1801137254773426
            ]
        },
        {
            "positions": [
                -0.00950802973168026,
                -1.2067082122288224,
                2.0994513438253404,
                -0.8476530616380776,
                0.4425138086997563,
                -3.16773282274278
            ]
        },
        {
            "positions": [
                -0.07566778248984248,
                -1.2403171502540593,
                2.163403822222747,
                -0.8812496179730459,
                0.5989774115118158,
                -3.155351920008217
            ]
        },
        {
            "positions": [
                -0.14182753524800468,
                -1.2739260882792962,
                2.227356300620154,
                -0.9148461743080143,
                0.7554410143238753,
                -3.1429710172736547
            ]
        },
        {
            "positions": [
                -0.20798728800616695,
                -1.3075350263045333,
                2.2913087790175606,
                -0.9484427306429826,
                0.9119046171359348,
                -3.1305901145390918
            ]
        },
        {
            "positions": [
                -0.2741470407643291,
                -1.3411439643297702,
                2.355261257414967,
                -0.9820392869779508,
                1.0683682199479942,
                -3.1182092118045293
            ]
        },
        {
            "positions": [
                -0.3403067935224914,
                -1.3747529023550071,
                2.419213735812374,
                -1.0156358433129191,
                1.2248318227600539,
                -3.1058283090699663
            ]
        }
    ]
}