{
    "goal": {
        "global_pose": {
            "orientation": {
                "w": 0.7031023502349854,
                "x": -0.7110244035720825,
                "y": 0.007748599164187908,
                "z": 0.005598929710686207
            },
            "position": {
                "x": 0.11585023208521307,
                "y": 0.44412534475326537,
                "z": 0.3711530566215515
            }
        },
        "name": "move_to_auspresseinheit_A"
    },
    "id": "FMT_move_to_auspresseinheit_A_5",
    "joint_names": [
        "shoulder_pan_joint",
        "shoulder_lift_joint",
        "elbow_joint",
        "wrist_1_joint",
        "wrist_2_joint",
        "wrist_3_joint"
    ],
    "metrics": {
        "cart_traj_len": 1.5008317988815834,
        "distance_elbow_joint": 0.726841870586183,
        "distance_shoulder_lift_joint": 0.8793132372246479,
        "distance_shoulder_pan_joint": 1.9610869942771005,
        "distance_wrist_1_joint": 0.5466887833567897,
        "distance_wrist_2_joint": 0.6498766418930955,
        "distance_wrist_3_joint": 0.31334127309804627,
        "smoothness": 1.0916964184687648,
        "time": 0.918864719,
        "traj_len": 2.2532529375185253,
        "weighted_distance": 2.6268606304640225
    },
    "planner": "FMT",
    "start": {
        "state": {
            "elbow_joint": 2.422574709923281,
            "shoulder_lift_joint": -1.3736533754116391,
            "shoulder_pan_joint": -0.33786336945926293,
            "wrist_1_joint": -1.0288603412921917,
            "wrist_2_joint": 1.2330224858903978,
            "wrist_3_joint": -3.094022268022082
        }
    },
    "waypoints": [
        {
            "positions": [
                -0.33786336945926293,
                -1.3736533754116391,
                2.422574709923281,
                -1.0288603412921917,
                1.2330224858903978,
                -3.094022268022082
            ]
        },
        {
            "positions": [
                -0.41424448236591443,
                -1.4917492570831143,
                2.3599717748710574,
                -0.960138253773041,
                1.2442024979776805,
                -3.1227229787354274
            ]
        },
        {
            "positions": [
                -0.49062559527256594,
                -1.6098451387545896,
                2.297368839818833,
                -0.8914161662538903,
                1.255382510064963,
                -3.151423689448772
            ]
        },
        {
            "positions": [
                -0.5670067081792175,
                -1.7279410204260648,
                2.2347659047666095,
                -0.8226940787347395,
                1.2665625221522456,
                -3.1801244001621174
            ]
        },
        {
            "positions": [
                -0.643387821085869,
                -1.84603690209754,
                2.172162969714386,
                -0.7539719912155889,
                1.2777425342395283,
                -3.2088251108754626
            ]
        },
        {
            "positions": [
                -0.7197689339925205,
                -1.9641327837690152,
                2.1095600346621617,
                -0.6852499036964381,
                1.2889225463268108,
                -3.2375258215888074
            ]
        },
        {
            "positions": [
                -0.796150046899172,
                -2.0822286654404905,
                2.046957099609938,
                -0.6165278161772874,
                1.3001025584140935,
                -3.2662265323021527
            ]
        },
        {
            "positions": [
                -0.608300007294523,
                -2.060886422041016,
                2.090860132144043,
                -0.5997332838970517,
                1.2272529872429185,
                -3.248584406199906
            ]
        },
        {
            "positions": [
                -0.4204499676898741,
                -2.0395441786415414,
                2.134763164678148,
                -0.582938751616816,
                1.1544034160717436,
                -3.2309422800976586
            ]
        },
        {
            "positions": [
                -0.23259992808522512,
                -2.018201935242067,
                2.178666197212253,
                -0.5661442193365803,
                1.0815538449005686,
                -3.213300153995412
            ]
        },
        {
            "positions": [
                -0.04474988848057615,
                -1.9968596918425923,
                2.222569229746358,
                -0.5493496870563447,
                1.0087042737293936,
                -3.195658027893165
            ]
        },
        {
            "positions": [
                0.14310015112407282,
                -1.9755174484431175,
                2.266472262280463,
                -0.5325551547761089,
                0.9358547025582187,
                -3.1780159017909178
            ]
        },
        {
            "positions": [
                0.3309501907287218,
                -1.954175205043643,
                2.310375294814568,
                -0.5157606224958733,
                0.8630051313870437,
                -3.160373775688671
            ]
        },
        {
            "positions": [
                0.5188002303333707,
                -1.9328329616441684,
                2.354278327348673,
                -0.49896609021563765,
                0.7901555602158687,
                -3.1427316495864237
            ]
        },
        {
            "positions": [
                0.7066502699380196,
                -1.9114907182446939,
                2.398181359882778,
                -0.48217155793540195,
                0.7173059890446938,
                -3.125089523484177
            ]
        }
    ]
}