{
    "goal": {
        "global_pose": {
            "orientation": {
                "w": 0.5084816217422485,
                "x": -0.49083608388900757,
                "y": 0.5182115435600281,
                "z": -0.4816462993621826
            },
            "position": {
                "x": 0.5540239810943604,
                "y": 0.030875300988554955,
                "z": 0.16403168439865112
            }
        },
        "name": "move_to_storage_A"
    },
    "id": "FMT_move_to_storage_A_88",
    "joint_names": [
        "shoulder_pan_joint",
        "shoulder_lift_joint",
        "elbow_joint",
        "wrist_1_joint",
        "wrist_2_joint",
        "wrist_3_joint"
    ],
    "metrics": {
        "cart_traj_len": 0.3530064464785525,
        "distance_elbow_joint": 0.450388787402789,
        "distance_shoulder_lift_joint": 0.2330372797243565,
        "distance_shoulder_pan_joint": 0.4621994999971559,
        "distance_wrist_1_joint": 0.24272114189270344,
        "distance_wrist_2_joint": 1.0958758136086073,
        "distance_wrist_3_joint": 0.08900697653795797,
        "smoothness": 0.0,
        "time": 0.372423608,
        "traj_len": 1.6041288910694083,
        "weighted_distance": 2.02233538458407
    },
    "planner": "FMT",
    "start": {
        "state": {
            "elbow_joint": 1.9715463870305268,
            "shoulder_lift_joint": -1.1394903361783484,
            "shoulder_pan_joint": 0.12281147578464417,
            "wrist_1_joint": -0.7804599489681411,
            "wrist_2_joint": 0.12958660307563738,
            "wrist_3_joint": -3.1924946282119055
        }
    },
    "waypoints": [
        {
            "positions": [
                0.12281147578464417,
                -1.1394903361783484,
                1.9715463870305268,
                -0.7804599489681411,
                0.12958660307563738,
                -3.1924946282119055
            ]
        },
        {
            "positions": [
                0.05678297578505047,
                -1.1727813761389707,
                2.0358876423737824,
                -0.8151343978099559,
                0.2861402907340098,
                -3.17977934584934
            ]
        },
        {
            "positions": [
                -0.009245524214543235,
                -1.206072416099593,
                2.100228897717038,
                -0.8498088466517706,
                0.44269397839238234,
                -3.167064063486775
            ]
        },
        {
            "positions": [
                -0.07527402421413694,
                -1.2393634560602154,
                2.1645701530602937,
                -0.8844832954935854,
                0.5992476660507547,
                -3.1543487811242095
            ]
        },
        {
            "positions": [
                -0.14130252421373063,
                -1.272654496020838,
                2.228911408403549,
                -0.9191577443354002,
                0.7558013537091273,
                -3.1416334987616437
            ]
        },
        {
            "positions": [
                -0.20733102421332433,
                -1.3059455359814602,
                2.2932526637468045,
                -0.9538321931772149,
                0.9123550413674998,
                -3.1289182163990783
            ]
        },
        {
            "positions": [
                -0.27335952421291804,
                -1.3392365759420826,
                2.35759391909006,
                -0.9885066420190297,
                1.068908729025872,
                -3.116202934036513
            ]
        },
        {
            "positions": [
                -0.33938802421251174,
                -1.372527615902705,
                2.4219351744333157,
                -1.0231810908608445,
                1.2254624166842447,
                -3.1034876516739476
            ]
        }
    ]
}