{
    "goal": {
        "global_pose": {
            "orientation": {
                "w": 0.7047431468963623,
                "x": -0.7094548344612122,
                "y": 0.0024358443915843964,
                "z": -0.0022348060738295317
            },
            "position": {
                "x": 0.6094750761985779,
                "y": 0.3671506643295288,
                "z": 0.19426114857196808
            }
        },
        "name": "move_to_magneteinheit_A"
    },
    "id": "FMT_move_to_magneteinheit_A_19",
    "joint_names": [
        "shoulder_pan_joint",
        "shoulder_lift_joint",
        "elbow_joint",
        "wrist_1_joint",
        "wrist_2_joint",
        "wrist_3_joint"
    ],
    "metrics": {
        "cart_traj_len": 2.431857413488054,
        "distance_elbow_joint": 3.8717413909228466,
        "distance_shoulder_lift_joint": 1.0521645719753352,
        "distance_shoulder_pan_joint": 1.2423424856188947,
        "distance_wrist_1_joint": 1.1223722157320455,
        "distance_wrist_2_joint": 1.4401160018200136,
        "distance_wrist_3_joint": 4.381605491518595,
        "smoothness": 3.806478942749383e-16,
        "time": 1.2702804460000001,
        "traj_len": 3.620820646978766,
        "weighted_distance": 4.94328244774431
    },
    "planner": "FMT",
    "start": {
        "state": {
            "elbow_joint": -1.919643507792019,
            "shoulder_lift_joint": -0.07675430207160344,
            "shoulder_pan_joint": -1.1188671864651873,
            "wrist_1_joint": 0.42560062535961957,
            "wrist_2_joint": 1.5706038300724876,
            "wrist_3_joint": 1.1188968870953055
        }
    },
    "waypoints": [
        {
            "positions": [
                -1.1188671864651873,
                -0.07675430207160344,
                -1.919643507792019,
                0.42560062535961957,
                1.5706038300724876,
                1.1188968870953055
            ]
        },
        {
            "positions": [
                -1.0746011419943178,
                -0.09202767188090892,
                -1.8044555126576631,
                0.3864469441923739,
                1.5348509118083744,
                0.9790006837817653
            ]
        },
        {
            "positions": [
                -1.030335097523448,
                -0.1073010416902144,
                -1.689267517523307,
                0.3472932630251282,
                1.4990979935442612,
                0.8391044804682251
            ]
        },
        {
            "positions": [
                -0.9860690530525784,
                -0.12257441149951986,
                -1.574079522388951,
                0.3081395818578826,
                1.463345075280148,
                0.6992082771546849
            ]
        },
        {
            "positions": [
                -0.9418030085817088,
                -0.13784778130882536,
                -1.458891527254595,
                0.2689859006906369,
                1.4275921570160348,
                0.5593120738411447
            ]
        },
        {
            "positions": [
                -0.8975369641108392,
                -0.15312115111813082,
                -1.343703532120239,
                0.22983221952339122,
                1.3918392387519216,
                0.41941587052760443
            ]
        },
        {
            "positions": [
                -0.8532709196399695,
                -0.1683945209274363,
                -1.228515536985883,
                0.19067853835614557,
                1.3560863204878086,
                0.2795196672140643
            ]
        },
        {
            "positions": [
                -0.8090048751690999,
                -0.18366789073674178,
                -1.1133275418515267,
                0.15152485718889985,
                1.3203334022236954,
                0.13962346390052394
            ]
        },
        {
            "positions": [
                -0.7647388306982302,
                -0.19894126054604724,
                -0.9981395467171709,
                0.1123711760216542,
                1.2845804839595822,
                -0.00027273941301619864
            ]
        },
        {
            "positions": [
                -0.7204727862273606,
                -0.2142146303553527,
                -0.8829515515828148,
                0.07321749485440854,
                1.248827565695469,
                -0.14016894272655644
            ]
        },
        {
            "positions": [
                -0.676206741756491,
                -0.2294880001646582,
                -0.7677635564484588,
                0.03406381368716288,
                1.2130746474313558,
                -0.2800651460400967
            ]
        },
        {
            "positions": [
                -0.6319406972856213,
                -0.24476136997396367,
                -0.6525755613141027,
                -0.005089867480082777,
                1.1773217291672426,
                -0.41996134935363694
            ]
        },
        {
            "positions": [
                -0.5876746528147516,
                -0.26003473978326913,
                -0.5373875661797467,
                -0.044243548647328435,
                1.1415688109031294,
                -0.559857552667177
            ]
        },
        {
            "positions": [
                -0.543408608343882,
                -0.2753081095925746,
                -0.42219957104539074,
                -0.08339722981457415,
                1.1058158926390163,
                -0.6997537559807174
            ]
        },
        {
            "positions": [
                -0.49914256387301237,
                -0.2905814794018801,
                -0.30701157591103456,
                -0.12255091098181986,
                1.070062974374903,
                -0.8396499592942577
            ]
        },
        {
            "positions": [
                -0.4548765194021428,
                -0.30585484921118555,
                -0.1918235807766786,
                -0.16170459214906546,
                1.0343100561107899,
                -0.9795461626077975
            ]
        },
        {
            "positions": [
                -0.4106104749312731,
                -0.32112821902049105,
                -0.07663558564232265,
                -0.20085827331631118,
                0.9985571378466767,
                -1.119442365921338
            ]
        },
        {
            "positions": [
                -0.36634443046040344,
                -0.33640158882979654,
                0.038552409492033535,
                -0.2400119544835569,
                0.9628042195825635,
                -1.2593385692348784
            ]
        },
        {
            "positions": [
                -0.32207838598953387,
                -0.351674958639102,
                0.1537404046263895,
                -0.2791656356508025,
                0.9270513013184504,
                -1.3992347725484184
            ]
        },
        {
            "positions": [
                -0.2778123415186642,
                -0.36694832844840747,
                0.26892839976074545,
                -0.3183193168180481,
                0.8912983830543372,
                -1.5391309758619585
            ]
        },
        {
            "positions": [
                -0.2335462970477945,
                -0.38222169825771296,
                0.3841163948951014,
                -0.3574729979852938,
                0.855545464790224,
                -1.679027179175499
            ]
        },
        {
            "positions": [
                -0.18928025257692493,
                -0.3974950680670184,
                0.49930439002945737,
                -0.3966266791525394,
                0.8197925465261109,
                -1.818923382489039
            ]
        },
        {
            "positions": [
                -0.14501420810605525,
                -0.4127684378763239,
                0.6144923851638138,
                -0.4357803603197851,
                0.7840396282619976,
                -1.9588195858025794
            ]
        },
        {
            "positions": [
                -0.10074816363518546,
                -0.4280418076856294,
                0.7296803802981697,
                -0.47493404148703083,
                0.7482867099978844,
                -2.0987157891161194
            ]
        },
        {
            "positions": [
                -0.05648211916431589,
                -0.4433151774949348,
                0.8448683754325257,
                -0.5140877226542764,
                0.7125337917337713,
                -2.2386119924296595
            ]
        },
        {
            "positions": [
                -0.01221607469344621,
                -0.4585885473042403,
                0.9600563705668819,
                -0.5532414038215221,
                0.6767808734696581,
                -2.3785081957432
            ]
        },
        {
            "positions": [
                0.0028607446229041676,
                -0.5330696947200957,
                1.070283205296209,
                -0.5691892023271781,
                0.6160816462233044,
                -2.4767526855965434
            ]
        },
        {
            "positions": [
                0.017937563939254546,
                -0.607550842135951,
                1.1805100400255364,
                -0.585137000832834,
                0.5553824189769506,
                -2.574997175449887
            ]
        },
        {
            "positions": [
                0.03301438325560492,
                -0.6820319895518064,
                1.2907368747548635,
                -0.6010847993384899,
                0.49468319173059694,
                -2.6732416653032303
            ]
        },
        {
            "positions": [
                0.0480912025719553,
                -0.7565131369676618,
                1.4009637094841907,
                -0.6170325978441459,
                0.43398396448424315,
                -2.7714861551565733
            ]
        },
        {
            "positions": [
                0.06316802188830568,
                -0.8309942843835172,
                1.511190544213518,
                -0.6329803963498019,
                0.3732847372378894,
                -2.869730645009917
            ]
        },
        {
            "positions": [
                0.07824484120465605,
                -0.9054754317993725,
                1.6214173789428452,
                -0.6489281948554578,
                0.3125855099915357,
                -2.96797513486326
            ]
        },
        {
            "positions": [
                0.09332166052100645,
                -0.9799565792152278,
                1.7316442136721726,
                -0.6648759933611137,
                0.251886282745182,
                -3.0662196247166036
            ]
        },
        {
            "positions": [
                0.10839847983735681,
                -1.0544377266310831,
                1.8418710484014995,
                -0.6808237918667697,
                0.19118705549882825,
                -3.164464114569947
            ]
        },
        {
            "positions": [
                0.12347529915370721,
                -1.1289188740469387,
                1.9520978831308269,
                -0.6967715903724256,
                0.13048782825247454,
                -3.2627086044232905
            ]
        }
    ]
}