{
    "goal": {
        "global_pose": {
            "orientation": {
                "w": 0.5084816217422485,
                "x": -0.49083608388900757,
                "y": 0.5182115435600281,
                "z": -0.4816462993621826
            },
            "position": {
                "x": 0.5540239810943604,
                "y": 0.030875300988554955,
                "z": 0.16403168439865112
            }
        },
        "name": "move_to_storage_A"
    },
    "id": "FMT_move_to_storage_A_41",
    "joint_names": [
        "shoulder_pan_joint",
        "shoulder_lift_joint",
        "elbow_joint",
        "wrist_1_joint",
        "wrist_2_joint",
        "wrist_3_joint"
    ],
    "metrics": {
        "cart_traj_len": 0.35232751727370365,
        "distance_elbow_joint": 0.449819720438164,
        "distance_shoulder_lift_joint": 0.23246607826304433,
        "distance_shoulder_pan_joint": 0.4613665127363457,
        "distance_wrist_1_joint": 0.2463630269613043,
        "distance_wrist_2_joint": 1.0935024814319974,
        "distance_wrist_3_joint": 0.0915854625778274,
        "smoothness": 8.881784197001252e-16,
        "time": 0.40837040599999996,
        "traj_len": 1.6047128348737922,
        "weighted_distance": 2.024386256611529
    },
    "planner": "FMT",
    "start": {
        "state": {
            "elbow_joint": 1.9715463870305268,
            "shoulder_lift_joint": -1.1394903361783484,
            "shoulder_pan_joint": 0.12281147578464417,
            "wrist_1_joint": -0.7804599489681411,
            "wrist_2_joint": 0.12958660307563738,
            "wrist_3_joint": -3.1924946282119055
        }
    },
    "waypoints": [
        {
            "positions": [
                0.12281147578464417,
                -1.1394903361783484,
                1.9715463870305268,
                -0.7804599489681411,
                0.12958660307563738,
                -3.1924946282119055
            ]
        },
        {
            "positions": [
                0.05690197396516622,
                -1.1726997759302118,
                2.035806347093122,
                -0.8156546671054703,
                0.2858012432802084,
                -3.1794109907007875
            ]
        },
        {
            "positions": [
                -0.009007527854311734,
                -1.2059092156820754,
                2.1000663071557164,
                -0.8508493852427994,
                0.4420158834847795,
                -3.166327353189669
            ]
        },
        {
            "positions": [
                -0.0749170296737897,
                -1.2391186554339388,
                2.1643262672183115,
                -0.8860441033801286,
                0.5982305236893505,
                -3.153243715678551
            ]
        },
        {
            "positions": [
                -0.14082653149326763,
                -1.2723280951858023,
                2.228586227280906,
                -0.9212388215174578,
                0.7544451638939216,
                -3.140160078167433
            ]
        },
        {
            "positions": [
                -0.2067360333127456,
                -1.3055375349376659,
                2.292846187343501,
                -0.956433539654787,
                0.9106598040984927,
                -3.1270764406563147
            ]
        },
        {
            "positions": [
                -0.27264553513222356,
                -1.3387469746895293,
                2.3571061474060957,
                -0.9916282577921162,
                1.0668744443030636,
                -3.113992803145196
            ]
        },
        {
            "positions": [
                -0.3385550369517015,
                -1.3719564144413927,
                2.4213661074686907,
                -1.0268229759294454,
                1.2230890845076348,
                -3.100909165634078
            ]
        }
    ]
}