{
    "goal": {
        "global_pose": {
            "orientation": {
                "w": 0.5084816217422485,
                "x": -0.49083608388900757,
                "y": 0.5182115435600281,
                "z": -0.4816462993621826
            },
            "position": {
                "x": 0.5540239810943604,
                "y": 0.030875300988554955,
                "z": 0.16403168439865112
            }
        },
        "name": "move_to_storage_A"
    },
    "id": "FMT_move_to_storage_A_53",
    "joint_names": [
        "shoulder_pan_joint",
        "shoulder_lift_joint",
        "elbow_joint",
        "wrist_1_joint",
        "wrist_2_joint",
        "wrist_3_joint"
    ],
    "metrics": {
        "cart_traj_len": 0.3532522267989149,
        "distance_elbow_joint": 0.4494872608283913,
        "distance_shoulder_lift_joint": 0.23519268087480483,
        "distance_shoulder_pan_joint": 0.46146247130631196,
        "distance_wrist_1_joint": 0.2382884457686688,
        "distance_wrist_2_joint": 1.1016296971168829,
        "distance_wrist_3_joint": 0.08658947420353691,
        "smoothness": 2.2204460668324854e-16,
        "time": 0.503676029,
        "traj_len": 1.6039482629120545,
        "weighted_distance": 2.021323111575985
    },
    "planner": "FMT",
    "start": {
        "state": {
            "elbow_joint": 1.9715463870305268,
            "shoulder_lift_joint": -1.1394903361783484,
            "shoulder_pan_joint": 0.12281147578464417,
            "wrist_1_joint": -0.7804599489681411,
            "wrist_2_joint": 0.12958660307563738,
            "wrist_3_joint": -3.1924946282119055
        }
    },
    "waypoints": [
        {
            "positions": [
                0.12281147578464417,
                -1.1394903361783484,
                1.9715463870305268,
                -0.7804599489681411,
                0.12958660307563738,
                -3.1924946282119055
            ]
        },
        {
            "positions": [
                0.056888265598028176,
                -1.1730892905890349,
                2.0357588528631543,
                -0.8145011555065224,
                0.28696227409233493,
                -3.180124703325686
            ]
        },
        {
            "positions": [
                -0.00903494458858782,
                -1.2066882449997212,
                2.0999713186957814,
                -0.8485423620449036,
                0.44433794510903246,
                -3.1677547784394666
            ]
        },
        {
            "positions": [
                -0.0749581547752038,
                -1.2402871994104077,
                2.164183784528409,
                -0.8825835685832848,
                0.60171361612573,
                -3.155384853553247
            ]
        },
        {
            "positions": [
                -0.1408813649618198,
                -1.273886153821094,
                2.228396250361036,
                -0.9166247751216661,
                0.7590892871424276,
                -3.1430149286670273
            ]
        },
        {
            "positions": [
                -0.2068045751484358,
                -1.3074851082317804,
                2.2926087161936635,
                -0.9506659816600473,
                0.9164649581591252,
                -3.1306450037808076
            ]
        },
        {
            "positions": [
                -0.27272778533505176,
                -1.3410840626424667,
                2.3568211820262905,
                -0.9847071881984286,
                1.0738406291758227,
                -3.1182750788945883
            ]
        },
        {
            "positions": [
                -0.3386509955216678,
                -1.3746830170531532,
                2.421033647858918,
                -1.01874839473681,
                1.2312163001925203,
                -3.1059051540083686
            ]
        }
    ]
}