{
    "goal": {
        "global_pose": {
            "orientation": {
                "w": -0.00223480608172531,
                "x": 0.0024358444001904467,
                "y": 0.7094548369677653,
                "z": -0.704743149386269
            },
            "position": {
                "x": 0.6205249238014221,
                "y": -0.6371506643295288,
                "z": 0.19426114857196808
            }
        },
        "name": "move_to_magneteinheit_B"
    },
    "id": "FMT_move_to_magneteinheit_B_129",
    "joint_names": [
        "shoulder_pan_joint",
        "shoulder_lift_joint",
        "elbow_joint",
        "wrist_1_joint",
        "wrist_2_joint",
        "wrist_3_joint"
    ],
    "metrics": {
        "cart_traj_len": 1.4527113855841947,
        "distance_elbow_joint": 0.7298746389784134,
        "distance_shoulder_lift_joint": 1.247610204987582,
        "distance_shoulder_pan_joint": 1.6220184478232402,
        "distance_wrist_1_joint": 2.604576723290992,
        "distance_wrist_2_joint": 2.936617134723704,
        "distance_wrist_3_joint": 3.143051198526012,
        "smoothness": 4.84460958517876e-16,
        "time": 1.356707732,
        "traj_len": 3.50481787662782,
        "weighted_distance": 4.9102998486239775
    },
    "planner": "FMT",
    "start": {
        "state": {
            "elbow_joint": 2.39358713078474,
            "shoulder_lift_joint": -1.908514104345545,
            "shoulder_pan_joint": 0.7066247066606129,
            "wrist_1_joint": -0.4678290933515497,
            "wrist_2_joint": 0.7096259083745334,
            "wrist_3_joint": -3.1358149277392293
        }
    },
    "waypoints": [
        {
            "positions": [
                0.7066247066606129,
                -1.908514104345545,
                2.39358713078474,
                -0.4678290933515497,
                0.7096259083745334,
                -3.1358149277392293
            ]
        },
        {
            "positions": [
                0.6559366301661367,
                -1.869526285439683,
                2.3707785483166646,
                -0.38643607074870623,
                0.6178566229144177,
                -3.0375945777852915
            ]
        },
        {
            "positions": [
                0.6052485536716604,
                -1.8305384665338211,
                2.347969965848589,
                -0.3050430481458627,
                0.5260873374543019,
                -2.9393742278313537
            ]
        },
        {
            "positions": [
                0.5545604771771842,
                -1.791550647627959,
                2.3251613833805136,
                -0.2236500255430192,
                0.4343180519941862,
                -2.8411538778774155
            ]
        },
        {
            "positions": [
                0.5038724006827079,
                -1.7525628287220971,
                2.3023528009124385,
                -0.14225700294017568,
                0.34254876653407046,
                -2.7429335279234777
            ]
        },
        {
            "positions": [
                0.4531843241882317,
                -1.7135750098162352,
                2.279544218444363,
                -0.060863980337332146,
                0.2507794810739547,
                -2.64471317796954
            ]
        },
        {
            "positions": [
                0.4024962476937554,
                -1.6745871909103733,
                2.2567356359762876,
                0.020529042265511332,
                0.159010195613839,
                -2.546492828015602
            ]
        },
        {
            "positions": [
                0.35180817119927915,
                -1.6355993720045114,
                2.233927053508212,
                0.10192206486835481,
                0.06724091015372324,
                -2.4482724780616643
            ]
        },
        {
            "positions": [
                0.3011200947048029,
                -1.5966115530986493,
                2.2111184710401366,
                0.18331508747119835,
                -0.024528375306392514,
                -2.3500521281077265
            ]
        },
        {
            "positions": [
                0.2504320182103266,
                -1.5576237341927874,
                2.188309888572061,
                0.2647081100740419,
                -0.11629766076650827,
                -2.2518317781537887
            ]
        },
        {
            "positions": [
                0.19974394171585041,
                -1.5186359152869255,
                2.165501306103986,
                0.3461011326768854,
                -0.20806694622662403,
                -2.1536114281998504
            ]
        },
        {
            "positions": [
                0.14905586522137415,
                -1.4796480963810636,
                2.1426927236359106,
                0.42749415527972884,
                -0.2998362316867397,
                -2.055391078245913
            ]
        },
        {
            "positions": [
                0.09836778872689789,
                -1.4406602774752018,
                2.119884141167835,
                0.5088871778825723,
                -0.39160551714685543,
                -1.9571707282919748
            ]
        },
        {
            "positions": [
                0.04767971223242162,
                -1.4016724585693399,
                2.0970755586997596,
                0.590280200485416,
                -0.4833748026069712,
                -1.858950378338037
            ]
        },
        {
            "positions": [
                -0.0030083642620546414,
                -1.362684639663478,
                2.074266976231684,
                0.6716732230882594,
                -0.575144088067087,
                -1.7607300283840992
            ]
        },
        {
            "positions": [
                -0.053696440756530905,
                -1.3236968207576159,
                2.0514583937636086,
                0.753066245691103,
                -0.6669133735272027,
                -1.6625096784301612
            ]
        },
        {
            "positions": [
                -0.10438451725100717,
                -1.284709001851754,
                2.0286498112955336,
                0.8344592682939465,
                -0.7586826589873185,
                -1.5642893284762234
            ]
        },
        {
            "positions": [
                -0.15507259374548343,
                -1.245721182945892,
                2.005841228827458,
                0.9158522908967899,
                -0.8504519444474342,
                -1.4660689785222856
            ]
        },
        {
            "positions": [
                -0.2057606702399597,
                -1.20673336404003,
                1.9830326463593826,
                0.9972453134996335,
                -0.94222122990755,
                -1.3678486285683475
            ]
        },
        {
            "positions": [
                -0.25644874673443596,
                -1.167745545134168,
                1.960224063891307,
                1.078638336102477,
                -1.0339905153676656,
                -1.2696282786144097
            ]
        },
        {
            "positions": [
                -0.3071368232289121,
                -1.1287577262283062,
                1.9374154814232316,
                1.1600313587053206,
                -1.1257598008277814,
                -1.171407928660472
            ]
        },
        {
            "positions": [
                -0.3578248997233885,
                -1.0897699073224443,
                1.9146068989551561,
                1.241424381308164,
                -1.2175290862878971,
                -1.0731875787065341
            ]
        },
        {
            "positions": [
                -0.40851297621786464,
                -1.0507820884165824,
                1.8917983164870809,
                1.3228174039110074,
                -1.309298371748013,
                -0.9749672287525963
            ]
        },
        {
            "positions": [
                -0.459201052712341,
                -1.0117942695107205,
                1.8689897340190054,
                1.404210426513851,
                -1.4010676572081286,
                -0.8767468787986581
            ]
        },
        {
            "positions": [
                -0.5098891292068172,
                -0.9728064506048585,
                1.84618115155093,
                1.4856034491166945,
                -1.4928369426682444,
                -0.7785265288447203
            ]
        },
        {
            "positions": [
                -0.5605772057012935,
                -0.9338186316989966,
                1.8233725690828546,
                1.5669964717195382,
                -1.5846062281283602,
                -0.6803061788907825
            ]
        },
        {
            "positions": [
                -0.6112652821957697,
                -0.8948308127931346,
                1.8005639866147791,
                1.6483894943223816,
                -1.676375513588476,
                -0.5820858289368447
            ]
        },
        {
            "positions": [
                -0.6619533586902461,
                -0.8558429938872727,
                1.7777554041467036,
                1.729782516925225,
                -1.7681447990485917,
                -0.4838654789829069
            ]
        },
        {
            "positions": [
                -0.7126414351847222,
                -0.8168551749814108,
                1.7549468216786284,
                1.8111755395280684,
                -1.8599140845087074,
                -0.3856451290289691
            ]
        },
        {
            "positions": [
                -0.7633295116791986,
                -0.7778673560755489,
                1.7321382392105529,
                1.8925685621309118,
                -1.9516833699688232,
                -0.28742477907503083
            ]
        },
        {
            "positions": [
                -0.8140175881736748,
                -0.7388795371696868,
                1.7093296567424776,
                1.9739615847337557,
                -2.043452655428939,
                -0.18920442912109303
            ]
        },
        {
            "positions": [
                -0.8647056646681511,
                -0.6998917182638249,
                1.6865210742744021,
                2.055354607336599,
                -2.1352219408890547,
                -0.09098407916715523
            ]
        },
        {
            "positions": [
                -0.9153937411626273,
                -0.660903899357963,
                1.6637124918063266,
                2.1367476299394426,
                -2.2269912263491705,
                0.0072362707867826455
            ]
        }
    ]
}