{
    "goal": {
        "global_pose": {
            "orientation": {
                "w": -0.00223480608172531,
                "x": 0.0024358444001904467,
                "y": 0.7094548369677653,
                "z": -0.704743149386269
            },
            "position": {
                "x": 0.6205249238014221,
                "y": -0.6371506643295288,
                "z": 0.19426114857196808
            }
        },
        "name": "move_to_magneteinheit_B"
    },
    "id": "FMT_move_to_magneteinheit_B_102",
    "joint_names": [
        "shoulder_pan_joint",
        "shoulder_lift_joint",
        "elbow_joint",
        "wrist_1_joint",
        "wrist_2_joint",
        "wrist_3_joint"
    ],
    "metrics": {
        "cart_traj_len": 1.4541202367170478,
        "distance_elbow_joint": 0.7308213254402711,
        "distance_shoulder_lift_joint": 1.2492457323897392,
        "distance_shoulder_pan_joint": 1.6209012605071988,
        "distance_wrist_1_joint": 2.610019586299529,
        "distance_wrist_2_joint": 2.940177602520736,
        "distance_wrist_3_joint": 3.132083246714778,
        "smoothness": 1.6148698667872622e-16,
        "time": 1.382474239,
        "traj_len": 3.504746603375522,
        "weighted_distance": 4.9089319037976145
    },
    "planner": "FMT",
    "start": {
        "state": {
            "elbow_joint": 2.39358713078474,
            "shoulder_lift_joint": -1.908514104345545,
            "shoulder_pan_joint": 0.7066247066606129,
            "wrist_1_joint": -0.4678290933515497,
            "wrist_2_joint": 0.7096259083745334,
            "wrist_3_joint": -3.1358149277392293
        }
    },
    "waypoints": [
        {
            "positions": [
                0.7066247066606129,
                -1.908514104345545,
                2.39358713078474,
                -0.4678290933515497,
                0.7096259083745334,
                -3.1358149277392293
            ]
        },
        {
            "positions": [
                0.655971542269763,
                -1.8694751752083656,
                2.3707489643647315,
                -0.3862659812796894,
                0.6177453582957604,
                -3.0379373262793923
            ]
        },
        {
            "positions": [
                0.6053183778789131,
                -1.8304362460711863,
                2.347910797944723,
                -0.3047028692078292,
                0.5258648082169874,
                -2.9400597248195557
            ]
        },
        {
            "positions": [
                0.5546652134880631,
                -1.791397316934007,
                2.3250726315247148,
                -0.2231397571359689,
                0.43398425813821445,
                -2.842182123359719
            ]
        },
        {
            "positions": [
                0.5040120490972131,
                -1.7523583877968276,
                2.302234465104706,
                -0.1415766450641086,
                0.34210370805944146,
                -2.744304521899882
            ]
        },
        {
            "positions": [
                0.4533588847063631,
                -1.713319458659648,
                2.2793962986846976,
                -0.06001353299224832,
                0.25022315798066846,
                -2.646426920440045
            ]
        },
        {
            "positions": [
                0.40270572031551316,
                -1.6742805295224688,
                2.256558132264689,
                0.021549579079611914,
                0.15834260790189547,
                -2.5485493189802084
            ]
        },
        {
            "positions": [
                0.3520525559246632,
                -1.6352416003852894,
                2.233719965844681,
                0.1031126911514722,
                0.06646205782312242,
                -2.450671717520372
            ]
        },
        {
            "positions": [
                0.30139939153381323,
                -1.59620267124811,
                2.2108817994246723,
                0.1846758032233325,
                -0.025418492255650516,
                -2.352794116060535
            ]
        },
        {
            "positions": [
                0.25074622714296324,
                -1.5571637421109308,
                2.1880436330046638,
                0.2662389152951928,
                -0.11729904233442345,
                -2.2549165146006978
            ]
        },
        {
            "positions": [
                0.20009306275211325,
                -1.5181248129737515,
                2.165205466584655,
                0.34780202736705307,
                -0.2091795924131965,
                -2.157038913140861
            ]
        },
        {
            "positions": [
                0.14943989836126337,
                -1.479085883836572,
                2.142367300164647,
                0.42936513943891336,
                -0.30106014249196955,
                -2.0591613116810246
            ]
        },
        {
            "positions": [
                0.09878673397041338,
                -1.4400469546993926,
                2.1195291337446385,
                0.5109282515107736,
                -0.3929406925707425,
                -1.9612837102211875
            ]
        },
        {
            "positions": [
                0.048133569579563384,
                -1.4010080255622133,
                2.09669096732463,
                0.5924913635826339,
                -0.4848212426495154,
                -1.8634061087613507
            ]
        },
        {
            "positions": [
                -0.0025195948112864963,
                -1.361969096425034,
                2.0738528009046213,
                0.6740544756544942,
                -0.5767017927282886,
                -1.765528507301514
            ]
        },
        {
            "positions": [
                -0.05317275920213649,
                -1.3229301672878546,
                2.0510146344846127,
                0.7556175877263545,
                -0.6685823428070615,
                -1.667650905841677
            ]
        },
        {
            "positions": [
                -0.10382592359298648,
                -1.2838912381506753,
                2.0281764680646046,
                0.8371806997982147,
                -0.7604628928858345,
                -1.5697733043818403
            ]
        },
        {
            "positions": [
                -0.15447908798383647,
                -1.244852309013496,
                2.005338301644596,
                0.918743811870075,
                -0.8523434429646074,
                -1.4718957029220034
            ]
        },
        {
            "positions": [
                -0.20513225237468646,
                -1.2058133798763166,
                1.9825001352245875,
                1.0003069239419353,
                -0.9442239930433803,
                -1.3740181014621666
            ]
        },
        {
            "positions": [
                -0.25578541676553634,
                -1.1667744507391373,
                1.959661968804579,
                1.0818700360137956,
                -1.0361045431221534,
                -1.2761405000023298
            ]
        },
        {
            "positions": [
                -0.30643858115638645,
                -1.127735521601958,
                1.9368238023845707,
                1.163433148085656,
                -1.1279850932009263,
                -1.178262898542493
            ]
        },
        {
            "positions": [
                -0.35709174554723633,
                -1.0886965924647787,
                1.9139856359645622,
                1.2449962601575162,
                -1.2198656432796993,
                -1.080385297082656
            ]
        },
        {
            "positions": [
                -0.4077449099380862,
                -1.0496576633275991,
                1.8911474695445536,
                1.3265593722293765,
                -1.3117461933584726,
                -0.9825076956228194
            ]
        },
        {
            "positions": [
                -0.4583980743289363,
                -1.0106187341904198,
                1.8683093031245452,
                1.4081224843012368,
                -1.4036267434372456,
                -0.8846300941629828
            ]
        },
        {
            "positions": [
                -0.5090512387197862,
                -0.9715798050532405,
                1.8454711367045367,
                1.4896855963730968,
                -1.4955072935160185,
                -0.7867524927031457
            ]
        },
        {
            "positions": [
                -0.5597044031106361,
                -0.9325408759160612,
                1.8226329702845283,
                1.5712487084449571,
                -1.5873878435947915,
                -0.6888748912433087
            ]
        },
        {
            "positions": [
                -0.6103575675014862,
                -0.8935019467788818,
                1.7997948038645197,
                1.6528118205168174,
                -1.6792683936735644,
                -0.5909972897834721
            ]
        },
        {
            "positions": [
                -0.6610107318923361,
                -0.8544630176417025,
                1.7769566374445112,
                1.7343749325886777,
                -1.7711489437523373,
                -0.4931196883236355
            ]
        },
        {
            "positions": [
                -0.7116638962831859,
                -0.815424088504523,
                1.7541184710245028,
                1.815938044660538,
                -1.8630294938311107,
                -0.39524208686379847
            ]
        },
        {
            "positions": [
                -0.762317060674036,
                -0.7763851593673436,
                1.7312803046044944,
                1.8975011567323983,
                -1.9549100439098837,
                -0.29736448540396143
            ]
        },
        {
            "positions": [
                -0.8129702250648859,
                -0.7373462302301643,
                1.7084421381844859,
                1.9790642688042586,
                -2.0467905939886566,
                -0.19948688394412484
            ]
        },
        {
            "positions": [
                -0.863623389455736,
                -0.698307301092985,
                1.6856039717644773,
                2.060627380876119,
                -2.1386711440674295,
                -0.10160928248428824
            ]
        },
        {
            "positions": [
                -0.9142765538465859,
                -0.6592683719558058,
                1.662765805344469,
                2.142190492947979,
                -2.2305516941462025,
                -0.0037316810244510602
            ]
        }
    ]
}