{
    "goal": {
        "global_pose": {
            "orientation": {
                "w": -0.00223480608172531,
                "x": 0.0024358444001904467,
                "y": 0.7094548369677653,
                "z": -0.704743149386269
            },
            "position": {
                "x": 0.6205249238014221,
                "y": -0.6371506643295288,
                "z": 0.19426114857196808
            }
        },
        "name": "move_to_magneteinheit_B"
    },
    "id": "FMT_move_to_magneteinheit_B_99",
    "joint_names": [
        "shoulder_pan_joint",
        "shoulder_lift_joint",
        "elbow_joint",
        "wrist_1_joint",
        "wrist_2_joint",
        "wrist_3_joint"
    ],
    "metrics": {
        "cart_traj_len": 3.7246759649526635,
        "distance_elbow_joint": 4.044228977364361,
        "distance_shoulder_lift_joint": 0.8372297068433152,
        "distance_shoulder_pan_joint": 2.469093897534064,
        "distance_wrist_1_joint": 3.4651648328560363,
        "distance_wrist_2_joint": 1.7357450825856513,
        "distance_wrist_3_joint": 0.742798437845297,
        "smoothness": 0.4918363641759433,
        "time": 1.4056474239999999,
        "traj_len": 3.646129582863002,
        "weighted_distance": 4.4699852042440815
    },
    "planner": "FMT",
    "start": {
        "state": {
            "elbow_joint": 2.39358713078474,
            "shoulder_lift_joint": -1.908514104345545,
            "shoulder_pan_joint": 0.7066247066606129,
            "wrist_1_joint": -0.4678290933515497,
            "wrist_2_joint": 0.7096259083745334,
            "wrist_3_joint": -3.1358149277392293
        }
    },
    "waypoints": [
        {
            "positions": [
                0.7066247066606129,
                -1.908514104345545,
                2.39358713078474,
                -0.4678290933515497,
                0.7096259083745334,
                -3.1358149277392293
            ]
        },
        {
            "positions": [
                0.8520548399076917,
                -1.9377887533444518,
                2.379573101982212,
                -0.3623361593201363,
                0.6340545552723454,
                -3.1145213791418542
            ]
        },
        {
            "positions": [
                0.9974849731547706,
                -1.9670634023433589,
                2.3655590731796843,
                -0.25684322528872294,
                0.5584832021701575,
                -3.093227830544479
            ]
        },
        {
            "positions": [
                1.1429151064018495,
                -1.9963380513422657,
                2.3515450443771564,
                -0.1513502912573096,
                0.48291184906796947,
                -3.071934281947104
            ]
        },
        {
            "positions": [
                1.288345239648928,
                -2.025612700341173,
                2.337531015574628,
                -0.04585735722589618,
                0.4073404959657815,
                -3.050640733349729
            ]
        },
        {
            "positions": [
                1.433775372896007,
                -2.05488734934008,
                2.3235169867721,
                0.05963557680551729,
                0.3317691428635935,
                -3.029347184752354
            ]
        },
        {
            "positions": [
                1.5792055061430856,
                -2.0841619983389865,
                2.3095029579695723,
                0.16512851083693053,
                0.2561977897614055,
                -3.008053636154979
            ]
        },
        {
            "positions": [
                1.7246356393901647,
                -2.1134366473378936,
                2.2954889291670444,
                0.270621444868344,
                0.18062643665921752,
                -2.9867600875576037
            ]
        },
        {
            "positions": [
                1.7874692581382277,
                -2.0987278675755787,
                2.1218948427775364,
                0.15392685184854857,
                0.19521123911609228,
                -2.974869087491504
            ]
        },
        {
            "positions": [
                1.8503028768862904,
                -2.0840190878132643,
                1.9483007563880286,
                0.03723225882875314,
                0.20979604157296705,
                -2.962978087425404
            ]
        },
        {
            "positions": [
                1.9131364956343533,
                -2.0693103080509494,
                1.7747066699985208,
                -0.07946233419104232,
                0.2243808440298418,
                -2.951087087359304
            ]
        },
        {
            "positions": [
                1.9759701143824162,
                -2.054601528288635,
                1.6011125836090128,
                -0.19615692721083772,
                0.23896564648671656,
                -2.9391960872932037
            ]
        },
        {
            "positions": [
                2.0388037331304787,
                -2.03989274852632,
                1.4275184972195047,
                -0.3128515202306332,
                0.25355044894359136,
                -2.927305087227104
            ]
        },
        {
            "positions": [
                2.1016373518785416,
                -2.025183968764005,
                1.253924410829997,
                -0.42954611325042863,
                0.26813525140046607,
                -2.915414087161004
            ]
        },
        {
            "positions": [
                2.1644709706266045,
                -2.0104751890016908,
                1.080330324440489,
                -0.5462407062702239,
                0.28272005385734084,
                -2.903523087094904
            ]
        },
        {
            "positions": [
                2.2273045893746675,
                -1.9957664092393759,
                0.9067362380509811,
                -0.6629352992900195,
                0.2973048563142156,
                -2.891632087028804
            ]
        },
        {
            "positions": [
                2.2901382081227304,
                -1.9810576294770612,
                0.7331421516614731,
                -0.779629892309815,
                0.31188965877109037,
                -2.8797410869627043
            ]
        },
        {
            "positions": [
                2.3529718268707933,
                -1.9663488497147465,
                0.5595480652719653,
                -0.8963244853296104,
                0.32647446122796514,
                -2.867850086896604
            ]
        },
        {
            "positions": [
                2.4158054456188562,
                -1.9516400699524319,
                0.3859539788824571,
                -1.013019078349406,
                0.3410592636848399,
                -2.855959086830504
            ]
        },
        {
            "positions": [
                2.4786390643669187,
                -1.9369312901901172,
                0.2123598924929495,
                -1.1297136713692013,
                0.3556440661417146,
                -2.844068086764404
            ]
        },
        {
            "positions": [
                2.5414726831149816,
                -1.9222225104278023,
                0.03876580610344149,
                -1.2464082643889969,
                0.3702288685985894,
                -2.8321770866983043
            ]
        },
        {
            "positions": [
                2.6043063018630446,
                -1.9075137306654877,
                -0.13482828028606653,
                -1.363102857408792,
                0.38481367105546416,
                -2.8202860866322044
            ]
        },
        {
            "positions": [
                2.6671399206111075,
                -1.892804950903173,
                -0.30842236667557454,
                -1.4797974504285876,
                0.3993984735123389,
                -2.8083950865661045
            ]
        },
        {
            "positions": [
                2.72997353935917,
                -1.8780961711408584,
                -0.4820164530650821,
                -1.596492043448383,
                0.4139832759692137,
                -2.796504086500004
            ]
        },
        {
            "positions": [
                2.792807158107233,
                -1.8633873913785437,
                -0.6556105394545901,
                -1.7131866364681785,
                0.42856807842608846,
                -2.7846130864339043
            ]
        },
        {
            "positions": [
                2.855640776855296,
                -1.8486786116162288,
                -0.8292046258440982,
                -1.829881229487974,
                0.44315288088296323,
                -2.7727220863678044
            ]
        },
        {
            "positions": [
                2.9184743956033588,
                -1.8339698318539142,
                -1.0027987122336062,
                -1.9465758225077694,
                0.457737683339838,
                -2.7608310863017045
            ]
        },
        {
            "positions": [
                2.8924936554900236,
                -1.868087161377619,
                -1.0887391469211818,
                -2.0163594780672636,
                0.364889740514861,
                -2.797271630664784
            ]
        },
        {
            "positions": [
                2.866512915376689,
                -1.902204490901324,
                -1.1746795816087576,
                -2.086143133626758,
                0.272041797689884,
                -2.8337121750278635
            ]
        },
        {
            "positions": [
                2.8405321752633537,
                -1.9363218204250292,
                -1.2606200162963332,
                -2.1559267891862524,
                0.17919385486490702,
                -2.870152719390943
            ]
        },
        {
            "positions": [
                2.8145514351500185,
                -1.9704391499487341,
                -1.3465604509839089,
                -2.2257104447457468,
                0.08634591203993003,
                -2.906593263754022
            ]
        },
        {
            "positions": [
                2.7885706950366838,
                -2.004556479472439,
                -1.4325008856714847,
                -2.295494100305241,
                -0.006502030785046964,
                -2.943033808117102
            ]
        },
        {
            "positions": [
                2.7625899549233486,
                -2.038673808996144,
                -1.5184413203590603,
                -2.3652777558647355,
                -0.099349973610024,
                -2.979474352480181
            ]
        },
        {
            "positions": [
                2.728803365619579,
                -2.0880525994043966,
                -1.5625081624325807,
                -2.395549453832423,
                -0.22353220935664153,
                -3.0291981292232797
            ]
        },
        {
            "positions": [
                2.6950167763158097,
                -2.1374313898126487,
                -1.6065750045061014,
                -2.4258211518001107,
                -0.34771444510325905,
                -3.078921905966378
            ]
        },
        {
            "positions": [
                2.6612301870120403,
                -2.1868101802209012,
                -1.6506418465796218,
                -2.4560928497677983,
                -0.47189668084987657,
                -3.1286456827094766
            ]
        }
    ]
}