{
    "goal": {
        "global_pose": {
            "orientation": {
                "w": -0.00223480608172531,
                "x": 0.0024358444001904467,
                "y": 0.7094548369677653,
                "z": -0.704743149386269
            },
            "position": {
                "x": 0.6205249238014221,
                "y": -0.6371506643295288,
                "z": 0.19426114857196808
            }
        },
        "name": "move_to_magneteinheit_B"
    },
    "id": "FMT_move_to_magneteinheit_B_2",
    "joint_names": [
        "shoulder_pan_joint",
        "shoulder_lift_joint",
        "elbow_joint",
        "wrist_1_joint",
        "wrist_2_joint",
        "wrist_3_joint"
    ],
    "metrics": {
        "cart_traj_len": 1.452559238689204,
        "distance_elbow_joint": 0.7300766379287957,
        "distance_shoulder_lift_joint": 1.248648531081776,
        "distance_shoulder_pan_joint": 1.6208202941872534,
        "distance_wrist_1_joint": 2.6052226055829104,
        "distance_wrist_2_joint": 2.938389415062337,
        "distance_wrist_3_joint": 3.1318190115418685,
        "smoothness": 3.330669084591233e-16,
        "time": 1.345398528,
        "traj_len": 3.5035662538883066,
        "weighted_distance": 4.907364520709046
    },
    "planner": "FMT",
    "start": {
        "state": {
            "elbow_joint": 2.39358713078474,
            "shoulder_lift_joint": -1.908514104345545,
            "shoulder_pan_joint": 0.7066247066606129,
            "wrist_1_joint": -0.4678290933515497,
            "wrist_2_joint": 0.7096259083745334,
            "wrist_3_joint": -3.1358149277392293
        }
    },
    "waypoints": [
        {
            "positions": [
                0.7066247066606129,
                -1.908514104345545,
                2.39358713078474,
                -0.4678290933515497,
                0.7096259083745334,
                -3.1358149277392293
            ]
        },
        {
            "positions": [
                0.6543401810416692,
                -1.8682351194719393,
                2.3700362714967143,
                -0.3837896544617784,
                0.614839153049942,
                -3.0347885080120722
            ]
        },
        {
            "positions": [
                0.6020556554227257,
                -1.8279561345983335,
                2.346485412208689,
                -0.2997502155720071,
                0.5200523977253504,
                -2.933762088284915
            ]
        },
        {
            "positions": [
                0.549771129803782,
                -1.787677149724728,
                2.322934552920663,
                -0.21571077668223582,
                0.4252656424007589,
                -2.832735668557758
            ]
        },
        {
            "positions": [
                0.4974866041848383,
                -1.747398164851122,
                2.2993836936326373,
                -0.13167133779246448,
                0.3304788870761674,
                -2.731709248830601
            ]
        },
        {
            "positions": [
                0.44520207856589467,
                -1.7071191799775165,
                2.275832834344612,
                -0.047631898902693204,
                0.23569213175157588,
                -2.630682829103444
            ]
        },
        {
            "positions": [
                0.392917552946951,
                -1.666840195103911,
                2.252281975056586,
                0.036407539987078075,
                0.14090537642698442,
                -2.5296564093762868
            ]
        },
        {
            "positions": [
                0.3406330273280074,
                -1.626561210230305,
                2.2287311157685603,
                0.12044697887684935,
                0.04611862110239284,
                -2.42862998964913
            ]
        },
        {
            "positions": [
                0.2883485017090637,
                -1.5862822253566995,
                2.2051802564805345,
                0.20448641776662074,
                -0.04866813422219862,
                -2.327603569921973
            ]
        },
        {
            "positions": [
                0.23606397609011998,
                -1.5460032404830937,
                2.181629397192509,
                0.288525856656392,
                -0.1434548895467902,
                -2.226577150194816
            ]
        },
        {
            "positions": [
                0.1837794504711764,
                -1.505724255609488,
                2.1580785379044833,
                0.3725652955461633,
                -0.23824164487138166,
                -2.125550730467659
            ]
        },
        {
            "positions": [
                0.1314949248522327,
                -1.4654452707358825,
                2.1345276786164575,
                0.4566047344359347,
                -0.33302840019597324,
                -2.0245243107405018
            ]
        },
        {
            "positions": [
                0.0792103992332891,
                -1.425166285862277,
                2.110976819328432,
                0.5406441733257059,
                -0.4278151555205646,
                -1.9234978910133447
            ]
        },
        {
            "positions": [
                0.026925873614345397,
                -1.384887300988671,
                2.0874259600404064,
                0.6246836122154773,
                -0.5226019108451562,
                -1.8224714712861876
            ]
        },
        {
            "positions": [
                -0.025358652004598192,
                -1.3446083161150653,
                2.0638751007523806,
                0.7087230511052485,
                -0.6173886661697477,
                -1.7214450515590307
            ]
        },
        {
            "positions": [
                -0.07764317762354189,
                -1.3043293312414597,
                2.040324241464355,
                0.7927624899950199,
                -0.7121754214943393,
                -1.6204186318318736
            ]
        },
        {
            "positions": [
                -0.1299277032424856,
                -1.264050346367854,
                2.0167733821763294,
                0.8768019288847912,
                -0.8069621768189307,
                -1.5193922121047165
            ]
        },
        {
            "positions": [
                -0.18221222886142918,
                -1.2237713614942485,
                1.9932225228883036,
                0.9608413677745624,
                -0.901748932143522,
                -1.4183657923775597
            ]
        },
        {
            "positions": [
                -0.234496754480373,
                -1.1834923766206427,
                1.969671663600278,
                1.0448808066643338,
                -0.9965356874681138,
                -1.3173393726504024
            ]
        },
        {
            "positions": [
                -0.2867812800993166,
                -1.1432133917470368,
                1.9461208043122524,
                1.1289202455541052,
                -1.0913224427927055,
                -1.2163129529232455
            ]
        },
        {
            "positions": [
                -0.33906580571826017,
                -1.1029344068734313,
                1.9225699450242266,
                1.2129596844438764,
                -1.1861091981172969,
                -1.1152865331960884
            ]
        },
        {
            "positions": [
                -0.39135033133720387,
                -1.0626554219998257,
                1.899019085736201,
                1.2969991233336475,
                -1.2808959534418882,
                -1.0142601134689313
            ]
        },
        {
            "positions": [
                -0.44363485695614757,
                -1.02237643712622,
                1.8754682264481755,
                1.3810385622234191,
                -1.37568270876648,
                -0.9132336937417742
            ]
        },
        {
            "positions": [
                -0.49591938257509127,
                -0.9820974522526142,
                1.8519173671601497,
                1.4650780011131903,
                -1.4704694640910714,
                -0.8122072740146171
            ]
        },
        {
            "positions": [
                -0.5482039081940348,
                -0.9418184673790087,
                1.828366507872124,
                1.5491174400029615,
                -1.5652562194156627,
                -0.71118085428746
            ]
        },
        {
            "positions": [
                -0.6004884338129785,
                -0.9015394825054031,
                1.8048156485840985,
                1.6331568788927329,
                -1.6600429747402545,
                -0.6101544345603034
            ]
        },
        {
            "positions": [
                -0.6527729594319222,
                -0.8612604976317972,
                1.7812647892960727,
                1.7171963177825043,
                -1.7548297300648459,
                -0.5091280148331458
            ]
        },
        {
            "positions": [
                -0.7050574850508659,
                -0.8209815127581916,
                1.7577139300080469,
                1.8012357566722756,
                -1.8496164853894377,
                -0.4081015951059892
            ]
        },
        {
            "positions": [
                -0.7573420106698093,
                -0.7807025278845858,
                1.7341630707200213,
                1.8852751955620466,
                -1.944403240714029,
                -0.3070751753788321
            ]
        },
        {
            "positions": [
                -0.809626536288753,
                -0.7404235430109802,
                1.7106122114319957,
                1.969314634451818,
                -2.0391899960386204,
                -0.20604875565167502
            ]
        },
        {
            "positions": [
                -0.8619110619076967,
                -0.7001445581373744,
                1.68706135214397,
                2.0533540733415894,
                -2.133976751363212,
                -0.10502233592451793
            ]
        },
        {
            "positions": [
                -0.9141955875266404,
                -0.6598655732637689,
                1.6635104928559443,
                2.1373935122313608,
                -2.2287635066878035,
                -0.003995916197360814
            ]
        }
    ]
}