{
    "goal": {
        "global_pose": {
            "orientation": {
                "w": -0.00223480608172531,
                "x": 0.0024358444001904467,
                "y": 0.7094548369677653,
                "z": -0.704743149386269
            },
            "position": {
                "x": 0.6205249238014221,
                "y": -0.6371506643295288,
                "z": 0.19426114857196808
            }
        },
        "name": "move_to_magneteinheit_B"
    },
    "id": "FMT_move_to_magneteinheit_B_47",
    "joint_names": [
        "shoulder_pan_joint",
        "shoulder_lift_joint",
        "elbow_joint",
        "wrist_1_joint",
        "wrist_2_joint",
        "wrist_3_joint"
    ],
    "metrics": {
        "cart_traj_len": 3.5248278917545606,
        "distance_elbow_joint": 5.327670646480195,
        "distance_shoulder_lift_joint": 3.6491530328251187,
        "distance_shoulder_pan_joint": 2.528939721912648,
        "distance_wrist_1_joint": 2.0595652058186724,
        "distance_wrist_2_joint": 1.7376217790316644,
        "distance_wrist_3_joint": 6.273946245911908,
        "smoothness": 0.5812652083165316,
        "time": 1.5207875739999999,
        "traj_len": 4.6450938238081045,
        "weighted_distance": 6.158082177809448
    },
    "planner": "FMT",
    "start": {
        "state": {
            "elbow_joint": 2.39358713078474,
            "shoulder_lift_joint": -1.908514104345545,
            "shoulder_pan_joint": 0.7066247066606129,
            "wrist_1_joint": -0.4678290933515497,
            "wrist_2_joint": 0.7096259083745334,
            "wrist_3_joint": -3.1358149277392293
        }
    },
    "waypoints": [
        {
            "positions": [
                0.7066247066606129,
                -1.908514104345545,
                2.39358713078474,
                -0.4678290933515497,
                0.7096259083745334,
                -3.1358149277392293
            ]
        },
        {
            "positions": [
                0.6512630019978741,
                -1.8493030849216592,
                2.411054807840746,
                -0.47362545881358575,
                0.6366692545175981,
                -3.0545074257104763
            ]
        },
        {
            "positions": [
                0.5959012973351354,
                -1.7900920654977732,
                2.428522484896752,
                -0.4794218242756218,
                0.563712600660663,
                -2.9731999236817233
            ]
        },
        {
            "positions": [
                0.5405395926723966,
                -1.7308810460738875,
                2.445990161952758,
                -0.48521818973765785,
                0.4907559468037277,
                -2.8918924216529702
            ]
        },
        {
            "positions": [
                0.6602130419137169,
                -1.8536509951955287,
                2.480867196285698,
                -0.5437939512048988,
                0.5162005874792511,
                -2.885850026985197
            ]
        },
        {
            "positions": [
                0.7798864911550373,
                -1.9764209443171699,
                2.515744230618638,
                -0.6023697126721398,
                0.5416452281547747,
                -2.8798076323174238
            ]
        },
        {
            "positions": [
                0.8995599403963576,
                -2.099190893438811,
                2.550621264951578,
                -0.6609454741393808,
                0.5670898688302981,
                -2.8737652376496508
            ]
        },
        {
            "positions": [
                1.019233389637678,
                -2.2219608425604522,
                2.5854982992845184,
                -0.7195212356066218,
                0.5925345095058216,
                -2.8677228429818777
            ]
        },
        {
            "positions": [
                1.1389068388789982,
                -2.3447307916820934,
                2.6203753336174582,
                -0.7780969970738628,
                0.6179791501813451,
                -2.8616804483141047
            ]
        },
        {
            "positions": [
                1.2585802881203185,
                -2.4675007408037346,
                2.6552523679503985,
                -0.8366727585411038,
                0.6434237908568686,
                -2.8556380536463313
            ]
        },
        {
            "positions": [
                1.3782537373616388,
                -2.590270689925376,
                2.6901294022833384,
                -0.8952485200083448,
                0.6688684315323921,
                -2.8495956589785583
            ]
        },
        {
            "positions": [
                1.497927186602959,
                -2.713040639047017,
                2.7250064366162787,
                -0.9538242814755857,
                0.6943130722079156,
                -2.8435532643107853
            ]
        },
        {
            "positions": [
                1.6176006358442796,
                -2.835810588168658,
                2.7598834709492186,
                -1.0124000429428268,
                0.719757712883439,
                -2.8375108696430122
            ]
        },
        {
            "positions": [
                1.7372740850855999,
                -2.9585805372902994,
                2.7947605052821585,
                -1.0709758044100677,
                0.7452023535589625,
                -2.831468474975239
            ]
        },
        {
            "positions": [
                1.8569475343269202,
                -3.0813504864119405,
                2.829637539615099,
                -1.1295515658773088,
                0.770646994234486,
                -2.825426080307466
            ]
        },
        {
            "positions": [
                1.8813054346565345,
                -3.041680399945935,
                2.7063304229456437,
                -1.165314129083878,
                0.7499059312202971,
                -2.6764977162926415
            ]
        },
        {
            "positions": [
                1.905663334986149,
                -3.002010313479929,
                2.583023306276189,
                -1.2010766922904472,
                0.7291648682061084,
                -2.5275693522778178
            ]
        },
        {
            "positions": [
                1.9300212353157633,
                -2.9623402270139234,
                2.459716189606734,
                -1.2368392554970165,
                0.7084238051919195,
                -2.3786409882629935
            ]
        },
        {
            "positions": [
                1.9543791356453775,
                -2.922670140547918,
                2.336409072937279,
                -1.272601818703586,
                0.6876827421777307,
                -2.2297126242481693
            ]
        },
        {
            "positions": [
                1.9787370359749918,
                -2.8830000540819123,
                2.2131019562678245,
                -1.3083643819101551,
                0.6669416791635419,
                -2.0807842602333455
            ]
        },
        {
            "positions": [
                2.0030949363046062,
                -2.8433299676159063,
                2.0897948395983694,
                -1.3441269451167244,
                0.646200616149353,
                -1.9318558962185213
            ]
        },
        {
            "positions": [
                2.027452836634221,
                -2.8036598811499007,
                1.9664877229289144,
                -1.3798895083232936,
                0.6254595531351642,
                -1.7829275322036973
            ]
        },
        {
            "positions": [
                2.051810736963835,
                -2.763989794683895,
                1.8431806062594598,
                -1.4156520715298628,
                0.6047184901209753,
                -1.633999168188873
            ]
        },
        {
            "positions": [
                2.076168637293449,
                -2.7243197082178896,
                1.7198734895900047,
                -1.451414634736432,
                0.5839774271067866,
                -1.485070804174049
            ]
        },
        {
            "positions": [
                2.1005265376230637,
                -2.6846496217518836,
                1.59656637292055,
                -1.4871771979430015,
                0.5632363640925977,
                -1.336142440159225
            ]
        },
        {
            "positions": [
                2.124884437952678,
                -2.644979535285878,
                1.4732592562510949,
                -1.5229397611495707,
                0.5424953010784088,
                -1.1872140761444008
            ]
        },
        {
            "positions": [
                2.1492423382822925,
                -2.6053094488198725,
                1.34995213958164,
                -1.55870232435614,
                0.5217542380642199,
                -1.0382857121295768
            ]
        },
        {
            "positions": [
                2.1736002386119067,
                -2.565639362353867,
                1.226645022912185,
                -1.5944648875627092,
                0.5010131750500311,
                -0.8893573481147525
            ]
        },
        {
            "positions": [
                2.1979581389415213,
                -2.525969275887861,
                1.1033379062427302,
                -1.6302274507692784,
                0.48027211203584236,
                -0.7404289840999287
            ]
        },
        {
            "positions": [
                2.2223160392711354,
                -2.4862991894218553,
                0.9800307895732752,
                -1.665990013975848,
                0.4595310490216535,
                -0.5915006200851045
            ]
        },
        {
            "positions": [
                2.2466739396007496,
                -2.44662910295585,
                0.8567236729038206,
                -1.701752577182417,
                0.43878998600746466,
                -0.4425722560702803
            ]
        },
        {
            "positions": [
                2.271031839930364,
                -2.406959016489844,
                0.7334165562343653,
                -1.7375151403889864,
                0.4180489229932758,
                -0.29364389205545605
            ]
        },
        {
            "positions": [
                2.2953897402599783,
                -2.3672889300238382,
                0.6101094395649107,
                -1.7732777035955554,
                0.397307859979087,
                -0.14471552804063226
            ]
        },
        {
            "positions": [
                2.319747640589593,
                -2.3276188435578327,
                0.48680232289545566,
                -1.8090402668021248,
                0.37656679696489814,
                0.004212835974191975
            ]
        },
        {
            "positions": [
                2.344105540919207,
                -2.287948757091827,
                0.36349520622600107,
                -1.844802830008694,
                0.3558257339507093,
                0.15314119998901576
            ]
        },
        {
            "positions": [
                2.3684634412488217,
                -2.248278670625821,
                0.24018808955654558,
                -1.8805653932152633,
                0.33508467093652045,
                0.30206956400384044
            ]
        },
        {
            "positions": [
                2.392821341578436,
                -2.2086085841598155,
                0.11688097288709098,
                -1.9163279564218327,
                0.3143436079223316,
                0.45099792801866423
            ]
        },
        {
            "positions": [
                2.41717924190805,
                -2.16893849769381,
                -0.006426143782364058,
                -1.9520905196284017,
                0.2936025449081428,
                0.5999262920334885
            ]
        },
        {
            "positions": [
                2.4415371422376646,
                -2.1292684112278044,
                -0.12973326045181865,
                -1.9878530828349712,
                0.272861481893954,
                0.7488546560483123
            ]
        },
        {
            "positions": [
                2.465895042567279,
                -2.0895983247617984,
                -0.25304037712127414,
                -2.0236156460415406,
                0.2521204188797651,
                0.8977830200631369
            ]
        },
        {
            "positions": [
                2.4902529428968934,
                -2.049928238295793,
                -0.37634749379072874,
                -2.0593782092481097,
                0.23137935586557623,
                1.0467113840779607
            ]
        },
        {
            "positions": [
                2.5146108432265075,
                -2.0102581518297873,
                -0.49965461046018333,
                -2.0951407724546787,
                0.21063829285138747,
                1.195639748092785
            ]
        },
        {
            "positions": [
                2.538968743556122,
                -1.9705880653637817,
                -0.6229617271296384,
                -2.130903335661248,
                0.1898972298371987,
                1.3445681121076083
            ]
        },
        {
            "positions": [
                2.5633266438857363,
                -1.9309179788977757,
                -0.7462688437990934,
                -2.1666658988678176,
                0.1691561668230097,
                1.4934964761224334
            ]
        },
        {
            "positions": [
                2.5876845442153504,
                -1.8912478924317702,
                -0.8695759604685485,
                -2.202428462074387,
                0.14841510380882095,
                1.6424248401372568
            ]
        },
        {
            "positions": [
                2.612042444544965,
                -1.8515778059657646,
                -0.9928830771380031,
                -2.238191025280956,
                0.12767404079463218,
                1.791353204152081
            ]
        },
        {
            "positions": [
                2.636400344874579,
                -1.8119077194997588,
                -1.1161901938074577,
                -2.273953588487525,
                0.1069329777804433,
                1.9402815681669052
            ]
        },
        {
            "positions": [
                2.660758245204194,
                -1.772237633033753,
                -1.2394973104769131,
                -2.3097161516940945,
                0.08619191476625443,
                2.0892099321817295
            ]
        },
        {
            "positions": [
                2.685116145533808,
                -1.7325675465677475,
                -1.3628044271463682,
                -2.345478714900664,
                0.06545085175206555,
                2.2381382961965537
            ]
        },
        {
            "positions": [
                2.7094740458634226,
                -1.692897460101742,
                -1.4861115438158223,
                -2.381241278107233,
                0.04470978873787679,
                2.387066660211377
            ]
        },
        {
            "positions": [
                2.7338319461930367,
                -1.6532273736357361,
                -1.6094186604852774,
                -2.417003841313802,
                0.023968725723688022,
                2.5359950242262013
            ]
        },
        {
            "positions": [
                2.7581898465226513,
                -1.6135572871697303,
                -1.7327257771547324,
                -2.4527664045203714,
                0.003227662709499035,
                2.6849233882410255
            ]
        },
        {
            "positions": [
                2.7825477468522655,
                -1.5738872007037248,
                -1.8560328938241877,
                -2.488528967726941,
                -0.017513400304689786,
                2.83385175225585
            ]
        },
        {
            "positions": [
                2.758378456103353,
                -1.6966046504051633,
                -1.8148429329820777,
                -2.4807559014382847,
                -0.10765347540287457,
                2.894707665439216
            ]
        },
        {
            "positions": [
                2.7342091653544403,
                -1.8193221001066016,
                -1.7736529721399676,
                -2.4729828351496286,
                -0.19779355050105935,
                2.955563578622582
            ]
        },
        {
            "positions": [
                2.7100398746055276,
                -1.94203954980804,
                -1.7324630112978574,
                -2.465209768860972,
                -0.2879336255992441,
                3.0164194918059484
            ]
        },
        {
            "positions": [
                2.685870583856615,
                -2.0647569995094783,
                -1.6912730504557474,
                -2.457436702572316,
                -0.3780737006974289,
                3.0772754049893143
            ]
        },
        {
            "positions": [
                2.6617012931077024,
                -2.187474449210917,
                -1.6500830896136374,
                -2.4496636362836597,
                -0.4682137757956137,
                3.13813131817268
            ]
        }
    ]
}