{
    "goal": {
        "global_pose": {
            "orientation": {
                "w": -0.00223480608172531,
                "x": 0.0024358444001904467,
                "y": 0.7094548369677653,
                "z": -0.704743149386269
            },
            "position": {
                "x": 0.6205249238014221,
                "y": -0.6371506643295288,
                "z": 0.19426114857196808
            }
        },
        "name": "move_to_magneteinheit_B"
    },
    "id": "FMT_move_to_magneteinheit_B_18",
    "joint_names": [
        "shoulder_pan_joint",
        "shoulder_lift_joint",
        "elbow_joint",
        "wrist_1_joint",
        "wrist_2_joint",
        "wrist_3_joint"
    ],
    "metrics": {
        "cart_traj_len": 4.05912739167966,
        "distance_elbow_joint": 4.050659228714795,
        "distance_shoulder_lift_joint": 0.4820200448372982,
        "distance_shoulder_pan_joint": 2.601673741154271,
        "distance_wrist_1_joint": 2.0375354920599005,
        "distance_wrist_2_joint": 1.190681781611456,
        "distance_wrist_3_joint": 6.27243959778543,
        "smoothness": 0.13653398605072134,
        "time": 1.3972907940000001,
        "traj_len": 4.078603913861107,
        "weighted_distance": 5.692811814508308
    },
    "planner": "FMT",
    "start": {
        "state": {
            "elbow_joint": 2.39358713078474,
            "shoulder_lift_joint": -1.908514104345545,
            "shoulder_pan_joint": 0.7066247066606129,
            "wrist_1_joint": -0.4678290933515497,
            "wrist_2_joint": 0.7096259083745334,
            "wrist_3_joint": -3.1358149277392293
        }
    },
    "waypoints": [
        {
            "positions": [
                0.7066247066606129,
                -1.908514104345545,
                2.39358713078474,
                -0.4678290933515497,
                0.7096259083745334,
                -3.1358149277392293
            ]
        },
        {
            "positions": [
                0.7935309129493235,
                -1.957286299281213,
                2.377966521264323,
                -0.45088957361305115,
                0.6699597666907189,
                -3.079500249357334
            ]
        },
        {
            "positions": [
                0.880437119238034,
                -2.006058494216881,
                2.3623459117439056,
                -0.43395005387455265,
                0.6302936250069044,
                -3.0231855709754383
            ]
        },
        {
            "positions": [
                0.9443631318449136,
                -2.014700749758632,
                2.2476932080823695,
                -0.47950139523928426,
                0.6067262965882647,
                -2.8833649696312986
            ]
        },
        {
            "positions": [
                1.0082891444517932,
                -2.0233430053003834,
                2.1330405044208334,
                -0.5250527366040159,
                0.583158968169625,
                -2.743544368287159
            ]
        },
        {
            "positions": [
                1.0722151570586727,
                -2.0319852608421343,
                2.018387800759297,
                -0.5706040779687473,
                0.5595916397509852,
                -2.603723766943019
            ]
        },
        {
            "positions": [
                1.1361411696655523,
                -2.0406275163838856,
                1.9037350970977607,
                -0.616155419333479,
                0.5360243113323455,
                -2.4639031655988792
            ]
        },
        {
            "positions": [
                1.200067182272432,
                -2.0492697719256365,
                1.7890823934362245,
                -0.6617067606982105,
                0.5124569829137058,
                -2.3240825642547396
            ]
        },
        {
            "positions": [
                1.2639931948793115,
                -2.057912027467388,
                1.6744296897746882,
                -0.7072581020629422,
                0.48888965449506594,
                -2.1842619629106
            ]
        },
        {
            "positions": [
                1.327919207486191,
                -2.066554283009139,
                1.5597769861131519,
                -0.7528094434276738,
                0.4653223260764262,
                -2.0444413615664603
            ]
        },
        {
            "positions": [
                1.3918452200930707,
                -2.07519653855089,
                1.4451242824516157,
                -0.7983607847924052,
                0.4417549976577865,
                -1.9046207602223204
            ]
        },
        {
            "positions": [
                1.4557712326999503,
                -2.083838794092641,
                1.3304715787900796,
                -0.8439121261571368,
                0.41818766923914674,
                -1.7648001588781808
            ]
        },
        {
            "positions": [
                1.5196972453068298,
                -2.0924810496343924,
                1.2158188751285435,
                -0.8894634675218684,
                0.394620340820507,
                -1.6249795575340409
            ]
        },
        {
            "positions": [
                1.5836232579137093,
                -2.1011233051761433,
                1.1011661714670071,
                -0.9350148088865999,
                0.3710530124018673,
                -1.4851589561899012
            ]
        },
        {
            "positions": [
                1.647549270520589,
                -2.1097655607178947,
                0.9865134678054708,
                -0.9805661502513316,
                0.3474856839832275,
                -1.3453383548457614
            ]
        },
        {
            "positions": [
                1.7114752831274687,
                -2.1184078162596456,
                0.8718607641439347,
                -1.0261174916160631,
                0.32391835556458776,
                -1.2055177535016217
            ]
        },
        {
            "positions": [
                1.7754012957343481,
                -2.127050071801397,
                0.7572080604823983,
                -1.0716688329807948,
                0.300351027145948,
                -1.0656971521574818
            ]
        },
        {
            "positions": [
                1.8393273083412276,
                -2.135692327343148,
                0.6425553568208622,
                -1.1172201743455263,
                0.2767836987273083,
                -0.9258765508133422
            ]
        },
        {
            "positions": [
                1.9032533209481073,
                -2.1443345828848988,
                0.527902653159326,
                -1.1627715157102578,
                0.25321637030866856,
                -0.7860559494692025
            ]
        },
        {
            "positions": [
                1.9671793335549868,
                -2.15297683842665,
                0.4132499494977897,
                -1.2083228570749895,
                0.22964904189002883,
                -0.6462353481250629
            ]
        },
        {
            "positions": [
                2.0311053461618664,
                -2.161619093968401,
                0.2985972458362536,
                -1.253874198439721,
                0.2060817134713891,
                -0.5064147467809232
            ]
        },
        {
            "positions": [
                2.095031358768746,
                -2.1702613495101524,
                0.18394454217471745,
                -1.2994255398044525,
                0.18251438505274936,
                -0.36659414543678315
            ]
        },
        {
            "positions": [
                2.1589573713756254,
                -2.1789036050519033,
                0.06929183851318133,
                -1.3449768811691842,
                0.15894705663410957,
                -0.2267735440926435
            ]
        },
        {
            "positions": [
                2.222883383982505,
                -2.1875458605936546,
                -0.045360865148355245,
                -1.3905282225339157,
                0.13537972821546984,
                -0.08695294274850385
            ]
        },
        {
            "positions": [
                2.2868093965893848,
                -2.1961881161354055,
                -0.16001356880989137,
                -1.4360795638986472,
                0.11181239979683011,
                0.0528676585956358
            ]
        },
        {
            "positions": [
                2.3507354091962647,
                -2.204830371677157,
                -0.27466627247142794,
                -1.4816309052633791,
                0.08824507137819027,
                0.1926882599397759
            ]
        },
        {
            "positions": [
                2.414661421803144,
                -2.213472627218908,
                -0.38931897613296407,
                -1.5271822466281106,
                0.06467774295955053,
                0.33250886128391555
            ]
        },
        {
            "positions": [
                2.4785874344100236,
                -2.222114882760659,
                -0.5039716797945002,
                -1.5727335879928421,
                0.0411104145409108,
                0.4723294626280552
            ]
        },
        {
            "positions": [
                2.542513447016903,
                -2.23075713830241,
                -0.6186243834560363,
                -1.6182849293575738,
                0.017543086122271068,
                0.6121500639721948
            ]
        },
        {
            "positions": [
                2.6064394596237825,
                -2.2393993938441614,
                -0.7332770871175724,
                -1.6638362707223053,
                -0.006024242296368665,
                0.7519706653163349
            ]
        },
        {
            "positions": [
                2.670365472230662,
                -2.2480416493859123,
                -0.847929790779109,
                -1.7093876120870368,
                -0.029591570715008397,
                0.8917912666604746
            ]
        },
        {
            "positions": [
                2.734291484837542,
                -2.2566839049276632,
                -0.9625824944406451,
                -1.7549389534517685,
                -0.05315889913364813,
                1.0316118680046138
            ]
        },
        {
            "positions": [
                2.7982174974444214,
                -2.2653261604694146,
                -1.0772351981021813,
                -1.8004902948165,
                -0.0767262275522879,
                1.1714324693487543
            ]
        },
        {
            "positions": [
                2.835386849474118,
                -2.2571402345563922,
                -1.1776277919191107,
                -1.883282647551916,
                -0.11450973785911939,
                1.2781156397597837
            ]
        },
        {
            "positions": [
                2.8725562015038144,
                -2.2489543086433694,
                -1.2780203857360402,
                -1.966075000287332,
                -0.15229324816595086,
                1.384798810170813
            ]
        },
        {
            "positions": [
                2.9097255535335114,
                -2.240768382730347,
                -1.3784129795529698,
                -2.048867353022748,
                -0.19007675847278233,
                1.4914819805818424
            ]
        },
        {
            "positions": [
                2.946894905563208,
                -2.2325824568173243,
                -1.4788055733698993,
                -2.131659705758164,
                -0.22786026877961385,
                1.5981651509928718
            ]
        },
        {
            "positions": [
                2.9840642575929044,
                -2.224396530904302,
                -1.5791981671868287,
                -2.21445205849358,
                -0.2656437790864453,
                1.7048483214039012
            ]
        },
        {
            "positions": [
                2.9042363261485495,
                -2.2036270851596145,
                -1.5977451877238342,
                -2.233605073228231,
                -0.2768339135165548,
                1.9358307850211067
            ]
        },
        {
            "positions": [
                2.8244083947041942,
                -2.1828576394149275,
                -1.6162922082608395,
                -2.2527580879628815,
                -0.2880240479466643,
                2.1668132486383125
            ]
        },
        {
            "positions": [
                2.7445804632598394,
                -2.16208819367024,
                -1.634839228797845,
                -2.2719111026975325,
                -0.2992141823767738,
                2.397795712255518
            ]
        },
        {
            "positions": [
                2.723392864287611,
                -2.167580699148804,
                -1.6403974460808974,
                -2.313334953637513,
                -0.34467460509181097,
                2.5825029517031877
            ]
        },
        {
            "positions": [
                2.7022052653153823,
                -2.173073204627367,
                -1.6459556633639498,
                -2.3547588045774943,
                -0.39013502780684817,
                2.7672101911508573
            ]
        },
        {
            "positions": [
                2.6810176663431533,
                -2.1785657101059304,
                -1.6515138806470022,
                -2.3961826555174754,
                -0.4355954505218854,
                2.9519174305985274
            ]
        },
        {
            "positions": [
                2.6598300673709248,
                -2.184058215584494,
                -1.6570720979300546,
                -2.437606506457456,
                -0.4810558732369226,
                3.136624670046197
            ]
        }
    ]
}