{
    "goal": {
        "global_pose": {
            "orientation": {
                "w": -0.00223480608172531,
                "x": 0.0024358444001904467,
                "y": 0.7094548369677653,
                "z": -0.704743149386269
            },
            "position": {
                "x": 0.6205249238014221,
                "y": -0.6371506643295288,
                "z": 0.19426114857196808
            }
        },
        "name": "move_to_magneteinheit_B"
    },
    "id": "FMT_move_to_magneteinheit_B_63",
    "joint_names": [
        "shoulder_pan_joint",
        "shoulder_lift_joint",
        "elbow_joint",
        "wrist_1_joint",
        "wrist_2_joint",
        "wrist_3_joint"
    ],
    "metrics": {
        "cart_traj_len": 3.793499651493821,
        "distance_elbow_joint": 4.132310137251418,
        "distance_shoulder_lift_joint": 0.3415487256392269,
        "distance_shoulder_pan_joint": 1.9536714005793074,
        "distance_wrist_1_joint": 3.728150776795223,
        "distance_wrist_2_joint": 2.7339004952755843,
        "distance_wrist_3_joint": 1.0686573659817418,
        "smoothness": 0.4120005505326695,
        "time": 1.45741286,
        "traj_len": 3.7360726574201544,
        "weighted_distance": 4.749484698949645
    },
    "planner": "FMT",
    "start": {
        "state": {
            "elbow_joint": 2.39358713078474,
            "shoulder_lift_joint": -1.908514104345545,
            "shoulder_pan_joint": 0.7066247066606129,
            "wrist_1_joint": -0.4678290933515497,
            "wrist_2_joint": 0.7096259083745334,
            "wrist_3_joint": -3.1358149277392293
        }
    },
    "waypoints": [
        {
            "positions": [
                0.7066247066606129,
                -1.908514104345545,
                2.39358713078474,
                -0.4678290933515497,
                0.7096259083745334,
                -3.1358149277392293
            ]
        },
        {
            "positions": [
                0.7688855566685966,
                -1.9065827354627531,
                2.3885587400266726,
                -0.4106194346118549,
                0.7093943895463752,
                -3.116727614447366
            ]
        },
        {
            "positions": [
                0.895758906461958,
                -1.9027501267050553,
                2.3664201061214714,
                -0.3028995604358676,
                0.7119932148784504,
                -3.077685455839303
            ]
        },
        {
            "positions": [
                1.0226322562553194,
                -1.8989175179473572,
                2.34428147221627,
                -0.19517968625988025,
                0.7145920402105256,
                -3.03864329723124
            ]
        },
        {
            "positions": [
                1.149505606048681,
                -1.8950849091896593,
                2.322142838311069,
                -0.08745981208389292,
                0.7171908655426007,
                -2.999601138623177
            ]
        },
        {
            "positions": [
                1.2803421958616377,
                -1.8912697759120254,
                2.2834844892737314,
                0.011831923781963988,
                0.7239578514164386,
                -2.9591442834463058
            ]
        },
        {
            "positions": [
                1.411178785674594,
                -1.8874546426343914,
                2.2448261402363934,
                0.1111236596478209,
                0.7307248372902765,
                -2.918687428269435
            ]
        },
        {
            "positions": [
                1.5420153754875507,
                -1.8836395093567573,
                2.206167791199056,
                0.21041539551367777,
                0.7374918231641144,
                -2.8782305730925635
            ]
        },
        {
            "positions": [
                1.6728519653005072,
                -1.8798243760791233,
                2.167509442161718,
                0.3097071313795347,
                0.7442588090379523,
                -2.8377737179156926
            ]
        },
        {
            "positions": [
                1.8036885551134638,
                -1.8760092428014894,
                2.1288510931243803,
                0.4089988672453916,
                0.7510257949117902,
                -2.797316862738821
            ]
        },
        {
            "positions": [
                1.8385935025970699,
                -1.8773440268728772,
                1.9374355994931125,
                0.2983210726994594,
                0.7939827660795394,
                -2.7859687213803905
            ]
        },
        {
            "positions": [
                1.8734984500806757,
                -1.878678810944265,
                1.7460201058618448,
                0.18764327815352724,
                0.8369397372472887,
                -2.77462058002196
            ]
        },
        {
            "positions": [
                1.9084033975642818,
                -1.8800135950156525,
                1.5546046122305768,
                0.07696548360759503,
                0.879896708415038,
                -2.7632724386635297
            ]
        },
        {
            "positions": [
                1.9433083450478879,
                -1.8813483790870402,
                1.3631891185993092,
                -0.0337123109383371,
                0.9228536795827872,
                -2.751924297305099
            ]
        },
        {
            "positions": [
                1.978213292531494,
                -1.882683163158428,
                1.1717736249680413,
                -0.14439010548426934,
                0.9658106507505364,
                -2.7405761559466684
            ]
        },
        {
            "positions": [
                2.0131182400150998,
                -1.8840179472298157,
                0.9803581313367735,
                -0.2550679000302015,
                1.0087676219182855,
                -2.7292280145882377
            ]
        },
        {
            "positions": [
                2.0480231874987056,
                -1.8853527313012033,
                0.7889426377055058,
                -0.3657456945761336,
                1.0517245930860348,
                -2.717879873229807
            ]
        },
        {
            "positions": [
                2.082928134982312,
                -1.886687515372591,
                0.597527144074238,
                -0.4764234891220658,
                1.0946815642537842,
                -2.7065317318713764
            ]
        },
        {
            "positions": [
                2.1178330824659177,
                -1.8880222994439788,
                0.40611165044297004,
                -0.5871012836679981,
                1.1376385354215333,
                -2.695183590512946
            ]
        },
        {
            "positions": [
                2.152738029949524,
                -1.8893570835153666,
                0.2146961568117023,
                -0.6977790782139303,
                1.1805955065892826,
                -2.6838354491545156
            ]
        },
        {
            "positions": [
                2.18764297743313,
                -1.8906918675867541,
                0.023280663180434313,
                -0.8084568727598623,
                1.223552477757032,
                -2.672487307796085
            ]
        },
        {
            "positions": [
                2.2225479249167357,
                -1.8920266516581419,
                -0.16813483045083322,
                -0.9191346673057946,
                1.266509448924781,
                -2.6611391664376542
            ]
        },
        {
            "positions": [
                2.257452872400342,
                -1.8933614357295296,
                -0.35955032408210075,
                -1.0298124618517268,
                1.3094664200925301,
                -2.6497910250792236
            ]
        },
        {
            "positions": [
                2.292357819883948,
                -1.8946962198009174,
                -0.5509658177133687,
                -1.1404902563976589,
                1.3524233912602794,
                -2.638442883720793
            ]
        },
        {
            "positions": [
                2.3272627673675537,
                -1.896031003872305,
                -0.7423813113446367,
                -1.251168050943591,
                1.3953803624280288,
                -2.6270947423623627
            ]
        },
        {
            "positions": [
                2.36216771485116,
                -1.8973657879436927,
                -0.9337968049759042,
                -1.361845845489523,
                1.4383373335957779,
                -2.615746601003932
            ]
        },
        {
            "positions": [
                2.397072662334766,
                -1.8987005720150805,
                -1.125212298607172,
                -1.4725236400354555,
                1.4812943047635272,
                -2.6043984596455014
            ]
        },
        {
            "positions": [
                2.4183384241378345,
                -1.921233382356037,
                -1.1771972617562017,
                -1.555690892054138,
                1.3302099811828492,
                -2.646197820810566
            ]
        },
        {
            "positions": [
                2.4396041859409032,
                -1.9437661926969938,
                -1.229182224905231,
                -1.6388581440728203,
                1.1791256576021714,
                -2.6879971819756303
            ]
        },
        {
            "positions": [
                2.4608699477439715,
                -1.9662990030379504,
                -1.2811671880542608,
                -1.7220253960915026,
                1.0280413340214933,
                -2.729796543140695
            ]
        },
        {
            "positions": [
                2.48213570954704,
                -1.988831813378907,
                -1.3331521512032904,
                -1.8051926481101852,
                0.8769570104408153,
                -2.7715959043057596
            ]
        },
        {
            "positions": [
                2.503401471350109,
                -2.0113646237198637,
                -1.38513711435232,
                -1.8883599001288676,
                0.7258726868601374,
                -2.8133952654708243
            ]
        },
        {
            "positions": [
                2.5246672331531776,
                -2.0338974340608202,
                -1.4371220775013496,
                -1.97152715214755,
                0.5747883632794595,
                -2.8551946266358885
            ]
        },
        {
            "positions": [
                2.5459329949562464,
                -2.056430244401777,
                -1.4891070406503792,
                -2.0546944041662325,
                0.42370403969878145,
                -2.896993987800953
            ]
        },
        {
            "positions": [
                2.567198756759315,
                -2.0789630547427334,
                -1.5410920037994087,
                -2.137861656184915,
                0.27261971611810343,
                -2.938793348966018
            ]
        },
        {
            "positions": [
                2.5884645185623834,
                -2.1014958650836904,
                -1.5930769669484384,
                -2.221028908203597,
                0.1215353925374254,
                -2.9805927101310825
            ]
        },
        {
            "positions": [
                2.609730280365452,
                -2.124028675424647,
                -1.645061930097468,
                -2.3041961602222796,
                -0.029548931043252402,
                -3.0223920712961467
            ]
        },
        {
            "positions": [
                2.630996042168521,
                -2.1465614857656035,
                -1.6970468932464975,
                -2.387363412240962,
                -0.18063325462393043,
                -3.0641914324612114
            ]
        },
        {
            "positions": [
                2.6456460747042208,
                -2.165807296331132,
                -1.6762088366364067,
                -2.414843680596926,
                -0.33055400554533887,
                -3.102915394997363
            ]
        },
        {
            "positions": [
                2.6602961072399203,
                -2.1850531068966608,
                -1.6553707800263162,
                -2.4423239489528896,
                -0.48047475646674737,
                -3.1416393575335153
            ]
        }
    ]
}