{
    "goal": {
        "global_pose": {
            "orientation": {
                "w": -0.00223480608172531,
                "x": 0.0024358444001904467,
                "y": 0.7094548369677653,
                "z": -0.704743149386269
            },
            "position": {
                "x": 0.6205249238014221,
                "y": -0.6371506643295288,
                "z": 0.19426114857196808
            }
        },
        "name": "move_to_magneteinheit_B"
    },
    "id": "FMT_move_to_magneteinheit_B_55",
    "joint_names": [
        "shoulder_pan_joint",
        "shoulder_lift_joint",
        "elbow_joint",
        "wrist_1_joint",
        "wrist_2_joint",
        "wrist_3_joint"
    ],
    "metrics": {
        "cart_traj_len": 1.4518281514590834,
        "distance_elbow_joint": 0.7288697341278942,
        "distance_shoulder_lift_joint": 1.247589374539221,
        "distance_shoulder_pan_joint": 1.620483137124741,
        "distance_wrist_1_joint": 2.606144066371215,
        "distance_wrist_2_joint": 2.9443151049724086,
        "distance_wrist_3_joint": 3.1293550218722928,
        "smoothness": 3.608224835715102e-16,
        "time": 1.3084112799999998,
        "traj_len": 3.5038202635134934,
        "weighted_distance": 4.907741400491267
    },
    "planner": "FMT",
    "start": {
        "state": {
            "elbow_joint": 2.39358713078474,
            "shoulder_lift_joint": -1.908514104345545,
            "shoulder_pan_joint": 0.7066247066606129,
            "wrist_1_joint": -0.4678290933515497,
            "wrist_2_joint": 0.7096259083745334,
            "wrist_3_joint": -3.1358149277392293
        }
    },
    "waypoints": [
        {
            "positions": [
                0.7066247066606129,
                -1.908514104345545,
                2.39358713078474,
                -0.4678290933515497,
                0.7096259083745334,
                -3.1358149277392293
            ]
        },
        {
            "positions": [
                0.6543510570759439,
                -1.8682692858120216,
                2.3700752038773887,
                -0.3837599299202202,
                0.6146480017625202,
                -3.0348679915498007
            ]
        },
        {
            "positions": [
                0.6020774074912748,
                -1.8280244672784984,
                2.3465632769700373,
                -0.2996907664888907,
                0.5196700951505071,
                -2.9339210553603716
            ]
        },
        {
            "positions": [
                0.5498037579066057,
                -1.787779648744975,
                2.323051350062686,
                -0.21562160305756117,
                0.4246921885384939,
                -2.832974119170943
            ]
        },
        {
            "positions": [
                0.49753010832193667,
                -1.747534830211452,
                2.2995394231553345,
                -0.13155243962623164,
                0.3297142819264807,
                -2.732027182981514
            ]
        },
        {
            "positions": [
                0.4452564587372676,
                -1.7072900116779286,
                2.2760274962479827,
                -0.04748327619490211,
                0.23473637531446756,
                -2.6310802467920853
            ]
        },
        {
            "positions": [
                0.3929828091525986,
                -1.6670451931444052,
                2.2525155693406314,
                0.03658588723642736,
                0.13975846870245434,
                -2.5301333106026567
            ]
        },
        {
            "positions": [
                0.3407091595679295,
                -1.6268003746108821,
                2.22900364243328,
                0.12065505066775689,
                0.044780562090441234,
                -2.4291863744132276
            ]
        },
        {
            "positions": [
                0.28843550998326045,
                -1.586555556077359,
                2.2054917155259286,
                0.20472421409908642,
                -0.050197344521571985,
                -2.328239438223799
            ]
        },
        {
            "positions": [
                0.23616186039859133,
                -1.5463107375438356,
                2.181979788618577,
                0.28879337753041606,
                -0.1451752511335852,
                -2.22729250203437
            ]
        },
        {
            "positions": [
                0.18388821081392226,
                -1.5060659190103123,
                2.158467861711226,
                0.3728625409617455,
                -0.2401531577455983,
                -2.1263455658449413
            ]
        },
        {
            "positions": [
                0.1316145612292532,
                -1.4658211004767892,
                2.1349559348038745,
                0.4569317043930751,
                -0.33513106435761164,
                -2.0253986296555127
            ]
        },
        {
            "positions": [
                0.07934091164458423,
                -1.4255762819432658,
                2.111444007896523,
                0.5410008678244045,
                -0.43010897096962475,
                -1.9244516934660838
            ]
        },
        {
            "positions": [
                0.027067262059915054,
                -1.3853314634097424,
                2.0879320809891713,
                0.6250700312557342,
                -0.5250868775816379,
                -1.823504757276655
            ]
        },
        {
            "positions": [
                -0.025206387524753904,
                -1.3450866448762193,
                2.0644201540818203,
                0.7091391946870635,
                -0.620064784193651,
                -1.722557821087226
            ]
        },
        {
            "positions": [
                -0.07748003710942308,
                -1.304841826342696,
                2.0409082271744685,
                0.7932083581183933,
                -0.7150426908056643,
                -1.6216108848977973
            ]
        },
        {
            "positions": [
                -0.12975368669409204,
                -1.2645970078091728,
                2.017396300267117,
                0.8772775215497226,
                -0.8100205974176774,
                -1.5206639487083686
            ]
        },
        {
            "positions": [
                -0.1820273362787611,
                -1.2243521892756495,
                1.9938843733597658,
                0.9613466849810521,
                -0.9049985040296905,
                -1.4197170125189398
            ]
        },
        {
            "positions": [
                -0.2343009858634303,
                -1.1841073707421264,
                1.9703724464524144,
                1.0454158484123819,
                -0.9999764106417038,
                -1.318770076329511
            ]
        },
        {
            "positions": [
                -0.28657463544809936,
                -1.143862552208603,
                1.946860519545063,
                1.1294850118437114,
                -1.094954317253717,
                -1.217823140140082
            ]
        },
        {
            "positions": [
                -0.3388482850327684,
                -1.1036177336750796,
                1.9233485926377116,
                1.2135541752750407,
                -1.1899322238657302,
                -1.1168762039506532
            ]
        },
        {
            "positions": [
                -0.3911219346174374,
                -1.0633729151415565,
                1.8998366657303603,
                1.2976233387063703,
                -1.2849101304777433,
                -1.0159292677612246
            ]
        },
        {
            "positions": [
                -0.44339558420210656,
                -1.0231280966080332,
                1.8763247388230087,
                1.3816925021377,
                -1.3798880370897568,
                -0.9149823315717955
            ]
        },
        {
            "positions": [
                -0.4956692337867755,
                -0.9828832780745099,
                1.8528128119156573,
                1.4657616655690293,
                -1.47486594370177,
                -0.8140353953823669
            ]
        },
        {
            "positions": [
                -0.5479428833714445,
                -0.9426384595409867,
                1.8293008850083057,
                1.5498308290003586,
                -1.569843850313783,
                -0.7130884591929383
            ]
        },
        {
            "positions": [
                -0.6002165329561137,
                -0.9023936410074636,
                1.8057889581009543,
                1.6338999924316884,
                -1.6648217569257961,
                -0.6121415230035097
            ]
        },
        {
            "positions": [
                -0.6524901825407828,
                -0.8621488224739402,
                1.782277031193603,
                1.7179691558630181,
                -1.7597996635378093,
                -0.5111945868140806
            ]
        },
        {
            "positions": [
                -0.7047638321254518,
                -0.8219040039404168,
                1.7587651042862515,
                1.8020383192943474,
                -1.8547775701498224,
                -0.41024765062465196
            ]
        },
        {
            "positions": [
                -0.7570374817101208,
                -0.7816591854068937,
                1.7352531773789002,
                1.8861074827256767,
                -1.9497554767618355,
                -0.3093007144352229
            ]
        },
        {
            "positions": [
                -0.8093111312947899,
                -0.7414143668733704,
                1.7117412504715488,
                1.9701766461570065,
                -2.0447333833738486,
                -0.20835377824579426
            ]
        },
        {
            "positions": [
                -0.8615847808794591,
                -0.701169548339847,
                1.6882293235641972,
                2.0542458095883362,
                -2.139711289985862,
                -0.10740684205636519
            ]
        },
        {
            "positions": [
                -0.9138584304641282,
                -0.660924729806324,
                1.6647173966568458,
                2.1383149730196656,
                -2.2346891965978752,
                -0.00645990586693662
            ]
        }
    ]
}