{
    "goal": {
        "global_pose": {
            "orientation": {
                "w": 0.7047431468963623,
                "x": -0.7094548344612122,
                "y": 0.0024358443915843964,
                "z": -0.0022348060738295317
            },
            "position": {
                "x": 0.6094750761985779,
                "y": 0.3671506643295288,
                "z": 0.19426114857196808
            }
        },
        "name": "move_to_magneteinheit_A"
    },
    "id": "FMT_move_to_magneteinheit_A_23",
    "joint_names": [
        "shoulder_pan_joint",
        "shoulder_lift_joint",
        "elbow_joint",
        "wrist_1_joint",
        "wrist_2_joint",
        "wrist_3_joint"
    ],
    "metrics": {
        "cart_traj_len": 2.0244930839201722,
        "distance_elbow_joint": 3.8946761399023497,
        "distance_shoulder_lift_joint": 1.0633769736363141,
        "distance_shoulder_pan_joint": 1.242134136896971,
        "distance_wrist_1_joint": 1.22532382894451,
        "distance_wrist_2_joint": 1.4430055959427328,
        "distance_wrist_3_joint": 4.285322072313109,
        "smoothness": 4.314009468959242e-16,
        "time": 1.286240737,
        "traj_len": 3.6268221279290755,
        "weighted_distance": 4.938908008573297
    },
    "planner": "FMT",
    "start": {
        "state": {
            "elbow_joint": -1.919643507792019,
            "shoulder_lift_joint": -0.07675430207160344,
            "shoulder_pan_joint": -1.1188671864651873,
            "wrist_1_joint": 0.42560062535961957,
            "wrist_2_joint": 1.5706038300724876,
            "wrist_3_joint": 1.1188968870953055
        }
    },
    "waypoints": [
        {
            "positions": [
                -1.1188671864651873,
                -0.07675430207160344,
                -1.919643507792019,
                0.42560062535961957,
                1.5706038300724876,
                1.1188968870953055
            ]
        },
        {
            "positions": [
                -1.0844595919599302,
                -0.10989991568342936,
                -1.8074489940704062,
                0.3851062556884327,
                1.5225563573015364,
                0.9957857362015491
            ]
        },
        {
            "positions": [
                -1.0500519974546734,
                -0.14304552929525527,
                -1.6952544803487932,
                0.3446118860172459,
                1.4745088845305854,
                0.8726745853077926
            ]
        },
        {
            "positions": [
                -1.0156444029494163,
                -0.1761911429070812,
                -1.58305996662718,
                0.30411751634605905,
                1.4264614117596341,
                0.7495634344140362
            ]
        },
        {
            "positions": [
                -0.9812368084441593,
                -0.20933675651890712,
                -1.4708654529055671,
                0.2636231466748722,
                1.3784139389886831,
                0.6264522835202797
            ]
        },
        {
            "positions": [
                -0.9468292139389023,
                -0.24248237013073304,
                -1.3586709391839542,
                0.22312877700368539,
                1.330366466217732,
                0.5033411326265234
            ]
        },
        {
            "positions": [
                -0.9124216194336452,
                -0.275627983742559,
                -1.2464764254623413,
                0.18263440733249853,
                1.2823189934467807,
                0.3802299817327668
            ]
        },
        {
            "positions": [
                -0.8780140249283882,
                -0.3087735973543849,
                -1.1342819117407283,
                0.14214003766131167,
                1.2342715206758297,
                0.2571188308390103
            ]
        },
        {
            "positions": [
                -0.8436064304231312,
                -0.3419192109662108,
                -1.0220873980191154,
                0.10164566799012487,
                1.1862240479048785,
                0.13400767994525398
            ]
        },
        {
            "positions": [
                -0.8091988359178741,
                -0.37506482457803675,
                -0.9098928842975023,
                0.06115129831893801,
                1.1381765751339274,
                0.010896529051497517
            ]
        },
        {
            "positions": [
                -0.7747912414126172,
                -0.40821043818986263,
                -0.7976983705758893,
                0.020656928647751205,
                1.0901291023629762,
                -0.11221462184225883
            ]
        },
        {
            "positions": [
                -0.7403836469073601,
                -0.4413560518016886,
                -0.6855038568542764,
                -0.019837441023435654,
                1.0420816295920252,
                -0.2353257727360154
            ]
        },
        {
            "positions": [
                -0.705976052402103,
                -0.4745016654135145,
                -0.5733093431326632,
                -0.06033181069462251,
                0.9940341568210739,
                -0.358436923629772
            ]
        },
        {
            "positions": [
                -0.6715684578968462,
                -0.5076472790253405,
                -0.4611148294110503,
                -0.10082618036580931,
                0.9459866840501228,
                -0.4815480745235283
            ]
        },
        {
            "positions": [
                -0.6371608633915891,
                -0.5407928926371663,
                -0.3489203156894374,
                -0.14132055003699623,
                0.8979392112791716,
                -0.6046592254172849
            ]
        },
        {
            "positions": [
                -0.6027532688863321,
                -0.5739385062489923,
                -0.23672580196782445,
                -0.18181491970818303,
                0.8498917385082205,
                -0.7277703763110412
            ]
        },
        {
            "positions": [
                -0.5683456743810751,
                -0.6070841198608181,
                -0.12453128824621151,
                -0.22230928937936983,
                0.8018442657372694,
                -0.8508815272047976
            ]
        },
        {
            "positions": [
                -0.5339380798758181,
                -0.6402297334726441,
                -0.012336774524598582,
                -0.26280365905055675,
                0.7537967929663183,
                -0.9739926780985542
            ]
        },
        {
            "positions": [
                -0.499530485370561,
                -0.6733753470844701,
                0.09985773919701457,
                -0.30329802872174355,
                0.7057493201953672,
                -1.0971038289923105
            ]
        },
        {
            "positions": [
                -0.465122890865304,
                -0.7065209606962959,
                0.2120522529186275,
                -0.34379239839293035,
                0.6577018474244161,
                -1.2202149798860669
            ]
        },
        {
            "positions": [
                -0.430715296360047,
                -0.7396665743081219,
                0.32424676664024044,
                -0.38428676806411716,
                0.6096543746534648,
                -1.3433261307798232
            ]
        },
        {
            "positions": [
                -0.39630770185479003,
                -0.7728121879199479,
                0.43644128036185337,
                -0.42478113773530407,
                0.5616069018825138,
                -1.46643728167358
            ]
        },
        {
            "positions": [
                -0.36190010734953304,
                -0.8059578015317737,
                0.5486357940834663,
                -0.4652755074064909,
                0.5135594291115626,
                -1.5895484325673364
            ]
        },
        {
            "positions": [
                -0.32749251284427583,
                -0.8391034151435997,
                0.6608303078050797,
                -0.5057698770776777,
                0.4655119563406114,
                -1.7126595834610931
            ]
        },
        {
            "positions": [
                -0.29308491833901884,
                -0.8722490287554256,
                0.7730248215266926,
                -0.5462642467488645,
                0.41746448356966015,
                -1.8357707343548495
            ]
        },
        {
            "positions": [
                -0.25867732383376185,
                -0.9053946423672516,
                0.8852193352483055,
                -0.5867586164200513,
                0.36941701079870914,
                -1.9588818852486058
            ]
        },
        {
            "positions": [
                -0.22426972932850486,
                -0.9385402559790774,
                0.9974138489699185,
                -0.6272529860912381,
                0.3213695380277579,
                -2.081993036142362
            ]
        },
        {
            "positions": [
                -0.18986213482324787,
                -0.9716858695909034,
                1.1096083626915314,
                -0.6677473557624252,
                0.2733220652568069,
                -2.2051041870361185
            ]
        },
        {
            "positions": [
                -0.15545454031799077,
                -1.0048314832027292,
                1.2218028764131443,
                -0.708241725433612,
                0.22527459248585568,
                -2.3282153379298753
            ]
        },
        {
            "positions": [
                -0.12104694581273379,
                -1.0379770968145552,
                1.3339973901347573,
                -0.7487360951047988,
                0.17722711971490468,
                -2.4513264888236317
            ]
        },
        {
            "positions": [
                -0.0866393513074768,
                -1.0711227104263812,
                1.4461919038563702,
                -0.7892304647759856,
                0.12917964694395345,
                -2.574437639717388
            ]
        },
        {
            "positions": [
                -0.034162775872661665,
                -1.0883748517467653,
                1.5784020859198604,
                -0.7918536494782118,
                0.12878429374040384,
                -2.722434526092492
            ]
        },
        {
            "positions": [
                0.01831379956215347,
                -1.1056269930671494,
                1.7106122679833504,
                -0.794476834180438,
                0.12838894053685423,
                -2.870431412467596
            ]
        },
        {
            "positions": [
                0.07079037499696861,
                -1.1228791343875335,
                1.8428224500468406,
                -0.7971000188826642,
                0.12799358733330463,
                -3.0184282988427
            ]
        },
        {
            "positions": [
                0.12326695043178373,
                -1.1401312757079176,
                1.9750326321103309,
                -0.7997232035848905,
                0.12759823412975502,
                -3.166425185217804
            ]
        }
    ]
}