{
    "goal": {
        "global_pose": {
            "orientation": {
                "w": -0.00223480608172531,
                "x": 0.0024358444001904467,
                "y": 0.7094548369677653,
                "z": -0.704743149386269
            },
            "position": {
                "x": 0.6205249238014221,
                "y": -0.6371506643295288,
                "z": 0.19426114857196808
            }
        },
        "name": "move_to_magneteinheit_B"
    },
    "id": "FMT_move_to_magneteinheit_B_65",
    "joint_names": [
        "shoulder_pan_joint",
        "shoulder_lift_joint",
        "elbow_joint",
        "wrist_1_joint",
        "wrist_2_joint",
        "wrist_3_joint"
    ],
    "metrics": {
        "cart_traj_len": 3.4966342019865198,
        "distance_elbow_joint": 4.605170864466705,
        "distance_shoulder_lift_joint": 0.767908212343317,
        "distance_shoulder_pan_joint": 2.867156436579145,
        "distance_wrist_1_joint": 3.197520563907207,
        "distance_wrist_2_joint": 0.694593059172144,
        "distance_wrist_3_joint": 3.1268188899270255,
        "smoothness": 0.4694200870883155,
        "time": 1.413572753,
        "traj_len": 3.9062985070774534,
        "weighted_distance": 5.040329297707536
    },
    "planner": "FMT",
    "start": {
        "state": {
            "elbow_joint": 2.39358713078474,
            "shoulder_lift_joint": -1.908514104345545,
            "shoulder_pan_joint": 0.7066247066606129,
            "wrist_1_joint": -0.4678290933515497,
            "wrist_2_joint": 0.7096259083745334,
            "wrist_3_joint": -3.1358149277392293
        }
    },
    "waypoints": [
        {
            "positions": [
                0.7066247066606129,
                -1.908514104345545,
                2.39358713078474,
                -0.4678290933515497,
                0.7096259083745334,
                -3.1358149277392293
            ]
        },
        {
            "positions": [
                0.8031832945125662,
                -1.9696859294235758,
                2.4315610008843653,
                -0.37578958742531865,
                0.6760097822330318,
                -3.063623124259672
            ]
        },
        {
            "positions": [
                0.8997418823645196,
                -2.0308577545016067,
                2.46953487098399,
                -0.28375008149908765,
                0.6423936560915302,
                -2.991431320780115
            ]
        },
        {
            "positions": [
                0.9963004702164728,
                -2.0920295795796373,
                2.5075087410836154,
                -0.1917105755728566,
                0.6087775299500285,
                -2.9192395173005576
            ]
        },
        {
            "positions": [
                1.092859058068426,
                -2.1532014046576684,
                2.5454826111832407,
                -0.09967106964662553,
                0.575161403808527,
                -2.8470477138210004
            ]
        },
        {
            "positions": [
                1.1894176459203796,
                -2.214373229735699,
                2.583456481282866,
                -0.007631563720394474,
                0.5415452776670253,
                -2.7748559103414427
            ]
        },
        {
            "positions": [
                1.2859762337723328,
                -2.2755450548137297,
                2.621430351382491,
                0.08440794220583653,
                0.5079291515255238,
                -2.7026641068618855
            ]
        },
        {
            "positions": [
                1.382534821624286,
                -2.336716879891761,
                2.659404221482116,
                0.1764474481320677,
                0.4743130253840221,
                -2.6304723033823283
            ]
        },
        {
            "positions": [
                1.465173874798298,
                -2.3424561735771774,
                2.4918636259260762,
                0.2570380769008179,
                0.47941964238473833,
                -2.59339357628312
            ]
        },
        {
            "positions": [
                1.54781292797231,
                -2.348195467262594,
                2.324323030370036,
                0.3376287056695682,
                0.48452625938545457,
                -2.556314849183912
            ]
        },
        {
            "positions": [
                1.630451981146322,
                -2.3539347609480106,
                2.156782434813996,
                0.41821933443831844,
                0.48963287638617076,
                -2.519236122084704
            ]
        },
        {
            "positions": [
                1.713091034320334,
                -2.359674054633427,
                1.9892418392579558,
                0.4988099632070687,
                0.494739493386887,
                -2.482157394985496
            ]
        },
        {
            "positions": [
                1.795730087494346,
                -2.3654133483188438,
                1.821701243701916,
                0.579400591975819,
                0.49984611038760324,
                -2.4450786678862877
            ]
        },
        {
            "positions": [
                1.878369140668358,
                -2.3711526420042603,
                1.654160648145876,
                0.6599912207445692,
                0.5049527273883194,
                -2.4079999407870796
            ]
        },
        {
            "positions": [
                1.9610081938423698,
                -2.376891935689677,
                1.4866200525898359,
                0.7405818495133194,
                0.5100593443890357,
                -2.3709212136878715
            ]
        },
        {
            "positions": [
                2.043647247016382,
                -2.3826312293750935,
                1.3190794570337958,
                0.8211724782820697,
                0.5151659613897519,
                -2.3338424865886633
            ]
        },
        {
            "positions": [
                2.1262863001903938,
                -2.38837052306051,
                1.1515388614777557,
                0.90176310705082,
                0.5202725783904681,
                -2.296763759489455
            ]
        },
        {
            "positions": [
                2.208925353364406,
                -2.3941098167459267,
                0.9839982659217157,
                0.9823537358195702,
                0.5253791953911844,
                -2.259685032390247
            ]
        },
        {
            "positions": [
                2.2915644065384178,
                -2.3998491104313433,
                0.8164576703656754,
                1.0629443645883205,
                0.5304858123919006,
                -2.222606305291039
            ]
        },
        {
            "positions": [
                2.3742034597124295,
                -2.40558840411676,
                0.6489170748096358,
                1.1435349933570707,
                0.5355924293926169,
                -2.185527578191831
            ]
        },
        {
            "positions": [
                2.4568425128864417,
                -2.4113276978021765,
                0.4813764792535955,
                1.224125622125821,
                0.5406990463933331,
                -2.1484488510926227
            ]
        },
        {
            "positions": [
                2.539481566060454,
                -2.417066991487593,
                0.31383588369755566,
                1.304716250894571,
                0.5458056633940493,
                -2.1113701239934146
            ]
        },
        {
            "positions": [
                2.6221206192344657,
                -2.4228062851730097,
                0.14629528814151538,
                1.3853068796633214,
                0.5509122803947656,
                -2.0742913968942065
            ]
        },
        {
            "positions": [
                2.7047596724084775,
                -2.4285455788584263,
                -0.02124530741452446,
                1.4658975084320718,
                0.5560188973954817,
                -2.0372126697949984
            ]
        },
        {
            "positions": [
                2.7873987255824897,
                -2.434284872543843,
                -0.18878590297056475,
                1.5464881372008221,
                0.561125514396198,
                -2.0001339426957903
            ]
        },
        {
            "positions": [
                2.870037778756502,
                -2.4400241662292594,
                -0.3563264985266046,
                1.6270787659695722,
                0.5662321313969142,
                -1.9630552155965821
            ]
        },
        {
            "positions": [
                2.9526768319305137,
                -2.445763459914676,
                -0.5238670940826449,
                1.7076693947383226,
                0.5713387483976304,
                -1.925976488497374
            ]
        },
        {
            "positions": [
                3.0353158851045254,
                -2.4515027536000926,
                -0.6914076896386847,
                1.7882600235070727,
                0.5764453653983467,
                -1.888897761398166
            ]
        },
        {
            "positions": [
                3.1179549382785376,
                -2.457242047285509,
                -0.8589482851947251,
                1.868850652275823,
                0.5815519823990629,
                -1.8518190342989578
            ]
        },
        {
            "positions": [
                3.074952129650575,
                -2.446494050960753,
                -0.9490541042166687,
                1.7758149395892526,
                0.5556935511527961,
                -1.744583164385145
            ]
        },
        {
            "positions": [
                3.0319493210226125,
                -2.435746054635996,
                -1.0391599232386124,
                1.6827792269026824,
                0.5298351199065292,
                -1.6373472944713323
            ]
        },
        {
            "positions": [
                2.9889465123946497,
                -2.42499805831124,
                -1.1292657422605559,
                1.589743514216112,
                0.5039766886602624,
                -1.5301114245575196
            ]
        },
        {
            "positions": [
                2.9459437037666873,
                -2.4142500619864835,
                -1.2193715612824996,
                1.4967078015295416,
                0.4781182574139955,
                -1.4228755546437069
            ]
        },
        {
            "positions": [
                2.9029408951387246,
                -2.4035020656617267,
                -1.3094773803044433,
                1.4036720888429715,
                0.45225982616772864,
                -1.3156396847298941
            ]
        },
        {
            "positions": [
                2.859938086510762,
                -2.3927540693369704,
                -1.3995831993263868,
                1.310636376156401,
                0.4264013949214618,
                -1.2084038148160814
            ]
        },
        {
            "positions": [
                2.8169352778827994,
                -2.382006073012214,
                -1.4896890183483307,
                1.2176006634698306,
                0.40054296367519493,
                -1.1011679449022684
            ]
        },
        {
            "positions": [
                2.773932469254837,
                -2.3712580766874574,
                -1.5797948373702742,
                1.1245649507832605,
                0.3746845324289281,
                -0.9939320749884558
            ]
        },
        {
            "positions": [
                2.7309296606268743,
                -2.360510080362701,
                -1.6699006563922179,
                1.03152923809669,
                0.3488261011826612,
                -0.886696205074643
            ]
        },
        {
            "positions": [
                2.713729428799485,
                -2.391122155982837,
                -1.6673884324184693,
                1.0256493870715147,
                0.3786549356702088,
                -0.6672711632590334
            ]
        },
        {
            "positions": [
                2.696529196972096,
                -2.421734231602973,
                -1.664876208444721,
                1.019769536046339,
                0.40848377015775633,
                -0.4478461214434236
            ]
        },
        {
            "positions": [
                2.6793289651447068,
                -2.4523463072231095,
                -1.6623639844709726,
                1.0138896850211636,
                0.43831260464530386,
                -0.22842107962781388
            ]
        },
        {
            "positions": [
                2.6621287333173176,
                -2.4829583828432455,
                -1.659851760497224,
                1.0080098339959882,
                0.46814143913285144,
                -0.008996037812204247
            ]
        }
    ]
}