{
    "goal": {
        "global_pose": {
            "orientation": {
                "w": 0.7047431468963623,
                "x": -0.7094548344612122,
                "y": 0.0024358443915843964,
                "z": -0.0022348060738295317
            },
            "position": {
                "x": 0.6094750761985779,
                "y": 0.3671506643295288,
                "z": 0.19426114857196808
            }
        },
        "name": "move_to_magneteinheit_A"
    },
    "id": "FMT_move_to_magneteinheit_A_61",
    "joint_names": [
        "shoulder_pan_joint",
        "shoulder_lift_joint",
        "elbow_joint",
        "wrist_1_joint",
        "wrist_2_joint",
        "wrist_3_joint"
    ],
    "metrics": {
        "cart_traj_len": 2.048674686312678,
        "distance_elbow_joint": 3.909866630959054,
        "distance_shoulder_lift_joint": 1.2036901898187233,
        "distance_shoulder_pan_joint": 1.2431734493675162,
        "distance_wrist_1_joint": 1.190520430255489,
        "distance_wrist_2_joint": 1.575276952001963,
        "distance_wrist_3_joint": 4.324728802759911,
        "smoothness": 0.12846341846593157,
        "time": 1.3254226839999999,
        "traj_len": 3.667050102625087,
        "weighted_distance": 4.986232189032109
    },
    "planner": "FMT",
    "start": {
        "state": {
            "elbow_joint": -1.919643507792019,
            "shoulder_lift_joint": -0.07675430207160344,
            "shoulder_pan_joint": -1.1188671864651873,
            "wrist_1_joint": 0.42560062535961957,
            "wrist_2_joint": 1.5706038300724876,
            "wrist_3_joint": 1.1188968870953055
        }
    },
    "waypoints": [
        {
            "positions": [
                -1.1188671864651873,
                -0.07675430207160344,
                -1.919643507792019,
                0.42560062535961957,
                1.5706038300724876,
                1.1188968870953055
            ]
        },
        {
            "positions": [
                -1.088466259027261,
                -0.1121542290224994,
                -1.7977888672585487,
                0.3927448046260879,
                1.5236071785474243,
                0.9978063986309123
            ]
        },
        {
            "positions": [
                -1.0580653315893345,
                -0.14755415597339536,
                -1.6759342267250785,
                0.35988898389255625,
                1.476610527022361,
                0.876715910166519
            ]
        },
        {
            "positions": [
                -1.027664404151408,
                -0.18295408292429133,
                -1.5540795861916081,
                0.3270331631590246,
                1.4296138754972978,
                0.7556254217021257
            ]
        },
        {
            "positions": [
                -0.9972634767134817,
                -0.21835400987518727,
                -1.4322249456581377,
                0.2941773424254929,
                1.3826172239722345,
                0.6345349332377324
            ]
        },
        {
            "positions": [
                -0.9668625492755554,
                -0.2537539368260832,
                -1.3103703051246676,
                0.26132152169196127,
                1.3356205724471713,
                0.5134444447733392
            ]
        },
        {
            "positions": [
                -0.9364616218376289,
                -0.28915386377697916,
                -1.1885156645911972,
                0.2284657009584296,
                1.2886239209221078,
                0.3923539563089459
            ]
        },
        {
            "positions": [
                -0.9060606943997025,
                -0.32455379072787516,
                -1.0666610240577268,
                0.19560988022489795,
                1.2416272693970445,
                0.2712634678445526
            ]
        },
        {
            "positions": [
                -0.875659766961776,
                -0.3599537176787711,
                -0.9448063835242566,
                0.1627540594913663,
                1.1946306178719812,
                0.15017297938015928
            ]
        },
        {
            "positions": [
                -0.8452588395238497,
                -0.39535364462966704,
                -0.8229517429907862,
                0.12989823875783463,
                1.147633966346918,
                0.02908249091576609
            ]
        },
        {
            "positions": [
                -0.8148579120859233,
                -0.430753571580563,
                -0.701097102457316,
                0.09704241802430297,
                1.1006373148218547,
                -0.09200799754862721
            ]
        },
        {
            "positions": [
                -0.784456984647997,
                -0.466153498531459,
                -0.5792424619238457,
                0.06418659729077131,
                1.0536406632967914,
                -0.2130984860130205
            ]
        },
        {
            "positions": [
                -0.7540560572100705,
                -0.5015534254823549,
                -0.45738782139037526,
                0.03133077655723965,
                1.0066440117717281,
                -0.3341889744774138
            ]
        },
        {
            "positions": [
                -0.7236551297721441,
                -0.5369533524332508,
                -0.3355331808569051,
                -0.001525044176292012,
                0.9596473602466649,
                -0.4552794629418071
            ]
        },
        {
            "positions": [
                -0.6932542023342176,
                -0.5723532793841468,
                -0.2136785403234347,
                -0.03438086490982367,
                0.9126507087216016,
                -0.5763699514062004
            ]
        },
        {
            "positions": [
                -0.6628532748962912,
                -0.6077532063350428,
                -0.09182389978996452,
                -0.06723668564335533,
                0.8656540571965383,
                -0.6974604398705937
            ]
        },
        {
            "positions": [
                -0.6324523474583649,
                -0.6431531332859388,
                0.030030740743505868,
                -0.10009250637688699,
                0.818657405671475,
                -0.818550928334987
            ]
        },
        {
            "positions": [
                -0.6020514200204384,
                -0.6785530602368348,
                0.15188538127697604,
                -0.13294832711041865,
                0.7716607541464118,
                -0.9396414167993803
            ]
        },
        {
            "positions": [
                -0.5716504925825121,
                -0.7139529871877306,
                0.27374002181044665,
                -0.1658041478439503,
                0.7246641026213485,
                -1.0607319052637734
            ]
        },
        {
            "positions": [
                -0.5412495651445857,
                -0.7493529141386266,
                0.3955946623439168,
                -0.19865996857748197,
                0.6776674510962852,
                -1.1818223937281669
            ]
        },
        {
            "positions": [
                -0.5108486377066592,
                -0.7847528410895226,
                0.517449302877387,
                -0.23151578931101363,
                0.630670799571222,
                -1.30291288219256
            ]
        },
        {
            "positions": [
                -0.4804477102687329,
                -0.8201527680404186,
                0.6393039434108576,
                -0.2643716100445453,
                0.5836741480461586,
                -1.4240033706569535
            ]
        },
        {
            "positions": [
                -0.45004678283080646,
                -0.8555526949913146,
                0.7611585839443278,
                -0.29722743077807695,
                0.5366774965210954,
                -1.5450938591213466
            ]
        },
        {
            "positions": [
                -0.41964585539288,
                -0.8909526219422104,
                0.883013224477798,
                -0.3300832515116086,
                0.48968084499603215,
                -1.66618434758574
            ]
        },
        {
            "positions": [
                -0.3892449279549537,
                -0.9263525488931064,
                1.0048678650112686,
                -0.36293907224514027,
                0.44268419347096866,
                -1.7872748360501332
            ]
        },
        {
            "positions": [
                -0.35884400051702725,
                -0.9617524758440024,
                1.1267225055447387,
                -0.39579489297867193,
                0.3956875419459054,
                -1.9083653245145267
            ]
        },
        {
            "positions": [
                -0.3284430730791008,
                -0.9971524027948984,
                1.248577146078209,
                -0.4286507137122036,
                0.3486908904208421,
                -2.0294558129789197
            ]
        },
        {
            "positions": [
                -0.29804214564117437,
                -1.0325523297457944,
                1.370431786611679,
                -0.46150653444573525,
                0.30169423889577884,
                -2.1505463014433133
            ]
        },
        {
            "positions": [
                -0.26764121820324804,
                -1.0679522566966904,
                1.4922864271451497,
                -0.4943623551792669,
                0.2546975873707156,
                -2.2716367899077063
            ]
        },
        {
            "positions": [
                -0.2372402907653216,
                -1.1033521836475864,
                1.6141410676786199,
                -0.5272181759127985,
                0.2077009358456523,
                -2.3927272783721
            ]
        },
        {
            "positions": [
                -0.20683936332739516,
                -1.1387521105984821,
                1.73599570821209,
                -0.5600739966463302,
                0.16070428432058903,
                -2.513817766836493
            ]
        },
        {
            "positions": [
                -0.17643843588946884,
                -1.1741520375493781,
                1.8578503487455607,
                -0.5929298173798618,
                0.11370763279552576,
                -2.6349082553008865
            ]
        },
        {
            "positions": [
                -0.14603750845154245,
                -1.2095519645002741,
                1.9797049892790308,
                -0.6257856381133935,
                0.06671098127046242,
                -2.7559987437652795
            ]
        },
        {
            "positions": [
                -0.055922918000252037,
                -1.1859211220369232,
                1.9761989446496961,
                -0.6721636937075521,
                0.09050568233710846,
                -2.905943134398388
            ]
        },
        {
            "positions": [
                0.03419167245103838,
                -1.1622902795735723,
                1.9726929000203617,
                -0.7185417493017107,
                0.1143003834037545,
                -3.055887525031497
            ]
        },
        {
            "positions": [
                0.12430626290232884,
                -1.1386594371102214,
                1.969186855391027,
                -0.7649198048958693,
                0.13809508447040053,
                -3.205831915664606
            ]
        }
    ]
}