{
    "goal": {
        "global_pose": {
            "orientation": {
                "w": 0.7047431468963623,
                "x": -0.7094548344612122,
                "y": 0.0024358443915843964,
                "z": -0.0022348060738295317
            },
            "position": {
                "x": 0.6094750761985779,
                "y": 0.3671506643295288,
                "z": 0.19426114857196808
            }
        },
        "name": "move_to_magneteinheit_A"
    },
    "id": "FMT_move_to_magneteinheit_A_94",
    "joint_names": [
        "shoulder_pan_joint",
        "shoulder_lift_joint",
        "elbow_joint",
        "wrist_1_joint",
        "wrist_2_joint",
        "wrist_3_joint"
    ],
    "metrics": {
        "cart_traj_len": 1.880545739634178,
        "distance_elbow_joint": 3.906676329032664,
        "distance_shoulder_lift_joint": 0.6976710971859384,
        "distance_shoulder_pan_joint": 1.24084597273197,
        "distance_wrist_1_joint": 1.4791104241834891,
        "distance_wrist_2_joint": 1.6921661734563307,
        "distance_wrist_3_joint": 1.089944183167634,
        "smoothness": 4.605369601539975e-16,
        "time": 1.165080756,
        "traj_len": 3.1790586939781442,
        "weighted_distance": 3.931612791683982
    },
    "planner": "FMT",
    "start": {
        "state": {
            "elbow_joint": -1.919643507792019,
            "shoulder_lift_joint": -0.07675430207160344,
            "shoulder_pan_joint": -1.1188671864651873,
            "wrist_1_joint": 0.42560062535961957,
            "wrist_2_joint": 1.5706038300724876,
            "wrist_3_joint": 1.1188968870953055
        }
    },
    "waypoints": [
        {
            "positions": [
                -1.1188671864651873,
                -0.07675430207160344,
                -1.919643507792019,
                0.42560062535961957,
                1.5706038300724876,
                1.1188968870953055
            ]
        },
        {
            "positions": [
                -1.0711423413601115,
                -0.10358780580952416,
                -1.7693867259061473,
                0.4824894878282153,
                1.5055205157087825,
                1.0769759569734734
            ]
        },
        {
            "positions": [
                -1.0234174962550358,
                -0.13042130954744488,
                -1.6191299440202758,
                0.539378350296811,
                1.4404372013450775,
                1.0350550268516414
            ]
        },
        {
            "positions": [
                -0.97569265114996,
                -0.15725481328536559,
                -1.468873162134404,
                0.5962672127654067,
                1.3753538869813724,
                0.9931340967298093
            ]
        },
        {
            "positions": [
                -0.9279678060448843,
                -0.18408831702328632,
                -1.3186163802485322,
                0.6531560752340025,
                1.3102705726176676,
                0.9512131666079773
            ]
        },
        {
            "positions": [
                -0.8802429609398085,
                -0.21092182076120702,
                -1.1683595983626605,
                0.7100449377025982,
                1.2451872582539625,
                0.9092922364861452
            ]
        },
        {
            "positions": [
                -0.8325181158347327,
                -0.23775532449912773,
                -1.018102816476789,
                0.7669338001711941,
                1.1801039438902574,
                0.8673713063643131
            ]
        },
        {
            "positions": [
                -0.784793270729657,
                -0.26458882823704843,
                -0.8678460345909174,
                0.8238226626397898,
                1.1150206295265526,
                0.8254503762424811
            ]
        },
        {
            "positions": [
                -0.7370684256245812,
                -0.29142233197496914,
                -0.7175892527050456,
                0.8807115251083855,
                1.0499373151628473,
                0.783529446120649
            ]
        },
        {
            "positions": [
                -0.6893435805195054,
                -0.31825583571288985,
                -0.567332470819174,
                0.9376003875769812,
                0.9848540007991424,
                0.7416085159988169
            ]
        },
        {
            "positions": [
                -0.6416187354144296,
                -0.3450893394508106,
                -0.41707568893330205,
                0.9944892500455769,
                0.9197706864354374,
                0.6996875858769849
            ]
        },
        {
            "positions": [
                -0.5938938903093539,
                -0.3719228431887313,
                -0.2668189070474305,
                1.0513781125141726,
                0.8546873720717323,
                0.6577666557551528
            ]
        },
        {
            "positions": [
                -0.546169045204278,
                -0.398756346926652,
                -0.11656212516155873,
                1.1082669749827685,
                0.7896040577080272,
                0.6158457256333207
            ]
        },
        {
            "positions": [
                -0.4984442000992023,
                -0.4255898506645727,
                0.03369465672431282,
                1.1651558374513642,
                0.7245207433443223,
                0.5739247955114887
            ]
        },
        {
            "positions": [
                -0.45071935499412663,
                -0.4524233544024934,
                0.18395143861018437,
                1.22204469991996,
                0.6594374289806173,
                0.5320038653896566
            ]
        },
        {
            "positions": [
                -0.40299450988905083,
                -0.47925685814041413,
                0.33420822049605614,
                1.2789335623885556,
                0.5943541146169123,
                0.49008293526782465
            ]
        },
        {
            "positions": [
                -0.3552696647839749,
                -0.5060903618783349,
                0.4844650023819279,
                1.3358224248571513,
                0.5292708002532072,
                0.44816200514599247
            ]
        },
        {
            "positions": [
                -0.30754481967889924,
                -0.5329238656162556,
                0.6347217842677997,
                1.392711287325747,
                0.4641874858895021,
                0.4062410750241604
            ]
        },
        {
            "positions": [
                -0.25981997457382344,
                -0.5597573693541763,
                0.784978566153671,
                1.449600149794343,
                0.39910417152579725,
                0.36432014490232834
            ]
        },
        {
            "positions": [
                -0.21209512946874776,
                -0.586590873092097,
                0.9352353480395428,
                1.5064890122629386,
                0.3340208571620922,
                0.32239921478049627
            ]
        },
        {
            "positions": [
                -0.16437028436367185,
                -0.6134243768300178,
                1.085492129925415,
                1.5633778747315343,
                0.2689375427983871,
                0.2804782846586642
            ]
        },
        {
            "positions": [
                -0.11664543925859605,
                -0.6402578805679384,
                1.2357489118112863,
                1.62026673720013,
                0.20385422843468204,
                0.23855735453683213
            ]
        },
        {
            "positions": [
                -0.06892059415352048,
                -0.6670913843058592,
                1.386005693697158,
                1.6771555996687257,
                0.13877091407097697,
                0.19663642441500007
            ]
        },
        {
            "positions": [
                -0.02119574904844468,
                -0.6939248880437798,
                1.5362624755830294,
                1.7340444621373214,
                0.07368759970727212,
                0.154715494293168
            ]
        },
        {
            "positions": [
                0.02652909605663134,
                -0.7207583917817006,
                1.6865192574689016,
                1.7909333246059174,
                0.008604285343566831,
                0.11279456417133593
            ]
        },
        {
            "positions": [
                0.07425394116170692,
                -0.7475918955196212,
                1.836776039354773,
                1.847822187074513,
                -0.056479029020138016,
                0.07087363404950375
            ]
        },
        {
            "positions": [
                0.12197878626678275,
                -0.774425399257542,
                1.9870328212406447,
                1.9047110495431088,
                -0.1215623433838431,
                0.02895270392767169
            ]
        }
    ]
}