{
    "goal": {
        "global_pose": {
            "orientation": {
                "w": 0.7047431468963623,
                "x": -0.7094548344612122,
                "y": 0.0024358443915843964,
                "z": -0.0022348060738295317
            },
            "position": {
                "x": 0.6094750761985779,
                "y": 0.3671506643295288,
                "z": 0.19426114857196808
            }
        },
        "name": "move_to_magneteinheit_A"
    },
    "id": "FMT_move_to_magneteinheit_A_111",
    "joint_names": [
        "shoulder_pan_joint",
        "shoulder_lift_joint",
        "elbow_joint",
        "wrist_1_joint",
        "wrist_2_joint",
        "wrist_3_joint"
    ],
    "metrics": {
        "cart_traj_len": 2.0605693994673837,
        "distance_elbow_joint": 3.8671601951492134,
        "distance_shoulder_lift_joint": 1.0488501645167125,
        "distance_shoulder_pan_joint": 1.2401872425572404,
        "distance_wrist_1_joint": 1.1074212034243516,
        "distance_wrist_2_joint": 1.4513101764857113,
        "distance_wrist_3_joint": 1.8888818735394648,
        "smoothness": 6.026925011703896e-16,
        "time": 1.201205667,
        "traj_len": 3.2563493141357998,
        "weighted_distance": 4.115860296786285
    },
    "planner": "FMT",
    "start": {
        "state": {
            "elbow_joint": -1.919643507792019,
            "shoulder_lift_joint": -0.07675430207160344,
            "shoulder_pan_joint": -1.1188671864651873,
            "wrist_1_joint": 0.42560062535961957,
            "wrist_2_joint": 1.5706038300724876,
            "wrist_3_joint": 1.1188968870953055
        }
    },
    "waypoints": [
        {
            "positions": [
                -1.1188671864651873,
                -0.07675430207160344,
                -1.919643507792019,
                0.42560062535961957,
                1.5706038300724876,
                1.1188968870953055
            ]
        },
        {
            "positions": [
                -1.072934325629734,
                -0.11560060446111131,
                -1.7764153524161224,
                0.38458502523279176,
                1.5168516013137576,
                1.1888554750041747
            ]
        },
        {
            "positions": [
                -1.0270014647942807,
                -0.15444690685061918,
                -1.6331871970402254,
                0.3435694251059639,
                1.4630993725550274,
                1.2588140629130438
            ]
        },
        {
            "positions": [
                -0.9810686039588273,
                -0.19329320924012705,
                -1.4899590416643287,
                0.3025538249791361,
                1.4093471437962974,
                1.3287726508219126
            ]
        },
        {
            "positions": [
                -0.935135743123374,
                -0.23213951162963492,
                -1.346730886288432,
                0.26153822485230827,
                1.3555949150375675,
                1.3987312387307818
            ]
        },
        {
            "positions": [
                -0.8892028822879205,
                -0.2709858140191428,
                -1.2035027309125352,
                0.2205226247254804,
                1.3018426862788375,
                1.4686898266396509
            ]
        },
        {
            "positions": [
                -0.8432700214524673,
                -0.30983211640865066,
                -1.0602745755366385,
                0.17950702459865256,
                1.2480904575201073,
                1.53864841454852
            ]
        },
        {
            "positions": [
                -0.7973371606170139,
                -0.34867841879815853,
                -0.9170464201607416,
                0.13849142447182472,
                1.1943382287613773,
                1.608607002457389
            ]
        },
        {
            "positions": [
                -0.7514042997815606,
                -0.3875247211876664,
                -0.7738182647848448,
                0.09747582434499691,
                1.1405860000026473,
                1.678565590366258
            ]
        },
        {
            "positions": [
                -0.7054714389461072,
                -0.42637102357717427,
                -0.6305901094089481,
                0.05646022421816904,
                1.0868337712439171,
                1.748524178275127
            ]
        },
        {
            "positions": [
                -0.6595385781106539,
                -0.46521732596668214,
                -0.48736195403305116,
                0.01544462409134123,
                1.0330815424851871,
                1.8184827661839962
            ]
        },
        {
            "positions": [
                -0.6136057172752005,
                -0.50406362835619,
                -0.34413379865715443,
                -0.02557097603548658,
                0.9793293137264572,
                1.8884413540928653
            ]
        },
        {
            "positions": [
                -0.5676728564397472,
                -0.5429099307456979,
                -0.2009056432812577,
                -0.06658657616231445,
                0.9255770849677271,
                1.9583999420017344
            ]
        },
        {
            "positions": [
                -0.5217399956042938,
                -0.5817562331352057,
                -0.05767748790536098,
                -0.10760217628914232,
                0.8718248562089971,
                2.0283585299106033
            ]
        },
        {
            "positions": [
                -0.4758071347688405,
                -0.6206025355247136,
                0.08555066747053597,
                -0.14861777641597013,
                0.818072627450267,
                2.098317117819472
            ]
        },
        {
            "positions": [
                -0.42987427393338706,
                -0.6594488379142216,
                0.2287788228464327,
                -0.18963337654279805,
                0.7643203986915369,
                2.1682757057283415
            ]
        },
        {
            "positions": [
                -0.38394141309793384,
                -0.6982951403037294,
                0.3720069782223294,
                -0.23064897666962575,
                0.7105681699328069,
                2.238234293637211
            ]
        },
        {
            "positions": [
                -0.3380085522624804,
                -0.7371414426932372,
                0.5152351335982266,
                -0.27166457679645367,
                0.6568159411740768,
                2.3081928815460797
            ]
        },
        {
            "positions": [
                -0.29207569142702705,
                -0.775987745082745,
                0.6584632889741229,
                -0.3126801769232815,
                0.6030637124153468,
                2.3781514694549486
            ]
        },
        {
            "positions": [
                -0.2461428305915737,
                -0.8148340474722531,
                0.80169144435002,
                -0.3536957770501093,
                0.5493114836566166,
                2.448110057363818
            ]
        },
        {
            "positions": [
                -0.20020996975612038,
                -0.8536803498617609,
                0.9449195997259168,
                -0.3947113771769371,
                0.49555925489788666,
                2.518068645272687
            ]
        },
        {
            "positions": [
                -0.15427710892066704,
                -0.8925266522512687,
                1.0881477551018135,
                -0.43572697730376503,
                0.4418070261391567,
                2.588027233181556
            ]
        },
        {
            "positions": [
                -0.1083442480852137,
                -0.9313729546407765,
                1.2313759104777102,
                -0.47674257743059273,
                0.3880547973804267,
                2.657985821090425
            ]
        },
        {
            "positions": [
                -0.06241138724976025,
                -0.9702192570302846,
                1.374604065853607,
                -0.5177581775574207,
                0.3343025686216965,
                2.727944408999294
            ]
        },
        {
            "positions": [
                -0.016478526414307026,
                -1.0090655594197924,
                1.5178322212295037,
                -0.5587737776842485,
                0.2805503398629665,
                2.797902996908163
            ]
        },
        {
            "positions": [
                0.029454334421146422,
                -1.0479118618093002,
                1.6610603766054008,
                -0.5997893778110763,
                0.22679811110423653,
                2.867861584817032
            ]
        },
        {
            "positions": [
                0.07538719525659965,
                -1.086758164198808,
                1.8042885319812971,
                -0.6408049779379041,
                0.17304588234550655,
                2.9378201727259015
            ]
        },
        {
            "positions": [
                0.12132005609205318,
                -1.125604466588316,
                1.947516687357194,
                -0.6818205780647321,
                0.11929365358677635,
                3.0077787606347703
            ]
        }
    ]
}