{
    "goal": {
        "global_pose": {
            "orientation": {
                "w": 0.7047431468963623,
                "x": -0.7094548344612122,
                "y": 0.0024358443915843964,
                "z": -0.0022348060738295317
            },
            "position": {
                "x": 0.6094750761985779,
                "y": 0.3671506643295288,
                "z": 0.19426114857196808
            }
        },
        "name": "move_to_magneteinheit_A"
    },
    "id": "FMT_move_to_magneteinheit_A_59",
    "joint_names": [
        "shoulder_pan_joint",
        "shoulder_lift_joint",
        "elbow_joint",
        "wrist_1_joint",
        "wrist_2_joint",
        "wrist_3_joint"
    ],
    "metrics": {
        "cart_traj_len": 2.0642895197696736,
        "distance_elbow_joint": 3.8804396511365766,
        "distance_shoulder_lift_joint": 1.057359531979116,
        "distance_shoulder_pan_joint": 1.2418203246133133,
        "distance_wrist_1_joint": 1.1498311400527506,
        "distance_wrist_2_joint": 1.4313874400984383,
        "distance_wrist_3_joint": 1.928913339725113,
        "smoothness": 4.123685525847481e-16,
        "time": 1.23091874,
        "traj_len": 3.269518531466874,
        "weighted_distance": 4.138695046413389
    },
    "planner": "FMT",
    "start": {
        "state": {
            "elbow_joint": -1.919643507792019,
            "shoulder_lift_joint": -0.07675430207160344,
            "shoulder_pan_joint": -1.1188671864651873,
            "wrist_1_joint": 0.42560062535961957,
            "wrist_2_joint": 1.5706038300724876,
            "wrist_3_joint": 1.1188968870953055
        }
    },
    "waypoints": [
        {
            "positions": [
                -1.1188671864651873,
                -0.07675430207160344,
                -1.919643507792019,
                0.42560062535961957,
                1.5706038300724876,
                1.1188968870953055
            ]
        },
        {
            "positions": [
                -1.0728738411091387,
                -0.11591576621897812,
                -1.7759235207128867,
                0.38301428683914734,
                1.517589480439212,
                1.1903381218999394
            ]
        },
        {
            "positions": [
                -1.0268804957530902,
                -0.1550772303663528,
                -1.6322035336337541,
                0.3404279483186751,
                1.4645751308059367,
                1.2617793567045732
            ]
        },
        {
            "positions": [
                -0.9808871503970414,
                -0.19423869451372744,
                -1.4884835465546218,
                0.29784160979820284,
                1.4115607811726611,
                1.333220591509207
            ]
        },
        {
            "positions": [
                -0.9348938050409927,
                -0.23340015866110211,
                -1.3447635594754892,
                0.2552552712777306,
                1.3585464315393856,
                1.4046618263138408
            ]
        },
        {
            "positions": [
                -0.8889004596849441,
                -0.27256162280847673,
                -1.2010435723963568,
                0.2126689327572584,
                1.3055320819061103,
                1.4761030611184747
            ]
        },
        {
            "positions": [
                -0.8429071143288955,
                -0.31172308695585144,
                -1.0573235853172243,
                0.17008259423678618,
                1.2525177322728347,
                1.5475442959231085
            ]
        },
        {
            "positions": [
                -0.7969137689728469,
                -0.3508845511032261,
                -0.9136035982380919,
                0.12749625571631396,
                1.1995033826395591,
                1.618985530727742
            ]
        },
        {
            "positions": [
                -0.7509204236167982,
                -0.3900460152506008,
                -0.7698836111589593,
                0.08490991719584173,
                1.1464890330062838,
                1.6904267655323761
            ]
        },
        {
            "positions": [
                -0.7049270782607496,
                -0.42920747939797543,
                -0.626163624079827,
                0.042323578675369455,
                1.0934746833730082,
                1.7618680003370097
            ]
        },
        {
            "positions": [
                -0.6589337329047009,
                -0.4683689435453501,
                -0.4824436370006946,
                -0.00026275984510276684,
                1.0404603337397327,
                1.8333092351416438
            ]
        },
        {
            "positions": [
                -0.6129403875486523,
                -0.5075304076927247,
                -0.338723649921562,
                -0.04284909836557499,
                0.9874459841064572,
                1.9047504699462774
            ]
        },
        {
            "positions": [
                -0.5669470421926037,
                -0.5466918718400995,
                -0.19500366284242965,
                -0.08543543688604721,
                0.9344316344731817,
                1.9761917047509114
            ]
        },
        {
            "positions": [
                -0.520953696836555,
                -0.585853335987474,
                -0.051283675763297065,
                -0.12802177540651943,
                0.8814172848399062,
                2.047632939555545
            ]
        },
        {
            "positions": [
                -0.4749603514805064,
                -0.6250148001348488,
                0.0924363113158353,
                -0.17060811392699166,
                0.8284029352066308,
                2.119074174360179
            ]
        },
        {
            "positions": [
                -0.4289670061244577,
                -0.6641762642822235,
                0.23615629839496788,
                -0.213194452447464,
                0.7753885855733552,
                2.1905154091648127
            ]
        },
        {
            "positions": [
                -0.3829736607684091,
                -0.7033377284295981,
                0.37987628547410046,
                -0.2557807909679361,
                0.7223742359400798,
                2.2619566439694463
            ]
        },
        {
            "positions": [
                -0.3369803154123604,
                -0.7424991925769728,
                0.523596272553233,
                -0.29836712948840843,
                0.6693598863068042,
                2.333397878774081
            ]
        },
        {
            "positions": [
                -0.2909869700563119,
                -0.7816606567243474,
                0.6673162596323652,
                -0.34095346800888066,
                0.6163455366735288,
                2.4048391135787144
            ]
        },
        {
            "positions": [
                -0.2449936247002632,
                -0.8208221208717221,
                0.8110362467114978,
                -0.3835398065293529,
                0.5633311870402533,
                2.476280348383348
            ]
        },
        {
            "positions": [
                -0.1990002793442146,
                -0.8599835850190967,
                0.9547562337906299,
                -0.4261261450498251,
                0.5103168374069778,
                2.5477215831879816
            ]
        },
        {
            "positions": [
                -0.1530069339881659,
                -0.8991450491664714,
                1.098476220869763,
                -0.4687124835702973,
                0.4573024877737022,
                2.6191628179926156
            ]
        },
        {
            "positions": [
                -0.1070135886321173,
                -0.9383065133138462,
                1.242196207948895,
                -0.5112988220907695,
                0.40428813814042686,
                2.6906040527972497
            ]
        },
        {
            "positions": [
                -0.0610202432760687,
                -0.9774679774612207,
                1.3859161950280277,
                -0.5538851606112418,
                0.3512737885071513,
                2.7620452876018833
            ]
        },
        {
            "positions": [
                -0.0150268979200201,
                -1.0166294416085955,
                1.5296361821071598,
                -0.5964714991317139,
                0.29825943887387574,
                2.833486522406517
            ]
        },
        {
            "positions": [
                0.03096644743602872,
                -1.0557909057559702,
                1.6733561691862928,
                -0.6390578376521863,
                0.24524508924060018,
                2.904927757211151
            ]
        },
        {
            "positions": [
                0.07695979279207732,
                -1.0949523699033448,
                1.817076156265425,
                -0.6816441761726584,
                0.19223073960732484,
                2.976368992015785
            ]
        },
        {
            "positions": [
                0.1229531381481258,
                -1.1341138340507195,
                1.9607961433445575,
                -0.7242305146931308,
                0.13921638997404934,
                3.0478102268204186
            ]
        }
    ]
}