{
    "goal": {
        "global_pose": {
            "orientation": {
                "w": -0.00223480608172531,
                "x": 0.0024358444001904467,
                "y": 0.7094548369677653,
                "z": -0.704743149386269
            },
            "position": {
                "x": 0.6205249238014221,
                "y": -0.6371506643295288,
                "z": 0.19426114857196808
            }
        },
        "name": "move_to_magneteinheit_B"
    },
    "id": "FMT_move_to_magneteinheit_B_58",
    "joint_names": [
        "shoulder_pan_joint",
        "shoulder_lift_joint",
        "elbow_joint",
        "wrist_1_joint",
        "wrist_2_joint",
        "wrist_3_joint"
    ],
    "metrics": {
        "cart_traj_len": 4.304588503647308,
        "distance_elbow_joint": 4.7971782683078015,
        "distance_shoulder_lift_joint": 0.2907849212753173,
        "distance_shoulder_pan_joint": 2.9157794198281177,
        "distance_wrist_1_joint": 2.29994327582964,
        "distance_wrist_2_joint": 1.322526572555378,
        "distance_wrist_3_joint": 1.157144237948117,
        "smoothness": 0.6081245797749828,
        "time": 1.4147844010000001,
        "traj_len": 3.575382034936179,
        "weighted_distance": 4.326674822542783
    },
    "planner": "FMT",
    "start": {
        "state": {
            "elbow_joint": 2.39358713078474,
            "shoulder_lift_joint": -1.908514104345545,
            "shoulder_pan_joint": 0.7066247066606129,
            "wrist_1_joint": -0.4678290933515497,
            "wrist_2_joint": 0.7096259083745334,
            "wrist_3_joint": -3.1358149277392293
        }
    },
    "waypoints": [
        {
            "positions": [
                0.7066247066606129,
                -1.908514104345545,
                2.39358713078474,
                -0.4678290933515497,
                0.7096259083745334,
                -3.1358149277392293
            ]
        },
        {
            "positions": [
                0.8498150135610842,
                -1.9073538828833871,
                2.381647463524037,
                -0.44171702076695646,
                0.6210541981209333,
                -3.054505194104629
            ]
        },
        {
            "positions": [
                0.9930053204615554,
                -1.9061936614212294,
                2.3697077962633344,
                -0.4156049481823632,
                0.5324824878673331,
                -2.973195460470029
            ]
        },
        {
            "positions": [
                1.1361956273620266,
                -1.9050334399590714,
                2.3577681290026318,
                -0.38949287559777,
                0.443910777613733,
                -2.8918857268354285
            ]
        },
        {
            "positions": [
                1.279385934262498,
                -1.9038732184969136,
                2.3458284617419287,
                -0.36338080301317677,
                0.3553390673601329,
                -2.8105759932008287
            ]
        },
        {
            "positions": [
                1.4225762411629692,
                -1.9027129970347558,
                2.3338887944812257,
                -0.3372687304285835,
                0.26676735710653265,
                -2.7292662595662285
            ]
        },
        {
            "positions": [
                1.5657665480634404,
                -1.901552775572598,
                2.321949127220523,
                -0.31115665784399027,
                0.17819564685293254,
                -2.6479565259316282
            ]
        },
        {
            "positions": [
                1.634292997153317,
                -1.910147964996841,
                2.1328349440342977,
                -0.3748876201649869,
                0.14680948606619343,
                -2.672907107553318
            ]
        },
        {
            "positions": [
                1.7028194462431938,
                -1.9187431544210838,
                1.9437207608480724,
                -0.43861858248598357,
                0.1154233252794543,
                -2.697857689175008
            ]
        },
        {
            "positions": [
                1.7713458953330705,
                -1.9273383438453267,
                1.7546065776618471,
                -0.5023495448069802,
                0.08403716449271519,
                -2.722808270796698
            ]
        },
        {
            "positions": [
                1.8398723444229472,
                -1.9359335332695695,
                1.5654923944756218,
                -0.5660805071279769,
                0.05265100370597606,
                -2.747758852418388
            ]
        },
        {
            "positions": [
                1.908398793512824,
                -1.9445287226938124,
                1.3763782112893965,
                -0.6298114694489736,
                0.021264842919236943,
                -2.772709434040078
            ]
        },
        {
            "positions": [
                1.9769252426027006,
                -1.953123912118055,
                1.1872640281031712,
                -0.6935424317699701,
                -0.010121317867502172,
                -2.7976600156617675
            ]
        },
        {
            "positions": [
                2.0454516916925773,
                -1.961719101542298,
                0.9981498449169459,
                -0.7572733940909668,
                -0.041507478654241314,
                -2.8226105972834574
            ]
        },
        {
            "positions": [
                2.113978140782454,
                -1.9703142909665408,
                0.8090356617307206,
                -0.8210043564119635,
                -0.07289363944098043,
                -2.8475611789051474
            ]
        },
        {
            "positions": [
                2.182504589872331,
                -1.9789094803907836,
                0.6199214785444953,
                -0.8847353187329602,
                -0.10427980022771954,
                -2.8725117605268373
            ]
        },
        {
            "positions": [
                2.251031038962208,
                -1.9875046698150265,
                0.43080729535827,
                -0.9484662810539568,
                -0.13566596101445866,
                -2.8974623421485273
            ]
        },
        {
            "positions": [
                2.3195574880520846,
                -1.9960998592392694,
                0.2416931121720447,
                -1.0121972433749535,
                -0.16705212180119783,
                -2.922412923770217
            ]
        },
        {
            "positions": [
                2.3880839371419613,
                -2.0046950486635122,
                0.052578928985819395,
                -1.07592820569595,
                -0.1984382825879369,
                -2.947363505391907
            ]
        },
        {
            "positions": [
                2.456610386231838,
                -2.013290238087755,
                -0.1365352542004059,
                -1.1396591680169466,
                -0.229824443374676,
                -2.972314087013597
            ]
        },
        {
            "positions": [
                2.5251368353217147,
                -2.021885427511998,
                -0.3256494373866312,
                -1.2033901303379435,
                -0.26121060416141517,
                -2.997264668635287
            ]
        },
        {
            "positions": [
                2.5936632844115914,
                -2.0304806169362406,
                -0.5147636205728565,
                -1.26712109265894,
                -0.2925967649481543,
                -3.022215250256977
            ]
        },
        {
            "positions": [
                2.662189733501468,
                -2.0390758063604837,
                -0.7038778037590818,
                -1.3308520549799367,
                -0.3239829257348934,
                -3.047165831878667
            ]
        },
        {
            "positions": [
                2.730716182591345,
                -2.0476709957847263,
                -0.8929919869453071,
                -1.3945830173009335,
                -0.35536908652163246,
                -3.072116413500357
            ]
        },
        {
            "positions": [
                2.7992426316812216,
                -2.0562661852089694,
                -1.0821061701315324,
                -1.4583139796219302,
                -0.38675524730837163,
                -3.097066995122047
            ]
        },
        {
            "positions": [
                2.8677690807710983,
                -2.064861374633212,
                -1.2712203533177577,
                -1.5220449419429265,
                -0.4181414080951108,
                -3.1220175767437364
            ]
        },
        {
            "positions": [
                2.936295529860975,
                -2.073456564057455,
                -1.460334536503983,
                -1.5857759042639232,
                -0.44952756888184986,
                -3.1469681583654263
            ]
        },
        {
            "positions": [
                3.0048219789508517,
                -2.082051753481698,
                -1.649448719690208,
                -1.64950686658492,
                -0.48091372966858903,
                -3.1719187399871163
            ]
        },
        {
            "positions": [
                3.0733484280407284,
                -2.090646942905941,
                -1.8385629028764336,
                -1.7132378289059167,
                -0.5122998904553282,
                -3.196869321608806
            ]
        },
        {
            "positions": [
                3.141874877130605,
                -2.0992421323301835,
                -2.027677086062659,
                -1.7769687912269132,
                -0.5436860512420673,
                -3.221819903230496
            ]
        },
        {
            "positions": [
                3.04576902725898,
                -2.1164689794791407,
                -1.9524942757705785,
                -1.9124605326147448,
                -0.5298431286543118,
                -3.2027354114621667
            ]
        },
        {
            "positions": [
                2.9496631773873547,
                -2.1336958266280974,
                -1.8773114654784981,
                -2.047952274002576,
                -0.5160002060665564,
                -3.183650919693837
            ]
        },
        {
            "positions": [
                2.85355732751573,
                -2.1509226737770546,
                -1.8021286551864177,
                -2.1834440153904078,
                -0.5021572834788011,
                -3.1645664279255072
            ]
        },
        {
            "positions": [
                2.757451477644105,
                -2.1681495209260113,
                -1.7269458448943371,
                -2.3189357567782394,
                -0.48831436089104563,
                -3.1454819361571777
            ]
        },
        {
            "positions": [
                2.6613456277724796,
                -2.1853763680749685,
                -1.6517630346022567,
                -2.454427498166071,
                -0.4744714383032902,
                -3.1263974443888483
            ]
        }
    ]
}