{
    "goal": {
        "global_pose": {
            "orientation": {
                "w": -0.00223480608172531,
                "x": 0.0024358444001904467,
                "y": 0.7094548369677653,
                "z": -0.704743149386269
            },
            "position": {
                "x": 0.6205249238014221,
                "y": -0.6371506643295288,
                "z": 0.19426114857196808
            }
        },
        "name": "move_to_magneteinheit_B"
    },
    "id": "FMT_move_to_magneteinheit_B_35",
    "joint_names": [
        "shoulder_pan_joint",
        "shoulder_lift_joint",
        "elbow_joint",
        "wrist_1_joint",
        "wrist_2_joint",
        "wrist_3_joint"
    ],
    "metrics": {
        "cart_traj_len": 1.4520917340396895,
        "distance_elbow_joint": 0.7273755248709508,
        "distance_shoulder_lift_joint": 1.24631785336249,
        "distance_shoulder_pan_joint": 1.6209337568944409,
        "distance_wrist_1_joint": 2.610147339753405,
        "distance_wrist_2_joint": 2.936985280881927,
        "distance_wrist_3_joint": 3.131554220355691,
        "smoothness": 3.608224835116546e-16,
        "time": 1.310852829,
        "traj_len": 3.503328984854107,
        "weighted_distance": 4.90749987646109
    },
    "planner": "FMT",
    "start": {
        "state": {
            "elbow_joint": 2.39358713078474,
            "shoulder_lift_joint": -1.908514104345545,
            "shoulder_pan_joint": 0.7066247066606129,
            "wrist_1_joint": -0.4678290933515497,
            "wrist_2_joint": 0.7096259083745334,
            "wrist_3_joint": -3.1358149277392293
        }
    },
    "waypoints": [
        {
            "positions": [
                0.7066247066606129,
                -1.908514104345545,
                2.39358713078474,
                -0.4678290933515497,
                0.7096259083745334,
                -3.1358149277392293
            ]
        },
        {
            "positions": [
                0.6543365209543407,
                -1.8683103026241743,
                2.3701234041759998,
                -0.3836307920691818,
                0.6148844477009229,
                -3.0347970496632395
            ]
        },
        {
            "positions": [
                0.6020483352480683,
                -1.8281065009028037,
                2.3466596775672595,
                -0.2994324907868139,
                0.5201429870273123,
                -2.933779171587249
            ]
        },
        {
            "positions": [
                0.5497601495417961,
                -1.787902699181433,
                2.323195950958519,
                -0.215234189504446,
                0.4254015263537018,
                -2.8327612935112594
            ]
        },
        {
            "positions": [
                0.49747196383552383,
                -1.7476988974600625,
                2.299732224349779,
                -0.13103588822207812,
                0.33066006568009126,
                -2.731743415435269
            ]
        },
        {
            "positions": [
                0.44518377812925153,
                -1.7074950957386916,
                2.276268497741038,
                -0.046837586939710185,
                0.2359186050064807,
                -2.6307255373592793
            ]
        },
        {
            "positions": [
                0.3928955924229792,
                -1.667291294017321,
                2.252804771132298,
                0.0373607143426577,
                0.1411771443328702,
                -2.529707659283289
            ]
        },
        {
            "positions": [
                0.340607406716707,
                -1.6270874922959504,
                2.2293410445235575,
                0.12155901562502563,
                0.04643568365925965,
                -2.428689781207299
            ]
        },
        {
            "positions": [
                0.28831922101043467,
                -1.5868836905745798,
                2.2058773179148172,
                0.20575731690739346,
                -0.048305777014350904,
                -2.327671903131309
            ]
        },
        {
            "positions": [
                0.23603103530416236,
                -1.5466798888532092,
                2.182413591306077,
                0.2899556181897615,
                -0.14304723768796157,
                -2.226654025055319
            ]
        },
        {
            "positions": [
                0.1837428495978901,
                -1.5064760871318386,
                2.1589498646973366,
                0.37415391947212934,
                -0.23778869836157202,
                -2.1256361469793292
            ]
        },
        {
            "positions": [
                0.13145466389161775,
                -1.4662722854104677,
                2.1354861380885963,
                0.4583522207544973,
                -0.3325301590351827,
                -2.024618268903339
            ]
        },
        {
            "positions": [
                0.0791664781853455,
                -1.426068483689097,
                2.112022411479856,
                0.5425505220368652,
                -0.427271619708793,
                -1.923600390827349
            ]
        },
        {
            "positions": [
                0.02687829247907325,
                -1.3858646819677265,
                2.0885586848711153,
                0.6267488233192331,
                -0.5220130803824038,
                -1.8225825127513589
            ]
        },
        {
            "positions": [
                -0.025409893227199,
                -1.3456608802463559,
                2.0650949582623754,
                0.710947124601601,
                -0.6167545410560141,
                -1.721564634675369
            ]
        },
        {
            "positions": [
                -0.07769807893347136,
                -1.3054570785249853,
                2.0416312316536347,
                0.795145425883969,
                -0.7114960017296249,
                -1.6205467565993787
            ]
        },
        {
            "positions": [
                -0.1299862646397436,
                -1.2652532768036147,
                2.0181675050448944,
                0.8793437271663367,
                -0.8062374624032352,
                -1.519528878523389
            ]
        },
        {
            "positions": [
                -0.18227445034601586,
                -1.225049475082244,
                1.994703778436154,
                0.9635420284487046,
                -0.9009789230768458,
                -1.4185110004473989
            ]
        },
        {
            "positions": [
                -0.23456263605228822,
                -1.1848456733608734,
                1.9712400518274138,
                1.0477403297310728,
                -0.9957203837504566,
                -1.3174931223714086
            ]
        },
        {
            "positions": [
                -0.28685082175856047,
                -1.1446418716395028,
                1.9477763252186735,
                1.1319386310134405,
                -1.090461844424067,
                -1.2164752442954188
            ]
        },
        {
            "positions": [
                -0.3391390074648327,
                -1.1044380699181322,
                1.9243125986099332,
                1.2161369322958084,
                -1.1852033050976774,
                -1.1154573662194287
            ]
        },
        {
            "positions": [
                -0.39142719317110497,
                -1.0642342681967616,
                1.900848872001193,
                1.3003352335781762,
                -1.2799447657712881,
                -1.0144394881434389
            ]
        },
        {
            "positions": [
                -0.44371537887737744,
                -1.0240304664753908,
                1.8773851453924524,
                1.3845335348605443,
                -1.374686226444899,
                -0.9134216100674486
            ]
        },
        {
            "positions": [
                -0.4960035645836497,
                -0.9838266647540201,
                1.853921418783712,
                1.468731836142912,
                -1.4694276871185092,
                -0.8124037319914588
            ]
        },
        {
            "positions": [
                -0.5482917502899219,
                -0.9436228630326495,
                1.8304576921749716,
                1.55293013742528,
                -1.5641691477921196,
                -0.7113858539154685
            ]
        },
        {
            "positions": [
                -0.6005799359961942,
                -0.9034190613112789,
                1.8069939655662313,
                1.6371284387076477,
                -1.6589106084657304,
                -0.6103679758394787
            ]
        },
        {
            "positions": [
                -0.6528681217024664,
                -0.8632152595899081,
                1.783530238957491,
                1.7213267399900158,
                -1.7536520691393411,
                -0.5093500977634884
            ]
        },
        {
            "positions": [
                -0.7051563074087387,
                -0.8230114578685375,
                1.7600665123487507,
                1.8055250412723836,
                -1.8483935298129515,
                -0.40833221968749855
            ]
        },
        {
            "positions": [
                -0.7574444931150109,
                -0.7828076561471671,
                1.7366027857400104,
                1.8897233425547517,
                -1.9431349904865618,
                -0.3073143416115087
            ]
        },
        {
            "positions": [
                -0.8097326788212832,
                -0.7426038544257965,
                1.71313905913127,
                1.9739216438371194,
                -2.0378764511601726,
                -0.20629646353551845
            ]
        },
        {
            "positions": [
                -0.8620208645275557,
                -0.7024000527044256,
                1.6896753325225295,
                2.0581199451194876,
                -2.1326179118337834,
                -0.10527858545952817
            ]
        },
        {
            "positions": [
                -0.9143090502338279,
                -0.6621962509830549,
                1.6662116059137893,
                2.1423182464018553,
                -2.2273593725073937,
                -0.004260707383538491
            ]
        }
    ]
}