{
    "goal": {
        "global_pose": {
            "orientation": {
                "w": 0.7031023502349854,
                "x": -0.7110244035720825,
                "y": 0.007748599164187908,
                "z": 0.005598929710686207
            },
            "position": {
                "x": 0.11585023208521307,
                "y": 0.44412534475326537,
                "z": 0.3711530566215515
            }
        },
        "name": "move_to_auspresseinheit_A"
    },
    "id": "FMT_move_to_auspresseinheit_A_139",
    "joint_names": [
        "shoulder_pan_joint",
        "shoulder_lift_joint",
        "elbow_joint",
        "wrist_1_joint",
        "wrist_2_joint",
        "wrist_3_joint"
    ],
    "metrics": {
        "cart_traj_len": 0.9455165524358642,
        "distance_elbow_joint": 0.3489682914056633,
        "distance_shoulder_lift_joint": 0.9316851125901666,
        "distance_shoulder_pan_joint": 1.408368205749012,
        "distance_wrist_1_joint": 1.5950995295678172,
        "distance_wrist_2_joint": 1.8414265534970033,
        "distance_wrist_3_joint": 1.0123330301984312,
        "smoothness": 1.56566893225761,
        "time": 1.296506957,
        "traj_len": 2.671681254006191,
        "weighted_distance": 3.5495172723160224
    },
    "planner": "FMT",
    "start": {
        "state": {
            "elbow_joint": 2.422574709923281,
            "shoulder_lift_joint": -1.3736533754116391,
            "shoulder_pan_joint": -0.33786336945926293,
            "wrist_1_joint": -1.0288603412921917,
            "wrist_2_joint": 1.2330224858903978,
            "wrist_3_joint": -3.094022268022082
        }
    },
    "waypoints": [
        {
            "positions": [
                -0.33786336945926293,
                -1.3736533754116391,
                2.422574709923281,
                -1.0288603412921917,
                1.2330224858903978,
                -3.094022268022082
            ]
        },
        {
            "positions": [
                -0.2745685830797153,
                -1.4062382787879115,
                2.431987980060931,
                -0.9211864446894448,
                1.114512061029406,
                -3.049088785083049
            ]
        },
        {
            "positions": [
                -0.21127379670016766,
                -1.4388231821641837,
                2.441401250198581,
                -0.8135125480866978,
                0.9960016361684141,
                -3.0041553021440164
            ]
        },
        {
            "positions": [
                -0.14797901032062005,
                -1.471408085540456,
                2.450814520336231,
                -0.705838651483951,
                0.8774912113074222,
                -2.9592218192049833
            ]
        },
        {
            "positions": [
                -0.08468422394107239,
                -1.5039929889167283,
                2.4602277904738807,
                -0.5981647548812039,
                0.7589807864464304,
                -2.91428833626595
            ]
        },
        {
            "positions": [
                -0.021389437561524782,
                -1.5365778922930007,
                2.469641060611531,
                -0.49049085827845706,
                0.6404703615854387,
                -2.869354853326917
            ]
        },
        {
            "positions": [
                0.041905348818022825,
                -1.569162795669273,
                2.479054330749181,
                -0.3828169616757101,
                0.5219599367244468,
                -2.8244213703878844
            ]
        },
        {
            "positions": [
                0.10520013519757043,
                -1.6017476990455453,
                2.488467600886831,
                -0.27514306507296327,
                0.4034495118634551,
                -2.7794878874488513
            ]
        },
        {
            "positions": [
                0.16849492157711815,
                -1.6343326024218177,
                2.497880871024481,
                -0.1674691684702162,
                0.2849390870024632,
                -2.7345544045098182
            ]
        },
        {
            "positions": [
                0.2317897079566657,
                -1.6669175057980898,
                2.507294141162131,
                -0.05979527186746936,
                0.16642866214147145,
                -2.6896209215707856
            ]
        },
        {
            "positions": [
                0.29508449433621337,
                -1.6995024091743622,
                2.5167074112997807,
                0.04787862473527759,
                0.04791823728047966,
                -2.6446874386317525
            ]
        },
        {
            "positions": [
                0.4101029930848816,
                -1.7519317498938318,
                2.503366252596642,
                0.030588072119815245,
                0.09855365946473554,
                -2.721865951441108
            ]
        },
        {
            "positions": [
                0.47787458631881896,
                -1.7843052070455252,
                2.4904715403208058,
                -0.010535359372946213,
                0.16177174382418574,
                -2.7821538091866014
            ]
        },
        {
            "positions": [
                0.5456461795527564,
                -1.8166786641972184,
                2.47757682804497,
                -0.05165879086570767,
                0.22498982818363597,
                -2.8424416669320944
            ]
        },
        {
            "positions": [
                0.6134177727866938,
                -1.8490521213489117,
                2.4646821157691337,
                -0.09278222235846914,
                0.2882079125430862,
                -2.902729524677588
            ]
        },
        {
            "positions": [
                0.5526572995698407,
                -1.9347125763046198,
                2.4186663929711316,
                -0.09126268208901993,
                0.3006848917264445,
                -2.991952640203137
            ]
        },
        {
            "positions": [
                0.49189682635298754,
                -2.020373031260328,
                2.3726506701731296,
                -0.0897431418195707,
                0.3131618709098029,
                -3.0811757557286863
            ]
        },
        {
            "positions": [
                0.43113635313613435,
                -2.106033486216036,
                2.3266349473751275,
                -0.08822360155012149,
                0.32563885009316124,
                -3.1703988712542355
            ]
        },
        {
            "positions": [
                0.4998377640992582,
                -2.0562072357695933,
                2.3428257289012553,
                -0.18150887545968486,
                0.4202892731117621,
                -3.161077179207831
            ]
        },
        {
            "positions": [
                0.568539175062382,
                -2.006380985323151,
                2.3590165104273826,
                -0.2747941493692482,
                0.5149396961303631,
                -3.1517554871614264
            ]
        },
        {
            "positions": [
                0.6372405860255059,
                -1.9565547348767085,
                2.3752072919535103,
                -0.36807942327881155,
                0.6095901191489639,
                -3.1424337951150214
            ]
        },
        {
            "positions": [
                0.7059419969886297,
                -1.906728484430266,
                2.391398073479638,
                -0.4613646971883749,
                0.7042405421675648,
                -3.133112103068617
            ]
        }
    ]
}