{
    "goal": {
        "global_pose": {
            "orientation": {
                "w": 0.7047431468963623,
                "x": -0.7094548344612122,
                "y": 0.0024358443915843964,
                "z": -0.0022348060738295317
            },
            "position": {
                "x": 0.6094750761985779,
                "y": 0.3671506643295288,
                "z": 0.19426114857196808
            }
        },
        "name": "move_to_magneteinheit_A"
    },
    "id": "FMT_move_to_magneteinheit_A_142",
    "joint_names": [
        "shoulder_pan_joint",
        "shoulder_lift_joint",
        "elbow_joint",
        "wrist_1_joint",
        "wrist_2_joint",
        "wrist_3_joint"
    ],
    "metrics": {
        "cart_traj_len": 2.0631585481764683,
        "distance_elbow_joint": 3.8783885424829725,
        "distance_shoulder_lift_joint": 1.0551347043897612,
        "distance_shoulder_pan_joint": 1.2410975498249361,
        "distance_wrist_1_joint": 1.1399514839047384,
        "distance_wrist_2_joint": 1.4376157977555188,
        "distance_wrist_3_joint": 4.364200129080816,
        "smoothness": 1.7763568463082764e-16,
        "time": 1.355142053,
        "traj_len": 3.6216554512320376,
        "weighted_distance": 4.941897990373804
    },
    "planner": "FMT",
    "start": {
        "state": {
            "elbow_joint": -1.919643507792019,
            "shoulder_lift_joint": -0.07675430207160344,
            "shoulder_pan_joint": -1.1188671864651873,
            "wrist_1_joint": 0.42560062535961957,
            "wrist_2_joint": 1.5706038300724876,
            "wrist_3_joint": 1.1188968870953055
        }
    },
    "waypoints": [
        {
            "positions": [
                -1.1188671864651873,
                -0.07675430207160344,
                -1.919643507792019,
                0.42560062535961957,
                1.5706038300724876,
                1.1188968870953055
            ]
        },
        {
            "positions": [
                -1.081834062230212,
                -0.108592393299306,
                -1.803205317706283,
                0.3910905637949555,
                1.527928502741684,
                0.9875183196582988
            ]
        },
        {
            "positions": [
                -1.044800937995237,
                -0.14043048452700857,
                -1.6867671276205467,
                0.3565805022302914,
                1.4852531754108804,
                0.8561397522212921
            ]
        },
        {
            "positions": [
                -1.0077678137602617,
                -0.1722685757547111,
                -1.5703289375348106,
                0.32207044066562734,
                1.4425778480800768,
                0.7247611847842854
            ]
        },
        {
            "positions": [
                -0.9707346895252866,
                -0.20410666698241367,
                -1.4538907474490745,
                0.28756037910096327,
                1.3999025207492732,
                0.5933826173472787
            ]
        },
        {
            "positions": [
                -0.9337015652903115,
                -0.23594475821011623,
                -1.3374525573633385,
                0.2530503175362992,
                1.3572271934184696,
                0.462004049910272
            ]
        },
        {
            "positions": [
                -0.8966684410553363,
                -0.2677828494378188,
                -1.2210143672776024,
                0.21854025597163512,
                1.314551866087666,
                0.3306254824732653
            ]
        },
        {
            "positions": [
                -0.859635316820361,
                -0.29962094066552136,
                -1.104576177191866,
                0.18403019440697105,
                1.2718765387568625,
                0.19924691503625858
            ]
        },
        {
            "positions": [
                -0.8226021925853859,
                -0.3314590318932239,
                -0.98813798710613,
                0.14952013284230697,
                1.2292012114260589,
                0.06786834759925187
            ]
        },
        {
            "positions": [
                -0.7855690683504107,
                -0.36329712312092644,
                -0.8716997970203939,
                0.1150100712776429,
                1.1865258840952553,
                -0.06351021983775462
            ]
        },
        {
            "positions": [
                -0.7485359441154356,
                -0.395135214348629,
                -0.7552616069346576,
                0.08050000971297883,
                1.1438505567644517,
                -0.19488878727476155
            ]
        },
        {
            "positions": [
                -0.7115028198804604,
                -0.42697330557633156,
                -0.6388234168489217,
                0.04598994814831475,
                1.101175229433648,
                -0.32626735471176804
            ]
        },
        {
            "positions": [
                -0.6744696956454852,
                -0.45881139680403416,
                -0.5223852267631854,
                0.011479886583650678,
                1.0584999021028447,
                -0.457645922148775
            ]
        },
        {
            "positions": [
                -0.63743657141051,
                -0.49064948803173664,
                -0.40594703667744936,
                -0.023030174981013396,
                1.015824574772041,
                -0.5890244895857815
            ]
        },
        {
            "positions": [
                -0.6004034471755347,
                -0.5224875792594392,
                -0.28950884659171305,
                -0.05754023654567747,
                0.9731492474412374,
                -0.7204030570227884
            ]
        },
        {
            "positions": [
                -0.5633703229405597,
                -0.5543256704871418,
                -0.1730706565059772,
                -0.09205029811034154,
                0.9304739201104338,
                -0.8517816244597949
            ]
        },
        {
            "positions": [
                -0.5263371987055844,
                -0.5861637617148443,
                -0.05663246642024089,
                -0.12656035967500562,
                0.8877985927796302,
                -0.9831601918968018
            ]
        },
        {
            "positions": [
                -0.4893040744706093,
                -0.6180018529425468,
                0.05980572366549519,
                -0.1610704212396697,
                0.8451232654488267,
                -1.1145387593338083
            ]
        },
        {
            "positions": [
                -0.45227095023563413,
                -0.6498399441702494,
                0.17624391375123127,
                -0.19558048280433377,
                0.8024479381180232,
                -1.2459173267708148
            ]
        },
        {
            "positions": [
                -0.41523782600065884,
                -0.6816780353979521,
                0.2926821038369678,
                -0.23009054436899784,
                0.7597726107872195,
                -1.3772958942078222
            ]
        },
        {
            "positions": [
                -0.37820470176568366,
                -0.7135161266256547,
                0.4091202939227039,
                -0.2646006059336619,
                0.7170972834564159,
                -1.5086744616448287
            ]
        },
        {
            "positions": [
                -0.3411715775307085,
                -0.7453542178533572,
                0.5255584840084395,
                -0.299110667498326,
                0.6744219561256123,
                -1.6400530290818351
            ]
        },
        {
            "positions": [
                -0.3041384532957334,
                -0.7771923090810597,
                0.6419966740941756,
                -0.33362072906299006,
                0.6317466287948088,
                -1.7714315965188416
            ]
        },
        {
            "positions": [
                -0.2671053290607581,
                -0.8090304003087623,
                0.7584348641799121,
                -0.36813079062765414,
                0.5890713014640051,
                -1.902810163955849
            ]
        },
        {
            "positions": [
                -0.23007220482578294,
                -0.8408684915364648,
                0.8748730542656482,
                -0.4026408521923182,
                0.5463959741332016,
                -2.0341887313928555
            ]
        },
        {
            "positions": [
                -0.19303908059080777,
                -0.8727065827641673,
                0.9913112443513843,
                -0.4371509137569823,
                0.503720646802398,
                -2.165567298829862
            ]
        },
        {
            "positions": [
                -0.1560059563558327,
                -0.9045446739918699,
                1.1077494344371204,
                -0.47166097532164636,
                0.46104531947159444,
                -2.2969458662668685
            ]
        },
        {
            "positions": [
                -0.11897283212085741,
                -0.9363827652195724,
                1.224187624522857,
                -0.5061710368863106,
                0.4183699921407906,
                -2.428324433703876
            ]
        },
        {
            "positions": [
                -0.08193970788588212,
                -0.968220856447275,
                1.340625814608593,
                -0.5406810984509745,
                0.37569466480998726,
                -2.5597030011408823
            ]
        },
        {
            "positions": [
                -0.04490658365090705,
                -1.0000589476749775,
                1.4570640046943286,
                -0.5751911600156385,
                0.33301933747918366,
                -2.691081568577889
            ]
        },
        {
            "positions": [
                -0.007873459415931983,
                -1.03189703890268,
                1.5735021947800647,
                -0.6097012215803026,
                0.29034401014838007,
                -2.8224601360148953
            ]
        },
        {
            "positions": [
                0.029159664819043307,
                -1.0637351301303828,
                1.6899403848658012,
                -0.6442112831449667,
                0.24766868281757648,
                -2.9538387034519027
            ]
        },
        {
            "positions": [
                0.0661927890540186,
                -1.0955732213580853,
                1.8063785749515373,
                -0.6787213447096307,
                0.2049933554867729,
                -3.085217270888909
            ]
        },
        {
            "positions": [
                0.10322591328899366,
                -1.1274113125857879,
                1.9228167650372732,
                -0.7132314062742948,
                0.16231802815596924,
                -3.2165958383259157
            ]
        },
        {
            "positions": [
                0.1222303633597489,
                -1.1318890064613647,
                1.9587450346909534,
                -0.7143508585451188,
                0.1329880323169688,
                -3.2453032419855097
            ]
        }
    ]
}