{
    "goal": {
        "global_pose": {
            "orientation": {
                "w": 0.7031023502349854,
                "x": -0.7110244035720825,
                "y": 0.007748599164187908,
                "z": 0.005598929710686207
            },
            "position": {
                "x": 0.11585023208521307,
                "y": 0.44412534475326537,
                "z": 0.3711530566215515
            }
        },
        "name": "move_to_auspresseinheit_A"
    },
    "id": "FMT_move_to_auspresseinheit_A_33",
    "joint_names": [
        "shoulder_pan_joint",
        "shoulder_lift_joint",
        "elbow_joint",
        "wrist_1_joint",
        "wrist_2_joint",
        "wrist_3_joint"
    ],
    "metrics": {
        "cart_traj_len": 2.1467861841587434,
        "distance_elbow_joint": 1.8104882550135688,
        "distance_shoulder_lift_joint": 1.8277260376454512,
        "distance_shoulder_pan_joint": 5.1830704127452885,
        "distance_wrist_1_joint": 5.473261428649092,
        "distance_wrist_2_joint": 2.4171383020749198,
        "distance_wrist_3_joint": 0.6909453907503553,
        "smoothness": 0.6996840572552583,
        "time": 1.267199507,
        "traj_len": 4.17164593738235,
        "weighted_distance": 5.16477689151268
    },
    "planner": "FMT",
    "start": {
        "state": {
            "elbow_joint": 2.422574709923281,
            "shoulder_lift_joint": -1.3736533754116391,
            "shoulder_pan_joint": -0.33786336945926293,
            "wrist_1_joint": -1.0288603412921917,
            "wrist_2_joint": 1.2330224858903978,
            "wrist_3_joint": -3.094022268022082
        }
    },
    "waypoints": [
        {
            "positions": [
                -0.33786336945926293,
                -1.3736533754116391,
                2.422574709923281,
                -1.0288603412921917,
                1.2330224858903978,
                -3.094022268022082
            ]
        },
        {
            "positions": [
                -0.4278614864704752,
                -1.4249878777031753,
                2.3825447444550094,
                -0.8974867363807979,
                1.1688678944212998,
                -3.0799553219266023
            ]
        },
        {
            "positions": [
                -0.5178596034816876,
                -1.4763223799947116,
                2.342514778986738,
                -0.7661131314694041,
                1.1047133029522018,
                -3.065888375831122
            ]
        },
        {
            "positions": [
                -0.6078577204928999,
                -1.5276568822862477,
                2.3024848135184666,
                -0.6347395265580102,
                1.0405587114831039,
                -3.051821429735642
            ]
        },
        {
            "positions": [
                -0.6978558375041122,
                -1.578991384577784,
                2.262454848050195,
                -0.5033659216466165,
                0.976404120014006,
                -3.0377544836401618
            ]
        },
        {
            "positions": [
                -0.7878539545153245,
                -1.6303258868693202,
                2.2224248825819237,
                -0.3719923167352227,
                0.912249528544908,
                -3.023687537544682
            ]
        },
        {
            "positions": [
                -0.8778520715265368,
                -1.6816603891608564,
                2.182394917113652,
                -0.24061871182382888,
                0.8480949370758101,
                -3.0096205914492016
            ]
        },
        {
            "positions": [
                -0.9678501885377493,
                -1.7329948914523927,
                2.1423649516453804,
                -0.10924510691243505,
                0.7839403456067121,
                -2.9955536453537217
            ]
        },
        {
            "positions": [
                -1.0578483055489614,
                -1.784329393743929,
                2.102334986177109,
                0.022128497998958663,
                0.7197857541376143,
                -2.9814866992582414
            ]
        },
        {
            "positions": [
                -1.1478464225601739,
                -1.8356638960354652,
                2.0623050207088376,
                0.1535021029103525,
                0.6556311626685162,
                -2.9674197531627615
            ]
        },
        {
            "positions": [
                -1.2378445395713862,
                -1.8869983983270013,
                2.022275055240566,
                0.2848757078217463,
                0.5914765711994183,
                -2.953352807067281
            ]
        },
        {
            "positions": [
                -1.3278426565825985,
                -1.9383329006185377,
                1.9822450897722945,
                0.41624931273314014,
                0.5273219797303204,
                -2.9392858609718013
            ]
        },
        {
            "positions": [
                -1.4178407735938108,
                -1.9896674029100738,
                1.9422151243040229,
                0.547622917644534,
                0.4631673882612224,
                -2.925218914876321
            ]
        },
        {
            "positions": [
                -1.507838890605023,
                -2.04100190520161,
                1.9021851588357515,
                0.6789965225559276,
                0.39901279679212454,
                -2.911151968780841
            ]
        },
        {
            "positions": [
                -1.5978370076162356,
                -2.0923364074931463,
                1.8621551933674798,
                0.8103701274673216,
                0.33485820532302646,
                -2.897085022685361
            ]
        },
        {
            "positions": [
                -1.6878351246274477,
                -2.1436709097846824,
                1.8221252278992084,
                0.9417437323787154,
                0.2707036138539285,
                -2.883018076589881
            ]
        },
        {
            "positions": [
                -1.77783324163866,
                -2.1950054120762186,
                1.782095262430937,
                1.073117337290109,
                0.20654902238483075,
                -2.8689511304944006
            ]
        },
        {
            "positions": [
                -1.8678313586498723,
                -2.2463399143677547,
                1.7420652969626653,
                1.2044909422015029,
                0.14239443091573278,
                -2.8548841843989208
            ]
        },
        {
            "positions": [
                -1.9578294756610848,
                -2.2976744166592913,
                1.702035331494394,
                1.3358645471128967,
                0.0782398394466346,
                -2.8408172383034405
            ]
        },
        {
            "positions": [
                -2.047827592672297,
                -2.3490089189508274,
                1.6620053660261225,
                1.4672381520242905,
                0.014085247977536852,
                -2.8267502922079606
            ]
        },
        {
            "positions": [
                -2.137825709683509,
                -2.400343421242364,
                1.6219754005578508,
                1.5986117569356844,
                -0.050069343491561114,
                -2.8126833461124807
            ]
        },
        {
            "positions": [
                -2.2278238266947215,
                -2.4516779235339,
                1.5819454350895794,
                1.7299853618470782,
                -0.11422393496065908,
                -2.7986164000170004
            ]
        },
        {
            "positions": [
                -2.3178219437059338,
                -2.5030124258254363,
                1.541915469621308,
                1.861358966758472,
                -0.17837852642975704,
                -2.78454945392152
            ]
        },
        {
            "positions": [
                -2.407820060717146,
                -2.5543469281169724,
                1.5018855041530363,
                1.9927325716698658,
                -0.242533117898855,
                -2.77048250782604
            ]
        },
        {
            "positions": [
                -2.2663148915586278,
                -2.5249363606196944,
                1.5423309154822784,
                1.8812930936840917,
                -0.19973390434041557,
                -2.787182763760327
            ]
        },
        {
            "positions": [
                -2.124809722400109,
                -2.4955257931224164,
                1.5827763268115203,
                1.7698536156983176,
                -0.15693469078197614,
                -2.8038830196946143
            ]
        },
        {
            "positions": [
                -1.9833045532415907,
                -2.466115225625138,
                1.6232217381407623,
                1.6584141377125436,
                -0.11413547722353673,
                -2.820583275628901
            ]
        },
        {
            "positions": [
                -1.8417993840830724,
                -2.43670465812786,
                1.6636671494700044,
                1.5469746597267693,
                -0.07133626366509727,
                -2.837283531563188
            ]
        },
        {
            "positions": [
                -1.700294214924554,
                -2.407294090630582,
                1.7041125607992464,
                1.4355351817409954,
                -0.028537050106657857,
                -2.853983787497475
            ]
        },
        {
            "positions": [
                -1.5587890457660354,
                -2.377883523133304,
                1.7445579721284883,
                1.3240957037552212,
                0.014262163451781551,
                -2.870684043431762
            ]
        },
        {
            "positions": [
                -1.417283876607517,
                -2.348472955636026,
                1.7850033834577304,
                1.212656225769447,
                0.057061377010221015,
                -2.8873842993660492
            ]
        },
        {
            "positions": [
                -1.2757787074489986,
                -2.3190623881387475,
                1.8254487947869724,
                1.1012167477836727,
                0.09986059056866048,
                -2.904084555300336
            ]
        },
        {
            "positions": [
                -1.13427353829048,
                -2.2896518206414695,
                1.8658942061162145,
                0.9897772697978988,
                0.14265980412709994,
                -2.920784811234623
            ]
        },
        {
            "positions": [
                -0.9927683691319618,
                -2.2602412531441916,
                1.9063396174454563,
                0.8783377918121247,
                0.1854590176855393,
                -2.93748506716891
            ]
        },
        {
            "positions": [
                -0.8512631999734432,
                -2.2308306856469136,
                1.9467850287746984,
                0.7668983138263505,
                0.22825823124397876,
                -2.954185323103197
            ]
        },
        {
            "positions": [
                -0.709758030814925,
                -2.2014201181496356,
                1.9872304401039402,
                0.6554588358405766,
                0.2710574448024181,
                -2.9708855790374837
            ]
        },
        {
            "positions": [
                -0.5682528616564062,
                -2.172009550652357,
                2.0276758514331825,
                0.5440193578548023,
                0.31385665836085763,
                -2.987585834971771
            ]
        },
        {
            "positions": [
                -0.4267476924978879,
                -2.142598983155079,
                2.0681212627624244,
                0.43257987986902813,
                0.35665587191929704,
                -3.004286090906058
            ]
        },
        {
            "positions": [
                -0.28524252333936984,
                -2.113188415657801,
                2.108566674091666,
                0.3211404018832542,
                0.39945508547773645,
                -3.0209863468403446
            ]
        },
        {
            "positions": [
                -0.1437373541808511,
                -2.083777848160523,
                2.1490120854209085,
                0.20970092389747985,
                0.44225429903617597,
                -3.037686602774632
            ]
        },
        {
            "positions": [
                -0.0022321850223328,
                -2.0543672806632447,
                2.1894574967501503,
                0.09826144591170594,
                0.4850535125946154,
                -3.0543868587089187
            ]
        },
        {
            "positions": [
                0.13927298413618594,
                -2.0249567131659667,
                2.2299029080793926,
                -0.013178032074068202,
                0.5278527261530549,
                -3.071087114643206
            ]
        },
        {
            "positions": [
                0.28077815329470424,
                -1.9955461456686887,
                2.2703483194086345,
                -0.12461751005984256,
                0.5706519397114942,
                -3.0877873705774928
            ]
        },
        {
            "positions": [
                0.42228332245322253,
                -1.9661355781714107,
                2.3107937307378763,
                -0.23605698804561648,
                0.6134511532699336,
                -3.1044876265117796
            ]
        },
        {
            "positions": [
                0.5637884916117413,
                -1.9367250106741327,
                2.3512391420671186,
                -0.34749646603139084,
                0.6562503668283731,
                -3.121187882446067
            ]
        },
        {
            "positions": [
                0.7052936607702595,
                -1.9073144431768545,
                2.3916845533963604,
                -0.45893594401716487,
                0.6990495803868125,
                -3.1378881383803536
            ]
        }
    ]
}