{
    "goal": {
        "global_pose": {
            "orientation": {
                "w": 0.7047431468963623,
                "x": -0.7094548344612122,
                "y": 0.0024358443915843964,
                "z": -0.0022348060738295317
            },
            "position": {
                "x": 0.6094750761985779,
                "y": 0.3671506643295288,
                "z": 0.19426114857196808
            }
        },
        "name": "move_to_magneteinheit_A"
    },
    "id": "FMT_move_to_magneteinheit_A_131",
    "joint_names": [
        "shoulder_pan_joint",
        "shoulder_lift_joint",
        "elbow_joint",
        "wrist_1_joint",
        "wrist_2_joint",
        "wrist_3_joint"
    ],
    "metrics": {
        "cart_traj_len": 2.061774980812928,
        "distance_elbow_joint": 3.8676589145317966,
        "distance_shoulder_lift_joint": 1.0491832857052519,
        "distance_shoulder_pan_joint": 1.2420200965398709,
        "distance_wrist_1_joint": 1.1126109371240105,
        "distance_wrist_2_joint": 1.447173814699452,
        "distance_wrist_3_joint": 1.8843140185018261,
        "smoothness": 5.075305277722828e-16,
        "time": 1.2163806160000001,
        "traj_len": 3.2562188297321493,
        "weighted_distance": 4.1147750674768755
    },
    "planner": "FMT",
    "start": {
        "state": {
            "elbow_joint": -1.919643507792019,
            "shoulder_lift_joint": -0.07675430207160344,
            "shoulder_pan_joint": -1.1188671864651873,
            "wrist_1_joint": 0.42560062535961957,
            "wrist_2_joint": 1.5706038300724876,
            "wrist_3_joint": 1.1188968870953055
        }
    },
    "waypoints": [
        {
            "positions": [
                -1.1188671864651873,
                -0.07675430207160344,
                -1.919643507792019,
                0.42560062535961957,
                1.5706038300724876,
                1.1188968870953055
            ]
        },
        {
            "positions": [
                -1.0728664421488958,
                -0.11561294228290907,
                -1.7763968813278785,
                0.3843928128735451,
                1.5170047998984337,
                1.1886862951879658
            ]
        },
        {
            "positions": [
                -1.0268656978326043,
                -0.1544715824942147,
                -1.6331502548637378,
                0.34318500038747063,
                1.46340576972438,
                1.258475703280626
            ]
        },
        {
            "positions": [
                -0.9808649535163128,
                -0.1933302227055203,
                -1.4899036283995972,
                0.30197718790139616,
                1.4098067395503262,
                1.3282651113732862
            ]
        },
        {
            "positions": [
                -0.9348642092000213,
                -0.23218886291682594,
                -1.3466570019354567,
                0.26076937541532175,
                1.3562077093762726,
                1.3980545194659464
            ]
        },
        {
            "positions": [
                -0.8888634648837298,
                -0.27104750312813153,
                -1.2034103754713161,
                0.21956156292924728,
                1.3026086792022187,
                1.4678439275586066
            ]
        },
        {
            "positions": [
                -0.8428627205674383,
                -0.30990614333943717,
                -1.0601637490071756,
                0.1783537504431728,
                1.249009649028165,
                1.5376333356512668
            ]
        },
        {
            "positions": [
                -0.7968619762511467,
                -0.3487647835507428,
                -0.9169171225430348,
                0.13714593795709834,
                1.1954106188541112,
                1.607422743743927
            ]
        },
        {
            "positions": [
                -0.7508612319348553,
                -0.38762342376204845,
                -0.7736704960788943,
                0.09593812547102387,
                1.1418115886800575,
                1.6772121518365872
            ]
        },
        {
            "positions": [
                -0.7048604876185638,
                -0.42648206397335403,
                -0.6304238696147537,
                0.0547303129849494,
                1.0882125585060036,
                1.7470015599292474
            ]
        },
        {
            "positions": [
                -0.6588597433022723,
                -0.46534070418465967,
                -0.48717724315061295,
                0.01352250049887499,
                1.03461352833195,
                1.8167909680219076
            ]
        },
        {
            "positions": [
                -0.6128589989859807,
                -0.5041993443959654,
                -0.3439306166864724,
                -0.02768531198719948,
                0.9810144981578961,
                1.8865803761145679
            ]
        },
        {
            "positions": [
                -0.5668582546696892,
                -0.543057984607271,
                -0.20068399022233185,
                -0.06889312447327395,
                0.9274154679838423,
                1.956369784207228
            ]
        },
        {
            "positions": [
                -0.5208575103533977,
                -0.5819166248185765,
                -0.05743736375819131,
                -0.11010093695934847,
                0.8738164378097886,
                2.0261591922998883
            ]
        },
        {
            "positions": [
                -0.47485676603710614,
                -0.6207752650298821,
                0.08580926270594946,
                -0.15130874944542289,
                0.8202174076357348,
                2.095948600392549
            ]
        },
        {
            "positions": [
                -0.4288560217208146,
                -0.6596339052411879,
                0.22905588917009,
                -0.1925165619314974,
                0.7666183774616809,
                2.165738008485209
            ]
        },
        {
            "positions": [
                -0.3828552774045232,
                -0.6984925454524935,
                0.37230251563423056,
                -0.23372437441757182,
                0.7130193472876273,
                2.2355274165778694
            ]
        },
        {
            "positions": [
                -0.33685453308823154,
                -0.7373511856637991,
                0.5155491420983715,
                -0.27493218690364635,
                0.6594203171135734,
                2.3053168246705296
            ]
        },
        {
            "positions": [
                -0.2908537887719401,
                -0.7762098258751047,
                0.6587957685625117,
                -0.31613999938972076,
                0.6058212869395196,
                2.3751062327631898
            ]
        },
        {
            "positions": [
                -0.2448530444556486,
                -0.8150684660864103,
                0.8020423950266526,
                -0.3573478118757953,
                0.5522222567654658,
                2.44489564085585
            ]
        },
        {
            "positions": [
                -0.19885230013935706,
                -0.8539271062977158,
                0.9452890214907932,
                -0.3985556243618696,
                0.4986232265914121,
                2.51468504894851
            ]
        },
        {
            "positions": [
                -0.15285155582306553,
                -0.8927857465090216,
                1.0885356479549337,
                -0.4397634368479441,
                0.44502419641735824,
                2.5844744570411704
            ]
        },
        {
            "positions": [
                -0.10685081150677411,
                -0.9316443867203272,
                1.2317822744190743,
                -0.4809712493340185,
                0.3914251662433046,
                2.6542638651338306
            ]
        },
        {
            "positions": [
                -0.06085006719048258,
                -0.9705030269316328,
                1.3750289008832148,
                -0.522179061820093,
                0.3378261360692507,
                2.724053273226491
            ]
        },
        {
            "positions": [
                -0.014849322874191051,
                -1.0093616671429384,
                1.5182755273473554,
                -0.5633868743061674,
                0.28422710589519706,
                2.793842681319151
            ]
        },
        {
            "positions": [
                0.03115142144210048,
                -1.048220307354244,
                1.6615221538114964,
                -0.604594686792242,
                0.2306280757211432,
                2.8636320894118112
            ]
        },
        {
            "positions": [
                0.07715216575839201,
                -1.0870789475655498,
                1.8047687802756365,
                -0.6458024992783165,
                0.17702904554708954,
                2.9334214975044715
            ]
        },
        {
            "positions": [
                0.12315291007468346,
                -1.1259375877768554,
                1.9480154067397777,
                -0.6870103117643909,
                0.12343001537303563,
                3.0032109055971317
            ]
        }
    ]
}