{
    "goal": {
        "global_pose": {
            "orientation": {
                "w": 0.7031023502349854,
                "x": -0.7110244035720825,
                "y": 0.007748599164187908,
                "z": 0.005598929710686207
            },
            "position": {
                "x": 0.11585023208521307,
                "y": 0.44412534475326537,
                "z": 0.3711530566215515
            }
        },
        "name": "move_to_auspresseinheit_A"
    },
    "id": "FMT_move_to_auspresseinheit_A_91",
    "joint_names": [
        "shoulder_pan_joint",
        "shoulder_lift_joint",
        "elbow_joint",
        "wrist_1_joint",
        "wrist_2_joint",
        "wrist_3_joint"
    ],
    "metrics": {
        "cart_traj_len": 1.3429729460450477,
        "distance_elbow_joint": 0.9382841652953378,
        "distance_shoulder_lift_joint": 2.9256824472063174,
        "distance_shoulder_pan_joint": 1.571231999510788,
        "distance_wrist_1_joint": 2.935396821281145,
        "distance_wrist_2_joint": 3.3859587082959846,
        "distance_wrist_3_joint": 3.178261903639793,
        "smoothness": 0.7215502395853796,
        "time": 0.9078190230000001,
        "traj_len": 3.8645589716330333,
        "weighted_distance": 5.254778338054431
    },
    "planner": "FMT",
    "start": {
        "state": {
            "elbow_joint": 2.422574709923281,
            "shoulder_lift_joint": -1.3736533754116391,
            "shoulder_pan_joint": -0.33786336945926293,
            "wrist_1_joint": -1.0288603412921917,
            "wrist_2_joint": 1.2330224858903978,
            "wrist_3_joint": -3.094022268022082
        }
    },
    "waypoints": [
        {
            "positions": [
                -0.33786336945926293,
                -1.3736533754116391,
                2.422574709923281,
                -1.0288603412921917,
                1.2330224858903978,
                -3.094022268022082
            ]
        },
        {
            "positions": [
                -0.28237271309096645,
                -1.4559858823728988,
                2.444180940072147,
                -1.0851240410500047,
                1.1398038510551765,
                -3.0194875256321208
            ]
        },
        {
            "positions": [
                -0.22688205672266995,
                -1.5383183893341585,
                2.465787170221013,
                -1.1413877408078177,
                1.0465852162199552,
                -2.9449527832421594
            ]
        },
        {
            "positions": [
                -0.17139140035437345,
                -1.6206508962954185,
                2.487393400369879,
                -1.1976514405656304,
                0.9533665813847336,
                -2.8704180408521975
            ]
        },
        {
            "positions": [
                -0.11590074398607697,
                -1.7029834032566782,
                2.508999630518745,
                -1.2539151403234434,
                0.8601479465495123,
                -2.795883298462236
            ]
        },
        {
            "positions": [
                -0.060410087617780495,
                -1.785315910217938,
                2.530605860667611,
                -1.3101788400812564,
                0.766929311714291,
                -2.7213485560722748
            ]
        },
        {
            "positions": [
                -0.004919431249483963,
                -1.8676484171791978,
                2.552212090816477,
                -1.3664425398390694,
                0.6737106768790696,
                -2.6468138136823134
            ]
        },
        {
            "positions": [
                0.05057122511881251,
                -1.9499809241404575,
                2.573818320965343,
                -1.4227062395968821,
                0.5804920420438483,
                -2.5722790712923516
            ]
        },
        {
            "positions": [
                0.10606188148710899,
                -2.0323134311017172,
                2.595424551114209,
                -1.4789699393546951,
                0.487273407208627,
                -2.49774432890239
            ]
        },
        {
            "positions": [
                0.16155253785540552,
                -2.114645938062977,
                2.617030781263075,
                -1.535233639112508,
                0.3940547723734056,
                -2.423209586512429
            ]
        },
        {
            "positions": [
                0.21704319422370194,
                -2.1969784450242367,
                2.638637011411941,
                -1.591497338870321,
                0.3008361375381843,
                -2.3486748441224674
            ]
        },
        {
            "positions": [
                0.2725338505919986,
                -2.279310951985497,
                2.6602432415608064,
                -1.647761038628134,
                0.20761750270296275,
                -2.2741401017325056
            ]
        },
        {
            "positions": [
                0.328024506960295,
                -2.361643458946756,
                2.6818494717096724,
                -1.704024738385947,
                0.11439886786774145,
                -2.199605359342544
            ]
        },
        {
            "positions": [
                0.38351516332859154,
                -2.4439759659080162,
                2.7034557018585383,
                -1.76028843814376,
                0.021180233032520146,
                -2.125070616952583
            ]
        },
        {
            "positions": [
                0.43900581969688796,
                -2.526308472869276,
                2.7250619320074043,
                -1.8165521379015728,
                -0.07203840180270116,
                -2.0505358745626214
            ]
        },
        {
            "positions": [
                0.4944964760651845,
                -2.6086409798305357,
                2.7466681621562703,
                -1.8728158376593858,
                -0.16525703663792268,
                -1.9760011321726598
            ]
        },
        {
            "positions": [
                0.5499871324334809,
                -2.6909734867917954,
                2.7682743923051363,
                -1.9290795374171985,
                -0.25847567147314376,
                -1.9014663897826984
            ]
        },
        {
            "positions": [
                0.6054777888017775,
                -2.7733059937530555,
                2.7898806224540023,
                -1.9853432371750117,
                -0.3516943063083653,
                -1.8269316473927368
            ]
        },
        {
            "positions": [
                0.6609684451700739,
                -2.8556385007143152,
                2.8114868526028682,
                -2.0416069369328245,
                -0.4449129411435866,
                -1.7523969050027755
            ]
        },
        {
            "positions": [
                0.7164591015383703,
                -2.937971007675575,
                2.833093082751734,
                -2.0978706366906374,
                -0.5381315759788081,
                -1.6778621626128138
            ]
        },
        {
            "positions": [
                0.7719497579066668,
                -3.0203035146368347,
                2.8546993129006,
                -2.1541343364484504,
                -0.6313502108140292,
                -1.6033274202228525
            ]
        },
        {
            "positions": [
                0.8274404142749634,
                -3.1026360215980944,
                2.876305543049466,
                -2.2103980362062634,
                -0.7245688456492506,
                -1.5287926778328909
            ]
        },
        {
            "positions": [
                0.8369071927575341,
                -3.025688119529754,
                2.846118889885085,
                -2.1038537685502554,
                -0.660777610784481,
                -1.6354823582647506
            ]
        },
        {
            "positions": [
                0.8463739712401047,
                -2.948740217461413,
                2.815932236720704,
                -1.997309500894247,
                -0.5969863759197114,
                -1.7421720386966106
            ]
        },
        {
            "positions": [
                0.8558407497226754,
                -2.8717923153930722,
                2.7857455835563227,
                -1.8907652332382388,
                -0.5331951410549418,
                -1.8488617191284704
            ]
        },
        {
            "positions": [
                0.8653075282052461,
                -2.794844413324731,
                2.7555589303919414,
                -1.7842209655822305,
                -0.4694039061901722,
                -1.9555513995603304
            ]
        },
        {
            "positions": [
                0.8747743066878167,
                -2.7178965112563906,
                2.7253722772275606,
                -1.6776766979262225,
                -0.40561267132540263,
                -2.06224107999219
            ]
        },
        {
            "positions": [
                0.8842410851703875,
                -2.6409486091880496,
                2.6951856240631793,
                -1.571132430270214,
                -0.341821436460633,
                -2.1689307604240504
            ]
        },
        {
            "positions": [
                0.8937078636529582,
                -2.564000707119709,
                2.664998970898798,
                -1.464588162614206,
                -0.2780302015958634,
                -2.27562044085591
            ]
        },
        {
            "positions": [
                0.9031746421355288,
                -2.487052805051368,
                2.634812317734417,
                -1.3580438949581977,
                -0.21423896673109377,
                -2.38231012128777
            ]
        },
        {
            "positions": [
                0.9126414206180995,
                -2.4101049029830275,
                2.604625664570036,
                -1.2514996273021897,
                -0.1504477318663242,
                -2.48899980171963
            ]
        },
        {
            "positions": [
                0.9221081991006702,
                -2.333157000914687,
                2.5744390114056546,
                -1.1449553596461814,
                -0.08665649700155464,
                -2.5956894821514895
            ]
        },
        {
            "positions": [
                0.9315749775832408,
                -2.256209098846346,
                2.5442523582412737,
                -1.0384110919901732,
                -0.02286526213678508,
                -2.7023791625833495
            ]
        },
        {
            "positions": [
                0.9410417560658115,
                -2.179261196778005,
                2.5140657050768924,
                -0.9318668243341648,
                0.040925972727984594,
                -2.8090688430152095
            ]
        },
        {
            "positions": [
                0.9505085345483822,
                -2.1023132947096643,
                2.483879051912511,
                -0.8253225566781568,
                0.10471720759275427,
                -2.915758523447069
            ]
        },
        {
            "positions": [
                0.9599753130309528,
                -2.0253653926413238,
                2.4536923987481303,
                -0.7187782890221486,
                0.16850844245752383,
                -3.0224482038789295
            ]
        },
        {
            "positions": [
                0.9694420915135236,
                -1.9484174905729827,
                2.423505745583749,
                -0.6122340213661402,
                0.2322996773222934,
                -3.129137884310789
            ]
        },
        {
            "positions": [
                0.8814665786675228,
                -1.9342570672413995,
                2.412921234015937,
                -0.5603356508571568,
                0.38946596191722416,
                -3.133366919968357
            ]
        },
        {
            "positions": [
                0.7934910658215221,
                -1.9200966439098162,
                2.4023367224481254,
                -0.5084372803481733,
                0.5466322465121549,
                -3.1375959556259247
            ]
        },
        {
            "positions": [
                0.7055155529755213,
                -1.9059362205782329,
                2.3917522108803135,
                -0.4565389098391898,
                0.7037985311070858,
                -3.141824991283493
            ]
        }
    ]
}