{
    "goal": {
        "global_pose": {
            "orientation": {
                "w": 0.7047431468963623,
                "x": -0.7094548344612122,
                "y": 0.0024358443915843964,
                "z": -0.0022348060738295317
            },
            "position": {
                "x": 0.6094750761985779,
                "y": 0.3671506643295288,
                "z": 0.19426114857196808
            }
        },
        "name": "move_to_magneteinheit_A"
    },
    "id": "FMT_move_to_magneteinheit_A_135",
    "joint_names": [
        "shoulder_pan_joint",
        "shoulder_lift_joint",
        "elbow_joint",
        "wrist_1_joint",
        "wrist_2_joint",
        "wrist_3_joint"
    ],
    "metrics": {
        "cart_traj_len": 1.8787331224281216,
        "distance_elbow_joint": 3.908619235473056,
        "distance_shoulder_lift_joint": 0.699528996319393,
        "distance_shoulder_pan_joint": 1.241416622663347,
        "distance_wrist_1_joint": 1.485441377694193,
        "distance_wrist_2_joint": 1.6980718119092935,
        "distance_wrist_3_joint": 1.096046689092107,
        "smoothness": 3.6185046736692446e-16,
        "time": 1.253758551,
        "traj_len": 3.1826285886278636,
        "weighted_distance": 3.9376047669794243
    },
    "planner": "FMT",
    "start": {
        "state": {
            "elbow_joint": -1.919643507792019,
            "shoulder_lift_joint": -0.07675430207160344,
            "shoulder_pan_joint": -1.1188671864651873,
            "wrist_1_joint": 0.42560062535961957,
            "wrist_2_joint": 1.5706038300724876,
            "wrist_3_joint": 1.1188968870953055
        }
    },
    "waypoints": [
        {
            "positions": [
                -1.1188671864651873,
                -0.07675430207160344,
                -1.919643507792019,
                0.42560062535961957,
                1.5706038300724876,
                1.1188968870953055
            ]
        },
        {
            "positions": [
                -1.0711203932858278,
                -0.10365926346850318,
                -1.7693119987353632,
                0.48273298604016546,
                1.505293375768284,
                1.0767412452071476
            ]
        },
        {
            "positions": [
                -1.0233736001064684,
                -0.13056422486540292,
                -1.618980489678707,
                0.5398653467207113,
                1.4399829214640805,
                1.0345856033189895
            ]
        },
        {
            "positions": [
                -0.9756268069271088,
                -0.15746918626230266,
                -1.468648980622051,
                0.5969977074012572,
                1.374672467159877,
                0.9924299614308316
            ]
        },
        {
            "positions": [
                -0.9278800137477493,
                -0.1843741476592024,
                -1.3183174715653951,
                0.6541300680818032,
                1.309362012855673,
                0.9502743195426737
            ]
        },
        {
            "positions": [
                -0.8801332205683898,
                -0.21127910905610212,
                -1.1679859625087392,
                0.711262428762349,
                1.2440515585514695,
                0.9081186776545157
            ]
        },
        {
            "positions": [
                -0.8323864273890303,
                -0.23818407045300186,
                -1.017654453452083,
                0.7683947894428949,
                1.178741104247266,
                0.8659630357663577
            ]
        },
        {
            "positions": [
                -0.7846396342096709,
                -0.2650890318499016,
                -0.8673229443954271,
                0.8255271501234407,
                1.1134306499430624,
                0.8238073938781998
            ]
        },
        {
            "positions": [
                -0.7368928410303113,
                -0.2919939932468013,
                -0.716991435338771,
                0.8826595108039867,
                1.0481201956388588,
                0.7816517519900419
            ]
        },
        {
            "positions": [
                -0.6891460478509519,
                -0.31889895464370105,
                -0.566659926282115,
                0.9397918714845326,
                0.9828097413346553,
                0.7394961101018839
            ]
        },
        {
            "positions": [
                -0.6413992546715923,
                -0.3458039160406008,
                -0.4163284172254591,
                0.9969242321650784,
                0.9174992870304516,
                0.6973404682137259
            ]
        },
        {
            "positions": [
                -0.5936524614922328,
                -0.37270887743750053,
                -0.26599690816880317,
                1.0540565928456243,
                0.8521888327262481,
                0.655184826325568
            ]
        },
        {
            "positions": [
                -0.5459056683128733,
                -0.39961383883440027,
                -0.11566539911214702,
                1.1111889535261703,
                0.7868783784220444,
                0.61302918443741
            ]
        },
        {
            "positions": [
                -0.49815887513351387,
                -0.4265188002313,
                0.034666109944508916,
                1.1683213142067161,
                0.7215679241178409,
                0.570873542549252
            ]
        },
        {
            "positions": [
                -0.4504120819541544,
                -0.45342376162819975,
                0.18499761900116485,
                1.225453674887262,
                0.6562574698136373,
                0.5287179006610941
            ]
        },
        {
            "positions": [
                -0.4026652887747949,
                -0.48032872302509944,
                0.3353291280578208,
                1.2825860355678078,
                0.5909470155094337,
                0.48656225877293613
            ]
        },
        {
            "positions": [
                -0.3549184955954353,
                -0.5072336844219992,
                0.48566063711447716,
                1.3397183962483539,
                0.5256365612052301,
                0.4444066168847781
            ]
        },
        {
            "positions": [
                -0.30717170241607583,
                -0.534138645818899,
                0.6359921461711331,
                1.3968507569288997,
                0.4603261069010265,
                0.4022509749966202
            ]
        },
        {
            "positions": [
                -0.25942490923671635,
                -0.5610436072157987,
                0.786323655227789,
                1.4539831176094455,
                0.3950156525968229,
                0.3600953331084622
            ]
        },
        {
            "positions": [
                -0.21167811605735698,
                -0.5879485686126984,
                0.936655164284445,
                1.5111154782899914,
                0.32970519829261935,
                0.3179396912203043
            ]
        },
        {
            "positions": [
                -0.16393132287799728,
                -0.6148535300095981,
                1.0869866733411009,
                1.5682478389705374,
                0.26439474398841556,
                0.2757840493321463
            ]
        },
        {
            "positions": [
                -0.1161845296986379,
                -0.641758491406498,
                1.2373181823977568,
                1.6253801996510833,
                0.199084289684212,
                0.23362840744398838
            ]
        },
        {
            "positions": [
                -0.06843773651927831,
                -0.6686634528033977,
                1.3876496914544127,
                1.682512560331629,
                0.13377383538000864,
                0.19147276555583037
            ]
        },
        {
            "positions": [
                -0.020690943339918944,
                -0.6955684142002974,
                1.5379812005110687,
                1.739644921012175,
                0.06846338107580507,
                0.14931712366767247
            ]
        },
        {
            "positions": [
                0.02705584983944065,
                -0.722473375597197,
                1.688312709567725,
                1.796777281692721,
                0.003152926771601283,
                0.10716148177951434
            ]
        },
        {
            "positions": [
                0.07480264301880024,
                -0.749378336994097,
                1.838644218624381,
                1.8539096423732668,
                -0.062157527532602286,
                0.06500583989135644
            ]
        },
        {
            "positions": [
                0.12254943619815967,
                -0.7762832983909965,
                1.988975727681037,
                1.9110420030538127,
                -0.1274679818368059,
                0.0228501980031986
            ]
        }
    ]
}