{
    "goal": {
        "global_pose": {
            "orientation": {
                "w": -0.00223480608172531,
                "x": 0.0024358444001904467,
                "y": 0.7094548369677653,
                "z": -0.704743149386269
            },
            "position": {
                "x": 0.6205249238014221,
                "y": -0.6371506643295288,
                "z": 0.19426114857196808
            }
        },
        "name": "move_to_magneteinheit_B"
    },
    "id": "FMT_move_to_magneteinheit_B_12",
    "joint_names": [
        "shoulder_pan_joint",
        "shoulder_lift_joint",
        "elbow_joint",
        "wrist_1_joint",
        "wrist_2_joint",
        "wrist_3_joint"
    ],
    "metrics": {
        "cart_traj_len": 1.4522318653680975,
        "distance_elbow_joint": 0.7285601462080333,
        "distance_shoulder_lift_joint": 1.2480219333597082,
        "distance_shoulder_pan_joint": 1.6212063407857327,
        "distance_wrist_1_joint": 2.6059771978660478,
        "distance_wrist_2_joint": 2.9398022498872063,
        "distance_wrist_3_joint": 3.130108217094923,
        "smoothness": 4.163336351824667e-16,
        "time": 1.346816242,
        "traj_len": 3.503380665186364,
        "weighted_distance": 4.907104234387605
    },
    "planner": "FMT",
    "start": {
        "state": {
            "elbow_joint": 2.39358713078474,
            "shoulder_lift_joint": -1.908514104345545,
            "shoulder_pan_joint": 0.7066247066606129,
            "wrist_1_joint": -0.4678290933515497,
            "wrist_2_joint": 0.7096259083745334,
            "wrist_3_joint": -3.1358149277392293
        }
    },
    "waypoints": [
        {
            "positions": [
                0.7066247066606129,
                -1.908514104345545,
                2.39358713078474,
                -0.4678290933515497,
                0.7096259083745334,
                -3.1358149277392293
            ]
        },
        {
            "positions": [
                0.6543277279255894,
                -1.8682553323016833,
                2.370085190584481,
                -0.3837653127752256,
                0.6147935777330107,
                -3.0348436949297155
            ]
        },
        {
            "positions": [
                0.6020307491905657,
                -1.8279965602578219,
                2.3465832503842217,
                -0.2997015321989015,
                0.5199612470914878,
                -2.933872462120202
            ]
        },
        {
            "positions": [
                0.5497337704555421,
                -1.7877377882139602,
                2.3230813101839627,
                -0.21563775162257737,
                0.4251289164499651,
                -2.8329012293106883
            ]
        },
        {
            "positions": [
                0.4974367917205184,
                -1.7474790161700988,
                2.2995793699837037,
                -0.13157397104625324,
                0.3302965858084423,
                -2.731929996501175
            ]
        },
        {
            "positions": [
                0.44513981298549476,
                -1.7072202441262372,
                2.2760774297834443,
                -0.0475101904699291,
                0.23546425516691954,
                -2.630958763691661
            ]
        },
        {
            "positions": [
                0.3928428342504712,
                -1.6669614720823756,
                2.2525754895831853,
                0.03655359010639497,
                0.14063192452539675,
                -2.5299875308821473
            ]
        },
        {
            "positions": [
                0.3405458555154475,
                -1.6267027000385141,
                2.229073549382926,
                0.1206173706827191,
                0.045799593883874,
                -2.429016298072634
            ]
        },
        {
            "positions": [
                0.2882488767804239,
                -1.5864439279946525,
                2.205571609182667,
                0.20468115125904324,
                -0.049032736757648854,
                -2.32804506526312
            ]
        },
        {
            "positions": [
                0.23595189804540018,
                -1.5461851559507909,
                2.182069668982408,
                0.2887449318353675,
                -0.1438650673991717,
                -2.2270738324536064
            ]
        },
        {
            "positions": [
                0.18365491931037659,
                -1.5059263839069295,
                2.1585677287821485,
                0.3728087124116915,
                -0.23869739804069434,
                -2.126102599644093
            ]
        },
        {
            "positions": [
                0.13135794057535288,
                -1.4656676118630678,
                2.1350657885818896,
                0.45687249298801563,
                -0.3335297286822173,
                -2.025131366834579
            ]
        },
        {
            "positions": [
                0.0790609618403294,
                -1.4254088398192062,
                2.1115638483816306,
                0.5409362735643397,
                -0.42836205932373994,
                -1.9241601340250656
            ]
        },
        {
            "positions": [
                0.0267639831053057,
                -1.3851500677753448,
                2.088061908181371,
                0.625000054140664,
                -0.5231943899652628,
                -1.823188901215552
            ]
        },
        {
            "positions": [
                -0.02553299562971789,
                -1.3448912957314831,
                2.064559967981112,
                0.709063834716988,
                -0.6180267206067854,
                -1.7222176684060384
            ]
        },
        {
            "positions": [
                -0.0778299743647416,
                -1.3046325236876215,
                2.0410580277808528,
                0.7931276152933122,
                -0.7128590512483083,
                -1.6212464355965246
            ]
        },
        {
            "positions": [
                -0.13012695309976519,
                -1.26437375164376,
                2.017556087580594,
                0.8771913958696362,
                -0.8076913818898311,
                -1.5202752027870112
            ]
        },
        {
            "positions": [
                -0.18242393183478878,
                -1.2241149795998987,
                1.9940541473803348,
                0.9612551764459603,
                -0.9025237125313538,
                -1.4193039699774976
            ]
        },
        {
            "positions": [
                -0.2347209105698126,
                -1.1838562075560368,
                1.9705522071800754,
                1.0453189570222847,
                -0.9973560431728768,
                -1.3183327371679836
            ]
        },
        {
            "positions": [
                -0.2870178893048362,
                -1.1435974355121754,
                1.9470502669798164,
                1.1293827375986087,
                -1.0921883738143996,
                -1.2173615043584702
            ]
        },
        {
            "positions": [
                -0.3393148680398598,
                -1.1033386634683138,
                1.9235483267795572,
                1.2134465181749328,
                -1.187020704455922,
                -1.1163902715489566
            ]
        },
        {
            "positions": [
                -0.39161184677488337,
                -1.0630798914244521,
                1.900046386579298,
                1.2975102987512568,
                -1.2818530350974449,
                -1.0154190387394428
            ]
        },
        {
            "positions": [
                -0.4439088255099072,
                -1.0228211193805907,
                1.876544446379039,
                1.381574079327581,
                -1.3766853657389682,
                -0.914447805929929
            ]
        },
        {
            "positions": [
                -0.49620580424493077,
                -0.9825623473367291,
                1.8530425061787799,
                1.465637859903905,
                -1.4715176963804906,
                -0.8134765731204157
            ]
        },
        {
            "positions": [
                -0.5485027829799541,
                -0.9423035752928676,
                1.8295405659785207,
                1.549701640480229,
                -1.5663500270220134,
                -0.7125053403109018
            ]
        },
        {
            "positions": [
                -0.6007997617149777,
                -0.902044803249006,
                1.8060386257782617,
                1.633765421056553,
                -1.6611823576635363,
                -0.6115341075013885
            ]
        },
        {
            "positions": [
                -0.6530967404500015,
                -0.8617860312051444,
                1.7825366855780023,
                1.7178292016328776,
                -1.7560146883050591,
                -0.5105628746918747
            ]
        },
        {
            "positions": [
                -0.7053937191850251,
                -0.821527259161283,
                1.7590347453777433,
                1.8018929822092016,
                -1.850847018946582,
                -0.40959164188236086
            ]
        },
        {
            "positions": [
                -0.7576906979200487,
                -0.7812684871174214,
                1.7355328051774843,
                1.8859567627855256,
                -1.9456793495881044,
                -0.3086204090728475
            ]
        },
        {
            "positions": [
                -0.8099876766550723,
                -0.74100971507356,
                1.712030864977225,
                1.9700205433618496,
                -2.0405116802296273,
                -0.20764917626333412
            ]
        },
        {
            "positions": [
                -0.8622846553900961,
                -0.7007509430296981,
                1.688528924776966,
                2.054084323938174,
                -2.13534401087115,
                -0.10667794345381987
            ]
        },
        {
            "positions": [
                -0.9145816341251197,
                -0.6604921709858368,
                1.6650269845767067,
                2.138148104514498,
                -2.230176341512673,
                -0.005706710644306404
            ]
        }
    ]
}