{
    "goal": {
        "global_pose": {
            "orientation": {
                "w": -0.00223480608172531,
                "x": 0.0024358444001904467,
                "y": 0.7094548369677653,
                "z": -0.704743149386269
            },
            "position": {
                "x": 0.6205249238014221,
                "y": -0.6371506643295288,
                "z": 0.19426114857196808
            }
        },
        "name": "move_to_magneteinheit_B"
    },
    "id": "FMT_move_to_magneteinheit_B_96",
    "joint_names": [
        "shoulder_pan_joint",
        "shoulder_lift_joint",
        "elbow_joint",
        "wrist_1_joint",
        "wrist_2_joint",
        "wrist_3_joint"
    ],
    "metrics": {
        "cart_traj_len": 3.9274144985641444,
        "distance_elbow_joint": 4.047552801590546,
        "distance_shoulder_lift_joint": 0.9168895307084628,
        "distance_shoulder_pan_joint": 2.9652351199358544,
        "distance_wrist_1_joint": 1.9757852568129946,
        "distance_wrist_2_joint": 1.7850800785688798,
        "distance_wrist_3_joint": 8.417043092948436,
        "smoothness": 0.32149973228470013,
        "time": 1.511926668,
        "traj_len": 4.484148289314836,
        "weighted_distance": 6.379854026687754
    },
    "planner": "FMT",
    "start": {
        "state": {
            "elbow_joint": 2.39358713078474,
            "shoulder_lift_joint": -1.908514104345545,
            "shoulder_pan_joint": 0.7066247066606129,
            "wrist_1_joint": -0.4678290933515497,
            "wrist_2_joint": 0.7096259083745334,
            "wrist_3_joint": -3.1358149277392293
        }
    },
    "waypoints": [
        {
            "positions": [
                0.7066247066606129,
                -1.908514104345545,
                2.39358713078474,
                -0.4678290933515497,
                0.7096259083745334,
                -3.1358149277392293
            ]
        },
        {
            "positions": [
                0.7027046191093722,
                -1.9585180145436571,
                2.3097529537583785,
                -0.5107342357613918,
                0.7004528127629122,
                -3.0150087113236315
            ]
        },
        {
            "positions": [
                0.6987845315581315,
                -2.0085219247417694,
                2.225918776732017,
                -0.5536393781712339,
                0.6912797171512908,
                -2.8942024949080336
            ]
        },
        {
            "positions": [
                0.6948644440068907,
                -2.0585258349398816,
                2.1420845997056555,
                -0.596544520581076,
                0.6821066215396695,
                -2.7733962784924353
            ]
        },
        {
            "positions": [
                0.69094435645565,
                -2.108529745137994,
                2.058250422679294,
                -0.6394496629909181,
                0.6729335259280482,
                -2.6525900620768375
            ]
        },
        {
            "positions": [
                0.7702857265538343,
                -2.0982164628943454,
                1.9392777995882735,
                -0.6929392641657538,
                0.682522367500311,
                -2.532386156752902
            ]
        },
        {
            "positions": [
                0.8496270966520186,
                -2.087903180650697,
                1.820305176497253,
                -0.7464288653405894,
                0.692111209072574,
                -2.412182251428966
            ]
        },
        {
            "positions": [
                0.928968466750203,
                -2.0775898984070484,
                1.7013325534062327,
                -0.7999184665154251,
                0.7017000506448368,
                -2.2919783461050307
            ]
        },
        {
            "positions": [
                1.0083098368483872,
                -2.0672766161634,
                1.582359930315212,
                -0.8534080676902607,
                0.7112888922170997,
                -2.1717744407810953
            ]
        },
        {
            "positions": [
                1.0876512069465716,
                -2.0569633339197515,
                1.4633873072241916,
                -0.9068976688650964,
                0.7208777337893625,
                -2.0515705354571594
            ]
        },
        {
            "positions": [
                1.1669925770447558,
                -2.046650051676103,
                1.3444146841331712,
                -0.9603872700399321,
                0.7304665753616254,
                -1.931366630133224
            ]
        },
        {
            "positions": [
                1.2463339471429402,
                -2.036336769432455,
                1.2254420610421506,
                -1.0138768712147677,
                0.7400554169338882,
                -1.8111627248092885
            ]
        },
        {
            "positions": [
                1.3256753172411244,
                -2.0260234871888065,
                1.1064694379511302,
                -1.0673664723896032,
                0.7496442585061511,
                -1.690958819485353
            ]
        },
        {
            "positions": [
                1.4050166873393088,
                -2.015710204945158,
                0.9874968148601098,
                -1.120856073564439,
                0.7592331000784139,
                -1.5707549141614172
            ]
        },
        {
            "positions": [
                1.484358057437493,
                -2.0053969227015096,
                0.8685241917690893,
                -1.1743456747392746,
                0.7688219416506769,
                -1.4505510088374818
            ]
        },
        {
            "positions": [
                1.5636994275356775,
                -1.9950836404578611,
                0.7495515686780689,
                -1.2278352759141105,
                0.7784107832229397,
                -1.3303471035135461
            ]
        },
        {
            "positions": [
                1.6430407976338617,
                -1.9847703582142127,
                0.6305789455870485,
                -1.281324877088946,
                0.7879996247952026,
                -1.2101431981896107
            ]
        },
        {
            "positions": [
                1.722382167732046,
                -1.9744570759705642,
                0.5116063224960279,
                -1.3348144782637816,
                0.7975884663674654,
                -1.089939292865675
            ]
        },
        {
            "positions": [
                1.8017235378302305,
                -1.9641437937269157,
                0.3926336994050075,
                -1.3883040794386172,
                0.8071773079397283,
                -0.9697353875417396
            ]
        },
        {
            "positions": [
                1.8810649079284145,
                -1.9538305114832673,
                0.27366107631398706,
                -1.441793680613453,
                0.8167661495119911,
                -0.849531482217804
            ]
        },
        {
            "positions": [
                1.960406278026599,
                -1.943517229239619,
                0.15468845322296665,
                -1.4952832817882886,
                0.826354991084254,
                -0.7293275768938685
            ]
        },
        {
            "positions": [
                2.0397476481247834,
                -1.9332039469959705,
                0.03571583013194646,
                -1.5487728829631242,
                0.8359438326565168,
                -0.6091236715699329
            ]
        },
        {
            "positions": [
                2.119089018222968,
                -1.922890664752322,
                -0.0832567929590744,
                -1.60226248413796,
                0.8455326742287798,
                -0.488919766245997
            ]
        },
        {
            "positions": [
                2.198430388321152,
                -1.9125773825086736,
                -0.2022294160500948,
                -1.6557520853127956,
                0.8551215158010426,
                -0.36871586092206154
            ]
        },
        {
            "positions": [
                2.277771758419336,
                -1.9022641002650251,
                -0.3212020391411152,
                -1.7092416864876312,
                0.8647103573733055,
                -0.2485119555981261
            ]
        },
        {
            "positions": [
                2.3571131285175206,
                -1.8919508180213769,
                -0.44017466223213564,
                -1.7627312876624668,
                0.8742991989455683,
                -0.12830805027419068
            ]
        },
        {
            "positions": [
                2.436454498615705,
                -1.8816375357777284,
                -0.559147285323156,
                -1.8162208888373026,
                0.8838880405178312,
                -0.008104144950254799
            ]
        },
        {
            "positions": [
                2.515795868713889,
                -1.87132425353408,
                -0.6781199084141765,
                -1.8697104900121382,
                0.893476882090094,
                0.11209976037368063
            ]
        },
        {
            "positions": [
                2.5951372388120735,
                -1.8610109712904315,
                -0.7970925315051969,
                -1.923200091186974,
                0.9030657236623569,
                0.23230366569761607
            ]
        },
        {
            "positions": [
                2.674478608910258,
                -1.850697689046783,
                -0.9160651545962173,
                -1.9766896923618096,
                0.9126545652346197,
                0.3525075710215515
            ]
        },
        {
            "positions": [
                2.753819979008442,
                -1.8403844068031345,
                -1.0350377776872381,
                -2.030179293536645,
                0.9222434068068827,
                0.4727114763454874
            ]
        },
        {
            "positions": [
                2.8331613491066263,
                -1.830071124559486,
                -1.1540104007782586,
                -2.083668894711481,
                0.9318322483791455,
                0.5929153816694228
            ]
        },
        {
            "positions": [
                2.9125027192048107,
                -1.8197578423158376,
                -1.272983023869279,
                -2.1371584958863163,
                0.9414210899514084,
                0.7131192869933582
            ]
        },
        {
            "positions": [
                2.9918440893029947,
                -1.8094445600721893,
                -1.391955646960299,
                -2.1906480970611524,
                0.9510099315236712,
                0.8333231923172937
            ]
        },
        {
            "positions": [
                3.071185459401179,
                -1.7991312778285409,
                -1.5109282700513198,
                -2.244137698235988,
                0.960598773095934,
                0.9535270976412296
            ]
        },
        {
            "positions": [
                3.1505268294993636,
                -1.7888179955848924,
                -1.6299008931423404,
                -2.2976272994108236,
                0.9701876146681969,
                1.073731002965165
            ]
        },
        {
            "positions": [
                3.1217049296942356,
                -1.8121804744297696,
                -1.6313164682990149,
                -2.3062147729845717,
                0.8848268142339472,
                0.8262311698919859
            ]
        },
        {
            "positions": [
                3.0928830298891072,
                -1.8355429532746468,
                -1.6327320434556893,
                -2.3148022465583202,
                0.7994660137996974,
                0.5787313368188067
            ]
        },
        {
            "positions": [
                3.0640611300839793,
                -1.858905432119524,
                -1.634147618612364,
                -2.3233897201320683,
                0.7141052133654475,
                0.3312315037456276
            ]
        },
        {
            "positions": [
                3.0352392302788513,
                -1.8822679109644012,
                -1.6355631937690385,
                -2.3319771937058165,
                0.6287444129311979,
                0.08373167067244858
            ]
        },
        {
            "positions": [
                3.006417330473723,
                -1.9056303898092783,
                -1.636978768925713,
                -2.340564667279565,
                0.543383612496948,
                -0.16376816240073055
            ]
        },
        {
            "positions": [
                2.977595430668595,
                -1.9289928686541555,
                -1.6383943440823874,
                -2.349152140853313,
                0.45802281206269824,
                -0.4112679954739098
            ]
        },
        {
            "positions": [
                2.948773530863467,
                -1.9523553474990327,
                -1.639809919239062,
                -2.3577396144270613,
                0.3726620116284486,
                -0.6587678285470888
            ]
        },
        {
            "positions": [
                2.9199516310583387,
                -1.9757178263439101,
                -1.6412254943957365,
                -2.36632708800081,
                0.2873012111941988,
                -0.9062676616202678
            ]
        },
        {
            "positions": [
                2.8911297312532107,
                -1.9990803051887873,
                -1.642641069552411,
                -2.374914561574558,
                0.20194041075994895,
                -1.1537674946934469
            ]
        },
        {
            "positions": [
                2.8623078314480823,
                -2.0224427840336645,
                -1.6440566447090854,
                -2.3835020351483065,
                0.11657961032569919,
                -1.401267327766626
            ]
        },
        {
            "positions": [
                2.8334859316429544,
                -2.0458052628785417,
                -1.64547221986576,
                -2.3920895087220546,
                0.03121880989144943,
                -1.6487671608398053
            ]
        },
        {
            "positions": [
                2.8046640318378264,
                -2.069167741723419,
                -1.6468877950224345,
                -2.4006769822958027,
                -0.054141990542800444,
                -1.8962669939129846
            ]
        },
        {
            "positions": [
                2.7758421320326985,
                -2.092530220568296,
                -1.648303370179109,
                -2.4092644558695513,
                -0.1395027909770501,
                -2.1437668269861634
            ]
        },
        {
            "positions": [
                2.74702023222757,
                -2.1158926994131733,
                -1.6497189453357834,
                -2.4178519294432994,
                -0.22486359141129975,
                -2.3912666600593426
            ]
        },
        {
            "positions": [
                2.718198332422442,
                -2.1392551782580504,
                -1.6511345204924581,
                -2.4264394030170475,
                -0.3102243918455496,
                -2.6387664931325214
            ]
        },
        {
            "positions": [
                2.6893764326173137,
                -2.1626176571029276,
                -1.6525500956491326,
                -2.435026876590796,
                -0.39558519227979927,
                -2.8862663262057007
            ]
        },
        {
            "positions": [
                2.660554532812186,
                -2.185980135947805,
                -1.653965670805807,
                -2.443614350164544,
                -0.48094599271404914,
                -3.13376615927888
            ]
        }
    ]
}