{
    "goal": {
        "global_pose": {
            "orientation": {
                "w": 0.7031023502349854,
                "x": -0.7110244035720825,
                "y": 0.007748599164187908,
                "z": 0.005598929710686207
            },
            "position": {
                "x": 0.11585023208521307,
                "y": 0.44412534475326537,
                "z": 0.3711530566215515
            }
        },
        "name": "move_to_auspresseinheit_A"
    },
    "id": "FMT_move_to_auspresseinheit_A_43",
    "joint_names": [
        "shoulder_pan_joint",
        "shoulder_lift_joint",
        "elbow_joint",
        "wrist_1_joint",
        "wrist_2_joint",
        "wrist_3_joint"
    ],
    "metrics": {
        "cart_traj_len": 0.7082978170609515,
        "distance_elbow_joint": 0.11408870409317462,
        "distance_shoulder_lift_joint": 0.8150795151987744,
        "distance_shoulder_pan_joint": 1.0467585984539909,
        "distance_wrist_1_joint": 1.1200508109964462,
        "distance_wrist_2_joint": 0.5563723098146168,
        "distance_wrist_3_joint": 0.6110724347085164,
        "smoothness": 0.9472511851449699,
        "time": 0.9732915019999999,
        "traj_len": 2.064805650240603,
        "weighted_distance": 2.6761895230894273
    },
    "planner": "FMT",
    "start": {
        "state": {
            "elbow_joint": 2.422574709923281,
            "shoulder_lift_joint": -1.3736533754116391,
            "shoulder_pan_joint": -0.33786336945926293,
            "wrist_1_joint": -1.0288603412921917,
            "wrist_2_joint": 1.2330224858903978,
            "wrist_3_joint": -3.094022268022082
        }
    },
    "waypoints": [
        {
            "positions": [
                -0.33786336945926293,
                -1.3736533754116391,
                2.422574709923281,
                -1.0288603412921917,
                1.2330224858903978,
                -3.094022268022082
            ]
        },
        {
            "positions": [
                -0.3188523577567168,
                -1.4862581976429268,
                2.4295416023004486,
                -0.8880071570041285,
                1.2366993530606591,
                -3.0463347703041608
            ]
        },
        {
            "positions": [
                -0.2998413460541707,
                -1.5988630198742146,
                2.436508494677616,
                -0.7471539727160652,
                1.2403762202309203,
                -2.9986472725862394
            ]
        },
        {
            "positions": [
                -0.2808303343516245,
                -1.7114678421055023,
                2.443475387054783,
                -0.6063007884280018,
                1.2440530874011817,
                -2.950959774868318
            ]
        },
        {
            "positions": [
                -0.26181932264907837,
                -1.82407266433679,
                2.4504422794319507,
                -0.4654476041399387,
                1.247729954571443,
                -2.903272277150397
            ]
        },
        {
            "positions": [
                -0.2428083109465322,
                -1.9366774865680778,
                2.457409171809118,
                -0.3245944198518753,
                1.2514068217417043,
                -2.855584779432476
            ]
        },
        {
            "positions": [
                -0.2237972992439861,
                -2.0492823087993655,
                2.4643760641862857,
                -0.18374123556381208,
                1.2550836889119656,
                -2.8078972817145544
            ]
        },
        {
            "positions": [
                -0.06834854453753372,
                -2.0260405451641907,
                2.452328172547924,
                -0.22956318644182316,
                1.166031837779791,
                -2.862055189781386
            ]
        },
        {
            "positions": [
                0.08710021016891864,
                -2.002798781529016,
                2.4402802809095623,
                -0.2753851373198342,
                1.076979986647616,
                -2.9162130978482175
            ]
        },
        {
            "positions": [
                0.242548964875371,
                -1.9795570178938413,
                2.4282323892712006,
                -0.32120708819784527,
                0.9879281355154412,
                -2.970371005915049
            ]
        },
        {
            "positions": [
                0.3979977195818234,
                -1.9563152542586668,
                2.4161844976328393,
                -0.3670290390758564,
                0.8988762843832664,
                -3.02452891398188
            ]
        },
        {
            "positions": [
                0.5534464742882758,
                -1.933073490623492,
                2.4041366059944775,
                -0.4128509899538675,
                0.8098244332510915,
                -3.0786868220487116
            ]
        },
        {
            "positions": [
                0.7088952289947281,
                -1.9098317269883174,
                2.392088714356116,
                -0.45867294083187854,
                0.7207725821189167,
                -3.132844730115543
            ]
        }
    ]
}