{
    "goal": {
        "global_pose": {
            "orientation": {
                "w": 0.5084816217422485,
                "x": -0.49083608388900757,
                "y": 0.5182115435600281,
                "z": -0.4816462993621826
            },
            "position": {
                "x": 0.5540239810943604,
                "y": 0.030875300988554955,
                "z": 0.16403168439865112
            }
        },
        "name": "move_to_storage_A"
    },
    "id": "FMT_move_to_storage_A_13",
    "joint_names": [
        "shoulder_pan_joint",
        "shoulder_lift_joint",
        "elbow_joint",
        "wrist_1_joint",
        "wrist_2_joint",
        "wrist_3_joint"
    ],
    "metrics": {
        "cart_traj_len": 0.3531415212035781,
        "distance_elbow_joint": 0.4480476968014311,
        "distance_shoulder_lift_joint": 0.23262238971006255,
        "distance_shoulder_pan_joint": 0.4630051117689577,
        "distance_wrist_1_joint": 0.24004795192598005,
        "distance_wrist_2_joint": 1.0922946628448464,
        "distance_wrist_3_joint": 0.09024194621567938,
        "smoothness": 2.2204460668324854e-16,
        "time": 0.39816076,
        "traj_len": 1.6019549804120456,
        "weighted_distance": 2.019674792254719
    },
    "planner": "FMT",
    "start": {
        "state": {
            "elbow_joint": 1.9715463870305268,
            "shoulder_lift_joint": -1.1394903361783484,
            "shoulder_pan_joint": 0.12281147578464417,
            "wrist_1_joint": -0.7804599489681411,
            "wrist_2_joint": 0.12958660307563738,
            "wrist_3_joint": -3.1924946282119055
        }
    },
    "waypoints": [
        {
            "positions": [
                0.12281147578464417,
                -1.1394903361783484,
                1.9715463870305268,
                -0.7804599489681411,
                0.12958660307563738,
                -3.1924946282119055
            ]
        },
        {
            "positions": [
                0.0566678883890788,
                -1.1727221061369288,
                2.0355532008593027,
                -0.8147525135289954,
                0.2856286977677583,
                -3.1796029216096655
            ]
        },
        {
            "positions": [
                -0.00947569900648658,
                -1.205953876095509,
                2.0995600146880786,
                -0.8490450780898496,
                0.44167079245987917,
                -3.166711215007426
            ]
        },
        {
            "positions": [
                -0.07561928640205197,
                -1.2391856460540895,
                2.1635668285168546,
                -0.8833376426507039,
                0.5977128871520001,
                -3.153819508405186
            ]
        },
        {
            "positions": [
                -0.14176287379761732,
                -1.2724174160126698,
                2.22757364234563,
                -0.9176302072115583,
                0.753754981844121,
                -3.140927801802946
            ]
        },
        {
            "positions": [
                -0.20790646119318273,
                -1.3056491859712502,
                2.291580456174406,
                -0.9519227717724126,
                0.909797076536242,
                -3.128036095200706
            ]
        },
        {
            "positions": [
                -0.2740500485887481,
                -1.3388809559298305,
                2.355587270003182,
                -0.9862153363332669,
                1.0658391712283628,
                -3.115144388598466
            ]
        },
        {
            "positions": [
                -0.3401936359843135,
                -1.372112725888411,
                2.419594083831958,
                -1.0205079008941211,
                1.2218812659204838,
                -3.102252681996226
            ]
        }
    ]
}