{
    "goal": {
        "global_pose": {
            "orientation": {
                "w": -0.00223480608172531,
                "x": 0.0024358444001904467,
                "y": 0.7094548369677653,
                "z": -0.704743149386269
            },
            "position": {
                "x": 0.6205249238014221,
                "y": -0.6371506643295288,
                "z": 0.19426114857196808
            }
        },
        "name": "move_to_magneteinheit_B"
    },
    "id": "FMT_move_to_magneteinheit_B_11",
    "joint_names": [
        "shoulder_pan_joint",
        "shoulder_lift_joint",
        "elbow_joint",
        "wrist_1_joint",
        "wrist_2_joint",
        "wrist_3_joint"
    ],
    "metrics": {
        "cart_traj_len": 3.9726401556744095,
        "distance_elbow_joint": 4.68249487017188,
        "distance_shoulder_lift_joint": 1.1588365575056616,
        "distance_shoulder_pan_joint": 2.6242454167928413,
        "distance_wrist_1_joint": 1.9668220614685836,
        "distance_wrist_2_joint": 1.6675672286806535,
        "distance_wrist_3_joint": 0.8562181067023169,
        "smoothness": 1.087837981503423,
        "time": 1.436290499,
        "traj_len": 3.599469994502237,
        "weighted_distance": 4.278201695207439
    },
    "planner": "FMT",
    "start": {
        "state": {
            "elbow_joint": 2.39358713078474,
            "shoulder_lift_joint": -1.908514104345545,
            "shoulder_pan_joint": 0.7066247066606129,
            "wrist_1_joint": -0.4678290933515497,
            "wrist_2_joint": 0.7096259083745334,
            "wrist_3_joint": -3.1358149277392293
        }
    },
    "waypoints": [
        {
            "positions": [
                0.7066247066606129,
                -1.908514104345545,
                2.39358713078474,
                -0.4678290933515497,
                0.7096259083745334,
                -3.1358149277392293
            ]
        },
        {
            "positions": [
                0.7233814514891762,
                -2.012928560130514,
                2.3743536723900465,
                -0.588255895780284,
                0.7887252080275585,
                -3.080339960829476
            ]
        },
        {
            "positions": [
                0.7401381963177395,
                -2.117343015915483,
                2.3551202139953533,
                -0.7086826982090183,
                0.8678245076805837,
                -3.0248649939197225
            ]
        },
        {
            "positions": [
                0.7568949411463027,
                -2.2217574717004522,
                2.3358867556006597,
                -0.8291095006377526,
                0.9469238073336088,
                -2.969390027009969
            ]
        },
        {
            "positions": [
                0.8449075536740861,
                -2.2025440143819757,
                2.1622165972364353,
                -0.8750778123817395,
                0.9028614826068802,
                -2.9837733997232543
            ]
        },
        {
            "positions": [
                0.9329201662018695,
                -2.183330557063499,
                1.9885464388722105,
                -0.9210461241257266,
                0.8587991578801514,
                -2.9981567724365394
            ]
        },
        {
            "positions": [
                1.0209327787296527,
                -2.1641170997450225,
                1.814876280507986,
                -0.9670144358697136,
                0.8147368331534227,
                -3.0125401451498246
            ]
        },
        {
            "positions": [
                1.108945391257436,
                -2.144903642426546,
                1.6412061221437613,
                -1.0129827476137006,
                0.7706745084266939,
                -3.0269235178631098
            ]
        },
        {
            "positions": [
                1.1969580037852194,
                -2.1256901851080694,
                1.4675359637795369,
                -1.0589510593576876,
                0.7266121836999653,
                -3.041306890576395
            ]
        },
        {
            "positions": [
                1.2849706163130028,
                -2.106476727789593,
                1.2938658054153123,
                -1.1049193711016747,
                0.6825498589732366,
                -3.05569026328968
            ]
        },
        {
            "positions": [
                1.3729832288407864,
                -2.0872632704711163,
                1.1201956470510877,
                -1.1508876828456618,
                0.6384875342465078,
                -3.0700736360029652
            ]
        },
        {
            "positions": [
                1.4609958413685695,
                -2.06804981315264,
                0.946525488686863,
                -1.1968559945896486,
                0.5944252095197791,
                -3.0844570087162504
            ]
        },
        {
            "positions": [
                1.549008453896353,
                -2.0488363558341636,
                0.7728553303226384,
                -1.2428243063336357,
                0.5503628847930504,
                -3.0988403814295356
            ]
        },
        {
            "positions": [
                1.6370210664241363,
                -2.029622898515687,
                0.599185171958414,
                -1.2887926180776228,
                0.5063005600663217,
                -3.1132237541428207
            ]
        },
        {
            "positions": [
                1.7250336789519196,
                -2.0104094411972104,
                0.4255150135941892,
                -1.3347609298216097,
                0.46223823533959296,
                -3.1276071268561063
            ]
        },
        {
            "positions": [
                1.813046291479703,
                -1.9911959838787339,
                0.2518448552299648,
                -1.3807292415655967,
                0.4181759106128643,
                -3.141990499569391
            ]
        },
        {
            "positions": [
                1.9010589040074861,
                -1.9719825265602573,
                0.07817469686574041,
                -1.4266975533095838,
                0.37411358588613564,
                -3.1563738722826766
            ]
        },
        {
            "positions": [
                1.9890715165352697,
                -1.9527690692417807,
                -0.09549546149848442,
                -1.4726658650535707,
                0.33005126115940686,
                -3.170757244995962
            ]
        },
        {
            "positions": [
                2.077084129063053,
                -1.9335556119233042,
                -0.26916561986270926,
                -1.5186341767975577,
                0.2859889364326781,
                -3.185140617709247
            ]
        },
        {
            "positions": [
                2.1650967415908364,
                -1.9143421546048276,
                -0.44283577822693365,
                -1.5646024885415448,
                0.24192661170594942,
                -3.199523990422532
            ]
        },
        {
            "positions": [
                2.2531093541186196,
                -1.895128697286351,
                -0.616505936591158,
                -1.6105708002855317,
                0.19786428697922076,
                -3.2139073631358173
            ]
        },
        {
            "positions": [
                2.341121966646403,
                -1.8759152399678745,
                -0.7901760949553829,
                -1.6565391120295188,
                0.15380196225249199,
                -3.2282907358491024
            ]
        },
        {
            "positions": [
                2.4291345791741863,
                -1.856701782649398,
                -0.9638462533196073,
                -1.7025074237735058,
                0.10973963752576332,
                -3.2426741085623876
            ]
        },
        {
            "positions": [
                2.51714719170197,
                -1.8374883253309215,
                -1.1375164116838317,
                -1.7484757355174927,
                0.06567731279903466,
                -3.2570574812756727
            ]
        },
        {
            "positions": [
                2.605159804229753,
                -1.818274868012445,
                -1.3111865700480565,
                -1.7944440472614798,
                0.021614988072305885,
                -3.271440853988958
            ]
        },
        {
            "positions": [
                2.6931724167575366,
                -1.7990614106939684,
                -1.4848567284122813,
                -1.8404123590054668,
                -0.02244733665442289,
                -3.285824226702243
            ]
        },
        {
            "positions": [
                2.7811850292853197,
                -1.7798479533754918,
                -1.658526886776506,
                -1.8863806707494537,
                -0.06650966138115148,
                -3.300207599415528
            ]
        },
        {
            "positions": [
                2.705163251863414,
                -1.8179865205570276,
                -1.73724486946553,
                -1.9771397101699906,
                -0.09450384843904919,
                -3.2463449946272327
            ]
        },
        {
            "positions": [
                2.629141474441508,
                -1.8561250877385633,
                -1.8159628521545543,
                -2.0678987495905274,
                -0.1224980354969469,
                -3.192482389838937
            ]
        },
        {
            "positions": [
                2.5531196970196026,
                -1.894263654920099,
                -1.8946808348435784,
                -2.1586577890110643,
                -0.15049222255484462,
                -3.138619785050642
            ]
        },
        {
            "positions": [
                2.4770979195976968,
                -1.9324022221016348,
                -1.9733988175326025,
                -2.249416828431601,
                -0.17848640961274231,
                -3.0847571802623466
            ]
        },
        {
            "positions": [
                2.5486956213232923,
                -1.982849636474564,
                -1.8690849008273502,
                -2.266325286508659,
                -0.24609685802024237,
                -3.120800128119691
            ]
        },
        {
            "positions": [
                2.6202933230488883,
                -2.0332970508474935,
                -1.7647709841220982,
                -2.2832337445857167,
                -0.3137073064277424,
                -3.156843075977035
            ]
        },
        {
            "positions": [
                2.691891024774484,
                -2.0837444652204224,
                -1.660457067416846,
                -2.3001422026627747,
                -0.3813177548352425,
                -3.1928860238343795
            ]
        },
        {
            "positions": [
                2.6764885851226214,
                -2.133638045210854,
                -1.659173481547457,
                -2.367396678741454,
                -0.43233163861160584,
                -3.1751878384132377
            ]
        },
        {
            "positions": [
                2.661086145470759,
                -2.1835316252012857,
                -1.6578898956780679,
                -2.4346511548201333,
                -0.48334552238796924,
                -3.1574896529920964
            ]
        }
    ]
}