{
    "goal": {
        "global_pose": {
            "orientation": {
                "w": 0.7047431468963623,
                "x": -0.7094548344612122,
                "y": 0.0024358443915843964,
                "z": -0.0022348060738295317
            },
            "position": {
                "x": 0.6094750761985779,
                "y": 0.3671506643295288,
                "z": 0.19426114857196808
            }
        },
        "name": "move_to_magneteinheit_A"
    },
    "id": "FMT_move_to_magneteinheit_A_119",
    "joint_names": [
        "shoulder_pan_joint",
        "shoulder_lift_joint",
        "elbow_joint",
        "wrist_1_joint",
        "wrist_2_joint",
        "wrist_3_joint"
    ],
    "metrics": {
        "cart_traj_len": 2.0635460784150927,
        "distance_elbow_joint": 3.870794860739469,
        "distance_shoulder_lift_joint": 1.0503641304132656,
        "distance_shoulder_pan_joint": 1.2427413469388044,
        "distance_wrist_1_joint": 1.124569789746955,
        "distance_wrist_2_joint": 1.4471069066154856,
        "distance_wrist_3_joint": 1.9039925936097344,
        "smoothness": 5.709718422464751e-16,
        "time": 1.19521505,
        "traj_len": 3.2618353159017266,
        "weighted_distance": 4.125437129765235
    },
    "planner": "FMT",
    "start": {
        "state": {
            "elbow_joint": -1.919643507792019,
            "shoulder_lift_joint": -0.07675430207160344,
            "shoulder_pan_joint": -1.1188671864651873,
            "wrist_1_joint": 0.42560062535961957,
            "wrist_2_joint": 1.5706038300724876,
            "wrist_3_joint": 1.1188968870953055
        }
    },
    "waypoints": [
        {
            "positions": [
                -1.1188671864651873,
                -0.07675430207160344,
                -1.919643507792019,
                0.42560062535961957,
                1.5706038300724876,
                1.1188968870953055
            ]
        },
        {
            "positions": [
                -1.0728397291711576,
                -0.11565667727209475,
                -1.7762807351720387,
                0.3839498924060286,
                1.5170072779756179,
                1.1894151313030734
            ]
        },
        {
            "positions": [
                -1.0268122718771278,
                -0.15455905247258606,
                -1.6329179625520585,
                0.3422991594524377,
                1.4634107258787479,
                1.2599333755108415
            ]
        },
        {
            "positions": [
                -0.980784814583098,
                -0.1934614276730774,
                -1.489555189932078,
                0.30064842649884677,
                1.4098141737818781,
                1.3304516197186094
            ]
        },
        {
            "positions": [
                -0.9347573572890682,
                -0.2323638028735687,
                -1.3461924173120978,
                0.25899769354525587,
                1.3562176216850084,
                1.4009698639263772
            ]
        },
        {
            "positions": [
                -0.8887298999950384,
                -0.27126617807406006,
                -1.2028296446921174,
                0.21734696059166492,
                1.3026210695881384,
                1.471488108134145
            ]
        },
        {
            "positions": [
                -0.8427024427010086,
                -0.31016855327455134,
                -1.0594668720721372,
                0.175696227638074,
                1.2490245174912686,
                1.5420063523419132
            ]
        },
        {
            "positions": [
                -0.7966749854069788,
                -0.3490709284750427,
                -0.9161040994521568,
                0.13404549468448307,
                1.1954279653943987,
                1.612524596549681
            ]
        },
        {
            "positions": [
                -0.750647528112949,
                -0.38797330367553395,
                -0.7727413268321766,
                0.09239476173089217,
                1.141831413297529,
                1.683042840757449
            ]
        },
        {
            "positions": [
                -0.7046200708189192,
                -0.4268756788760253,
                -0.6293785542121961,
                0.05074402877730122,
                1.0882348612006592,
                1.753561084965217
            ]
        },
        {
            "positions": [
                -0.6585926135248894,
                -0.4657780540765166,
                -0.4860157815922157,
                0.009093295823710268,
                1.0346383091037894,
                1.8240793291729849
            ]
        },
        {
            "positions": [
                -0.6125651562308596,
                -0.504680429277008,
                -0.3426530089722355,
                -0.03255743712988063,
                0.9810417570069194,
                1.8945975733807527
            ]
        },
        {
            "positions": [
                -0.5665376989368298,
                -0.5435828044774993,
                -0.19929023635225507,
                -0.07420817008347158,
                0.9274452049100496,
                1.9651158175885208
            ]
        },
        {
            "positions": [
                -0.5205102416428,
                -0.5824851796779906,
                -0.05592746373227486,
                -0.11585890303706253,
                0.8738486528131798,
                2.035634061796289
            ]
        },
        {
            "positions": [
                -0.4744827843487702,
                -0.621387554878482,
                0.08743530888770557,
                -0.15750963599065343,
                0.8202521007163099,
                2.1061523060040566
            ]
        },
        {
            "positions": [
                -0.42845532705474043,
                -0.6602899300789733,
                0.23079808150768621,
                -0.19916036894424444,
                0.7666555486194401,
                2.1766705502118247
            ]
        },
        {
            "positions": [
                -0.38242786976071064,
                -0.6991923052794644,
                0.374160854127666,
                -0.24081110189783522,
                0.7130589965225703,
                2.2471887944195927
            ]
        },
        {
            "positions": [
                -0.33640041246668084,
                -0.738094680479956,
                0.5175236267476466,
                -0.28246183485142623,
                0.6594624444257003,
                2.3177070386273604
            ]
        },
        {
            "positions": [
                -0.29037295517265105,
                -0.7769970556804471,
                0.6608863993676268,
                -0.3241125678050171,
                0.6058658923288306,
                2.3882252828351285
            ]
        },
        {
            "positions": [
                -0.24434549787862125,
                -0.8158994308809384,
                0.8042491719876075,
                -0.36576330075860813,
                0.5522693402319607,
                2.4587435270428966
            ]
        },
        {
            "positions": [
                -0.19831804058459146,
                -0.8548018060814297,
                0.9476119446075877,
                -0.40741403371219903,
                0.49867278813509097,
                2.529261771250664
            ]
        },
        {
            "positions": [
                -0.15229058329056167,
                -0.8937041812819211,
                1.090974717227568,
                -0.4490647666657899,
                0.445076236038221,
                2.5997800154584323
            ]
        },
        {
            "positions": [
                -0.10626312599653187,
                -0.9326065564824124,
                1.234337489847548,
                -0.4907154996193808,
                0.39147968394135124,
                2.6702982596662004
            ]
        },
        {
            "positions": [
                -0.060235668702502076,
                -0.9715089316829038,
                1.3777002624675287,
                -0.5323662325729719,
                0.33788313184448127,
                2.740816503873968
            ]
        },
        {
            "positions": [
                -0.014208211408472282,
                -1.010411306883395,
                1.521063035087509,
                -0.5740169655265628,
                0.2842865797476115,
                2.811334748081736
            ]
        },
        {
            "positions": [
                0.03181924588555751,
                -1.0493136820838864,
                1.6644258077074892,
                -0.6156676984801537,
                0.23069002765074176,
                2.881852992289504
            ]
        },
        {
            "positions": [
                0.0778467031795873,
                -1.0882160572843778,
                1.8077885803274694,
                -0.6573184314337446,
                0.177093475553872,
                2.952371236497272
            ]
        },
        {
            "positions": [
                0.12387416047361702,
                -1.127118432484869,
                1.9511513529474498,
                -0.6989691643873355,
                0.12349692345700213,
                3.02288948070504
            ]
        }
    ]
}