{
    "goal": {
        "global_pose": {
            "orientation": {
                "w": -0.00223480608172531,
                "x": 0.0024358444001904467,
                "y": 0.7094548369677653,
                "z": -0.704743149386269
            },
            "position": {
                "x": 0.6205249238014221,
                "y": -0.6371506643295288,
                "z": 0.19426114857196808
            }
        },
        "name": "move_to_magneteinheit_B"
    },
    "id": "FMT_move_to_magneteinheit_B_141",
    "joint_names": [
        "shoulder_pan_joint",
        "shoulder_lift_joint",
        "elbow_joint",
        "wrist_1_joint",
        "wrist_2_joint",
        "wrist_3_joint"
    ],
    "metrics": {
        "cart_traj_len": 1.453179690217664,
        "distance_elbow_joint": 0.7313914652776894,
        "distance_shoulder_lift_joint": 1.2489818231658143,
        "distance_shoulder_pan_joint": 1.620112898456131,
        "distance_wrist_1_joint": 2.6074034648824074,
        "distance_wrist_2_joint": 2.950167228416249,
        "distance_wrist_3_joint": 3.140570596185216,
        "smoothness": 5.38289955595754e-17,
        "time": 1.443224336,
        "traj_len": 3.5069399020204934,
        "weighted_distance": 4.912976629504011
    },
    "planner": "FMT",
    "start": {
        "state": {
            "elbow_joint": 2.39358713078474,
            "shoulder_lift_joint": -1.908514104345545,
            "shoulder_pan_joint": 0.7066247066606129,
            "wrist_1_joint": -0.4678290933515497,
            "wrist_2_joint": 0.7096259083745334,
            "wrist_3_joint": -3.1358149277392293
        }
    },
    "waypoints": [
        {
            "positions": [
                0.7066247066606129,
                -1.908514104345545,
                2.39358713078474,
                -0.4678290933515497,
                0.7096259083745334,
                -3.1358149277392293
            ]
        },
        {
            "positions": [
                0.6559961785838588,
                -1.8694834223716132,
                2.370731147494812,
                -0.38634773507397446,
                0.6174331824865257,
                -3.0376720966084414
            ]
        },
        {
            "positions": [
                0.6053676505071047,
                -1.8304527403976816,
                2.3478751642048845,
                -0.3048663767963993,
                0.5252404565985178,
                -2.9395292654776535
            ]
        },
        {
            "positions": [
                0.5547391224303506,
                -1.79142205842375,
                2.3250191809149565,
                -0.22338501851882403,
                0.43304773071051006,
                -2.841386434346865
            ]
        },
        {
            "positions": [
                0.5041105943535966,
                -1.7523913764498182,
                2.302163197625029,
                -0.14190366024124879,
                0.3408550048225023,
                -2.743243603216077
            ]
        },
        {
            "positions": [
                0.45348206627684245,
                -1.7133606944758863,
                2.279307214335101,
                -0.06042230196367354,
                0.24866227893449455,
                -2.6451007720852893
            ]
        },
        {
            "positions": [
                0.4028535382000884,
                -1.6743300125019547,
                2.2564512310451734,
                0.021059056313901647,
                0.1564695530464867,
                -2.5469579409545013
            ]
        },
        {
            "positions": [
                0.3522250101233343,
                -1.635299330528023,
                2.2335952477552454,
                0.10254041459147695,
                0.06427682715847893,
                -2.4488151098237134
            ]
        },
        {
            "positions": [
                0.3015964820465802,
                -1.5962686485540913,
                2.210739264465318,
                0.18402177286905214,
                -0.02791589872952882,
                -2.350672278692925
            ]
        },
        {
            "positions": [
                0.2509679539698261,
                -1.5572379665801597,
                2.18788328117539,
                0.2655031311466273,
                -0.12010862461753657,
                -2.252529447562137
            ]
        },
        {
            "positions": [
                0.20033942589307197,
                -1.518207284606228,
                2.1650272978854623,
                0.3469844894242026,
                -0.21230135050554433,
                -2.154386616431349
            ]
        },
        {
            "positions": [
                0.14971089781631786,
                -1.4791766026322963,
                2.1421713145955343,
                0.4284658477017778,
                -0.3044940763935521,
                -2.0562437853005613
            ]
        },
        {
            "positions": [
                0.09908236973956386,
                -1.4401459206583644,
                2.1193153313056063,
                0.5099472059793531,
                -0.39668680228156006,
                -1.9581009541697734
            ]
        },
        {
            "positions": [
                0.04845384166280975,
                -1.401115238684433,
                2.096459348015679,
                0.5914285642569284,
                -0.4888795281695678,
                -1.8599581230389852
            ]
        },
        {
            "positions": [
                -0.00217468641394436,
                -1.362084556710501,
                2.073603364725751,
                0.6729099225345037,
                -0.5810722540575756,
                -1.7618152919081973
            ]
        },
        {
            "positions": [
                -0.05280321449069847,
                -1.3230538747365694,
                2.0507473814358232,
                0.7543912808120787,
                -0.6732649799455833,
                -1.6636724607774092
            ]
        },
        {
            "positions": [
                -0.10343174256745258,
                -1.2840231927626378,
                2.0278913981458953,
                0.835872639089654,
                -0.7654577058335911,
                -1.5655296296466212
            ]
        },
        {
            "positions": [
                -0.1540602706442067,
                -1.244992510788706,
                2.0050354148559677,
                0.9173539973672293,
                -0.8576504317215988,
                -1.4673867985158333
            ]
        },
        {
            "positions": [
                -0.2046887987209608,
                -1.2059618288147744,
                1.9821794315660397,
                0.9988353556448044,
                -0.9498431576096066,
                -1.3692439673850452
            ]
        },
        {
            "positions": [
                -0.2553173267977149,
                -1.1669311468408425,
                1.959323448276112,
                1.0803167139223797,
                -1.0420358834976144,
                -1.2711011362542572
            ]
        },
        {
            "positions": [
                -0.305945854874469,
                -1.127900464866911,
                1.9364674649861842,
                1.161798072199955,
                -1.1342286093856222,
                -1.172958305123469
            ]
        },
        {
            "positions": [
                -0.356574382951223,
                -1.0888697828929792,
                1.9136114816962564,
                1.24327943047753,
                -1.22642133527363,
                -1.0748154739926812
            ]
        },
        {
            "positions": [
                -0.40720291102797723,
                -1.0498391009190475,
                1.8907554984063286,
                1.3247607887551054,
                -1.3186140611616377,
                -0.9766726428618933
            ]
        },
        {
            "positions": [
                -0.45783143910473123,
                -1.0108084189451159,
                1.8678995151164008,
                1.4062421470326807,
                -1.4108067870496455,
                -0.8785298117311053
            ]
        },
        {
            "positions": [
                -0.5084599671814852,
                -0.9717777369711842,
                1.845043531826473,
                1.4877235053102558,
                -1.5029995129376537,
                -0.7803869806003174
            ]
        },
        {
            "positions": [
                -0.5590884952582394,
                -0.9327470549972525,
                1.822187548536545,
                1.569204863587831,
                -1.5951922388256614,
                -0.682244149469529
            ]
        },
        {
            "positions": [
                -0.6097170233349934,
                -0.8937163730233209,
                1.7993315652466175,
                1.6506862218654064,
                -1.6873849647136692,
                -0.5841013183387411
            ]
        },
        {
            "positions": [
                -0.6603455514117477,
                -0.8546856910493892,
                1.7764755819566895,
                1.7321675801429817,
                -1.779577690601677,
                -0.4859584872079532
            ]
        },
        {
            "positions": [
                -0.7109740794885017,
                -0.8156550090754573,
                1.753619598666762,
                1.813648938420557,
                -1.8717704164896847,
                -0.3878156560771653
            ]
        },
        {
            "positions": [
                -0.7616026075652559,
                -0.7766243271015256,
                1.730763615376834,
                1.8951302966981318,
                -1.9639631423776924,
                -0.28967282494637736
            ]
        },
        {
            "positions": [
                -0.8122311356420099,
                -0.737593645127594,
                1.7079076320869062,
                1.9766116549757071,
                -2.0561558682657,
                -0.191529993815589
            ]
        },
        {
            "positions": [
                -0.8628596637187641,
                -0.6985629631536623,
                1.6850516487969784,
                2.0580930132532824,
                -2.148348594153708,
                -0.09338716268480107
            ]
        },
        {
            "positions": [
                -0.9134881917955181,
                -0.6595322811797306,
                1.6621956655070507,
                2.1395743715308577,
                -2.2405413200417157,
                0.004755668445986806
            ]
        }
    ]
}