{
    "goal": {
        "global_pose": {
            "orientation": {
                "w": 0.7031023502349854,
                "x": -0.7110244035720825,
                "y": 0.007748599164187908,
                "z": 0.005598929710686207
            },
            "position": {
                "x": 0.11585023208521307,
                "y": 0.44412534475326537,
                "z": 0.3711530566215515
            }
        },
        "name": "move_to_auspresseinheit_A"
    },
    "id": "KPIECE_move_to_auspresseinheit_A_85",
    "joint_names": [
        "shoulder_pan_joint",
        "shoulder_lift_joint",
        "elbow_joint",
        "wrist_1_joint",
        "wrist_2_joint",
        "wrist_3_joint"
    ],
    "metrics": {
        "cart_traj_len": 1.9075114984695705,
        "distance_elbow_joint": 2.0683838525225546,
        "distance_shoulder_lift_joint": 0.5367706104632197,
        "distance_shoulder_pan_joint": 1.8590305434390806,
        "distance_wrist_1_joint": 8.12069237122952,
        "distance_wrist_2_joint": 1.255150199936006,
        "distance_wrist_3_joint": 9.862853283506373,
        "smoothness": 0.5232815681551577,
        "time": 0.38317396,
        "traj_len": 4.868560450594893,
        "weighted_distance": 7.266665672732926
    },
    "planner": "KPIECE",
    "start": {
        "state": {
            "elbow_joint": 2.422574709923281,
            "shoulder_lift_joint": -1.3736533754116391,
            "shoulder_pan_joint": -0.33786336945926293,
            "wrist_1_joint": -1.0288603412921917,
            "wrist_2_joint": 1.2330224858903978,
            "wrist_3_joint": -3.094022268022082
        }
    },
    "waypoints": [
        {
            "positions": [
                -0.33786336945926293,
                -1.3736533754116391,
                2.422574709923281,
                -1.0288603412921917,
                1.2330224858903978,
                -3.094022268022082
            ]
        },
        {
            "positions": [
                -0.35198138206039237,
                -1.3747876225838138,
                2.386431260723633,
                -0.8793242954044804,
                1.2453950946370715,
                -2.924527054847658
            ]
        },
        {
            "positions": [
                -0.3660993946615218,
                -1.3759218697559885,
                2.3502878115239847,
                -0.729788249516769,
                1.2577677033837453,
                -2.7550318416732336
            ]
        },
        {
            "positions": [
                -0.38021740726265124,
                -1.3770561169281632,
                2.3141443623243365,
                -0.5802522036290577,
                1.270140312130419,
                -2.585536628498809
            ]
        },
        {
            "positions": [
                -0.3943354198637807,
                -1.378190364100338,
                2.278000913124688,
                -0.4307161577413463,
                1.2825129208770927,
                -2.4160414153243845
            ]
        },
        {
            "positions": [
                -0.40845343246491017,
                -1.3793246112725126,
                2.2418574639250397,
                -0.2811801118536349,
                1.2948855296237665,
                -2.2465462021499603
            ]
        },
        {
            "positions": [
                -0.4225714450660396,
                -1.3804588584446873,
                2.2057140147253915,
                -0.1316440659659237,
                1.3072581383704402,
                -2.077050988975536
            ]
        },
        {
            "positions": [
                -0.43668945766716905,
                -1.381593105616862,
                2.1695705655257433,
                0.017891979921787815,
                1.319630747117114,
                -1.9075557758011117
            ]
        },
        {
            "positions": [
                -0.4508074702682985,
                -1.3827273527890367,
                2.133427116326095,
                0.16742802580949911,
                1.3320033558637878,
                -1.7380605626266874
            ]
        },
        {
            "positions": [
                -0.4649254828694279,
                -1.3838615999612114,
                2.097283667126447,
                0.3169640716972104,
                1.3443759646104614,
                -1.568565349452263
            ]
        },
        {
            "positions": [
                -0.47904349547055736,
                -1.384995847133386,
                2.061140217926799,
                0.46650011758492194,
                1.3567485733571352,
                -1.3990701362778386
            ]
        },
        {
            "positions": [
                -0.4931615080716868,
                -1.3861300943055608,
                2.02499676872715,
                0.616036163472633,
                1.369121182103809,
                -1.2295749231034143
            ]
        },
        {
            "positions": [
                -0.5072795206728162,
                -1.3872643414777355,
                1.9888533195275022,
                0.7655722093603443,
                1.3814937908504827,
                -1.0600797099289898
            ]
        },
        {
            "positions": [
                -0.5213975332739457,
                -1.3883985886499102,
                1.9527098703278538,
                0.9151082552480558,
                1.3938663995971565,
                -0.8905844967545655
            ]
        },
        {
            "positions": [
                -0.5355155458750751,
                -1.3895328358220849,
                1.9165664211282056,
                1.0646443011357674,
                1.4062390083438303,
                -0.7210892835801412
            ]
        },
        {
            "positions": [
                -0.5496335584762047,
                -1.3906670829942598,
                1.8804229719285575,
                1.2141803470234787,
                1.4186116170905039,
                -0.551594070405717
            ]
        },
        {
            "positions": [
                -0.563751571077334,
                -1.3918013301664345,
                1.8442795227289093,
                1.36371639291119,
                1.4309842258371777,
                -0.38209885723129267
            ]
        },
        {
            "positions": [
                -0.5778695836784634,
                -1.3929355773386092,
                1.808136073529261,
                1.5132524387989008,
                1.4433568345838514,
                -0.21260364405686838
            ]
        },
        {
            "positions": [
                -0.5919875962795929,
                -1.3940698245107839,
                1.7719926243296127,
                1.6627884846866126,
                1.4557294433305252,
                -0.04310843088244365
            ]
        },
        {
            "positions": [
                -0.6061056088807224,
                -1.3952040716829586,
                1.7358491751299645,
                1.8123245305743239,
                1.468102052077199,
                0.1263867822919802
            ]
        },
        {
            "positions": [
                -0.6202236214818517,
                -1.3963383188551333,
                1.699705725930316,
                1.9618605764620356,
                1.4804746608238728,
                0.2958819954664049
            ]
        },
        {
            "positions": [
                -0.6343416340829813,
                -1.397472566027308,
                1.663562276730668,
                2.1113966223497465,
                1.4928472695705466,
                0.4653772086408292
            ]
        },
        {
            "positions": [
                -0.6484596466841106,
                -1.3986068131994827,
                1.6274188275310197,
                2.2609326682374578,
                1.5052198783172202,
                0.6348724218152535
            ]
        },
        {
            "positions": [
                -0.6625776592852402,
                -1.3997410603716574,
                1.5912753783313716,
                2.4104687141251695,
                1.517592487063894,
                0.8043676349896782
            ]
        },
        {
            "positions": [
                -0.6766956718863695,
                -1.400875307543832,
                1.5551319291317234,
                2.5600047600128804,
                1.5299650958105677,
                0.9738628481641025
            ]
        },
        {
            "positions": [
                -0.690813684487499,
                -1.4020095547160067,
                1.5189884799320752,
                2.7095408059005917,
                1.5423377045572413,
                1.143358061338526
            ]
        },
        {
            "positions": [
                -0.7049316970886285,
                -1.4031438018881814,
                1.4828450307324268,
                2.8590768517883034,
                1.5547103133039153,
                1.312853274512951
            ]
        },
        {
            "positions": [
                -0.7190497096897579,
                -1.4042780490603561,
                1.4467015815327784,
                3.0086128976760147,
                1.5670829220505889,
                1.4823484876873754
            ]
        },
        {
            "positions": [
                -0.7331677222908873,
                -1.4054122962325308,
                1.4105581323331302,
                3.1581489435637264,
                1.5794555307972626,
                1.6518437008617997
            ]
        },
        {
            "positions": [
                -0.7472857348920168,
                -1.4065465434047055,
                1.374414683133482,
                3.3076849894514377,
                1.5918281395439364,
                1.821338914036224
            ]
        },
        {
            "positions": [
                -0.7019854793293191,
                -1.422292713481898,
                1.4062966776876307,
                3.1894303944362536,
                1.5638173724726092,
                1.6667297858659715
            ]
        },
        {
            "positions": [
                -0.6566852237666214,
                -1.43803888355909,
                1.4381786722417793,
                3.07117579942107,
                1.5358066054012822,
                1.5121206576957191
            ]
        },
        {
            "positions": [
                -0.6113849682039236,
                -1.4537850536362824,
                1.470060666795928,
                2.952921204405886,
                1.507795838329955,
                1.3575115295254667
            ]
        },
        {
            "positions": [
                -0.5660847126412261,
                -1.4695312237134748,
                1.5019426613500766,
                2.834666609390702,
                1.479785071258628,
                1.2029024013552143
            ]
        },
        {
            "positions": [
                -0.5207844570785283,
                -1.485277393790667,
                1.533824655904225,
                2.7164120143755177,
                1.4517743041873008,
                1.048293273184962
            ]
        },
        {
            "positions": [
                -0.4754842015158306,
                -1.5010235638678593,
                1.5657066504583736,
                2.5981574193603336,
                1.4237635371159736,
                0.8936841450147095
            ]
        },
        {
            "positions": [
                -0.4301839459531329,
                -1.5167697339450517,
                1.5975886450125223,
                2.47990282434515,
                1.3957527700446466,
                0.7390750168444571
            ]
        },
        {
            "positions": [
                -0.38488369039043524,
                -1.5325159040222438,
                1.629470639566671,
                2.361648229329966,
                1.3677420029733194,
                0.5844658886742047
            ]
        },
        {
            "positions": [
                -0.33958343482773756,
                -1.5482620740994362,
                1.6613526341208196,
                2.243393634314782,
                1.3397312359019924,
                0.4298567605039523
            ]
        },
        {
            "positions": [
                -0.2942831792650399,
                -1.5640082441766285,
                1.6932346286749682,
                2.125139039299598,
                1.3117204688306652,
                0.27524763233369987
            ]
        },
        {
            "positions": [
                -0.24898292370234215,
                -1.5797544142538207,
                1.7251166232291166,
                2.006884444284414,
                1.2837097017593382,
                0.12063850416344746
            ]
        },
        {
            "positions": [
                -0.20368266813964442,
                -1.595500584331013,
                1.7569986177832653,
                1.88862984926923,
                1.255698934688011,
                -0.03397062400680495
            ]
        },
        {
            "positions": [
                -0.15838241257694674,
                -1.6112467544082052,
                1.788880612337414,
                1.7703752542540458,
                1.2276881676166838,
                -0.18857975217705736
            ]
        },
        {
            "positions": [
                -0.11308215701424906,
                -1.6269929244853976,
                1.8207626068915626,
                1.652120659238862,
                1.1996774005453568,
                -0.34318888034730977
            ]
        },
        {
            "positions": [
                -0.06778190145155139,
                -1.64273909456259,
                1.8526446014457112,
                1.533866064223678,
                1.1716666334740296,
                -0.4977980085175622
            ]
        },
        {
            "positions": [
                -0.022481645888853707,
                -1.6584852646397823,
                1.8845265959998598,
                1.415611469208494,
                1.1436558664027026,
                -0.6524071366878146
            ]
        },
        {
            "positions": [
                0.02281860967384397,
                -1.6742314347169744,
                1.9164085905540085,
                1.29735687419331,
                1.1156450993313753,
                -0.807016264858067
            ]
        },
        {
            "positions": [
                0.06811886523654165,
                -1.6899776047941668,
                1.9482905851081571,
                1.1791022791781258,
                1.0876343322600484,
                -0.9616253930283194
            ]
        },
        {
            "positions": [
                0.11341912079923933,
                -1.705723774871359,
                1.9801725796623058,
                1.0608476841629422,
                1.0596235651887211,
                -1.1162345211985718
            ]
        },
        {
            "positions": [
                0.158719376361937,
                -1.7214699449485513,
                2.0120545742164544,
                0.9425930891477581,
                1.031612798117394,
                -1.2708436493688242
            ]
        },
        {
            "positions": [
                0.2040196319246348,
                -1.7372161150257437,
                2.043936568770603,
                0.824338494132574,
                1.003602031046067,
                -1.4254527775390766
            ]
        },
        {
            "positions": [
                0.24931988748733247,
                -1.752962285102936,
                2.0758185633247512,
                0.7060838991173903,
                0.9755912639747398,
                -1.580061905709329
            ]
        },
        {
            "positions": [
                0.29462014305003015,
                -1.7687084551801282,
                2.1077005578789,
                0.5878293041022062,
                0.9475804969034126,
                -1.7346710338795814
            ]
        },
        {
            "positions": [
                0.33992039861272794,
                -1.7844546252573206,
                2.1395825524330485,
                0.46957470908702215,
                0.9195697298320855,
                -1.8892801620498338
            ]
        },
        {
            "positions": [
                0.3852206541754255,
                -1.8002007953345127,
                2.171464546987197,
                0.35132011407183805,
                0.8915589627607584,
                -2.0438892902200863
            ]
        },
        {
            "positions": [
                0.4305209097381233,
                -1.815946965411705,
                2.203346541541346,
                0.23306551905665396,
                0.8635481956894313,
                -2.1984984183903387
            ]
        },
        {
            "positions": [
                0.47582116530082086,
                -1.8316931354888975,
                2.2352285360954944,
                0.11481092404147031,
                0.8355374286181042,
                -2.3531075465605915
            ]
        },
        {
            "positions": [
                0.5211214208635186,
                -1.8474393055660898,
                2.267110530649643,
                -0.003443670973713786,
                0.8075266615467771,
                -2.5077166747308435
            ]
        },
        {
            "positions": [
                0.5664216764262162,
                -1.863185475643282,
                2.2989925252037917,
                -0.12169826598889788,
                0.7795158944754499,
                -2.6623258029010954
            ]
        },
        {
            "positions": [
                0.611721931988914,
                -1.8789316457204743,
                2.3308745197579404,
                -0.23995286100408153,
                0.7515051274041228,
                -2.8169349310713483
            ]
        },
        {
            "positions": [
                0.6570221875516116,
                -1.8946778157976665,
                2.362756514312089,
                -0.3582074560192656,
                0.7234943603327957,
                -2.971544059241601
            ]
        },
        {
            "positions": [
                0.7023224431143094,
                -1.9104239858748588,
                2.3946385088662376,
                -0.47646205103444994,
                0.6954835932614686,
                -3.1261531874118536
            ]
        }
    ]
}