{
    "goal": {
        "global_pose": {
            "orientation": {
                "w": -0.00223480608172531,
                "x": 0.0024358444001904467,
                "y": 0.7094548369677653,
                "z": -0.704743149386269
            },
            "position": {
                "x": 0.6205249238014221,
                "y": -0.6371506643295288,
                "z": 0.19426114857196808
            }
        },
        "name": "move_to_magneteinheit_B"
    },
    "id": "KPIECE_move_to_magneteinheit_B_46",
    "joint_names": [
        "shoulder_pan_joint",
        "shoulder_lift_joint",
        "elbow_joint",
        "wrist_1_joint",
        "wrist_2_joint",
        "wrist_3_joint"
    ],
    "metrics": {
        "cart_traj_len": 1.4543814334616385,
        "distance_elbow_joint": 0.7261770929872535,
        "distance_shoulder_lift_joint": 1.2434433397936047,
        "distance_shoulder_pan_joint": 1.6202290578143175,
        "distance_wrist_1_joint": 2.6281513873746043,
        "distance_wrist_2_joint": 2.9474176566429175,
        "distance_wrist_3_joint": 3.1516373060515104,
        "smoothness": 3.2297397183914985e-16,
        "time": 0.131917048,
        "traj_len": 3.5095663322787063,
        "weighted_distance": 4.918932759937338
    },
    "planner": "KPIECE",
    "start": {
        "state": {
            "elbow_joint": 2.39358713078474,
            "shoulder_lift_joint": -1.908514104345545,
            "shoulder_pan_joint": 0.7066247066606129,
            "wrist_1_joint": -0.4678290933515497,
            "wrist_2_joint": 0.7096259083745334,
            "wrist_3_joint": -3.1358149277392293
        }
    },
    "waypoints": [
        {
            "positions": [
                0.7066247066606129,
                -1.908514104345545,
                2.39358713078474,
                -0.4678290933515497,
                0.7096259083745334,
                -3.1358149277392293
            ]
        },
        {
            "positions": [
                0.6559925486039155,
                -1.8696564999769947,
                2.3708940966288883,
                -0.3856993624960933,
                0.6175191066044423,
                -3.0373262619251196
            ]
        },
        {
            "positions": [
                0.6053603905472181,
                -1.8307988956084447,
                2.3482010624730365,
                -0.30356963164063694,
                0.5254123048343511,
                -2.93883759611101
            ]
        },
        {
            "positions": [
                0.5547282324905207,
                -1.7919412912398944,
                2.325508028317185,
                -0.22143990078518055,
                0.4333055030642599,
                -2.8403489302969
            ]
        },
        {
            "positions": [
                0.5040960744338232,
                -1.7530836868713444,
                2.3028149941613334,
                -0.13931016992972417,
                0.34119870129416874,
                -2.7418602644827903
            ]
        },
        {
            "positions": [
                0.45346391637712585,
                -1.7142260825027942,
                2.2801219600054816,
                -0.057180439074267786,
                0.24909189952407756,
                -2.643371598668681
            ]
        },
        {
            "positions": [
                0.4028317583204284,
                -1.675368478134244,
                2.25742892584963,
                0.0249492917811886,
                0.1569850977539864,
                -2.5448829328545712
            ]
        },
        {
            "positions": [
                0.352199600263731,
                -1.636510873765694,
                2.2347358916937785,
                0.10707902263664498,
                0.06487829598389527,
                -2.4463942670404615
            ]
        },
        {
            "positions": [
                0.3015674422070336,
                -1.5976532693971437,
                2.2120428575379267,
                0.18920875349210137,
                -0.027228505786195956,
                -2.3479056012263517
            ]
        },
        {
            "positions": [
                0.25093528415033617,
                -1.5587956650285937,
                2.189349823382075,
                0.27133848434755775,
                -0.11933530755628718,
                -2.249416935412242
            ]
        },
        {
            "positions": [
                0.20030312609363876,
                -1.5199380606600434,
                2.166656789226223,
                0.35346821520301414,
                -0.2114421093263783,
                -2.150928269598132
            ]
        },
        {
            "positions": [
                0.14967096803694135,
                -1.4810804562914934,
                2.143963755070372,
                0.4355979460584705,
                -0.3035489110964694,
                -2.0524396037840225
            ]
        },
        {
            "positions": [
                0.09903880998024384,
                -1.4422228519229432,
                2.12127072091452,
                0.517727676913927,
                -0.39565571286656065,
                -1.953950937969913
            ]
        },
        {
            "positions": [
                0.04840665192354643,
                -1.403365247554393,
                2.0985776867586683,
                0.5998574077693832,
                -0.4877625146366519,
                -1.8554622721558032
            ]
        },
        {
            "positions": [
                -0.0022255061331509784,
                -1.364507643185843,
                2.0758846526028165,
                0.6819871386248397,
                -0.5798693164067429,
                -1.7569736063416936
            ]
        },
        {
            "positions": [
                -0.052857664189848386,
                -1.3256500388172927,
                2.0531916184469647,
                0.7641168694802962,
                -0.6719761181768341,
                -1.6584849405275839
            ]
        },
        {
            "positions": [
                -0.10348982224654579,
                -1.2867924344487425,
                2.0304985842911134,
                0.8462466003357525,
                -0.7640829199469253,
                -1.5599962747134741
            ]
        },
        {
            "positions": [
                -0.1541219803032432,
                -1.2479348300801925,
                2.0078055501352616,
                0.9283763311912088,
                -0.8561897217170166,
                -1.4615076088993644
            ]
        },
        {
            "positions": [
                -0.2047541383599406,
                -1.2090772257116424,
                1.9851125159794099,
                1.0105060620466653,
                -0.9482965234871078,
                -1.3630189430852546
            ]
        },
        {
            "positions": [
                -0.255386296416638,
                -1.170219621343092,
                1.9624194818235583,
                1.0926357929021218,
                -1.040403325257199,
                -1.264530277271145
            ]
        },
        {
            "positions": [
                -0.3060184544733354,
                -1.131362016974542,
                1.9397264476677067,
                1.174765523757578,
                -1.13251012702729,
                -1.1660416114570353
            ]
        },
        {
            "positions": [
                -0.35665061253003294,
                -1.092504412605992,
                1.917033413511855,
                1.2568952546130343,
                -1.2246169287973814,
                -1.0675529456429258
            ]
        },
        {
            "positions": [
                -0.40728277058673024,
                -1.0536468082374417,
                1.8943403793560032,
                1.3390249854684908,
                -1.3167237305674724,
                -0.969064279828816
            ]
        },
        {
            "positions": [
                -0.45791492864342775,
                -1.0147892038688915,
                1.8716473452001516,
                1.4211547163239473,
                -1.4088305323375638,
                -0.8705756140147063
            ]
        },
        {
            "positions": [
                -0.5085470867001253,
                -0.9759315995003415,
                1.8489543110442999,
                1.5032844471794036,
                -1.5009373341076548,
                -0.7720869482005965
            ]
        },
        {
            "positions": [
                -0.5591792447568226,
                -0.9370739951317912,
                1.8262612768884483,
                1.5854141780348598,
                -1.5930441358777458,
                -0.6735982823864868
            ]
        },
        {
            "positions": [
                -0.6098114028135201,
                -0.8982163907632412,
                1.8035682427325965,
                1.6675439088903161,
                -1.6851509376478373,
                -0.575109616572377
            ]
        },
        {
            "positions": [
                -0.6604435608702174,
                -0.859358786394691,
                1.7808752085767448,
                1.7496736397457728,
                -1.7772577394179283,
                -0.47662095075826727
            ]
        },
        {
            "positions": [
                -0.7110757189269149,
                -0.8205011820261408,
                1.7581821744208932,
                1.831803370601229,
                -1.8693645411880193,
                -0.37813228494415796
            ]
        },
        {
            "positions": [
                -0.7617078769836122,
                -0.7816435776575907,
                1.7354891402650416,
                1.9139331014566854,
                -1.9614713429581108,
                -0.2796436191300482
            ]
        },
        {
            "positions": [
                -0.8123400350403097,
                -0.7427859732890405,
                1.7127961061091899,
                1.996062832312142,
                -2.0535781447282018,
                -0.18115495331593845
            ]
        },
        {
            "positions": [
                -0.862972193097007,
                -0.7039283689204905,
                1.690103071953338,
                2.0781925631675984,
                -2.1456849464982932,
                -0.0826662875018287
            ]
        },
        {
            "positions": [
                -0.9136043511537046,
                -0.6650707645519403,
                1.6674100377974865,
                2.1603222940230546,
                -2.2377917482683842,
                0.015822378312281272
            ]
        }
    ]
}