{
    "goal": {
        "global_pose": {
            "orientation": {
                "w": -0.00223480608172531,
                "x": 0.0024358444001904467,
                "y": 0.7094548369677653,
                "z": -0.704743149386269
            },
            "position": {
                "x": 0.6205249238014221,
                "y": -0.6371506643295288,
                "z": 0.19426114857196808
            }
        },
        "name": "move_to_magneteinheit_B"
    },
    "id": "KPIECE_move_to_magneteinheit_B_65",
    "joint_names": [
        "shoulder_pan_joint",
        "shoulder_lift_joint",
        "elbow_joint",
        "wrist_1_joint",
        "wrist_2_joint",
        "wrist_3_joint"
    ],
    "metrics": {
        "cart_traj_len": 1.452787249186031,
        "distance_elbow_joint": 0.7251738711194124,
        "distance_shoulder_lift_joint": 1.2460818985308428,
        "distance_shoulder_pan_joint": 1.6224588689338768,
        "distance_wrist_1_joint": 2.613150840623608,
        "distance_wrist_2_joint": 2.9331602373396923,
        "distance_wrist_3_joint": 3.1390202468539226,
        "smoothness": 3.0531133340659197e-16,
        "time": 0.22788265100000002,
        "traj_len": 3.5041469665813607,
        "weighted_distance": 4.90952111056389
    },
    "planner": "KPIECE",
    "start": {
        "state": {
            "elbow_joint": 2.39358713078474,
            "shoulder_lift_joint": -1.908514104345545,
            "shoulder_pan_joint": 0.7066247066606129,
            "wrist_1_joint": -0.4678290933515497,
            "wrist_2_joint": 0.7096259083745334,
            "wrist_3_joint": -3.1358149277392293
        }
    },
    "waypoints": [
        {
            "positions": [
                0.7066247066606129,
                -1.908514104345545,
                2.39358713078474,
                -0.4678290933515497,
                0.7096259083745334,
                -3.1358149277392293
            ]
        },
        {
            "positions": [
                0.6542873237917782,
                -1.8683179140703565,
                2.370194425264759,
                -0.38353390494433653,
                0.6150078362022853,
                -3.0345562100987804
            ]
        },
        {
            "positions": [
                0.6019499409229435,
                -1.828121723795168,
                2.346801719744778,
                -0.2992387165371234,
                0.5203897640300371,
                -2.933297492458331
            ]
        },
        {
            "positions": [
                0.5496125580541087,
                -1.7879255335199795,
                2.3234090142247967,
                -0.21494352812991024,
                0.425771691857789,
                -2.832038774817882
            ]
        },
        {
            "positions": [
                0.497275175185274,
                -1.747729343244791,
                2.3000163087048158,
                -0.13064833972269707,
                0.33115361968554086,
                -2.7307800571774328
            ]
        },
        {
            "positions": [
                0.44493779231643926,
                -1.7075331529696025,
                2.276623603184835,
                -0.0463531513154839,
                0.23653554751329275,
                -2.629521339536984
            ]
        },
        {
            "positions": [
                0.39260040944760455,
                -1.6673369626944141,
                2.253230897664854,
                0.03794203709172922,
                0.1419174753410446,
                -2.5282626218965345
            ]
        },
        {
            "positions": [
                0.3402630265787698,
                -1.6271407724192255,
                2.229838192144873,
                0.12223722549894239,
                0.04729940316879644,
                -2.4270039042560856
            ]
        },
        {
            "positions": [
                0.28792564370993506,
                -1.586944582144037,
                2.2064454866248915,
                0.20653241390615557,
                -0.04731866900345172,
                -2.3257451866156362
            ]
        },
        {
            "positions": [
                0.2355882608411003,
                -1.5467483918688485,
                2.1830527811049105,
                0.29082760231336885,
                -0.14193674117569988,
                -2.2244864689751873
            ]
        },
        {
            "positions": [
                0.18325087797226558,
                -1.50655220159366,
                2.1596600755849296,
                0.3751227907205819,
                -0.23655481334794792,
                -2.1232277513347384
            ]
        },
        {
            "positions": [
                0.13091349510343087,
                -1.4663560113184717,
                2.1362673700649486,
                0.4594179791277952,
                -0.3311728855201962,
                -2.021969033694289
            ]
        },
        {
            "positions": [
                0.07857611223459615,
                -1.4261598210432833,
                2.1128746645449676,
                0.5437131675350082,
                -0.42579095769244424,
                -1.92071031605384
            ]
        },
        {
            "positions": [
                0.026238729365761326,
                -1.3859636307680947,
                2.0894819590249867,
                0.6280083559422216,
                -0.5204090298646925,
                -1.8194515984133908
            ]
        },
        {
            "positions": [
                -0.026098653503073388,
                -1.345767440492906,
                2.0660892535050053,
                0.7123035443494345,
                -0.6150271020369406,
                -1.7181928807729419
            ]
        },
        {
            "positions": [
                -0.0784360363719081,
                -1.3055712502177177,
                2.0426965479850243,
                0.7965987327566479,
                -0.7096451742091886,
                -1.6169341631324925
            ]
        },
        {
            "positions": [
                -0.13077341924074282,
                -1.2653750599425293,
                2.0193038424650434,
                0.8808939211638609,
                -0.8042632463814369,
                -1.5156754454920436
            ]
        },
        {
            "positions": [
                -0.18311080210957753,
                -1.225178869667341,
                1.9959111369450624,
                0.9651891095710741,
                -0.8988813185536849,
                -1.4144167278515944
            ]
        },
        {
            "positions": [
                -0.23544818497841236,
                -1.1849826793921523,
                1.9725184314250812,
                1.0494842979782875,
                -0.9934993907259332,
                -1.313158010211145
            ]
        },
        {
            "positions": [
                -0.28778556784724707,
                -1.1447864891169637,
                1.9491257259051,
                1.1337794863855006,
                -1.0881174628981811,
                -1.2118992925706962
            ]
        },
        {
            "positions": [
                -0.3401229507160818,
                -1.1045902988417753,
                1.925733020385119,
                1.2180746747927136,
                -1.1827355350704294,
                -1.110640574930247
            ]
        },
        {
            "positions": [
                -0.3924603335849165,
                -1.064394108566587,
                1.902340314865138,
                1.3023698631999268,
                -1.2773536072426772,
                -1.0093818572897981
            ]
        },
        {
            "positions": [
                -0.4447977164537512,
                -1.0241979182913985,
                1.8789476093451571,
                1.3866650516071402,
                -1.371971679414926,
                -0.9081231396493488
            ]
        },
        {
            "positions": [
                -0.4971350993225859,
                -0.9840017280162099,
                1.855554903825176,
                1.470960240014353,
                -1.4665897515871738,
                -0.8068644220088999
            ]
        },
        {
            "positions": [
                -0.5494724821914206,
                -0.9438055377410215,
                1.832162198305195,
                1.555255428421566,
                -1.561207823759422,
                -0.7056057043684505
            ]
        },
        {
            "positions": [
                -0.6018098650602554,
                -0.9036093474658331,
                1.8087694927852138,
                1.6395506168287795,
                -1.6558258959316698,
                -0.6043469867280016
            ]
        },
        {
            "positions": [
                -0.6541472479290903,
                -0.8634131571906445,
                1.7853767872652329,
                1.7238458052359928,
                -1.7504439681039186,
                -0.5030882690875522
            ]
        },
        {
            "positions": [
                -0.706484630797925,
                -0.8232169669154561,
                1.761984081745252,
                1.8081409936432058,
                -1.8450620402761664,
                -0.4018295514471033
            ]
        },
        {
            "positions": [
                -0.7588220136667597,
                -0.7830207766402675,
                1.7385913762252707,
                1.8924361820504187,
                -1.9396801124484147,
                -0.3005708338066544
            ]
        },
        {
            "positions": [
                -0.8111593965355942,
                -0.7428245863650791,
                1.7151986707052898,
                1.9767313704576321,
                -2.0342981846206625,
                -0.19931211616620503
            ]
        },
        {
            "positions": [
                -0.8634967794044291,
                -0.7026283960898905,
                1.6918059651853086,
                2.0610265588648455,
                -2.1289162567929107,
                -0.09805339852575568
            ]
        },
        {
            "positions": [
                -0.9158341622732638,
                -0.6624322058147021,
                1.6684132596653276,
                2.1453217472720585,
                -2.223534328965159,
                0.003205319114693397
            ]
        }
    ]
}