{
    "goal": {
        "global_pose": {
            "orientation": {
                "w": 0.7047431468963623,
                "x": -0.7094548344612122,
                "y": 0.0024358443915843964,
                "z": -0.0022348060738295317
            },
            "position": {
                "x": 0.6094750761985779,
                "y": 0.3671506643295288,
                "z": 0.19426114857196808
            }
        },
        "name": "move_to_magneteinheit_A"
    },
    "id": "KPIECE_move_to_magneteinheit_A_67",
    "joint_names": [
        "shoulder_pan_joint",
        "shoulder_lift_joint",
        "elbow_joint",
        "wrist_1_joint",
        "wrist_2_joint",
        "wrist_3_joint"
    ],
    "metrics": {
        "cart_traj_len": 2.0665177461853466,
        "distance_elbow_joint": 3.884609426025799,
        "distance_shoulder_lift_joint": 1.058975423135214,
        "distance_shoulder_pan_joint": 1.2426600387918625,
        "distance_wrist_1_joint": 1.1735114427410105,
        "distance_wrist_2_joint": 1.4323110975137787,
        "distance_wrist_3_joint": 1.935003027340208,
        "smoothness": 6.125368425673074e-16,
        "time": 0.24117889999999997,
        "traj_len": 3.275220672801739,
        "weighted_distance": 4.1476377675109335
    },
    "planner": "KPIECE",
    "start": {
        "state": {
            "elbow_joint": -1.919643507792019,
            "shoulder_lift_joint": -0.07675430207160344,
            "shoulder_pan_joint": -1.1188671864651873,
            "wrist_1_joint": 0.42560062535961957,
            "wrist_2_joint": 1.5706038300724876,
            "wrist_3_joint": 1.1188968870953055
        }
    },
    "waypoints": [
        {
            "positions": [
                -1.1188671864651873,
                -0.07675430207160344,
                -1.919643507792019,
                0.42560062535961957,
                1.5706038300724876,
                1.1188968870953055
            ]
        },
        {
            "positions": [
                -1.0744864707940494,
                -0.11457485289786108,
                -1.7809074568625263,
                0.3836895024045835,
                1.5194498623041384,
                1.1880041380717414
            ]
        },
        {
            "positions": [
                -1.0301057551229114,
                -0.15239540372411872,
                -1.6421714059330335,
                0.34177837944954736,
                1.4682958945357891,
                1.2571113890481775
            ]
        },
        {
            "positions": [
                -0.9857250394517735,
                -0.19021595455037638,
                -1.5034353550035406,
                0.2998672564945113,
                1.4171419267674399,
                1.3262186400246136
            ]
        },
        {
            "positions": [
                -0.9413443237806356,
                -0.228036505376634,
                -1.3646993040740478,
                0.2579561335394752,
                1.3659879589990906,
                1.3953258910010495
            ]
        },
        {
            "positions": [
                -0.8969636081094976,
                -0.2658570562028917,
                -1.225963253144555,
                0.21604501058443912,
                1.3148339912307414,
                1.4644331419774854
            ]
        },
        {
            "positions": [
                -0.8525828924383596,
                -0.30367760702914925,
                -1.0872272022150622,
                0.17413388762940307,
                1.2636800234623922,
                1.5335403929539215
            ]
        },
        {
            "positions": [
                -0.8082021767672217,
                -0.34149815785540694,
                -0.9484911512855694,
                0.13222276467436694,
                1.212526055694043,
                1.6026476439303576
            ]
        },
        {
            "positions": [
                -0.7638214610960838,
                -0.37931870868166456,
                -0.8097551003560766,
                0.09031164171933087,
                1.1613720879256937,
                1.6717548949067935
            ]
        },
        {
            "positions": [
                -0.7194407454249458,
                -0.41713925950792224,
                -0.6710190494265837,
                0.04840051876429474,
                1.1102181201573444,
                1.7408621458832294
            ]
        },
        {
            "positions": [
                -0.6750600297538079,
                -0.45495981033417987,
                -0.5322829984970909,
                0.006489395809258669,
                1.0590641523889952,
                1.8099693968596655
            ]
        },
        {
            "positions": [
                -0.63067931408267,
                -0.4927803611604375,
                -0.3935469475675981,
                -0.035421727145777404,
                1.007910184620646,
                1.8790766478361016
            ]
        },
        {
            "positions": [
                -0.586298598411532,
                -0.5306009119866951,
                -0.2548108966381053,
                -0.07733285010081342,
                0.9567562168522967,
                1.9481838988125375
            ]
        },
        {
            "positions": [
                -0.541917882740394,
                -0.5684214628129528,
                -0.11607484570861248,
                -0.1192439730558496,
                0.9056022490839475,
                2.0172911497889734
            ]
        },
        {
            "positions": [
                -0.4975371670692561,
                -0.6062420136392104,
                0.02266120522088033,
                -0.16115509601088568,
                0.8544482813155982,
                2.0863984007654093
            ]
        },
        {
            "positions": [
                -0.4531564513981182,
                -0.6440625644654681,
                0.16139725615037315,
                -0.20306621896592175,
                0.803294313547249,
                2.155505651741845
            ]
        },
        {
            "positions": [
                -0.4087757357269802,
                -0.6818831152917257,
                0.30013330707986596,
                -0.24497734192095783,
                0.7521403457788998,
                2.2246129027182815
            ]
        },
        {
            "positions": [
                -0.36439502005584234,
                -0.7197036661179832,
                0.4388693580093588,
                -0.2868884648759939,
                0.7009863780105506,
                2.2937201536947174
            ]
        },
        {
            "positions": [
                -0.32001430438470424,
                -0.7575242169442411,
                0.5776054089388516,
                -0.3287995878310301,
                0.6498324102422012,
                2.3628274046711537
            ]
        },
        {
            "positions": [
                -0.27563358871356636,
                -0.7953447677704988,
                0.7163414598683444,
                -0.37071071078606616,
                0.598678442473852,
                2.4319346556475896
            ]
        },
        {
            "positions": [
                -0.23125287304242836,
                -0.8331653185967562,
                0.8550775107978372,
                -0.41262183374110223,
                0.5475244747055028,
                2.5010419066240255
            ]
        },
        {
            "positions": [
                -0.18687215737129048,
                -0.8709858694230139,
                0.99381356172733,
                -0.4545329566961383,
                0.49637050693715357,
                2.5701491576004614
            ]
        },
        {
            "positions": [
                -0.1424914417001526,
                -0.9088064202492716,
                1.1325496126568229,
                -0.4964440796511744,
                0.4452165391688043,
                2.6392564085768973
            ]
        },
        {
            "positions": [
                -0.0981107260290146,
                -0.9466269710755291,
                1.2712856635863157,
                -0.5383552026062104,
                0.3940625714004551,
                2.708363659553333
            ]
        },
        {
            "positions": [
                -0.05373001035787661,
                -0.9844475219017867,
                1.4100217145158085,
                -0.5802663255612464,
                0.34290860363210585,
                2.7774709105297695
            ]
        },
        {
            "positions": [
                -0.009349294686738618,
                -1.0222680727280447,
                1.5487577654453013,
                -0.6221774485162828,
                0.2917546358637566,
                2.846578161506206
            ]
        },
        {
            "positions": [
                0.035031420984399375,
                -1.0600886235543021,
                1.6874938163747941,
                -0.6640885714713187,
                0.24060066809540737,
                2.9156854124826417
            ]
        },
        {
            "positions": [
                0.07941213665553715,
                -1.0979091743805598,
                1.826229867304287,
                -0.7059996944263549,
                0.18944670032705813,
                2.9847926634590776
            ]
        },
        {
            "positions": [
                0.12379285232667504,
                -1.1357297252068175,
                1.96496591823378,
                -0.747910817381391,
                0.13829273255870878,
                3.0538999144355135
            ]
        }
    ]
}