{
    "goal": {
        "global_pose": {
            "orientation": {
                "w": 0.5084816217422485,
                "x": -0.49083608388900757,
                "y": 0.5182115435600281,
                "z": -0.4816462993621826
            },
            "position": {
                "x": 0.5540239810943604,
                "y": 0.030875300988554955,
                "z": 0.16403168439865112
            }
        },
        "name": "move_to_storage_A"
    },
    "id": "KPIECE_move_to_storage_A_125",
    "joint_names": [
        "shoulder_pan_joint",
        "shoulder_lift_joint",
        "elbow_joint",
        "wrist_1_joint",
        "wrist_2_joint",
        "wrist_3_joint"
    ],
    "metrics": {
        "cart_traj_len": 0.352237656530712,
        "distance_elbow_joint": 0.4486327041505973,
        "distance_shoulder_lift_joint": 0.23442797413848782,
        "distance_shoulder_pan_joint": 0.46042762742021837,
        "distance_wrist_1_joint": 0.23753645544286794,
        "distance_wrist_2_joint": 1.0978305922483464,
        "distance_wrist_3_joint": 0.10527172749569047,
        "smoothness": 1.7763568394002505e-15,
        "time": 0.036055013,
        "traj_len": 1.6075220312319856,
        "weighted_distance": 2.032249390104178
    },
    "planner": "KPIECE",
    "start": {
        "state": {
            "elbow_joint": 1.9715463870305268,
            "shoulder_lift_joint": -1.1394903361783484,
            "shoulder_pan_joint": 0.12281147578464417,
            "wrist_1_joint": -0.7804599489681411,
            "wrist_2_joint": 0.12958660307563738,
            "wrist_3_joint": -3.1924946282119055
        }
    },
    "waypoints": [
        {
            "positions": [
                0.12281147578464417,
                -1.1394903361783484,
                1.9715463870305268,
                -0.7804599489681411,
                0.12958660307563738,
                -3.1924946282119055
            ]
        },
        {
            "positions": [
                0.0570361004388987,
                -1.172980046769561,
                2.035636773337755,
                -0.8143937283171222,
                0.28641954482540116,
                -3.1774558099982353
            ]
        },
        {
            "positions": [
                -0.00873927490684677,
                -1.2064697573607734,
                2.099727159644983,
                -0.8483275076661033,
                0.4432524865751649,
                -3.1624169917845655
            ]
        },
        {
            "positions": [
                -0.07451465025259225,
                -1.239959467951986,
                2.1638175459522113,
                -0.8822612870150844,
                0.6000854283249287,
                -3.147378173570895
            ]
        },
        {
            "positions": [
                -0.1402900255983377,
                -1.2734491785431985,
                2.2279079322594395,
                -0.9161950663640657,
                0.7569183700746925,
                -3.1323393553572254
            ]
        },
        {
            "positions": [
                -0.2060654009440832,
                -1.3069388891344111,
                2.2919983185666677,
                -0.9501288457130468,
                0.9137513118244563,
                -3.117300537143555
            ]
        },
        {
            "positions": [
                -0.27184077628982867,
                -1.3404285997256236,
                2.356088704873896,
                -0.9840626250620279,
                1.07058425357422,
                -3.1022617189298853
            ]
        },
        {
            "positions": [
                -0.3376161516355742,
                -1.3739183103168362,
                2.420179091181124,
                -1.017996404411009,
                1.2274171953239839,
                -3.087222900716215
            ]
        }
    ]
}