{
    "goal": {
        "global_pose": {
            "orientation": {
                "w": -0.00223480608172531,
                "x": 0.0024358444001904467,
                "y": 0.7094548369677653,
                "z": -0.704743149386269
            },
            "position": {
                "x": 0.6205249238014221,
                "y": -0.6371506643295288,
                "z": 0.19426114857196808
            }
        },
        "name": "move_to_magneteinheit_B"
    },
    "id": "KPIECE_move_to_magneteinheit_B_20",
    "joint_names": [
        "shoulder_pan_joint",
        "shoulder_lift_joint",
        "elbow_joint",
        "wrist_1_joint",
        "wrist_2_joint",
        "wrist_3_joint"
    ],
    "metrics": {
        "cart_traj_len": 3.586131394630014,
        "distance_elbow_joint": 4.527458886355859,
        "distance_shoulder_lift_joint": 1.050262478251872,
        "distance_shoulder_pan_joint": 1.9529697004206197,
        "distance_wrist_1_joint": 2.983069798971738,
        "distance_wrist_2_joint": 3.160751076187578,
        "distance_wrist_3_joint": 1.830921988719691,
        "smoothness": 0.5822524850726659,
        "time": 0.19246659700000002,
        "traj_len": 3.9376939861938682,
        "weighted_distance": 5.031013693233806
    },
    "planner": "KPIECE",
    "start": {
        "state": {
            "elbow_joint": 2.39358713078474,
            "shoulder_lift_joint": -1.908514104345545,
            "shoulder_pan_joint": 0.7066247066606129,
            "wrist_1_joint": -0.4678290933515497,
            "wrist_2_joint": 0.7096259083745334,
            "wrist_3_joint": -3.1358149277392293
        }
    },
    "waypoints": [
        {
            "positions": [
                0.7066247066606129,
                -1.908514104345545,
                2.39358713078474,
                -0.4678290933515497,
                0.7096259083745334,
                -3.1358149277392293
            ]
        },
        {
            "positions": [
                0.7874683410026947,
                -1.936904013589741,
                2.382652483766842,
                -0.35522787397489475,
                0.7560189012355896,
                -3.1117398928932998
            ]
        },
        {
            "positions": [
                0.8683119753447763,
                -1.965293922833937,
                2.371717836748944,
                -0.24262665459823984,
                0.8024118940966456,
                -3.0876648580473702
            ]
        },
        {
            "positions": [
                0.9491556096868581,
                -1.993683832078133,
                2.360783189731046,
                -0.13002543522158488,
                0.8488048869577016,
                -3.0635898232014402
            ]
        },
        {
            "positions": [
                1.0299992440289398,
                -2.022073741322329,
                2.349848542713148,
                -0.01742421584492998,
                0.8951978798187578,
                -3.0395147883555107
            ]
        },
        {
            "positions": [
                1.0762591458378168,
                -2.008782784072081,
                2.204150450778875,
                -0.10051449874383003,
                0.8201078088253361,
                -3.0108408159592797
            ]
        },
        {
            "positions": [
                1.122519047646694,
                -1.9954918268218331,
                2.0584523588446015,
                -0.18360478164273009,
                0.7450177378319145,
                -2.982166843563049
            ]
        },
        {
            "positions": [
                1.168778949455571,
                -1.982200869571585,
                1.9127542669103283,
                -0.26669506454163017,
                0.6699276668384928,
                -2.953492871166818
            ]
        },
        {
            "positions": [
                1.215038851264448,
                -1.968909912321337,
                1.7670561749760552,
                -0.3497853474405302,
                0.5948375958450711,
                -2.9248188987705874
            ]
        },
        {
            "positions": [
                1.261298753073325,
                -1.955618955071089,
                1.621358083041782,
                -0.4328756303394303,
                0.5197475248516494,
                -2.8961449263743564
            ]
        },
        {
            "positions": [
                1.307558654882202,
                -1.942327997820841,
                1.4756599911075088,
                -0.5159659132383303,
                0.4446574538582278,
                -2.867470953978126
            ]
        },
        {
            "positions": [
                1.3538185566910792,
                -1.929037040570593,
                1.3299618991732356,
                -0.5990561961372305,
                0.36956738286480617,
                -2.8387969815818948
            ]
        },
        {
            "positions": [
                1.4000784584999562,
                -1.9157460833203448,
                1.1842638072389624,
                -0.6821464790361305,
                0.2944773118713845,
                -2.8101230091856637
            ]
        },
        {
            "positions": [
                1.4463383603088333,
                -1.9024551260700968,
                1.0385657153046892,
                -0.7652367619350304,
                0.2193872408779628,
                -2.781449036789433
            ]
        },
        {
            "positions": [
                1.4925982621177103,
                -1.8891641688198488,
                0.892867623370416,
                -0.8483270448339306,
                0.1442971698845411,
                -2.752775064393202
            ]
        },
        {
            "positions": [
                1.5388581639265873,
                -1.8758732115696009,
                0.7471695314361431,
                -0.9314173277328306,
                0.06920709889111953,
                -2.7241010919969715
            ]
        },
        {
            "positions": [
                1.5851180657354644,
                -1.8625822543193529,
                0.6014714395018699,
                -1.0145076106317306,
                -0.005882972102302153,
                -2.6954271196007404
            ]
        },
        {
            "positions": [
                1.6313779675443416,
                -1.8492912970691047,
                0.45577334756759647,
                -1.0975978935306308,
                -0.08097304309572384,
                -2.6667531472045094
            ]
        },
        {
            "positions": [
                1.6776378693532186,
                -1.8360003398188567,
                0.3100752556333233,
                -1.180688176429531,
                -0.15606311408914542,
                -2.638079174808279
            ]
        },
        {
            "positions": [
                1.7238977711620955,
                -1.8227093825686087,
                0.16437716369904987,
                -1.263778459328431,
                -0.2311531850825671,
                -2.6094052024120478
            ]
        },
        {
            "positions": [
                1.7701576729709725,
                -1.8094184253183607,
                0.0186790717647769,
                -1.3468687422273309,
                -0.3062432560759888,
                -2.580731230015817
            ]
        },
        {
            "positions": [
                1.8164175747798494,
                -1.7961274680681127,
                -0.12701902016949607,
                -1.4299590251262309,
                -0.38133332706941026,
                -2.552057257619586
            ]
        },
        {
            "positions": [
                1.8626774765887268,
                -1.7828365108178645,
                -0.2727171121037695,
                -1.513049308025131,
                -0.45642339806283216,
                -2.523383285223355
            ]
        },
        {
            "positions": [
                1.9089373783976038,
                -1.7695455535676166,
                -0.41841520403804244,
                -1.596139590924031,
                -0.5315134690562536,
                -2.4947093128271245
            ]
        },
        {
            "positions": [
                1.9551972802064808,
                -1.7562545963173686,
                -0.5641132959723159,
                -1.6792298738229312,
                -0.6066035400496755,
                -2.4660353404308935
            ]
        },
        {
            "positions": [
                2.0014571820153577,
                -1.7429636390671206,
                -0.7098113879065888,
                -1.7623201567218312,
                -0.681693611043097,
                -2.437361368034663
            ]
        },
        {
            "positions": [
                2.047717083824235,
                -1.7296726818168726,
                -0.8555094798408618,
                -1.8454104396207311,
                -0.7567836820365187,
                -2.408687395638432
            ]
        },
        {
            "positions": [
                2.093976985633112,
                -1.7163817245666244,
                -1.0012075717751352,
                -1.9285007225196313,
                -0.8318737530299404,
                -2.380013423242201
            ]
        },
        {
            "positions": [
                2.140236887441989,
                -1.7030907673163764,
                -1.1469056637094082,
                -2.011591005418531,
                -0.9069638240233621,
                -2.35133945084597
            ]
        },
        {
            "positions": [
                2.186496789250866,
                -1.6897998100661284,
                -1.2926037556436816,
                -2.0946812883174313,
                -0.9820538950167835,
                -2.322665478449739
            ]
        },
        {
            "positions": [
                2.232756691059743,
                -1.6765088528158802,
                -1.438301847577955,
                -2.1777715712163315,
                -1.0571439660102055,
                -2.2939915060535085
            ]
        },
        {
            "positions": [
                2.2790165928686204,
                -1.6632178955656323,
                -1.583999939512228,
                -2.260861854115231,
                -1.1322340370036268,
                -2.2653175336572775
            ]
        },
        {
            "positions": [
                2.3252764946774973,
                -1.6499269383153843,
                -1.7296980314465014,
                -2.343952137014132,
                -1.2073241079970485,
                -2.2366435612610465
            ]
        },
        {
            "positions": [
                2.3715363964863743,
                -1.6366359810651363,
                -1.8753961233807743,
                -2.4270424199130316,
                -1.2824141789904704,
                -2.207969588864816
            ]
        },
        {
            "positions": [
                2.429520133699351,
                -1.6843476538365565,
                -1.8805851033581225,
                -2.4552105539949673,
                -1.2294591436668016,
                -2.3189110835663835
            ]
        },
        {
            "positions": [
                2.4875038709123274,
                -1.732059326607977,
                -1.8857740833354708,
                -2.483378688076903,
                -1.1765041083431327,
                -2.4298525782679516
            ]
        },
        {
            "positions": [
                2.545487608125304,
                -1.779770999379397,
                -1.890963063312819,
                -2.511546822158839,
                -1.123549073019464,
                -2.5407940729695193
            ]
        },
        {
            "positions": [
                2.564505407951292,
                -1.8477926764966695,
                -1.8504782812697687,
                -2.5051231029669707,
                -1.0170987496922774,
                -2.6358361005929485
            ]
        },
        {
            "positions": [
                2.5835232077772803,
                -1.9158143536139418,
                -1.8099934992267186,
                -2.4986993837751026,
                -0.9106484263650908,
                -2.730878128216377
            ]
        },
        {
            "positions": [
                2.6025410076032682,
                -1.9838360307312142,
                -1.7695087171836685,
                -2.4922756645832345,
                -0.8041981030379042,
                -2.8259201558398064
            ]
        },
        {
            "positions": [
                2.621558807429256,
                -2.0518577078484865,
                -1.7290239351406183,
                -2.4858519453913663,
                -0.6977477797107177,
                -2.9209621834632356
            ]
        },
        {
            "positions": [
                2.6405766072552446,
                -2.119879384965759,
                -1.688539153097568,
                -2.479428226199498,
                -0.5912974563835309,
                -3.0160042110866643
            ]
        },
        {
            "positions": [
                2.6595944070812325,
                -2.1879010620830313,
                -1.648054371054518,
                -2.47300450700763,
                -0.48484713305634436,
                -3.1110462387100934
            ]
        }
    ]
}