{
    "goal": {
        "global_pose": {
            "orientation": {
                "w": 0.7047431468963623,
                "x": -0.7094548344612122,
                "y": 0.0024358443915843964,
                "z": -0.0022348060738295317
            },
            "position": {
                "x": 0.6094750761985779,
                "y": 0.3671506643295288,
                "z": 0.19426114857196808
            }
        },
        "name": "move_to_magneteinheit_A"
    },
    "id": "KPIECE_move_to_magneteinheit_A_27",
    "joint_names": [
        "shoulder_pan_joint",
        "shoulder_lift_joint",
        "elbow_joint",
        "wrist_1_joint",
        "wrist_2_joint",
        "wrist_3_joint"
    ],
    "metrics": {
        "cart_traj_len": 1.876745290673579,
        "distance_elbow_joint": 3.9146055347377664,
        "distance_shoulder_lift_joint": 0.7021748068979448,
        "distance_shoulder_pan_joint": 1.241406533884325,
        "distance_wrist_1_joint": 1.5022940580475221,
        "distance_wrist_2_joint": 1.699218192703309,
        "distance_wrist_3_joint": 1.1204610892327194,
        "smoothness": 3.2895497286407187e-16,
        "time": 0.079795894,
        "traj_len": 3.1906363339471304,
        "weighted_distance": 3.9525428074493845
    },
    "planner": "KPIECE",
    "start": {
        "state": {
            "elbow_joint": -1.919643507792019,
            "shoulder_lift_joint": -0.07675430207160344,
            "shoulder_pan_joint": -1.1188671864651873,
            "wrist_1_joint": 0.42560062535961957,
            "wrist_2_joint": 1.5706038300724876,
            "wrist_3_joint": 1.1188968870953055
        }
    },
    "waypoints": [
        {
            "positions": [
                -1.1188671864651873,
                -0.07675430207160344,
                -1.919643507792019,
                0.42560062535961957,
                1.5706038300724876,
                1.1188968870953055
            ]
        },
        {
            "positions": [
                -1.0711207813157901,
                -0.10376102541383209,
                -1.7690817564559511,
                0.48338116605375503,
                1.5052492841992835,
                1.075802229817124
            ]
        },
        {
            "positions": [
                -1.0233743761663932,
                -0.13076774875606073,
                -1.6185200051198831,
                0.5411617067478905,
                1.4398947383260792,
                1.0327075725389425
            ]
        },
        {
            "positions": [
                -0.9756279710169959,
                -0.15777447209828938,
                -1.4679582537838152,
                0.598942247442026,
                1.374540192452875,
                0.989612915260761
            ]
        },
        {
            "positions": [
                -0.9278815658675988,
                -0.18478119544051802,
                -1.3173965024477474,
                0.6567227881361615,
                1.309185646579671,
                0.9465182579825795
            ]
        },
        {
            "positions": [
                -0.8801351607182017,
                -0.21178791878274666,
                -1.1668347511116792,
                0.7145033288302969,
                1.2438311007064666,
                0.903423600704398
            ]
        },
        {
            "positions": [
                -0.8323887555688047,
                -0.2387946421249753,
                -1.0162729997756115,
                0.7722838695244324,
                1.1784765548332623,
                0.8603289434262165
            ]
        },
        {
            "positions": [
                -0.7846423504194076,
                -0.26580136546720395,
                -0.8657112484395435,
                0.8300644102185678,
                1.1131220089600582,
                0.817234286148035
            ]
        },
        {
            "positions": [
                -0.7368959452700103,
                -0.2928080888094326,
                -0.7151494971034755,
                0.8878449509127033,
                1.047767463086854,
                0.7741396288698534
            ]
        },
        {
            "positions": [
                -0.6891495401206134,
                -0.31981481215166124,
                -0.5645877457674078,
                0.9456254916068387,
                0.9824129172136499,
                0.7310449715916719
            ]
        },
        {
            "positions": [
                -0.6414031349712161,
                -0.3468215354938899,
                -0.4140259944313396,
                1.0034060323009744,
                0.9170583713404457,
                0.6879503143134904
            ]
        },
        {
            "positions": [
                -0.593656729821819,
                -0.37382825883611853,
                -0.26346424309527183,
                1.0611865729951098,
                0.8517038254672415,
                0.6448556570353089
            ]
        },
        {
            "positions": [
                -0.545910324672422,
                -0.4008349821783472,
                -0.11290249175920364,
                1.1189671136892452,
                0.7863492795940372,
                0.6017609997571274
            ]
        },
        {
            "positions": [
                -0.49816391952302486,
                -0.4278417055205758,
                0.03765925957686411,
                1.1767476543833806,
                0.7209947337208331,
                0.5586663424789459
            ]
        },
        {
            "positions": [
                -0.45041751437362776,
                -0.45484842886280447,
                0.18822101091293209,
                1.234528195077516,
                0.655640187847629,
                0.5155716852007644
            ]
        },
        {
            "positions": [
                -0.40267110922423066,
                -0.48185515220503305,
                0.33878276224899984,
                1.2923087357716514,
                0.5902856419744248,
                0.47247702792258295
            ]
        },
        {
            "positions": [
                -0.35492470407483345,
                -0.5088618755472618,
                0.48934451358506803,
                1.350089276465787,
                0.5249310961012206,
                0.4293823706444013
            ]
        },
        {
            "positions": [
                -0.30717829892543635,
                -0.5358685988894905,
                0.6399062649211358,
                1.4078698171599224,
                0.45957655022801625,
                0.3862877133662198
            ]
        },
        {
            "positions": [
                -0.25943189377603926,
                -0.5628753222317191,
                0.7904680162572035,
                1.465650357854058,
                0.39422200435481214,
                0.3431930560880383
            ]
        },
        {
            "positions": [
                -0.21168548862664227,
                -0.5898820455739477,
                0.9410297675932717,
                1.5234308985481935,
                0.32886745848160803,
                0.3000983988098568
            ]
        },
        {
            "positions": [
                -0.16393908347724495,
                -0.6168887689161764,
                1.09159151892934,
                1.581211439242329,
                0.2635129126084037,
                0.25700374153167527
            ]
        },
        {
            "positions": [
                -0.11619267832784796,
                -0.643895492258405,
                1.2421532702654077,
                1.6389919799364645,
                0.1981583667351996,
                0.21390908425349375
            ]
        },
        {
            "positions": [
                -0.06844627317845076,
                -0.6709022156006337,
                1.3927150216014754,
                1.6967725206306,
                0.1328038208619955,
                0.17081442697531224
            ]
        },
        {
            "positions": [
                -0.02069986802905377,
                -0.6979089389428623,
                1.5432767729375432,
                1.7545530613247353,
                0.06744927498879116,
                0.12771976969713073
            ]
        },
        {
            "positions": [
                0.02704653712034344,
                -0.724915662285091,
                1.6938385242736118,
                1.812333602018871,
                0.0020947291155868353,
                0.08462511241894921
            ]
        },
        {
            "positions": [
                0.07479294226974065,
                -0.7519223856273196,
                1.8444002756096796,
                1.8701141427130064,
                -0.06325981675761727,
                0.041530455140767586
            ]
        },
        {
            "positions": [
                0.12253934741913755,
                -0.7789291089695483,
                1.9949620269457473,
                1.9278946834071418,
                -0.1286143626308215,
                -0.001564202137413744
            ]
        }
    ]
}