{
    "goal": {
        "global_pose": {
            "orientation": {
                "w": 0.5084816217422485,
                "x": -0.49083608388900757,
                "y": 0.5182115435600281,
                "z": -0.4816462993621826
            },
            "position": {
                "x": 0.5540239810943604,
                "y": 0.030875300988554955,
                "z": 0.16403168439865112
            }
        },
        "name": "move_to_storage_A"
    },
    "id": "KPIECE_move_to_storage_A_140",
    "joint_names": [
        "shoulder_pan_joint",
        "shoulder_lift_joint",
        "elbow_joint",
        "wrist_1_joint",
        "wrist_2_joint",
        "wrist_3_joint"
    ],
    "metrics": {
        "cart_traj_len": 0.35370351304175496,
        "distance_elbow_joint": 0.4509025952278769,
        "distance_shoulder_lift_joint": 0.2352285408249828,
        "distance_shoulder_pan_joint": 0.4600944217685468,
        "distance_wrist_1_joint": 0.24695361471295596,
        "distance_wrist_2_joint": 1.1108052095380656,
        "distance_wrist_3_joint": 0.09670050259223828,
        "smoothness": 1.1102230263833737e-15,
        "time": 0.080265718,
        "traj_len": 1.6126639093948454,
        "weighted_distance": 2.037607595711246
    },
    "planner": "KPIECE",
    "start": {
        "state": {
            "elbow_joint": 1.9715463870305268,
            "shoulder_lift_joint": -1.1394903361783484,
            "shoulder_pan_joint": 0.12281147578464417,
            "wrist_1_joint": -0.7804599489681411,
            "wrist_2_joint": 0.12958660307563738,
            "wrist_3_joint": -3.1924946282119055
        }
    },
    "waypoints": [
        {
            "positions": [
                0.12281147578464417,
                -1.1394903361783484,
                1.9715463870305268,
                -0.7804599489681411,
                0.12958660307563738,
                -3.1924946282119055
            ]
        },
        {
            "positions": [
                0.057083701246280344,
                -1.1730944134390602,
                2.035961043491652,
                -0.8157390367842776,
                0.28827306158107535,
                -3.1786802706987287
            ]
        },
        {
            "positions": [
                -0.008644073292083485,
                -1.206698490699772,
                2.100375699952777,
                -0.8510181246004143,
                0.4469595200865133,
                -3.164865913185552
            ]
        },
        {
            "positions": [
                -0.0743718478304473,
                -1.2403025679604838,
                2.1647903564139024,
                -0.8862972124165508,
                0.6056459785919512,
                -3.151051555672375
            ]
        },
        {
            "positions": [
                -0.14009962236881113,
                -1.2739066452211958,
                2.2292050128750276,
                -0.9215763002326873,
                0.7643324370973892,
                -3.1372371981591978
            ]
        },
        {
            "positions": [
                -0.205827396907175,
                -1.3075107224819076,
                2.2936196693361532,
                -0.956855388048824,
                0.9230188956028271,
                -3.123422840646021
            ]
        },
        {
            "positions": [
                -0.27155517144553876,
                -1.3411147997426194,
                2.3580343257972785,
                -0.9921344758649604,
                1.081705354108265,
                -3.109608483132844
            ]
        },
        {
            "positions": [
                -0.3372829459839026,
                -1.3747188770033312,
                2.4224489822584037,
                -1.027413563681097,
                1.240391812613703,
                -3.0957941256196673
            ]
        }
    ]
}