{
    "goal": {
        "global_pose": {
            "orientation": {
                "w": 0.7031023502349854,
                "x": -0.7110244035720825,
                "y": 0.007748599164187908,
                "z": 0.005598929710686207
            },
            "position": {
                "x": 0.11585023208521307,
                "y": 0.44412534475326537,
                "z": 0.3711530566215515
            }
        },
        "name": "move_to_auspresseinheit_A"
    },
    "id": "KPIECE_move_to_auspresseinheit_A_53",
    "joint_names": [
        "shoulder_pan_joint",
        "shoulder_lift_joint",
        "elbow_joint",
        "wrist_1_joint",
        "wrist_2_joint",
        "wrist_3_joint"
    ],
    "metrics": {
        "cart_traj_len": 1.2800297591594063,
        "distance_elbow_joint": 0.8519373501695613,
        "distance_shoulder_lift_joint": 1.2043674433995508,
        "distance_shoulder_pan_joint": 1.0450586728594549,
        "distance_wrist_1_joint": 0.7304005771454058,
        "distance_wrist_2_joint": 0.5217117027588969,
        "distance_wrist_3_joint": 0.5467206277460903,
        "smoothness": 1.6030450130550988,
        "time": 0.082237385,
        "traj_len": 2.2136387180565307,
        "weighted_distance": 2.691793065871788
    },
    "planner": "KPIECE",
    "start": {
        "state": {
            "elbow_joint": 2.422574709923281,
            "shoulder_lift_joint": -1.3736533754116391,
            "shoulder_pan_joint": -0.33786336945926293,
            "wrist_1_joint": -1.0288603412921917,
            "wrist_2_joint": 1.2330224858903978,
            "wrist_3_joint": -3.094022268022082
        }
    },
    "waypoints": [
        {
            "positions": [
                -0.33786336945926293,
                -1.3736533754116391,
                2.422574709923281,
                -1.0288603412921917,
                1.2330224858903978,
                -3.094022268022082
            ]
        },
        {
            "positions": [
                -0.2627066755098262,
                -1.4803057510018853,
                2.3672866025355335,
                -0.9475289576981449,
                1.201196771540947,
                -3.1155766639665994
            ]
        },
        {
            "positions": [
                -0.1875499815603895,
                -1.5869581265921315,
                2.311998495147786,
                -0.8661975741040981,
                1.1693710571914961,
                -3.137131059911116
            ]
        },
        {
            "positions": [
                -0.11239328761095277,
                -1.693610502182378,
                2.2567103877600387,
                -0.7848661905100512,
                1.1375453428420454,
                -3.1586854558556334
            ]
        },
        {
            "positions": [
                -0.03723659366151605,
                -1.8002628777726242,
                2.201422280372291,
                -0.7035348069160045,
                1.1057196284925945,
                -3.1802398518001507
            ]
        },
        {
            "positions": [
                0.037920100287920644,
                -1.9069152533628704,
                2.1461341729845436,
                -0.6222034233219577,
                1.0738939141431438,
                -3.201794247744668
            ]
        },
        {
            "positions": [
                0.11307679423735739,
                -2.013567628953117,
                2.0908460655967964,
                -0.5408720397279108,
                1.0420681997936931,
                -3.223348643689185
            ]
        },
        {
            "positions": [
                0.18823348818679414,
                -2.120220004543363,
                2.035557958209049,
                -0.45954065613386397,
                1.0102424854442422,
                -3.244903039633702
            ]
        },
        {
            "positions": [
                0.2633901821362309,
                -2.226872380133609,
                1.9802698508213012,
                -0.37820927253981723,
                0.9784167710947915,
                -3.266457435578219
            ]
        },
        {
            "positions": [
                0.33883534494075507,
                -2.142740822406339,
                2.0721374160921675,
                -0.3845042569855136,
                0.9264262009951011,
                -3.2034875186318668
            ]
        },
        {
            "positions": [
                0.4142805077452792,
                -2.0586092646790686,
                2.1640049813630338,
                -0.39079924143121003,
                0.8744356308954107,
                -3.140517601685514
            ]
        },
        {
            "positions": [
                0.4897256705498033,
                -1.974477706951798,
                2.2558725466339,
                -0.3970942258769064,
                0.8224450607957202,
                -3.0775476847391614
            ]
        },
        {
            "positions": [
                0.5651708333543275,
                -1.8903461492245277,
                2.3477401119047663,
                -0.4033892103226028,
                0.7704544906960298,
                -3.014577767792809
            ]
        },
        {
            "positions": [
                0.6361830683772597,
                -1.8976572531087772,
                2.3688212268968245,
                -0.4306739956277257,
                0.7408826369137653,
                -3.07578066399508
            ]
        },
        {
            "positions": [
                0.7071953034001919,
                -1.904968356993027,
                2.3899023418888827,
                -0.45795878093284864,
                0.7113107831315009,
                -3.136983560197352
            ]
        }
    ]
}