{
    "goal": {
        "global_pose": {
            "orientation": {
                "w": 0.7031023502349854,
                "x": -0.7110244035720825,
                "y": 0.007748599164187908,
                "z": 0.005598929710686207
            },
            "position": {
                "x": 0.11585023208521307,
                "y": 0.44412534475326537,
                "z": 0.3711530566215515
            }
        },
        "name": "move_to_auspresseinheit_A"
    },
    "id": "KPIECE_move_to_auspresseinheit_A_47",
    "joint_names": [
        "shoulder_pan_joint",
        "shoulder_lift_joint",
        "elbow_joint",
        "wrist_1_joint",
        "wrist_2_joint",
        "wrist_3_joint"
    ],
    "metrics": {
        "cart_traj_len": 0.7460770052555066,
        "distance_elbow_joint": 0.39217264583292044,
        "distance_shoulder_lift_joint": 0.7299366598556254,
        "distance_shoulder_pan_joint": 1.0445001379823808,
        "distance_wrist_1_joint": 0.9665346168106037,
        "distance_wrist_2_joint": 0.5163760687696646,
        "distance_wrist_3_joint": 0.699254259039702,
        "smoothness": 1.0302653270654223,
        "time": 0.025052886,
        "traj_len": 2.0853715228445258,
        "weighted_distance": 2.688901930519328
    },
    "planner": "KPIECE",
    "start": {
        "state": {
            "elbow_joint": 2.422574709923281,
            "shoulder_lift_joint": -1.3736533754116391,
            "shoulder_pan_joint": -0.33786336945926293,
            "wrist_1_joint": -1.0288603412921917,
            "wrist_2_joint": 1.2330224858903978,
            "wrist_3_joint": -3.094022268022082
        }
    },
    "waypoints": [
        {
            "positions": [
                -0.33786336945926293,
                -1.3736533754116391,
                2.422574709923281,
                -1.0288603412921917,
                1.2330224858903978,
                -3.094022268022082
            ]
        },
        {
            "positions": [
                -0.3356442384512265,
                -1.5004879206371005,
                2.4591396528137315,
                -1.070306220740283,
                1.1833343680282447,
                -3.027712877239436
            ]
        },
        {
            "positions": [
                -0.33342510744319004,
                -1.6273224658625618,
                2.495704595704182,
                -1.1117521001883741,
                1.1336462501660916,
                -2.9614034864567897
            ]
        },
        {
            "positions": [
                -0.3312059764351536,
                -1.7541570110880231,
                2.5322695385946328,
                -1.1531979796364653,
                1.0839581323039384,
                -2.8950940956741436
            ]
        },
        {
            "positions": [
                -0.32898684542711715,
                -1.8809915563134845,
                2.568834481485083,
                -1.1946438590845565,
                1.0342700144417853,
                -2.8287847048914974
            ]
        },
        {
            "positions": [
                -0.3267677144190807,
                -2.007826101538946,
                2.6053994243755336,
                -1.2360897385326477,
                0.9845818965796321,
                -2.762475314108851
            ]
        },
        {
            "positions": [
                -0.17913850257019523,
                -1.9941455395777574,
                2.575492577035438,
                -1.1276175643083408,
                0.9463053995140751,
                -2.8150049291269186
            ]
        },
        {
            "positions": [
                -0.03150929072130976,
                -1.980464977616569,
                2.545585729695343,
                -1.0191453900840342,
                0.9080289024485182,
                -2.8675345441449855
            ]
        },
        {
            "positions": [
                0.11611992112757574,
                -1.9667844156553806,
                2.5156788823552474,
                -0.9106732158597273,
                0.8697524053829612,
                -2.920064159163053
            ]
        },
        {
            "positions": [
                0.2637491329764612,
                -1.9531038536941923,
                2.485772035015152,
                -0.8022010416354204,
                0.8314759083174041,
                -2.9725937741811204
            ]
        },
        {
            "positions": [
                0.41137834482534674,
                -1.9394232917330039,
                2.4558651876750566,
                -0.6937288674111136,
                0.7931994112518472,
                -3.0251233891991878
            ]
        },
        {
            "positions": [
                0.5590075566742322,
                -1.9257427297718155,
                2.425958340334961,
                -0.5852566931868068,
                0.7549229141862902,
                -3.0776530042172547
            ]
        },
        {
            "positions": [
                0.7066367685231177,
                -1.912062167810627,
                2.3960514929948658,
                -0.47678451896249996,
                0.7166464171207332,
                -3.130182619235322
            ]
        }
    ]
}