{
    "goal": {
        "global_pose": {
            "orientation": {
                "w": 0.7047431468963623,
                "x": -0.7094548344612122,
                "y": 0.0024358443915843964,
                "z": -0.0022348060738295317
            },
            "position": {
                "x": 0.6094750761985779,
                "y": 0.3671506643295288,
                "z": 0.19426114857196808
            }
        },
        "name": "move_to_magneteinheit_A"
    },
    "id": "KPIECE_move_to_magneteinheit_A_126",
    "joint_names": [
        "shoulder_pan_joint",
        "shoulder_lift_joint",
        "elbow_joint",
        "wrist_1_joint",
        "wrist_2_joint",
        "wrist_3_joint"
    ],
    "metrics": {
        "cart_traj_len": 1.8752938581608138,
        "distance_elbow_joint": 3.9165442936870924,
        "distance_shoulder_lift_joint": 0.70284128048003,
        "distance_shoulder_pan_joint": 1.2408951316261194,
        "distance_wrist_1_joint": 1.5174820548773207,
        "distance_wrist_2_joint": 1.6901061372213093,
        "distance_wrist_3_joint": 1.138746059832984,
        "smoothness": 6.908054384462331e-16,
        "time": 0.075023109,
        "traj_len": 3.194779328486532,
        "weighted_distance": 3.9612744501598787
    },
    "planner": "KPIECE",
    "start": {
        "state": {
            "elbow_joint": -1.919643507792019,
            "shoulder_lift_joint": -0.07675430207160344,
            "shoulder_pan_joint": -1.1188671864651873,
            "wrist_1_joint": 0.42560062535961957,
            "wrist_2_joint": 1.5706038300724876,
            "wrist_3_joint": 1.1188968870953055
        }
    },
    "waypoints": [
        {
            "positions": [
                -1.1188671864651873,
                -0.07675430207160344,
                -1.919643507792019,
                0.42560062535961957,
                1.5706038300724876,
                1.1188968870953055
            ]
        },
        {
            "positions": [
                -1.0711404506334135,
                -0.10378665901314306,
                -1.769007188804054,
                0.4839653197779781,
                1.505599747871668,
                1.0750989617171138
            ]
        },
        {
            "positions": [
                -1.0234137148016398,
                -0.13081901595468268,
                -1.618370869816089,
                0.5423300141963365,
                1.4405956656708485,
                1.0313010363389221
            ]
        },
        {
            "positions": [
                -0.9756869789698659,
                -0.1578513728962223,
                -1.4677345508281237,
                0.600694708614695,
                1.3755915834700287,
                0.9875031109607305
            ]
        },
        {
            "positions": [
                -0.927960243138092,
                -0.1848837298377619,
                -1.3170982318401587,
                0.6590594030330535,
                1.3105875012692092,
                0.9437051855825388
            ]
        },
        {
            "positions": [
                -0.8802335073063182,
                -0.21191608677930154,
                -1.1664619128521936,
                0.717424097451412,
                1.2455834190683897,
                0.8999072602043471
            ]
        },
        {
            "positions": [
                -0.8325067714745444,
                -0.23894844372084117,
                -1.0158255938642284,
                0.7757887918697706,
                1.18057933686757,
                0.8561093348261555
            ]
        },
        {
            "positions": [
                -0.7847800356427705,
                -0.2659808006623808,
                -0.8651892748762635,
                0.834153486288129,
                1.1155752546667506,
                0.8123114094479638
            ]
        },
        {
            "positions": [
                -0.7370532998109967,
                -0.29301315760392044,
                -0.7145529558882984,
                0.8925181807064875,
                1.050571172465931,
                0.768513484069772
            ]
        },
        {
            "positions": [
                -0.689326563979223,
                -0.32004551454546004,
                -0.5639166369003332,
                0.9508828751248459,
                0.9855670902651114,
                0.7247155586915803
            ]
        },
        {
            "positions": [
                -0.6415998281474491,
                -0.34707787148699965,
                -0.4132803179123681,
                1.0092475695432044,
                0.9205630080642917,
                0.6809176333133886
            ]
        },
        {
            "positions": [
                -0.5938730923156753,
                -0.37411022842853925,
                -0.26264399892440315,
                1.0676122639615628,
                0.8555589258634722,
                0.6371197079351969
            ]
        },
        {
            "positions": [
                -0.5461463564839014,
                -0.4011425853700789,
                -0.11200767993643779,
                1.1259769583799215,
                0.7905548436626525,
                0.5933217825570053
            ]
        },
        {
            "positions": [
                -0.49841962065212764,
                -0.4281749423116185,
                0.038628639051527136,
                1.18434165279828,
                0.725550761461833,
                0.5495238571788136
            ]
        },
        {
            "positions": [
                -0.45069288482035386,
                -0.4552072992531581,
                0.18926495803949206,
                1.2427063472166384,
                0.6605466792610134,
                0.5057259318006219
            ]
        },
        {
            "positions": [
                -0.4029661489885801,
                -0.4822396561946977,
                0.339901277027457,
                1.3010710416349969,
                0.5955425970601939,
                0.46192800642243026
            ]
        },
        {
            "positions": [
                -0.35523941315680607,
                -0.5092720131362374,
                0.49053759601542235,
                1.3594357360533553,
                0.5305385148593742,
                0.41813008104423843
            ]
        },
        {
            "positions": [
                -0.3075126773250323,
                -0.536304370077777,
                0.6411739150033877,
                1.4178004304717138,
                0.46553443265855465,
                0.37433215566604683
            ]
        },
        {
            "positions": [
                -0.2597859414932585,
                -0.5633367270193166,
                0.7918102339913526,
                1.4761651248900725,
                0.4005303504577351,
                0.3305342302878551
            ]
        },
        {
            "positions": [
                -0.21205920566148473,
                -0.5903690839608562,
                0.9424465529793176,
                1.534529819308431,
                0.33552626825691556,
                0.2867363049096635
            ]
        },
        {
            "positions": [
                -0.16433246982971084,
                -0.6174014409023958,
                1.093082871967283,
                1.5928945137267894,
                0.2705221860560958,
                0.24293837953147168
            ]
        },
        {
            "positions": [
                -0.11660573399793694,
                -0.6444337978439354,
                1.2437191909552479,
                1.6512592081451478,
                0.20551810385527625,
                0.19914045415328008
            ]
        },
        {
            "positions": [
                -0.06887899816616327,
                -0.671466154785475,
                1.3943555099432128,
                1.7096239025635063,
                0.1405140216544567,
                0.15534252877508836
            ]
        },
        {
            "positions": [
                -0.021152262334389382,
                -0.6984985117270146,
                1.5449918289311781,
                1.7679885969818647,
                0.07550993945363715,
                0.11154460339689676
            ]
        },
        {
            "positions": [
                0.02657447349738451,
                -0.7255308686685544,
                1.6956281479191435,
                1.8263532914002234,
                0.010505857252817385,
                0.06774667801870504
            ]
        },
        {
            "positions": [
                0.07430120932915818,
                -0.752563225610094,
                1.8462644669071084,
                1.8847179858185819,
                -0.05449822494800216,
                0.023948752640513327
            ]
        },
        {
            "positions": [
                0.1220279451609321,
                -0.7795955825516335,
                1.9969007858950734,
                1.9430826802369403,
                -0.11950230714882165,
                -0.019849172737678486
            ]
        }
    ]
}