{
    "goal": {
        "global_pose": {
            "orientation": {
                "w": -0.00223480608172531,
                "x": 0.0024358444001904467,
                "y": 0.7094548369677653,
                "z": -0.704743149386269
            },
            "position": {
                "x": 0.6205249238014221,
                "y": -0.6371506643295288,
                "z": 0.19426114857196808
            }
        },
        "name": "move_to_magneteinheit_B"
    },
    "id": "KPIECE_move_to_magneteinheit_B_140",
    "joint_names": [
        "shoulder_pan_joint",
        "shoulder_lift_joint",
        "elbow_joint",
        "wrist_1_joint",
        "wrist_2_joint",
        "wrist_3_joint"
    ],
    "metrics": {
        "cart_traj_len": 4.6121930717359145,
        "distance_elbow_joint": 4.28091037709423,
        "distance_shoulder_lift_joint": 1.3736361355600035,
        "distance_shoulder_pan_joint": 3.4400362904693167,
        "distance_wrist_1_joint": 2.5575332871415095,
        "distance_wrist_2_joint": 2.1914668986102495,
        "distance_wrist_3_joint": 3.151786402250554,
        "smoothness": 0.40237228236844264,
        "time": 2.853553997,
        "traj_len": 4.122544043564103,
        "weighted_distance": 5.296030813862276
    },
    "planner": "KPIECE",
    "start": {
        "state": {
            "elbow_joint": 2.39358713078474,
            "shoulder_lift_joint": -1.908514104345545,
            "shoulder_pan_joint": 0.7066247066606129,
            "wrist_1_joint": -0.4678290933515497,
            "wrist_2_joint": 0.7096259083745334,
            "wrist_3_joint": -3.1358149277392293
        }
    },
    "waypoints": [
        {
            "positions": [
                0.7066247066606129,
                -1.908514104345545,
                2.39358713078474,
                -0.4678290933515497,
                0.7096259083745334,
                -3.1358149277392293
            ]
        },
        {
            "positions": [
                0.5960079055620677,
                -1.9099533139789382,
                2.390046324569484,
                -0.3801692333549321,
                0.7369872531188861,
                -2.9987241538096487
            ]
        },
        {
            "positions": [
                0.4853911044635226,
                -1.9113925236123315,
                2.3865055183542285,
                -0.2925093733583144,
                0.7643485978632387,
                -2.8616333798800686
            ]
        },
        {
            "positions": [
                0.37477430336497747,
                -1.9128317332457248,
                2.3829647121389725,
                -0.20484951336169677,
                0.7917099426075914,
                -2.7245426059504885
            ]
        },
        {
            "positions": [
                0.2641575022664323,
                -1.914270942879118,
                2.3794239059237166,
                -0.11718965336507914,
                0.8190712873519441,
                -2.587451832020908
            ]
        },
        {
            "positions": [
                0.22461926595504755,
                -1.8567146088430055,
                2.3015926696010935,
                -0.1966504746519281,
                0.8222119596997979,
                -2.4510160862136363
            ]
        },
        {
            "positions": [
                0.1850810296436628,
                -1.7991582748068933,
                2.2237614332784705,
                -0.27611129593877703,
                0.8253526320476516,
                -2.3145803404063647
            ]
        },
        {
            "positions": [
                0.14554279333227807,
                -1.7416019407707808,
                2.1459301969558475,
                -0.355572117225626,
                0.8284933043955054,
                -2.178144594599093
            ]
        },
        {
            "positions": [
                0.10600455702089331,
                -1.6840456067346685,
                2.068098960633225,
                -0.43503293851247493,
                0.831633976743359,
                -2.0417088487918216
            ]
        },
        {
            "positions": [
                0.06646632070950856,
                -1.626489272698556,
                1.990267724310602,
                -0.5144937597993239,
                0.8347746490912128,
                -1.9052731029845498
            ]
        },
        {
            "positions": [
                0.02692808439812383,
                -1.5689329386624438,
                1.912436487987979,
                -0.5939545810861728,
                0.8379153214390666,
                -1.7688373571772784
            ]
        },
        {
            "positions": [
                -0.012610151913260925,
                -1.5113766046263313,
                1.834605251665356,
                -0.6734154023730218,
                0.8410559937869203,
                -1.6324016113700066
            ]
        },
        {
            "positions": [
                0.09758154737459734,
                -1.5306983243733285,
                1.684782348186513,
                -0.6671081485890831,
                0.7903982725210371,
                -1.5735854633850164
            ]
        },
        {
            "positions": [
                0.2077732466624556,
                -1.5500200441203258,
                1.53495944470767,
                -0.6608008948051444,
                0.7397405512551539,
                -1.5147693154000264
            ]
        },
        {
            "positions": [
                0.3179649459503139,
                -1.569341763867323,
                1.3851365412288268,
                -0.6544936410212057,
                0.6890828299892708,
                -1.455953167415036
            ]
        },
        {
            "positions": [
                0.42815664523817215,
                -1.5886634836143205,
                1.2353136377499838,
                -0.648186387237267,
                0.6384251087233876,
                -1.3971370194300459
            ]
        },
        {
            "positions": [
                0.5383483445260304,
                -1.6079852033613178,
                1.0854907342711406,
                -0.6418791334533283,
                0.5877673874575045,
                -1.3383208714450556
            ]
        },
        {
            "positions": [
                0.6485400438138886,
                -1.627306923108315,
                0.9356678307922977,
                -0.6355718796693897,
                0.5371096661916213,
                -1.2795047234600656
            ]
        },
        {
            "positions": [
                0.7587317431017471,
                -1.6466286428553123,
                0.7858449273134545,
                -0.629264625885451,
                0.48645194492573807,
                -1.2206885754750754
            ]
        },
        {
            "positions": [
                0.8689234423896053,
                -1.6659503626023096,
                0.6360220238346117,
                -0.6229573721015123,
                0.43579422365985493,
                -1.1618724274900853
            ]
        },
        {
            "positions": [
                0.9791151416774635,
                -1.6852720823493068,
                0.4861991203557685,
                -0.6166501183175735,
                0.38513650239397174,
                -1.103056279505095
            ]
        },
        {
            "positions": [
                1.089306840965322,
                -1.704593802096304,
                0.3363762168769253,
                -0.6103428645336348,
                0.3344787811280885,
                -1.0442401315201049
            ]
        },
        {
            "positions": [
                1.1994985402531801,
                -1.7239155218433013,
                0.18655331339808257,
                -0.6040356107496961,
                0.2838210598622054,
                -0.9854239835351147
            ]
        },
        {
            "positions": [
                1.3096902395410384,
                -1.7432372415902986,
                0.03673040991923937,
                -0.5977283569657574,
                0.2331633385963222,
                -0.9266078355501245
            ]
        },
        {
            "positions": [
                1.4198819388288966,
                -1.7625589613372958,
                -0.1130924935596036,
                -0.5914211031818187,
                0.18250561733043913,
                -0.8677916875651344
            ]
        },
        {
            "positions": [
                1.530073638116755,
                -1.7818806810842933,
                -0.262915397038447,
                -0.58511384939788,
                0.13184789606455583,
                -0.8089755395801441
            ]
        },
        {
            "positions": [
                1.6402653374046132,
                -1.8012024008312906,
                -0.41273830051728977,
                -0.5788065956139413,
                0.08119017479867263,
                -0.750159391595154
            ]
        },
        {
            "positions": [
                1.7504570366924714,
                -1.8205241205782878,
                -0.5625612039961325,
                -0.5724993418300026,
                0.03053245353278955,
                -0.6913432436101639
            ]
        },
        {
            "positions": [
                1.8606487359803299,
                -1.839845840325285,
                -0.7123841074749762,
                -0.5661920880460639,
                -0.020125267733093755,
                -0.6325270956251735
            ]
        },
        {
            "positions": [
                1.9708404352681879,
                -1.8591675600722823,
                -0.8622070109538189,
                -0.5598848342621252,
                -0.07078298899897684,
                -0.5737109476401834
            ]
        },
        {
            "positions": [
                2.081032134556046,
                -1.8784892798192796,
                -1.0120299144326617,
                -0.5535775804781866,
                -0.12144071026485992,
                -0.5148947996551934
            ]
        },
        {
            "positions": [
                2.1912238338439045,
                -1.897810999566277,
                -1.1618528179115053,
                -0.5472703266942478,
                -0.17209843153074333,
                -0.4560786516702031
            ]
        },
        {
            "positions": [
                2.3014155331317627,
                -1.9171327193132743,
                -1.311675721390348,
                -0.5409630729103092,
                -0.2227561527966263,
                -0.3972625036852129
            ]
        },
        {
            "positions": [
                2.411607232419621,
                -1.9364544390602716,
                -1.4614986248691908,
                -0.5346558191263705,
                -0.2734138740625095,
                -0.33844635570022286
            ]
        },
        {
            "positions": [
                2.521798931707479,
                -1.9557761588072688,
                -1.6113215283480344,
                -0.5283485653424318,
                -0.3240715953283927,
                -0.2796302077152324
            ]
        },
        {
            "positions": [
                2.6319906309953374,
                -1.975097878554266,
                -1.7611444318268774,
                -0.5220413115584931,
                -0.374729316594276,
                -0.22081405973024237
            ]
        },
        {
            "positions": [
                2.640806362003343,
                -2.0337617116417834,
                -1.7641119047761236,
                -0.34432225726355187,
                -0.2795315304846082,
                -0.20271049819243347
            ]
        },
        {
            "positions": [
                2.6496220930113483,
                -2.0924255447293008,
                -1.7670793777253695,
                -0.16660320296861064,
                -0.1843337443749404,
                -0.18460693665462455
            ]
        },
        {
            "positions": [
                2.6584378240193542,
                -2.1510893778168185,
                -1.7700468506746156,
                0.011115851326330639,
                -0.0891359582652726,
                -0.16650337511681562
            ]
        },
        {
            "positions": [
                2.6672535550273597,
                -2.209753210904336,
                -1.7730143236238618,
                0.1888349056212718,
                0.0060618278443951845,
                -0.14839981357900672
            ]
        },
        {
            "positions": [
                2.676069286035365,
                -2.268417043991853,
                -1.7759817965731077,
                0.3665539599162132,
                0.10125961395406302,
                -0.13029625204119782
            ]
        },
        {
            "positions": [
                2.6848850170433707,
                -2.3270808770793705,
                -1.7789492695223539,
                0.5442730142111545,
                0.19645740006373083,
                -0.1121926905033889
            ]
        },
        {
            "positions": [
                2.6771162627304337,
                -2.3768411058529053,
                -1.742824610593308,
                0.6885995747321276,
                0.2874789954499507,
                -0.06947130216515154
            ]
        },
        {
            "positions": [
                2.6693475084174962,
                -2.42660133462644,
                -1.706699951664262,
                0.8329261352531008,
                0.3785005908361706,
                -0.026749913826914176
            ]
        },
        {
            "positions": [
                2.6615787541045592,
                -2.476361563399975,
                -1.6705752927352162,
                0.9772526957740739,
                0.4695221862223905,
                0.015971474511323202
            ]
        }
    ]
}