{
    "goal": {
        "global_pose": {
            "orientation": {
                "w": 0.7047431468963623,
                "x": -0.7094548344612122,
                "y": 0.0024358443915843964,
                "z": -0.0022348060738295317
            },
            "position": {
                "x": 0.6094750761985779,
                "y": 0.3671506643295288,
                "z": 0.19426114857196808
            }
        },
        "name": "move_to_magneteinheit_A"
    },
    "id": "KPIECE_move_to_magneteinheit_A_58",
    "joint_names": [
        "shoulder_pan_joint",
        "shoulder_lift_joint",
        "elbow_joint",
        "wrist_1_joint",
        "wrist_2_joint",
        "wrist_3_joint"
    ],
    "metrics": {
        "cart_traj_len": 1.9467660358840986,
        "distance_elbow_joint": 3.8726243889810092,
        "distance_shoulder_lift_joint": 1.4901725685129033,
        "distance_shoulder_pan_joint": 1.2420590404383884,
        "distance_wrist_1_joint": 1.1259659088028635,
        "distance_wrist_2_joint": 1.8981881369604676,
        "distance_wrist_3_joint": 4.381085636597636,
        "smoothness": 0.21910155959258945,
        "time": 0.203033005,
        "traj_len": 3.7430062356738416,
        "weighted_distance": 5.079017719919066
    },
    "planner": "KPIECE",
    "start": {
        "state": {
            "elbow_joint": -1.919643507792019,
            "shoulder_lift_joint": -0.07675430207160344,
            "shoulder_pan_joint": -1.1188671864651873,
            "wrist_1_joint": 0.42560062535961957,
            "wrist_2_joint": 1.5706038300724876,
            "wrist_3_joint": 1.1188968870953055
        }
    },
    "waypoints": [
        {
            "positions": [
                -1.1188671864651873,
                -0.07675430207160344,
                -1.919643507792019,
                0.42560062535961957,
                1.5706038300724876,
                1.1188968870953055
            ]
        },
        {
            "positions": [
                -1.087085651481316,
                -0.11527802070909175,
                -1.8069784543998435,
                0.39178517235002713,
                1.5199446857722407,
                0.9931592167678766
            ]
        },
        {
            "positions": [
                -1.0553041164974446,
                -0.15380173934658006,
                -1.6943134010076677,
                0.3579697193404347,
                1.4692855414719939,
                0.8674215464404476
            ]
        },
        {
            "positions": [
                -1.0235225815135733,
                -0.19232545798406836,
                -1.5816483476154921,
                0.32415426633084227,
                1.418626397171747,
                0.7416838761130184
            ]
        },
        {
            "positions": [
                -0.9917410465297021,
                -0.23084917662155668,
                -1.4689832942233163,
                0.2903388133212499,
                1.3679672528715001,
                0.6159462057855895
            ]
        },
        {
            "positions": [
                -0.9599595115458308,
                -0.26937289525904495,
                -1.3563182408311407,
                0.25652336031165746,
                1.3173081085712532,
                0.49020853545816034
            ]
        },
        {
            "positions": [
                -0.9281779765619594,
                -0.30789661389653333,
                -1.243653187438965,
                0.222707907302065,
                1.2666489642710064,
                0.36447086513073135
            ]
        },
        {
            "positions": [
                -0.8963964415780881,
                -0.3464203325340216,
                -1.1309881340467893,
                0.18889245429247256,
                1.2159898199707597,
                0.23873319480330235
            ]
        },
        {
            "positions": [
                -0.8646149065942168,
                -0.3849440511715099,
                -1.0183230806546137,
                0.15507700128288016,
                1.1653306756705128,
                0.11299552447587335
            ]
        },
        {
            "positions": [
                -0.8328333716103455,
                -0.4234677698089982,
                -0.9056580272624382,
                0.12126154827328772,
                1.114671531370266,
                -0.01274214585155553
            ]
        },
        {
            "positions": [
                -0.8010518366264742,
                -0.4619914884464865,
                -0.7929929738702624,
                0.08744609526369529,
                1.064012387070019,
                -0.13847981617898486
            ]
        },
        {
            "positions": [
                -0.7692703016426029,
                -0.5005152070839749,
                -0.6803279204780868,
                0.05363064225410291,
                1.0133532427697722,
                -0.26421748650641375
            ]
        },
        {
            "positions": [
                -0.7374887666587315,
                -0.5390389257214632,
                -0.567662867085911,
                0.019815189244510423,
                0.9626940984695253,
                -0.38995515683384285
            ]
        },
        {
            "positions": [
                -0.7057072316748603,
                -0.5775626443589514,
                -0.4549978136937354,
                -0.014000263765081955,
                0.9120349541692785,
                -0.5156928271612717
            ]
        },
        {
            "positions": [
                -0.6739256966909889,
                -0.6160863629964397,
                -0.34233276030155957,
                -0.047815716774674444,
                0.8613758098690316,
                -0.6414304974887008
            ]
        },
        {
            "positions": [
                -0.6421441617071176,
                -0.654610081633928,
                -0.22966770690938398,
                -0.08163116978426682,
                0.8107166655687847,
                -0.7671681678161297
            ]
        },
        {
            "positions": [
                -0.6103626267232463,
                -0.6931338002714165,
                -0.11700265351720818,
                -0.11544662279385925,
                0.7600575212685379,
                -0.8929058381435588
            ]
        },
        {
            "positions": [
                -0.578581091739375,
                -0.7316575189089047,
                -0.0043376001250328144,
                -0.1492620758034517,
                0.709398376968291,
                -1.018643508470988
            ]
        },
        {
            "positions": [
                -0.5467995567555037,
                -0.770181237546393,
                0.10832745326714277,
                -0.18307752881304412,
                0.6587392326680442,
                -1.1443811787984166
            ]
        },
        {
            "positions": [
                -0.5150180217716323,
                -0.8087049561838813,
                0.22099250665931902,
                -0.21689298182263655,
                0.6080800883677973,
                -1.2701188491258462
            ]
        },
        {
            "positions": [
                -0.483236486787761,
                -0.8472286748213695,
                0.3336575600514944,
                -0.250708434832229,
                0.5574209440675504,
                -1.3958565194532753
            ]
        },
        {
            "positions": [
                -0.4514549518038897,
                -0.885752393458858,
                0.4463226134436702,
                -0.2845238878418214,
                0.5067617997673035,
                -1.521594189780704
            ]
        },
        {
            "positions": [
                -0.41967341682001846,
                -0.9242761120963463,
                0.5589876668358456,
                -0.31833934085141374,
                0.45610265546705686,
                -1.647331860108133
            ]
        },
        {
            "positions": [
                -0.387891881836147,
                -0.9627998307338346,
                0.6716527202280214,
                -0.3521547938610063,
                0.40544351116680977,
                -1.7730695304355621
            ]
        },
        {
            "positions": [
                -0.3561103468522757,
                -1.0013235493713228,
                0.7843177736201972,
                -0.3859702468705987,
                0.3547843668665629,
                -1.8988072007629913
            ]
        },
        {
            "positions": [
                -0.32432881186840445,
                -1.039847268008811,
                0.8969828270123725,
                -0.41978569988019104,
                0.30412522256631624,
                -2.02454487109042
            ]
        },
        {
            "positions": [
                -0.2925472768845332,
                -1.0783709866462996,
                1.0096478804045483,
                -0.4536011528897835,
                0.2534660782660694,
                -2.150282541417849
            ]
        },
        {
            "positions": [
                -0.2607657419006617,
                -1.1168947052837879,
                1.1223129337967241,
                -0.487416605899376,
                0.20280693396582228,
                -2.2760202117452786
            ]
        },
        {
            "positions": [
                -0.22898420691679044,
                -1.1554184239212761,
                1.2349779871889,
                -0.5212320589089685,
                0.15214778966557563,
                -2.4017578820727072
            ]
        },
        {
            "positions": [
                -0.19720267193291918,
                -1.1939421425587644,
                1.3476430405810753,
                -0.5550475119185607,
                0.10148864536532876,
                -2.5274955524001363
            ]
        },
        {
            "positions": [
                -0.16542113694904792,
                -1.2324658611962527,
                1.4603080939732511,
                -0.5888629649281532,
                0.050829501065081883,
                -2.653233222727565
            ]
        },
        {
            "positions": [
                -0.13363960196517644,
                -1.2709895798337412,
                1.572973147365427,
                -0.6226784179377456,
                0.00017035676483478923,
                -2.7789708930549946
            ]
        },
        {
            "positions": [
                -0.10185806698130517,
                -1.3095132984712294,
                1.6856382007576027,
                -0.656493870947338,
                -0.05048878753541186,
                -2.9047085633824232
            ]
        },
        {
            "positions": [
                -0.07007653199743381,
                -1.3480370171087177,
                1.7983032541497783,
                -0.6903093239569306,
                -0.1011479318356587,
                -3.030446233709852
            ]
        },
        {
            "positions": [
                -0.0056537366738887845,
                -1.275073732616788,
                1.849862463162849,
                -0.6936613104523683,
                -0.025669140151551556,
                -3.107693738974011
            ]
        },
        {
            "positions": [
                0.058769058649656244,
                -1.2021104481248583,
                1.9014216721759196,
                -0.6970132969478062,
                0.04980965153255559,
                -3.18494124423817
            ]
        },
        {
            "positions": [
                0.1231918539732013,
                -1.1291471636329287,
                1.9529808811889904,
                -0.700365283443244,
                0.12528844321666274,
                -3.262188749502329
            ]
        }
    ]
}