{
    "goal": {
        "global_pose": {
            "orientation": {
                "w": 0.5084816217422485,
                "x": -0.49083608388900757,
                "y": 0.5182115435600281,
                "z": -0.4816462993621826
            },
            "position": {
                "x": 0.5540239810943604,
                "y": 0.030875300988554955,
                "z": 0.16403168439865112
            }
        },
        "name": "move_to_storage_A"
    },
    "id": "KPIECE_move_to_storage_A_41",
    "joint_names": [
        "shoulder_pan_joint",
        "shoulder_lift_joint",
        "elbow_joint",
        "wrist_1_joint",
        "wrist_2_joint",
        "wrist_3_joint"
    ],
    "metrics": {
        "cart_traj_len": 0.3536466234684703,
        "distance_elbow_joint": 0.45178920854257676,
        "distance_shoulder_lift_joint": 0.2314607920321199,
        "distance_shoulder_pan_joint": 0.45951631003515875,
        "distance_wrist_1_joint": 0.25727669437887546,
        "distance_wrist_2_joint": 1.111013041314517,
        "distance_wrist_3_joint": 0.10728087673214981,
        "smoothness": 4.440892098500626e-16,
        "time": 0.141808572,
        "traj_len": 1.61812759788448,
        "weighted_distance": 2.049680075571085
    },
    "planner": "KPIECE",
    "start": {
        "state": {
            "elbow_joint": 1.9715463870305268,
            "shoulder_lift_joint": -1.1394903361783484,
            "shoulder_pan_joint": 0.12281147578464417,
            "wrist_1_joint": -0.7804599489681411,
            "wrist_2_joint": 0.12958660307563738,
            "wrist_3_joint": -3.1924946282119055
        }
    },
    "waypoints": [
        {
            "positions": [
                0.12281147578464417,
                -1.1394903361783484,
                1.9715463870305268,
                -0.7804599489681411,
                0.12958660307563738,
                -3.1924946282119055
            ]
        },
        {
            "positions": [
                0.05716628863676436,
                -1.1725561636115083,
                2.036087702536609,
                -0.8172137624508375,
                0.2883027518348541,
                -3.1771687886787414
            ]
        },
        {
            "positions": [
                -0.008478898511115454,
                -1.2056219910446684,
                2.1006290180426914,
                -0.8539675759335341,
                0.4470189005940708,
                -3.161842949145577
            ]
        },
        {
            "positions": [
                -0.07412408565899527,
                -1.2386878184778283,
                2.1651703335487738,
                -0.8907213894162306,
                0.6057350493532875,
                -3.1465171096124127
            ]
        },
        {
            "positions": [
                -0.13976927280687507,
                -1.2717536459109884,
                2.229711649054856,
                -0.927475202898927,
                0.7644511981125042,
                -3.1311912700792486
            ]
        },
        {
            "positions": [
                -0.20541445995475494,
                -1.3048194733441483,
                2.294252964560939,
                -0.9642290163816236,
                0.923167346871721,
                -3.1158654305460844
            ]
        },
        {
            "positions": [
                -0.2710596471026347,
                -1.3378853007773084,
                2.358794280067021,
                -1.00098282986432,
                1.0818834956309376,
                -3.10053959101292
            ]
        },
        {
            "positions": [
                -0.33670483425051456,
                -1.3709511282104683,
                2.4233355955731035,
                -1.0377366433470165,
                1.2405996443901544,
                -3.0852137514797557
            ]
        }
    ]
}