{
    "goal": {
        "global_pose": {
            "orientation": {
                "w": -0.00223480608172531,
                "x": 0.0024358444001904467,
                "y": 0.7094548369677653,
                "z": -0.704743149386269
            },
            "position": {
                "x": 0.6205249238014221,
                "y": -0.6371506643295288,
                "z": 0.19426114857196808
            }
        },
        "name": "move_to_magneteinheit_B"
    },
    "id": "KPIECE_move_to_magneteinheit_B_14",
    "joint_names": [
        "shoulder_pan_joint",
        "shoulder_lift_joint",
        "elbow_joint",
        "wrist_1_joint",
        "wrist_2_joint",
        "wrist_3_joint"
    ],
    "metrics": {
        "cart_traj_len": 1.4533831284391152,
        "distance_elbow_joint": 0.7270469137441935,
        "distance_shoulder_lift_joint": 1.245034723989378,
        "distance_shoulder_pan_joint": 1.6203229562969808,
        "distance_wrist_1_joint": 2.6197337299918373,
        "distance_wrist_2_joint": 2.941898013642953,
        "distance_wrist_3_joint": 3.135015076680474,
        "smoothness": 4.575464599789371e-16,
        "time": 0.188630849,
        "traj_len": 3.5055743344487524,
        "weighted_distance": 4.9112842832951085
    },
    "planner": "KPIECE",
    "start": {
        "state": {
            "elbow_joint": 2.39358713078474,
            "shoulder_lift_joint": -1.908514104345545,
            "shoulder_pan_joint": 0.7066247066606129,
            "wrist_1_joint": -0.4678290933515497,
            "wrist_2_joint": 0.7096259083745334,
            "wrist_3_joint": -3.1358149277392293
        }
    },
    "waypoints": [
        {
            "positions": [
                0.7066247066606129,
                -1.908514104345545,
                2.39358713078474,
                -0.4678290933515497,
                0.7096259083745334,
                -3.1358149277392293
            ]
        },
        {
            "positions": [
                0.6559896142763323,
                -1.8696067692208769,
                2.370866914730234,
                -0.3859624142893048,
                0.6176915954481912,
                -3.0378457065929645
            ]
        },
        {
            "positions": [
                0.6053545218920516,
                -1.8306994340962088,
                2.348146698675728,
                -0.3040957352270599,
                0.5257572825218488,
                -2.9398764854466997
            ]
        },
        {
            "positions": [
                0.554719429507771,
                -1.7917920989715408,
                2.325426482621222,
                -0.22222905616481498,
                0.4338229695955066,
                -2.841907264300435
            ]
        },
        {
            "positions": [
                0.5040843371234903,
                -1.7528847638468728,
                2.302706266566716,
                -0.14036237710257005,
                0.3418886566691643,
                -2.74393804315417
            ]
        },
        {
            "positions": [
                0.4534492447392097,
                -1.7139774287222047,
                2.2799860505122096,
                -0.05849569804032512,
                0.249954343742822,
                -2.645968822007905
            ]
        },
        {
            "positions": [
                0.40281415235492907,
                -1.6750700935975367,
                2.2572658344577037,
                0.023370981021919757,
                0.15802003081647975,
                -2.5479996008616403
            ]
        },
        {
            "positions": [
                0.3521790599706484,
                -1.6361627584728684,
                2.2345456184031978,
                0.10523766008416474,
                0.0660857178901374,
                -2.4500303797153755
            ]
        },
        {
            "positions": [
                0.30154396758636776,
                -1.5972554233482004,
                2.211825402348692,
                0.18710433914640962,
                -0.025848595036204847,
                -2.3520611585691107
            ]
        },
        {
            "positions": [
                0.2509088752020871,
                -1.5583480882235323,
                2.1891051862941855,
                0.2689710182086545,
                -0.11778290796254709,
                -2.254091937422846
            ]
        },
        {
            "positions": [
                0.2002737828178065,
                -1.5194407530988643,
                2.1663849702396796,
                0.3508376972708995,
                -0.20971722088888944,
                -2.156122716276581
            ]
        },
        {
            "positions": [
                0.14963869043352584,
                -1.4805334179741962,
                2.1436647541851737,
                0.43270437633314435,
                -0.3016515338152318,
                -2.058153495130316
            ]
        },
        {
            "positions": [
                0.09900359804924519,
                -1.4416260828495282,
                2.1209445381306677,
                0.5145710553953893,
                -0.39358584674157393,
                -1.9601842739840516
            ]
        },
        {
            "positions": [
                0.048368505664964534,
                -1.4027187477248602,
                2.0982243220761614,
                0.5964377344576341,
                -0.4855201596679163,
                -1.8622150528377868
            ]
        },
        {
            "positions": [
                -0.0022665867193161215,
                -1.363811412600192,
                2.0755041060216555,
                0.6783044135198792,
                -0.5774544725942586,
                -1.764245831691522
            ]
        },
        {
            "positions": [
                -0.05290167910359678,
                -1.3249040774755239,
                2.0527838899671496,
                0.7601710925821241,
                -0.6693887855206008,
                -1.666276610545257
            ]
        },
        {
            "positions": [
                -0.10353677148787743,
                -1.2859967423508558,
                2.030063673912643,
                0.842037771644369,
                -0.7613230984469431,
                -1.5683073893989923
            ]
        },
        {
            "positions": [
                -0.1541718638721581,
                -1.2470894072261878,
                2.0073434578581373,
                0.9239044507066139,
                -0.8532574113732855,
                -1.4703381682527275
            ]
        },
        {
            "positions": [
                -0.20480695625643874,
                -1.2081820721015197,
                1.9846232418036311,
                1.0057711297688587,
                -0.9451917242996276,
                -1.3723689471064626
            ]
        },
        {
            "positions": [
                -0.2554420486407194,
                -1.1692747369768517,
                1.9619030257491252,
                1.0876378088311038,
                -1.03712603722597,
                -1.2743997259601978
            ]
        },
        {
            "positions": [
                -0.30607714102499994,
                -1.1303674018521837,
                1.939182809694619,
                1.1695044878933487,
                -1.1290603501523124,
                -1.176430504813933
            ]
        },
        {
            "positions": [
                -0.3567122334092806,
                -1.0914600667275156,
                1.9164625936401132,
                1.2513711669555936,
                -1.2209946630786543,
                -1.0784612836676684
            ]
        },
        {
            "positions": [
                -0.40734732579356125,
                -1.0525527316028476,
                1.893742377585607,
                1.3332378460178385,
                -1.3129289760049971,
                -0.9804920625214035
            ]
        },
        {
            "positions": [
                -0.4579824181778419,
                -1.0136453964781795,
                1.871022161531101,
                1.4151045250800833,
                -1.404863288931339,
                -0.8825228413751387
            ]
        },
        {
            "positions": [
                -0.5086175105621226,
                -0.9747380613535115,
                1.848301945476595,
                1.4969712041423282,
                -1.4967976018576814,
                -0.7845536202288739
            ]
        },
        {
            "positions": [
                -0.5592526029464032,
                -0.9358307262288433,
                1.8255817294220889,
                1.578837883204573,
                -1.5887319147840238,
                -0.686584399082609
            ]
        },
        {
            "positions": [
                -0.6098876953306839,
                -0.8969233911041754,
                1.8028615133675827,
                1.660704562266818,
                -1.6806662277103661,
                -0.5886151779363442
            ]
        },
        {
            "positions": [
                -0.6605227877149645,
                -0.8580160559795071,
                1.7801412973130768,
                1.7425712413290633,
                -1.7726005406367085,
                -0.4906459567900794
            ]
        },
        {
            "positions": [
                -0.7111578800992452,
                -0.8191087208548391,
                1.7574210812585709,
                1.8244379203913081,
                -1.8645348535630508,
                -0.39267673564381456
            ]
        },
        {
            "positions": [
                -0.7617929724835258,
                -0.7802013857301711,
                1.7347008652040647,
                1.906304599453553,
                -1.9564691664893927,
                -0.2947075144975497
            ]
        },
        {
            "positions": [
                -0.8124280648678065,
                -0.741294050605503,
                1.7119806491495586,
                1.988171278515798,
                -2.048403479415735,
                -0.1967382933512849
            ]
        },
        {
            "positions": [
                -0.8630631572520872,
                -0.702386715480835,
                1.6892604330950527,
                2.0700379575780428,
                -2.1403377923420774,
                -0.09876907220502007
            ]
        },
        {
            "positions": [
                -0.9136982496363678,
                -0.6634793803561669,
                1.6665402170405466,
                2.1519046366402876,
                -2.23227210526842,
                -0.0007998510587551446
            ]
        }
    ]
}