{
    "goal": {
        "global_pose": {
            "orientation": {
                "w": 0.7047431468963623,
                "x": -0.7094548344612122,
                "y": 0.0024358443915843964,
                "z": -0.0022348060738295317
            },
            "position": {
                "x": 0.6094750761985779,
                "y": 0.3671506643295288,
                "z": 0.19426114857196808
            }
        },
        "name": "move_to_magneteinheit_A"
    },
    "id": "KPIECE_move_to_magneteinheit_A_62",
    "joint_names": [
        "shoulder_pan_joint",
        "shoulder_lift_joint",
        "elbow_joint",
        "wrist_1_joint",
        "wrist_2_joint",
        "wrist_3_joint"
    ],
    "metrics": {
        "cart_traj_len": 2.2020342698721906,
        "distance_elbow_joint": 3.8889368831204,
        "distance_shoulder_lift_joint": 1.4701440970465947,
        "distance_shoulder_pan_joint": 1.3104084856527898,
        "distance_wrist_1_joint": 2.428869326456141,
        "distance_wrist_2_joint": 1.4354451905134749,
        "distance_wrist_3_joint": 4.325091992836658,
        "smoothness": 0.1034908358423776,
        "time": 0.154736791,
        "traj_len": 3.854723852058154,
        "weighted_distance": 5.231958952272942
    },
    "planner": "KPIECE",
    "start": {
        "state": {
            "elbow_joint": -1.919643507792019,
            "shoulder_lift_joint": -0.07675430207160344,
            "shoulder_pan_joint": -1.1188671864651873,
            "wrist_1_joint": 0.42560062535961957,
            "wrist_2_joint": 1.5706038300724876,
            "wrist_3_joint": 1.1188968870953055
        }
    },
    "waypoints": [
        {
            "positions": [
                -1.1188671864651873,
                -0.07675430207160344,
                -1.919643507792019,
                0.42560062535961957,
                1.5706038300724876,
                1.1188968870953055
            ]
        },
        {
            "positions": [
                -1.1208933670177368,
                -0.15122075138247576,
                -1.8185538043189813,
                0.46211212366633136,
                1.4932360800864073,
                1.02169619860808
            ]
        },
        {
            "positions": [
                -1.1229195475702864,
                -0.22568720069334808,
                -1.7174641008459435,
                0.4986236219730432,
                1.415868330100327,
                0.9244955101208541
            ]
        },
        {
            "positions": [
                -1.1249457281228359,
                -0.30015365000422045,
                -1.6163743973729057,
                0.5351351202797551,
                1.3385005801142467,
                0.8272948216336283
            ]
        },
        {
            "positions": [
                -1.1269719086753855,
                -0.3746200993150927,
                -1.5152846938998679,
                0.5716466185864668,
                1.2611328301281666,
                0.7300941331464026
            ]
        },
        {
            "positions": [
                -1.128998089227935,
                -0.4490865486259651,
                -1.41419499042683,
                0.6081581168931787,
                1.183765080142086,
                0.6328934446591769
            ]
        },
        {
            "positions": [
                -1.1310242697804846,
                -0.5235529979368374,
                -1.3131052869537923,
                0.6446696151998905,
                1.106397330156006,
                0.5356927561719511
            ]
        },
        {
            "positions": [
                -1.133050450333034,
                -0.5980194472477096,
                -1.2120155834807544,
                0.6811811135066024,
                1.0290295801699256,
                0.4384920676847255
            ]
        },
        {
            "positions": [
                -1.1350766308855837,
                -0.672485896558582,
                -1.1109258800077166,
                0.7176926118133142,
                0.9516618301838453,
                0.34129137919749974
            ]
        },
        {
            "positions": [
                -1.1371028114381332,
                -0.7469523458694545,
                -1.0098361765346788,
                0.7542041101200261,
                0.874294080197765,
                0.2440906907102739
            ]
        },
        {
            "positions": [
                -1.1391289919906828,
                -0.8214187951803267,
                -0.908746473061641,
                0.7907156084267379,
                0.7969263302116847,
                0.14689000222304816
            ]
        },
        {
            "positions": [
                -1.1411551725432323,
                -0.8958852444911991,
                -0.8076567695886032,
                0.8272271067334497,
                0.7195585802256044,
                0.04968931373582253
            ]
        },
        {
            "positions": [
                -1.143181353095782,
                -0.9703516938020713,
                -0.7065670661155654,
                0.8637386050401615,
                0.6421908302395241,
                -0.047511374751403324
            ]
        },
        {
            "positions": [
                -1.1452075336483314,
                -1.0448181431129435,
                -0.6054773626425276,
                0.9002501033468733,
                0.564823080253444,
                -0.14471206323862895
            ]
        },
        {
            "positions": [
                -1.147233714200881,
                -1.119284592423816,
                -0.5043876591694898,
                0.9367616016535851,
                0.48745533026736365,
                -0.24191275172585458
            ]
        },
        {
            "positions": [
                -1.1492598947534305,
                -1.1937510417346884,
                -0.403297955696452,
                0.973273099960297,
                0.41008758028128334,
                -0.33911344021308043
            ]
        },
        {
            "positions": [
                -1.1512860753059801,
                -1.2682174910455606,
                -0.3022082522234142,
                1.0097845982670088,
                0.332719830295203,
                -0.43631412870030606
            ]
        },
        {
            "positions": [
                -1.1533122558585296,
                -1.342683940356433,
                -0.20111854875037644,
                1.0462960965737207,
                0.2553520803091227,
                -0.5335148171875319
            ]
        },
        {
            "positions": [
                -1.0925520931795083,
                -1.3329594423201585,
                -0.0977655999847213,
                0.9601925796574331,
                0.24962858313054612,
                -0.6607853071186662
            ]
        },
        {
            "positions": [
                -1.031791930500487,
                -1.323234944283884,
                0.005587348780933837,
                0.8740890627411455,
                0.24390508595196955,
                -0.7880557970498006
            ]
        },
        {
            "positions": [
                -0.9710317678214657,
                -1.3135104462476095,
                0.10894029754658896,
                0.7879855458248579,
                0.23818158877339296,
                -0.9153262869809349
            ]
        },
        {
            "positions": [
                -0.9102716051424444,
                -1.303785948211335,
                0.2122932463122441,
                0.7018820289085703,
                0.23245809159481637,
                -1.042596776912069
            ]
        },
        {
            "positions": [
                -0.8495114424634231,
                -1.2940614501750605,
                0.3156461950778993,
                0.6157785119922827,
                0.22673459441623978,
                -1.1698672668432035
            ]
        },
        {
            "positions": [
                -0.7887512797844018,
                -1.2843369521387857,
                0.41899914384355436,
                0.529674995075995,
                0.2210110972376632,
                -1.2971377567743376
            ]
        },
        {
            "positions": [
                -0.7279911171053806,
                -1.2746124541025112,
                0.5223520926092096,
                0.44357147815970743,
                0.21528760005908662,
                -1.4244082467054722
            ]
        },
        {
            "positions": [
                -0.6672309544263593,
                -1.2648879560662367,
                0.6257050413748646,
                0.35746796124341984,
                0.20956410288051003,
                -1.5516787366366063
            ]
        },
        {
            "positions": [
                -0.6064707917473379,
                -1.2551634580299622,
                0.7290579901405199,
                0.27136444432713225,
                0.20384060570193346,
                -1.6789492265677406
            ]
        },
        {
            "positions": [
                -0.5457106290683166,
                -1.2454389599936877,
                0.8324109389061751,
                0.18526092741084466,
                0.19811710852335687,
                -1.806219716498875
            ]
        },
        {
            "positions": [
                -0.4849504663892953,
                -1.2357144619574132,
                0.9357638876718302,
                0.09915741049455684,
                0.19239361134478028,
                -1.9334902064300095
            ]
        },
        {
            "positions": [
                -0.424190303710274,
                -1.2259899639211387,
                1.0391168364374852,
                0.01305389357826936,
                0.18667011416620372,
                -2.0607606963611436
            ]
        },
        {
            "positions": [
                -0.3634301410312527,
                -1.2162654658848642,
                1.1424697852031405,
                -0.07304962333801823,
                0.1809466169876271,
                -2.188031186292278
            ]
        },
        {
            "positions": [
                -0.3026699783522314,
                -1.2065409678485897,
                1.2458227339687955,
                -0.15915314025430582,
                0.17522311980905053,
                -2.315301676223412
            ]
        },
        {
            "positions": [
                -0.24190981567321002,
                -1.196816469812315,
                1.3491756827344508,
                -0.24525665717059364,
                0.16949962263047394,
                -2.4425721661545463
            ]
        },
        {
            "positions": [
                -0.18114965299418884,
                -1.1870919717760406,
                1.4525286315001058,
                -0.331360174086881,
                0.16377612545189738,
                -2.5698426560856804
            ]
        },
        {
            "positions": [
                -0.12038949031516744,
                -1.177367473739766,
                1.555881580265761,
                -0.4174636910031688,
                0.15805262827332078,
                -2.6971131460168154
            ]
        },
        {
            "positions": [
                -0.059629327636146146,
                -1.1676429757034914,
                1.659234529031416,
                -0.5035672079194562,
                0.15232913109474422,
                -2.8243836359479495
            ]
        },
        {
            "positions": [
                0.0011308350428751446,
                -1.157918477667217,
                1.7625874777970714,
                -0.589670724835744,
                0.1466056339161676,
                -2.9516541258790836
            ]
        },
        {
            "positions": [
                0.061890997721896435,
                -1.1481939796309424,
                1.8659404265627266,
                -0.6757742417520314,
                0.14088213673759103,
                -3.0789246158102177
            ]
        },
        {
            "positions": [
                0.12265116040091764,
                -1.1384694815946679,
                1.9692933753283814,
                -0.7618777586683192,
                0.13515863955901444,
                -3.2061951057413527
            ]
        }
    ]
}