{
    "goal": {
        "global_pose": {
            "orientation": {
                "w": 0.5084816217422485,
                "x": -0.49083608388900757,
                "y": 0.5182115435600281,
                "z": -0.4816462993621826
            },
            "position": {
                "x": 0.5540239810943604,
                "y": 0.030875300988554955,
                "z": 0.16403168439865112
            }
        },
        "name": "move_to_storage_A"
    },
    "id": "KPIECE_move_to_storage_A_117",
    "joint_names": [
        "shoulder_pan_joint",
        "shoulder_lift_joint",
        "elbow_joint",
        "wrist_1_joint",
        "wrist_2_joint",
        "wrist_3_joint"
    ],
    "metrics": {
        "cart_traj_len": 0.35388635543056685,
        "distance_elbow_joint": 0.44973505231308764,
        "distance_shoulder_lift_joint": 0.23443432203722292,
        "distance_shoulder_pan_joint": 0.4636972888972811,
        "distance_wrist_1_joint": 0.2413320855964204,
        "distance_wrist_2_joint": 1.0963092814650293,
        "distance_wrist_3_joint": 0.09427619916765773,
        "smoothness": 0.0,
        "time": 0.033718856000000005,
        "traj_len": 1.6061706725864155,
        "weighted_distance": 2.026321296061773
    },
    "planner": "KPIECE",
    "start": {
        "state": {
            "elbow_joint": 1.9715463870305268,
            "shoulder_lift_joint": -1.1394903361783484,
            "shoulder_pan_joint": 0.12281147578464417,
            "wrist_1_joint": -0.7804599489681411,
            "wrist_2_joint": 0.12958660307563738,
            "wrist_3_joint": -3.1924946282119055
        }
    },
    "waypoints": [
        {
            "positions": [
                0.12281147578464417,
                -1.1394903361783484,
                1.9715463870305268,
                -0.7804599489681411,
                0.12958660307563738,
                -3.1924946282119055
            ]
        },
        {
            "positions": [
                0.05656900594217544,
                -1.1729809536122373,
                2.0357942516466823,
                -0.8149359611962012,
                0.2862022147134987,
                -3.179026599759383
            ]
        },
        {
            "positions": [
                -0.009673463900293292,
                -1.2064715710461265,
                2.1000421162628373,
                -0.8494119734242612,
                0.44281782635136,
                -3.1655585713068604
            ]
        },
        {
            "positions": [
                -0.07591593374276202,
                -1.2399621884800154,
                2.164289980878993,
                -0.8838879856523212,
                0.5994334379892213,
                -3.1520905428543378
            ]
        },
        {
            "positions": [
                -0.14215840358523074,
                -1.2734528059139043,
                2.2285378454951483,
                -0.9183639978803813,
                0.7560490496270826,
                -3.1386225144018156
            ]
        },
        {
            "positions": [
                -0.20840087342769947,
                -1.3069434233477932,
                2.292785710111304,
                -0.9528400101084413,
                0.912664661264944,
                -3.125154485949293
            ]
        },
        {
            "positions": [
                -0.2746433432701682,
                -1.3404340407816824,
                2.357033574727459,
                -0.9873160223365014,
                1.0692802729028053,
                -3.1116864574967704
            ]
        },
        {
            "positions": [
                -0.34088581311263694,
                -1.3739246582155713,
                2.4212814393436144,
                -1.0217920345645615,
                1.2258958845406667,
                -3.098218429044248
            ]
        }
    ]
}