{
    "goal": {
        "global_pose": {
            "orientation": {
                "w": -0.00223480608172531,
                "x": 0.0024358444001904467,
                "y": 0.7094548369677653,
                "z": -0.704743149386269
            },
            "position": {
                "x": 0.6205249238014221,
                "y": -0.6371506643295288,
                "z": 0.19426114857196808
            }
        },
        "name": "move_to_magneteinheit_B"
    },
    "id": "KPIECE_move_to_magneteinheit_B_51",
    "joint_names": [
        "shoulder_pan_joint",
        "shoulder_lift_joint",
        "elbow_joint",
        "wrist_1_joint",
        "wrist_2_joint",
        "wrist_3_joint"
    ],
    "metrics": {
        "cart_traj_len": 3.615282595225634,
        "distance_elbow_joint": 4.039116276352159,
        "distance_shoulder_lift_joint": 0.47481989017052806,
        "distance_shoulder_pan_joint": 2.1641738876207364,
        "distance_wrist_1_joint": 2.1831601363142794,
        "distance_wrist_2_joint": 1.292553377988507,
        "distance_wrist_3_joint": 6.654820742025683,
        "smoothness": 0.23082755223084,
        "time": 1.283863069,
        "traj_len": 4.099834668675298,
        "weighted_distance": 5.79603306657459
    },
    "planner": "KPIECE",
    "start": {
        "state": {
            "elbow_joint": 2.39358713078474,
            "shoulder_lift_joint": -1.908514104345545,
            "shoulder_pan_joint": 0.7066247066606129,
            "wrist_1_joint": -0.4678290933515497,
            "wrist_2_joint": 0.7096259083745334,
            "wrist_3_joint": -3.1358149277392293
        }
    },
    "waypoints": [
        {
            "positions": [
                0.7066247066606129,
                -1.908514104345545,
                2.39358713078474,
                -0.4678290933515497,
                0.7096259083745334,
                -3.1358149277392293
            ]
        },
        {
            "positions": [
                0.7336317203384501,
                -1.929878337579999,
                2.3776048345372582,
                -0.43977168810729556,
                0.5971956960918465,
                -2.9696869796359717
            ]
        },
        {
            "positions": [
                0.7606387340162872,
                -1.9512425708144532,
                2.361622538289777,
                -0.4117142828630414,
                0.48476548380915957,
                -2.803559031532714
            ]
        },
        {
            "positions": [
                0.7876457476941244,
                -1.9726068040489073,
                2.345640242042295,
                -0.38365687761878725,
                0.3723352715264726,
                -2.6374310834294565
            ]
        },
        {
            "positions": [
                0.8079253676048676,
                -1.9766058878309838,
                2.283645686524324,
                -0.3820825219520719,
                0.3187614260726129,
                -2.5016425600977157
            ]
        },
        {
            "positions": [
                0.8282049875156108,
                -1.98060497161306,
                2.221651131006353,
                -0.38050816628535655,
                0.26518758061875314,
                -2.3658540367659753
            ]
        },
        {
            "positions": [
                0.8484846074263539,
                -1.9846040553951365,
                2.159656575488382,
                -0.3789338106186412,
                0.21161373516489335,
                -2.2300655134342344
            ]
        },
        {
            "positions": [
                0.921101365010163,
                -1.9808546019619409,
                2.0214492891768305,
                -0.45307337485262406,
                0.21374559495785384,
                -2.1364488241008224
            ]
        },
        {
            "positions": [
                0.9937181225939722,
                -1.977105148528745,
                1.8832420028652794,
                -0.5272129390866069,
                0.21587745475081435,
                -2.0428321347674108
            ]
        },
        {
            "positions": [
                1.0663348801777814,
                -1.9733556950955493,
                1.7450347165537283,
                -0.6013525033205899,
                0.21800931454377484,
                -1.949215445433999
            ]
        },
        {
            "positions": [
                1.1389516377615907,
                -1.9696062416623534,
                1.606827430242177,
                -0.6754920675545728,
                0.22014117433673536,
                -1.855598756100587
            ]
        },
        {
            "positions": [
                1.2115683953453997,
                -1.9658567882291578,
                1.468620143930626,
                -0.7496316317885556,
                0.22227303412969585,
                -1.761982066767175
            ]
        },
        {
            "positions": [
                1.2841851529292088,
                -1.9621073347959619,
                1.3304128576190748,
                -0.8237711960225386,
                0.22440489392265633,
                -1.6683653774337635
            ]
        },
        {
            "positions": [
                1.356801910513018,
                -1.9583578813627662,
                1.1922055713075235,
                -0.8979107602565214,
                0.22653675371561685,
                -1.5747486881003514
            ]
        },
        {
            "positions": [
                1.4294186680968273,
                -1.9546084279295703,
                1.0539982849959724,
                -0.9720503244905043,
                0.22866861350857734,
                -1.4811319987669396
            ]
        },
        {
            "positions": [
                1.5020354256806363,
                -1.9508589744963747,
                0.9157909986844213,
                -1.0461898887244871,
                0.23080047330153786,
                -1.3875153094335277
            ]
        },
        {
            "positions": [
                1.5746521832644456,
                -1.9471095210631788,
                0.7775837123728699,
                -1.1203294529584702,
                0.23293233309449835,
                -1.293898620100116
            ]
        },
        {
            "positions": [
                1.6472689408482548,
                -1.9433600676299831,
                0.6393764260613188,
                -1.194469017192453,
                0.23506419288745883,
                -1.200281930766704
            ]
        },
        {
            "positions": [
                1.7198856984320638,
                -1.9396106141967873,
                0.5011691397497675,
                -1.2686085814264358,
                0.23719605268041935,
                -1.1066652414332923
            ]
        },
        {
            "positions": [
                1.7925024560158729,
                -1.9358611607635916,
                0.3629618534382164,
                -1.3427481456604187,
                0.23932791247337984,
                -1.0130485520998804
            ]
        },
        {
            "positions": [
                1.8651192135996821,
                -1.932111707330396,
                0.2247545671266653,
                -1.4168877098944015,
                0.24145977226634033,
                -0.9194318627664686
            ]
        },
        {
            "positions": [
                1.9377359711834912,
                -1.9283622538972,
                0.0865472808151142,
                -1.4910272741283843,
                0.24359163205930084,
                -0.8258151734330568
            ]
        },
        {
            "positions": [
                2.010352728767301,
                -1.9246128004640044,
                -0.05166000549643712,
                -1.5651668383623676,
                0.24572349185226133,
                -0.7321984840996447
            ]
        },
        {
            "positions": [
                2.08296948635111,
                -1.9208633470308085,
                -0.18986729180798845,
                -1.6393064025963504,
                0.24785535164522182,
                -0.6385817947662331
            ]
        },
        {
            "positions": [
                2.155586243934919,
                -1.9171138935976129,
                -0.32807457811953933,
                -1.7134459668303332,
                0.24998721143818234,
                -0.5449651054328213
            ]
        },
        {
            "positions": [
                2.228203001518728,
                -1.913364440164417,
                -0.46628186443109065,
                -1.787585531064316,
                0.25211907123114286,
                -0.45134841609940946
            ]
        },
        {
            "positions": [
                2.300819759102537,
                -1.9096149867312213,
                -0.604489150742642,
                -1.8617250952982993,
                0.25425093102410334,
                -0.3577317267659974
            ]
        },
        {
            "positions": [
                2.373436516686346,
                -1.9058655332980254,
                -0.7426964370541933,
                -1.9358646595322822,
                0.25638279081706383,
                -0.2641150374325856
            ]
        },
        {
            "positions": [
                2.4460532742701555,
                -1.9021160798648298,
                -0.8809037233657442,
                -2.010004223766265,
                0.2585146506100243,
                -0.17049834809917375
            ]
        },
        {
            "positions": [
                2.5186700318539645,
                -1.898366626431634,
                -1.0191110096772955,
                -2.084143788000248,
                0.2606465104029848,
                -0.07688165876576214
            ]
        },
        {
            "positions": [
                2.591286789437774,
                -1.8946171729984382,
                -1.1573182959888468,
                -2.1582833522342306,
                0.26277837019594535,
                0.01673503056764991
            ]
        },
        {
            "positions": [
                2.663903547021583,
                -1.8908677195652424,
                -1.2955255823003982,
                -2.2324229164682134,
                0.26491022998890584,
                0.11035171990106196
            ]
        },
        {
            "positions": [
                2.736520304605392,
                -1.8871182661320467,
                -1.4337328686119488,
                -2.3065624807021963,
                0.26704208978186633,
                0.20396840923447357
            ]
        },
        {
            "positions": [
                2.7436997596680888,
                -1.906466270895935,
                -1.4507934197435481,
                -2.3253888305760717,
                0.22559211357652592,
                0.004157484707705106
            ]
        },
        {
            "positions": [
                2.750879214730785,
                -1.925814275659823,
                -1.4678539708751475,
                -2.344215180449947,
                0.18414213737118548,
                -0.19565343981906336
            ]
        },
        {
            "positions": [
                2.7530134471987573,
                -1.9493214570006907,
                -1.4862465175464472,
                -2.3621400571928115,
                0.1304562361751811,
                -0.44636909611934783
            ]
        },
        {
            "positions": [
                2.7551476796667296,
                -1.9728286383415583,
                -1.5046390642177472,
                -2.3800649339356763,
                0.07677033497917668,
                -0.6970847524196323
            ]
        },
        {
            "positions": [
                2.757281912134702,
                -1.996335819682426,
                -1.523031610889047,
                -2.3979898106785407,
                0.023084433783172265,
                -0.9478004087199168
            ]
        },
        {
            "positions": [
                2.7594161446026737,
                -2.0198430010232933,
                -1.5414241575603467,
                -2.415914687421405,
                -0.030601467412832123,
                -1.1985160650202014
            ]
        },
        {
            "positions": [
                2.761550377070646,
                -2.043350182364161,
                -1.5598167042316464,
                -2.4338395641642694,
                -0.08428736860883654,
                -1.4492317213204857
            ]
        },
        {
            "positions": [
                2.7636846095386183,
                -2.0668573637050285,
                -1.5782092509029464,
                -2.451764440907134,
                -0.13797326980484095,
                -1.69994737762077
            ]
        },
        {
            "positions": [
                2.7658188420065906,
                -2.090364545045896,
                -1.5966017975742461,
                -2.4696893176499986,
                -0.1916591710008454,
                -1.9506630339210547
            ]
        },
        {
            "positions": [
                2.744822891551639,
                -2.1099641192346956,
                -1.606387267172881,
                -2.470391186960001,
                -0.2477414888766819,
                -2.1827442263003447
            ]
        },
        {
            "positions": [
                2.723826941096687,
                -2.129563693423495,
                -1.6161727367715157,
                -2.471093056270004,
                -0.3038238067525184,
                -2.4148254186796345
            ]
        },
        {
            "positions": [
                2.7028309906417354,
                -2.1491632676122943,
                -1.6259582063701508,
                -2.4717949255800065,
                -0.3599061246283549,
                -2.6469066110589243
            ]
        },
        {
            "positions": [
                2.6818350401867836,
                -2.168762841801094,
                -1.6357436759687856,
                -2.4724967948900094,
                -0.4159884425041914,
                -2.8789878034382146
            ]
        },
        {
            "positions": [
                2.660839089731832,
                -2.1883624159898933,
                -1.6455291455674204,
                -2.473198664200012,
                -0.47207076038002793,
                -3.1110689958175044
            ]
        }
    ]
}