{
    "goal": {
        "global_pose": {
            "orientation": {
                "w": 0.7047431468963623,
                "x": -0.7094548344612122,
                "y": 0.0024358443915843964,
                "z": -0.0022348060738295317
            },
            "position": {
                "x": 0.6094750761985779,
                "y": 0.3671506643295288,
                "z": 0.19426114857196808
            }
        },
        "name": "move_to_magneteinheit_A"
    },
    "id": "KPIECE_move_to_magneteinheit_A_138",
    "joint_names": [
        "shoulder_pan_joint",
        "shoulder_lift_joint",
        "elbow_joint",
        "wrist_1_joint",
        "wrist_2_joint",
        "wrist_3_joint"
    ],
    "metrics": {
        "cart_traj_len": 1.8675896214875527,
        "distance_elbow_joint": 3.9361432679793573,
        "distance_shoulder_lift_joint": 0.710317543557485,
        "distance_shoulder_pan_joint": 1.240528984136929,
        "distance_wrist_1_joint": 1.5831755447194913,
        "distance_wrist_2_joint": 1.696732669788892,
        "distance_wrist_3_joint": 1.219219740703167,
        "smoothness": 2.537652629914275e-16,
        "time": 0.12117103800000001,
        "traj_len": 3.2227500292274174,
        "weighted_distance": 4.01303693563865
    },
    "planner": "KPIECE",
    "start": {
        "state": {
            "elbow_joint": -1.919643507792019,
            "shoulder_lift_joint": -0.07675430207160344,
            "shoulder_pan_joint": -1.1188671864651873,
            "wrist_1_joint": 0.42560062535961957,
            "wrist_2_joint": 1.5706038300724876,
            "wrist_3_joint": 1.1188968870953055
        }
    },
    "waypoints": [
        {
            "positions": [
                -1.1188671864651873,
                -0.07675430207160344,
                -1.919643507792019,
                0.42560062535961957,
                1.5706038300724876,
                1.1188968870953055
            ]
        },
        {
            "positions": [
                -1.07292166853419,
                -0.10306235924039919,
                -1.7738604237927835,
                0.4842367566455267,
                1.5077618793395657,
                1.0737406004025956
            ]
        },
        {
            "positions": [
                -1.0269761506031927,
                -0.12937041640919494,
                -1.6280773397935482,
                0.5428728879314337,
                1.4449199286066436,
                1.0285843137098858
            ]
        },
        {
            "positions": [
                -0.9810306326721953,
                -0.15567847357799067,
                -1.4822942557943128,
                0.6015090192173408,
                1.3820779778737218,
                0.9834280270171759
            ]
        },
        {
            "positions": [
                -0.9350851147411978,
                -0.18198653074678642,
                -1.3365111717950773,
                0.6601451505032478,
                1.3192360271408,
                0.938271740324466
            ]
        },
        {
            "positions": [
                -0.8891395968102005,
                -0.20829458791558217,
                -1.1907280877958417,
                0.718781281789155,
                1.256394076407878,
                0.893115453631756
            ]
        },
        {
            "positions": [
                -0.8431940788792032,
                -0.2346026450843779,
                -1.0449450037966064,
                0.7774174130750621,
                1.1935521256749562,
                0.8479591669390463
            ]
        },
        {
            "positions": [
                -0.7972485609482058,
                -0.26091070225317364,
                -0.899161919797371,
                0.8360535443609691,
                1.130710174942034,
                0.8028028802463363
            ]
        },
        {
            "positions": [
                -0.7513030430172084,
                -0.2872187594219694,
                -0.7533788357981355,
                0.8946896756468763,
                1.0678682242091122,
                0.7576465935536265
            ]
        },
        {
            "positions": [
                -0.7053575250862111,
                -0.31352681659076514,
                -0.6075957517989001,
                0.9533258069327832,
                1.0050262734761903,
                0.7124903068609165
            ]
        },
        {
            "positions": [
                -0.6594120071552136,
                -0.3398348737595609,
                -0.46181266779966457,
                1.0119619382186904,
                0.9421843227432684,
                0.6673340201682066
            ]
        },
        {
            "positions": [
                -0.6134664892242163,
                -0.3661429309283566,
                -0.3160295838004292,
                1.0705980695045976,
                0.8793423720103465,
                0.6221777334754968
            ]
        },
        {
            "positions": [
                -0.567520971293219,
                -0.39245098809715234,
                -0.17024649980119366,
                1.1292342007905045,
                0.8165004212774245,
                0.5770214467827869
            ]
        },
        {
            "positions": [
                -0.5215754533622216,
                -0.4187590452659481,
                -0.02446341580195832,
                1.1878703320764117,
                0.7536584705445026,
                0.531865160090077
            ]
        },
        {
            "positions": [
                -0.4756299354312242,
                -0.44506710243474384,
                0.12131966819727702,
                1.2465064633623186,
                0.6908165198115807,
                0.4867088733973671
            ]
        },
        {
            "positions": [
                -0.4296844175002268,
                -0.47137515960353965,
                0.2671027521965128,
                1.3051425946482258,
                0.6279745690786587,
                0.44155258670465714
            ]
        },
        {
            "positions": [
                -0.38373889956922946,
                -0.49768321677233535,
                0.41288583619574815,
                1.363778725934133,
                0.5651326183457368,
                0.39639630001194737
            ]
        },
        {
            "positions": [
                -0.337793381638232,
                -0.5239912739411311,
                0.5586689201949839,
                1.4224148572200401,
                0.5022906676128147,
                0.3512400133192374
            ]
        },
        {
            "positions": [
                -0.2918478637072348,
                -0.5502993311099269,
                0.7044520041942188,
                1.481050988505947,
                0.43944871687989306,
                0.3060837266265275
            ]
        },
        {
            "positions": [
                -0.24590234577623737,
                -0.5766073882787226,
                0.8502350881934546,
                1.5396871197918542,
                0.376606766146971,
                0.2609274399338176
            ]
        },
        {
            "positions": [
                -0.19995682784524005,
                -0.6029154454475183,
                0.99601817219269,
                1.5983232510777612,
                0.3137648154140491,
                0.21577115324110774
            ]
        },
        {
            "positions": [
                -0.1540113099142426,
                -0.629223502616314,
                1.1418012561919257,
                1.6569593823636684,
                0.250922864681127,
                0.17061486654839786
            ]
        },
        {
            "positions": [
                -0.10806579198324529,
                -0.6555315597851097,
                1.2875843401911606,
                1.7155955136495755,
                0.18808091394820536,
                0.12545857985568798
            ]
        },
        {
            "positions": [
                -0.06212027405224796,
                -0.6818396169539056,
                1.4333674241903964,
                1.7742316449354827,
                0.12523896321528327,
                0.08030229316297799
            ]
        },
        {
            "positions": [
                -0.016174756121250633,
                -0.7081476741227013,
                1.5791505081896318,
                1.8328677762213896,
                0.0623970124823614,
                0.03514600647026822
            ]
        },
        {
            "positions": [
                0.029770761809746915,
                -0.734455731291497,
                1.7249335921888675,
                1.8915039075072968,
                -0.00044493825056068914,
                -0.01001028022244177
            ]
        },
        {
            "positions": [
                0.07571627974074424,
                -0.7607637884602927,
                1.8707166761881024,
                1.9501400387932037,
                -0.06328688898348234,
                -0.05516656691515154
            ]
        },
        {
            "positions": [
                0.12166179767174147,
                -0.7870718456290885,
                2.016499760187338,
                2.008776170079111,
                -0.12612883971640437,
                -0.10032285360786153
            ]
        }
    ]
}