{
    "goal": {
        "global_pose": {
            "orientation": {
                "w": 0.7031023502349854,
                "x": -0.7110244035720825,
                "y": 0.007748599164187908,
                "z": 0.005598929710686207
            },
            "position": {
                "x": 0.11585023208521307,
                "y": 0.44412534475326537,
                "z": 0.3711530566215515
            }
        },
        "name": "move_to_auspresseinheit_A"
    },
    "id": "KPIECE_move_to_auspresseinheit_A_131",
    "joint_names": [
        "shoulder_pan_joint",
        "shoulder_lift_joint",
        "elbow_joint",
        "wrist_1_joint",
        "wrist_2_joint",
        "wrist_3_joint"
    ],
    "metrics": {
        "cart_traj_len": 0.8205318099772803,
        "distance_elbow_joint": 0.16788524326119436,
        "distance_shoulder_lift_joint": 0.6476166080586909,
        "distance_shoulder_pan_joint": 1.1041989084338701,
        "distance_wrist_1_joint": 0.5930079824872656,
        "distance_wrist_2_joint": 0.5259523665488623,
        "distance_wrist_3_joint": 0.25661963340757277,
        "smoothness": 2.070562878958009,
        "time": 1.459566967,
        "traj_len": 1.8152908147725137,
        "weighted_distance": 2.219792863771016
    },
    "planner": "KPIECE",
    "start": {
        "state": {
            "elbow_joint": 2.422574709923281,
            "shoulder_lift_joint": -1.3736533754116391,
            "shoulder_pan_joint": -0.33786336945926293,
            "wrist_1_joint": -1.0288603412921917,
            "wrist_2_joint": 1.2330224858903978,
            "wrist_3_joint": -3.094022268022082
        }
    },
    "waypoints": [
        {
            "positions": [
                -0.33786336945926293,
                -1.3736533754116391,
                2.422574709923281,
                -1.0288603412921917,
                1.2330224858903978,
                -3.094022268022082
            ]
        },
        {
            "positions": [
                -0.3294255938497487,
                -1.331335869554985,
                2.3259462494655887,
                -1.0425190341050001,
                1.178109365058552,
                -2.9791454163186595
            ]
        },
        {
            "positions": [
                -0.196341259744508,
                -1.4054669364009482,
                2.3344969588904765,
                -0.9710370375659574,
                1.1216140872697904,
                -2.9957696190960603
            ]
        },
        {
            "positions": [
                -0.06325692563926733,
                -1.4795980032469114,
                2.3430476683153643,
                -0.8995550410269145,
                1.0651188094810289,
                -3.012393821873461
            ]
        },
        {
            "positions": [
                0.06982740846597335,
                -1.5537290700928745,
                2.351598377740252,
                -0.8280730444878718,
                1.0086235316922672,
                -3.0290180246508625
            ]
        },
        {
            "positions": [
                0.20291174257121403,
                -1.6278601369388377,
                2.36014908716514,
                -0.7565910479488289,
                0.9521282539035056,
                -3.0456422274282633
            ]
        },
        {
            "positions": [
                0.3359960766764547,
                -1.701991203784801,
                2.3686997965900276,
                -0.6851090514097862,
                0.8956329761147441,
                -3.062266430205664
            ]
        },
        {
            "positions": [
                0.4690804107816954,
                -1.7761222706307642,
                2.3772505060149154,
                -0.6136270548707434,
                0.8391376983259825,
                -3.0788906329830654
            ]
        },
        {
            "positions": [
                0.602164744886936,
                -1.8502533374767274,
                2.385801215439803,
                -0.5421450583317006,
                0.7826424205372209,
                -3.0955148357604663
            ]
        },
        {
            "positions": [
                0.7352490789921768,
                -1.9243844043226905,
                2.394351924864691,
                -0.4706630617926578,
                0.7261471427484594,
                -3.112139038537867
            ]
        },
        {
            "positions": [
                0.7041626190097462,
                -1.9121338368883591,
                2.3972030322690907,
                -0.47815637915477277,
                0.7070701193415354,
                -3.1208881980228096
            ]
        }
    ]
}