{
    "goal": {
        "global_pose": {
            "orientation": {
                "w": 0.5084816217422485,
                "x": -0.49083608388900757,
                "y": 0.5182115435600281,
                "z": -0.4816462993621826
            },
            "position": {
                "x": 0.5540239810943604,
                "y": 0.030875300988554955,
                "z": 0.16403168439865112
            }
        },
        "name": "move_to_storage_A"
    },
    "id": "KPIECE_move_to_storage_A_61",
    "joint_names": [
        "shoulder_pan_joint",
        "shoulder_lift_joint",
        "elbow_joint",
        "wrist_1_joint",
        "wrist_2_joint",
        "wrist_3_joint"
    ],
    "metrics": {
        "cart_traj_len": 0.3537806464436066,
        "distance_elbow_joint": 0.45154759588767757,
        "distance_shoulder_lift_joint": 0.23548287818549496,
        "distance_shoulder_pan_joint": 0.46492091657807194,
        "distance_wrist_1_joint": 0.2444258801766369,
        "distance_wrist_2_joint": 1.0912291168284223,
        "distance_wrist_3_joint": 0.09947639319854895,
        "smoothness": 4.440892098500626e-16,
        "time": 0.011906505,
        "traj_len": 1.608441102700019,
        "weighted_distance": 2.0301947109223315
    },
    "planner": "KPIECE",
    "start": {
        "state": {
            "elbow_joint": 1.9715463870305268,
            "shoulder_lift_joint": -1.1394903361783484,
            "shoulder_pan_joint": 0.12281147578464417,
            "wrist_1_joint": -0.7804599489681411,
            "wrist_2_joint": 0.12958660307563738,
            "wrist_3_joint": -3.1924946282119055
        }
    },
    "waypoints": [
        {
            "positions": [
                0.12281147578464417,
                -1.1394903361783484,
                1.9715463870305268,
                -0.7804599489681411,
                0.12958660307563738,
                -3.1924946282119055
            ]
        },
        {
            "positions": [
                0.056394201987776754,
                -1.1731307473477048,
                2.036053186443052,
                -0.8153779318505178,
                0.28547647690826916,
                -3.178283714897827
            ]
        },
        {
            "positions": [
                -0.010023071809090664,
                -1.2067711585170613,
                2.1005599858555777,
                -0.8502959147328945,
                0.4413663507409009,
                -3.1640728015837487
            ]
        },
        {
            "positions": [
                -0.07644034560595807,
                -1.2404115696864177,
                2.165066785268103,
                -0.8852138976152711,
                0.5972562245735327,
                -3.1498618882696703
            ]
        },
        {
            "positions": [
                -0.1428576194028255,
                -1.274051980855774,
                2.229573584680628,
                -0.9201318804976479,
                0.7531460984061644,
                -3.135650974955592
            ]
        },
        {
            "positions": [
                -0.20927489319969295,
                -1.3076923920251304,
                2.294080384093154,
                -0.9550498633800246,
                0.9090359722387962,
                -3.1214400616415134
            ]
        },
        {
            "positions": [
                -0.2756921669965603,
                -1.3413328031944869,
                2.358587183505679,
                -0.9899678462624013,
                1.064925846071428,
                -3.107229148327435
            ]
        },
        {
            "positions": [
                -0.34210944079342775,
                -1.3749732143638433,
                2.4230939829182043,
                -1.024885829144778,
                1.2208157199040597,
                -3.0930182350133566
            ]
        }
    ]
}