{
    "goal": {
        "global_pose": {
            "orientation": {
                "w": 0.7047431468963623,
                "x": -0.7094548344612122,
                "y": 0.0024358443915843964,
                "z": -0.0022348060738295317
            },
            "position": {
                "x": 0.6094750761985779,
                "y": 0.3671506643295288,
                "z": 0.19426114857196808
            }
        },
        "name": "move_to_magneteinheit_A"
    },
    "id": "KPIECE_move_to_magneteinheit_A_54",
    "joint_names": [
        "shoulder_pan_joint",
        "shoulder_lift_joint",
        "elbow_joint",
        "wrist_1_joint",
        "wrist_2_joint",
        "wrist_3_joint"
    ],
    "metrics": {
        "cart_traj_len": 2.062143349145167,
        "distance_elbow_joint": 3.87177149648479,
        "distance_shoulder_lift_joint": 1.0523477320807415,
        "distance_shoulder_pan_joint": 1.2417439362899156,
        "distance_wrist_1_joint": 1.1270259484641836,
        "distance_wrist_2_joint": 1.447965410399691,
        "distance_wrist_3_joint": 1.8973224626779857,
        "smoothness": 6.661338155761756e-16,
        "time": 0.125835787,
        "traj_len": 3.261621833750398,
        "weighted_distance": 4.124053015010495
    },
    "planner": "KPIECE",
    "start": {
        "state": {
            "elbow_joint": -1.919643507792019,
            "shoulder_lift_joint": -0.07675430207160344,
            "shoulder_pan_joint": -1.1188671864651873,
            "wrist_1_joint": 0.42560062535961957,
            "wrist_2_joint": 1.5706038300724876,
            "wrist_3_joint": 1.1188968870953055
        }
    },
    "waypoints": [
        {
            "positions": [
                -1.1188671864651873,
                -0.07675430207160344,
                -1.919643507792019,
                0.42560062535961957,
                1.5706038300724876,
                1.1188968870953055
            ]
        },
        {
            "positions": [
                -1.0728766703063015,
                -0.11573014400051979,
                -1.7762445634777677,
                0.3838589235646498,
                1.5169754815391656,
                1.1891680894167125
            ]
        },
        {
            "positions": [
                -1.026886154147416,
                -0.15470598592943613,
                -1.6328456191635161,
                0.34211722176968007,
                1.4633471330058438,
                1.2594392917381194
            ]
        },
        {
            "positions": [
                -0.9808956379885301,
                -0.19368182785835247,
                -1.4894466748492647,
                0.3003755199747103,
                1.4097187844725219,
                1.3297104940595261
            ]
        },
        {
            "positions": [
                -0.9349051218296442,
                -0.23265766978726884,
                -1.3460477305350131,
                0.2586338181797405,
                1.3560904359392,
                1.399981696380933
            ]
        },
        {
            "positions": [
                -0.8889146056707585,
                -0.2716335117161852,
                -1.2026487862207618,
                0.21689211638477077,
                1.302462087405878,
                1.47025289870234
            ]
        },
        {
            "positions": [
                -0.8429240895118728,
                -0.31060935364510156,
                -1.0592498419065102,
                0.17515041458980102,
                1.2488337388725563,
                1.5405241010237467
            ]
        },
        {
            "positions": [
                -0.796933573352987,
                -0.3495851955740179,
                -0.9158508975922588,
                0.13340871279483124,
                1.1952053903392343,
                1.6107953033451536
            ]
        },
        {
            "positions": [
                -0.7509430571941013,
                -0.38856103750293425,
                -0.7724519532780072,
                0.09166701099986146,
                1.1415770418059126,
                1.6810665056665606
            ]
        },
        {
            "positions": [
                -0.7049525410352155,
                -0.4275368794318506,
                -0.6290530089637558,
                0.049925309204891744,
                1.0879486932725906,
                1.7513377079879673
            ]
        },
        {
            "positions": [
                -0.6589620248763297,
                -0.46651272136076694,
                -0.48565406464950445,
                0.008183607409921967,
                1.0343203447392688,
                1.8216089103093742
            ]
        },
        {
            "positions": [
                -0.612971508717444,
                -0.5054885632896833,
                -0.34225512033525285,
                -0.03355809438504781,
                0.9806919962059468,
                1.8918801126307812
            ]
        },
        {
            "positions": [
                -0.5669809925585582,
                -0.5444644052185996,
                -0.19885617602100147,
                -0.07529979618001753,
                0.927063647672625,
                1.9621513149521879
            ]
        },
        {
            "positions": [
                -0.5209904763996724,
                -0.583440247147516,
                -0.05545723170674988,
                -0.11704149797498736,
                0.8734352991393031,
                2.032422517273595
            ]
        },
        {
            "positions": [
                -0.4749999602407867,
                -0.6224160890764323,
                0.0879417126075015,
                -0.15878319976995708,
                0.8198069506059812,
                2.1026937195950017
            ]
        },
        {
            "positions": [
                -0.4290094440819009,
                -0.6613919310053487,
                0.2313406569217531,
                -0.20052490156492692,
                0.7661786020726592,
                2.1729649219164084
            ]
        },
        {
            "positions": [
                -0.3830189279230152,
                -0.700367772934265,
                0.3747396012360047,
                -0.24226660335989664,
                0.7125502535393374,
                2.2432361242378156
            ]
        },
        {
            "positions": [
                -0.33702841176412934,
                -0.7393436148631813,
                0.5181385455502563,
                -0.28400830515486647,
                0.6589219050060154,
                2.3135073265592228
            ]
        },
        {
            "positions": [
                -0.2910378956052436,
                -0.7783194567920977,
                0.6615374898645074,
                -0.3257500069498361,
                0.6052935564726936,
                2.3837785288806295
            ]
        },
        {
            "positions": [
                -0.2450473794463578,
                -0.8172952987210143,
                0.804936434178759,
                -0.3674917087448059,
                0.5516652079393716,
                2.454049731202036
            ]
        },
        {
            "positions": [
                -0.19905686328747207,
                -0.8562711406499304,
                0.9483353784930102,
                -0.40923341053977563,
                0.4980368594060498,
                2.524320933523443
            ]
        },
        {
            "positions": [
                -0.15306634712858624,
                -0.8952469825788469,
                1.0917343228072622,
                -0.45097511233474546,
                0.4444085108727278,
                2.59459213584485
            ]
        },
        {
            "positions": [
                -0.10707583096970064,
                -0.9342228245077631,
                1.2351332671215134,
                -0.4927168141297152,
                0.39078016233940605,
                2.6648633381662568
            ]
        },
        {
            "positions": [
                -0.061085314810814806,
                -0.9731986664366796,
                1.378532211435765,
                -0.5344585159246851,
                0.33715181380608406,
                2.735134540487664
            ]
        },
        {
            "positions": [
                -0.015094798651928976,
                -1.0121745083655957,
                1.5219311557500161,
                -0.5762002177196546,
                0.2835234652727623,
                2.8054057428090706
            ]
        },
        {
            "positions": [
                0.030895717506956855,
                -1.0511503502945123,
                1.6653301000642682,
                -0.6179419195146245,
                0.2298951167394403,
                2.8756769451304773
            ]
        },
        {
            "positions": [
                0.07688623366584246,
                -1.0901261922234287,
                1.8087290443785193,
                -0.6596836213095942,
                0.17626676820611853,
                2.945948147451884
            ]
        },
        {
            "positions": [
                0.12287674982472838,
                -1.129102034152345,
                1.9521279886927707,
                -0.701425323104564,
                0.1226384196727965,
                3.016219349773291
            ]
        }
    ]
}