{
    "goal": {
        "global_pose": {
            "orientation": {
                "w": -0.00223480608172531,
                "x": 0.0024358444001904467,
                "y": 0.7094548369677653,
                "z": -0.704743149386269
            },
            "position": {
                "x": 0.6205249238014221,
                "y": -0.6371506643295288,
                "z": 0.19426114857196808
            }
        },
        "name": "move_to_magneteinheit_B"
    },
    "id": "KPIECE_move_to_magneteinheit_B_47",
    "joint_names": [
        "shoulder_pan_joint",
        "shoulder_lift_joint",
        "elbow_joint",
        "wrist_1_joint",
        "wrist_2_joint",
        "wrist_3_joint"
    ],
    "metrics": {
        "cart_traj_len": 3.504029835291637,
        "distance_elbow_joint": 4.6225427322764485,
        "distance_shoulder_lift_joint": 0.5842969034027052,
        "distance_shoulder_pan_joint": 1.9544968516889052,
        "distance_wrist_1_joint": 1.5989445448086212,
        "distance_wrist_2_joint": 1.9019458255694963,
        "distance_wrist_3_joint": 3.4165282551462886,
        "smoothness": 0.3323915745459096,
        "time": 1.423711144,
        "traj_len": 3.7521667224275177,
        "weighted_distance": 4.940921168523453
    },
    "planner": "KPIECE",
    "start": {
        "state": {
            "elbow_joint": 2.39358713078474,
            "shoulder_lift_joint": -1.908514104345545,
            "shoulder_pan_joint": 0.7066247066606129,
            "wrist_1_joint": -0.4678290933515497,
            "wrist_2_joint": 0.7096259083745334,
            "wrist_3_joint": -3.1358149277392293
        }
    },
    "waypoints": [
        {
            "positions": [
                0.7066247066606129,
                -1.908514104345545,
                2.39358713078474,
                -0.4678290933515497,
                0.7096259083745334,
                -3.1358149277392293
            ]
        },
        {
            "positions": [
                0.8117885595701547,
                -1.9122042376716657,
                2.36246012715356,
                -0.315733329740015,
                0.6949791876133458,
                -3.082423555592273
            ]
        },
        {
            "positions": [
                0.9169524124796966,
                -1.9158943709977863,
                2.33133312352238,
                -0.16363756612848024,
                0.680332466852158,
                -3.029032183445316
            ]
        },
        {
            "positions": [
                1.0221162653892384,
                -1.919584504323907,
                2.3002061198912003,
                -0.011541802516945532,
                0.6656857460909703,
                -2.9756408112983594
            ]
        },
        {
            "positions": [
                1.1272801182987802,
                -1.9232746376500276,
                2.2690791162600203,
                0.14055396109458923,
                0.6510390253297826,
                -2.922249439151403
            ]
        },
        {
            "positions": [
                1.2324439712083222,
                -1.9269647709761484,
                2.2379521126288404,
                0.292649724706124,
                0.6363923045685949,
                -2.868858067004447
            ]
        },
        {
            "positions": [
                1.337607824117864,
                -1.9306549043022692,
                2.2068251089976605,
                0.44474548831765864,
                0.6217455838074072,
                -2.81546669485749
            ]
        },
        {
            "positions": [
                1.4427716770274057,
                -1.9343450376283897,
                2.1756981053664806,
                0.5968412519291935,
                0.6070988630462194,
                -2.7620753227105332
            ]
        },
        {
            "positions": [
                1.5479355299369475,
                -1.9380351709545105,
                2.1445711017353006,
                0.7489370155407282,
                0.5924521422850317,
                -2.708683950563577
            ]
        },
        {
            "positions": [
                1.5530031718540802,
                -1.9377757950881784,
                1.9331819460957256,
                0.7584921323180858,
                0.5600416198665744,
                -2.5894431358964964
            ]
        },
        {
            "positions": [
                1.558070813771213,
                -1.9375164192218464,
                1.7217927904561505,
                0.7680472490954433,
                0.5276310974481171,
                -2.470202321229416
            ]
        },
        {
            "positions": [
                1.5631384556883456,
                -1.9372570433555143,
                1.5104036348165755,
                0.7776023658728007,
                0.4952205750296597,
                -2.350961506562336
            ]
        },
        {
            "positions": [
                1.5682060976054784,
                -1.9369976674891822,
                1.2990144791770004,
                0.7871574826501583,
                0.4628100526112024,
                -2.2317206918952555
            ]
        },
        {
            "positions": [
                1.5732737395226113,
                -1.9367382916228502,
                1.0876253235374254,
                0.7967125994275158,
                0.430399530192745,
                -2.112479877228175
            ]
        },
        {
            "positions": [
                1.578341381439744,
                -1.936478915756518,
                0.8762361678978505,
                0.8062677162048734,
                0.3979890077742877,
                -1.9932390625610945
            ]
        },
        {
            "positions": [
                1.5834090233568767,
                -1.936219539890186,
                0.6648470122582755,
                0.8158228329822308,
                0.3655784853558304,
                -1.873998247894014
            ]
        },
        {
            "positions": [
                1.5884766652740094,
                -1.935960164023854,
                0.4534578566187004,
                0.8253779497595883,
                0.33316796293737305,
                -1.7547574332269338
            ]
        },
        {
            "positions": [
                1.5935443071911422,
                -1.9357007881575221,
                0.24206870097912536,
                0.8349330665369459,
                0.3007574405189157,
                -1.6355166185598533
            ]
        },
        {
            "positions": [
                1.5986119491082749,
                -1.93544141229119,
                0.030679545339550085,
                0.8444881833143034,
                0.2683469181004583,
                -1.5162758038927728
            ]
        },
        {
            "positions": [
                1.6036795910254076,
                -1.935182036424858,
                -0.18070961030002497,
                0.854043300091661,
                0.23593639568200098,
                -1.3970349892256924
            ]
        },
        {
            "positions": [
                1.6087472329425403,
                -1.934922660558526,
                -0.3920987659395996,
                0.8635984168690184,
                0.20352587326354366,
                -1.277794174558612
            ]
        },
        {
            "positions": [
                1.613814874859673,
                -1.9346632846921938,
                -0.6034879215791746,
                0.8731535336463759,
                0.17111535084508633,
                -1.1585533598915316
            ]
        },
        {
            "positions": [
                1.618882516776806,
                -1.9344039088258618,
                -0.8148770772187497,
                0.8827086504237335,
                0.13870482842662896,
                -1.0393125452244514
            ]
        },
        {
            "positions": [
                1.6239501586939387,
                -1.9341445329595297,
                -1.0262662328583247,
                0.892263767201091,
                0.10629430600817164,
                -0.9200717305573709
            ]
        },
        {
            "positions": [
                1.6290178006110714,
                -1.9338851570931976,
                -1.2376553884978998,
                0.9018188839784484,
                0.07388378358971437,
                -0.8008309158902907
            ]
        },
        {
            "positions": [
                1.634085442528204,
                -1.9336257812268656,
                -1.4490445441374749,
                0.911374000755806,
                0.04147326117125694,
                -0.6815901012232102
            ]
        },
        {
            "positions": [
                1.6391530844453368,
                -1.9333664053605335,
                -1.66043369977705,
                0.9209291175331635,
                0.009062738752799657,
                -0.5623492865561297
            ]
        },
        {
            "positions": [
                1.7010969696727698,
                -1.971103141743285,
                -1.7316170854413218,
                0.9454010116305049,
                -0.08329859843959297,
                -0.5987887997166379
            ]
        },
        {
            "positions": [
                1.7630408549002026,
                -2.008839878126036,
                -1.8028004711055936,
                0.9698729057278465,
                -0.17565993563198562,
                -0.635228312877146
            ]
        },
        {
            "positions": [
                1.8249847401276353,
                -2.0465766145087874,
                -1.8739838567698655,
                0.994344799825188,
                -0.2680212728243782,
                -0.6716678260376541
            ]
        },
        {
            "positions": [
                1.8869286253550683,
                -2.084313350891539,
                -1.9451672424341373,
                1.0188166939225294,
                -0.36038261001677085,
                -0.7081073391981623
            ]
        },
        {
            "positions": [
                2.020430252115524,
                -2.150146935331933,
                -1.9344262696515597,
                1.031691505756959,
                -0.32620038461609097,
                -0.6610109854843812
            ]
        },
        {
            "positions": [
                2.15393187887598,
                -2.2159805197723275,
                -1.9236852968689822,
                1.0445663175913886,
                -0.2920181592154111,
                -0.6139146317706001
            ]
        },
        {
            "positions": [
                2.2874335056364363,
                -2.2818141042127222,
                -1.9129443240864046,
                1.0574411294258184,
                -0.25783593381473124,
                -0.5668182780568192
            ]
        },
        {
            "positions": [
                2.420935132396892,
                -2.3476476886531166,
                -1.902203351303827,
                1.0703159412602479,
                -0.22365370841405136,
                -0.5197219243430381
            ]
        },
        {
            "positions": [
                2.4689724175874175,
                -2.3748128462345526,
                -1.8540384577183748,
                1.058156039220883,
                -0.08461202729895684,
                -0.4179380950498319
            ]
        },
        {
            "positions": [
                2.517009702777943,
                -2.4019780038159886,
                -1.8058735641329227,
                1.0459961371815185,
                0.05442965381613768,
                -0.31615426575662575
            ]
        },
        {
            "positions": [
                2.5650469879684676,
                -2.429143161397424,
                -1.7577086705474705,
                1.0338362351421537,
                0.1934713349312322,
                -0.21437043646341958
            ]
        },
        {
            "positions": [
                2.613084273158993,
                -2.45630831897886,
                -1.7095437769620183,
                1.0216763331027892,
                0.3325130160463267,
                -0.1125866071702134
            ]
        },
        {
            "positions": [
                2.6611215583495182,
                -2.483473476560296,
                -1.6613788833765661,
                1.0095164310634244,
                0.4715546971614213,
                -0.010802777877007242
            ]
        }
    ]
}