{
    "goal": {
        "global_pose": {
            "orientation": {
                "w": 0.5084816217422485,
                "x": -0.49083608388900757,
                "y": 0.5182115435600281,
                "z": -0.4816462993621826
            },
            "position": {
                "x": 0.5540239810943604,
                "y": 0.030875300988554955,
                "z": 0.16403168439865112
            }
        },
        "name": "move_to_storage_A"
    },
    "id": "KPIECE_move_to_storage_A_90",
    "joint_names": [
        "shoulder_pan_joint",
        "shoulder_lift_joint",
        "elbow_joint",
        "wrist_1_joint",
        "wrist_2_joint",
        "wrist_3_joint"
    ],
    "metrics": {
        "cart_traj_len": 0.3530001590549734,
        "distance_elbow_joint": 0.44969817356542885,
        "distance_shoulder_lift_joint": 0.23506154066196294,
        "distance_shoulder_pan_joint": 0.4626481715099442,
        "distance_wrist_1_joint": 0.2446715270033316,
        "distance_wrist_2_joint": 1.0940211147232115,
        "distance_wrist_3_joint": 0.1053231688816143,
        "smoothness": 1.7763568394002505e-15,
        "time": 0.055891863,
        "traj_len": 1.609789954107521,
        "weighted_distance": 2.0348864036685845
    },
    "planner": "KPIECE",
    "start": {
        "state": {
            "elbow_joint": 1.9715463870305268,
            "shoulder_lift_joint": -1.1394903361783484,
            "shoulder_pan_joint": 0.12281147578464417,
            "wrist_1_joint": -0.7804599489681411,
            "wrist_2_joint": 0.12958660307563738,
            "wrist_3_joint": -3.1924946282119055
        }
    },
    "waypoints": [
        {
            "positions": [
                0.12281147578464417,
                -1.1394903361783484,
                1.9715463870305268,
                -0.7804599489681411,
                0.12958660307563738,
                -3.1924946282119055
            ]
        },
        {
            "positions": [
                0.056718879854652154,
                -1.1730705562729145,
                2.0357889832541596,
                -0.8154130242543313,
                0.2858753337503819,
                -3.177448461228818
            ]
        },
        {
            "positions": [
                -0.009373716075339864,
                -1.2066507763674807,
                2.100031579477792,
                -0.8503660995405216,
                0.44216406442512635,
                -3.16240229424573
            ]
        },
        {
            "positions": [
                -0.0754663120053319,
                -1.2402309964620468,
                2.1642741757014248,
                -0.8853191748267117,
                0.5984527950998708,
                -3.1473561272626425
            ]
        },
        {
            "positions": [
                -0.14155890793532389,
                -1.273811216556613,
                2.2285167719250576,
                -0.920272250112902,
                0.7547415257746154,
                -3.1323099602795543
            ]
        },
        {
            "positions": [
                -0.20765150386531595,
                -1.3073914366511792,
                2.2927593681486904,
                -0.9552253253990922,
                0.91103025644936,
                -3.1172637932964666
            ]
        },
        {
            "positions": [
                -0.27374409979530795,
                -1.3409716567457453,
                2.357001964372323,
                -0.9901784006852825,
                1.0673189871241042,
                -3.102217626313379
            ]
        },
        {
            "positions": [
                -0.3398366957253,
                -1.3745518768403113,
                2.4212445605959556,
                -1.0251314759714727,
                1.223607717798849,
                -3.0871714593302912
            ]
        }
    ]
}