{
    "goal": {
        "global_pose": {
            "orientation": {
                "w": 0.5084816217422485,
                "x": -0.49083608388900757,
                "y": 0.5182115435600281,
                "z": -0.4816462993621826
            },
            "position": {
                "x": 0.5540239810943604,
                "y": 0.030875300988554955,
                "z": 0.16403168439865112
            }
        },
        "name": "move_to_storage_A"
    },
    "id": "KPIECE_move_to_storage_A_132",
    "joint_names": [
        "shoulder_pan_joint",
        "shoulder_lift_joint",
        "elbow_joint",
        "wrist_1_joint",
        "wrist_2_joint",
        "wrist_3_joint"
    ],
    "metrics": {
        "cart_traj_len": 0.35290412338987254,
        "distance_elbow_joint": 0.4501470290549201,
        "distance_shoulder_lift_joint": 0.23404592501635202,
        "distance_shoulder_pan_joint": 0.46166159572875853,
        "distance_wrist_1_joint": 0.24499864179471886,
        "distance_wrist_2_joint": 1.0974290868767436,
        "distance_wrist_3_joint": 0.10358052553671948,
        "smoothness": 5.551115138160447e-16,
        "time": 0.046156979,
        "traj_len": 1.609926334963253,
        "weighted_distance": 2.035055670922325
    },
    "planner": "KPIECE",
    "start": {
        "state": {
            "elbow_joint": 1.9715463870305268,
            "shoulder_lift_joint": -1.1394903361783484,
            "shoulder_pan_joint": 0.12281147578464417,
            "wrist_1_joint": -0.7804599489681411,
            "wrist_2_joint": 0.12958660307563738,
            "wrist_3_joint": -3.1924946282119055
        }
    },
    "waypoints": [
        {
            "positions": [
                0.12281147578464417,
                -1.1394903361783484,
                1.9715463870305268,
                -0.7804599489681411,
                0.12958660307563738,
                -3.1924946282119055
            ]
        },
        {
            "positions": [
                0.056859819251964386,
                -1.1729254683235415,
                2.035853105466944,
                -0.8154597549388152,
                0.2863621869151722,
                -3.1776974102780886
            ]
        },
        {
            "positions": [
                -0.0090918372807154,
                -1.2063606004687346,
                2.100159823903361,
                -0.8504595609094894,
                0.44313777075470695,
                -3.1629001923442712
            ]
        },
        {
            "positions": [
                -0.07504349381339519,
                -1.2397957326139277,
                2.1644665423397784,
                -0.8854593668801635,
                0.5999133545942418,
                -3.1481029744104543
            ]
        },
        {
            "positions": [
                -0.14099515034607496,
                -1.273230864759121,
                2.228773260776195,
                -0.9204591728508376,
                0.7566889384337766,
                -3.1333057564766373
            ]
        },
        {
            "positions": [
                -0.20694680687875477,
                -1.3066659969043142,
                2.2930799792126124,
                -0.9554589788215118,
                0.9134645222733114,
                -3.1185085385428204
            ]
        },
        {
            "positions": [
                -0.27289846341143453,
                -1.3401011290495073,
                2.3573866976490296,
                -0.9904587847921857,
                1.0702401061128461,
                -3.103711320609003
            ]
        },
        {
            "positions": [
                -0.33885011994411435,
                -1.3735362611947004,
                2.421693416085447,
                -1.02545859076286,
                1.227015689952381,
                -3.088914102675186
            ]
        }
    ]
}