{
    "goal": {
        "global_pose": {
            "orientation": {
                "w": 0.7047431468963623,
                "x": -0.7094548344612122,
                "y": 0.0024358443915843964,
                "z": -0.0022348060738295317
            },
            "position": {
                "x": 0.6094750761985779,
                "y": 0.3671506643295288,
                "z": 0.19426114857196808
            }
        },
        "name": "move_to_magneteinheit_A"
    },
    "id": "KPIECE_move_to_magneteinheit_A_55",
    "joint_names": [
        "shoulder_pan_joint",
        "shoulder_lift_joint",
        "elbow_joint",
        "wrist_1_joint",
        "wrist_2_joint",
        "wrist_3_joint"
    ],
    "metrics": {
        "cart_traj_len": 1.8802135490001335,
        "distance_elbow_joint": 3.905301031363517,
        "distance_shoulder_lift_joint": 0.6984476282348008,
        "distance_shoulder_pan_joint": 1.2420957068179743,
        "distance_wrist_1_joint": 1.4790806883273875,
        "distance_wrist_2_joint": 1.6919290772996922,
        "distance_wrist_3_joint": 1.1018923265446423,
        "smoothness": 4.605369601539975e-16,
        "time": 0.278635564,
        "traj_len": 3.1809977143324093,
        "weighted_distance": 3.936183542126101
    },
    "planner": "KPIECE",
    "start": {
        "state": {
            "elbow_joint": -1.919643507792019,
            "shoulder_lift_joint": -0.07675430207160344,
            "shoulder_pan_joint": -1.1188671864651873,
            "wrist_1_joint": 0.42560062535961957,
            "wrist_2_joint": 1.5706038300724876,
            "wrist_3_joint": 1.1188968870953055
        }
    },
    "waypoints": [
        {
            "positions": [
                -1.1188671864651873,
                -0.07675430207160344,
                -1.919643507792019,
                0.42560062535961957,
                1.5706038300724876,
                1.1188968870953055
            ]
        },
        {
            "positions": [
                -1.071094274664496,
                -0.10361767238832656,
                -1.7694396219703454,
                0.48248834414144215,
                1.5055296347917302,
                1.0765164129974347
            ]
        },
        {
            "positions": [
                -1.0233213628638047,
                -0.13048104270504968,
                -1.6192357361486716,
                0.5393760629232648,
                1.4404554395109728,
                1.034135938899564
            ]
        },
        {
            "positions": [
                -0.9755484510631134,
                -0.15734441302177277,
                -1.469031850326998,
                0.5962637817050873,
                1.3753812442302153,
                0.991755464801693
            ]
        },
        {
            "positions": [
                -0.9277755392624221,
                -0.1842077833384959,
                -1.3188279645053242,
                0.65315150048691,
                1.3103070489494582,
                0.9493749907038221
            ]
        },
        {
            "positions": [
                -0.8800026274617307,
                -0.211071153655219,
                -1.1686240786836506,
                0.7100392192687326,
                1.2452328536687007,
                0.9069945166059512
            ]
        },
        {
            "positions": [
                -0.8322297156610394,
                -0.23793452397194212,
                -1.0184201928619767,
                0.7669269380505552,
                1.1801586583879433,
                0.8646140425080804
            ]
        },
        {
            "positions": [
                -0.7844568038603481,
                -0.2647978942886652,
                -0.8682163070403031,
                0.8238146568323776,
                1.115084463107186,
                0.8222335684102096
            ]
        },
        {
            "positions": [
                -0.7366838920596568,
                -0.2916612646053883,
                -0.7180124212186292,
                0.8807023756142003,
                1.0500102678264285,
                0.7798530943123387
            ]
        },
        {
            "positions": [
                -0.6889109802589655,
                -0.31852463492211147,
                -0.5678085353969555,
                0.9375900943960229,
                0.9849360725456711,
                0.7374726202144679
            ]
        },
        {
            "positions": [
                -0.6411380684582741,
                -0.34538800523883456,
                -0.41760464957528187,
                0.9944778131778456,
                0.9198618772649136,
                0.6950921461165969
            ]
        },
        {
            "positions": [
                -0.5933651566575828,
                -0.37225137555555765,
                -0.2674007637536082,
                1.0513655319596682,
                0.8547876819841563,
                0.652711672018726
            ]
        },
        {
            "positions": [
                -0.5455922448568915,
                -0.3991147458722808,
                -0.11719687793193434,
                1.1082532507414908,
                0.7897134867033988,
                0.6103311979208552
            ]
        },
        {
            "positions": [
                -0.4978193330562002,
                -0.4259781161890039,
                0.033007007889739315,
                1.1651409695233133,
                0.7246392914226415,
                0.5679507238229844
            ]
        },
        {
            "positions": [
                -0.45004642125550887,
                -0.452841486505727,
                0.18321089371141297,
                1.222028688305136,
                0.6595650961418842,
                0.5255702497251136
            ]
        },
        {
            "positions": [
                -0.40227350945481766,
                -0.47970485682245007,
                0.3334147795330866,
                1.2789164070869585,
                0.5944909008611268,
                0.48318977562724275
            ]
        },
        {
            "positions": [
                -0.3545005976541262,
                -0.5065682271391733,
                0.4836186653547607,
                1.3358041258687812,
                0.5294167055803694,
                0.4408093015293718
            ]
        },
        {
            "positions": [
                -0.3067276858534349,
                -0.5334315974558963,
                0.6338225511764344,
                1.3926918446506038,
                0.46434251029961193,
                0.398428827431501
            ]
        },
        {
            "positions": [
                -0.2589547740527436,
                -0.5602949677726194,
                0.784026436998108,
                1.4495795634324262,
                0.3992683150188545,
                0.35604835333363016
            ]
        },
        {
            "positions": [
                -0.21118186225205227,
                -0.5871583380893426,
                0.9342303228197817,
                1.5064672822142489,
                0.3341941197380973,
                0.31366787923575934
            ]
        },
        {
            "positions": [
                -0.16340895045136095,
                -0.6140217084060657,
                1.0844342086414553,
                1.5633550009960715,
                0.2691199244573397,
                0.2712874051378883
            ]
        },
        {
            "positions": [
                -0.11563603865066963,
                -0.6408850787227889,
                1.234638094463129,
                1.6202427197778941,
                0.20404572917658226,
                0.22890693104001747
            ]
        },
        {
            "positions": [
                -0.0678631268499783,
                -0.6677484490395118,
                1.3848419802848027,
                1.6771304385597168,
                0.13897153389582506,
                0.18652645694214665
            ]
        },
        {
            "positions": [
                -0.020090215049286986,
                -0.694611819356235,
                1.5350458661064763,
                1.7340181573415392,
                0.07389733861506764,
                0.14414598284427582
            ]
        },
        {
            "positions": [
                0.027682696751404334,
                -0.7214751896729581,
                1.6852497519281504,
                1.790905876123362,
                0.008823143334310002,
                0.10176550874640489
            ]
        },
        {
            "positions": [
                0.07545560855209565,
                -0.7483385599896812,
                1.835453637749824,
                1.8477935949051845,
                -0.056251051946447195,
                0.05938503464853406
            ]
        },
        {
            "positions": [
                0.12322852035278696,
                -0.7752019303064043,
                1.985657523571498,
                1.904681313687007,
                -0.1213252472272046,
                0.017004560550663274
            ]
        }
    ]
}