{
    "goal": {
        "global_pose": {
            "orientation": {
                "w": 0.7031023502349854,
                "x": -0.7110244035720825,
                "y": 0.007748599164187908,
                "z": 0.005598929710686207
            },
            "position": {
                "x": 0.11585023208521307,
                "y": 0.44412534475326537,
                "z": 0.3711530566215515
            }
        },
        "name": "move_to_auspresseinheit_A"
    },
    "id": "KPIECE_move_to_auspresseinheit_A_9",
    "joint_names": [
        "shoulder_pan_joint",
        "shoulder_lift_joint",
        "elbow_joint",
        "wrist_1_joint",
        "wrist_2_joint",
        "wrist_3_joint"
    ],
    "metrics": {
        "cart_traj_len": 0.875582120861991,
        "distance_elbow_joint": 0.44474450008100597,
        "distance_shoulder_lift_joint": 0.6008395844131309,
        "distance_shoulder_pan_joint": 1.040919872645183,
        "distance_wrist_1_joint": 0.5546663529194014,
        "distance_wrist_2_joint": 0.7791193052402602,
        "distance_wrist_3_joint": 0.7412083810231755,
        "smoothness": 0.8153131200243974,
        "time": 0.228311378,
        "traj_len": 2.0399749989453686,
        "weighted_distance": 2.6415337242837107
    },
    "planner": "KPIECE",
    "start": {
        "state": {
            "elbow_joint": 2.422574709923281,
            "shoulder_lift_joint": -1.3736533754116391,
            "shoulder_pan_joint": -0.33786336945926293,
            "wrist_1_joint": -1.0288603412921917,
            "wrist_2_joint": 1.2330224858903978,
            "wrist_3_joint": -3.094022268022082
        }
    },
    "waypoints": [
        {
            "positions": [
                -0.33786336945926293,
                -1.3736533754116391,
                2.422574709923281,
                -1.0288603412921917,
                1.2330224858903978,
                -3.094022268022082
            ]
        },
        {
            "positions": [
                -0.3220502022801347,
                -1.399734003079662,
                2.3575789315775686,
                -0.9888988914595296,
                1.171137644488096,
                -3.0804796147715594
            ]
        },
        {
            "positions": [
                -0.24754510313018246,
                -1.4770396818931426,
                2.3330443812791937,
                -0.9254400361845532,
                1.085980584488702,
                -3.031634216387102
            ]
        },
        {
            "positions": [
                -0.17304000398023026,
                -1.5543453607066233,
                2.3085098309808187,
                -0.8619811809095768,
                1.000823524489308,
                -2.9827888180026445
            ]
        },
        {
            "positions": [
                -0.09853490483027802,
                -1.6316510395201043,
                2.283975280682444,
                -0.7985223256346003,
                0.915666464489914,
                -2.933943419618187
            ]
        },
        {
            "positions": [
                -0.02402980568032581,
                -1.708956718333585,
                2.2594407303840693,
                -0.7350634703596239,
                0.8305094044905199,
                -2.885098021233729
            ]
        },
        {
            "positions": [
                0.050475293469626425,
                -1.7862623971470657,
                2.2349061800856944,
                -0.6716046150846475,
                0.7453523444911259,
                -2.8362526228492717
            ]
        },
        {
            "positions": [
                0.12498039261957866,
                -1.8635680759605466,
                2.2103716297873195,
                -0.6081457598096712,
                0.6601952844917318,
                -2.7874072244648143
            ]
        },
        {
            "positions": [
                0.19948549176953087,
                -1.9408737547740273,
                2.1858370794889446,
                -0.5446869045346948,
                0.5750382244923378,
                -2.738561826080357
            ]
        },
        {
            "positions": [
                0.3389752475460388,
                -1.9327405596136868,
                2.254907143120434,
                -0.5267867072694992,
                0.6128975992453447,
                -2.854597017320992
            ]
        },
        {
            "positions": [
                0.4784650033225467,
                -1.9246073644533466,
                2.323977206751923,
                -0.5088865100043035,
                0.6507569739983518,
                -2.9706322085616272
            ]
        },
        {
            "positions": [
                0.6179547590990546,
                -1.916474169293006,
                2.3930472703834123,
                -0.4909863127391079,
                0.6886163487513587,
                -3.0866673998022622
            ]
        },
        {
            "positions": [
                0.7030565031859201,
                -1.9072545497232847,
                2.393843949135614,
                -0.4741939883727905,
                0.696173268334538,
                -3.124309765161807
            ]
        }
    ]
}