{
    "goal": {
        "global_pose": {
            "orientation": {
                "w": 0.5084816217422485,
                "x": -0.49083608388900757,
                "y": 0.5182115435600281,
                "z": -0.4816462993621826
            },
            "position": {
                "x": 0.5540239810943604,
                "y": 0.030875300988554955,
                "z": 0.16403168439865112
            }
        },
        "name": "move_to_storage_A"
    },
    "id": "KPIECE_move_to_storage_A_10",
    "joint_names": [
        "shoulder_pan_joint",
        "shoulder_lift_joint",
        "elbow_joint",
        "wrist_1_joint",
        "wrist_2_joint",
        "wrist_3_joint"
    ],
    "metrics": {
        "cart_traj_len": 0.35350531494966975,
        "distance_elbow_joint": 0.4519967449777682,
        "distance_shoulder_lift_joint": 0.23567472023036307,
        "distance_shoulder_pan_joint": 0.4633246955591768,
        "distance_wrist_1_joint": 0.25197337261884367,
        "distance_wrist_2_joint": 1.0955881680093664,
        "distance_wrist_3_joint": 0.10454851695973266,
        "smoothness": 0.0,
        "time": 0.053132421,
        "traj_len": 1.613414459571765,
        "weighted_distance": 2.039550144738522
    },
    "planner": "KPIECE",
    "start": {
        "state": {
            "elbow_joint": 1.9715463870305268,
            "shoulder_lift_joint": -1.1394903361783484,
            "shoulder_pan_joint": 0.12281147578464417,
            "wrist_1_joint": -0.7804599489681411,
            "wrist_2_joint": 0.12958660307563738,
            "wrist_3_joint": -3.1924946282119055
        }
    },
    "waypoints": [
        {
            "positions": [
                0.12281147578464417,
                -1.1394903361783484,
                1.9715463870305268,
                -0.7804599489681411,
                0.12958660307563738,
                -3.1924946282119055
            ]
        },
        {
            "positions": [
                0.05662223356190463,
                -1.1731581533541144,
                2.0361173505987793,
                -0.8164561450565473,
                0.2860991985055469,
                -3.1775591257890867
            ]
        },
        {
            "positions": [
                -0.009567008660834916,
                -1.2068259705298807,
                2.100688314167032,
                -0.8524523411449536,
                0.44261179393545635,
                -3.1626236233662675
            ]
        },
        {
            "positions": [
                -0.07575625088357445,
                -1.2404937877056468,
                2.1652592777352844,
                -0.8884485372333598,
                0.5991243893653658,
                -3.1476881209434486
            ]
        },
        {
            "positions": [
                -0.141945493106314,
                -1.274161604881413,
                2.229830241303537,
                -0.924444733321766,
                0.7556369847952753,
                -3.13275261852063
            ]
        },
        {
            "positions": [
                -0.20813473532905358,
                -1.3078294220571791,
                2.29440120487179,
                -0.9604409294101723,
                0.9121495802251849,
                -3.117817116097811
            ]
        },
        {
            "positions": [
                -0.27432397755179305,
                -1.3414972392329454,
                2.3589721684400424,
                -0.9964371254985784,
                1.0686621756550942,
                -3.1028816136749917
            ]
        },
        {
            "positions": [
                -0.34051321977453264,
                -1.3751650564087115,
                2.423543132008295,
                -1.0324333215869848,
                1.2251747710850038,
                -3.087946111252173
            ]
        }
    ]
}