{
    "goal": {
        "global_pose": {
            "orientation": {
                "w": 0.5084816217422485,
                "x": -0.49083608388900757,
                "y": 0.5182115435600281,
                "z": -0.4816462993621826
            },
            "position": {
                "x": 0.5540239810943604,
                "y": 0.030875300988554955,
                "z": 0.16403168439865112
            }
        },
        "name": "move_to_storage_A"
    },
    "id": "KPIECE_move_to_storage_A_52",
    "joint_names": [
        "shoulder_pan_joint",
        "shoulder_lift_joint",
        "elbow_joint",
        "wrist_1_joint",
        "wrist_2_joint",
        "wrist_3_joint"
    ],
    "metrics": {
        "cart_traj_len": 0.3536185167734051,
        "distance_elbow_joint": 0.4497091500072141,
        "distance_shoulder_lift_joint": 0.23504719204506253,
        "distance_shoulder_pan_joint": 0.4613394385998928,
        "distance_wrist_1_joint": 0.2357957583323439,
        "distance_wrist_2_joint": 1.105226236498104,
        "distance_wrist_3_joint": 0.10162569016867895,
        "smoothness": 1.4432899335161698e-15,
        "time": 0.088840986,
        "traj_len": 1.6089572603556928,
        "weighted_distance": 2.0329822529523227
    },
    "planner": "KPIECE",
    "start": {
        "state": {
            "elbow_joint": 1.9715463870305268,
            "shoulder_lift_joint": -1.1394903361783484,
            "shoulder_pan_joint": 0.12281147578464417,
            "wrist_1_joint": -0.7804599489681411,
            "wrist_2_joint": 0.12958660307563738,
            "wrist_3_joint": -3.1924946282119055
        }
    },
    "waypoints": [
        {
            "positions": [
                0.12281147578464417,
                -1.1394903361783484,
                1.9715463870305268,
                -0.7804599489681411,
                0.12958660307563738,
                -3.1924946282119055
            ]
        },
        {
            "positions": [
                0.056905841698945206,
                -1.1730685064705002,
                2.035790551317272,
                -0.814145057301333,
                0.28747606543250936,
                -3.177976672473523
            ]
        },
        {
            "positions": [
                -0.00899979238675376,
                -1.206646676762652,
                2.1000347156040164,
                -0.8478301656345251,
                0.4453655277893813,
                -3.16345871673514
            ]
        },
        {
            "positions": [
                -0.07490542647245273,
                -1.2402248470548038,
                2.1642788798907615,
                -0.881515273967717,
                0.6032549901462534,
                -3.1489407609967572
            ]
        },
        {
            "positions": [
                -0.14081106055815168,
                -1.2738030173469554,
                2.228523044177506,
                -0.915200382300909,
                0.7611444525031253,
                -3.134422805258375
            ]
        },
        {
            "positions": [
                -0.20671669464385067,
                -1.3073811876391073,
                2.292767208464251,
                -0.948885490634101,
                0.9190339148599974,
                -3.119904849519992
            ]
        },
        {
            "positions": [
                -0.2726223287295496,
                -1.340959357931259,
                2.357011372750996,
                -0.982570598967293,
                1.0769233772168694,
                -3.1053868937816094
            ]
        },
        {
            "positions": [
                -0.3385279628152486,
                -1.374537528223411,
                2.421255537037741,
                -1.016255707300485,
                1.2348128395737414,
                -3.0908689380432266
            ]
        }
    ]
}