{
    "goal": {
        "global_pose": {
            "orientation": {
                "w": -0.00223480608172531,
                "x": 0.0024358444001904467,
                "y": 0.7094548369677653,
                "z": -0.704743149386269
            },
            "position": {
                "x": 0.6205249238014221,
                "y": -0.6371506643295288,
                "z": 0.19426114857196808
            }
        },
        "name": "move_to_magneteinheit_B"
    },
    "id": "KPIECE_move_to_magneteinheit_B_4",
    "joint_names": [
        "shoulder_pan_joint",
        "shoulder_lift_joint",
        "elbow_joint",
        "wrist_1_joint",
        "wrist_2_joint",
        "wrist_3_joint"
    ],
    "metrics": {
        "cart_traj_len": 3.6263269482521783,
        "distance_elbow_joint": 4.3229442387843715,
        "distance_shoulder_lift_joint": 0.6464523221933449,
        "distance_shoulder_pan_joint": 2.0584415516749255,
        "distance_wrist_1_joint": 3.0241958120480237,
        "distance_wrist_2_joint": 1.251500647004734,
        "distance_wrist_3_joint": 6.293555432209851,
        "smoothness": 0.17547199100291216,
        "time": 3.187397783,
        "traj_len": 4.194888556793285,
        "weighted_distance": 5.870255303424861
    },
    "planner": "KPIECE",
    "start": {
        "state": {
            "elbow_joint": 2.39358713078474,
            "shoulder_lift_joint": -1.908514104345545,
            "shoulder_pan_joint": 0.7066247066606129,
            "wrist_1_joint": -0.4678290933515497,
            "wrist_2_joint": 0.7096259083745334,
            "wrist_3_joint": -3.1358149277392293
        }
    },
    "waypoints": [
        {
            "positions": [
                0.7066247066606129,
                -1.908514104345545,
                2.39358713078474,
                -0.4678290933515497,
                0.7096259083745334,
                -3.1358149277392293
            ]
        },
        {
            "positions": [
                0.761595689806843,
                -1.8941191846840555,
                2.3693567556622073,
                -0.338177495967297,
                0.6765824701624866,
                -3.012515716807063
            ]
        },
        {
            "positions": [
                0.8165666729530732,
                -1.8797242650225658,
                2.345126380539675,
                -0.20852589858304432,
                0.6435390319504397,
                -2.889216505874897
            ]
        },
        {
            "positions": [
                0.8715376560993033,
                -1.8653293453610762,
                2.3208960054171426,
                -0.07887430119879163,
                0.6104955937383929,
                -2.7659172949427306
            ]
        },
        {
            "positions": [
                0.9265086392455334,
                -1.8509344256995868,
                2.29666563029461,
                0.05077729618546106,
                0.5774521555263461,
                -2.6426180840105644
            ]
        },
        {
            "positions": [
                0.9761234221740589,
                -1.84741649634876,
                2.183152860159645,
                -0.0026441417591763494,
                0.5473369337210868,
                -2.503665932798884
            ]
        },
        {
            "positions": [
                1.0257382051025845,
                -1.8438985669979333,
                2.06964009002468,
                -0.05606557970381376,
                0.5172217119158274,
                -2.364713781587204
            ]
        },
        {
            "positions": [
                1.0753529880311101,
                -1.8403806376471066,
                1.956127319889715,
                -0.10948701764845117,
                0.48710649011056817,
                -2.2257616303755237
            ]
        },
        {
            "positions": [
                1.1249677709596355,
                -1.8368627082962798,
                1.8426145497547501,
                -0.16290845559308859,
                0.4569912683053088,
                -2.0868094791638434
            ]
        },
        {
            "positions": [
                1.1745825538881611,
                -1.8333447789454531,
                1.7291017796197852,
                -0.21632989353772603,
                0.4268760465000495,
                -1.9478573279521632
            ]
        },
        {
            "positions": [
                1.2241973368166867,
                -1.8298268495946264,
                1.6155890094848204,
                -0.2697513314823634,
                0.3967608246947902,
                -1.8089051767404831
            ]
        },
        {
            "positions": [
                1.2738121197452124,
                -1.8263089202437996,
                1.5020762393498552,
                -0.32317276942700085,
                0.36664560288953085,
                -1.6699530255288026
            ]
        },
        {
            "positions": [
                1.3234269026737377,
                -1.822790990892973,
                1.3885634692148905,
                -0.37659420737163823,
                0.3365303810842715,
                -1.5310008743171226
            ]
        },
        {
            "positions": [
                1.3730416856022634,
                -1.8192730615421462,
                1.2750506990799255,
                -0.4300156453162757,
                0.3064151592790122,
                -1.3920487231054424
            ]
        },
        {
            "positions": [
                1.422656468530789,
                -1.8157551321913195,
                1.1615379289449606,
                -0.4834370832609131,
                0.27629993747375287,
                -1.2530965718937621
            ]
        },
        {
            "positions": [
                1.4722712514593144,
                -1.8122372028404927,
                1.0480251588099956,
                -0.5368585212055506,
                0.24618471566849354,
                -1.1141444206820819
            ]
        },
        {
            "positions": [
                1.52188603438784,
                -1.808719273489666,
                0.9345123886750308,
                -0.5902799591501879,
                0.21606949386323426,
                -0.9751922694704018
            ]
        },
        {
            "positions": [
                1.5715008173163656,
                -1.8052013441388393,
                0.8209996185400659,
                -0.6437013970948253,
                0.18595427205797493,
                -0.8362401182587216
            ]
        },
        {
            "positions": [
                1.6211156002448912,
                -1.8016834147880125,
                0.7074868484051009,
                -0.6971228350394627,
                0.15583905025271555,
                -0.6972879670470411
            ]
        },
        {
            "positions": [
                1.6707303831734168,
                -1.7981654854371858,
                0.5939740782701359,
                -0.7505442729841001,
                0.12572382844745622,
                -0.5583358158353611
            ]
        },
        {
            "positions": [
                1.7203451661019422,
                -1.794647556086359,
                0.4804613081351712,
                -0.8039657109287375,
                0.09560860664219695,
                -0.4193836646236808
            ]
        },
        {
            "positions": [
                1.7699599490304676,
                -1.7911296267355323,
                0.3669485380002062,
                -0.8573871488733751,
                0.06549338483693767,
                -0.28043151341200057
            ]
        },
        {
            "positions": [
                1.8195747319589932,
                -1.7876116973847056,
                0.25343576786524125,
                -0.9108085868180125,
                0.03537816303167829,
                -0.1414793622003203
            ]
        },
        {
            "positions": [
                1.8691895148875188,
                -1.784093768033879,
                0.13992299773027606,
                -0.9642300247626499,
                0.005262941226418905,
                -0.0025272109886400607
            ]
        },
        {
            "positions": [
                1.9188042978160444,
                -1.7805758386830524,
                0.02641022759531131,
                -1.0176514627072872,
                -0.02485228057884037,
                0.1364249402230402
            ]
        },
        {
            "positions": [
                1.96841908074457,
                -1.7770579093322256,
                -0.08710254253965388,
                -1.0710729006519246,
                -0.05496750238409975,
                0.27537709143472044
            ]
        },
        {
            "positions": [
                2.0180338636730957,
                -1.773539979981399,
                -0.20061531267461863,
                -1.124494338596562,
                -0.08508272418935903,
                0.4143292426464007
            ]
        },
        {
            "positions": [
                2.067648646601621,
                -1.7700220506305722,
                -0.31412808280958293,
                -1.1779157765411994,
                -0.1151979459946183,
                0.5532813938580805
            ]
        },
        {
            "positions": [
                2.1172634295301465,
                -1.7665041212797454,
                -0.4276408529445481,
                -1.2313372144858368,
                -0.14531316779987757,
                0.6922335450697608
            ]
        },
        {
            "positions": [
                2.166878212458672,
                -1.7629861919289187,
                -0.5411536230795129,
                -1.2847586524304742,
                -0.17542838960513696,
                0.831185696281441
            ]
        },
        {
            "positions": [
                2.2164929953871977,
                -1.759468262578092,
                -0.6546663932144781,
                -1.3381800903751118,
                -0.20554361141039623,
                0.9701378474931213
            ]
        },
        {
            "positions": [
                2.2661077783157233,
                -1.7559503332272652,
                -0.7681791633494428,
                -1.3916015283197491,
                -0.23565883321565562,
                1.1090899987048015
            ]
        },
        {
            "positions": [
                2.315722561244249,
                -1.7524324038764385,
                -0.881691933484408,
                -1.4450229662643865,
                -0.265774055020915,
                1.2480421499164822
            ]
        },
        {
            "positions": [
                2.3653373441727745,
                -1.7489144745256118,
                -0.9952047036193732,
                -1.498444404209024,
                -0.2958892768261743,
                1.386994301128162
            ]
        },
        {
            "positions": [
                2.4149521271013,
                -1.745396545174785,
                -1.108717473754338,
                -1.5518658421536613,
                -0.32600449863143366,
                1.5259464523398423
            ]
        },
        {
            "positions": [
                2.4645669100298258,
                -1.7418786158239583,
                -1.2222302438893031,
                -1.605287280098299,
                -0.35611972043669293,
                1.6648986035515225
            ]
        },
        {
            "positions": [
                2.514181692958351,
                -1.7383606864731316,
                -1.3357430140242674,
                -1.658708718042936,
                -0.3862349422419522,
                1.8038507547632028
            ]
        },
        {
            "positions": [
                2.5637964758868765,
                -1.7348427571223048,
                -1.4492557841592322,
                -1.7121301559875735,
                -0.4163501640472115,
                1.942802905974883
            ]
        },
        {
            "positions": [
                2.613411258815402,
                -1.7313248277714781,
                -1.5627685542941974,
                -1.765551593932211,
                -0.44646538585247075,
                2.0817550571865633
            ]
        },
        {
            "positions": [
                2.6630260417439278,
                -1.7278068984206514,
                -1.6762813244291621,
                -1.8189730318768484,
                -0.47658060765773014,
                2.2207072083982435
            ]
        },
        {
            "positions": [
                2.7126408246724534,
                -1.7242889690698247,
                -1.7897940945641273,
                -1.8723944698214858,
                -0.5066958294629894,
                2.359659359609924
            ]
        },
        {
            "positions": [
                2.7039032523952726,
                -1.8013268335560955,
                -1.7665335923248766,
                -1.96946407923883,
                -0.5008326779351209,
                2.4926728837533734
            ]
        },
        {
            "positions": [
                2.6951656801180914,
                -1.8783646980423663,
                -1.7432730900856257,
                -2.0665336886561745,
                -0.4949695264072524,
                2.625686407896823
            ]
        },
        {
            "positions": [
                2.6864281078409107,
                -1.9554025625286369,
                -1.720012587846375,
                -2.163603298073519,
                -0.4891063748793839,
                2.7586999320402725
            ]
        },
        {
            "positions": [
                2.67769053556373,
                -2.0324404270149077,
                -1.6967520856071243,
                -2.2606729074908634,
                -0.4832432233515154,
                2.891713456183722
            ]
        },
        {
            "positions": [
                2.6689529632865487,
                -2.1094782915011785,
                -1.6734915833678734,
                -2.3577425169082074,
                -0.4773800718236469,
                3.0247269803271717
            ]
        },
        {
            "positions": [
                2.660215391009368,
                -2.1865161559874493,
                -1.6502310811286227,
                -2.454812126325552,
                -0.4715169202957784,
                3.1577405044706213
            ]
        }
    ]
}