{
    "goal": {
        "global_pose": {
            "orientation": {
                "w": 0.5084816217422485,
                "x": -0.49083608388900757,
                "y": 0.5182115435600281,
                "z": -0.4816462993621826
            },
            "position": {
                "x": 0.5540239810943604,
                "y": 0.030875300988554955,
                "z": 0.16403168439865112
            }
        },
        "name": "move_to_storage_A"
    },
    "id": "KPIECE_move_to_storage_A_116",
    "joint_names": [
        "shoulder_pan_joint",
        "shoulder_lift_joint",
        "elbow_joint",
        "wrist_1_joint",
        "wrist_2_joint",
        "wrist_3_joint"
    ],
    "metrics": {
        "cart_traj_len": 0.35225074600378686,
        "distance_elbow_joint": 0.44852019690218103,
        "distance_shoulder_lift_joint": 0.2335744426066002,
        "distance_shoulder_pan_joint": 0.45858724668089534,
        "distance_wrist_1_joint": 0.239669754402151,
        "distance_wrist_2_joint": 1.1053215741220186,
        "distance_wrist_3_joint": 0.10333727114112845,
        "smoothness": 1.1102230263833737e-15,
        "time": 0.088859245,
        "traj_len": 1.6090402374878556,
        "weighted_distance": 2.0348651937318603
    },
    "planner": "KPIECE",
    "start": {
        "state": {
            "elbow_joint": 1.9715463870305268,
            "shoulder_lift_joint": -1.1394903361783484,
            "shoulder_pan_joint": 0.12281147578464417,
            "wrist_1_joint": -0.7804599489681411,
            "wrist_2_joint": 0.12958660307563738,
            "wrist_3_joint": -3.1924946282119055
        }
    },
    "waypoints": [
        {
            "positions": [
                0.12281147578464417,
                -1.1394903361783484,
                1.9715463870305268,
                -0.7804599489681411,
                0.12958660307563738,
                -3.1924946282119055
            ]
        },
        {
            "positions": [
                0.057299011973087705,
                -1.172858113693577,
                2.0356207008736953,
                -0.8146984853113055,
                0.2874896850930686,
                -3.17773216090603
            ]
        },
        {
            "positions": [
                -0.008213451838468763,
                -1.2062258912088055,
                2.0996950147168643,
                -0.8489370216544699,
                0.4453927671104998,
                -3.1629696936001546
            ]
        },
        {
            "positions": [
                -0.07372591565002524,
                -1.239593668724034,
                2.163769328560033,
                -0.8831755579976344,
                0.603295849127931,
                -3.148207226294279
            ]
        },
        {
            "positions": [
                -0.13923837946158168,
                -1.2729614462392629,
                2.2278436424032018,
                -0.9174140943407988,
                0.7611989311453623,
                -3.1334447589884036
            ]
        },
        {
            "positions": [
                -0.2047508432731382,
                -1.3063292237544915,
                2.2919179562463703,
                -0.9516526306839632,
                0.9191020131627936,
                -3.118682291682528
            ]
        },
        {
            "positions": [
                -0.27026330708469465,
                -1.33969700126972,
                2.355992270089539,
                -0.9858911670271276,
                1.0770050951802246,
                -3.1039198243766526
            ]
        },
        {
            "positions": [
                -0.33577577089625116,
                -1.3730647787849486,
                2.420066583932708,
                -1.020129703370292,
                1.234908177197656,
                -3.089157357070777
            ]
        }
    ]
}