{
    "goal": {
        "global_pose": {
            "orientation": {
                "w": 0.7031023502349854,
                "x": -0.7110244035720825,
                "y": 0.007748599164187908,
                "z": 0.005598929710686207
            },
            "position": {
                "x": 0.11585023208521307,
                "y": 0.44412534475326537,
                "z": 0.3711530566215515
            }
        },
        "name": "move_to_auspresseinheit_A"
    },
    "id": "KPIECE_move_to_auspresseinheit_A_72",
    "joint_names": [
        "shoulder_pan_joint",
        "shoulder_lift_joint",
        "elbow_joint",
        "wrist_1_joint",
        "wrist_2_joint",
        "wrist_3_joint"
    ],
    "metrics": {
        "cart_traj_len": 0.7148224839884689,
        "distance_elbow_joint": 0.07747448976607352,
        "distance_shoulder_lift_joint": 0.5532555477623378,
        "distance_shoulder_pan_joint": 1.0414063739431916,
        "distance_wrist_1_joint": 0.574490059267327,
        "distance_wrist_2_joint": 0.5362711292685137,
        "distance_wrist_3_joint": 0.5313665854217824,
        "smoothness": 0.4591853505065721,
        "time": 0.6823188410000001,
        "traj_len": 1.8205120668178023,
        "weighted_distance": 2.3425965390584507
    },
    "planner": "KPIECE",
    "start": {
        "state": {
            "elbow_joint": 2.422574709923281,
            "shoulder_lift_joint": -1.3736533754116391,
            "shoulder_pan_joint": -0.33786336945926293,
            "wrist_1_joint": -1.0288603412921917,
            "wrist_2_joint": 1.2330224858903978,
            "wrist_3_joint": -3.094022268022082
        }
    },
    "waypoints": [
        {
            "positions": [
                -0.33786336945926293,
                -1.3736533754116391,
                2.422574709923281,
                -1.0288603412921917,
                1.2330224858903978,
                -3.094022268022082
            ]
        },
        {
            "positions": [
                -0.33160620730899093,
                -1.3678117205251328,
                2.394905846503887,
                -0.9827836645495297,
                1.1927303243378962,
                -2.9723446920404792
            ]
        },
        {
            "positions": [
                -0.325349045158719,
                -1.3619700656386264,
                2.3672369830844935,
                -0.9367069878068677,
                1.1524381627853946,
                -2.8506671160588763
            ]
        },
        {
            "positions": [
                -0.19673753895338802,
                -1.429666595387292,
                2.370004078450404,
                -0.8764148995841173,
                1.0954773120149557,
                -2.886668545241198
            ]
        },
        {
            "positions": [
                -0.06812603274805706,
                -1.4973631251359576,
                2.372771173816315,
                -0.816122811361367,
                1.038516461244517,
                -2.9226699744235205
            ]
        },
        {
            "positions": [
                0.0604854734572739,
                -1.5650596548846234,
                2.3755382691822255,
                -0.7558307231386165,
                0.9815556104740781,
                -2.958671403605843
            ]
        },
        {
            "positions": [
                0.18909697966260486,
                -1.632756184633289,
                2.3783053645481367,
                -0.6955386349158662,
                0.9245947597036392,
                -2.9946728327881647
            ]
        },
        {
            "positions": [
                0.3177084858679359,
                -1.7004527143819546,
                2.3810724599140474,
                -0.6352465466931159,
                0.8676339089332005,
                -3.0306742619704865
            ]
        },
        {
            "positions": [
                0.4463199920732668,
                -1.7681492441306204,
                2.383839555279958,
                -0.5749544584703655,
                0.8106730581627617,
                -3.066675691152809
            ]
        },
        {
            "positions": [
                0.5749314982785977,
                -1.835845773879286,
                2.3866066506458687,
                -0.5146623702476152,
                0.7537122073923228,
                -3.102677120335131
            ]
        },
        {
            "positions": [
                0.7035430044839287,
                -1.9035423036279515,
                2.3893737460117794,
                -0.4543702820248648,
                0.696751356621884,
                -3.138678549517453
            ]
        }
    ]
}