{
    "goal": {
        "global_pose": {
            "orientation": {
                "w": -0.00223480608172531,
                "x": 0.0024358444001904467,
                "y": 0.7094548369677653,
                "z": -0.704743149386269
            },
            "position": {
                "x": 0.6205249238014221,
                "y": -0.6371506643295288,
                "z": 0.19426114857196808
            }
        },
        "name": "move_to_magneteinheit_B"
    },
    "id": "KPIECE_move_to_magneteinheit_B_102",
    "joint_names": [
        "shoulder_pan_joint",
        "shoulder_lift_joint",
        "elbow_joint",
        "wrist_1_joint",
        "wrist_2_joint",
        "wrist_3_joint"
    ],
    "metrics": {
        "cart_traj_len": 1.4529921318172077,
        "distance_elbow_joint": 0.7253438296486252,
        "distance_shoulder_lift_joint": 1.2459004111837944,
        "distance_shoulder_pan_joint": 1.6214473636341777,
        "distance_wrist_1_joint": 2.6165164906289036,
        "distance_wrist_2_joint": 2.940112653920746,
        "distance_wrist_3_joint": 3.151261708633235,
        "smoothness": 3.498884703780888e-16,
        "time": 0.093049874,
        "traj_len": 3.507218621307985,
        "weighted_distance": 4.915255336141307
    },
    "planner": "KPIECE",
    "start": {
        "state": {
            "elbow_joint": 2.39358713078474,
            "shoulder_lift_joint": -1.908514104345545,
            "shoulder_pan_joint": 0.7066247066606129,
            "wrist_1_joint": -0.4678290933515497,
            "wrist_2_joint": 0.7096259083745334,
            "wrist_3_joint": -3.1358149277392293
        }
    },
    "waypoints": [
        {
            "positions": [
                0.7066247066606129,
                -1.908514104345545,
                2.39358713078474,
                -0.4678290933515497,
                0.7096259083745334,
                -3.1358149277392293
            ]
        },
        {
            "positions": [
                0.6559544765470449,
                -1.8695797164960513,
                2.3709201361082206,
                -0.38606295301939647,
                0.6177473879395101,
                -3.037337999344441
            ]
        },
        {
            "positions": [
                0.6052842464334769,
                -1.8306453286465578,
                2.348253141431701,
                -0.30429681268724323,
                0.5258688675044868,
                -2.938861070949652
            ]
        },
        {
            "positions": [
                0.5546140163199088,
                -1.7917109407970642,
                2.3255861467551813,
                -0.22253067235509,
                0.4339903470694635,
                -2.8403841425548637
            ]
        },
        {
            "positions": [
                0.5039437862063407,
                -1.7527765529475707,
                2.302919152078662,
                -0.14076453202293676,
                0.3421118266344402,
                -2.741907214160075
            ]
        },
        {
            "positions": [
                0.45327355609277264,
                -1.713842165098077,
                2.2802521574021424,
                -0.058998391690783525,
                0.25023330619941686,
                -2.6434302857652865
            ]
        },
        {
            "positions": [
                0.4026033259792046,
                -1.6749077772485834,
                2.257585162725623,
                0.02276774864136971,
                0.15835478576439355,
                -2.5449533573704977
            ]
        },
        {
            "positions": [
                0.3519330958656366,
                -1.6359733893990898,
                2.2349181680491035,
                0.10453388897352295,
                0.06647626532937023,
                -2.4464764289757093
            ]
        },
        {
            "positions": [
                0.3012628657520685,
                -1.5970390015495963,
                2.2122511733725836,
                0.18630002930567618,
                -0.025402255105653082,
                -2.3479995005809204
            ]
        },
        {
            "positions": [
                0.2505926356385004,
                -1.558104613700103,
                2.189584178696064,
                0.2680661696378294,
                -0.1172807755406764,
                -2.249522572186132
            ]
        },
        {
            "positions": [
                0.19992240552493235,
                -1.5191702258506092,
                2.1669171840195447,
                0.34983230996998266,
                -0.2091592959756997,
                -2.151045643791343
            ]
        },
        {
            "positions": [
                0.14925217541136437,
                -1.4802358380011156,
                2.1442501893430252,
                0.4315984503021359,
                -0.3010378164107229,
                -2.052568715396555
            ]
        },
        {
            "positions": [
                0.09858194529779629,
                -1.441301450151622,
                2.1215831946665054,
                0.5133645906342892,
                -0.39291633684574634,
                -1.9540917870017662
            ]
        },
        {
            "positions": [
                0.04791171518422821,
                -1.4023670623021285,
                2.098916199989986,
                0.5951307309664424,
                -0.48479485728076976,
                -1.8556148586069776
            ]
        },
        {
            "positions": [
                -0.0027585149293397615,
                -1.3634326744526348,
                2.0762492053134665,
                0.6768968712985957,
                -0.576673377715793,
                -1.757137930212189
            ]
        },
        {
            "positions": [
                -0.053428745042907844,
                -1.3244982866031414,
                2.053582210636947,
                0.7586630116307489,
                -0.6685518981508162,
                -1.6586610018174004
            ]
        },
        {
            "positions": [
                -0.10409897515647593,
                -1.2855638987536477,
                2.0309152159604276,
                0.8404291519629021,
                -0.7604304185858396,
                -1.5601840734226118
            ]
        },
        {
            "positions": [
                -0.154769205270044,
                -1.246629510904154,
                2.0082482212839077,
                0.9221952922950554,
                -0.852308939020863,
                -1.4617071450278232
            ]
        },
        {
            "positions": [
                -0.2054394353836121,
                -1.2076951230546606,
                1.9855812266073884,
                1.0039614326272086,
                -0.9441874594558862,
                -1.3632302166330346
            ]
        },
        {
            "positions": [
                -0.25610966549718006,
                -1.168760735205167,
                1.9629142319308688,
                1.0857275729593618,
                -1.0360659798909095,
                -1.264753288238246
            ]
        },
        {
            "positions": [
                -0.30677989561074825,
                -1.1298263473556736,
                1.9402472372543493,
                1.167493713291515,
                -1.127944500325933,
                -1.1662763598434573
            ]
        },
        {
            "positions": [
                -0.3574501257243162,
                -1.09089195950618,
                1.9175802425778299,
                1.2492598536236683,
                -1.2198230207609564,
                -1.0677994314486687
            ]
        },
        {
            "positions": [
                -0.4081203558378842,
                -1.0519575716566862,
                1.8949132479013102,
                1.3310259939558216,
                -1.3117015411959794,
                -0.9693225030538803
            ]
        },
        {
            "positions": [
                -0.4587905859514524,
                -1.0130231838071926,
                1.8722462532247905,
                1.4127921342879748,
                -1.4035800616310028,
                -0.8708455746590915
            ]
        },
        {
            "positions": [
                -0.5094608160650204,
                -0.9740887959576991,
                1.849579258548271,
                1.494558274620128,
                -1.4954585820660262,
                -0.7723686462643031
            ]
        },
        {
            "positions": [
                -0.5601310461785883,
                -0.9351544081082056,
                1.8269122638717517,
                1.576324414952281,
                -1.5873371025010496,
                -0.6738917178695143
            ]
        },
        {
            "positions": [
                -0.6108012762921565,
                -0.8962200202587121,
                1.8042452691952322,
                1.6580905552844345,
                -1.679215622936073,
                -0.5754147894747259
            ]
        },
        {
            "positions": [
                -0.6614715064057245,
                -0.8572856324092184,
                1.7815782745187125,
                1.739856695616588,
                -1.771094143371096,
                -0.4769378610799371
            ]
        },
        {
            "positions": [
                -0.7121417365192925,
                -0.8183512445597247,
                1.7589112798421929,
                1.821622835948741,
                -1.8629726638061195,
                -0.3784609326851487
            ]
        },
        {
            "positions": [
                -0.7628119666328607,
                -0.7794168567102313,
                1.7362442851656734,
                1.903388976280894,
                -1.954851184241143,
                -0.27998400429035986
            ]
        },
        {
            "positions": [
                -0.8134821967464286,
                -0.7404824688607377,
                1.713577290489154,
                1.9851551166130474,
                -2.046729704676166,
                -0.18150707589557147
            ]
        },
        {
            "positions": [
                -0.8641524268599968,
                -0.7015480810112442,
                1.6909102958126345,
                2.066921256945201,
                -2.1386082251111893,
                -0.08303014750078264
            ]
        },
        {
            "positions": [
                -0.9148226569735648,
                -0.6626136931617507,
                1.6682433011361149,
                2.148687397277354,
                -2.2304867455462127,
                0.015446780894005582
            ]
        }
    ]
}