{
    "goal": {
        "global_pose": {
            "orientation": {
                "w": 0.7031023502349854,
                "x": -0.7110244035720825,
                "y": 0.007748599164187908,
                "z": 0.005598929710686207
            },
            "position": {
                "x": 0.11585023208521307,
                "y": 0.44412534475326537,
                "z": 0.3711530566215515
            }
        },
        "name": "move_to_auspresseinheit_A"
    },
    "id": "KPIECE_move_to_auspresseinheit_A_22",
    "joint_names": [
        "shoulder_pan_joint",
        "shoulder_lift_joint",
        "elbow_joint",
        "wrist_1_joint",
        "wrist_2_joint",
        "wrist_3_joint"
    ],
    "metrics": {
        "cart_traj_len": 2.0600619460716527,
        "distance_elbow_joint": 1.5383515313388152,
        "distance_shoulder_lift_joint": 0.7994419324849285,
        "distance_shoulder_pan_joint": 2.6709967677084876,
        "distance_wrist_1_joint": 3.572818052329933,
        "distance_wrist_2_joint": 1.3071862030878814,
        "distance_wrist_3_joint": 7.356075930577269,
        "smoothness": 0.730098919223603,
        "time": 0.475260364,
        "traj_len": 4.1526943563820495,
        "weighted_distance": 6.069351409673005
    },
    "planner": "KPIECE",
    "start": {
        "state": {
            "elbow_joint": 2.422574709923281,
            "shoulder_lift_joint": -1.3736533754116391,
            "shoulder_pan_joint": -0.33786336945926293,
            "wrist_1_joint": -1.0288603412921917,
            "wrist_2_joint": 1.2330224858903978,
            "wrist_3_joint": -3.094022268022082
        }
    },
    "waypoints": [
        {
            "positions": [
                -0.33786336945926293,
                -1.3736533754116391,
                2.422574709923281,
                -1.0288603412921917,
                1.2330224858903978,
                -3.094022268022082
            ]
        },
        {
            "positions": [
                -0.28612684413142825,
                -1.414668662962743,
                2.3664903872482133,
                -0.9343011477033462,
                1.1823913552196585,
                -3.0167891073305073
            ]
        },
        {
            "positions": [
                -0.2343903188035936,
                -1.4556839505138468,
                2.310406064573146,
                -0.8397419541145007,
                1.1317602245489191,
                -2.939555946638932
            ]
        },
        {
            "positions": [
                -0.1826537934757589,
                -1.4966992380649506,
                2.254321741898078,
                -0.7451827605256551,
                1.08112909387818,
                -2.8623227859473572
            ]
        },
        {
            "positions": [
                -0.13091726814792426,
                -1.5377145256160545,
                2.1982374192230107,
                -0.6506235669368097,
                1.0304979632074405,
                -2.785089625255782
            ]
        },
        {
            "positions": [
                -0.07918074282008958,
                -1.5787298131671583,
                2.142153096547943,
                -0.556064373347964,
                0.9798668325367013,
                -2.707856464564207
            ]
        },
        {
            "positions": [
                -0.027444217492254896,
                -1.6197451007182622,
                2.0860687738728756,
                -0.46150517975911853,
                0.9292357018659619,
                -2.630623303872632
            ]
        },
        {
            "positions": [
                0.024292307835579785,
                -1.660760388269366,
                2.029984451197808,
                -0.36694598617027296,
                0.8786045711952226,
                -2.553390143181057
            ]
        },
        {
            "positions": [
                0.07602883316341441,
                -1.7017756758204698,
                1.9739001285227402,
                -0.2723867925814275,
                0.8279734405244834,
                -2.4761569824894822
            ]
        },
        {
            "positions": [
                0.12776535849124915,
                -1.7427909633715737,
                1.9178158058476726,
                -0.17782759899258183,
                0.777342309853744,
                -2.398923821797907
            ]
        },
        {
            "positions": [
                0.17950188381908377,
                -1.7838062509226775,
                1.8617314831726048,
                -0.08326840540373637,
                0.7267111791830047,
                -2.321690661106332
            ]
        },
        {
            "positions": [
                0.23123840914691846,
                -1.8248215384737814,
                1.8056471604975375,
                0.011290788185109202,
                0.6760800485122654,
                -2.244457500414757
            ]
        },
        {
            "positions": [
                0.28297493447475314,
                -1.8658368260248852,
                1.7495628378224697,
                0.10584998177395466,
                0.6254489178415261,
                -2.167224339723182
            ]
        },
        {
            "positions": [
                0.3347114598025878,
                -1.906852113575989,
                1.693478515147402,
                0.20040917536280034,
                0.5748177871707868,
                -2.089991179031607
            ]
        },
        {
            "positions": [
                0.3864479851304225,
                -1.947867401127093,
                1.6373941924723345,
                0.29496836895164574,
                0.5241866565000475,
                -2.012758018340032
            ]
        },
        {
            "positions": [
                0.4737343347270979,
                -1.9550142095006477,
                1.6627086914847764,
                0.3526819678752764,
                0.5086193074174795,
                -1.8148625275959682
            ]
        },
        {
            "positions": [
                0.5610206843237734,
                -1.9621610178742024,
                1.688023190497218,
                0.410395566798907,
                0.49305195833491144,
                -1.6169670368519045
            ]
        },
        {
            "positions": [
                0.6483070339204489,
                -1.9693078262477572,
                1.71333768950966,
                0.46810916572253763,
                0.4774846092523435,
                -1.4190715461078405
            ]
        },
        {
            "positions": [
                0.7355933835171242,
                -1.9764546346213119,
                1.7386521885221018,
                0.5258227646461683,
                0.46191726016977547,
                -1.221176055363777
            ]
        },
        {
            "positions": [
                0.8228797331137997,
                -1.9836014429948667,
                1.7639666875345434,
                0.5835363635697989,
                0.44634991108720745,
                -1.023280564619713
            ]
        },
        {
            "positions": [
                0.9101660827104752,
                -1.9907482513684214,
                1.7892811865469853,
                0.6412499624934296,
                0.43078256200463944,
                -0.8253850738756492
            ]
        },
        {
            "positions": [
                0.9974524323071505,
                -1.9978950597419762,
                1.8145956855594272,
                0.6989635614170602,
                0.4152152129220715,
                -0.6274895831315856
            ]
        },
        {
            "positions": [
                1.0847387819038259,
                -2.005041868115531,
                1.839910184571869,
                0.7566771603406908,
                0.39964786383950346,
                -0.42959409238752166
            ]
        },
        {
            "positions": [
                1.1720251315005012,
                -2.0121886764890857,
                1.8652246835843107,
                0.8143907592643214,
                0.38408051475693544,
                -0.23169860164345812
            ]
        },
        {
            "positions": [
                1.2593114810971768,
                -2.0193354848626406,
                1.8905391825967526,
                0.872104358187952,
                0.3685131656743674,
                -0.03380311089939414
            ]
        },
        {
            "positions": [
                1.3465978306938522,
                -2.026482293236195,
                1.9158536816091942,
                0.9298179571115825,
                0.35294581659179947,
                0.16409237984466962
            ]
        },
        {
            "positions": [
                1.4338841802905278,
                -2.03362910160975,
                1.941168180621636,
                0.9875315560352134,
                0.3373784675092314,
                0.3619878705887336
            ]
        },
        {
            "positions": [
                1.5211705298872031,
                -2.0407759099833047,
                1.966482679634078,
                1.045245154958844,
                0.32181111842666343,
                0.5598833613327971
            ]
        },
        {
            "positions": [
                1.4760614816448687,
                -2.0334248323214568,
                1.9900428200077516,
                0.9619833462877941,
                0.3438097204057827,
                0.3542072334871086
            ]
        },
        {
            "positions": [
                1.430952433402534,
                -2.026073754659609,
                2.013602960381425,
                0.8787215376167443,
                0.36580832238490196,
                0.14853110564142008
            ]
        },
        {
            "positions": [
                1.3858433851601997,
                -2.018722676997761,
                2.037163100755099,
                0.7954597289456944,
                0.3878069243640212,
                -0.057145022204268425
            ]
        },
        {
            "positions": [
                1.340734336917865,
                -2.011371599335913,
                2.0607232411287724,
                0.7121979202746447,
                0.4098055263431405,
                -0.262821150049957
            ]
        },
        {
            "positions": [
                1.2956252886755306,
                -2.004020521674065,
                2.084283381502446,
                0.6289361116035947,
                0.4318041283222598,
                -0.46849727789564555
            ]
        },
        {
            "positions": [
                1.2505162404331962,
                -1.996669444012217,
                2.1078435218761196,
                0.5456743029325449,
                0.453802730301379,
                -0.674173405741334
            ]
        },
        {
            "positions": [
                1.2054071921908616,
                -1.989318366350369,
                2.1314036622497934,
                0.462412494261495,
                0.4758013322804983,
                -0.8798495335870227
            ]
        },
        {
            "positions": [
                1.1602981439485271,
                -1.9819672886885211,
                2.1549638026234668,
                0.3791506855904453,
                0.49779993425961755,
                -1.0855256614327111
            ]
        },
        {
            "positions": [
                1.1151890957061927,
                -1.9746162110266732,
                2.1785239429971406,
                0.29588887691939536,
                0.5197985362387368,
                -1.2912017892783998
            ]
        },
        {
            "positions": [
                1.070080047463858,
                -1.9672651333648254,
                2.2020840833708144,
                0.21262706824834543,
                0.5417971382178561,
                -1.4968779171240882
            ]
        },
        {
            "positions": [
                1.0249709992215235,
                -1.9599140557029775,
                2.225644223744488,
                0.1293652595772956,
                0.5637957401969754,
                -1.702554044969777
            ]
        },
        {
            "positions": [
                0.9798619509791892,
                -1.9525629780411295,
                2.2492043641181616,
                0.0461034509062459,
                0.5857943421760946,
                -1.9082301728154651
            ]
        },
        {
            "positions": [
                0.9347529027368546,
                -1.9452119003792816,
                2.272764504491835,
                -0.03715835776480403,
                0.6077929441552139,
                -2.113906300661154
            ]
        },
        {
            "positions": [
                0.8896438544945201,
                -1.9378608227174337,
                2.296324644865509,
                -0.12042016643585396,
                0.6297915461343332,
                -2.3195824285068425
            ]
        },
        {
            "positions": [
                0.8445348062521856,
                -1.9305097450555857,
                2.319884785239182,
                -0.20368197510690367,
                0.6517901481134525,
                -2.525258556352531
            ]
        },
        {
            "positions": [
                0.7994257580098512,
                -1.9231586673937378,
                2.343444925612856,
                -0.2869437837779534,
                0.6737887500925717,
                -2.7309346841982194
            ]
        },
        {
            "positions": [
                0.7543167097675166,
                -1.9158075897318898,
                2.3670050659865294,
                -0.3702055924490033,
                0.695787352071691,
                -2.936610812043908
            ]
        },
        {
            "positions": [
                0.7092076615251821,
                -1.9084565120700419,
                2.390565206360203,
                -0.45346740112005324,
                0.7177859540508102,
                -3.1422869398895967
            ]
        }
    ]
}