{
    "goal": {
        "global_pose": {
            "orientation": {
                "w": 0.5084816217422485,
                "x": -0.49083608388900757,
                "y": 0.5182115435600281,
                "z": -0.4816462993621826
            },
            "position": {
                "x": 0.5540239810943604,
                "y": 0.030875300988554955,
                "z": 0.16403168439865112
            }
        },
        "name": "move_to_storage_A"
    },
    "id": "KPIECE_move_to_storage_A_38",
    "joint_names": [
        "shoulder_pan_joint",
        "shoulder_lift_joint",
        "elbow_joint",
        "wrist_1_joint",
        "wrist_2_joint",
        "wrist_3_joint"
    ],
    "metrics": {
        "cart_traj_len": 0.3524629212680865,
        "distance_elbow_joint": 0.4490631635342788,
        "distance_shoulder_lift_joint": 0.23372238140304868,
        "distance_shoulder_pan_joint": 0.460554424731399,
        "distance_wrist_1_joint": 0.24601807032977419,
        "distance_wrist_2_joint": 1.0981100029660071,
        "distance_wrist_3_joint": 0.10092416515959446,
        "smoothness": 1.5543122185068514e-15,
        "time": 0.08841843799999999,
        "traj_len": 1.6088480997670669,
        "weighted_distance": 2.0333146858612596
    },
    "planner": "KPIECE",
    "start": {
        "state": {
            "elbow_joint": 1.9715463870305268,
            "shoulder_lift_joint": -1.1394903361783484,
            "shoulder_pan_joint": 0.12281147578464417,
            "wrist_1_joint": -0.7804599489681411,
            "wrist_2_joint": 0.12958660307563738,
            "wrist_3_joint": -3.1924946282119055
        }
    },
    "waypoints": [
        {
            "positions": [
                0.12281147578464417,
                -1.1394903361783484,
                1.9715463870305268,
                -0.7804599489681411,
                0.12958660307563738,
                -3.1924946282119055
            ]
        },
        {
            "positions": [
                0.05701798653730146,
                -1.1728792478073553,
                2.0356982675354236,
                -0.8156053875866802,
                0.28645946064220984,
                -3.1780768903319636
            ]
        },
        {
            "positions": [
                -0.008775502710041252,
                -1.2062681594363622,
                2.099850148040321,
                -0.8507508262052195,
                0.44333231820878227,
                -3.1636591524520212
            ]
        },
        {
            "positions": [
                -0.07456899195738396,
                -1.2396570710653692,
                2.1640020285452177,
                -0.8858962648237586,
                0.6002051757753547,
                -3.1492414145720793
            ]
        },
        {
            "positions": [
                -0.14036248120472666,
                -1.2730459826943763,
                2.2281539090501146,
                -0.9210417034422977,
                0.7570780333419271,
                -3.1348236766921374
            ]
        },
        {
            "positions": [
                -0.2061559704520694,
                -1.3064348943233832,
                2.2923057895550114,
                -0.956187142060837,
                0.9139508909084997,
                -3.1204059388121954
            ]
        },
        {
            "positions": [
                -0.2719494596994121,
                -1.3398238059523901,
                2.3564576700599087,
                -0.991332580679376,
                1.070823748475072,
                -3.105988200932253
            ]
        },
        {
            "positions": [
                -0.33774294894675483,
                -1.373212717581397,
                2.4206095505648055,
                -1.0264780192979153,
                1.2276966060416445,
                -3.091570463052311
            ]
        }
    ]
}