{
    "goal": {
        "global_pose": {
            "orientation": {
                "w": 0.5084816217422485,
                "x": -0.49083608388900757,
                "y": 0.5182115435600281,
                "z": -0.4816462993621826
            },
            "position": {
                "x": 0.5540239810943604,
                "y": 0.030875300988554955,
                "z": 0.16403168439865112
            }
        },
        "name": "move_to_storage_A"
    },
    "id": "KPIECE_move_to_storage_A_85",
    "joint_names": [
        "shoulder_pan_joint",
        "shoulder_lift_joint",
        "elbow_joint",
        "wrist_1_joint",
        "wrist_2_joint",
        "wrist_3_joint"
    ],
    "metrics": {
        "cart_traj_len": 0.35324183177700597,
        "distance_elbow_joint": 0.4486075280940134,
        "distance_shoulder_lift_joint": 0.23395072559688934,
        "distance_shoulder_pan_joint": 0.4604103369214621,
        "distance_wrist_1_joint": 0.23792260827056355,
        "distance_wrist_2_joint": 1.105247068726634,
        "distance_wrist_3_joint": 0.09857945384713673,
        "smoothness": 4.440892098500626e-16,
        "time": 0.06594091199999999,
        "traj_len": 1.6077057322335762,
        "weighted_distance": 2.031021000912637
    },
    "planner": "KPIECE",
    "start": {
        "state": {
            "elbow_joint": 1.9715463870305268,
            "shoulder_lift_joint": -1.1394903361783484,
            "shoulder_pan_joint": 0.12281147578464417,
            "wrist_1_joint": -0.7804599489681411,
            "wrist_2_joint": 0.12958660307563738,
            "wrist_3_joint": -3.1924946282119055
        }
    },
    "waypoints": [
        {
            "positions": [
                0.12281147578464417,
                -1.1394903361783484,
                1.9715463870305268,
                -0.7804599489681411,
                0.12958660307563738,
                -3.1924946282119055
            ]
        },
        {
            "positions": [
                0.057038570510149586,
                -1.1729118684064754,
                2.035633176758243,
                -0.814448893006793,
                0.2874790414651565,
                -3.178411849090886
            ]
        },
        {
            "positions": [
                -0.008734334764345,
                -1.2063334006346025,
                2.099719966485959,
                -0.848437837045445,
                0.4453714798546756,
                -3.1643290699698663
            ]
        },
        {
            "positions": [
                -0.07450724003883959,
                -1.2397549328627295,
                2.1638067562136754,
                -0.8824267810840969,
                0.6032639182441948,
                -3.150246290848847
            ]
        },
        {
            "positions": [
                -0.14028014531333416,
                -1.2731764650908566,
                2.2278935459413916,
                -0.9164157251227488,
                0.761156356633714,
                -3.1361635117278275
            ]
        },
        {
            "positions": [
                -0.20605305058782875,
                -1.3065979973189836,
                2.2919803356691077,
                -0.9504046691614008,
                0.9190487950232331,
                -3.122080732606808
            ]
        },
        {
            "positions": [
                -0.27182595586232333,
                -1.3400195295471107,
                2.356067125396824,
                -0.9843936132000527,
                1.0769412334127522,
                -3.1079979534857882
            ]
        },
        {
            "positions": [
                -0.3375988611368179,
                -1.3734410617752377,
                2.42015391512454,
                -1.0183825572387046,
                1.2348336718022714,
                -3.093915174364769
            ]
        }
    ]
}