{
    "goal": {
        "global_pose": {
            "orientation": {
                "w": 0.7031023502349854,
                "x": -0.7110244035720825,
                "y": 0.007748599164187908,
                "z": 0.005598929710686207
            },
            "position": {
                "x": 0.11585023208521307,
                "y": 0.44412534475326537,
                "z": 0.3711530566215515
            }
        },
        "name": "move_to_auspresseinheit_A"
    },
    "id": "KPIECE_move_to_auspresseinheit_A_112",
    "joint_names": [
        "shoulder_pan_joint",
        "shoulder_lift_joint",
        "elbow_joint",
        "wrist_1_joint",
        "wrist_2_joint",
        "wrist_3_joint"
    ],
    "metrics": {
        "cart_traj_len": 2.6328341518705987,
        "distance_elbow_joint": 3.3534230409977916,
        "distance_shoulder_lift_joint": 0.885083819315708,
        "distance_shoulder_pan_joint": 2.2395983425993276,
        "distance_wrist_1_joint": 1.2622933712924187,
        "distance_wrist_2_joint": 2.1761804536753235,
        "distance_wrist_3_joint": 4.311918254500549,
        "smoothness": 0.4915789152760796,
        "time": 0.830236813,
        "traj_len": 3.7720680378780442,
        "weighted_distance": 5.127456252017169
    },
    "planner": "KPIECE",
    "start": {
        "state": {
            "elbow_joint": 2.422574709923281,
            "shoulder_lift_joint": -1.3736533754116391,
            "shoulder_pan_joint": -0.33786336945926293,
            "wrist_1_joint": -1.0288603412921917,
            "wrist_2_joint": 1.2330224858903978,
            "wrist_3_joint": -3.094022268022082
        }
    },
    "waypoints": [
        {
            "positions": [
                -0.33786336945926293,
                -1.3736533754116391,
                2.422574709923281,
                -1.0288603412921917,
                1.2330224858903978,
                -3.094022268022082
            ]
        },
        {
            "positions": [
                -0.27783826134829664,
                -1.3703628129049517,
                2.3098348891004754,
                -1.0101761635406377,
                1.165954466632787,
                -2.9697496688310885
            ]
        },
        {
            "positions": [
                -0.21781315323733036,
                -1.3670722503982644,
                2.1970950682776693,
                -0.9914919857890836,
                1.0988864473751763,
                -2.845477069640095
            ]
        },
        {
            "positions": [
                -0.15778804512636407,
                -1.363781687891577,
                2.0843552474548632,
                -0.9728078080375295,
                1.0318184281175655,
                -2.721204470449101
            ]
        },
        {
            "positions": [
                -0.09776293701539782,
                -1.3604911253848895,
                1.9716154266320576,
                -0.9541236302859755,
                0.9647504088599548,
                -2.5969318712581075
            ]
        },
        {
            "positions": [
                -0.03773782890443156,
                -1.357200562878202,
                1.858875605809252,
                -0.9354394525344214,
                0.8976823896023441,
                -2.472659272067114
            ]
        },
        {
            "positions": [
                0.022287279206534782,
                -1.3539100003715148,
                1.7461357849864458,
                -0.9167552747828673,
                0.8306143703447333,
                -2.3483866728761202
            ]
        },
        {
            "positions": [
                0.08231238731750101,
                -1.3506194378648273,
                1.6333959641636402,
                -0.8980710970313133,
                0.7635463510871227,
                -2.2241140736851266
            ]
        },
        {
            "positions": [
                0.1423374954284673,
                -1.3473288753581398,
                1.520656143340834,
                -0.8793869192797592,
                0.6964783318295119,
                -2.099841474494133
            ]
        },
        {
            "positions": [
                0.20236260353943353,
                -1.3440383128514524,
                1.4079163225180285,
                -0.8607027415282051,
                0.6294103125719012,
                -1.9755688753031393
            ]
        },
        {
            "positions": [
                0.2623877116503998,
                -1.3407477503447651,
                1.2951765016952226,
                -0.8420185637766511,
                0.5623422933142905,
                -1.8512962761121456
            ]
        },
        {
            "positions": [
                0.3224128197613661,
                -1.3374571878380777,
                1.1824366808724167,
                -0.823334386025097,
                0.4952742740566798,
                -1.727023676921152
            ]
        },
        {
            "positions": [
                0.3824379278723325,
                -1.3341666253313902,
                1.0696968600496106,
                -0.8046502082735428,
                0.42820625479906893,
                -1.6027510777301583
            ]
        },
        {
            "positions": [
                0.44246303598329867,
                -1.3308760628247027,
                0.956957039226805,
                -0.7859660305219888,
                0.3611382355414582,
                -1.4784784785391647
            ]
        },
        {
            "positions": [
                0.502488144094265,
                -1.3275855003180155,
                0.8442172184039991,
                -0.7672818527704347,
                0.29407021628384755,
                -1.354205879348171
            ]
        },
        {
            "positions": [
                0.5625132522052312,
                -1.324294937811328,
                0.7314773975811931,
                -0.7485976750188806,
                0.22700219702623692,
                -1.2299332801571774
            ]
        },
        {
            "positions": [
                0.6863917695307008,
                -1.3518747544749865,
                0.7913725740917802,
                -0.6687772086043894,
                0.1750491555342915,
                -1.1840430862023301
            ]
        },
        {
            "positions": [
                0.8102702868561704,
                -1.3794545711386452,
                0.8512677506023673,
                -0.5889567421898981,
                0.12309611404234613,
                -1.1381528922474826
            ]
        },
        {
            "positions": [
                0.93414880418164,
                -1.407034387802304,
                0.9111629271129544,
                -0.5091362757754068,
                0.07114307255040073,
                -1.0922626982926353
            ]
        },
        {
            "positions": [
                1.0580273215071097,
                -1.4346142044659624,
                0.9710581036235415,
                -0.42931580936091557,
                0.019190031058455348,
                -1.046372504337788
            ]
        },
        {
            "positions": [
                1.1819058388325794,
                -1.462194021129621,
                1.0309532801341286,
                -0.34949534294642426,
                -0.03276301043349006,
                -1.0004823103829406
            ]
        },
        {
            "positions": [
                1.3057843561580489,
                -1.4897738377932797,
                1.0908484566447156,
                -0.269674876531933,
                -0.08471605192543548,
                -0.9545921164280933
            ]
        },
        {
            "positions": [
                1.277077019636667,
                -1.5442661649841294,
                1.2056682845402038,
                -0.25462621667448215,
                -0.0015976430469261393,
                -1.0515497048238889
            ]
        },
        {
            "positions": [
                1.248369683115285,
                -1.5987584921749793,
                1.3204881124356922,
                -0.23957755681703127,
                0.0815207658315832,
                -1.1485072932196847
            ]
        },
        {
            "positions": [
                1.219662346593903,
                -1.653250819365829,
                1.4353079403311804,
                -0.2245288969595804,
                0.16463917471009248,
                -1.2454648816154803
            ]
        },
        {
            "positions": [
                1.190955010072521,
                -1.707743146556679,
                1.5501277682266688,
                -0.20948023710212954,
                0.2477575835886019,
                -1.3424224700112761
            ]
        },
        {
            "positions": [
                1.1622476735511391,
                -1.7622354737475288,
                1.664947596122157,
                -0.19443157724467866,
                0.3308759924671112,
                -1.4393800584070717
            ]
        },
        {
            "positions": [
                1.1335403370297572,
                -1.8167278009383785,
                1.779767424017645,
                -0.17938291738722778,
                0.4139944013456205,
                -1.5363376468028673
            ]
        },
        {
            "positions": [
                1.1048330005083753,
                -1.8712201281292284,
                1.8945872519131335,
                -0.16433425752977693,
                0.49711281022412984,
                -1.6332952351986632
            ]
        },
        {
            "positions": [
                1.0761256639869932,
                -1.9257124553200782,
                2.009407079808622,
                -0.14928559767232605,
                0.5802312191026392,
                -1.730252823594459
            ]
        },
        {
            "positions": [
                1.0474183274656113,
                -1.9802047825109281,
                2.1242269077041103,
                -0.13423693781487517,
                0.6633496279811485,
                -1.8272104119902544
            ]
        },
        {
            "positions": [
                1.0187109909442293,
                -2.034697109701778,
                2.239046735599598,
                -0.11918827795742432,
                0.7464680368596578,
                -1.9241680003860502
            ]
        },
        {
            "positions": [
                0.971674390923355,
                -2.019102536945767,
                2.2676639858786904,
                -0.1700476692952229,
                0.7468437358610248,
                -2.1062081296413497
            ]
        },
        {
            "positions": [
                0.9246377909024805,
                -2.003507964189757,
                2.296281236157783,
                -0.22090706063302146,
                0.747219434862392,
                -2.2882482588966497
            ]
        },
        {
            "positions": [
                0.8776011908816062,
                -1.9879133914337461,
                2.3248984864368754,
                -0.27176645197082006,
                0.747595133863759,
                -2.4702883881519493
            ]
        },
        {
            "positions": [
                0.8356593279552127,
                -1.9682785185445173,
                2.3421246463868806,
                -0.321777235456884,
                0.7410624513461852,
                -2.634486345947625
            ]
        },
        {
            "positions": [
                0.7937174650288193,
                -1.9486436456552885,
                2.359350806336886,
                -0.371788018942948,
                0.7345297688286113,
                -2.7986843037433013
            ]
        },
        {
            "positions": [
                0.751775602102426,
                -1.9290087727660596,
                2.3765769662868914,
                -0.421798802429012,
                0.7279970863110374,
                -2.962882261538977
            ]
        },
        {
            "positions": [
                0.7098337391760325,
                -1.9093738998768308,
                2.3938031262368966,
                -0.471809585915076,
                0.7214644037934637,
                -3.127080219334653
            ]
        }
    ]
}