{
    "goal": {
        "global_pose": {
            "orientation": {
                "w": 0.5084816217422485,
                "x": -0.49083608388900757,
                "y": 0.5182115435600281,
                "z": -0.4816462993621826
            },
            "position": {
                "x": 0.5540239810943604,
                "y": 0.030875300988554955,
                "z": 0.16403168439865112
            }
        },
        "name": "move_to_storage_A"
    },
    "id": "KPIECE_move_to_storage_A_93",
    "joint_names": [
        "shoulder_pan_joint",
        "shoulder_lift_joint",
        "elbow_joint",
        "wrist_1_joint",
        "wrist_2_joint",
        "wrist_3_joint"
    ],
    "metrics": {
        "cart_traj_len": 0.35261821196550364,
        "distance_elbow_joint": 0.45135906584905205,
        "distance_shoulder_lift_joint": 0.23539094985842213,
        "distance_shoulder_pan_joint": 0.4623757816490847,
        "distance_wrist_1_joint": 0.2495074477769249,
        "distance_wrist_2_joint": 1.0928236534600815,
        "distance_wrist_3_joint": 0.10275028218463644,
        "smoothness": 4.440892098500626e-16,
        "time": 0.068293784,
        "traj_len": 1.6106542710272127,
        "weighted_distance": 2.0351999524332935
    },
    "planner": "KPIECE",
    "start": {
        "state": {
            "elbow_joint": 1.9715463870305268,
            "shoulder_lift_joint": -1.1394903361783484,
            "shoulder_pan_joint": 0.12281147578464417,
            "wrist_1_joint": -0.7804599489681411,
            "wrist_2_joint": 0.12958660307563738,
            "wrist_3_joint": -3.1924946282119055
        }
    },
    "waypoints": [
        {
            "positions": [
                0.12281147578464417,
                -1.1394903361783484,
                1.9715463870305268,
                -0.7804599489681411,
                0.12958660307563738,
                -3.1924946282119055
            ]
        },
        {
            "positions": [
                0.05675779269191779,
                -1.1731176147295515,
                2.0360262535803915,
                -0.8161038700791303,
                0.285704267855649,
                -3.177816016471243
            ]
        },
        {
            "positions": [
                -0.009295890400808596,
                -1.2067448932807547,
                2.1005061201302557,
                -0.8517477911901197,
                0.4418219326356606,
                -3.163137404730581
            ]
        },
        {
            "positions": [
                -0.07534957349353498,
                -1.2403721718319578,
                2.1649859866801204,
                -0.8873917123011089,
                0.5979395974156723,
                -3.1484587929899184
            ]
        },
        {
            "positions": [
                -0.14140325658626135,
                -1.273999450383161,
                2.229465853229985,
                -0.9230356334120982,
                0.7540572621956839,
                -3.1337801812492563
            ]
        },
        {
            "positions": [
                -0.20745693967898776,
                -1.3076267289343642,
                2.29394571977985,
                -0.9586795545230875,
                0.9101749269756956,
                -3.1191015695085937
            ]
        },
        {
            "positions": [
                -0.2735106227717141,
                -1.3412540074855674,
                2.358425586329714,
                -0.9943234756340766,
                1.0662925917557071,
                -3.1044229577679316
            ]
        },
        {
            "positions": [
                -0.33956430586444053,
                -1.3748812860367705,
                2.422905452879579,
                -1.029967396745066,
                1.2224102565357189,
                -3.089744346027269
            ]
        }
    ]
}