{
    "goal": {
        "global_pose": {
            "orientation": {
                "w": 0.5084816217422485,
                "x": -0.49083608388900757,
                "y": 0.5182115435600281,
                "z": -0.4816462993621826
            },
            "position": {
                "x": 0.5540239810943604,
                "y": 0.030875300988554955,
                "z": 0.16403168439865112
            }
        },
        "name": "move_to_storage_A"
    },
    "id": "KPIECE_move_to_storage_A_81",
    "joint_names": [
        "shoulder_pan_joint",
        "shoulder_lift_joint",
        "elbow_joint",
        "wrist_1_joint",
        "wrist_2_joint",
        "wrist_3_joint"
    ],
    "metrics": {
        "cart_traj_len": 0.35316486761166527,
        "distance_elbow_joint": 0.4518918111497454,
        "distance_shoulder_lift_joint": 0.23258403190987775,
        "distance_shoulder_pan_joint": 0.4635711174782301,
        "distance_wrist_1_joint": 0.25084502606040926,
        "distance_wrist_2_joint": 1.090953455538111,
        "distance_wrist_3_joint": 0.10408364646038759,
        "smoothness": 0.0,
        "time": 0.012787502000000001,
        "traj_len": 1.6105679397643433,
        "weighted_distance": 2.035655880328514
    },
    "planner": "KPIECE",
    "start": {
        "state": {
            "elbow_joint": 1.9715463870305268,
            "shoulder_lift_joint": -1.1394903361783484,
            "shoulder_pan_joint": 0.12281147578464417,
            "wrist_1_joint": -0.7804599489681411,
            "wrist_2_joint": 0.12958660307563738,
            "wrist_3_joint": -3.1924946282119055
        }
    },
    "waypoints": [
        {
            "positions": [
                0.12281147578464417,
                -1.1394903361783484,
                1.9715463870305268,
                -0.7804599489681411,
                0.12958660307563738,
                -3.1924946282119055
            ]
        },
        {
            "positions": [
                0.05658703043061131,
                -1.1727166264511881,
                2.036102360051919,
                -0.8162949526910567,
                0.28543709672393897,
                -3.1776255358604217
            ]
        },
        {
            "positions": [
                -0.009637414923421558,
                -1.2059429167240276,
                2.1006583330733113,
                -0.8521299564139723,
                0.4412875903722405,
                -3.1627564435089375
            ]
        },
        {
            "positions": [
                -0.07586186027745444,
                -1.2391692069968674,
                2.1652143060947036,
                -0.8879649601368879,
                0.5971380840205421,
                -3.1478873511574537
            ]
        },
        {
            "positions": [
                -0.14208630563148728,
                -1.2723954972697071,
                2.2297702791160954,
                -0.9237999638598036,
                0.7529885776688438,
                -3.13301825880597
            ]
        },
        {
            "positions": [
                -0.20831075098552015,
                -1.3056217875425469,
                2.2943262521374876,
                -0.9596349675827192,
                0.9088390713171454,
                -3.118149166454486
            ]
        },
        {
            "positions": [
                -0.27453519633955303,
                -1.3388480778153864,
                2.35888222515888,
                -0.9954699713056347,
                1.0646895649654469,
                -3.1032800741030018
            ]
        },
        {
            "positions": [
                -0.3407596416935859,
                -1.3720743680882261,
                2.423438198180272,
                -1.0313049750285503,
                1.2205400586137485,
                -3.088410981751518
            ]
        }
    ]
}