{
    "goal": {
        "global_pose": {
            "orientation": {
                "w": 0.7047431468963623,
                "x": -0.7094548344612122,
                "y": 0.0024358443915843964,
                "z": -0.0022348060738295317
            },
            "position": {
                "x": 0.6094750761985779,
                "y": 0.3671506643295288,
                "z": 0.19426114857196808
            }
        },
        "name": "move_to_magneteinheit_A"
    },
    "id": "KPIECE_move_to_magneteinheit_A_15",
    "joint_names": [
        "shoulder_pan_joint",
        "shoulder_lift_joint",
        "elbow_joint",
        "wrist_1_joint",
        "wrist_2_joint",
        "wrist_3_joint"
    ],
    "metrics": {
        "cart_traj_len": 2.06406434406333,
        "distance_elbow_joint": 3.8810983465321067,
        "distance_shoulder_lift_joint": 1.0575493229823278,
        "distance_shoulder_pan_joint": 1.2408580834016332,
        "distance_wrist_1_joint": 1.1554247990719366,
        "distance_wrist_2_joint": 1.436991512978073,
        "distance_wrist_3_joint": 1.9177673828808546,
        "smoothness": 4.440892097876411e-16,
        "time": 0.059011764,
        "traj_len": 3.269509053030276,
        "weighted_distance": 4.1373470395482475
    },
    "planner": "KPIECE",
    "start": {
        "state": {
            "elbow_joint": -1.919643507792019,
            "shoulder_lift_joint": -0.07675430207160344,
            "shoulder_pan_joint": -1.1188671864651873,
            "wrist_1_joint": 0.42560062535961957,
            "wrist_2_joint": 1.5706038300724876,
            "wrist_3_joint": 1.1188968870953055
        }
    },
    "waypoints": [
        {
            "positions": [
                -1.1188671864651873,
                -0.07675430207160344,
                -1.919643507792019,
                0.42560062535961957,
                1.5706038300724876,
                1.1188968870953055
            ]
        },
        {
            "positions": [
                -1.0729094796725342,
                -0.11592279551539336,
                -1.7758991245871263,
                0.38280711428288117,
                1.517381922184411,
                1.1899253086834853
            ]
        },
        {
            "positions": [
                -1.0269517728798812,
                -0.15509128895918328,
                -1.6321547413822335,
                0.3400136032061428,
                1.464160014296334,
                1.2609537302716651
            ]
        },
        {
            "positions": [
                -0.9809940660872281,
                -0.1942597824029732,
                -1.4884103581773407,
                0.2972200921294044,
                1.4109381064082573,
                1.331982151859845
            ]
        },
        {
            "positions": [
                -0.9350363592945751,
                -0.23342827584676312,
                -1.3446659749724477,
                0.254426581052666,
                1.3577161985201804,
                1.4030105734480247
            ]
        },
        {
            "positions": [
                -0.889078652501922,
                -0.27259676929055304,
                -1.200921591767555,
                0.21163306997592765,
                1.3044942906321038,
                1.4740389950362045
            ]
        },
        {
            "positions": [
                -0.8431209457092689,
                -0.31176526273434296,
                -1.057177208562662,
                0.16883955889918928,
                1.2512723827440269,
                1.5450674166243843
            ]
        },
        {
            "positions": [
                -0.7971632389166158,
                -0.3509337561781329,
                -0.9134328253577693,
                0.12604604782245088,
                1.1980504748559502,
                1.616095838212564
            ]
        },
        {
            "positions": [
                -0.7512055321239628,
                -0.3901022496219228,
                -0.7696884421528765,
                0.08325253674571248,
                1.1448285669678735,
                1.6871242598007439
            ]
        },
        {
            "positions": [
                -0.7052478253313097,
                -0.4292707430657127,
                -0.6259440589479837,
                0.040459025668974136,
                1.0916066590797966,
                1.7581526813889237
            ]
        },
        {
            "positions": [
                -0.6592901185386566,
                -0.46843923650950264,
                -0.48219967574309086,
                -0.002334485407764264,
                1.0383847511917197,
                1.8291811029771035
            ]
        },
        {
            "positions": [
                -0.6133324117460035,
                -0.5076077299532926,
                -0.33845529253819784,
                -0.045127996484502664,
                0.9851628433036431,
                1.9002095245652832
            ]
        },
        {
            "positions": [
                -0.5673747049533504,
                -0.5467762233970825,
                -0.19471090933330504,
                -0.08792150756124101,
                0.9319409354155663,
                1.971237946153463
            ]
        },
        {
            "positions": [
                -0.5214169981606973,
                -0.5859447168408725,
                -0.05096652612841224,
                -0.13071501863797946,
                0.8787190275274895,
                2.042266367741643
            ]
        },
        {
            "positions": [
                -0.4754592913680442,
                -0.6251132102846624,
                0.09277785707648056,
                -0.1735085297147178,
                0.8254971196394127,
                2.1132947893298226
            ]
        },
        {
            "positions": [
                -0.4295015845753911,
                -0.6642817037284523,
                0.23652224028137359,
                -0.21630204079145626,
                0.7722752117513358,
                2.1843232109180026
            ]
        },
        {
            "positions": [
                -0.38354387778273813,
                -0.7034501971722422,
                0.38026662348626616,
                -0.2590955518681946,
                0.7190533038632592,
                2.255351632506182
            ]
        },
        {
            "positions": [
                -0.3375861709900849,
                -0.7426186906160321,
                0.5240110066911592,
                -0.30188906294493306,
                0.6658313959751824,
                2.326380054094362
            ]
        },
        {
            "positions": [
                -0.29162846419743194,
                -0.7817871840598221,
                0.6677553898960518,
                -0.3446825740216713,
                0.6126094880871056,
                2.397408475682542
            ]
        },
        {
            "positions": [
                -0.24567075740477884,
                -0.820955677503612,
                0.8114997731009448,
                -0.38747608509840975,
                0.5593875801990287,
                2.468436897270722
            ]
        },
        {
            "positions": [
                -0.19971305061212574,
                -0.8601241709474019,
                0.9552441563058374,
                -0.4302695961751481,
                0.506165672310952,
                2.5394653188589014
            ]
        },
        {
            "positions": [
                -0.15375534381947265,
                -0.8992926643911918,
                1.0989885395107308,
                -0.47306310725188655,
                0.4529437644228753,
                2.6104937404470814
            ]
        },
        {
            "positions": [
                -0.10779763702681966,
                -0.9384611578349817,
                1.2427329227156234,
                -0.5158566183286248,
                0.39972185653479864,
                2.681522162035261
            ]
        },
        {
            "positions": [
                -0.06183993023416656,
                -0.9776296512787717,
                1.3864773059205164,
                -0.5586501294053634,
                0.34649994864672173,
                2.752550583623441
            ]
        },
        {
            "positions": [
                -0.015882223441513466,
                -1.0167981447225616,
                1.530221689125409,
                -0.6014436404821015,
                0.29327804075864505,
                2.8235790052116205
            ]
        },
        {
            "positions": [
                0.03007548335113963,
                -1.0559666381663515,
                1.673966072330302,
                -0.6442371515588401,
                0.24005613287056815,
                2.8946074267998005
            ]
        },
        {
            "positions": [
                0.07603319014379273,
                -1.0951351316101414,
                1.8177104555351946,
                -0.6870306626355784,
                0.18683422498249147,
                2.96563584838798
            ]
        },
        {
            "positions": [
                0.12199089693644591,
                -1.1343036250539313,
                1.9614548387400874,
                -0.7298241737123169,
                0.13361231709441448,
                3.03666426997616
            ]
        }
    ]
}