{
    "goal": {
        "global_pose": {
            "orientation": {
                "w": 0.7031023502349854,
                "x": -0.7110244035720825,
                "y": 0.007748599164187908,
                "z": 0.005598929710686207
            },
            "position": {
                "x": 0.11585023208521307,
                "y": 0.44412534475326537,
                "z": 0.3711530566215515
            }
        },
        "name": "move_to_auspresseinheit_A"
    },
    "id": "KPIECE_move_to_auspresseinheit_A_23",
    "joint_names": [
        "shoulder_pan_joint",
        "shoulder_lift_joint",
        "elbow_joint",
        "wrist_1_joint",
        "wrist_2_joint",
        "wrist_3_joint"
    ],
    "metrics": {
        "cart_traj_len": 0.689130846406425,
        "distance_elbow_joint": 0.09597097875855676,
        "distance_shoulder_lift_joint": 0.5329635739099998,
        "distance_shoulder_pan_joint": 1.0453269837550385,
        "distance_wrist_1_joint": 0.7333730810001837,
        "distance_wrist_2_joint": 0.5174887860499335,
        "distance_wrist_3_joint": 0.07349721949432819,
        "smoothness": 0.890878954405558,
        "time": 0.117043328,
        "traj_len": 1.7316525699366025,
        "weighted_distance": 2.096777749072804
    },
    "planner": "KPIECE",
    "start": {
        "state": {
            "elbow_joint": 2.422574709923281,
            "shoulder_lift_joint": -1.3736533754116391,
            "shoulder_pan_joint": -0.33786336945926293,
            "wrist_1_joint": -1.0288603412921917,
            "wrist_2_joint": 1.2330224858903978,
            "wrist_3_joint": -3.094022268022082
        }
    },
    "waypoints": [
        {
            "positions": [
                -0.33786336945926293,
                -1.3736533754116391,
                2.422574709923281,
                -1.0288603412921917,
                1.2330224858903978,
                -3.094022268022082
            ]
        },
        {
            "positions": [
                -0.20666014921587791,
                -1.4453197672484919,
                2.4134662928392983,
                -0.9353951469713482,
                1.1651201585707844,
                -3.0923356871445025
            ]
        },
        {
            "positions": [
                -0.0754569289724929,
                -1.5169861590853446,
                2.404357875755315,
                -0.8419299526505047,
                1.0972178312511711,
                -3.0906491062669232
            ]
        },
        {
            "positions": [
                0.05574629127089209,
                -1.5886525509221974,
                2.395249458671332,
                -0.7484647583296612,
                1.0293155039315576,
                -3.0889625253893436
            ]
        },
        {
            "positions": [
                0.18694951151427713,
                -1.6603189427590501,
                2.3861410415873494,
                -0.6549995640088178,
                0.9614131766119443,
                -3.087275944511764
            ]
        },
        {
            "positions": [
                0.3181527317576622,
                -1.731985334595903,
                2.3770326245033666,
                -0.5615343696879742,
                0.8935108492923309,
                -3.0855893636341842
            ]
        },
        {
            "positions": [
                0.4493559520010471,
                -1.8036517264327558,
                2.3679242074193834,
                -0.46806917536713066,
                0.8256085219727176,
                -3.083902782756605
            ]
        },
        {
            "positions": [
                0.5805591722444321,
                -1.8753181182696086,
                2.3588157903354006,
                -0.3746039810462871,
                0.7577061946531042,
                -3.0822162018790253
            ]
        },
        {
            "positions": [
                0.7074636142957755,
                -1.906616949321639,
                2.391027849506077,
                -0.4537207018005662,
                0.7155336998404642,
                -3.1439073552302967
            ]
        }
    ]
}