{
    "goal": {
        "global_pose": {
            "orientation": {
                "w": 0.7031023502349854,
                "x": -0.7110244035720825,
                "y": 0.007748599164187908,
                "z": 0.005598929710686207
            },
            "position": {
                "x": 0.11585023208521307,
                "y": 0.44412534475326537,
                "z": 0.3711530566215515
            }
        },
        "name": "move_to_auspresseinheit_A"
    },
    "id": "KPIECE_move_to_auspresseinheit_A_55",
    "joint_names": [
        "shoulder_pan_joint",
        "shoulder_lift_joint",
        "elbow_joint",
        "wrist_1_joint",
        "wrist_2_joint",
        "wrist_3_joint"
    ],
    "metrics": {
        "cart_traj_len": 0.6830035803228618,
        "distance_elbow_joint": 0.15180016909103333,
        "distance_shoulder_lift_joint": 0.5309785932337372,
        "distance_shoulder_pan_joint": 1.0415805777347529,
        "distance_wrist_1_joint": 1.3582020406696904,
        "distance_wrist_2_joint": 1.2401905251077538,
        "distance_wrist_3_joint": 1.1443486388207074,
        "smoothness": 1.3216257133123692,
        "time": 0.335880746,
        "traj_len": 2.338183171750596,
        "weighted_distance": 3.2177927820287833
    },
    "planner": "KPIECE",
    "start": {
        "state": {
            "elbow_joint": 2.422574709923281,
            "shoulder_lift_joint": -1.3736533754116391,
            "shoulder_pan_joint": -0.33786336945926293,
            "wrist_1_joint": -1.0288603412921917,
            "wrist_2_joint": 1.2330224858903978,
            "wrist_3_joint": -3.094022268022082
        }
    },
    "waypoints": [
        {
            "positions": [
                -0.33786336945926293,
                -1.3736533754116391,
                2.422574709923281,
                -1.0288603412921917,
                1.2330224858903978,
                -3.094022268022082
            ]
        },
        {
            "positions": [
                -0.26155516356554814,
                -1.4202087759519668,
                2.4133089917248944,
                -0.932288769826015,
                1.1441990547664318,
                -3.0393670993948945
            ]
        },
        {
            "positions": [
                -0.18524695767183338,
                -1.4667641764922945,
                2.4040432735265083,
                -0.8357171983598384,
                1.0553756236424658,
                -2.9847119307677072
            ]
        },
        {
            "positions": [
                -0.10893875177811865,
                -1.5133195770326222,
                2.3947775553281216,
                -0.7391456268936617,
                0.9665521925184997,
                -2.93005676214052
            ]
        },
        {
            "positions": [
                -0.03263054588440384,
                -1.55987497757295,
                2.3855118371297355,
                -0.642574055427485,
                0.8777287613945337,
                -2.8754015935133324
            ]
        },
        {
            "positions": [
                0.04367766000931089,
                -1.6064303781132776,
                2.376246118931349,
                -0.5460024839613082,
                0.7889053302705678,
                -2.8207464248861447
            ]
        },
        {
            "positions": [
                0.11998586590302562,
                -1.652985778653605,
                2.3669804007329622,
                -0.4494309124951317,
                0.7000818991466017,
                -2.7660912562589575
            ]
        },
        {
            "positions": [
                0.19629407179674035,
                -1.6995411791939328,
                2.357714682534576,
                -0.352859341028955,
                0.6112584680226357,
                -2.7114360876317702
            ]
        },
        {
            "positions": [
                0.27260227769045525,
                -1.7460965797342605,
                2.3484489643361894,
                -0.2562877695627782,
                0.5224350368986697,
                -2.6567809190045826
            ]
        },
        {
            "positions": [
                0.34891048358416993,
                -1.7926519802745882,
                2.3391832461378033,
                -0.15971619809660154,
                0.4336116057747036,
                -2.602125750377395
            ]
        },
        {
            "positions": [
                0.4252186894778847,
                -1.8392073808149159,
                2.3299175279394166,
                -0.06314462663042487,
                0.34478817465073763,
                -2.5474705817502077
            ]
        },
        {
            "positions": [
                0.48091839323740576,
                -1.852292298381008,
                2.3417461253608503,
                -0.1416418918320096,
                0.4151794174243564,
                -2.667029972259974
            ]
        },
        {
            "positions": [
                0.5366180969969268,
                -1.8653772159471,
                2.3535747227822843,
                -0.22013915703359427,
                0.4855706601979752,
                -2.7865893627697407
            ]
        },
        {
            "positions": [
                0.5923178007564478,
                -1.8784621335131921,
                2.365403320203718,
                -0.29863642223517894,
                0.5559619029715939,
                -2.9061487532795076
            ]
        },
        {
            "positions": [
                0.6480175045159688,
                -1.8915470510792842,
                2.377231917625152,
                -0.3771336874367637,
                0.6263531457452127,
                -3.025708143789274
            ]
        },
        {
            "positions": [
                0.7037172082754899,
                -1.9046319686453763,
                2.3890605150465856,
                -0.45563095263834835,
                0.6967443885188315,
                -3.1452675342990406
            ]
        }
    ]
}