{
    "goal": {
        "global_pose": {
            "orientation": {
                "w": 0.7031023502349854,
                "x": -0.7110244035720825,
                "y": 0.007748599164187908,
                "z": 0.005598929710686207
            },
            "position": {
                "x": 0.11585023208521307,
                "y": 0.44412534475326537,
                "z": 0.3711530566215515
            }
        },
        "name": "move_to_auspresseinheit_A"
    },
    "id": "KPIECE_move_to_auspresseinheit_A_15",
    "joint_names": [
        "shoulder_pan_joint",
        "shoulder_lift_joint",
        "elbow_joint",
        "wrist_1_joint",
        "wrist_2_joint",
        "wrist_3_joint"
    ],
    "metrics": {
        "cart_traj_len": 0.8303180889682421,
        "distance_elbow_joint": 0.5075032321778217,
        "distance_shoulder_lift_joint": 0.6059773122285235,
        "distance_shoulder_pan_joint": 1.0450464954816847,
        "distance_wrist_1_joint": 1.088215715094634,
        "distance_wrist_2_joint": 0.5165032179149299,
        "distance_wrist_3_joint": 0.7471676095502682,
        "smoothness": 1.0682856204842734,
        "time": 0.290383693,
        "traj_len": 2.12377343011157,
        "weighted_distance": 2.7585263701037843
    },
    "planner": "KPIECE",
    "start": {
        "state": {
            "elbow_joint": 2.422574709923281,
            "shoulder_lift_joint": -1.3736533754116391,
            "shoulder_pan_joint": -0.33786336945926293,
            "wrist_1_joint": -1.0288603412921917,
            "wrist_2_joint": 1.2330224858903978,
            "wrist_3_joint": -3.094022268022082
        }
    },
    "waypoints": [
        {
            "positions": [
                -0.33786336945926293,
                -1.3736533754116391,
                2.422574709923281,
                -1.0288603412921917,
                1.2330224858903978,
                -3.094022268022082
            ]
        },
        {
            "positions": [
                -0.2664621219767834,
                -1.4446654285082916,
                2.3890708459009318,
                -0.9257105473066227,
                1.1723639437212068,
                -3.0493996184337093
            ]
        },
        {
            "positions": [
                -0.19506087449430382,
                -1.5156774816049439,
                2.355566981878583,
                -0.8225607533210538,
                1.1117054015520158,
                -3.0047769688453365
            ]
        },
        {
            "positions": [
                -0.12365962701182426,
                -1.5866895347015961,
                2.322063117856234,
                -0.7194109593354849,
                1.0510468593828248,
                -2.9601543192569637
            ]
        },
        {
            "positions": [
                -0.0522583795293447,
                -1.6577015877982486,
                2.288559253833885,
                -0.6162611653499159,
                0.990388317213634,
                -2.9155316696685905
            ]
        },
        {
            "positions": [
                0.019142867953134857,
                -1.728713640894901,
                2.2550553898115355,
                -0.5131113713643469,
                0.929729775044443,
                -2.8709090200802176
            ]
        },
        {
            "positions": [
                0.09054411543561441,
                -1.7997256939915534,
                2.2215515257891867,
                -0.40996157737877803,
                0.8690712328752521,
                -2.826286370491845
            ]
        },
        {
            "positions": [
                0.16194536291809397,
                -1.8707377470882056,
                2.188047661766838,
                -0.30681178339320914,
                0.8084126907060611,
                -2.781663720903472
            ]
        },
        {
            "positions": [
                0.23334661040057353,
                -1.941749800184858,
                2.1545437977444886,
                -0.20366198940764013,
                0.7477541485368702,
                -2.737041071315099
            ]
        },
        {
            "positions": [
                0.2961044541045089,
                -1.9429351912138104,
                2.216741341302241,
                -0.25842160764218575,
                0.7442323137203941,
                -2.8178805943484972
            ]
        },
        {
            "positions": [
                0.35886229780844436,
                -1.9441205822427625,
                2.278938884859994,
                -0.3131812258767313,
                0.7407104789039182,
                -2.8987201173818957
            ]
        },
        {
            "positions": [
                0.42162014151237975,
                -1.9453059732717148,
                2.3411364284177463,
                -0.3679408441112769,
                0.7371886440874421,
                -2.9795596404152938
            ]
        },
        {
            "positions": [
                0.5644016337674007,
                -1.928143616087491,
                2.367576273080632,
                -0.41731009836449984,
                0.726853956031455,
                -3.053393562286839
            ]
        },
        {
            "positions": [
                0.7071831260224216,
                -1.910981258903267,
                2.3940161177435177,
                -0.46667935261772275,
                0.7165192679754678,
                -3.1272274841583845
            ]
        }
    ]
}