{
    "goal": {
        "global_pose": {
            "orientation": {
                "w": -0.00223480608172531,
                "x": 0.0024358444001904467,
                "y": 0.7094548369677653,
                "z": -0.704743149386269
            },
            "position": {
                "x": 0.6205249238014221,
                "y": -0.6371506643295288,
                "z": 0.19426114857196808
            }
        },
        "name": "move_to_magneteinheit_B"
    },
    "id": "KPIECE_move_to_magneteinheit_B_76",
    "joint_names": [
        "shoulder_pan_joint",
        "shoulder_lift_joint",
        "elbow_joint",
        "wrist_1_joint",
        "wrist_2_joint",
        "wrist_3_joint"
    ],
    "metrics": {
        "cart_traj_len": 1.4526937586827324,
        "distance_elbow_joint": 0.7293222776679442,
        "distance_shoulder_lift_joint": 1.2477185184935766,
        "distance_shoulder_pan_joint": 1.621905022367185,
        "distance_wrist_1_joint": 2.6055727088415193,
        "distance_wrist_2_joint": 2.9353353380847995,
        "distance_wrist_3_joint": 3.1352087254074608,
        "smoothness": 4.996003619656658e-16,
        "time": 0.111250938,
        "traj_len": 3.5035785407012767,
        "weighted_distance": 4.907788513027403
    },
    "planner": "KPIECE",
    "start": {
        "state": {
            "elbow_joint": 2.39358713078474,
            "shoulder_lift_joint": -1.908514104345545,
            "shoulder_pan_joint": 0.7066247066606129,
            "wrist_1_joint": -0.4678290933515497,
            "wrist_2_joint": 0.7096259083745334,
            "wrist_3_joint": -3.1358149277392293
        }
    },
    "waypoints": [
        {
            "positions": [
                0.7066247066606129,
                -1.908514104345545,
                2.39358713078474,
                -0.4678290933515497,
                0.7096259083745334,
                -3.1358149277392293
            ]
        },
        {
            "positions": [
                0.6543051898100586,
                -1.8682651198780102,
                2.3700606056986775,
                -0.3837783608082749,
                0.6149376716621205,
                -3.034679162403505
            ]
        },
        {
            "positions": [
                0.6019856729595042,
                -1.8280161354104754,
                2.3465340806126145,
                -0.2997276282650001,
                0.5202494349497077,
                -2.9335433970677802
            ]
        },
        {
            "positions": [
                0.5496661561089499,
                -1.7877671509429407,
                2.323007555526552,
                -0.21567689572172527,
                0.42556119823729477,
                -2.832407631732056
            ]
        },
        {
            "positions": [
                0.4973466392583955,
                -1.747518166475406,
                2.2994810304404893,
                -0.13162616317845044,
                0.3308729615248819,
                -2.731271866396331
            ]
        },
        {
            "positions": [
                0.4450271224078412,
                -1.7072691820078714,
                2.2759545053544263,
                -0.047575430635175664,
                0.236184724812469,
                -2.6301361010606064
            ]
        },
        {
            "positions": [
                0.39270760555728684,
                -1.6670201975403365,
                2.2524279802683638,
                0.03647530190809917,
                0.1414964881000561,
                -2.529000335724882
            ]
        },
        {
            "positions": [
                0.3403880887067325,
                -1.6267712130728018,
                2.228901455182301,
                0.12052603445137394,
                0.04680825138764322,
                -2.4278645703891577
            ]
        },
        {
            "positions": [
                0.2880685718561781,
                -1.5865222286052671,
                2.205374930096238,
                0.20457676699464883,
                -0.04787998532476967,
                -2.326728805053433
            ]
        },
        {
            "positions": [
                0.23574905500562376,
                -1.5462732441377323,
                2.1818484050101756,
                0.2886274995379237,
                -0.14256822203718267,
                -2.225593039717708
            ]
        },
        {
            "positions": [
                0.18342953815506946,
                -1.5060242596701976,
                2.158321879924113,
                0.3726782320811984,
                -0.23725645874959544,
                -2.124457274381984
            ]
        },
        {
            "positions": [
                0.131110021304515,
                -1.465775275202663,
                2.13479535483805,
                0.45672896462447327,
                -0.33194469546200833,
                -2.0233215090462595
            ]
        },
        {
            "positions": [
                0.07879050445396074,
                -1.425526290735128,
                2.1112688297519875,
                0.5407796971677481,
                -0.4266329321744212,
                -1.922185743710535
            ]
        },
        {
            "positions": [
                0.026470987603406382,
                -1.3852773062675934,
                2.087742304665925,
                0.624830429711023,
                -0.5213211688868341,
                -1.8210499783748102
            ]
        },
        {
            "positions": [
                -0.025848529247147978,
                -1.3450283218000587,
                2.064215779579862,
                0.7088811622542976,
                -0.616009405599247,
                -1.7199142130390859
            ]
        },
        {
            "positions": [
                -0.07816804609770234,
                -1.304779337332524,
                2.0406892544937993,
                0.7929318947975725,
                -0.7106976423116599,
                -1.618778447703361
            ]
        },
        {
            "positions": [
                -0.1304875629482567,
                -1.2645303528649894,
                2.0171627294077368,
                0.8769826273408474,
                -0.8053858790240728,
                -1.5176426823676368
            ]
        },
        {
            "positions": [
                -0.18280707979881095,
                -1.2242813683974547,
                1.993636204321674,
                0.9610333598841221,
                -0.9000741157364854,
                -1.4165069170319122
            ]
        },
        {
            "positions": [
                -0.23512659664936542,
                -1.1840323839299196,
                1.9701096792356112,
                1.0450840924273972,
                -0.9947623524488988,
                -1.3153711516961875
            ]
        },
        {
            "positions": [
                -0.2874461134999198,
                -1.143783399462385,
                1.9465831541495484,
                1.1291348249706719,
                -1.0894505891613115,
                -1.214235386360463
            ]
        },
        {
            "positions": [
                -0.339765630350474,
                -1.1035344149948503,
                1.9230566290634856,
                1.2131855575139465,
                -1.1841388258737244,
                -1.1130996210247384
            ]
        },
        {
            "positions": [
                -0.3920851472010284,
                -1.0632854305273156,
                1.899530103977423,
                1.2972362900572214,
                -1.2788270625861369,
                -1.011963855689014
            ]
        },
        {
            "positions": [
                -0.44440466405158296,
                -1.023036446059781,
                1.8760035788913603,
                1.3812870226004963,
                -1.3735152992985502,
                -0.9108280903532893
            ]
        },
        {
            "positions": [
                -0.4967241809021371,
                -0.9827874615922462,
                1.8524770538052975,
                1.4653377551437712,
                -1.468203536010963,
                -0.8096923250175649
            ]
        },
        {
            "positions": [
                -0.5490436977526915,
                -0.9425384771247114,
                1.828950528719235,
                1.5493884876870458,
                -1.562891772723376,
                -0.7085565596818406
            ]
        },
        {
            "positions": [
                -0.6013632146032458,
                -0.9022894926571767,
                1.8054240036331721,
                1.6334392202303207,
                -1.6575800094357889,
                -0.6074207943461158
            ]
        },
        {
            "positions": [
                -0.6536827314538002,
                -0.8620405081896418,
                1.7818974785471093,
                1.7174899527735956,
                -1.7522682461482018,
                -0.5062850290103911
            ]
        },
        {
            "positions": [
                -0.7060022483043545,
                -0.8217915237221072,
                1.7583709534610468,
                1.8015406853168705,
                -1.8469564828606146,
                -0.40514926367466675
            ]
        },
        {
            "positions": [
                -0.7583217651549089,
                -0.7815425392545725,
                1.734844428374984,
                1.885591417860145,
                -1.9416447195730275,
                -0.3040134983389424
            ]
        },
        {
            "positions": [
                -0.8106412820054633,
                -0.7412935547870378,
                1.7113179032889212,
                1.9696421504034198,
                -2.0363329562854404,
                -0.20287773300321765
            ]
        },
        {
            "positions": [
                -0.8629607988560176,
                -0.701044570319503,
                1.6877913782028586,
                2.0536928829466947,
                -2.1310211929978533,
                -0.10174196766749288
            ]
        },
        {
            "positions": [
                -0.915280315706572,
                -0.6607955858519683,
                1.6642648531167958,
                2.1377436154899696,
                -2.225709429710266,
                -0.0006062023317685078
            ]
        }
    ]
}