{
    "goal": {
        "global_pose": {
            "orientation": {
                "w": -0.00223480608172531,
                "x": 0.0024358444001904467,
                "y": 0.7094548369677653,
                "z": -0.704743149386269
            },
            "position": {
                "x": 0.6205249238014221,
                "y": -0.6371506643295288,
                "z": 0.19426114857196808
            }
        },
        "name": "move_to_magneteinheit_B"
    },
    "id": "KPIECE_move_to_magneteinheit_B_123",
    "joint_names": [
        "shoulder_pan_joint",
        "shoulder_lift_joint",
        "elbow_joint",
        "wrist_1_joint",
        "wrist_2_joint",
        "wrist_3_joint"
    ],
    "metrics": {
        "cart_traj_len": 4.014313856972417,
        "distance_elbow_joint": 5.855424409312269,
        "distance_shoulder_lift_joint": 2.1965054335507523,
        "distance_shoulder_pan_joint": 2.6720482607946896,
        "distance_wrist_1_joint": 3.4123863293070578,
        "distance_wrist_2_joint": 2.0039461523751636,
        "distance_wrist_3_joint": 2.0248662439167724,
        "smoothness": 0.554876833096993,
        "time": 3.3982857490000002,
        "traj_len": 4.26206250883967,
        "weighted_distance": 5.256542761052409
    },
    "planner": "KPIECE",
    "start": {
        "state": {
            "elbow_joint": 2.39358713078474,
            "shoulder_lift_joint": -1.908514104345545,
            "shoulder_pan_joint": 0.7066247066606129,
            "wrist_1_joint": -0.4678290933515497,
            "wrist_2_joint": 0.7096259083745334,
            "wrist_3_joint": -3.1358149277392293
        }
    },
    "waypoints": [
        {
            "positions": [
                0.7066247066606129,
                -1.908514104345545,
                2.39358713078474,
                -0.4678290933515497,
                0.7096259083745334,
                -3.1358149277392293
            ]
        },
        {
            "positions": [
                0.6467736918143169,
                -1.9938503706631057,
                2.4461106369568446,
                -0.3596285466255778,
                0.6642427337721728,
                -3.1034936457086006
            ]
        },
        {
            "positions": [
                0.5869226769680208,
                -2.0791866369806664,
                2.498634143128949,
                -0.2514279998996059,
                0.6188595591698121,
                -3.0711723636779715
            ]
        },
        {
            "positions": [
                0.5270716621217247,
                -2.164522903298227,
                2.5511576493010537,
                -0.143227453173634,
                0.5734763845674514,
                -3.0388510816473424
            ]
        },
        {
            "positions": [
                0.4672206472754287,
                -2.2498591696157884,
                2.6036811554731587,
                -0.0350269064476621,
                0.5280932099650908,
                -3.0065297996167137
            ]
        },
        {
            "positions": [
                0.40736963242913266,
                -2.335195435933349,
                2.6562046616452633,
                0.0731736402783098,
                0.48271003536273005,
                -2.974208517586085
            ]
        },
        {
            "positions": [
                0.3475186175828366,
                -2.42053170225091,
                2.708728167817368,
                0.18137418700428176,
                0.4373268607603694,
                -2.941887235555456
            ]
        },
        {
            "positions": [
                0.38875170306215945,
                -2.3874703662963523,
                2.5420137352302445,
                0.10188923627735041,
                0.3915892010392673,
                -2.913270319819625
            ]
        },
        {
            "positions": [
                0.42998478854148237,
                -2.3544090303417944,
                2.3752993026431213,
                0.022404285550419067,
                0.3458515413181652,
                -2.8846534040837937
            ]
        },
        {
            "positions": [
                0.4712178740208053,
                -2.321347694387237,
                2.2085848700559985,
                -0.05708066517651231,
                0.30011388159706304,
                -2.8560364883479625
            ]
        },
        {
            "positions": [
                0.5124509595001281,
                -2.2882863584326794,
                2.041870437468875,
                -0.13656561590344363,
                0.25437622187596093,
                -2.8274195726121314
            ]
        },
        {
            "positions": [
                0.5536840449794511,
                -2.2552250224781214,
                1.875156004881752,
                -0.21605056663037503,
                0.2086385621548588,
                -2.7988026568763003
            ]
        },
        {
            "positions": [
                0.5949171304587739,
                -2.222163686523564,
                1.708441572294629,
                -0.2955355173573064,
                0.16290090243375666,
                -2.770185741140469
            ]
        },
        {
            "positions": [
                0.6361502159380968,
                -2.1891023505690064,
                1.5417271397075056,
                -0.3750204680842377,
                0.11716324271265455,
                -2.741568825404638
            ]
        },
        {
            "positions": [
                0.6773833014174198,
                -2.1560410146144484,
                1.3750127071203824,
                -0.454505418811169,
                0.07142558299155244,
                -2.712951909668807
            ]
        },
        {
            "positions": [
                0.7186163868967426,
                -2.122979678659891,
                1.2082982745332593,
                -0.5339903695381004,
                0.025687923270450275,
                -2.6843349939329757
            ]
        },
        {
            "positions": [
                0.7598494723760656,
                -2.0899183427053334,
                1.041583841946136,
                -0.6134753202650318,
                -0.020049736450651834,
                -2.6557180781971446
            ]
        },
        {
            "positions": [
                0.8010825578553884,
                -2.0568570067507754,
                0.874869409359013,
                -0.6929602709919631,
                -0.06578739617175389,
                -2.6271011624613134
            ]
        },
        {
            "positions": [
                0.8423156433347112,
                -2.023795670796218,
                0.70815497677189,
                -0.7724452217188945,
                -0.1115250558928561,
                -2.5984842467254823
            ]
        },
        {
            "positions": [
                0.8835487288140342,
                -1.9907343348416602,
                0.5414405441847667,
                -0.8519301724458259,
                -0.15726271561395821,
                -2.569867330989651
            ]
        },
        {
            "positions": [
                0.924781814293357,
                -1.9576729988871024,
                0.37472611159764346,
                -0.9314151231727572,
                -0.20300037533506032,
                -2.5412504152538204
            ]
        },
        {
            "positions": [
                0.9660148997726801,
                -1.924611662932545,
                0.2080116790105202,
                -1.0109000738996885,
                -0.24873803505616243,
                -2.512633499517989
            ]
        },
        {
            "positions": [
                1.0072479852520029,
                -1.8915503269779872,
                0.04129724642339694,
                -1.0903850246266198,
                -0.29447569477726454,
                -2.484016583782158
            ]
        },
        {
            "positions": [
                1.0484810707313257,
                -1.8584889910234295,
                -0.12541718616372588,
                -1.169869975353551,
                -0.34021335449836665,
                -2.455399668046327
            ]
        },
        {
            "positions": [
                1.0897141562106487,
                -1.825427655068872,
                -0.29213161875084914,
                -1.2493549260804826,
                -0.38595101421946887,
                -2.426782752310496
            ]
        },
        {
            "positions": [
                1.1309472416899715,
                -1.7923663191143142,
                -0.4588460513379724,
                -1.3288398768074139,
                -0.43168867394057087,
                -2.3981658365746648
            ]
        },
        {
            "positions": [
                1.1721803271692945,
                -1.7593049831597565,
                -0.6255604839250957,
                -1.4083248275343454,
                -0.4774263336616731,
                -2.3695489208388336
            ]
        },
        {
            "positions": [
                1.2134134126486174,
                -1.726243647205199,
                -0.7922749165122189,
                -1.4878097782612767,
                -0.5231639933827752,
                -2.3409320051030025
            ]
        },
        {
            "positions": [
                1.2546464981279402,
                -1.6931823112506412,
                -0.9589893490993417,
                -1.567294728988208,
                -0.5689016531038772,
                -2.3123150893671713
            ]
        },
        {
            "positions": [
                1.2958795836072632,
                -1.6601209752960835,
                -1.1257037816864655,
                -1.6467796797151395,
                -0.6146393128249795,
                -2.28369817363134
            ]
        },
        {
            "positions": [
                1.337112669086586,
                -1.627059639341526,
                -1.2924182142735878,
                -1.7262646304420708,
                -0.6603769725460816,
                -2.255081257895509
            ]
        },
        {
            "positions": [
                1.3783457545659088,
                -1.5939983033869682,
                -1.459132646860711,
                -1.8057495811690019,
                -0.7061146322671835,
                -2.226464342159678
            ]
        },
        {
            "positions": [
                1.4195788400452318,
                -1.5609369674324105,
                -1.6258470794478344,
                -1.8852345318959336,
                -0.7518522919882858,
                -2.197847426423847
            ]
        },
        {
            "positions": [
                1.4608119255245546,
                -1.527875631477853,
                -1.7925615120349576,
                -1.9647194826228649,
                -0.797589951709388,
                -2.1692305106880156
            ]
        },
        {
            "positions": [
                1.5020450110038777,
                -1.494814295523295,
                -1.9592759446220809,
                -2.044204433349796,
                -0.8433276114304901,
                -2.1406135949521845
            ]
        },
        {
            "positions": [
                1.5432780964832005,
                -1.4617529595687375,
                -2.125990377209204,
                -2.1236893840767275,
                -0.8890652711515921,
                -2.1119966792163534
            ]
        },
        {
            "positions": [
                1.6348112219655782,
                -1.4914772037592903,
                -2.160168474179684,
                -2.1884434046002643,
                -0.878050700434622,
                -2.1694571460964376
            ]
        },
        {
            "positions": [
                1.726344347447956,
                -1.521201447949843,
                -2.1943465711501635,
                -2.2531974251238007,
                -0.8670361297176518,
                -2.226917612976522
            ]
        },
        {
            "positions": [
                1.8178774729303337,
                -1.5509256921403958,
                -2.2285246681206434,
                -2.3179514456473376,
                -0.8560215590006817,
                -2.284378079856606
            ]
        },
        {
            "positions": [
                1.9482657098342768,
                -1.6118834187433595,
                -2.2319570332694476,
                -2.388536206489782,
                -0.8259912871252949,
                -2.3811157358038573
            ]
        },
        {
            "positions": [
                2.07865394673822,
                -1.672841145346323,
                -2.2353893984182513,
                -2.4591209673322263,
                -0.7959610152499083,
                -2.477853391751108
            ]
        },
        {
            "positions": [
                2.209042183642163,
                -1.7337988719492867,
                -2.2388217635670555,
                -2.5297057281746707,
                -0.7659307433745215,
                -2.5745910476983593
            ]
        },
        {
            "positions": [
                2.2842786179184276,
                -1.8094094020463978,
                -2.1400328567511857,
                -2.5210218725459583,
                -0.7189106691958602,
                -2.664333318850341
            ]
        },
        {
            "positions": [
                2.3595150521946917,
                -1.8850199321435086,
                -2.041243949935316,
                -2.512338016917246,
                -0.6718905950171989,
                -2.754075590002323
            ]
        },
        {
            "positions": [
                2.4347514864709563,
                -1.9606304622406197,
                -1.9424550431194458,
                -2.5036541612885337,
                -0.6248705208385377,
                -2.843817861154305
            ]
        },
        {
            "positions": [
                2.509987920747221,
                -2.0362409923377305,
                -1.843666136303576,
                -2.494970305659821,
                -0.5778504466598764,
                -2.9335601323062863
            ]
        },
        {
            "positions": [
                2.585224355023485,
                -2.1118515224348418,
                -1.744877229487706,
                -2.4862864500311086,
                -0.5308303724812151,
                -3.023302403458268
            ]
        },
        {
            "positions": [
                2.6604607892997496,
                -2.1874620525319526,
                -1.6460883226718361,
                -2.4776025944023963,
                -0.4838102983025539,
                -3.11304467461025
            ]
        }
    ]
}