{
    "goal": {
        "global_pose": {
            "orientation": {
                "w": 0.5084816217422485,
                "x": -0.49083608388900757,
                "y": 0.5182115435600281,
                "z": -0.4816462993621826
            },
            "position": {
                "x": 0.5540239810943604,
                "y": 0.030875300988554955,
                "z": 0.16403168439865112
            }
        },
        "name": "move_to_storage_A"
    },
    "id": "KPIECE_move_to_storage_A_31",
    "joint_names": [
        "shoulder_pan_joint",
        "shoulder_lift_joint",
        "elbow_joint",
        "wrist_1_joint",
        "wrist_2_joint",
        "wrist_3_joint"
    ],
    "metrics": {
        "cart_traj_len": 0.35279070717342564,
        "distance_elbow_joint": 0.4502560177421784,
        "distance_shoulder_lift_joint": 0.234368258685834,
        "distance_shoulder_pan_joint": 0.461468389330697,
        "distance_wrist_1_joint": 0.2397087775327854,
        "distance_wrist_2_joint": 1.0981021637902049,
        "distance_wrist_3_joint": 0.10218258236496292,
        "smoothness": 0.0,
        "time": 0.062383306,
        "traj_len": 1.6081312724546657,
        "weighted_distance": 2.0318125640667692
    },
    "planner": "KPIECE",
    "start": {
        "state": {
            "elbow_joint": 1.9715463870305268,
            "shoulder_lift_joint": -1.1394903361783484,
            "shoulder_pan_joint": 0.12281147578464417,
            "wrist_1_joint": -0.7804599489681411,
            "wrist_2_joint": 0.12958660307563738,
            "wrist_3_joint": -3.1924946282119055
        }
    },
    "waypoints": [
        {
            "positions": [
                0.12281147578464417,
                -1.1394903361783484,
                1.9715463870305268,
                -0.7804599489681411,
                0.12958660307563738,
                -3.1924946282119055
            ]
        },
        {
            "positions": [
                0.056887420165973174,
                -1.1729715159906104,
                2.0358686752794095,
                -0.8147040600442533,
                0.28645834075995236,
                -3.1778971164454823
            ]
        },
        {
            "positions": [
                -0.009036635452697825,
                -1.2064526958028723,
                2.100190963528292,
                -0.8489481711203655,
                0.4433300784442673,
                -3.163299604679059
            ]
        },
        {
            "positions": [
                -0.07496069107136881,
                -1.2399338756151344,
                2.1645132517771746,
                -0.8831922821964777,
                0.6002018161285823,
                -3.148702092912636
            ]
        },
        {
            "positions": [
                -0.1408847466900398,
                -1.2734150554273964,
                2.2288355400260573,
                -0.9174363932725899,
                0.7570735538128973,
                -3.1341045811462123
            ]
        },
        {
            "positions": [
                -0.20680880230871085,
                -1.3068962352396585,
                2.29315782827494,
                -0.9516805043487021,
                0.9139452914972124,
                -3.119507069379789
            ]
        },
        {
            "positions": [
                -0.2727328579273818,
                -1.3403774150519203,
                2.3574801165238224,
                -0.9859246154248142,
                1.070817029181527,
                -3.104909557613366
            ]
        },
        {
            "positions": [
                -0.3386569135460528,
                -1.3738585948641824,
                2.421802404772705,
                -1.0201687265009265,
                1.2276887668658423,
                -3.0903120458469426
            ]
        }
    ]
}