{
    "goal": {
        "global_pose": {
            "orientation": {
                "w": 0.7047431468963623,
                "x": -0.7094548344612122,
                "y": 0.0024358443915843964,
                "z": -0.0022348060738295317
            },
            "position": {
                "x": 0.6094750761985779,
                "y": 0.3671506643295288,
                "z": 0.19426114857196808
            }
        },
        "name": "move_to_magneteinheit_A"
    },
    "id": "KPIECE_move_to_magneteinheit_A_149",
    "joint_names": [
        "shoulder_pan_joint",
        "shoulder_lift_joint",
        "elbow_joint",
        "wrist_1_joint",
        "wrist_2_joint",
        "wrist_3_joint"
    ],
    "metrics": {
        "cart_traj_len": 2.06764613030706,
        "distance_elbow_joint": 3.893051297087541,
        "distance_shoulder_lift_joint": 1.0632737270385606,
        "distance_shoulder_pan_joint": 1.24036451192234,
        "distance_wrist_1_joint": 1.218074399521714,
        "distance_wrist_2_joint": 1.445336143047668,
        "distance_wrist_3_joint": 1.9765046254020837,
        "smoothness": 3.6752210588592913e-16,
        "time": 0.141962244,
        "traj_len": 3.2918998623925226,
        "weighted_distance": 4.1776817132703465
    },
    "planner": "KPIECE",
    "start": {
        "state": {
            "elbow_joint": -1.919643507792019,
            "shoulder_lift_joint": -0.07675430207160344,
            "shoulder_pan_joint": -1.1188671864651873,
            "wrist_1_joint": 0.42560062535961957,
            "wrist_2_joint": 1.5706038300724876,
            "wrist_3_joint": 1.1188968870953055
        }
    },
    "waypoints": [
        {
            "positions": [
                -1.1188671864651873,
                -0.07675430207160344,
                -1.919643507792019,
                0.42560062535961957,
                1.5706038300724876,
                1.1188968870953055
            ]
        },
        {
            "positions": [
                -1.0745684538965323,
                -0.11472836375155204,
                -1.780605961467464,
                0.38209796823384407,
                1.5189846821064994,
                1.189486338002523
            ]
        },
        {
            "positions": [
                -1.0302697213278773,
                -0.15270242543150064,
                -1.641568415142909,
                0.33859531110806856,
                1.4673655341405114,
                1.26007578890974
            ]
        },
        {
            "positions": [
                -0.9859709887592223,
                -0.19067648711144922,
                -1.502530868818354,
                0.29509265398229306,
                1.4157463861745232,
                1.3306652398169574
            ]
        },
        {
            "positions": [
                -0.9416722561905674,
                -0.22865054879139782,
                -1.3634933224937988,
                0.25158999685651756,
                1.364127238208535,
                1.4012546907241745
            ]
        },
        {
            "positions": [
                -0.8973735236219124,
                -0.26662461047134645,
                -1.2244557761692438,
                0.20808733973074206,
                1.312508090242547,
                1.4718441416313919
            ]
        },
        {
            "positions": [
                -0.8530747910532573,
                -0.304598672151295,
                -1.0854182298446888,
                0.16458468260496656,
                1.2608889422765588,
                1.5424335925386092
            ]
        },
        {
            "positions": [
                -0.8087760584846023,
                -0.3425727338312436,
                -0.9463806835201338,
                0.12108202547919106,
                1.2092697943105706,
                1.6130230434458266
            ]
        },
        {
            "positions": [
                -0.7644773259159474,
                -0.3805467955111922,
                -0.8073431371955788,
                0.07757936835341556,
                1.1576506463445826,
                1.6836124943530437
            ]
        },
        {
            "positions": [
                -0.7201785933472923,
                -0.4185208571911408,
                -0.6683055908710236,
                0.03407671122764,
                1.1060314983785942,
                1.754201945260261
            ]
        },
        {
            "positions": [
                -0.6758798607786374,
                -0.4564949188710894,
                -0.5292680445464686,
                -0.009425945898135446,
                1.0544123504126062,
                1.8247913961674782
            ]
        },
        {
            "positions": [
                -0.6315811282099824,
                -0.49446898055103794,
                -0.3902304982219138,
                -0.05292860302391095,
                1.002793202446618,
                1.8953808470746956
            ]
        },
        {
            "positions": [
                -0.5872823956413273,
                -0.5324430422309865,
                -0.2511929518973588,
                -0.09643126014968645,
                0.9511740544806299,
                1.965970297981913
            ]
        },
        {
            "positions": [
                -0.5429836630726723,
                -0.5704171039109351,
                -0.11215540557280357,
                -0.13993391727546195,
                0.8995549065146417,
                2.0365597488891303
            ]
        },
        {
            "positions": [
                -0.4986849305040173,
                -0.6083911655908838,
                0.026882140751751438,
                -0.18343657440123745,
                0.8479357585486536,
                2.107149199796347
            ]
        },
        {
            "positions": [
                -0.4543861979353623,
                -0.6463652272708322,
                0.16591968707630644,
                -0.22693923152701295,
                0.7963166105826655,
                2.1777386507035645
            ]
        },
        {
            "positions": [
                -0.41008746536670737,
                -0.6843392889507809,
                0.30495723340086145,
                -0.27044188865278845,
                0.7446974626166774,
                2.248328101610782
            ]
        },
        {
            "positions": [
                -0.36578873279805235,
                -0.7223133506307295,
                0.44399477972541646,
                -0.31394454577856384,
                0.6930783146506891,
                2.3189175525179992
            ]
        },
        {
            "positions": [
                -0.3214900002293972,
                -0.7602874123106782,
                0.5830323260499719,
                -0.35744720290433957,
                0.6414591666847009,
                2.3895070034252166
            ]
        },
        {
            "positions": [
                -0.2771912676607422,
                -0.7982614739906266,
                0.7220698723745269,
                -0.40094986003011496,
                0.5898400187187127,
                2.460096454332434
            ]
        },
        {
            "positions": [
                -0.2328925350920873,
                -0.8362355356705753,
                0.8611074186990819,
                -0.44445251715589046,
                0.5382208707527247,
                2.5306859052396513
            ]
        },
        {
            "positions": [
                -0.18859380252343227,
                -0.874209597350524,
                1.0001449650236365,
                -0.48795517428166596,
                0.4866017227867365,
                2.6012753561468682
            ]
        },
        {
            "positions": [
                -0.14429506995477726,
                -0.9121836590304724,
                1.1391825113481915,
                -0.5314578314074414,
                0.4349825748207483,
                2.6718648070540856
            ]
        },
        {
            "positions": [
                -0.09999633738612235,
                -0.950157720710421,
                1.2782200576727465,
                -0.5749604885332169,
                0.3833634268547603,
                2.742454257961303
            ]
        },
        {
            "positions": [
                -0.05569760481746733,
                -0.9881317823903697,
                1.4172576039973015,
                -0.6184631456589924,
                0.3317442788887721,
                2.81304370886852
            ]
        },
        {
            "positions": [
                -0.011398872248812308,
                -1.0261058440703184,
                1.556295150321857,
                -0.6619658027847679,
                0.2801251309227839,
                2.883633159775737
            ]
        },
        {
            "positions": [
                0.03289986031984271,
                -1.0640799057502668,
                1.695332696646412,
                -0.7054684599105434,
                0.2285059829567957,
                2.9542226106829546
            ]
        },
        {
            "positions": [
                0.07719859288849773,
                -1.1020539674302154,
                1.834370242970967,
                -0.7489711170363189,
                0.1768868349908077,
                3.024812061590172
            ]
        },
        {
            "positions": [
                0.12149732545715271,
                -1.140028029110164,
                1.9734077892955222,
                -0.7924737741620945,
                0.1252676870248196,
                3.0954015124973893
            ]
        }
    ]
}