{
    "goal": {
        "global_pose": {
            "orientation": {
                "w": 0.7031023502349854,
                "x": -0.7110244035720825,
                "y": 0.007748599164187908,
                "z": 0.005598929710686207
            },
            "position": {
                "x": 0.11585023208521307,
                "y": 0.44412534475326537,
                "z": 0.3711530566215515
            }
        },
        "name": "move_to_auspresseinheit_A"
    },
    "id": "KPIECE_move_to_auspresseinheit_A_142",
    "joint_names": [
        "shoulder_pan_joint",
        "shoulder_lift_joint",
        "elbow_joint",
        "wrist_1_joint",
        "wrist_2_joint",
        "wrist_3_joint"
    ],
    "metrics": {
        "cart_traj_len": 0.6978923307013707,
        "distance_elbow_joint": 0.03317542897666437,
        "distance_shoulder_lift_joint": 0.6481869946304493,
        "distance_shoulder_pan_joint": 1.042739927982923,
        "distance_wrist_1_joint": 0.7921292334939032,
        "distance_wrist_2_joint": 0.6030062557881922,
        "distance_wrist_3_joint": 0.5023239175783174,
        "smoothness": 1.2684315519159062,
        "time": 0.081159867,
        "traj_len": 1.9030401357959978,
        "weighted_distance": 2.4538429213967996
    },
    "planner": "KPIECE",
    "start": {
        "state": {
            "elbow_joint": 2.422574709923281,
            "shoulder_lift_joint": -1.3736533754116391,
            "shoulder_pan_joint": -0.33786336945926293,
            "wrist_1_joint": -1.0288603412921917,
            "wrist_2_joint": 1.2330224858903978,
            "wrist_3_joint": -3.094022268022082
        }
    },
    "waypoints": [
        {
            "positions": [
                -0.33786336945926293,
                -1.3736533754116391,
                2.422574709923281,
                -1.0288603412921917,
                1.2330224858903978,
                -3.094022268022082
            ]
        },
        {
            "positions": [
                -0.2160632902780943,
                -1.4472230864388906,
                2.4195095778391287,
                -0.9434496067517938,
                1.1619330862458601,
                -3.065842308579731
            ]
        },
        {
            "positions": [
                -0.09426321109692565,
                -1.5207927974661422,
                2.4164444457549763,
                -0.8580388722113959,
                1.0908436866013225,
                -3.03766234913738
            ]
        },
        {
            "positions": [
                0.027536868084242994,
                -1.594362508493394,
                2.413379313670824,
                -0.7726281376709978,
                1.0197542869567848,
                -3.009482389695029
            ]
        },
        {
            "positions": [
                0.14933694726541163,
                -1.6679322195206454,
                2.4103141815866715,
                -0.6872174031305999,
                0.9486648873122472,
                -2.9813024302526774
            ]
        },
        {
            "positions": [
                0.2711370264465803,
                -1.741501930547897,
                2.407249049502519,
                -0.6018066685902019,
                0.8775754876677095,
                -2.9531224708103263
            ]
        },
        {
            "positions": [
                0.3929371056277489,
                -1.8150716415751487,
                2.404183917418367,
                -0.5163959340498039,
                0.8064860880231719,
                -2.9249425113679752
            ]
        },
        {
            "positions": [
                0.5147371848089175,
                -1.8886413526024002,
                2.4011187853342144,
                -0.43098519950940595,
                0.7353966883786343,
                -2.896762551925624
            ]
        },
        {
            "positions": [
                0.6365372639900861,
                -1.9622110636296517,
                2.398053653250062,
                -0.34557446496900796,
                0.6643072887340966,
                -2.868582592483273
            ]
        },
        {
            "positions": [
                0.6707069112568731,
                -1.9323964104234332,
                2.3937264670983396,
                -0.39999614355436763,
                0.6814528180500421,
                -3.0070247135030272
            ]
        },
        {
            "positions": [
                0.7048765585236599,
                -1.902581757217215,
                2.3893992809466167,
                -0.4544178221397273,
                0.6985983473659877,
                -3.1454668345227814
            ]
        }
    ]
}