{
    "goal": {
        "global_pose": {
            "orientation": {
                "w": 0.7047431468963623,
                "x": -0.7094548344612122,
                "y": 0.0024358443915843964,
                "z": -0.0022348060738295317
            },
            "position": {
                "x": 0.6094750761985779,
                "y": 0.3671506643295288,
                "z": 0.19426114857196808
            }
        },
        "name": "move_to_magneteinheit_A"
    },
    "id": "KPIECE_move_to_magneteinheit_A_23",
    "joint_names": [
        "shoulder_pan_joint",
        "shoulder_lift_joint",
        "elbow_joint",
        "wrist_1_joint",
        "wrist_2_joint",
        "wrist_3_joint"
    ],
    "metrics": {
        "cart_traj_len": 2.004878249801961,
        "distance_elbow_joint": 3.8787489491651757,
        "distance_shoulder_lift_joint": 1.3008476640834943,
        "distance_shoulder_pan_joint": 1.2423048981269733,
        "distance_wrist_1_joint": 1.1412483479734703,
        "distance_wrist_2_joint": 1.5805386401262218,
        "distance_wrist_3_joint": 4.379988388308176,
        "smoothness": 0.20034453756444182,
        "time": 0.194593821,
        "traj_len": 3.6774552190045102,
        "weighted_distance": 5.000544035652475
    },
    "planner": "KPIECE",
    "start": {
        "state": {
            "elbow_joint": -1.919643507792019,
            "shoulder_lift_joint": -0.07675430207160344,
            "shoulder_pan_joint": -1.1188671864651873,
            "wrist_1_joint": 0.42560062535961957,
            "wrist_2_joint": 1.5706038300724876,
            "wrist_3_joint": 1.1188968870953055
        }
    },
    "waypoints": [
        {
            "positions": [
                -1.1188671864651873,
                -0.07675430207160344,
                -1.919643507792019,
                0.42560062535961957,
                1.5706038300724876,
                1.1188968870953055
            ]
        },
        {
            "positions": [
                -1.0866883211093468,
                -0.11244452423700856,
                -1.802493273741856,
                0.39586522744106717,
                1.5249290318888356,
                0.9871671258760165
            ]
        },
        {
            "positions": [
                -1.0545094557535062,
                -0.14813474640241367,
                -1.6853430396916929,
                0.3661298295225147,
                1.4792542337051835,
                0.8554373646567275
            ]
        },
        {
            "positions": [
                -1.0223305903976658,
                -0.1838249685678188,
                -1.5681928056415297,
                0.3363944316039623,
                1.4335794355215314,
                0.7237076034374386
            ]
        },
        {
            "positions": [
                -0.9901517250418252,
                -0.2195151907332239,
                -1.4510425715913664,
                0.3066590336854099,
                1.3879046373378794,
                0.5919778422181494
            ]
        },
        {
            "positions": [
                -0.9579728596859847,
                -0.255205412898629,
                -1.3338923375412035,
                0.27692363576685747,
                1.3422298391542273,
                0.4602480809988605
            ]
        },
        {
            "positions": [
                -0.9257939943301441,
                -0.29089563506403415,
                -1.2167421034910402,
                0.24718823784830504,
                1.2965550409705753,
                0.32851831977957147
            ]
        },
        {
            "positions": [
                -0.8936151289743035,
                -0.3265858572294392,
                -1.0995918694408773,
                0.21745283992975264,
                1.2508802427869232,
                0.19678855856028243
            ]
        },
        {
            "positions": [
                -0.861436263618463,
                -0.36227607939484435,
                -0.9824416353907139,
                0.18771744201120022,
                1.2052054446032712,
                0.06505879734099329
            ]
        },
        {
            "positions": [
                -0.8292573982626226,
                -0.3979663015602495,
                -0.865291401340551,
                0.15798204409264782,
                1.1595306464196193,
                -0.06667096387829541
            ]
        },
        {
            "positions": [
                -0.797078532906782,
                -0.4336565237256546,
                -0.7481411672903877,
                0.12824664617409537,
                1.113855848235967,
                -0.19840072509758455
            ]
        },
        {
            "positions": [
                -0.7648996675509414,
                -0.4693467458910597,
                -0.6309909332402246,
                0.09851124825554297,
                1.0681810500523152,
                -0.3301304863168735
            ]
        },
        {
            "positions": [
                -0.7327208021951008,
                -0.5050369680564648,
                -0.5138406991900615,
                0.06877585033699052,
                1.0225062518686632,
                -0.4618602475361626
            ]
        },
        {
            "positions": [
                -0.7005419368392604,
                -0.54072719022187,
                -0.39669046513989836,
                0.039040452418438176,
                0.976831453685011,
                -0.5935900087554515
            ]
        },
        {
            "positions": [
                -0.6683630714834198,
                -0.5764174123872751,
                -0.27954023108973525,
                0.009305054499885723,
                0.931156655501359,
                -0.7253197699747407
            ]
        },
        {
            "positions": [
                -0.6361842061275793,
                -0.6121076345526801,
                -0.16238999703957213,
                -0.020430343418666674,
                0.8854818573177069,
                -0.8570495311940296
            ]
        },
        {
            "positions": [
                -0.6040053407717387,
                -0.6477978567180853,
                -0.045239762989408794,
                -0.05016574133721913,
                0.8398070591340548,
                -0.988779292413319
            ]
        },
        {
            "positions": [
                -0.5718264754158981,
                -0.6834880788834905,
                0.0719104710607541,
                -0.07990113925577152,
                0.7941322609504028,
                -1.1205090536326074
            ]
        },
        {
            "positions": [
                -0.5396476100600577,
                -0.7191783010488955,
                0.189060705110917,
                -0.10963653717432392,
                0.7484574627667508,
                -1.2522388148518964
            ]
        },
        {
            "positions": [
                -0.507468744704217,
                -0.7548685232143006,
                0.3062109391610808,
                -0.13937193509287643,
                0.7027826645830987,
                -1.3839685760711857
            ]
        },
        {
            "positions": [
                -0.4752898793483765,
                -0.7905587453797058,
                0.42336117321124367,
                -0.16910733301142883,
                0.6571078663994466,
                -1.5156983372904747
            ]
        },
        {
            "positions": [
                -0.44311101399253605,
                -0.8262489675451108,
                0.5405114072614066,
                -0.19884273092998123,
                0.6114330682157946,
                -1.6474280985097636
            ]
        },
        {
            "positions": [
                -0.41093214863669547,
                -0.861939189710516,
                0.6576616413115699,
                -0.22857812884853362,
                0.5657582700321426,
                -1.7791578597290525
            ]
        },
        {
            "positions": [
                -0.3787532832808549,
                -0.8976294118759212,
                0.7748118753617332,
                -0.25831352676708613,
                0.5200834718484904,
                -1.9108876209483419
            ]
        },
        {
            "positions": [
                -0.3465744179250144,
                -0.9333196340413263,
                0.8919621094118961,
                -0.28804892468563853,
                0.4744086736648385,
                -2.042617382167631
            ]
        },
        {
            "positions": [
                -0.31439555256917384,
                -0.9690098562067313,
                1.0091123434620595,
                -0.3177843226041908,
                0.42873387548118647,
                -2.1743471433869197
            ]
        },
        {
            "positions": [
                -0.2822166872133334,
                -1.0047000783721365,
                1.1262625775122224,
                -0.3475197205227432,
                0.3830590772975344,
                -2.3060769046062086
            ]
        },
        {
            "positions": [
                -0.2500378218574927,
                -1.0403903005375417,
                1.2434128115623857,
                -0.3772551184412957,
                0.33738427911388214,
                -2.437806665825498
            ]
        },
        {
            "positions": [
                -0.2178589565016522,
                -1.0760805227029466,
                1.3605630456125486,
                -0.4069905163598481,
                0.2917094809302303,
                -2.569536427044787
            ]
        },
        {
            "positions": [
                -0.18568009114581174,
                -1.1117707448683518,
                1.477713279662712,
                -0.4367259142784005,
                0.24603468274657825,
                -2.701266188264076
            ]
        },
        {
            "positions": [
                -0.15350122578997116,
                -1.147460967033757,
                1.5948635137128748,
                -0.4664613121969529,
                0.2003598845629262,
                -2.8329959494833648
            ]
        },
        {
            "positions": [
                -0.12132236043413058,
                -1.1831511891991622,
                1.7120137477630382,
                -0.4961967101155054,
                0.15468508637927414,
                -2.964725710702654
            ]
        },
        {
            "positions": [
                -0.08914349507829011,
                -1.2188414113645671,
                1.8291639818132015,
                -0.5259321080340578,
                0.10901028819562208,
                -3.0964554719219435
            ]
        },
        {
            "positions": [
                -0.05696462972244959,
                -1.2545316335299723,
                1.9463142158633644,
                -0.5556675059526102,
                0.06333549001197004,
                -3.2281852331412324
            ]
        },
        {
            "positions": [
                0.033236540969668105,
                -1.1929964672174096,
                1.9527098286182605,
                -0.6356576142832304,
                0.09997064004482223,
                -3.244638367177051
            ]
        },
        {
            "positions": [
                0.1234377116617858,
                -1.1314613009048469,
                1.9591054413731566,
                -0.7156477226138507,
                0.1366057900776744,
                -3.26109150121287
            ]
        }
    ]
}