{
    "goal": {
        "global_pose": {
            "orientation": {
                "w": 0.7031023502349854,
                "x": -0.7110244035720825,
                "y": 0.007748599164187908,
                "z": 0.005598929710686207
            },
            "position": {
                "x": 0.11585023208521307,
                "y": 0.44412534475326537,
                "z": 0.3711530566215515
            }
        },
        "name": "move_to_auspresseinheit_A"
    },
    "id": "KPIECE_move_to_auspresseinheit_A_43",
    "joint_names": [
        "shoulder_pan_joint",
        "shoulder_lift_joint",
        "elbow_joint",
        "wrist_1_joint",
        "wrist_2_joint",
        "wrist_3_joint"
    ],
    "metrics": {
        "cart_traj_len": 0.7085567339360073,
        "distance_elbow_joint": 0.18916845974551855,
        "distance_shoulder_lift_joint": 0.5726361582387742,
        "distance_shoulder_pan_joint": 1.0431261215246201,
        "distance_wrist_1_joint": 1.079158963409133,
        "distance_wrist_2_joint": 1.132630797046859,
        "distance_wrist_3_joint": 1.110428008062756,
        "smoothness": 1.1997294385418855,
        "time": 0.713377912,
        "traj_len": 2.2643207608525033,
        "weighted_distance": 3.0918917000129813
    },
    "planner": "KPIECE",
    "start": {
        "state": {
            "elbow_joint": 2.422574709923281,
            "shoulder_lift_joint": -1.3736533754116391,
            "shoulder_pan_joint": -0.33786336945926293,
            "wrist_1_joint": -1.0288603412921917,
            "wrist_2_joint": 1.2330224858903978,
            "wrist_3_joint": -3.094022268022082
        }
    },
    "waypoints": [
        {
            "positions": [
                -0.33786336945926293,
                -1.3736533754116391,
                2.422574709923281,
                -1.0288603412921917,
                1.2330224858903978,
                -3.094022268022082
            ]
        },
        {
            "positions": [
                -0.29222864496563955,
                -1.4350269409975371,
                2.4104130936920933,
                -0.9379112074707883,
                1.1404244520045814,
                -3.0341603751714223
            ]
        },
        {
            "positions": [
                -0.24659392047201617,
                -1.4964005065834352,
                2.398251477460906,
                -0.8469620736493848,
                1.047826418118765,
                -2.974298482320763
            ]
        },
        {
            "positions": [
                -0.20095919597839276,
                -1.5577740721693332,
                2.3860898612297183,
                -0.7560129398279813,
                0.9552283842329488,
                -2.914436589470103
            ]
        },
        {
            "positions": [
                -0.15532447148476938,
                -1.6191476377552312,
                2.3739282449985306,
                -0.6650638060065779,
                0.8626303503471324,
                -2.854574696619444
            ]
        },
        {
            "positions": [
                -0.10968974699114595,
                -1.680521203341129,
                2.3617666287673433,
                -0.5741146721851744,
                0.7700323164613161,
                -2.794712803768784
            ]
        },
        {
            "positions": [
                -0.0640550224975226,
                -1.741894768927027,
                2.3496050125361556,
                -0.48316553836377096,
                0.6774342825754998,
                -2.7348509109181247
            ]
        },
        {
            "positions": [
                -0.01842029800389916,
                -1.803268334512925,
                2.337443396304968,
                -0.3922164045423675,
                0.5848362486896834,
                -2.674989018067465
            ]
        },
        {
            "positions": [
                0.027214426489724164,
                -1.864641900098823,
                2.3252817800737806,
                -0.30126727072096404,
                0.4922382148038671,
                -2.6151271252168056
            ]
        },
        {
            "positions": [
                0.0728491509833476,
                -1.926015465684721,
                2.313120163842593,
                -0.21031813689956053,
                0.39964018091805076,
                -2.5552652323661458
            ]
        },
        {
            "positions": [
                0.19933187119974952,
                -1.9219606520915826,
                2.329062946575559,
                -0.2624414887028609,
                0.45948987933295316,
                -2.6695994268475096
            ]
        },
        {
            "positions": [
                0.32581459141615143,
                -1.9179058384984442,
                2.345005729308525,
                -0.3145648405061612,
                0.5193395777478556,
                -2.7839336213288735
            ]
        },
        {
            "positions": [
                0.4522973116325534,
                -1.9138510249053056,
                2.360948512041491,
                -0.3666881923094615,
                0.5791892761627578,
                -2.8982678158102377
            ]
        },
        {
            "positions": [
                0.5787800318489553,
                -1.9097962113121671,
                2.3768912947744574,
                -0.4188115441127619,
                0.6390389745776602,
                -3.0126020102916016
            ]
        },
        {
            "positions": [
                0.7052627520653573,
                -1.9057413977190287,
                2.3928340775074233,
                -0.4709348959160622,
                0.6988886729925626,
                -3.1269362047729654
            ]
        }
    ]
}