{
    "goal": {
        "global_pose": {
            "orientation": {
                "w": 0.7031023502349854,
                "x": -0.7110244035720825,
                "y": 0.007748599164187908,
                "z": 0.005598929710686207
            },
            "position": {
                "x": 0.11585023208521307,
                "y": 0.44412534475326537,
                "z": 0.3711530566215515
            }
        },
        "name": "move_to_auspresseinheit_A"
    },
    "id": "KPIECE_move_to_auspresseinheit_A_128",
    "joint_names": [
        "shoulder_pan_joint",
        "shoulder_lift_joint",
        "elbow_joint",
        "wrist_1_joint",
        "wrist_2_joint",
        "wrist_3_joint"
    ],
    "metrics": {
        "cart_traj_len": 2.3231431276742764,
        "distance_elbow_joint": 2.822039921542227,
        "distance_shoulder_lift_joint": 0.9110054761413986,
        "distance_shoulder_pan_joint": 1.1361087837759143,
        "distance_wrist_1_joint": 1.9482547612902978,
        "distance_wrist_2_joint": 3.4884021110045422,
        "distance_wrist_3_joint": 6.083439434970122,
        "smoothness": 0.46137755194677627,
        "time": 0.31133426200000003,
        "traj_len": 4.048363927406293,
        "weighted_distance": 5.830333286439084
    },
    "planner": "KPIECE",
    "start": {
        "state": {
            "elbow_joint": 2.422574709923281,
            "shoulder_lift_joint": -1.3736533754116391,
            "shoulder_pan_joint": -0.33786336945926293,
            "wrist_1_joint": -1.0288603412921917,
            "wrist_2_joint": 1.2330224858903978,
            "wrist_3_joint": -3.094022268022082
        }
    },
    "waypoints": [
        {
            "positions": [
                -0.33786336945926293,
                -1.3736533754116391,
                2.422574709923281,
                -1.0288603412921917,
                1.2330224858903978,
                -3.094022268022082
            ]
        },
        {
            "positions": [
                -0.3038548902971069,
                -1.3951879340893847,
                2.3565510706652155,
                -1.0620937221705062,
                1.1483563009341997,
                -2.9497879469834856
            ]
        },
        {
            "positions": [
                -0.26984641113495084,
                -1.41672249276713,
                2.2905274314071504,
                -1.0953271030488207,
                1.0636901159780017,
                -2.8055536259448886
            ]
        },
        {
            "positions": [
                -0.2358379319727948,
                -1.4382570514448756,
                2.224503792149085,
                -1.1285604839271355,
                0.9790239310218036,
                -2.661319304906292
            ]
        },
        {
            "positions": [
                -0.20182945281063877,
                -1.4597916101226212,
                2.1584801528910194,
                -1.16179386480545,
                0.8943577460656056,
                -2.517084983867695
            ]
        },
        {
            "positions": [
                -0.16782097364848272,
                -1.4813261688003665,
                2.092456513632954,
                -1.1950272456837645,
                0.8096915611094075,
                -2.3728506628290984
            ]
        },
        {
            "positions": [
                -0.13381249448632668,
                -1.502860727478112,
                2.0264328743748887,
                -1.228260626562079,
                0.7250253761532095,
                -2.2286163417905014
            ]
        },
        {
            "positions": [
                -0.09980401532417063,
                -1.5243952861558576,
                1.9604092351168232,
                -1.2614940074403937,
                0.6403591911970115,
                -2.084382020751905
            ]
        },
        {
            "positions": [
                -0.06579553616201461,
                -1.545929844833603,
                1.8943855958587577,
                -1.2947273883187083,
                0.5556930062408134,
                -1.940147699713308
            ]
        },
        {
            "positions": [
                -0.031787056999858565,
                -1.5674644035113485,
                1.8283619566006923,
                -1.3279607691970228,
                0.47102682128461537,
                -1.7959133786747115
            ]
        },
        {
            "positions": [
                0.0022214221622974817,
                -1.588998962189094,
                1.762338317342627,
                -1.3611941500753373,
                0.3863606363284172,
                -1.6516790576361147
            ]
        },
        {
            "positions": [
                0.036229901324453584,
                -1.6105335208668394,
                1.6963146780845615,
                -1.394427530953652,
                0.3016944513722192,
                -1.5074447365975177
            ]
        },
        {
            "positions": [
                0.07023838048660958,
                -1.632068079544585,
                1.630291038826496,
                -1.4276609118319665,
                0.21702826641602124,
                -1.363210415558921
            ]
        },
        {
            "positions": [
                0.10424685964876568,
                -1.6536026382223306,
                1.5642673995684304,
                -1.460894292710281,
                0.13236208145982298,
                -1.2189760945203243
            ]
        },
        {
            "positions": [
                0.13825533881092167,
                -1.675137196900076,
                1.4982437603103653,
                -1.4941276735885956,
                0.04769589650362516,
                -1.0747417734817275
            ]
        },
        {
            "positions": [
                0.17226381797307772,
                -1.6966717555778215,
                1.4322201210522998,
                -1.52736105446691,
                -0.03697028845257311,
                -0.9305074524431305
            ]
        },
        {
            "positions": [
                0.2062722971352337,
                -1.7182063142555668,
                1.3661964817942345,
                -1.5605944353452248,
                -0.12163647340877093,
                -0.7862731314045339
            ]
        },
        {
            "positions": [
                0.2402807762973898,
                -1.7397408729333124,
                1.300172842536169,
                -1.5938278162235393,
                -0.2063026583649692,
                -0.6420388103659374
            ]
        },
        {
            "positions": [
                0.2742892554595458,
                -1.761275431611058,
                1.2341492032781036,
                -1.6270611971018538,
                -0.290968843321167,
                -0.4978044893273408
            ]
        },
        {
            "positions": [
                0.3082977346217019,
                -1.7828099902888035,
                1.168125564020038,
                -1.6602945779801686,
                -0.3756350282773653,
                -0.35357016828874377
            ]
        },
        {
            "positions": [
                0.3423062137838579,
                -1.8043445489665488,
                1.1021019247619728,
                -1.6935279588584828,
                -0.4603012132335633,
                -0.2093358472501472
            ]
        },
        {
            "positions": [
                0.376314692946014,
                -1.8258791076442944,
                1.0360782855039072,
                -1.7267613397367976,
                -0.5449673981897614,
                -0.06510152621155
            ]
        },
        {
            "positions": [
                0.41666857346839276,
                -1.8597592774111504,
                1.179333464200041,
                -1.7065669978726676,
                -0.5736587344637347,
                -0.15503060486838238
            ]
        },
        {
            "positions": [
                0.4570224539907715,
                -1.8936394471780065,
                1.3225886428961748,
                -1.686372656008538,
                -0.602350070737708,
                -0.24495968352521474
            ]
        },
        {
            "positions": [
                0.49737633451315033,
                -1.9275196169448623,
                1.4658438215923089,
                -1.6661783141444082,
                -0.6310414070116812,
                -0.33488876218204716
            ]
        },
        {
            "positions": [
                0.5377302150355291,
                -1.9613997867117183,
                1.6090990002884427,
                -1.6459839722802783,
                -0.6597327432856546,
                -0.4248178408388795
            ]
        },
        {
            "positions": [
                0.5780840955579079,
                -1.9952799564785744,
                1.7523541789845765,
                -1.6257896304161483,
                -0.6884240795596279,
                -0.5147469194957118
            ]
        },
        {
            "positions": [
                0.6184379760802866,
                -2.02916012624543,
                1.8956093576807103,
                -1.6055952885520186,
                -0.7171154158336012,
                -0.6046759981525442
            ]
        },
        {
            "positions": [
                0.6587918566026654,
                -2.0630402960122862,
                2.038864536376844,
                -1.585400946687889,
                -0.7458067521075744,
                -0.6946050768093766
            ]
        },
        {
            "positions": [
                0.6991457371250441,
                -2.0969204657791423,
                2.182119715072978,
                -1.565206604823759,
                -0.7744980883815478,
                -0.784534155466209
            ]
        },
        {
            "positions": [
                0.7045237533006221,
                -2.086027094890267,
                2.2049665821013704,
                -1.4921326132479373,
                -0.6737999243010089,
                -0.9526655733555008
            ]
        },
        {
            "positions": [
                0.7099017694762,
                -2.075133724001392,
                2.227813449129763,
                -1.4190586216721157,
                -0.5731017602204701,
                -1.1207969912447926
            ]
        },
        {
            "positions": [
                0.715279785651778,
                -2.064240353112517,
                2.2506603161581555,
                -1.345984630096294,
                -0.47240359613993127,
                -1.2889284091340845
            ]
        },
        {
            "positions": [
                0.720657801827356,
                -2.0533469822236414,
                2.273507183186548,
                -1.2729106385204725,
                -0.3717054320593924,
                -1.4570598270233763
            ]
        },
        {
            "positions": [
                0.7260358180029338,
                -2.042453611334766,
                2.2963540502149407,
                -1.1998366469446509,
                -0.27100726797885355,
                -1.625191244912668
            ]
        },
        {
            "positions": [
                0.7314138341785118,
                -2.031560240445891,
                2.3192009172433328,
                -1.1267626553688292,
                -0.17030910389831477,
                -1.7933226628019598
            ]
        },
        {
            "positions": [
                0.7367918503540898,
                -2.020666869557016,
                2.3420477842717253,
                -1.0536886637930076,
                -0.06961093981777589,
                -1.9614540806912517
            ]
        },
        {
            "positions": [
                0.7421698665296678,
                -2.0097734986681406,
                2.364894651300118,
                -0.980614672217186,
                0.031087224262763002,
                -2.1295854985805436
            ]
        },
        {
            "positions": [
                0.7475478827052456,
                -1.9988801277792654,
                2.3877415183285104,
                -0.9075406806413644,
                0.1317853883433019,
                -2.2977169164698354
            ]
        },
        {
            "positions": [
                0.7529258988808236,
                -1.9879867568903902,
                2.410588385356903,
                -0.8344666890655428,
                0.23248355242384078,
                -2.4658483343591273
            ]
        },
        {
            "positions": [
                0.7508510397565936,
                -1.9768017940820086,
                2.4179926316517486,
                -0.7743327589549609,
                0.3145775341297885,
                -2.5892624466815777
            ]
        },
        {
            "positions": [
                0.7487761806323636,
                -1.9656168312736273,
                2.425396877946594,
                -0.7141988288443789,
                0.39667151583573623,
                -2.712676559004028
            ]
        },
        {
            "positions": [
                0.7467013215081336,
                -1.9544318684652457,
                2.43280112424144,
                -0.654064898733797,
                0.47876549754168396,
                -2.8360906713264784
            ]
        },
        {
            "positions": [
                0.7336696754870876,
                -1.939348605645246,
                2.419860904779666,
                -0.5948457914528998,
                0.554638147811472,
                -2.9306005206746994
            ]
        },
        {
            "positions": [
                0.7206380294660417,
                -1.9242653428252465,
                2.4069206853178926,
                -0.5356266841720028,
                0.6305107980812601,
                -3.0251103700229205
            ]
        },
        {
            "positions": [
                0.7076063834449957,
                -1.9091820800052468,
                2.393980465856119,
                -0.4764075768911056,
                0.7063834483510483,
                -3.1196202193711415
            ]
        }
    ]
}