{
    "goal": {
        "global_pose": {
            "orientation": {
                "w": 0.7031023502349854,
                "x": -0.7110244035720825,
                "y": 0.007748599164187908,
                "z": 0.005598929710686207
            },
            "position": {
                "x": 0.11585023208521307,
                "y": 0.44412534475326537,
                "z": 0.3711530566215515
            }
        },
        "name": "move_to_auspresseinheit_A"
    },
    "id": "KPIECE_move_to_auspresseinheit_A_73",
    "joint_names": [
        "shoulder_pan_joint",
        "shoulder_lift_joint",
        "elbow_joint",
        "wrist_1_joint",
        "wrist_2_joint",
        "wrist_3_joint"
    ],
    "metrics": {
        "cart_traj_len": 0.7028517729677205,
        "distance_elbow_joint": 0.09089766164600155,
        "distance_shoulder_lift_joint": 0.5341229808985288,
        "distance_shoulder_pan_joint": 1.041997881385306,
        "distance_wrist_1_joint": 1.793829445157268,
        "distance_wrist_2_joint": 0.5368287864967958,
        "distance_wrist_3_joint": 1.1772393692241065,
        "smoothness": 1.3090637280689987,
        "time": 0.16617543499999998,
        "traj_len": 2.2748441979194984,
        "weighted_distance": 3.1400721480421883
    },
    "planner": "KPIECE",
    "start": {
        "state": {
            "elbow_joint": 2.422574709923281,
            "shoulder_lift_joint": -1.3736533754116391,
            "shoulder_pan_joint": -0.33786336945926293,
            "wrist_1_joint": -1.0288603412921917,
            "wrist_2_joint": 1.2330224858903978,
            "wrist_3_joint": -3.094022268022082
        }
    },
    "waypoints": [
        {
            "positions": [
                -0.33786336945926293,
                -1.3736533754116391,
                2.422574709923281,
                -1.0288603412921917,
                1.2330224858903978,
                -3.094022268022082
            ]
        },
        {
            "positions": [
                -0.2493934778924814,
                -1.4302548805378341,
                2.4234148526724146,
                -0.8975442166657714,
                1.205835367216411,
                -3.030749121341993
            ]
        },
        {
            "positions": [
                -0.16092358632569984,
                -1.486856385664029,
                2.4242549954215478,
                -0.7662280920393512,
                1.1786482485424246,
                -2.9674759746619044
            ]
        },
        {
            "positions": [
                -0.07245369475891833,
                -1.5434578907902239,
                2.4250951381706813,
                -0.6349119674129309,
                1.1514611298684378,
                -2.9042028279818153
            ]
        },
        {
            "positions": [
                0.01601619680786326,
                -1.6000593959164187,
                2.425935280919815,
                -0.5035958427865106,
                1.1242740111944514,
                -2.840929681301726
            ]
        },
        {
            "positions": [
                0.10448608837464479,
                -1.6566609010426137,
                2.426775423668948,
                -0.3722797181600903,
                1.0970868925204647,
                -2.7776565346216375
            ]
        },
        {
            "positions": [
                0.19295597994142627,
                -1.7132624061688084,
                2.4276155664180816,
                -0.24096359353367003,
                1.069899773846478,
                -2.7143833879415484
            ]
        },
        {
            "positions": [
                0.2814258715082079,
                -1.7698639112950034,
                2.428455709167215,
                -0.10964746890724975,
                1.0427126551724915,
                -2.6511102412614593
            ]
        },
        {
            "positions": [
                0.36989576307498945,
                -1.8264654164211982,
                2.4292958519163483,
                0.021668655719170538,
                1.0155255364985047,
                -2.5878370945813707
            ]
        },
        {
            "positions": [
                0.4583656546417709,
                -1.8830669215473932,
                2.430135994665482,
                0.15298478034559082,
                0.9883384178245181,
                -2.5245639479012816
            ]
        },
        {
            "positions": [
                0.5050095789412593,
                -1.8887341017671655,
                2.4150039860462473,
                0.012696027258474546,
                0.9155138940939127,
                -2.6381083572576625
            ]
        },
        {
            "positions": [
                0.5516535032407477,
                -1.894401281986938,
                2.3998719774270127,
                -0.12759272582864173,
                0.8426893703633072,
                -2.751652766614044
            ]
        },
        {
            "positions": [
                0.5982974275402361,
                -1.9000684622067103,
                2.384739968807778,
                -0.267881478915758,
                0.7698648466327017,
                -2.865197175970425
            ]
        },
        {
            "positions": [
                0.6449413518397245,
                -1.9057356424264826,
                2.3696079601885436,
                -0.4081702320028743,
                0.6970403229020963,
                -2.978741585326806
            ]
        },
        {
            "positions": [
                0.7041345119260428,
                -1.907776356310168,
                2.392416302615406,
                -0.458999543173895,
                0.6978869464105906,
                -3.1323449970045876
            ]
        }
    ]
}