{
    "goal": {
        "global_pose": {
            "orientation": {
                "w": 0.5084816217422485,
                "x": -0.49083608388900757,
                "y": 0.5182115435600281,
                "z": -0.4816462993621826
            },
            "position": {
                "x": 0.5540239810943604,
                "y": 0.030875300988554955,
                "z": 0.16403168439865112
            }
        },
        "name": "move_to_storage_A"
    },
    "id": "KPIECE_move_to_storage_A_115",
    "joint_names": [
        "shoulder_pan_joint",
        "shoulder_lift_joint",
        "elbow_joint",
        "wrist_1_joint",
        "wrist_2_joint",
        "wrist_3_joint"
    ],
    "metrics": {
        "cart_traj_len": 0.3523968818188452,
        "distance_elbow_joint": 0.4483883462665643,
        "distance_shoulder_lift_joint": 0.23361044528953645,
        "distance_shoulder_pan_joint": 0.4617688562817648,
        "distance_wrist_1_joint": 0.2392638717766934,
        "distance_wrist_2_joint": 1.0926408447060683,
        "distance_wrist_3_joint": 0.10354168356694071,
        "smoothness": 2.2204460527667473e-15,
        "time": 0.10951835,
        "traj_len": 1.6059931655793458,
        "weighted_distance": 2.029335391576319
    },
    "planner": "KPIECE",
    "start": {
        "state": {
            "elbow_joint": 1.9715463870305268,
            "shoulder_lift_joint": -1.1394903361783484,
            "shoulder_pan_joint": 0.12281147578464417,
            "wrist_1_joint": -0.7804599489681411,
            "wrist_2_joint": 0.12958660307563738,
            "wrist_3_joint": -3.1924946282119055
        }
    },
    "waypoints": [
        {
            "positions": [
                0.12281147578464417,
                -1.1394903361783484,
                1.9715463870305268,
                -0.7804599489681411,
                0.12958660307563738,
                -3.1924946282119055
            ]
        },
        {
            "positions": [
                0.05684449631582064,
                -1.1728632569339965,
                2.035601865068607,
                -0.8146405020790973,
                0.28567815231936144,
                -3.177702959130914
            ]
        },
        {
            "positions": [
                -0.009122483153002889,
                -1.2062361776896444,
                2.099657343106688,
                -0.8488210551900535,
                0.4417697015630855,
                -3.1629112900499226
            ]
        },
        {
            "positions": [
                -0.07508946262182643,
                -1.2396090984452925,
                2.1637128211447685,
                -0.8830016083010097,
                0.5978612508068095,
                -3.148119620968931
            ]
        },
        {
            "positions": [
                -0.14105644209064994,
                -1.2729820192009407,
                2.2277682991828494,
                -0.9171821614119658,
                0.7539528000505336,
                -3.1333279518879396
            ]
        },
        {
            "positions": [
                -0.2070234215594735,
                -1.3063549399565888,
                2.29182377722093,
                -0.9513627145229221,
                0.9100443492942576,
                -3.118536282806948
            ]
        },
        {
            "positions": [
                -0.272990401028297,
                -1.3397278607122367,
                2.35587925525901,
                -0.9855432676338782,
                1.0661358985379816,
                -3.1037446137259566
            ]
        },
        {
            "positions": [
                -0.3389573804971206,
                -1.3731007814678848,
                2.419934733297091,
                -1.0197238207448345,
                1.2222274477817057,
                -3.088952944644965
            ]
        }
    ]
}