{
    "goal": {
        "global_pose": {
            "orientation": {
                "w": 0.7031023502349854,
                "x": -0.7110244035720825,
                "y": 0.007748599164187908,
                "z": 0.005598929710686207
            },
            "position": {
                "x": 0.11585023208521307,
                "y": 0.44412534475326537,
                "z": 0.3711530566215515
            }
        },
        "name": "move_to_auspresseinheit_A"
    },
    "id": "KPIECE_move_to_auspresseinheit_A_87",
    "joint_names": [
        "shoulder_pan_joint",
        "shoulder_lift_joint",
        "elbow_joint",
        "wrist_1_joint",
        "wrist_2_joint",
        "wrist_3_joint"
    ],
    "metrics": {
        "cart_traj_len": 2.926773811247972,
        "distance_elbow_joint": 3.0608920277476046,
        "distance_shoulder_lift_joint": 0.6072972338173102,
        "distance_shoulder_pan_joint": 1.9198215856388217,
        "distance_wrist_1_joint": 1.337762610595811,
        "distance_wrist_2_joint": 1.5186670075093716,
        "distance_wrist_3_joint": 4.95707241183405,
        "smoothness": 0.569584008235949,
        "time": 0.568645566,
        "traj_len": 3.660807680982841,
        "weighted_distance": 5.1158662334854155
    },
    "planner": "KPIECE",
    "start": {
        "state": {
            "elbow_joint": 2.422574709923281,
            "shoulder_lift_joint": -1.3736533754116391,
            "shoulder_pan_joint": -0.33786336945926293,
            "wrist_1_joint": -1.0288603412921917,
            "wrist_2_joint": 1.2330224858903978,
            "wrist_3_joint": -3.094022268022082
        }
    },
    "waypoints": [
        {
            "positions": [
                -0.33786336945926293,
                -1.3736533754116391,
                2.422574709923281,
                -1.0288603412921917,
                1.2330224858903978,
                -3.094022268022082
            ]
        },
        {
            "positions": [
                -0.2705219219332084,
                -1.3985867548709445,
                2.337554522258361,
                -0.9769918714669249,
                1.1888053296458192,
                -2.972608883057727
            ]
        },
        {
            "positions": [
                -0.20318047440715387,
                -1.42352013433025,
                2.252534334593441,
                -0.9251234016416581,
                1.1445881734012406,
                -2.8511954980933716
            ]
        },
        {
            "positions": [
                -0.13583902688109933,
                -1.4484535137895553,
                2.167514146928521,
                -0.8732549318163912,
                1.100371017156662,
                -2.7297821131290165
            ]
        },
        {
            "positions": [
                -0.0684975793550448,
                -1.4733868932488607,
                2.082493959263601,
                -0.8213864619911244,
                1.0561538609120835,
                -2.6083687281646615
            ]
        },
        {
            "positions": [
                -0.00115613182899027,
                -1.4983202727081664,
                1.997473771598681,
                -0.7695179921658576,
                1.011936704667505,
                -2.486955343200306
            ]
        },
        {
            "positions": [
                0.06618531569706426,
                -1.5232536521674718,
                1.912453583933761,
                -0.7176495223405908,
                0.9677195484229263,
                -2.365541958235951
            ]
        },
        {
            "positions": [
                0.1335267632231188,
                -1.5481870316267772,
                1.827433396268841,
                -0.6657810525153239,
                0.9235023921783477,
                -2.2441285732715954
            ]
        },
        {
            "positions": [
                0.20086821074917333,
                -1.5731204110860826,
                1.7424132086039208,
                -0.6139125826900571,
                0.8792852359337692,
                -2.1227151883072404
            ]
        },
        {
            "positions": [
                0.26820965827522786,
                -1.598053790545388,
                1.6573930209390009,
                -0.5620441128647903,
                0.8350680796891906,
                -2.0013018033428853
            ]
        },
        {
            "positions": [
                0.3355511058012824,
                -1.6229871700046934,
                1.572372833274081,
                -0.5101756430395235,
                0.790850923444612,
                -1.87988841837853
            ]
        },
        {
            "positions": [
                0.4028925533273369,
                -1.6479205494639988,
                1.4873526456091608,
                -0.4583071732142566,
                0.7466337672000334,
                -1.7584750334141748
            ]
        },
        {
            "positions": [
                0.47023400085339145,
                -1.6728539289233044,
                1.4023324579442409,
                -0.4064387033889898,
                0.7024166109554548,
                -1.6370616484498197
            ]
        },
        {
            "positions": [
                0.5375754483794459,
                -1.6977873083826096,
                1.3173122702793207,
                -0.35457023356372297,
                0.6581994547108763,
                -1.5156482634854644
            ]
        },
        {
            "positions": [
                0.6049168959055005,
                -1.7227206878419152,
                1.2322920826144008,
                -0.30270176373845614,
                0.6139822984662977,
                -1.3942348785211092
            ]
        },
        {
            "positions": [
                0.672258343431555,
                -1.7476540673012206,
                1.1472718949494807,
                -0.2508332939131893,
                0.5697651422217191,
                -1.2728214935567541
            ]
        },
        {
            "positions": [
                0.7395997909576096,
                -1.772587446760526,
                1.0622517072845608,
                -0.19896482408792246,
                0.5255479859771406,
                -1.1514081085923988
            ]
        },
        {
            "positions": [
                0.8406646134162085,
                -1.8154365189924537,
                1.0676497554674744,
                -0.16866923085945273,
                0.48458566365586,
                -1.0543670974679316
            ]
        },
        {
            "positions": [
                0.9417294358748072,
                -1.8582855912243814,
                1.0730478036503883,
                -0.13837363763098304,
                0.4436233413345793,
                -0.9573260863434643
            ]
        },
        {
            "positions": [
                1.042794258333406,
                -1.901134663456309,
                1.078445851833302,
                -0.10807804440251331,
                0.40266101901329865,
                -0.8602850752189971
            ]
        },
        {
            "positions": [
                1.1438590807920048,
                -1.9439837356882368,
                1.0838439000162157,
                -0.07778245117404359,
                0.36169869669201804,
                -0.7632440640945298
            ]
        },
        {
            "positions": [
                1.1356874412632865,
                -1.9413775197409278,
                1.2082677271446354,
                -0.08983823911667231,
                0.3489555092330211,
                -0.9711883703560089
            ]
        },
        {
            "positions": [
                1.127515801734568,
                -1.9387713037936187,
                1.3326915542730549,
                -0.10189402705930103,
                0.33621232177402416,
                -1.1791326766174879
            ]
        },
        {
            "positions": [
                1.1193441622058495,
                -1.9361650878463097,
                1.4571153814014746,
                -0.11394981500192977,
                0.3234691343150272,
                -1.387076982878967
            ]
        },
        {
            "positions": [
                1.1111725226771312,
                -1.9335588718990007,
                1.581539208529894,
                -0.12600560294455848,
                0.3107259468560303,
                -1.5950212891404458
            ]
        },
        {
            "positions": [
                1.1030008831484126,
                -1.9309526559516916,
                1.7059630356583138,
                -0.13806139088718722,
                0.29798275939703334,
                -1.802965595401925
            ]
        },
        {
            "positions": [
                1.0948292436196942,
                -1.9283464400043826,
                1.8303868627867335,
                -0.15011717882981596,
                0.2852395719380364,
                -2.010909901663404
            ]
        },
        {
            "positions": [
                1.086657604090976,
                -1.9257402240570733,
                1.9548106899151532,
                -0.1621729667724447,
                0.27249638447903946,
                -2.2188542079248834
            ]
        },
        {
            "positions": [
                1.0784859645622573,
                -1.9231340081097643,
                2.079234517043573,
                -0.1742287547150734,
                0.25975319702004257,
                -2.426798514186362
            ]
        },
        {
            "positions": [
                1.070314325033539,
                -1.9205277921624553,
                2.203658344171992,
                -0.18628454265770214,
                0.24701000956104563,
                -2.6347428204478414
            ]
        },
        {
            "positions": [
                1.0621426855048206,
                -1.9179215762151463,
                2.3280821713004123,
                -0.19834033060033088,
                0.23426682210204866,
                -2.8426871267093206
            ]
        },
        {
            "positions": [
                1.053971045976102,
                -1.9153153602678372,
                2.4525059984288315,
                -0.2103961185429596,
                0.22152363464305175,
                -3.0506314329707993
            ]
        },
        {
            "positions": [
                1.0457994064473837,
                -1.9127091443205282,
                2.5769298255572513,
                -0.22245190648558832,
                0.2087804471840548,
                -3.2585757392322785
            ]
        },
        {
            "positions": [
                0.9607895411866506,
                -1.9112860737772772,
                2.5304570988482027,
                -0.28295572277711806,
                0.332386689384812,
                -3.2258351060400914
            ]
        },
        {
            "positions": [
                0.8757796759259175,
                -1.9098630032340262,
                2.4839843721391546,
                -0.3434595390686478,
                0.4559929315855691,
                -3.1930944728479043
            ]
        },
        {
            "positions": [
                0.7907698106651844,
                -1.9084399326907753,
                2.437511645430106,
                -0.40396335536017747,
                0.5795991737863262,
                -3.1603538396557176
            ]
        },
        {
            "positions": [
                0.7057599454044513,
                -1.9070168621475243,
                2.3910389187210574,
                -0.4644671716517072,
                0.7032054159870834,
                -3.1276132064635305
            ]
        }
    ]
}