{
    "goal": {
        "global_pose": {
            "orientation": {
                "w": 0.5084816217422485,
                "x": -0.49083608388900757,
                "y": 0.5182115435600281,
                "z": -0.4816462993621826
            },
            "position": {
                "x": 0.5540239810943604,
                "y": 0.030875300988554955,
                "z": 0.16403168439865112
            }
        },
        "name": "move_to_storage_A"
    },
    "id": "KPIECE_move_to_storage_A_16",
    "joint_names": [
        "shoulder_pan_joint",
        "shoulder_lift_joint",
        "elbow_joint",
        "wrist_1_joint",
        "wrist_2_joint",
        "wrist_3_joint"
    ],
    "metrics": {
        "cart_traj_len": 0.3532470549378274,
        "distance_elbow_joint": 0.449369092629166,
        "distance_shoulder_lift_joint": 0.2345794031553199,
        "distance_shoulder_pan_joint": 0.45865998346631326,
        "distance_wrist_1_joint": 0.24620506585717294,
        "distance_wrist_2_joint": 1.112621047094043,
        "distance_wrist_3_joint": 0.09791408042252536,
        "smoothness": 1.665334528953551e-15,
        "time": 0.100384695,
        "traj_len": 1.6122495689639804,
        "weighted_distance": 2.038137126500768
    },
    "planner": "KPIECE",
    "start": {
        "state": {
            "elbow_joint": 1.9715463870305268,
            "shoulder_lift_joint": -1.1394903361783484,
            "shoulder_pan_joint": 0.12281147578464417,
            "wrist_1_joint": -0.7804599489681411,
            "wrist_2_joint": 0.12958660307563738,
            "wrist_3_joint": -3.1924946282119055
        }
    },
    "waypoints": [
        {
            "positions": [
                0.12281147578464417,
                -1.1394903361783484,
                1.9715463870305268,
                -0.7804599489681411,
                0.12958660307563738,
                -3.1924946282119055
            ]
        },
        {
            "positions": [
                0.05728862100374228,
                -1.1730016794862512,
                2.035741971691836,
                -0.8156321012334515,
                0.2885324669462149,
                -3.178506902437259
            ]
        },
        {
            "positions": [
                -0.008234233777159608,
                -1.206513022794154,
                2.0999375563531455,
                -0.8508042534987619,
                0.44747833081679245,
                -3.1645191766626124
            ]
        },
        {
            "positions": [
                -0.0737570885580615,
                -1.240024366102057,
                2.164133141014455,
                -0.8859764057640723,
                0.6064241946873701,
                -3.150531450887966
            ]
        },
        {
            "positions": [
                -0.13927994333896337,
                -1.2735357094099597,
                2.2283287256757642,
                -0.9211485580293828,
                0.7653700585579476,
                -3.1365437251133197
            ]
        },
        {
            "positions": [
                -0.2048027981198653,
                -1.3070470527178626,
                2.292524310337074,
                -0.9563207102946931,
                0.9243159224285252,
                -3.1225559993386733
            ]
        },
        {
            "positions": [
                -0.27032565290076715,
                -1.3405583960257654,
                2.3567198949983834,
                -0.9914928625600036,
                1.0832617862991027,
                -3.1085682735640265
            ]
        },
        {
            "positions": [
                -0.3358485076816691,
                -1.3740697393336683,
                2.420915479659693,
                -1.026665014825314,
                1.2422076501696804,
                -3.09458054778938
            ]
        }
    ]
}