{
    "goal": {
        "global_pose": {
            "orientation": {
                "w": 0.7031023502349854,
                "x": -0.7110244035720825,
                "y": 0.007748599164187908,
                "z": 0.005598929710686207
            },
            "position": {
                "x": 0.11585023208521307,
                "y": 0.44412534475326537,
                "z": 0.3711530566215515
            }
        },
        "name": "move_to_auspresseinheit_A"
    },
    "id": "KPIECE_move_to_auspresseinheit_A_21",
    "joint_names": [
        "shoulder_pan_joint",
        "shoulder_lift_joint",
        "elbow_joint",
        "wrist_1_joint",
        "wrist_2_joint",
        "wrist_3_joint"
    ],
    "metrics": {
        "cart_traj_len": 1.0238346625866661,
        "distance_elbow_joint": 0.12423809831767496,
        "distance_shoulder_lift_joint": 0.9351731236581786,
        "distance_shoulder_pan_joint": 1.5358411460695596,
        "distance_wrist_1_joint": 1.8753663105527214,
        "distance_wrist_2_joint": 0.5179012456288296,
        "distance_wrist_3_joint": 3.5146919300686097,
        "smoothness": 0.9932712890922284,
        "time": 1.9214277210000001,
        "traj_len": 2.9160267238651247,
        "weighted_distance": 4.233894574811038
    },
    "planner": "KPIECE",
    "start": {
        "state": {
            "elbow_joint": 2.422574709923281,
            "shoulder_lift_joint": -1.3736533754116391,
            "shoulder_pan_joint": -0.33786336945926293,
            "wrist_1_joint": -1.0288603412921917,
            "wrist_2_joint": 1.2330224858903978,
            "wrist_3_joint": -3.094022268022082
        }
    },
    "waypoints": [
        {
            "positions": [
                -0.33786336945926293,
                -1.3736533754116391,
                2.422574709923281,
                -1.0288603412921917,
                1.2330224858903978,
                -3.094022268022082
            ]
        },
        {
            "positions": [
                -0.24570524462726148,
                -1.4261109930716114,
                2.4258060503540135,
                -0.9412423123074887,
                1.2209064996981056,
                -2.970073704880748
            ]
        },
        {
            "positions": [
                -0.15354711979526003,
                -1.4785686107315839,
                2.429037390784746,
                -0.8536242833227855,
                1.2087905135058132,
                -2.846125141739414
            ]
        },
        {
            "positions": [
                -0.06138899496325856,
                -1.531026228391556,
                2.4322687312154785,
                -0.7660062543380823,
                1.196674527313521,
                -2.72217657859808
            ]
        },
        {
            "positions": [
                0.03076912986874286,
                -1.5834838460515286,
                2.4355000716462114,
                -0.6783882253533793,
                1.1845585411212287,
                -2.598228015456746
            ]
        },
        {
            "positions": [
                0.12292725470074439,
                -1.6359414637115008,
                2.438731412076944,
                -0.5907701963686761,
                1.1724425549289366,
                -2.474279452315412
            ]
        },
        {
            "positions": [
                0.2150853795327458,
                -1.688399081371473,
                2.4419627525076764,
                -0.5031521673839731,
                1.1603265687366442,
                -2.350330889174078
            ]
        },
        {
            "positions": [
                0.3072435043647473,
                -1.7408566990314456,
                2.445194092938409,
                -0.4155341383992699,
                1.148210582544352,
                -2.226382326032744
            ]
        },
        {
            "positions": [
                0.39940162919674865,
                -1.7933143166914178,
                2.4484254333691413,
                -0.32791610941456684,
                1.13609459635206,
                -2.10243376289141
            ]
        },
        {
            "positions": [
                0.49155975402875024,
                -1.8457719343513903,
                2.451656773799874,
                -0.24029808042986356,
                1.1239786101597675,
                -1.9784851997500756
            ]
        },
        {
            "positions": [
                0.5837178788607518,
                -1.8982295520113626,
                2.4548881142306063,
                -0.1526800514451605,
                1.1118626239674754,
                -1.8545366366087417
            ]
        },
        {
            "positions": [
                0.6758760036927531,
                -1.950687169671335,
                2.458119454661339,
                -0.06506202246045745,
                1.099746637775183,
                -1.7305880734674075
            ]
        },
        {
            "positions": [
                0.7680341285247545,
                -2.0031447873313075,
                2.4613507950920717,
                0.02255600652424561,
                1.0876306515828909,
                -1.6066395103260735
            ]
        },
        {
            "positions": [
                0.8601922533567561,
                -2.0556024049912796,
                2.464582135522804,
                0.11017403550894889,
                1.0755146653905985,
                -1.4826909471847394
            ]
        },
        {
            "positions": [
                0.9523503781887575,
                -2.108060022651252,
                2.4678134759535366,
                0.19779206449365194,
                1.0633986791983063,
                -1.3587423840434054
            ]
        },
        {
            "positions": [
                0.9348156214660301,
                -2.096101545540602,
                2.454797797944306,
                0.09999703386185885,
                1.0437325205630659,
                -1.5717027576070366
            ]
        },
        {
            "positions": [
                0.9172808647433028,
                -2.0841430684299516,
                2.4417821199350755,
                0.002202003230065752,
                1.0240663619278252,
                -1.7846631311706675
            ]
        },
        {
            "positions": [
                0.8997461080205755,
                -2.072184591319301,
                2.428766441925845,
                -0.09559302740172737,
                1.0044002032925845,
                -1.9976235047342987
            ]
        },
        {
            "positions": [
                0.8822113512978481,
                -2.060226114208651,
                2.415750763916614,
                -0.19338805803352044,
                0.984734044657344,
                -2.2105838782979297
            ]
        },
        {
            "positions": [
                0.8646765945751208,
                -2.048267637098001,
                2.4027350859073837,
                -0.2911830886653136,
                0.9650678860221035,
                -2.423544251861561
            ]
        },
        {
            "positions": [
                0.8471418378523935,
                -2.0363091599873506,
                2.389719407898153,
                -0.3889781192971067,
                0.9454017273868629,
                -2.636504625425192
            ]
        },
        {
            "positions": [
                0.8003355518240018,
                -1.9933039554024625,
                2.390021162642165,
                -0.4096260262891463,
                0.8686415650117647,
                -2.803721226994574
            ]
        },
        {
            "positions": [
                0.7535292657956102,
                -1.9502987508175744,
                2.3903229173861766,
                -0.43027393328118585,
                0.7918814026366665,
                -2.970937828563956
            ]
        },
        {
            "positions": [
                0.7067229797672185,
                -1.9072935462326863,
                2.3906246721301887,
                -0.45092184027322546,
                0.7151212402615682,
                -3.138154430133338
            ]
        }
    ]
}