{
    "goal": {
        "global_pose": {
            "orientation": {
                "w": 0.5084816217422485,
                "x": -0.49083608388900757,
                "y": 0.5182115435600281,
                "z": -0.4816462993621826
            },
            "position": {
                "x": 0.5540239810943604,
                "y": 0.030875300988554955,
                "z": 0.16403168439865112
            }
        },
        "name": "move_to_storage_A"
    },
    "id": "KPIECE_move_to_storage_A_131",
    "joint_names": [
        "shoulder_pan_joint",
        "shoulder_lift_joint",
        "elbow_joint",
        "wrist_1_joint",
        "wrist_2_joint",
        "wrist_3_joint"
    ],
    "metrics": {
        "cart_traj_len": 0.3537948231439982,
        "distance_elbow_joint": 0.4504137766899454,
        "distance_shoulder_lift_joint": 0.2328317990187707,
        "distance_shoulder_pan_joint": 0.45974705345562583,
        "distance_wrist_1_joint": 0.24496097063977718,
        "distance_wrist_2_joint": 1.112107996137528,
        "distance_wrist_3_joint": 0.09995381878507859,
        "smoothness": 4.440892098500626e-16,
        "time": 0.057958669000000004,
        "traj_len": 1.6124563295564707,
        "weighted_distance": 2.038870280099788
    },
    "planner": "KPIECE",
    "start": {
        "state": {
            "elbow_joint": 1.9715463870305268,
            "shoulder_lift_joint": -1.1394903361783484,
            "shoulder_pan_joint": 0.12281147578464417,
            "wrist_1_joint": -0.7804599489681411,
            "wrist_2_joint": 0.12958660307563738,
            "wrist_3_joint": -3.1924946282119055
        }
    },
    "waypoints": [
        {
            "positions": [
                0.12281147578464417,
                -1.1394903361783484,
                1.9715463870305268,
                -0.7804599489681411,
                0.12958660307563738,
                -3.1924946282119055
            ]
        },
        {
            "positions": [
                0.05713332529098335,
                -1.1727520217524585,
                2.0358912122719475,
                -0.8154543733452521,
                0.2884591739524271,
                -3.1782155112426085
            ]
        },
        {
            "positions": [
                -0.008544825202677478,
                -1.2060137073265687,
                2.100236037513368,
                -0.8504487977223631,
                0.4473317448292168,
                -3.163936394273312
            ]
        },
        {
            "positions": [
                -0.0742229756963383,
                -1.2392753929006788,
                2.164580862754789,
                -0.8854432220994741,
                0.6062043157060065,
                -3.149657277304015
            ]
        },
        {
            "positions": [
                -0.13990112618999911,
                -1.2725370784747887,
                2.2289256879962096,
                -0.9204376464765852,
                0.7650768865827963,
                -3.1353781603347177
            ]
        },
        {
            "positions": [
                -0.20557927668366,
                -1.3057987640488988,
                2.2932705132376308,
                -0.9554320708536962,
                0.923949457459586,
                -3.1210990433654207
            ]
        },
        {
            "positions": [
                -0.27125742717732076,
                -1.339060449623009,
                2.3576153384790515,
                -0.9904264952308073,
                1.0828220283363756,
                -3.106819926396124
            ]
        },
        {
            "positions": [
                -0.33693557767098165,
                -1.372322135197119,
                2.421960163720472,
                -1.0254209196079183,
                1.2416945992131654,
                -3.092540809426827
            ]
        }
    ]
}