{
    "goal": {
        "global_pose": {
            "orientation": {
                "w": -0.00223480608172531,
                "x": 0.0024358444001904467,
                "y": 0.7094548369677653,
                "z": -0.704743149386269
            },
            "position": {
                "x": 0.6205249238014221,
                "y": -0.6371506643295288,
                "z": 0.19426114857196808
            }
        },
        "name": "move_to_magneteinheit_B"
    },
    "id": "KPIECE_move_to_magneteinheit_B_106",
    "joint_names": [
        "shoulder_pan_joint",
        "shoulder_lift_joint",
        "elbow_joint",
        "wrist_1_joint",
        "wrist_2_joint",
        "wrist_3_joint"
    ],
    "metrics": {
        "cart_traj_len": 1.4522060021372156,
        "distance_elbow_joint": 0.7296326175730043,
        "distance_shoulder_lift_joint": 1.2487063842742097,
        "distance_shoulder_pan_joint": 1.6213002042419857,
        "distance_wrist_1_joint": 2.602981855903919,
        "distance_wrist_2_joint": 2.934670012041595,
        "distance_wrist_3_joint": 3.137542900403806,
        "smoothness": 3.608224850774041e-16,
        "time": 0.329754081,
        "traj_len": 3.5035459144184937,
        "weighted_distance": 4.907909090762751
    },
    "planner": "KPIECE",
    "start": {
        "state": {
            "elbow_joint": 2.39358713078474,
            "shoulder_lift_joint": -1.908514104345545,
            "shoulder_pan_joint": 0.7066247066606129,
            "wrist_1_joint": -0.4678290933515497,
            "wrist_2_joint": 0.7096259083745334,
            "wrist_3_joint": -3.1358149277392293
        }
    },
    "waypoints": [
        {
            "positions": [
                0.7066247066606129,
                -1.908514104345545,
                2.39358713078474,
                -0.4678290933515497,
                0.7096259083745334,
                -3.1358149277392293
            ]
        },
        {
            "positions": [
                0.6543247000721618,
                -1.8682332532399253,
                2.370050594733998,
                -0.3838619367094878,
                0.6149591337925465,
                -3.0346038664358805
            ]
        },
        {
            "positions": [
                0.6020246934837107,
                -1.8279524021343057,
                2.346514058683256,
                -0.29989478006742587,
                0.5202923592105596,
                -2.933392805132532
            ]
        },
        {
            "positions": [
                0.5497246868952594,
                -1.7876715510286858,
                2.322977522632514,
                -0.21592762342536398,
                0.42562558462857264,
                -2.8321817438291834
            ]
        },
        {
            "positions": [
                0.4974246803068083,
                -1.7473906999230662,
                2.2994409865817715,
                -0.1319604667833021,
                0.3309588100465857,
                -2.730970682525835
            ]
        },
        {
            "positions": [
                0.4451246737183572,
                -1.7071098488174465,
                2.2759044505310295,
                -0.0479933101412402,
                0.23629203546459876,
                -2.6297596212224863
            ]
        },
        {
            "positions": [
                0.39282466712990605,
                -1.666828997711827,
                2.2523679144802875,
                0.03597384650082175,
                0.14162526088261185,
                -2.528548559919138
            ]
        },
        {
            "positions": [
                0.34052466054145486,
                -1.6265481466062073,
                2.2288313784295455,
                0.11994100314288364,
                0.046958486300624935,
                -2.427337498615789
            ]
        },
        {
            "positions": [
                0.28822465395300373,
                -1.5862672955005876,
                2.2052948423788035,
                0.20390815978494553,
                -0.04770828828136198,
                -2.326126437312441
            ]
        },
        {
            "positions": [
                0.23592464736455254,
                -1.545986444394968,
                2.1817583063280614,
                0.28787531642700753,
                -0.142375062863349,
                -2.224915376009092
            ]
        },
        {
            "positions": [
                0.1836246407761014,
                -1.5057055932893482,
                2.1582217702773194,
                0.3718424730690693,
                -0.2370418374453359,
                -2.1237043147057433
            ]
        },
        {
            "positions": [
                0.13132463418765028,
                -1.4654247421837285,
                2.134685234226577,
                0.4558096297111313,
                -0.3317086120273228,
                -2.022493253402395
            ]
        },
        {
            "positions": [
                0.07902462759919915,
                -1.425143891078109,
                2.1111486981758354,
                0.5397767863531933,
                -0.42637538660930974,
                -1.9212821920990464
            ]
        },
        {
            "positions": [
                0.026724621010747907,
                -1.3848630399724893,
                2.087612162125093,
                0.6237439429952552,
                -0.5210421611912966,
                -1.8200711307956978
            ]
        },
        {
            "positions": [
                -0.025575385577703225,
                -1.3445821888668696,
                2.064075626074351,
                0.707711099637317,
                -0.6157089357732836,
                -1.7188600694923493
            ]
        },
        {
            "positions": [
                -0.07787539216615436,
                -1.3043013377612498,
                2.040539090023609,
                0.7916782562793789,
                -0.7103757103552707,
                -1.6176490081890005
            ]
        },
        {
            "positions": [
                -0.1301753987546055,
                -1.2640204866556304,
                2.017002553972867,
                0.8756454129214408,
                -0.8050424849372574,
                -1.5164379468856521
            ]
        },
        {
            "positions": [
                -0.18247540534305662,
                -1.2237396355500105,
                1.9934660179221249,
                0.9596125695635027,
                -0.8997092595192443,
                -1.4152268855823036
            ]
        },
        {
            "positions": [
                -0.23477541193150786,
                -1.183458784444391,
                1.9699294818713826,
                1.0435797262055648,
                -0.9943760341012314,
                -1.3140158242789548
            ]
        },
        {
            "positions": [
                -0.287075418519959,
                -1.1431779333387713,
                1.9463929458206406,
                1.1275468828476265,
                -1.0890428086832182,
                -1.2128047629756062
            ]
        },
        {
            "positions": [
                -0.3393754251084101,
                -1.1028970822331516,
                1.9228564097698986,
                1.2115140394896884,
                -1.1837095832652054,
                -1.1115937016722577
            ]
        },
        {
            "positions": [
                -0.39167543169686125,
                -1.062616231127532,
                1.8993198737191566,
                1.2954811961317503,
                -1.278376357847192,
                -1.0103826403689093
            ]
        },
        {
            "positions": [
                -0.4439754382853124,
                -1.0223353800219122,
                1.8757833376684143,
                1.3794483527738124,
                -1.3730431324291792,
                -0.9091715790655606
            ]
        },
        {
            "positions": [
                -0.4962754448737635,
                -0.9820545289162926,
                1.8522468016176723,
                1.4634155094158743,
                -1.4677099070111663,
                -0.8079605177622118
            ]
        },
        {
            "positions": [
                -0.5485754514622146,
                -0.9417736778106729,
                1.8287102655669303,
                1.5473826660579362,
                -1.562376681593153,
                -0.7067494564588634
            ]
        },
        {
            "positions": [
                -0.6008754580506658,
                -0.9014928267050533,
                1.8051737295161883,
                1.631349822699998,
                -1.6570434561751397,
                -0.6055383951555151
            ]
        },
        {
            "positions": [
                -0.6531754646391171,
                -0.8612119755994336,
                1.781637193465446,
                1.71531697934206,
                -1.7517102307571268,
                -0.5043273338521663
            ]
        },
        {
            "positions": [
                -0.7054754712275683,
                -0.820931124493814,
                1.758100657414704,
                1.7992841359841218,
                -1.846377005339114,
                -0.40311627254881754
            ]
        },
        {
            "positions": [
                -0.7577754778160194,
                -0.7806502733881944,
                1.734564121363962,
                1.8832512926261837,
                -1.9410437799211007,
                -0.3019052112454692
            ]
        },
        {
            "positions": [
                -0.8100754844044703,
                -0.7403694222825747,
                1.7110275853132197,
                1.9672184492682456,
                -2.035710554503088,
                -0.20069414994212043
            ]
        },
        {
            "positions": [
                -0.8623754909929217,
                -0.7000885711769549,
                1.6874910492624777,
                2.0511856059103075,
                -2.130377329085075,
                -0.09948308863877164
            ]
        },
        {
            "positions": [
                -0.9146754975813729,
                -0.6598077200713353,
                1.6639545132117357,
                2.1351527625523694,
                -2.2250441036670616,
                0.001727972664576675
            ]
        }
    ]
}