{
    "goal": {
        "global_pose": {
            "orientation": {
                "w": 0.7047431468963623,
                "x": -0.7094548344612122,
                "y": 0.0024358443915843964,
                "z": -0.0022348060738295317
            },
            "position": {
                "x": 0.6094750761985779,
                "y": 0.3671506643295288,
                "z": 0.19426114857196808
            }
        },
        "name": "move_to_magneteinheit_A"
    },
    "id": "KPIECE_move_to_magneteinheit_A_116",
    "joint_names": [
        "shoulder_pan_joint",
        "shoulder_lift_joint",
        "elbow_joint",
        "wrist_1_joint",
        "wrist_2_joint",
        "wrist_3_joint"
    ],
    "metrics": {
        "cart_traj_len": 2.068719426493406,
        "distance_elbow_joint": 3.909400743493846,
        "distance_shoulder_lift_joint": 1.0845632094324107,
        "distance_shoulder_pan_joint": 1.2426456004203135,
        "distance_wrist_1_joint": 1.2835820761534806,
        "distance_wrist_2_joint": 1.43138451202639,
        "distance_wrist_3_joint": 4.240747423526615,
        "smoothness": 0.0824531087258063,
        "time": 0.150424983,
        "traj_len": 3.632123836690189,
        "weighted_distance": 4.938500278453586
    },
    "planner": "KPIECE",
    "start": {
        "state": {
            "elbow_joint": -1.919643507792019,
            "shoulder_lift_joint": -0.07675430207160344,
            "shoulder_pan_joint": -1.1188671864651873,
            "wrist_1_joint": 0.42560062535961957,
            "wrist_2_joint": 1.5706038300724876,
            "wrist_3_joint": 1.1188968870953055
        }
    },
    "waypoints": [
        {
            "positions": [
                -1.1188671864651873,
                -0.07675430207160344,
                -1.919643507792019,
                0.42560062535961957,
                1.5706038300724876,
                1.1188968870953055
            ]
        },
        {
            "positions": [
                -1.0826793524085558,
                -0.108459339558305,
                -1.8050255424338892,
                0.3879277671645557,
                1.5285790993018615,
                0.9948717887206388
            ]
        },
        {
            "positions": [
                -1.0464915183519246,
                -0.14016437704500656,
                -1.6904075770757594,
                0.35025490896949174,
                1.4865543685312355,
                0.870846690345972
            ]
        },
        {
            "positions": [
                -1.010303684295293,
                -0.1718694145317081,
                -1.5757896117176295,
                0.31258205077442786,
                1.4445296377606092,
                0.746821591971305
            ]
        },
        {
            "positions": [
                -0.9741158502386615,
                -0.20357445201840965,
                -1.4611716463595,
                0.27490919257936397,
                1.402504906989983,
                0.6227964935966384
            ]
        },
        {
            "positions": [
                -0.93792801618203,
                -0.23527948950511118,
                -1.34655368100137,
                0.23723633438430006,
                1.360480176219357,
                0.49877139522197145
            ]
        },
        {
            "positions": [
                -0.9017401821253986,
                -0.26698452699181274,
                -1.2319357156432402,
                0.19956347618923614,
                1.318455445448731,
                0.37474629684730465
            ]
        },
        {
            "positions": [
                -0.8655523480687672,
                -0.29868956447851425,
                -1.1173177502851104,
                0.16189061799417226,
                1.2764307146781049,
                0.25072119847263785
            ]
        },
        {
            "positions": [
                -0.8293645140121357,
                -0.33039460196521586,
                -1.0026997849269805,
                0.12421775979910837,
                1.2344059839074788,
                0.12669610009797105
            ]
        },
        {
            "positions": [
                -0.7931766799555042,
                -0.36209963945191737,
                -0.8880818195688507,
                0.08654490160404443,
                1.1923812531368525,
                0.002671001723304256
            ]
        },
        {
            "positions": [
                -0.7569888458988727,
                -0.3938046769386189,
                -0.7734638542107208,
                0.04887204340898055,
                1.1503565223662264,
                -0.12135409665136265
            ]
        },
        {
            "positions": [
                -0.7208010118422413,
                -0.4255097144253205,
                -0.658845888852591,
                0.011199185213916607,
                1.1083317915956004,
                -0.24537919502602956
            ]
        },
        {
            "positions": [
                -0.6846131777856099,
                -0.45721475191202204,
                -0.5442279234944611,
                -0.026473672981147278,
                1.066307060824974,
                -0.36940429340069625
            ]
        },
        {
            "positions": [
                -0.6484253437289784,
                -0.48891978939872355,
                -0.4296099581363315,
                -0.06414653117621111,
                1.0242823300543482,
                -0.49342939177536294
            ]
        },
        {
            "positions": [
                -0.612237509672347,
                -0.5206248268854251,
                -0.31499199277820167,
                -0.10181938937127505,
                0.982257599283722,
                -0.6174544901500298
            ]
        },
        {
            "positions": [
                -0.5760496756157155,
                -0.5523298643721266,
                -0.20037402742007182,
                -0.139492247566339,
                0.940232868513096,
                -0.7414795885246968
            ]
        },
        {
            "positions": [
                -0.5398618415590841,
                -0.5840349018588282,
                -0.08575606206194197,
                -0.17716510576140282,
                0.8982081377424698,
                -0.8655046868993634
            ]
        },
        {
            "positions": [
                -0.5036740075024526,
                -0.6157399393455298,
                0.028861903296187874,
                -0.21483796395646676,
                0.8561834069718437,
                -0.9895297852740303
            ]
        },
        {
            "positions": [
                -0.4674861734458211,
                -0.6474449768322312,
                0.14347986865431772,
                -0.2525108221515307,
                0.8141586762012176,
                -1.113554883648697
            ]
        },
        {
            "positions": [
                -0.4312983393891897,
                -0.6791500143189328,
                0.25809783401244757,
                -0.29018368034659453,
                0.7721339454305914,
                -1.2375799820233642
            ]
        },
        {
            "positions": [
                -0.3951105053325582,
                -0.7108550518056345,
                0.3727157993705774,
                -0.32785653854165847,
                0.7301092146599654,
                -1.3616050803980309
            ]
        },
        {
            "positions": [
                -0.3589226712759268,
                -0.7425600892923361,
                0.48733376472870726,
                -0.3655293967367224,
                0.6880844838893392,
                -1.4856301787726975
            ]
        },
        {
            "positions": [
                -0.3227348372192953,
                -0.7742651267790375,
                0.6019517300868371,
                -0.40320225493178635,
                0.6460597531187131,
                -1.6096552771473647
            ]
        },
        {
            "positions": [
                -0.2865470031626638,
                -0.8059701642657391,
                0.716569695444967,
                -0.4408751131268502,
                0.6040350223480869,
                -1.7336803755220314
            ]
        },
        {
            "positions": [
                -0.2503591691060324,
                -0.8376752017524407,
                0.8311876608030968,
                -0.4785479713219141,
                0.5620102915774607,
                -1.857705473896698
            ]
        },
        {
            "positions": [
                -0.2141713350494009,
                -0.8693802392391423,
                0.9458056261612267,
                -0.5162208295169781,
                0.5199855608068347,
                -1.9817305722713652
            ]
        },
        {
            "positions": [
                -0.1779835009927696,
                -0.9010852767258437,
                1.060423591519356,
                -0.5538936877120417,
                0.4779608300362088,
                -2.1057556706460314
            ]
        },
        {
            "positions": [
                -0.1417956669361381,
                -0.9327903142125453,
                1.175041556877486,
                -0.5915665459071056,
                0.43593609926558274,
                -2.2297807690206985
            ]
        },
        {
            "positions": [
                -0.1056078328795067,
                -0.9644953516992467,
                1.2896595222356158,
                -0.6292394041021696,
                0.39391136849495645,
                -2.3538058673953652
            ]
        },
        {
            "positions": [
                -0.0694199988228752,
                -0.9962003891859483,
                1.4042774875937456,
                -0.6669122622972334,
                0.3518866377243304,
                -2.477830965770032
            ]
        },
        {
            "positions": [
                -0.03323216476624369,
                -1.02790542667265,
                1.5188954529518754,
                -0.7045851204922975,
                0.3098619069537043,
                -2.601856064144699
            ]
        },
        {
            "positions": [
                0.002955669290387819,
                -1.0596104641593516,
                1.6335134183100053,
                -0.7422579786873613,
                0.26783717618307823,
                -2.7258811625193657
            ]
        },
        {
            "positions": [
                0.039143503347019104,
                -1.0913155016460532,
                1.7481313836681351,
                -0.7799308368824251,
                0.22581244541245193,
                -2.8499062608940324
            ]
        },
        {
            "positions": [
                0.07533133740365061,
                -1.1230205391327546,
                1.862749349026265,
                -0.8176036950774892,
                0.18378771464182586,
                -2.973931359268699
            ]
        },
        {
            "positions": [
                0.11151917146028209,
                -1.1547255766194562,
                1.977367314384395,
                -0.855276553272553,
                0.1417629838711999,
                -3.097956457643366
            ]
        },
        {
            "positions": [
                0.12377841395512598,
                -1.1481336417348982,
                1.9897572357018272,
                -0.852571655751245,
                0.13921931804609786,
                -3.121850536431309
            ]
        }
    ]
}