{
    "goal": {
        "global_pose": {
            "orientation": {
                "w": 0.7047431468963623,
                "x": -0.7094548344612122,
                "y": 0.0024358443915843964,
                "z": -0.0022348060738295317
            },
            "position": {
                "x": 0.6094750761985779,
                "y": 0.3671506643295288,
                "z": 0.19426114857196808
            }
        },
        "name": "move_to_magneteinheit_A"
    },
    "id": "KPIECE_move_to_magneteinheit_A_139",
    "joint_names": [
        "shoulder_pan_joint",
        "shoulder_lift_joint",
        "elbow_joint",
        "wrist_1_joint",
        "wrist_2_joint",
        "wrist_3_joint"
    ],
    "metrics": {
        "cart_traj_len": 4.424163730600874,
        "distance_elbow_joint": 3.9080540960249293,
        "distance_shoulder_lift_joint": 1.9932708194461266,
        "distance_shoulder_pan_joint": 2.4680049004199422,
        "distance_wrist_1_joint": 5.403237563367253,
        "distance_wrist_2_joint": 5.73106104693911,
        "distance_wrist_3_joint": 4.236600746200011,
        "smoothness": 0.23928238840100244,
        "time": 0.280709098,
        "traj_len": 4.872394603518622,
        "weighted_distance": 6.583899245515816
    },
    "planner": "KPIECE",
    "start": {
        "state": {
            "elbow_joint": -1.919643507792019,
            "shoulder_lift_joint": -0.07675430207160344,
            "shoulder_pan_joint": -1.1188671864651873,
            "wrist_1_joint": 0.42560062535961957,
            "wrist_2_joint": 1.5706038300724876,
            "wrist_3_joint": 1.1188968870953055
        }
    },
    "waypoints": [
        {
            "positions": [
                -1.1188671864651873,
                -0.07675430207160344,
                -1.919643507792019,
                0.42560062535961957,
                1.5706038300724876,
                1.1188968870953055
            ]
        },
        {
            "positions": [
                -1.140022579310241,
                -0.1295902978402963,
                -1.9011694682389577,
                0.3103048547860462,
                1.4467920886092447,
                1.065001263700455
            ]
        },
        {
            "positions": [
                -1.1611779721552946,
                -0.18242629360898918,
                -1.8826954286858961,
                0.19500908421247282,
                1.3229803471460015,
                1.0111056403056042
            ]
        },
        {
            "positions": [
                -1.182333365000348,
                -0.23526228937768204,
                -1.8642213891328347,
                0.07971331363889944,
                1.1991686056827586,
                0.9572100169107537
            ]
        },
        {
            "positions": [
                -1.2034887578454017,
                -0.2880982851463749,
                -1.8457473495797732,
                -0.035582456934673934,
                1.0753568642195157,
                0.9033143935159031
            ]
        },
        {
            "positions": [
                -1.2246441506904553,
                -0.34093428091506783,
                -1.8272733100267118,
                -0.15087822750824736,
                0.9515451227562727,
                0.8494187701210525
            ]
        },
        {
            "positions": [
                -1.245799543535509,
                -0.39377027668376063,
                -1.8087992704736502,
                -0.2661739980818207,
                0.8277333812930298,
                0.7955231467262018
            ]
        },
        {
            "positions": [
                -1.2669549363805626,
                -0.44660627245245355,
                -1.7903252309205888,
                -0.3814697686553941,
                0.7039216398297867,
                0.7416275233313512
            ]
        },
        {
            "positions": [
                -1.2881103292256162,
                -0.4994422682211464,
                -1.7718511913675274,
                -0.49676553922896743,
                0.5801098983665438,
                0.6877318999365007
            ]
        },
        {
            "positions": [
                -1.3092657220706698,
                -0.5522782639898393,
                -1.7533771518144659,
                -0.6120613098025407,
                0.4562981569033009,
                0.6338362765416501
            ]
        },
        {
            "positions": [
                -1.3304211149157232,
                -0.6051142597585322,
                -1.7349031122614045,
                -0.7273570803761142,
                0.33248641544005775,
                0.5799406531467994
            ]
        },
        {
            "positions": [
                -1.3515765077607769,
                -0.657950255527225,
                -1.716429072708343,
                -0.8426528509496873,
                0.20867467397681505,
                0.5260450297519489
            ]
        },
        {
            "positions": [
                -1.3727319006058305,
                -0.7107862512959178,
                -1.6979550331552815,
                -0.9579486215232609,
                0.08486293251357191,
                0.47214940635709823
            ]
        },
        {
            "positions": [
                -1.3938872934508841,
                -0.7636222470646108,
                -1.6794809936022201,
                -1.0732443920968342,
                -0.03894880894967101,
                0.4182537829622476
            ]
        },
        {
            "positions": [
                -1.4150426862959378,
                -0.8164582428333036,
                -1.6610069540491585,
                -1.1885401626704077,
                -0.16276055041291415,
                0.3643581595673969
            ]
        },
        {
            "positions": [
                -1.4361980791409912,
                -0.8692942386019966,
                -1.6425329144960972,
                -1.303835933243981,
                -0.28657229187615707,
                0.3104625361725464
            ]
        },
        {
            "positions": [
                -1.4573534719860448,
                -0.9221302343706894,
                -1.6240588749430356,
                -1.4191317038175544,
                -0.4103840333394,
                0.25656691277769583
            ]
        },
        {
            "positions": [
                -1.4785088648310984,
                -0.9749662301393822,
                -1.6055848353899742,
                -1.5344274743911275,
                -0.5341957748026427,
                0.2026712893828453
            ]
        },
        {
            "positions": [
                -1.499664257676152,
                -1.027802225908075,
                -1.5871107958369128,
                -1.649723244964701,
                -0.6580075162658858,
                0.14877566598799452
            ]
        },
        {
            "positions": [
                -1.5208196505212057,
                -1.080638221676768,
                -1.5686367562838512,
                -1.7650190155382746,
                -0.781819257729129,
                0.09488004259314398
            ]
        },
        {
            "positions": [
                -1.5419750433662593,
                -1.133474217445461,
                -1.5501627167307896,
                -1.880314786111848,
                -0.9056309991923721,
                0.04098441919829332
            ]
        },
        {
            "positions": [
                -1.563130436211313,
                -1.1863102132141539,
                -1.5316886771777283,
                -1.9956105566854212,
                -1.0294427406556148,
                -0.012911204196557335
            ]
        },
        {
            "positions": [
                -1.5842858290563664,
                -1.2391462089828467,
                -1.513214637624667,
                -2.1109063272589945,
                -1.1532544821188575,
                -0.06680682759140777
            ]
        },
        {
            "positions": [
                -1.60544122190142,
                -1.2919822047515395,
                -1.4947405980716053,
                -2.2262020978325685,
                -1.277066223582101,
                -0.12070245098625842
            ]
        },
        {
            "positions": [
                -1.6265966147464737,
                -1.3448182005202323,
                -1.476266558518544,
                -2.3414978684061416,
                -1.4008779650453438,
                -0.17459807438110908
            ]
        },
        {
            "positions": [
                -1.647752007591527,
                -1.397654196288925,
                -1.4577925189654826,
                -2.4567936389797147,
                -1.5246897065085865,
                -0.22849369777595951
            ]
        },
        {
            "positions": [
                -1.6689074004365807,
                -1.450490192057618,
                -1.439318479412421,
                -2.5720894095532882,
                -1.6485014479718296,
                -0.2823893211708104
            ]
        },
        {
            "positions": [
                -1.6900627932816343,
                -1.5033261878263109,
                -1.4208444398593596,
                -2.687385180126862,
                -1.7723131894350728,
                -0.3362849445656608
            ]
        },
        {
            "positions": [
                -1.711218186126688,
                -1.556162183595004,
                -1.4023704003062982,
                -2.8026809507004353,
                -1.896124930898316,
                -0.3901805679605117
            ]
        },
        {
            "positions": [
                -1.7323735789717416,
                -1.6089981793636967,
                -1.3838963607532366,
                -2.9179767212740084,
                -2.0199366723615584,
                -0.44407619135536214
            ]
        },
        {
            "positions": [
                -1.6744205005994481,
                -1.5945910874213831,
                -1.2785117685974194,
                -2.8536123395010824,
                -1.953045405345775,
                -0.5276270559725291
            ]
        },
        {
            "positions": [
                -1.616467422227155,
                -1.5801839954790697,
                -1.1731271764416025,
                -2.7892479577281564,
                -1.8861541383299918,
                -0.6111779205896962
            ]
        },
        {
            "positions": [
                -1.5585143438548614,
                -1.5657769035367561,
                -1.0677425842857855,
                -2.7248835759552303,
                -1.8192628713142087,
                -0.6947287852068632
            ]
        },
        {
            "positions": [
                -1.500561265482568,
                -1.5513698115944425,
                -0.9623579921299683,
                -2.6605191941823043,
                -1.7523716042984254,
                -0.7782796498240303
            ]
        },
        {
            "positions": [
                -1.4426081871102747,
                -1.536962719652129,
                -0.8569733999741512,
                -2.5961548124093783,
                -1.6854803372826421,
                -0.8618305144411973
            ]
        },
        {
            "positions": [
                -1.3846551087379813,
                -1.5225556277098153,
                -0.7515888078183341,
                -2.5317904306364523,
                -1.618589070266859,
                -0.9453813790583643
            ]
        },
        {
            "positions": [
                -1.3267020303656878,
                -1.508148535767502,
                -0.6462042156625171,
                -2.4674260488635262,
                -1.5516978032510758,
                -1.0289322436755315
            ]
        },
        {
            "positions": [
                -1.2687489519933945,
                -1.4937414438251884,
                -0.5408196235067,
                -2.4030616670906,
                -1.4848065362352925,
                -1.1124831082926985
            ]
        },
        {
            "positions": [
                -1.210795873621101,
                -1.4793343518828748,
                -0.4354350313508829,
                -2.338697285317674,
                -1.4179152692195092,
                -1.1960339729098655
            ]
        },
        {
            "positions": [
                -1.1528427952488078,
                -1.4649272599405614,
                -0.3300504391950658,
                -2.274332903544748,
                -1.3510240022037259,
                -1.2795848375270324
            ]
        },
        {
            "positions": [
                -1.0948897168765144,
                -1.4505201679982478,
                -0.22466584703924886,
                -2.209968521771822,
                -1.2841327351879428,
                -1.3631357021441994
            ]
        },
        {
            "positions": [
                -1.036936638504221,
                -1.4361130760559342,
                -0.11928125488343166,
                -2.145604139998896,
                -1.2172414681721595,
                -1.4466865667613664
            ]
        },
        {
            "positions": [
                -0.9789835601319276,
                -1.4217059841136206,
                -0.013896662727614473,
                -2.08123975822597,
                -1.1503502011563762,
                -1.5302374313785334
            ]
        },
        {
            "positions": [
                -0.9210304817596342,
                -1.407298892171307,
                0.0914879294282025,
                -2.016875376453044,
                -1.0834589341405931,
                -1.6137882959957006
            ]
        },
        {
            "positions": [
                -0.8630774033873407,
                -1.3928918002289936,
                0.19687252158401947,
                -1.952510994680118,
                -1.0165676671248098,
                -1.6973391606128676
            ]
        },
        {
            "positions": [
                -0.8051243250150474,
                -1.37848470828668,
                0.30225711373983666,
                -1.888146612907192,
                -0.9496764001090265,
                -1.7808900252300346
            ]
        },
        {
            "positions": [
                -0.747171246642754,
                -1.3640776163443664,
                0.40764170589565385,
                -1.823782231134266,
                -0.8827851330932432,
                -1.8644408898472016
            ]
        },
        {
            "positions": [
                -0.6892181682704606,
                -1.349670524402053,
                0.5130262980514708,
                -1.75941784936134,
                -0.81589386607746,
                -1.9479917544643686
            ]
        },
        {
            "positions": [
                -0.6312650898981673,
                -1.3352634324597394,
                0.6184108902072878,
                -1.695053467588414,
                -0.7490025990616769,
                -2.0315426190815358
            ]
        },
        {
            "positions": [
                -0.5733120115258739,
                -1.3208563405174258,
                0.723795482363105,
                -1.6306890858154879,
                -0.6821113320458936,
                -2.1150934836987028
            ]
        },
        {
            "positions": [
                -0.5153589331535804,
                -1.3064492485751122,
                0.8291800745189222,
                -1.5663247040425619,
                -0.6152200650301103,
                -2.1986443483158697
            ]
        },
        {
            "positions": [
                -0.45740585478128715,
                -1.2920421566327986,
                0.9345646666747389,
                -1.5019603222696358,
                -0.5483287980143272,
                -2.2821952129330367
            ]
        },
        {
            "positions": [
                -0.3994527764089937,
                -1.2776350646904853,
                1.0399492588305561,
                -1.4375959404967098,
                -0.4814375309985439,
                -2.3657460775502037
            ]
        },
        {
            "positions": [
                -0.3414996980367002,
                -1.2632279727481717,
                1.1453338509863733,
                -1.3732315587237838,
                -0.4145462639827606,
                -2.4492969421673707
            ]
        },
        {
            "positions": [
                -0.283546619664407,
                -1.248820880805858,
                1.2507184431421905,
                -1.3088671769508577,
                -0.3476549969669773,
                -2.5328478067845377
            ]
        },
        {
            "positions": [
                -0.2255935412921135,
                -1.2344137888635447,
                1.3561030352980077,
                -1.2445027951779317,
                -0.28076372995119403,
                -2.6163986714017047
            ]
        },
        {
            "positions": [
                -0.16764046291982004,
                -1.220006696921231,
                1.4614876274538244,
                -1.1801384134050057,
                -0.21387246293541096,
                -2.699949536018872
            ]
        },
        {
            "positions": [
                -0.1096873845475268,
                -1.2055996049789175,
                1.5668722196096416,
                -1.1157740316320797,
                -0.14698119591962766,
                -2.783500400636039
            ]
        },
        {
            "positions": [
                -0.051734306175233336,
                -1.191192513036604,
                1.6722568117654588,
                -1.0514096498591536,
                -0.08008992890384437,
                -2.867051265253206
            ]
        },
        {
            "positions": [
                0.0062187721970601295,
                -1.1767854210942903,
                1.7776414039212756,
                -0.9870452680862276,
                -0.013198661888061292,
                -2.950602129870373
            ]
        },
        {
            "positions": [
                0.06417185056935337,
                -1.162378329151977,
                1.8830259960770928,
                -0.9226808863133016,
                0.053692605127722004,
                -3.03415299448754
            ]
        },
        {
            "positions": [
                0.12212492894164677,
                -1.1479712372096633,
                1.98841058823291,
                -0.8583165045403753,
                0.12058387214350523,
                -3.117703859104707
            ]
        }
    ]
}