{
    "goal": {
        "global_pose": {
            "orientation": {
                "w": 0.7047431468963623,
                "x": -0.7094548344612122,
                "y": 0.0024358443915843964,
                "z": -0.0022348060738295317
            },
            "position": {
                "x": 0.6094750761985779,
                "y": 0.3671506643295288,
                "z": 0.19426114857196808
            }
        },
        "name": "move_to_magneteinheit_A"
    },
    "id": "KPIECE_move_to_magneteinheit_A_60",
    "joint_names": [
        "shoulder_pan_joint",
        "shoulder_lift_joint",
        "elbow_joint",
        "wrist_1_joint",
        "wrist_2_joint",
        "wrist_3_joint"
    ],
    "metrics": {
        "cart_traj_len": 1.877319585336708,
        "distance_elbow_joint": 3.913876973615988,
        "distance_shoulder_lift_joint": 0.7003784945216601,
        "distance_shoulder_pan_joint": 1.2423270205759067,
        "distance_wrist_1_joint": 1.5076685756740247,
        "distance_wrist_2_joint": 1.6972170434387148,
        "distance_wrist_3_joint": 1.120726608843153,
        "smoothness": 7.894919293066631e-16,
        "time": 0.023176334,
        "traj_len": 3.190955141751361,
        "weighted_distance": 3.953294013031221
    },
    "planner": "KPIECE",
    "start": {
        "state": {
            "elbow_joint": -1.919643507792019,
            "shoulder_lift_joint": -0.07675430207160344,
            "shoulder_pan_joint": -1.1188671864651873,
            "wrist_1_joint": 0.42560062535961957,
            "wrist_2_joint": 1.5706038300724876,
            "wrist_3_joint": 1.1188968870953055
        }
    },
    "waypoints": [
        {
            "positions": [
                -1.1188671864651873,
                -0.07675430207160344,
                -1.919643507792019,
                0.42560062535961957,
                1.5706038300724876,
                1.1188968870953055
            ]
        },
        {
            "positions": [
                -1.0710853779814986,
                -0.10369193647628268,
                -1.769109778037558,
                0.483587878270159,
                1.505326251478691,
                1.0757920175244151
            ]
        },
        {
            "positions": [
                -1.0233035694978099,
                -0.13062957088096191,
                -1.6185760482830969,
                0.5415751311806984,
                1.4400486728848942,
                1.0326871479535245
            ]
        },
        {
            "positions": [
                -0.9755217610141211,
                -0.15756720528564117,
                -1.4680423185286358,
                0.5995623840912379,
                1.3747710942910973,
                0.989582278382634
            ]
        },
        {
            "positions": [
                -0.9277399525304324,
                -0.1845048396903204,
                -1.3175085887741749,
                0.6575496370017773,
                1.3094935156973007,
                0.9464774088117436
            ]
        },
        {
            "positions": [
                -0.8799581440467438,
                -0.21144247409499964,
                -1.1669748590197138,
                0.7155368899123167,
                1.244215937103504,
                0.903372539240853
            ]
        },
        {
            "positions": [
                -0.832176335563055,
                -0.2383801084996789,
                -1.0164411292652527,
                0.7735241428228561,
                1.1789383585097073,
                0.8602676696699625
            ]
        },
        {
            "positions": [
                -0.7843945270793663,
                -0.2653177429043581,
                -0.8659073995107915,
                0.8315113957333955,
                1.1136607799159106,
                0.817162800099072
            ]
        },
        {
            "positions": [
                -0.7366127185956776,
                -0.2922553773090374,
                -0.7153736697563304,
                0.8894986486439349,
                1.048383201322114,
                0.7740579305281816
            ]
        },
        {
            "positions": [
                -0.6888309101119889,
                -0.3191930117137166,
                -0.5648399400018695,
                0.9474859015544743,
                0.9831056227283171,
                0.7309530609572911
            ]
        },
        {
            "positions": [
                -0.6410491016283002,
                -0.34613064611839583,
                -0.4143062102474082,
                1.0054731544650137,
                0.9178280441345203,
                0.6878481913864005
            ]
        },
        {
            "positions": [
                -0.5932672931446115,
                -0.37306828052307506,
                -0.2637724804929473,
                1.0634604073755531,
                0.8525504655407237,
                0.6447433218155101
            ]
        },
        {
            "positions": [
                -0.5454854846609227,
                -0.40000591492775434,
                -0.113238750738486,
                1.1214476602860926,
                0.7872728869469269,
                0.6016384522446195
            ]
        },
        {
            "positions": [
                -0.497703676177234,
                -0.42694354933243356,
                0.037294979015974894,
                1.179434913196632,
                0.7219953083531302,
                0.5585335826737291
            ]
        },
        {
            "positions": [
                -0.44992186769354525,
                -0.4538811837371128,
                0.187828708770436,
                1.2374221661071714,
                0.6567177297593335,
                0.5154287131028387
            ]
        },
        {
            "positions": [
                -0.4021400592098566,
                -0.480818818141792,
                0.33836243852489667,
                1.2954094190177106,
                0.5914401511655368,
                0.4723238435319481
            ]
        },
        {
            "positions": [
                -0.3543582507261678,
                -0.5077564525464713,
                0.4888961682793582,
                1.3533966719282502,
                0.52616257257174,
                0.42921897396105757
            ]
        },
        {
            "positions": [
                -0.30657644224247915,
                -0.5346940869511505,
                0.6394298980338193,
                1.4113839248387896,
                0.46088499397794336,
                0.38611410439016713
            ]
        },
        {
            "positions": [
                -0.2587946337587904,
                -0.5616317213558297,
                0.78996362778828,
                1.469371177749329,
                0.3956074153841467,
                0.3430092348192766
            ]
        },
        {
            "positions": [
                -0.21101282527510168,
                -0.588569355760509,
                0.9404973575427411,
                1.5273584306598684,
                0.33032983679035,
                0.29990436524838615
            ]
        },
        {
            "positions": [
                -0.16323101679141294,
                -0.6155069901651882,
                1.0910310872972027,
                1.5853456835704078,
                0.2650522581965531,
                0.2567994956774956
            ]
        },
        {
            "positions": [
                -0.11544920830772432,
                -0.6424446245698674,
                1.2415648170516638,
                1.6433329364809472,
                0.1997746796027564,
                0.21369462610660517
            ]
        },
        {
            "positions": [
                -0.06766739982403558,
                -0.6693822589745466,
                1.3920985468061244,
                1.7013201893914867,
                0.13449710100895973,
                0.17058975653571462
            ]
        },
        {
            "positions": [
                -0.019885591340346842,
                -0.6963198933792258,
                1.5426322765605855,
                1.759307442302026,
                0.06921952241516305,
                0.12748488696482418
            ]
        },
        {
            "positions": [
                0.027896217143341895,
                -0.7232575277839053,
                1.693166006315047,
                1.8172946952125655,
                0.003941943821366145,
                0.08438001739393353
            ]
        },
        {
            "positions": [
                0.07567802562703063,
                -0.7501951621885845,
                1.8436997360695078,
                1.875281948123105,
                -0.061335634772430536,
                0.04127514782304309
            ]
        },
        {
            "positions": [
                0.12345983411071938,
                -0.7771327965932636,
                1.9942334658239687,
                1.9332692010336443,
                -0.12661321336622725,
                -0.0018297217478473033
            ]
        }
    ]
}