{
    "goal": {
        "global_pose": {
            "orientation": {
                "w": 0.7031023502349854,
                "x": -0.7110244035720825,
                "y": 0.007748599164187908,
                "z": 0.005598929710686207
            },
            "position": {
                "x": 0.11585023208521307,
                "y": 0.44412534475326537,
                "z": 0.3711530566215515
            }
        },
        "name": "move_to_auspresseinheit_A"
    },
    "id": "KPIECE_move_to_auspresseinheit_A_114",
    "joint_names": [
        "shoulder_pan_joint",
        "shoulder_lift_joint",
        "elbow_joint",
        "wrist_1_joint",
        "wrist_2_joint",
        "wrist_3_joint"
    ],
    "metrics": {
        "cart_traj_len": 2.1272879121615316,
        "distance_elbow_joint": 2.725963688520149,
        "distance_shoulder_lift_joint": 0.9819165363595312,
        "distance_shoulder_pan_joint": 1.0433675743778679,
        "distance_wrist_1_joint": 2.9733721106108546,
        "distance_wrist_2_joint": 1.0744992616101823,
        "distance_wrist_3_joint": 4.784190568154409,
        "smoothness": 0.7761058462501165,
        "time": 0.24819942699999997,
        "traj_len": 3.685554197082576,
        "weighted_distance": 5.215319956451651
    },
    "planner": "KPIECE",
    "start": {
        "state": {
            "elbow_joint": 2.422574709923281,
            "shoulder_lift_joint": -1.3736533754116391,
            "shoulder_pan_joint": -0.33786336945926293,
            "wrist_1_joint": -1.0288603412921917,
            "wrist_2_joint": 1.2330224858903978,
            "wrist_3_joint": -3.094022268022082
        }
    },
    "waypoints": [
        {
            "positions": [
                -0.33786336945926293,
                -1.3736533754116391,
                2.422574709923281,
                -1.0288603412921917,
                1.2330224858903978,
                -3.094022268022082
            ]
        },
        {
            "positions": [
                -0.3266277198470875,
                -1.4158203537289067,
                2.3460554194528993,
                -0.9308010690275406,
                1.2099165106496421,
                -2.96203379445281
            ]
        },
        {
            "positions": [
                -0.31539207023491206,
                -1.4579873320461745,
                2.269536128982517,
                -0.8327417967628894,
                1.1868105354088865,
                -2.830045320883538
            ]
        },
        {
            "positions": [
                -0.30415642062273657,
                -1.500154310363442,
                2.1930168385121354,
                -0.7346825244982382,
                1.1637045601681308,
                -2.698056847314266
            ]
        },
        {
            "positions": [
                -0.29292077101056113,
                -1.5423212886807096,
                2.116497548041753,
                -0.6366232522335871,
                1.1405985849273754,
                -2.5660683737449945
            ]
        },
        {
            "positions": [
                -0.2816851213983857,
                -1.5844882669979774,
                2.0399782575713714,
                -0.5385639799689359,
                1.1174926096866198,
                -2.434079900175722
            ]
        },
        {
            "positions": [
                -0.27044947178621026,
                -1.626655245315245,
                1.9634589671009894,
                -0.44050470770428474,
                1.0943866344458641,
                -2.3020914266064505
            ]
        },
        {
            "positions": [
                -0.25921382217403477,
                -1.6688222236325125,
                1.8869396766306075,
                -0.34244543543963357,
                1.0712806592051085,
                -2.1701029530371785
            ]
        },
        {
            "positions": [
                -0.24797817256185933,
                -1.71098920194978,
                1.8104203861602257,
                -0.2443861631749824,
                1.0481746839643529,
                -2.0381144794679065
            ]
        },
        {
            "positions": [
                -0.2367425229496839,
                -1.753156180267048,
                1.7339010956898435,
                -0.14632689091033124,
                1.0250687087235972,
                -1.9061260058986345
            ]
        },
        {
            "positions": [
                -0.22550687333750846,
                -1.7953231585843157,
                1.6573818052194618,
                -0.04826761864568008,
                1.0019627334828416,
                -1.7741375323293624
            ]
        },
        {
            "positions": [
                -0.214271223725333,
                -1.8374901369015832,
                1.5808625147490796,
                0.04979165361897109,
                0.9788567582420861,
                -1.6421490587600904
            ]
        },
        {
            "positions": [
                -0.20303557411315756,
                -1.8796571152188508,
                1.5043432242786978,
                0.14785092588362225,
                0.9557507830013305,
                -1.5101605851908186
            ]
        },
        {
            "positions": [
                -0.1917999245009821,
                -1.9218240935361184,
                1.4278239338083158,
                0.24591019814827342,
                0.9326448077605749,
                -1.3781721116215466
            ]
        },
        {
            "positions": [
                -0.18056427488880666,
                -1.963991071853386,
                1.3513046433379339,
                0.3439694704129246,
                0.9095388325198193,
                -1.2461836380522746
            ]
        },
        {
            "positions": [
                -0.1693286252766312,
                -2.0061580501706535,
                1.274785352867552,
                0.44202874267757575,
                0.8864328572790636,
                -1.1141951644830026
            ]
        },
        {
            "positions": [
                -0.15809297566445576,
                -2.0483250284879215,
                1.1982660623971702,
                0.5400880149422269,
                0.863326882038308,
                -0.9822066909137308
            ]
        },
        {
            "positions": [
                -0.14685732605228033,
                -2.090492006805189,
                1.1217467719267882,
                0.6381472872068781,
                0.8402209067975525,
                -0.8502182173444588
            ]
        },
        {
            "positions": [
                -0.13562167644010487,
                -2.1326589851224567,
                1.0452274814564062,
                0.7362065594715291,
                0.8171149315567968,
                -0.718229743775187
            ]
        },
        {
            "positions": [
                -0.08515881636151706,
                -2.124400960408403,
                1.135806065261886,
                0.6822781834234845,
                0.7874479031542612,
                -0.8647517870641757
            ]
        },
        {
            "positions": [
                -0.03469595628292928,
                -2.1161429356943495,
                1.2263846490673658,
                0.6283498073754399,
                0.7577808747517255,
                -1.0112738303531643
            ]
        },
        {
            "positions": [
                0.01576690379565851,
                -2.107884910980296,
                1.3169632328728456,
                0.5744214313273952,
                0.7281138463491899,
                -1.157795873642153
            ]
        },
        {
            "positions": [
                0.06622976387424631,
                -2.0996268862662424,
                1.4075418166783256,
                0.5204930552793505,
                0.6984468179466543,
                -1.3043179169311414
            ]
        },
        {
            "positions": [
                0.11669262395283408,
                -2.091368861552189,
                1.4981204004838053,
                0.4665646792313059,
                0.6687797895441187,
                -1.4508399602201303
            ]
        },
        {
            "positions": [
                0.16715548403142189,
                -2.0831108368381352,
                1.5886989842892851,
                0.4126363031832612,
                0.639112761141583,
                -1.5973620035091187
            ]
        },
        {
            "positions": [
                0.2176183441100097,
                -2.074852812124082,
                1.679277568094765,
                0.35870792713521665,
                0.6094457327390475,
                -1.7438840467981074
            ]
        },
        {
            "positions": [
                0.2680812041885975,
                -2.0665947874100286,
                1.7698561519002447,
                0.3047795510871719,
                0.5797787043365117,
                -1.890406090087096
            ]
        },
        {
            "positions": [
                0.31854406426718523,
                -2.058336762695975,
                1.8604347357057245,
                0.25085117503912735,
                0.5501116759339761,
                -2.0369281333760845
            ]
        },
        {
            "positions": [
                0.36900692434577304,
                -2.0500787379819214,
                1.9510133195112043,
                0.19692279899108267,
                0.5204446475314405,
                -2.1834501766650734
            ]
        },
        {
            "positions": [
                0.41946978442436084,
                -2.041820713267868,
                2.041591903316684,
                0.142994422943038,
                0.49077761912890483,
                -2.329972219954062
            ]
        },
        {
            "positions": [
                0.46993264450294864,
                -2.0335626885538143,
                2.132170487122164,
                0.08906604689499331,
                0.4611105907263692,
                -2.4764942632430507
            ]
        },
        {
            "positions": [
                0.5203955045815365,
                -2.0253046638397607,
                2.2227490709276436,
                0.03513767084694874,
                0.4314435623238336,
                -2.623016306532039
            ]
        },
        {
            "positions": [
                0.5574172446489501,
                -2.002193342766557,
                2.256968045044051,
                -0.06630959339756182,
                0.48602762993255716,
                -2.7237386027621713
            ]
        },
        {
            "positions": [
                0.5944389847163638,
                -1.9790820216933536,
                2.2911870191604584,
                -0.16775685764207238,
                0.5406116975412808,
                -2.824460898992304
            ]
        },
        {
            "positions": [
                0.6314607247837776,
                -1.95597070062015,
                2.3254059932768656,
                -0.26920412188658294,
                0.5951957651500044,
                -2.925183195222436
            ]
        },
        {
            "positions": [
                0.6684824648511912,
                -1.9328593795469464,
                2.359624967393273,
                -0.3706513861310935,
                0.649779832758728,
                -3.0259054914525687
            ]
        },
        {
            "positions": [
                0.7055042049186049,
                -1.909748058473743,
                2.3938439415096804,
                -0.472098650375604,
                0.7043639003674516,
                -3.126627787682701
            ]
        }
    ]
}