{
    "goal": {
        "global_pose": {
            "orientation": {
                "w": -0.00223480608172531,
                "x": 0.0024358444001904467,
                "y": 0.7094548369677653,
                "z": -0.704743149386269
            },
            "position": {
                "x": 0.6205249238014221,
                "y": -0.6371506643295288,
                "z": 0.19426114857196808
            }
        },
        "name": "move_to_magneteinheit_B"
    },
    "id": "KPIECE_move_to_magneteinheit_B_89",
    "joint_names": [
        "shoulder_pan_joint",
        "shoulder_lift_joint",
        "elbow_joint",
        "wrist_1_joint",
        "wrist_2_joint",
        "wrist_3_joint"
    ],
    "metrics": {
        "cart_traj_len": 4.300633918102063,
        "distance_elbow_joint": 5.305962638785008,
        "distance_shoulder_lift_joint": 1.2196002338765002,
        "distance_shoulder_pan_joint": 3.1205906422085645,
        "distance_wrist_1_joint": 4.647437390053309,
        "distance_wrist_2_joint": 1.6227092527231484,
        "distance_wrist_3_joint": 6.298068350111523,
        "smoothness": 0.8897148279359092,
        "time": 0.430269019,
        "traj_len": 4.7132121220838386,
        "weighted_distance": 6.409418994788652
    },
    "planner": "KPIECE",
    "start": {
        "state": {
            "elbow_joint": 2.39358713078474,
            "shoulder_lift_joint": -1.908514104345545,
            "shoulder_pan_joint": 0.7066247066606129,
            "wrist_1_joint": -0.4678290933515497,
            "wrist_2_joint": 0.7096259083745334,
            "wrist_3_joint": -3.1358149277392293
        }
    },
    "waypoints": [
        {
            "positions": [
                0.7066247066606129,
                -1.908514104345545,
                2.39358713078474,
                -0.4678290933515497,
                0.7096259083745334,
                -3.1358149277392293
            ]
        },
        {
            "positions": [
                0.668266062772803,
                -1.9238993316969202,
                2.369873316703755,
                -0.400275601629948,
                0.6028634367999232,
                -3.022833969576296
            ]
        },
        {
            "positions": [
                0.6299074188849929,
                -1.9392845590482957,
                2.34615950262277,
                -0.3327221099083463,
                0.4961009652253129,
                -2.909853011413363
            ]
        },
        {
            "positions": [
                0.591548774997183,
                -1.9546697863996711,
                2.322445688541785,
                -0.26516861818674453,
                0.3893384936507026,
                -2.7968720532504303
            ]
        },
        {
            "positions": [
                0.553190131109373,
                -1.9700550137510464,
                2.2987318744608,
                -0.19761512646514282,
                0.28257602207609234,
                -2.683891095087497
            ]
        },
        {
            "positions": [
                0.6425728517196301,
                -1.933628204302315,
                2.331468621934667,
                -0.26407536792872077,
                0.267337181112956,
                -2.592744255190653
            ]
        },
        {
            "positions": [
                0.7319555723298872,
                -1.8972013948535833,
                2.3642053694085345,
                -0.33053560939229865,
                0.2520983401498197,
                -2.50159741529381
            ]
        },
        {
            "positions": [
                0.8213382929401444,
                -1.8607745854048519,
                2.3969421168824017,
                -0.39699585085587663,
                0.23685949918668336,
                -2.410450575396966
            ]
        },
        {
            "positions": [
                0.7241988775237955,
                -1.8990976416060414,
                2.3497977589950687,
                -0.2949413615819367,
                0.1652871068897053,
                -2.3863633453301802
            ]
        },
        {
            "positions": [
                0.6270594621074467,
                -1.9374206978072308,
                2.3026534011077358,
                -0.19288687230799673,
                0.09371471459272723,
                -2.3622761152633944
            ]
        },
        {
            "positions": [
                0.5299200466910978,
                -1.9757437540084202,
                2.2555090432204032,
                -0.09083238303405677,
                0.022142322295749167,
                -2.3381888851966086
            ]
        },
        {
            "positions": [
                0.4327806312747489,
                -2.0140668102096098,
                2.2083646853330703,
                0.011222106239883178,
                -0.049430070001228926,
                -2.314101655129823
            ]
        },
        {
            "positions": [
                0.4258263580417477,
                -2.005279028304329,
                2.0825653667443023,
                -0.008223946651364812,
                -0.08025349797646211,
                -2.141865124796821
            ]
        },
        {
            "positions": [
                0.41887208480874644,
                -1.9964912463990483,
                1.9567660481555347,
                -0.027669999542612803,
                -0.11107692595169531,
                -1.9696285944638194
            ]
        },
        {
            "positions": [
                0.41191781157574525,
                -1.9877034644937674,
                1.8309667295667669,
                -0.0471160524338608,
                -0.1419003539269285,
                -1.7973920641308176
            ]
        },
        {
            "positions": [
                0.404963538342744,
                -1.9789156825884866,
                1.705167410977999,
                -0.06656210532510878,
                -0.1727237819021617,
                -1.625155533797816
            ]
        },
        {
            "positions": [
                0.39800926510974277,
                -1.970127900683206,
                1.5793680923892313,
                -0.0860081582163568,
                -0.2035472098773949,
                -1.4529190034648143
            ]
        },
        {
            "positions": [
                0.39105499187674153,
                -1.9613401187779251,
                1.4535687738004635,
                -0.10545421110760478,
                -0.2343706378526281,
                -1.2806824731318125
            ]
        },
        {
            "positions": [
                0.4576584982922443,
                -1.949016367744429,
                1.33072462774908,
                -0.19916567746494832,
                -0.2257349472953722,
                -1.1978820541732353
            ]
        },
        {
            "positions": [
                0.5242620047077471,
                -1.9366926167109328,
                1.207880481697697,
                -0.29287714382229185,
                -0.21709925673811625,
                -1.1150816352146582
            ]
        },
        {
            "positions": [
                0.5908655111232498,
                -1.9243688656774365,
                1.0850363356463135,
                -0.38658861017963536,
                -0.20846356618086034,
                -1.0322812162560808
            ]
        },
        {
            "positions": [
                0.6574690175387526,
                -1.9120451146439403,
                0.9621921895949304,
                -0.4803000765369789,
                -0.1998278756236044,
                -0.9494807972975037
            ]
        },
        {
            "positions": [
                0.7240725239542554,
                -1.8997213636104442,
                0.839348043543547,
                -0.5740115428943224,
                -0.1911921850663485,
                -0.8666803783389265
            ]
        },
        {
            "positions": [
                0.7906760303697582,
                -1.887397612576948,
                0.7165038974921638,
                -0.6677230092516659,
                -0.1825564945090926,
                -0.7838799593803494
            ]
        },
        {
            "positions": [
                0.857279536785261,
                -1.8750738615434517,
                0.5936597514407803,
                -0.7614344756090096,
                -0.17392080395183665,
                -0.7010795404217721
            ]
        },
        {
            "positions": [
                0.9238830432007638,
                -1.8627501105099555,
                0.47081560538939715,
                -0.8551459419663531,
                -0.16528511339458074,
                -0.618279121463195
            ]
        },
        {
            "positions": [
                0.9904865496162665,
                -1.8504263594764594,
                0.3479714593380139,
                -0.9488574083236966,
                -0.1566494228373248,
                -0.5354787025046178
            ]
        },
        {
            "positions": [
                1.0570900560317693,
                -1.8381026084429632,
                0.2251273132866305,
                -1.0425688746810402,
                -0.1480137322800689,
                -0.45267828354604056
            ]
        },
        {
            "positions": [
                1.1236935624472721,
                -1.8257788574094669,
                0.10228316723524733,
                -1.1362803410383835,
                -0.13937804172281298,
                -0.3698778645874634
            ]
        },
        {
            "positions": [
                1.1902970688627748,
                -1.8134551063759707,
                -0.020560978816135833,
                -1.2299918073957272,
                -0.13074235116555705,
                -0.28707744562888626
            ]
        },
        {
            "positions": [
                1.2569005752782776,
                -1.8011313553424746,
                -0.14340512486751944,
                -1.323703273753071,
                -0.12210666060830112,
                -0.2042770266703089
            ]
        },
        {
            "positions": [
                1.3235040816937804,
                -1.7888076043089784,
                -0.2662492709189028,
                -1.4174147401104142,
                -0.1134709700510452,
                -0.12147660771173174
            ]
        },
        {
            "positions": [
                1.390107588109283,
                -1.776483853275482,
                -0.38909341697028577,
                -1.511126206467758,
                -0.10483527949378929,
                -0.038676188753154594
            ]
        },
        {
            "positions": [
                1.456711094524786,
                -1.764160102241986,
                -0.5119375630216692,
                -1.6048376728251013,
                -0.09619958893653335,
                0.044124230205422554
            ]
        },
        {
            "positions": [
                1.5233146009402887,
                -1.7518363512084898,
                -0.6347817090730525,
                -1.698549139182445,
                -0.08756389837927744,
                0.12692464916399993
            ]
        },
        {
            "positions": [
                1.5899181073557913,
                -1.7395126001749937,
                -0.7576258551244357,
                -1.7922606055397883,
                -0.07892820782202153,
                0.20972506812257685
            ]
        },
        {
            "positions": [
                1.6565216137712944,
                -1.7271888491414973,
                -0.8804700011758189,
                -1.885972071897132,
                -0.0702925172647656,
                0.2925254870811542
            ]
        },
        {
            "positions": [
                1.723125120186797,
                -1.7148650981080011,
                -1.0033141472272025,
                -1.9796835382544757,
                -0.06165682670750969,
                0.37532590603973137
            ]
        },
        {
            "positions": [
                1.7897286266022996,
                -1.702541347074505,
                -1.1261582932785856,
                -2.073395004611819,
                -0.05302113615025378,
                0.4581263249983085
            ]
        },
        {
            "positions": [
                1.8563321330178026,
                -1.6902175960410089,
                -1.2490024393299688,
                -2.1671064709691623,
                -0.04438544559299784,
                0.5409267439568857
            ]
        },
        {
            "positions": [
                1.9229356394333053,
                -1.6778938450075125,
                -1.3718465853813524,
                -2.260817937326506,
                -0.035749755035741904,
                0.623727162915463
            ]
        },
        {
            "positions": [
                1.9895391458488079,
                -1.6655700939740163,
                -1.4946907314327351,
                -2.3545294036838493,
                -0.027114064478486022,
                0.70652758187404
            ]
        },
        {
            "positions": [
                2.056142652264311,
                -1.6532463429405202,
                -1.6175348774841187,
                -2.448240870041193,
                -0.018478373921230085,
                0.7893280008326172
            ]
        },
        {
            "positions": [
                2.0692126672457287,
                -1.6747633686609262,
                -1.673814455644049,
                -2.5155333000644564,
                -0.01910766659339468,
                0.9965170027773602
            ]
        },
        {
            "positions": [
                2.082282682227147,
                -1.696280394381332,
                -1.7300940338039794,
                -2.58282573008772,
                -0.019736959265559274,
                1.2037060047221033
            ]
        },
        {
            "positions": [
                2.0953526972085648,
                -1.717797420101738,
                -1.78637361196391,
                -2.6501181601109836,
                -0.020366251937723866,
                1.4108950066668462
            ]
        },
        {
            "positions": [
                2.1084227121899826,
                -1.739314445822144,
                -1.8426531901238403,
                -2.7174105901342474,
                -0.02099554460988846,
                1.6180840086115893
            ]
        },
        {
            "positions": [
                2.1214927271714004,
                -1.76083147154255,
                -1.8989327682837707,
                -2.7847030201575107,
                -0.021624837282053055,
                1.8252730105563324
            ]
        },
        {
            "positions": [
                2.1345627421528186,
                -1.782348497262956,
                -1.955212346443701,
                -2.851995450180774,
                -0.02225412995421765,
                2.032462012501075
            ]
        },
        {
            "positions": [
                2.1476327571342364,
                -1.8038655229833618,
                -2.0114919246036314,
                -2.919287880204038,
                -0.022883422626382245,
                2.239651014445818
            ]
        },
        {
            "positions": [
                2.160702772115654,
                -1.8253825487037678,
                -2.067771502763562,
                -2.986580310227301,
                -0.023512715298546837,
                2.4468400163905613
            ]
        },
        {
            "positions": [
                2.1737727870970724,
                -1.8468995744241736,
                -2.1240510809234925,
                -3.053872740250565,
                -0.02414200797071143,
                2.6540290183353044
            ]
        },
        {
            "positions": [
                2.1868428020784902,
                -1.8684166001445797,
                -2.1803306590834226,
                -3.1211651702738283,
                -0.024771300642876026,
                2.8612180202800475
            ]
        },
        {
            "positions": [
                2.2544052011586904,
                -1.914058878265565,
                -2.103812892787188,
                -3.0301312466785864,
                -0.08998951719186787,
                2.904223077721798
            ]
        },
        {
            "positions": [
                2.321967600238891,
                -1.9597011563865503,
                -2.027295126490954,
                -2.9390973230833444,
                -0.15520773374085972,
                2.947228135163548
            ]
        },
        {
            "positions": [
                2.389529999319091,
                -2.0053434345075356,
                -1.9507773601947194,
                -2.8480633994881024,
                -0.22042595028985157,
                2.9902331926052983
            ]
        },
        {
            "positions": [
                2.457092398399291,
                -2.050985712628521,
                -1.874259593898485,
                -2.7570294758928604,
                -0.2856441668388434,
                3.0332382500470487
            ]
        },
        {
            "positions": [
                2.5246547974794913,
                -2.0966279907495062,
                -1.7977418276022503,
                -2.6659955522976184,
                -0.35086238338783526,
                3.076243307488799
            ]
        },
        {
            "positions": [
                2.592217196559692,
                -2.1422702688704915,
                -1.721224061306016,
                -2.5749616287023764,
                -0.4160805999368271,
                3.119248364930549
            ]
        },
        {
            "positions": [
                2.659779595639892,
                -2.187912546991477,
                -1.6447062950097815,
                -2.4839277051071345,
                -0.48129881648581896,
                3.1622534223722996
            ]
        }
    ]
}