{
    "goal": {
        "global_pose": {
            "orientation": {
                "w": -0.00223480608172531,
                "x": 0.0024358444001904467,
                "y": 0.7094548369677653,
                "z": -0.704743149386269
            },
            "position": {
                "x": 0.6205249238014221,
                "y": -0.6371506643295288,
                "z": 0.19426114857196808
            }
        },
        "name": "move_to_magneteinheit_B"
    },
    "id": "KPIECE_move_to_magneteinheit_B_81",
    "joint_names": [
        "shoulder_pan_joint",
        "shoulder_lift_joint",
        "elbow_joint",
        "wrist_1_joint",
        "wrist_2_joint",
        "wrist_3_joint"
    ],
    "metrics": {
        "cart_traj_len": 3.240759363076952,
        "distance_elbow_joint": 4.070222704071403,
        "distance_shoulder_lift_joint": 0.8853331381739848,
        "distance_shoulder_pan_joint": 1.954251153366402,
        "distance_wrist_1_joint": 1.6581693459858355,
        "distance_wrist_2_joint": 1.2152641713056813,
        "distance_wrist_3_joint": 3.1231161871926787,
        "smoothness": 0.1862019493147463,
        "time": 0.161386748,
        "traj_len": 3.592541816053919,
        "weighted_distance": 4.6931889576036525
    },
    "planner": "KPIECE",
    "start": {
        "state": {
            "elbow_joint": 2.39358713078474,
            "shoulder_lift_joint": -1.908514104345545,
            "shoulder_pan_joint": 0.7066247066606129,
            "wrist_1_joint": -0.4678290933515497,
            "wrist_2_joint": 0.7096259083745334,
            "wrist_3_joint": -3.1358149277392293
        }
    },
    "waypoints": [
        {
            "positions": [
                0.7066247066606129,
                -1.908514104345545,
                2.39358713078474,
                -0.4678290933515497,
                0.7096259083745334,
                -3.1358149277392293
            ]
        },
        {
            "positions": [
                0.7438777409554896,
                -1.9221249415495003,
                2.400504223490141,
                -0.4262960442730037,
                0.6501425538395839,
                -3.0754217973892093
            ]
        },
        {
            "positions": [
                0.8151164475609256,
                -1.9178638820211957,
                2.358844372972724,
                -0.38358998360508384,
                0.5492910300691258,
                -2.948146796645571
            ]
        },
        {
            "positions": [
                0.8863551541663617,
                -1.9136028224928912,
                2.3171845224553076,
                -0.34088392293716396,
                0.4484395062986678,
                -2.820871795901933
            ]
        },
        {
            "positions": [
                0.9575938607717976,
                -1.9093417629645868,
                2.2755246719378914,
                -0.29817786226924414,
                0.3475879825282098,
                -2.6935967951582955
            ]
        },
        {
            "positions": [
                1.0288325673772336,
                -1.9050807034362822,
                2.233864821420475,
                -0.2554718016013242,
                0.2467364587577518,
                -2.5663217944146575
            ]
        },
        {
            "positions": [
                1.1000712739826697,
                -1.9008196439079776,
                2.192204970903058,
                -0.2127657409334044,
                0.14588493498729382,
                -2.4390467936710194
            ]
        },
        {
            "positions": [
                1.1622823222702992,
                -1.895223882464535,
                2.0332782145706565,
                -0.15886321736270453,
                0.16640520972588493,
                -2.3448704096265223
            ]
        },
        {
            "positions": [
                1.2244933705579286,
                -1.8896281210210923,
                1.8743514582382548,
                -0.10496069379200468,
                0.18692548446447604,
                -2.250694025582025
            ]
        },
        {
            "positions": [
                1.286704418845558,
                -1.8840323595776498,
                1.715424701905853,
                -0.05105817022130482,
                0.20744575920306718,
                -2.156517641537528
            ]
        },
        {
            "positions": [
                1.3489154671331873,
                -1.8784365981342073,
                1.5564979455734513,
                0.0028443533493950346,
                0.22796603394165826,
                -2.062341257493031
            ]
        },
        {
            "positions": [
                1.4111265154208168,
                -1.8728408366907647,
                1.3975711892410494,
                0.05674687692009489,
                0.2484863086802494,
                -1.9681648734485335
            ]
        },
        {
            "positions": [
                1.4733375637084463,
                -1.8672450752473222,
                1.2386444329086477,
                0.11064940049079475,
                0.26900658341884054,
                -1.8739884894040364
            ]
        },
        {
            "positions": [
                1.5355486119960757,
                -1.8616493138038794,
                1.079717676576246,
                0.1645519240614946,
                0.2895268581574316,
                -1.779812105359539
            ]
        },
        {
            "positions": [
                1.597759660283705,
                -1.856053552360437,
                0.9207909202438442,
                0.21845444763219446,
                0.3100471328960227,
                -1.6856357213150421
            ]
        },
        {
            "positions": [
                1.6599707085713344,
                -1.8504577909169944,
                0.7618641639114423,
                0.2723569712028943,
                0.33056740763461384,
                -1.5914593372705448
            ]
        },
        {
            "positions": [
                1.722181756858964,
                -1.8448620294735516,
                0.6029374075790406,
                0.32625949477359417,
                0.351087682373205,
                -1.4972829532260477
            ]
        },
        {
            "positions": [
                1.7843928051465934,
                -1.839266268030109,
                0.44401065124663885,
                0.380162018344294,
                0.37160795711179606,
                -1.4031065691815505
            ]
        },
        {
            "positions": [
                1.8466038534342228,
                -1.8336705065866665,
                0.28508389491423713,
                0.4340645419149939,
                0.3921282318503872,
                -1.3089301851370534
            ]
        },
        {
            "positions": [
                1.9088149017218523,
                -1.828074745143224,
                0.12615713858183542,
                0.4879670654856937,
                0.4126485065889783,
                -1.2147538010925563
            ]
        },
        {
            "positions": [
                1.9710259500094818,
                -1.8224789836997815,
                -0.032769617750566304,
                0.5418695890563936,
                0.4331687813275694,
                -1.120577417048059
            ]
        },
        {
            "positions": [
                2.0332369982971112,
                -1.8168832222563387,
                -0.19169637408296802,
                0.5957721126270935,
                0.45368905606616056,
                -1.026401033003562
            ]
        },
        {
            "positions": [
                2.0954480465847407,
                -1.8112874608128962,
                -0.35062313041536974,
                0.6496746361977933,
                0.47420933080475164,
                -0.9322246489590649
            ]
        },
        {
            "positions": [
                2.15765909487237,
                -1.8056916993694536,
                -0.5095498867477719,
                0.7035771597684932,
                0.4947296055433428,
                -0.8380482649145675
            ]
        },
        {
            "positions": [
                2.2198701431599996,
                -1.8000959379260109,
                -0.6684766430801736,
                0.757479683339193,
                0.5152498802819339,
                -0.7438718808700704
            ]
        },
        {
            "positions": [
                2.282081191447629,
                -1.7945001764825683,
                -0.8274033994125749,
                0.8113822069098929,
                0.5357701550205249,
                -0.6496954968255733
            ]
        },
        {
            "positions": [
                2.3442922397352586,
                -1.7889044150391258,
                -0.9863301557449771,
                0.8652847304805927,
                0.5562904297591161,
                -0.5555191127810759
            ]
        },
        {
            "positions": [
                2.4065032880228876,
                -1.7833086535956832,
                -1.1452569120773788,
                0.9191872540512925,
                0.5768107044977072,
                -0.4613427287365788
            ]
        },
        {
            "positions": [
                2.468714336310517,
                -1.7777128921522407,
                -1.3041836684097805,
                0.9730897776219923,
                0.5973309792362984,
                -0.36716634469208165
            ]
        },
        {
            "positions": [
                2.5309253845981465,
                -1.772117130708798,
                -1.4631104247421822,
                1.0269923011926925,
                0.6178512539748895,
                -0.2729899606475845
            ]
        },
        {
            "positions": [
                2.593136432885776,
                -1.7665213692653554,
                -1.6220371810745842,
                1.0808948247633923,
                0.6383715287134806,
                -0.17881357660308736
            ]
        },
        {
            "positions": [
                2.6205138602659677,
                -1.9138795802987474,
                -1.642139094899222,
                1.0906871908176892,
                0.6200153678503026,
                -0.1453619521849075
            ]
        },
        {
            "positions": [
                2.647891287646159,
                -2.0612377913321396,
                -1.66224100872386,
                1.1004795568719863,
                0.6016592069871247,
                -0.11191032776672766
            ]
        },
        {
            "positions": [
                2.654383573836587,
                -2.2719389446416898,
                -1.662521198299861,
                1.0555492089908363,
                0.5404970657541749,
                -0.06230453415663873
            ]
        },
        {
            "positions": [
                2.660875860027015,
                -2.48264009795124,
                -1.662801387875862,
                1.0106188611096862,
                0.479334924521225,
                -0.012698740546549802
            ]
        }
    ]
}