{
    "goal": {
        "global_pose": {
            "orientation": {
                "w": -0.00223480608172531,
                "x": 0.0024358444001904467,
                "y": 0.7094548369677653,
                "z": -0.704743149386269
            },
            "position": {
                "x": 0.6205249238014221,
                "y": -0.6371506643295288,
                "z": 0.19426114857196808
            }
        },
        "name": "move_to_magneteinheit_B"
    },
    "id": "KPIECE_move_to_magneteinheit_B_53",
    "joint_names": [
        "shoulder_pan_joint",
        "shoulder_lift_joint",
        "elbow_joint",
        "wrist_1_joint",
        "wrist_2_joint",
        "wrist_3_joint"
    ],
    "metrics": {
        "cart_traj_len": 1.4529300216633394,
        "distance_elbow_joint": 0.7298756816527419,
        "distance_shoulder_lift_joint": 1.2488226855777516,
        "distance_shoulder_pan_joint": 1.6208191438047503,
        "distance_wrist_1_joint": 2.6068910658187137,
        "distance_wrist_2_joint": 2.9426470720297737,
        "distance_wrist_3_joint": 3.1336131325198195,
        "smoothness": 2.422304777406355e-16,
        "time": 0.342753565,
        "traj_len": 3.5046638614000556,
        "weighted_distance": 4.909117352874311
    },
    "planner": "KPIECE",
    "start": {
        "state": {
            "elbow_joint": 2.39358713078474,
            "shoulder_lift_joint": -1.908514104345545,
            "shoulder_pan_joint": 0.7066247066606129,
            "wrist_1_joint": -0.4678290933515497,
            "wrist_2_joint": 0.7096259083745334,
            "wrist_3_joint": -3.1358149277392293
        }
    },
    "waypoints": [
        {
            "positions": [
                0.7066247066606129,
                -1.908514104345545,
                2.39358713078474,
                -0.4678290933515497,
                0.7096259083745334,
                -3.1358149277392293
            ]
        },
        {
            "positions": [
                0.6559741084167146,
                -1.8694883954212402,
                2.370778515733092,
                -0.3863637475447149,
                0.617668187373603,
                -3.0378895173479847
            ]
        },
        {
            "positions": [
                0.605323510172816,
                -1.8304626864969356,
                2.3479699006814436,
                -0.3048984017378801,
                0.5257104663726726,
                -2.9399641069567406
            ]
        },
        {
            "positions": [
                0.5546729119289175,
                -1.7914369775726307,
                2.3251612856297954,
                -0.2234330559310453,
                0.43375274537174213,
                -2.8420386965654965
            ]
        },
        {
            "positions": [
                0.5040223136850192,
                -1.752411268648326,
                2.302352670578147,
                -0.1419677101242105,
                0.3417950243708117,
                -2.744113286174252
            ]
        },
        {
            "positions": [
                0.4533717154411207,
                -1.7133855597240213,
                2.279544055526499,
                -0.06050236431737571,
                0.2498373033698813,
                -2.6461878757830073
            ]
        },
        {
            "positions": [
                0.40272111719722226,
                -1.6743598507997164,
                2.256735440474851,
                0.02096298148945913,
                0.15787958236895083,
                -2.548262465391763
            ]
        },
        {
            "positions": [
                0.3520705189533238,
                -1.6353341418754117,
                2.233926825423203,
                0.10242832729629386,
                0.06592186136802047,
                -2.450337055000519
            ]
        },
        {
            "positions": [
                0.30141992070942536,
                -1.596308432951107,
                2.2111182103715548,
                0.1838936731031287,
                -0.026035859632909997,
                -2.3524116446092744
            ]
        },
        {
            "positions": [
                0.2507693224655269,
                -1.5572827240268023,
                2.1883095953199065,
                0.26535901890996355,
                -0.11799358063384047,
                -2.25448623421803
            ]
        },
        {
            "positions": [
                0.20011872422162846,
                -1.5182570151024977,
                2.1655009802682583,
                0.3468243647167983,
                -0.20995130163477083,
                -2.1565608238267857
            ]
        },
        {
            "positions": [
                0.14946812597773007,
                -1.4792313061781928,
                2.14269236521661,
                0.4282897105236331,
                -0.3019090226357012,
                -2.0586354134355416
            ]
        },
        {
            "positions": [
                0.09881752773383157,
                -1.440205597253888,
                2.119883750164962,
                0.509755056330468,
                -0.39386674363663177,
                -1.960710003044297
            ]
        },
        {
            "positions": [
                0.048166929489933064,
                -1.4011798883295834,
                2.0970751351133137,
                0.5912204021373029,
                -0.4858244646375621,
                -1.8627845926530526
            ]
        },
        {
            "positions": [
                -0.002483668753965329,
                -1.3621541794052785,
                2.0742665200616655,
                0.6726857479441375,
                -0.5777821856384925,
                -1.7648591822618083
            ]
        },
        {
            "positions": [
                -0.05313426699786372,
                -1.3231284704809738,
                2.0514579050100172,
                0.7541510937509723,
                -0.6697399066394231,
                -1.666933771870564
            ]
        },
        {
            "positions": [
                -0.10378486524176223,
                -1.2841027615566691,
                2.028649289958369,
                0.8356164395578072,
                -0.7616976276403534,
                -1.5690083614793195
            ]
        },
        {
            "positions": [
                -0.15443546348566073,
                -1.2450770526323645,
                2.005840674906721,
                0.917081785364642,
                -0.8536553486412838,
                -1.4710829510880752
            ]
        },
        {
            "positions": [
                -0.20508606172955912,
                -1.2060513437080598,
                1.9830320598550728,
                0.9985471311714769,
                -0.9456130696422144,
                -1.3731575406968308
            ]
        },
        {
            "positions": [
                -0.2557366599734575,
                -1.1670256347837549,
                1.9602234448034246,
                1.0800124769783115,
                -1.0375707906431448,
                -1.2752321303055865
            ]
        },
        {
            "positions": [
                -0.306387258217356,
                -1.1279999258594502,
                1.9374148297517764,
                1.1614778227851463,
                -1.1295285116440752,
                -1.177306719914342
            ]
        },
        {
            "positions": [
                -0.3570378564612545,
                -1.0889742169351455,
                1.9146062147001282,
                1.2429431685919812,
                -1.2214862326450056,
                -1.0793813095230975
            ]
        },
        {
            "positions": [
                -0.4076884547051528,
                -1.0499485080108406,
                1.8917975996484802,
                1.324408514398816,
                -1.313443953645936,
                -0.9814558991318534
            ]
        },
        {
            "positions": [
                -0.4583390529490513,
                -1.010922799086536,
                1.868988984596832,
                1.4058738602056509,
                -1.4054016746468667,
                -0.8835304887406092
            ]
        },
        {
            "positions": [
                -0.5089896511929498,
                -0.9718970901622312,
                1.8461803695451837,
                1.4873392060124857,
                -1.497359395647797,
                -0.7856050783493647
            ]
        },
        {
            "positions": [
                -0.5596402494368483,
                -0.9328713812379266,
                1.8233717544935355,
                1.5688045518193205,
                -1.5893171166487274,
                -0.6876796679581201
            ]
        },
        {
            "positions": [
                -0.6102908476807468,
                -0.8938456723136219,
                1.8005631394418873,
                1.6502698976261554,
                -1.6812748376496578,
                -0.5897542575668759
            ]
        },
        {
            "positions": [
                -0.6609414459246451,
                -0.854819963389317,
                1.777754524390239,
                1.7317352434329898,
                -1.7732325586505882,
                -0.4918288471756318
            ]
        },
        {
            "positions": [
                -0.7115920441685436,
                -0.8157942544650123,
                1.7549459093385908,
                1.8132005892398246,
                -1.8651902796515185,
                -0.3939034367843872
            ]
        },
        {
            "positions": [
                -0.7622426424124421,
                -0.7767685455407076,
                1.7321372942869426,
                1.8946659350466595,
                -1.9571480006524493,
                -0.29597802639314263
            ]
        },
        {
            "positions": [
                -0.8128932406563404,
                -0.7377428366164027,
                1.7093286792352944,
                1.9761312808534943,
                -2.0491057216533797,
                -0.1980526160018985
            ]
        },
        {
            "positions": [
                -0.8635438389002389,
                -0.698717127692098,
                1.6865200641836464,
                2.057596626660329,
                -2.14106344265431,
                -0.10012720561065436
            ]
        },
        {
            "positions": [
                -0.9141944371441374,
                -0.6596914187677932,
                1.6637114491319982,
                2.139061972467164,
                -2.2330211636552404,
                -0.0022017952194098513
            ]
        }
    ]
}