{
    "goal": {
        "global_pose": {
            "orientation": {
                "w": -0.00223480608172531,
                "x": 0.0024358444001904467,
                "y": 0.7094548369677653,
                "z": -0.704743149386269
            },
            "position": {
                "x": 0.6205249238014221,
                "y": -0.6371506643295288,
                "z": 0.19426114857196808
            }
        },
        "name": "move_to_magneteinheit_B"
    },
    "id": "KPIECE_move_to_magneteinheit_B_61",
    "joint_names": [
        "shoulder_pan_joint",
        "shoulder_lift_joint",
        "elbow_joint",
        "wrist_1_joint",
        "wrist_2_joint",
        "wrist_3_joint"
    ],
    "metrics": {
        "cart_traj_len": 1.453475599584773,
        "distance_elbow_joint": 0.7284593792079581,
        "distance_shoulder_lift_joint": 1.2468781220983658,
        "distance_shoulder_pan_joint": 1.6207452680927683,
        "distance_wrist_1_joint": 2.614422131727359,
        "distance_wrist_2_joint": 2.9346722598703434,
        "distance_wrist_3_joint": 3.1365926936350856,
        "smoothness": 6.106226652474344e-16,
        "time": 0.023601285,
        "traj_len": 3.5045356118367352,
        "weighted_distance": 4.909587521727233
    },
    "planner": "KPIECE",
    "start": {
        "state": {
            "elbow_joint": 2.39358713078474,
            "shoulder_lift_joint": -1.908514104345545,
            "shoulder_pan_joint": 0.7066247066606129,
            "wrist_1_joint": -0.4678290933515497,
            "wrist_2_joint": 0.7096259083745334,
            "wrist_3_joint": -3.1358149277392293
        }
    },
    "waypoints": [
        {
            "positions": [
                0.7066247066606129,
                -1.908514104345545,
                2.39358713078474,
                -0.4678290933515497,
                0.7096259083745334,
                -3.1358149277392293
            ]
        },
        {
            "positions": [
                0.6543426012382656,
                -1.868292229439146,
                2.3700884411328706,
                -0.383492895553893,
                0.6149590612819417,
                -3.0346345182671297
            ]
        },
        {
            "positions": [
                0.6020604958159183,
                -1.828070354532747,
                2.346589751481001,
                -0.2991566977562362,
                0.52029221418935,
                -2.93345410879503
            ]
        },
        {
            "positions": [
                0.5497783903935709,
                -1.7878484796263483,
                2.3230910618291314,
                -0.2148204999585795,
                0.42562536709675824,
                -2.832273699322931
            ]
        },
        {
            "positions": [
                0.4974962849712235,
                -1.7476266047199494,
                2.2995923721772615,
                -0.13048430216092272,
                0.33095852000416653,
                -2.7310932898508313
            ]
        },
        {
            "positions": [
                0.44521417954887615,
                -1.7074047298135504,
                2.276093682525392,
                -0.046148104363265996,
                0.23629167291157482,
                -2.6299128803787317
            ]
        },
        {
            "positions": [
                0.39293207412652875,
                -1.6671828549071515,
                2.2525949928735223,
                0.038188093434390724,
                0.14162482581898306,
                -2.528732470906632
            ]
        },
        {
            "positions": [
                0.3406499687041814,
                -1.6269609800007525,
                2.229096303221653,
                0.1225242912320475,
                0.0469579787263914,
                -2.4275520614345325
            ]
        },
        {
            "positions": [
                0.28836786328183406,
                -1.5867391050943538,
                2.205597613569783,
                0.20686048902970428,
                -0.04770886836620036,
                -2.326371651962433
            ]
        },
        {
            "positions": [
                0.23608575785948666,
                -1.5465172301879548,
                2.1820989239179136,
                0.29119668682736105,
                -0.14237571545879213,
                -2.2251912424903333
            ]
        },
        {
            "positions": [
                0.18380365243713936,
                -1.506295355281556,
                2.1586002342660437,
                0.3755328846250177,
                -0.23704256255138378,
                -2.124010833018234
            ]
        },
        {
            "positions": [
                0.1315215470147919,
                -1.4660734803751572,
                2.1351015446141743,
                0.4598690824226745,
                -0.33170940964397555,
                -2.022830423546134
            ]
        },
        {
            "positions": [
                0.07923944159244456,
                -1.4258516054687582,
                2.1116028549623045,
                0.5442052802203312,
                -0.4263762567365673,
                -1.921650014074035
            ]
        },
        {
            "positions": [
                0.026957336170097213,
                -1.3856297305623593,
                2.088104165310435,
                0.6285414780179881,
                -0.5210431038291591,
                -1.8204696046019353
            ]
        },
        {
            "positions": [
                -0.025324769252250134,
                -1.3454078556559603,
                2.0646054756585652,
                0.7128776758156448,
                -0.6157099509217506,
                -1.719289195129836
            ]
        },
        {
            "positions": [
                -0.07760687467459759,
                -1.3051859807495614,
                2.041106786006696,
                0.7972138736133014,
                -0.7103767980143424,
                -1.6181087856577363
            ]
        },
        {
            "positions": [
                -0.12988898009694483,
                -1.2649641058431627,
                2.0176080963548264,
                0.8815500714109583,
                -0.8050436451069342,
                -1.5169283761856367
            ]
        },
        {
            "positions": [
                -0.18217108551929218,
                -1.2247422309367637,
                1.9941094067029566,
                0.965886269208615,
                -0.8997104921995257,
                -1.4157479667135373
            ]
        },
        {
            "positions": [
                -0.23445319094163963,
                -1.1845203560303648,
                1.970610717051087,
                1.0502224670062719,
                -0.9943773392921177,
                -1.3145675572414375
            ]
        },
        {
            "positions": [
                -0.286735296363987,
                -1.1442984811239658,
                1.9471120273992173,
                1.1345586648039285,
                -1.0890441863847093,
                -1.213387147769338
            ]
        },
        {
            "positions": [
                -0.3390174017863342,
                -1.1040766062175669,
                1.9236133377473477,
                1.2188948626015852,
                -1.1837110334773011,
                -1.1122067382972385
            ]
        },
        {
            "positions": [
                -0.3912995072086817,
                -1.0638547313111681,
                1.900114648095478,
                1.3032310603992419,
                -1.2783778805698924,
                -1.0110263288251393
            ]
        },
        {
            "positions": [
                -0.44358161263102913,
                -1.0236328564047692,
                1.8766159584436086,
                1.3875672581968987,
                -1.3730447276624846,
                -0.9098459193530393
            ]
        },
        {
            "positions": [
                -0.49586371805337637,
                -0.9834109814983703,
                1.8531172687917388,
                1.4719034559945554,
                -1.4677115747550764,
                -0.8086655098809401
            ]
        },
        {
            "positions": [
                -0.5481458234757238,
                -0.9431891065919714,
                1.8296185791398694,
                1.556239653792212,
                -1.5623784218476682,
                -0.7074851004088405
            ]
        },
        {
            "positions": [
                -0.6004279288980711,
                -0.9029672316855726,
                1.8061198894879997,
                1.640575851589869,
                -1.6570452689402595,
                -0.6063046909367409
            ]
        },
        {
            "positions": [
                -0.6527100343204185,
                -0.8627453567791736,
                1.78262119983613,
                1.7249120493875258,
                -1.7517121160328517,
                -0.5051242814646413
            ]
        },
        {
            "positions": [
                -0.704992139742766,
                -0.8225234818727747,
                1.7591225101842602,
                1.8092482471851823,
                -1.846378963125443,
                -0.40394387199254167
            ]
        },
        {
            "positions": [
                -0.7572742451651132,
                -0.7823016069663757,
                1.7356238205323908,
                1.8935844449828392,
                -1.9410458102180348,
                -0.3027634625204425
            ]
        },
        {
            "positions": [
                -0.8095563505874604,
                -0.742079732059977,
                1.7121251308805212,
                1.9779206427804956,
                -2.0357126573106266,
                -0.2015830530483429
            ]
        },
        {
            "positions": [
                -0.8618384560098081,
                -0.7018578571535781,
                1.6886264412286516,
                2.0622568405781525,
                -2.1303795044032183,
                -0.10040264357624329
            ]
        },
        {
            "positions": [
                -0.9141205614321553,
                -0.6616359822471792,
                1.665127751576782,
                2.1465930383758094,
                -2.22504635149581,
                0.0007777658958562632
            ]
        }
    ]
}