{
    "goal": {
        "global_pose": {
            "orientation": {
                "w": 0.5084816217422485,
                "x": -0.49083608388900757,
                "y": 0.5182115435600281,
                "z": -0.4816462993621826
            },
            "position": {
                "x": 0.5540239810943604,
                "y": 0.030875300988554955,
                "z": 0.16403168439865112
            }
        },
        "name": "move_to_storage_A"
    },
    "id": "KPIECE_move_to_storage_A_64",
    "joint_names": [
        "shoulder_pan_joint",
        "shoulder_lift_joint",
        "elbow_joint",
        "wrist_1_joint",
        "wrist_2_joint",
        "wrist_3_joint"
    ],
    "metrics": {
        "cart_traj_len": 0.35306487479454024,
        "distance_elbow_joint": 0.4515853566622279,
        "distance_shoulder_lift_joint": 0.23650812441639313,
        "distance_shoulder_pan_joint": 0.46169326600706256,
        "distance_wrist_1_joint": 0.24397672158519368,
        "distance_wrist_2_joint": 1.100193025905315,
        "distance_wrist_3_joint": 0.1049984203471519,
        "smoothness": 8.881784197001252e-16,
        "time": 0.021754146000000002,
        "traj_len": 1.612127449962733,
        "weighted_distance": 2.0379208775387125
    },
    "planner": "KPIECE",
    "start": {
        "state": {
            "elbow_joint": 1.9715463870305268,
            "shoulder_lift_joint": -1.1394903361783484,
            "shoulder_pan_joint": 0.12281147578464417,
            "wrist_1_joint": -0.7804599489681411,
            "wrist_2_joint": 0.12958660307563738,
            "wrist_3_joint": -3.1924946282119055
        }
    },
    "waypoints": [
        {
            "positions": [
                0.12281147578464417,
                -1.1394903361783484,
                1.9715463870305268,
                -0.7804599489681411,
                0.12958660307563738,
                -3.1924946282119055
            ]
        },
        {
            "positions": [
                0.056855294926492383,
                -1.173277211094976,
                2.0360585808394163,
                -0.8153137663374544,
                0.28675703534782526,
                -3.177494853876598
            ]
        },
        {
            "positions": [
                -0.009100885931659405,
                -1.2070640860116035,
                2.100570774648306,
                -0.8501675837067678,
                0.4439274676200131,
                -3.1624950795412907
            ]
        },
        {
            "positions": [
                -0.07505706678981121,
                -1.2408509609282312,
                2.1650829684571957,
                -0.8850214010760812,
                0.601097899892201,
                -3.1474953052059833
            ]
        },
        {
            "positions": [
                -0.14101324764796297,
                -1.2746378358448587,
                2.2295951622660857,
                -0.9198752184453947,
                0.7582683321643888,
                -3.132495530870676
            ]
        },
        {
            "positions": [
                -0.20696942850611477,
                -1.3084247107614864,
                2.294107356074975,
                -0.954729035814708,
                0.9154387644365767,
                -3.1174957565353685
            ]
        },
        {
            "positions": [
                -0.2729256093642666,
                -1.3422115856781138,
                2.3586195498838647,
                -0.9895828531840214,
                1.0726091967087645,
                -3.102495982200061
            ]
        },
        {
            "positions": [
                -0.3388817902224184,
                -1.3759984605947415,
                2.4231317436927546,
                -1.0244366705533348,
                1.2297796289809524,
                -3.0874962078647537
            ]
        }
    ]
}