{
    "goal": {
        "global_pose": {
            "orientation": {
                "w": -0.00223480608172531,
                "x": 0.0024358444001904467,
                "y": 0.7094548369677653,
                "z": -0.704743149386269
            },
            "position": {
                "x": 0.6205249238014221,
                "y": -0.6371506643295288,
                "z": 0.19426114857196808
            }
        },
        "name": "move_to_magneteinheit_B"
    },
    "id": "KPIECE_move_to_magneteinheit_B_77",
    "joint_names": [
        "shoulder_pan_joint",
        "shoulder_lift_joint",
        "elbow_joint",
        "wrist_1_joint",
        "wrist_2_joint",
        "wrist_3_joint"
    ],
    "metrics": {
        "cart_traj_len": 1.453188470937809,
        "distance_elbow_joint": 0.7262382000808951,
        "distance_shoulder_lift_joint": 1.2461936340874717,
        "distance_shoulder_pan_joint": 1.6222257182988535,
        "distance_wrist_1_joint": 2.6136784611205894,
        "distance_wrist_2_joint": 2.93603846696387,
        "distance_wrist_3_joint": 3.1514478561745607,
        "smoothness": 1.076579911191508e-16,
        "time": 0.381313721,
        "traj_len": 3.5065399379910454,
        "weighted_distance": 4.914105714894606
    },
    "planner": "KPIECE",
    "start": {
        "state": {
            "elbow_joint": 2.39358713078474,
            "shoulder_lift_joint": -1.908514104345545,
            "shoulder_pan_joint": 0.7066247066606129,
            "wrist_1_joint": -0.4678290933515497,
            "wrist_2_joint": 0.7096259083745334,
            "wrist_3_joint": -3.1358149277392293
        }
    },
    "waypoints": [
        {
            "positions": [
                0.7066247066606129,
                -1.908514104345545,
                2.39358713078474,
                -0.4678290933515497,
                0.7096259083745334,
                -3.1358149277392293
            ]
        },
        {
            "positions": [
                0.6559301529637738,
                -1.8695705532803115,
                2.370892187032212,
                -0.3861516414415313,
                0.6178747062819125,
                -3.0373321822337744
            ]
        },
        {
            "positions": [
                0.6052355992669346,
                -1.830627002215078,
                2.3481972432796843,
                -0.30447418953151284,
                0.5261235041892915,
                -2.938849436728319
            ]
        },
        {
            "positions": [
                0.5545410455700954,
                -1.7916834511498445,
                2.325502299527156,
                -0.22279673762149443,
                0.4343723020966706,
                -2.8403666912228642
            ]
        },
        {
            "positions": [
                0.5038464918732563,
                -1.752739900084611,
                2.302807355774628,
                -0.14111928571147603,
                0.34262110000404966,
                -2.7418839457174093
            ]
        },
        {
            "positions": [
                0.4531519381764171,
                -1.7137963490193775,
                2.2801124120221004,
                -0.05944183380145762,
                0.2508698979114287,
                -2.6434012002119545
            ]
        },
        {
            "positions": [
                0.4024573844795779,
                -1.6748527979541439,
                2.2574174682695722,
                0.02223561810856084,
                0.15911869581880778,
                -2.544918454706499
            ]
        },
        {
            "positions": [
                0.35176283078273873,
                -1.6359092468889105,
                2.234722524517044,
                0.10391307001857925,
                0.06736749372618689,
                -2.4464357092010443
            ]
        },
        {
            "positions": [
                0.30106827708589956,
                -1.5969656958236769,
                2.2120275807645164,
                0.18559052192859765,
                -0.02438370836643411,
                -2.3479529636955894
            ]
        },
        {
            "positions": [
                0.2503737233890604,
                -1.5580221447584435,
                2.1893326370119883,
                0.26726797383861606,
                -0.11613491045905511,
                -2.249470218190134
            ]
        },
        {
            "positions": [
                0.19967916969222121,
                -1.51907859369321,
                2.16663769325946,
                0.34894542574863446,
                -0.207886112551676,
                -2.150987472684679
            ]
        },
        {
            "positions": [
                0.14898461599538204,
                -1.4801350426279765,
                2.1439427495069325,
                0.43062287765865287,
                -0.2996373146442969,
                -2.0525047271792243
            ]
        },
        {
            "positions": [
                0.09829006229854287,
                -1.441191491562743,
                2.1212478057544044,
                0.5123003295686714,
                -0.3913885167369179,
                -1.954021981673769
            ]
        },
        {
            "positions": [
                0.047595508601703695,
                -1.4022479404975097,
                2.0985528620018763,
                0.5939777814786897,
                -0.4831397188295389,
                -1.855539236168314
            ]
        },
        {
            "positions": [
                -0.0030990450951354775,
                -1.363304389432276,
                2.0758579182493486,
                0.6756552333887083,
                -0.5748909209221597,
                -1.757056490662859
            ]
        },
        {
            "positions": [
                -0.05379359879197465,
                -1.3243608383670424,
                2.0531629744968205,
                0.7573326852987265,
                -0.6666421230147807,
                -1.658573745157404
            ]
        },
        {
            "positions": [
                -0.10448815248881382,
                -1.285417287301809,
                2.0304680307442924,
                0.8390101372087451,
                -0.7583933251074017,
                -1.560090999651949
            ]
        },
        {
            "positions": [
                -0.155182706185653,
                -1.2464737362365756,
                2.0077730869917647,
                0.9206875891187636,
                -0.8501445272000226,
                -1.4616082541464939
            ]
        },
        {
            "positions": [
                -0.20587725988249217,
                -1.207530185171342,
                1.9850781432392366,
                1.0023650410287819,
                -0.9418957292926436,
                -1.363125508641039
            ]
        },
        {
            "positions": [
                -0.25657181357933134,
                -1.1685866341061084,
                1.9623831994867085,
                1.0840424929388004,
                -1.0336469313852645,
                -1.2646427631355839
            ]
        },
        {
            "positions": [
                -0.3072663672761705,
                -1.129643083040875,
                1.9396882557341806,
                1.1657199448488187,
                -1.1253981334778853,
                -1.166160017630129
            ]
        },
        {
            "positions": [
                -0.3579609209730096,
                -1.0906995319756416,
                1.9169933119816527,
                1.2473973967588372,
                -1.2171493355705065,
                -1.0676772721246737
            ]
        },
        {
            "positions": [
                -0.40865547466984886,
                -1.051755980910408,
                1.8942983682291246,
                1.3290748486688555,
                -1.3089005376631273,
                -0.9691945266192188
            ]
        },
        {
            "positions": [
                -0.45935002836668815,
                -1.0128124298451746,
                1.8716034244765967,
                1.410752300578874,
                -1.4006517397557485,
                -0.8707117811137639
            ]
        },
        {
            "positions": [
                -0.5100445820635272,
                -0.9738688787799411,
                1.8489084807240688,
                1.4924297524888925,
                -1.4924029418483693,
                -0.7722290356083086
            ]
        },
        {
            "positions": [
                -0.5607391357603663,
                -0.9349253277147076,
                1.8262135369715407,
                1.5741072043989108,
                -1.58415414394099,
                -0.6737462901028537
            ]
        },
        {
            "positions": [
                -0.6114336894572056,
                -0.8959817766494742,
                1.8035185932190128,
                1.6557846563089291,
                -1.6759053460336113,
                -0.5752635445973988
            ]
        },
        {
            "positions": [
                -0.6621282431540448,
                -0.8570382255842406,
                1.7808236494664849,
                1.7374621082189479,
                -1.767656548126232,
                -0.47678079909194393
            ]
        },
        {
            "positions": [
                -0.7128227968508839,
                -0.8180946745190072,
                1.7581287057139567,
                1.8191395601289662,
                -1.8594077502188529,
                -0.3782980535864886
            ]
        },
        {
            "positions": [
                -0.763517350547723,
                -0.7791511234537736,
                1.7354337619614288,
                1.9008170120389845,
                -1.951158952311474,
                -0.2798153080810337
            ]
        },
        {
            "positions": [
                -0.8142119042445622,
                -0.7402075723885402,
                1.712738818208901,
                1.9824944639490027,
                -2.042910154404095,
                -0.18133256257557884
            ]
        },
        {
            "positions": [
                -0.8649064579414015,
                -0.7012640213233066,
                1.6900438744563728,
                2.0641719158590215,
                -2.134661356496716,
                -0.08284981707012351
            ]
        },
        {
            "positions": [
                -0.9156010116382407,
                -0.6623204702580733,
                1.667348930703845,
                2.14584936776904,
                -2.226412558589337,
                0.015632928435331258
            ]
        }
    ]
}