{
    "goal": {
        "global_pose": {
            "orientation": {
                "w": -0.00223480608172531,
                "x": 0.0024358444001904467,
                "y": 0.7094548369677653,
                "z": -0.704743149386269
            },
            "position": {
                "x": 0.6205249238014221,
                "y": -0.6371506643295288,
                "z": 0.19426114857196808
            }
        },
        "name": "move_to_magneteinheit_B"
    },
    "id": "KPIECE_move_to_magneteinheit_B_84",
    "joint_names": [
        "shoulder_pan_joint",
        "shoulder_lift_joint",
        "elbow_joint",
        "wrist_1_joint",
        "wrist_2_joint",
        "wrist_3_joint"
    ],
    "metrics": {
        "cart_traj_len": 3.76191589208504,
        "distance_elbow_joint": 4.191170720015528,
        "distance_shoulder_lift_joint": 0.7754923552875184,
        "distance_shoulder_pan_joint": 2.279018788160647,
        "distance_wrist_1_joint": 1.9710730564876306,
        "distance_wrist_2_joint": 1.5687398762253022,
        "distance_wrist_3_joint": 6.2765805230080485,
        "smoothness": 0.1570598557526604,
        "time": 1.244145761,
        "traj_len": 4.130626504440298,
        "weighted_distance": 5.758042141033158
    },
    "planner": "KPIECE",
    "start": {
        "state": {
            "elbow_joint": 2.39358713078474,
            "shoulder_lift_joint": -1.908514104345545,
            "shoulder_pan_joint": 0.7066247066606129,
            "wrist_1_joint": -0.4678290933515497,
            "wrist_2_joint": 0.7096259083745334,
            "wrist_3_joint": -3.1358149277392293
        }
    },
    "waypoints": [
        {
            "positions": [
                0.7066247066606129,
                -1.908514104345545,
                2.39358713078474,
                -0.4678290933515497,
                0.7096259083745334,
                -3.1358149277392293
            ]
        },
        {
            "positions": [
                0.6253649002982036,
                -1.8956550343126894,
                2.3859173061525176,
                -0.47956728790478814,
                0.7343814522583227,
                -3.0469458277517885
            ]
        },
        {
            "positions": [
                0.5441050939357943,
                -1.882795964279834,
                2.3782474815202956,
                -0.4913054824580266,
                0.7591369961421122,
                -2.9580767277643476
            ]
        },
        {
            "positions": [
                0.5840038988349548,
                -1.8750243876793509,
                2.243264222214289,
                -0.5490291771761555,
                0.7721044174420019,
                -2.8346416501830034
            ]
        },
        {
            "positions": [
                0.6239027037341155,
                -1.8672528110788678,
                2.108280962908283,
                -0.6067528718942845,
                0.7850718387418917,
                -2.7112065726016588
            ]
        },
        {
            "positions": [
                0.663801508633276,
                -1.8594812344783846,
                1.9732977036022765,
                -0.6644765666124134,
                0.7980392600417814,
                -2.5877714950203146
            ]
        },
        {
            "positions": [
                0.7037003135324367,
                -1.8517096578779015,
                1.83831444429627,
                -0.7222002613305424,
                0.8110066813416711,
                -2.46433641743897
            ]
        },
        {
            "positions": [
                0.7435991184315972,
                -1.8439380812774184,
                1.703331184990264,
                -0.7799239560486713,
                0.8239741026415609,
                -2.3409013398576257
            ]
        },
        {
            "positions": [
                0.7834979233307577,
                -1.8361665046769353,
                1.5683479256842574,
                -0.8376476507668003,
                0.8369415239414506,
                -2.2174662622762815
            ]
        },
        {
            "positions": [
                0.8233967282299184,
                -1.8283949280764522,
                1.4333646663782509,
                -0.8953713454849292,
                0.8499089452413404,
                -2.094031184694937
            ]
        },
        {
            "positions": [
                0.863295533129079,
                -1.820623351475969,
                1.2983814070722446,
                -0.9530950402030582,
                0.8628763665412301,
                -1.9705961071135922
            ]
        },
        {
            "positions": [
                0.9031943380282397,
                -1.812851774875486,
                1.163398147766238,
                -1.0108187349211872,
                0.8758437878411198,
                -1.847161029532248
            ]
        },
        {
            "positions": [
                0.9430931429274001,
                -1.8050801982750029,
                1.028414888460232,
                -1.068542429639316,
                0.8888112091410096,
                -1.7237259519509036
            ]
        },
        {
            "positions": [
                0.9829919478265607,
                -1.7973086216745198,
                0.8934316291542255,
                -1.126266124357445,
                0.9017786304408993,
                -1.6002908743695592
            ]
        },
        {
            "positions": [
                1.0692493612901488,
                -1.787418865932654,
                0.7303402497236913,
                -1.190423028541266,
                0.8935675798378439,
                -1.5604427909827245
            ]
        },
        {
            "positions": [
                1.1555067747537369,
                -1.7775291101907882,
                0.567248870293157,
                -1.254579932725087,
                0.8853565292347884,
                -1.5205947075958897
            ]
        },
        {
            "positions": [
                1.241764188217325,
                -1.7676393544489222,
                0.4041574908626227,
                -1.318736836908908,
                0.8771454786317328,
                -1.480746624209055
            ]
        },
        {
            "positions": [
                1.328021601680913,
                -1.7577495987070564,
                0.24106611143208845,
                -1.3828937410927291,
                0.8689344280286773,
                -1.4408985408222204
            ]
        },
        {
            "positions": [
                1.414279015144501,
                -1.7478598429651906,
                0.07797473200155414,
                -1.4470506452765501,
                0.8607233774256218,
                -1.4010504574353857
            ]
        },
        {
            "positions": [
                1.500536428608089,
                -1.7379700872233248,
                -0.08511664742898006,
                -1.5112075494603712,
                0.8525123268225663,
                -1.3612023740485508
            ]
        },
        {
            "positions": [
                1.586793842071677,
                -1.728080331481459,
                -0.24820802685951437,
                -1.5753644536441922,
                0.8443012762195108,
                -1.3213542906617162
            ]
        },
        {
            "positions": [
                1.673051255535265,
                -1.718190575739593,
                -0.4112994062900486,
                -1.6395213578280132,
                0.8360902256164552,
                -1.2815062072748815
            ]
        },
        {
            "positions": [
                1.759308668998853,
                -1.7083008199977272,
                -0.574390785720583,
                -1.7036782620118343,
                0.8278791750133997,
                -1.2416581238880466
            ]
        },
        {
            "positions": [
                1.8455660824624411,
                -1.6984110642558614,
                -0.7374821651511172,
                -1.7678351661956553,
                0.8196681244103442,
                -1.201810040501212
            ]
        },
        {
            "positions": [
                1.9318234959260292,
                -1.6885213085139956,
                -0.9005735445816514,
                -1.8319920703794763,
                0.8114570738072887,
                -1.1619619571143773
            ]
        },
        {
            "positions": [
                2.0180809093896173,
                -1.6786315527721296,
                -1.0636649240121856,
                -1.8961489745632973,
                0.8032460232042331,
                -1.1221138737275427
            ]
        },
        {
            "positions": [
                2.1043383228532053,
                -1.6687417970302638,
                -1.22675630344272,
                -1.9603058787471184,
                0.7950349726011776,
                -1.0822657903407078
            ]
        },
        {
            "positions": [
                2.1905957363167934,
                -1.658852041288398,
                -1.3898476828732544,
                -2.0244627829309394,
                0.7868239219981221,
                -1.0424177069538731
            ]
        },
        {
            "positions": [
                2.220115353298822,
                -1.6848022142648424,
                -1.4139034077081418,
                -2.051347127735288,
                0.7218971107122113,
                -0.8318033801377807
            ]
        },
        {
            "positions": [
                2.2496349702808502,
                -1.7107523872412866,
                -1.437959132543029,
                -2.0782314725396365,
                0.6569702994263005,
                -0.6211890533216881
            ]
        },
        {
            "positions": [
                2.2791545872628785,
                -1.736702560217731,
                -1.4620148573779164,
                -2.105115817343985,
                0.5920434881403895,
                -0.41057472650559557
            ]
        },
        {
            "positions": [
                2.308674204244907,
                -1.7626527331941755,
                -1.4860705822128035,
                -2.1320001621483335,
                0.5271166768544787,
                -0.19996039968950297
            ]
        },
        {
            "positions": [
                2.3381938212269358,
                -1.78860290617062,
                -1.510126307047691,
                -2.158884506952682,
                0.46218986556856784,
                0.010653927126589746
            ]
        },
        {
            "positions": [
                2.367713438208964,
                -1.814553079147064,
                -1.534182031882578,
                -2.1857688517570306,
                0.397263054282657,
                0.22126825394268201
            ]
        },
        {
            "positions": [
                2.397233055190992,
                -1.8405032521235085,
                -1.5582377567174654,
                -2.212653196561379,
                0.33233624299674613,
                0.4318825807587747
            ]
        },
        {
            "positions": [
                2.426752672173021,
                -1.866453425099953,
                -1.5822934815523526,
                -2.2395375413657277,
                0.2674094317108353,
                0.6424969075748672
            ]
        },
        {
            "positions": [
                2.4562722891550495,
                -1.8924035980763971,
                -1.60634920638724,
                -2.2664218861700762,
                0.20248262042492438,
                0.8531112343909599
            ]
        },
        {
            "positions": [
                2.4857919061370777,
                -1.9183537710528415,
                -1.6304049312221274,
                -2.2933062309744248,
                0.13755580913901355,
                1.0637255612070526
            ]
        },
        {
            "positions": [
                2.515311523119106,
                -1.944303944029286,
                -1.6544606560570145,
                -2.3201905757787733,
                0.07262899785310273,
                1.2743398880231447
            ]
        },
        {
            "positions": [
                2.5448311401011345,
                -1.9702541170057302,
                -1.678516380891902,
                -2.347074920583122,
                0.007702186567191904,
                1.4849542148392372
            ]
        },
        {
            "positions": [
                2.574350757083163,
                -1.9962042899821746,
                -1.702572105726789,
                -2.3739592653874704,
                -0.05722462471871903,
                1.69556854165533
            ]
        },
        {
            "positions": [
                2.6038703740651914,
                -2.022154462958619,
                -1.7266278305616765,
                -2.400843610191819,
                -0.12215143600462991,
                1.9061828684714226
            ]
        },
        {
            "positions": [
                2.6152171531264776,
                -2.054660037070649,
                -1.712436678827854,
                -2.408455318121291,
                -0.1926828535473114,
                2.1530994138309016
            ]
        },
        {
            "positions": [
                2.626563932187764,
                -2.0871656111826793,
                -1.6982455270940318,
                -2.4160670260507633,
                -0.2632142710899929,
                2.400015959190381
            ]
        },
        {
            "positions": [
                2.63791071124905,
                -2.119671185294709,
                -1.6840543753602093,
                -2.423678733980236,
                -0.3337456886326744,
                2.64693250454986
            ]
        },
        {
            "positions": [
                2.6492574903103363,
                -2.1521767594067396,
                -1.669863223626387,
                -2.431290441909708,
                -0.4042771061753559,
                2.893849049909339
            ]
        },
        {
            "positions": [
                2.6606042693716225,
                -2.1846823335187695,
                -1.6556720718925646,
                -2.4389021498391803,
                -0.4748085237180374,
                3.1407655952688183
            ]
        }
    ]
}