{
    "goal": {
        "global_pose": {
            "orientation": {
                "w": 0.7031023502349854,
                "x": -0.7110244035720825,
                "y": 0.007748599164187908,
                "z": 0.005598929710686207
            },
            "position": {
                "x": 0.11585023208521307,
                "y": 0.44412534475326537,
                "z": 0.3711530566215515
            }
        },
        "name": "move_to_auspresseinheit_A"
    },
    "id": "KPIECE_move_to_auspresseinheit_A_92",
    "joint_names": [
        "shoulder_pan_joint",
        "shoulder_lift_joint",
        "elbow_joint",
        "wrist_1_joint",
        "wrist_2_joint",
        "wrist_3_joint"
    ],
    "metrics": {
        "cart_traj_len": 0.6961717496834294,
        "distance_elbow_joint": 0.07156928693157871,
        "distance_shoulder_lift_joint": 0.5515470853410083,
        "distance_shoulder_pan_joint": 1.0421249247105595,
        "distance_wrist_1_joint": 0.7550294439737915,
        "distance_wrist_2_joint": 0.7217151693217613,
        "distance_wrist_3_joint": 0.048916262131998955,
        "smoothness": 1.988618947782633,
        "time": 0.560866896,
        "traj_len": 1.7863096518830932,
        "weighted_distance": 2.1829977805692447
    },
    "planner": "KPIECE",
    "start": {
        "state": {
            "elbow_joint": 2.422574709923281,
            "shoulder_lift_joint": -1.3736533754116391,
            "shoulder_pan_joint": -0.33786336945926293,
            "wrist_1_joint": -1.0288603412921917,
            "wrist_2_joint": 1.2330224858903978,
            "wrist_3_joint": -3.094022268022082
        }
    },
    "waypoints": [
        {
            "positions": [
                -0.33786336945926293,
                -1.3736533754116391,
                2.422574709923281,
                -1.0288603412921917,
                1.2330224858903978,
                -3.094022268022082
            ]
        },
        {
            "positions": [
                -0.21288604924149548,
                -1.441428740748977,
                2.416066465783116,
                -0.9457544148034734,
                1.1550090218513465,
                -3.096938491895048
            ]
        },
        {
            "positions": [
                -0.08790872902372804,
                -1.5092041060863148,
                2.4095582216429507,
                -0.8626484883147552,
                1.0769955578122952,
                -3.099854715768014
            ]
        },
        {
            "positions": [
                0.037068591194039435,
                -1.5769794714236527,
                2.4030499775027856,
                -0.7795425618260368,
                0.9989820937732441,
                -3.1027709396409797
            ]
        },
        {
            "positions": [
                0.16204591141180685,
                -1.6447548367609905,
                2.3965417333626204,
                -0.6964366353373185,
                0.9209686297341928,
                -3.105687163513946
            ]
        },
        {
            "positions": [
                0.28702323162957427,
                -1.7125302020983284,
                2.3900334892224553,
                -0.6133307088486002,
                0.8429551656951415,
                -3.108603387386912
            ]
        },
        {
            "positions": [
                0.4120005518473418,
                -1.7803055674356665,
                2.38352524508229,
                -0.5302247823598818,
                0.7649417016560903,
                -3.1115196112598777
            ]
        },
        {
            "positions": [
                0.5369778720651093,
                -1.8480809327730043,
                2.377017000942125,
                -0.4471188558711635,
                0.6869282376170391,
                -3.1144358351328436
            ]
        },
        {
            "positions": [
                0.6619551922828766,
                -1.9158562981103422,
                2.37050875680196,
                -0.3640129293824452,
                0.6089147735779878,
                -3.1173520590058095
            ]
        },
        {
            "positions": [
                0.7042615552512964,
                -1.906512135468037,
                2.3900120906122173,
                -0.45419496144649013,
                0.7065222305873392,
                -3.142938530154081
            ]
        }
    ]
}