{
    "goal": {
        "global_pose": {
            "orientation": {
                "w": 0.5084816217422485,
                "x": -0.49083608388900757,
                "y": 0.5182115435600281,
                "z": -0.4816462993621826
            },
            "position": {
                "x": 0.5540239810943604,
                "y": 0.030875300988554955,
                "z": 0.16403168439865112
            }
        },
        "name": "move_to_storage_A"
    },
    "id": "KPIECE_move_to_storage_A_73",
    "joint_names": [
        "shoulder_pan_joint",
        "shoulder_lift_joint",
        "elbow_joint",
        "wrist_1_joint",
        "wrist_2_joint",
        "wrist_3_joint"
    ],
    "metrics": {
        "cart_traj_len": 0.35310413313908506,
        "distance_elbow_joint": 0.45096700293440906,
        "distance_shoulder_lift_joint": 0.23471045932932166,
        "distance_shoulder_pan_joint": 0.4591725183540045,
        "distance_wrist_1_joint": 0.24864616762925296,
        "distance_wrist_2_joint": 1.1099716084716609,
        "distance_wrist_3_joint": 0.10735208016160858,
        "smoothness": 6.661338200497456e-16,
        "time": 0.046064179999999996,
        "traj_len": 1.6158031553627619,
        "weighted_distance": 2.045517483011179
    },
    "planner": "KPIECE",
    "start": {
        "state": {
            "elbow_joint": 1.9715463870305268,
            "shoulder_lift_joint": -1.1394903361783484,
            "shoulder_pan_joint": 0.12281147578464417,
            "wrist_1_joint": -0.7804599489681411,
            "wrist_2_joint": 0.12958660307563738,
            "wrist_3_joint": -3.1924946282119055
        }
    },
    "waypoints": [
        {
            "positions": [
                0.12281147578464417,
                -1.1394903361783484,
                1.9715463870305268,
                -0.7804599489681411,
                0.12958660307563738,
                -3.1924946282119055
            ]
        },
        {
            "positions": [
                0.05721540173407211,
                -1.1730204017968229,
                2.035970244592585,
                -0.8159808300580343,
                0.28815397571444606,
                -3.1771586167602472
            ]
        },
        {
            "positions": [
                -0.008380672316499957,
                -1.2065504674152974,
                2.1003941021546435,
                -0.8515017111479276,
                0.4467213483532547,
                -3.161822605308589
            ]
        },
        {
            "positions": [
                -0.07397674636707204,
                -1.2400805330337719,
                2.164817959716702,
                -0.8870225922378209,
                0.6052887209920634,
                -3.1464865938569306
            ]
        },
        {
            "positions": [
                -0.13957282041764407,
                -1.2736105986522466,
                2.2292418172787603,
                -0.9225434733277142,
                0.7638560936308721,
                -3.131150582405272
            ]
        },
        {
            "positions": [
                -0.20516889446821618,
                -1.307140664270721,
                2.293665674840819,
                -0.9580643544176075,
                0.9224234662696809,
                -3.1158145709536136
            ]
        },
        {
            "positions": [
                -0.27076496851878823,
                -1.3406707298891956,
                2.3580895324028774,
                -0.9935852355075008,
                1.0809908389084895,
                -3.1004785595019553
            ]
        },
        {
            "positions": [
                -0.33636104256936034,
                -1.37420079550767,
                2.422513389964936,
                -1.029106116597394,
                1.2395582115472983,
                -3.085142548050297
            ]
        }
    ]
}