{
    "goal": {
        "global_pose": {
            "orientation": {
                "w": 0.7047431468963623,
                "x": -0.7094548344612122,
                "y": 0.0024358443915843964,
                "z": -0.0022348060738295317
            },
            "position": {
                "x": 0.6094750761985779,
                "y": 0.3671506643295288,
                "z": 0.19426114857196808
            }
        },
        "name": "move_to_magneteinheit_A"
    },
    "id": "KPIECE_move_to_magneteinheit_A_107",
    "joint_names": [
        "shoulder_pan_joint",
        "shoulder_lift_joint",
        "elbow_joint",
        "wrist_1_joint",
        "wrist_2_joint",
        "wrist_3_joint"
    ],
    "metrics": {
        "cart_traj_len": 1.9486121468537412,
        "distance_elbow_joint": 3.8818370105535296,
        "distance_shoulder_lift_joint": 1.213224300348687,
        "distance_shoulder_pan_joint": 1.2419275545046433,
        "distance_wrist_1_joint": 1.1595519486848351,
        "distance_wrist_2_joint": 1.4315283483451458,
        "distance_wrist_3_joint": 4.354617757990821,
        "smoothness": 0.022952522123976336,
        "time": 0.215735905,
        "traj_len": 3.6445420728025164,
        "weighted_distance": 4.958124921120814
    },
    "planner": "KPIECE",
    "start": {
        "state": {
            "elbow_joint": -1.919643507792019,
            "shoulder_lift_joint": -0.07675430207160344,
            "shoulder_pan_joint": -1.1188671864651873,
            "wrist_1_joint": 0.42560062535961957,
            "wrist_2_joint": 1.5706038300724876,
            "wrist_3_joint": 1.1188968870953055
        }
    },
    "waypoints": [
        {
            "positions": [
                -1.1188671864651873,
                -0.07675430207160344,
                -1.919643507792019,
                0.42560062535961957,
                1.5706038300724876,
                1.1188968870953055
            ]
        },
        {
            "positions": [
                -1.090285982680561,
                -0.11882473296953538,
                -1.8123541337092495,
                0.39043720654451053,
                1.5322877166482036,
                0.9878915122587654
            ]
        },
        {
            "positions": [
                -1.0617047788959348,
                -0.16089516386746733,
                -1.70506475962648,
                0.3552737877294015,
                1.4939716032239196,
                0.8568861374222252
            ]
        },
        {
            "positions": [
                -1.0331235751113086,
                -0.20296559476539927,
                -1.5977753855437105,
                0.32011036891429245,
                1.4556554897996357,
                0.7258807625856851
            ]
        },
        {
            "positions": [
                -1.0045423713266823,
                -0.24503602566333121,
                -1.4904860114609408,
                0.28494695009918347,
                1.417339376375352,
                0.594875387749145
            ]
        },
        {
            "positions": [
                -0.9759611675420562,
                -0.28710645656126316,
                -1.3831966373781714,
                0.2497835312840744,
                1.379023262951068,
                0.46387001291260477
            ]
        },
        {
            "positions": [
                -0.9473799637574299,
                -0.3291768874591951,
                -1.2759072632954018,
                0.21462011246896537,
                1.340707149526784,
                0.3328646380760646
            ]
        },
        {
            "positions": [
                -0.9187987599728037,
                -0.37124731835712704,
                -1.1686178892126322,
                0.17945669365385633,
                1.3023910361025,
                0.2018592632395244
            ]
        },
        {
            "positions": [
                -0.8902175561881774,
                -0.413317749255059,
                -1.0613285151298628,
                0.14429327483874732,
                1.264074922678216,
                0.07085388840298434
            ]
        },
        {
            "positions": [
                -0.8616363524035513,
                -0.45538818015299093,
                -0.9540391410470932,
                0.10912985602363828,
                1.2257588092539322,
                -0.060151486433555945
            ]
        },
        {
            "positions": [
                -0.833055148618925,
                -0.49745861105092287,
                -0.8467497669643238,
                0.07396643720852925,
                1.187442695829648,
                -0.191156861270096
            ]
        },
        {
            "positions": [
                -0.8044739448342988,
                -0.5395290419488548,
                -0.7394603928815542,
                0.03880301839342021,
                1.1491265824053642,
                -0.3221622361066363
            ]
        },
        {
            "positions": [
                -0.7758927410496725,
                -0.5815994728467868,
                -0.6321710187987846,
                0.00363959957831117,
                1.1108104689810803,
                -0.45316761094317637
            ]
        },
        {
            "positions": [
                -0.7473115372650463,
                -0.6236699037447186,
                -0.5248816447160152,
                -0.03152381923679787,
                1.0724943555567963,
                -0.5841729857797164
            ]
        },
        {
            "positions": [
                -0.71873033348042,
                -0.6657403346426507,
                -0.41759227063324555,
                -0.0666872380519069,
                1.0341782421325123,
                -0.7151783606162567
            ]
        },
        {
            "positions": [
                -0.6901491296957938,
                -0.7078107655405828,
                -0.31030289655047594,
                -0.10185065686701594,
                0.9958621287082283,
                -0.846183735452797
            ]
        },
        {
            "positions": [
                -0.6615679259111675,
                -0.7498811964385146,
                -0.20301352246770654,
                -0.13701407568212493,
                0.9575460152839445,
                -0.9771891102893369
            ]
        },
        {
            "positions": [
                -0.6329867221265413,
                -0.7919516273364466,
                -0.0957241483849367,
                -0.17217749449723402,
                0.9192299018596605,
                -1.1081944851258774
            ]
        },
        {
            "positions": [
                -0.6044055183419151,
                -0.8340220582343785,
                0.011565225697832693,
                -0.207340913312343,
                0.8809137884353766,
                -1.2391998599624174
            ]
        },
        {
            "positions": [
                -0.5758243145572889,
                -0.8760924891323105,
                0.11885459978060209,
                -0.2425043321274521,
                0.8425976750110925,
                -1.3702052347989575
            ]
        },
        {
            "positions": [
                -0.5472431107726626,
                -0.9181629200302424,
                0.22614397386337148,
                -0.2776677509425611,
                0.8042815615868086,
                -1.5012106096354976
            ]
        },
        {
            "positions": [
                -0.5186619069880364,
                -0.9602333509281744,
                0.3334333479461413,
                -0.31283116975767017,
                0.7659654481625247,
                -1.632215984472038
            ]
        },
        {
            "positions": [
                -0.49008070320341024,
                -1.0023037818261062,
                0.4407227220289107,
                -0.34799458857277915,
                0.7276493347382408,
                -1.7632213593085782
            ]
        },
        {
            "positions": [
                -0.4614994994187839,
                -1.0443742127240383,
                0.5480120961116806,
                -0.38315800738788824,
                0.6893332213139568,
                -1.8942267341451182
            ]
        },
        {
            "positions": [
                -0.43291829563415773,
                -1.0864446436219701,
                0.65530147019445,
                -0.4183214262029972,
                0.6510171078896729,
                -2.0252321089816583
            ]
        },
        {
            "positions": [
                -0.4043370918495315,
                -1.1285150745199022,
                0.7625908442772193,
                -0.4534848450181063,
                0.6127009944653888,
                -2.156237483818199
            ]
        },
        {
            "positions": [
                -0.37575588806490523,
                -1.170585505417834,
                0.8698802183599887,
                -0.4886482638332153,
                0.574384881041105,
                -2.2872428586547384
            ]
        },
        {
            "positions": [
                -0.347174684280279,
                -1.212655936315766,
                0.9771695924427588,
                -0.5238116826483243,
                0.536068767616821,
                -2.418248233491279
            ]
        },
        {
            "positions": [
                -0.28839530274031205,
                -1.2029906030527004,
                1.1002975812326028,
                -0.5500791377329357,
                0.4864446068806361,
                -2.5204323131668085
            ]
        },
        {
            "positions": [
                -0.22961592120034513,
                -1.193325269789635,
                1.2234255700224468,
                -0.5763465928175472,
                0.43682044614445126,
                -2.622616392842338
            ]
        },
        {
            "positions": [
                -0.1708365396603782,
                -1.1836599365265694,
                1.3465535588122906,
                -0.6026140479021586,
                0.38719628540826645,
                -2.7248004725178676
            ]
        },
        {
            "positions": [
                -0.11205715812041128,
                -1.173994603263504,
                1.4696815476021345,
                -0.62888150298677,
                0.33757212467208153,
                -2.826984552193397
            ]
        },
        {
            "positions": [
                -0.05327777658044436,
                -1.1643292700004384,
                1.5928095363919785,
                -0.6551489580713814,
                0.2879479639358967,
                -2.9291686318689267
            ]
        },
        {
            "positions": [
                0.005501604959522566,
                -1.1546639367373728,
                1.7159375251818223,
                -0.6814164131559928,
                0.23832380319971186,
                -3.0313527115444563
            ]
        },
        {
            "positions": [
                0.06428098649948949,
                -1.1449986034743074,
                1.8390655139716663,
                -0.7076838682406041,
                0.188699642463527,
                -3.133536791219986
            ]
        },
        {
            "positions": [
                0.1230603680394564,
                -1.1353332702112418,
                1.9621935027615103,
                -0.7339513233252156,
                0.13907548172734213,
                -3.2357208708955154
            ]
        }
    ]
}