{
    "goal": {
        "global_pose": {
            "orientation": {
                "w": 0.7047431468963623,
                "x": -0.7094548344612122,
                "y": 0.0024358443915843964,
                "z": -0.0022348060738295317
            },
            "position": {
                "x": 0.6094750761985779,
                "y": 0.3671506643295288,
                "z": 0.19426114857196808
            }
        },
        "name": "move_to_magneteinheit_A"
    },
    "id": "KPIECE_move_to_magneteinheit_A_122",
    "joint_names": [
        "shoulder_pan_joint",
        "shoulder_lift_joint",
        "elbow_joint",
        "wrist_1_joint",
        "wrist_2_joint",
        "wrist_3_joint"
    ],
    "metrics": {
        "cart_traj_len": 2.06347184591845,
        "distance_elbow_joint": 3.878168445625088,
        "distance_shoulder_lift_joint": 1.056297805346428,
        "distance_shoulder_pan_joint": 1.2416745613170932,
        "distance_wrist_1_joint": 1.1348783980150983,
        "distance_wrist_2_joint": 1.4324848990645596,
        "distance_wrist_3_joint": 1.906495282785181,
        "smoothness": 4.440892097876411e-16,
        "time": 0.17706613000000002,
        "traj_len": 3.2634336812862377,
        "weighted_distance": 4.126784856859328
    },
    "planner": "KPIECE",
    "start": {
        "state": {
            "elbow_joint": -1.919643507792019,
            "shoulder_lift_joint": -0.07675430207160344,
            "shoulder_pan_joint": -1.1188671864651873,
            "wrist_1_joint": 0.42560062535961957,
            "wrist_2_joint": 1.5706038300724876,
            "wrist_3_joint": 1.1188968870953055
        }
    },
    "waypoints": [
        {
            "positions": [
                -1.1188671864651873,
                -0.07675430207160344,
                -1.919643507792019,
                0.42560062535961957,
                1.5706038300724876,
                1.1188968870953055
            ]
        },
        {
            "positions": [
                -1.0728792397497395,
                -0.11587644301036004,
                -1.7760076394355344,
                0.38356809209980114,
                1.5175488338108372,
                1.1895078234947567
            ]
        },
        {
            "positions": [
                -1.0268912930342915,
                -0.15499858394911664,
                -1.6323717710790495,
                0.34153555883998266,
                1.464493837549187,
                1.2601187598942079
            ]
        },
        {
            "positions": [
                -0.9809033463188437,
                -0.19412072488787321,
                -1.4887359027225648,
                0.2995030255801642,
                1.4114388412875365,
                1.330729696293659
            ]
        },
        {
            "positions": [
                -0.9349153996033958,
                -0.2332428658266298,
                -1.3451000343660802,
                0.25747049232034575,
                1.3583838450258863,
                1.4013406326931102
            ]
        },
        {
            "positions": [
                -0.8889274528879478,
                -0.2723650067653864,
                -1.2014641660095955,
                0.21543795906052732,
                1.3053288487642358,
                1.4719515690925613
            ]
        },
        {
            "positions": [
                -0.8429395061725,
                -0.311487147704143,
                -1.0578282976531108,
                0.17340542580070883,
                1.2522738525025856,
                1.5425625054920125
            ]
        },
        {
            "positions": [
                -0.7969515594570521,
                -0.3506092886428996,
                -0.9141924292966259,
                0.1313728925408904,
                1.1992188562409352,
                1.6131734418914636
            ]
        },
        {
            "positions": [
                -0.7509636127416042,
                -0.3897314295816562,
                -0.7705565609401412,
                0.08934035928107192,
                1.1461638599792847,
                1.6837843782909148
            ]
        },
        {
            "positions": [
                -0.7049756660261564,
                -0.4288535705204128,
                -0.6269206925836566,
                0.047307826021253496,
                1.0931088637176345,
                1.754395314690366
            ]
        },
        {
            "positions": [
                -0.6589877193107084,
                -0.46797571145916933,
                -0.48328482422717167,
                0.005275292761435069,
                1.040053867455984,
                1.825006251089817
            ]
        },
        {
            "positions": [
                -0.6129997725952605,
                -0.5070978523979259,
                -0.339648955870687,
                -0.036757240498383414,
                0.9869988711943337,
                1.8956171874892682
            ]
        },
        {
            "positions": [
                -0.5670118258798126,
                -0.5462199933366825,
                -0.19601308751420232,
                -0.0787897737582019,
                0.9339438749326834,
                1.9662281238887194
            ]
        },
        {
            "positions": [
                -0.5210238791643648,
                -0.5853421342754392,
                -0.05237721915771765,
                -0.12082230701802027,
                0.880888878671033,
                2.0368390602881705
            ]
        },
        {
            "positions": [
                -0.47503593244891684,
                -0.6244642752141958,
                0.09125864919876725,
                -0.16285484027783875,
                0.8278338824093827,
                2.1074499966876217
            ]
        },
        {
            "positions": [
                -0.4290479857334689,
                -0.6635864161529523,
                0.23489451755525192,
                -0.20488737353765724,
                0.7747788861477323,
                2.178060933087073
            ]
        },
        {
            "positions": [
                -0.3830600390180211,
                -0.7027085570917089,
                0.3785303859117366,
                -0.24691990679747572,
                0.7217238898860819,
                2.248671869486524
            ]
        },
        {
            "positions": [
                -0.33707209230257307,
                -0.7418306980304656,
                0.5221662542682217,
                -0.2889524400572942,
                0.6686688936244316,
                2.319282805885975
            ]
        },
        {
            "positions": [
                -0.29108414558712525,
                -0.7809528389692222,
                0.665802122624706,
                -0.3309849733171126,
                0.6156138973627813,
                2.3898937422854263
            ]
        },
        {
            "positions": [
                -0.24509619887167733,
                -0.8200749799079787,
                0.8094379909811911,
                -0.37301750657693106,
                0.5625589011011309,
                2.4605046786848774
            ]
        },
        {
            "positions": [
                -0.19910825215622951,
                -0.8591971208467353,
                0.9530738593376757,
                -0.41505003983674943,
                0.5095039048394805,
                2.5311156150843286
            ]
        },
        {
            "positions": [
                -0.15312030544078148,
                -0.8983192617854918,
                1.0967097276941604,
                -0.457082573096568,
                0.45644890857783005,
                2.6017265514837797
            ]
        },
        {
            "positions": [
                -0.10713235872533367,
                -0.9374414027242484,
                1.240345596050645,
                -0.4991151063563864,
                0.4033939123161798,
                2.672337487883231
            ]
        },
        {
            "positions": [
                -0.06114441200988563,
                -0.9765635436630051,
                1.3839814644071298,
                -0.5411476396162049,
                0.3503389160545294,
                2.742948424282682
            ]
        },
        {
            "positions": [
                -0.015156465294437815,
                -1.0156856846017617,
                1.5276173327636144,
                -0.5831801728760233,
                0.29728391979287916,
                2.813559360682133
            ]
        },
        {
            "positions": [
                0.03083148142101,
                -1.0548078255405182,
                1.6712532011200996,
                -0.6252127061358417,
                0.24422892353122871,
                2.8841702970815843
            ]
        },
        {
            "positions": [
                0.07681942813645781,
                -1.093929966479275,
                1.8148890694765838,
                -0.66724523939566,
                0.1911739272695785,
                2.9547812334810355
            ]
        },
        {
            "positions": [
                0.12280737485190595,
                -1.1330521074180315,
                1.958524937833069,
                -0.7092777726554786,
                0.1381189310079281,
                3.0253921698804866
            ]
        }
    ]
}