{
    "goal": {
        "global_pose": {
            "orientation": {
                "w": 0.5084816217422485,
                "x": -0.49083608388900757,
                "y": 0.5182115435600281,
                "z": -0.4816462993621826
            },
            "position": {
                "x": 0.5540239810943604,
                "y": 0.030875300988554955,
                "z": 0.16403168439865112
            }
        },
        "name": "move_to_storage_A"
    },
    "id": "KPIECE_move_to_storage_A_106",
    "joint_names": [
        "shoulder_pan_joint",
        "shoulder_lift_joint",
        "elbow_joint",
        "wrist_1_joint",
        "wrist_2_joint",
        "wrist_3_joint"
    ],
    "metrics": {
        "cart_traj_len": 0.35280460544895165,
        "distance_elbow_joint": 0.44876910831094907,
        "distance_shoulder_lift_joint": 0.23251634323724057,
        "distance_shoulder_pan_joint": 0.45879815984228745,
        "distance_wrist_1_joint": 0.24239288926795222,
        "distance_wrist_2_joint": 1.1080665902624305,
        "distance_wrist_3_joint": 0.1061643643675052,
        "smoothness": 1.1102230263833737e-15,
        "time": 0.080865491,
        "traj_len": 1.611430251450048,
        "weighted_distance": 2.039484166046346
    },
    "planner": "KPIECE",
    "start": {
        "state": {
            "elbow_joint": 1.9715463870305268,
            "shoulder_lift_joint": -1.1394903361783484,
            "shoulder_pan_joint": 0.12281147578464417,
            "wrist_1_joint": -0.7804599489681411,
            "wrist_2_joint": 0.12958660307563738,
            "wrist_3_joint": -3.1924946282119055
        }
    },
    "waypoints": [
        {
            "positions": [
                0.12281147578464417,
                -1.1394903361783484,
                1.9715463870305268,
                -0.7804599489681411,
                0.12958660307563738,
                -3.1924946282119055
            ]
        },
        {
            "positions": [
                0.05726888152146026,
                -1.1727069566408113,
                2.0356562596463768,
                -0.8150875045778485,
                0.28788183025598457,
                -3.177328290445119
            ]
        },
        {
            "positions": [
                -0.008273712741723657,
                -1.2059235771032744,
                2.0997661322622263,
                -0.849715060187556,
                0.44617705743633174,
                -3.1621619526783324
            ]
        },
        {
            "positions": [
                -0.07381630700490759,
                -1.2391401975657372,
                2.1638760048780763,
                -0.8843426157972635,
                0.604472284616679,
                -3.146995614911546
            ]
        },
        {
            "positions": [
                -0.13935890126809147,
                -1.2723568180282,
                2.2279858774939263,
                -0.9189701714069709,
                0.7627675117970262,
                -3.13182927714476
            ]
        },
        {
            "positions": [
                -0.2049014955312754,
                -1.3055734384906632,
                2.2920957501097763,
                -0.9535977270166784,
                0.9210627389773735,
                -3.1166629393779735
            ]
        },
        {
            "positions": [
                -0.27044408979445933,
                -1.338790058953126,
                2.356205622725626,
                -0.9882252826263858,
                1.0793579661577206,
                -3.1014966016111867
            ]
        },
        {
            "positions": [
                -0.33598668405764326,
                -1.372006679415589,
                2.420315495341476,
                -1.0228528382360933,
                1.237653193338068,
                -3.0863302638444003
            ]
        }
    ]
}