{
    "goal": {
        "global_pose": {
            "orientation": {
                "w": 0.7031023502349854,
                "x": -0.7110244035720825,
                "y": 0.007748599164187908,
                "z": 0.005598929710686207
            },
            "position": {
                "x": 0.11585023208521307,
                "y": 0.44412534475326537,
                "z": 0.3711530566215515
            }
        },
        "name": "move_to_auspresseinheit_A"
    },
    "id": "KPIECE_move_to_auspresseinheit_A_99",
    "joint_names": [
        "shoulder_pan_joint",
        "shoulder_lift_joint",
        "elbow_joint",
        "wrist_1_joint",
        "wrist_2_joint",
        "wrist_3_joint"
    ],
    "metrics": {
        "cart_traj_len": 1.6746338997023136,
        "distance_elbow_joint": 1.7905973803440487,
        "distance_shoulder_lift_joint": 0.5883699549860313,
        "distance_shoulder_pan_joint": 1.043261981618464,
        "distance_wrist_1_joint": 0.8378743666187471,
        "distance_wrist_2_joint": 0.6976154479708415,
        "distance_wrist_3_joint": 2.929436979999579,
        "smoothness": 1.1361518783796587,
        "time": 0.40250596,
        "traj_len": 2.808408109861833,
        "weighted_distance": 3.909158462652347
    },
    "planner": "KPIECE",
    "start": {
        "state": {
            "elbow_joint": 2.422574709923281,
            "shoulder_lift_joint": -1.3736533754116391,
            "shoulder_pan_joint": -0.33786336945926293,
            "wrist_1_joint": -1.0288603412921917,
            "wrist_2_joint": 1.2330224858903978,
            "wrist_3_joint": -3.094022268022082
        }
    },
    "waypoints": [
        {
            "positions": [
                -0.33786336945926293,
                -1.3736533754116391,
                2.422574709923281,
                -1.0288603412921917,
                1.2330224858903978,
                -3.094022268022082
            ]
        },
        {
            "positions": [
                -0.2648366396154998,
                -1.4024307049707299,
                2.339870066882496,
                -1.0243223160927462,
                1.1815481166005923,
                -2.9625495548416048
            ]
        },
        {
            "positions": [
                -0.1918099097717367,
                -1.4312080345298204,
                2.2571654238417107,
                -1.0197842908933004,
                1.130073747310787,
                -2.831076841661127
            ]
        },
        {
            "positions": [
                -0.1187831799279736,
                -1.459985364088911,
                2.1744607808009255,
                -1.0152462656938548,
                1.0785993780209817,
                -2.6996041284806496
            ]
        },
        {
            "positions": [
                -0.045756450084210476,
                -1.4887626936480016,
                2.0917561377601404,
                -1.0107082404944092,
                1.0271250087311763,
                -2.5681314153001717
            ]
        },
        {
            "positions": [
                0.02727027975955265,
                -1.5175400232070924,
                2.0090514947193556,
                -1.0061702152949634,
                0.9756506394413709,
                -2.4366587021196944
            ]
        },
        {
            "positions": [
                0.10029700960331572,
                -1.5463173527661829,
                1.9263468516785702,
                -1.0016321900955178,
                0.9241762701515654,
                -2.3051859889392166
            ]
        },
        {
            "positions": [
                0.17332373944707885,
                -1.5750946823252736,
                1.8436422086377853,
                -0.9970941648960723,
                0.87270190086176,
                -2.173713275758739
            ]
        },
        {
            "positions": [
                0.24635046929084198,
                -1.6038720118843641,
                1.760937565597,
                -0.9925561396966266,
                0.8212275315719547,
                -2.042240562578262
            ]
        },
        {
            "positions": [
                0.3193771991346052,
                -1.6326493414434549,
                1.678232922556215,
                -0.9880181144971809,
                0.7697531622821493,
                -1.9107678493977838
            ]
        },
        {
            "positions": [
                0.39240392897836823,
                -1.6614266710025456,
                1.5955282795154297,
                -0.9834800892977353,
                0.718278792992344,
                -1.7792951362173064
            ]
        },
        {
            "positions": [
                0.46543065882213136,
                -1.690204000561636,
                1.5128236364746446,
                -0.9789420640982897,
                0.6668044237025386,
                -1.6478224230368288
            ]
        },
        {
            "positions": [
                0.46690523022876845,
                -1.7209380529771003,
                1.6210866289670092,
                -0.8977547291799477,
                0.6609503714263092,
                -1.7701687486355102
            ]
        },
        {
            "positions": [
                0.4683798016354056,
                -1.7516721053925646,
                1.7293496214593738,
                -0.8165673942616057,
                0.6550963191500798,
                -1.8925150742341916
            ]
        },
        {
            "positions": [
                0.4698543730420427,
                -1.7824061578080288,
                1.8376126139517386,
                -0.7353800593432638,
                0.6492422668738506,
                -2.0148613998328733
            ]
        },
        {
            "positions": [
                0.4713289444486798,
                -1.813140210223493,
                1.9458756064441032,
                -0.6541927244249219,
                0.6433882145976212,
                -2.137207725431555
            ]
        },
        {
            "positions": [
                0.47280351585531694,
                -1.8438742626389573,
                2.0541385989364676,
                -0.5730053895065799,
                0.6375341623213918,
                -2.259554051030236
            ]
        },
        {
            "positions": [
                0.47427808726195403,
                -1.8746083150544215,
                2.1624015914288326,
                -0.491818054588238,
                0.6316801100451626,
                -2.3819003766289177
            ]
        },
        {
            "positions": [
                0.4757526586685912,
                -1.9053423674698857,
                2.270664583921197,
                -0.41063071966989606,
                0.6258260577689332,
                -2.504246702227599
            ]
        },
        {
            "positions": [
                0.47722723007522827,
                -1.93607641988535,
                2.378927576413562,
                -0.3294433847515541,
                0.6199720054927038,
                -2.6265930278262806
            ]
        },
        {
            "positions": [
                0.5532843574365527,
                -1.9274274497145765,
                2.3838416987323936,
                -0.3755958547775906,
                0.6481603280170863,
                -2.7947485379012384
            ]
        },
        {
            "positions": [
                0.629341484797877,
                -1.918778479543803,
                2.388755821051225,
                -0.42174832480362706,
                0.6763486505414689,
                -2.9629040479761968
            ]
        },
        {
            "positions": [
                0.7053986121592014,
                -1.9101295093730295,
                2.393669943370057,
                -0.46790079482966357,
                0.7045369730658514,
                -3.1310595580511547
            ]
        }
    ]
}