{
    "goal": {
        "global_pose": {
            "orientation": {
                "w": 0.7047431468963623,
                "x": -0.7094548344612122,
                "y": 0.0024358443915843964,
                "z": -0.0022348060738295317
            },
            "position": {
                "x": 0.6094750761985779,
                "y": 0.3671506643295288,
                "z": 0.19426114857196808
            }
        },
        "name": "move_to_magneteinheit_A"
    },
    "id": "KPIECE_move_to_magneteinheit_A_51",
    "joint_names": [
        "shoulder_pan_joint",
        "shoulder_lift_joint",
        "elbow_joint",
        "wrist_1_joint",
        "wrist_2_joint",
        "wrist_3_joint"
    ],
    "metrics": {
        "cart_traj_len": 2.071112555125246,
        "distance_elbow_joint": 3.9078425810787847,
        "distance_shoulder_lift_joint": 1.0722789694197221,
        "distance_shoulder_pan_joint": 1.2416165387263534,
        "distance_wrist_1_joint": 1.2752058313448043,
        "distance_wrist_2_joint": 1.4342601881213315,
        "distance_wrist_3_joint": 2.0426919657733977,
        "smoothness": 2.143878952441023e-16,
        "time": 0.044018310000000005,
        "traj_len": 3.312687138029246,
        "weighted_distance": 4.215299043422344
    },
    "planner": "KPIECE",
    "start": {
        "state": {
            "elbow_joint": -1.919643507792019,
            "shoulder_lift_joint": -0.07675430207160344,
            "shoulder_pan_joint": -1.1188671864651873,
            "wrist_1_joint": 0.42560062535961957,
            "wrist_2_joint": 1.5706038300724876,
            "wrist_3_joint": 1.1188968870953055
        }
    },
    "waypoints": [
        {
            "positions": [
                -1.1188671864651873,
                -0.07675430207160344,
                -1.919643507792019,
                0.42560062535961957,
                1.5706038300724876,
                1.1188968870953055
            ]
        },
        {
            "positions": [
                -1.0745237386535318,
                -0.11504997955087923,
                -1.7800777013249196,
                0.380057559954448,
                1.5193802519252972,
                1.1918501715872125
            ]
        },
        {
            "positions": [
                -1.0301802908418765,
                -0.153345657030155,
                -1.6405118948578201,
                0.3345144945492764,
                1.4681566737781069,
                1.2648034560791197
            ]
        },
        {
            "positions": [
                -0.9858368430302209,
                -0.1916413345094308,
                -1.5009460883907209,
                0.2889714291441049,
                1.4169330956309163,
                1.3377567405710267
            ]
        },
        {
            "positions": [
                -0.9414933952185655,
                -0.22993701198870659,
                -1.3613802819236214,
                0.24342836373893328,
                1.365709517483726,
                1.4107100250629339
            ]
        },
        {
            "positions": [
                -0.89714994740691,
                -0.2682326894679824,
                -1.2218144754565219,
                0.1978852983337617,
                1.3144859393365356,
                1.4836633095548408
            ]
        },
        {
            "positions": [
                -0.8528064995952545,
                -0.30652836694725816,
                -1.0822486689894224,
                0.15234223292859017,
                1.2632623611893452,
                1.5566165940467478
            ]
        },
        {
            "positions": [
                -0.808463051783599,
                -0.34482404442653397,
                -0.9426828625223229,
                0.10679916752341856,
                1.2120387830421548,
                1.629569878538655
            ]
        },
        {
            "positions": [
                -0.7641196039719436,
                -0.38311972190580973,
                -0.8031170560552234,
                0.061256102118247,
                1.1608152048949645,
                1.7025231630305622
            ]
        },
        {
            "positions": [
                -0.719776156160288,
                -0.4214153993850856,
                -0.663551249588124,
                0.01571303671307539,
                1.109591626747774,
                1.7754764475224691
            ]
        },
        {
            "positions": [
                -0.6754327083486326,
                -0.45971107686436136,
                -0.5239854431210245,
                -0.029830028692096167,
                1.0583680486005835,
                1.848429732014376
            ]
        },
        {
            "positions": [
                -0.6310892605369771,
                -0.4980067543436371,
                -0.3844196366539252,
                -0.07537309409726772,
                1.007144470453393,
                1.921383016506283
            ]
        },
        {
            "positions": [
                -0.5867458127253217,
                -0.5363024318229128,
                -0.24485383018682572,
                -0.12091615950243922,
                0.9559208923062027,
                1.9943363009981903
            ]
        },
        {
            "positions": [
                -0.5424023649136661,
                -0.5745981093021888,
                -0.10528802371972623,
                -0.16645922490761095,
                0.9046973141590122,
                2.0672895854900974
            ]
        },
        {
            "positions": [
                -0.49805891710201067,
                -0.6128937867814646,
                0.03427778274737325,
                -0.21200229031278245,
                0.8534737360118219,
                2.1402428699820044
            ]
        },
        {
            "positions": [
                -0.4537154692903552,
                -0.6511894642607403,
                0.17384358921447274,
                -0.25754535571795395,
                0.8022501578646315,
                2.2131961544739114
            ]
        },
        {
            "positions": [
                -0.4093720214786998,
                -0.6894851417400161,
                0.3134093956815722,
                -0.30308842112312556,
                0.7510265797174411,
                2.2861494389658183
            ]
        },
        {
            "positions": [
                -0.36502857366704433,
                -0.7277808192192918,
                0.45297520214867126,
                -0.34863148652829706,
                0.6998030015702507,
                2.3591027234577258
            ]
        },
        {
            "positions": [
                -0.32068512585538866,
                -0.7660764966985678,
                0.5925410086157712,
                -0.3941745519334688,
                0.6485794234230602,
                2.4320560079496327
            ]
        },
        {
            "positions": [
                -0.2763416780437332,
                -0.8043721741778436,
                0.7321068150828707,
                -0.4397176173386404,
                0.5973558452758697,
                2.5050092924415397
            ]
        },
        {
            "positions": [
                -0.23199823023207777,
                -0.8426678516571193,
                0.8716726215499702,
                -0.4852606827438119,
                0.5461322671286795,
                2.577962576933447
            ]
        },
        {
            "positions": [
                -0.18765478242042233,
                -0.8809635291363951,
                1.0112384280170692,
                -0.5308037481489833,
                0.4949086889814891,
                2.6509158614253536
            ]
        },
        {
            "positions": [
                -0.14331133460876688,
                -0.9192592066156708,
                1.1508042344841687,
                -0.576346813554155,
                0.4436851108342985,
                2.723869145917261
            ]
        },
        {
            "positions": [
                -0.09896788679711133,
                -0.9575548840949466,
                1.2903700409512682,
                -0.6218898789593266,
                0.39246153268710815,
                2.796822430409168
            ]
        },
        {
            "positions": [
                -0.05462443898545599,
                -0.9958505615742224,
                1.4299358474183677,
                -0.667432944364498,
                0.3412379545399178,
                2.869775714901075
            ]
        },
        {
            "positions": [
                -0.010280991173800436,
                -1.0341462390534983,
                1.5695016538854676,
                -0.7129760097696698,
                0.2900143763927272,
                2.9427289993929824
            ]
        },
        {
            "positions": [
                0.03406245663785512,
                -1.072441916532774,
                1.7090674603525666,
                -0.7585190751748414,
                0.23879079824553684,
                3.015682283884889
            ]
        },
        {
            "positions": [
                0.07840590444951046,
                -1.1107375940120499,
                1.848633266819666,
                -0.8040621405800128,
                0.18756722009834648,
                3.0886355683767963
            ]
        },
        {
            "positions": [
                0.122749352261166,
                -1.1490332714913256,
                1.9881990732867658,
                -0.8496052059851845,
                0.136343641951156,
                3.1615888528687033
            ]
        }
    ]
}