{
    "goal": {
        "global_pose": {
            "orientation": {
                "w": 0.7031023502349854,
                "x": -0.7110244035720825,
                "y": 0.007748599164187908,
                "z": 0.005598929710686207
            },
            "position": {
                "x": 0.11585023208521307,
                "y": 0.44412534475326537,
                "z": 0.3711530566215515
            }
        },
        "name": "move_to_auspresseinheit_A"
    },
    "id": "KPIECE_move_to_auspresseinheit_A_34",
    "joint_names": [
        "shoulder_pan_joint",
        "shoulder_lift_joint",
        "elbow_joint",
        "wrist_1_joint",
        "wrist_2_joint",
        "wrist_3_joint"
    ],
    "metrics": {
        "cart_traj_len": 2.063065613910173,
        "distance_elbow_joint": 1.761642777925963,
        "distance_shoulder_lift_joint": 0.8345439445135681,
        "distance_shoulder_pan_joint": 1.3073829815363378,
        "distance_wrist_1_joint": 1.083985782396503,
        "distance_wrist_2_joint": 1.7471206909804327,
        "distance_wrist_3_joint": 3.5391228186903207,
        "smoothness": 0.5233170636167491,
        "time": 0.130617752,
        "traj_len": 3.205276742504947,
        "weighted_distance": 4.492566205054823
    },
    "planner": "KPIECE",
    "start": {
        "state": {
            "elbow_joint": 2.422574709923281,
            "shoulder_lift_joint": -1.3736533754116391,
            "shoulder_pan_joint": -0.33786336945926293,
            "wrist_1_joint": -1.0288603412921917,
            "wrist_2_joint": 1.2330224858903978,
            "wrist_3_joint": -3.094022268022082
        }
    },
    "waypoints": [
        {
            "positions": [
                -0.33786336945926293,
                -1.3736533754116391,
                2.422574709923281,
                -1.0288603412921917,
                1.2330224858903978,
                -3.094022268022082
            ]
        },
        {
            "positions": [
                -0.33071587193980356,
                -1.3937671730979375,
                2.310828807630394,
                -0.9678787668651145,
                1.2063357718428742,
                -2.9344534210925524
            ]
        },
        {
            "positions": [
                -0.32356837442034425,
                -1.413880970784236,
                2.199082905337507,
                -0.9068971924380372,
                1.1796490577953507,
                -2.774884574163023
            ]
        },
        {
            "positions": [
                -0.3164208769008849,
                -1.4339947684705343,
                2.0873370030446194,
                -0.8459156180109599,
                1.152962343747827,
                -2.6153157272334933
            ]
        },
        {
            "positions": [
                -0.3092733793814255,
                -1.4541085661568327,
                1.9755911007517324,
                -0.7849340435838827,
                1.1262756297003034,
                -2.4557468803039635
            ]
        },
        {
            "positions": [
                -0.3021258818619662,
                -1.474222363843131,
                1.8638451984588453,
                -0.7239524691568056,
                1.0995889156527798,
                -2.296178033374434
            ]
        },
        {
            "positions": [
                -0.29497838434250684,
                -1.4943361615294295,
                1.7520992961659583,
                -0.6629708947297283,
                1.072902201605256,
                -2.1366091864449044
            ]
        },
        {
            "positions": [
                -0.2878308868230475,
                -1.514449959215728,
                1.6403533938730712,
                -0.601989320302651,
                1.0462154875577325,
                -1.9770403395153748
            ]
        },
        {
            "positions": [
                -0.28068338930358816,
                -1.5345637569020263,
                1.528607491580184,
                -0.5410077458755738,
                1.019528773510209,
                -1.8174714925858453
            ]
        },
        {
            "positions": [
                -0.1588510000515967,
                -1.583728605339528,
                1.5381872370344813,
                -0.5160321454240462,
                0.903860339292843,
                -1.7574093460616282
            ]
        },
        {
            "positions": [
                -0.037018610799605195,
                -1.63289345377703,
                1.5477669824887785,
                -0.49105654497251866,
                0.7881919050754771,
                -1.6973471995374112
            ]
        },
        {
            "positions": [
                0.0848137784523863,
                -1.682058302214532,
                1.557346727943076,
                -0.46608094452099114,
                0.6725234708581111,
                -1.637285053013194
            ]
        },
        {
            "positions": [
                0.20664616770437777,
                -1.731223150652034,
                1.5669264733973733,
                -0.44110534406946356,
                0.5568550366407452,
                -1.577222906488977
            ]
        },
        {
            "positions": [
                0.3284785569563693,
                -1.7803879990895357,
                1.5765062188516705,
                -0.41612974361793603,
                0.44118660242337915,
                -1.5171607599647599
            ]
        },
        {
            "positions": [
                0.45031094620836076,
                -1.8295528475270375,
                1.586085964305968,
                -0.3911541431664085,
                0.3255181682060132,
                -1.4570986134405426
            ]
        },
        {
            "positions": [
                0.5721433354603522,
                -1.8787176959645393,
                1.5956657097602651,
                -0.36617854271488093,
                0.20984973398864726,
                -1.3970364669163255
            ]
        },
        {
            "positions": [
                0.6939757247123437,
                -1.9278825444020413,
                1.6052454552145625,
                -0.3412029422633534,
                0.09418129977128134,
                -1.3369743203921085
            ]
        },
        {
            "positions": [
                0.7227724473290168,
                -1.9541400789090477,
                1.7014224400498956,
                -0.3154177734791772,
                0.13798298095194012,
                -1.4460021597010329
            ]
        },
        {
            "positions": [
                0.75156916994569,
                -1.9803976134160541,
                1.7975994248852285,
                -0.2896326046950011,
                0.18178466213259892,
                -1.5550299990099572
            ]
        },
        {
            "positions": [
                0.7803658925623631,
                -2.0066551479230608,
                1.8937764097205616,
                -0.2638474359108249,
                0.2255863433132577,
                -1.6640578383188815
            ]
        },
        {
            "positions": [
                0.8091626151790363,
                -2.032912682430067,
                1.9899533945558945,
                -0.2380622671266487,
                0.2693880244939165,
                -1.773085677627806
            ]
        },
        {
            "positions": [
                0.8379593377957094,
                -2.0591702169370736,
                2.0861303793912276,
                -0.21227709834247255,
                0.31318970567457527,
                -1.8821135169367302
            ]
        },
        {
            "positions": [
                0.8290672388398969,
                -2.0480095945209498,
                2.1441434531075885,
                -0.23697893821173246,
                0.3688833104097933,
                -2.050265442478489
            ]
        },
        {
            "positions": [
                0.8201751398840843,
                -2.036848972104826,
                2.20215652682395,
                -0.2616807780809924,
                0.42457691514501134,
                -2.2184173680202477
            ]
        },
        {
            "positions": [
                0.8112830409282717,
                -2.0256883496887026,
                2.260169600540311,
                -0.2863826179502523,
                0.4802705198802294,
                -2.3865692935620064
            ]
        },
        {
            "positions": [
                0.8023909419724592,
                -2.014527727272579,
                2.318182674256672,
                -0.3110844578195122,
                0.5359641246154474,
                -2.554721219103765
            ]
        },
        {
            "positions": [
                0.7703936491530875,
                -1.9797328561646992,
                2.3442161332254647,
                -0.3672828511427602,
                0.5914630179544974,
                -2.7428305432199953
            ]
        },
        {
            "positions": [
                0.7383963563337159,
                -1.9449379850568196,
                2.370249592194257,
                -0.4234812444660082,
                0.6469619112935475,
                -2.9309398673362255
            ]
        },
        {
            "positions": [
                0.7063990635143442,
                -1.91014311394894,
                2.3962830511630497,
                -0.4796796377892562,
                0.7024608046325975,
                -3.1190491914524556
            ]
        }
    ]
}