{
    "goal": {
        "global_pose": {
            "orientation": {
                "w": 0.7047431468963623,
                "x": -0.7094548344612122,
                "y": 0.0024358443915843964,
                "z": -0.0022348060738295317
            },
            "position": {
                "x": 0.6094750761985779,
                "y": 0.3671506643295288,
                "z": 0.19426114857196808
            }
        },
        "name": "move_to_magneteinheit_A"
    },
    "id": "KPIECE_move_to_magneteinheit_A_105",
    "joint_names": [
        "shoulder_pan_joint",
        "shoulder_lift_joint",
        "elbow_joint",
        "wrist_1_joint",
        "wrist_2_joint",
        "wrist_3_joint"
    ],
    "metrics": {
        "cart_traj_len": 1.8753048432410175,
        "distance_elbow_joint": 3.925720065213417,
        "distance_shoulder_lift_joint": 0.704748050543438,
        "distance_shoulder_pan_joint": 1.2415832271596416,
        "distance_wrist_1_joint": 1.5260595229100018,
        "distance_wrist_2_joint": 1.707863273550471,
        "distance_wrist_3_joint": 1.1494565824241254,
        "smoothness": 4.934324583682563e-16,
        "time": 0.022214558,
        "traj_len": 3.2024101426583536,
        "weighted_distance": 3.973445190651284
    },
    "planner": "KPIECE",
    "start": {
        "state": {
            "elbow_joint": -1.919643507792019,
            "shoulder_lift_joint": -0.07675430207160344,
            "shoulder_pan_joint": -1.1188671864651873,
            "wrist_1_joint": 0.42560062535961957,
            "wrist_2_joint": 1.5706038300724876,
            "wrist_3_joint": 1.1188968870953055
        }
    },
    "waypoints": [
        {
            "positions": [
                -1.1188671864651873,
                -0.07675430207160344,
                -1.919643507792019,
                0.42560062535961957,
                1.5706038300724876,
                1.1188968870953055
            ]
        },
        {
            "positions": [
                -1.0711139854205858,
                -0.10385999632327414,
                -1.76865427451458,
                0.48429522239461964,
                1.5049167810897772,
                1.0746870185405315
            ]
        },
        {
            "positions": [
                -1.0233607843759842,
                -0.13096569057494484,
                -1.617665041237141,
                0.5429898194296197,
                1.4392297321070668,
                1.0304771499857575
            ]
        },
        {
            "positions": [
                -0.9756075833313825,
                -0.15807138482661554,
                -1.4666758079597018,
                0.6016844164646198,
                1.3735426831243562,
                0.9862672814309834
            ]
        },
        {
            "positions": [
                -0.927854382286781,
                -0.18517707907828623,
                -1.3156865746822626,
                0.6603790134996199,
                1.3078556341416459,
                0.9420574128762094
            ]
        },
        {
            "positions": [
                -0.8801011812421793,
                -0.21228277332995693,
                -1.1646973414048234,
                0.7190736105346199,
                1.2421685851589355,
                0.8978475443214353
            ]
        },
        {
            "positions": [
                -0.8323479801975777,
                -0.2393884675816276,
                -1.0137081081273842,
                0.77776820756962,
                1.176481536176225,
                0.8536376757666613
            ]
        },
        {
            "positions": [
                -0.7845947791529762,
                -0.2664941618332983,
                -0.8627188748499452,
                0.8364628046046201,
                1.1107944871935147,
                0.8094278072118872
            ]
        },
        {
            "positions": [
                -0.7368415781083746,
                -0.29359985608496897,
                -0.7117296415725061,
                0.8951574016396202,
                1.0451074382108043,
                0.7652179386571131
            ]
        },
        {
            "positions": [
                -0.689088377063773,
                -0.32070555033663967,
                -0.5607404082950671,
                0.9538519986746201,
                0.9794203892280938,
                0.7210080701023391
            ]
        },
        {
            "positions": [
                -0.6413351760191712,
                -0.3478112445883104,
                -0.4097511750176279,
                1.0125465957096202,
                0.9137333402453833,
                0.676798201547565
            ]
        },
        {
            "positions": [
                -0.5935819749745698,
                -0.37491693883998106,
                -0.25876194174018874,
                1.0712411927446204,
                0.848046291262673,
                0.6325883329927909
            ]
        },
        {
            "positions": [
                -0.5458287739299681,
                -0.40202263309165176,
                -0.10777270846274956,
                1.1299357897796205,
                0.7823592422799625,
                0.5883784644380169
            ]
        },
        {
            "positions": [
                -0.4980755728853665,
                -0.42912832734332246,
                0.043216524814689405,
                1.1886303868146204,
                0.7166721932972521,
                0.5441685958832428
            ]
        },
        {
            "positions": [
                -0.45032237184076496,
                -0.45623402159499316,
                0.1942057580921286,
                1.2473249838496205,
                0.6509851443145417,
                0.4999587273284688
            ]
        },
        {
            "positions": [
                -0.4025691707961634,
                -0.4833397158466638,
                0.34519499136956733,
                1.3060195808846204,
                0.5852980953318313,
                0.45574885877369475
            ]
        },
        {
            "positions": [
                -0.3548159697515617,
                -0.5104454100983346,
                0.49618422464700696,
                1.3647141779196208,
                0.5196110463491208,
                0.4115389902189206
            ]
        },
        {
            "positions": [
                -0.30706276870696014,
                -0.5375511043500052,
                0.6471734579244457,
                1.4234087749546207,
                0.4539239973664104,
                0.36732912166414666
            ]
        },
        {
            "positions": [
                -0.2593095676623586,
                -0.564656798601676,
                0.7981626912018849,
                1.4821033719896208,
                0.38823694838370004,
                0.3231192531093726
            ]
        },
        {
            "positions": [
                -0.211556366617757,
                -0.5917624928533465,
                0.9491519244793241,
                1.540797969024621,
                0.32254989940098966,
                0.27890938455459857
            ]
        },
        {
            "positions": [
                -0.16380316557315522,
                -0.6188681871050175,
                1.1001411577567632,
                1.599492566059621,
                0.25686285041827905,
                0.23469951599982442
            ]
        },
        {
            "positions": [
                -0.11604996452855376,
                -0.645973881356688,
                1.2511303910342024,
                1.658187163094621,
                0.19117580143556867,
                0.19048964744505037
            ]
        },
        {
            "positions": [
                -0.0682967634839522,
                -0.6730795756083587,
                1.4021196243116416,
                1.7168817601296211,
                0.1254887524528583,
                0.14627977889027632
            ]
        },
        {
            "positions": [
                -0.020543562439350627,
                -0.7001852698600293,
                1.5531088575890803,
                1.7755763571646213,
                0.059801703470147904,
                0.10206991033550228
            ]
        },
        {
            "positions": [
                0.027209638605251163,
                -0.7272909641117,
                1.70409809086652,
                1.8342709541996214,
                -0.005885345512562701,
                0.05786004178072823
            ]
        },
        {
            "positions": [
                0.07496283964985273,
                -0.7543966583633708,
                1.8550873241439587,
                1.8929655512346213,
                -0.07157239449527308,
                0.013650173225954187
            ]
        },
        {
            "positions": [
                0.12271604069445427,
                -0.7815023526150415,
                2.0060765574213977,
                1.9516601482696214,
                -0.13725944347798344,
                -0.030559695328819782
            ]
        }
    ]
}