{
    "goal": {
        "global_pose": {
            "orientation": {
                "w": -0.00223480608172531,
                "x": 0.0024358444001904467,
                "y": 0.7094548369677653,
                "z": -0.704743149386269
            },
            "position": {
                "x": 0.6205249238014221,
                "y": -0.6371506643295288,
                "z": 0.19426114857196808
            }
        },
        "name": "move_to_magneteinheit_B"
    },
    "id": "KPIECE_move_to_magneteinheit_B_103",
    "joint_names": [
        "shoulder_pan_joint",
        "shoulder_lift_joint",
        "elbow_joint",
        "wrist_1_joint",
        "wrist_2_joint",
        "wrist_3_joint"
    ],
    "metrics": {
        "cart_traj_len": 1.452172291324834,
        "distance_elbow_joint": 0.7317372351995564,
        "distance_shoulder_lift_joint": 1.249323345835872,
        "distance_shoulder_pan_joint": 1.619590535161013,
        "distance_wrist_1_joint": 2.6031652540440753,
        "distance_wrist_2_joint": 2.9455989482346188,
        "distance_wrist_3_joint": 3.1293962469320076,
        "smoothness": 6.661338169182465e-16,
        "time": 0.28052843299999997,
        "traj_len": 3.5041135206221763,
        "weighted_distance": 4.907786493068933
    },
    "planner": "KPIECE",
    "start": {
        "state": {
            "elbow_joint": 2.39358713078474,
            "shoulder_lift_joint": -1.908514104345545,
            "shoulder_pan_joint": 0.7066247066606129,
            "wrist_1_joint": -0.4678290933515497,
            "wrist_2_joint": 0.7096259083745334,
            "wrist_3_joint": -3.1358149277392293
        }
    },
    "waypoints": [
        {
            "positions": [
                0.7066247066606129,
                -1.908514104345545,
                2.39358713078474,
                -0.4678290933515497,
                0.7096259083745334,
                -3.1358149277392293
            ]
        },
        {
            "positions": [
                0.654379850687677,
                -1.8682133512540653,
                2.369982703842819,
                -0.3838560206404505,
                0.6146065874637393,
                -3.0348666617091644
            ]
        },
        {
            "positions": [
                0.6021349947147412,
                -1.8279125981625854,
                2.346378276900898,
                -0.29988294792935133,
                0.5195872665529451,
                -2.9339183956791
            ]
        },
        {
            "positions": [
                0.5498901387418053,
                -1.7876118450711056,
                2.3227738499589767,
                -0.2159098752182521,
                0.424567945642151,
                -2.832970129649035
            ]
        },
        {
            "positions": [
                0.4976452827688693,
                -1.747311091979626,
                2.299169423017055,
                -0.1319368025071529,
                0.3295486247313568,
                -2.73202186361897
            ]
        },
        {
            "positions": [
                0.44540042679593345,
                -1.7070103388881464,
                2.275564996075134,
                -0.04796372979605373,
                0.2345293038205627,
                -2.6310735975889057
            ]
        },
        {
            "positions": [
                0.39315557082299757,
                -1.6667095857966665,
                2.251960569133213,
                0.036009342915045484,
                0.13950998290976857,
                -2.530125331558841
            ]
        },
        {
            "positions": [
                0.34091071485006164,
                -1.6264088327051867,
                2.228356142191292,
                0.1199824156261447,
                0.044490661998974335,
                -2.429177065528776
            ]
        },
        {
            "positions": [
                0.28866585887712576,
                -1.586108079613707,
                2.2047517152493707,
                0.20395548833724392,
                -0.05052865891181979,
                -2.3282287994987114
            ]
        },
        {
            "positions": [
                0.23642100290418983,
                -1.5458073265222272,
                2.1811472883074496,
                0.28792856104834313,
                -0.14554797982261403,
                -2.2272805334686465
            ]
        },
        {
            "positions": [
                0.18417614693125395,
                -1.5055065734307476,
                2.1575428613655285,
                0.37190163375944224,
                -0.24056730073340804,
                -2.126332267438582
            ]
        },
        {
            "positions": [
                0.13193129095831801,
                -1.4652058203392677,
                2.133938434423607,
                0.45587470647054157,
                -0.3355866216442024,
                -2.0253840014085167
            ]
        },
        {
            "positions": [
                0.07968643498538219,
                -1.424905067247788,
                2.110334007481686,
                0.5398477791816407,
                -0.4306059425549963,
                -1.9244357353784523
            ]
        },
        {
            "positions": [
                0.02744157901244626,
                -1.3846043141563082,
                2.0867295805397648,
                0.62382085189274,
                -0.5256252634657906,
                -1.8234874693483873
            ]
        },
        {
            "positions": [
                -0.024803276960489673,
                -1.3443035610648286,
                2.0631251535978437,
                0.7077939246038392,
                -0.6206445843765848,
                -1.7225392033183227
            ]
        },
        {
            "positions": [
                -0.0770481329334256,
                -1.3040028079733488,
                2.0395207266559225,
                0.7917669973149384,
                -0.7156639052873789,
                -1.6215909372882578
            ]
        },
        {
            "positions": [
                -0.12929298890636143,
                -1.2637020548818692,
                2.0159162997140014,
                0.8757400700260376,
                -0.810683226198173,
                -1.5206426712581933
            ]
        },
        {
            "positions": [
                -0.18153784487929725,
                -1.2234013017903895,
                1.99231187277208,
                0.9597131427371366,
                -0.9057025471089671,
                -1.4196944052281286
            ]
        },
        {
            "positions": [
                -0.2337827008522333,
                -1.1831005486989095,
                1.968707445830159,
                1.043686215448236,
                -1.0007218680197614,
                -1.3187461391980635
            ]
        },
        {
            "positions": [
                -0.2860275568251692,
                -1.1427997956074298,
                1.9451030188882377,
                1.1276592881593352,
                -1.0957411889305555,
                -1.2177978731679988
            ]
        },
        {
            "positions": [
                -0.33827241279810505,
                -1.1024990425159502,
                1.9214985919463166,
                1.2116323608704342,
                -1.1907605098413496,
                -1.1168496071379344
            ]
        },
        {
            "positions": [
                -0.39051726877104087,
                -1.0621982894244706,
                1.8978941650043955,
                1.2956054335815335,
                -1.2857798307521437,
                -1.0159013411078694
            ]
        },
        {
            "positions": [
                -0.4427621247439769,
                -1.0218975363329905,
                1.8742897380624743,
                1.379578506292633,
                -1.3807991516629383,
                -0.9149530750778045
            ]
        },
        {
            "positions": [
                -0.49500698071691274,
                -0.9815967832415109,
                1.8506853111205532,
                1.4635515790037321,
                -1.4758184725737324,
                -0.8140048090477396
            ]
        },
        {
            "positions": [
                -0.5472518366898486,
                -0.9412960301500312,
                1.827080884178632,
                1.5475246517148311,
                -1.5708377934845261,
                -0.7130565430176752
            ]
        },
        {
            "positions": [
                -0.5994966926627846,
                -0.9009952770585514,
                1.8034764572367108,
                1.6314977244259303,
                -1.6658571143953202,
                -0.6121082769876103
            ]
        },
        {
            "positions": [
                -0.6517415486357204,
                -0.8606945239670716,
                1.7798720302947895,
                1.7154707971370295,
                -1.7608764353061148,
                -0.5111600109575454
            ]
        },
        {
            "positions": [
                -0.7039864046086565,
                -0.820393770875592,
                1.7562676033528684,
                1.7994438698481288,
                -1.855895756216909,
                -0.4102117449274809
            ]
        },
        {
            "positions": [
                -0.7562312605815923,
                -0.7800930177841123,
                1.7326631764109472,
                1.883416942559228,
                -1.950915077127703,
                -0.309263478897416
            ]
        },
        {
            "positions": [
                -0.8084761165545281,
                -0.7397922646926325,
                1.7090587494690261,
                1.9673900152703272,
                -2.045934398038497,
                -0.20831521286735155
            ]
        },
        {
            "positions": [
                -0.8607209725274642,
                -0.6994915116011526,
                1.6854543225271048,
                2.0513630879814264,
                -2.1409537189492913,
                -0.1073669468372862
            ]
        },
        {
            "positions": [
                -0.9129658285003999,
                -0.659190758509673,
                1.6618498955851837,
                2.1353361606925256,
                -2.2359730398600854,
                -0.006418680807221806
            ]
        }
    ]
}