{
    "goal": {
        "global_pose": {
            "orientation": {
                "w": -0.00223480608172531,
                "x": 0.0024358444001904467,
                "y": 0.7094548369677653,
                "z": -0.704743149386269
            },
            "position": {
                "x": 0.6205249238014221,
                "y": -0.6371506643295288,
                "z": 0.19426114857196808
            }
        },
        "name": "move_to_magneteinheit_B"
    },
    "id": "KPIECE_move_to_magneteinheit_B_86",
    "joint_names": [
        "shoulder_pan_joint",
        "shoulder_lift_joint",
        "elbow_joint",
        "wrist_1_joint",
        "wrist_2_joint",
        "wrist_3_joint"
    ],
    "metrics": {
        "cart_traj_len": 1.4519863479997055,
        "distance_elbow_joint": 0.7273989181413199,
        "distance_shoulder_lift_joint": 1.2462159377359514,
        "distance_shoulder_pan_joint": 1.6212128534212522,
        "distance_wrist_1_joint": 2.609054144987292,
        "distance_wrist_2_joint": 2.9339888327468793,
        "distance_wrist_3_joint": 3.1373020888460537,
        "smoothness": 2.2204460511749907e-16,
        "time": 0.110844461,
        "traj_len": 3.5035942653050953,
        "weighted_distance": 4.908443738223452
    },
    "planner": "KPIECE",
    "start": {
        "state": {
            "elbow_joint": 2.39358713078474,
            "shoulder_lift_joint": -1.908514104345545,
            "shoulder_pan_joint": 0.7066247066606129,
            "wrist_1_joint": -0.4678290933515497,
            "wrist_2_joint": 0.7096259083745334,
            "wrist_3_joint": -3.1358149277392293
        }
    },
    "waypoints": [
        {
            "positions": [
                0.7066247066606129,
                -1.908514104345545,
                2.39358713078474,
                -0.4678290933515497,
                0.7096259083745334,
                -3.1358149277392293
            ]
        },
        {
            "positions": [
                0.6543275178405725,
                -1.8683135902250303,
                2.370122649554375,
                -0.3836660564164758,
                0.6149811073181825,
                -3.034611634550647
            ]
        },
        {
            "positions": [
                0.6020303290205322,
                -1.8281130761045157,
                2.3466581683240095,
                -0.29950301948140184,
                0.5203363062618316,
                -2.9334083413620644
            ]
        },
        {
            "positions": [
                0.5497331402004918,
                -1.7879125619840013,
                2.3231936870936445,
                -0.2153399825463279,
                0.4256915052054806,
                -2.832205048173482
            ]
        },
        {
            "positions": [
                0.4974359513804514,
                -1.7477120478634867,
                2.2997292058632794,
                -0.13117694561125398,
                0.3310467041491297,
                -2.7310017549849
            ]
        },
        {
            "positions": [
                0.44513876256041096,
                -1.707511533742972,
                2.2762647246329144,
                -0.04701390867618005,
                0.2364019030927787,
                -2.6297984617963177
            ]
        },
        {
            "positions": [
                0.3928415737403706,
                -1.6673110196224576,
                2.252800243402549,
                0.03714912825889388,
                0.14175710203642777,
                -2.528595168607735
            ]
        },
        {
            "positions": [
                0.3405443849203302,
                -1.627110505501943,
                2.229335762172184,
                0.12131216519396776,
                0.04711230098007679,
                -2.427391875419153
            ]
        },
        {
            "positions": [
                0.2882471961002898,
                -1.5869099913814284,
                2.205871280941819,
                0.20547520212904175,
                -0.047532500076274076,
                -2.3261885822305706
            ]
        },
        {
            "positions": [
                0.23595000728024934,
                -1.5467094772609138,
                2.182406799711454,
                0.28963823906411573,
                -0.14217730113262517,
                -2.224985289041988
            ]
        },
        {
            "positions": [
                0.18365281846020898,
                -1.5065089631403994,
                2.1589423184810883,
                0.3738012759991896,
                -0.23682210218897604,
                -2.1237819958534057
            ]
        },
        {
            "positions": [
                0.13135562964016856,
                -1.4663084490198848,
                2.1354778372507233,
                0.4579643129342636,
                -0.3314669032453269,
                -2.0225787026648234
            ]
        },
        {
            "positions": [
                0.07905844082012825,
                -1.4261079348993702,
                2.1120133560203582,
                0.5421273498693375,
                -0.4261117043016779,
                -1.9213754094762407
            ]
        },
        {
            "positions": [
                0.026761252000087832,
                -1.3859074207788558,
                2.088548874789993,
                0.6262903868044116,
                -0.5207565053580289,
                -1.8201721162876583
            ]
        },
        {
            "positions": [
                -0.025535936819952587,
                -1.3457069066583411,
                2.0650843935596277,
                0.7104534237394853,
                -0.6154013064143798,
                -1.718968823099076
            ]
        },
        {
            "positions": [
                -0.077833125639993,
                -1.3055063925378265,
                2.0416199123292627,
                0.7946164606745594,
                -0.7100461074707308,
                -1.6177655299104936
            ]
        },
        {
            "positions": [
                -0.13013031446003331,
                -1.265305878417312,
                2.0181554310988976,
                0.8787794976096333,
                -0.8046909085270816,
                -1.5165622367219114
            ]
        },
        {
            "positions": [
                -0.18242750328007373,
                -1.2251053642967973,
                1.9946909498685323,
                0.9629425345447071,
                -0.8993357095834326,
                -1.4153589435333291
            ]
        },
        {
            "positions": [
                -0.23472469210011426,
                -1.1849048501762827,
                1.971226468638167,
                1.0471055714797812,
                -0.9939805106397838,
                -1.3141556503447465
            ]
        },
        {
            "positions": [
                -0.28702188092015457,
                -1.1447043360557683,
                1.947761987407802,
                1.131268608414855,
                -1.0886253116961346,
                -1.2129523571561642
            ]
        },
        {
            "positions": [
                -0.339319069740195,
                -1.1045038219352539,
                1.924297506177437,
                1.215431645349929,
                -1.1832701127524854,
                -1.111749063967582
            ]
        },
        {
            "positions": [
                -0.3916162585602353,
                -1.0643033078147393,
                1.9008330249470717,
                1.2995946822850029,
                -1.2779149138088362,
                -1.0105457707789998
            ]
        },
        {
            "positions": [
                -0.4439134473802758,
                -1.0241027936942246,
                1.8773685437167065,
                1.383757719220077,
                -1.3725597148651874,
                -0.9093424775904171
            ]
        },
        {
            "positions": [
                -0.49621063620031614,
                -0.98390227957371,
                1.8539040624863414,
                1.4679207561551508,
                -1.4672045159215386,
                -0.8081391844018349
            ]
        },
        {
            "positions": [
                -0.5485078250203564,
                -0.9437017654531955,
                1.8304395812559764,
                1.5520837930902247,
                -1.5618493169778893,
                -0.7069358912132522
            ]
        },
        {
            "positions": [
                -0.6008050138403968,
                -0.903501251332681,
                1.8069751000256113,
                1.6362468300252986,
                -1.65649411803424,
                -0.6057325980246699
            ]
        },
        {
            "positions": [
                -0.6531022026604373,
                -0.8633007372121664,
                1.7835106187952459,
                1.720409866960373,
                -1.7511389190905913,
                -0.5045293048360873
            ]
        },
        {
            "positions": [
                -0.7053993914804776,
                -0.8231002230916518,
                1.7600461375648808,
                1.8045729038954468,
                -1.845783720146942,
                -0.40332601164750503
            ]
        },
        {
            "positions": [
                -0.7576965803005181,
                -0.7828997089711371,
                1.7365816563345158,
                1.8887359408305202,
                -1.9404285212032932,
                -0.3021227184589228
            ]
        },
        {
            "positions": [
                -0.8099937691205584,
                -0.7426991948506227,
                1.7131171751041505,
                1.972898977765594,
                -2.035073322259644,
                -0.20091942527034057
            ]
        },
        {
            "positions": [
                -0.862290957940599,
                -0.7024986807301081,
                1.6896526938737852,
                2.0570620147006684,
                -2.129718123315995,
                -0.09971613208175789
            ]
        },
        {
            "positions": [
                -0.9145881467606393,
                -0.6622981666095934,
                1.6661882126434202,
                2.1412250516357423,
                -2.224362924372346,
                0.0014871611068243708
            ]
        }
    ]
}