{
    "goal": {
        "global_pose": {
            "orientation": {
                "w": 0.7047431468963623,
                "x": -0.7094548344612122,
                "y": 0.0024358443915843964,
                "z": -0.0022348060738295317
            },
            "position": {
                "x": 0.6094750761985779,
                "y": 0.3671506643295288,
                "z": 0.19426114857196808
            }
        },
        "name": "move_to_magneteinheit_A"
    },
    "id": "KPIECE_move_to_magneteinheit_A_61",
    "joint_names": [
        "shoulder_pan_joint",
        "shoulder_lift_joint",
        "elbow_joint",
        "wrist_1_joint",
        "wrist_2_joint",
        "wrist_3_joint"
    ],
    "metrics": {
        "cart_traj_len": 2.0268913817104606,
        "distance_elbow_joint": 3.889612443292432,
        "distance_shoulder_lift_joint": 1.235891021280425,
        "distance_shoulder_pan_joint": 1.2409996349797496,
        "distance_wrist_1_joint": 1.2116814332379806,
        "distance_wrist_2_joint": 1.5209915729455534,
        "distance_wrist_3_joint": 4.300605604350205,
        "smoothness": 0.15460276412101487,
        "time": 0.177982929,
        "traj_len": 3.660571227293132,
        "weighted_distance": 4.973295278280819
    },
    "planner": "KPIECE",
    "start": {
        "state": {
            "elbow_joint": -1.919643507792019,
            "shoulder_lift_joint": -0.07675430207160344,
            "shoulder_pan_joint": -1.1188671864651873,
            "wrist_1_joint": 0.42560062535961957,
            "wrist_2_joint": 1.5706038300724876,
            "wrist_3_joint": 1.1188968870953055
        }
    },
    "waypoints": [
        {
            "positions": [
                -1.1188671864651873,
                -0.07675430207160344,
                -1.919643507792019,
                0.42560062535961957,
                1.5706038300724876,
                1.1188968870953055
            ]
        },
        {
            "positions": [
                -1.0830117409921245,
                -0.11156368620653956,
                -1.8028134619231246,
                0.3906170784845663,
                1.5255974356907054,
                0.9961780931803813
            ]
        },
        {
            "positions": [
                -1.0471562955190616,
                -0.14637307034147568,
                -1.6859834160542302,
                0.35563353160951305,
                1.4805910413089232,
                0.8734592992654571
            ]
        },
        {
            "positions": [
                -1.0113008500459988,
                -0.18118245447641182,
                -1.5691533701853357,
                0.32064998473445977,
                1.4355846469271412,
                0.7507405053505328
            ]
        },
        {
            "positions": [
                -0.975445404572936,
                -0.21599183861134794,
                -1.4523233243164415,
                0.2856664378594065,
                1.390578252545359,
                0.6280217114356086
            ]
        },
        {
            "positions": [
                -0.9395899590998732,
                -0.2508012227462841,
                -1.3354932784475468,
                0.25068289098435326,
                1.3455718581635767,
                0.5053029175206843
            ]
        },
        {
            "positions": [
                -0.9037345136268103,
                -0.2856106068812202,
                -1.2186632325786526,
                0.2156993441093,
                1.3005654637817945,
                0.3825841236057601
            ]
        },
        {
            "positions": [
                -0.8678790681537475,
                -0.3204199910161563,
                -1.1018331867097582,
                0.18071579723424672,
                1.2555590694000123,
                0.25986532969083587
            ]
        },
        {
            "positions": [
                -0.8320236226806847,
                -0.35522937515109243,
                -0.9850031408408637,
                0.14573225035919346,
                1.21055267501823,
                0.13714653577591163
            ]
        },
        {
            "positions": [
                -0.7961681772076219,
                -0.39003875928602855,
                -0.8681730949719695,
                0.11074870348414023,
                1.1655462806364478,
                0.014427741860987497
            ]
        },
        {
            "positions": [
                -0.760312731734559,
                -0.4248481434209647,
                -0.7513430491030748,
                0.07576515660908695,
                1.1205398862546656,
                -0.10829105205393685
            ]
        },
        {
            "positions": [
                -0.7244572862614962,
                -0.4596575275559008,
                -0.6345130032341806,
                0.04078160973403372,
                1.0755334918728836,
                -0.23100984596886098
            ]
        },
        {
            "positions": [
                -0.6886018407884333,
                -0.49446691169083695,
                -0.5176829573652861,
                0.005798062858980435,
                1.0305270974911014,
                -0.35372863988378533
            ]
        },
        {
            "positions": [
                -0.6527463953153705,
                -0.5292762958257731,
                -0.4008529114963917,
                -0.02918548401607285,
                0.9855207031093192,
                -0.47644743379870946
            ]
        },
        {
            "positions": [
                -0.6168909498423076,
                -0.5640856799607092,
                -0.28402286562749723,
                -0.06416903089112613,
                0.9405143087275369,
                -0.5991662277136338
            ]
        },
        {
            "positions": [
                -0.5810355043692449,
                -0.5988950640956452,
                -0.167192819758603,
                -0.0991525777661793,
                0.8955079143457548,
                -0.7218850216285579
            ]
        },
        {
            "positions": [
                -0.545180058896182,
                -0.6337044482305814,
                -0.050362773889708334,
                -0.13413612464123265,
                0.8505015199639726,
                -0.8446038155434823
            ]
        },
        {
            "positions": [
                -0.5093246134231192,
                -0.6685138323655175,
                0.0664672719791859,
                -0.16911967151628587,
                0.8054951255821904,
                -0.9673226094584062
            ]
        },
        {
            "positions": [
                -0.47346916795005645,
                -0.7033232165004537,
                0.18329731784808012,
                -0.2041032183913391,
                0.7604887312004083,
                -1.0900414033733306
            ]
        },
        {
            "positions": [
                -0.4376137224769935,
                -0.7381326006353899,
                0.3001273637169748,
                -0.23908676526639244,
                0.7154823368186259,
                -1.212760197288255
            ]
        },
        {
            "positions": [
                -0.40175827700393063,
                -0.772941984770326,
                0.41695740958586947,
                -0.27407031214144567,
                0.6704759424368438,
                -1.3354789912031793
            ]
        },
        {
            "positions": [
                -0.3659028315308679,
                -0.807751368905262,
                0.5337874554547637,
                -0.3090538590164989,
                0.6254695480550616,
                -1.4581977851181032
            ]
        },
        {
            "positions": [
                -0.33004738605780504,
                -0.8425607530401982,
                0.6506175013236579,
                -0.34403740589155213,
                0.5804631536732795,
                -1.5809165790330275
            ]
        },
        {
            "positions": [
                -0.2941919405847422,
                -0.8773701371751343,
                0.7674475471925526,
                -0.37902095276660547,
                0.5354567592914972,
                -1.7036353729479519
            ]
        },
        {
            "positions": [
                -0.25833649511167933,
                -0.9121795213100705,
                0.8842775930614468,
                -0.4140044996416587,
                0.49045036490971516,
                -1.8263541668628762
            ]
        },
        {
            "positions": [
                -0.2224810496386166,
                -0.9469889054450065,
                1.0011076389303415,
                -0.44898804651671204,
                0.44544397052793294,
                -1.9490729607778001
            ]
        },
        {
            "positions": [
                -0.18662560416555374,
                -0.9817982895799426,
                1.1179376847992357,
                -0.48397159339176526,
                0.4004375761461507,
                -2.0717917546927245
            ]
        },
        {
            "positions": [
                -0.15077015869249077,
                -1.0166076737148788,
                1.2347677306681304,
                -0.5189551402668187,
                0.3554311817643685,
                -2.194510548607649
            ]
        },
        {
            "positions": [
                -0.11491471321942792,
                -1.051417057849815,
                1.3515977765370246,
                -0.5539386871418719,
                0.3104247873825863,
                -2.317229342522573
            ]
        },
        {
            "positions": [
                -0.07905926774636529,
                -1.0862264419847512,
                1.4684278224059188,
                -0.5889222340169249,
                0.26541839300080405,
                -2.439948136437497
            ]
        },
        {
            "positions": [
                -0.04320382227330244,
                -1.121035826119687,
                1.585257868274813,
                -0.6239057808919781,
                0.22041199861902205,
                -2.5626669303524214
            ]
        },
        {
            "positions": [
                -0.007348376800239587,
                -1.1558452102546235,
                1.7020879141437082,
                -0.6588893277670316,
                0.1754056042372396,
                -2.685385724267346
            ]
        },
        {
            "positions": [
                0.028507068672823266,
                -1.1906545943895595,
                1.8189179600126024,
                -0.6938728746420848,
                0.1303992098554576,
                -2.80810451818227
            ]
        },
        {
            "positions": [
                0.06436251414588605,
                -1.2254639785244956,
                1.9357480058814966,
                -0.728856421517138,
                0.08539281547367544,
                -2.9308233120971945
            ]
        },
        {
            "positions": [
                0.09324748133022409,
                -1.1818733061107292,
                1.9528584706909549,
                -0.7574686146977494,
                0.10328309464704613,
                -3.056266014676047
            ]
        },
        {
            "positions": [
                0.12213244851456215,
                -1.1382826336969627,
                1.969968935500413,
                -0.7860808078783609,
                0.12117337382041683,
                -3.1817087172548995
            ]
        }
    ]
}