{
    "goal": {
        "global_pose": {
            "orientation": {
                "w": 0.5084816217422485,
                "x": -0.49083608388900757,
                "y": 0.5182115435600281,
                "z": -0.4816462993621826
            },
            "position": {
                "x": 0.5540239810943604,
                "y": 0.030875300988554955,
                "z": 0.16403168439865112
            }
        },
        "name": "move_to_storage_A"
    },
    "id": "KPIECE_move_to_storage_A_78",
    "joint_names": [
        "shoulder_pan_joint",
        "shoulder_lift_joint",
        "elbow_joint",
        "wrist_1_joint",
        "wrist_2_joint",
        "wrist_3_joint"
    ],
    "metrics": {
        "cart_traj_len": 0.35287647228733315,
        "distance_elbow_joint": 0.4491018302988339,
        "distance_shoulder_lift_joint": 0.23520804718688648,
        "distance_shoulder_pan_joint": 0.46216430375632417,
        "distance_wrist_1_joint": 0.24027442261363763,
        "distance_wrist_2_joint": 1.0953665697134285,
        "distance_wrist_3_joint": 0.09914578381074657,
        "smoothness": 8.881784197001252e-16,
        "time": 0.066254644,
        "traj_len": 1.6066303113597282,
        "weighted_distance": 2.0285939754737554
    },
    "planner": "KPIECE",
    "start": {
        "state": {
            "elbow_joint": 1.9715463870305268,
            "shoulder_lift_joint": -1.1394903361783484,
            "shoulder_pan_joint": 0.12281147578464417,
            "wrist_1_joint": -0.7804599489681411,
            "wrist_2_joint": 0.12958660307563738,
            "wrist_3_joint": -3.1924946282119055
        }
    },
    "waypoints": [
        {
            "positions": [
                0.12281147578464417,
                -1.1394903361783484,
                1.9715463870305268,
                -0.7804599489681411,
                0.12958660307563738,
                -3.1924946282119055
            ]
        },
        {
            "positions": [
                0.05678800381945501,
                -1.173091485776475,
                2.0357037913589315,
                -0.814784866484375,
                0.28606754160612713,
                -3.1783309448103703
            ]
        },
        {
            "positions": [
                -0.009235468145734158,
                -1.2066926353746017,
                2.0998611956873363,
                -0.849109784000609,
                0.44254848013661696,
                -3.164167261408835
            ]
        },
        {
            "positions": [
                -0.07525894011092331,
                -1.2402937849727282,
                2.164018600015741,
                -0.8834347015168429,
                0.5990294186671067,
                -3.1500035780072997
            ]
        },
        {
            "positions": [
                -0.14128241207611247,
                -1.273894934570855,
                2.228176004344146,
                -0.9177596190330769,
                0.7555103571975965,
                -3.135839894605765
            ]
        },
        {
            "positions": [
                -0.20730588404130168,
                -1.3074960841689816,
                2.292333408672551,
                -0.9520845365493108,
                0.9119912957280863,
                -3.1216762112042296
            ]
        },
        {
            "positions": [
                -0.2733293560064908,
                -1.3410972337671083,
                2.356490813000956,
                -0.9864094540655448,
                1.068472234258576,
                -3.1075125278026943
            ]
        },
        {
            "positions": [
                -0.33935282797168,
                -1.3746983833652349,
                2.4206482173293606,
                -1.0207343715817787,
                1.224953172789066,
                -3.093348844401159
            ]
        }
    ]
}