{
    "goal": {
        "global_pose": {
            "orientation": {
                "w": 0.5084816217422485,
                "x": -0.49083608388900757,
                "y": 0.5182115435600281,
                "z": -0.4816462993621826
            },
            "position": {
                "x": 0.5540239810943604,
                "y": 0.030875300988554955,
                "z": 0.16403168439865112
            }
        },
        "name": "move_to_storage_A"
    },
    "id": "KPIECE_move_to_storage_A_148",
    "joint_names": [
        "shoulder_pan_joint",
        "shoulder_lift_joint",
        "elbow_joint",
        "wrist_1_joint",
        "wrist_2_joint",
        "wrist_3_joint"
    ],
    "metrics": {
        "cart_traj_len": 0.35236828231046907,
        "distance_elbow_joint": 0.4473433898539483,
        "distance_shoulder_lift_joint": 0.23489161486482057,
        "distance_shoulder_pan_joint": 0.4595666627299316,
        "distance_wrist_1_joint": 0.23550004087826448,
        "distance_wrist_2_joint": 1.1022265700665104,
        "distance_wrist_3_joint": 0.10031547429809118,
        "smoothness": 6.661338200497456e-16,
        "time": 0.038320185,
        "traj_len": 1.6061892020218436,
        "weighted_distance": 2.029335189719166
    },
    "planner": "KPIECE",
    "start": {
        "state": {
            "elbow_joint": 1.9715463870305268,
            "shoulder_lift_joint": -1.1394903361783484,
            "shoulder_pan_joint": 0.12281147578464417,
            "wrist_1_joint": -0.7804599489681411,
            "wrist_2_joint": 0.12958660307563738,
            "wrist_3_joint": -3.1924946282119055
        }
    },
    "waypoints": [
        {
            "positions": [
                0.12281147578464417,
                -1.1394903361783484,
                1.9715463870305268,
                -0.7804599489681411,
                0.12958660307563738,
                -3.1924946282119055
            ]
        },
        {
            "positions": [
                0.057159095394653955,
                -1.173046281159037,
                2.035452585581091,
                -0.8141028119507503,
                0.28704754165656743,
                -3.178163846169321
            ]
        },
        {
            "positions": [
                -0.008493284995336262,
                -1.2066022261397258,
                2.0993587841316548,
                -0.8477456749333595,
                0.44450848023749745,
                -3.1638330641267367
            ]
        },
        {
            "positions": [
                -0.07414566538532648,
                -1.2401581711204144,
                2.163264982682219,
                -0.8813885379159687,
                0.6019694188184275,
                -3.149502282084152
            ]
        },
        {
            "positions": [
                -0.13979804577531668,
                -1.273714116101103,
                2.227171181232783,
                -0.9150314008985779,
                0.7594303573993576,
                -3.135171500041568
            ]
        },
        {
            "positions": [
                -0.20545042616530695,
                -1.3072700610817916,
                2.291077379783347,
                -0.9486742638811871,
                0.9168912959802877,
                -3.120840717998983
            ]
        },
        {
            "positions": [
                -0.2711028065552971,
                -1.3408260060624804,
                2.354983578333911,
                -0.9823171268637964,
                1.0743522345612175,
                -3.106509935956399
            ]
        },
        {
            "positions": [
                -0.3367551869452874,
                -1.374381951043169,
                2.418889776884475,
                -1.0159599898464056,
                1.2318131731421478,
                -3.0921791539138144
            ]
        }
    ]
}