{
    "goal": {
        "global_pose": {
            "orientation": {
                "w": -0.00223480608172531,
                "x": 0.0024358444001904467,
                "y": 0.7094548369677653,
                "z": -0.704743149386269
            },
            "position": {
                "x": 0.6205249238014221,
                "y": -0.6371506643295288,
                "z": 0.19426114857196808
            }
        },
        "name": "move_to_magneteinheit_B"
    },
    "id": "KPIECE_move_to_magneteinheit_B_119",
    "joint_names": [
        "shoulder_pan_joint",
        "shoulder_lift_joint",
        "elbow_joint",
        "wrist_1_joint",
        "wrist_2_joint",
        "wrist_3_joint"
    ],
    "metrics": {
        "cart_traj_len": 3.509480067887524,
        "distance_elbow_joint": 4.786676369582029,
        "distance_shoulder_lift_joint": 1.1100121152693054,
        "distance_shoulder_pan_joint": 2.4511761587763683,
        "distance_wrist_1_joint": 1.4743802058659148,
        "distance_wrist_2_joint": 0.35178217874537926,
        "distance_wrist_3_joint": 3.123748239148092,
        "smoothness": 0.3520589984601787,
        "time": 0.849609113,
        "traj_len": 3.646611477438622,
        "weighted_distance": 4.622924845841057
    },
    "planner": "KPIECE",
    "start": {
        "state": {
            "elbow_joint": 2.39358713078474,
            "shoulder_lift_joint": -1.908514104345545,
            "shoulder_pan_joint": 0.7066247066606129,
            "wrist_1_joint": -0.4678290933515497,
            "wrist_2_joint": 0.7096259083745334,
            "wrist_3_joint": -3.1358149277392293
        }
    },
    "waypoints": [
        {
            "positions": [
                0.7066247066606129,
                -1.908514104345545,
                2.39358713078474,
                -0.4678290933515497,
                0.7096259083745334,
                -3.1358149277392293
            ]
        },
        {
            "positions": [
                0.648052414493242,
                -1.9299153104998616,
                2.3915146951595148,
                -0.40346413762022604,
                0.7234766844228391,
                -2.951841449301276
            ]
        },
        {
            "positions": [
                0.5894801223258711,
                -1.9513165166541782,
                2.3894422595342895,
                -0.33909918188890237,
                0.7373274604711446,
                -2.7678679708633234
            ]
        },
        {
            "positions": [
                0.5309078301585002,
                -1.9727177228084947,
                2.387369823909064,
                -0.2747342261575787,
                0.7511782365194503,
                -2.5838944924253706
            ]
        },
        {
            "positions": [
                0.4723355379911292,
                -1.9941189289628114,
                2.385297388283839,
                -0.21036927042625506,
                0.7650290125677559,
                -2.3999210139874174
            ]
        },
        {
            "positions": [
                0.5436518961619586,
                -1.983370368029663,
                2.2087619591418974,
                -0.17238180406423276,
                0.7548631537543171,
                -2.3168489860932704
            ]
        },
        {
            "positions": [
                0.614968254332788,
                -1.972621807096515,
                2.032226529999956,
                -0.1343943377022105,
                0.7446972949408782,
                -2.2337769581991234
            ]
        },
        {
            "positions": [
                0.6862846125036174,
                -1.9618732461633666,
                1.855691100858015,
                -0.09640687134018819,
                0.7345314361274394,
                -2.1507049303049763
            ]
        },
        {
            "positions": [
                0.7576009706744468,
                -1.9511246852302184,
                1.6791556717160736,
                -0.05841940497816589,
                0.7243655773140005,
                -2.0676329024108293
            ]
        },
        {
            "positions": [
                0.8289173288452762,
                -1.94037612429707,
                1.5026202425741322,
                -0.02043193861614359,
                0.7141997185005617,
                -1.9845608745166825
            ]
        },
        {
            "positions": [
                0.9002336870161056,
                -1.9296275633639217,
                1.326084813432191,
                0.01755552774587868,
                0.7040338596871228,
                -1.9014888466225357
            ]
        },
        {
            "positions": [
                0.971550045186935,
                -1.9188790024307736,
                1.1495493842902493,
                0.055542994107901006,
                0.693868000873684,
                -1.8184168187283887
            ]
        },
        {
            "positions": [
                1.0428664033577644,
                -1.9081304414976252,
                0.9730139551483081,
                0.09353046046992328,
                0.6837021420602452,
                -1.7353447908342416
            ]
        },
        {
            "positions": [
                1.1141827615285937,
                -1.897381880564477,
                0.7964785260063669,
                0.13151792683194555,
                0.6735362832468064,
                -1.6522727629400946
            ]
        },
        {
            "positions": [
                1.1854991196994231,
                -1.8866333196313287,
                0.6199430968644255,
                0.16950539319396787,
                0.6633704244333675,
                -1.5692007350459476
            ]
        },
        {
            "positions": [
                1.2568154778702525,
                -1.8758847586981804,
                0.4434076677224841,
                0.20749285955599014,
                0.6532045656199287,
                -1.4861287071518006
            ]
        },
        {
            "positions": [
                1.3281318360410819,
                -1.8651361977650323,
                0.2668722385805431,
                0.24548032591801242,
                0.6430387068064898,
                -1.4030566792576538
            ]
        },
        {
            "positions": [
                1.3994481942119112,
                -1.854387636831884,
                0.09033680943860123,
                0.2834677922800347,
                0.632872847993051,
                -1.3199846513635067
            ]
        },
        {
            "positions": [
                1.4707645523827408,
                -1.8436390758987358,
                -0.0861986197033402,
                0.32145525864205704,
                0.6227069891796121,
                -1.2369126234693597
            ]
        },
        {
            "positions": [
                1.54208091055357,
                -1.8328905149655874,
                -0.2627340488452812,
                0.35944272500407926,
                0.6125411303661733,
                -1.153840595575213
            ]
        },
        {
            "positions": [
                1.6133972687243994,
                -1.822141954032439,
                -0.4392694779872226,
                0.3974301913661016,
                0.6023752715527344,
                -1.0707685676810659
            ]
        },
        {
            "positions": [
                1.684713626895229,
                -1.811393393099291,
                -0.615804907129164,
                0.4354176577281239,
                0.5922094127392956,
                -0.9876965397869188
            ]
        },
        {
            "positions": [
                1.7560299850660581,
                -1.8006448321661426,
                -0.792340336271105,
                0.4734051240901461,
                0.5820435539258568,
                -0.904624511892772
            ]
        },
        {
            "positions": [
                1.8273463432368877,
                -1.7898962712329944,
                -0.9688757654130464,
                0.5113925904521684,
                0.5718776951124179,
                -0.8215524839986248
            ]
        },
        {
            "positions": [
                1.898662701407717,
                -1.779147710299846,
                -1.1454111945549879,
                0.5493800568141908,
                0.561711836298979,
                -0.7384804561044778
            ]
        },
        {
            "positions": [
                1.9699790595785462,
                -1.7683991493666977,
                -1.3219466236969288,
                0.587367523176213,
                0.5515459774855402,
                -0.655408428210331
            ]
        },
        {
            "positions": [
                2.041295417749376,
                -1.7576505884335496,
                -1.4984820528388707,
                0.6253549895382353,
                0.5413801186721015,
                -0.5723364003161839
            ]
        },
        {
            "positions": [
                2.112611775920205,
                -1.7469020275004012,
                -1.6750174819808117,
                0.6633424559002576,
                0.5312142598586626,
                -0.4892643724220369
            ]
        },
        {
            "positions": [
                2.1839281340910346,
                -1.7361534665672531,
                -1.8515529111227527,
                0.7013299222622799,
                0.5210484010452237,
                -0.4061923445278901
            ]
        },
        {
            "positions": [
                2.255244492261864,
                -1.7254049056341048,
                -2.028088340264695,
                0.7393173886243022,
                0.5108825422317849,
                -0.3231203166337431
            ]
        },
        {
            "positions": [
                2.339147307908433,
                -1.8410336605639699,
                -1.9865441817054377,
                0.7913165680966121,
                0.512083504386963,
                -0.2743924091542046
            ]
        },
        {
            "positions": [
                2.423050123555002,
                -1.956662415493835,
                -1.9450000231461804,
                0.8433157475689221,
                0.5132844665421412,
                -0.22566450167466612
            ]
        },
        {
            "positions": [
                2.5069529392015717,
                -2.0722911704237004,
                -1.903455864586923,
                0.8953149270412321,
                0.5144854286973193,
                -0.17693659419512764
            ]
        },
        {
            "positions": [
                2.590855754848141,
                -2.1879199253535653,
                -1.8619117060276658,
                0.9473141065135421,
                0.5156863908524975,
                -0.12820868671558916
            ]
        },
        {
            "positions": [
                2.67475857049471,
                -2.3035486802834306,
                -1.8203675474684085,
                0.999313285985852,
                0.5168873530076756,
                -0.07948077923605068
            ]
        },
        {
            "positions": [
                2.6675265916930577,
                -2.392323426620434,
                -1.7417274946002546,
                1.0029321992501083,
                0.4987734562875281,
                -0.04577373391359462
            ]
        },
        {
            "positions": [
                2.660294612891406,
                -2.481098172957437,
                -1.6630874417321007,
                1.0065511125143645,
                0.48065955956738066,
                -0.012066688591138566
            ]
        }
    ]
}