{
    "goal": {
        "global_pose": {
            "orientation": {
                "w": 0.5084816217422485,
                "x": -0.49083608388900757,
                "y": 0.5182115435600281,
                "z": -0.4816462993621826
            },
            "position": {
                "x": 0.5540239810943604,
                "y": 0.030875300988554955,
                "z": 0.16403168439865112
            }
        },
        "name": "move_to_storage_A"
    },
    "id": "KPIECE_move_to_storage_A_101",
    "joint_names": [
        "shoulder_pan_joint",
        "shoulder_lift_joint",
        "elbow_joint",
        "wrist_1_joint",
        "wrist_2_joint",
        "wrist_3_joint"
    ],
    "metrics": {
        "cart_traj_len": 0.3537241372137305,
        "distance_elbow_joint": 0.45095850932322223,
        "distance_shoulder_lift_joint": 0.23478925551163643,
        "distance_shoulder_pan_joint": 0.46519551285951044,
        "distance_wrist_1_joint": 0.24115850836942754,
        "distance_wrist_2_joint": 1.089395600766889,
        "distance_wrist_3_joint": 0.10013949783666343,
        "smoothness": 6.661338165333112e-16,
        "time": 0.067332261,
        "traj_len": 1.6067472995674674,
        "weighted_distance": 2.0279225797542155
    },
    "planner": "KPIECE",
    "start": {
        "state": {
            "elbow_joint": 1.9715463870305268,
            "shoulder_lift_joint": -1.1394903361783484,
            "shoulder_pan_joint": 0.12281147578464417,
            "wrist_1_joint": -0.7804599489681411,
            "wrist_2_joint": 0.12958660307563738,
            "wrist_3_joint": -3.1924946282119055
        }
    },
    "waypoints": [
        {
            "positions": [
                0.12281147578464417,
                -1.1394903361783484,
                1.9715463870305268,
                -0.7804599489681411,
                0.12958660307563738,
                -3.1924946282119055
            ]
        },
        {
            "positions": [
                0.05635497394757126,
                -1.1730316583942964,
                2.0359690312195586,
                -0.8149111644494879,
                0.2852145460423358,
                -3.1781889856638106
            ]
        },
        {
            "positions": [
                -0.010101527889501652,
                -1.2065729806102445,
                2.10039167540859,
                -0.8493623799308346,
                0.4408424890090342,
                -3.163883343115716
            ]
        },
        {
            "positions": [
                -0.07655802972657456,
                -1.2401143028261925,
                2.164814319597622,
                -0.8838135954121814,
                0.5964704319757327,
                -3.149577700567621
            ]
        },
        {
            "positions": [
                -0.14301453156364746,
                -1.2736556250421407,
                2.229236963786654,
                -0.9182648108935283,
                0.7520983749424311,
                -3.1352720580195266
            ]
        },
        {
            "positions": [
                -0.20947103340072043,
                -1.3071969472580887,
                2.2936596079756857,
                -0.9527160263748751,
                0.9077263179091296,
                -3.1209664154714316
            ]
        },
        {
            "positions": [
                -0.2759275352377933,
                -1.3407382694740368,
                2.358082252164717,
                -0.9871672418562218,
                1.063354260875828,
                -3.106660772923337
            ]
        },
        {
            "positions": [
                -0.34238403707486625,
                -1.3742795916899848,
                2.422504896353749,
                -1.0216184573375686,
                1.2189822038425264,
                -3.092355130375242
            ]
        }
    ]
}