{
    "goal": {
        "global_pose": {
            "orientation": {
                "w": -0.00223480608172531,
                "x": 0.0024358444001904467,
                "y": 0.7094548369677653,
                "z": -0.704743149386269
            },
            "position": {
                "x": 0.6205249238014221,
                "y": -0.6371506643295288,
                "z": 0.19426114857196808
            }
        },
        "name": "move_to_magneteinheit_B"
    },
    "id": "KPIECE_move_to_magneteinheit_B_18",
    "joint_names": [
        "shoulder_pan_joint",
        "shoulder_lift_joint",
        "elbow_joint",
        "wrist_1_joint",
        "wrist_2_joint",
        "wrist_3_joint"
    ],
    "metrics": {
        "cart_traj_len": 3.6848055788079193,
        "distance_elbow_joint": 4.490752197520925,
        "distance_shoulder_lift_joint": 0.6532732032673607,
        "distance_shoulder_pan_joint": 2.4252764298764724,
        "distance_wrist_1_joint": 1.4366116293894415,
        "distance_wrist_2_joint": 1.8905088384684192,
        "distance_wrist_3_joint": 3.169212675398355,
        "smoothness": 0.2070288660805792,
        "time": 0.623986303,
        "traj_len": 3.750417973229247,
        "weighted_distance": 4.871465979823275
    },
    "planner": "KPIECE",
    "start": {
        "state": {
            "elbow_joint": 2.39358713078474,
            "shoulder_lift_joint": -1.908514104345545,
            "shoulder_pan_joint": 0.7066247066606129,
            "wrist_1_joint": -0.4678290933515497,
            "wrist_2_joint": 0.7096259083745334,
            "wrist_3_joint": -3.1358149277392293
        }
    },
    "waypoints": [
        {
            "positions": [
                0.7066247066606129,
                -1.908514104345545,
                2.39358713078474,
                -0.4678290933515497,
                0.7096259083745334,
                -3.1358149277392293
            ]
        },
        {
            "positions": [
                0.6282840274365287,
                -1.9138582112411684,
                2.3583683364748436,
                -0.43213678825606894,
                0.7233020322164018,
                -3.0427763370289895
            ]
        },
        {
            "positions": [
                0.5499433482124444,
                -1.9192023181367919,
                2.323149542164947,
                -0.3964444831605882,
                0.7369781560582701,
                -2.9497377463187497
            ]
        },
        {
            "positions": [
                0.5236355595395672,
                -1.9099458035661028,
                2.217228160309731,
                -0.37510177195081906,
                0.7047840788930743,
                -2.852052613282232
            ]
        },
        {
            "positions": [
                0.49732777086668994,
                -1.9006892889954135,
                2.1113067784545145,
                -0.35375906074104985,
                0.6725900017278783,
                -2.754367480245715
            ]
        },
        {
            "positions": [
                0.4710199821938127,
                -1.8914327744247244,
                2.0053853965992983,
                -0.3324163495312807,
                0.6403959245626825,
                -2.6566823472091974
            ]
        },
        {
            "positions": [
                0.5334465807953516,
                -1.8907210962493588,
                1.8337088987651717,
                -0.3083192183737874,
                0.5942348615242408,
                -2.581385092188423
            ]
        },
        {
            "positions": [
                0.5958731793968903,
                -1.8900094180739933,
                1.6620324009310452,
                -0.28422208721629405,
                0.5480737984857992,
                -2.5060878371676485
            ]
        },
        {
            "positions": [
                0.6582997779984292,
                -1.8892977398986277,
                1.4903559030969187,
                -0.2601249560588007,
                0.5019127354473576,
                -2.4307905821468743
            ]
        },
        {
            "positions": [
                0.7207263765999681,
                -1.8885860617232622,
                1.3186794052627921,
                -0.23602782490130741,
                0.4557516724089159,
                -2.3554933271261
            ]
        },
        {
            "positions": [
                0.783152975201507,
                -1.8878743835478966,
                1.1470029074286656,
                -0.2119306937438141,
                0.40959060937047426,
                -2.2801960721053254
            ]
        },
        {
            "positions": [
                0.8455795738030458,
                -1.8871627053725313,
                0.9753264095945389,
                -0.18783356258632078,
                0.3634295463320326,
                -2.204898817084551
            ]
        },
        {
            "positions": [
                0.9080061724045847,
                -1.8864510271971657,
                0.8036499117604123,
                -0.16373643142882746,
                0.317268483293591,
                -2.129601562063777
            ]
        },
        {
            "positions": [
                0.9704327710061235,
                -1.8857393490218002,
                0.6319734139262858,
                -0.13963930027133414,
                0.27110742025514933,
                -2.0543043070430027
            ]
        },
        {
            "positions": [
                1.0328593696076624,
                -1.8850276708464346,
                0.4602969160921593,
                -0.11554216911384083,
                0.2249463572167077,
                -1.979007052022228
            ]
        },
        {
            "positions": [
                1.0952859682092013,
                -1.884315992671069,
                0.28862041825803275,
                -0.09144503795634751,
                0.17878529417826605,
                -1.9037097970014538
            ]
        },
        {
            "positions": [
                1.1577125668107402,
                -1.8836043144957035,
                0.11694392042390578,
                -0.06734790679885416,
                0.13262423113982436,
                -1.8284125419806794
            ]
        },
        {
            "positions": [
                1.2201391654122788,
                -1.882892636320338,
                -0.05473257741022053,
                -0.04325077564136087,
                0.08646316810138277,
                -1.7531152869599052
            ]
        },
        {
            "positions": [
                1.282565764013818,
                -1.8821809581449724,
                -0.22640907524434706,
                -0.019153644483867527,
                0.040302105062941074,
                -1.6778180319391307
            ]
        },
        {
            "positions": [
                1.3449923626153566,
                -1.881469279969607,
                -0.3980855730784736,
                0.004943486673625763,
                -0.005858957975500512,
                -1.6025207769183565
            ]
        },
        {
            "positions": [
                1.4074189612168955,
                -1.8807576017942413,
                -0.5697620709126006,
                0.02904061783111911,
                -0.05202002101394221,
                -1.527223521897582
            ]
        },
        {
            "positions": [
                1.4698455598184341,
                -1.880045923618876,
                -0.7414385687467266,
                0.0531377489886124,
                -0.0981810840523838,
                -1.4519262668768076
            ]
        },
        {
            "positions": [
                1.532272158419973,
                -1.8793342454435105,
                -0.9131150665808536,
                0.07723488014610574,
                -0.1443421470908255,
                -1.3766290118560331
            ]
        },
        {
            "positions": [
                1.5946987570215119,
                -1.878622567268145,
                -1.0847915644149797,
                0.10133201130359903,
                -0.19050321012926708,
                -1.301331756835259
            ]
        },
        {
            "positions": [
                1.6571253556230507,
                -1.8779108890927794,
                -1.2564680622491067,
                0.12542914246109238,
                -0.23666427316770877,
                -1.2260345018144845
            ]
        },
        {
            "positions": [
                1.7195519542245896,
                -1.8771992109174138,
                -1.4281445600832328,
                0.14952627361858567,
                -0.28282533620615036,
                -1.1507372467937103
            ]
        },
        {
            "positions": [
                1.7819785528261287,
                -1.8764875327420483,
                -1.59982105791736,
                0.173623404776079,
                -0.328986399244592,
                -1.0754399917729358
            ]
        },
        {
            "positions": [
                1.8750020464906638,
                -1.9137288059102666,
                -1.6708595198271083,
                0.2039613215933921,
                -0.31268807352366235,
                -1.0260166122329464
            ]
        },
        {
            "positions": [
                1.9680255401551987,
                -1.950970079078485,
                -1.7418979817368565,
                0.23429923841070516,
                -0.29638974780273264,
                -0.976593232692957
            ]
        },
        {
            "positions": [
                2.061049033819734,
                -1.9882113522467033,
                -1.812936443646605,
                0.26463715522801823,
                -0.28009142208180293,
                -0.9271698531529675
            ]
        },
        {
            "positions": [
                2.154072527484269,
                -2.0254526254149217,
                -1.8839749055563533,
                0.29497507204533135,
                -0.2637930963608733,
                -0.8777464736129781
            ]
        },
        {
            "positions": [
                2.208887006281489,
                -2.0737510059735356,
                -1.8634573223742685,
                0.3638648115924124,
                -0.18821002397836142,
                -0.783231346716837
            ]
        },
        {
            "positions": [
                2.263701485078709,
                -2.12204938653215,
                -1.8429397391921838,
                0.43275455113949346,
                -0.11262695159584957,
                -0.688716219820696
            ]
        },
        {
            "positions": [
                2.3185159638759294,
                -2.170347767090764,
                -1.822422156010099,
                0.5016442906865746,
                -0.03704387921333771,
                -0.594201092924555
            ]
        },
        {
            "positions": [
                2.3733304426731494,
                -2.2186461476493777,
                -1.8019045728280143,
                0.5705340302336557,
                0.038539193169174146,
                -0.499685966028414
            ]
        },
        {
            "positions": [
                2.4281449214703694,
                -2.2669445282079916,
                -1.7813869896459293,
                0.6394237697807367,
                0.11412226555168598,
                -0.4051708391322729
            ]
        },
        {
            "positions": [
                2.48295940026759,
                -2.3152429087666055,
                -1.7608694064638446,
                0.7083135093278178,
                0.18970533793419786,
                -0.310655712236132
            ]
        },
        {
            "positions": [
                2.53777387906481,
                -2.36354128932522,
                -1.7403518232817599,
                0.7772032488748988,
                0.26528841031670974,
                -0.21614058533999092
            ]
        },
        {
            "positions": [
                2.59258835786203,
                -2.411839669883834,
                -1.7198342400996751,
                0.8460929884219799,
                0.34087148269922163,
                -0.12162545844384987
            ]
        },
        {
            "positions": [
                2.626640022732757,
                -2.4440987033536263,
                -1.6953094922380987,
                0.9074377622299356,
                0.4045385594682247,
                -0.0441138553923624
            ]
        },
        {
            "positions": [
                2.6606916876034847,
                -2.4763577368234184,
                -1.6707847443765225,
                0.9687825360378912,
                0.46820563623722783,
                0.03339774765912506
            ]
        }
    ]
}