{
    "goal": {
        "global_pose": {
            "orientation": {
                "w": 0.7031023502349854,
                "x": -0.7110244035720825,
                "y": 0.007748599164187908,
                "z": 0.005598929710686207
            },
            "position": {
                "x": 0.11585023208521307,
                "y": 0.44412534475326537,
                "z": 0.3711530566215515
            }
        },
        "name": "move_to_auspresseinheit_A"
    },
    "id": "KPIECE_move_to_auspresseinheit_A_61",
    "joint_names": [
        "shoulder_pan_joint",
        "shoulder_lift_joint",
        "elbow_joint",
        "wrist_1_joint",
        "wrist_2_joint",
        "wrist_3_joint"
    ],
    "metrics": {
        "cart_traj_len": 0.7656663798785454,
        "distance_elbow_joint": 0.40741826119451474,
        "distance_shoulder_lift_joint": 0.5358453994872394,
        "distance_shoulder_pan_joint": 1.0440551161522655,
        "distance_wrist_1_joint": 2.3101108749522075,
        "distance_wrist_2_joint": 1.7664288490849778,
        "distance_wrist_3_joint": 1.7366589158600676,
        "smoothness": 1.2113172560811138,
        "time": 0.277454958,
        "traj_len": 2.79294063967197,
        "weighted_distance": 3.9179554582063076
    },
    "planner": "KPIECE",
    "start": {
        "state": {
            "elbow_joint": 2.422574709923281,
            "shoulder_lift_joint": -1.3736533754116391,
            "shoulder_pan_joint": -0.33786336945926293,
            "wrist_1_joint": -1.0288603412921917,
            "wrist_2_joint": 1.2330224858903978,
            "wrist_3_joint": -3.094022268022082
        }
    },
    "waypoints": [
        {
            "positions": [
                -0.33786336945926293,
                -1.3736533754116391,
                2.422574709923281,
                -1.0288603412921917,
                1.2330224858903978,
                -3.094022268022082
            ]
        },
        {
            "positions": [
                -0.27766785702494295,
                -1.4038134170222867,
                2.405787689167686,
                -0.9182128346370129,
                1.144876285233988,
                -3.028598175999322
            ]
        },
        {
            "positions": [
                -0.21747234459062303,
                -1.4339734586329342,
                2.3890006684120917,
                -0.807565327981834,
                1.0567300845775784,
                -2.9631740839765617
            ]
        },
        {
            "positions": [
                -0.15727683215630306,
                -1.4641335002435818,
                2.372213647656497,
                -0.6969178213266551,
                0.9685838839211688,
                -2.897749991953801
            ]
        },
        {
            "positions": [
                -0.09708131972198311,
                -1.4942935418542291,
                2.3554266269009023,
                -0.5862703146714763,
                0.8804376832647591,
                -2.832325899931041
            ]
        },
        {
            "positions": [
                -0.036885807287663164,
                -1.5244535834648767,
                2.3386396061453074,
                -0.4756228080162974,
                0.7922914826083495,
                -2.7669018079082806
            ]
        },
        {
            "positions": [
                0.02330970514665681,
                -1.5546136250755243,
                2.321852585389713,
                -0.36497530136111855,
                0.7041452819519398,
                -2.7014777158855203
            ]
        },
        {
            "positions": [
                0.08350521758097668,
                -1.5847736666861718,
                2.305065564634118,
                -0.2543277947059397,
                0.6159990812955303,
                -2.63605362386276
            ]
        },
        {
            "positions": [
                0.1437007300152967,
                -1.6149337082968194,
                2.2882785438785236,
                -0.14368028805076083,
                0.5278528806391205,
                -2.57062953184
            ]
        },
        {
            "positions": [
                0.20389624244961663,
                -1.645093749907467,
                2.2714915231229287,
                -0.03303278139558197,
                0.43970667998271096,
                -2.5052054398172396
            ]
        },
        {
            "positions": [
                0.2640917548839366,
                -1.6752537915181143,
                2.254704502367334,
                0.0776147252595969,
                0.3515604793263012,
                -2.4397813477944794
            ]
        },
        {
            "positions": [
                0.32428726731825647,
                -1.7054138331287618,
                2.2379174816117393,
                0.18826223191477576,
                0.26341427866989164,
                -2.3743572557717187
            ]
        },
        {
            "positions": [
                0.38448277975257655,
                -1.7355738747394094,
                2.221130460856145,
                0.2989097385699546,
                0.17526807801348188,
                -2.3089331637489585
            ]
        },
        {
            "positions": [
                0.44467829218689636,
                -1.765733916350057,
                2.20434344010055,
                0.4095572452251335,
                0.08712187735707237,
                -2.2435090717261983
            ]
        },
        {
            "positions": [
                0.47736747400015966,
                -1.7837045236686597,
                2.227991814022023,
                0.30059558417077326,
                0.16468790742602893,
                -2.354277286671721
            ]
        },
        {
            "positions": [
                0.510056655813423,
                -1.8016751309872623,
                2.251640187943496,
                0.19163392311641297,
                0.24225393749498547,
                -2.465045501617244
            ]
        },
        {
            "positions": [
                0.5427458376266863,
                -1.819645738305865,
                2.275288561864969,
                0.08267226206205269,
                0.31981996756394204,
                -2.575813716562767
            ]
        },
        {
            "positions": [
                0.5754350194399496,
                -1.8376163456244679,
                2.2989369357864415,
                -0.026289398992307533,
                0.3973859976328986,
                -2.6865819315082904
            ]
        },
        {
            "positions": [
                0.6081242012532129,
                -1.8555869529430704,
                2.3225853097079145,
                -0.13525106004666776,
                0.4749520277018552,
                -2.7973501464538133
            ]
        },
        {
            "positions": [
                0.6408133830664761,
                -1.8735575602616732,
                2.3462336836293876,
                -0.2442127211010281,
                0.5525180577708116,
                -2.908118361399336
            ]
        },
        {
            "positions": [
                0.6735025648797394,
                -1.8915281675802758,
                2.3698820575508606,
                -0.3531743821553883,
                0.6300840878397682,
                -3.018886576344859
            ]
        },
        {
            "positions": [
                0.7061917466930027,
                -1.9094987748988785,
                2.3935304314723336,
                -0.46213604320974855,
                0.7076501179087248,
                -3.129654791290382
            ]
        }
    ]
}