{
    "goal": {
        "global_pose": {
            "orientation": {
                "w": -0.00223480608172531,
                "x": 0.0024358444001904467,
                "y": 0.7094548369677653,
                "z": -0.704743149386269
            },
            "position": {
                "x": 0.6205249238014221,
                "y": -0.6371506643295288,
                "z": 0.19426114857196808
            }
        },
        "name": "move_to_magneteinheit_B"
    },
    "id": "KPIECE_move_to_magneteinheit_B_72",
    "joint_names": [
        "shoulder_pan_joint",
        "shoulder_lift_joint",
        "elbow_joint",
        "wrist_1_joint",
        "wrist_2_joint",
        "wrist_3_joint"
    ],
    "metrics": {
        "cart_traj_len": 1.452366811112978,
        "distance_elbow_joint": 0.7290437590767131,
        "distance_shoulder_lift_joint": 1.2481478252350535,
        "distance_shoulder_pan_joint": 1.6208262565498675,
        "distance_wrist_1_joint": 2.60644699141602,
        "distance_wrist_2_joint": 2.9378945114473116,
        "distance_wrist_3_joint": 3.141203776221996,
        "smoothness": 4.844609600361786e-16,
        "time": 0.662536859,
        "traj_len": 3.5047914517053598,
        "weighted_distance": 4.910225267261604
    },
    "planner": "KPIECE",
    "start": {
        "state": {
            "elbow_joint": 2.39358713078474,
            "shoulder_lift_joint": -1.908514104345545,
            "shoulder_pan_joint": 0.7066247066606129,
            "wrist_1_joint": -0.4678290933515497,
            "wrist_2_joint": 0.7096259083745334,
            "wrist_3_joint": -3.1358149277392293
        }
    },
    "waypoints": [
        {
            "positions": [
                0.7066247066606129,
                -1.908514104345545,
                2.39358713078474,
                -0.4678290933515497,
                0.7096259083745334,
                -3.1358149277392293
            ]
        },
        {
            "positions": [
                0.6559738861434296,
                -1.8695094848069496,
                2.3708045133135927,
                -0.3863776248697991,
                0.617816704891805,
                -3.037652309732292
            ]
        },
        {
            "positions": [
                0.6053230656262463,
                -1.830504865268354,
                2.3480218958424457,
                -0.30492615638804843,
                0.5260075014090765,
                -2.9394896917253543
            ]
        },
        {
            "positions": [
                0.5546722451090629,
                -1.7915002457297586,
                2.3252392783712983,
                -0.22347468790629782,
                0.43419829792634795,
                -2.8413270737184173
            ]
        },
        {
            "positions": [
                0.5040214245918795,
                -1.7524956261911633,
                2.302456660900151,
                -0.1420232194245472,
                0.3423890944436195,
                -2.74316445571148
            ]
        },
        {
            "positions": [
                0.45337060407469615,
                -1.7134910066525677,
                2.2796740434290035,
                -0.0605717509427966,
                0.250579890960891,
                -2.6450018377045423
            ]
        },
        {
            "positions": [
                0.4027197835575128,
                -1.6744863871139724,
                2.2568914259578565,
                0.020879717538954068,
                0.15877068747816248,
                -2.5468392196976053
            ]
        },
        {
            "positions": [
                0.3520689630403294,
                -1.635481767575377,
                2.234108808486709,
                0.10233118602070462,
                0.066961483995434,
                -2.448676601690668
            ]
        },
        {
            "positions": [
                0.3014181425231461,
                -1.5964771480367816,
                2.2113261910155617,
                0.1837826545024553,
                -0.024847719487294473,
                -2.3505139836837303
            ]
        },
        {
            "positions": [
                0.25076732200596275,
                -1.557472528498186,
                2.1885435735444143,
                0.26523412298420596,
                -0.11665692297002295,
                -2.252351365676793
            ]
        },
        {
            "positions": [
                0.20011650148877935,
                -1.5184679089595907,
                2.1657609560732674,
                0.3466855914659565,
                -0.20846612645275142,
                -2.1541887476698554
            ]
        },
        {
            "positions": [
                0.14946568097159596,
                -1.4794632894209951,
                2.14297833860212,
                0.4281370599477072,
                -0.30027532993548,
                -2.0560261296629183
            ]
        },
        {
            "positions": [
                0.09881486045441268,
                -1.4404586698823998,
                2.1201957211309725,
                0.5095885284294579,
                -0.3920845334182085,
                -1.9578635116559808
            ]
        },
        {
            "positions": [
                0.048164039937229286,
                -1.4014540503438044,
                2.097413103659825,
                0.5910399969112086,
                -0.48389373690093695,
                -1.8597008936490433
            ]
        },
        {
            "positions": [
                -0.0024867805799541065,
                -1.362449430805209,
                2.074630486188678,
                0.672491465392959,
                -0.5757029403836654,
                -1.761538275642106
            ]
        },
        {
            "positions": [
                -0.05313760109713739,
                -1.3234448112666137,
                2.0518478687175308,
                0.7539429338747097,
                -0.6675121438663939,
                -1.6633756576351688
            ]
        },
        {
            "positions": [
                -0.10378842161432078,
                -1.2844401917280182,
                2.0290652512463834,
                0.8353944023564603,
                -0.7593213473491224,
                -1.5652130396282313
            ]
        },
        {
            "positions": [
                -0.15443924213150417,
                -1.2454355721894226,
                2.0062826337752364,
                0.916845870838211,
                -0.8511305508318509,
                -1.4670504216212938
            ]
        },
        {
            "positions": [
                -0.20509006264868745,
                -1.2064309526508272,
                1.983500016304089,
                0.9982973393199617,
                -0.9429397543145793,
                -1.3688878036143566
            ]
        },
        {
            "positions": [
                -0.25574088316587085,
                -1.1674263331122319,
                1.9607173988329416,
                1.0797488078017121,
                -1.0347489577973077,
                -1.2707251856074193
            ]
        },
        {
            "positions": [
                -0.30639170368305424,
                -1.1284217135736365,
                1.9379347813617942,
                1.1612002762834628,
                -1.1265581612800362,
                -1.1725625676004818
            ]
        },
        {
            "positions": [
                -0.35704252420023763,
                -1.0894170940350412,
                1.915152163890647,
                1.2426517447652135,
                -1.2183673647627646,
                -1.0743999495935443
            ]
        },
        {
            "positions": [
                -0.407693344717421,
                -1.0504124744964456,
                1.8923695464194998,
                1.3241032132469641,
                -1.3101765682454936,
                -0.9762373315866073
            ]
        },
        {
            "positions": [
                -0.4583441652346042,
                -1.0114078549578502,
                1.8695869289483524,
                1.4055546817287148,
                -1.401985771728222,
                -0.8780747135796698
            ]
        },
        {
            "positions": [
                -0.5089949857517876,
                -0.9724032354192548,
                1.8468043114772053,
                1.4870061502104654,
                -1.4937949752109505,
                -0.7799120955727323
            ]
        },
        {
            "positions": [
                -0.559645806268971,
                -0.9333986158806593,
                1.824021694006058,
                1.5684576186922161,
                -1.585604178693679,
                -0.6817494775657948
            ]
        },
        {
            "positions": [
                -0.6102966267861544,
                -0.894393996342064,
                1.8012390765349107,
                1.6499090871739668,
                -1.6774133821764075,
                -0.5835868595588574
            ]
        },
        {
            "positions": [
                -0.6609474473033378,
                -0.8553893768034686,
                1.7784564590637633,
                1.731360555655717,
                -1.769222585659136,
                -0.4854242415519203
            ]
        },
        {
            "positions": [
                -0.7115982678205212,
                -0.816384757264873,
                1.755673841592616,
                1.8128120241374677,
                -1.8610317891418644,
                -0.38726162354498284
            ]
        },
        {
            "positions": [
                -0.7622490883377043,
                -0.7773801377262777,
                1.732891224121469,
                1.8942634926192183,
                -1.9528409926245929,
                -0.28909900553804535
            ]
        },
        {
            "positions": [
                -0.8128999088548877,
                -0.7383755181876823,
                1.7101086066503215,
                1.975714961100969,
                -2.0446501961073213,
                -0.1909363875311083
            ]
        },
        {
            "positions": [
                -0.8635507293720711,
                -0.6993708986490867,
                1.687325989179174,
                2.0571664295827197,
                -2.13645939959005,
                -0.09277376952417082
            ]
        },
        {
            "positions": [
                -0.9142015498892545,
                -0.6603662791104915,
                1.664543371708027,
                2.1386178980644703,
                -2.2282686030727783,
                0.00538884848276683
            ]
        }
    ]
}