{
    "goal": {
        "global_pose": {
            "orientation": {
                "w": -0.00223480608172531,
                "x": 0.0024358444001904467,
                "y": 0.7094548369677653,
                "z": -0.704743149386269
            },
            "position": {
                "x": 0.6205249238014221,
                "y": -0.6371506643295288,
                "z": 0.19426114857196808
            }
        },
        "name": "move_to_magneteinheit_B"
    },
    "id": "KPIECE_move_to_magneteinheit_B_48",
    "joint_names": [
        "shoulder_pan_joint",
        "shoulder_lift_joint",
        "elbow_joint",
        "wrist_1_joint",
        "wrist_2_joint",
        "wrist_3_joint"
    ],
    "metrics": {
        "cart_traj_len": 1.4530627175868343,
        "distance_elbow_joint": 0.7301950205762402,
        "distance_shoulder_lift_joint": 1.2491388236600556,
        "distance_shoulder_pan_joint": 1.6222319221157595,
        "distance_wrist_1_joint": 2.603159962623302,
        "distance_wrist_2_joint": 2.937437460148223,
        "distance_wrist_3_joint": 3.135687562474567,
        "smoothness": 7.216449670233091e-16,
        "time": 1.169955292,
        "traj_len": 3.5039764199546415,
        "weighted_distance": 4.908138475972209
    },
    "planner": "KPIECE",
    "start": {
        "state": {
            "elbow_joint": 2.39358713078474,
            "shoulder_lift_joint": -1.908514104345545,
            "shoulder_pan_joint": 0.7066247066606129,
            "wrist_1_joint": -0.4678290933515497,
            "wrist_2_joint": 0.7096259083745334,
            "wrist_3_joint": -3.1358149277392293
        }
    },
    "waypoints": [
        {
            "positions": [
                0.7066247066606129,
                -1.908514104345545,
                2.39358713078474,
                -0.4678290933515497,
                0.7096259083745334,
                -3.1358149277392293
            ]
        },
        {
            "positions": [
                0.6542946446568788,
                -1.8682193035823174,
                2.3700324527016354,
                -0.3838561913314432,
                0.6148698612729778,
                -3.0346637160465013
            ]
        },
        {
            "positions": [
                0.6019645826531446,
                -1.8279245028190898,
                2.346477774618531,
                -0.2998832893113367,
                0.5201138141714223,
                -2.9335125043537733
            ]
        },
        {
            "positions": [
                0.5496345206494104,
                -1.787629702055862,
                2.3229230965354266,
                -0.21591038729123013,
                0.42535776706986667,
                -2.8323612926610453
            ]
        },
        {
            "positions": [
                0.49730445864567624,
                -1.7473349012926345,
                2.299368418452322,
                -0.13193748527112364,
                0.3306017199683111,
                -2.7312100809683173
            ]
        },
        {
            "positions": [
                0.44497439664194205,
                -1.707040100529407,
                2.2758137403692174,
                -0.0479645832510171,
                0.2358456728667555,
                -2.6300588692755893
            ]
        },
        {
            "positions": [
                0.3926443346382079,
                -1.6667452997661794,
                2.2522590622861127,
                0.03600831876908944,
                0.1410896257651999,
                -2.5289076575828613
            ]
        },
        {
            "positions": [
                0.3403142726344737,
                -1.6264504990029518,
                2.2287043842030085,
                0.11998122078919587,
                0.046333578663644404,
                -2.4277564458901337
            ]
        },
        {
            "positions": [
                0.28798421063073953,
                -1.586155698239724,
                2.205149706119904,
                0.20395412280930242,
                -0.048422468437911204,
                -2.3266052341974057
            ]
        },
        {
            "positions": [
                0.2356541486270053,
                -1.5458608974764965,
                2.1815950280367993,
                0.2879270248294091,
                -0.14317851553946692,
                -2.2254540225046777
            ]
        },
        {
            "positions": [
                0.18332408662327115,
                -1.505566096713269,
                2.1580403499536946,
                0.3718999268495155,
                -0.23793456264102242,
                -2.1243028108119497
            ]
        },
        {
            "positions": [
                0.1309940246195369,
                -1.4652712959500414,
                2.1344856718705905,
                0.45587282886962205,
                -0.332690609742578,
                -2.0231515991192217
            ]
        },
        {
            "positions": [
                0.07866396261580288,
                -1.4249764951868138,
                2.110930993787486,
                0.5398457308897286,
                -0.42744665684413363,
                -1.9220003874264937
            ]
        },
        {
            "positions": [
                0.02633390061206864,
                -1.3846816944235862,
                2.087376315704381,
                0.6238186329098352,
                -0.5222027039456892,
                -1.8208491757337657
            ]
        },
        {
            "positions": [
                -0.025996161391665495,
                -1.3443868936603587,
                2.0638216376212766,
                0.7077915349299415,
                -0.6169587510472446,
                -1.719697964041038
            ]
        },
        {
            "positions": [
                -0.07832622339539974,
                -1.304092092897131,
                2.0402669595381724,
                0.7917644369500483,
                -0.7117147981488005,
                -1.61854675234831
            ]
        },
        {
            "positions": [
                -0.13065628539913388,
                -1.2637972921339033,
                2.0167122814550678,
                0.8757373389701546,
                -0.8064708452503558,
                -1.517395540655582
            ]
        },
        {
            "positions": [
                -0.182986347402868,
                -1.2235024913706758,
                1.9931576033719631,
                0.9597102409902611,
                -0.9012268923519114,
                -1.4162443289628541
            ]
        },
        {
            "positions": [
                -0.23531640940660237,
                -1.183207690607448,
                1.9696029252888585,
                1.043683143010368,
                -0.9959829394534673,
                -1.315093117270126
            ]
        },
        {
            "positions": [
                -0.2876464714103365,
                -1.1429128898442205,
                1.946048247205754,
                1.1276560450304742,
                -1.0907389865550225,
                -1.2139419055773981
            ]
        },
        {
            "positions": [
                -0.33997653341407064,
                -1.102618089080993,
                1.9224935691226497,
                1.2116289470505808,
                -1.1854950336565784,
                -1.1127906938846701
            ]
        },
        {
            "positions": [
                -0.39230659541780477,
                -1.0623232883177653,
                1.898938891039545,
                1.295601849070687,
                -1.2802510807581338,
                -1.011639482191942
            ]
        },
        {
            "positions": [
                -0.4446366574215391,
                -1.0220284875545378,
                1.8753842129564404,
                1.3795747510907939,
                -1.3750071278596896,
                -0.9104882704992141
            ]
        },
        {
            "positions": [
                -0.49696671942527326,
                -0.9817336867913101,
                1.851829534873336,
                1.4635476531109004,
                -1.469763174961245,
                -0.8093370588064861
            ]
        },
        {
            "positions": [
                -0.5492967814290072,
                -0.9414388860280826,
                1.8282748567902316,
                1.547520555131007,
                -1.5645192220628008,
                -0.7081858471137581
            ]
        },
        {
            "positions": [
                -0.6016268434327413,
                -0.9011440852648549,
                1.804720178707127,
                1.6314934571511133,
                -1.6592752691643562,
                -0.6070346354210305
            ]
        },
        {
            "positions": [
                -0.6539569054364757,
                -0.8608492845016273,
                1.7811655006240223,
                1.71546635917122,
                -1.754031316265912,
                -0.5058834237283021
            ]
        },
        {
            "positions": [
                -0.7062869674402098,
                -0.8205544837383998,
                1.757610822540918,
                1.7994392611913264,
                -1.8487873633674674,
                -0.4047322120355745
            ]
        },
        {
            "positions": [
                -0.7586170294439439,
                -0.7802596829751722,
                1.7340561444578135,
                1.8834121632114327,
                -1.9435434104690228,
                -0.3035810003428465
            ]
        },
        {
            "positions": [
                -0.8109470914476781,
                -0.7399648822119447,
                1.710501466374709,
                1.9673850652315394,
                -2.0382994575705786,
                -0.20242978865011851
            ]
        },
        {
            "positions": [
                -0.8632771534514124,
                -0.6996700814487169,
                1.6869467882916043,
                2.051357967251646,
                -2.1330555046721345,
                -0.10127857695739051
            ]
        },
        {
            "positions": [
                -0.9156072154551466,
                -0.6593752806854895,
                1.6633921102084999,
                2.1353308692717525,
                -2.22781155177369,
                -0.00012736526466256592
            ]
        }
    ]
}