{
    "goal": {
        "global_pose": {
            "orientation": {
                "w": -0.00223480608172531,
                "x": 0.0024358444001904467,
                "y": 0.7094548369677653,
                "z": -0.704743149386269
            },
            "position": {
                "x": 0.6205249238014221,
                "y": -0.6371506643295288,
                "z": 0.19426114857196808
            }
        },
        "name": "move_to_magneteinheit_B"
    },
    "id": "KPIECE_move_to_magneteinheit_B_150",
    "joint_names": [
        "shoulder_pan_joint",
        "shoulder_lift_joint",
        "elbow_joint",
        "wrist_1_joint",
        "wrist_2_joint",
        "wrist_3_joint"
    ],
    "metrics": {
        "cart_traj_len": 1.4549109542436653,
        "distance_elbow_joint": 0.732788736127564,
        "distance_shoulder_lift_joint": 1.2487847988626564,
        "distance_shoulder_pan_joint": 1.6196477074096705,
        "distance_wrist_1_joint": 2.61464773739177,
        "distance_wrist_2_joint": 2.953441671202686,
        "distance_wrist_3_joint": 3.130968419950632,
        "smoothness": 4.306319614399981e-16,
        "time": 0.042123146,
        "traj_len": 3.50717536928865,
        "weighted_distance": 4.91226071370817
    },
    "planner": "KPIECE",
    "start": {
        "state": {
            "elbow_joint": 2.39358713078474,
            "shoulder_lift_joint": -1.908514104345545,
            "shoulder_pan_joint": 0.7066247066606129,
            "wrist_1_joint": -0.4678290933515497,
            "wrist_2_joint": 0.7096259083745334,
            "wrist_3_joint": -3.1358149277392293
        }
    },
    "waypoints": [
        {
            "positions": [
                0.7066247066606129,
                -1.908514104345545,
                2.39358713078474,
                -0.4678290933515497,
                0.7096259083745334,
                -3.1358149277392293
            ]
        },
        {
            "positions": [
                0.6560107158040608,
                -1.8694895793810868,
                2.370687482780754,
                -0.3861213515580569,
                0.6173308561494495,
                -3.037972164615772
            ]
        },
        {
            "positions": [
                0.6053967249475085,
                -1.830465054416629,
                2.347787834776767,
                -0.3044136097645641,
                0.5250358039243656,
                -2.9401294014923147
            ]
        },
        {
            "positions": [
                0.5547827340909564,
                -1.791440529452171,
                2.324888186772781,
                -0.22270586797107128,
                0.4327407516992816,
                -2.8422866383688574
            ]
        },
        {
            "positions": [
                0.5041687432344042,
                -1.7524160044877128,
                2.3019885387687946,
                -0.14099812617757845,
                0.34044569947419767,
                -2.7444438752454
            ]
        },
        {
            "positions": [
                0.4535547523778519,
                -1.7133914795232548,
                2.2790888907648084,
                -0.059290384384085626,
                0.24815064724911373,
                -2.6466011121219433
            ]
        },
        {
            "positions": [
                0.40294076152129976,
                -1.674366954558797,
                2.2561892427608217,
                0.022417357409407146,
                0.1558555950240298,
                -2.548758348998486
            ]
        },
        {
            "positions": [
                0.35232677066474755,
                -1.6353424295943388,
                2.2332895947568354,
                0.10412509920289997,
                0.06356054279894585,
                -2.4509155858750287
            ]
        },
        {
            "positions": [
                0.30171277980819533,
                -1.5963179046298808,
                2.210389946752849,
                0.1858328409963928,
                -0.02873450942613809,
                -2.3530728227515714
            ]
        },
        {
            "positions": [
                0.2510987889516431,
                -1.5572933796654227,
                2.1874902987488625,
                0.26754058278988563,
                -0.12102956165122203,
                -2.255230059628114
            ]
        },
        {
            "positions": [
                0.2004847980950909,
                -1.5182688547009648,
                2.164590650744876,
                0.34924832458337846,
                -0.21332461387630597,
                -2.1573872965046568
            ]
        },
        {
            "positions": [
                0.14987080723853874,
                -1.4792443297365068,
                2.14169100274089,
                0.4309560663768713,
                -0.30561966610139,
                -2.0595445333811995
            ]
        },
        {
            "positions": [
                0.09925681638198658,
                -1.440219804772049,
                2.1187913547369037,
                0.512663808170364,
                -0.39791471832647385,
                -1.9617017702577424
            ]
        },
        {
            "positions": [
                0.04864282552543431,
                -1.4011952798075908,
                2.095891706732917,
                0.5943715499638569,
                -0.4902097705515577,
                -1.863859007134285
            ]
        },
        {
            "positions": [
                -0.0019711653311178523,
                -1.3621707548431328,
                2.0729920587289308,
                0.6760792917573497,
                -0.5825048227766417,
                -1.766016244010828
            ]
        },
        {
            "positions": [
                -0.05258515618767012,
                -1.3231462298786747,
                2.0500924107249445,
                0.7577870335508425,
                -0.6747998750017258,
                -1.6681734808873707
            ]
        },
        {
            "positions": [
                -0.10319914704422228,
                -1.2841217049142166,
                2.027192762720958,
                0.8394947753443354,
                -0.7670949272268096,
                -1.5703307177639134
            ]
        },
        {
            "positions": [
                -0.15381313790077444,
                -1.2450971799497588,
                2.0042931147169716,
                0.9212025171378282,
                -0.8593899794518934,
                -1.4724879546404561
            ]
        },
        {
            "positions": [
                -0.20442712875732671,
                -1.2060726549853007,
                1.9813934667129853,
                1.002910258931321,
                -0.9516850316769775,
                -1.3746451915169988
            ]
        },
        {
            "positions": [
                -0.2550411196138789,
                -1.1670481300208428,
                1.9584938187089989,
                1.0846180007248138,
                -1.0439800839020617,
                -1.2768024283935417
            ]
        },
        {
            "positions": [
                -0.30565511047043115,
                -1.1280236050563848,
                1.9355941707050126,
                1.1663257425183067,
                -1.1362751361271455,
                -1.1789596652700844
            ]
        },
        {
            "positions": [
                -0.3562691013269833,
                -1.0889990800919267,
                1.9126945227010261,
                1.2480334843117995,
                -1.2285701883522293,
                -1.0811169021466274
            ]
        },
        {
            "positions": [
                -0.40688309218353547,
                -1.0499745551274686,
                1.8897948746970399,
                1.3297412261052923,
                -1.3208652405773136,
                -0.9832741390231701
            ]
        },
        {
            "positions": [
                -0.4574970830400876,
                -1.0109500301630105,
                1.8668952266930534,
                1.4114489678987852,
                -1.4131602928023974,
                -0.8854313758997128
            ]
        },
        {
            "positions": [
                -0.5081110738966398,
                -0.9719255051985527,
                1.843995578689067,
                1.4931567096922778,
                -1.5054553450274812,
                -0.7875886127762555
            ]
        },
        {
            "positions": [
                -0.5587250647531922,
                -0.9329009802340946,
                1.8210959306850807,
                1.5748644514857708,
                -1.597750397252565,
                -0.6897458496527982
            ]
        },
        {
            "positions": [
                -0.6093390556097443,
                -0.8938764552696365,
                1.7981962826810944,
                1.6565721932792634,
                -1.690045449477649,
                -0.5919030865293409
            ]
        },
        {
            "positions": [
                -0.6599530464662965,
                -0.8548519303051787,
                1.775296634677108,
                1.7382799350727565,
                -1.7823405017027332,
                -0.4940603234058836
            ]
        },
        {
            "positions": [
                -0.7105670373228486,
                -0.8158274053407206,
                1.7523969866731215,
                1.819987676866249,
                -1.874635553927817,
                -0.3962175602824267
            ]
        },
        {
            "positions": [
                -0.7611810281794008,
                -0.7768028803762626,
                1.7294973386691352,
                1.9016954186597421,
                -1.9669306061529008,
                -0.2983747971589694
            ]
        },
        {
            "positions": [
                -0.8117950190359532,
                -0.7377783554118045,
                1.7065976906651488,
                1.9834031604532347,
                -2.059225658377985,
                -0.20053203403551212
            ]
        },
        {
            "positions": [
                -0.8624090098925054,
                -0.6987538304473466,
                1.6836980426611623,
                2.0651109022467278,
                -2.151520710603069,
                -0.10268927091205482
            ]
        },
        {
            "positions": [
                -0.9130230007490576,
                -0.6597293054828886,
                1.660798394657176,
                2.1468186440402204,
                -2.2438157628281528,
                -0.00484650778859749
            ]
        }
    ]
}