{
    "goal": {
        "global_pose": {
            "orientation": {
                "w": 0.7031023502349854,
                "x": -0.7110244035720825,
                "y": 0.007748599164187908,
                "z": 0.005598929710686207
            },
            "position": {
                "x": 0.11585023208521307,
                "y": 0.44412534475326537,
                "z": 0.3711530566215515
            }
        },
        "name": "move_to_auspresseinheit_A"
    },
    "id": "KPIECE_move_to_auspresseinheit_A_29",
    "joint_names": [
        "shoulder_pan_joint",
        "shoulder_lift_joint",
        "elbow_joint",
        "wrist_1_joint",
        "wrist_2_joint",
        "wrist_3_joint"
    ],
    "metrics": {
        "cart_traj_len": 3.001693304278293,
        "distance_elbow_joint": 2.5210247445016094,
        "distance_shoulder_lift_joint": 2.010342003915877,
        "distance_shoulder_pan_joint": 6.307942234658176,
        "distance_wrist_1_joint": 7.932718679284999,
        "distance_wrist_2_joint": 0.5264861068786009,
        "distance_wrist_3_joint": 12.34544405641519,
        "smoothness": 0.4271344688445185,
        "time": 0.584188481,
        "traj_len": 5.625296243368382,
        "weighted_distance": 8.049475183181102
    },
    "planner": "KPIECE",
    "start": {
        "state": {
            "elbow_joint": 2.422574709923281,
            "shoulder_lift_joint": -1.3736533754116391,
            "shoulder_pan_joint": -0.33786336945926293,
            "wrist_1_joint": -1.0288603412921917,
            "wrist_2_joint": 1.2330224858903978,
            "wrist_3_joint": -3.094022268022082
        }
    },
    "waypoints": [
        {
            "positions": [
                -0.33786336945926293,
                -1.3736533754116391,
                2.422574709923281,
                -1.0288603412921917,
                1.2330224858903978,
                -3.094022268022082
            ]
        },
        {
            "positions": [
                -0.40369168705214936,
                -1.4055113021314543,
                2.3907361195216916,
                -0.9227789234455775,
                1.23117602748363,
                -2.94003328587242
            ]
        },
        {
            "positions": [
                -0.46952000464503574,
                -1.4373692288512694,
                2.358897529120102,
                -0.8166975055989634,
                1.2293295690768626,
                -2.7860443037227576
            ]
        },
        {
            "positions": [
                -0.5353483222379222,
                -1.4692271555710847,
                2.3270589387185128,
                -0.7106160877523491,
                1.227483110670095,
                -2.6320553215730955
            ]
        },
        {
            "positions": [
                -0.6011766398308086,
                -1.5010850822908999,
                2.2952203483169233,
                -0.6045346699057349,
                1.2256366522633275,
                -2.4780663394234335
            ]
        },
        {
            "positions": [
                -0.667004957423695,
                -1.532943009010715,
                2.263381757915334,
                -0.4984532520591207,
                1.2237901938565598,
                -2.324077357273771
            ]
        },
        {
            "positions": [
                -0.7328332750165815,
                -1.5648009357305301,
                2.2315431675137445,
                -0.39237183421250654,
                1.2219437354497922,
                -2.170088375124109
            ]
        },
        {
            "positions": [
                -0.7986615926094678,
                -1.5966588624503453,
                2.199704577112155,
                -0.28629041636589236,
                1.2200972770430247,
                -2.0160993929744464
            ]
        },
        {
            "positions": [
                -0.8644899102023542,
                -1.6285167891701606,
                2.1678659867105656,
                -0.18020899851927807,
                1.218250818636257,
                -1.8621104108247843
            ]
        },
        {
            "positions": [
                -0.9303182277952406,
                -1.6603747158899758,
                2.136027396308976,
                -0.0741275806726639,
                1.2164043602294896,
                -1.7081214286751223
            ]
        },
        {
            "positions": [
                -0.9961465453881271,
                -1.692232642609791,
                2.1041888059073868,
                0.031953837173950284,
                1.214557901822722,
                -1.55413244652546
            ]
        },
        {
            "positions": [
                -1.0619748629810135,
                -1.724090569329606,
                2.0723502155057973,
                0.13803525502056457,
                1.2127114434159543,
                -1.4001434643757977
            ]
        },
        {
            "positions": [
                -1.1278031805739,
                -1.7559484960494212,
                2.040511625104208,
                0.24411667286717864,
                1.2108649850091868,
                -1.2461544822261357
            ]
        },
        {
            "positions": [
                -1.1936314981667864,
                -1.7878064227692365,
                2.0086730347026185,
                0.35019809071379293,
                1.2090185266024192,
                -1.0921655000764732
            ]
        },
        {
            "positions": [
                -1.2594598157596728,
                -1.8196643494890516,
                1.976834444301029,
                0.456279508560407,
                1.2071720681956517,
                -0.9381765179268111
            ]
        },
        {
            "positions": [
                -1.3252881333525592,
                -1.8515222762088668,
                1.9449958538994396,
                0.5623609264070213,
                1.205325609788884,
                -0.7841875357771491
            ]
        },
        {
            "positions": [
                -1.3911164509454457,
                -1.8833802029286821,
                1.9131572634978502,
                0.6684423442536356,
                1.2034791513821164,
                -0.6301985536274866
            ]
        },
        {
            "positions": [
                -1.456944768538332,
                -1.9152381296484973,
                1.8813186730962608,
                0.7745237621002496,
                1.201632692975349,
                -0.4762095714778245
            ]
        },
        {
            "positions": [
                -1.5227730861312185,
                -1.9470960563683124,
                1.8494800826946713,
                0.8806051799468639,
                1.1997862345685812,
                -0.32222058932816244
            ]
        },
        {
            "positions": [
                -1.588601403724105,
                -1.9789539830881275,
                1.817641492293082,
                0.986686597793478,
                1.1979397761618138,
                -0.1682316071785004
            ]
        },
        {
            "positions": [
                -1.6544297213169914,
                -2.0108119098079427,
                1.7858029018914925,
                1.0927680156400923,
                1.1960933177550461,
                -0.014242625028837885
            ]
        },
        {
            "positions": [
                -1.7202580389098778,
                -2.042669836527758,
                1.753964311489903,
                1.1988494334867066,
                1.1942468593482785,
                0.13974635712082462
            ]
        },
        {
            "positions": [
                -1.7860863565027643,
                -2.074527763247573,
                1.7221257210883136,
                1.3049308513333209,
                1.192400400941511,
                0.2937353392704867
            ]
        },
        {
            "positions": [
                -1.8519146740956505,
                -2.106385689967388,
                1.6902871306867242,
                1.4110122691799347,
                1.1905539425347433,
                0.4477243214201483
            ]
        },
        {
            "positions": [
                -1.9177429916885371,
                -2.138243616687203,
                1.6584485402851348,
                1.517093687026549,
                1.1887074841279759,
                0.6017133035698108
            ]
        },
        {
            "positions": [
                -1.9835713092814236,
                -2.1701015434070188,
                1.6266099498835453,
                1.6231751048731633,
                1.1868610257212082,
                0.7557022857194733
            ]
        },
        {
            "positions": [
                -2.04939962687431,
                -2.201959470126834,
                1.594771359481956,
                1.7292565227197776,
                1.1850145673144405,
                0.9096912678691358
            ]
        },
        {
            "positions": [
                -2.1152279444671964,
                -2.233817396846649,
                1.5629327690803665,
                1.8353379405663919,
                1.183168108907673,
                1.0636802500187978
            ]
        },
        {
            "positions": [
                -2.1810562620600824,
                -2.265675323566464,
                1.531094178678777,
                1.9414193584130057,
                1.1813216505009054,
                1.21766923216846
            ]
        },
        {
            "positions": [
                -2.246884579652969,
                -2.2975332502862793,
                1.4992555882771876,
                2.04750077625962,
                1.179475192094138,
                1.371658214318122
            ]
        },
        {
            "positions": [
                -2.3127128972458553,
                -2.3293911770060944,
                1.4674169978755982,
                2.1535821941062343,
                1.1776287336873703,
                1.525647196467784
            ]
        },
        {
            "positions": [
                -2.3785412148387417,
                -2.3612491037259096,
                1.4355784074740088,
                2.2596636119528486,
                1.1757822752806026,
                1.679636178617447
            ]
        },
        {
            "positions": [
                -2.444369532431628,
                -2.3931070304457247,
                1.4037398170724193,
                2.365745029799463,
                1.1739358168738352,
                1.833625160767109
            ]
        },
        {
            "positions": [
                -2.5101978500245146,
                -2.42496495716554,
                1.37190122667083,
                2.4718264476460767,
                1.1720893584670675,
                1.9876141429167702
            ]
        },
        {
            "positions": [
                -2.576026167617401,
                -2.456822883885355,
                1.3400626362692405,
                2.577907865492691,
                1.1702429000603,
                2.141603125066433
            ]
        },
        {
            "positions": [
                -2.6418544852102874,
                -2.48868081060517,
                1.308224045867651,
                2.6839892833393053,
                1.1683964416535324,
                2.295592107216095
            ]
        },
        {
            "positions": [
                -2.707682802803174,
                -2.5205387373249852,
                1.2763854554660616,
                2.7900707011859196,
                1.1665499832467647,
                2.4495810893657572
            ]
        },
        {
            "positions": [
                -2.7735111203960603,
                -2.552396664044801,
                1.2445468650644722,
                2.896152119032534,
                1.1647035248399973,
                2.60357007151542
            ]
        },
        {
            "positions": [
                -2.8393394379889467,
                -2.5842545907646155,
                1.2127082746628828,
                3.0022335368791477,
                1.1628570664332296,
                2.7575590536650814
            ]
        },
        {
            "positions": [
                -2.905167755581833,
                -2.616112517484431,
                1.1808696842612934,
                3.1083149547257616,
                1.1610106080264622,
                2.9115480358147443
            ]
        },
        {
            "positions": [
                -2.9709960731747196,
                -2.647970444204246,
                1.149031093859704,
                3.214396372572376,
                1.1591641496196945,
                3.0655370179644064
            ]
        },
        {
            "positions": [
                -2.881366572420019,
                -2.6300186165183126,
                1.1794574628459973,
                3.124409495367,
                1.1481244478975507,
                2.9146617796612673
            ]
        },
        {
            "positions": [
                -2.7917370716653185,
                -2.6120667888323794,
                1.2098838318322909,
                3.0344226181616234,
                1.1370847461754068,
                2.7637865413581286
            ]
        },
        {
            "positions": [
                -2.7021075709106177,
                -2.594114961146446,
                1.2403102008185842,
                2.9444357409562474,
                1.126045044453263,
                2.6129113030549895
            ]
        },
        {
            "positions": [
                -2.612478070155917,
                -2.5761631334605126,
                1.2707365698048778,
                2.8544488637508714,
                1.115005342731119,
                2.4620360647518504
            ]
        },
        {
            "positions": [
                -2.522848569401216,
                -2.558211305774579,
                1.3011629387911712,
                2.764461986545495,
                1.1039656410089753,
                2.3111608264487113
            ]
        },
        {
            "positions": [
                -2.433219068646516,
                -2.540259478088646,
                1.3315893077774648,
                2.674475109340119,
                1.0929259392868313,
                2.1602855881455727
            ]
        },
        {
            "positions": [
                -2.343589567891815,
                -2.522307650402712,
                1.3620156767637583,
                2.584488232134743,
                1.0818862375646876,
                2.0094103498424336
            ]
        },
        {
            "positions": [
                -2.2539600671371143,
                -2.504355822716779,
                1.3924420457500517,
                2.4945013549293664,
                1.0708465358425436,
                1.8585351115392945
            ]
        },
        {
            "positions": [
                -2.1643305663824135,
                -2.4864039950308454,
                1.422868414736345,
                2.4045144777239904,
                1.0598068341203999,
                1.7076598732361556
            ]
        },
        {
            "positions": [
                -2.074701065627713,
                -2.4684521673449122,
                1.4532947837226387,
                2.3145276005186144,
                1.0487671323982561,
                1.5567846349330168
            ]
        },
        {
            "positions": [
                -1.9850715648730124,
                -2.4505003396589786,
                1.4837211527089322,
                2.2245407233132384,
                1.0377274306761122,
                1.4059093966298777
            ]
        },
        {
            "positions": [
                -1.8954420641183118,
                -2.4325485119730454,
                1.5141475216952256,
                2.1345538461078624,
                1.0266877289539684,
                1.255034158326739
            ]
        },
        {
            "positions": [
                -1.805812563363611,
                -2.414596684287112,
                1.544573890681519,
                2.044566968902486,
                1.0156480272318245,
                1.1041589200235997
            ]
        },
        {
            "positions": [
                -1.7161830626089103,
                -2.3966448566011787,
                1.5750002596678125,
                1.9545800916971097,
                1.0046083255096807,
                0.9532836817204609
            ]
        },
        {
            "positions": [
                -1.6265535618542097,
                -2.378693028915245,
                1.605426628654106,
                1.8645932144917337,
                0.9935686237875369,
                0.8024084434173222
            ]
        },
        {
            "positions": [
                -1.536924061099509,
                -2.3607412012293114,
                1.6358529976403995,
                1.7746063372863574,
                0.982528922065393,
                0.6515332051141827
            ]
        },
        {
            "positions": [
                -1.4472945603448084,
                -2.3427893735433782,
                1.6662793666266928,
                1.6846194600809814,
                0.9714892203432491,
                0.500657966811044
            ]
        },
        {
            "positions": [
                -1.3576650595901079,
                -2.3248375458574446,
                1.6967057356129864,
                1.5946325828756052,
                0.9604495186211053,
                0.3497827285079049
            ]
        },
        {
            "positions": [
                -1.268035558835407,
                -2.3068857181715114,
                1.72713210459928,
                1.504645705670229,
                0.9494098168989614,
                0.19890749020476584
            ]
        },
        {
            "positions": [
                -1.1784060580807065,
                -2.288933890485578,
                1.7575584735855734,
                1.414658828464853,
                0.9383701151768176,
                0.04803225190162719
            ]
        },
        {
            "positions": [
                -1.0887765573260058,
                -2.2709820627996447,
                1.7879848425718667,
                1.324671951259477,
                0.9273304134546738,
                -0.1028429864015119
            ]
        },
        {
            "positions": [
                -0.999147056571305,
                -2.253030235113711,
                1.8184112115581603,
                1.2346850740541007,
                0.9162907117325299,
                -0.253718224704651
            ]
        },
        {
            "positions": [
                -0.9095175558166044,
                -2.235078407427778,
                1.848837580544454,
                1.1446981968487244,
                0.9052510100103861,
                -0.4045934630077901
            ]
        },
        {
            "positions": [
                -0.8198880550619041,
                -2.2171265797418442,
                1.8792639495307473,
                1.0547113196433484,
                0.8942113082882422,
                -0.5554687013109283
            ]
        },
        {
            "positions": [
                -0.7302585543072033,
                -2.199174752055911,
                1.9096903185170406,
                0.9647244424379724,
                0.8831716065660984,
                -0.7063439396140674
            ]
        },
        {
            "positions": [
                -0.6406290535525025,
                -2.1812229243699774,
                1.940116687503334,
                0.8747375652325959,
                0.8721319048439545,
                -0.8572191779172069
            ]
        },
        {
            "positions": [
                -0.5509995527978018,
                -2.163271096684044,
                1.9705430564896278,
                0.7847506880272199,
                0.8610922031218107,
                -1.0080944162203456
            ]
        },
        {
            "positions": [
                -0.461370052043101,
                -2.1453192689981107,
                2.000969425475921,
                0.6947638108218435,
                0.8500525013996668,
                -1.1589696545234847
            ]
        },
        {
            "positions": [
                -0.37174055128840067,
                -2.1273674413121775,
                2.0313957944622145,
                0.6047769336164679,
                0.839012799677523,
                -1.3098448928266229
            ]
        },
        {
            "positions": [
                -0.2821110505336999,
                -2.109415613626244,
                2.061822163448508,
                0.5147900564110914,
                0.8279730979553792,
                -1.460720131129762
            ]
        },
        {
            "positions": [
                -0.19248154977899912,
                -2.0914637859403102,
                2.0922485324348017,
                0.4248031792057154,
                0.8169333962332354,
                -1.611595369432902
            ]
        },
        {
            "positions": [
                -0.10285204902429834,
                -2.073511958254377,
                2.122674901421095,
                0.33481630200033896,
                0.8058936945110915,
                -1.762470607736041
            ]
        },
        {
            "positions": [
                -0.013222548269597567,
                -2.0555601305684434,
                2.1531012704073884,
                0.24482942479496295,
                0.7948539927889476,
                -1.9133458460391801
            ]
        },
        {
            "positions": [
                0.07640695248510276,
                -2.0376083028825103,
                2.1835276393936818,
                0.15484254758958693,
                0.7838142910668038,
                -2.0642210843423183
            ]
        },
        {
            "positions": [
                0.1660364532398031,
                -2.0196564751965767,
                2.213954008379975,
                0.06485567038421092,
                0.77277458934466,
                -2.2150963226454574
            ]
        },
        {
            "positions": [
                0.25566595399450387,
                -2.0017046475106435,
                2.244380377366269,
                -0.02513120682116554,
                0.7617348876225161,
                -2.3659715609485965
            ]
        },
        {
            "positions": [
                0.34529545474920464,
                -1.9837528198247099,
                2.2748067463525623,
                -0.11511808402654156,
                0.7506951859003723,
                -2.5168467992517356
            ]
        },
        {
            "positions": [
                0.4349249555039054,
                -1.9658009921387765,
                2.305233115338856,
                -0.20510496123191801,
                0.7396554841782284,
                -2.6677220375548747
            ]
        },
        {
            "positions": [
                0.5245544562586058,
                -1.947849164452843,
                2.3356594843251495,
                -0.2950918384372936,
                0.7286157824560846,
                -2.818597275858013
            ]
        },
        {
            "positions": [
                0.6141839570133065,
                -1.9298973367669097,
                2.366085853311443,
                -0.38507871564267004,
                0.7175760807339407,
                -2.969472514161152
            ]
        },
        {
            "positions": [
                0.7038134577680072,
                -1.9119455090809763,
                2.396512222297736,
                -0.475065592848046,
                0.7065363790117969,
                -3.120347752464291
            ]
        }
    ]
}