{
    "goal": {
        "global_pose": {
            "orientation": {
                "w": -0.00223480608172531,
                "x": 0.0024358444001904467,
                "y": 0.7094548369677653,
                "z": -0.704743149386269
            },
            "position": {
                "x": 0.6205249238014221,
                "y": -0.6371506643295288,
                "z": 0.19426114857196808
            }
        },
        "name": "move_to_magneteinheit_B"
    },
    "id": "KPIECE_move_to_magneteinheit_B_23",
    "joint_names": [
        "shoulder_pan_joint",
        "shoulder_lift_joint",
        "elbow_joint",
        "wrist_1_joint",
        "wrist_2_joint",
        "wrist_3_joint"
    ],
    "metrics": {
        "cart_traj_len": 3.8384184324547737,
        "distance_elbow_joint": 4.624396576885878,
        "distance_shoulder_lift_joint": 1.2272689893610718,
        "distance_shoulder_pan_joint": 3.0580209110688212,
        "distance_wrist_1_joint": 4.627567007873317,
        "distance_wrist_2_joint": 1.3901209389182068,
        "distance_wrist_3_joint": 2.385386139333454,
        "smoothness": 0.6376196765594955,
        "time": 3.259696853,
        "traj_len": 4.160860555635185,
        "weighted_distance": 5.301058459298406
    },
    "planner": "KPIECE",
    "start": {
        "state": {
            "elbow_joint": 2.39358713078474,
            "shoulder_lift_joint": -1.908514104345545,
            "shoulder_pan_joint": 0.7066247066606129,
            "wrist_1_joint": -0.4678290933515497,
            "wrist_2_joint": 0.7096259083745334,
            "wrist_3_joint": -3.1358149277392293
        }
    },
    "waypoints": [
        {
            "positions": [
                0.7066247066606129,
                -1.908514104345545,
                2.39358713078474,
                -0.4678290933515497,
                0.7096259083745334,
                -3.1358149277392293
            ]
        },
        {
            "positions": [
                0.6990657488549263,
                -1.9377311429541269,
                2.373418550178232,
                -0.3243051804195483,
                0.7220133896231682,
                -2.9867031469939254
            ]
        },
        {
            "positions": [
                0.6915067910492397,
                -1.9669481815627088,
                2.353249969571724,
                -0.18078126748754691,
                0.7344008708718028,
                -2.8375913662486214
            ]
        },
        {
            "positions": [
                0.6839478332435531,
                -1.9961652201712907,
                2.333081388965216,
                -0.03725735455554552,
                0.7467883521204376,
                -2.688479585503318
            ]
        },
        {
            "positions": [
                0.6763888754378666,
                -2.0253822587798727,
                2.312912808358708,
                0.10626655837645588,
                0.7591758333690724,
                -2.539367804758014
            ]
        },
        {
            "positions": [
                0.66882991763218,
                -2.054599297388455,
                2.2927442277522,
                0.24979047130845727,
                0.771563314617707,
                -2.39025602401271
            ]
        },
        {
            "positions": [
                0.6612709598264934,
                -2.0838163359970365,
                2.272575647145692,
                0.39331438424045867,
                0.7839507958663418,
                -2.2411442432674065
            ]
        },
        {
            "positions": [
                0.6537120020208068,
                -2.1130333746056182,
                2.252407066539184,
                0.5368382971724601,
                0.7963382771149764,
                -2.0920324625221025
            ]
        },
        {
            "positions": [
                0.6461530442151202,
                -2.1422504132142004,
                2.232238485932676,
                0.6803622101044615,
                0.8087257583636112,
                -1.9429206817767986
            ]
        },
        {
            "positions": [
                0.7296723141773779,
                -2.1264111018659806,
                2.093059316032822,
                0.570385001282953,
                0.7877725384480563,
                -1.9665614463674745
            ]
        },
        {
            "positions": [
                0.8131915841396355,
                -2.1105717905177603,
                1.953880146132968,
                0.4604077924614446,
                0.7668193185325014,
                -1.9902022109581505
            ]
        },
        {
            "positions": [
                0.8967108541018933,
                -2.0947324791695405,
                1.8147009762331139,
                0.35043058363993607,
                0.7458660986169465,
                -2.0138429755488265
            ]
        },
        {
            "positions": [
                0.980230124064151,
                -2.0788931678213207,
                1.67552180633326,
                0.2404533748184276,
                0.7249128787013916,
                -2.0374837401395025
            ]
        },
        {
            "positions": [
                1.0637493940264087,
                -2.063053856473101,
                1.5363426364334059,
                0.13047616599691914,
                0.7039596587858368,
                -2.061124504730178
            ]
        },
        {
            "positions": [
                1.1472686639886662,
                -2.0472145451248807,
                1.3971634665335517,
                0.020498957175410615,
                0.6830064388702819,
                -2.084765269320854
            ]
        },
        {
            "positions": [
                1.230787933950924,
                -2.031375233776661,
                1.2579842966336976,
                -0.0894782516460978,
                0.662053218954727,
                -2.10840603391153
            ]
        },
        {
            "positions": [
                1.3143072039131818,
                -2.015535922428441,
                1.1188051267338437,
                -0.19945546046760632,
                0.6410999990391721,
                -2.132046798502206
            ]
        },
        {
            "positions": [
                1.3978264738754396,
                -1.999696611080221,
                0.9796259568339898,
                -0.3094326692891147,
                0.6201467791236173,
                -2.155687563092882
            ]
        },
        {
            "positions": [
                1.4813457438376971,
                -1.983857299732001,
                0.8404467869341357,
                -0.41940987811062325,
                0.5991935592080624,
                -2.179328327683558
            ]
        },
        {
            "positions": [
                1.5648650137999547,
                -1.9680179883837812,
                0.7012676170342818,
                -0.5293870869321315,
                0.5782403392925075,
                -2.202969092274234
            ]
        },
        {
            "positions": [
                1.6483842837622125,
                -1.9521786770355611,
                0.5620884471344274,
                -0.6393642957536403,
                0.5572871193769525,
                -2.22660985686491
            ]
        },
        {
            "positions": [
                1.7319035537244702,
                -1.9363393656873413,
                0.4229092772345735,
                -0.7493415045751488,
                0.5363338994613976,
                -2.250250621455586
            ]
        },
        {
            "positions": [
                1.8154228236867278,
                -1.9205000543391213,
                0.2837301073347194,
                -0.8593187133966571,
                0.5153806795458428,
                -2.273891386046262
            ]
        },
        {
            "positions": [
                1.8989420936489856,
                -1.9046607429909015,
                0.14455093743486547,
                -0.9692959222181656,
                0.4944274596302879,
                -2.297532150636938
            ]
        },
        {
            "positions": [
                1.9824613636112434,
                -1.8888214316426815,
                0.00537176753501134,
                -1.0792731310396741,
                0.473474239714733,
                -2.3211729152276135
            ]
        },
        {
            "positions": [
                2.065980633573501,
                -1.8729821202944614,
                -0.13380740236484234,
                -1.1892503398611824,
                0.45252101979917814,
                -2.3448136798182895
            ]
        },
        {
            "positions": [
                2.1494999035357587,
                -1.8571428089462416,
                -0.27298657226469647,
                -1.299227548682691,
                0.43156779988362326,
                -2.3684544444089655
            ]
        },
        {
            "positions": [
                2.2330191734980165,
                -1.8413034975980216,
                -0.4121657421645506,
                -1.4092047575041993,
                0.4106145799680684,
                -2.3920952089996415
            ]
        },
        {
            "positions": [
                2.3165384434602743,
                -1.8254641862498018,
                -0.5513449120644047,
                -1.519181966325708,
                0.3896613600525135,
                -2.4157359735903174
            ]
        },
        {
            "positions": [
                2.4000577134225316,
                -1.8096248749015817,
                -0.6905240819642584,
                -1.6291591751472163,
                0.36870814013695863,
                -2.4393767381809934
            ]
        },
        {
            "positions": [
                2.4835769833847894,
                -1.793785563553362,
                -0.8297032518641125,
                -1.7391363839687246,
                0.34775492022140375,
                -2.4630175027716694
            ]
        },
        {
            "positions": [
                2.567096253347047,
                -1.777946252205142,
                -0.9688824217639671,
                -1.8491135927902338,
                0.32680170030584876,
                -2.4866582673623454
            ]
        },
        {
            "positions": [
                2.6506155233093045,
                -1.7621069408569219,
                -1.1080615916638212,
                -1.959090801611742,
                0.3058484803902939,
                -2.5102990319530214
            ]
        },
        {
            "positions": [
                2.7341347932715623,
                -1.746267629508702,
                -1.247240761563675,
                -2.0690680104332504,
                0.284895260474739,
                -2.533939796543697
            ]
        },
        {
            "positions": [
                2.81765406323382,
                -1.730428318160482,
                -1.386419931463529,
                -2.179045219254759,
                0.26394204055918413,
                -2.5575805611343734
            ]
        },
        {
            "positions": [
                2.901173333196078,
                -1.7145890068122622,
                -1.5255991013633832,
                -2.2890224280762674,
                0.24298882064362926,
                -2.581221325725049
            ]
        },
        {
            "positions": [
                2.9846926031583356,
                -1.6987496954640422,
                -1.6647782712632373,
                -2.3989996368977757,
                0.22203560072807438,
                -2.604862090315725
            ]
        },
        {
            "positions": [
                3.0682118731205934,
                -1.6829103841158224,
                -1.8039574411630914,
                -2.5089768457192845,
                0.2010823808125195,
                -2.628502854906401
            ]
        },
        {
            "positions": [
                3.151731143082851,
                -1.6670710727676024,
                -1.9431366110629453,
                -2.6189540545407928,
                0.18012916089696462,
                -2.652143619497077
            ]
        },
        {
            "positions": [
                3.081449550260623,
                -1.741121549917005,
                -1.902040491771775,
                -2.5932312774304997,
                0.08549709068803851,
                -2.721182041732898
            ]
        },
        {
            "positions": [
                3.0111679574383947,
                -1.8151720270664076,
                -1.8609443724806047,
                -2.5675085003202063,
                -0.009134979520887598,
                -2.7902204639687183
            ]
        },
        {
            "positions": [
                2.9408863646161665,
                -1.8892225042158102,
                -1.8198482531894344,
                -2.5417857232099133,
                -0.10376704972981371,
                -2.859258886204539
            ]
        },
        {
            "positions": [
                2.8706047717939382,
                -1.9632729813652128,
                -1.7787521338982641,
                -2.5160629460996202,
                -0.19839911993873982,
                -2.9282973084403596
            ]
        },
        {
            "positions": [
                2.80032317897171,
                -2.0373234585146154,
                -1.7376560146070938,
                -2.490340168989327,
                -0.293031190147666,
                -2.9973357306761805
            ]
        },
        {
            "positions": [
                2.730041586149482,
                -2.1113739356640178,
                -1.6965598953159235,
                -2.4646173918790337,
                -0.38766326035659204,
                -3.066374152912001
            ]
        },
        {
            "positions": [
                2.6597599933272535,
                -2.1854244128134206,
                -1.6554637760247533,
                -2.4388946147687407,
                -0.4822953305655182,
                -3.135412575147822
            ]
        }
    ]
}