{
    "goal": {
        "global_pose": {
            "orientation": {
                "w": 0.7031023502349854,
                "x": -0.7110244035720825,
                "y": 0.007748599164187908,
                "z": 0.005598929710686207
            },
            "position": {
                "x": 0.11585023208521307,
                "y": 0.44412534475326537,
                "z": 0.3711530566215515
            }
        },
        "name": "move_to_auspresseinheit_A"
    },
    "id": "KPIECE_move_to_auspresseinheit_A_6",
    "joint_names": [
        "shoulder_pan_joint",
        "shoulder_lift_joint",
        "elbow_joint",
        "wrist_1_joint",
        "wrist_2_joint",
        "wrist_3_joint"
    ],
    "metrics": {
        "cart_traj_len": 2.556950649291107,
        "distance_elbow_joint": 0.7927507479419171,
        "distance_shoulder_lift_joint": 0.6237628102162263,
        "distance_shoulder_pan_joint": 5.92276160961483,
        "distance_wrist_1_joint": 1.4753421415989916,
        "distance_wrist_2_joint": 0.5350350408173691,
        "distance_wrist_3_joint": 0.1488657348467579,
        "smoothness": 1.2012466216910311,
        "time": 0.328348136,
        "traj_len": 3.081966593757319,
        "weighted_distance": 3.4360772309635257
    },
    "planner": "KPIECE",
    "start": {
        "state": {
            "elbow_joint": 2.422574709923281,
            "shoulder_lift_joint": -1.3736533754116391,
            "shoulder_pan_joint": -0.33786336945926293,
            "wrist_1_joint": -1.0288603412921917,
            "wrist_2_joint": 1.2330224858903978,
            "wrist_3_joint": -3.094022268022082
        }
    },
    "waypoints": [
        {
            "positions": [
                -0.33786336945926293,
                -1.3736533754116391,
                2.422574709923281,
                -1.0288603412921917,
                1.2330224858903978,
                -3.094022268022082
            ]
        },
        {
            "positions": [
                -0.5819987542478117,
                -1.369175122616349,
                2.460748685417518,
                -1.0744418154184041,
                1.2026237581847812,
                -3.1037597741790717
            ]
        },
        {
            "positions": [
                -0.8261341390363603,
                -1.364696869821059,
                2.498922660911755,
                -1.1200232895446167,
                1.1722250304791646,
                -3.1134972803360608
            ]
        },
        {
            "positions": [
                -1.070269523824909,
                -1.360218617025769,
                2.5370966364059924,
                -1.165604763670829,
                1.141826302773548,
                -3.1232347864930503
            ]
        },
        {
            "positions": [
                -1.3144049086134577,
                -1.355740364230479,
                2.5752706119002293,
                -1.2111862377970415,
                1.1114275750679314,
                -3.1329722926500394
            ]
        },
        {
            "positions": [
                -1.5585402934020065,
                -1.351262111435189,
                2.6134445873944663,
                -1.256767711923254,
                1.0810288473623149,
                -3.142709798807029
            ]
        },
        {
            "positions": [
                -1.802675678190555,
                -1.346783858639899,
                2.6516185628887032,
                -1.3023491860494665,
                1.0506301196566983,
                -3.1524473049640185
            ]
        },
        {
            "positions": [
                -2.0468110629791036,
                -1.342305605844609,
                2.68979253838294,
                -1.3479306601756789,
                1.0202313919510817,
                -3.1621848111210076
            ]
        },
        {
            "positions": [
                -2.2909464477676527,
                -1.337827353049319,
                2.7279665138771776,
                -1.3935121343018912,
                0.9898326642454651,
                -3.171922317277997
            ]
        },
        {
            "positions": [
                -2.5350818325562012,
                -1.333349100254029,
                2.7661404893714145,
                -1.4390936084281039,
                0.9594339365398485,
                -3.181659823434986
            ]
        },
        {
            "positions": [
                -2.77921721734475,
                -1.328870847458739,
                2.8043144648656515,
                -1.4846750825543162,
                0.929035208834232,
                -3.1913973295919758
            ]
        },
        {
            "positions": [
                -2.5471233665627935,
                -1.3674695329429607,
                2.776913731999015,
                -1.416706589198525,
                0.913632024583485,
                -3.187964618040185
            ]
        },
        {
            "positions": [
                -2.315029515780837,
                -1.4060682184271824,
                2.749512999132379,
                -1.348738095842734,
                0.8982288403327382,
                -3.184531906488394
            ]
        },
        {
            "positions": [
                -2.082935664998881,
                -1.4446669039114042,
                2.722112266265742,
                -1.2807696024869428,
                0.8828256560819913,
                -3.181099194936603
            ]
        },
        {
            "positions": [
                -1.8508418142169245,
                -1.483265589395626,
                2.6947115333991056,
                -1.2128011091311517,
                0.8674224718312444,
                -3.177666483384812
            ]
        },
        {
            "positions": [
                -1.6187479634349684,
                -1.5218642748798477,
                2.6673108005324693,
                -1.1448326157753606,
                0.8520192875804975,
                -3.174233771833021
            ]
        },
        {
            "positions": [
                -1.3866541126530119,
                -1.5604629603640694,
                2.639910067665833,
                -1.0768641224195694,
                0.8366161033297507,
                -3.17080106028123
            ]
        },
        {
            "positions": [
                -1.1545602618710558,
                -1.5990616458482911,
                2.6125093347991966,
                -1.0088956290637783,
                0.8212129190790037,
                -3.1673683487294393
            ]
        },
        {
            "positions": [
                -0.9224664110890994,
                -1.6376603313325129,
                2.5851086019325598,
                -0.9409271357079872,
                0.8058097348282569,
                -3.163935637177648
            ]
        },
        {
            "positions": [
                -0.6903725603071433,
                -1.6762590168167346,
                2.5577078690659234,
                -0.8729586423521961,
                0.79040655057751,
                -3.160502925625857
            ]
        },
        {
            "positions": [
                -0.458278709525187,
                -1.7148577023009564,
                2.530307136199287,
                -0.8049901489964051,
                0.7750033663267631,
                -3.157070214074066
            ]
        },
        {
            "positions": [
                -0.2261848587432307,
                -1.753456387785178,
                2.5029064033326507,
                -0.737021655640614,
                0.7596001820760162,
                -3.153637502522275
            ]
        },
        {
            "positions": [
                0.00590899203872608,
                -1.7920550732693998,
                2.4755056704660143,
                -0.6690531622848227,
                0.7441969978252694,
                -3.1502047909704842
            ]
        },
        {
            "positions": [
                0.23800284282068196,
                -1.8306537587536216,
                2.4481049375993775,
                -0.6010846689290316,
                0.7287938135745224,
                -3.1467720794186933
            ]
        },
        {
            "positions": [
                0.4700966936026383,
                -1.8692524442378433,
                2.420704204732741,
                -0.5331161755732405,
                0.7133906293237755,
                -3.1433393678669024
            ]
        },
        {
            "positions": [
                0.7021905443845947,
                -1.907851129722065,
                2.393303471866105,
                -0.4651476822174493,
                0.6979874450730287,
                -3.1399066563151115
            ]
        }
    ]
}