{
    "goal": {
        "global_pose": {
            "orientation": {
                "w": 0.7031023502349854,
                "x": -0.7110244035720825,
                "y": 0.007748599164187908,
                "z": 0.005598929710686207
            },
            "position": {
                "x": 0.11585023208521307,
                "y": 0.44412534475326537,
                "z": 0.3711530566215515
            }
        },
        "name": "move_to_auspresseinheit_A"
    },
    "id": "LazyPRM_move_to_auspresseinheit_A_137",
    "joint_names": [
        "shoulder_pan_joint",
        "shoulder_lift_joint",
        "elbow_joint",
        "wrist_1_joint",
        "wrist_2_joint",
        "wrist_3_joint"
    ],
    "metrics": {
        "cart_traj_len": 0.6870390367304071,
        "distance_elbow_joint": 0.028757557668177114,
        "distance_shoulder_lift_joint": 0.536948855278661,
        "distance_shoulder_pan_joint": 1.0788388535016593,
        "distance_wrist_1_joint": 0.563510339045862,
        "distance_wrist_2_joint": 0.5190257217833286,
        "distance_wrist_3_joint": 0.036491709378258186,
        "smoothness": 0.06015288081989212,
        "time": 0.05747339,
        "traj_len": 1.6623997824398156,
        "weighted_distance": 1.979669799800374
    },
    "planner": "LazyPRM",
    "start": {
        "state": {
            "elbow_joint": 2.422574709923281,
            "shoulder_lift_joint": -1.3736533754116391,
            "shoulder_pan_joint": -0.33786336945926293,
            "wrist_1_joint": -1.0288603412921917,
            "wrist_2_joint": 1.2330224858903978,
            "wrist_3_joint": -3.094022268022082
        }
    },
    "waypoints": [
        {
            "positions": [
                -0.33786336945926293,
                -1.3736533754116391,
                2.422574709923281,
                -1.0288603412921917,
                1.2330224858903978,
                -3.094022268022082
            ]
        },
        {
            "positions": [
                -0.34367508062188656,
                -1.4597049958808268,
                2.4207061972031445,
                -0.8583830685231182,
                1.1621989534510255,
                -3.099862366006741
            ]
        },
        {
            "positions": [
                -0.3494867917845102,
                -1.5457566163500147,
                2.4188376844830075,
                -0.6879057957540446,
                1.0913754210116535,
                -3.105702463991399
            ]
        },
        {
            "positions": [
                -0.35529850294713383,
                -1.6318082368192024,
                2.416969171762871,
                -0.5174285229849711,
                1.0205518885722813,
                -3.1115425619760577
            ]
        },
        {
            "positions": [
                -0.14301775894437613,
                -1.687567035593422,
                2.4123387678613177,
                -0.5070128188372428,
                0.9592408636792389,
                -3.1153368450609142
            ]
        },
        {
            "positions": [
                0.06926298505838158,
                -1.7433258343676414,
                2.407708363959764,
                -0.49659711468951456,
                0.8979298387861965,
                -3.1191311281457708
            ]
        },
        {
            "positions": [
                0.2815437290611392,
                -1.799084633141861,
                2.403077960058211,
                -0.4861814105417863,
                0.8366188138931541,
                -3.1229254112306273
            ]
        },
        {
            "positions": [
                0.493824473063897,
                -1.8548434319160805,
                2.398447556156657,
                -0.475765706394058,
                0.7753077890001115,
                -3.126719694315484
            ]
        },
        {
            "positions": [
                0.7061052170666545,
                -1.9106022306903,
                2.393817152255104,
                -0.4653500022463298,
                0.7139967641070691,
                -3.1305139774003403
            ]
        }
    ]
}