{
    "goal": {
        "global_pose": {
            "orientation": {
                "w": 0.7031023502349854,
                "x": -0.7110244035720825,
                "y": 0.007748599164187908,
                "z": 0.005598929710686207
            },
            "position": {
                "x": 0.11585023208521307,
                "y": 0.44412534475326537,
                "z": 0.3711530566215515
            }
        },
        "name": "move_to_auspresseinheit_A"
    },
    "id": "LazyPRMstar_move_to_auspresseinheit_A_119",
    "joint_names": [
        "shoulder_pan_joint",
        "shoulder_lift_joint",
        "elbow_joint",
        "wrist_1_joint",
        "wrist_2_joint",
        "wrist_3_joint"
    ],
    "metrics": {
        "cart_traj_len": 0.6690371699889717,
        "distance_elbow_joint": 0.06365472107908676,
        "distance_shoulder_lift_joint": 0.5352292761431507,
        "distance_shoulder_pan_joint": 1.047049904068671,
        "distance_wrist_1_joint": 0.5660144039513337,
        "distance_wrist_2_joint": 1.046530633120732,
        "distance_wrist_3_joint": 0.5892167857671851,
        "smoothness": 0.9185925136632446,
        "time": 5.015626143,
        "traj_len": 1.96155441528655,
        "weighted_distance": 2.576562503169018
    },
    "planner": "LazyPRMstar",
    "start": {
        "state": {
            "elbow_joint": 2.422574709923281,
            "shoulder_lift_joint": -1.3736533754116391,
            "shoulder_pan_joint": -0.33786336945926293,
            "wrist_1_joint": -1.0288603412921917,
            "wrist_2_joint": 1.2330224858903978,
            "wrist_3_joint": -3.094022268022082
        }
    },
    "waypoints": [
        {
            "positions": [
                -0.33786336945926293,
                -1.3736533754116391,
                2.422574709923281,
                -1.0288603412921917,
                1.2330224858903978,
                -3.094022268022082
            ]
        },
        {
            "positions": [
                -0.26513637026879405,
                -1.4459111240619285,
                2.425483119561485,
                -0.9676696431871,
                1.102905252100635,
                -3.048172471183218
            ]
        },
        {
            "positions": [
                -0.1924093710783252,
                -1.5181688727122176,
                2.428391529199689,
                -0.9064789450820084,
                0.9727880183108725,
                -3.002322674344353
            ]
        },
        {
            "positions": [
                -0.11968237188785633,
                -1.590426621362507,
                2.431299938837893,
                -0.8452882469769167,
                0.8426707845211099,
                -2.956472877505489
            ]
        },
        {
            "positions": [
                -0.046955372697387476,
                -1.662684370012796,
                2.4342083484760964,
                -0.7840975488718251,
                0.7125535507313472,
                -2.9106230806666247
            ]
        },
        {
            "positions": [
                0.0257716264930814,
                -1.7349421186630853,
                2.4371167581143003,
                -0.7229068507667333,
                0.5824363169415845,
                -2.86477328382776
            ]
        },
        {
            "positions": [
                0.09849862568355028,
                -1.8071998673133747,
                2.440025167752504,
                -0.6617161526616417,
                0.4523190831518219,
                -2.8189234869888957
            ]
        },
        {
            "positions": [
                0.2511706029150147,
                -1.8326205633737285,
                2.428474101940038,
                -0.6119985988314458,
                0.518775890747361,
                -2.8974529881723954
            ]
        },
        {
            "positions": [
                0.40384258014647906,
                -1.8580412594340823,
                2.4169230361275726,
                -0.5622810450012499,
                0.5852326983428999,
                -2.975982489355895
            ]
        },
        {
            "positions": [
                0.5565145573779434,
                -1.883461955494436,
                2.4053719703151066,
                -0.5125634911710539,
                0.651689505938439,
                -3.0545119905393947
            ]
        },
        {
            "positions": [
                0.7091865346094078,
                -1.9088826515547899,
                2.3938209045026406,
                -0.46284593734085805,
                0.7181463135339781,
                -3.1330414917228944
            ]
        }
    ]
}