{
    "goal": {
        "global_pose": {
            "orientation": {
                "w": 0.5084816217422485,
                "x": -0.49083608388900757,
                "y": 0.5182115435600281,
                "z": -0.4816462993621826
            },
            "position": {
                "x": 0.5540239810943604,
                "y": 0.030875300988554955,
                "z": 0.16403168439865112
            }
        },
        "name": "move_to_storage_A"
    },
    "id": "LazyPRMstar_move_to_storage_A_112",
    "joint_names": [
        "shoulder_pan_joint",
        "shoulder_lift_joint",
        "elbow_joint",
        "wrist_1_joint",
        "wrist_2_joint",
        "wrist_3_joint"
    ],
    "metrics": {
        "cart_traj_len": 0.3530894586832404,
        "distance_elbow_joint": 0.4507245551775667,
        "distance_shoulder_lift_joint": 0.2326420473942874,
        "distance_shoulder_pan_joint": 0.45762255313077765,
        "distance_wrist_1_joint": 0.24805410564279218,
        "distance_wrist_2_joint": 1.1157593320457222,
        "distance_wrist_3_joint": 0.09655163735883798,
        "smoothness": 4.440892098500626e-16,
        "time": 5.0005974339999995,
        "traj_len": 1.6128714241222033,
        "weighted_distance": 2.0391838914517186
    },
    "planner": "LazyPRMstar",
    "start": {
        "state": {
            "elbow_joint": 1.9715463870305268,
            "shoulder_lift_joint": -1.1394903361783484,
            "shoulder_pan_joint": 0.12281147578464417,
            "wrist_1_joint": -0.7804599489681411,
            "wrist_2_joint": 0.12958660307563738,
            "wrist_3_joint": -3.1924946282119055
        }
    },
    "waypoints": [
        {
            "positions": [
                0.12281147578464417,
                -1.1394903361783484,
                1.9715463870305268,
                -0.7804599489681411,
                0.12958660307563738,
                -3.1924946282119055
            ]
        },
        {
            "positions": [
                0.057436825337390224,
                -1.1727249143775322,
                2.0359356091987504,
                -0.8158962497742542,
                0.2889807933678834,
                -3.178701537160643
            ]
        },
        {
            "positions": [
                -0.007937825109863725,
                -1.2059594925767163,
                2.1003248313669745,
                -0.8513325505803674,
                0.4483749836601294,
                -3.1649084461093806
            ]
        },
        {
            "positions": [
                -0.07331247555711766,
                -1.2391940707759002,
                2.164714053535198,
                -0.8867688513864805,
                0.6077691739523754,
                -3.151115355058118
            ]
        },
        {
            "positions": [
                -0.1386871260043716,
                -1.272428648975084,
                2.229103275703422,
                -0.9222051521925938,
                0.7671633642446215,
                -3.137322264006855
            ]
        },
        {
            "positions": [
                -0.2040617764516256,
                -1.3056632271742679,
                2.2934924978716458,
                -0.957641452998707,
                0.9265575545368676,
                -3.1235291729555925
            ]
        },
        {
            "positions": [
                -0.2694364268988795,
                -1.338897805373452,
                2.3578817200398694,
                -0.9930777538048201,
                1.0859517448291134,
                -3.1097360819043303
            ]
        },
        {
            "positions": [
                -0.33481107734613347,
                -1.3721323835726358,
                2.4222709422080935,
                -1.0285140546109333,
                1.2453459351213596,
                -3.0959429908530676
            ]
        }
    ]
}