{
    "goal": {
        "global_pose": {
            "orientation": {
                "w": 0.7031023502349854,
                "x": -0.7110244035720825,
                "y": 0.007748599164187908,
                "z": 0.005598929710686207
            },
            "position": {
                "x": 0.11585023208521307,
                "y": 0.44412534475326537,
                "z": 0.3711530566215515
            }
        },
        "name": "move_to_auspresseinheit_A"
    },
    "id": "LazyPRMstar_move_to_auspresseinheit_A_33",
    "joint_names": [
        "shoulder_pan_joint",
        "shoulder_lift_joint",
        "elbow_joint",
        "wrist_1_joint",
        "wrist_2_joint",
        "wrist_3_joint"
    ],
    "metrics": {
        "cart_traj_len": 0.6675281509200663,
        "distance_elbow_joint": 0.10585444692479884,
        "distance_shoulder_lift_joint": 0.5330755593330696,
        "distance_shoulder_pan_joint": 1.0466518895656969,
        "distance_wrist_1_joint": 0.5616434674460856,
        "distance_wrist_2_joint": 0.7895513487672764,
        "distance_wrist_3_joint": 0.30162829651551704,
        "smoothness": 0.6204940957308406,
        "time": 5.005664172,
        "traj_len": 1.8271302658957964,
        "weighted_distance": 2.300620876588935
    },
    "planner": "LazyPRMstar",
    "start": {
        "state": {
            "elbow_joint": 2.422574709923281,
            "shoulder_lift_joint": -1.3736533754116391,
            "shoulder_pan_joint": -0.33786336945926293,
            "wrist_1_joint": -1.0288603412921917,
            "wrist_2_joint": 1.2330224858903978,
            "wrist_3_joint": -3.094022268022082
        }
    },
    "waypoints": [
        {
            "positions": [
                -0.33786336945926293,
                -1.3736533754116391,
                2.422574709923281,
                -1.0288603412921917,
                1.2330224858903978,
                -3.094022268022082
            ]
        },
        {
            "positions": [
                -0.3054404228070286,
                -1.4529747195732818,
                2.4289161212248387,
                -0.9507072037737919,
                1.123887659574265,
                -3.1226954466136547
            ]
        },
        {
            "positions": [
                -0.2730174761547943,
                -1.5322960637349246,
                2.4352575325263963,
                -0.8725540662553921,
                1.0147528332581324,
                -3.1513686252052273
            ]
        },
        {
            "positions": [
                -0.24059452950255997,
                -1.6116174078965675,
                2.441598943827954,
                -0.7944009287369923,
                0.9056180069419997,
                -3.1800418037968
            ]
        },
        {
            "positions": [
                -0.20817158285032566,
                -1.69093875205821,
                2.4479403551295116,
                -0.7162477912185925,
                0.796483180625867,
                -3.208714982388372
            ]
        },
        {
            "positions": [
                -0.1757486361980913,
                -1.770260096219853,
                2.454281766431069,
                -0.6380946537001927,
                0.6873483543097342,
                -3.2373881609799446
            ]
        },
        {
            "positions": [
                -0.143325689545857,
                -1.8495814403814956,
                2.460623177732627,
                -0.5599415161817929,
                0.5782135279936015,
                -3.2660613395715172
            ]
        },
        {
            "positions": [
                0.06970286286721569,
                -1.863868313972299,
                2.4436716829537635,
                -0.5367603555978712,
                0.6118991257112215,
                -3.2336640333299966
            ]
        },
        {
            "positions": [
                0.2827314152802884,
                -1.8781551875631022,
                2.4267201881749,
                -0.5135791950139494,
                0.6455847234288415,
                -3.201266727088476
            ]
        },
        {
            "positions": [
                0.49575996769336106,
                -1.8924420611539055,
                2.409768693396037,
                -0.4903980344300278,
                0.6792703211464616,
                -3.168869420846956
            ]
        },
        {
            "positions": [
                0.7087885201064338,
                -1.9067289347447087,
                2.392817198617174,
                -0.46721687384610605,
                0.7129559188640816,
                -3.1364721146054353
            ]
        }
    ]
}