{
    "goal": {
        "global_pose": {
            "orientation": {
                "w": 0.7031023502349854,
                "x": -0.7110244035720825,
                "y": 0.007748599164187908,
                "z": 0.005598929710686207
            },
            "position": {
                "x": 0.11585023208521307,
                "y": 0.44412534475326537,
                "z": 0.3711530566215515
            }
        },
        "name": "move_to_auspresseinheit_A"
    },
    "id": "LazyPRMstar_move_to_auspresseinheit_A_131",
    "joint_names": [
        "shoulder_pan_joint",
        "shoulder_lift_joint",
        "elbow_joint",
        "wrist_1_joint",
        "wrist_2_joint",
        "wrist_3_joint"
    ],
    "metrics": {
        "cart_traj_len": 0.6693144110643297,
        "distance_elbow_joint": 0.29635771314862813,
        "distance_shoulder_lift_joint": 0.5357877640423092,
        "distance_shoulder_pan_joint": 1.0434693105008046,
        "distance_wrist_1_joint": 0.5656616663082987,
        "distance_wrist_2_joint": 0.750949772477128,
        "distance_wrist_3_joint": 0.2220415294787923,
        "smoothness": 0.711697218887104,
        "time": 5.007966724,
        "traj_len": 1.8477737296422312,
        "weighted_distance": 2.274854336809057
    },
    "planner": "LazyPRMstar",
    "start": {
        "state": {
            "elbow_joint": 2.422574709923281,
            "shoulder_lift_joint": -1.3736533754116391,
            "shoulder_pan_joint": -0.33786336945926293,
            "wrist_1_joint": -1.0288603412921917,
            "wrist_2_joint": 1.2330224858903978,
            "wrist_3_joint": -3.094022268022082
        }
    },
    "waypoints": [
        {
            "positions": [
                -0.33786336945926293,
                -1.3736533754116391,
                2.422574709923281,
                -1.0288603412921917,
                1.2330224858903978,
                -3.094022268022082
            ]
        },
        {
            "positions": [
                -0.26045821076983566,
                -1.4972599185248463,
                2.4670907303648346,
                -1.0094687072845985,
                1.2701611496288245,
                -3.064525191097361
            ]
        },
        {
            "positions": [
                -0.18305305208040837,
                -1.6208664616380533,
                2.5116067508063886,
                -0.9900770732770051,
                1.3072998133672513,
                -3.03502811417264
            ]
        },
        {
            "positions": [
                -0.10564789339098109,
                -1.7444730047512604,
                2.556122771247942,
                -0.9706854392694118,
                1.344438477105678,
                -3.005531037247919
            ]
        },
        {
            "positions": [
                0.010245511527950765,
                -1.7680398811373588,
                2.532864249558804,
                -0.8981873300857662,
                1.2530765083539857,
                -3.0246096513485803
            ]
        },
        {
            "positions": [
                0.12613891644688263,
                -1.7916067575234569,
                2.509605727869666,
                -0.8256892209021207,
                1.161714539602293,
                -3.0436882654492416
            ]
        },
        {
            "positions": [
                0.24203232136581448,
                -1.8151736339095552,
                2.4863472061805276,
                -0.7531911117184752,
                1.0703525708506005,
                -3.062766879549903
            ]
        },
        {
            "positions": [
                0.35792572628474634,
                -1.8387405102956536,
                2.4630886844913897,
                -0.6806930025348297,
                0.9789906020989081,
                -3.081845493650564
            ]
        },
        {
            "positions": [
                0.4738191312036782,
                -1.8623073866817519,
                2.4398301628022514,
                -0.608194893351184,
                0.8876286333472154,
                -3.1009241077512253
            ]
        },
        {
            "positions": [
                0.58971253612261,
                -1.88587426306785,
                2.4165716411131135,
                -0.5356967841675386,
                0.796266664595523,
                -3.1200027218518867
            ]
        },
        {
            "positions": [
                0.7056059410415418,
                -1.9094411394539483,
                2.393313119423975,
                -0.46319867498389294,
                0.7049046958438304,
                -3.139081335952548
            ]
        }
    ]
}