{
    "goal": {
        "global_pose": {
            "orientation": {
                "w": 0.7031023502349854,
                "x": -0.7110244035720825,
                "y": 0.007748599164187908,
                "z": 0.005598929710686207
            },
            "position": {
                "x": 0.11585023208521307,
                "y": 0.44412534475326537,
                "z": 0.3711530566215515
            }
        },
        "name": "move_to_auspresseinheit_A"
    },
    "id": "LazyPRMstar_move_to_auspresseinheit_A_95",
    "joint_names": [
        "shoulder_pan_joint",
        "shoulder_lift_joint",
        "elbow_joint",
        "wrist_1_joint",
        "wrist_2_joint",
        "wrist_3_joint"
    ],
    "metrics": {
        "cart_traj_len": 0.6722212057291304,
        "distance_elbow_joint": 0.06660985643477124,
        "distance_shoulder_lift_joint": 0.5369800730060648,
        "distance_shoulder_pan_joint": 1.0439940119632536,
        "distance_wrist_1_joint": 0.7885104392907029,
        "distance_wrist_2_joint": 0.5268299895846059,
        "distance_wrist_3_joint": 0.11252988523498786,
        "smoothness": 0.5322967057695708,
        "time": 5.0137772730000005,
        "traj_len": 1.753697310117794,
        "weighted_distance": 2.148453968522405
    },
    "planner": "LazyPRMstar",
    "start": {
        "state": {
            "elbow_joint": 2.422574709923281,
            "shoulder_lift_joint": -1.3736533754116391,
            "shoulder_pan_joint": -0.33786336945926293,
            "wrist_1_joint": -1.0288603412921917,
            "wrist_2_joint": 1.2330224858903978,
            "wrist_3_joint": -3.094022268022082
        }
    },
    "waypoints": [
        {
            "positions": [
                -0.33786336945926293,
                -1.3736533754116391,
                2.422574709923281,
                -1.0288603412921917,
                1.2330224858903978,
                -3.094022268022082
            ]
        },
        {
            "positions": [
                -0.2388508775254211,
                -1.4383613662484485,
                2.4148012054850247,
                -0.917072059112567,
                1.1561439162008862,
                -3.0874380914969204
            ]
        },
        {
            "positions": [
                -0.1398383855915793,
                -1.5030693570852578,
                2.407027701046769,
                -0.8052837769329422,
                1.0792653465113744,
                -3.080853914971759
            ]
        },
        {
            "positions": [
                -0.04082589365773748,
                -1.5677773479220671,
                2.3992541966085126,
                -0.6934954947533173,
                1.0023867768218628,
                -3.0742697384465973
            ]
        },
        {
            "positions": [
                0.05818659827610434,
                -1.6324853387588765,
                2.3914806921702563,
                -0.5817072125736925,
                0.9255082071323513,
                -3.0676855619214356
            ]
        },
        {
            "positions": [
                0.15719909020994616,
                -1.6971933295956858,
                2.3837071877320004,
                -0.4699189303940676,
                0.8486296374428395,
                -3.0611013853962743
            ]
        },
        {
            "positions": [
                0.256211582143788,
                -1.7619013204324951,
                2.375933683293744,
                -0.35813064821444285,
                0.7717510677533279,
                -3.0545172088711126
            ]
        },
        {
            "positions": [
                0.4061846022638555,
                -1.8114786964275646,
                2.3825899598954887,
                -0.3973908969520942,
                0.7498982106041492,
                -3.078858817565785
            ]
        },
        {
            "positions": [
                0.5561576223839231,
                -1.8610560724226344,
                2.3892462364972338,
                -0.4366511456897455,
                0.7280453534549706,
                -3.1032004262604582
            ]
        },
        {
            "positions": [
                0.7061306425039906,
                -1.9106334484177039,
                2.3959025130989784,
                -0.47591139442739683,
                0.7061924963057918,
                -3.127542034955131
            ]
        }
    ]
}