{
    "goal": {
        "global_pose": {
            "orientation": {
                "w": 0.5084816217422485,
                "x": -0.49083608388900757,
                "y": 0.5182115435600281,
                "z": -0.4816462993621826
            },
            "position": {
                "x": 0.5540239810943604,
                "y": 0.030875300988554955,
                "z": 0.16403168439865112
            }
        },
        "name": "move_to_storage_A"
    },
    "id": "LazyPRMstar_move_to_storage_A_105",
    "joint_names": [
        "shoulder_pan_joint",
        "shoulder_lift_joint",
        "elbow_joint",
        "wrist_1_joint",
        "wrist_2_joint",
        "wrist_3_joint"
    ],
    "metrics": {
        "cart_traj_len": 0.35346080027768634,
        "distance_elbow_joint": 0.4489530078726216,
        "distance_shoulder_lift_joint": 0.23558151733598343,
        "distance_shoulder_pan_joint": 0.46072504283033383,
        "distance_wrist_1_joint": 0.23632993536187874,
        "distance_wrist_2_joint": 1.1064290411477575,
        "distance_wrist_3_joint": 0.09778790337482679,
        "smoothness": 4.440892098500626e-16,
        "time": 5.000070772,
        "traj_len": 1.6080442928984893,
        "weighted_distance": 2.030798175886194
    },
    "planner": "LazyPRMstar",
    "start": {
        "state": {
            "elbow_joint": 1.9715463870305268,
            "shoulder_lift_joint": -1.1394903361783484,
            "shoulder_pan_joint": 0.12281147578464417,
            "wrist_1_joint": -0.7804599489681411,
            "wrist_2_joint": 0.12958660307563738,
            "wrist_3_joint": -3.1924946282119055
        }
    },
    "waypoints": [
        {
            "positions": [
                0.12281147578464417,
                -1.1394903361783484,
                1.9715463870305268,
                -0.7804599489681411,
                0.12958660307563738,
                -3.1924946282119055
            ]
        },
        {
            "positions": [
                0.05699361252316791,
                -1.1731448386549175,
                2.0356825310123297,
                -0.8142213683055524,
                0.2876478946681742,
                -3.1785249277297876
            ]
        },
        {
            "positions": [
                -0.00882425073830835,
                -1.2067993411314866,
                2.099818674994133,
                -0.8479827876429635,
                0.445709186260711,
                -3.164555227247669
            ]
        },
        {
            "positions": [
                -0.07464211399978461,
                -1.2404538436080557,
                2.163954818975936,
                -0.8817442069803748,
                0.6037704778532478,
                -3.150585526765551
            ]
        },
        {
            "positions": [
                -0.14045997726126086,
                -1.2741083460846245,
                2.2280909629577392,
                -0.9155056263177861,
                0.7618317694457846,
                -3.136615826283433
            ]
        },
        {
            "positions": [
                -0.20627784052273712,
                -1.3077628485611936,
                2.292227106939542,
                -0.9492670456551973,
                0.9198930610383214,
                -3.122646125801315
            ]
        },
        {
            "positions": [
                -0.2720957037842134,
                -1.3414173510377627,
                2.356363250921345,
                -0.9830284649926085,
                1.0779543526308581,
                -3.1086764253191967
            ]
        },
        {
            "positions": [
                -0.33791356704568964,
                -1.3750718535143318,
                2.4204993949031484,
                -1.0167898843300198,
                1.236015644223395,
                -3.0947067248370788
            ]
        }
    ]
}