{
    "goal": {
        "global_pose": {
            "orientation": {
                "w": 0.5084816217422485,
                "x": -0.49083608388900757,
                "y": 0.5182115435600281,
                "z": -0.4816462993621826
            },
            "position": {
                "x": 0.5540239810943604,
                "y": 0.030875300988554955,
                "z": 0.16403168439865112
            }
        },
        "name": "move_to_storage_A"
    },
    "id": "LazyPRMstar_move_to_storage_A_138",
    "joint_names": [
        "shoulder_pan_joint",
        "shoulder_lift_joint",
        "elbow_joint",
        "wrist_1_joint",
        "wrist_2_joint",
        "wrist_3_joint"
    ],
    "metrics": {
        "cart_traj_len": 0.35324814745096206,
        "distance_elbow_joint": 0.45102125770146984,
        "distance_shoulder_lift_joint": 0.23643650639072966,
        "distance_shoulder_pan_joint": 0.46328504324770725,
        "distance_wrist_1_joint": 0.24243213542715225,
        "distance_wrist_2_joint": 1.094533331500676,
        "distance_wrist_3_joint": 0.10700975135345203,
        "smoothness": 0.0,
        "time": 5.000305428,
        "traj_len": 1.6108128462429108,
        "weighted_distance": 2.036099947265831
    },
    "planner": "LazyPRMstar",
    "start": {
        "state": {
            "elbow_joint": 1.9715463870305268,
            "shoulder_lift_joint": -1.1394903361783484,
            "shoulder_pan_joint": 0.12281147578464417,
            "wrist_1_joint": -0.7804599489681411,
            "wrist_2_joint": 0.12958660307563738,
            "wrist_3_joint": -3.1924946282119055
        }
    },
    "waypoints": [
        {
            "positions": [
                0.12281147578464417,
                -1.1394903361783484,
                1.9715463870305268,
                -0.7804599489681411,
                0.12958660307563738,
                -3.1924946282119055
            ]
        },
        {
            "positions": [
                0.05662789817782886,
                -1.1732669799484525,
                2.0359779952735937,
                -0.81509311117202,
                0.285948507575734,
                -3.1772075208756982
            ]
        },
        {
            "positions": [
                -0.009555679428986455,
                -1.207043623718557,
                2.100409603516661,
                -0.8497262733758989,
                0.44231041207583055,
                -3.1619204135394905
            ]
        },
        {
            "positions": [
                -0.07573925703580177,
                -1.240820267488661,
                2.164841211759728,
                -0.8843594355797777,
                0.5986723165759271,
                -3.146633306203283
            ]
        },
        {
            "positions": [
                -0.14192283464261707,
                -1.2745969112587654,
                2.2292728200027954,
                -0.9189925977836566,
                0.7550342210760237,
                -3.131346198867076
            ]
        },
        {
            "positions": [
                -0.20810641224943244,
                -1.3083735550288695,
                2.2937044282458623,
                -0.9536257599875355,
                0.9113961255761203,
                -3.1160590915308686
            ]
        },
        {
            "positions": [
                -0.2742899898562477,
                -1.342150198798974,
                2.358136036488929,
                -0.9882589221914144,
                1.0677580300762168,
                -3.100771984194661
            ]
        },
        {
            "positions": [
                -0.34047356746306306,
                -1.375926842569078,
                2.4225676447319966,
                -1.0228920843952933,
                1.2241199345763134,
                -3.0854848768584535
            ]
        }
    ]
}