{
    "goal": {
        "global_pose": {
            "orientation": {
                "w": 0.7047431468963623,
                "x": -0.7094548344612122,
                "y": 0.0024358443915843964,
                "z": -0.0022348060738295317
            },
            "position": {
                "x": 0.6094750761985779,
                "y": 0.3671506643295288,
                "z": 0.19426114857196808
            }
        },
        "name": "move_to_magneteinheit_A"
    },
    "id": "LazyPRMstar_move_to_magneteinheit_A_98",
    "joint_names": [
        "shoulder_pan_joint",
        "shoulder_lift_joint",
        "elbow_joint",
        "wrist_1_joint",
        "wrist_2_joint",
        "wrist_3_joint"
    ],
    "metrics": {
        "cart_traj_len": 1.8759456008935134,
        "distance_elbow_joint": 3.9189322734359386,
        "distance_shoulder_lift_joint": 0.7029595257218108,
        "distance_shoulder_pan_joint": 1.2404199165126917,
        "distance_wrist_1_joint": 1.5161263741277136,
        "distance_wrist_2_joint": 1.6934639626161823,
        "distance_wrist_3_joint": 1.1417490005053323,
        "smoothness": 4.605369601539975e-16,
        "time": 5.000104231,
        "traj_len": 3.1958803251873604,
        "weighted_distance": 3.9631728943706497
    },
    "planner": "LazyPRMstar",
    "start": {
        "state": {
            "elbow_joint": -1.919643507792019,
            "shoulder_lift_joint": -0.07675430207160344,
            "shoulder_pan_joint": -1.1188671864651873,
            "wrist_1_joint": 0.42560062535961957,
            "wrist_2_joint": 1.5706038300724876,
            "wrist_3_joint": 1.1188968870953055
        }
    },
    "waypoints": [
        {
            "positions": [
                -1.1188671864651873,
                -0.07675430207160344,
                -1.919643507792019,
                0.42560062535961957,
                1.5706038300724876,
                1.1188968870953055
            ]
        },
        {
            "positions": [
                -1.0711587281377761,
                -0.1037912069070577,
                -1.7689153434290983,
                0.48391317821068547,
                1.505470600741096,
                1.0749834639989466
            ]
        },
        {
            "positions": [
                -1.023450269810365,
                -0.13082811174251197,
                -1.6181871790661777,
                0.5422257310617514,
                1.4403373714097043,
                1.0310700409025877
            ]
        },
        {
            "positions": [
                -0.9757418114829537,
                -0.15786501657796626,
                -1.467459014703257,
                0.6005382839128173,
                1.3752041420783128,
                0.9871566178062288
            ]
        },
        {
            "positions": [
                -0.9280333531555425,
                -0.1849019214134205,
                -1.316730850340336,
                0.6588508367638832,
                1.3100709127469212,
                0.9432431947098698
            ]
        },
        {
            "positions": [
                -0.8803248948281313,
                -0.21193882624887478,
                -1.1660026859774155,
                0.7171633896149492,
                1.2449376834155295,
                0.8993297716135109
            ]
        },
        {
            "positions": [
                -0.83261643650072,
                -0.23897573108432904,
                -1.0152745216144947,
                0.775475942466015,
                1.1798044540841377,
                0.855416348517152
            ]
        },
        {
            "positions": [
                -0.7849079781733088,
                -0.2660126359197833,
                -0.8645463572515741,
                0.8337884953170809,
                1.1146712247527462,
                0.811502925420793
            ]
        },
        {
            "positions": [
                -0.7371995198458976,
                -0.2930495407552376,
                -0.7138181928886533,
                0.8921010481681468,
                1.0495379954213546,
                0.767589502324434
            ]
        },
        {
            "positions": [
                -0.6894910615184864,
                -0.32008644559069177,
                -0.5630900285257328,
                0.9504136010192128,
                0.984404766089963,
                0.7236760792280752
            ]
        },
        {
            "positions": [
                -0.6417826031910752,
                -0.3471233504261461,
                -0.41236186416281173,
                1.0087261538702788,
                0.9192715367585713,
                0.6797626561317162
            ]
        },
        {
            "positions": [
                -0.5940741448636639,
                -0.37416025526160035,
                -0.26163369979989115,
                1.0670387067213445,
                0.8541383074271798,
                0.6358492330353572
            ]
        },
        {
            "positions": [
                -0.5463656865362527,
                -0.40119716009705464,
                -0.11090553543697035,
                1.1253512595724104,
                0.789005078095788,
                0.5919358099389983
            ]
        },
        {
            "positions": [
                -0.4986572282088415,
                -0.4282340649325089,
                0.03982262892595023,
                1.1836638124234764,
                0.7238718487643965,
                0.5480223868426394
            ]
        },
        {
            "positions": [
                -0.4509487698814303,
                -0.4552709697679631,
                0.1905507932888708,
                1.2419763652745421,
                0.6587386194330049,
                0.5041089637462804
            ]
        },
        {
            "positions": [
                -0.4032403115540192,
                -0.48230787460341734,
                0.3412789576517914,
                1.300288918125608,
                0.5936053901016133,
                0.4601955406499215
            ]
        },
        {
            "positions": [
                -0.35553185322660785,
                -0.5093447794388717,
                0.4920071220147124,
                1.358601470976674,
                0.5284721607702216,
                0.4162821175535625
            ]
        },
        {
            "positions": [
                -0.30782339489919663,
                -0.5363816842743259,
                0.642735286377633,
                1.41691402382774,
                0.46333893143882987,
                0.37236869445720366
            ]
        },
        {
            "positions": [
                -0.2601149365717854,
                -0.5634185891097802,
                0.7934634507405536,
                1.475226576678806,
                0.39820570210743833,
                0.32845527136084474
            ]
        },
        {
            "positions": [
                -0.2124064782443742,
                -0.5904554939452344,
                0.9441916151034742,
                1.5335391295298717,
                0.3330724727760468,
                0.2845418482644858
            ]
        },
        {
            "positions": [
                -0.16469801991696298,
                -0.6174923987806888,
                1.0949197794663956,
                1.5918516823809379,
                0.26793924344465503,
                0.24062842516812677
            ]
        },
        {
            "positions": [
                -0.11698956158955176,
                -0.644529303616143,
                1.2456479438293162,
                1.6501642352320036,
                0.2028060141132635,
                0.19671500207176784
            ]
        },
        {
            "positions": [
                -0.06928110326214054,
                -0.6715662084515972,
                1.3963761081922368,
                1.7084767880830696,
                0.13767278478187195,
                0.1528015789754089
            ]
        },
        {
            "positions": [
                -0.021572644934729324,
                -0.6986031132870514,
                1.5471042725551574,
                1.7667893409341353,
                0.07253955545048019,
                0.10888815587904999
            ]
        },
        {
            "positions": [
                0.026135813392681895,
                -0.7256400181225058,
                1.6978324369180784,
                1.8251018937852015,
                0.007406326119088424,
                0.06497473278269106
            ]
        },
        {
            "positions": [
                0.07384427172009311,
                -0.75267692295796,
                1.848560601280999,
                1.8834144466362672,
                -0.057726903212303116,
                0.02106130968633213
            ]
        },
        {
            "positions": [
                0.12155273004750432,
                -0.7797138277934142,
                1.9992887656439193,
                1.9417269994873332,
                -0.1228601325436947,
                -0.02285211341002679
            ]
        }
    ]
}