{
    "goal": {
        "global_pose": {
            "orientation": {
                "w": 0.5084816217422485,
                "x": -0.49083608388900757,
                "y": 0.5182115435600281,
                "z": -0.4816462993621826
            },
            "position": {
                "x": 0.5540239810943604,
                "y": 0.030875300988554955,
                "z": 0.16403168439865112
            }
        },
        "name": "move_to_storage_A"
    },
    "id": "LazyPRM_move_to_storage_A_12",
    "joint_names": [
        "shoulder_pan_joint",
        "shoulder_lift_joint",
        "elbow_joint",
        "wrist_1_joint",
        "wrist_2_joint",
        "wrist_3_joint"
    ],
    "metrics": {
        "cart_traj_len": 0.3529486318802406,
        "distance_elbow_joint": 0.4510892632476273,
        "distance_shoulder_lift_joint": 0.23240289483446142,
        "distance_shoulder_pan_joint": 0.4628027689382127,
        "distance_wrist_1_joint": 0.2535948838887113,
        "distance_wrist_2_joint": 1.0918831639238538,
        "distance_wrist_3_joint": 0.0940060619254619,
        "smoothness": 2.2204460668324854e-16,
        "time": 0.022137848,
        "traj_len": 1.6080357697384497,
        "weighted_distance": 2.0295982874504546
    },
    "planner": "LazyPRM",
    "start": {
        "state": {
            "elbow_joint": 1.9715463870305268,
            "shoulder_lift_joint": -1.1394903361783484,
            "shoulder_pan_joint": 0.12281147578464417,
            "wrist_1_joint": -0.7804599489681411,
            "wrist_2_joint": 0.12958660307563738,
            "wrist_3_joint": -3.1924946282119055
        }
    },
    "waypoints": [
        {
            "positions": [
                0.12281147578464417,
                -1.1394903361783484,
                1.9715463870305268,
                -0.7804599489681411,
                0.12958660307563738,
                -3.1924946282119055
            ]
        },
        {
            "positions": [
                0.05669679450775665,
                -1.1726907497261285,
                2.035987710351616,
                -0.8166877895236713,
                0.2855699122076165,
                -3.1790651907939824
            ]
        },
        {
            "positions": [
                -0.00941788676913087,
                -1.2058911632739089,
                2.100429033672706,
                -0.8529156300792015,
                0.4415532213395956,
                -3.1656357533760593
            ]
        },
        {
            "positions": [
                -0.07553256804601839,
                -1.239091576821689,
                2.1648703569937955,
                -0.8891434706347316,
                0.5975365304715747,
                -3.152206315958136
            ]
        },
        {
            "positions": [
                -0.1416472493229059,
                -1.2722919903694692,
                2.2293116803148854,
                -0.9253713111902618,
                0.7535198396035538,
                -3.138776878540213
            ]
        },
        {
            "positions": [
                -0.20776193059979348,
                -1.3054924039172495,
                2.293753003635975,
                -0.961599151745792,
                0.909503148735533,
                -3.12534744112229
            ]
        },
        {
            "positions": [
                -0.27387661187668094,
                -1.3386928174650297,
                2.358194326957064,
                -0.9978269923013222,
                1.065486457867512,
                -3.1119180037043668
            ]
        },
        {
            "positions": [
                -0.3399912931535685,
                -1.3718932310128098,
                2.422635650278154,
                -1.0340548328568524,
                1.2214697669994912,
                -3.0984885662864436
            ]
        }
    ]
}