{
    "goal": {
        "global_pose": {
            "orientation": {
                "w": 0.7047431468963623,
                "x": -0.7094548344612122,
                "y": 0.0024358443915843964,
                "z": -0.0022348060738295317
            },
            "position": {
                "x": 0.6094750761985779,
                "y": 0.3671506643295288,
                "z": 0.19426114857196808
            }
        },
        "name": "move_to_magneteinheit_A"
    },
    "id": "LazyPRMstar_move_to_magneteinheit_A_77",
    "joint_names": [
        "shoulder_pan_joint",
        "shoulder_lift_joint",
        "elbow_joint",
        "wrist_1_joint",
        "wrist_2_joint",
        "wrist_3_joint"
    ],
    "metrics": {
        "cart_traj_len": 2.028104045756657,
        "distance_elbow_joint": 3.8838625599989243,
        "distance_shoulder_lift_joint": 1.0599178796328237,
        "distance_shoulder_pan_joint": 1.2422440839621025,
        "distance_wrist_1_joint": 1.1635767558020755,
        "distance_wrist_2_joint": 1.4319443601951594,
        "distance_wrist_3_joint": 4.3570921403755865,
        "smoothness": 7.359192628540824e-16,
        "time": 5.034246859,
        "traj_len": 3.624725890321456,
        "weighted_distance": 4.944526587724559
    },
    "planner": "LazyPRMstar",
    "start": {
        "state": {
            "elbow_joint": -1.919643507792019,
            "shoulder_lift_joint": -0.07675430207160344,
            "shoulder_pan_joint": -1.1188671864651873,
            "wrist_1_joint": 0.42560062535961957,
            "wrist_2_joint": 1.5706038300724876,
            "wrist_3_joint": 1.1188968870953055
        }
    },
    "waypoints": [
        {
            "positions": [
                -1.1188671864651873,
                -0.07675430207160344,
                -1.919643507792019,
                0.42560062535961957,
                1.5706038300724876,
                1.1188968870953055
            ]
        },
        {
            "positions": [
                -1.1087598018417646,
                -0.10677827564110487,
                -1.8413405813135633,
                0.41372956984873066,
                1.5112713513728635,
                0.9158718688043161
            ]
        },
        {
            "positions": [
                -1.0986524172183418,
                -0.1368022492106063,
                -1.7630376548351077,
                0.40185851433784175,
                1.4519388726732394,
                0.7128468505133267
            ]
        },
        {
            "positions": [
                -1.088545032594919,
                -0.16682622278010772,
                -1.6847347283566518,
                0.38998745882695285,
                1.3926063939736153,
                0.5098218322223375
            ]
        },
        {
            "positions": [
                -1.0784376479714963,
                -0.19685019634960915,
                -1.606431801878196,
                0.378116403316064,
                1.3332739152739912,
                0.30679681393134806
            ]
        },
        {
            "positions": [
                -1.0683302633480736,
                -0.2268741699191106,
                -1.5281288753997404,
                0.3662453478051751,
                1.273941436574367,
                0.10377179564035877
            ]
        },
        {
            "positions": [
                -1.0582228787246508,
                -0.25689814348861206,
                -1.4498259489212846,
                0.3543742922942862,
                1.2146089578747432,
                -0.09925322265063063
            ]
        },
        {
            "positions": [
                -1.048115494101228,
                -0.28692211705811344,
                -1.3715230224428288,
                0.3425032367833973,
                1.1552764791751189,
                -0.30227824094162004
            ]
        },
        {
            "positions": [
                -1.038008109477805,
                -0.3169460906276149,
                -1.2932200959643732,
                0.3306321812725084,
                1.095944000475495,
                -0.5053032592326094
            ]
        },
        {
            "positions": [
                -1.0279007248543823,
                -0.34697006419711635,
                -1.2149171694859173,
                0.3187611257616195,
                1.0366115217758707,
                -0.7083282775235988
            ]
        },
        {
            "positions": [
                -1.0177933402309596,
                -0.3769940377666178,
                -1.1366142430074615,
                0.30689007025073056,
                0.9772790430762467,
                -0.911353295814588
            ]
        },
        {
            "positions": [
                -1.0076859556075368,
                -0.4070180113361192,
                -1.058311316529006,
                0.2950190147398417,
                0.9179465643766226,
                -1.1143783141055774
            ]
        },
        {
            "positions": [
                -0.9975785709841141,
                -0.43704198490562063,
                -0.9800083900505501,
                0.2831479592289528,
                0.8586140856769986,
                -1.3174033323965668
            ]
        },
        {
            "positions": [
                -0.9874711863606913,
                -0.46706595847512206,
                -0.9017054635720942,
                0.2712769037180639,
                0.7992816069773745,
                -1.5204283506875562
            ]
        },
        {
            "positions": [
                -0.9773638017372686,
                -0.4970899320446235,
                -0.8234025370936384,
                0.259405848207175,
                0.7399491282777504,
                -1.7234533689785456
            ]
        },
        {
            "positions": [
                -0.9672564171138458,
                -0.527113905614125,
                -0.7450996106151828,
                0.24753479269628612,
                0.6806166495781263,
                -1.926478387269535
            ]
        },
        {
            "positions": [
                -0.957149032490423,
                -0.5571378791836263,
                -0.666796684136727,
                0.2356637371853972,
                0.6212841708785022,
                -2.1295034055605244
            ]
        },
        {
            "positions": [
                -0.8971198141577932,
                -0.5893342293236709,
                -0.5206291432287475,
                0.18157263342829427,
                0.594471687489548,
                -2.1910973971005108
            ]
        },
        {
            "positions": [
                -0.8370905958251632,
                -0.6215305794637154,
                -0.37446160232076803,
                0.12748152967119133,
                0.567659204100594,
                -2.2526913886404976
            ]
        },
        {
            "positions": [
                -0.7770613774925333,
                -0.6537269296037598,
                -0.22829406141278852,
                0.0733904259140884,
                0.5408467207116399,
                -2.314285380180484
            ]
        },
        {
            "positions": [
                -0.7170321591599034,
                -0.6859232797438043,
                -0.08212652050480906,
                0.01929932215698546,
                0.5140342373226857,
                -2.3758793717204707
            ]
        },
        {
            "positions": [
                -0.6570029408272735,
                -0.7181196298838488,
                0.06404102040317061,
                -0.034791781600117505,
                0.48722175393373157,
                -2.437473363260457
            ]
        },
        {
            "positions": [
                -0.5969737224946436,
                -0.7503159800238932,
                0.21020856131114996,
                -0.08888288535722041,
                0.46040927054477754,
                -2.4990673548004434
            ]
        },
        {
            "positions": [
                -0.5369445041620137,
                -0.7825123301639378,
                0.35637610221912963,
                -0.14297398911432338,
                0.4335967871558234,
                -2.56066134634043
            ]
        },
        {
            "positions": [
                -0.47691528582938375,
                -0.8147086803039822,
                0.5025436431271089,
                -0.1970650928714263,
                0.40678430376686925,
                -2.6222553378804165
            ]
        },
        {
            "positions": [
                -0.41688606749675383,
                -0.8469050304440268,
                0.6487111840350885,
                -0.2511561966285293,
                0.37997182037791516,
                -2.6838493294204033
            ]
        },
        {
            "positions": [
                -0.35685684916412386,
                -0.8791013805840713,
                0.7948787249430682,
                -0.3052473003856322,
                0.353159336988961,
                -2.7454433209603897
            ]
        },
        {
            "positions": [
                -0.296827630831494,
                -0.9112977307241158,
                0.9410462658510477,
                -0.3593384041427351,
                0.3263468536000069,
                -2.807037312500376
            ]
        },
        {
            "positions": [
                -0.23679841249886413,
                -0.9434940808641602,
                1.087213806759027,
                -0.413429507899838,
                0.29953437021105284,
                -2.8686313040403624
            ]
        },
        {
            "positions": [
                -0.17676919416623416,
                -0.9756904310042047,
                1.2333813476670066,
                -0.46752061165694103,
                0.2727218868220987,
                -2.930225295580349
            ]
        },
        {
            "positions": [
                -0.11673997583360429,
                -1.0078867811442493,
                1.3795488885749863,
                -0.5216117154140439,
                0.2459094034331446,
                -2.991819287120336
            ]
        },
        {
            "positions": [
                -0.05671075750097432,
                -1.0400831312842937,
                1.5257164294829657,
                -0.5757028191711469,
                0.21909692004419046,
                -3.0534132786603223
            ]
        },
        {
            "positions": [
                0.0033184608316555453,
                -1.0722794814243382,
                1.6718839703909447,
                -0.6297939229282498,
                0.19228443665523637,
                -3.1150072702003087
            ]
        },
        {
            "positions": [
                0.06334767916428552,
                -1.1044758315643826,
                1.8180515112989246,
                -0.6838850266853528,
                0.16547195326628228,
                -3.176601261740295
            ]
        },
        {
            "positions": [
                0.1233768974969153,
                -1.1366721817044272,
                1.9642190522069043,
                -0.7379761304424557,
                0.13865946987732816,
                -3.238195253280282
            ]
        }
    ]
}