{
    "goal": {
        "global_pose": {
            "orientation": {
                "w": 0.7031023502349854,
                "x": -0.7110244035720825,
                "y": 0.007748599164187908,
                "z": 0.005598929710686207
            },
            "position": {
                "x": 0.11585023208521307,
                "y": 0.44412534475326537,
                "z": 0.3711530566215515
            }
        },
        "name": "move_to_auspresseinheit_A"
    },
    "id": "LazyPRMstar_move_to_auspresseinheit_A_45",
    "joint_names": [
        "shoulder_pan_joint",
        "shoulder_lift_joint",
        "elbow_joint",
        "wrist_1_joint",
        "wrist_2_joint",
        "wrist_3_joint"
    ],
    "metrics": {
        "cart_traj_len": 0.9246028802682419,
        "distance_elbow_joint": 0.6063873389967922,
        "distance_shoulder_lift_joint": 0.5893670208908623,
        "distance_shoulder_pan_joint": 1.0451443001032876,
        "distance_wrist_1_joint": 0.5458276487246891,
        "distance_wrist_2_joint": 0.5160718196945158,
        "distance_wrist_3_joint": 0.02142187442209842,
        "smoothness": 0.5067172896507112,
        "time": 5.0174581709999995,
        "traj_len": 1.8232443617991105,
        "weighted_distance": 2.104510209073752
    },
    "planner": "LazyPRMstar",
    "start": {
        "state": {
            "elbow_joint": 2.422574709923281,
            "shoulder_lift_joint": -1.3736533754116391,
            "shoulder_pan_joint": -0.33786336945926293,
            "wrist_1_joint": -1.0288603412921917,
            "wrist_2_joint": 1.2330224858903978,
            "wrist_3_joint": -3.094022268022082
        }
    },
    "waypoints": [
        {
            "positions": [
                -0.33786336945926293,
                -1.3736533754116391,
                2.422574709923281,
                -1.0288603412921917,
                1.2330224858903978,
                -3.094022268022082
            ]
        },
        {
            "positions": [
                -0.26363992380127116,
                -1.4542515614099245,
                2.3775635336061818,
                -0.9540060818562601,
                1.1645102595262184,
                -3.0941498098658813
            ]
        },
        {
            "positions": [
                -0.1894164781432794,
                -1.5348497474082097,
                2.332552357289083,
                -0.8791518224203284,
                1.0959980331620391,
                -3.09427735170968
            ]
        },
        {
            "positions": [
                -0.11519303248528762,
                -1.615447933406495,
                2.2875411809719837,
                -0.8042975629843968,
                1.0274858067978596,
                -3.094404893553479
            ]
        },
        {
            "positions": [
                -0.040969586827295845,
                -1.6960461194047805,
                2.242530004654885,
                -0.7294433035484651,
                0.9589735804336803,
                -3.094532435397278
            ]
        },
        {
            "positions": [
                0.033253858830695926,
                -1.7766443054030656,
                2.1975188283377856,
                -0.6545890441125335,
                0.890461354069501,
                -3.094659977241077
            ]
        },
        {
            "positions": [
                0.1074773044886877,
                -1.857242491401351,
                2.1525076520206867,
                -0.5797347846766019,
                0.8219491277053217,
                -3.0947875190848757
            ]
        },
        {
            "positions": [
                0.1817007501466794,
                -1.9378406773996364,
                2.1074964757035874,
                -0.5048805252406702,
                0.7534369013411423,
                -3.094915060928675
            ]
        },
        {
            "positions": [
                0.3388994402193909,
                -1.9312459882748807,
                2.1936670638783067,
                -0.49754730416028137,
                0.7418189765219098,
                -3.1010243756816256
            ]
        },
        {
            "positions": [
                0.5230901854317078,
                -1.921953473385826,
                2.2962363221794964,
                -0.4902899983638919,
                0.7293848213588958,
                -3.108234259062903
            ]
        },
        {
            "positions": [
                0.7072809306440248,
                -1.9126609584967713,
                2.398805580480686,
                -0.4830326925675025,
                0.716950666195882,
                -3.1154441424441806
            ]
        }
    ]
}