{
    "goal": {
        "global_pose": {
            "orientation": {
                "w": 0.5084816217422485,
                "x": -0.49083608388900757,
                "y": 0.5182115435600281,
                "z": -0.4816462993621826
            },
            "position": {
                "x": 0.5540239810943604,
                "y": 0.030875300988554955,
                "z": 0.16403168439865112
            }
        },
        "name": "move_to_storage_A"
    },
    "id": "LazyPRM_move_to_storage_A_67",
    "joint_names": [
        "shoulder_pan_joint",
        "shoulder_lift_joint",
        "elbow_joint",
        "wrist_1_joint",
        "wrist_2_joint",
        "wrist_3_joint"
    ],
    "metrics": {
        "cart_traj_len": 0.3528239323369942,
        "distance_elbow_joint": 0.4505939820403837,
        "distance_shoulder_lift_joint": 0.23219421591296796,
        "distance_shoulder_pan_joint": 0.4595097458127643,
        "distance_wrist_1_joint": 0.25219261008916083,
        "distance_wrist_2_joint": 1.1050035243041552,
        "distance_wrist_3_joint": 0.10666668305062466,
        "smoothness": 2.2204460668324854e-16,
        "time": 0.021989136000000003,
        "traj_len": 1.6143607902851385,
        "weighted_distance": 2.043695246778399
    },
    "planner": "LazyPRM",
    "start": {
        "state": {
            "elbow_joint": 1.9715463870305268,
            "shoulder_lift_joint": -1.1394903361783484,
            "shoulder_pan_joint": 0.12281147578464417,
            "wrist_1_joint": -0.7804599489681411,
            "wrist_2_joint": 0.12958660307563738,
            "wrist_3_joint": -3.1924946282119055
        }
    },
    "waypoints": [
        {
            "positions": [
                0.12281147578464417,
                -1.1394903361783484,
                1.9715463870305268,
                -0.7804599489681411,
                0.12958660307563738,
                -3.1924946282119055
            ]
        },
        {
            "positions": [
                0.05716722638282071,
                -1.1726609384516296,
                2.035916955893439,
                -0.8164874646951641,
                0.2874442494048024,
                -3.1772565306332448
            ]
        },
        {
            "positions": [
                -0.008477023019002758,
                -1.2058315407249107,
                2.1002875247563506,
                -0.852514980422187,
                0.4453018957339674,
                -3.1620184330545844
            ]
        },
        {
            "positions": [
                -0.07412127242082624,
                -1.239002142998192,
                2.1646580936192628,
                -0.88854249614921,
                0.6031595420631324,
                -3.1467803354759236
            ]
        },
        {
            "positions": [
                -0.13976552182264967,
                -1.2721727452714728,
                2.2290286624821745,
                -0.924570011876233,
                0.7610171883922975,
                -3.131542237897263
            ]
        },
        {
            "positions": [
                -0.20540977122447318,
                -1.305343347544754,
                2.2933992313450866,
                -0.9605975276032559,
                0.9188748347214626,
                -3.116304140318602
            ]
        },
        {
            "positions": [
                -0.27105402062629663,
                -1.3385139498180352,
                2.3577698002079983,
                -0.9966250433302789,
                1.0767324810506274,
                -3.1010660427399417
            ]
        },
        {
            "positions": [
                -0.33669827002812014,
                -1.3716845520913163,
                2.4221403690709105,
                -1.032652559057302,
                1.2345901273797926,
                -3.085827945161281
            ]
        }
    ]
}