{
    "goal": {
        "global_pose": {
            "orientation": {
                "w": 0.5084816217422485,
                "x": -0.49083608388900757,
                "y": 0.5182115435600281,
                "z": -0.4816462993621826
            },
            "position": {
                "x": 0.5540239810943604,
                "y": 0.030875300988554955,
                "z": 0.16403168439865112
            }
        },
        "name": "move_to_storage_A"
    },
    "id": "LazyPRM_move_to_storage_A_108",
    "joint_names": [
        "shoulder_pan_joint",
        "shoulder_lift_joint",
        "elbow_joint",
        "wrist_1_joint",
        "wrist_2_joint",
        "wrist_3_joint"
    ],
    "metrics": {
        "cart_traj_len": 0.353001823082228,
        "distance_elbow_joint": 0.4495742058659582,
        "distance_shoulder_lift_joint": 0.23353597050575048,
        "distance_shoulder_pan_joint": 0.4582917182631944,
        "distance_wrist_1_joint": 0.24759048490655344,
        "distance_wrist_2_joint": 1.11198648000082,
        "distance_wrist_3_joint": 0.09041204013615944,
        "smoothness": 8.881784197001252e-16,
        "time": 0.022281069,
        "traj_len": 1.6097797674459808,
        "weighted_distance": 2.0326809746878944
    },
    "planner": "LazyPRM",
    "start": {
        "state": {
            "elbow_joint": 1.9715463870305268,
            "shoulder_lift_joint": -1.1394903361783484,
            "shoulder_pan_joint": 0.12281147578464417,
            "wrist_1_joint": -0.7804599489681411,
            "wrist_2_joint": 0.12958660307563738,
            "wrist_3_joint": -3.1924946282119055
        }
    },
    "waypoints": [
        {
            "positions": [
                0.12281147578464417,
                -1.1394903361783484,
                1.9715463870305268,
                -0.7804599489681411,
                0.12958660307563738,
                -3.1924946282119055
            ]
        },
        {
            "positions": [
                0.057341230318473546,
                -1.1728526176791698,
                2.0357712735828066,
                -0.8158300182405058,
                0.28844181450432593,
                -3.1795786224781684
            ]
        },
        {
            "positions": [
                -0.00812901514769708,
                -1.2062148991799915,
                2.099996160135086,
                -0.8512000875128707,
                0.44729702593301446,
                -3.1666626167444316
            ]
        },
        {
            "positions": [
                -0.07359926061386772,
                -1.239577180680813,
                2.164221046687366,
                -0.8865701567852354,
                0.606152237361703,
                -3.1537466110106944
            ]
        },
        {
            "positions": [
                -0.13906950608003832,
                -1.2729394621816343,
                2.228445933239646,
                -0.9219402260576002,
                0.7650074487903916,
                -3.1408306052769572
            ]
        },
        {
            "positions": [
                -0.20453975154620896,
                -1.306301743682456,
                2.2926708197919257,
                -0.957310295329965,
                0.9238626602190803,
                -3.12791459954322
            ]
        },
        {
            "positions": [
                -0.2700099970123796,
                -1.3396640251832774,
                2.356895706344205,
                -0.9926803646023297,
                1.0827178716477686,
                -3.1149985938094833
            ]
        },
        {
            "positions": [
                -0.33548024247855024,
                -1.3730263066840989,
                2.421120592896485,
                -1.0280504338746945,
                1.2415730830764573,
                -3.102082588075746
            ]
        }
    ]
}