{
    "goal": {
        "global_pose": {
            "orientation": {
                "w": 0.7047431468963623,
                "x": -0.7094548344612122,
                "y": 0.0024358443915843964,
                "z": -0.0022348060738295317
            },
            "position": {
                "x": 0.6094750761985779,
                "y": 0.3671506643295288,
                "z": 0.19426114857196808
            }
        },
        "name": "move_to_magneteinheit_A"
    },
    "id": "LazyPRMstar_move_to_magneteinheit_A_105",
    "joint_names": [
        "shoulder_pan_joint",
        "shoulder_lift_joint",
        "elbow_joint",
        "wrist_1_joint",
        "wrist_2_joint",
        "wrist_3_joint"
    ],
    "metrics": {
        "cart_traj_len": 2.0835032723623463,
        "distance_elbow_joint": 3.9060276578730657,
        "distance_shoulder_lift_joint": 1.0691243206867014,
        "distance_shoulder_pan_joint": 1.2412646468795192,
        "distance_wrist_1_joint": 1.2822680797571313,
        "distance_wrist_2_joint": 1.4386763065556838,
        "distance_wrist_3_joint": 4.254033282745235,
        "smoothness": 0.01202035622876468,
        "time": 5.061884894,
        "traj_len": 3.631995910583785,
        "weighted_distance": 4.941700643128904
    },
    "planner": "LazyPRMstar",
    "start": {
        "state": {
            "elbow_joint": -1.919643507792019,
            "shoulder_lift_joint": -0.07675430207160344,
            "shoulder_pan_joint": -1.1188671864651873,
            "wrist_1_joint": 0.42560062535961957,
            "wrist_2_joint": 1.5706038300724876,
            "wrist_3_joint": 1.1188968870953055
        }
    },
    "waypoints": [
        {
            "positions": [
                -1.1188671864651873,
                -0.07675430207160344,
                -1.919643507792019,
                0.42560062535961957,
                1.5706038300724876,
                1.1188968870953055
            ]
        },
        {
            "positions": [
                -1.083095084898731,
                -0.10862685751300968,
                -1.8020190428954992,
                0.38688499353771316,
                1.5279867924985369,
                0.9956157852292863
            ]
        },
        {
            "positions": [
                -1.047322983332275,
                -0.14049941295441593,
                -1.684394577998979,
                0.34816936171580676,
                1.4853697549245863,
                0.872334683363267
            ]
        },
        {
            "positions": [
                -1.0115508817658188,
                -0.1723719683958222,
                -1.566770113102459,
                0.30945372989390035,
                1.4427527173506356,
                0.7490535814972479
            ]
        },
        {
            "positions": [
                -0.9757787801993626,
                -0.20424452383722844,
                -1.449145648205939,
                0.270738098071994,
                1.4001356797766848,
                0.6257724796312286
            ]
        },
        {
            "positions": [
                -0.9400066786329064,
                -0.2361170792786347,
                -1.3315211833094192,
                0.23202246625008757,
                1.3575186422027343,
                0.5024913777652094
            ]
        },
        {
            "positions": [
                -0.9042345770664502,
                -0.26798963472004095,
                -1.213896718412899,
                0.19330683442818117,
                1.3149016046287836,
                0.3792102758991901
            ]
        },
        {
            "positions": [
                -0.868462475499994,
                -0.2998621901614472,
                -1.096272253516379,
                0.1545912026062748,
                1.2722845670548328,
                0.25592917403317095
            ]
        },
        {
            "positions": [
                -0.8326903739335378,
                -0.33173474560285343,
                -0.978647788619859,
                0.11587557078436839,
                1.2296675294808823,
                0.1326480721671517
            ]
        },
        {
            "positions": [
                -0.7969182723670817,
                -0.3636073010442597,
                -0.8610233237233391,
                0.07715993896246204,
                1.1870504919069316,
                0.009366970301132538
            ]
        },
        {
            "positions": [
                -0.7611461708006254,
                -0.39547985648566597,
                -0.743398858826819,
                0.03844430714055558,
                1.1444334543329808,
                -0.11391413156488683
            ]
        },
        {
            "positions": [
                -0.7253740692341692,
                -0.4273524119270722,
                -0.6257743939302991,
                -0.0002713246813507708,
                1.1018164167590303,
                -0.23719523343090598
            ]
        },
        {
            "positions": [
                -0.689601967667713,
                -0.45922496736847845,
                -0.508149929033779,
                -0.03898695650325723,
                1.0591993791850793,
                -0.36047633529692535
            ]
        },
        {
            "positions": [
                -0.6538298661012569,
                -0.49109752280988467,
                -0.3905254641372591,
                -0.07770258832516358,
                1.0165823416111288,
                -0.4837574371629443
            ]
        },
        {
            "positions": [
                -0.6180577645348007,
                -0.5229700782512909,
                -0.27290099924073896,
                -0.11641822014706998,
                0.9739653040371781,
                -0.6070385390289637
            ]
        },
        {
            "positions": [
                -0.5822856629683445,
                -0.5548426336926973,
                -0.15527653434421906,
                -0.1551338519689764,
                0.9313482664632274,
                -0.7303196408949828
            ]
        },
        {
            "positions": [
                -0.5465135614018882,
                -0.5867151891341034,
                -0.037652069447698944,
                -0.1938494837908828,
                0.8887312288892768,
                -0.8536007427610022
            ]
        },
        {
            "positions": [
                -0.5107414598354322,
                -0.6185877445755097,
                0.07997239544882073,
                -0.2325651156127892,
                0.8461141913153261,
                -0.9768818446270213
            ]
        },
        {
            "positions": [
                -0.474969358268976,
                -0.650460300016916,
                0.19759686034534085,
                -0.2712807474346955,
                0.8034971537413754,
                -1.1001629464930405
            ]
        },
        {
            "positions": [
                -0.43919725670251963,
                -0.6823328554583223,
                0.315221325241861,
                -0.309996379256602,
                0.7608801161674247,
                -1.22344404835906
            ]
        },
        {
            "positions": [
                -0.4034251551360635,
                -0.7142054108997284,
                0.4328457901383811,
                -0.3487120110785084,
                0.718263078593474,
                -1.3467251502250792
            ]
        },
        {
            "positions": [
                -0.3676530535696073,
                -0.7460779663411348,
                0.5504702550349008,
                -0.3874276429004148,
                0.6756460410195234,
                -1.4700062520910984
            ]
        },
        {
            "positions": [
                -0.33188095200315115,
                -0.7779505217825409,
                0.6680947199314209,
                -0.4261432747223211,
                0.6330290034455728,
                -1.5932873539571175
            ]
        },
        {
            "positions": [
                -0.2961088504366949,
                -0.8098230772239472,
                0.785719184827941,
                -0.4648589065442276,
                0.5904119658716219,
                -1.716568455823137
            ]
        },
        {
            "positions": [
                -0.2603367488702387,
                -0.8416956326653535,
                0.9033436497244611,
                -0.5035745383661341,
                0.5477949282976713,
                -1.8398495576891563
            ]
        },
        {
            "positions": [
                -0.22456464730378256,
                -0.8735681881067596,
                1.0209681146209808,
                -0.5422901701880403,
                0.5051778907237208,
                -1.963130659555175
            ]
        },
        {
            "positions": [
                -0.1887925457373264,
                -0.905440743548166,
                1.138592579517501,
                -0.5810058020099467,
                0.46256085314977,
                -2.086411761421194
            ]
        },
        {
            "positions": [
                -0.15302044417087013,
                -0.9373132989895723,
                1.256217044414021,
                -0.6197214338318531,
                0.4199438155758193,
                -2.2096928632872137
            ]
        },
        {
            "positions": [
                -0.11724834260441397,
                -0.9691858544309786,
                1.3738415093105412,
                -0.6584370656537595,
                0.37732677800186853,
                -2.332973965153233
            ]
        },
        {
            "positions": [
                -0.08147624103795792,
                -1.0010584098723847,
                1.4914659742070608,
                -0.6971526974756659,
                0.334709740427918,
                -2.456255067019252
            ]
        },
        {
            "positions": [
                -0.04570413947150165,
                -1.032930965313791,
                1.609090439103581,
                -0.7358683292975723,
                0.29209270285396727,
                -2.579536168885271
            ]
        },
        {
            "positions": [
                -0.009932037905045377,
                -1.0648035207551974,
                1.726714904000101,
                -0.7745839611194787,
                0.24947566528001652,
                -2.7028172707512907
            ]
        },
        {
            "positions": [
                0.025840063661410895,
                -1.0966760761966035,
                1.8443393688966212,
                -0.8132995929413851,
                0.206858627706066,
                -2.82609837261731
            ]
        },
        {
            "positions": [
                0.06161216522786691,
                -1.1285486316380098,
                1.961963833793141,
                -0.8520152247632915,
                0.1642415901321153,
                -2.9493794744833295
            ]
        },
        {
            "positions": [
                0.1223974604143319,
                -1.1458786227583049,
                1.9863841500810469,
                -0.8473629951290713,
                0.13192752351680384,
                -3.13513639564993
            ]
        }
    ]
}