{
    "goal": {
        "global_pose": {
            "orientation": {
                "w": 0.5084816217422485,
                "x": -0.49083608388900757,
                "y": 0.5182115435600281,
                "z": -0.4816462993621826
            },
            "position": {
                "x": 0.5540239810943604,
                "y": 0.030875300988554955,
                "z": 0.16403168439865112
            }
        },
        "name": "move_to_storage_A"
    },
    "id": "LazyPRMstar_move_to_storage_A_93",
    "joint_names": [
        "shoulder_pan_joint",
        "shoulder_lift_joint",
        "elbow_joint",
        "wrist_1_joint",
        "wrist_2_joint",
        "wrist_3_joint"
    ],
    "metrics": {
        "cart_traj_len": 0.3531563204493776,
        "distance_elbow_joint": 0.4509357147680362,
        "distance_shoulder_lift_joint": 0.23416848427158388,
        "distance_shoulder_pan_joint": 0.4628569979425401,
        "distance_wrist_1_joint": 0.2427987740609402,
        "distance_wrist_2_joint": 1.0948348643544479,
        "distance_wrist_3_joint": 0.1054150301123089,
        "smoothness": 4.440892098500626e-16,
        "time": 5.000108876,
        "traj_len": 1.609661413313327,
        "weighted_distance": 2.034569626272314
    },
    "planner": "LazyPRMstar",
    "start": {
        "state": {
            "elbow_joint": 1.9715463870305268,
            "shoulder_lift_joint": -1.1394903361783484,
            "shoulder_pan_joint": 0.12281147578464417,
            "wrist_1_joint": -0.7804599489681411,
            "wrist_2_joint": 0.12958660307563738,
            "wrist_3_joint": -3.1924946282119055
        }
    },
    "waypoints": [
        {
            "positions": [
                0.12281147578464417,
                -1.1394903361783484,
                1.9715463870305268,
                -0.7804599489681411,
                0.12958660307563738,
                -3.1924946282119055
            ]
        },
        {
            "positions": [
                0.05668904750713845,
                -1.1729429767885746,
                2.035965774854532,
                -0.815145488119704,
                0.2859915836977014,
                -3.1774353381958615
            ]
        },
        {
            "positions": [
                -0.009433380770367275,
                -1.2063956173988009,
                2.100385162678537,
                -0.8498310272712668,
                0.4423965643197654,
                -3.162376048179817
            ]
        },
        {
            "positions": [
                -0.075555809047873,
                -1.239848258009027,
                2.1648045505025424,
                -0.8845165664228297,
                0.5988015449418294,
                -3.147316758163773
            ]
        },
        {
            "positions": [
                -0.1416782373253787,
                -1.2733008986192536,
                2.2292239383265473,
                -0.9192021055743926,
                0.7552065255638933,
                -3.132257468147729
            ]
        },
        {
            "positions": [
                -0.20780066560288446,
                -1.3067535392294798,
                2.2936433261505527,
                -0.9538876447259554,
                0.9116115061859573,
                -3.117198178131685
            ]
        },
        {
            "positions": [
                -0.27392309388039016,
                -1.340206179839706,
                2.3580627139745576,
                -0.9885731838775184,
                1.0680164868080213,
                -3.1021388881156406
            ]
        },
        {
            "positions": [
                -0.3400455221578959,
                -1.3736588204499323,
                2.422482101798563,
                -1.0232587230290813,
                1.2244214674300853,
                -3.0870795980995966
            ]
        }
    ]
}