{
    "goal": {
        "global_pose": {
            "orientation": {
                "w": 0.5084816217422485,
                "x": -0.49083608388900757,
                "y": 0.5182115435600281,
                "z": -0.4816462993621826
            },
            "position": {
                "x": 0.5540239810943604,
                "y": 0.030875300988554955,
                "z": 0.16403168439865112
            }
        },
        "name": "move_to_storage_A"
    },
    "id": "LazyPRM_move_to_storage_A_84",
    "joint_names": [
        "shoulder_pan_joint",
        "shoulder_lift_joint",
        "elbow_joint",
        "wrist_1_joint",
        "wrist_2_joint",
        "wrist_3_joint"
    ],
    "metrics": {
        "cart_traj_len": 0.35304782265846196,
        "distance_elbow_joint": 0.44836390328757014,
        "distance_shoulder_lift_joint": 0.23312227799118723,
        "distance_shoulder_pan_joint": 0.4587527702447113,
        "distance_wrist_1_joint": 0.24149472714373477,
        "distance_wrist_2_joint": 1.1101778474099062,
        "distance_wrist_3_joint": 0.09875809339007713,
        "smoothness": 8.881784232165597e-16,
        "time": 0.021898941999999998,
        "traj_len": 1.6095557211439393,
        "weighted_distance": 2.034664193620407
    },
    "planner": "LazyPRM",
    "start": {
        "state": {
            "elbow_joint": 1.9715463870305268,
            "shoulder_lift_joint": -1.1394903361783484,
            "shoulder_pan_joint": 0.12281147578464417,
            "wrist_1_joint": -0.7804599489681411,
            "wrist_2_joint": 0.12958660307563738,
            "wrist_3_joint": -3.1924946282119055
        }
    },
    "waypoints": [
        {
            "positions": [
                0.12281147578464417,
                -1.1394903361783484,
                1.9715463870305268,
                -0.7804599489681411,
                0.12958660307563738,
                -3.1924946282119055
            ]
        },
        {
            "positions": [
                0.05727536574968542,
                -1.172793518748518,
                2.0355983732144654,
                -0.8149591957029604,
                0.2881834384199097,
                -3.1783863291561802
            ]
        },
        {
            "positions": [
                -0.008260744285273333,
                -1.2060967013186876,
                2.099650359398404,
                -0.8494584424377796,
                0.44678027376418195,
                -3.164278030100455
            ]
        },
        {
            "positions": [
                -0.07379685432023207,
                -1.2393998838888571,
                2.1637023455823425,
                -0.8839576891725989,
                0.6053771091084543,
                -3.1501697310447296
            ]
        },
        {
            "positions": [
                -0.13933296435519082,
                -1.2727030664590269,
                2.227754331766281,
                -0.9184569359074181,
                0.7639739444527266,
                -3.1360614319890043
            ]
        },
        {
            "positions": [
                -0.20486907439014962,
                -1.3060062490291964,
                2.2918063179502197,
                -0.9529561826422374,
                0.922570779796999,
                -3.121953132933279
            ]
        },
        {
            "positions": [
                -0.2704051844251083,
                -1.339309431599366,
                2.3558583041341583,
                -0.9874554293770565,
                1.0811676151412712,
                -3.1078448338775537
            ]
        },
        {
            "positions": [
                -0.3359412944600671,
                -1.3726126141695356,
                2.419910290318097,
                -1.0219546761118758,
                1.2397644504855436,
                -3.0937365348218284
            ]
        }
    ]
}