{
    "goal": {
        "global_pose": {
            "orientation": {
                "w": 0.5084816217422485,
                "x": -0.49083608388900757,
                "y": 0.5182115435600281,
                "z": -0.4816462993621826
            },
            "position": {
                "x": 0.5540239810943604,
                "y": 0.030875300988554955,
                "z": 0.16403168439865112
            }
        },
        "name": "move_to_storage_A"
    },
    "id": "LazyPRM_move_to_storage_A_51",
    "joint_names": [
        "shoulder_pan_joint",
        "shoulder_lift_joint",
        "elbow_joint",
        "wrist_1_joint",
        "wrist_2_joint",
        "wrist_3_joint"
    ],
    "metrics": {
        "cart_traj_len": 0.35378116489415523,
        "distance_elbow_joint": 0.4520377913361959,
        "distance_shoulder_lift_joint": 0.23394165809161827,
        "distance_shoulder_pan_joint": 0.46089866050026834,
        "distance_wrist_1_joint": 0.25029697680991914,
        "distance_wrist_2_joint": 1.1077412815141334,
        "distance_wrist_3_joint": 0.10617395298531784,
        "smoothness": 8.881784197001252e-16,
        "time": 0.011877745,
        "traj_len": 1.6158868528574186,
        "weighted_distance": 2.0448658844853718
    },
    "planner": "LazyPRM",
    "start": {
        "state": {
            "elbow_joint": 1.9715463870305268,
            "shoulder_lift_joint": -1.1394903361783484,
            "shoulder_pan_joint": 0.12281147578464417,
            "wrist_1_joint": -0.7804599489681411,
            "wrist_2_joint": 0.12958660307563738,
            "wrist_3_joint": -3.1924946282119055
        }
    },
    "waypoints": [
        {
            "positions": [
                0.12281147578464417,
                -1.1394903361783484,
                1.9715463870305268,
                -0.7804599489681411,
                0.12958660307563738,
                -3.1924946282119055
            ]
        },
        {
            "positions": [
                0.05696880999889156,
                -1.1729105730485796,
                2.036123214364269,
                -0.8162166599409867,
                0.28783535757765644,
                -3.1773269206425745
            ]
        },
        {
            "positions": [
                -0.008873855786861048,
                -1.2063308099188108,
                2.1007000416980115,
                -0.8519733709138323,
                0.44608411207967547,
                -3.1621592130732434
            ]
        },
        {
            "positions": [
                -0.07471652157261367,
                -1.239751046789042,
                2.1652768690317536,
                -0.8877300818866778,
                0.6043328665816945,
                -3.1469915055039124
            ]
        },
        {
            "positions": [
                -0.14055918735836626,
                -1.273171283659273,
                2.229853696365496,
                -0.9234867928595234,
                0.7625816210837136,
                -3.131823797934581
            ]
        },
        {
            "positions": [
                -0.2064018531441189,
                -1.3065915205295042,
                2.294430523699238,
                -0.959243503832369,
                0.9208303755857328,
                -3.11665609036525
            ]
        },
        {
            "positions": [
                -0.2722445189298715,
                -1.3400117573997354,
                2.3590073510329805,
                -0.9950002148052146,
                1.0790791300877516,
                -3.1014883827959188
            ]
        },
        {
            "positions": [
                -0.33808718471562416,
                -1.3734319942699666,
                2.4235841783667227,
                -1.0307569257780602,
                1.2373278845897708,
                -3.0863206752265877
            ]
        }
    ]
}