{
    "goal": {
        "global_pose": {
            "orientation": {
                "w": 0.7031023502349854,
                "x": -0.7110244035720825,
                "y": 0.007748599164187908,
                "z": 0.005598929710686207
            },
            "position": {
                "x": 0.11585023208521307,
                "y": 0.44412534475326537,
                "z": 0.3711530566215515
            }
        },
        "name": "move_to_auspresseinheit_A"
    },
    "id": "LazyPRM_move_to_auspresseinheit_A_15",
    "joint_names": [
        "shoulder_pan_joint",
        "shoulder_lift_joint",
        "elbow_joint",
        "wrist_1_joint",
        "wrist_2_joint",
        "wrist_3_joint"
    ],
    "metrics": {
        "cart_traj_len": 0.7554456863724699,
        "distance_elbow_joint": 0.4755531634019583,
        "distance_shoulder_lift_joint": 0.5765830873124738,
        "distance_shoulder_pan_joint": 1.0421366318495284,
        "distance_wrist_1_joint": 0.6063254644257278,
        "distance_wrist_2_joint": 0.5298485363565097,
        "distance_wrist_3_joint": 0.790989708886277,
        "smoothness": 0.754384069135948,
        "time": 0.059426819000000006,
        "traj_len": 2.0053519871165943,
        "weighted_distance": 2.596072034976546
    },
    "planner": "LazyPRM",
    "start": {
        "state": {
            "elbow_joint": 2.422574709923281,
            "shoulder_lift_joint": -1.3736533754116391,
            "shoulder_pan_joint": -0.33786336945926293,
            "wrist_1_joint": -1.0288603412921917,
            "wrist_2_joint": 1.2330224858903978,
            "wrist_3_joint": -3.094022268022082
        }
    },
    "waypoints": [
        {
            "positions": [
                -0.33786336945926293,
                -1.3736533754116391,
                2.422574709923281,
                -1.0288603412921917,
                1.2330224858903978,
                -3.094022268022082
            ]
        },
        {
            "positions": [
                -0.19216312287175474,
                -1.453133150372706,
                2.4545302746409585,
                -1.0324776052904436,
                1.1574250254710532,
                -3.039631420178839
            ]
        },
        {
            "positions": [
                -0.04646287628424656,
                -1.532612925333773,
                2.486485839358636,
                -1.0360948692886958,
                1.0818275650517086,
                -2.9852405723355955
            ]
        },
        {
            "positions": [
                0.09923737030326163,
                -1.61209270029484,
                2.5184414040763135,
                -1.0397121332869477,
                1.0062301046323638,
                -2.930849724492352
            ]
        },
        {
            "positions": [
                0.24493761689076982,
                -1.691572475255907,
                2.5503969687939914,
                -1.0433293972851996,
                0.9306326442130193,
                -2.8764588766491084
            ]
        },
        {
            "positions": [
                0.39063786347827806,
                -1.7710522502169739,
                2.582352533511669,
                -1.0469466612834515,
                0.8550351837936746,
                -2.822068028805865
            ]
        },
        {
            "positions": [
                0.5363381100657862,
                -1.8505320251780408,
                2.6143080982293463,
                -1.0505639252817036,
                0.77943772337433,
                -2.7676771809626217
            ]
        },
        {
            "positions": [
                0.6820383566532945,
                -1.9300118001391078,
                2.6462636629470238,
                -1.0541811892799555,
                0.7038402629549854,
                -2.7132863331193784
            ]
        },
        {
            "positions": [
                0.6875970830875371,
                -1.9249556344928564,
                2.58329761035247,
                -0.9089300351704646,
                0.703673684599711,
                -2.8158497766152717
            ]
        },
        {
            "positions": [
                0.6931558095217798,
                -1.9198994688466051,
                2.520331557757916,
                -0.7636788810609736,
                0.7035071062444367,
                -2.918413220111165
            ]
        },
        {
            "positions": [
                0.6987145359560225,
                -1.914843303200354,
                2.457365505163362,
                -0.6184277269514825,
                0.7033405278891623,
                -3.0209766636070583
            ]
        },
        {
            "positions": [
                0.7042732623902651,
                -1.9097871375541027,
                2.394399452568808,
                -0.47317657284199155,
                0.703173949533888,
                -3.1235401071029516
            ]
        }
    ]
}