{
    "goal": {
        "global_pose": {
            "orientation": {
                "w": 0.7031023502349854,
                "x": -0.7110244035720825,
                "y": 0.007748599164187908,
                "z": 0.005598929710686207
            },
            "position": {
                "x": 0.11585023208521307,
                "y": 0.44412534475326537,
                "z": 0.3711530566215515
            }
        },
        "name": "move_to_auspresseinheit_A"
    },
    "id": "LazyPRMstar_move_to_auspresseinheit_A_141",
    "joint_names": [
        "shoulder_pan_joint",
        "shoulder_lift_joint",
        "elbow_joint",
        "wrist_1_joint",
        "wrist_2_joint",
        "wrist_3_joint"
    ],
    "metrics": {
        "cart_traj_len": 1.0391565370723888,
        "distance_elbow_joint": 0.03472902824596513,
        "distance_shoulder_lift_joint": 0.5359717463523961,
        "distance_shoulder_pan_joint": 2.0223214922640187,
        "distance_wrist_1_joint": 0.8032910664315567,
        "distance_wrist_2_joint": 0.6841208524461729,
        "distance_wrist_3_joint": 0.2904916653623859,
        "smoothness": 1.1003119674499706,
        "time": 5.006257834,
        "traj_len": 2.0906759316313215,
        "weighted_distance": 2.5375817426646567
    },
    "planner": "LazyPRMstar",
    "start": {
        "state": {
            "elbow_joint": 2.422574709923281,
            "shoulder_lift_joint": -1.3736533754116391,
            "shoulder_pan_joint": -0.33786336945926293,
            "wrist_1_joint": -1.0288603412921917,
            "wrist_2_joint": 1.2330224858903978,
            "wrist_3_joint": -3.094022268022082
        }
    },
    "waypoints": [
        {
            "positions": [
                -0.33786336945926293,
                -1.3736533754116391,
                2.422574709923281,
                -1.0288603412921917,
                1.2330224858903978,
                -3.094022268022082
            ]
        },
        {
            "positions": [
                -0.4355082630777529,
                -1.4373660992191752,
                2.4230676872559274,
                -0.8920151605496851,
                1.2493554751599474,
                -3.126558960523452
            ]
        },
        {
            "positions": [
                -0.5331531566962429,
                -1.5010788230267114,
                2.4235606645885737,
                -0.7551699798071784,
                1.265688464429497,
                -3.159095653024822
            ]
        },
        {
            "positions": [
                -0.6307980503147329,
                -1.5647915468342477,
                2.4240536419212195,
                -0.6183247990646717,
                1.2820214536990464,
                -3.191632345526192
            ]
        },
        {
            "positions": [
                -0.728442943933223,
                -1.6285042706417838,
                2.424546619253866,
                -0.481479618322165,
                1.298354442968596,
                -3.224169038027562
            ]
        },
        {
            "positions": [
                -0.8260878375517129,
                -1.69221699444932,
                2.425039596586512,
                -0.3446344375796584,
                1.3146874322381457,
                -3.2567057305289318
            ]
        },
        {
            "positions": [
                -0.6069311198129174,
                -1.7232752983514221,
                2.4204304335032645,
                -0.36164374653951886,
                1.2286223027955134,
                -3.238447415835284
            ]
        },
        {
            "positions": [
                -0.3877744020741219,
                -1.7543336022535243,
                2.415821270420017,
                -0.37865305549937933,
                1.1425571733528814,
                -3.2201891011416355
            ]
        },
        {
            "positions": [
                -0.16861768433532642,
                -1.7853919061556265,
                2.411212107336769,
                -0.39566236445923986,
                1.0564920439102492,
                -3.2019307864479876
            ]
        },
        {
            "positions": [
                0.0505390334034691,
                -1.8164502100577287,
                2.406602944253521,
                -0.4126716734191003,
                0.9704269144676171,
                -3.1836724717543397
            ]
        },
        {
            "positions": [
                0.26969575114226463,
                -1.8475085139598308,
                2.4019937811702734,
                -0.4296809823789608,
                0.884361785024985,
                -3.1654141570606917
            ]
        },
        {
            "positions": [
                0.48885246888106004,
                -1.878566817861933,
                2.3973846180870257,
                -0.4466902913388213,
                0.7982966555823529,
                -3.1471558423670434
            ]
        },
        {
            "positions": [
                0.7080091866198557,
                -1.9096251217640352,
                2.392775455003778,
                -0.4636996002986818,
                0.7122315261397206,
                -3.1288975276733955
            ]
        }
    ]
}