{
    "goal": {
        "global_pose": {
            "orientation": {
                "w": 0.5084816217422485,
                "x": -0.49083608388900757,
                "y": 0.5182115435600281,
                "z": -0.4816462993621826
            },
            "position": {
                "x": 0.5540239810943604,
                "y": 0.030875300988554955,
                "z": 0.16403168439865112
            }
        },
        "name": "move_to_storage_A"
    },
    "id": "LazyPRMstar_move_to_storage_A_64",
    "joint_names": [
        "shoulder_pan_joint",
        "shoulder_lift_joint",
        "elbow_joint",
        "wrist_1_joint",
        "wrist_2_joint",
        "wrist_3_joint"
    ],
    "metrics": {
        "cart_traj_len": 0.35338070722042764,
        "distance_elbow_joint": 0.45232636816453864,
        "distance_shoulder_lift_joint": 0.23395222383827985,
        "distance_shoulder_pan_joint": 0.4629534155066904,
        "distance_wrist_1_joint": 0.2574255690876769,
        "distance_wrist_2_joint": 1.09529079749116,
        "distance_wrist_3_joint": 0.1003490241566607,
        "smoothness": 4.440892133664971e-16,
        "time": 5.000121129,
        "traj_len": 1.6131637853128884,
        "weighted_distance": 2.0385563060992857
    },
    "planner": "LazyPRMstar",
    "start": {
        "state": {
            "elbow_joint": 1.9715463870305268,
            "shoulder_lift_joint": -1.1394903361783484,
            "shoulder_pan_joint": 0.12281147578464417,
            "wrist_1_joint": -0.7804599489681411,
            "wrist_2_joint": 0.12958660307563738,
            "wrist_3_joint": -3.1924946282119055
        }
    },
    "waypoints": [
        {
            "positions": [
                0.12281147578464417,
                -1.1394903361783484,
                1.9715463870305268,
                -0.7804599489681411,
                0.12958660307563738,
                -3.1924946282119055
            ]
        },
        {
            "positions": [
                0.05667527356940269,
                -1.1729120824409598,
                2.036164439625461,
                -0.8172350302663807,
                0.286056717002946,
                -3.1781590533323825
            ]
        },
        {
            "positions": [
                -0.009460928645838793,
                -1.2063338287035712,
                2.100782492220395,
                -0.8540101115646201,
                0.4425268309302546,
                -3.16382347845286
            ]
        },
        {
            "positions": [
                -0.07559713086108026,
                -1.2397555749661826,
                2.165400544815329,
                -0.8907851928628597,
                0.5989969448575632,
                -3.1494879035733367
            ]
        },
        {
            "positions": [
                -0.14173333307632174,
                -1.273177321228794,
                2.230018597410263,
                -0.9275602741610993,
                0.7554670587848717,
                -3.1351523286938137
            ]
        },
        {
            "positions": [
                -0.20786953529156327,
                -1.3065990674914054,
                2.2946366500051973,
                -0.9643353554593388,
                0.9119371727121803,
                -3.1208167538142906
            ]
        },
        {
            "positions": [
                -0.2740057375068047,
                -1.3400208137540168,
                2.3592547026001314,
                -1.0011104367575785,
                1.068407286639489,
                -3.106481178934768
            ]
        },
        {
            "positions": [
                -0.3401419397220462,
                -1.3734425600166282,
                2.4238727551950654,
                -1.037885518055818,
                1.2248774005667975,
                -3.092145604055245
            ]
        }
    ]
}