{
    "goal": {
        "global_pose": {
            "orientation": {
                "w": 0.5084816217422485,
                "x": -0.49083608388900757,
                "y": 0.5182115435600281,
                "z": -0.4816462993621826
            },
            "position": {
                "x": 0.5540239810943604,
                "y": 0.030875300988554955,
                "z": 0.16403168439865112
            }
        },
        "name": "move_to_storage_A"
    },
    "id": "LazyPRMstar_move_to_storage_A_50",
    "joint_names": [
        "shoulder_pan_joint",
        "shoulder_lift_joint",
        "elbow_joint",
        "wrist_1_joint",
        "wrist_2_joint",
        "wrist_3_joint"
    ],
    "metrics": {
        "cart_traj_len": 0.3534951578129888,
        "distance_elbow_joint": 0.45207429700812307,
        "distance_shoulder_lift_joint": 0.23122179060262527,
        "distance_shoulder_pan_joint": 0.458504898088371,
        "distance_wrist_1_joint": 0.25805384079221094,
        "distance_wrist_2_joint": 1.1142230267081181,
        "distance_wrist_3_joint": 0.10290201802294341,
        "smoothness": 4.440892098500626e-16,
        "time": 5.000210224,
        "traj_len": 1.6177082157244527,
        "weighted_distance": 2.048184751131745
    },
    "planner": "LazyPRMstar",
    "start": {
        "state": {
            "elbow_joint": 1.9715463870305268,
            "shoulder_lift_joint": -1.1394903361783484,
            "shoulder_pan_joint": 0.12281147578464417,
            "wrist_1_joint": -0.7804599489681411,
            "wrist_2_joint": 0.12958660307563738,
            "wrist_3_joint": -3.1924946282119055
        }
    },
    "waypoints": [
        {
            "positions": [
                0.12281147578464417,
                -1.1394903361783484,
                1.9715463870305268,
                -0.7804599489681411,
                0.12958660307563738,
                -3.1924946282119055
            ]
        },
        {
            "positions": [
                0.057310776057734034,
                -1.172522020550152,
                2.0361284294602586,
                -0.8173247833670284,
                0.2887613211767971,
                -3.177794339922914
            ]
        },
        {
            "positions": [
                -0.008189923669176105,
                -1.2055537049219556,
                2.1007104718899905,
                -0.8541896177659156,
                0.4479360392779568,
                -3.1630940516339217
            ]
        },
        {
            "positions": [
                -0.07369062339608624,
                -1.2385853892937593,
                2.1652925143197224,
                -0.891054452164803,
                0.6071107573791166,
                -3.14839376334493
            ]
        },
        {
            "positions": [
                -0.13919132312299637,
                -1.2716170736655628,
                2.2298745567494542,
                -0.9279192865636902,
                0.7662854754802763,
                -3.1336934750559378
            ]
        },
        {
            "positions": [
                -0.20469202284990656,
                -1.3046487580373665,
                2.294456599179186,
                -0.9647841209625775,
                0.925460193581436,
                -3.118993186766946
            ]
        },
        {
            "positions": [
                -0.27019272257681665,
                -1.33768044240917,
                2.359038641608918,
                -1.0016489553614647,
                1.0846349116825957,
                -3.104292898477954
            ]
        },
        {
            "positions": [
                -0.33569342230372684,
                -1.3707121267809736,
                2.42362068403865,
                -1.038513789760352,
                1.2438096297837555,
                -3.089592610188962
            ]
        }
    ]
}