{
    "goal": {
        "global_pose": {
            "orientation": {
                "w": 0.7031023502349854,
                "x": -0.7110244035720825,
                "y": 0.007748599164187908,
                "z": 0.005598929710686207
            },
            "position": {
                "x": 0.11585023208521307,
                "y": 0.44412534475326537,
                "z": 0.3711530566215515
            }
        },
        "name": "move_to_auspresseinheit_A"
    },
    "id": "LazyPRM_move_to_auspresseinheit_A_117",
    "joint_names": [
        "shoulder_pan_joint",
        "shoulder_lift_joint",
        "elbow_joint",
        "wrist_1_joint",
        "wrist_2_joint",
        "wrist_3_joint"
    ],
    "metrics": {
        "cart_traj_len": 2.363210033355025,
        "distance_elbow_joint": 1.06024865577122,
        "distance_shoulder_lift_joint": 1.8899228249246849,
        "distance_shoulder_pan_joint": 2.282327856434345,
        "distance_wrist_1_joint": 2.7361870211735244,
        "distance_wrist_2_joint": 1.8683169867092684,
        "distance_wrist_3_joint": 3.1506247612291296,
        "smoothness": 1.2136498748510174,
        "time": 0.127243525,
        "traj_len": 3.6038351941011637,
        "weighted_distance": 4.888085682205582
    },
    "planner": "LazyPRM",
    "start": {
        "state": {
            "elbow_joint": 2.422574709923281,
            "shoulder_lift_joint": -1.3736533754116391,
            "shoulder_pan_joint": -0.33786336945926293,
            "wrist_1_joint": -1.0288603412921917,
            "wrist_2_joint": 1.2330224858903978,
            "wrist_3_joint": -3.094022268022082
        }
    },
    "waypoints": [
        {
            "positions": [
                -0.33786336945926293,
                -1.3736533754116391,
                2.422574709923281,
                -1.0288603412921917,
                1.2330224858903978,
                -3.094022268022082
            ]
        },
        {
            "positions": [
                -0.25089180927433646,
                -1.455778214999607,
                2.382159506308942,
                -1.0522657630386067,
                1.2254792073923908,
                -2.963920103837105
            ]
        },
        {
            "positions": [
                -0.16392024908940997,
                -1.537903054587575,
                2.3417443026946034,
                -1.075671184785022,
                1.2179359288943838,
                -2.8338179396521284
            ]
        },
        {
            "positions": [
                -0.07694868890448348,
                -1.6200278941755428,
                2.3013290990802644,
                -1.0990766065314372,
                1.210392650396377,
                -2.7037157754671512
            ]
        },
        {
            "positions": [
                0.010022871280442991,
                -1.7021527337635105,
                2.260913895465926,
                -1.1224820282778523,
                1.2028493718983702,
                -2.573613611282174
            ]
        },
        {
            "positions": [
                0.09699443146536951,
                -1.7842775733514784,
                2.2204986918515868,
                -1.1458874500242673,
                1.1953060934003632,
                -2.443511447097197
            ]
        },
        {
            "positions": [
                0.18396599165029598,
                -1.8664024129394463,
                2.1800834882372477,
                -1.1692928717706825,
                1.1877628149023562,
                -2.31340928291222
            ]
        },
        {
            "positions": [
                0.27093755183522256,
                -1.9485272525274142,
                2.139668284622909,
                -1.1926982935170978,
                1.1802195364043493,
                -2.1833071187272433
            ]
        },
        {
            "positions": [
                0.3579091120201489,
                -2.030652092115382,
                2.09925308100857,
                -1.2161037152635128,
                1.1726762579063423,
                -2.053204954542266
            ]
        },
        {
            "positions": [
                0.4448806722050754,
                -2.11277693170335,
                2.0588378773942315,
                -1.2395091370099278,
                1.1651329794083356,
                -1.923102790357289
            ]
        },
        {
            "positions": [
                0.5318522323900019,
                -2.1949017712913177,
                2.0184226737798925,
                -1.262914558756343,
                1.1575897009103286,
                -1.7930006261723122
            ]
        },
        {
            "positions": [
                0.6188237925749283,
                -2.2770266108792856,
                1.9780074701655537,
                -1.2863199805027583,
                1.1500464224123217,
                -1.6628984619873353
            ]
        },
        {
            "positions": [
                0.7057953527598548,
                -2.3591514504672535,
                1.9375922665512149,
                -1.3097254022491733,
                1.1425031439143147,
                -1.5327962978023582
            ]
        },
        {
            "positions": [
                0.7391122232473106,
                -2.3333294558581303,
                1.9745223842510864,
                -1.1914101682265883,
                1.083226717376447,
                -1.6431310267948753
            ]
        },
        {
            "positions": [
                0.7724290937347665,
                -2.3075074612490076,
                2.011452501950958,
                -1.0730949342040033,
                1.0239502908385794,
                -1.7534657557873925
            ]
        },
        {
            "positions": [
                0.8057459642222223,
                -2.2816854666398845,
                2.048382619650829,
                -0.9547797001814182,
                0.9646738643007116,
                -1.8638004847799097
            ]
        },
        {
            "positions": [
                0.8390628347096782,
                -2.2558634720307613,
                2.0853127373507006,
                -0.8364644661588332,
                0.9053974377628438,
                -1.9741352137724268
            ]
        },
        {
            "positions": [
                0.872379705197134,
                -2.2300414774216386,
                2.122242855050572,
                -0.7181492321362482,
                0.846121011224976,
                -2.0844699427649442
            ]
        },
        {
            "positions": [
                0.9056965756845898,
                -2.2042194828125155,
                2.1591729727504436,
                -0.5998339981136631,
                0.7868445846871084,
                -2.194804671757461
            ]
        },
        {
            "positions": [
                0.9390134461720457,
                -2.1783974882033923,
                2.1961030904503147,
                -0.4815187640910781,
                0.7275681581492406,
                -2.3051394007499786
            ]
        },
        {
            "positions": [
                0.9723303166595016,
                -2.1525754935942696,
                2.2330332081501862,
                -0.36320353006849304,
                0.6682917316113728,
                -2.4154741297424955
            ]
        },
        {
            "positions": [
                1.0056471871469574,
                -2.1267534989851464,
                2.2699633258500578,
                -0.244888296045908,
                0.6090153050735051,
                -2.525808858735013
            ]
        },
        {
            "positions": [
                1.0512543587273617,
                -2.0633560203301533,
                2.296317715317095,
                -0.1619517351537666,
                0.5270892569568849,
                -2.5847302006248034
            ]
        },
        {
            "positions": [
                1.0968615303077662,
                -1.9999585416751604,
                2.3226721047841328,
                -0.07901517426162516,
                0.44516320884026483,
                -2.6436515425145943
            ]
        },
        {
            "positions": [
                1.1424687018881705,
                -1.9365610630201673,
                2.34902649425117,
                0.003921386630516249,
                0.36323716072364465,
                -2.702572884404385
            ]
        },
        {
            "positions": [
                1.188075873468575,
                -1.8731635843651742,
                2.3753808837182078,
                0.08685794752265769,
                0.2813111126070245,
                -2.7614942262941753
            ]
        },
        {
            "positions": [
                1.2336830450489793,
                -1.8097661057101813,
                2.401735273185245,
                0.16979450841479915,
                0.19938506449040433,
                -2.820415568183966
            ]
        },
        {
            "positions": [
                1.2792902166293838,
                -1.7463686270551881,
                2.4280896626522828,
                0.2527310693069405,
                0.1174590163737842,
                -2.8793369100737567
            ]
        },
        {
            "positions": [
                1.324897388209788,
                -1.682971148400195,
                2.45444405211932,
                0.33566763019908197,
                0.03553296825716401,
                -2.938258251963547
            ]
        },
        {
            "positions": [
                1.236387802671889,
                -1.7155774980861966,
                2.446099134000599,
                0.21996349766075524,
                0.13136546383945463,
                -2.9645349429418637
            ]
        },
        {
            "positions": [
                1.1478782171339899,
                -1.7481838477721985,
                2.4377542158818777,
                0.10425936512242848,
                0.22719795942174528,
                -2.9908116339201807
            ]
        },
        {
            "positions": [
                1.0593686315960908,
                -1.7807901974582,
                2.4294092977631565,
                -0.011444767415898283,
                0.32303045500403593,
                -3.017088324898497
            ]
        },
        {
            "positions": [
                0.9708590460581916,
                -1.813396547144202,
                2.421064379644435,
                -0.12714889995422501,
                0.41886295058632655,
                -3.0433650158768137
            ]
        },
        {
            "positions": [
                0.8823494605202926,
                -1.8460028968302036,
                2.4127194615257137,
                -0.24285303249255186,
                0.5146954461686173,
                -3.0696417068551303
            ]
        },
        {
            "positions": [
                0.7938398749823935,
                -1.8786092465162052,
                2.4043745434069925,
                -0.35855716503087853,
                0.6105279417509079,
                -3.0959183978334472
            ]
        },
        {
            "positions": [
                0.7053302894444944,
                -1.911215596202207,
                2.3960296252882713,
                -0.4742612975692053,
                0.7063604373331985,
                -3.1221950888117638
            ]
        }
    ]
}