{
    "goal": {
        "global_pose": {
            "orientation": {
                "w": 0.5084816217422485,
                "x": -0.49083608388900757,
                "y": 0.5182115435600281,
                "z": -0.4816462993621826
            },
            "position": {
                "x": 0.5540239810943604,
                "y": 0.030875300988554955,
                "z": 0.16403168439865112
            }
        },
        "name": "move_to_storage_A"
    },
    "id": "LazyPRMstar_move_to_storage_A_86",
    "joint_names": [
        "shoulder_pan_joint",
        "shoulder_lift_joint",
        "elbow_joint",
        "wrist_1_joint",
        "wrist_2_joint",
        "wrist_3_joint"
    ],
    "metrics": {
        "cart_traj_len": 0.35294847874335905,
        "distance_elbow_joint": 0.4498600652732949,
        "distance_shoulder_lift_joint": 0.2343577133802075,
        "distance_shoulder_pan_joint": 0.46144630036511153,
        "distance_wrist_1_joint": 0.24681393444202093,
        "distance_wrist_2_joint": 1.0984644801100591,
        "distance_wrist_3_joint": 0.09142104107303295,
        "smoothness": 8.881784197001252e-16,
        "time": 5.000361222,
        "traj_len": 1.606973408194338,
        "weighted_distance": 2.027432867283618
    },
    "planner": "LazyPRMstar",
    "start": {
        "state": {
            "elbow_joint": 1.9715463870305268,
            "shoulder_lift_joint": -1.1394903361783484,
            "shoulder_pan_joint": 0.12281147578464417,
            "wrist_1_joint": -0.7804599489681411,
            "wrist_2_joint": 0.12958660307563738,
            "wrist_3_joint": -3.1924946282119055
        }
    },
    "waypoints": [
        {
            "positions": [
                0.12281147578464417,
                -1.1394903361783484,
                1.9715463870305268,
                -0.7804599489681411,
                0.12958660307563738,
                -3.1924946282119055
            ]
        },
        {
            "positions": [
                0.05689057573248539,
                -1.172970009518378,
                2.0358121106409977,
                -0.8157190824598584,
                0.28651010023421725,
                -3.1794344794871865
            ]
        },
        {
            "positions": [
                -0.009030324319673391,
                -1.2064496828584077,
                2.100077834251468,
                -0.8509782159515756,
                0.4434335973927971,
                -3.1663743307624674
            ]
        },
        {
            "positions": [
                -0.07495122437183217,
                -1.2399293561984372,
                2.164343557861939,
                -0.8862373494432929,
                0.600357094551377,
                -3.1533141820377484
            ]
        },
        {
            "positions": [
                -0.14087212442399094,
                -1.273409029538467,
                2.2286092814724094,
                -0.9214964829350102,
                0.7572805917099569,
                -3.1402540333130298
            ]
        },
        {
            "positions": [
                -0.20679302447614978,
                -1.3068887028784966,
                2.2928750050828803,
                -0.9567556164267275,
                0.9142040888685368,
                -3.1271938845883107
            ]
        },
        {
            "positions": [
                -0.2727139245283085,
                -1.3403683762185263,
                2.357140728693351,
                -0.9920147499184447,
                1.0711275860271166,
                -3.1141337358635917
            ]
        },
        {
            "positions": [
                -0.33863482458046734,
                -1.3738480495585559,
                2.4214064523038217,
                -1.027273883410162,
                1.2280510831856966,
                -3.1010735871388726
            ]
        }
    ]
}