{
    "goal": {
        "global_pose": {
            "orientation": {
                "w": 0.7047431468963623,
                "x": -0.7094548344612122,
                "y": 0.0024358443915843964,
                "z": -0.0022348060738295317
            },
            "position": {
                "x": 0.6094750761985779,
                "y": 0.3671506643295288,
                "z": 0.19426114857196808
            }
        },
        "name": "move_to_magneteinheit_A"
    },
    "id": "LazyPRM_move_to_magneteinheit_A_103",
    "joint_names": [
        "shoulder_pan_joint",
        "shoulder_lift_joint",
        "elbow_joint",
        "wrist_1_joint",
        "wrist_2_joint",
        "wrist_3_joint"
    ],
    "metrics": {
        "cart_traj_len": 1.8795727629696146,
        "distance_elbow_joint": 3.90764242457867,
        "distance_shoulder_lift_joint": 0.6984601797096219,
        "distance_shoulder_pan_joint": 1.2416885608183916,
        "distance_wrist_1_joint": 1.4822125144894567,
        "distance_wrist_2_joint": 1.6989940118360687,
        "distance_wrist_3_joint": 1.0943241153200167,
        "smoothness": 2.3026848007699876e-16,
        "time": 0.079314211,
        "traj_len": 3.181716801783626,
        "weighted_distance": 3.9361372643389596
    },
    "planner": "LazyPRM",
    "start": {
        "state": {
            "elbow_joint": -1.919643507792019,
            "shoulder_lift_joint": -0.07675430207160344,
            "shoulder_pan_joint": -1.1188671864651873,
            "wrist_1_joint": 0.42560062535961957,
            "wrist_2_joint": 1.5706038300724876,
            "wrist_3_joint": 1.1188968870953055
        }
    },
    "waypoints": [
        {
            "positions": [
                -1.1188671864651873,
                -0.07675430207160344,
                -1.919643507792019,
                0.42560062535961957,
                1.5706038300724876,
                1.1188968870953055
            ]
        },
        {
            "positions": [
                -1.0711099341260184,
                -0.10361815513735813,
                -1.7693495683851472,
                0.48260879899382947,
                1.505257906540331,
                1.0768074980445357
            ]
        },
        {
            "positions": [
                -1.0233526817868495,
                -0.13048200820311281,
                -1.6190556289782752,
                0.5396169726280393,
                1.4399119830081746,
                1.0347181089937658
            ]
        },
        {
            "positions": [
                -0.9755954294476806,
                -0.15734586126886752,
                -1.4687616895714033,
                0.5966251462622492,
                1.374566059476018,
                0.992628719942996
            ]
        },
        {
            "positions": [
                -0.9278381771085117,
                -0.1842097143346222,
                -1.3184677501645314,
                0.653633319896459,
                1.3092201359438618,
                0.9505393308922261
            ]
        },
        {
            "positions": [
                -0.8800809247693429,
                -0.2110735674003769,
                -1.1681738107576596,
                0.710641493530669,
                1.243874212411705,
                0.9084499418414562
            ]
        },
        {
            "positions": [
                -0.8323236724301739,
                -0.2379374204661316,
                -1.0178798713507875,
                0.7676496671648788,
                1.1785282888795487,
                0.8663605527906864
            ]
        },
        {
            "positions": [
                -0.784566420091005,
                -0.26480127353188626,
                -0.8675859319439156,
                0.8246578407990887,
                1.1131823653473922,
                0.8242711637399165
            ]
        },
        {
            "positions": [
                -0.736809167751836,
                -0.291665126597641,
                -0.7172919925370436,
                0.8816660144332986,
                1.0478364418152357,
                0.7821817746891465
            ]
        },
        {
            "positions": [
                -0.6890519154126672,
                -0.31852897966339566,
                -0.5669980531301717,
                0.9386741880675085,
                0.9824905182830792,
                0.7400923856383768
            ]
        },
        {
            "positions": [
                -0.6412946630734983,
                -0.34539283272915033,
                -0.41670411372329985,
                0.9956823617017183,
                0.9171445947509227,
                0.6980029965876068
            ]
        },
        {
            "positions": [
                -0.5935374107343293,
                -0.372256685794905,
                -0.266410174316428,
                1.0526905353359282,
                0.8517986712187663,
                0.6559136075368369
            ]
        },
        {
            "positions": [
                -0.5457801583951604,
                -0.39912053886065973,
                -0.11611623490955592,
                1.109698708970138,
                0.7864527476866097,
                0.613824218486067
            ]
        },
        {
            "positions": [
                -0.49802290605599153,
                -0.4259843919264144,
                0.03417770449731594,
                1.1667068826043479,
                0.7211068241544533,
                0.5717348294352972
            ]
        },
        {
            "positions": [
                -0.4502656537168227,
                -0.4528482449921691,
                0.1844716439041878,
                1.2237150562385577,
                0.6557609006222969,
                0.5296454403845273
            ]
        },
        {
            "positions": [
                -0.40250840137765376,
                -0.47971209805792375,
                0.33476558331105966,
                1.2807232298727675,
                0.5904149770901403,
                0.48755605133375746
            ]
        },
        {
            "positions": [
                -0.3547511490384848,
                -0.5065759511236785,
                0.48505952271793196,
                1.3377314035069776,
                0.5250690535579838,
                0.4454666622829875
            ]
        },
        {
            "positions": [
                -0.30699389669931587,
                -0.5334398041894332,
                0.6353534621248038,
                1.3947395771411875,
                0.4597231300258273,
                0.4033772732322177
            ]
        },
        {
            "positions": [
                -0.25923664436014704,
                -0.5603036572551878,
                0.7856474015316757,
                1.4517477507753973,
                0.3943772064936708,
                0.36128788418144786
            ]
        },
        {
            "positions": [
                -0.2114793920209781,
                -0.5871675103209426,
                0.9359413409385475,
                1.5087559244096072,
                0.3290312829615145,
                0.319198495130678
            ]
        },
        {
            "positions": [
                -0.16372213968180915,
                -0.6140313633866972,
                1.0862352803454194,
                1.5657640980438172,
                0.2636853594293578,
                0.277109106079908
            ]
        },
        {
            "positions": [
                -0.11596488734264021,
                -0.640895216452452,
                1.2365292197522912,
                1.622772271678027,
                0.19833943589720127,
                0.23501971702913815
            ]
        },
        {
            "positions": [
                -0.06820763500347127,
                -0.6677590695182065,
                1.386823159159163,
                1.6797804453122367,
                0.13299351236504497,
                0.1929303279783683
            ]
        },
        {
            "positions": [
                -0.020450382664302547,
                -0.6946229225839613,
                1.537117098566035,
                1.7367886189464465,
                0.06764758883288846,
                0.15084093892759853
            ]
        },
        {
            "positions": [
                0.02730686967486662,
                -0.7214867756497161,
                1.6874110379729073,
                1.7937967925806566,
                0.0023016653007317256,
                0.10875154987682856
            ]
        },
        {
            "positions": [
                0.07506412201403534,
                -0.7483506287154706,
                1.8377049773797791,
                1.8508049662148665,
                -0.06304425823142457,
                0.06666216082605869
            ]
        },
        {
            "positions": [
                0.12282137435320428,
                -0.7752144817812254,
                1.987998916786651,
                1.9078131398490763,
                -0.12839018176358113,
                0.024572771775288854
            ]
        }
    ]
}