{
    "goal": {
        "global_pose": {
            "orientation": {
                "w": 0.7031023502349854,
                "x": -0.7110244035720825,
                "y": 0.007748599164187908,
                "z": 0.005598929710686207
            },
            "position": {
                "x": 0.11585023208521307,
                "y": 0.44412534475326537,
                "z": 0.3711530566215515
            }
        },
        "name": "move_to_auspresseinheit_A"
    },
    "id": "LazyPRMstar_move_to_auspresseinheit_A_63",
    "joint_names": [
        "shoulder_pan_joint",
        "shoulder_lift_joint",
        "elbow_joint",
        "wrist_1_joint",
        "wrist_2_joint",
        "wrist_3_joint"
    ],
    "metrics": {
        "cart_traj_len": 0.8143418434207277,
        "distance_elbow_joint": 0.12964768942449645,
        "distance_shoulder_lift_joint": 0.537334886539131,
        "distance_shoulder_pan_joint": 1.2507127006370895,
        "distance_wrist_1_joint": 0.625992863695669,
        "distance_wrist_2_joint": 1.1301118751206176,
        "distance_wrist_3_joint": 0.07316003227863721,
        "smoothness": 1.0291168576844658,
        "time": 5.005353413,
        "traj_len": 1.9357066016562636,
        "weighted_distance": 2.376843463728565
    },
    "planner": "LazyPRMstar",
    "start": {
        "state": {
            "elbow_joint": 2.422574709923281,
            "shoulder_lift_joint": -1.3736533754116391,
            "shoulder_pan_joint": -0.33786336945926293,
            "wrist_1_joint": -1.0288603412921917,
            "wrist_2_joint": 1.2330224858903978,
            "wrist_3_joint": -3.094022268022082
        }
    },
    "waypoints": [
        {
            "positions": [
                -0.33786336945926293,
                -1.3736533754116391,
                2.422574709923281,
                -1.0288603412921917,
                1.2330224858903978,
                -3.094022268022082
            ]
        },
        {
            "positions": [
                -0.36339561827780814,
                -1.4103957654207007,
                2.4031140970114295,
                -0.882029466678507,
                1.3096787648760775,
                -3.0890757712156374
            ]
        },
        {
            "positions": [
                -0.3889278670963534,
                -1.4471381554297622,
                2.3836534840995784,
                -0.7351985920648223,
                1.3863350438617574,
                -3.084129274409192
            ]
        },
        {
            "positions": [
                -0.4144601159148986,
                -1.4838805454388235,
                2.3641928711877274,
                -0.5883677174511376,
                1.4629913228474374,
                -3.0791827776027474
            ]
        },
        {
            "positions": [
                -0.43999236473344383,
                -1.520622935447885,
                2.344732258275876,
                -0.4415368428374529,
                1.539647601833117,
                -3.0742362807963026
            ]
        },
        {
            "positions": [
                -0.27590897825302835,
                -1.5763894106625829,
                2.352133006529746,
                -0.4470610378718715,
                1.4220066362362744,
                -3.0818611443752824
            ]
        },
        {
            "positions": [
                -0.11182559177261286,
                -1.6321558858772809,
                2.3595337547836164,
                -0.4525852329062901,
                1.304365670639432,
                -3.089486007954262
            ]
        },
        {
            "positions": [
                0.05225779470780262,
                -1.6879223610919787,
                2.3669345030374864,
                -0.4581094279407087,
                1.1867247050425893,
                -3.097110871533242
            ]
        },
        {
            "positions": [
                0.2163411811882181,
                -1.7436888363066765,
                2.3743352512913565,
                -0.4636336229751273,
                1.0690837394457469,
                -3.104735735112221
            ]
        },
        {
            "positions": [
                0.38042456766863364,
                -1.7994553115213745,
                2.3817359995452265,
                -0.46915781800954587,
                0.9514427738489041,
                -3.112360598691201
            ]
        },
        {
            "positions": [
                0.5445079541490491,
                -1.8552217867360723,
                2.389136747799097,
                -0.47468201304396446,
                0.8338018082520616,
                -3.1199854622701806
            ]
        },
        {
            "positions": [
                0.7085913406294647,
                -1.91098826195077,
                2.396537496052967,
                -0.48020620807838305,
                0.716160842655219,
                -3.1276103258491603
            ]
        }
    ]
}