{
    "goal": {
        "global_pose": {
            "orientation": {
                "w": 0.7031023502349854,
                "x": -0.7110244035720825,
                "y": 0.007748599164187908,
                "z": 0.005598929710686207
            },
            "position": {
                "x": 0.11585023208521307,
                "y": 0.44412534475326537,
                "z": 0.3711530566215515
            }
        },
        "name": "move_to_auspresseinheit_A"
    },
    "id": "LazyPRMstar_move_to_auspresseinheit_A_118",
    "joint_names": [
        "shoulder_pan_joint",
        "shoulder_lift_joint",
        "elbow_joint",
        "wrist_1_joint",
        "wrist_2_joint",
        "wrist_3_joint"
    ],
    "metrics": {
        "cart_traj_len": 0.7725889657048695,
        "distance_elbow_joint": 0.1272330616091093,
        "distance_shoulder_lift_joint": 0.5377248472682166,
        "distance_shoulder_pan_joint": 1.6126791005438443,
        "distance_wrist_1_joint": 0.7084653984286846,
        "distance_wrist_2_joint": 0.5180126580507851,
        "distance_wrist_3_joint": 0.28633367389028486,
        "smoothness": 0.8797706612668893,
        "time": 5.0084173970000005,
        "traj_len": 1.9469074810557703,
        "weighted_distance": 2.364232252561276
    },
    "planner": "LazyPRMstar",
    "start": {
        "state": {
            "elbow_joint": 2.422574709923281,
            "shoulder_lift_joint": -1.3736533754116391,
            "shoulder_pan_joint": -0.33786336945926293,
            "wrist_1_joint": -1.0288603412921917,
            "wrist_2_joint": 1.2330224858903978,
            "wrist_3_joint": -3.094022268022082
        }
    },
    "waypoints": [
        {
            "positions": [
                -0.33786336945926293,
                -1.3736533754116391,
                2.422574709923281,
                -1.0288603412921917,
                1.2330224858903978,
                -3.094022268022082
            ]
        },
        {
            "positions": [
                -0.3945238229974385,
                -1.446141608981133,
                2.432856687318281,
                -0.9033387467662508,
                1.1643177238755962,
                -3.125607879673564
            ]
        },
        {
            "positions": [
                -0.4511842765356141,
                -1.5186298425506268,
                2.443138664713281,
                -0.7778171522403099,
                1.0956129618607948,
                -3.1571934913250455
            ]
        },
        {
            "positions": [
                -0.5078447300737896,
                -1.5911180761201207,
                2.4534206421082807,
                -0.652295557714369,
                1.0269081998459932,
                -3.188779102976527
            ]
        },
        {
            "positions": [
                -0.5645051836119652,
                -1.6636063096896145,
                2.4637026195032807,
                -0.5267739631884282,
                0.9582034378311918,
                -3.2203647146280088
            ]
        },
        {
            "positions": [
                -0.6211656371501408,
                -1.7360945432591084,
                2.4739845968982808,
                -0.40125236866248726,
                0.8894986758163903,
                -3.2519503262794904
            ]
        },
        {
            "positions": [
                -0.3552902705795476,
                -1.7711512791432578,
                2.458819961971459,
                -0.41742385382228325,
                0.8546009062210348,
                -3.226269203152915
            ]
        },
        {
            "positions": [
                -0.08941490400895435,
                -1.8062080150274074,
                2.443655327044637,
                -0.43359533898207925,
                0.8197031366256793,
                -3.20058808002634
            ]
        },
        {
            "positions": [
                0.17646046256163894,
                -1.8412647509115567,
                2.428490692117815,
                -0.44976682414187524,
                0.7848053670303237,
                -3.1749069568997643
            ]
        },
        {
            "positions": [
                0.44233582913223213,
                -1.8763214867957063,
                2.413326057190993,
                -0.46593830930167124,
                0.7499075974349682,
                -3.149225833773189
            ]
        },
        {
            "positions": [
                0.7082111957028254,
                -1.9113782226798557,
                2.398161422264171,
                -0.48210979446146723,
                0.7150098278396126,
                -3.123544710646614
            ]
        }
    ]
}