{
    "goal": {
        "global_pose": {
            "orientation": {
                "w": 0.7047431468963623,
                "x": -0.7094548344612122,
                "y": 0.0024358443915843964,
                "z": -0.0022348060738295317
            },
            "position": {
                "x": 0.6094750761985779,
                "y": 0.3671506643295288,
                "z": 0.19426114857196808
            }
        },
        "name": "move_to_magneteinheit_A"
    },
    "id": "LazyPRMstar_move_to_magneteinheit_A_134",
    "joint_names": [
        "shoulder_pan_joint",
        "shoulder_lift_joint",
        "elbow_joint",
        "wrist_1_joint",
        "wrist_2_joint",
        "wrist_3_joint"
    ],
    "metrics": {
        "cart_traj_len": 1.917616027916554,
        "distance_elbow_joint": 3.902778477320105,
        "distance_shoulder_lift_joint": 1.8347088409926033,
        "distance_shoulder_pan_joint": 1.2419539068210905,
        "distance_wrist_1_joint": 1.2606793378460752,
        "distance_wrist_2_joint": 1.440621232142124,
        "distance_wrist_3_joint": 4.602758044866178,
        "smoothness": 0.19510433505569943,
        "time": 5.053758698,
        "traj_len": 3.7793517751048493,
        "weighted_distance": 5.117647555245352
    },
    "planner": "LazyPRMstar",
    "start": {
        "state": {
            "elbow_joint": -1.919643507792019,
            "shoulder_lift_joint": -0.07675430207160344,
            "shoulder_pan_joint": -1.1188671864651873,
            "wrist_1_joint": 0.42560062535961957,
            "wrist_2_joint": 1.5706038300724876,
            "wrist_3_joint": 1.1188968870953055
        }
    },
    "waypoints": [
        {
            "positions": [
                -1.1188671864651873,
                -0.07675430207160344,
                -1.919643507792019,
                0.42560062535961957,
                1.5706038300724876,
                1.1188968870953055
            ]
        },
        {
            "positions": [
                -1.0917758586769486,
                -0.1207438505645402,
                -1.8046827247618527,
                0.39601526481010063,
                1.5338357028781056,
                0.9844352576997457
            ]
        },
        {
            "positions": [
                -1.06468453088871,
                -0.16473339905747697,
                -1.6897219417316862,
                0.36642990426058175,
                1.4970675756837235,
                0.8499736283041858
            ]
        },
        {
            "positions": [
                -1.0375932031004713,
                -0.2087229475504137,
                -1.5747611587015198,
                0.33684454371106287,
                1.4602994484893415,
                0.7155119989086258
            ]
        },
        {
            "positions": [
                -1.0105018753122326,
                -0.25271249604335044,
                -1.4598003756713533,
                0.30725918316154394,
                1.4235313212949594,
                0.581050369513066
            ]
        },
        {
            "positions": [
                -0.9834105475239939,
                -0.29670204453628723,
                -1.344839592641187,
                0.277673822612025,
                1.3867631941005774,
                0.44658874011750616
            ]
        },
        {
            "positions": [
                -0.9563192197357552,
                -0.34069159302922397,
                -1.2298788096110205,
                0.24808846206250612,
                1.3499950669061955,
                0.3121271107219462
            ]
        },
        {
            "positions": [
                -0.9292278919475165,
                -0.3846811415221607,
                -1.114918026580854,
                0.2185031015129872,
                1.3132269397118135,
                0.17766548132638638
            ]
        },
        {
            "positions": [
                -0.9021365641592778,
                -0.4286706900150975,
                -0.9999572435506876,
                0.1889177409634683,
                1.2764588125174314,
                0.04320385193082643
            ]
        },
        {
            "positions": [
                -0.8750452363710391,
                -0.4726602385080342,
                -0.8849964605205212,
                0.15933238041394943,
                1.2396906853230494,
                -0.0912577774647334
            ]
        },
        {
            "positions": [
                -0.8479539085828005,
                -0.516649787000971,
                -0.7700356774903547,
                0.1297470198644305,
                1.2029225581286673,
                -0.22571940686029324
            ]
        },
        {
            "positions": [
                -0.8208625807945618,
                -0.5606393354939077,
                -0.6550748944601883,
                0.10016165931491161,
                1.1661544309342853,
                -0.36018103625585307
            ]
        },
        {
            "positions": [
                -0.793771253006323,
                -0.6046288839868446,
                -0.5401141114300219,
                0.07057629876539268,
                1.1293863037399032,
                -0.4946426656514131
            ]
        },
        {
            "positions": [
                -0.7666799252180844,
                -0.6486184324797812,
                -0.4251533283998554,
                0.040990938215873796,
                1.0926181765455212,
                -0.6291042950469727
            ]
        },
        {
            "positions": [
                -0.7395885974298457,
                -0.6926079809727179,
                -0.310192545369689,
                0.01140557766635486,
                1.0558500493511391,
                -0.7635659244425328
            ]
        },
        {
            "positions": [
                -0.712497269641607,
                -0.7365975294656548,
                -0.19523176233952255,
                -0.01817978288316402,
                1.019081922156757,
                -0.8980275538380926
            ]
        },
        {
            "positions": [
                -0.6854059418533682,
                -0.7805870779585915,
                -0.08027097930935612,
                -0.047765143432682955,
                0.9823137949623751,
                -1.0324891832336527
            ]
        },
        {
            "positions": [
                -0.6583146140651297,
                -0.8245766264515282,
                0.03468980372081032,
                -0.07735050398220183,
                0.9455456677679931,
                -1.1669508126292123
            ]
        },
        {
            "positions": [
                -0.631223286276891,
                -0.8685661749444649,
                0.14965058675097676,
                -0.10693586453172071,
                0.9087775405736112,
                -1.3014124420247724
            ]
        },
        {
            "positions": [
                -0.6041319584886522,
                -0.9125557234374018,
                0.2646113697811432,
                -0.1365212250812397,
                0.872009413379229,
                -1.4358740714203324
            ]
        },
        {
            "positions": [
                -0.5770406307004136,
                -0.9565452719303387,
                0.3795721528113096,
                -0.16610658563075859,
                0.8352412861848469,
                -1.570335700815892
            ]
        },
        {
            "positions": [
                -0.5499493029121749,
                -1.0005348204232754,
                0.49453293584147606,
                -0.19569194618027747,
                0.798473158990465,
                -1.704797330211452
            ]
        },
        {
            "positions": [
                -0.5228579751239362,
                -1.044524368916212,
                0.6094937188716425,
                -0.22527730672979634,
                0.761705031796083,
                -1.8392589596070117
            ]
        },
        {
            "positions": [
                -0.4957666473356974,
                -1.088513917409149,
                0.7244545019018089,
                -0.25486266727931534,
                0.7249369046017009,
                -1.9737205890025717
            ]
        },
        {
            "positions": [
                -0.4686753195474588,
                -1.1325034659020856,
                0.8394152849319754,
                -0.2844480278288342,
                0.6881687774073189,
                -2.108182218398132
            ]
        },
        {
            "positions": [
                -0.44158399175922014,
                -1.1764930143950223,
                0.9543760679621418,
                -0.3140333883783531,
                0.6514006502129369,
                -2.2426438477936914
            ]
        },
        {
            "positions": [
                -0.4144926639709814,
                -1.220482562887959,
                1.0693368509923082,
                -0.343618748927872,
                0.6146325230185549,
                -2.377105477189251
            ]
        },
        {
            "positions": [
                -0.38740133618274264,
                -1.2644721113808959,
                1.1842976340224747,
                -0.37320410947739097,
                0.5778643958241727,
                -2.5115671065848115
            ]
        },
        {
            "positions": [
                -0.360310008394504,
                -1.3084616598738326,
                1.2992584170526411,
                -0.40278947002690985,
                0.5410962686297907,
                -2.646028735980371
            ]
        },
        {
            "positions": [
                -0.33321868060626536,
                -1.3524512083667695,
                1.4142192000828075,
                -0.4323748305764287,
                0.5043281414354088,
                -2.780490365375931
            ]
        },
        {
            "positions": [
                -0.3061273528180267,
                -1.3964407568597061,
                1.529179983112974,
                -0.4619601911259476,
                0.4675600142410268,
                -2.914951994771491
            ]
        },
        {
            "positions": [
                -0.27903602502978786,
                -1.440430305352643,
                1.6441407661431404,
                -0.4915455516754666,
                0.43079188704664473,
                -3.0494136241670513
            ]
        },
        {
            "positions": [
                -0.2519446972415492,
                -1.4844198538455797,
                1.7591015491733069,
                -0.5211309122249854,
                0.3940237598522627,
                -3.183875253562611
            ]
        },
        {
            "positions": [
                -0.22485336945331055,
                -1.5284094023385164,
                1.8740623322034733,
                -0.5507162727745044,
                0.35725563265788063,
                -3.31833688295817
            ]
        },
        {
            "positions": [
                -0.13786834700100706,
                -1.432645967157094,
                1.9013304915346265,
                -0.6218068827024922,
                0.30043737397600145,
                -3.2769558142549946
            ]
        },
        {
            "positions": [
                -0.05088332454870356,
                -1.3368825319756712,
                1.9285986508657798,
                -0.6928974926304801,
                0.24361911529412222,
                -3.235574745551819
            ]
        },
        {
            "positions": [
                0.03610169790359993,
                -1.2411190967942485,
                1.955866810196933,
                -0.7639881025584678,
                0.18680085661224305,
                -3.194193676848644
            ]
        },
        {
            "positions": [
                0.12308672035590343,
                -1.145355661612826,
                1.9831349695280862,
                -0.8350787124864556,
                0.12998259793036385,
                -3.1528126081454686
            ]
        }
    ]
}