{
    "goal": {
        "global_pose": {
            "orientation": {
                "w": 0.5084816217422485,
                "x": -0.49083608388900757,
                "y": 0.5182115435600281,
                "z": -0.4816462993621826
            },
            "position": {
                "x": 0.5540239810943604,
                "y": 0.030875300988554955,
                "z": 0.16403168439865112
            }
        },
        "name": "move_to_storage_A"
    },
    "id": "LazyPRM_move_to_storage_A_95",
    "joint_names": [
        "shoulder_pan_joint",
        "shoulder_lift_joint",
        "elbow_joint",
        "wrist_1_joint",
        "wrist_2_joint",
        "wrist_3_joint"
    ],
    "metrics": {
        "cart_traj_len": 0.3529145952883291,
        "distance_elbow_joint": 0.4503612674849884,
        "distance_shoulder_lift_joint": 0.2338692222210661,
        "distance_shoulder_pan_joint": 0.4584851549009966,
        "distance_wrist_1_joint": 0.24690992303921566,
        "distance_wrist_2_joint": 1.1110846874121652,
        "distance_wrist_3_joint": 0.09764096126587507,
        "smoothness": 1.5543122362334363e-15,
        "time": 0.021848182999999997,
        "traj_len": 1.6119402024654348,
        "weighted_distance": 2.0375543549332464
    },
    "planner": "LazyPRM",
    "start": {
        "state": {
            "elbow_joint": 1.9715463870305268,
            "shoulder_lift_joint": -1.1394903361783484,
            "shoulder_pan_joint": 0.12281147578464417,
            "wrist_1_joint": -0.7804599489681411,
            "wrist_2_joint": 0.12958660307563738,
            "wrist_3_joint": -3.1924946282119055
        }
    },
    "waypoints": [
        {
            "positions": [
                0.12281147578464417,
                -1.1394903361783484,
                1.9715463870305268,
                -0.7804599489681411,
                0.12958660307563738,
                -3.1924946282119055
            ]
        },
        {
            "positions": [
                0.05731359651307323,
                -1.1729002250670721,
                2.035883710956954,
                -0.8157327951166005,
                0.28831298699166097,
                -3.1785459194596375
            ]
        },
        {
            "positions": [
                -0.00818428275849771,
                -1.206310113955796,
                2.1002210348833805,
                -0.8510056412650598,
                0.44703937090768453,
                -3.16459721070737
            ]
        },
        {
            "positions": [
                -0.07368216203006865,
                -1.2397200028445197,
                2.1645583588098076,
                -0.8862784874135192,
                0.6057657548237081,
                -3.150648501955102
            ]
        },
        {
            "positions": [
                -0.13918004130163958,
                -1.2731298917332432,
                2.2288956827362343,
                -0.9215513335619786,
                0.7644921387397318,
                -3.136699793202834
            ]
        },
        {
            "positions": [
                -0.20467792057321055,
                -1.306539780621967,
                2.2932330066626614,
                -0.956824179710438,
                0.9232185226557554,
                -3.122751084450566
            ]
        },
        {
            "positions": [
                -0.27017579984478146,
                -1.3399496695106907,
                2.357570330589088,
                -0.9920970258588974,
                1.0819449065717788,
                -3.1088023756982985
            ]
        },
        {
            "positions": [
                -0.33567367911635243,
                -1.3733595583994145,
                2.421907654515515,
                -1.0273698720073567,
                1.2406712904878026,
                -3.0948536669460305
            ]
        }
    ]
}