{
    "goal": {
        "global_pose": {
            "orientation": {
                "w": 0.7047431468963623,
                "x": -0.7094548344612122,
                "y": 0.0024358443915843964,
                "z": -0.0022348060738295317
            },
            "position": {
                "x": 0.6094750761985779,
                "y": 0.3671506643295288,
                "z": 0.19426114857196808
            }
        },
        "name": "move_to_magneteinheit_A"
    },
    "id": "LazyPRMstar_move_to_magneteinheit_A_95",
    "joint_names": [
        "shoulder_pan_joint",
        "shoulder_lift_joint",
        "elbow_joint",
        "wrist_1_joint",
        "wrist_2_joint",
        "wrist_3_joint"
    ],
    "metrics": {
        "cart_traj_len": 2.1800861332250463,
        "distance_elbow_joint": 3.883152585997597,
        "distance_shoulder_lift_joint": 1.157933209397566,
        "distance_shoulder_pan_joint": 1.2409797215888683,
        "distance_wrist_1_joint": 1.7772182647271921,
        "distance_wrist_2_joint": 1.4432429213043332,
        "distance_wrist_3_joint": 4.329691326082498,
        "smoothness": 0.0906522647686853,
        "time": 5.043342439,
        "traj_len": 3.7191689971145516,
        "weighted_distance": 5.070706249359608
    },
    "planner": "LazyPRMstar",
    "start": {
        "state": {
            "elbow_joint": -1.919643507792019,
            "shoulder_lift_joint": -0.07675430207160344,
            "shoulder_pan_joint": -1.1188671864651873,
            "wrist_1_joint": 0.42560062535961957,
            "wrist_2_joint": 1.5706038300724876,
            "wrist_3_joint": 1.1188968870953055
        }
    },
    "waypoints": [
        {
            "positions": [
                -1.1188671864651873,
                -0.07675430207160344,
                -1.919643507792019,
                0.42560062535961957,
                1.5706038300724876,
                1.1188968870953055
            ]
        },
        {
            "positions": [
                -1.0852668424964171,
                -0.11781189143410666,
                -1.8352698442128097,
                0.3709553590865181,
                1.5356761978834885,
                0.9781702970559041
            ]
        },
        {
            "positions": [
                -1.0516664985276467,
                -0.15886948079660987,
                -1.7508961806336,
                0.31631009281341665,
                1.5007485656944894,
                0.8374437070165026
            ]
        },
        {
            "positions": [
                -1.0180661545588765,
                -0.1999270701591131,
                -1.6665225170543907,
                0.2616648265403152,
                1.4658209335054906,
                0.6967171169771013
            ]
        },
        {
            "positions": [
                -0.9844658105901061,
                -0.2409846595216163,
                -1.5821488534751813,
                0.20701956026721377,
                1.4308933013164915,
                0.5559905269376998
            ]
        },
        {
            "positions": [
                -0.9508654666213359,
                -0.28204224888411955,
                -1.4977751898959717,
                0.15237429399411234,
                1.3959656691274924,
                0.4152639368982983
            ]
        },
        {
            "positions": [
                -0.9172651226525655,
                -0.32309983824662275,
                -1.4134015263167623,
                0.09772902772101089,
                1.3610380369384933,
                0.27453734685889697
            ]
        },
        {
            "positions": [
                -0.8836647786837952,
                -0.36415742760912595,
                -1.329027862737553,
                0.04308376144790943,
                1.3261104047494943,
                0.1338107568194955
            ]
        },
        {
            "positions": [
                -0.8500644347150249,
                -0.40521501697162915,
                -1.2446541991583433,
                -0.011561504825192026,
                1.2911827725604952,
                -0.006915833219905965
            ]
        },
        {
            "positions": [
                -0.8164640907462546,
                -0.4462726063341324,
                -1.160280535579134,
                -0.06620677109829348,
                1.256255140371496,
                -0.14764242325930743
            ]
        },
        {
            "positions": [
                -0.7828637467774844,
                -0.4873301956966356,
                -1.0759068719999245,
                -0.12085203737139488,
                1.2213275081824972,
                -0.2883690132987089
            ]
        },
        {
            "positions": [
                -0.749263402808714,
                -0.5283877850591387,
                -0.991533208420715,
                -0.1754973036444964,
                1.1863998759934982,
                -0.42909560333811014
            ]
        },
        {
            "positions": [
                -0.7156630588399437,
                -0.5694453744216421,
                -0.9071595448415055,
                -0.2301425699175978,
                1.151472243804499,
                -0.5698221933775116
            ]
        },
        {
            "positions": [
                -0.6820627148711733,
                -0.6105029637841453,
                -0.8227858812622961,
                -0.2847878361906992,
                1.1165446116155,
                -0.7105487834169131
            ]
        },
        {
            "positions": [
                -0.6484623709024031,
                -0.6515605531466484,
                -0.7384122176830867,
                -0.3394331024638007,
                1.0816169794265011,
                -0.8512753734563145
            ]
        },
        {
            "positions": [
                -0.6148620269336327,
                -0.6926181425091518,
                -0.6540385541038771,
                -0.3940783687369022,
                1.046689347237502,
                -0.9920019634957162
            ]
        },
        {
            "positions": [
                -0.5812616829648625,
                -0.7336757318716549,
                -0.5696648905246677,
                -0.4487236350100036,
                1.011761715048503,
                -1.1327285535351175
            ]
        },
        {
            "positions": [
                -0.5476613389960922,
                -0.7747333212341583,
                -0.4852912269454581,
                -0.5033689012831051,
                0.9768340828595038,
                -1.2734551435745192
            ]
        },
        {
            "positions": [
                -0.5140609950273218,
                -0.8157909105966614,
                -0.40091756336624873,
                -0.5580141675562065,
                0.9419064506705048,
                -1.4141817336139204
            ]
        },
        {
            "positions": [
                -0.4804606510585515,
                -0.8568484999591646,
                -0.3165438997870391,
                -0.6126594338293079,
                0.9069788184815057,
                -1.554908323653322
            ]
        },
        {
            "positions": [
                -0.4468603070897813,
                -0.8979060893216677,
                -0.23217023620782995,
                -0.6673047001024093,
                0.8720511862925068,
                -1.6956349136927233
            ]
        },
        {
            "positions": [
                -0.4132599631210109,
                -0.9389636786841711,
                -0.14779657262862034,
                -0.7219499663755109,
                0.8371235541035077,
                -1.8363615037321246
            ]
        },
        {
            "positions": [
                -0.37965961915224067,
                -0.9800212680466742,
                -0.06342290904941095,
                -0.7765952326486123,
                0.8021959219145087,
                -1.9770880937715258
            ]
        },
        {
            "positions": [
                -0.34605927518347024,
                -1.0210788574091774,
                0.020950754529798665,
                -0.8312404989217137,
                0.7672682897255096,
                -2.1178146838109275
            ]
        },
        {
            "positions": [
                -0.31245893121470003,
                -1.0621364467716807,
                0.10532441810900806,
                -0.8858857651948151,
                0.7323406575365106,
                -2.2585412738503288
            ]
        },
        {
            "positions": [
                -0.2788585872459297,
                -1.1031940361341839,
                0.18969808168821767,
                -0.9405310314679167,
                0.6974130253475115,
                -2.3992678638897305
            ]
        },
        {
            "positions": [
                -0.2452582432771594,
                -1.144251625496687,
                0.27407174526742684,
                -0.9951762977410179,
                0.6624853931585125,
                -2.5399944539291317
            ]
        },
        {
            "positions": [
                -0.21165789930838902,
                -1.1853092148591904,
                0.3584454088466364,
                -1.0498215640141195,
                0.6275577609695134,
                -2.6807210439685334
            ]
        },
        {
            "positions": [
                -0.1745722954826035,
                -1.1798227374580816,
                0.5367858165531856,
                -1.0162886667526247,
                0.5719803329471402,
                -2.7396180878594953
            ]
        },
        {
            "positions": [
                -0.13748669165681798,
                -1.174336260056973,
                0.7151262242597347,
                -0.98275576949113,
                0.516402904924767,
                -2.7985151317504577
            ]
        },
        {
            "positions": [
                -0.10040108783103247,
                -1.168849782655864,
                0.8934666319662838,
                -0.9492228722296352,
                0.4608254769023938,
                -2.8574121756414197
            ]
        },
        {
            "positions": [
                -0.06331548400524695,
                -1.1633633052547552,
                1.071807039672833,
                -0.9156899749681404,
                0.40524804888002053,
                -2.916309219532382
            ]
        },
        {
            "positions": [
                -0.02622988017946143,
                -1.1578768278536464,
                1.250147447379382,
                -0.8821570777066456,
                0.34967062085764733,
                -2.975206263423344
            ]
        },
        {
            "positions": [
                0.01085572364632409,
                -1.1523903504525377,
                1.4284878550859312,
                -0.8486241804451509,
                0.29409319283527413,
                -3.0341033073143064
            ]
        },
        {
            "positions": [
                0.04794132747210961,
                -1.1469038730514287,
                1.6068282627924806,
                -0.815091283183656,
                0.23851576481290088,
                -3.0930003512052684
            ]
        },
        {
            "positions": [
                0.08502693129789513,
                -1.14141739565032,
                1.7851686704990297,
                -0.7815583859221612,
                0.18293833679052768,
                -3.1518973950962303
            ]
        },
        {
            "positions": [
                0.12211253512368063,
                -1.1359309182492112,
                1.9635090782055789,
                -0.7480254886606664,
                0.1273609087681544,
                -3.2107944389871927
            ]
        }
    ]
}