{
    "goal": {
        "global_pose": {
            "orientation": {
                "w": 0.7031023502349854,
                "x": -0.7110244035720825,
                "y": 0.007748599164187908,
                "z": 0.005598929710686207
            },
            "position": {
                "x": 0.11585023208521307,
                "y": 0.44412534475326537,
                "z": 0.3711530566215515
            }
        },
        "name": "move_to_auspresseinheit_A"
    },
    "id": "LazyPRMstar_move_to_auspresseinheit_A_140",
    "joint_names": [
        "shoulder_pan_joint",
        "shoulder_lift_joint",
        "elbow_joint",
        "wrist_1_joint",
        "wrist_2_joint",
        "wrist_3_joint"
    ],
    "metrics": {
        "cart_traj_len": 0.678789961822999,
        "distance_elbow_joint": 0.030798862633606205,
        "distance_shoulder_lift_joint": 0.5330700890831281,
        "distance_shoulder_pan_joint": 1.0413928909670283,
        "distance_wrist_1_joint": 0.5547981317913107,
        "distance_wrist_2_joint": 0.534901198374491,
        "distance_wrist_3_joint": 0.30569560676752694,
        "smoothness": 0.21967596625611283,
        "time": 5.007174008,
        "traj_len": 1.7322403931374801,
        "weighted_distance": 2.168351291492674
    },
    "planner": "LazyPRMstar",
    "start": {
        "state": {
            "elbow_joint": 2.422574709923281,
            "shoulder_lift_joint": -1.3736533754116391,
            "shoulder_pan_joint": -0.33786336945926293,
            "wrist_1_joint": -1.0288603412921917,
            "wrist_2_joint": 1.2330224858903978,
            "wrist_3_joint": -3.094022268022082
        }
    },
    "waypoints": [
        {
            "positions": [
                -0.33786336945926293,
                -1.3736533754116391,
                2.422574709923281,
                -1.0288603412921917,
                1.2330224858903978,
                -3.094022268022082
            ]
        },
        {
            "positions": [
                -0.2100185545552387,
                -1.4494768796765205,
                2.4227640827724346,
                -0.9595395776553163,
                1.1678269026356791,
                -3.0743833581442184
            ]
        },
        {
            "positions": [
                -0.0821737396512145,
                -1.5253003839414019,
                2.4229534556215886,
                -0.8902188140184407,
                1.1026313193809603,
                -3.054744448266354
            ]
        },
        {
            "positions": [
                0.04567107525280972,
                -1.6011238882062833,
                2.423142828470742,
                -0.8208980503815653,
                1.0374357361262416,
                -3.0351055383884904
            ]
        },
        {
            "positions": [
                0.17351589015683394,
                -1.6769473924711646,
                2.4233322013198957,
                -0.7515772867446897,
                0.9722401528715228,
                -3.0154666285106266
            ]
        },
        {
            "positions": [
                0.30136070506085827,
                -1.7527708967360462,
                2.4235215741690492,
                -0.6822565231078143,
                0.9070445696168041,
                -2.995827718632763
            ]
        },
        {
            "positions": [
                0.4292055199648824,
                -1.8285944010009276,
                2.423710947018203,
                -0.6129357594709388,
                0.8418489863620854,
                -2.9761888087548987
            ]
        },
        {
            "positions": [
                0.5570503348689066,
                -1.904417905265809,
                2.4239003198673568,
                -0.5436149958340633,
                0.7766534031073666,
                -2.956549898877035
            ]
        },
        {
            "positions": [
                0.630289928188336,
                -1.905570684880288,
                2.4091636935225917,
                -0.5088386026674722,
                0.7373873453116366,
                -3.0406615176882745
            ]
        },
        {
            "positions": [
                0.7035295215077653,
                -1.9067234644947673,
                2.3944270671778263,
                -0.474062209500881,
                0.6981212875159067,
                -3.1247731364995146
            ]
        }
    ]
}