{
    "goal": {
        "global_pose": {
            "orientation": {
                "w": 0.7047431468963623,
                "x": -0.7094548344612122,
                "y": 0.0024358443915843964,
                "z": -0.0022348060738295317
            },
            "position": {
                "x": 0.6094750761985779,
                "y": 0.3671506643295288,
                "z": 0.19426114857196808
            }
        },
        "name": "move_to_magneteinheit_A"
    },
    "id": "LazyPRM_move_to_magneteinheit_A_16",
    "joint_names": [
        "shoulder_pan_joint",
        "shoulder_lift_joint",
        "elbow_joint",
        "wrist_1_joint",
        "wrist_2_joint",
        "wrist_3_joint"
    ],
    "metrics": {
        "cart_traj_len": 1.868909854977895,
        "distance_elbow_joint": 3.932680882263603,
        "distance_shoulder_lift_joint": 0.7102724244814689,
        "distance_shoulder_pan_joint": 1.2408096247947094,
        "distance_wrist_1_joint": 1.568777917269124,
        "distance_wrist_2_joint": 1.6944399445328857,
        "distance_wrist_3_joint": 1.19560115177964,
        "smoothness": 6.978544745684964e-16,
        "time": 0.11737513900000002,
        "traj_len": 3.215988486472151,
        "weighted_distance": 3.999625246255294
    },
    "planner": "LazyPRM",
    "start": {
        "state": {
            "elbow_joint": -1.919643507792019,
            "shoulder_lift_joint": -0.07675430207160344,
            "shoulder_pan_joint": -1.1188671864651873,
            "wrist_1_joint": 0.42560062535961957,
            "wrist_2_joint": 1.5706038300724876,
            "wrist_3_joint": 1.1188968870953055
        }
    },
    "waypoints": [
        {
            "positions": [
                -1.1188671864651873,
                -0.07675430207160344,
                -1.919643507792019,
                0.42560062535961957,
                1.5706038300724876,
                1.1188968870953055
            ]
        },
        {
            "positions": [
                -1.0729112744357536,
                -0.10306068816350969,
                -1.7739886603007746,
                0.4837035111844019,
                1.507846795089788,
                1.0746153629553188
            ]
        },
        {
            "positions": [
                -1.02695536240632,
                -0.12936707425541594,
                -1.62833381280953,
                0.5418063970091843,
                1.4450897601070887,
                1.0303338388153322
            ]
        },
        {
            "positions": [
                -0.9809994503768863,
                -0.1556734603473222,
                -1.4826789653182855,
                0.5999092828339667,
                1.3823327251243893,
                0.9860523146753455
            ]
        },
        {
            "positions": [
                -0.9350435383474527,
                -0.18197984643922846,
                -1.337024117827041,
                0.658012168658749,
                1.3195756901416897,
                0.9417707905353588
            ]
        },
        {
            "positions": [
                -0.889087626318019,
                -0.2082862325311347,
                -1.1913692703357963,
                0.7161150544835314,
                1.2568186551589902,
                0.8974892663953722
            ]
        },
        {
            "positions": [
                -0.8431317142885852,
                -0.23459261862304095,
                -1.0457144228445518,
                0.7742179403083138,
                1.1940616201762908,
                0.8532077422553855
            ]
        },
        {
            "positions": [
                -0.7971758022591516,
                -0.2608990047149472,
                -0.9000595753533072,
                0.8323208261330961,
                1.1313045851935914,
                0.8089262181153989
            ]
        },
        {
            "positions": [
                -0.7512198902297179,
                -0.2872053908068535,
                -0.7544047278620627,
                0.8904237119578785,
                1.0685475502108919,
                0.7646446939754121
            ]
        },
        {
            "positions": [
                -0.7052639782002843,
                -0.31351177689875975,
                -0.6087498803708182,
                0.9485265977826609,
                1.0057905152281923,
                0.7203631698354256
            ]
        },
        {
            "positions": [
                -0.6593080661708506,
                -0.339818162990666,
                -0.46309503287957354,
                1.0066294836074432,
                0.9430334802454929,
                0.6760816456954388
            ]
        },
        {
            "positions": [
                -0.6133521541414169,
                -0.36612454908257225,
                -0.3174401853883291,
                1.0647323694322257,
                0.8802764452627935,
                0.6318001215554522
            ]
        },
        {
            "positions": [
                -0.5673962421119833,
                -0.39243093517447847,
                -0.1717853378970846,
                1.122835255257008,
                0.817519410280094,
                0.5875185974154655
            ]
        },
        {
            "positions": [
                -0.5214403300825495,
                -0.41873732126638474,
                -0.026130490405839923,
                1.1809381410817903,
                0.7547623752973945,
                0.5432370732754789
            ]
        },
        {
            "positions": [
                -0.4754844180531159,
                -0.44504370735829096,
                0.11952435708540476,
                1.2390410269065728,
                0.6920053403146951,
                0.4989555491354922
            ]
        },
        {
            "positions": [
                -0.4295285060236821,
                -0.4713500934501973,
                0.26517920457664945,
                1.297143912731355,
                0.6292483053319955,
                0.45467402499550547
            ]
        },
        {
            "positions": [
                -0.3835725939942485,
                -0.4976564795421035,
                0.4108340520678937,
                1.3552467985561374,
                0.5664912703492961,
                0.4103925008555188
            ]
        },
        {
            "positions": [
                -0.33761668196481476,
                -0.5239628656340098,
                0.5564888995591384,
                1.41334968438092,
                0.5037342353665966,
                0.36611097671553217
            ]
        },
        {
            "positions": [
                -0.29166076993538115,
                -0.550269251725916,
                0.7021437470503826,
                1.4714525702057022,
                0.4409772003838972,
                0.3218294525755455
            ]
        },
        {
            "positions": [
                -0.24570485790594743,
                -0.5765756378178223,
                0.8477985945416278,
                1.5295554560304847,
                0.37822016540119763,
                0.27754792843555876
            ]
        },
        {
            "positions": [
                -0.19974894587651382,
                -0.6028820239097286,
                0.993453442032872,
                1.587658341855267,
                0.31546313041849827,
                0.23326640429557222
            ]
        },
        {
            "positions": [
                -0.1537930338470801,
                -0.6291884100016347,
                1.1391082895241167,
                1.6457612276800495,
                0.2527060954357987,
                0.18898488015558546
            ]
        },
        {
            "positions": [
                -0.10783712181764638,
                -0.6554947960935411,
                1.284763137015361,
                1.7038641135048318,
                0.18994906045309934,
                0.1447033560155988
            ]
        },
        {
            "positions": [
                -0.061881209788212654,
                -0.6818011821854473,
                1.4304179845066056,
                1.7619669993296143,
                0.12719202547039976,
                0.10042183187561204
            ]
        },
        {
            "positions": [
                -0.015925297758779156,
                -0.7081075682773534,
                1.5760728319978499,
                1.8200698851543966,
                0.0644349904877004,
                0.056140307735625505
            ]
        },
        {
            "positions": [
                0.030030614270654565,
                -0.7344139543692598,
                1.721727679489095,
                1.878172770979179,
                0.0016779555050008277,
                0.011858783595638744
            ]
        },
        {
            "positions": [
                0.07598652630008829,
                -0.760720340461166,
                1.8673825269803392,
                1.9362756568039612,
                -0.06107907947769853,
                -0.032422740544347795
            ]
        },
        {
            "positions": [
                0.1219424383295221,
                -0.7870267265530724,
                2.0130373744715837,
                1.9943785426287437,
                -0.1238361144603982,
                -0.0767042646843345
            ]
        }
    ]
}