{
    "goal": {
        "global_pose": {
            "orientation": {
                "w": 0.7031023502349854,
                "x": -0.7110244035720825,
                "y": 0.007748599164187908,
                "z": 0.005598929710686207
            },
            "position": {
                "x": 0.11585023208521307,
                "y": 0.44412534475326537,
                "z": 0.3711530566215515
            }
        },
        "name": "move_to_auspresseinheit_A"
    },
    "id": "LazyPRMstar_move_to_auspresseinheit_A_123",
    "joint_names": [
        "shoulder_pan_joint",
        "shoulder_lift_joint",
        "elbow_joint",
        "wrist_1_joint",
        "wrist_2_joint",
        "wrist_3_joint"
    ],
    "metrics": {
        "cart_traj_len": 0.6763875699230467,
        "distance_elbow_joint": 0.03359870251059416,
        "distance_shoulder_lift_joint": 0.5342732338335177,
        "distance_shoulder_pan_joint": 1.0441582084814391,
        "distance_wrist_1_joint": 0.5680695614808764,
        "distance_wrist_2_joint": 1.4580098282486125,
        "distance_wrist_3_joint": 0.12588712564018634,
        "smoothness": 1.008480993872386,
        "time": 5.010160894,
        "traj_len": 1.9401022293155652,
        "weighted_distance": 2.4580175551051475
    },
    "planner": "LazyPRMstar",
    "start": {
        "state": {
            "elbow_joint": 2.422574709923281,
            "shoulder_lift_joint": -1.3736533754116391,
            "shoulder_pan_joint": -0.33786336945926293,
            "wrist_1_joint": -1.0288603412921917,
            "wrist_2_joint": 1.2330224858903978,
            "wrist_3_joint": -3.094022268022082
        }
    },
    "waypoints": [
        {
            "positions": [
                -0.33786336945926293,
                -1.3736533754116391,
                2.422574709923281,
                -1.0288603412921917,
                1.2330224858903978,
                -3.094022268022082
            ]
        },
        {
            "positions": [
                -0.24541191605683405,
                -1.4253565559911818,
                2.4228746481043184,
                -0.9686805251196691,
                1.0674850945942838,
                -3.0874308044642773
            ]
        },
        {
            "positions": [
                -0.15296046265440516,
                -1.4770597365707248,
                2.423174586285356,
                -0.9085007089471465,
                0.9019477032981698,
                -3.0808393409064725
            ]
        },
        {
            "positions": [
                -0.060509009251976276,
                -1.5287629171502675,
                2.4234745244663936,
                -0.8483208927746239,
                0.7364103120020556,
                -3.0742478773486677
            ]
        },
        {
            "positions": [
                0.03194244415045261,
                -1.5804660977298102,
                2.423774462647431,
                -0.7881410766021013,
                0.5708729207059416,
                -3.067656413790863
            ]
        },
        {
            "positions": [
                0.1243938975528815,
                -1.632169278309353,
                2.4240744008284687,
                -0.7279612604295786,
                0.40533552940982753,
                -3.061064950233058
            ]
        },
        {
            "positions": [
                0.21684535095531035,
                -1.6838724588888958,
                2.424374339009506,
                -0.667781444257056,
                0.23979813811371353,
                -3.054473486675253
            ]
        },
        {
            "positions": [
                0.33920772297202684,
                -1.7398859964779612,
                2.4164245706534135,
                -0.6160337781456208,
                0.3559945082316956,
                -3.0760580727485927
            ]
        },
        {
            "positions": [
                0.46157009498874324,
                -1.7958995340670263,
                2.4084748022973215,
                -0.5642861120341857,
                0.47219087834967766,
                -3.0976426588219317
            ]
        },
        {
            "positions": [
                0.5839324670054598,
                -1.8519130716560914,
                2.4005250339412294,
                -0.5125384459227504,
                0.5883872484676598,
                -3.119227244895271
            ]
        },
        {
            "positions": [
                0.7062948390221762,
                -1.9079266092451568,
                2.392575265585137,
                -0.4607907798113153,
                0.7045836185856418,
                -3.1408118309686106
            ]
        }
    ]
}