{
    "goal": {
        "global_pose": {
            "orientation": {
                "w": 0.7031023502349854,
                "x": -0.7110244035720825,
                "y": 0.007748599164187908,
                "z": 0.005598929710686207
            },
            "position": {
                "x": 0.11585023208521307,
                "y": 0.44412534475326537,
                "z": 0.3711530566215515
            }
        },
        "name": "move_to_auspresseinheit_A"
    },
    "id": "LazyPRMstar_move_to_auspresseinheit_A_13",
    "joint_names": [
        "shoulder_pan_joint",
        "shoulder_lift_joint",
        "elbow_joint",
        "wrist_1_joint",
        "wrist_2_joint",
        "wrist_3_joint"
    ],
    "metrics": {
        "cart_traj_len": 0.7423120784645708,
        "distance_elbow_joint": 0.18359188968623208,
        "distance_shoulder_lift_joint": 0.7828975010736572,
        "distance_shoulder_pan_joint": 1.0448265518608566,
        "distance_wrist_1_joint": 0.5748456352225271,
        "distance_wrist_2_joint": 0.5295347304253224,
        "distance_wrist_3_joint": 0.7857793160726598,
        "smoothness": 0.8467379353372507,
        "time": 5.014548177,
        "traj_len": 1.9752153361953364,
        "weighted_distance": 2.564647075551415
    },
    "planner": "LazyPRMstar",
    "start": {
        "state": {
            "elbow_joint": 2.422574709923281,
            "shoulder_lift_joint": -1.3736533754116391,
            "shoulder_pan_joint": -0.33786336945926293,
            "wrist_1_joint": -1.0288603412921917,
            "wrist_2_joint": 1.2330224858903978,
            "wrist_3_joint": -3.094022268022082
        }
    },
    "waypoints": [
        {
            "positions": [
                -0.33786336945926293,
                -1.3736533754116391,
                2.422574709923281,
                -1.0288603412921917,
                1.2330224858903978,
                -3.094022268022082
            ]
        },
        {
            "positions": [
                -0.3236485061016197,
                -1.5049304913657255,
                2.4375158710874585,
                -0.9951953602015879,
                1.158342759210291,
                -3.0212041452148384
            ]
        },
        {
            "positions": [
                -0.3094336427439765,
                -1.636207607319812,
                2.4524570322516355,
                -0.9615303791109842,
                1.0836630325301844,
                -2.948386022407594
            ]
        },
        {
            "positions": [
                -0.2952187793863333,
                -1.7674847232738986,
                2.467398193415813,
                -0.9278653980203804,
                1.0089833058500774,
                -2.8755678996003504
            ]
        },
        {
            "positions": [
                -0.28100391602869007,
                -1.898761839227985,
                2.48233935457999,
                -0.8942004169297766,
                0.9343035791699708,
                -2.802749776793106
            ]
        },
        {
            "positions": [
                -0.26678905267104686,
                -2.0300389551820714,
                2.4972805157441673,
                -0.8605354358391728,
                0.8596238524898641,
                -2.7299316539858625
            ]
        },
        {
            "positions": [
                -0.10449701349227347,
                -2.0089536349648673,
                2.479132835099943,
                -0.7927819808775881,
                0.8336011696523993,
                -2.800213104325269
            ]
        },
        {
            "positions": [
                0.05779502568649991,
                -1.9878683147476632,
                2.460985154455719,
                -0.7250285259160034,
                0.8075784868149345,
                -2.870494554664676
            ]
        },
        {
            "positions": [
                0.22008706486527335,
                -1.9667829945304591,
                2.4428374738114944,
                -0.6572750709544187,
                0.7815558039774697,
                -2.9407760050040825
            ]
        },
        {
            "positions": [
                0.3823791040440467,
                -1.9456976743132548,
                2.42468979316727,
                -0.589521615992834,
                0.7555331211400049,
                -3.0110574553434892
            ]
        },
        {
            "positions": [
                0.5446711432228202,
                -1.9246123540960507,
                2.406542112523046,
                -0.5217681610312493,
                0.7295104383025401,
                -3.081338905682896
            ]
        },
        {
            "positions": [
                0.7069631824015936,
                -1.9035270338788466,
                2.3883944318788215,
                -0.45401470606966465,
                0.7034877554650754,
                -3.1516203560223026
            ]
        }
    ]
}