{
    "goal": {
        "global_pose": {
            "orientation": {
                "w": 0.7047431468963623,
                "x": -0.7094548344612122,
                "y": 0.0024358443915843964,
                "z": -0.0022348060738295317
            },
            "position": {
                "x": 0.6094750761985779,
                "y": 0.3671506643295288,
                "z": 0.19426114857196808
            }
        },
        "name": "move_to_magneteinheit_A"
    },
    "id": "LazyPRM_move_to_magneteinheit_A_119",
    "joint_names": [
        "shoulder_pan_joint",
        "shoulder_lift_joint",
        "elbow_joint",
        "wrist_1_joint",
        "wrist_2_joint",
        "wrist_3_joint"
    ],
    "metrics": {
        "cart_traj_len": 1.87570902390945,
        "distance_elbow_joint": 3.9209288041389234,
        "distance_shoulder_lift_joint": 0.7023319929497193,
        "distance_shoulder_pan_joint": 1.240971926085144,
        "distance_wrist_1_joint": 1.5171875957274583,
        "distance_wrist_2_joint": 1.707222484407408,
        "distance_wrist_3_joint": 1.1356631625141758,
        "smoothness": 4.276414619397388e-16,
        "time": 0.077500178,
        "traj_len": 3.197546866868855,
        "weighted_distance": 3.9648508636499873
    },
    "planner": "LazyPRM",
    "start": {
        "state": {
            "elbow_joint": -1.919643507792019,
            "shoulder_lift_joint": -0.07675430207160344,
            "shoulder_pan_joint": -1.1188671864651873,
            "wrist_1_joint": 0.42560062535961957,
            "wrist_2_joint": 1.5706038300724876,
            "wrist_3_joint": 1.1188968870953055
        }
    },
    "waypoints": [
        {
            "positions": [
                -1.1188671864651873,
                -0.07675430207160344,
                -1.919643507792019,
                0.42560062535961957,
                1.5706038300724876,
                1.1188968870953055
            ]
        },
        {
            "positions": [
                -1.0711374970003742,
                -0.10376707103120804,
                -1.7688385537866758,
                0.4839539944260603,
                1.5049414268260488,
                1.075217534690914
            ]
        },
        {
            "positions": [
                -1.0234078075355608,
                -0.13077983999081264,
                -1.6180335997813327,
                0.542307363492501,
                1.43927902357961,
                1.0315381822865228
            ]
        },
        {
            "positions": [
                -0.9756781180707477,
                -0.15779260895041722,
                -1.4672286457759895,
                0.6006607325589417,
                1.3736166203331712,
                0.9878588298821314
            ]
        },
        {
            "positions": [
                -0.9279484286059344,
                -0.18480537791002183,
                -1.3164236917706462,
                0.6590141016253824,
                1.3079542170867327,
                0.94417947747774
            ]
        },
        {
            "positions": [
                -0.8802187391411211,
                -0.2118181468696264,
                -1.165618737765303,
                0.7173674706918232,
                1.2422918138402936,
                0.9005001250733486
            ]
        },
        {
            "positions": [
                -0.832489049676308,
                -0.238830915829231,
                -1.0148137837599598,
                0.7757208397582638,
                1.176629410593855,
                0.8568207726689573
            ]
        },
        {
            "positions": [
                -0.7847593602114948,
                -0.2658436847888356,
                -0.8640088297546167,
                0.8340742088247044,
                1.1109670073474163,
                0.8131414202645659
            ]
        },
        {
            "positions": [
                -0.7370296707466815,
                -0.29285645374844016,
                -0.7132038757492734,
                0.8924275778911452,
                1.0453046041009775,
                0.7694620678601745
            ]
        },
        {
            "positions": [
                -0.6892999812818683,
                -0.31986922270804474,
                -0.5623989217439302,
                0.9507809469575859,
                0.9796422008545387,
                0.7257827154557832
            ]
        },
        {
            "positions": [
                -0.641570291817055,
                -0.3468819916676494,
                -0.4115939677385869,
                1.0091343160240267,
                0.9139797976080999,
                0.6821033630513917
            ]
        },
        {
            "positions": [
                -0.5938406023522418,
                -0.37389476062725396,
                -0.2607890137332438,
                1.0674876850904673,
                0.8483173943616612,
                0.6384240106470005
            ]
        },
        {
            "positions": [
                -0.5461109128874285,
                -0.40090752958685855,
                -0.10998405972790049,
                1.1258410541569082,
                0.7826549911152223,
                0.594744658242609
            ]
        },
        {
            "positions": [
                -0.49838122342261537,
                -0.42792029854646313,
                0.04082089427744262,
                1.1841944232233488,
                0.7169925878687836,
                0.5510653058382177
            ]
        },
        {
            "positions": [
                -0.4506515339578022,
                -0.4549330675060677,
                0.19162584828278573,
                1.2425477922897894,
                0.6513301846223449,
                0.5073859534338263
            ]
        },
        {
            "positions": [
                -0.40292184449298896,
                -0.4819458364656723,
                0.34243080228812883,
                1.30090116135623,
                0.5856677813759061,
                0.46370660102943495
            ]
        },
        {
            "positions": [
                -0.3551921550281757,
                -0.5089586054252769,
                0.4932357562934724,
                1.3592545304226709,
                0.5200053781294673,
                0.4200272486250435
            ]
        },
        {
            "positions": [
                -0.30746246556336243,
                -0.5359713743848815,
                0.6440407102988155,
                1.4176078994891115,
                0.45434297488302855,
                0.3763478962206521
            ]
        },
        {
            "positions": [
                -0.2597327760985493,
                -0.5629841433444861,
                0.7948456643041586,
                1.4759612685555523,
                0.38868057163658976,
                0.33266854381626076
            ]
        },
        {
            "positions": [
                -0.21200308663373602,
                -0.5899969123040907,
                0.9456506183095017,
                1.534314637621993,
                0.3230181683901512,
                0.2889891914118695
            ]
        },
        {
            "positions": [
                -0.16427339716892275,
                -0.6170096812636954,
                1.0964555723148453,
                1.5926680066884338,
                0.25735576514371217,
                0.24530983900747794
            ]
        },
        {
            "positions": [
                -0.1165437077041096,
                -0.6440224502232998,
                1.2472605263201884,
                1.6510213757548744,
                0.19169336189727337,
                0.2016304866030867
            ]
        },
        {
            "positions": [
                -0.06881401823929623,
                -0.6710352191829045,
                1.3980654803255315,
                1.709374744821315,
                0.1260309586508348,
                0.15795113419869533
            ]
        },
        {
            "positions": [
                -0.021084328774483074,
                -0.698047988142509,
                1.5488704343308746,
                1.7677281138877559,
                0.06036855540439601,
                0.11427178179430397
            ]
        },
        {
            "positions": [
                0.0266453606903303,
                -0.7250607571021137,
                1.6996753883362181,
                1.8260814829541967,
                -0.005293847842043009,
                0.0705924293899125
            ]
        },
        {
            "positions": [
                0.07437505015514345,
                -0.7520735260617182,
                1.8504803423415612,
                1.8844348520206373,
                -0.07095625108848158,
                0.026913076985521034
            ]
        },
        {
            "positions": [
                0.12210473961995652,
                -0.7790862950213228,
                2.001285296346904,
                1.942788221087078,
                -0.1366186543349204,
                -0.016766275418870265
            ]
        }
    ]
}