{
    "goal": {
        "global_pose": {
            "orientation": {
                "w": 0.7031023502349854,
                "x": -0.7110244035720825,
                "y": 0.007748599164187908,
                "z": 0.005598929710686207
            },
            "position": {
                "x": 0.11585023208521307,
                "y": 0.44412534475326537,
                "z": 0.3711530566215515
            }
        },
        "name": "move_to_auspresseinheit_A"
    },
    "id": "LazyPRM_move_to_auspresseinheit_A_135",
    "joint_names": [
        "shoulder_pan_joint",
        "shoulder_lift_joint",
        "elbow_joint",
        "wrist_1_joint",
        "wrist_2_joint",
        "wrist_3_joint"
    ],
    "metrics": {
        "cart_traj_len": 0.701946505635354,
        "distance_elbow_joint": 0.04538609325909171,
        "distance_shoulder_lift_joint": 0.6209393614411727,
        "distance_shoulder_pan_joint": 1.0443617216680146,
        "distance_wrist_1_joint": 0.7450304550604452,
        "distance_wrist_2_joint": 0.669423604998694,
        "distance_wrist_3_joint": 0.07853187659977046,
        "smoothness": 1.759908213046111,
        "time": 0.041844636000000004,
        "traj_len": 1.7898807538568562,
        "weighted_distance": 2.1852210245844397
    },
    "planner": "LazyPRM",
    "start": {
        "state": {
            "elbow_joint": 2.422574709923281,
            "shoulder_lift_joint": -1.3736533754116391,
            "shoulder_pan_joint": -0.33786336945926293,
            "wrist_1_joint": -1.0288603412921917,
            "wrist_2_joint": 1.2330224858903978,
            "wrist_3_joint": -3.094022268022082
        }
    },
    "waypoints": [
        {
            "positions": [
                -0.33786336945926293,
                -1.3736533754116391,
                2.422574709923281,
                -1.0288603412921917,
                1.2330224858903978,
                -3.094022268022082
            ]
        },
        {
            "positions": [
                -0.3090819596773462,
                -1.4522301715362205,
                2.413151753964379,
                -0.9038110223715756,
                1.26952973373007,
                -3.109049735379905
            ]
        },
        {
            "positions": [
                -0.2803005498954295,
                -1.5308069676608016,
                2.4037287980054765,
                -0.7787617034509595,
                1.3060369815697421,
                -3.1240772027377277
            ]
        },
        {
            "positions": [
                -0.12180935888032338,
                -1.6006478218007345,
                2.400453055025759,
                -0.7105794731054416,
                1.2178723732991912,
                -3.130639034081489
            ]
        },
        {
            "positions": [
                0.036681832134782766,
                -1.6704886759406676,
                2.3971773120460416,
                -0.6423972427599236,
                1.1297077650286402,
                -3.13720086542525
            ]
        },
        {
            "positions": [
                0.19517302314988894,
                -1.7403295300806008,
                2.393901569066324,
                -0.5742150124144056,
                1.0415431567580895,
                -3.1437626967690115
            ]
        },
        {
            "positions": [
                0.35366421416499505,
                -1.8101703842205337,
                2.3906258260866062,
                -0.5060327820688877,
                0.9533785484875386,
                -3.150324528112773
            ]
        },
        {
            "positions": [
                0.5121554051801013,
                -1.8800112383604666,
                2.387350083106889,
                -0.4378505517233697,
                0.8652139402169876,
                -3.156886359456534
            ]
        },
        {
            "positions": [
                0.6706465961952074,
                -1.9498520925003997,
                2.3840743401271713,
                -0.3696683213778517,
                0.7770493319464367,
                -3.1634481908002954
            ]
        },
        {
            "positions": [
                0.7064983522087516,
                -1.9051114481479876,
                2.3909600635901533,
                -0.4555067565239569,
                0.7096278722503925,
                -3.154342236978738
            ]
        }
    ]
}