{
    "goal": {
        "global_pose": {
            "orientation": {
                "w": 0.7047431468963623,
                "x": -0.7094548344612122,
                "y": 0.0024358443915843964,
                "z": -0.0022348060738295317
            },
            "position": {
                "x": 0.6094750761985779,
                "y": 0.3671506643295288,
                "z": 0.19426114857196808
            }
        },
        "name": "move_to_magneteinheit_A"
    },
    "id": "LazyPRMstar_move_to_magneteinheit_A_69",
    "joint_names": [
        "shoulder_pan_joint",
        "shoulder_lift_joint",
        "elbow_joint",
        "wrist_1_joint",
        "wrist_2_joint",
        "wrist_3_joint"
    ],
    "metrics": {
        "cart_traj_len": 1.867156499956164,
        "distance_elbow_joint": 3.94451186071829,
        "distance_shoulder_lift_joint": 0.7134826613413779,
        "distance_shoulder_pan_joint": 1.2417677190973748,
        "distance_wrist_1_joint": 1.5941863466595414,
        "distance_wrist_2_joint": 1.7098583683581385,
        "distance_wrist_3_joint": 1.2340205024278186,
        "smoothness": 6.344131619521387e-17,
        "time": 5.000219876,
        "traj_len": 3.2307626744474036,
        "weighted_distance": 4.0261536456618074
    },
    "planner": "LazyPRMstar",
    "start": {
        "state": {
            "elbow_joint": -1.919643507792019,
            "shoulder_lift_joint": -0.07675430207160344,
            "shoulder_pan_joint": -1.1188671864651873,
            "wrist_1_joint": 0.42560062535961957,
            "wrist_2_joint": 1.5706038300724876,
            "wrist_3_joint": 1.1188968870953055
        }
    },
    "waypoints": [
        {
            "positions": [
                -1.1188671864651873,
                -0.07675430207160344,
                -1.919643507792019,
                0.42560062535961957,
                1.5706038300724876,
                1.1188968870953055
            ]
        },
        {
            "positions": [
                -1.0728757894615808,
                -0.10317958582498782,
                -1.7735504759135639,
                0.48464456412478774,
                1.5072757423555194,
                1.0731924240424233
            ]
        },
        {
            "positions": [
                -1.0268843924579745,
                -0.1296048695783722,
                -1.6274574440351088,
                0.543688502889956,
                1.4439476546385515,
                1.0274879609895413
            ]
        },
        {
            "positions": [
                -0.9808929954543679,
                -0.15603015333175657,
                -1.4813644121566536,
                0.6027324416551242,
                1.3806195669215833,
                0.9817834979366591
            ]
        },
        {
            "positions": [
                -0.9349015984507615,
                -0.18245543708514092,
                -1.3352713802781984,
                0.6617763804202923,
                1.3172914792046153,
                0.9360790348837769
            ]
        },
        {
            "positions": [
                -0.888910201447155,
                -0.2088807208385253,
                -1.1891783483997433,
                0.7208203191854605,
                1.2539633914876471,
                0.8903745718308947
            ]
        },
        {
            "positions": [
                -0.8429188044435485,
                -0.23530600459190967,
                -1.043085316521288,
                0.7798642579506287,
                1.1906353037706792,
                0.8446701087780125
            ]
        },
        {
            "positions": [
                -0.7969274074399421,
                -0.261731288345294,
                -0.8969922846428329,
                0.838908196715797,
                1.127307216053711,
                0.7989656457251304
            ]
        },
        {
            "positions": [
                -0.7509360104363356,
                -0.2881565720986784,
                -0.7508992527643776,
                0.8979521354809652,
                1.0639791283367428,
                0.7532611826722482
            ]
        },
        {
            "positions": [
                -0.7049446134327291,
                -0.3145818558520628,
                -0.6048062208859226,
                0.9569960742461334,
                1.0006510406197748,
                0.7075567196193661
            ]
        },
        {
            "positions": [
                -0.6589532164291226,
                -0.34100713960544715,
                -0.4587131890074674,
                1.0160400130113014,
                0.9373229529028066,
                0.6618522565664839
            ]
        },
        {
            "positions": [
                -0.6129618194255162,
                -0.36743242335883153,
                -0.31262015712901214,
                1.0750839517764696,
                0.8739948651858386,
                0.6161477935136017
            ]
        },
        {
            "positions": [
                -0.5669704224219096,
                -0.3938577071122159,
                -0.16652712525055713,
                1.1341278905416379,
                0.8106667774688705,
                0.5704433304607195
            ]
        },
        {
            "positions": [
                -0.5209790254183032,
                -0.4202829908656003,
                -0.02043409337210189,
                1.193171829306806,
                0.7473386897519024,
                0.5247388674078374
            ]
        },
        {
            "positions": [
                -0.47498762841469677,
                -0.44670827461898466,
                0.12565893850635335,
                1.2522157680719743,
                0.6840106020349344,
                0.47903440435495526
            ]
        },
        {
            "positions": [
                -0.4289962314110902,
                -0.47313355837236903,
                0.2717519703848088,
                1.3112597068371425,
                0.6206825143179662,
                0.43332994130207303
            ]
        },
        {
            "positions": [
                -0.3830048344074838,
                -0.49955884212575336,
                0.4178450022632638,
                1.3703036456023108,
                0.5573544266009982,
                0.3876254782491909
            ]
        },
        {
            "positions": [
                -0.33701343740387724,
                -0.5259841258791378,
                0.5639380341417188,
                1.429347584367479,
                0.49402633888403,
                0.3419210151963087
            ]
        },
        {
            "positions": [
                -0.2910220404002708,
                -0.552409409632522,
                0.7100310660201739,
                1.4883915231326472,
                0.43069825116706206,
                0.29621655214342657
            ]
        },
        {
            "positions": [
                -0.24503064339666425,
                -0.5788346933859065,
                0.8561240978986293,
                1.5474354618978154,
                0.3673701634500939,
                0.25051208909054434
            ]
        },
        {
            "positions": [
                -0.19903924639305792,
                -0.6052599771392908,
                1.0022171297770843,
                1.6064794006629834,
                0.3040420757331257,
                0.20480762603766223
            ]
        },
        {
            "positions": [
                -0.15304784938945137,
                -0.6316852608926753,
                1.1483101616555398,
                1.665523339428152,
                0.2407139880161575,
                0.15910316298478
            ]
        },
        {
            "positions": [
                -0.10705645238584505,
                -0.6581105446460596,
                1.2944031935339948,
                1.72456727819332,
                0.17738590029918955,
                0.11339869993189788
            ]
        },
        {
            "positions": [
                -0.0610650553822385,
                -0.684535828399444,
                1.4404962254124503,
                1.7836112169584883,
                0.11405781258222136,
                0.06769423687901566
            ]
        },
        {
            "positions": [
                -0.015073658378631949,
                -0.7109611121528283,
                1.5865892572909048,
                1.8426551557236563,
                0.0507297248652534,
                0.02198977382613343
            ]
        },
        {
            "positions": [
                0.0309177386249746,
                -0.7373863959062128,
                1.7326822891693603,
                1.9016990944888246,
                -0.012598362851714784,
                -0.023714689226748797
            ]
        },
        {
            "positions": [
                0.07690913562858093,
                -0.7638116796595971,
                1.8787753210478153,
                1.9607430332539928,
                -0.07592645056868275,
                -0.0694191522796308
            ]
        },
        {
            "positions": [
                0.12290053263218757,
                -0.7902369634129814,
                2.0248683529262705,
                2.019786972019161,
                -0.13925453828565096,
                -0.11512361533251314
            ]
        }
    ]
}