{
    "goal": {
        "global_pose": {
            "orientation": {
                "w": 0.5084816217422485,
                "x": -0.49083608388900757,
                "y": 0.5182115435600281,
                "z": -0.4816462993621826
            },
            "position": {
                "x": 0.5540239810943604,
                "y": 0.030875300988554955,
                "z": 0.16403168439865112
            }
        },
        "name": "move_to_storage_A"
    },
    "id": "LazyPRM_move_to_storage_A_41",
    "joint_names": [
        "shoulder_pan_joint",
        "shoulder_lift_joint",
        "elbow_joint",
        "wrist_1_joint",
        "wrist_2_joint",
        "wrist_3_joint"
    ],
    "metrics": {
        "cart_traj_len": 0.3529065377649039,
        "distance_elbow_joint": 0.45197943916941075,
        "distance_shoulder_lift_joint": 0.2322534358785313,
        "distance_shoulder_pan_joint": 0.45900756633740836,
        "distance_wrist_1_joint": 0.257647813820843,
        "distance_wrist_2_joint": 1.1079918304716407,
        "distance_wrist_3_joint": 0.10032065431154846,
        "smoothness": 0.0,
        "time": 0.021794015,
        "traj_len": 1.6153020584365583,
        "weighted_distance": 2.0433995431400493
    },
    "planner": "LazyPRM",
    "start": {
        "state": {
            "elbow_joint": 1.9715463870305268,
            "shoulder_lift_joint": -1.1394903361783484,
            "shoulder_pan_joint": 0.12281147578464417,
            "wrist_1_joint": -0.7804599489681411,
            "wrist_2_joint": 0.12958660307563738,
            "wrist_3_joint": -3.1924946282119055
        }
    },
    "waypoints": [
        {
            "positions": [
                0.12281147578464417,
                -1.1394903361783484,
                1.9715463870305268,
                -0.7804599489681411,
                0.12958660307563738,
                -3.1924946282119055
            ]
        },
        {
            "positions": [
                0.05723896630787155,
                -1.17266939844671,
                2.0361148783404426,
                -0.8172667795139757,
                0.28787115028587174,
                -3.1781631061673985
            ]
        },
        {
            "positions": [
                -0.008333543168901072,
                -1.2058484607150717,
                2.1006833696503584,
                -0.8540736100598105,
                0.4461556974961062,
                -3.163831584122892
            ]
        },
        {
            "positions": [
                -0.0739060526456737,
                -1.2390275229834333,
                2.165251860960274,
                -0.8908804406056452,
                0.6044402447063405,
                -3.149500062078385
            ]
        },
        {
            "positions": [
                -0.1394785621224463,
                -1.2722065852517948,
                2.22982035227019,
                -0.92768727115148,
                0.7627247919165749,
                -3.135168540033878
            ]
        },
        {
            "positions": [
                -0.20505107159921893,
                -1.3053856475201564,
                2.294388843580106,
                -0.9644941016973146,
                0.9210093391268094,
                -3.1208370179893707
            ]
        },
        {
            "positions": [
                -0.27062358107599155,
                -1.338564709788518,
                2.3589573348900217,
                -1.0013009322431494,
                1.0792938863370436,
                -3.106505495944864
            ]
        },
        {
            "positions": [
                -0.33619609055276417,
                -1.3717437720568797,
                2.4235258261999375,
                -1.038107762788984,
                1.2375784335472781,
                -3.092173973900357
            ]
        }
    ]
}