{
    "goal": {
        "global_pose": {
            "orientation": {
                "w": 0.5084816217422485,
                "x": -0.49083608388900757,
                "y": 0.5182115435600281,
                "z": -0.4816462993621826
            },
            "position": {
                "x": 0.5540239810943604,
                "y": 0.030875300988554955,
                "z": 0.16403168439865112
            }
        },
        "name": "move_to_storage_A"
    },
    "id": "LazyPRM_move_to_storage_A_139",
    "joint_names": [
        "shoulder_pan_joint",
        "shoulder_lift_joint",
        "elbow_joint",
        "wrist_1_joint",
        "wrist_2_joint",
        "wrist_3_joint"
    ],
    "metrics": {
        "cart_traj_len": 0.35264643867140455,
        "distance_elbow_joint": 0.45048259685557657,
        "distance_shoulder_lift_joint": 0.23243245026547554,
        "distance_shoulder_pan_joint": 0.46189790016889776,
        "distance_wrist_1_joint": 0.24896118497876107,
        "distance_wrist_2_joint": 1.0936825357437807,
        "distance_wrist_3_joint": 0.09106386878154105,
        "smoothness": 8.881784197001252e-16,
        "time": 0.011843263,
        "traj_len": 1.6057772375999209,
        "weighted_distance": 2.025658410265575
    },
    "planner": "LazyPRM",
    "start": {
        "state": {
            "elbow_joint": 1.9715463870305268,
            "shoulder_lift_joint": -1.1394903361783484,
            "shoulder_pan_joint": 0.12281147578464417,
            "wrist_1_joint": -0.7804599489681411,
            "wrist_2_joint": 0.12958660307563738,
            "wrist_3_joint": -3.1924946282119055
        }
    },
    "waypoints": [
        {
            "positions": [
                0.12281147578464417,
                -1.1394903361783484,
                1.9715463870305268,
                -0.7804599489681411,
                0.12958660307563738,
                -3.1924946282119055
            ]
        },
        {
            "positions": [
                0.05682606147480164,
                -1.1726949719305593,
                2.0359010437241807,
                -0.8160258325365355,
                0.28582696532474894,
                -3.1794855041002568
            ]
        },
        {
            "positions": [
                -0.009159352835040893,
                -1.20589960768277,
                2.100255700417834,
                -0.85159171610493,
                0.44206732757386047,
                -3.166476379988608
            ]
        },
        {
            "positions": [
                -0.07514476714488343,
                -1.2391042434349808,
                2.164610357111488,
                -0.8871575996733244,
                0.598307689822972,
                -3.153467255876959
            ]
        },
        {
            "positions": [
                -0.14113018145472594,
                -1.2723088791871915,
                2.228965013805142,
                -0.9227234832417188,
                0.7545480520720835,
                -3.140458131765311
            ]
        },
        {
            "positions": [
                -0.2071155957645685,
                -1.3055135149394024,
                2.293319670498796,
                -0.9582893668101133,
                0.9107884143211951,
                -3.127449007653662
            ]
        },
        {
            "positions": [
                -0.273101010074411,
                -1.338718150691613,
                2.3576743271924494,
                -0.9938552503785076,
                1.0670287765703066,
                -3.1144398835420133
            ]
        },
        {
            "positions": [
                -0.33908642438425357,
                -1.371922786443824,
                2.4220289838861033,
                -1.0294211339469022,
                1.2232691388194181,
                -3.1014307594303645
            ]
        }
    ]
}