{
    "goal": {
        "global_pose": {
            "orientation": {
                "w": 0.7031023502349854,
                "x": -0.7110244035720825,
                "y": 0.007748599164187908,
                "z": 0.005598929710686207
            },
            "position": {
                "x": 0.11585023208521307,
                "y": 0.44412534475326537,
                "z": 0.3711530566215515
            }
        },
        "name": "move_to_auspresseinheit_A"
    },
    "id": "LazyPRM_move_to_auspresseinheit_A_3",
    "joint_names": [
        "shoulder_pan_joint",
        "shoulder_lift_joint",
        "elbow_joint",
        "wrist_1_joint",
        "wrist_2_joint",
        "wrist_3_joint"
    ],
    "metrics": {
        "cart_traj_len": 1.0247918085412102,
        "distance_elbow_joint": 0.27794241687633514,
        "distance_shoulder_lift_joint": 1.6152176348318237,
        "distance_shoulder_pan_joint": 2.2082094472128455,
        "distance_wrist_1_joint": 2.442064104878257,
        "distance_wrist_2_joint": 0.5158630444483329,
        "distance_wrist_3_joint": 3.011287559710987,
        "smoothness": 0.9565630630332531,
        "time": 0.100912392,
        "traj_len": 3.173418378965903,
        "weighted_distance": 4.364755030549498
    },
    "planner": "LazyPRM",
    "start": {
        "state": {
            "elbow_joint": 2.422574709923281,
            "shoulder_lift_joint": -1.3736533754116391,
            "shoulder_pan_joint": -0.33786336945926293,
            "wrist_1_joint": -1.0288603412921917,
            "wrist_2_joint": 1.2330224858903978,
            "wrist_3_joint": -3.094022268022082
        }
    },
    "waypoints": [
        {
            "positions": [
                -0.33786336945926293,
                -1.3736533754116391,
                2.422574709923281,
                -1.0288603412921917,
                1.2330224858903978,
                -3.094022268022082
            ]
        },
        {
            "positions": [
                -0.3793645121693216,
                -1.4504636928854646,
                2.4115669449365584,
                -0.9214933795495701,
                1.2076004708942651,
                -2.9877837883651064
            ]
        },
        {
            "positions": [
                -0.42086565487938027,
                -1.52727401035929,
                2.4005591799498363,
                -0.8141264178069486,
                1.1821784558981325,
                -2.88154530870813
            ]
        },
        {
            "positions": [
                -0.46236679758943894,
                -1.6040843278331154,
                2.3895514149631136,
                -0.706759456064327,
                1.1567564409019997,
                -2.7753068290511544
            ]
        },
        {
            "positions": [
                -0.5038679402994977,
                -1.6808946453069407,
                2.3785436499763914,
                -0.5993924943217055,
                1.131334425905867,
                -2.6690683493941783
            ]
        },
        {
            "positions": [
                -0.5453690830095563,
                -1.7577049627807662,
                2.367535884989669,
                -0.49202553257908377,
                1.1059124109097345,
                -2.5628298697372025
            ]
        },
        {
            "positions": [
                -0.586870225719615,
                -1.8345152802545914,
                2.3565281200029466,
                -0.38465857083646227,
                1.0804903959136019,
                -2.4565913900802263
            ]
        },
        {
            "positions": [
                -0.6283713684296737,
                -1.911325597728417,
                2.345520355016224,
                -0.27729160909384065,
                1.055068380917469,
                -2.3503529104232506
            ]
        },
        {
            "positions": [
                -0.6698725111397323,
                -1.9881359152022422,
                2.3345125900295014,
                -0.16992464735121915,
                1.0296463659213364,
                -2.244114430766275
            ]
        },
        {
            "positions": [
                -0.711373653849791,
                -2.0649462326760677,
                2.323504825042779,
                -0.06255768560859742,
                1.0042243509252038,
                -2.1378759511092986
            ]
        },
        {
            "positions": [
                -0.7528747965598497,
                -2.141756550149893,
                2.3124970600560566,
                0.04480927613402419,
                0.9788023359290712,
                -2.0316374714523224
            ]
        },
        {
            "positions": [
                -0.7943759392699083,
                -2.2185668676237187,
                2.3014892950693344,
                0.15217623787664558,
                0.9533803209329386,
                -1.925398991795347
            ]
        },
        {
            "positions": [
                -0.835877081979967,
                -2.2953771850975437,
                2.290481530082612,
                0.2595431996192672,
                0.9279583059368058,
                -1.819160512138371
            ]
        },
        {
            "positions": [
                -0.8773782246900257,
                -2.3721875025713692,
                2.2794737650958896,
                0.3669101613618888,
                0.9025362909406731,
                -1.712922032481395
            ]
        },
        {
            "positions": [
                -0.9188793674000844,
                -2.4489978200451947,
                2.268466000109167,
                0.47427712310451037,
                0.8771142759445405,
                -1.606683552824419
            ]
        },
        {
            "positions": [
                -0.7937106405330056,
                -2.4074691131068664,
                2.277991669883184,
                0.4020519969136216,
                0.8648100579058885,
                -1.7239103870177517
            ]
        },
        {
            "positions": [
                -0.6685419136659267,
                -2.365940406168538,
                2.287517339657201,
                0.32982687072273276,
                0.8525058398672366,
                -1.8411372212110844
            ]
        },
        {
            "positions": [
                -0.543373186798848,
                -2.3244116992302097,
                2.297043009431218,
                0.25760174453184403,
                0.8402016218285846,
                -1.9583640554044168
            ]
        },
        {
            "positions": [
                -0.41820445993176925,
                -2.2828829922918814,
                2.306568679205235,
                0.1853766183409552,
                0.8278974037899326,
                -2.0755908895977493
            ]
        },
        {
            "positions": [
                -0.29303573306469044,
                -2.241354285353553,
                2.316094348979252,
                0.11315149215006642,
                0.8155931857512806,
                -2.192817723791082
            ]
        },
        {
            "positions": [
                -0.16786700619761163,
                -2.1998255784152247,
                2.325620018753269,
                0.040926365959177646,
                0.8032889677126287,
                -2.3100445579844147
            ]
        },
        {
            "positions": [
                -0.04269827933053294,
                -2.1582968714768964,
                2.335145688527286,
                -0.03129876023171113,
                0.7909847496739767,
                -2.4272713921777473
            ]
        },
        {
            "positions": [
                0.08247044753654587,
                -2.116768164538568,
                2.3446713583013032,
                -0.10352388642259996,
                0.7786805316353247,
                -2.54449822637108
            ]
        },
        {
            "positions": [
                0.20763917440362456,
                -2.0752394576002398,
                2.35419702807532,
                -0.1757490126134887,
                0.7663763135966728,
                -2.6617250605644127
            ]
        },
        {
            "positions": [
                0.3328079012707035,
                -2.0337107506619114,
                2.363722697849337,
                -0.24797413880437752,
                0.7540720955580208,
                -2.7789518947577454
            ]
        },
        {
            "positions": [
                0.45797662813778217,
                -1.9921820437235833,
                2.3732483676233542,
                -0.32019926499526624,
                0.7417678775193688,
                -2.896178728951078
            ]
        },
        {
            "positions": [
                0.5831453550048611,
                -1.950653336785255,
                2.382774037397371,
                -0.3924243911861551,
                0.7294636594807169,
                -3.0134055631444108
            ]
        },
        {
            "positions": [
                0.7083140818719397,
                -1.9091246298469267,
                2.392299707171388,
                -0.46464951737704385,
                0.7171594414420649,
                -3.130632397337743
            ]
        }
    ]
}