{
    "goal": {
        "global_pose": {
            "orientation": {
                "w": 0.7047431468963623,
                "x": -0.7094548344612122,
                "y": 0.0024358443915843964,
                "z": -0.0022348060738295317
            },
            "position": {
                "x": 0.6094750761985779,
                "y": 0.3671506643295288,
                "z": 0.19426114857196808
            }
        },
        "name": "move_to_magneteinheit_A"
    },
    "id": "LazyPRMstar_move_to_magneteinheit_A_104",
    "joint_names": [
        "shoulder_pan_joint",
        "shoulder_lift_joint",
        "elbow_joint",
        "wrist_1_joint",
        "wrist_2_joint",
        "wrist_3_joint"
    ],
    "metrics": {
        "cart_traj_len": 2.063644265960519,
        "distance_elbow_joint": 3.8784936052062244,
        "distance_shoulder_lift_joint": 1.0563313540916215,
        "distance_shoulder_pan_joint": 1.2412621693192354,
        "distance_wrist_1_joint": 1.14914819238326,
        "distance_wrist_2_joint": 1.4460204105000538,
        "distance_wrist_3_joint": 1.9268289732735662,
        "smoothness": 4.2877579048820457e-16,
        "time": 5.000709179,
        "traj_len": 3.270792672239248,
        "weighted_distance": 4.140882907569883
    },
    "planner": "LazyPRMstar",
    "start": {
        "state": {
            "elbow_joint": -1.919643507792019,
            "shoulder_lift_joint": -0.07675430207160344,
            "shoulder_pan_joint": -1.1188671864651873,
            "wrist_1_joint": 0.42560062535961957,
            "wrist_2_joint": 1.5706038300724876,
            "wrist_3_joint": 1.1188968870953055
        }
    },
    "waypoints": [
        {
            "positions": [
                -1.1188671864651873,
                -0.07675430207160344,
                -1.919643507792019,
                0.42560062535961957,
                1.5706038300724876,
                1.1188968870953055
            ]
        },
        {
            "positions": [
                -1.074536394703786,
                -0.11448042186058993,
                -1.781125879034654,
                0.38455961848878883,
                1.5189602439832,
                1.1877122075693616
            ]
        },
        {
            "positions": [
                -1.0302056029423847,
                -0.15220654164957642,
                -1.6426082502772887,
                0.34351861161795816,
                1.4673166578939123,
                1.2565275280434174
            ]
        },
        {
            "positions": [
                -0.9858748111809835,
                -0.18993266143856288,
                -1.5040906215199237,
                0.3024776047471274,
                1.4156730718046246,
                1.3253428485174734
            ]
        },
        {
            "positions": [
                -0.9415440194195823,
                -0.22765878122754937,
                -1.3655729927625586,
                0.2614365978762967,
                1.364029485715337,
                1.3941581689915292
            ]
        },
        {
            "positions": [
                -0.897213227658181,
                -0.2653849010165359,
                -1.2270553640051933,
                0.220395591005466,
                1.3123858996260493,
                1.4629734894655853
            ]
        },
        {
            "positions": [
                -0.8528824358967797,
                -0.3031110208055223,
                -1.088537735247828,
                0.1793545841346353,
                1.260742313536762,
                1.531788809939641
            ]
        },
        {
            "positions": [
                -0.8085516441353785,
                -0.3408371405945088,
                -0.950020106490463,
                0.13831357726380455,
                1.2090987274474743,
                1.600604130413697
            ]
        },
        {
            "positions": [
                -0.7642208523739773,
                -0.3785632603834953,
                -0.8115024777330979,
                0.09727257039297388,
                1.1574551413581866,
                1.669419450887753
            ]
        },
        {
            "positions": [
                -0.719890060612576,
                -0.4162893801724818,
                -0.6729848489757326,
                0.05623156352214309,
                1.105811555268899,
                1.738234771361809
            ]
        },
        {
            "positions": [
                -0.6755592688511747,
                -0.4540154999614683,
                -0.5344672202183676,
                0.015190556651312415,
                1.0541679691796113,
                1.807050091835865
            ]
        },
        {
            "positions": [
                -0.6312284770897735,
                -0.4917416197504547,
                -0.3959495914610023,
                -0.025850450219518317,
                1.0025243830903237,
                1.8758654123099208
            ]
        },
        {
            "positions": [
                -0.5868976853283722,
                -0.5294677395394412,
                -0.2574319627036372,
                -0.066891457090349,
                0.950880797001036,
                1.9446807327839766
            ]
        },
        {
            "positions": [
                -0.5425668935669709,
                -0.5671938593284277,
                -0.11891433394627193,
                -0.10793246396117978,
                0.8992372109117484,
                2.0134960532580326
            ]
        },
        {
            "positions": [
                -0.49823610180556965,
                -0.6049199791174142,
                0.01960329481109313,
                -0.14897347083201046,
                0.8475936248224607,
                2.0823113737320886
            ]
        },
        {
            "positions": [
                -0.45390531004416845,
                -0.6426460989064007,
                0.1581209235684582,
                -0.19001447770284113,
                0.795950038733173,
                2.1511266942061447
            ]
        },
        {
            "positions": [
                -0.40957451828276714,
                -0.6803722186953871,
                0.29663855232582326,
                -0.2310554845736718,
                0.7443064526438855,
                2.2199420146802007
            ]
        },
        {
            "positions": [
                -0.36524372652136594,
                -0.7180983384843735,
                0.4351561810831883,
                -0.2720964914445026,
                0.6926628665545979,
                2.2887573351542563
            ]
        },
        {
            "positions": [
                -0.3209129347599645,
                -0.7558244582733602,
                0.5736738098405538,
                -0.3131374983153334,
                0.6410192804653101,
                2.3575726556283128
            ]
        },
        {
            "positions": [
                -0.2765821429985633,
                -0.7935505780623466,
                0.7121914385979189,
                -0.35417850518616406,
                0.5893756943760224,
                2.4263879761023683
            ]
        },
        {
            "positions": [
                -0.232251351237162,
                -0.8312766978513331,
                0.850709067355284,
                -0.39521951205699474,
                0.5377321082867348,
                2.4952032965764244
            ]
        },
        {
            "positions": [
                -0.1879205594757608,
                -0.8690028176403195,
                0.9892266961126495,
                -0.4362605189278255,
                0.48608852219744736,
                2.56401861705048
            ]
        },
        {
            "positions": [
                -0.1435897677143596,
                -0.9067289374293059,
                1.1277443248700145,
                -0.4773015257986562,
                0.4344449361081597,
                2.632833937524536
            ]
        },
        {
            "positions": [
                -0.0992589759529583,
                -0.9444550572182926,
                1.2662619536273796,
                -0.5183425326694868,
                0.38280135001887206,
                2.701649257998592
            ]
        },
        {
            "positions": [
                -0.054928184191556984,
                -0.982181177007279,
                1.4047795823847447,
                -0.5593835395403175,
                0.3311577639295844,
                2.770464578472648
            ]
        },
        {
            "positions": [
                -0.010597392430155672,
                -1.0199072967962655,
                1.5432972111421102,
                -0.6004245464111484,
                0.27951417784029653,
                2.839279898946704
            ]
        },
        {
            "positions": [
                0.03373339933124564,
                -1.057633416585252,
                1.6818148398994752,
                -0.6414655532819791,
                0.2278705917510091,
                2.90809521942076
            ]
        },
        {
            "positions": [
                0.07806419109264673,
                -1.0953595363742386,
                1.8203324686568403,
                -0.6825065601528097,
                0.17622700566172145,
                2.976910539894816
            ]
        },
        {
            "positions": [
                0.122394982854048,
                -1.133085656163225,
                1.9588500974142056,
                -0.7235475670236404,
                0.12458341957243385,
                3.0457258603688717
            ]
        }
    ]
}