{
    "goal": {
        "global_pose": {
            "orientation": {
                "w": 0.5084816217422485,
                "x": -0.49083608388900757,
                "y": 0.5182115435600281,
                "z": -0.4816462993621826
            },
            "position": {
                "x": 0.5540239810943604,
                "y": 0.030875300988554955,
                "z": 0.16403168439865112
            }
        },
        "name": "move_to_storage_A"
    },
    "id": "LazyPRM_move_to_storage_A_71",
    "joint_names": [
        "shoulder_pan_joint",
        "shoulder_lift_joint",
        "elbow_joint",
        "wrist_1_joint",
        "wrist_2_joint",
        "wrist_3_joint"
    ],
    "metrics": {
        "cart_traj_len": 0.3529812668593214,
        "distance_elbow_joint": 0.4507165888148079,
        "distance_shoulder_lift_joint": 0.23380835055036564,
        "distance_shoulder_pan_joint": 0.4611341776648945,
        "distance_wrist_1_joint": 0.24576719010395343,
        "distance_wrist_2_joint": 1.100428955492802,
        "distance_wrist_3_joint": 0.10413503437143268,
        "smoothness": 2.2204460668324854e-16,
        "time": 0.022088262,
        "traj_len": 1.611207713796783,
        "weighted_distance": 2.0372669219662596
    },
    "planner": "LazyPRM",
    "start": {
        "state": {
            "elbow_joint": 1.9715463870305268,
            "shoulder_lift_joint": -1.1394903361783484,
            "shoulder_pan_joint": 0.12281147578464417,
            "wrist_1_joint": -0.7804599489681411,
            "wrist_2_joint": 0.12958660307563738,
            "wrist_3_joint": -3.1924946282119055
        }
    },
    "waypoints": [
        {
            "positions": [
                0.12281147578464417,
                -1.1394903361783484,
                1.9715463870305268,
                -0.7804599489681411,
                0.12958660307563738,
                -3.1924946282119055
            ]
        },
        {
            "positions": [
                0.05693516468965924,
                -1.1728915291141149,
                2.035934471146928,
                -0.8155695475544201,
                0.2867907395746091,
                -3.177618194730272
            ]
        },
        {
            "positions": [
                -0.008941146405325687,
                -1.2062927220498814,
                2.100322555263329,
                -0.8506791461406992,
                0.4439948760735808,
                -3.1627417612486393
            ]
        },
        {
            "positions": [
                -0.07481745750031062,
                -1.2396939149856478,
                2.16471063937973,
                -0.8857887447269782,
                0.6011990125725525,
                -3.147865327767006
            ]
        },
        {
            "positions": [
                -0.14069376859529553,
                -1.2730951079214146,
                2.229098723496131,
                -0.9208983433132574,
                0.7584031490715242,
                -3.1329888942853725
            ]
        },
        {
            "positions": [
                -0.20657007969028046,
                -1.306496300857181,
                2.2934868076125325,
                -0.9560079418995364,
                0.915607285570496,
                -3.118112460803739
            ]
        },
        {
            "positions": [
                -0.2724463907852654,
                -1.3398974937929475,
                2.3578748917289336,
                -0.9911175404858155,
                1.0728114220694676,
                -3.1032360273221062
            ]
        },
        {
            "positions": [
                -0.3383227018802503,
                -1.373298686728714,
                2.4222629758453347,
                -1.0262271390720945,
                1.2300155585684394,
                -3.088359593840473
            ]
        }
    ]
}