{
    "goal": {
        "global_pose": {
            "orientation": {
                "w": 0.5084816217422485,
                "x": -0.49083608388900757,
                "y": 0.5182115435600281,
                "z": -0.4816462993621826
            },
            "position": {
                "x": 0.5540239810943604,
                "y": 0.030875300988554955,
                "z": 0.16403168439865112
            }
        },
        "name": "move_to_storage_A"
    },
    "id": "LazyPRMstar_move_to_storage_A_128",
    "joint_names": [
        "shoulder_pan_joint",
        "shoulder_lift_joint",
        "elbow_joint",
        "wrist_1_joint",
        "wrist_2_joint",
        "wrist_3_joint"
    ],
    "metrics": {
        "cart_traj_len": 0.35355577592197485,
        "distance_elbow_joint": 0.44961033081805324,
        "distance_shoulder_lift_joint": 0.2338201896714478,
        "distance_shoulder_pan_joint": 0.4613587304125754,
        "distance_wrist_1_joint": 0.23931364882401895,
        "distance_wrist_2_joint": 1.103850531317669,
        "distance_wrist_3_joint": 0.09311476859984902,
        "smoothness": 4.440892133664971e-16,
        "time": 5.000142117,
        "traj_len": 1.6065703220349905,
        "weighted_distance": 2.0274274134935135
    },
    "planner": "LazyPRMstar",
    "start": {
        "state": {
            "elbow_joint": 1.9715463870305268,
            "shoulder_lift_joint": -1.1394903361783484,
            "shoulder_pan_joint": 0.12281147578464417,
            "wrist_1_joint": -0.7804599489681411,
            "wrist_2_joint": 0.12958660307563738,
            "wrist_3_joint": -3.1924946282119055
        }
    },
    "waypoints": [
        {
            "positions": [
                0.12281147578464417,
                -1.1394903361783484,
                1.9715463870305268,
                -0.7804599489681411,
                0.12958660307563738,
                -3.1924946282119055
            ]
        },
        {
            "positions": [
                0.056903085725704836,
                -1.1728932204171267,
                2.0357764342902485,
                -0.8146476130858581,
                0.28727953612101864,
                -3.179192518411927
            ]
        },
        {
            "positions": [
                -0.009005304333234501,
                -1.2062961046559049,
                2.1000064815499706,
                -0.8488352772035751,
                0.4449724691663999,
                -3.165890408611949
            ]
        },
        {
            "positions": [
                -0.07491369439217384,
                -1.2396989888946832,
                2.1642365288096923,
                -0.883022941321292,
                0.6026654022117812,
                -3.1525882988119704
            ]
        },
        {
            "positions": [
                -0.14082208445111316,
                -1.2731018731334613,
                2.2284665760694145,
                -0.917210605439009,
                0.7603583352571625,
                -3.1392861890119916
            ]
        },
        {
            "positions": [
                -0.20673047451005255,
                -1.3065047573722397,
                2.292696623329136,
                -0.951398269556726,
                0.9180512683025438,
                -3.1259840792120133
            ]
        },
        {
            "positions": [
                -0.27263886456899183,
                -1.3399076416110178,
                2.356926670588858,
                -0.985585933674443,
                1.075744201347925,
                -3.112681969412035
            ]
        },
        {
            "positions": [
                -0.3385472546279312,
                -1.3733105258497962,
                2.42115671784858,
                -1.01977359779216,
                1.2334371343933064,
                -3.0993798596120565
            ]
        }
    ]
}