{
    "goal": {
        "global_pose": {
            "orientation": {
                "w": 0.7047431468963623,
                "x": -0.7094548344612122,
                "y": 0.0024358443915843964,
                "z": -0.0022348060738295317
            },
            "position": {
                "x": 0.6094750761985779,
                "y": 0.3671506643295288,
                "z": 0.19426114857196808
            }
        },
        "name": "move_to_magneteinheit_A"
    },
    "id": "LazyPRMstar_move_to_magneteinheit_A_53",
    "joint_names": [
        "shoulder_pan_joint",
        "shoulder_lift_joint",
        "elbow_joint",
        "wrist_1_joint",
        "wrist_2_joint",
        "wrist_3_joint"
    ],
    "metrics": {
        "cart_traj_len": 1.8711202701474496,
        "distance_elbow_joint": 3.930727876068728,
        "distance_shoulder_lift_joint": 0.707417974536733,
        "distance_shoulder_pan_joint": 1.2418286719430416,
        "distance_wrist_1_joint": 1.5608756910718686,
        "distance_wrist_2_joint": 1.69968304141143,
        "distance_wrist_3_joint": 1.1863141419697616,
        "smoothness": 1.2688263239042774e-16,
        "time": 5.000373223,
        "traj_len": 3.2135412549089146,
        "weighted_distance": 3.9950011781505625
    },
    "planner": "LazyPRMstar",
    "start": {
        "state": {
            "elbow_joint": -1.919643507792019,
            "shoulder_lift_joint": -0.07675430207160344,
            "shoulder_pan_joint": -1.1188671864651873,
            "wrist_1_joint": 0.42560062535961957,
            "wrist_2_joint": 1.5706038300724876,
            "wrist_3_joint": 1.1188968870953055
        }
    },
    "waypoints": [
        {
            "positions": [
                -1.1188671864651873,
                -0.07675430207160344,
                -1.919643507792019,
                0.42560062535961957,
                1.5706038300724876,
                1.1188968870953055
            ]
        },
        {
            "positions": [
                -1.0728735319487783,
                -0.10295496779518615,
                -1.7740609938635477,
                0.48341083614005914,
                1.5076526063165088,
                1.0749593262816106
            ]
        },
        {
            "positions": [
                -1.0268798774323695,
                -0.12915563351876885,
                -1.6284784799350762,
                0.5412210469204988,
                1.44470138256053,
                1.031021765467916
            ]
        },
        {
            "positions": [
                -0.9808862229159605,
                -0.15535629924235156,
                -1.482895966006605,
                0.5990312577009382,
                1.3817501588045509,
                0.987084204654221
            ]
        },
        {
            "positions": [
                -0.9348925683995516,
                -0.18155696496593426,
                -1.3373134520781336,
                0.6568414684813779,
                1.318798935048572,
                0.943146643840526
            ]
        },
        {
            "positions": [
                -0.8888989138831427,
                -0.20775763068951697,
                -1.1917309381496621,
                0.7146516792618174,
                1.2558477112925932,
                0.8992090830268312
            ]
        },
        {
            "positions": [
                -0.8429052593667337,
                -0.23395829641309968,
                -1.0461484242211907,
                0.7724618900422571,
                1.1928964875366144,
                0.8552715222131363
            ]
        },
        {
            "positions": [
                -0.7969116048503248,
                -0.2601589621366824,
                -0.9005659102927193,
                0.8302721008226965,
                1.1299452637806353,
                0.8113339613994415
            ]
        },
        {
            "positions": [
                -0.7509179503339158,
                -0.2863596278602651,
                -0.7549833963642478,
                0.8880823116031362,
                1.0669940400246567,
                0.7673964005857465
            ]
        },
        {
            "positions": [
                -0.7049242958175068,
                -0.3125602935838478,
                -0.6094008824357766,
                0.9458925223835757,
                1.0040428162686776,
                0.7234588397720517
            ]
        },
        {
            "positions": [
                -0.6589306413010979,
                -0.3387609593074305,
                -0.4638183685073052,
                1.0037027331640154,
                0.9410915925126988,
                0.6795212789583569
            ]
        },
        {
            "positions": [
                -0.612936986784689,
                -0.3649616250310132,
                -0.31823585457883374,
                1.0615129439444548,
                0.8781403687567199,
                0.635583718144662
            ]
        },
        {
            "positions": [
                -0.56694333226828,
                -0.3911622907545959,
                -0.1726533406503623,
                1.1193231547248945,
                0.815189145000741,
                0.591646157330967
            ]
        },
        {
            "positions": [
                -0.5209496777518711,
                -0.4173629564781786,
                -0.027070826721890873,
                1.177133365505334,
                0.7522379212447622,
                0.5477085965172722
            ]
        },
        {
            "positions": [
                -0.47495602323546215,
                -0.4435636222017613,
                0.11851168720658056,
                1.2349435762857737,
                0.6892866974887832,
                0.5037710357035774
            ]
        },
        {
            "positions": [
                -0.42896236871905313,
                -0.469764287925344,
                0.264094201135052,
                1.2927537870662134,
                0.6263354737328043,
                0.45983347488988247
            ]
        },
        {
            "positions": [
                -0.3829687142026442,
                -0.49596495364892673,
                0.40967671506352343,
                1.3505639978466528,
                0.5633842499768256,
                0.41589591407618764
            ]
        },
        {
            "positions": [
                -0.3369750596862352,
                -0.5221656193725095,
                0.5552592289919949,
                1.4083742086270925,
                0.5004330262208465,
                0.3719583532624927
            ]
        },
        {
            "positions": [
                -0.2909814051698263,
                -0.5483662850960922,
                0.7008417429204659,
                1.466184419407532,
                0.4374818024648677,
                0.3280207924487979
            ]
        },
        {
            "positions": [
                -0.24498775065341727,
                -0.5745669508196749,
                0.8464242568489377,
                1.5239946301879717,
                0.37453057870888884,
                0.28408323163510296
            ]
        },
        {
            "positions": [
                -0.19899409613700847,
                -0.6007676165432576,
                0.9920067707774087,
                1.5818048409684111,
                0.31157935495291,
                0.24014567082140814
            ]
        },
        {
            "positions": [
                -0.15300044162059945,
                -0.6269682822668403,
                1.1375892847058806,
                1.6396150517488508,
                0.24862813119693095,
                0.1962081100077132
            ]
        },
        {
            "positions": [
                -0.10700678710419065,
                -0.653168947990423,
                1.2831717986343516,
                1.6974252625292903,
                0.1856769074409521,
                0.1522705491940184
            ]
        },
        {
            "positions": [
                -0.06101313258778163,
                -0.6793696137140057,
                1.428754312562823,
                1.75523547330973,
                0.12272568368497327,
                0.10833298838032346
            ]
        },
        {
            "positions": [
                -0.015019478071372605,
                -0.7055702794375884,
                1.5743368264912945,
                1.8130456840901694,
                0.05977445992899444,
                0.06439542756662853
            ]
        },
        {
            "positions": [
                0.030974176445036417,
                -0.7317709451611711,
                1.719919340419766,
                1.870855894870609,
                -0.003176763826984619,
                0.020457866752933596
            ]
        },
        {
            "positions": [
                0.07696783096144522,
                -0.7579716108847538,
                1.8655018543482373,
                1.9286661056510486,
                -0.06612798758296323,
                -0.023479694060761114
            ]
        },
        {
            "positions": [
                0.12296148547785427,
                -0.7841722766083365,
                2.0110843682767086,
                1.9864763164314883,
                -0.1290792113389422,
                -0.06741725487445605
            ]
        }
    ]
}