{
    "goal": {
        "global_pose": {
            "orientation": {
                "w": 0.5084816217422485,
                "x": -0.49083608388900757,
                "y": 0.5182115435600281,
                "z": -0.4816462993621826
            },
            "position": {
                "x": 0.5540239810943604,
                "y": 0.030875300988554955,
                "z": 0.16403168439865112
            }
        },
        "name": "move_to_storage_A"
    },
    "id": "LazyPRMstar_move_to_storage_A_21",
    "joint_names": [
        "shoulder_pan_joint",
        "shoulder_lift_joint",
        "elbow_joint",
        "wrist_1_joint",
        "wrist_2_joint",
        "wrist_3_joint"
    ],
    "metrics": {
        "cart_traj_len": 0.3538755248164853,
        "distance_elbow_joint": 0.4493820920094409,
        "distance_shoulder_lift_joint": 0.23404937729382347,
        "distance_shoulder_pan_joint": 0.46463270127459866,
        "distance_wrist_1_joint": 0.24051211067858314,
        "distance_wrist_2_joint": 1.0919416108633828,
        "distance_wrist_3_joint": 0.09075210273341705,
        "smoothness": 0.0,
        "time": 5.000467438,
        "traj_len": 1.6035180057776859,
        "weighted_distance": 2.021194676883463
    },
    "planner": "LazyPRMstar",
    "start": {
        "state": {
            "elbow_joint": 1.9715463870305268,
            "shoulder_lift_joint": -1.1394903361783484,
            "shoulder_pan_joint": 0.12281147578464417,
            "wrist_1_joint": -0.7804599489681411,
            "wrist_2_joint": 0.12958660307563738,
            "wrist_3_joint": -3.1924946282119055
        }
    },
    "waypoints": [
        {
            "positions": [
                0.12281147578464417,
                -1.1394903361783484,
                1.9715463870305268,
                -0.7804599489681411,
                0.12958660307563738,
                -3.1924946282119055
            ]
        },
        {
            "positions": [
                0.05643537560255865,
                -1.1729259615060375,
                2.035743828746161,
                -0.8148188219222244,
                0.28557826177040635,
                -3.1795300421071317
            ]
        },
        {
            "positions": [
                -0.009940724579526869,
                -1.2063615868337265,
                2.0999412704617955,
                -0.8491776948763077,
                0.4415699204651753,
                -3.166565456002358
            ]
        },
        {
            "positions": [
                -0.07631682476161238,
                -1.2397972121614156,
                2.16413871217743,
                -0.883536567830391,
                0.5975615791599442,
                -3.153600869897584
            ]
        },
        {
            "positions": [
                -0.1426929249436979,
                -1.2732328374891047,
                2.228336153893064,
                -0.9178954407844743,
                0.7535532378547133,
                -3.14063628379281
            ]
        },
        {
            "positions": [
                -0.20906902512578346,
                -1.3066684628167937,
                2.292533595608699,
                -0.9522543137385576,
                0.9095448965494823,
                -3.127671697688036
            ]
        },
        {
            "positions": [
                -0.2754451253078689,
                -1.3401040881444828,
                2.3567310373243333,
                -0.9866131866926409,
                1.065536555244251,
                -3.1147071115832623
            ]
        },
        {
            "positions": [
                -0.34182122548995447,
                -1.3735397134721719,
                2.4209284790399677,
                -1.0209720596467242,
                1.2215282139390202,
                -3.1017425254784885
            ]
        }
    ]
}