{
    "goal": {
        "global_pose": {
            "orientation": {
                "w": 0.7031023502349854,
                "x": -0.7110244035720825,
                "y": 0.007748599164187908,
                "z": 0.005598929710686207
            },
            "position": {
                "x": 0.11585023208521307,
                "y": 0.44412534475326537,
                "z": 0.3711530566215515
            }
        },
        "name": "move_to_auspresseinheit_A"
    },
    "id": "LazyPRMstar_move_to_auspresseinheit_A_83",
    "joint_names": [
        "shoulder_pan_joint",
        "shoulder_lift_joint",
        "elbow_joint",
        "wrist_1_joint",
        "wrist_2_joint",
        "wrist_3_joint"
    ],
    "metrics": {
        "cart_traj_len": 0.7094468771545848,
        "distance_elbow_joint": 0.026034529664763273,
        "distance_shoulder_lift_joint": 0.5383882829891051,
        "distance_shoulder_pan_joint": 1.046179686270904,
        "distance_wrist_1_joint": 0.5450747172573513,
        "distance_wrist_2_joint": 0.8361247275733259,
        "distance_wrist_3_joint": 0.4783949295337475,
        "smoothness": 0.7284134235858633,
        "time": 5.004891855,
        "traj_len": 1.8628464438297636,
        "weighted_distance": 2.410017879018197
    },
    "planner": "LazyPRMstar",
    "start": {
        "state": {
            "elbow_joint": 2.422574709923281,
            "shoulder_lift_joint": -1.3736533754116391,
            "shoulder_pan_joint": -0.33786336945926293,
            "wrist_1_joint": -1.0288603412921917,
            "wrist_2_joint": 1.2330224858903978,
            "wrist_3_joint": -3.094022268022082
        }
    },
    "waypoints": [
        {
            "positions": [
                -0.33786336945926293,
                -1.3736533754116391,
                2.422574709923281,
                -1.0288603412921917,
                1.2330224858903978,
                -3.094022268022082
            ]
        },
        {
            "positions": [
                -0.28277053124639395,
                -1.481074030567193,
                2.42243339468723,
                -0.9864808403973885,
                1.0970103661934474,
                -3.048887376002019
            ]
        },
        {
            "positions": [
                -0.22767769303352503,
                -1.5884946857227469,
                2.422292079451179,
                -0.9441013395025852,
                0.960998246496497,
                -3.0037524839819554
            ]
        },
        {
            "positions": [
                -0.1725848548206561,
                -1.6959153408783008,
                2.422150764215128,
                -0.901721838607782,
                0.8249861267995466,
                -2.9586175919618922
            ]
        },
        {
            "positions": [
                -0.11749201660778713,
                -1.8033359960338546,
                2.422009448979077,
                -0.8593423377129787,
                0.6889740071025963,
                -2.9134826999418286
            ]
        },
        {
            "positions": [
                -0.06239917839491821,
                -1.9107566511894085,
                2.421868133743026,
                -0.8169628368181755,
                0.5529618874056459,
                -2.8683478079217655
            ]
        },
        {
            "positions": [
                0.13027969540672163,
                -1.9104353993865746,
                2.415536145371899,
                -0.7336685336223417,
                0.5919779196777895,
                -2.931527925280123
            ]
        },
        {
            "positions": [
                0.32295856920836147,
                -1.9101141475837407,
                2.409204157000772,
                -0.6503742304265079,
                0.6309939519499329,
                -2.994708042638481
            ]
        },
        {
            "positions": [
                0.5156374430100013,
                -1.9097928957809067,
                2.402872168629645,
                -0.5670799272306741,
                0.6700099842220764,
                -3.0578881599968386
            ]
        },
        {
            "positions": [
                0.7083163168116411,
                -1.9094716439780728,
                2.396540180258518,
                -0.4837856240348403,
                0.7090260164942199,
                -3.1210682773551963
            ]
        }
    ]
}