{
    "goal": {
        "global_pose": {
            "orientation": {
                "w": 0.5084816217422485,
                "x": -0.49083608388900757,
                "y": 0.5182115435600281,
                "z": -0.4816462993621826
            },
            "position": {
                "x": 0.5540239810943604,
                "y": 0.030875300988554955,
                "z": 0.16403168439865112
            }
        },
        "name": "move_to_storage_A"
    },
    "id": "LazyPRM_move_to_storage_A_70",
    "joint_names": [
        "shoulder_pan_joint",
        "shoulder_lift_joint",
        "elbow_joint",
        "wrist_1_joint",
        "wrist_2_joint",
        "wrist_3_joint"
    ],
    "metrics": {
        "cart_traj_len": 0.3535268136215371,
        "distance_elbow_joint": 0.4514379764516927,
        "distance_shoulder_lift_joint": 0.2334822318499945,
        "distance_shoulder_pan_joint": 0.4642612089176988,
        "distance_wrist_1_joint": 0.24828121076639154,
        "distance_wrist_2_joint": 1.0910298830593388,
        "distance_wrist_3_joint": 0.10173431914822162,
        "smoothness": 4.440892098500626e-16,
        "time": 0.01203996,
        "traj_len": 1.6094181651122674,
        "weighted_distance": 2.032979725013388
    },
    "planner": "LazyPRM",
    "start": {
        "state": {
            "elbow_joint": 1.9715463870305268,
            "shoulder_lift_joint": -1.1394903361783484,
            "shoulder_pan_joint": 0.12281147578464417,
            "wrist_1_joint": -0.7804599489681411,
            "wrist_2_joint": 0.12958660307563738,
            "wrist_3_joint": -3.1924946282119055
        }
    },
    "waypoints": [
        {
            "positions": [
                0.12281147578464417,
                -1.1394903361783484,
                1.9715463870305268,
                -0.7804599489681411,
                0.12958660307563738,
                -3.1924946282119055
            ]
        },
        {
            "positions": [
                0.05648844593925864,
                -1.1728449407283477,
                2.036037526523626,
                -0.8159286933633398,
                0.2854480149412572,
                -3.177961154047874
            ]
        },
        {
            "positions": [
                -0.00983458390612689,
                -1.2061995452783467,
                2.1005286660167246,
                -0.8513974377585387,
                0.441309426806877,
                -3.163427679883842
            ]
        },
        {
            "positions": [
                -0.07615761375151243,
                -1.239554149828346,
                2.1650198055098238,
                -0.8868661821537375,
                0.5971708386724969,
                -3.1488942057198104
            ]
        },
        {
            "positions": [
                -0.14248064359689794,
                -1.2729087543783453,
                2.2295109450029225,
                -0.9223349265489362,
                0.7530322505381167,
                -3.134360731555779
            ]
        },
        {
            "positions": [
                -0.2088036734422835,
                -1.3062633589283446,
                2.2940020844960216,
                -0.9578036709441351,
                0.9088936624037366,
                -3.1198272573917474
            ]
        },
        {
            "positions": [
                -0.27512670328766903,
                -1.3396179634783436,
                2.3584932239891203,
                -0.9932724153393337,
                1.0647550742693563,
                -3.1052937832277157
            ]
        },
        {
            "positions": [
                -0.3414497331330546,
                -1.3729725680283429,
                2.4229843634822195,
                -1.0287411597345326,
                1.2206164861349762,
                -3.090760309063684
            ]
        }
    ]
}