{
    "goal": {
        "global_pose": {
            "orientation": {
                "w": 0.5084816217422485,
                "x": -0.49083608388900757,
                "y": 0.5182115435600281,
                "z": -0.4816462993621826
            },
            "position": {
                "x": 0.5540239810943604,
                "y": 0.030875300988554955,
                "z": 0.16403168439865112
            }
        },
        "name": "move_to_storage_A"
    },
    "id": "LazyPRM_move_to_storage_A_3",
    "joint_names": [
        "shoulder_pan_joint",
        "shoulder_lift_joint",
        "elbow_joint",
        "wrist_1_joint",
        "wrist_2_joint",
        "wrist_3_joint"
    ],
    "metrics": {
        "cart_traj_len": 0.35316132894151725,
        "distance_elbow_joint": 0.4484640827781039,
        "distance_shoulder_lift_joint": 0.23315644706249006,
        "distance_shoulder_pan_joint": 0.45752745762232244,
        "distance_wrist_1_joint": 0.2425479483901002,
        "distance_wrist_2_joint": 1.1162715713687612,
        "distance_wrist_3_joint": 0.10163309579580648,
        "smoothness": 6.661338165333112e-16,
        "time": 0.022011176,
        "traj_len": 1.6123276971563765,
        "weighted_distance": 2.0400211553726737
    },
    "planner": "LazyPRM",
    "start": {
        "state": {
            "elbow_joint": 1.9715463870305268,
            "shoulder_lift_joint": -1.1394903361783484,
            "shoulder_pan_joint": 0.12281147578464417,
            "wrist_1_joint": -0.7804599489681411,
            "wrist_2_joint": 0.12958660307563738,
            "wrist_3_joint": -3.1924946282119055
        }
    },
    "waypoints": [
        {
            "positions": [
                0.12281147578464417,
                -1.1394903361783484,
                1.9715463870305268,
                -0.7804599489681411,
                0.12958660307563738,
                -3.1924946282119055
            ]
        },
        {
            "positions": [
                0.05745041041002669,
                -1.1727984000444185,
                2.035612684570256,
                -0.8151096558810126,
                0.2890539704140318,
                -3.1779756145267903
            ]
        },
        {
            "positions": [
                -0.0079106549645908,
                -1.2061064639104884,
                2.099678982109985,
                -0.849759362793884,
                0.4485213377524263,
                -3.163456600841675
            ]
        },
        {
            "positions": [
                -0.0732717203392083,
                -1.2394145277765585,
                2.163745279649714,
                -0.8844090697067555,
                0.6079887050908207,
                -3.14893758715656
            ]
        },
        {
            "positions": [
                -0.13863278571382576,
                -1.2727225916426284,
                2.2278115771894433,
                -0.9190587766196269,
                0.7674560724292152,
                -3.1344185734714447
            ]
        },
        {
            "positions": [
                -0.20399385108844326,
                -1.3060306555086985,
                2.2918778747291726,
                -0.9537084835324984,
                0.9269234397676097,
                -3.1198995597863295
            ]
        },
        {
            "positions": [
                -0.26935491646306076,
                -1.3393387193747683,
                2.3559441722689014,
                -0.9883581904453698,
                1.086390807106004,
                -3.1053805461012143
            ]
        },
        {
            "positions": [
                -0.33471598183767826,
                -1.3726467832408384,
                2.4200104698086307,
                -1.0230078973582413,
                1.2458581744443986,
                -3.090861532416099
            ]
        }
    ]
}