{
    "goal": {
        "global_pose": {
            "orientation": {
                "w": 0.7047431468963623,
                "x": -0.7094548344612122,
                "y": 0.0024358443915843964,
                "z": -0.0022348060738295317
            },
            "position": {
                "x": 0.6094750761985779,
                "y": 0.3671506643295288,
                "z": 0.19426114857196808
            }
        },
        "name": "move_to_magneteinheit_A"
    },
    "id": "LazyPRMstar_move_to_magneteinheit_A_8",
    "joint_names": [
        "shoulder_pan_joint",
        "shoulder_lift_joint",
        "elbow_joint",
        "wrist_1_joint",
        "wrist_2_joint",
        "wrist_3_joint"
    ],
    "metrics": {
        "cart_traj_len": 1.8754237079913014,
        "distance_elbow_joint": 3.918360925878702,
        "distance_shoulder_lift_joint": 0.7038916764912835,
        "distance_shoulder_pan_joint": 1.2419055465374256,
        "distance_wrist_1_joint": 1.5159887999493464,
        "distance_wrist_2_joint": 1.698406924271084,
        "distance_wrist_3_joint": 1.1356204395023564,
        "smoothness": 6.250144439443587e-16,
        "time": 5.000346477,
        "traj_len": 3.1959621888611567,
        "weighted_distance": 3.9622986908933733
    },
    "planner": "LazyPRMstar",
    "start": {
        "state": {
            "elbow_joint": -1.919643507792019,
            "shoulder_lift_joint": -0.07675430207160344,
            "shoulder_pan_joint": -1.1188671864651873,
            "wrist_1_joint": 0.42560062535961957,
            "wrist_2_joint": 1.5706038300724876,
            "wrist_3_joint": 1.1188968870953055
        }
    },
    "waypoints": [
        {
            "positions": [
                -1.1188671864651873,
                -0.07675430207160344,
                -1.919643507792019,
                0.42560062535961957,
                1.5706038300724876,
                1.1188968870953055
            ]
        },
        {
            "positions": [
                -1.07110158852144,
                -0.10382705885972973,
                -1.768937318335146,
                0.4839078868961329,
                1.5052804868312921,
                1.0752191778836764
            ]
        },
        {
            "positions": [
                -1.023335990577693,
                -0.13089981564785602,
                -1.6182311288782727,
                0.5422151484326462,
                1.4399571435900964,
                1.0315414686720474
            ]
        },
        {
            "positions": [
                -0.975570392633946,
                -0.1579725724359823,
                -1.4675249394213996,
                0.6005224099691595,
                1.374633800348901,
                0.9878637594604183
            ]
        },
        {
            "positions": [
                -0.9278047946901988,
                -0.1850453292241086,
                -1.3168187499645265,
                0.6588296715056728,
                1.3093104571077054,
                0.9441860502487892
            ]
        },
        {
            "positions": [
                -0.8800391967464516,
                -0.2121180860122349,
                -1.1661125605076532,
                0.7171369330421862,
                1.24398711386651,
                0.90050834103716
            ]
        },
        {
            "positions": [
                -0.8322735988027046,
                -0.23919084280036118,
                -1.0154063710507801,
                0.7754441945786995,
                1.1786637706253145,
                0.856830631825531
            ]
        },
        {
            "positions": [
                -0.7845080008589573,
                -0.26626359958848744,
                -0.864700181593907,
                0.8337514561152128,
                1.1133404273841188,
                0.8131529226139019
            ]
        },
        {
            "positions": [
                -0.7367424029152102,
                -0.29333635637661376,
                -0.7139939921370337,
                0.8920587176517262,
                1.0480170841429233,
                0.7694752134022729
            ]
        },
        {
            "positions": [
                -0.6889768049714631,
                -0.32040911316474,
                -0.5632878026801607,
                0.9503659791882395,
                0.9826937409017278,
                0.7257975041906437
            ]
        },
        {
            "positions": [
                -0.641211207027716,
                -0.34748186995286634,
                -0.41258161322328757,
                1.008673240724753,
                0.9173703976605322,
                0.6821197949790145
            ]
        },
        {
            "positions": [
                -0.5934456090839688,
                -0.3745546267409926,
                -0.2618754237664145,
                1.0669805022612662,
                0.8520470544193367,
                0.6384420857673856
            ]
        },
        {
            "positions": [
                -0.5456800111402217,
                -0.4016273835291189,
                -0.11116923430954118,
                1.1252877637977794,
                0.7867237111781411,
                0.5947643765557564
            ]
        },
        {
            "positions": [
                -0.49791441319647456,
                -0.4287001403172452,
                0.03953695514733191,
                1.1835950253342928,
                0.7214003679369456,
                0.5510866673441274
            ]
        },
        {
            "positions": [
                -0.45014881525272743,
                -0.45577289710537144,
                0.190243144604205,
                1.241902286870806,
                0.6560770246957501,
                0.5074089581324983
            ]
        },
        {
            "positions": [
                -0.4023832173089803,
                -0.4828456538934977,
                0.34094933406107786,
                1.3002095484073193,
                0.5907536814545546,
                0.46373124892086925
            ]
        },
        {
            "positions": [
                -0.35461761936523306,
                -0.5099184106816241,
                0.4916555235179516,
                1.3585168099438327,
                0.5254303382133589,
                0.4200535397092401
            ]
        },
        {
            "positions": [
                -0.30685202142148604,
                -0.5369911674697503,
                0.6423617129748245,
                1.4168240714803462,
                0.46010699497216345,
                0.37637583049761103
            ]
        },
        {
            "positions": [
                -0.2590864234777389,
                -0.5640639242578767,
                0.7930679024316978,
                1.4751313330168594,
                0.39478365173096797,
                0.332698121285982
            ]
        },
        {
            "positions": [
                -0.21132082553399179,
                -0.5911366810460028,
                0.9437740918885706,
                1.5334385945533726,
                0.3294603084897725,
                0.2890204120743529
            ]
        },
        {
            "positions": [
                -0.16355522759024455,
                -0.6182094378341292,
                1.094480281345444,
                1.5917458560898863,
                0.26413696524857677,
                0.24534270286272364
            ]
        },
        {
            "positions": [
                -0.11578962964649753,
                -0.6452821946222556,
                1.2451864708023173,
                1.6500531176263995,
                0.19881362200738129,
                0.20166499365109458
            ]
        },
        {
            "positions": [
                -0.06802403170275029,
                -0.6723549514103817,
                1.3958926602591901,
                1.7083603791629127,
                0.1334902787661858,
                0.15798728443946553
            ]
        },
        {
            "positions": [
                -0.02025843375900327,
                -0.6994277081985081,
                1.5465988497160634,
                1.766667640699426,
                0.06816693552499031,
                0.11430957522783647
            ]
        },
        {
            "positions": [
                0.02750716418474397,
                -0.7265004649866345,
                1.6973050391729367,
                1.8249749022359394,
                0.002843592283794605,
                0.0706318660162073
            ]
        },
        {
            "positions": [
                0.07527276212849121,
                -0.7535732217747606,
                1.84801122862981,
                1.8832821637724528,
                -0.06247975095740088,
                0.026954156804578355
            ]
        },
        {
            "positions": [
                0.12303836007223819,
                -0.780645978562887,
                1.998717418086683,
                1.941589425308966,
                -0.12780309419859626,
                -0.016723552407050864
            ]
        }
    ]
}