{
    "goal": {
        "global_pose": {
            "orientation": {
                "w": 0.7047431468963623,
                "x": -0.7094548344612122,
                "y": 0.0024358443915843964,
                "z": -0.0022348060738295317
            },
            "position": {
                "x": 0.6094750761985779,
                "y": 0.3671506643295288,
                "z": 0.19426114857196808
            }
        },
        "name": "move_to_magneteinheit_A"
    },
    "id": "LazyPRMstar_move_to_magneteinheit_A_50",
    "joint_names": [
        "shoulder_pan_joint",
        "shoulder_lift_joint",
        "elbow_joint",
        "wrist_1_joint",
        "wrist_2_joint",
        "wrist_3_joint"
    ],
    "metrics": {
        "cart_traj_len": 2.082835228102692,
        "distance_elbow_joint": 3.9574064633600576,
        "distance_shoulder_lift_joint": 1.101000800938068,
        "distance_shoulder_pan_joint": 1.2423831833381163,
        "distance_wrist_1_joint": 1.3054089596805638,
        "distance_wrist_2_joint": 1.5473580462823027,
        "distance_wrist_3_joint": 4.249698075515003,
        "smoothness": 0.15751625136559844,
        "time": 5.057768298,
        "traj_len": 3.661045687930446,
        "weighted_distance": 4.975481754172854
    },
    "planner": "LazyPRMstar",
    "start": {
        "state": {
            "elbow_joint": -1.919643507792019,
            "shoulder_lift_joint": -0.07675430207160344,
            "shoulder_pan_joint": -1.1188671864651873,
            "wrist_1_joint": 0.42560062535961957,
            "wrist_2_joint": 1.5706038300724876,
            "wrist_3_joint": 1.1188968870953055
        }
    },
    "waypoints": [
        {
            "positions": [
                -1.1188671864651873,
                -0.07675430207160344,
                -1.919643507792019,
                0.42560062535961957,
                1.5706038300724876,
                1.1188968870953055
            ]
        },
        {
            "positions": [
                -1.08383316432024,
                -0.10965189113532972,
                -1.8005041291806592,
                0.38637703110000543,
                1.5252128309844426,
                0.9989415255726316
            ]
        },
        {
            "positions": [
                -1.0487991421752925,
                -0.142549480199056,
                -1.6813647505692995,
                0.34715343684039124,
                1.4798218318963974,
                0.8789861640499576
            ]
        },
        {
            "positions": [
                -1.013765120030345,
                -0.17544706926278228,
                -1.5622253719579395,
                0.30792984258077705,
                1.4344308328083524,
                0.7590308025272836
            ]
        },
        {
            "positions": [
                -0.9787310978853976,
                -0.20834465832650856,
                -1.4430859933465796,
                0.2687062483211629,
                1.3890398337203074,
                0.6390754410046096
            ]
        },
        {
            "positions": [
                -0.94369707574045,
                -0.24124224739023484,
                -1.32394661473522,
                0.22948265406154875,
                1.3436488346322621,
                0.5191200794819356
            ]
        },
        {
            "positions": [
                -0.9086630535955026,
                -0.2741398364539611,
                -1.2048072361238602,
                0.19025905980193458,
                1.2982578355442171,
                0.39916471795926156
            ]
        },
        {
            "positions": [
                -0.8736290314505551,
                -0.3070374255176874,
                -1.0856678575125,
                0.1510354655423204,
                1.2528668364561721,
                0.2792093564365876
            ]
        },
        {
            "positions": [
                -0.8385950093056077,
                -0.3399350145814137,
                -0.9665284789011404,
                0.11181187128270625,
                1.207475837368127,
                0.15925399491391368
            ]
        },
        {
            "positions": [
                -0.8035609871606603,
                -0.3728326036451399,
                -0.8473891002897807,
                0.07258827702309212,
                1.162084838280082,
                0.039298633391239735
            ]
        },
        {
            "positions": [
                -0.7685269650157127,
                -0.40573019270886623,
                -0.7282497216784207,
                0.033364682763477926,
                1.116693839192037,
                -0.08065672813143432
            ]
        },
        {
            "positions": [
                -0.7334929428707654,
                -0.4386277817725925,
                -0.609110343067061,
                -0.00585891149613621,
                1.071302840103992,
                -0.20061208965410815
            ]
        },
        {
            "positions": [
                -0.6984589207258178,
                -0.4715253708363188,
                -0.4899709644557011,
                -0.0450825057557504,
                1.0259118410159467,
                -0.3205674511767824
            ]
        },
        {
            "positions": [
                -0.6634248985808704,
                -0.504422959900045,
                -0.37083158584434117,
                -0.0843061000153646,
                0.9805208419279017,
                -0.44052281269945626
            ]
        },
        {
            "positions": [
                -0.628390876435923,
                -0.5373205489637713,
                -0.25169220723298125,
                -0.12352969427497879,
                0.9351298428398566,
                -0.5604781742221303
            ]
        },
        {
            "positions": [
                -0.5933568542909755,
                -0.5702181380274975,
                -0.13255282862162154,
                -0.16275328853459287,
                0.8897388437518114,
                -0.6804335357448041
            ]
        },
        {
            "positions": [
                -0.5583228321460281,
                -0.603115727091224,
                -0.013413450010261618,
                -0.20197688279420706,
                0.8443478446637663,
                -0.8003888972674782
            ]
        },
        {
            "positions": [
                -0.5232888100010806,
                -0.6360133161549502,
                0.10572592860109808,
                -0.24120047705382125,
                0.7989568455757213,
                -0.920344258790152
            ]
        },
        {
            "positions": [
                -0.4882547878561332,
                -0.6689109052186764,
                0.2248653072124578,
                -0.28042407131343533,
                0.7535658464876763,
                -1.040299620312826
            ]
        },
        {
            "positions": [
                -0.45322076571118564,
                -0.7018084942824028,
                0.34400468582381794,
                -0.31964766557304963,
                0.7081748473996311,
                -1.1602549818355006
            ]
        },
        {
            "positions": [
                -0.4181867435662382,
                -0.734706083346129,
                0.46314406443517764,
                -0.3588712598326637,
                0.662783848311586,
                -1.2802103433581742
            ]
        },
        {
            "positions": [
                -0.38315272142129086,
                -0.7676036724098552,
                0.5822834430465373,
                -0.3980948540922779,
                0.617392849223541,
                -1.4001657048808482
            ]
        },
        {
            "positions": [
                -0.3481186992763434,
                -0.8005012614735816,
                0.701422821657897,
                -0.437318448351892,
                0.572001850135496,
                -1.5201210664035218
            ]
        },
        {
            "positions": [
                -0.31308467713139587,
                -0.8333988505373078,
                0.8205622002692572,
                -0.4765420426115063,
                0.5266108510474508,
                -1.6400764279261963
            ]
        },
        {
            "positions": [
                -0.27805065498644843,
                -0.8662964396010342,
                0.9397015788806169,
                -0.5157656368711203,
                0.48121985195940575,
                -1.7600317894488704
            ]
        },
        {
            "positions": [
                -0.243016632841501,
                -0.8991940286647604,
                1.058840957491977,
                -0.5549892311307345,
                0.43582885287136075,
                -1.879987150971544
            ]
        },
        {
            "positions": [
                -0.20798261069655355,
                -0.9320916177284866,
                1.1779803361033367,
                -0.5942128253903487,
                0.39043785378331575,
                -1.999942512494218
            ]
        },
        {
            "positions": [
                -0.172948588551606,
                -0.964989206792213,
                1.297119714714697,
                -0.6334364196499629,
                0.3450468546952705,
                -2.119897874016892
            ]
        },
        {
            "positions": [
                -0.13791456640665856,
                -0.9978867958559392,
                1.4162590933260566,
                -0.6726600139095771,
                0.2996558556072255,
                -2.239853235539566
            ]
        },
        {
            "positions": [
                -0.10288054426171112,
                -1.0307843849196654,
                1.5353984719374163,
                -0.711883608169191,
                0.2542648565191803,
                -2.35980859706224
            ]
        },
        {
            "positions": [
                -0.06784652211676367,
                -1.0636819739833918,
                1.654537850548776,
                -0.7511072024288052,
                0.2088738574311353,
                -2.479763958584914
            ]
        },
        {
            "positions": [
                -0.032812499971816234,
                -1.0965795630471182,
                1.7736772291601361,
                -0.7903307966884197,
                0.16348285834309007,
                -2.5997193201075883
            ]
        },
        {
            "positions": [
                0.0022215221731312074,
                -1.1294771521108444,
                1.8928166077714959,
                -0.8295543909480336,
                0.11809185925504506,
                -2.719674681630262
            ]
        },
        {
            "positions": [
                0.037255544318078745,
                -1.1623747411745706,
                2.0119559863828558,
                -0.8687779852076479,
                0.07270086016700006,
                -2.839630043152936
            ]
        },
        {
            "positions": [
                0.08038577059550397,
                -1.1546845602570202,
                1.999052501790264,
                -0.8632628106509996,
                0.09742839835540766,
                -2.985215615786317
            ]
        },
        {
            "positions": [
                0.1235159968729292,
                -1.1469943793394697,
                1.9861490171976723,
                -0.8577476360943513,
                0.12215593654381526,
                -3.1308011884196976
            ]
        }
    ]
}