{
    "goal": {
        "global_pose": {
            "orientation": {
                "w": 0.7047431468963623,
                "x": -0.7094548344612122,
                "y": 0.0024358443915843964,
                "z": -0.0022348060738295317
            },
            "position": {
                "x": 0.6094750761985779,
                "y": 0.3671506643295288,
                "z": 0.19426114857196808
            }
        },
        "name": "move_to_magneteinheit_A"
    },
    "id": "LazyPRMstar_move_to_magneteinheit_A_115",
    "joint_names": [
        "shoulder_pan_joint",
        "shoulder_lift_joint",
        "elbow_joint",
        "wrist_1_joint",
        "wrist_2_joint",
        "wrist_3_joint"
    ],
    "metrics": {
        "cart_traj_len": 1.8799176057662494,
        "distance_elbow_joint": 3.9080818224939122,
        "distance_shoulder_lift_joint": 0.6977225317965814,
        "distance_shoulder_pan_joint": 1.2404876884917522,
        "distance_wrist_1_joint": 1.4859371545804243,
        "distance_wrist_2_joint": 1.6903109953724613,
        "distance_wrist_3_joint": 1.1122727000818304,
        "smoothness": 3.6185046922262754e-16,
        "time": 5.000611599,
        "traj_len": 3.1835220892616656,
        "weighted_distance": 3.9415233657728717
    },
    "planner": "LazyPRMstar",
    "start": {
        "state": {
            "elbow_joint": -1.919643507792019,
            "shoulder_lift_joint": -0.07675430207160344,
            "shoulder_pan_joint": -1.1188671864651873,
            "wrist_1_joint": 0.42560062535961957,
            "wrist_2_joint": 1.5706038300724876,
            "wrist_3_joint": 1.1188968870953055
        }
    },
    "waypoints": [
        {
            "positions": [
                -1.1188671864651873,
                -0.07675430207160344,
                -1.919643507792019,
                0.42560062535961957,
                1.5706038300724876,
                1.1188968870953055
            ]
        },
        {
            "positions": [
                -1.0711561215231968,
                -0.10358978406377965,
                -1.76933266846533,
                0.4827520543819436,
                1.5055918687120082,
                1.076117167861389
            ]
        },
        {
            "positions": [
                -1.0234450565812063,
                -0.13042526605595586,
                -1.6190218291386413,
                0.5399034834042676,
                1.440579907351529,
                1.0333374486274725
            ]
        },
        {
            "positions": [
                -0.9757339916392159,
                -0.15726074804813206,
                -1.4687109898119521,
                0.5970549124265916,
                1.3755679459910497,
                0.9905577293935559
            ]
        },
        {
            "positions": [
                -0.9280229266972255,
                -0.18409623004030828,
                -1.3184001504852634,
                0.6542063414489157,
                1.3105559846305705,
                0.9477780101596394
            ]
        },
        {
            "positions": [
                -0.880311861755235,
                -0.21093171203248448,
                -1.1680893111585744,
                0.7113577704712397,
                1.2455440232700912,
                0.9049982909257228
            ]
        },
        {
            "positions": [
                -0.8326007968132445,
                -0.2377671940246607,
                -1.0177784718318854,
                0.7685091994935637,
                1.180532061909612,
                0.8622185716918063
            ]
        },
        {
            "positions": [
                -0.7848897318712541,
                -0.26460267601683685,
                -0.8674676325051967,
                0.8256606285158876,
                1.1155201005491326,
                0.8194388524578897
            ]
        },
        {
            "positions": [
                -0.7371786669292636,
                -0.2914381580090131,
                -0.7171567931785077,
                0.8828120575382117,
                1.0505081391886533,
                0.7766591332239731
            ]
        },
        {
            "positions": [
                -0.6894676019872732,
                -0.3182736400011893,
                -0.5668459538518187,
                0.9399634865605357,
                0.9854961778281741,
                0.7338794139900566
            ]
        },
        {
            "positions": [
                -0.6417565370452827,
                -0.3451091219933655,
                -0.4165351145251297,
                0.9971149155828598,
                0.9204842164676947,
                0.69109969475614
            ]
        },
        {
            "positions": [
                -0.5940454721032922,
                -0.37194460398554174,
                -0.26622427519844094,
                1.0542663446051836,
                0.8554722551072155,
                0.6483199755222234
            ]
        },
        {
            "positions": [
                -0.5463344071613017,
                -0.39878008597771797,
                -0.11591343587175174,
                1.1114177736275077,
                0.7904602937467362,
                0.6055402562883069
            ]
        },
        {
            "positions": [
                -0.49862334221931126,
                -0.42561556796989414,
                0.034397403454937026,
                1.1685692026498318,
                0.7254483323862569,
                0.5627605370543903
            ]
        },
        {
            "positions": [
                -0.45091227727732086,
                -0.4524510499620703,
                0.1847082427816258,
                1.2257206316721556,
                0.6604363710257777,
                0.5199808178204738
            ]
        },
        {
            "positions": [
                -0.40320121233533035,
                -0.47928653195424653,
                0.33501908210831455,
                1.2828720606944797,
                0.5954244096652984,
                0.47720109858655724
            ]
        },
        {
            "positions": [
                -0.35549014739333984,
                -0.5061220139464229,
                0.48532992143500375,
                1.3400234897168037,
                0.5304124483048192,
                0.4344213793526406
            ]
        },
        {
            "positions": [
                -0.30777908245134933,
                -0.532957495938599,
                0.635640760761693,
                1.3971749187391278,
                0.4654004869443398,
                0.39164166011872414
            ]
        },
        {
            "positions": [
                -0.26006801750935893,
                -0.5597929779307751,
                0.7859516000883817,
                1.4543263477614519,
                0.4003885255838606,
                0.3488619408848076
            ]
        },
        {
            "positions": [
                -0.21235695256736853,
                -0.5866284599229514,
                0.9362624394150705,
                1.5114777767837757,
                0.33537656422338125,
                0.30608222165089105
            ]
        },
        {
            "positions": [
                -0.1646458876253779,
                -0.6134639419151275,
                1.0865732787417597,
                1.5686292058061,
                0.27036460286290187,
                0.2633025024169744
            ]
        },
        {
            "positions": [
                -0.11693482268338751,
                -0.6402994239073039,
                1.2368841180684484,
                1.6257806348284238,
                0.20535264150242272,
                0.22052278318305785
            ]
        },
        {
            "positions": [
                -0.069223757741397,
                -0.66713490589948,
                1.3871949573951372,
                1.682932063850748,
                0.14034068014194334,
                0.1777430639491413
            ]
        },
        {
            "positions": [
                -0.021512692799406707,
                -0.6939703878916561,
                1.5375057967218264,
                1.7400834928730717,
                0.07532871878146419,
                0.13496334471522486
            ]
        },
        {
            "positions": [
                0.026198372142584025,
                -0.7208058698838324,
                1.6878166360485156,
                1.797234921895396,
                0.010316757420984812,
                0.0921836254813082
            ]
        },
        {
            "positions": [
                0.07390943708457431,
                -0.7476413518760086,
                1.8381274753752044,
                1.8543863509177199,
                -0.05469520393949456,
                0.04940390624739166
            ]
        },
        {
            "positions": [
                0.12162050202656474,
                -0.7744768338681849,
                1.9884383147018934,
                1.911537779940044,
                -0.1197071652999737,
                0.006624187013475098
            ]
        }
    ]
}