{
    "goal": {
        "global_pose": {
            "orientation": {
                "w": 0.7031023502349854,
                "x": -0.7110244035720825,
                "y": 0.007748599164187908,
                "z": 0.005598929710686207
            },
            "position": {
                "x": 0.11585023208521307,
                "y": 0.44412534475326537,
                "z": 0.3711530566215515
            }
        },
        "name": "move_to_auspresseinheit_A"
    },
    "id": "LazyPRM_move_to_auspresseinheit_A_103",
    "joint_names": [
        "shoulder_pan_joint",
        "shoulder_lift_joint",
        "elbow_joint",
        "wrist_1_joint",
        "wrist_2_joint",
        "wrist_3_joint"
    ],
    "metrics": {
        "cart_traj_len": 1.6373957726024935,
        "distance_elbow_joint": 0.18435490192047999,
        "distance_shoulder_lift_joint": 0.5358953943909031,
        "distance_shoulder_pan_joint": 4.4475299740284,
        "distance_wrist_1_joint": 2.2526805893603106,
        "distance_wrist_2_joint": 0.5107187175707955,
        "distance_wrist_3_joint": 0.03839756853967469,
        "smoothness": 1.0660493695411744,
        "time": 0.059247567,
        "traj_len": 2.823043950385924,
        "weighted_distance": 3.2878217089466726
    },
    "planner": "LazyPRM",
    "start": {
        "state": {
            "elbow_joint": 2.422574709923281,
            "shoulder_lift_joint": -1.3736533754116391,
            "shoulder_pan_joint": -0.33786336945926293,
            "wrist_1_joint": -1.0288603412921917,
            "wrist_2_joint": 1.2330224858903978,
            "wrist_3_joint": -3.094022268022082
        }
    },
    "waypoints": [
        {
            "positions": [
                -0.33786336945926293,
                -1.3736533754116391,
                2.422574709923281,
                -1.0288603412921917,
                1.2330224858903978,
                -3.094022268022082
            ]
        },
        {
            "positions": [
                -0.4923738419452141,
                -1.4173974355672447,
                2.4295721818154328,
                -0.9007372652524752,
                1.194349697347303,
                -3.0949058989320046
            ]
        },
        {
            "positions": [
                -0.6468843144311653,
                -1.4611414957228501,
                2.436569653707585,
                -0.7726141892127587,
                1.1556769088042083,
                -3.0957895298419276
            ]
        },
        {
            "positions": [
                -0.8013947869171164,
                -1.5048855558784557,
                2.4435671255997367,
                -0.6444911131730424,
                1.1170041202611134,
                -3.09667316075185
            ]
        },
        {
            "positions": [
                -0.9559052594030677,
                -1.5486296160340611,
                2.4505645974918884,
                -0.5163680371333258,
                1.0783313317180188,
                -3.097556791661773
            ]
        },
        {
            "positions": [
                -1.1104157318890189,
                -1.5923736761896667,
                2.45756206938404,
                -0.3882449610936094,
                1.039658543174924,
                -3.0984404225716955
            ]
        },
        {
            "positions": [
                -1.2649262043749698,
                -1.6361177363452721,
                2.4645595412761923,
                -0.260121885053893,
                1.0009857546318293,
                -3.0993240534816184
            ]
        },
        {
            "positions": [
                -1.4194366768609212,
                -1.6798617965008777,
                2.471557013168344,
                -0.1319988090141765,
                0.9623129660887344,
                -3.100207684391541
            ]
        },
        {
            "positions": [
                -1.5739471493468724,
                -1.7236058566564831,
                2.4785544850604957,
                -0.0038757329744598668,
                0.9236401775456397,
                -3.101091315301464
            ]
        },
        {
            "positions": [
                -1.7284576218328236,
                -1.7673499168120888,
                2.4855519569526474,
                0.12424734306525664,
                0.8849673890025449,
                -3.1019749462113864
            ]
        },
        {
            "positions": [
                -1.8829680943187748,
                -1.8110939769676944,
                2.4925494288447996,
                0.25237041910497293,
                0.8462946004594502,
                -3.1028585771213093
            ]
        },
        {
            "positions": [
                -2.037478566804726,
                -1.8548380371232998,
                2.4995469007369513,
                0.38049349514468944,
                0.8076218119163554,
                -3.103742208031232
            ]
        },
        {
            "positions": [
                -1.7626870891364321,
                -1.860309110391224,
                2.4888086296262704,
                0.29616081985234655,
                0.7990900075566801,
                -3.1066099708842843
            ]
        },
        {
            "positions": [
                -1.4878956114681385,
                -1.8657801836591483,
                2.4780703585155894,
                0.2118281445600036,
                0.7905582031970048,
                -3.1094777337373367
            ]
        },
        {
            "positions": [
                -1.213104133799845,
                -1.8712512569270725,
                2.4673320874049085,
                0.1274954692676607,
                0.7820263988373295,
                -3.112345496590389
            ]
        },
        {
            "positions": [
                -0.9383126561315511,
                -1.8767223301949967,
                2.4565938162942276,
                0.04316279397531775,
                0.7734945944776541,
                -3.1152132594434416
            ]
        },
        {
            "positions": [
                -0.6635211784632575,
                -1.8821934034629209,
                2.445855545183546,
                -0.04116988131702515,
                0.7649627901179789,
                -3.1180810222964945
            ]
        },
        {
            "positions": [
                -0.38872970079496394,
                -1.8876644767308453,
                2.4351172740728653,
                -0.12550255660936804,
                0.7564309857583036,
                -3.120948785149547
            ]
        },
        {
            "positions": [
                -0.11393822312667035,
                -1.8931355499987694,
                2.4243790029621843,
                -0.20983523190171094,
                0.7478991813986282,
                -3.1238165480025994
            ]
        },
        {
            "positions": [
                0.1608532545416237,
                -1.8986066232666936,
                2.4136407318515034,
                -0.29416790719405395,
                0.7393673770389529,
                -3.126684310855652
            ]
        },
        {
            "positions": [
                0.43564473220991706,
                -1.904077696534618,
                2.4029024607408225,
                -0.37850058248639684,
                0.7308355726792776,
                -3.1295520737087044
            ]
        },
        {
            "positions": [
                0.710436209878211,
                -1.9095487698025422,
                2.3921641896301415,
                -0.4628332577787398,
                0.7223037683196023,
                -3.132419836561757
            ]
        }
    ]
}