{
    "goal": {
        "global_pose": {
            "orientation": {
                "w": 0.5084816217422485,
                "x": -0.49083608388900757,
                "y": 0.5182115435600281,
                "z": -0.4816462993621826
            },
            "position": {
                "x": 0.5540239810943604,
                "y": 0.030875300988554955,
                "z": 0.16403168439865112
            }
        },
        "name": "move_to_storage_A"
    },
    "id": "LazyPRMstar_move_to_storage_A_15",
    "joint_names": [
        "shoulder_pan_joint",
        "shoulder_lift_joint",
        "elbow_joint",
        "wrist_1_joint",
        "wrist_2_joint",
        "wrist_3_joint"
    ],
    "metrics": {
        "cart_traj_len": 0.3527448343506197,
        "distance_elbow_joint": 0.44912944404729593,
        "distance_shoulder_lift_joint": 0.23562543791265966,
        "distance_shoulder_pan_joint": 0.4575284934003598,
        "distance_wrist_1_joint": 0.24176868941079765,
        "distance_wrist_2_joint": 1.1144012835015746,
        "distance_wrist_3_joint": 0.10232147209621267,
        "smoothness": 1.2212453303493559e-15,
        "time": 5.000113840999999,
        "traj_len": 1.6126917933594442,
        "weighted_distance": 2.0399969944766334
    },
    "planner": "LazyPRMstar",
    "start": {
        "state": {
            "elbow_joint": 1.9715463870305268,
            "shoulder_lift_joint": -1.1394903361783484,
            "shoulder_pan_joint": 0.12281147578464417,
            "wrist_1_joint": -0.7804599489681411,
            "wrist_2_joint": 0.12958660307563738,
            "wrist_3_joint": -3.1924946282119055
        }
    },
    "waypoints": [
        {
            "positions": [
                0.12281147578464417,
                -1.1394903361783484,
                1.9715463870305268,
                -0.7804599489681411,
                0.12958660307563738,
                -3.1924946282119055
            ]
        },
        {
            "positions": [
                0.057450262441735636,
                -1.1731511130230141,
                2.0357077361801403,
                -0.8149983331696836,
                0.28878678643300515,
                -3.177877275055304
            ]
        },
        {
            "positions": [
                -0.0079109509011729,
                -1.2068118898676796,
                2.0998690853297544,
                -0.8495367173712262,
                0.447986969790373,
                -3.163259921898702
            ]
        },
        {
            "positions": [
                -0.07327216424408144,
                -1.2404726667123454,
                2.164030434479368,
                -0.8840751015727686,
                0.6071871531477407,
                -3.1486425687421002
            ]
        },
        {
            "positions": [
                -0.13863337758698996,
                -1.274133443557011,
                2.2281917836289815,
                -0.9186134857743111,
                0.7663873365051086,
                -3.134025215585498
            ]
        },
        {
            "positions": [
                -0.20399459092989852,
                -1.3077942204016768,
                2.2923531327785955,
                -0.9531518699758537,
                0.9255875198624764,
                -3.1194078624288966
            ]
        },
        {
            "positions": [
                -0.26935580427280703,
                -1.3414549972463423,
                2.356514481928209,
                -0.9876902541773962,
                1.084787703219844,
                -3.1047905092722945
            ]
        },
        {
            "positions": [
                -0.3347170176157156,
                -1.375115774091008,
                2.4206758310778227,
                -1.0222286383789387,
                1.243987886577212,
                -3.090173156115693
            ]
        }
    ]
}