{
    "goal": {
        "global_pose": {
            "orientation": {
                "w": 0.7047431468963623,
                "x": -0.7094548344612122,
                "y": 0.0024358443915843964,
                "z": -0.0022348060738295317
            },
            "position": {
                "x": 0.6094750761985779,
                "y": 0.3671506643295288,
                "z": 0.19426114857196808
            }
        },
        "name": "move_to_magneteinheit_A"
    },
    "id": "LazyPRM_move_to_magneteinheit_A_31",
    "joint_names": [
        "shoulder_pan_joint",
        "shoulder_lift_joint",
        "elbow_joint",
        "wrist_1_joint",
        "wrist_2_joint",
        "wrist_3_joint"
    ],
    "metrics": {
        "cart_traj_len": 2.06440716837686,
        "distance_elbow_joint": 3.879677072639671,
        "distance_shoulder_lift_joint": 1.0556115532024772,
        "distance_shoulder_pan_joint": 1.240250128233163,
        "distance_wrist_1_joint": 1.158203105834955,
        "distance_wrist_2_joint": 1.4509082500969352,
        "distance_wrist_3_joint": 1.9279319376041126,
        "smoothness": 5.206563148000324e-16,
        "time": 0.121993254,
        "traj_len": 3.2730081038108225,
        "weighted_distance": 4.144581677172188
    },
    "planner": "LazyPRM",
    "start": {
        "state": {
            "elbow_joint": -1.919643507792019,
            "shoulder_lift_joint": -0.07675430207160344,
            "shoulder_pan_joint": -1.1188671864651873,
            "wrist_1_joint": 0.42560062535961957,
            "wrist_2_joint": 1.5706038300724876,
            "wrist_3_joint": 1.1188968870953055
        }
    },
    "waypoints": [
        {
            "positions": [
                -1.1188671864651873,
                -0.07675430207160344,
                -1.919643507792019,
                0.42560062535961957,
                1.5706038300724876,
                1.1188968870953055
            ]
        },
        {
            "positions": [
                -1.0745725390282888,
                -0.11445471468597762,
                -1.7810836123406022,
                0.3842362287226569,
                1.5187856782833113,
                1.1877515991525953
            ]
        },
        {
            "positions": [
                -1.03027789159139,
                -0.1521551273003518,
                -1.6425237168891855,
                0.3428718320856942,
                1.466967526494135,
                1.256606311209885
            ]
        },
        {
            "positions": [
                -0.9859832441544913,
                -0.18985553991472598,
                -1.5039638214377686,
                0.30150743544873154,
                1.4151493747049588,
                1.3254610232671746
            ]
        },
        {
            "positions": [
                -0.9416885967175926,
                -0.22755595252910019,
                -1.3654039259863517,
                0.26014303881176887,
                1.3633312229157826,
                1.3943157353244644
            ]
        },
        {
            "positions": [
                -0.8973939492806939,
                -0.2652563651434744,
                -1.2268440305349348,
                0.2187786421748062,
                1.3115130711266063,
                1.4631704473817542
            ]
        },
        {
            "positions": [
                -0.8530993018437953,
                -0.30295677775784857,
                -1.0882841350835182,
                0.17741424553784352,
                1.25969491933743,
                1.532025159439044
            ]
        },
        {
            "positions": [
                -0.8088046544068965,
                -0.34065719037222275,
                -0.9497242396321013,
                0.13604984890088084,
                1.2078767675482538,
                1.6008798714963337
            ]
        },
        {
            "positions": [
                -0.7645100069699979,
                -0.37835760298659693,
                -0.8111643441806846,
                0.09468545226391817,
                1.1560586157590775,
                1.6697345835536233
            ]
        },
        {
            "positions": [
                -0.7202153595330991,
                -0.41605801560097116,
                -0.6726044487292675,
                0.053321055626955494,
                1.1042404639699013,
                1.7385892956109132
            ]
        },
        {
            "positions": [
                -0.6759207120962005,
                -0.45375842821534534,
                -0.5340445532778508,
                0.011956658989992819,
                1.052422312180725,
                1.8074440076682028
            ]
        },
        {
            "positions": [
                -0.6316260646593019,
                -0.49145884082971947,
                -0.39548465782643394,
                -0.029407737646969856,
                1.0006041603915488,
                1.8762987197254928
            ]
        },
        {
            "positions": [
                -0.5873314172224032,
                -0.5291592534440936,
                -0.25692476237501727,
                -0.07077213428393253,
                0.9487860086023725,
                1.9451534317827823
            ]
        },
        {
            "positions": [
                -0.5430367697855045,
                -0.5668596660584679,
                -0.11836486692360015,
                -0.1121365309208952,
                0.8969678568131962,
                2.0140081438400723
            ]
        },
        {
            "positions": [
                -0.4987421223486058,
                -0.604560078672842,
                0.020195028527816516,
                -0.15350092755785788,
                0.84514970502402,
                2.082862855897362
            ]
        },
        {
            "positions": [
                -0.4544474749117071,
                -0.6422604912872163,
                0.1587549239792334,
                -0.19486532419482056,
                0.7933315532348437,
                2.151717567954652
            ]
        },
        {
            "positions": [
                -0.4101528274748085,
                -0.6799609039015904,
                0.29731481943064986,
                -0.23622972083178323,
                0.7415134014456675,
                2.2205722800119414
            ]
        },
        {
            "positions": [
                -0.3658581800379098,
                -0.7176613165159647,
                0.43587471488206675,
                -0.2775941174687459,
                0.6896952496564913,
                2.289426992069231
            ]
        },
        {
            "positions": [
                -0.321563532601011,
                -0.7553617291303389,
                0.5744346103334841,
                -0.3189585141057086,
                0.6378770978673148,
                2.358281704126521
            ]
        },
        {
            "positions": [
                -0.2772688851641124,
                -0.793062141744713,
                0.712994505784901,
                -0.36032291074267125,
                0.5860589460781387,
                2.427136416183811
            ]
        },
        {
            "positions": [
                -0.2329742377272137,
                -0.8307625543590873,
                0.8515544012363174,
                -0.40168730737963393,
                0.5342407942889624,
                2.4959911282411005
            ]
        },
        {
            "positions": [
                -0.1886795902903151,
                -0.8684629669734614,
                0.9901142966877343,
                -0.4430517040165966,
                0.48242264249978617,
                2.56484584029839
            ]
        },
        {
            "positions": [
                -0.1443849428534164,
                -0.9061633795878354,
                1.1286741921391512,
                -0.4844161006535593,
                0.4306044907106099,
                2.6337005523556796
            ]
        },
        {
            "positions": [
                -0.1000902954165177,
                -0.9438637922022097,
                1.2672340875905677,
                -0.525780497290522,
                0.37878633892143365,
                2.702555264412969
            ]
        },
        {
            "positions": [
                -0.05579564797961911,
                -0.9815642048165838,
                1.4057939830419846,
                -0.5671448939274846,
                0.3269681871322574,
                2.771409976470259
            ]
        },
        {
            "positions": [
                -0.011501000542720297,
                -1.019264617430958,
                1.5443538784934019,
                -0.6085092905644474,
                0.27515003534308113,
                2.840264688527549
            ]
        },
        {
            "positions": [
                0.0327936468941783,
                -1.0569650300453324,
                1.6829137739448188,
                -0.6498736872014099,
                0.22333188355390488,
                2.9091194005848386
            ]
        },
        {
            "positions": [
                0.07708829433107711,
                -1.0946654426597067,
                1.8214736693962352,
                -0.6912380838383727,
                0.17151373176472862,
                2.977974112642128
            ]
        },
        {
            "positions": [
                0.12138294176797569,
                -1.1323658552740807,
                1.960033564847652,
                -0.7326024804753353,
                0.11969557997555237,
                3.046828824699418
            ]
        }
    ]
}