{
    "goal": {
        "global_pose": {
            "orientation": {
                "w": 0.7047431468963623,
                "x": -0.7094548344612122,
                "y": 0.0024358443915843964,
                "z": -0.0022348060738295317
            },
            "position": {
                "x": 0.6094750761985779,
                "y": 0.3671506643295288,
                "z": 0.19426114857196808
            }
        },
        "name": "move_to_magneteinheit_A"
    },
    "id": "LazyPRMstar_move_to_magneteinheit_A_49",
    "joint_names": [
        "shoulder_pan_joint",
        "shoulder_lift_joint",
        "elbow_joint",
        "wrist_1_joint",
        "wrist_2_joint",
        "wrist_3_joint"
    ],
    "metrics": {
        "cart_traj_len": 1.8724589549961201,
        "distance_elbow_joint": 3.928656040619602,
        "distance_shoulder_lift_joint": 0.7062337890167033,
        "distance_shoulder_pan_joint": 1.241248829234834,
        "distance_wrist_1_joint": 1.55043265112094,
        "distance_wrist_2_joint": 1.697697901695413,
        "distance_wrist_3_joint": 1.1698629149006743,
        "smoothness": 6.908054383752932e-16,
        "time": 5.000646498,
        "traj_len": 3.2084469960696196,
        "weighted_distance": 3.985221262264602
    },
    "planner": "LazyPRMstar",
    "start": {
        "state": {
            "elbow_joint": -1.919643507792019,
            "shoulder_lift_joint": -0.07675430207160344,
            "shoulder_pan_joint": -1.1188671864651873,
            "wrist_1_joint": 0.42560062535961957,
            "wrist_2_joint": 1.5706038300724876,
            "wrist_3_joint": 1.1188968870953055
        }
    },
    "waypoints": [
        {
            "positions": [
                -1.1188671864651873,
                -0.07675430207160344,
                -1.919643507792019,
                0.42560062535961957,
                1.5706038300724876,
                1.1188968870953055
            ]
        },
        {
            "positions": [
                -1.071126846879232,
                -0.10391714011070742,
                -1.768541352383573,
                0.48523265040273267,
                1.5053077569303563,
                1.0739021595991258
            ]
        },
        {
            "positions": [
                -1.023386507293277,
                -0.1310799781498114,
                -1.6174391969751265,
                0.5448646754458457,
                1.440011683788225,
                1.0289074321029459
            ]
        },
        {
            "positions": [
                -0.9756461677073218,
                -0.1582428161889154,
                -1.4663370415666803,
                0.6044967004889588,
                1.3747156106460938,
                0.9839127046067662
            ]
        },
        {
            "positions": [
                -0.9279058281213667,
                -0.18540565422801936,
                -1.3152348861582341,
                0.6641287255320719,
                1.3094195375039626,
                0.9389179771105864
            ]
        },
        {
            "positions": [
                -0.8801654885354115,
                -0.21256849226712335,
                -1.1641327307497877,
                0.723760750575185,
                1.2441234643618313,
                0.8939232496144066
            ]
        },
        {
            "positions": [
                -0.8324251489494564,
                -0.2397313303062273,
                -1.0130305753413418,
                0.7833927756182981,
                1.1788273912197,
                0.8489285221182268
            ]
        },
        {
            "positions": [
                -0.7846848093635013,
                -0.2668941683453313,
                -0.8619284199328956,
                0.8430248006614112,
                1.1135313180775688,
                0.8039337946220471
            ]
        },
        {
            "positions": [
                -0.736944469777546,
                -0.29405700638443527,
                -0.7108262645244492,
                0.9026568257045242,
                1.0482352449354373,
                0.7589390671258673
            ]
        },
        {
            "positions": [
                -0.689204130191591,
                -0.32121984442353924,
                -0.559724109116003,
                0.9622888507476373,
                0.9829391717933061,
                0.7139443396296875
            ]
        },
        {
            "positions": [
                -0.6414637906056357,
                -0.34838268246264326,
                -0.4086219537075566,
                1.0219208757907503,
                0.9176430986511749,
                0.6689496121335077
            ]
        },
        {
            "positions": [
                -0.5937234510196806,
                -0.37554552050174717,
                -0.25751979829911065,
                1.0815529008338634,
                0.8523470255090436,
                0.623954884637328
            ]
        },
        {
            "positions": [
                -0.5459831114337255,
                -0.4027083585408512,
                -0.10641764289066424,
                1.1411849258769766,
                0.7870509523669124,
                0.5789601571411481
            ]
        },
        {
            "positions": [
                -0.4982427718477703,
                -0.42987119657995515,
                0.04468451251778194,
                1.2008169509200897,
                0.7217548792247811,
                0.5339654296449684
            ]
        },
        {
            "positions": [
                -0.4505024322618152,
                -0.4570340346190591,
                0.1957866679262279,
                1.2604489759632027,
                0.6564588060826498,
                0.4889707021487887
            ]
        },
        {
            "positions": [
                -0.40276209267586005,
                -0.4841968726581631,
                0.3468888233346743,
                1.3200810010063158,
                0.5911627329405187,
                0.44397597465260885
            ]
        },
        {
            "positions": [
                -0.3550217530899048,
                -0.5113597106972672,
                0.4979909787431207,
                1.3797130260494288,
                0.5258666597983872,
                0.398981247156429
            ]
        },
        {
            "positions": [
                -0.30728141350394966,
                -0.5385225487363711,
                0.6490931341515671,
                1.439345051092542,
                0.46057058665625594,
                0.3539865196602493
            ]
        },
        {
            "positions": [
                -0.2595410739179945,
                -0.565685386775475,
                0.8001952895600131,
                1.4989770761356551,
                0.3952745135141247,
                0.30899179216406947
            ]
        },
        {
            "positions": [
                -0.2118007343320395,
                -0.592848224814579,
                0.951297444968459,
                1.5586091011787682,
                0.32997844037199364,
                0.26399706466788975
            ]
        },
        {
            "positions": [
                -0.16406039474608414,
                -0.620011062853683,
                1.1023996003769059,
                1.6182411262218812,
                0.26468236722986216,
                0.21900233717170992
            ]
        },
        {
            "positions": [
                -0.11632005516012911,
                -0.647173900892787,
                1.2535017557853518,
                1.6778731512649943,
                0.1993862940877309,
                0.1740076096755302
            ]
        },
        {
            "positions": [
                -0.06857971557417386,
                -0.6743367389318908,
                1.4046039111937978,
                1.7375051763081073,
                0.13409022094559964,
                0.12901288217935036
            ]
        },
        {
            "positions": [
                -0.020839375988218833,
                -0.7014995769709949,
                1.5557060666022442,
                1.7971372013512203,
                0.06879414780346838,
                0.08401815468317064
            ]
        },
        {
            "positions": [
                0.026900963597736416,
                -0.7286624150100989,
                1.7068082220106906,
                1.8567692263943336,
                0.003498074661337114,
                0.0390234271869907
            ]
        },
        {
            "positions": [
                0.07464130318369167,
                -0.7558252530492029,
                1.857910377419137,
                1.9164012514374467,
                -0.06179799848079415,
                -0.0059713003091890204
            ]
        },
        {
            "positions": [
                0.12238164276964673,
                -0.7829880910883068,
                2.009012532827583,
                1.9760332764805597,
                -0.1270940716229254,
                -0.050966027805368845
            ]
        }
    ]
}