{
    "goal": {
        "global_pose": {
            "orientation": {
                "w": 0.5084816217422485,
                "x": -0.49083608388900757,
                "y": 0.5182115435600281,
                "z": -0.4816462993621826
            },
            "position": {
                "x": 0.5540239810943604,
                "y": 0.030875300988554955,
                "z": 0.16403168439865112
            }
        },
        "name": "move_to_storage_A"
    },
    "id": "LazyPRMstar_move_to_storage_A_148",
    "joint_names": [
        "shoulder_pan_joint",
        "shoulder_lift_joint",
        "elbow_joint",
        "wrist_1_joint",
        "wrist_2_joint",
        "wrist_3_joint"
    ],
    "metrics": {
        "cart_traj_len": 0.3525729669532631,
        "distance_elbow_joint": 0.44958275269570924,
        "distance_shoulder_lift_joint": 0.23433679763451654,
        "distance_shoulder_pan_joint": 0.4613853000736928,
        "distance_wrist_1_joint": 0.241507944324301,
        "distance_wrist_2_joint": 1.0962828113003915,
        "distance_wrist_3_joint": 0.09064417430117233,
        "smoothness": 1.5543122362334363e-15,
        "time": 5.000665607999999,
        "traj_len": 1.604287935605633,
        "weighted_distance": 2.023071645927751
    },
    "planner": "LazyPRMstar",
    "start": {
        "state": {
            "elbow_joint": 1.9715463870305268,
            "shoulder_lift_joint": -1.1394903361783484,
            "shoulder_pan_joint": 0.12281147578464417,
            "wrist_1_joint": -0.7804599489681411,
            "wrist_2_joint": 0.12958660307563738,
            "wrist_3_joint": -3.1924946282119055
        }
    },
    "waypoints": [
        {
            "positions": [
                0.12281147578464417,
                -1.1394903361783484,
                1.9715463870305268,
                -0.7804599489681411,
                0.12958660307563738,
                -3.1924946282119055
            ]
        },
        {
            "positions": [
                0.05689929005983092,
                -1.172967021554708,
                2.0357724945584854,
                -0.8149610838716127,
                0.2861984332614076,
                -3.1795454604545954
            ]
        },
        {
            "positions": [
                -0.009012895664982326,
                -1.2064437069310674,
                2.0999986020864436,
                -0.8494622187750842,
                0.4428102634471778,
                -3.166596292697285
            ]
        },
        {
            "positions": [
                -0.07492508138979558,
                -1.239920392307427,
                2.1642247096144023,
                -0.8839633536785558,
                0.599422093632948,
                -3.1536471249399747
            ]
        },
        {
            "positions": [
                -0.1408372671146088,
                -1.2733970776837864,
                2.2284508171423605,
                -0.9184644885820273,
                0.7560339238187183,
                -3.140697957182664
            ]
        },
        {
            "positions": [
                -0.2067494528394221,
                -1.306873763060146,
                2.292676924670319,
                -0.952965623485499,
                0.9126457540044886,
                -3.127748789425354
            ]
        },
        {
            "positions": [
                -0.2726616385642353,
                -1.3403504484365054,
                2.3569030321982773,
                -0.9874667583889705,
                1.0692575841902585,
                -3.1147996216680434
            ]
        },
        {
            "positions": [
                -0.3385738242890486,
                -1.373827133812865,
                2.421129139726236,
                -1.021967893292442,
                1.225869414376029,
                -3.101850453910733
            ]
        }
    ]
}