{
    "goal": {
        "global_pose": {
            "orientation": {
                "w": 0.5084816217422485,
                "x": -0.49083608388900757,
                "y": 0.5182115435600281,
                "z": -0.4816462993621826
            },
            "position": {
                "x": 0.5540239810943604,
                "y": 0.030875300988554955,
                "z": 0.16403168439865112
            }
        },
        "name": "move_to_storage_A"
    },
    "id": "LazyPRMstar_move_to_storage_A_59",
    "joint_names": [
        "shoulder_pan_joint",
        "shoulder_lift_joint",
        "elbow_joint",
        "wrist_1_joint",
        "wrist_2_joint",
        "wrist_3_joint"
    ],
    "metrics": {
        "cart_traj_len": 0.3524018725915037,
        "distance_elbow_joint": 0.4485043172895615,
        "distance_shoulder_lift_joint": 0.23386673335212382,
        "distance_shoulder_pan_joint": 0.4596046436054005,
        "distance_wrist_1_joint": 0.24071045458038676,
        "distance_wrist_2_joint": 1.102051290010861,
        "distance_wrist_3_joint": 0.08855418894540135,
        "smoothness": 4.440892098500626e-16,
        "time": 5.000072229,
        "traj_len": 1.6041482561732674,
        "weighted_distance": 2.023156383047486
    },
    "planner": "LazyPRMstar",
    "start": {
        "state": {
            "elbow_joint": 1.9715463870305268,
            "shoulder_lift_joint": -1.1394903361783484,
            "shoulder_pan_joint": 0.12281147578464417,
            "wrist_1_joint": -0.7804599489681411,
            "wrist_2_joint": 0.12958660307563738,
            "wrist_3_joint": -3.1924946282119055
        }
    },
    "waypoints": [
        {
            "positions": [
                0.12281147578464417,
                -1.1394903361783484,
                1.9715463870305268,
                -0.7804599489681411,
                0.12958660307563738,
                -3.1924946282119055
            ]
        },
        {
            "positions": [
                0.057153669555301254,
                -1.172899869514366,
                2.035618432357607,
                -0.8148471567653391,
                0.28702250164861753,
                -3.179844029791134
            ]
        },
        {
            "positions": [
                -0.008504136674041665,
                -1.2063094028503838,
                2.099690477684687,
                -0.8492343645625373,
                0.44445840022159766,
                -3.1671934313703622
            ]
        },
        {
            "positions": [
                -0.07416194290338458,
                -1.2397189361864014,
                2.1637625230117674,
                -0.8836215723597354,
                0.6018942987945778,
                -3.154542832949591
            ]
        },
        {
            "positions": [
                -0.1398197491327275,
                -1.2731284695224192,
                2.2278345683388476,
                -0.9180087801569335,
                0.7593301973675579,
                -3.141892234528819
            ]
        },
        {
            "positions": [
                -0.20547755536207046,
                -1.3065380028584368,
                2.291906613665928,
                -0.9523959879541316,
                0.9167660959405382,
                -3.1292416361080475
            ]
        },
        {
            "positions": [
                -0.2711353615914133,
                -1.3399475361944546,
                2.355978658993008,
                -0.9867831957513298,
                1.0742019945135182,
                -3.1165910376872756
            ]
        },
        {
            "positions": [
                -0.3367931678207563,
                -1.3733570695304722,
                2.4200507043200883,
                -1.0211704035485278,
                1.2316378930864984,
                -3.103940439266504
            ]
        }
    ]
}