{
    "goal": {
        "global_pose": {
            "orientation": {
                "w": 0.7047431468963623,
                "x": -0.7094548344612122,
                "y": 0.0024358443915843964,
                "z": -0.0022348060738295317
            },
            "position": {
                "x": 0.6094750761985779,
                "y": 0.3671506643295288,
                "z": 0.19426114857196808
            }
        },
        "name": "move_to_magneteinheit_A"
    },
    "id": "LazyPRMstar_move_to_magneteinheit_A_61",
    "joint_names": [
        "shoulder_pan_joint",
        "shoulder_lift_joint",
        "elbow_joint",
        "wrist_1_joint",
        "wrist_2_joint",
        "wrist_3_joint"
    ],
    "metrics": {
        "cart_traj_len": 1.8797256343953865,
        "distance_elbow_joint": 3.9105695668897567,
        "distance_shoulder_lift_joint": 0.7000485151351197,
        "distance_shoulder_pan_joint": 1.2421491607462798,
        "distance_wrist_1_joint": 1.4847269594763304,
        "distance_wrist_2_joint": 1.7002008584591977,
        "distance_wrist_3_joint": 1.1067727264698848,
        "smoothness": 5.263279547268118e-16,
        "time": 5.000398129,
        "traj_len": 3.1850381139283983,
        "weighted_distance": 3.9424536849596437
    },
    "planner": "LazyPRMstar",
    "start": {
        "state": {
            "elbow_joint": -1.919643507792019,
            "shoulder_lift_joint": -0.07675430207160344,
            "shoulder_pan_joint": -1.1188671864651873,
            "wrist_1_joint": 0.42560062535961957,
            "wrist_2_joint": 1.5706038300724876,
            "wrist_3_joint": 1.1188968870953055
        }
    },
    "waypoints": [
        {
            "positions": [
                -1.1188671864651873,
                -0.07675430207160344,
                -1.919643507792019,
                0.42560062535961957,
                1.5706038300724876,
                1.1188968870953055
            ]
        },
        {
            "positions": [
                -1.0710922187441765,
                -0.10367924496141574,
                -1.7692369859885668,
                0.48270550841640153,
                1.5052114893625184,
                1.0763287053080024
            ]
        },
        {
            "positions": [
                -1.0233172510231658,
                -0.13060418785122804,
                -1.6188304641851148,
                0.5398103914731834,
                1.4398191486525493,
                1.033760523520699
            ]
        },
        {
            "positions": [
                -0.9755422833021551,
                -0.15752913074104033,
                -1.4684239423816625,
                0.5969152745299654,
                1.37442680794258,
                0.9911923417333958
            ]
        },
        {
            "positions": [
                -0.9277673155811443,
                -0.18445407363085264,
                -1.3180174205782103,
                0.6540201575867474,
                1.309034467232611,
                0.9486241599460925
            ]
        },
        {
            "positions": [
                -0.8799923478601335,
                -0.21137901652066493,
                -1.167610898774758,
                0.7111250406435292,
                1.2436421265226418,
                0.9060559781587892
            ]
        },
        {
            "positions": [
                -0.8322173801391228,
                -0.23830395941047722,
                -1.017204376971306,
                0.7682299237003112,
                1.1782497858126728,
                0.863487796371486
            ]
        },
        {
            "positions": [
                -0.784442412418112,
                -0.2652289023002895,
                -0.8667978551678539,
                0.8253348067570931,
                1.1128574451027036,
                0.8209196145841827
            ]
        },
        {
            "positions": [
                -0.7366674446971012,
                -0.2921538451901018,
                -0.7163913333644016,
                0.8824396898138751,
                1.0474651043927343,
                0.7783514327968795
            ]
        },
        {
            "positions": [
                -0.6888924769760905,
                -0.3190787880799141,
                -0.5659848115609496,
                0.9395445728706571,
                0.9820727636827653,
                0.7357832510095762
            ]
        },
        {
            "positions": [
                -0.6411175092550797,
                -0.3460037309697264,
                -0.4155782897574971,
                0.996649455927439,
                0.9166804229727962,
                0.6932150692222729
            ]
        },
        {
            "positions": [
                -0.593342541534069,
                -0.3729286738595387,
                -0.26517176795404507,
                1.0537543389842208,
                0.851288082262827,
                0.6506468874349697
            ]
        },
        {
            "positions": [
                -0.5455675738130582,
                -0.399853616749351,
                -0.1147652461505928,
                1.110859222041003,
                0.7858957415528579,
                0.6080787056476664
            ]
        },
        {
            "positions": [
                -0.49779260609204745,
                -0.4267785596391633,
                0.03564127565285924,
                1.1679641050977847,
                0.7205034008428888,
                0.5655105238603632
            ]
        },
        {
            "positions": [
                -0.4500176383710367,
                -0.45370350252897557,
                0.18604779745631128,
                1.2250689881545667,
                0.6551110601329196,
                0.5229423420730599
            ]
        },
        {
            "positions": [
                -0.40224267065002595,
                -0.48062844541878785,
                0.33645431925976355,
                1.2821738712113486,
                0.5897187194229506,
                0.48037416028575675
            ]
        },
        {
            "positions": [
                -0.3544677029290151,
                -0.5075533883086002,
                0.4868608410632158,
                1.3392787542681306,
                0.5243263787129813,
                0.4378059784984534
            ]
        },
        {
            "positions": [
                -0.30669273520800444,
                -0.5344783311984125,
                0.6372673628666681,
                1.3963836373249126,
                0.45893403800301225,
                0.3952377967111501
            ]
        },
        {
            "positions": [
                -0.2589177674869937,
                -0.5614032740882248,
                0.7876738846701199,
                1.4534885203816945,
                0.393541697293043,
                0.35266961492384685
            ]
        },
        {
            "positions": [
                -0.21114279976598294,
                -0.588328216978037,
                0.9380804064735722,
                1.5105934034384765,
                0.328149356583074,
                0.3101014331365436
            ]
        },
        {
            "positions": [
                -0.16336783204497207,
                -0.6152531598678495,
                1.0884869282770249,
                1.5676982864952584,
                0.26275701587310474,
                0.26753325134924033
            ]
        },
        {
            "positions": [
                -0.11559286432396143,
                -0.6421781027576616,
                1.2388934500804767,
                1.6248031695520404,
                0.19736467516313572,
                0.22496506956193707
            ]
        },
        {
            "positions": [
                -0.06781789660295057,
                -0.669103045647474,
                1.389299971883929,
                1.6819080526088221,
                0.13197233445316647,
                0.1823968877746338
            ]
        },
        {
            "positions": [
                -0.020042928881939925,
                -0.6960279885372862,
                1.5397064936873808,
                1.739012935665604,
                0.06657999374319745,
                0.13982870598733055
            ]
        },
        {
            "positions": [
                0.027732038839070938,
                -0.7229529314270986,
                1.6901130154908335,
                1.7961178187223863,
                0.0011876530332282087,
                0.09726052420002729
            ]
        },
        {
            "positions": [
                0.0755070065600818,
                -0.7498778743169108,
                1.8405195372942853,
                1.853222701779168,
                -0.06420468767674103,
                0.054692342412723916
            ]
        },
        {
            "positions": [
                0.12328197428109236,
                -0.7768028172067232,
                1.9909260590977376,
                1.91032758483595,
                -0.12959702838671,
                0.012124160625420696
            ]
        }
    ]
}