{
    "goal": {
        "global_pose": {
            "orientation": {
                "w": 0.7031023502349854,
                "x": -0.7110244035720825,
                "y": 0.007748599164187908,
                "z": 0.005598929710686207
            },
            "position": {
                "x": 0.11585023208521307,
                "y": 0.44412534475326537,
                "z": 0.3711530566215515
            }
        },
        "name": "move_to_auspresseinheit_A"
    },
    "id": "LazyPRMstar_move_to_auspresseinheit_A_53",
    "joint_names": [
        "shoulder_pan_joint",
        "shoulder_lift_joint",
        "elbow_joint",
        "wrist_1_joint",
        "wrist_2_joint",
        "wrist_3_joint"
    ],
    "metrics": {
        "cart_traj_len": 0.6647423237808673,
        "distance_elbow_joint": 0.04171447513594195,
        "distance_shoulder_lift_joint": 0.5377024300362692,
        "distance_shoulder_pan_joint": 1.0479483407492585,
        "distance_wrist_1_joint": 0.7643634327424742,
        "distance_wrist_2_joint": 0.5133703143175405,
        "distance_wrist_3_joint": 0.032912645809601404,
        "smoothness": 0.5445749738278418,
        "time": 5.0070503859999995,
        "traj_len": 1.7140629039772974,
        "weighted_distance": 2.069195659542689
    },
    "planner": "LazyPRMstar",
    "start": {
        "state": {
            "elbow_joint": 2.422574709923281,
            "shoulder_lift_joint": -1.3736533754116391,
            "shoulder_pan_joint": -0.33786336945926293,
            "wrist_1_joint": -1.0288603412921917,
            "wrist_2_joint": 1.2330224858903978,
            "wrist_3_joint": -3.094022268022082
        }
    },
    "waypoints": [
        {
            "positions": [
                -0.33786336945926293,
                -1.3736533754116391,
                2.422574709923281,
                -1.0288603412921917,
                1.2330224858903978,
                -3.094022268022082
            ]
        },
        {
            "positions": [
                -0.220051079314051,
                -1.4491019620330583,
                2.423943138206908,
                -0.9196061807092232,
                1.181070180055775,
                -3.0984373484772627
            ]
        },
        {
            "positions": [
                -0.10223878916883902,
                -1.5245505486544775,
                2.4253115664905347,
                -0.8103520201262547,
                1.129117874221152,
                -3.102852428932443
            ]
        },
        {
            "positions": [
                0.015573500976372945,
                -1.5999991352758967,
                2.4266799947741617,
                -0.7010978595432862,
                1.0771655683865293,
                -3.107267509387623
            ]
        },
        {
            "positions": [
                0.13338579112158488,
                -1.6754477218973158,
                2.428048423057789,
                -0.5918436989603177,
                1.0252132625519066,
                -3.1116825898428035
            ]
        },
        {
            "positions": [
                0.25119808126679694,
                -1.750896308518735,
                2.4294168513414154,
                -0.4825895383773491,
                0.9732609567172836,
                -3.116097670297984
            ]
        },
        {
            "positions": [
                0.36901037141200876,
                -1.8263448951401542,
                2.4307852796250424,
                -0.37333537779438064,
                0.9213086508826609,
                -3.1205127507531643
            ]
        },
        {
            "positions": [
                0.5395476713510021,
                -1.8688503502940312,
                2.414033326907952,
                -0.4277546124167122,
                0.820480411227759,
                -3.123723832292424
            ]
        },
        {
            "positions": [
                0.7100849712899956,
                -1.9113558054479083,
                2.397281374190862,
                -0.48217384703904376,
                0.7196521715728572,
                -3.1269349138316835
            ]
        }
    ]
}