{
    "goal": {
        "global_pose": {
            "orientation": {
                "w": 0.5084816217422485,
                "x": -0.49083608388900757,
                "y": 0.5182115435600281,
                "z": -0.4816462993621826
            },
            "position": {
                "x": 0.5540239810943604,
                "y": 0.030875300988554955,
                "z": 0.16403168439865112
            }
        },
        "name": "move_to_storage_A"
    },
    "id": "LazyPRMstar_move_to_storage_A_100",
    "joint_names": [
        "shoulder_pan_joint",
        "shoulder_lift_joint",
        "elbow_joint",
        "wrist_1_joint",
        "wrist_2_joint",
        "wrist_3_joint"
    ],
    "metrics": {
        "cart_traj_len": 0.3540378099437345,
        "distance_elbow_joint": 0.449952811562206,
        "distance_shoulder_lift_joint": 0.23563830632253424,
        "distance_shoulder_pan_joint": 0.46073331501545267,
        "distance_wrist_1_joint": 0.23780805296495544,
        "distance_wrist_2_joint": 1.1111146757710695,
        "distance_wrist_3_joint": 0.10436601596356265,
        "smoothness": 4.440892098500626e-16,
        "time": 5.000077205,
        "traj_len": 1.6123315966635958,
        "weighted_distance": 2.0389379437008204
    },
    "planner": "LazyPRMstar",
    "start": {
        "state": {
            "elbow_joint": 1.9715463870305268,
            "shoulder_lift_joint": -1.1394903361783484,
            "shoulder_pan_joint": 0.12281147578464417,
            "wrist_1_joint": -0.7804599489681411,
            "wrist_2_joint": 0.12958660307563738,
            "wrist_3_joint": -3.1924946282119055
        }
    },
    "waypoints": [
        {
            "positions": [
                0.12281147578464417,
                -1.1394903361783484,
                1.9715463870305268,
                -0.7804599489681411,
                0.12958660307563738,
                -3.1924946282119055
            ]
        },
        {
            "positions": [
                0.056992430782436654,
                -1.1731529513672818,
                2.035825360110842,
                -0.8144325279631347,
                0.28831727104293303,
                -3.177585197359968
            ]
        },
        {
            "positions": [
                -0.008826614219770865,
                -1.2068155665562152,
                2.100104333191157,
                -0.8484051069581283,
                0.44704793901022866,
                -3.1626757665080305
            ]
        },
        {
            "positions": [
                -0.0746456592219784,
                -1.2404781817451487,
                2.164383306271472,
                -0.8823776859531219,
                0.6057786069775243,
                -3.147766335656093
            ]
        },
        {
            "positions": [
                -0.1404647042241859,
                -1.2741407969340823,
                2.2286622793517874,
                -0.9163502649481157,
                0.7645092749448199,
                -3.1328569048041555
            ]
        },
        {
            "positions": [
                -0.20628374922639342,
                -1.3078034121230158,
                2.2929412524321027,
                -0.9503228439431093,
                0.9232399429121156,
                -3.117947473952218
            ]
        },
        {
            "positions": [
                -0.27210279422860095,
                -1.3414660273119492,
                2.3572202255124175,
                -0.9842954229381029,
                1.0819706108794112,
                -3.1030380431002804
            ]
        },
        {
            "positions": [
                -0.3379218392308085,
                -1.3751286425008826,
                2.4214991985927328,
                -1.0182680019330965,
                1.240701278846707,
                -3.088128612248343
            ]
        }
    ]
}