{
    "goal": {
        "global_pose": {
            "orientation": {
                "w": 0.7047431468963623,
                "x": -0.7094548344612122,
                "y": 0.0024358443915843964,
                "z": -0.0022348060738295317
            },
            "position": {
                "x": 0.6094750761985779,
                "y": 0.3671506643295288,
                "z": 0.19426114857196808
            }
        },
        "name": "move_to_magneteinheit_A"
    },
    "id": "LazyPRMstar_move_to_magneteinheit_A_116",
    "joint_names": [
        "shoulder_pan_joint",
        "shoulder_lift_joint",
        "elbow_joint",
        "wrist_1_joint",
        "wrist_2_joint",
        "wrist_3_joint"
    ],
    "metrics": {
        "cart_traj_len": 1.8734019547269871,
        "distance_elbow_joint": 3.9232657954070396,
        "distance_shoulder_lift_joint": 0.7041750794361451,
        "distance_shoulder_pan_joint": 1.241186595152209,
        "distance_wrist_1_joint": 1.5352777615615973,
        "distance_wrist_2_joint": 1.7004450295753721,
        "distance_wrist_3_joint": 1.1556543085715443,
        "smoothness": 4.934324565125532e-16,
        "time": 5.001358452,
        "traj_len": 3.2031241889292876,
        "weighted_distance": 3.97580633054277
    },
    "planner": "LazyPRMstar",
    "start": {
        "state": {
            "elbow_joint": -1.919643507792019,
            "shoulder_lift_joint": -0.07675430207160344,
            "shoulder_pan_joint": -1.1188671864651873,
            "wrist_1_joint": 0.42560062535961957,
            "wrist_2_joint": 1.5706038300724876,
            "wrist_3_joint": 1.1188968870953055
        }
    },
    "waypoints": [
        {
            "positions": [
                -1.1188671864651873,
                -0.07675430207160344,
                -1.919643507792019,
                0.42560062535961957,
                1.5706038300724876,
                1.1188968870953055
            ]
        },
        {
            "positions": [
                -1.0711292404977948,
                -0.10383795897299364,
                -1.7687486695071328,
                0.4846497700350656,
                1.5052020981657426,
                1.0744486444579384
            ]
        },
        {
            "positions": [
                -1.023391294530402,
                -0.13092161587438383,
                -1.6178538312222468,
                0.5436989147105117,
                1.4398003662589973,
                1.0300004018205713
            ]
        },
        {
            "positions": [
                -0.9756533485630094,
                -0.15800527277577403,
                -1.4669589929373608,
                0.6027480593859578,
                1.3743986343522523,
                0.9855521591832043
            ]
        },
        {
            "positions": [
                -0.9279154025956167,
                -0.18508892967716425,
                -1.3160641546524745,
                0.6617972040614037,
                1.3089969024455073,
                0.9411039165458372
            ]
        },
        {
            "positions": [
                -0.8801774566282241,
                -0.21217258657855445,
                -1.1651693163675882,
                0.7208463487368498,
                1.2435951705387622,
                0.8966556739084701
            ]
        },
        {
            "positions": [
                -0.8324395106608314,
                -0.23925624347994465,
                -1.0142744780827022,
                0.7798954934122959,
                1.1781934386320172,
                0.852207431271103
            ]
        },
        {
            "positions": [
                -0.7847015646934388,
                -0.2663399003813348,
                -0.8633796397978162,
                0.8389446380877419,
                1.1127917067252722,
                0.807759188633736
            ]
        },
        {
            "positions": [
                -0.7369636187260461,
                -0.29342355728272507,
                -0.7124848015129299,
                0.8979937827631881,
                1.047389974818527,
                0.7633109459963688
            ]
        },
        {
            "positions": [
                -0.6892256727586534,
                -0.3205072141841152,
                -0.5615899632280439,
                0.9570429274386341,
                0.9819882429117819,
                0.7188627033590018
            ]
        },
        {
            "positions": [
                -0.6414877267912609,
                -0.34759087108550546,
                -0.41069512494315763,
                1.01609207211408,
                0.9165865110050367,
                0.6744144607216347
            ]
        },
        {
            "positions": [
                -0.5937497808238682,
                -0.37467452798689566,
                -0.2598002866582716,
                1.0751412167895262,
                0.8511847790982917,
                0.6299662180842676
            ]
        },
        {
            "positions": [
                -0.5460118348564755,
                -0.40175818488828585,
                -0.10890544837338534,
                1.1341903614649722,
                0.7857830471915466,
                0.5855179754469004
            ]
        },
        {
            "positions": [
                -0.49827388888908286,
                -0.42884184178967605,
                0.041989389911500696,
                1.1932395061404182,
                0.7203813152848015,
                0.5410697328095334
            ]
        },
        {
            "positions": [
                -0.4505359429216902,
                -0.45592549869106624,
                0.19288422819638673,
                1.2522886508158642,
                0.6549795833780565,
                0.4966214901721664
            ]
        },
        {
            "positions": [
                -0.40279799695429763,
                -0.48300915559245644,
                0.34377906648127277,
                1.3113377954913104,
                0.5895778514713115,
                0.45217324753479926
            ]
        },
        {
            "positions": [
                -0.35506005098690485,
                -0.5100928124938466,
                0.49467390476615924,
                1.3703869401667566,
                0.5241761195645662,
                0.40772500489743213
            ]
        },
        {
            "positions": [
                -0.3073221050195123,
                -0.5371764693952368,
                0.6455687430510453,
                1.4294360848422025,
                0.4587743876578212,
                0.363276762260065
            ]
        },
        {
            "positions": [
                -0.2595841590521196,
                -0.564260126296627,
                0.7964635813359313,
                1.4884852295176485,
                0.39337265575107616,
                0.318828519622698
            ]
        },
        {
            "positions": [
                -0.21184621308472695,
                -0.5913437831980173,
                0.9473584196208173,
                1.5475343741930945,
                0.32797092384433113,
                0.27438027698533096
            ]
        },
        {
            "positions": [
                -0.16410826711733428,
                -0.6184274400994074,
                1.0982532579057038,
                1.6065835188685407,
                0.2625691919375859,
                0.22993203434796372
            ]
        },
        {
            "positions": [
                -0.11637032114994161,
                -0.6455110970007976,
                1.2491480961905899,
                1.6656326635439866,
                0.19716746003084085,
                0.1854837917105967
            ]
        },
        {
            "positions": [
                -0.06863237518254905,
                -0.6725947539021879,
                1.400042934475476,
                1.7246818082194328,
                0.13176572812409582,
                0.14103554907322968
            ]
        },
        {
            "positions": [
                -0.020894429215156274,
                -0.6996784108035781,
                1.550937772760362,
                1.7837309528948788,
                0.06636399621735078,
                0.09658730643586266
            ]
        },
        {
            "positions": [
                0.026843516752236285,
                -0.7267620677049682,
                1.7018326110452484,
                1.842780097570325,
                0.0009622643106055317,
                0.05213906379849531
            ]
        },
        {
            "positions": [
                0.07458146271962907,
                -0.7538457246063586,
                1.8527274493301344,
                1.901829242245771,
                -0.0644394675961395,
                0.007690821161128403
            ]
        },
        {
            "positions": [
                0.12231940868702171,
                -0.7809293815077486,
                2.0036222876150203,
                1.960878386921217,
                -0.12984119950288456,
                -0.03675742147623874
            ]
        }
    ]
}