{
    "goal": {
        "global_pose": {
            "orientation": {
                "w": 0.7047431468963623,
                "x": -0.7094548344612122,
                "y": 0.0024358443915843964,
                "z": -0.0022348060738295317
            },
            "position": {
                "x": 0.6094750761985779,
                "y": 0.3671506643295288,
                "z": 0.19426114857196808
            }
        },
        "name": "move_to_magneteinheit_A"
    },
    "id": "LazyPRM_move_to_magneteinheit_A_32",
    "joint_names": [
        "shoulder_pan_joint",
        "shoulder_lift_joint",
        "elbow_joint",
        "wrist_1_joint",
        "wrist_2_joint",
        "wrist_3_joint"
    ],
    "metrics": {
        "cart_traj_len": 1.8789404532891867,
        "distance_elbow_joint": 3.9103038822160476,
        "distance_shoulder_lift_joint": 0.6997366670875464,
        "distance_shoulder_pan_joint": 1.2407395097425507,
        "distance_wrist_1_joint": 1.4823427624278271,
        "distance_wrist_2_joint": 1.703128004214341,
        "distance_wrist_3_joint": 1.0927177333196163,
        "smoothness": 1.644774855041844e-16,
        "time": 0.065673866,
        "traj_len": 3.1826040531313233,
        "weighted_distance": 3.9369880355786373
    },
    "planner": "LazyPRM",
    "start": {
        "state": {
            "elbow_joint": -1.919643507792019,
            "shoulder_lift_joint": -0.07675430207160344,
            "shoulder_pan_joint": -1.1188671864651873,
            "wrist_1_joint": 0.42560062535961957,
            "wrist_2_joint": 1.5706038300724876,
            "wrist_3_joint": 1.1188968870953055
        }
    },
    "waypoints": [
        {
            "positions": [
                -1.1188671864651873,
                -0.07675430207160344,
                -1.919643507792019,
                0.42560062535961957,
                1.5706038300724876,
                1.1188968870953055
            ]
        },
        {
            "positions": [
                -1.0711464360904739,
                -0.10366725080573985,
                -1.7692472046298633,
                0.48261380852992064,
                1.5050989068334746,
                1.076869281967628
            ]
        },
        {
            "positions": [
                -1.0234256857157604,
                -0.13058019953987626,
                -1.6188509014677077,
                0.5396269917002217,
                1.4395939835944613,
                1.0348416768399504
            ]
        },
        {
            "positions": [
                -0.9757049353410469,
                -0.15749314827401265,
                -1.4684545983055521,
                0.5966401748705227,
                1.3740890603554483,
                0.9928140717122729
            ]
        },
        {
            "positions": [
                -0.9279841849663334,
                -0.18440609700814906,
                -1.3180582951433963,
                0.6536533580408237,
                1.308584137116435,
                0.9507864665845953
            ]
        },
        {
            "positions": [
                -0.8802634345916199,
                -0.21131904574228547,
                -1.1676619919812405,
                0.7106665412111248,
                1.243079213877422,
                0.9087588614569178
            ]
        },
        {
            "positions": [
                -0.8325426842169064,
                -0.23823199447642185,
                -1.017265688819085,
                0.7676797243814258,
                1.1775742906384088,
                0.8667312563292402
            ]
        },
        {
            "positions": [
                -0.7848219338421929,
                -0.26514494321055826,
                -0.8668693856569294,
                0.8246929075517269,
                1.1120693673993958,
                0.8247036512015626
            ]
        },
        {
            "positions": [
                -0.7371011834674794,
                -0.29205789194469467,
                -0.7164730824947736,
                0.881706090722028,
                1.0465644441603827,
                0.7826760460738851
            ]
        },
        {
            "positions": [
                -0.689380433092766,
                -0.3189708406788311,
                -0.566076779332618,
                0.9387192738923289,
                0.9810595209213696,
                0.7406484409462076
            ]
        },
        {
            "positions": [
                -0.6416596827180525,
                -0.3458837894129675,
                -0.4156804761704622,
                0.99573245706263,
                0.9155545976823564,
                0.69862083581853
            ]
        },
        {
            "positions": [
                -0.593938932343339,
                -0.37279673814710385,
                -0.26528417300830665,
                1.052745640232931,
                0.8500496744433433,
                0.6565932306908525
            ]
        },
        {
            "positions": [
                -0.5462181819686255,
                -0.39970968688124026,
                -0.11488786984615085,
                1.109758823403232,
                0.7845447512043301,
                0.614565625563175
            ]
        },
        {
            "positions": [
                -0.498497431593912,
                -0.42662263561537667,
                0.03550843331600473,
                1.1667720065735332,
                0.7190398279653171,
                0.5725380204354974
            ]
        },
        {
            "positions": [
                -0.45077668121919856,
                -0.4535355843495131,
                0.1859047364781603,
                1.223785189743834,
                0.653534904726304,
                0.5305104153078198
            ]
        },
        {
            "positions": [
                -0.4030559308444851,
                -0.48044853308364943,
                0.3363010396403159,
                1.2807983729141352,
                0.5880299814872909,
                0.4884828101801424
            ]
        },
        {
            "positions": [
                -0.35533518046977153,
                -0.5073614818177858,
                0.4866973428024719,
                1.3378115560844364,
                0.5225250582482777,
                0.4464552050524647
            ]
        },
        {
            "positions": [
                -0.30761443009505807,
                -0.5342744305519223,
                0.6370936459646275,
                1.3948247392547373,
                0.45702013500926464,
                0.40442759992478716
            ]
        },
        {
            "positions": [
                -0.2598936797203446,
                -0.5611873792860587,
                0.787489949126783,
                1.4518379224250384,
                0.3915152117702516,
                0.3623999947971097
            ]
        },
        {
            "positions": [
                -0.21217292934563114,
                -0.5881003280201951,
                0.9378862522889386,
                1.5088511055953393,
                0.32601028853123837,
                0.32037238966943216
            ]
        },
        {
            "positions": [
                -0.16445217897091757,
                -0.6150132767543315,
                1.0882825554510946,
                1.5658642887656407,
                0.2605053652922251,
                0.2783447845417545
            ]
        },
        {
            "positions": [
                -0.116731428596204,
                -0.6419262254884679,
                1.2386788586132502,
                1.6228774719359416,
                0.1950004420532121,
                0.23631717941407693
            ]
        },
        {
            "positions": [
                -0.06901067822149076,
                -0.6688391742226043,
                1.3890751617754058,
                1.6798906551062425,
                0.12949551881419907,
                0.19428957428639948
            ]
        },
        {
            "positions": [
                -0.0212899278467773,
                -0.6957521229567407,
                1.5394714649375614,
                1.7369038382765436,
                0.06399059557518605,
                0.15226196915872192
            ]
        },
        {
            "positions": [
                0.026430822527936382,
                -0.7226650716908771,
                1.6898677680997174,
                1.7939170214468447,
                -0.0015143276638274195,
                0.11023436403104436
            ]
        },
        {
            "positions": [
                0.07415157290264984,
                -0.7495780204250135,
                1.840264071261873,
                1.8509302046171459,
                -0.06701925090284044,
                0.0682067589033668
            ]
        },
        {
            "positions": [
                0.12187232327736332,
                -0.77649096915915,
                1.9906603744240285,
                1.9079433877874468,
                -0.1325241741418534,
                0.02617915377568924
            ]
        }
    ]
}