{
    "goal": {
        "global_pose": {
            "orientation": {
                "w": 0.5084816217422485,
                "x": -0.49083608388900757,
                "y": 0.5182115435600281,
                "z": -0.4816462993621826
            },
            "position": {
                "x": 0.5540239810943604,
                "y": 0.030875300988554955,
                "z": 0.16403168439865112
            }
        },
        "name": "move_to_storage_A"
    },
    "id": "LazyPRMstar_move_to_storage_A_17",
    "joint_names": [
        "shoulder_pan_joint",
        "shoulder_lift_joint",
        "elbow_joint",
        "wrist_1_joint",
        "wrist_2_joint",
        "wrist_3_joint"
    ],
    "metrics": {
        "cart_traj_len": 0.35333316289748645,
        "distance_elbow_joint": 0.4506590565345663,
        "distance_shoulder_lift_joint": 0.23544231419330575,
        "distance_shoulder_pan_joint": 0.4602867597691364,
        "distance_wrist_1_joint": 0.24130724622571675,
        "distance_wrist_2_joint": 1.1077009862652498,
        "distance_wrist_3_joint": 0.10188910915635851,
        "smoothness": 0.0,
        "time": 5.000168461,
        "traj_len": 1.6116095904853427,
        "weighted_distance": 2.0371725314631592
    },
    "planner": "LazyPRMstar",
    "start": {
        "state": {
            "elbow_joint": 1.9715463870305268,
            "shoulder_lift_joint": -1.1394903361783484,
            "shoulder_pan_joint": 0.12281147578464417,
            "wrist_1_joint": -0.7804599489681411,
            "wrist_2_joint": 0.12958660307563738,
            "wrist_3_joint": -3.1924946282119055
        }
    },
    "waypoints": [
        {
            "positions": [
                0.12281147578464417,
                -1.1394903361783484,
                1.9715463870305268,
                -0.7804599489681411,
                0.12958660307563738,
                -3.1924946282119055
            ]
        },
        {
            "positions": [
                0.057056224389053264,
                -1.1731249524916778,
                2.0359262522497503,
                -0.8149324127146721,
                0.2878296011135302,
                -3.1779390411895685
            ]
        },
        {
            "positions": [
                -0.008699027006537643,
                -1.2067595688050072,
                2.1003061174689743,
                -0.849404876461203,
                0.44607259915142305,
                -3.163383454167232
            ]
        },
        {
            "positions": [
                -0.07445427840212855,
                -1.2403941851183367,
                2.164685982688198,
                -0.883877340207734,
                0.6043155971893158,
                -3.148827867144895
            ]
        },
        {
            "positions": [
                -0.14020952979771945,
                -1.2740288014316659,
                2.229065847907422,
                -0.9183498039542649,
                0.7625585952272087,
                -3.1342722801225578
            ]
        },
        {
            "positions": [
                -0.2059647811933104,
                -1.3076634177449953,
                2.2934457131266455,
                -0.9528222677007959,
                0.9208015932651016,
                -3.1197166931002207
            ]
        },
        {
            "positions": [
                -0.27172003258890126,
                -1.3412980340583247,
                2.357825578345869,
                -0.9872947314473268,
                1.0790445913029942,
                -3.105161106077884
            ]
        },
        {
            "positions": [
                -0.3374752839844922,
                -1.3749326503716541,
                2.422205443565093,
                -1.0217671951938578,
                1.2372875893408872,
                -3.090605519055547
            ]
        }
    ]
}