{
    "goal": {
        "global_pose": {
            "orientation": {
                "w": 0.7047431468963623,
                "x": -0.7094548344612122,
                "y": 0.0024358443915843964,
                "z": -0.0022348060738295317
            },
            "position": {
                "x": 0.6094750761985779,
                "y": 0.3671506643295288,
                "z": 0.19426114857196808
            }
        },
        "name": "move_to_magneteinheit_A"
    },
    "id": "LazyPRM_move_to_magneteinheit_A_86",
    "joint_names": [
        "shoulder_pan_joint",
        "shoulder_lift_joint",
        "elbow_joint",
        "wrist_1_joint",
        "wrist_2_joint",
        "wrist_3_joint"
    ],
    "metrics": {
        "cart_traj_len": 1.8718459706862243,
        "distance_elbow_joint": 3.928654058880042,
        "distance_shoulder_lift_joint": 0.7065010477980748,
        "distance_shoulder_pan_joint": 1.2406014541223551,
        "distance_wrist_1_joint": 1.5564597073110267,
        "distance_wrist_2_joint": 1.690036944910168,
        "distance_wrist_3_joint": 1.1890254875261457,
        "smoothness": 7.930164480350096e-16,
        "time": 0.095655932,
        "traj_len": 3.2111179829691423,
        "weighted_distance": 3.9919702313295495
    },
    "planner": "LazyPRM",
    "start": {
        "state": {
            "elbow_joint": -1.919643507792019,
            "shoulder_lift_joint": -0.07675430207160344,
            "shoulder_pan_joint": -1.1188671864651873,
            "wrist_1_joint": 0.42560062535961957,
            "wrist_2_joint": 1.5706038300724876,
            "wrist_3_joint": 1.1188968870953055
        }
    },
    "waypoints": [
        {
            "positions": [
                -1.1188671864651873,
                -0.07675430207160344,
                -1.919643507792019,
                0.42560062535961957,
                1.5706038300724876,
                1.1188968870953055
            ]
        },
        {
            "positions": [
                -1.0729189844606557,
                -0.10292100754560621,
                -1.774137801907573,
                0.4832472811859539,
                1.5080098691498889,
                1.0748589060758187
            ]
        },
        {
            "positions": [
                -1.026970782456124,
                -0.12908771301960897,
                -1.628632096023127,
                0.5408939370122882,
                1.44541590822729,
                1.0308209250563318
            ]
        },
        {
            "positions": [
                -0.9810225804515924,
                -0.15525441849361177,
                -1.483126390138681,
                0.5985405928386225,
                1.3828219473046912,
                0.986782944036845
            ]
        },
        {
            "positions": [
                -0.9350743784470607,
                -0.18142112396761453,
                -1.337620684254235,
                0.6561872486649568,
                1.3202279863820925,
                0.9427449630173581
            ]
        },
        {
            "positions": [
                -0.889126176442529,
                -0.2075878294416173,
                -1.192114978369789,
                0.7138339044912911,
                1.2576340254594935,
                0.8987069819978711
            ]
        },
        {
            "positions": [
                -0.8431779744379974,
                -0.23375453491562007,
                -1.046609272485343,
                0.7714805603176255,
                1.1950400645368948,
                0.8546690009783843
            ]
        },
        {
            "positions": [
                -0.7972297724334656,
                -0.25992124038962283,
                -0.9011035666008971,
                0.8291272161439598,
                1.1324461036142959,
                0.8106310199588974
            ]
        },
        {
            "positions": [
                -0.751281570428934,
                -0.2860879458636256,
                -0.7555978607164511,
                0.8867738719702941,
                1.0698521426916971,
                0.7665930389394106
            ]
        },
        {
            "positions": [
                -0.7053333684244023,
                -0.3122546513376284,
                -0.6100921548320051,
                0.9444205277966284,
                1.0072581817690982,
                0.7225550579199237
            ]
        },
        {
            "positions": [
                -0.6593851664198707,
                -0.33842135681163116,
                -0.46458644894755907,
                1.0020671836229627,
                0.9446642208464995,
                0.6785170769004367
            ]
        },
        {
            "positions": [
                -0.613436964415339,
                -0.36458806228563395,
                -0.31908074306311307,
                1.059713839449297,
                0.8820702599239006,
                0.6344790958809499
            ]
        },
        {
            "positions": [
                -0.5674887624108074,
                -0.3907547677596367,
                -0.17357503717866707,
                1.1173604952756313,
                0.8194762990013019,
                0.590441114861463
            ]
        },
        {
            "positions": [
                -0.5215405604062756,
                -0.4169214732336395,
                -0.028069331294221067,
                1.1750071511019657,
                0.7568823380787031,
                0.5464031338419761
            ]
        },
        {
            "positions": [
                -0.47559235840174396,
                -0.4430881787076422,
                0.11743637459022493,
                1.2326538069283,
                0.6942883771561043,
                0.5023651528224893
            ]
        },
        {
            "positions": [
                -0.4296441563972122,
                -0.46925488418164507,
                0.26294208047467094,
                1.2903004627546344,
                0.6316944162335053,
                0.4583271718030024
            ]
        },
        {
            "positions": [
                -0.38369595439268067,
                -0.4954215896556478,
                0.40844778635911694,
                1.3479471185809686,
                0.5691004553109067,
                0.41428919078351556
            ]
        },
        {
            "positions": [
                -0.3377477523881489,
                -0.5215882951296507,
                0.5539534922435629,
                1.405593774407303,
                0.5065064943883077,
                0.3702512097640286
            ]
        },
        {
            "positions": [
                -0.29179955038361727,
                -0.5477550006036533,
                0.6994591981280089,
                1.4632404302336373,
                0.443912533465709,
                0.32621322874454184
            ]
        },
        {
            "positions": [
                -0.24585134837908562,
                -0.5739217060776561,
                0.8449649040124549,
                1.5208870860599717,
                0.3813185725431101,
                0.28217524772505487
            ]
        },
        {
            "positions": [
                -0.19990314637455397,
                -0.6000884115516589,
                0.9904706098969009,
                1.578533741886306,
                0.31872461162051136,
                0.238137266705568
            ]
        },
        {
            "positions": [
                -0.15395494437002222,
                -0.6262551170256616,
                1.135976315781347,
                1.6361803977126403,
                0.2561306506979124,
                0.19409928568608115
            ]
        },
        {
            "positions": [
                -0.10800674236549068,
                -0.6524218224996645,
                1.281482021665793,
                1.6938270535389746,
                0.19353668977531369,
                0.1500613046665943
            ]
        },
        {
            "positions": [
                -0.062058540360958814,
                -0.6785885279736672,
                1.426987727550239,
                1.751473709365309,
                0.13094272885271496,
                0.10602332364710731
            ]
        },
        {
            "positions": [
                -0.01611033835642739,
                -0.7047552334476699,
                1.572493433434685,
                1.8091203651916432,
                0.06834876793011624,
                0.061985342627620454
            ]
        },
        {
            "positions": [
                0.02983786364810448,
                -0.7309219389216728,
                1.717999139319131,
                1.8667670210179776,
                0.005754807007517293,
                0.017947361608133594
            ]
        },
        {
            "positions": [
                0.07578606565263613,
                -0.7570886443956755,
                1.863504845203577,
                1.9244136768443119,
                -0.05683915391508143,
                -0.026090619411353266
            ]
        },
        {
            "positions": [
                0.12173426765716774,
                -0.7832553498696783,
                2.0090105510880227,
                1.9820603326706463,
                -0.11943311483768049,
                -0.07012860043084017
            ]
        }
    ]
}