{
    "goal": {
        "global_pose": {
            "orientation": {
                "w": 0.5084816217422485,
                "x": -0.49083608388900757,
                "y": 0.5182115435600281,
                "z": -0.4816462993621826
            },
            "position": {
                "x": 0.5540239810943604,
                "y": 0.030875300988554955,
                "z": 0.16403168439865112
            }
        },
        "name": "move_to_storage_A"
    },
    "id": "LazyPRM_move_to_storage_A_122",
    "joint_names": [
        "shoulder_pan_joint",
        "shoulder_lift_joint",
        "elbow_joint",
        "wrist_1_joint",
        "wrist_2_joint",
        "wrist_3_joint"
    ],
    "metrics": {
        "cart_traj_len": 0.353335537880214,
        "distance_elbow_joint": 0.452897231689958,
        "distance_shoulder_lift_joint": 0.23165082232056933,
        "distance_shoulder_pan_joint": 0.46330038727231687,
        "distance_wrist_1_joint": 0.26293990900209196,
        "distance_wrist_2_joint": 1.092395607088979,
        "distance_wrist_3_joint": 0.10168694690628977,
        "smoothness": 4.440892133664971e-16,
        "time": 0.02184763,
        "traj_len": 1.6139612462138628,
        "weighted_distance": 2.0404853133957754
    },
    "planner": "LazyPRM",
    "start": {
        "state": {
            "elbow_joint": 1.9715463870305268,
            "shoulder_lift_joint": -1.1394903361783484,
            "shoulder_pan_joint": 0.12281147578464417,
            "wrist_1_joint": -0.7804599489681411,
            "wrist_2_joint": 0.12958660307563738,
            "wrist_3_joint": -3.1924946282119055
        }
    },
    "waypoints": [
        {
            "positions": [
                0.12281147578464417,
                -1.1394903361783484,
                1.9715463870305268,
                -0.7804599489681411,
                0.12958660307563738,
                -3.1924946282119055
            ]
        },
        {
            "positions": [
                0.0566257061743132,
                -1.1725833107955725,
                2.0362459915576636,
                -0.8180227931112971,
                0.285643118374063,
                -3.177967921511007
            ]
        },
        {
            "positions": [
                -0.009560063436017771,
                -1.2056762854127967,
                2.1009455960848005,
                -0.855585637254453,
                0.44169963367248855,
                -3.1634412148101085
            ]
        },
        {
            "positions": [
                -0.07574583304634876,
                -1.2387692600300209,
                2.1656452006119373,
                -0.893148481397609,
                0.5977561489709141,
                -3.14891450810921
            ]
        },
        {
            "positions": [
                -0.1419316026566797,
                -1.2718622346472452,
                2.230344805139074,
                -0.9307113255407651,
                0.7538126642693397,
                -3.1343878014083115
            ]
        },
        {
            "positions": [
                -0.20811737226701071,
                -1.3049552092644694,
                2.295044409666211,
                -0.968274169683921,
                0.9098691795677654,
                -3.119861094707413
            ]
        },
        {
            "positions": [
                -0.27430314187734167,
                -1.3380481838816936,
                2.359744014193348,
                -1.0058370138270771,
                1.0659256948661908,
                -3.1053343880065145
            ]
        },
        {
            "positions": [
                -0.3404889114876727,
                -1.3711411584989177,
                2.4244436187204847,
                -1.043399857970233,
                1.2219822101646165,
                -3.090807681305616
            ]
        }
    ]
}