{
    "goal": {
        "global_pose": {
            "orientation": {
                "w": 0.5084816217422485,
                "x": -0.49083608388900757,
                "y": 0.5182115435600281,
                "z": -0.4816462993621826
            },
            "position": {
                "x": 0.5540239810943604,
                "y": 0.030875300988554955,
                "z": 0.16403168439865112
            }
        },
        "name": "move_to_storage_A"
    },
    "id": "LazyPRMstar_move_to_storage_A_42",
    "joint_names": [
        "shoulder_pan_joint",
        "shoulder_lift_joint",
        "elbow_joint",
        "wrist_1_joint",
        "wrist_2_joint",
        "wrist_3_joint"
    ],
    "metrics": {
        "cart_traj_len": 0.3525103230581106,
        "distance_elbow_joint": 0.44778743889503225,
        "distance_shoulder_lift_joint": 0.2366144563302659,
        "distance_shoulder_pan_joint": 0.4604822261975999,
        "distance_wrist_1_joint": 0.23248760613823338,
        "distance_wrist_2_joint": 1.1004521679899935,
        "distance_wrist_3_joint": 0.09649592729043333,
        "smoothness": 1.3322676292611541e-15,
        "time": 5.000205436,
        "traj_len": 1.60446870422628,
        "weighted_distance": 2.0249077637143507
    },
    "planner": "LazyPRMstar",
    "start": {
        "state": {
            "elbow_joint": 1.9715463870305268,
            "shoulder_lift_joint": -1.1394903361783484,
            "shoulder_pan_joint": 0.12281147578464417,
            "wrist_1_joint": -0.7804599489681411,
            "wrist_2_joint": 0.12958660307563738,
            "wrist_3_joint": -3.1924946282119055
        }
    },
    "waypoints": [
        {
            "positions": [
                0.12281147578464417,
                -1.1394903361783484,
                1.9715463870305268,
                -0.7804599489681411,
                0.12958660307563738,
                -3.1924946282119055
            ]
        },
        {
            "positions": [
                0.057028300613558486,
                -1.1732924013683863,
                2.0355160211583887,
                -0.8136724641307459,
                0.2867940556456364,
                -3.1787094957418436
            ]
        },
        {
            "positions": [
                -0.0087548745575272,
                -1.2070944665584245,
                2.09948565528625,
                -0.8468849792933506,
                0.44400150821563544,
                -3.1649243632717816
            ]
        },
        {
            "positions": [
                -0.0745380497286129,
                -1.2408965317484624,
                2.163455289414112,
                -0.8800974944559554,
                0.6012089607856346,
                -3.1511392308017196
            ]
        },
        {
            "positions": [
                -0.14032122489969856,
                -1.2746985969385003,
                2.2274249235419736,
                -0.9133100096185601,
                0.7584164133556336,
                -3.137354098331658
            ]
        },
        {
            "positions": [
                -0.2061044000707843,
                -1.3085006621285382,
                2.2913945576698356,
                -0.9465225247811649,
                0.9156238659256327,
                -3.123568965861596
            ]
        },
        {
            "positions": [
                -0.27188757524186996,
                -1.3423027273185764,
                2.355364191797697,
                -0.9797350399437696,
                1.0728313184956317,
                -3.109783833391534
            ]
        },
        {
            "positions": [
                -0.3376707504129557,
                -1.3761047925086143,
                2.419333825925559,
                -1.0129475551063745,
                1.2300387710656309,
                -3.0959987009214722
            ]
        }
    ]
}