{
    "goal": {
        "global_pose": {
            "orientation": {
                "w": 0.5084816217422485,
                "x": -0.49083608388900757,
                "y": 0.5182115435600281,
                "z": -0.4816462993621826
            },
            "position": {
                "x": 0.5540239810943604,
                "y": 0.030875300988554955,
                "z": 0.16403168439865112
            }
        },
        "name": "move_to_storage_A"
    },
    "id": "LazyPRM_move_to_storage_A_100",
    "joint_names": [
        "shoulder_pan_joint",
        "shoulder_lift_joint",
        "elbow_joint",
        "wrist_1_joint",
        "wrist_2_joint",
        "wrist_3_joint"
    ],
    "metrics": {
        "cart_traj_len": 0.35298543195983556,
        "distance_elbow_joint": 0.448591171910417,
        "distance_shoulder_lift_joint": 0.23652003136107447,
        "distance_shoulder_pan_joint": 0.4616799432581658,
        "distance_wrist_1_joint": 0.23335786579547435,
        "distance_wrist_2_joint": 1.0991562637471495,
        "distance_wrist_3_joint": 0.0897260848224839,
        "smoothness": 2.2204460668324854e-16,
        "time": 0.021859280999999998,
        "traj_len": 1.6028198154798203,
        "weighted_distance": 2.020147930247277
    },
    "planner": "LazyPRM",
    "start": {
        "state": {
            "elbow_joint": 1.9715463870305268,
            "shoulder_lift_joint": -1.1394903361783484,
            "shoulder_pan_joint": 0.12281147578464417,
            "wrist_1_joint": -0.7804599489681411,
            "wrist_2_joint": 0.12958660307563738,
            "wrist_3_joint": -3.1924946282119055
        }
    },
    "waypoints": [
        {
            "positions": [
                0.12281147578464417,
                -1.1394903361783484,
                1.9715463870305268,
                -0.7804599489681411,
                0.12958660307563738,
                -3.1924946282119055
            ]
        },
        {
            "positions": [
                0.05685719817633478,
                -1.1732789120870732,
                2.0356308401605863,
                -0.8137967869389231,
                0.28660892646808733,
                -3.1796766160944077
            ]
        },
        {
            "positions": [
                -0.009097079431974617,
                -1.2070674879957983,
                2.0997152932906458,
                -0.8471336249097052,
                0.44363124986053726,
                -3.16685860397691
            ]
        },
        {
            "positions": [
                -0.07505135704028403,
                -1.2408560639045232,
                2.1637997464207053,
                -0.8804704628804872,
                0.6006535732529872,
                -3.1540405918594123
            ]
        },
        {
            "positions": [
                -0.1410056346485934,
                -1.274644639813248,
                2.2278841995507648,
                -0.9138073008512693,
                0.7576758966454371,
                -3.141222579741915
            ]
        },
        {
            "positions": [
                -0.2069599122569028,
                -1.3084332157219731,
                2.2919686526808247,
                -0.9471441388220514,
                0.914698220037887,
                -3.128404567624417
            ]
        },
        {
            "positions": [
                -0.2729141898652122,
                -1.342221791630698,
                2.3560531058108842,
                -0.9804809767928333,
                1.071720543430337,
                -3.1155865555069195
            ]
        },
        {
            "positions": [
                -0.3388684674735216,
                -1.3760103675394229,
                2.4201375589409437,
                -1.0138178147636154,
                1.2287428668227869,
                -3.1027685433894217
            ]
        }
    ]
}