{
    "goal": {
        "global_pose": {
            "orientation": {
                "w": 0.7031023502349854,
                "x": -0.7110244035720825,
                "y": 0.007748599164187908,
                "z": 0.005598929710686207
            },
            "position": {
                "x": 0.11585023208521307,
                "y": 0.44412534475326537,
                "z": 0.3711530566215515
            }
        },
        "name": "move_to_auspresseinheit_A"
    },
    "id": "LazyPRM_move_to_auspresseinheit_A_120",
    "joint_names": [
        "shoulder_pan_joint",
        "shoulder_lift_joint",
        "elbow_joint",
        "wrist_1_joint",
        "wrist_2_joint",
        "wrist_3_joint"
    ],
    "metrics": {
        "cart_traj_len": 0.6534564753550487,
        "distance_elbow_joint": 0.3987893974261949,
        "distance_shoulder_lift_joint": 0.5369524946295499,
        "distance_shoulder_pan_joint": 1.0452241085306149,
        "distance_wrist_1_joint": 0.5461777696409535,
        "distance_wrist_2_joint": 0.6500501670206459,
        "distance_wrist_3_joint": 0.8285574270483766,
        "smoothness": 0.9143773294151485,
        "time": 0.152085126,
        "traj_len": 2.0014373245985833,
        "weighted_distance": 2.6189872384291393
    },
    "planner": "LazyPRM",
    "start": {
        "state": {
            "elbow_joint": 2.422574709923281,
            "shoulder_lift_joint": -1.3736533754116391,
            "shoulder_pan_joint": -0.33786336945926293,
            "wrist_1_joint": -1.0288603412921917,
            "wrist_2_joint": 1.2330224858903978,
            "wrist_3_joint": -3.094022268022082
        }
    },
    "waypoints": [
        {
            "positions": [
                -0.33786336945926293,
                -1.3736533754116391,
                2.422574709923281,
                -1.0288603412921917,
                1.2330224858903978,
                -3.094022268022082
            ]
        },
        {
            "positions": [
                -0.2931510819574736,
                -1.4592709773761126,
                2.459761485317634,
                -1.018835878114458,
                1.1154692165429945,
                -3.0149664530941016
            ]
        },
        {
            "positions": [
                -0.24843879445568423,
                -1.5448885793405858,
                2.496948260711987,
                -1.0088114149367242,
                0.997915947195591,
                -2.935910638166121
            ]
        },
        {
            "positions": [
                -0.20372650695389488,
                -1.6305061813050592,
                2.5341350361063393,
                -0.9987869517589905,
                0.8803626778481877,
                -2.856854823238141
            ]
        },
        {
            "positions": [
                -0.15901421945210553,
                -1.7161237832695324,
                2.571321811500692,
                -0.9887624885812567,
                0.7628094085007842,
                -2.7777990083101605
            ]
        },
        {
            "positions": [
                -0.11430193195031617,
                -1.8017413852340058,
                2.608508586895045,
                -0.978738025403523,
                0.6452561391533809,
                -2.69874319338218
            ]
        },
        {
            "positions": [
                0.022641846553295167,
                -1.819885466035203,
                2.5730326668193064,
                -0.8960621164448088,
                0.655636775867319,
                -2.7709562521169255
            ]
        },
        {
            "positions": [
                0.1595856250569065,
                -1.8380295468364003,
                2.5375567467435682,
                -0.8133862074860947,
                0.6660174125812572,
                -2.8431693108516716
            ]
        },
        {
            "positions": [
                0.2965294035605179,
                -1.8561736276375975,
                2.5020808266678296,
                -0.7307102985273806,
                0.6763980492951953,
                -2.915382369586417
            ]
        },
        {
            "positions": [
                0.43347318206412916,
                -1.8743177084387945,
                2.466604906592091,
                -0.6480343895686664,
                0.6867786860091335,
                -2.9875954283211628
            ]
        },
        {
            "positions": [
                0.5704169605677407,
                -1.8924617892399918,
                2.431128986516353,
                -0.5653584806099523,
                0.6971593227230717,
                -3.059808487055909
            ]
        },
        {
            "positions": [
                0.707360739071352,
                -1.910605870041189,
                2.395653066440614,
                -0.4826825716512382,
                0.7075399594370099,
                -3.1320215457906544
            ]
        }
    ]
}