{
    "goal": {
        "global_pose": {
            "orientation": {
                "w": 0.7031023502349854,
                "x": -0.7110244035720825,
                "y": 0.007748599164187908,
                "z": 0.005598929710686207
            },
            "position": {
                "x": 0.11585023208521307,
                "y": 0.44412534475326537,
                "z": 0.3711530566215515
            }
        },
        "name": "move_to_auspresseinheit_A"
    },
    "id": "LazyPRM_move_to_auspresseinheit_A_26",
    "joint_names": [
        "shoulder_pan_joint",
        "shoulder_lift_joint",
        "elbow_joint",
        "wrist_1_joint",
        "wrist_2_joint",
        "wrist_3_joint"
    ],
    "metrics": {
        "cart_traj_len": 1.1569371817677598,
        "distance_elbow_joint": 0.06540435813263112,
        "distance_shoulder_lift_joint": 0.5366294691642419,
        "distance_shoulder_pan_joint": 2.849942246622275,
        "distance_wrist_1_joint": 0.8642467636542392,
        "distance_wrist_2_joint": 2.139884536622767,
        "distance_wrist_3_joint": 0.8533126884468425,
        "smoothness": 1.121654077040402,
        "time": 0.056917603,
        "traj_len": 2.703593916001994,
        "weighted_distance": 3.4670126535410404
    },
    "planner": "LazyPRM",
    "start": {
        "state": {
            "elbow_joint": 2.422574709923281,
            "shoulder_lift_joint": -1.3736533754116391,
            "shoulder_pan_joint": -0.33786336945926293,
            "wrist_1_joint": -1.0288603412921917,
            "wrist_2_joint": 1.2330224858903978,
            "wrist_3_joint": -3.094022268022082
        }
    },
    "waypoints": [
        {
            "positions": [
                -0.33786336945926293,
                -1.3736533754116391,
                2.422574709923281,
                -1.0288603412921917,
                1.2330224858903978,
                -3.094022268022082
            ]
        },
        {
            "positions": [
                -0.42831357120613284,
                -1.4093966213054856,
                2.417912416114432,
                -0.9577994250255711,
                1.0992514385286714,
                -3.053077556339683
            ]
        },
        {
            "positions": [
                -0.5187637729530027,
                -1.445139867199332,
                2.4132501223055827,
                -0.8867385087589505,
                0.9654803911669451,
                -3.0121328446572835
            ]
        },
        {
            "positions": [
                -0.6092139746998726,
                -1.4808831130931785,
                2.4085878284967337,
                -0.8156775924923301,
                0.8317093438052188,
                -2.9711881329748837
            ]
        },
        {
            "positions": [
                -0.6996641764467425,
                -1.516626358987025,
                2.4039255346878847,
                -0.7446166762257094,
                0.6979382964434924,
                -2.9302434212924844
            ]
        },
        {
            "positions": [
                -0.7901143781936124,
                -1.5523696048808715,
                2.3992632408790353,
                -0.6735557599590889,
                0.5641672490817661,
                -2.889298709610085
            ]
        },
        {
            "positions": [
                -0.8805645799404822,
                -1.588112850774718,
                2.3946009470701863,
                -0.6024948436924684,
                0.4303962017200398,
                -2.8483539979276857
            ]
        },
        {
            "positions": [
                -0.971014781687352,
                -1.6238560966685645,
                2.3899386532613374,
                -0.5314339274258477,
                0.2966251543583135,
                -2.8074092862452864
            ]
        },
        {
            "positions": [
                -1.061464983434222,
                -1.659599342562411,
                2.3852763594524884,
                -0.46037301115922713,
                0.16285410699658698,
                -2.7664645745628866
            ]
        },
        {
            "positions": [
                -1.1519151851810918,
                -1.6953425884562574,
                2.380614065643639,
                -0.38931209489260665,
                0.029083059634860797,
                -2.7255198628804873
            ]
        },
        {
            "positions": [
                -1.2423653869279618,
                -1.7310858343501039,
                2.37595177183479,
                -0.31825117862598606,
                -0.1046879877268657,
                -2.684575151198088
            ]
        },
        {
            "positions": [
                -1.0262053614664532,
                -1.750996613264079,
                2.378038596284139,
                -0.33532202318021204,
                -0.015557536281809753,
                -2.7338935480450712
            ]
        },
        {
            "positions": [
                -0.8100453360049449,
                -1.7709073921780543,
                2.3801254207334877,
                -0.35239286773443795,
                0.0735729151632462,
                -2.7832119448920545
            ]
        },
        {
            "positions": [
                -0.5938853105434364,
                -1.7908181710920297,
                2.3822122451828367,
                -0.3694637122886639,
                0.1627033666083021,
                -2.8325303417390373
            ]
        },
        {
            "positions": [
                -0.37772528508192793,
                -1.8107289500060049,
                2.3842990696321857,
                -0.38653455684288984,
                0.2518338180533581,
                -2.8818487385860205
            ]
        },
        {
            "positions": [
                -0.16156525962041934,
                -1.83063972891998,
                2.3863858940815343,
                -0.40360540139711587,
                0.340964269498414,
                -2.931167135433004
            ]
        },
        {
            "positions": [
                0.05459476584108902,
                -1.8505505078339552,
                2.3884727185308834,
                -0.4206762459513418,
                0.4300947209434699,
                -2.980485532279987
            ]
        },
        {
            "positions": [
                0.2707547913025976,
                -1.8704612867479307,
                2.3905595429802324,
                -0.43774709050556776,
                0.519225172388526,
                -3.0298039291269703
            ]
        },
        {
            "positions": [
                0.486914816764106,
                -1.8903720656619059,
                2.392646367429581,
                -0.4548179350597937,
                0.6083556238335819,
                -3.079122325973953
            ]
        },
        {
            "positions": [
                0.7030748422256146,
                -1.910282844575881,
                2.39473319187893,
                -0.47188877961401965,
                0.6974860752786378,
                -3.1284407228209363
            ]
        }
    ]
}