{
    "goal": {
        "global_pose": {
            "orientation": {
                "w": 0.7047431468963623,
                "x": -0.7094548344612122,
                "y": 0.0024358443915843964,
                "z": -0.0022348060738295317
            },
            "position": {
                "x": 0.6094750761985779,
                "y": 0.3671506643295288,
                "z": 0.19426114857196808
            }
        },
        "name": "move_to_magneteinheit_A"
    },
    "id": "LazyPRM_move_to_magneteinheit_A_112",
    "joint_names": [
        "shoulder_pan_joint",
        "shoulder_lift_joint",
        "elbow_joint",
        "wrist_1_joint",
        "wrist_2_joint",
        "wrist_3_joint"
    ],
    "metrics": {
        "cart_traj_len": 2.0641920149926087,
        "distance_elbow_joint": 3.8785912992679883,
        "distance_shoulder_lift_joint": 1.055575329325812,
        "distance_shoulder_pan_joint": 1.2411044595188825,
        "distance_wrist_1_joint": 1.1527611228664174,
        "distance_wrist_2_joint": 1.4484397718416415,
        "distance_wrist_3_joint": 1.9280680279169795,
        "smoothness": 2.143878952441023e-16,
        "time": 0.08513720600000001,
        "traj_len": 3.271779334053218,
        "weighted_distance": 4.1426895806082
    },
    "planner": "LazyPRM",
    "start": {
        "state": {
            "elbow_joint": -1.919643507792019,
            "shoulder_lift_joint": -0.07675430207160344,
            "shoulder_pan_joint": -1.1188671864651873,
            "wrist_1_joint": 0.42560062535961957,
            "wrist_2_joint": 1.5706038300724876,
            "wrist_3_joint": 1.1188968870953055
        }
    },
    "waypoints": [
        {
            "positions": [
                -1.1188671864651873,
                -0.07675430207160344,
                -1.919643507792019,
                0.42560062535961957,
                1.5706038300724876,
                1.1188968870953055
            ]
        },
        {
            "positions": [
                -1.074542027196656,
                -0.11445342097609673,
                -1.7811223899610196,
                0.3844305852572475,
                1.5188738382210003,
                1.187756459520912
            ]
        },
        {
            "positions": [
                -1.0302168679281243,
                -0.15215253988059002,
                -1.6426012721300198,
                0.3432605451548755,
                1.4671438463695132,
                1.2566160319465183
            ]
        },
        {
            "positions": [
                -0.9858917086595929,
                -0.1898516587850833,
                -1.5040801542990203,
                0.30209050505250346,
                1.415413854518026,
                1.3254756043721247
            ]
        },
        {
            "positions": [
                -0.9415665493910613,
                -0.2275507776895766,
                -1.3655590364680208,
                0.2609204649501314,
                1.3636838626665388,
                1.3943351767977312
            ]
        },
        {
            "positions": [
                -0.8972413901225298,
                -0.2652498965940699,
                -1.2270379186370213,
                0.2197504248477593,
                1.3119538708150515,
                1.4631947492233377
            ]
        },
        {
            "positions": [
                -0.8529162308539983,
                -0.3029490154985632,
                -1.0885168008060218,
                0.1785803847453873,
                1.2602238789635645,
                1.532054321648944
            ]
        },
        {
            "positions": [
                -0.8085910715854667,
                -0.34064813440305647,
                -0.949995682975022,
                0.13741034464301521,
                1.2084938871120772,
                1.6009138940745504
            ]
        },
        {
            "positions": [
                -0.7642659123169353,
                -0.37834725330754976,
                -0.8114745651440225,
                0.0962403045406432,
                1.15676389526059,
                1.669773466500157
            ]
        },
        {
            "positions": [
                -0.7199407530484037,
                -0.41604637221204305,
                -0.6729534473130228,
                0.055070264438271066,
                1.1050339034091028,
                1.7386330389257632
            ]
        },
        {
            "positions": [
                -0.6756155937798722,
                -0.45374549111653634,
                -0.5344323294820232,
                0.013900224335899047,
                1.0533039115576157,
                1.8074926113513696
            ]
        },
        {
            "positions": [
                -0.6312904345113406,
                -0.4914446100210296,
                -0.3959112116510237,
                -0.02726981576647297,
                1.0015739197061284,
                1.876352183776976
            ]
        },
        {
            "positions": [
                -0.5869652752428092,
                -0.529143728925523,
                -0.2573900938200242,
                -0.06843985586884499,
                0.9498439278546412,
                1.9452117562025824
            ]
        },
        {
            "positions": [
                -0.5426401159742776,
                -0.5668428478300163,
                -0.11886897598902446,
                -0.10960989597121712,
                0.898113936003154,
                2.014071328628189
            ]
        },
        {
            "positions": [
                -0.4983149567057461,
                -0.6045419667345096,
                0.019652141841975057,
                -0.15077993607358914,
                0.8463839441516668,
                2.0829309010537953
            ]
        },
        {
            "positions": [
                -0.45398979743721457,
                -0.6422410856390028,
                0.15817325967297458,
                -0.19194997617596116,
                0.7946539523001797,
                2.1517904734794016
            ]
        },
        {
            "positions": [
                -0.40966463816868315,
                -0.6799402045434961,
                0.2966943775039741,
                -0.23312001627833318,
                0.7429239604486925,
                2.220650045905008
            ]
        },
        {
            "positions": [
                -0.3653394789001516,
                -0.7176393234479894,
                0.4352154953349736,
                -0.2742900563807052,
                0.6911939685972053,
                2.2895096183306145
            ]
        },
        {
            "positions": [
                -0.32101431963161997,
                -0.7553384423524827,
                0.5737366131659736,
                -0.31546009648307743,
                0.639463976745718,
                2.358369190756221
            ]
        },
        {
            "positions": [
                -0.27668916036308844,
                -0.793037561256976,
                0.7122577309969731,
                -0.35663013658544945,
                0.5877339848942308,
                2.4272287631818275
            ]
        },
        {
            "positions": [
                -0.23236400109455702,
                -0.8307366801614693,
                0.8507788488279726,
                -0.39780017668782147,
                0.5360039930427436,
                2.4960883356074337
            ]
        },
        {
            "positions": [
                -0.18803884182602548,
                -0.8684357990659626,
                0.9892999666589721,
                -0.4389702167901935,
                0.4842740011912565,
                2.56494790803304
            ]
        },
        {
            "positions": [
                -0.14371368255749395,
                -0.9061349179704559,
                1.1278210844899716,
                -0.4801402568925655,
                0.4325440093397692,
                2.6338074804586467
            ]
        },
        {
            "positions": [
                -0.09938852328896242,
                -0.9438340368749492,
                1.2663422023209712,
                -0.5213102969949375,
                0.38081401748828214,
                2.702667052884253
            ]
        },
        {
            "positions": [
                -0.055063364020430994,
                -0.9815331557794424,
                1.4048633201519707,
                -0.5624803370973095,
                0.32908402563679484,
                2.7715266253098596
            ]
        },
        {
            "positions": [
                -0.01073820475189935,
                -1.0192322746839357,
                1.5433844379829706,
                -0.6036503771996817,
                0.27735403378530754,
                2.840386197735466
            ]
        },
        {
            "positions": [
                0.03358695451663207,
                -1.056931393588429,
                1.6819055558139702,
                -0.6448204173020537,
                0.22562404193382046,
                2.909245770161072
            ]
        },
        {
            "positions": [
                0.07791211378516372,
                -1.0946305124929223,
                1.8204266736449697,
                -0.6859904574044258,
                0.17389405008233316,
                2.9781053425866784
            ]
        },
        {
            "positions": [
                0.12223727305369504,
                -1.1323296313974156,
                1.9589477914759692,
                -0.7271604975067979,
                0.122164058230846,
                3.046964915012285
            ]
        }
    ]
}