{
    "goal": {
        "global_pose": {
            "orientation": {
                "w": 0.7031023502349854,
                "x": -0.7110244035720825,
                "y": 0.007748599164187908,
                "z": 0.005598929710686207
            },
            "position": {
                "x": 0.11585023208521307,
                "y": 0.44412534475326537,
                "z": 0.3711530566215515
            }
        },
        "name": "move_to_auspresseinheit_A"
    },
    "id": "LazyPRMstar_move_to_auspresseinheit_A_56",
    "joint_names": [
        "shoulder_pan_joint",
        "shoulder_lift_joint",
        "elbow_joint",
        "wrist_1_joint",
        "wrist_2_joint",
        "wrist_3_joint"
    ],
    "metrics": {
        "cart_traj_len": 0.8719853202042744,
        "distance_elbow_joint": 0.6261305769252097,
        "distance_shoulder_lift_joint": 0.5359071558805935,
        "distance_shoulder_pan_joint": 1.1515460275100495,
        "distance_wrist_1_joint": 0.8707196824916482,
        "distance_wrist_2_joint": 1.0208191821815196,
        "distance_wrist_3_joint": 0.5204876218224483,
        "smoothness": 0.9705772007882134,
        "time": 5.005112305,
        "traj_len": 2.1738468774988426,
        "weighted_distance": 2.7673316308548084
    },
    "planner": "LazyPRMstar",
    "start": {
        "state": {
            "elbow_joint": 2.422574709923281,
            "shoulder_lift_joint": -1.3736533754116391,
            "shoulder_pan_joint": -0.33786336945926293,
            "wrist_1_joint": -1.0288603412921917,
            "wrist_2_joint": 1.2330224858903978,
            "wrist_3_joint": -3.094022268022082
        }
    },
    "waypoints": [
        {
            "positions": [
                -0.33786336945926293,
                -1.3736533754116391,
                2.422574709923281,
                -1.0288603412921917,
                1.2330224858903978,
                -3.094022268022082
            ]
        },
        {
            "positions": [
                -0.34670559135125517,
                -1.4051217564718719,
                2.368114805734577,
                -0.9097729629277709,
                1.1045540610436446,
                -3.141103426716562
            ]
        },
        {
            "positions": [
                -0.3555478132432474,
                -1.4365901375321048,
                2.3136549015458736,
                -0.79068558456335,
                0.9760856361968915,
                -3.1881845854110415
            ]
        },
        {
            "positions": [
                -0.3643900351352397,
                -1.4680585185923376,
                2.2591949973571697,
                -0.6715982061989292,
                0.8476172113501383,
                -3.2352657441055213
            ]
        },
        {
            "positions": [
                -0.37323225702723195,
                -1.4995268996525704,
                2.2047350931684657,
                -0.5525108278345083,
                0.7191487865033852,
                -3.2823469028000005
            ]
        },
        {
            "positions": [
                -0.3820744789192242,
                -1.5309952807128033,
                2.150275188979762,
                -0.4334234494700875,
                0.5906803616566321,
                -3.3294280614944802
            ]
        },
        {
            "positions": [
                -0.39091670081121643,
                -1.562463661773036,
                2.0958152847910583,
                -0.31433607110566664,
                0.46221193680987893,
                -3.37650922018896
            ]
        },
        {
            "positions": [
                -0.23398917278863132,
                -1.612048928847207,
                2.1385825921900565,
                -0.3366497014349699,
                0.49792745582430764,
                -3.3425091245238785
            ]
        },
        {
            "positions": [
                -0.07706164476604621,
                -1.6616341959213778,
                2.1813498995890543,
                -0.35896333176427325,
                0.5336429748387364,
                -3.308509028858797
            ]
        },
        {
            "positions": [
                0.07986588325653893,
                -1.7112194629955488,
                2.2241172069880526,
                -0.38127696209357653,
                0.5693584938531651,
                -3.2745089331937156
            ]
        },
        {
            "positions": [
                0.236793411279124,
                -1.7608047300697198,
                2.266884514387051,
                -0.40359059242287987,
                0.6050740128675937,
                -3.2405088375286337
            ]
        },
        {
            "positions": [
                0.39372093930170915,
                -1.8103899971438908,
                2.309651821786049,
                -0.42590422275218315,
                0.6407895318820224,
                -3.2065087418635523
            ]
        },
        {
            "positions": [
                0.5506484673242943,
                -1.8599752642180616,
                2.352419129185047,
                -0.44821785308148643,
                0.6765050508964511,
                -3.172508646198471
            ]
        },
        {
            "positions": [
                0.7075759953468794,
                -1.9095605312922326,
                2.395186436584045,
                -0.47053148341078976,
                0.7122205699108798,
                -3.1385085505333894
            ]
        }
    ]
}