{
    "goal": {
        "global_pose": {
            "orientation": {
                "w": 0.7047431468963623,
                "x": -0.7094548344612122,
                "y": 0.0024358443915843964,
                "z": -0.0022348060738295317
            },
            "position": {
                "x": 0.6094750761985779,
                "y": 0.3671506643295288,
                "z": 0.19426114857196808
            }
        },
        "name": "move_to_magneteinheit_A"
    },
    "id": "LazyPRMstar_move_to_magneteinheit_A_120",
    "joint_names": [
        "shoulder_pan_joint",
        "shoulder_lift_joint",
        "elbow_joint",
        "wrist_1_joint",
        "wrist_2_joint",
        "wrist_3_joint"
    ],
    "metrics": {
        "cart_traj_len": 1.8796143716713516,
        "distance_elbow_joint": 3.910107516403654,
        "distance_shoulder_lift_joint": 0.6983449833403923,
        "distance_shoulder_pan_joint": 1.2421037891455458,
        "distance_wrist_1_joint": 1.4824985064370948,
        "distance_wrist_2_joint": 1.710056292240176,
        "distance_wrist_3_joint": 1.0992029133882044,
        "smoothness": 6.908054403019362e-16,
        "time": 5.001098056,
        "traj_len": 3.184699986019887,
        "weighted_distance": 3.9412275532388064
    },
    "planner": "LazyPRMstar",
    "start": {
        "state": {
            "elbow_joint": -1.919643507792019,
            "shoulder_lift_joint": -0.07675430207160344,
            "shoulder_pan_joint": -1.1188671864651873,
            "wrist_1_joint": 0.42560062535961957,
            "wrist_2_joint": 1.5706038300724876,
            "wrist_3_joint": 1.1188968870953055
        }
    },
    "waypoints": [
        {
            "positions": [
                -1.1188671864651873,
                -0.07675430207160344,
                -1.919643507792019,
                0.42560062535961957,
                1.5706038300724876,
                1.1188968870953055
            ]
        },
        {
            "positions": [
                -1.0710939638057433,
                -0.10361372450777237,
                -1.7692547571611092,
                0.4826197986841232,
                1.5048324342170962,
                1.07661985196499
            ]
        },
        {
            "positions": [
                -1.0233207411462992,
                -0.1304731469439413,
                -1.6188660065301996,
                0.5396389720086269,
                1.4390610383617048,
                1.0343428168346744
            ]
        },
        {
            "positions": [
                -0.9755475184868552,
                -0.15733256938011025,
                -1.4684772558992898,
                0.5966581453331306,
                1.3732896425063135,
                0.9920657817043589
            ]
        },
        {
            "positions": [
                -0.9277742958274111,
                -0.18419199181627918,
                -1.31808850526838,
                0.6536773186576341,
                1.307518246650922,
                0.9497887465740433
            ]
        },
        {
            "positions": [
                -0.880001073167967,
                -0.2110514142524481,
                -1.1676997546374701,
                0.7106964919821378,
                1.2417468507955307,
                0.9075117114437278
            ]
        },
        {
            "positions": [
                -0.832227850508523,
                -0.23791083668861707,
                -1.0173110040065603,
                0.7677156653066415,
                1.1759754549401393,
                0.8652346763134122
            ]
        },
        {
            "positions": [
                -0.7844546278490789,
                -0.26477025912478597,
                -0.8669222533756507,
                0.824734838631145,
                1.110204059084748,
                0.8229576411830967
            ]
        },
        {
            "positions": [
                -0.7366814051896348,
                -0.2916296815609549,
                -0.7165335027447408,
                0.8817540119556488,
                1.0444326632293564,
                0.7806806060527811
            ]
        },
        {
            "positions": [
                -0.6889081825301908,
                -0.3184891039971238,
                -0.5661447521138312,
                0.9387731852801524,
                0.9786612673739651,
                0.7384035709224656
            ]
        },
        {
            "positions": [
                -0.6411349598707466,
                -0.3453485264332928,
                -0.41575600148292136,
                0.995792358604656,
                0.9128898715185737,
                0.69612653579215
            ]
        },
        {
            "positions": [
                -0.5933617372113026,
                -0.37220794886946174,
                -0.2653672508520115,
                1.0528115319291598,
                0.8471184756631823,
                0.6538495006618344
            ]
        },
        {
            "positions": [
                -0.5455885145518585,
                -0.3990673713056307,
                -0.11497850022110168,
                1.1098307052536633,
                0.781347079807791,
                0.6115724655315189
            ]
        },
        {
            "positions": [
                -0.49781529189241447,
                -0.4259267937417996,
                0.03541025040980794,
                1.166849878578167,
                0.7155756839523996,
                0.5692954304012033
            ]
        },
        {
            "positions": [
                -0.4500420692329704,
                -0.4527862161779685,
                0.18579900104071778,
                1.2238690519026705,
                0.6498042880970082,
                0.5270183952708878
            ]
        },
        {
            "positions": [
                -0.40226884657352635,
                -0.47964563861413745,
                0.3361877516716272,
                1.2808882252271743,
                0.5840328922416169,
                0.48474136014057234
            ]
        },
        {
            "positions": [
                -0.3544956239140822,
                -0.5065050610503063,
                0.48657650230253746,
                1.337907398551678,
                0.5182614963862253,
                0.4424643250102567
            ]
        },
        {
            "positions": [
                -0.30672240125463823,
                -0.5333644834864754,
                0.6369652529334469,
                1.3949265718761816,
                0.45249010053083394,
                0.4001872898799411
            ]
        },
        {
            "positions": [
                -0.2589491785951942,
                -0.5602239059226443,
                0.7873540035643567,
                1.4519457452006852,
                0.38671870467544256,
                0.35791025474962557
            ]
        },
        {
            "positions": [
                -0.21117595593575011,
                -0.5870833283588133,
                0.9377427541952665,
                1.5089649185251888,
                0.3209473088200514,
                0.31563321961931
            ]
        },
        {
            "positions": [
                -0.16340273327630594,
                -0.6139427507949822,
                1.0881315048261764,
                1.5659840918496926,
                0.2551759129646598,
                0.27335618448899446
            ]
        },
        {
            "positions": [
                -0.11562951061686189,
                -0.6408021732311511,
                1.2385202554570862,
                1.6230032651741961,
                0.18940451710926842,
                0.2310791493586789
            ]
        },
        {
            "positions": [
                -0.06785628795741783,
                -0.66766159566732,
                1.388909006087996,
                1.6800224384987,
                0.12363312125387704,
                0.18880211422836335
            ]
        },
        {
            "positions": [
                -0.020083065297973768,
                -0.6945210181034889,
                1.5392977567189055,
                1.7370416118232035,
                0.057861725398485664,
                0.1465250790980478
            ]
        },
        {
            "positions": [
                0.02769015736147029,
                -0.721380440539658,
                1.6896865073498157,
                1.7940607851477073,
                -0.007909670456905715,
                0.10424804396773224
            ]
        },
        {
            "positions": [
                0.07546338002091435,
                -0.7482398629758269,
                1.8400752579807251,
                1.8510799584722109,
                -0.0736810663122971,
                0.061971008837416575
            ]
        },
        {
            "positions": [
                0.12323660268035849,
                -0.7750992854119958,
                1.9904640086116352,
                1.9080991317967144,
                -0.1394524621676884,
                0.019693973707101176
            ]
        }
    ]
}