{
    "goal": {
        "global_pose": {
            "orientation": {
                "w": 0.7031023502349854,
                "x": -0.7110244035720825,
                "y": 0.007748599164187908,
                "z": 0.005598929710686207
            },
            "position": {
                "x": 0.11585023208521307,
                "y": 0.44412534475326537,
                "z": 0.3711530566215515
            }
        },
        "name": "move_to_auspresseinheit_A"
    },
    "id": "LazyPRMstar_move_to_auspresseinheit_A_149",
    "joint_names": [
        "shoulder_pan_joint",
        "shoulder_lift_joint",
        "elbow_joint",
        "wrist_1_joint",
        "wrist_2_joint",
        "wrist_3_joint"
    ],
    "metrics": {
        "cart_traj_len": 0.7632354912854825,
        "distance_elbow_joint": 0.0531612045050025,
        "distance_shoulder_lift_joint": 0.5310879369528996,
        "distance_shoulder_pan_joint": 1.3276952604728285,
        "distance_wrist_1_joint": 0.5666041968528397,
        "distance_wrist_2_joint": 0.5244210294276016,
        "distance_wrist_3_joint": 0.10377141360978204,
        "smoothness": 0.5234058193872153,
        "time": 5.014065317,
        "traj_len": 1.7625949738442335,
        "weighted_distance": 2.098882820769411
    },
    "planner": "LazyPRMstar",
    "start": {
        "state": {
            "elbow_joint": 2.422574709923281,
            "shoulder_lift_joint": -1.3736533754116391,
            "shoulder_pan_joint": -0.33786336945926293,
            "wrist_1_joint": -1.0288603412921917,
            "wrist_2_joint": 1.2330224858903978,
            "wrist_3_joint": -3.094022268022082
        }
    },
    "waypoints": [
        {
            "positions": [
                -0.33786336945926293,
                -1.3736533754116391,
                2.422574709923281,
                -1.0288603412921917,
                1.2330224858903978,
                -3.094022268022082
            ]
        },
        {
            "positions": [
                -0.38484855008657753,
                -1.4142806230474383,
                2.408429540575342,
                -0.8868588242950906,
                1.1893813770597532,
                -3.1194633377067382
            ]
        },
        {
            "positions": [
                -0.4318337307138921,
                -1.4549078706832375,
                2.394284371227404,
                -0.7448573072979893,
                1.1457402682291087,
                -3.1449044073913948
            ]
        },
        {
            "positions": [
                -0.4788189113412067,
                -1.4955351183190366,
                2.380139201879465,
                -0.602855790300888,
                1.1020991593984641,
                -3.170345477076051
            ]
        },
        {
            "positions": [
                -0.2810289582427259,
                -1.5637361506599536,
                2.3819268179563293,
                -0.579422515990632,
                1.0365162089091862,
                -3.165770776316749
            ]
        },
        {
            "positions": [
                -0.08323900514424509,
                -1.6319371830008707,
                2.3837144340331937,
                -0.555989241680376,
                0.9709332584199082,
                -3.1611960755574464
            ]
        },
        {
            "positions": [
                0.1145509479542357,
                -1.7001382153417877,
                2.385502050110058,
                -0.53255596737012,
                0.9053503079306302,
                -3.156621374798144
            ]
        },
        {
            "positions": [
                0.3123409010527165,
                -1.7683392476827047,
                2.3872896661869225,
                -0.509122693059864,
                0.8397673574413522,
                -3.152046674038842
            ]
        },
        {
            "positions": [
                0.5101308541511973,
                -1.8365402800236217,
                2.389077282263787,
                -0.485689418749608,
                0.7741844069520741,
                -3.14747197327954
            ]
        },
        {
            "positions": [
                0.7079208072496781,
                -1.9047413123645387,
                2.3908648983406513,
                -0.46225614443935203,
                0.7086014564627962,
                -3.1428972725202375
            ]
        }
    ]
}