{
    "goal": {
        "global_pose": {
            "orientation": {
                "w": 0.5084816217422485,
                "x": -0.49083608388900757,
                "y": 0.5182115435600281,
                "z": -0.4816462993621826
            },
            "position": {
                "x": 0.5540239810943604,
                "y": 0.030875300988554955,
                "z": 0.16403168439865112
            }
        },
        "name": "move_to_storage_A"
    },
    "id": "LazyPRM_move_to_storage_A_2",
    "joint_names": [
        "shoulder_pan_joint",
        "shoulder_lift_joint",
        "elbow_joint",
        "wrist_1_joint",
        "wrist_2_joint",
        "wrist_3_joint"
    ],
    "metrics": {
        "cart_traj_len": 0.3528152113224159,
        "distance_elbow_joint": 0.4490530793707408,
        "distance_shoulder_lift_joint": 0.23349447392023026,
        "distance_shoulder_pan_joint": 0.4611585882256271,
        "distance_wrist_1_joint": 0.2452970314681956,
        "distance_wrist_2_joint": 1.0981374141478812,
        "distance_wrist_3_joint": 0.0927361636740045,
        "smoothness": 4.440892098500626e-16,
        "time": 0.022025296,
        "traj_len": 1.606199474164613,
        "weighted_distance": 2.027013449331495
    },
    "planner": "LazyPRM",
    "start": {
        "state": {
            "elbow_joint": 1.9715463870305268,
            "shoulder_lift_joint": -1.1394903361783484,
            "shoulder_pan_joint": 0.12281147578464417,
            "wrist_1_joint": -0.7804599489681411,
            "wrist_2_joint": 0.12958660307563738,
            "wrist_3_joint": -3.1924946282119055
        }
    },
    "waypoints": [
        {
            "positions": [
                0.12281147578464417,
                -1.1394903361783484,
                1.9715463870305268,
                -0.7804599489681411,
                0.12958660307563738,
                -3.1924946282119055
            ]
        },
        {
            "positions": [
                0.056931677466697445,
                -1.172846689595524,
                2.0356968269406326,
                -0.8155023820350261,
                0.2864633765253347,
                -3.179246604829905
            ]
        },
        {
            "positions": [
                -0.008948120851249283,
                -1.2062030430127,
                2.0998472668507384,
                -0.8505448151019113,
                0.443340149975032,
                -3.165998581447904
            ]
        },
        {
            "positions": [
                -0.074827919169196,
                -1.2395593964298757,
                2.1639977067608442,
                -0.8855872481687963,
                0.6002169234247293,
                -3.1527505580659034
            ]
        },
        {
            "positions": [
                -0.14070771748714272,
                -1.2729157498470514,
                2.22814814667095,
                -0.9206296812356815,
                0.7570936968744266,
                -3.139502534683903
            ]
        },
        {
            "positions": [
                -0.2065875158050895,
                -1.3062721032642273,
                2.292298586581056,
                -0.9556721143025665,
                0.913970470324124,
                -3.1262545113019025
            ]
        },
        {
            "positions": [
                -0.27246731412303615,
                -1.339628456681403,
                2.3564490264911617,
                -0.9907145473694516,
                1.0708472437738212,
                -3.1130064879199018
            ]
        },
        {
            "positions": [
                -0.3383471124409829,
                -1.3729848100985786,
                2.4205994664012676,
                -1.0257569804363367,
                1.2277240172235186,
                -3.099758464537901
            ]
        }
    ]
}