{
    "goal": {
        "global_pose": {
            "orientation": {
                "w": 0.7031023502349854,
                "x": -0.7110244035720825,
                "y": 0.007748599164187908,
                "z": 0.005598929710686207
            },
            "position": {
                "x": 0.11585023208521307,
                "y": 0.44412534475326537,
                "z": 0.3711530566215515
            }
        },
        "name": "move_to_auspresseinheit_A"
    },
    "id": "LazyPRMstar_move_to_auspresseinheit_A_6",
    "joint_names": [
        "shoulder_pan_joint",
        "shoulder_lift_joint",
        "elbow_joint",
        "wrist_1_joint",
        "wrist_2_joint",
        "wrist_3_joint"
    ],
    "metrics": {
        "cart_traj_len": 1.3366626842075024,
        "distance_elbow_joint": 0.5932963492198056,
        "distance_shoulder_lift_joint": 0.7432422388834596,
        "distance_shoulder_pan_joint": 1.4859930460431312,
        "distance_wrist_1_joint": 1.1505276134686855,
        "distance_wrist_2_joint": 0.8944680623172314,
        "distance_wrist_3_joint": 0.0366729705381581,
        "smoothness": 0.8601309891937399,
        "time": 5.0092894050000005,
        "traj_len": 2.2145429055384027,
        "weighted_distance": 2.650007905145323
    },
    "planner": "LazyPRMstar",
    "start": {
        "state": {
            "elbow_joint": 2.422574709923281,
            "shoulder_lift_joint": -1.3736533754116391,
            "shoulder_pan_joint": -0.33786336945926293,
            "wrist_1_joint": -1.0288603412921917,
            "wrist_2_joint": 1.2330224858903978,
            "wrist_3_joint": -3.094022268022082
        }
    },
    "waypoints": [
        {
            "positions": [
                -0.33786336945926293,
                -1.3736533754116391,
                2.422574709923281,
                -1.0288603412921917,
                1.2330224858903978,
                -3.094022268022082
            ]
        },
        {
            "positions": [
                -0.15740016955069197,
                -1.465024987311946,
                2.3783219378748535,
                -1.0720478803274016,
                1.258757825533445,
                -3.098609393349049
            ]
        },
        {
            "positions": [
                0.02306303035787899,
                -1.5563965992122528,
                2.3340691658264263,
                -1.1152354193626115,
                1.2844931651764924,
                -3.1031965186760164
            ]
        },
        {
            "positions": [
                0.20352623026644995,
                -1.6477682111125598,
                2.2898163937779987,
                -1.1584229583978214,
                1.3102285048195397,
                -3.1077836440029833
            ]
        },
        {
            "positions": [
                0.3839894301750209,
                -1.7391398230128667,
                2.2455636217295716,
                -1.2016104974330313,
                1.3359638444625868,
                -3.1123707693299507
            ]
        },
        {
            "positions": [
                0.5644526300835919,
                -1.8305114349131735,
                2.201310849681144,
                -1.2447980364682412,
                1.361699184105634,
                -3.1169578946569176
            ]
        },
        {
            "positions": [
                0.7449158299921628,
                -1.9218830468134804,
                2.157058077632717,
                -1.287985575503451,
                1.3874345237486814,
                -3.121545019983885
            ]
        },
        {
            "positions": [
                0.9253790299007338,
                -2.0132546587137874,
                2.1128053055842893,
                -1.331173114538661,
                1.4131698633917287,
                -3.126132145310852
            ]
        },
        {
            "positions": [
                0.9155595951723549,
                -2.009962317788675,
                2.157265743836244,
                -1.1827890739148903,
                1.286375941953045,
                -3.12659865717079
            ]
        },
        {
            "positions": [
                0.905740160443976,
                -2.006669976863563,
                2.2017261820881986,
                -1.0344050332911197,
                1.1595820205143612,
                -3.127065169030728
            ]
        },
        {
            "positions": [
                0.895920725715597,
                -2.0033776359384508,
                2.2461866203401533,
                -0.8860209926673491,
                1.0327880990756773,
                -3.1275316808906664
            ]
        },
        {
            "positions": [
                0.8314899448829312,
                -1.9721229916697924,
                2.2962351637151364,
                -0.7516667532170476,
                0.9214751255757275,
                -3.126477161667475
            ]
        },
        {
            "positions": [
                0.7670591640502653,
                -1.9408683474011343,
                2.34628370709012,
                -0.6173125137667461,
                0.8101621520757779,
                -3.125422642444284
            ]
        },
        {
            "positions": [
                0.7026283832175994,
                -1.909613703132476,
                2.396332250465103,
                -0.48295827431644456,
                0.6988491785758282,
                -3.1243681232210925
            ]
        }
    ]
}