{
    "goal": {
        "global_pose": {
            "orientation": {
                "w": 0.7047431468963623,
                "x": -0.7094548344612122,
                "y": 0.0024358443915843964,
                "z": -0.0022348060738295317
            },
            "position": {
                "x": 0.6094750761985779,
                "y": 0.3671506643295288,
                "z": 0.19426114857196808
            }
        },
        "name": "move_to_magneteinheit_A"
    },
    "id": "LazyPRMstar_move_to_magneteinheit_A_64",
    "joint_names": [
        "shoulder_pan_joint",
        "shoulder_lift_joint",
        "elbow_joint",
        "wrist_1_joint",
        "wrist_2_joint",
        "wrist_3_joint"
    ],
    "metrics": {
        "cart_traj_len": 2.023630649262824,
        "distance_elbow_joint": 3.8824349210035622,
        "distance_shoulder_lift_joint": 1.0588329564410808,
        "distance_shoulder_pan_joint": 1.2422129733443346,
        "distance_wrist_1_joint": 1.16957129456715,
        "distance_wrist_2_joint": 1.4435858399873092,
        "distance_wrist_3_joint": 4.348402439130451,
        "smoothness": 5.329070524609404e-16,
        "time": 5.026634325,
        "traj_len": 3.6256089729139145,
        "weighted_distance": 4.945199939061033
    },
    "planner": "LazyPRMstar",
    "start": {
        "state": {
            "elbow_joint": -1.919643507792019,
            "shoulder_lift_joint": -0.07675430207160344,
            "shoulder_pan_joint": -1.1188671864651873,
            "wrist_1_joint": 0.42560062535961957,
            "wrist_2_joint": 1.5706038300724876,
            "wrist_3_joint": 1.1188968870953055
        }
    },
    "waypoints": [
        {
            "positions": [
                -1.1188671864651873,
                -0.07675430207160344,
                -1.919643507792019,
                0.42560062535961957,
                1.5706038300724876,
                1.1188968870953055
            ]
        },
        {
            "positions": [
                -1.0796944534979824,
                -0.11345627762819144,
                -1.8123503167030974,
                0.38997372203581016,
                1.532825333128691,
                0.9906717587748886
            ]
        },
        {
            "positions": [
                -1.0405217205307777,
                -0.15015825318477943,
                -1.7050571256141756,
                0.3543468187120008,
                1.4950468361848945,
                0.8624466304544715
            ]
        },
        {
            "positions": [
                -1.0013489875635728,
                -0.18686022874136743,
                -1.597763934525254,
                0.3187199153881914,
                1.4572683392410979,
                0.7342215021340545
            ]
        },
        {
            "positions": [
                -0.962176254596368,
                -0.2235622042979554,
                -1.4904707434363322,
                0.283093012064382,
                1.4194898422973015,
                0.6059963738136374
            ]
        },
        {
            "positions": [
                -0.9230035216291632,
                -0.2602641798545434,
                -1.3831775523474104,
                0.24746610874057262,
                1.3817113453535048,
                0.47777124549322036
            ]
        },
        {
            "positions": [
                -0.8838307886619583,
                -0.29696615541113136,
                -1.2758843612584885,
                0.2118392054167632,
                1.3439328484097084,
                0.34954611717280337
            ]
        },
        {
            "positions": [
                -0.8446580556947535,
                -0.33366813096771936,
                -1.168591170169567,
                0.17621230209295383,
                1.3061543514659117,
                0.22132098885238627
            ]
        },
        {
            "positions": [
                -0.8054853227275487,
                -0.37037010652430735,
                -1.0612979790806452,
                0.14058539876914444,
                1.268375854522115,
                0.09309586053196917
            ]
        },
        {
            "positions": [
                -0.7663125897603438,
                -0.40707208208089535,
                -0.9540047879917234,
                0.10495849544533503,
                1.2305973575783187,
                -0.03512926778844783
            ]
        },
        {
            "positions": [
                -0.727139856793139,
                -0.44377405763748334,
                -0.8467115969028016,
                0.06933159212152568,
                1.192818860634522,
                -0.16335439610886482
            ]
        },
        {
            "positions": [
                -0.6879671238259342,
                -0.48047603319407134,
                -0.73941840581388,
                0.033704688797716265,
                1.1550403636907256,
                -0.2915795244292818
            ]
        },
        {
            "positions": [
                -0.6487943908587293,
                -0.5171780087506593,
                -0.6321252147249581,
                -0.0019222145260931467,
                1.117261866746929,
                -0.4198046527496988
            ]
        },
        {
            "positions": [
                -0.6096216578915244,
                -0.5538799843072473,
                -0.5248320236360364,
                -0.0375491178499025,
                1.0794833698031323,
                -0.5480297810701158
            ]
        },
        {
            "positions": [
                -0.5704489249243196,
                -0.5905819598638353,
                -0.41753883254711477,
                -0.07317602117371191,
                1.0417048728593359,
                -0.676254909390533
            ]
        },
        {
            "positions": [
                -0.5312761919571147,
                -0.6272839354204234,
                -0.3102456414581929,
                -0.10880292449752132,
                1.0039263759155392,
                -0.8044800377109502
            ]
        },
        {
            "positions": [
                -0.4921034589899099,
                -0.6639859109770112,
                -0.20295245036927123,
                -0.14442982782133068,
                0.9661478789717427,
                -0.9327051660313672
            ]
        },
        {
            "positions": [
                -0.452930726022705,
                -0.7006878865335993,
                -0.09565925928034935,
                -0.18005673114514015,
                0.9283693820279462,
                -1.0609302943517842
            ]
        },
        {
            "positions": [
                -0.4137579930555002,
                -0.7373898620901873,
                0.011633931808572306,
                -0.2156836344689495,
                0.8905908850841496,
                -1.1891554226722012
            ]
        },
        {
            "positions": [
                -0.3745852600882954,
                -0.7740918376467754,
                0.11892712289749396,
                -0.25131053779275886,
                0.852812388140353,
                -1.3173805509926182
            ]
        },
        {
            "positions": [
                -0.3354125271210906,
                -0.8107938132033632,
                0.22622031398641584,
                -0.2869374411165682,
                0.8150338911965566,
                -1.4456056793130352
            ]
        },
        {
            "positions": [
                -0.2962397941538857,
                -0.8474957887599512,
                0.3335135050753377,
                -0.3225643444403777,
                0.7772553942527599,
                -1.5738308076334522
            ]
        },
        {
            "positions": [
                -0.2570670611866809,
                -0.8841977643165393,
                0.44080669616425916,
                -0.35819124776418704,
                0.7394768973089634,
                -1.7020559359538692
            ]
        },
        {
            "positions": [
                -0.21789432821947596,
                -0.9208997398731273,
                0.548099887253181,
                -0.3938181510879965,
                0.7016984003651668,
                -1.8302810642742866
            ]
        },
        {
            "positions": [
                -0.17872159525227116,
                -0.9576017154297152,
                0.6553930783421029,
                -0.42944505441180586,
                0.6639199034213703,
                -1.9585061925947032
            ]
        },
        {
            "positions": [
                -0.13954886228506636,
                -0.9943036909863032,
                0.7626862694310248,
                -0.4650719577356152,
                0.6261414064775737,
                -2.0867313209151206
            ]
        },
        {
            "positions": [
                -0.10037612931786155,
                -1.0310056665428913,
                0.8699794605199462,
                -0.5006988610594245,
                0.5883629095337772,
                -2.214956449235537
            ]
        },
        {
            "positions": [
                -0.06120339635065672,
                -1.0677076420994793,
                0.9772726516088682,
                -0.536325764383234,
                0.5505844125899806,
                -2.3431815775559546
            ]
        },
        {
            "positions": [
                -0.03483922731782767,
                -1.0774047301585086,
                1.118061046123536,
                -0.5659893222152763,
                0.49007492366072314,
                -2.469799288195839
            ]
        },
        {
            "positions": [
                -0.008475058284998623,
                -1.0871018182175378,
                1.2588494406382043,
                -0.5956528800473186,
                0.4295654347314657,
                -2.5964169988357235
            ]
        },
        {
            "positions": [
                0.017889110747830422,
                -1.096798906276567,
                1.399637835152872,
                -0.625316437879361,
                0.36905594580220824,
                -2.7230347094756078
            ]
        },
        {
            "positions": [
                0.044253279780659474,
                -1.1064959943355965,
                1.5404262296675402,
                -0.6549799957114032,
                0.3085464568729508,
                -2.8496524201154925
            ]
        },
        {
            "positions": [
                0.07061744881348853,
                -1.1161930823946258,
                1.6812146241822081,
                -0.6846435535434455,
                0.24803696794369334,
                -2.9762701307553767
            ]
        },
        {
            "positions": [
                0.09698161784631756,
                -1.125890170453655,
                1.822003018696876,
                -0.7143071113754879,
                0.1875274790144359,
                -3.102887841395261
            ]
        },
        {
            "positions": [
                0.12334578687914664,
                -1.1355872585126843,
                1.962791413211544,
                -0.7439706692075302,
                0.12701799008517847,
                -3.2295055520351457
            ]
        }
    ]
}